,SECURITYCODE_x,NETPROFIT_x,PARENTNETPROFIT_x,REPORTDATE_x,REPORTTIMETYPE_x,KCFJCXSYJLR,Year,Month,managesituationChangeRate,managesituationGreatChange,historyprofitextroplaterate,ifhistoryprofitextroplate,IfprofitdisStableChangeRage,IfprofitdisStable,predicttype,predict,analyst_prediction,adj_prediction
0,000036,114888220.04999998,79814380.99000001,2013-12-31,年度报告,18275314.36,2013,12,未知,未知,未知,未知,未知,未知,未知,未知,未知,未知
1,000036,2550639.99,765867.7799999998,2014-03-31,一季度报告,1177803.89,2014,3,未知,未知,未知,未知,未知,未知,未知,未知,未知,未知
2,000036,3712095.4,1254370.21,2014-06-30,半年度报告,1656236.18,2014,6,未知,未知,未知,未知,未知,未知,未知,未知,未知,未知
3,000036,3404193.569999999,900524.5299999998,2014-09-30,三季度报告,1202845.27,2014,9,未知,未知,未知,未知,未知,未知,未知,未知,未知,未知
4,000036,30135153.8,34376124.77,2014-12-31,年度报告,-12815347.6,2014,12,0.0,True,未知,未知,未知,未知,未知,未知,未知,未知
5,000036,-9269035.890000002,-8677286.92,2015-03-31,一季度报告,-8348961.59,2015,3,44.042899233301824,False,未知,未知,未知,未知,未知,未知,78672140.0,未知
6,000036,-16875499.289999995,-15629827.410000002,2015-06-30,半年度报告,-15283493.070000002,2015,6,29.94969489469478,False,未知,未知,未知,未知,未知,未知,79834140.0,未知
7,000036,-1181455.38,-2042877.17,2015-09-30,三季度报告,-1922487.41,2015,9,32.74902680695681,False,未知,未知,未知,未知,未知,未知,,未知
8,000036,94695385.53,69305919.06,2015-12-31,年度报告,68788368.99000001,2015,12,2.812431846622929,False,未知,未知,未知,未知,未知,未知,68805000.0,未知
9,000036,92769880.04,93047735.64000002,2016-03-31,一季度报告,-10596822.8,2016,3,-13.394840349463783,False,未知,未知,未知,未知,未知,未知,1517129555.0,未知
10,000036,432576424.78,432119794.00999993,2016-06-30,半年度报告,-18096855.29,2016,6,-7.807989386013598,False,未知,未知,未知,未知,未知,未知,1937469110.0,未知
11,000036,477840965.73,475951741.56000006,2016-09-30,三季度报告,-22873507.22000001,2016,9,-98.24296151582126,False,未知,未知,未知,未知,未知,未知,1126552951.0,未知
12,000036,1353083048.31,1348542374.0600002,2016-12-31,年度报告,713689985.79,2016,12,0.2132398997795176,True,0.3059327336839503,True,0.0,True,比例外推,1348542374.0600002,1130079426.0,1130079426.0
13,000036,757798514.3299999,758411389.8299999,2017-03-31,一季度报告,758495032.09,2017,3,0.2384215652802732,True,-28.61667559364877,True,0.06119385490538997,True,比例外推,-9974796614.017088,1626697189.0,1626697189.0
14,000036,1065178505.88,1051795795.79,2017-06-30,半年度报告,1054356402.38,2017,6,-0.7344094280948623,True,-66.72409817321197,True,0.10023545175881382,False,平均增速,26347201700.06071,1668237892.0,1668237892.0
15,000036,1105725864.0499997,1080982506.21,2017-09-30,三季度报告,1086765582.3100002,2017,9,-0.7595680816639807,True,428.9570393668363,False,0.04257399868679729,True,比例外推,-21196184704.20874,1624450000.0,1624450000.0
16,000036,1372382699.14,1343125081.19,2017-12-31,年度报告,1338387643.82,2017,12,-0.9150915236182322,True,20.678718293974704,False,0.0,True,比例外推,1343125081.19,1562471300.0,1562471300.0
17,000036,116368599.16,105323586.17000002,2018-03-31,一季度报告,101921254.55,2018,3,-0.8483921281482357,True,17.150679122924767,False,0.4232218657093372,False,未知,未知,1022300000.0,未知
18,000036,397538454.93,380373570.16,2018-06-30,半年度报告,373891792.76,2018,6,-0.8921418152771635,True,4.1247348300918025,False,0.6077000565555882,False,未知,未知,,未知
19,000036,790013054.6899997,738235883.59,2018-09-30,三季度报告,727284650.07,2018,9,-0.8960970130252783,True,3.6394788734545163,False,0.5613299161668068,False,未知,未知,未知,未知
20,000036,1031137706.7000004,968644086.6900004,2018-12-31,年度报告,777659479.52,2018,12,-0.916285581185194,True,0.8958463077806391,True,0.0,True,比例外推,968644086.6900004,,968644086.6900004
21,000036,292497954.32000005,271950774.56,2019-03-31,一季度报告,267266268.7,2019,3,-0.012721465418386448,True,0.7263745045542351,True,0.3390774485089617,False,平均增速,1572901049.1732016,未知,1572901049.1732016
22,000036,499321423.15,458949925.4000001,2019-06-30,半年度报告,442327029.6100001,2019,6,-0.7110009896521081,True,0.4691542030112751,True,0.43976189057310083,False,平均增速,945734118.5304219,未知,945734118.5304219
23,000036,663598427.76,608520141.9100001,2019-09-30,三季度报告,587380152.7800001,2019,9,-0.8545742765034662,True,0.0022359147295932156,True,0.6037726387485504,False,平均增速,659796903.9507545,未知,659796903.9507545
24,000036,891033545.4499998,817574062.09,2019-12-31,年度报告,788360849.32,2019,12,-0.8885811087078929,True,0.24333101036785845,True,0.0,True,比例外推,817574062.09,未知,817574062.09
25,000036,446756035.06000006,310617431.0,2020-03-31,一季度报告,308291480.24,2020,3,-0.607217013475898,True,0.33079625209820684,True,0.22112308793152752,False,平均增速,818919377.9313788,未知,818919377.9313788
