,SECURITYCODE_x,NETPROFIT_x,PARENTNETPROFIT_x,REPORTDATE_x,REPORTTIMETYPE_x,KCFJCXSYJLR,Year,Month,managesituationChangeRate,managesituationGreatChange,historyprofitextroplaterate,ifhistoryprofitextroplate,IfprofitdisStableChangeRage,IfprofitdisStable,predicttype,predict,analyst_prediction,adj_prediction
0,000090,378422925.18,378434883.51,2013-12-31,年度报告,373008321.51000017,2013,12,未知,未知,未知,未知,未知,未知,未知,未知,未知,未知
1,000090,11787920.43,11787920.43,2014-03-31,一季度报告,11699586.47,2014,3,未知,未知,未知,未知,未知,未知,未知,未知,未知,未知
2,000090,34314094.300000004,34296388.559999995,2014-06-30,半年度报告,33046082.01,2014,6,未知,未知,未知,未知,未知,未知,未知,未知,未知,未知
3,000090,135617283.73000002,135595618.94,2014-09-30,三季度报告,61413819.74,2014,9,未知,未知,未知,未知,未知,未知,未知,未知,未知,未知
4,000090,421502891.1200001,421477001.93000007,2014-12-31,年度报告,310817824.40000004,2014,12,0.0,True,未知,未知,未知,未知,未知,未知,未知,未知
5,000090,47204809.58,47204809.58,2015-03-31,一季度报告,46501945.16999998,2015,3,31.102602611476907,False,未知,未知,未知,未知,未知,未知,522750000.0,未知
6,000090,220766506.25,220757728.01,2015-06-30,半年度报告,213054637.86,2015,6,10.028206715046533,False,未知,未知,未知,未知,未知,未知,549418000.0,未知
7,000090,37253996.37000001,37231926.36000001,2015-09-30,三季度报告,250320915.78,2015,9,1.7903738725028655,False,未知,未知,未知,未知,未知,未知,565314546.0,未知
8,000090,37253996.37000001,37231926.36000001,2015-09-30,三季度报告,29563187.77,2015,9,1.7903738725028655,False,未知,未知,未知,未知,未知,未知,565314546.0,未知
9,000090,37253996.37000001,37231926.36000001,2015-09-30,三季度报告,250320915.78,2015,9,1.7903738725028655,False,未知,未知,未知,未知,未知,未知,565314546.0,未知
10,000090,37253996.37000001,37231926.36000001,2015-09-30,三季度报告,29563187.77,2015,9,1.7903738725028655,False,未知,未知,未知,未知,未知,未知,565314546.0,未知
11,000090,258020502.62000003,257989654.36999995,2015-09-30,三季度报告,250320915.78,2015,9,1.7903738725028655,False,未知,未知,未知,未知,未知,未知,565314546.0,未知
12,000090,258020502.62000003,257989654.36999995,2015-09-30,三季度报告,29563187.77,2015,9,1.7903738725028655,False,未知,未知,未知,未知,未知,未知,565314546.0,未知
13,000090,258020502.62000003,257989654.36999995,2015-09-30,三季度报告,250320915.78,2015,9,1.7903738725028655,False,未知,未知,未知,未知,未知,未知,565314546.0,未知
14,000090,258020502.62000003,257989654.36999995,2015-09-30,三季度报告,29563187.77,2015,9,1.7903738725028655,False,未知,未知,未知,未知,未知,未知,565314546.0,未知
15,000090,392383188.7,392732659.08999985,2015-12-31,年度报告,378071398.14999986,2015,12,-0.10220562384644577,True,未知,未知,未知,未知,未知,未知,545985910.0,未知
16,000090,42014322.0,42302520.0,2016-03-31,一季度报告,40937507.13,2016,3,7.016617979120763,False,未知,未知,未知,未知,未知,未知,472701429.0,未知
17,000090,177014124.08,177447859.87999997,2016-06-30,半年度报告,77258608.69999999,2016,6,0.7141319650702223,False,未知,未知,0.0,True,未知,未知,456443333.0,未知
18,000090,221056166.01,221420023.53000003,2016-09-30,三季度报告,120352463.99,2016,9,9.157914909895071,False,未知,未知,0.059776990320101295,True,未知,未知,441573272.0,未知
19,000090,446140022.93,446518135.0899999,2016-12-31,年度报告,311037983.43000007,2016,12,-0.03557813872263886,True,0.018951055949311797,True,0.25745030924795714,False,平均增速,446518135.0899999,435182500.0,446518135.0899999
20,000090,253934278.21,254113724.56,2017-03-31,一季度报告,244073703.0300001,2017,3,8.006998260735946,False,0.4243898186396206,True,0.24655772737230303,False,前期平均,569457570.0149999,578230000.0,569457570.0149999
21,000090,345300372.17,346103166.54,2017-06-30,半年度报告,333850813.02,2017,6,1.137812037015617,False,0.3879073806343993,True,0.0,True,前期平均,567497417.88,776347500.0,776347500.0
22,000090,542267401.62,543918179.0000001,2017-09-30,三季度报告,466187818.36,2017,9,0.7118858614551433,False,1.5574654839384157,True,0.22598283408181455,False,前期平均,732495422.5150001,688000000.0,732495422.5150001
23,000090,598227808.3800001,601621221.0400001,2017-12-31,年度报告,523447630.75999993,2017,12,-0.15178440460300266,True,0.09632056375425112,True,0.23484770215865766,False,平均增速,601621221.0400001,,601621221.0400001
24,000090,53014933.31000001,54298015.75000001,2018-03-31,一季度报告,53408092.53,2018,3,0.49023963148074745,True,4.692372784021218,False,0.2596111693819873,False,未知,未知,1021690000.0,未知
25,000090,201682563.22,204299175.21,2018-06-30,半年度报告,213124659.35,2018,6,0.09592388447728903,True,0.7361346724376084,True,0.0,True,比例外推,432209689.41052496,875865000.0,875865000.0
26,000090,171367142.34,174529600.65999997,2018-09-30,三季度报告,182858160.04,2018,9,-0.30214701446283115,True,3.1985758254626515,False,0.24431034742181024,False,未知,未知,683135000.0,未知
27,000090,775380256.52,781577703.9000001,2018-12-31,年度报告,785237063.34,2018,12,-0.3674267229322411,True,0.4268604615419264,True,0.2519267816860487,False,平均增速,781577703.9000001,,781577703.9000001
28,000090,63559152.2,63793263.55,2019-03-31,一季度报告,59502516.13,2019,3,6.138043972765302,False,0.6417287780892931,True,0.38713743675250556,False,前期平均,338530465.56499994,1057440000.0,1057440000.0
29,000090,232709889.61,240515517.45,2019-06-30,半年度报告,181339592.11000004,2019,6,0.8763294116170447,False,0.22773514934777192,True,0.0,True,前期平均,452203613.685,1114500000.0,1114500000.0
30,000090,242104675.46,249274741.45,2019-09-30,三季度报告,180820141.36,2019,9,1.2082583627915797,False,0.5509973761924629,True,0.2714034600060409,False,前期平均,373247407.37,1036000000.0,1036000000.0
31,000090,1233640318.2199998,1236193764.65,2019-12-31,年度报告,1182096155.6799998,2019,12,-0.5119518171917251,True,0.48487962435113247,True,未知,未知,True,True,1007000000.0,1007000000.0
32,000090,981183898.86,982745096.65,2020-03-31,一季度报告,985343691.29,2020,3,4.953869931889998,False,0.585865349611047,True,未知,未知,前期平均,1488346545.9199998,1667090000.0,1667090000.0
