,SECURITYCODE_x,NETPROFIT_x,PARENTNETPROFIT_x,REPORTDATE_x,REPORTTIMETYPE_x,KCFJCXSYJLR,Year,Month,managesituationChangeRate,managesituationGreatChange,historyprofitextroplaterate,ifhistoryprofitextroplate,IfprofitdisStableChangeRage,IfprofitdisStable,predicttype,predict,analyst_prediction,adj_prediction
0,000039,2634498000.0,2180320999.9999995,2013-12-31,年度报告,1343090000.0,2013,12,未知,未知,未知,未知,未知,未知,未知,未知,未知,未知
1,000039,1286118999.9999998,1035029000.0,2014-06-30,半年度报告,946692000.0,2014,6,未知,未知,未知,未知,未知,未知,未知,未知,未知,未知
2,000039,2016974000.0,1621674000.0000002,2014-09-30,三季度报告,1283521000.0,2014,9,未知,未知,未知,未知,未知,未知,未知,未知,未知,未知
3,000039,3033927999.999999,2477802000.0,2014-12-31,年度报告,2142681999.9999995,2014,12,0.0,True,未知,未知,未知,未知,未知,未知,未知,未知
4,000039,533554000.0,497427000.0000002,2015-03-31,一季度报告,360905000.0,2015,3,未知,未知,未知,未知,未知,未知,未知,未知,3167383333.0,未知
5,000039,1652410000.0,1518195000.0,2015-06-30,半年度报告,1134506000.0,2015,6,1.0484092063020611,False,未知,未知,未知,未知,未知,未知,3058682500.0,未知
6,000039,1921420999.9999995,1724598000.0,2015-09-30,三季度报告,1457999000.0,2015,9,0.306163589614938,True,未知,未知,未知,未知,未知,未知,2779000000.0,未知
7,000039,2350645000.0,2026613000.0,2015-12-31,年度报告,1751645000.0000002,2015,12,-0.13165440972890563,True,未知,未知,未知,未知,未知,未知,2779000000.0,未知
8,000039,482720000.0,410444000.00000006,2016-03-31,一季度报告,303836000.0,2016,3,3.9376408011185373,False,未知,未知,未知,未知,未知,未知,2299729700.0,未知
9,000039,-541160000.0,-378034000.0,2016-06-30,半年度报告,-502200000.0000001,2016,6,0.5943367566160941,False,未知,未知,未知,未知,未知,未知,681822500.0,未知
10,000039,-294162000.0,-189631000.0,2016-09-30,三季度报告,-393743000.00000006,2016,9,0.3711196036683271,True,未知,未知,未知,未知,未知,未知,-65045000.0,未知
11,000039,734983000.0,539660000.0,2016-12-31,年度报告,511420000.00000006,2016,12,0.12075536714391157,True,0.17061808692571787,True,0.0,True,比例外推,539660000.0,125705000.0,125705000.0
12,000039,618462999.9999999,509681000.0000001,2017-03-31,一季度报告,452699000.0,2017,3,4.457611037454425,False,未知,未知,未知,未知,未知,未知,2120277778.0,未知
13,000039,1066509000.0,796898000.0,2017-06-30,半年度报告,865082999.9999999,2017,6,-5.868242294330697,False,1.3683203398707313,True,1.017816521673735,False,前期平均,1703462500.0,2453128750.0,2453128750.0
14,000039,1761404000.0000005,1309380000.0,2017-09-30,三季度报告,1384684000.0000005,2017,9,-9.955942643849308,False,1.1493816643581969,True,0.9903960653916903,False,前期平均,1885783500.0,2648912143.0,2648912143.0
15,000039,3158414999.9999995,2509242000.0,2017-12-31,年度报告,1367068000.0,2017,12,2.5844339256826347,False,0.727004165418502,True,0.0,True,前期平均,2509242000.0,2648912143.0,2509242000.0
16,000039,583819000.0,446287000.00000006,2018-03-31,一季度报告,170937000.0,2018,3,3.259750381186911,False,0.2171186117129827,True,0.21700723631006197,False,前期平均,1245449000.0000002,3306928125.0,3306928125.0
17,000039,1315957000.0,965397000.0,2018-06-30,半年度报告,720016000.0,2018,6,1.4702070024725529,False,0.9194762654668166,True,1.0814751954925557,False,前期平均,1780776500.0000002,2781334759.0,2781334759.0
18,000039,2852974000.0,2317046000.0000005,2018-09-30,三季度报告,1155678000.0,2018,9,0.49568071833605426,True,1.164872340543209,True,1.128349580395126,False,平均增速,2296636638.4173265,2768152685.0,2768152685.0
19,000039,4068455000.000001,3380435999.9999995,2018-12-31,年度报告,2258609000.0,2018,12,-0.16587972131591308,True,1.0471780784981206,True,0.0,True,比例外推,3380435999.9999995,2720665409.0,2720665409.0
20,000039,511627000.0,405681000.0,2019-03-31,一季度报告,331460000.0,2019,3,3.512525286090381,False,0.060348734043297075,True,0.26045901325983334,False,前期平均,966657500.0,3026811356.0,3026811356.0
21,000039,1102219999.9999998,679829000.0,2019-06-30,半年度报告,450197000.0,2019,6,1.0019635899957218,False,4.009839173577945,False,0.9718442076517463,False,去年同期,2218422000.0,2374114286.0,2218422000.0
22,000039,1221641999.9999998,636327000.0,2019-09-30,三季度报告,399351000.00000006,2019,9,-0.076578335449254,True,2.888893584016814,False,1.0214552503249676,False,未知,未知,1433000000.0,未知
23,000039,2510112999.9999995,1542226000.0,2019-12-31,年度报告,1241479000.0000002,2019,12,-0.3524573824707415,True,1.089925047477808,True,0.0,True,比例外推,1542226000.0,1923250000.0,1923250000.0
24,000039,-684632000.0000001,-641449999.9999999,2020-03-31,一季度报告,-539324000.0000001,2020,3,4.149255219134252,False,0.14890682884714235,True,0.14892302875315186,False,盈利变化,381180666.6666665,1202965000.0,1202965000.0
