,SECURITYCODE_x,NETPROFIT_x,PARENTNETPROFIT_x,REPORTDATE_x,REPORTTIMETYPE_x,KCFJCXSYJLR,Year,Month,managesituationChangeRate,managesituationGreatChange,historyprofitextroplaterate,ifhistoryprofitextroplate,IfprofitdisStableChangeRage,IfprofitdisStable,predicttype,predict,analyst_prediction,adj_prediction
0,000070,64401870.78000001,61465513.27000002,2013-12-31,年度报告,42036965.13,2013,12,未知,未知,未知,未知,未知,未知,未知,未知,未知,未知
1,000070,9760870.29,9254171.08,2014-03-31,一季度报告,9042792.36,2014,3,未知,未知,未知,未知,未知,未知,未知,未知,未知,未知
2,000070,30767715.72,26207925.97,2014-06-30,半年度报告,24279475.15,2014,6,未知,未知,未知,未知,未知,未知,未知,未知,未知,未知
3,000070,55163299.92,45518223.32000001,2014-09-30,三季度报告,42284419.48,2014,9,未知,未知,未知,未知,未知,未知,未知,未知,未知,未知
4,000070,70810942.94000001,55588453.43000001,2014-12-31,年度报告,48412102.14,2014,12,0.0,True,未知,未知,未知,未知,未知,未知,未知,未知
5,000070,16569832.27,13469975.089999998,2015-03-31,一季度报告,12864153.61,2015,3,5.597963999785926,False,未知,未知,未知,未知,未知,未知,118742983.0,未知
6,000070,46843324.86,38057975.33000001,2015-06-30,半年度报告,35609955.88,2015,6,1.0931638658549077,False,未知,未知,未知,未知,未知,未知,107666667.0,未知
7,000070,67998084.49,52949250.63999999,2015-09-30,三季度报告,49699901.35,2015,9,0.16747676214798873,True,未知,未知,未知,未知,未知,未知,104135000.0,未知
8,000070,113619865.68999995,91941947.82,2015-12-31,年度报告,85293975.68999998,2015,12,-0.09050962879325841,True,未知,未知,未知,未知,未知,未知,104135000.0,未知
9,000070,39578352.01,34923876.95,2016-03-31,一季度报告,34421914.559999995,2016,3,2.886694188003389,False,未知,未知,未知,未知,未知,未知,222877500.0,未知
10,000070,89084581.25999999,78468761.89,2016-06-30,半年度报告,77377319.1,2016,6,0.3748356029909703,True,未知,未知,未知,未知,未知,未知,212522857.0,未知
11,000070,145171049.17,124473659.74000002,2016-09-30,三季度报告,116868831.90999998,2016,9,-0.0528869855227886,True,未知,未知,未知,未知,未知,未知,213348571.0,未知
12,000070,229066696.26,195785081.84,2016-12-31,年度报告,180808290.75000003,2016,12,-0.43318124529636526,True,0.6806079625749827,True,0.0,True,比例外推,195785081.84,208906667.00000003,195785081.84
13,000070,51656764.68,43843727.42,2017-03-31,一季度报告,42650625.43999999,2017,3,0.6271994034447927,False,2.0062511184281897,False,0.025174362893359448,True,去年同期,190230103.61,307135000.0,307135000.0
14,000070,124016311.23000002,105928677.85,2017-06-30,半年度报告,100305753.37,2017,6,-0.27707051131510235,True,1.2956677450593717,True,0.052528097199070756,True,比例外推,229026735.92664182,275192222.0,275192222.0
15,000070,200622227.7,171839907.27,2017-09-30,三季度报告,163444176.88,2017,9,-0.5563724919795591,True,1.3574117791130145,True,0.17259834516117267,False,平均增速,278598181.01885515,272523333.0,278598181.01885515
16,000070,297563239.45,265623180.36,2017-12-31,年度报告,245587464.04,2017,12,-0.718851007887671,True,1.4840393854103553,True,0.0,True,比例外推,265623180.36,349000000.0,349000000.0
17,000070,55973748.91000002,50767685.78,2018-03-31,一季度报告,44268893.35,2018,3,0.24672675842075228,True,0.8400154997852763,True,0.02080100125373216,True,比例外推,264442410.2195072,343726667.0,343726667.0
18,000070,113777559.43,97539537.63000004,2018-06-30,半年度报告,88931820.98,2018,6,-0.4806983844200895,True,0.8247365794116746,True,0.00999197419377651,True,比例外推,221383478.17732516,313322500.0,313322500.0
19,000070,187871802.78,164276764.17999998,2018-09-30,三季度报告,150084411.13999996,2018,9,-0.6789893546775724,True,0.8822821508482367,True,0.04883770643766594,True,比例外推,251845485.20430407,,251845485.20430407
20,000070,313182375.19000006,275650494.21,2018-12-31,年度报告,248510007.68,2018,12,-0.7835691300476598,True,0.7366495946427937,True,0.0,True,比例外推,275650494.21,334000000.0,334000000.0
21,000070,40227949.01000001,36523724.04000001,2019-03-31,一季度报告,27010139.28,2019,3,0.150572760162117,True,0.22702202705978738,True,0.009650300817161978,True,比例外推,158965741.46021283,341170000.0,341170000.0
22,000070,72296356.19,67004361.04000002,2019-06-30,半年度报告,44505102.2,2019,6,-0.4339668463391296,True,0.06782808932007774,True,0.04022131007897817,True,比例外推,134298250.00733888,,134298250.00733888
23,000070,106649225.71000002,95101508.91000004,2019-09-30,三季度报告,73026070.33000001,2019,9,-0.6572031043135551,True,0.08661339214313221,True,0.03467262463801635,True,比例外推,136427081.74135843,未知,136427081.74135843
24,000070,346239401.05,323176298.39999986,2019-12-31,年度报告,78321501.25999999,2019,12,-0.7943630424894473,True,0.18938310929009025,True,0.0,True,比例外推,323176298.39999986,348000000.0,323176298.39999986
25,000070,-70627024.05,-66474093.96999999,2020-03-31,一季度报告,-70797709.82000001,2020,3,0.6009235460647211,False,0.2524805899702108,True,0.1126399099816058,False,盈利变化,192765832.93333316,未知,192765832.93333316
