,SECURITYCODE_x,NETPROFIT_x,PARENTNETPROFIT_x,REPORTDATE_x,REPORTTIMETYPE_x,KCFJCXSYJLR,Year,Month,managesituationChangeRate,managesituationGreatChange,historyprofitextroplaterate,ifhistoryprofitextroplate,IfprofitdisStableChangeRage,IfprofitdisStable,predicttype,predict,analyst_prediction,adj_prediction
0,000058,72798945.55000001,54338735.35,2013-12-31,年度报告,48912658.58000001,2013,12,未知,未知,未知,未知,未知,未知,未知,未知,未知,未知
1,000058,29629229.11,22449590.92,2014-03-31,一季度报告,22292348.81,2014,3,未知,未知,未知,未知,未知,未知,未知,未知,未知,未知
2,000058,51824780.37000001,37645842.28,2014-06-30,半年度报告,36738936.70000001,2014,6,未知,未知,未知,未知,未知,未知,未知,未知,未知,未知
3,000058,65355752.68999999,46590135.10000002,2014-09-30,三季度报告,45181624.71000001,2014,9,未知,未知,未知,未知,未知,未知,未知,未知,未知,未知
4,000058,78674230.38,48380294.05,2014-12-31,年度报告,45920252.23,2014,12,0.0,True,未知,未知,未知,未知,未知,未知,未知,未知
5,000058,29052523.2,21348553.12,2015-03-31,一季度报告,21168892.76,2015,3,1.456997624870032,False,未知,未知,未知,未知,未知,未知,未知,未知
6,000058,52065834.26,34906133.61,2015-06-30,半年度报告,36738936.70000001,2015,6,0.4047130548408727,True,未知,未知,未知,未知,未知,未知,56000000.0,未知
7,000058,66465114.68,42186643.05,2015-09-30,三季度报告,41480593.15,2015,9,0.11388734049633088,True,未知,未知,未知,未知,未知,未知,,未知
8,000058,107968730.61,74242090.49,2015-12-31,年度报告,67551197.91999999,2015,12,-0.07467864384083707,True,未知,未知,未知,未知,未知,未知,未知,未知
9,000058,118130141.43000002,91324739.57,2016-03-31,一季度报告,55381307.31,2016,3,1.5057701545867799,False,未知,未知,未知,未知,未知,未知,95000000.0,未知
10,000058,145580633.22,104913059.48,2016-06-30,半年度报告,27187695.79,2016,6,0.3982095280844927,True,未知,未知,未知,未知,未知,未知,,未知
11,000058,195118901.59,143562347.35,2016-09-30,三季度报告,145892758.98,2016,9,0.09529556821641841,True,未知,未知,未知,未知,未知,未知,未知,未知
12,000058,309279217.85,246062783.3100001,2016-12-31,年度报告,22248698.599999994,2016,12,-0.3257404700536748,True,0.4255821857184188,True,0.0,True,比例外推,246062783.3100001,未知,246062783.3100001
13,000058,40207020.69,31609057.25,2017-03-31,一季度报告,30418650.93,2017,3,-0.3837394532102695,True,3.026128627037246,False,1.39318426619607,False,未知,未知,未知,未知
14,000058,64701703.04000001,50008785.42000001,2017-06-30,半年度报告,30778883.27,2017,6,-0.4999407274181383,True,1.8025752612683335,True,0.36668439584656065,False,平均增速,44990032.64603549,未知,44990032.64603549
15,000058,88267876.69999999,69193064.76,2017-09-30,三季度报告,50348311.87000001,2017,9,-0.6268995727386207,True,1.9603644018261934,True,3.8389154666580714,False,平均增速,-7794682.410370663,未知,-7794682.410370663
16,000058,308024690.94000006,219553261.1,2017-12-31,年度报告,148677556.32000002,2017,12,-0.7646174028243068,True,2.314126782060328,False,0.0,True,比例外推,219553261.1,未知,219553261.1
17,000058,73831929.2,62622931.8,2018-03-31,一季度报告,27128268.89,2018,3,0.8106028325572018,False,0.4536446151307868,True,1.4868053054893875,False,前期平均,69247780.02499999,未知,69247780.02499999
18,000058,130537811.57,97666987.93999998,2018-06-30,半年度报告,52856872.9,2018,6,0.12514728561308677,True,0.3452784270323756,True,0.5643650207249443,False,平均增速,405574346.7323988,未知,405574346.7323988
19,000058,199220009.82000005,138066661.89,2018-09-30,三季度报告,88370597.83999997,2018,9,-0.1752498386539299,True,0.32512790377151907,True,4.054006808126738,False,平均增速,396728096.4171562,未知,396728096.4171562
20,000058,23545650.74,27852740.230000004,2018-12-31,年度报告,17223506.49,2018,12,-0.7636587335650294,True,0.4764587439045453,True,0.0,True,比例外推,27852740.230000004,未知,27852740.230000004
21,000058,70293155.02,60097292.92999999,2019-03-31,一季度报告,15160088.23,2019,3,-0.013991015285565516,True,0.06740870921957634,True,1.2183586394460921,False,平均增速,40495687.03878723,未知,40495687.03878723
22,000058,103360254.01,83287552.02,2019-06-30,半年度报告,29226532.61,2019,6,-0.4423152596597494,True,0.24154804337534802,True,1.5695839112122159,False,平均增速,12873816.340095282,未知,12873816.340095282
23,000058,150438097.05999997,110257647.89,2019-09-30,三季度报告,44030014.95,2019,9,-0.6345801527879877,True,0.405993681301045,True,3.670297642718087,False,平均增速,-28387730.249316737,未知,-28387730.249316737
24,000058,103167606.70000003,78447278.88999999,2019-12-31,年度报告,-1694690.4600000004,2019,12,2.091821345431204,False,0.9237145580816013,True,0.0,True,前期平均,78447278.88999999,未知,78447278.88999999
25,000058,-13136760.43,-11787492.8,2020-03-31,一季度报告,-18662797.99,2020,3,0.03564771746675849,True,0.23279204320635288,True,6.556981377494019,False,平均增速,-1486502.7828124072,未知,-1486502.7828124072
