,SECURITYCODE_x,NETPROFIT_x,PARENTNETPROFIT_x,REPORTDATE_x,REPORTTIMETYPE_x,KCFJCXSYJLR,Year,Month,managesituationChangeRate,managesituationGreatChange,historyprofitextroplaterate,ifhistoryprofitextroplate,IfprofitdisStableChangeRage,IfprofitdisStable,predicttype,predict,analyst_prediction,adj_prediction
0,000005,-42344755.22,-42344755.22,2013-12-31,年度报告,-44717841.08000001,2013,12,未知,未知,未知,未知,未知,未知,未知,未知,未知,未知
1,000005,-8682228.389999999,-8682228.389999999,2014-03-31,一季度报告,-8682228.389999999,2014,3,未知,未知,未知,未知,未知,未知,未知,未知,未知,未知
2,000005,-25219942.17,-25219942.17,2014-06-30,半年度报告,-25277385.05,2014,6,未知,未知,未知,未知,未知,未知,未知,未知,未知,未知
3,000005,-31948217.350000005,-31948217.350000005,2014-09-30,三季度报告,-31755597.22,2014,9,未知,未知,未知,未知,未知,未知,未知,未知,未知,未知
4,000005,43163944.16,43163944.16,2014-12-31,年度报告,-58575120.75000002,2014,12,-0.0,False,未知,未知,未知,未知,未知,未知,未知,未知
5,000005,-8066504.979999999,-8066504.979999999,2015-03-31,一季度报告,-8031769.799999998,2015,3,3.8771759181976555,False,未知,未知,未知,未知,未知,未知,未知,未知
6,000005,-23188508.26,-23188508.26,2015-06-30,半年度报告,-23428015.29,2015,6,0.6790187279005959,False,未知,未知,未知,未知,未知,未知,未知,未知
7,000005,-29836022.32,-29836022.32,2015-09-30,三季度报告,-30252619.8,2015,9,0.32541840303962977,False,未知,未知,未知,未知,未知,未知,未知,未知
8,000005,-54031716.5,-55239327.36999999,2015-12-31,年度报告,-59257552.6,2015,12,-1.98102145306825,False,未知,未知,未知,未知,未知,未知,未知,未知
9,000005,-6420800.799999999,-6804122.510000003,2016-03-31,一季度报告,-7445716.0,2016,3,4.24945503969676,False,未知,未知,未知,未知,未知,未知,177000000.0,未知
10,000005,131363454.37,126977992.28000002,2016-06-30,半年度报告,-11863053.31,2016,6,0.8261094998096267,False,未知,未知,未知,未知,未知,未知,177000000.0,未知
11,000005,141884379.83,133769378.05,2016-09-30,三季度报告,-5071667.54,2016,9,0.41924934784671386,False,未知,未知,未知,未知,未知,未知,177000000.0,未知
12,000005,116962419.87,108657351.5,2016-12-31,年度报告,-14933802.44,2016,12,-0.2162981677622624,False,132.91515134469506,False,0.0,True,盈利变化,-40464743.98333332,未知,-40464743.98333332
13,000005,-9706812.75,-10140274.230000002,2017-03-31,一季度报告,-15155358.3,2017,3,5.594933644413951,False,-0.2332792387153513,True,0.2377996466486615,False,前期平均,-60699611.81000002,未知,-60699611.81000002
14,000005,-15057983.060000004,-17757294.82,2017-06-30,半年度报告,-22698083.6,2017,6,-1.3223480641787266,False,-6.42729433407315,True,0.25395160750644863,False,盈利变化,101433997.97333333,未知,101433997.97333333
15,000005,-11073937.2,-16213308.65,2017-09-30,三季度报告,-22383509.24,2017,9,-1.2984455038020093,False,-5.592898790624545,True,0.12448078961583053,False,盈利变化,100963199.63333334,未知,100963199.63333334
16,000005,22935991.939999994,15308435.84,2017-12-31,年度报告,-62329572.3,2017,12,-1.3620372703220816,False,-22.524635631077263,True,0.0,True,前期平均,15308435.84,,15308435.84
17,000005,15951538.550000004,16147325.960000005,2018-03-31,一季度报告,16390489.079999998,2018,3,3.3623747887791486,False,-0.34004388357708865,True,0.2061580008731827,False,盈利变化,57369565.67999999,未知,57369565.67999999
18,000005,8900466.58,8146692.090000003,2018-06-30,半年度报告,7849330.389999998,2018,6,1.8121133521848967,False,1.2784005650381924,True,0.2764101263195542,False,盈利变化,35673378.5,未知,35673378.5
19,000005,8579817.479999999,6531952.44,2018-09-30,三季度报告,4638417.23,2018,9,2.823821144660275,False,1.1976635346754045,True,0.10744333313163856,False,盈利变化,27318180.937777776,未知,27318180.937777776
20,000005,156748626.07999998,148809093.72000003,2018-12-31,年度报告,-119746464.89000005,2018,12,-2.846214252724402,False,0.27107148937623604,True,0.0,True,前期平均,148809093.72000003,未知,148809093.72000003
21,000005,-17959877.54,-17751127.36,2019-03-31,一季度报告,-17614703.56,2019,3,-3.6545875237846563,False,-2.978164779376178,True,0.338494451506354,False,盈利变化,103468836.8666667,未知,103468836.8666667
22,000005,64040288.41,62234817.52,2019-06-30,半年度报告,-33489849.42000001,2019,6,-5.7575882499409365,False,0.8469467260697179,True,0.4300463675065194,False,前期平均,40883698.605000004,未知,40883698.605000004
23,000005,47383926.7,44549968.73,2019-09-30,三季度报告,-53117680.06999999,2019,9,-5.935391145406977,False,0.8688206031949882,True,0.2587319861111365,False,前期平均,19645869.749999996,未知,19645869.749999996
24,000005,178498643.45,174688341.60999998,2019-12-31,年度报告,50830121.08999998,2019,12,-1.2701443469009321,False,1.240892145264447,True,0.0,True,前期平均,174688341.60999998,未知,174688341.60999998
25,000005,-22357995.69,-20988032.470000006,2020-03-31,一季度报告,-22057183.09,2020,3,1.3577418679882602,False,6.752014777013904,False,0.32323826020034435,False,去年同期,47456792.17999997,未知,47456792.17999997
