,SECURITYCODE_x,NETPROFIT_x,PARENTNETPROFIT_x,REPORTDATE_x,REPORTTIMETYPE_x,KCFJCXSYJLR,Year,Month,managesituationChangeRate,managesituationGreatChange,historyprofitextroplaterate,ifhistoryprofitextroplate,IfprofitdisStableChangeRage,IfprofitdisStable,predicttype,predict,analyst_prediction,adj_prediction
0,000012,1675314397.0,1535929739.0,2013-12-31,年度报告,605966974.9999999,2013,12,未知,未知,未知,未知,未知,未知,未知,未知,未知,未知
1,000012,133187083.0,123051443.0,2014-03-31,一季度报告,108589698.0,2014,3,未知,未知,未知,未知,未知,未知,未知,未知,未知,未知
2,000012,617196948.0000002,589210439.0,2014-06-30,半年度报告,242934925.0,2014,6,未知,未知,未知,未知,未知,未知,未知,未知,未知,未知
3,000012,780126104.0,737288641.0,2014-09-30,三季度报告,373570080.0,2014,9,未知,未知,未知,未知,未知,未知,未知,未知,未知,未知
4,000012,854044732.0,787933029.9999999,2014-12-31,年度报告,438889847.00000006,2014,12,0.0,True,未知,未知,未知,未知,未知,未知,未知,未知
5,000012,89811307.0,82201310.00000001,2015-03-31,一季度报告,29979957.000000004,2015,3,11.578655221392603,False,未知,未知,未知,未知,未知,未知,904116667.0,未知
6,000012,220596420.0,205767344.0,2015-06-30,半年度报告,64267683.00000001,2015,6,1.7143919010435538,False,未知,未知,未知,未知,未知,未知,689385000.0,未知
7,000012,408952566.0000001,394069369.9999999,2015-09-30,三季度报告,133220247.0,2015,9,1.1474917816620067,False,未知,未知,未知,未知,未知,未知,603333333.0,未知
8,000012,547732667.0,532653110.0000001,2015-12-31,年度报告,299683946.0,2015,12,0.961623711531775,False,未知,未知,未知,未知,未知,未知,597250000.0,未知
9,000012,204835467.00000003,204835467.00000003,2016-03-31,一季度报告,192098876.0,2016,3,17.65371357973891,False,未知,未知,未知,未知,未知,未知,781832000.0,未知
10,000012,465301322.0,466883254.0000001,2016-06-30,半年度报告,423523383.00000006,2016,6,6.594476814265617,False,未知,未知,未知,未知,未知,未知,885494286.0,未知
11,000012,718660205.0,714899313.0000001,2016-09-30,三季度报告,645065991.9999999,2016,9,3.0965983252933045,False,未知,未知,未知,未知,未知,未知,962197500.0,未知
12,000012,804226524.0000004,797721576.0,2016-12-31,年度报告,776950973.0,2016,12,2.058635166268073,False,0.5669000414215201,True,0.0,True,前期平均,797721576.0,804000000.0,797721576.0
13,000012,176240910.00000003,170130942.0,2017-03-31,一季度报告,149271133.0,2017,3,7.178829679920615,False,0.8371026535214001,True,0.09819632079096095,True,前期平均,470133011.0,1158800000.0,1158800000.0
14,000012,400214047.9999998,392992163.0,2017-06-30,半年度报告,360945244.0,2017,6,2.6004935249249086,False,0.11077824144341966,True,0.22324262155752328,False,前期平均,608677755.5,885913333.0,885913333.0
15,000012,721822345.0,711011370.9999999,2017-09-30,三季度报告,639126346.0,2017,9,1.3311634418382745,False,0.20876813810813713,True,0.2641173320954842,False,前期平均,826903103.9999999,938560000.0,938560000.0
16,000012,828636035.0000001,825388311.9999999,2017-12-31,年度报告,745373108.0,2017,12,1.0831374581721696,False,0.14743828024866074,True,0.0,True,前期平均,825388311.9999999,938560000.0,938560000.0
17,000012,159024516.0,159382821.00000003,2018-03-31,一季度报告,152948714.0,2018,3,8.5058201696757,False,0.1962860316264656,True,0.0824778596966688,True,前期平均,586660864.0,934560000.0,934560000.0
18,000012,359082116.99999994,352837153.0,2018-06-30,半年度报告,334049717.99999994,2018,6,3.1860459555882477,False,0.1669787593498152,True,0.20015140014687605,False,前期平均,647259079.5,873995000.0,873995000.0
19,000012,485897782.0000001,469116337.9999999,2018-09-30,三季度报告,419639159.0000001,2018,9,1.3209511434562198,False,0.28026635306704945,True,0.26621326802614537,False,前期平均,618290678.0,,618290678.0
20,000012,472208588.0,452965935.0,2018-12-31,年度报告,367579835.0,2018,12,1.0217735244883477,False,0.2258299518450477,True,0.0,True,前期平均,452965935.0,,452965935.0
21,000012,135938404.0,132188324.0,2019-03-31,一季度报告,82573767.00000001,2019,3,9.534944165464399,False,0.16539294693672404,True,0.1282274755441703,False,前期平均,722665360.0,791915000.0,722665360.0
22,000012,386739067.0,377342401.0,2019-06-30,半年度报告,283939444.0,2019,6,3.6655467306382183,False,0.17024670052941973,True,0.2627351765162913,False,前期平均,746270128.0,624155000.0,624155000.0
23,000012,562067414.0,544313118.0,2019-09-30,三季度报告,419852595.0,2019,9,2.447874139503686,False,0.32536804142472936,True,0.19851436080484597,False,前期平均,663378989.5,697000000.0,663378989.5
24,000012,560419577.0,536430818.0,2019-12-31,年度报告,374386216.0,2019,12,2.547827039943628,False,0.4216186960778983,True,0.0,True,前期平均,536430818.0,未知,536430818.0
25,000012,111988759.00000004,111278288.0,2020-03-31,一季度报告,101805077.0,2020,3,11.32406992949542,False,0.18906995199678,True,0.13712393885850505,False,前期平均,516644836.0,未知,516644836.0
