,SECURITYCODE_x,NETPROFIT_x,PARENTNETPROFIT_x,REPORTDATE_x,REPORTTIMETYPE_x,KCFJCXSYJLR,Year,Month,managesituationChangeRate,managesituationGreatChange,historyprofitextroplaterate,ifhistoryprofitextroplate,IfprofitdisStableChangeRage,IfprofitdisStable,predicttype,predict,analyst_prediction,adj_prediction
0,000059,-161986533.14999998,-155178297.1,2013-12-31,年度报告,-150179041.13,2013,12,未知,未知,未知,未知,未知,未知,未知,未知,未知,未知
1,000059,-319925995.97,-316949783.14000005,2014-03-31,一季度报告,-317618157.99,2014,3,未知,未知,未知,未知,未知,未知,未知,未知,未知,未知
2,000059,-716954762.2099997,-741738904.2500001,2014-06-30,半年度报告,-743449298.53,2014,6,未知,未知,未知,未知,未知,未知,未知,未知,未知,未知
3,000059,-946437968.04,-975237970.9099998,2014-09-30,三季度报告,-985672052.26,2014,9,未知,未知,未知,未知,未知,未知,未知,未知,未知,未知
4,000059,-1486095772.88,-1509123963.7699995,2014-12-31,年度报告,-1585600090.7900007,2014,12,-0.0,False,未知,未知,未知,未知,未知,未知,未知,未知
5,000059,-146468145.99999997,-144583217.60999998,2015-03-31,一季度报告,-205129008.46,2015,3,-0.49367498987112723,False,未知,未知,未知,未知,未知,未知,,未知
6,000059,276660415.02000004,266061078.13,2015-06-30,半年度报告,178369051.4,2015,6,-0.774063104552539,False,未知,未知,未知,未知,未知,未知,未知,未知
7,000059,117013794.19,104025014.82,2015-09-30,三季度报告,-11320751.329999998,2015,9,-0.8288461171042603,False,未知,未知,未知,未知,未知,未知,未知,未知
8,000059,362530563.58,328685540.04,2015-12-31,年度报告,262460376.68000007,2015,12,-0.8909985910019271,False,未知,未知,未知,未知,未知,未知,未知,未知
9,000059,473420420.6,460545853.79,2016-03-31,一季度报告,460067928.1500001,2016,3,0.10595059454087723,False,未知,未知,未知,未知,未知,未知,1490290000.0,未知
10,000059,925888259.0600004,905197771.12,2016-06-30,半年度报告,905287896.32,2016,6,-1.5855067236065912,False,未知,未知,未知,未知,未知,未知,1710450000.0,未知
11,000059,1200677064.36,1173588565.1,2016-09-30,三季度报告,1162372984.2300005,2016,9,-2.384337071294141,False,未知,未知,未知,未知,未知,未知,1537102500.0,未知
12,000059,1848144498.85,1803243467.38,2016-12-31,年度报告,1849984005.0400004,2016,12,-1.446821728767854,False,-1.4399423041599,True,0.0,True,前期平均,1803243467.38,1779782104.0,1803243467.38
13,000059,465081031.43,448463826.3999999,2017-03-31,一季度报告,418133343.06999993,2017,3,-1.3421621165912165,False,-3.0301302181897984,True,0.6707084374321638,False,前期平均,48267552.569999635,2240176667.0,2240176667.0
14,000059,870343099.66,829173135.6899997,2017-06-30,半年度报告,837831150.07,2017,6,-1.1749525729103159,False,-5.2057694584048475,True,0.13366091920640655,False,前期平均,450143402.19999933,1881174444.0,1881174444.0
15,000059,1295516415.65,1229759850.2000005,2017-09-30,三季度报告,1202623593.44,2017,9,-1.1349126571651005,False,-3.8952063424598005,True,0.44540709126114264,False,前期平均,1066686394.9400002,1883470000.0,1883470000.0
16,000059,1941154830.02,1845279650.89,2017-12-31,年度报告,1870058977.73,2017,12,-1.0876481970164105,False,-4.289785912829082,True,0.0,True,前期平均,1845279650.89,2247357265.0,2247357265.0
17,000059,323057782.39000016,310648214.81,2018-03-31,一季度报告,308899411.00000006,2018,3,-1.3482974410973816,False,1.8449475202397014,True,0.6784682712526976,False,前期平均,1239400945.8250003,2019000000.0,2019000000.0
18,000059,787791968.02,762714947.2900001,2018-06-30,半年度报告,757298947.3799996,2018,6,-1.1861180185300257,False,0.4474974999674729,True,0.14061150186702853,False,前期平均,1277108664.2900004,1870666667.0,1870666667.0
19,000059,1103363331.84,1059116882.44,2018-09-30,三季度报告,1033671951.4699998,2018,9,-1.125036264452679,False,0.966343482227082,True,0.45255848573946444,False,前期平均,1539812956.8500001,1428825000.0,1539812956.8500001
20,000059,1212775671.7299998,1144409195.72,2018-12-31,年度报告,1019242099.65,2018,12,-1.0834485382849812,False,0.7561647688613812,True,0.0,True,前期平均,1144409195.72,,1144409195.72
21,000059,395807979.55,377343490.98,2019-03-31,一季度报告,343780082.77,2019,3,-1.5014165947392266,False,0.31154548202089866,True,0.044618106413497505,True,前期平均,1798264346.7550004,1344000000.0,1344000000.0
22,000059,576451936.26,538207007.5699999,2019-06-30,半年度报告,528049964.9999999,2019,6,-1.2056209503596862,False,0.12283908841076814,True,0.18287703297948044,False,前期平均,1526668975.76,1219000000.0,1219000000.0
23,000059,979598085.9,923239074.52,2019-09-30,三季度报告,901398244.05,2019,9,-1.1468115973002897,False,0.1159632931694224,True,0.25230192465768897,False,前期平均,1600762277.07,1227000000.0,1227000000.0
24,000059,1048976368.69,992955495.15,2019-12-31,年度报告,886263191.8399998,2019,12,-1.1335667732507606,False,0.35989449949753144,True,0.0,True,前期平均,992955495.15,1369000000.0,1369000000.0
25,000059,-899299683.5899998,-887566678.3100002,2020-03-31,一季度报告,-897153441.19,2020,3,-1.4092553498647626,False,0.004411843724770524,True,0.08304513404171066,True,盈利变化,-661622536.7966667,1039780000.0,1039780000.0
