,SECURITYCODE_x,NETPROFIT_x,PARENTNETPROFIT_x,REPORTDATE_x,REPORTTIMETYPE_x,KCFJCXSYJLR,Year,Month,managesituationChangeRate,managesituationGreatChange,historyprofitextroplaterate,ifhistoryprofitextroplate,IfprofitdisStableChangeRage,IfprofitdisStable,predicttype,predict,analyst_prediction,adj_prediction
0,000006,698009106.0,696085752.22,2013-12-31,年度报告,693851943.2700003,2013,12,未知,未知,未知,未知,未知,未知,未知,未知,未知,未知
1,000006,30196417.5,30721208.97,2014-03-31,一季度报告,21441472.69,2014,3,未知,未知,未知,未知,未知,未知,未知,未知,未知,未知
2,000006,48681205.31999999,49141888.97999999,2014-06-30,半年度报告,39250836.54,2014,6,未知,未知,未知,未知,未知,未知,未知,未知,未知,未知
3,000006,238386906.08000007,239601134.17,2014-09-30,三季度报告,40260490.18,2014,9,未知,未知,未知,未知,未知,未知,未知,未知,未知,未知
4,000006,512453559.51,508030702.22,2014-12-31,年度报告,264466817.62,2014,12,0.0,True,未知,未知,未知,未知,未知,未知,未知,未知
5,000006,210517130.38000005,201622858.44,2015-03-31,一季度报告,201589100.11,2015,3,22.115626414954686,False,未知,未知,未知,未知,未知,未知,841820000.0,未知
6,000006,268380231.13,258082864.50000003,2015-06-30,半年度报告,260006254.31000003,2015,6,13.338369426387903,False,未知,未知,未知,未知,未知,未知,784518588.0,未知
7,000006,287596830.69,276824443.33,2015-09-30,三季度报告,278595594.94,2015,9,1.928051366066875,False,未知,未知,未知,未知,未知,未知,,未知
8,000006,438785915.09,416752839.52,2015-12-31,年度报告,417663446.03000015,2015,12,0.36209241412514587,True,未知,未知,未知,未知,未知,未知,,未知
9,000006,49930386.48000001,48808316.64000001,2016-03-31,一季度报告,48725061.95,2016,3,2.3156879192683197,False,未知,未知,未知,未知,未知,未知,582715000.0,未知
10,000006,106029659.44,102085228.83,2016-06-30,半年度报告,100777670.73999998,2016,6,1.6008216143978697,False,未知,未知,未知,未知,未知,未知,,未知
11,000006,119772699.77,114482862.92,2016-09-30,三季度报告,113377244.85,2016,9,1.427040326992972,False,未知,未知,未知,未知,未知,未知,444510000.0,未知
12,000006,803876525.51,778580909.9800001,2016-12-31,年度报告,764870782.99,2016,12,0.59077372813307,False,0.27501123728565746,True,0.0,True,前期平均,778580909.9800001,未知,778580909.9800001
13,000006,112595341.17,103858804.96,2017-03-31,一季度报告,104737911.22,2017,3,12.97964556672504,False,0.5851468525993294,True,0.2735134620616223,False,前期平均,333408650.38500005,,333408650.38500005
14,000006,263304766.46,249606463.63000005,2017-06-30,半年度报告,249640743.01,2017,6,5.583149561043237,False,0.33117278072560125,True,0.3216262571568494,False,前期平均,441043050.0300001,1010628316.0,1010628316.0
15,000006,353606594.9299998,339136812.9,2017-09-30,三季度报告,339430284.29,2017,9,4.827781350344359,False,0.5445764140712447,True,0.34453471583038536,False,前期平均,520773902.1650001,1015418877.0000001,1015418877.0000001
16,000006,820482505.5999999,805636364.6099999,2017-12-31,年度报告,804464907.1699997,2017,12,-0.13169612017571353,True,0.6901664553986963,True,0.0,True,比例外推,805636364.6099999,1015418877.0000001,1015418877.0000001
17,000006,286468996.24999994,286207670.36999995,2018-03-31,一季度报告,285880198.3,2018,3,5.1992716461165465,False,0.1353702079599856,True,0.25713965902510505,False,前期平均,752317703.85,未知,752317703.85
18,000006,449451656.42,415968682.5899999,2018-06-30,半年度报告,414578264.53,2018,6,1.6509550715104055,False,0.40650540005311275,True,0.26765825038945423,False,前期平均,826843834.575,未知,826843834.575
19,000006,545339960.71,503240092.84,2018-09-30,三季度报告,501426580.8999999,2018,9,0.9739708365399076,False,0.7360483221742614,True,0.2641685068017817,False,前期平均,898520787.4549999,未知,898520787.4549999
20,000006,923127396.15,874243319.2199997,2018-12-31,年度报告,870668579.7700001,2018,12,-0.14926997073561968,True,0.32052354491995894,True,0.0,True,比例外推,874243319.2199997,,874243319.2199997
21,000006,115678853.59,110881968.57,2019-03-31,一季度报告,108639327.63,2019,3,1.4365956356088574,False,2.5252141355356663,False,0.15426393388882723,False,去年同期,695670350.04,未知,695670350.04
22,000006,212452865.00000003,203409521.11,2019-06-30,半年度报告,202100997.36,2019,6,0.5530237702533463,False,1.4338465352899021,True,0.17432142371108741,False,前期平均,812868159.3149998,未知,812868159.3149998
23,000006,461656378.6400001,451836067.36,2019-09-30,三季度报告,451530703.82,2019,9,0.27995224316815853,True,1.3040296304281949,True,0.23379387760275053,False,平均增速,815082072.2660226,未知,815082072.2660226
24,000006,843064948.9200001,801163074.4099997,2019-12-31,年度报告,779466306.3,2019,12,-0.2438648133387434,True,0.13660512050612875,True,0.0,True,比例外推,801163074.4099997,未知,801163074.4099997
25,000006,140609340.52,127952311.56999996,2020-03-31,一季度报告,135475105.95999998,2020,3,5.034025099124428,False,0.42024960517455395,True,0.12903963316321598,False,前期平均,770210000.2799999,未知,770210000.2799999
