,SECURITYCODE_x,NETPROFIT_x,PARENTNETPROFIT_x,REPORTDATE_x,REPORTTIMETYPE_x,KCFJCXSYJLR,Year,Month,managesituationChangeRate,managesituationGreatChange,historyprofitextroplaterate,ifhistoryprofitextroplate,IfprofitdisStableChangeRage,IfprofitdisStable,predicttype,predict,analyst_prediction,adj_prediction
0,000088,424741930.1100001,388464524.92,2013-12-31,年度报告,388534449.12,2013,12,未知,未知,未知,未知,未知,未知,未知,未知,未知,未知
1,000088,118537234.29,111731675.77,2014-03-31,一季度报告,73675080.28,2014,3,未知,未知,未知,未知,未知,未知,未知,未知,未知,未知
2,000088,239988701.35999995,223695540.63,2014-06-30,半年度报告,174966634.5,2014,6,未知,未知,未知,未知,未知,未知,未知,未知,未知,未知
3,000088,371710127.1199998,345046598.83000016,2014-09-30,三季度报告,304386146.76,2014,9,未知,未知,未知,未知,未知,未知,未知,未知,未知,未知
4,000088,473459291.62,439988052.43,2014-12-31,年度报告,401195345.7699999,2014,12,0.0,True,未知,未知,未知,未知,未知,未知,未知,未知
5,000088,80248615.61000003,74589421.83999999,2015-03-31,一季度报告,74581233.11000001,2015,3,2.5831941976212613,False,未知,未知,未知,未知,未知,未知,,未知
6,000088,167121536.83,156025465.69,2015-06-30,半年度报告,155613378.57999998,2015,6,0.7698413621266997,False,未知,未知,未知,未知,未知,未知,未知,未知
7,000088,447592430.92,371212688.25,2015-09-30,三季度报告,273371729.85,2015,9,0.14266978250199758,True,未知,未知,未知,未知,未知,未知,未知,未知
8,000088,522665542.66,435588240.13000005,2015-12-31,年度报告,333307026.2,2015,12,-0.10289662146730166,True,未知,未知,未知,未知,未知,未知,424100000.0,未知
9,000088,83265353.67999999,74928173.60999998,2016-03-31,一季度报告,74928173.60999998,2016,3,4.2928256379424905,False,未知,未知,未知,未知,未知,未知,未知,未知
10,000088,175724340.57999998,158287484.41,2016-06-30,半年度报告,156072511.91,2016,6,1.541515223989698,False,未知,未知,未知,未知,未知,未知,未知,未知
11,000088,295763570.9,269649102.66,2016-09-30,三季度报告,268091945.11000004,2016,9,-0.051052026869695,True,未知,未知,未知,未知,未知,未知,未知,未知
12,000088,384790326.58000016,351824532.60999984,2016-12-31,年度报告,343971444.15000015,2016,12,-0.18735425345171527,True,0.1638050138771993,True,0.0,True,比例外推,351824532.60999984,未知,351824532.60999984
13,000088,87815547.39,79606063.83,2017-03-31,一季度报告,79141387.13,2017,3,4.101064384381776,False,0.1622607572733478,True,0.02477201941078977,True,前期平均,372729093.11999995,360100000.0,372729093.11999995
14,000088,170477553.31,153527625.07,2017-06-30,半年度报告,150109525.73,2017,6,1.4170921837469224,False,0.1367235500572759,True,0.016129056218268323,True,前期平均,355488804.5149999,,355488804.5149999
15,000088,310212983.62000006,283649876.48,2017-09-30,三季度报告,280240842.52,2017,9,0.4360860224182535,True,0.2780113573487457,True,0.034086663100432846,True,比例外推,359907248.78472054,未知,359907248.78472054
16,000088,432854953.42,404355216.0500001,2017-12-31,年度报告,393007764.17,2017,12,0.10382694358532357,True,0.2274254925927492,True,0.0,True,比例外推,404355216.0500001,未知,404355216.0500001
17,000088,64041013.47,56632118.46000002,2018-03-31,一季度报告,56582951.00000001,2018,3,3.8367509254786882,False,0.07410452784318179,True,0.012948901848481187,True,前期平均,320516650.27500015,未知,320516650.27500015
18,000088,187893840.93,171384099.48000002,2018-06-30,半年度报告,169143104.38,2018,6,1.4914830243817514,False,0.005514929344589555,True,0.05223758012107543,True,前期平均,354180389.4100001,未知,354180389.4100001
19,000088,325356196.52,298201979.37999994,2018-09-30,三季度报告,295907157.47,2018,9,0.36919456159931047,True,0.16537168500560076,True,0.05781593152730591,True,比例外推,386149710.4315645,未知,386149710.4315645
20,000088,485757452.56,448526835.68,2018-12-31,年度报告,412326179.18,2018,12,-0.018743052946255324,True,0.04600329758731156,True,0.0,True,比例外推,448526835.68,未知,448526835.68
21,000088,58645601.28999999,54648764.15000001,2019-03-31,一季度报告,54515410.53,2019,3,5.632342417706591,False,0.25133649554725246,True,0.04824963509800606,True,前期平均,346103587.9400001,未知,346103587.9400001
22,000088,169259172.14999998,146808865.17,2019-06-30,半年度报告,146331781.75,2019,6,1.260542059322945,False,0.08545819214784663,True,0.03843545752143057,True,前期平均,362207450.5100001,未知,362207450.5100001
23,000088,306760307.67,265761087.85,2019-09-30,三季度报告,265096785.93,2019,9,0.3054674681257861,True,0.07382437189411672,True,0.04269448956158961,True,比例外推,360504364.0387299,未知,360504364.0387299
24,000088,394437935.4,359430924.14,2019-12-31,年度报告,358394384.04999995,2019,12,-0.1256090300384293,True,0.18818628185562292,True,0.0,True,比例外推,359430924.14,未知,359430924.14
25,000088,19423057.790000007,16448830.75,2020-03-31,一季度报告,14379673.089999998,2020,3,6.242519827014295,False,0.22761847156453527,True,0.03780282135623092,True,前期平均,351253633.36,未知,351253633.36
