,SECURITYCODE_x,NETPROFIT_x,PARENTNETPROFIT_x,REPORTDATE_x,REPORTTIMETYPE_x,KCFJCXSYJLR,Year,Month,managesituationChangeRate,managesituationGreatChange,historyprofitextroplaterate,ifhistoryprofitextroplate,IfprofitdisStableChangeRage,IfprofitdisStable,predicttype,predict,analyst_prediction,adj_prediction
0,000004,5796749.790000001,-1033376.96,2013-12-31,年度报告,-2049486.19,2013,12,未知,未知,未知,未知,未知,未知,未知,未知,未知,未知
1,000004,-3392132.9600000004,-2811440.1,2014-03-31,一季度报告,-2809724.12,2014,3,未知,未知,未知,未知,未知,未知,未知,未知,未知,未知
2,000004,-4738622.68,-4706350.579999999,2014-06-30,半年度报告,-4576597.71,2014,6,未知,未知,未知,未知,未知,未知,未知,未知,未知,未知
3,000004,-4014196.52,-5566809.55,2014-09-30,三季度报告,-5366549.319999998,2014,9,未知,未知,未知,未知,未知,未知,未知,未知,未知,未知
4,000004,15624813.559999995,3801373.74,2014-12-31,年度报告,-1648577.54,2014,12,0.0,True,未知,未知,未知,未知,未知,未知,未知,未知
5,000004,-1757271.9400000004,-1853677.13,2015-03-31,一季度报告,-1870308.65,2015,3,-2.7088804767841412,False,未知,未知,未知,未知,未知,未知,未知,未知
6,000004,4410663.71,1212220.4600000002,2015-06-30,半年度报告,1324311.1,2015,6,-2.223298452199195,False,未知,未知,未知,未知,未知,未知,未知,未知
7,000004,7442136.270000001,2376703.51,2015-09-30,三季度报告,1216517.31,2015,9,-2.444062282730493,False,未知,未知,未知,未知,未知,未知,未知,未知
8,000004,6857151.710000003,1247118.2900000005,2015-12-31,年度报告,865273.22,2015,12,-0.6290035866514363,True,未知,未知,未知,未知,未知,未知,未知,未知
9,000004,-2853904.7800000007,-2392487.1500000004,2016-03-31,一季度报告,-2343807.2700000005,2016,3,-4.298720965179697,False,未知,未知,未知,未知,未知,未知,未知,未知
10,000004,2992444.5,2985718.12,2016-06-30,半年度报告,2997716.74,2016,6,0.3142579373842131,True,未知,未知,未知,未知,未知,未知,未知,未知
11,000004,20494137.33,14698532.21,2016-09-30,三季度报告,14686460.830000002,2016,9,-0.22109061434855992,True,未知,未知,未知,未知,未知,未知,未知,未知
12,000004,39716316.22,39299310.06,2016-12-31,年度报告,15845075.28,2016,12,-0.15464174701772807,True,0.3597897970411198,True,0.0,True,比例外推,39299310.06,未知,39299310.06
13,000004,-1689946.1199999996,-1177968.65,2017-03-31,一季度报告,-1177843.65,2017,3,-3.031164399955909,False,-0.10844062000251739,True,1.9598199158047191,False,前期平均,770395.5750000002,未知,770395.5750000002
14,000004,-5755872.72,-3772073.56,2017-06-30,半年度报告,-3894038.21,2017,6,0.9371285883497592,False,-19.24889558593261,True,1.3094075163059427,False,盈利变化,34704806.760000005,未知,34704806.760000005
15,000004,-8208346.810000001,-5434258.0,2017-09-30,三季度报告,-5556412.49,2017,9,-0.7171508272507511,True,10.957116416646466,False,1.3925693590242247,False,未知,未知,未知,未知
16,000004,5892241.41,8566720.65,2017-12-31,年度报告,-3009230.52,2017,12,-0.8540461366585423,True,2.533171210169742,False,0.0,True,比例外推,8566720.65,未知,8566720.65
17,000004,3181766.8600000013,2060512.89,2018-03-31,一季度报告,295887.89,2018,3,-4.430138820047116,False,-0.26702175057823446,True,1.5221791959636675,False,盈利变化,10531696.036666667,未知,10531696.036666667
18,000004,1398688.34,1983825.3,2018-06-30,半年度报告,47400.69,2018,6,-2.007101802278908,False,2.554988136530291,False,0.8153883063342994,False,前期平均,8177985.63,未知,8177985.63
19,000004,-7308635.420000001,-2591750.02,2018-09-30,三季度报告,-3397354.61,2018,9,-1.70620186063995,False,1.5876479395591259,True,0.4662111349464054,False,前期平均,-2188064.8400000012,未知,-2188064.8400000012
20,000004,-21612682.1,-20270783.78,2018-12-31,年度报告,-23005794.890000004,2018,12,-0.016206331912663297,True,0.7469700380115112,True,0.0,True,比例外推,-20270783.78,未知,-20270783.78
21,000004,4785998.1,5350063.359999999,2019-03-31,一季度报告,-4522062.72,2019,3,0.8218650344481866,False,-2.4004715075488066,True,0.3145340575707691,False,前期平均,13528811.2,未知,13528811.2
22,000004,-4565591.38,-1918824.57,2019-06-30,半年度报告,-12131465.22,2019,6,3.144418469950211,False,-2.0122849074762654,True,0.8003112078492629,False,盈利变化,-28390027.720000003,未知,-28390027.720000003
23,000004,-13047805.02,-9941144.510000004,2019-09-30,三季度报告,-20168601.17,2019,9,-1.7931370846789345,False,2.1897704764056165,False,0.8727866840065014,False,去年同期,-29549584.790000007,未知,-29549584.790000007
24,000004,-3603992.92,3099367.87,2019-12-31,年度报告,-26725368.62,2019,12,-1.2682105702188624,False,1.94774679240388,True,0.0,True,前期平均,3099367.87,未知,3099367.87
25,000004,3575280.89,3816023.46,2020-03-31,一季度报告,3442257.7100000014,2020,3,0.21118932119927114,True,5.416317955198819,False,0.20882568654976713,False,未知,未知,未知,未知
