,SECURITYCODE_x,NETPROFIT_x,PARENTNETPROFIT_x,REPORTDATE_x,REPORTTIMETYPE_x,KCFJCXSYJLR,Year,Month,managesituationChangeRate,managesituationGreatChange,historyprofitextroplaterate,ifhistoryprofitextroplate,IfprofitdisStableChangeRage,IfprofitdisStable,predicttype,predict,analyst_prediction,adj_prediction
0,000029,228317758.13,228268271.23,2013-12-31,年度报告,222844093.95,2013,12,未知,未知,未知,未知,未知,未知,未知,未知,未知,未知
1,000029,22010603.06,22025565.57,2014-03-31,一季度报告,22069560.390000004,2014,3,未知,未知,未知,未知,未知,未知,未知,未知,未知,未知
2,000029,34752731.760000005,34732376.730000004,2014-06-30,半年度报告,34449556.67,2014,6,未知,未知,未知,未知,未知,未知,未知,未知,未知,未知
3,000029,57061856.4,57004777.81999999,2014-09-30,三季度报告,56156553.79000001,2014,9,未知,未知,未知,未知,未知,未知,未知,未知,未知,未知
4,000029,298058149.59,298033316.48999995,2014-12-31,年度报告,297166883.73999995,2014,12,0.0,True,未知,未知,未知,未知,未知,未知,未知,未知
5,000029,24961846.26,24918992.83,2015-03-31,一季度报告,24919437.35,2015,3,9.373080533396344,False,未知,未知,未知,未知,未知,未知,未知,未知
6,000029,186404025.47000003,186407824.38,2015-06-30,半年度报告,186128156.9,2015,6,5.569778735863036,False,未知,未知,未知,未知,未知,未知,未知,未知
7,000029,234017227.9,233992272.96,2015-09-30,三季度报告,234129230.67,2015,9,3.0012325664539716,False,未知,未知,未知,未知,未知,未知,未知,未知
8,000029,301069066.78,301129840.84000003,2015-12-31,年度报告,300963536.83,2015,12,-0.23398250158881015,True,未知,未知,未知,未知,未知,未知,未知,未知
9,000029,31175418.55,31138409.0,2016-03-31,一季度报告,31099423.53,2016,3,8.146669511215874,False,未知,未知,未知,未知,未知,未知,未知,未知
10,000029,134727998.77,134761121.51,2016-06-30,半年度报告,127321586.09999998,2016,6,0.22485422487158457,True,未知,未知,未知,未知,未知,未知,未知,未知
11,000029,236863312.48000005,236875125.51000005,2016-09-30,三季度报告,229131886.44,2016,9,-0.024354915324590984,True,未知,未知,未知,未知,未知,未知,未知,未知
12,000029,311495750.1,311567386.94,2016-12-31,年度报告,303613457.72,2016,12,-0.24164325291897723,True,0.14393178853523989,True,0.0,True,比例外推,311567386.94,未知,311567386.94
13,000029,34665451.87,34621550.04,2017-03-31,一季度报告,34426151.0,2017,3,6.32364692277724,False,0.32739165197102393,True,0.0159321814100276,True,前期平均,310192261.455,未知,310192261.455
14,000029,137199669.95999998,137226601.83999997,2017-06-30,半年度报告,137080046.11,2017,6,0.6946570884628896,False,0.21839369013613022,True,0.26864728118022896,False,前期平均,326002955.3399999,未知,326002955.3399999
15,000029,149605838.49999997,149582935.10000002,2017-09-30,三季度报告,149439732.67000002,2017,9,-0.036077998996664425,True,0.6274842491663015,True,0.38488962529925697,False,平均增速,211513993.40191573,未知,211513993.40191573
16,000029,184922598.1,184988512.42,2017-12-31,年度报告,181588638.91,2017,12,-0.26702769441733076,True,0.039831747211534485,True,0.0,True,比例外推,184988512.42,未知,184988512.42
17,000029,-5951742.52,-5982684.7200000025,2018-03-31,一季度报告,-6292418.64,2018,3,5.586319976044784,False,0.23502461287799944,True,0.06464550538076626,True,盈利变化,130697086.23333332,未知,130697086.23333332
18,000029,329045648.28,329066084.53,2018-06-30,半年度报告,329143873.10000014,2018,6,0.6641276046550632,False,0.14552483337841787,True,0.17820857821411795,False,前期平均,474629710.305,未知,474629710.305
19,000029,374026918.00000006,374000365.52999985,2018-09-30,三季度报告,373889817.1,2018,9,0.5261286619505832,False,0.3645698827168851,True,0.03776662800507202,True,前期平均,444658304.2499999,未知,444658304.2499999
20,000029,499971564.96,503498831.6,2018-12-31,年度报告,490490702.8,2018,12,0.23466661444229409,True,0.3962350007567415,True,0.0,True,比例外推,503498831.6,未知,503498831.6
21,000029,84076857.44000001,84028728.24000001,2019-03-31,一季度报告,84055572.77000001,2019,3,-39.36149789120918,False,1.1807917326133066,True,0.10589060064895603,False,前期平均,293866989.29,未知,293866989.29
22,000029,333138012.90000004,333155843.41,2019-06-30,半年度报告,322865954.53,2019,6,-0.3061213259513647,True,1.4200968574971533,True,0.19574500807636752,False,平均增速,545369421.4273261,未知,545369421.4273261
23,000029,439539514.94999987,439517499.39999986,2019-09-30,三季度报告,438722772.58,2019,9,-0.38956864561817456,True,0.935610731420869,True,0.0429850085945348,True,比例外推,563279655.822093,未知,563279655.822093
24,000029,541197030.06,552452307.59,2019-12-31,年度报告,524204812.66,2019,12,-0.5433385133647222,True,1.0143154126872378,True,0.0,True,比例外推,552452307.59,未知,552452307.59
25,000029,28148663.17,28114908.77,2020-03-31,一季度报告,28075623.63,2020,3,1.715583872683812,False,4.856217071445701,False,0.1251965158138135,False,去年同期,468264148.65999997,未知,468264148.65999997
