,SECURITYCODE_x,NETPROFIT_x,PARENTNETPROFIT_x,REPORTDATE_x,REPORTTIMETYPE_x,KCFJCXSYJLR,Year,Month,managesituationChangeRate,managesituationGreatChange,historyprofitextroplaterate,ifhistoryprofitextroplate,IfprofitdisStableChangeRage,IfprofitdisStable,predicttype,predict,analyst_prediction,adj_prediction
0,000001,19802000000.0,19802000000.0,2014-12-31,年度报告,19840999999.999992,2014,12,未知,未知,未知,未知,未知,未知,未知,未知,未知,未知
1,000001,5628999999.999999,5628999999.999999,2015-03-31,一季度报告,5637000000.0,2015,3,未知,未知,未知,未知,未知,未知,未知,未知,22975505099.0,未知
2,000001,11585000000.0,11585000000.0,2015-06-30,半年度报告,11591000000.000002,2015,6,未知,未知,未知,未知,未知,未知,未知,未知,23149744984.0,未知
3,000001,17740000000.0,17740000000.0,2015-09-30,三季度报告,17753999999.999996,2015,9,未知,未知,未知,未知,未知,未知,未知,未知,22960302958.999996,未知
4,000001,21865000000.0,21865000000.0,2015-12-31,年度报告,21828000000.0,2015,12,0.0,True,未知,未知,未知,未知,未知,未知,22682407703.999996,未知
5,000001,21865000000.0,21865000000.0,2015-12-31,年度报告,21902000000.0,2015,12,0.0,True,未知,未知,未知,未知,未知,未知,22682407703.999996,未知
6,000001,6085999999.999999,6085999999.999999,2016-03-31,一季度报告,6075000000.0,2016,3,2.51785397050986,False,未知,未知,未知,未知,未知,未知,23588341149.0,未知
7,000001,12291999999.999996,12291999999.999996,2016-06-30,半年度报告,12294000000.000004,2016,6,0.7092792403970651,False,未知,未知,未知,未知,未知,未知,23454471334.0,未知
8,000001,18719000000.0,18719000000.0,2016-09-30,三季度报告,18707000000.0,2016,9,0.11623449830890642,True,未知,未知,未知,未知,未知,未知,23328197104.000004,未知
9,000001,22599000000.0,22599000000.0,2016-12-31,年度报告,22606000000.0,2016,12,-0.09435170363594786,True,未知,未知,未知,未知,未知,未知,23328197104.000004,未知
10,000001,6214000000.000001,6214000000.000001,2017-03-31,一季度报告,6211999999.999999,2017,3,2.2536970095300695,False,未知,未知,未知,未知,未知,未知,23917993468.999996,未知
11,000001,12554000000.000002,12554000000.000002,2017-06-30,半年度报告,12512000000.0,2017,6,0.6109664822648883,False,未知,未知,未知,未知,未知,未知,23252879000.0,未知
12,000001,19153000000.0,19153000000.0,2017-09-30,三季度报告,19130000000.0,2017,9,0.05785565468240825,True,未知,未知,0.0,True,未知,未知,23261684286.000004,未知
13,000001,23189000000.0,23189000000.0,2017-12-31,年度报告,23162000000.000004,2017,12,-0.12376653834240453,True,0.08474332205342357,True,0.006813098821635999,True,比例外推,23189000000.0,28900000000.0,28900000000.0
14,000001,6594999999.999999,6594999999.999999,2018-03-31,一季度报告,6554999999.999999,2018,3,2.1866752494367554,False,0.060862142552283734,True,0.007334215571973446,True,前期平均,22956000000.0,24665583333.0,22956000000.0
15,000001,13372000000.0,13372000000.0,2018-06-30,半年度报告,13326000000.000004,2018,6,0.5773458658594868,False,0.05155589060602286,True,0.008909152595559577,True,前期平均,23646499999.999996,24689806432.0,23646499999.999996
16,000001,20456000000.0,20456000000.0,2018-09-30,三季度报告,20347000000.0,2018,9,0.03388503106562941,True,0.05065964508077567,True,0.0,True,比例外推,24853969413.50435,24578000000.0,24853969413.50435
17,000001,24818000000.0,24818000000.0,2018-12-31,年度报告,24700000000.0,2018,12,-0.14606063219629997,True,0.04304605973371716,True,0.0020542146784748305,True,比例外推,24818000000.0,24578000000.0,24818000000.0
18,000001,7445999999.999998,7445999999.999998,2019-03-31,一季度报告,7422000000.0,2019,3,2.0025777103866567,False,0.07235772357723562,True,0.0026555070028794203,True,前期平均,24186500000.0,27892221516.0,27892221516.0
19,000001,15403000000.000004,15403000000.000004,2019-06-30,半年度报告,15316000000.000004,2019,6,0.48085551899491474,True,0.07639056588585688,True,0.001971690108199753,True,比例外推,28387993632.841957,28358279665.0,28387993632.841957
20,000001,23621000000.000004,23621000000.000004,2019-09-30,三季度报告,23527000000.0,2019,9,-0.03197105983574501,True,0.08027038445289396,True,0.0,True,比例外推,28586127201.03764,28525188494.0,28586127201.03764
21,000001,28195000000.000008,28195000000.000008,2019-12-31,年度报告,28086000000.0,2019,12,-0.2021113707792731,True,0.08403948632829562,True,0.0022504772678644813,True,比例外推,28195000000.000008,28484779069.0,28195000000.000008
22,000001,8548000000.0,8548000000.0,2020-03-31,一季度报告,8506000000.000002,2020,3,1.6594144507117923,False,0.16262003278944462,True,未知,未知,前期平均,26095500000.0,31906869376.0,31906869376.0
