,SECURITYCODE_x,NETPROFIT_x,PARENTNETPROFIT_x,REPORTDATE_x,REPORTTIMETYPE_x,KCFJCXSYJLR,Year,Month,managesituationChangeRate,managesituationGreatChange,historyprofitextroplaterate,ifhistoryprofitextroplate,IfprofitdisStableChangeRage,IfprofitdisStable,predicttype,predict,analyst_prediction,adj_prediction
0,000150,91901534.01000002,91901534.01000002,2013-12-31,年度报告,93466911.54,2013,12,未知,未知,未知,未知,未知,未知,未知,未知,未知,未知
1,000150,-5140834.93,-5140834.93,2014-03-31,一季度报告,-5246766.38,2014,3,未知,未知,未知,未知,未知,未知,未知,未知,未知,未知
2,000150,6891358.57,6896955.5299999975,2014-06-30,半年度报告,-3053472.289999998,2014,6,未知,未知,未知,未知,未知,未知,未知,未知,未知,未知
3,000150,792677.6199999999,798247.4700000002,2014-09-30,三季度报告,978437.36,2014,9,未知,未知,未知,未知,未知,未知,未知,未知,未知,未知
4,000150,29822564.68,29822564.68,2014-12-31,年度报告,26900137.1,2014,12,0.0,True,未知,未知,未知,未知,未知,未知,未知,未知
5,000150,3767221.8300000005,3659470.26,2015-03-31,一季度报告,3272669.4700000007,2015,3,-18.876772014930275,False,未知,未知,未知,未知,未知,未知,86000000.0,未知
6,000150,2116070.990000001,1131516.99,2015-06-30,半年度报告,662174.1000000001,2015,6,12.335764360030975,False,未知,未知,未知,未知,未知,未知,,未知
7,000150,2159159.9200000004,916963.91,2015-09-30,三季度报告,426514.12,2015,9,114.93809600679786,False,未知,未知,未知,未知,未知,未知,72000000.0,未知
8,000150,55060945.78,51612681.25,2015-12-31,年度报告,55023014.41,2015,12,2.081610686274485,False,未知,未知,未知,未知,未知,未知,未知,未知
9,000150,962254003.6899996,962390560.6,2016-03-31,一季度报告,962401953.62,2016,3,23.395041799277323,False,未知,未知,未知,未知,未知,未知,982566667.0,未知
10,000150,933432137.57,933637767.4,2016-06-30,半年度报告,939956185.1100004,2016,6,42.43026979921878,False,未知,未知,未知,未知,未知,未知,1043385363.0000001,未知
11,000150,969410850.2900002,966804775.65,2016-09-30,三季度报告,971595600.5500002,2016,9,41.563560558311956,False,未知,未知,未知,未知,未知,未知,730156667.0,未知
12,000150,742736142.1999997,744386073.81,2016-12-31,年度报告,769881871.6499999,2016,12,0.6690874576909605,False,0.09531561338193074,True,0.0,True,前期平均,744386073.81,730156667.0,744386073.81
13,000150,40730835.22,47305179.65,2017-03-31,一季度报告,47493437.10000002,2017,3,-0.9044934771301746,True,-1402.0553680508726,True,0.878565592568433,False,平均增速,-729328043.6487896,268000000.0,268000000.0
14,000150,98099829.79,102848890.97999996,2017-06-30,半年度报告,103252772.22,2017,6,-0.9015444933691196,True,206.25827082016056,False,0.8477653845747561,False,未知,未知,274000000.0,未知
15,000150,150854559.13,151884031.15,2017-09-30,三季度报告,151065164.33999997,2017,9,-0.9051985708819872,True,655.8185661667547,False,0.8266292148718002,False,未知,未知,249000000.0,未知
16,000150,1729858.7100000004,1729858.7100000004,2017-12-31,年度报告,169899816.07000005,2017,12,-0.8762662420899759,True,16.500127838138884,False,0.0,True,比例外推,1729858.7100000004,232000000.0,232000000.0
17,000150,107638579.14,100556667.08,2018-03-31,一季度报告,100315948.55,2018,3,1.2563135156352931,False,0.9156730014952312,True,0.7203709328508632,False,前期平均,30171798.564999923,,30171798.564999923
18,000150,189240874.33,175395947.13,2018-06-30,半年度报告,143369230.16,2018,6,-0.06318355284885338,True,0.7902837525796865,True,0.6073524528773343,False,平均增速,458474828.802359,未知,458474828.802359
19,000150,234416739.48000005,205717459.91,2018-09-30,三季度报告,171600342.87,2018,9,-0.39079379145045784,True,0.6894622980439804,True,0.7118818535287333,False,平均增速,283337659.37672234,未知,283337659.37672234
20,000150,200680127.91,177415273.26999995,2018-12-31,年度报告,137003970.43,2018,12,52.12661287233106,False,0.9956634118222217,True,0.0,True,前期平均,177415273.26999995,未知,177415273.26999995
21,000150,54423589.92000001,53037217.08,2019-03-31,一季度报告,52981216.64000001,2019,3,-0.14620264644641592,True,0.7853634971053463,True,0.49612633695334585,False,平均增速,72145722.92532404,未知,72145722.92532404
22,000150,16044008.26,6494691.12,2019-06-30,半年度报告,4960724.61,2019,6,-0.5143674201708598,True,0.6330877174571251,True,0.3506384134953454,False,平均增速,4750186.70862506,未知,4750186.70862506
23,000150,15503764.689999998,2598887.89,2019-09-30,三季度报告,794502.9699999997,2019,9,-0.6079566066234751,True,0.5814978530822162,True,0.24541394096975555,False,平均增速,-6364373.260519508,未知,-6364373.260519508
24,000150,-1553817215.060001,-1572228737.16,2019-12-31,年度报告,-1800140714.6699996,2019,12,-0.5420496540085147,True,0.46087496899872343,True,0.0,True,比例外推,-1572228737.16,未知,-1572228737.16
25,000150,-56459526.44,-55184831.17,2020-03-31,一季度报告,-55722358.58,2020,3,0.6886341776624941,False,0.26637723610679076,True,0.4047725912935009,False,盈利变化,-1717166837.4533334,未知,-1717166837.4533334
