,SECURITYCODE_x,NETPROFIT_x,PARENTNETPROFIT_x,REPORTDATE_x,REPORTTIMETYPE_x,KCFJCXSYJLR,Year,Month,managesituationChangeRate,managesituationGreatChange,historyprofitextroplaterate,ifhistoryprofitextroplate,IfprofitdisStableChangeRage,IfprofitdisStable,predicttype,predict,analyst_prediction,adj_prediction
0,000166,1928820277.25,1883621267.48,2013-12-31,年度报告,1843108628.32,2013,12,未知,未知,未知,未知,未知,未知,未知,未知,未知,未知
1,000166,1919659856.23,1601738371.64,2014-06-30,半年度报告,1082947305.54,2014,6,未知,未知,未知,未知,未知,未知,未知,未知,未知,未知
2,000166,2730865000.0000005,2692876600.0000005,2014-08-31,其他报告,,2014,8,未知,未知,未知,未知,未知,未知,未知,未知,未知,未知
3,000166,3305724514.8700004,3259530970.01,2014-09-30,三季度报告,,2014,9,未知,未知,未知,未知,未知,未知,未知,未知,未知,未知
4,000166,5595106329.41,4681881579.59,2014-12-31,年度报告,3315059928.26,2014,12,0.0,True,未知,未知,未知,未知,未知,未知,未知,未知
5,000166,2046054851.14,1995748414.5400004,2015-03-31,一季度报告,2003348752.37,2015,3,未知,未知,未知,未知,未知,未知,未知,未知,9622000000.0,未知
6,000166,6944671504.499999,6785276949.740001,2015-06-30,半年度报告,6778697516.620003,2015,6,0.004771897995507411,True,未知,未知,未知,未知,未知,未知,10796000000.0,未知
7,000166,6944671504.499999,6785276949.740001,2015-06-30,半年度报告,6778697516.620003,2015,6,0.004771897995507411,True,未知,未知,未知,未知,未知,未知,10796000000.0,未知
8,000166,2046054851.14,1995748414.5400004,2015-06-30,半年度报告,6778697516.620003,2015,6,0.004771897995507411,True,未知,未知,未知,未知,未知,未知,10796000000.0,未知
9,000166,2046054851.14,1995748414.5400004,2015-06-30,半年度报告,6778697516.620003,2015,6,0.004771897995507411,True,未知,未知,未知,未知,未知,未知,10796000000.0,未知
10,000166,8064513654.300001,7823981983.08,2015-09-30,三季度报告,7794751285.079998,2015,9,-0.41652116848404347,True,未知,未知,未知,未知,未知,未知,10796000000.0,未知
11,000166,12428435749.94,12154187940.61,2015-12-31,年度报告,12109979377.29,2015,12,-0.6552665555055872,True,未知,未知,未知,未知,未知,未知,8163000000.0,未知
12,000166,1066990199.56,1046700102.75,2016-03-31,一季度报告,1043791653.0400002,2016,3,-0.057297864631869734,True,未知,未知,未知,未知,未知,未知,8158000000.0,未知
13,000166,2169571547.2,2104112599.16,2016-06-30,半年度报告,2059735087.04,2016,6,-0.7222589612769782,True,未知,未知,未知,未知,未知,未知,6499275000.0,未知
14,000166,3937946270.04,3849049954.18,2016-09-30,三季度报告,3804019606.15,2016,9,-0.7608262122265051,True,未知,未知,未知,未知,未知,未知,,未知
15,000166,5528285322.330001,5409058284.049999,2016-12-31,年度报告,5305329787.429999,2016,12,-0.844805869696087,True,2.3037099907217717,False,0.0,True,比例外推,5409058284.049999,5666000000.0,5409058284.049999
16,000166,995258708.7399998,971823577.6,2017-03-31,一季度报告,972599299.7099998,2017,3,0.8077207063808057,False,未知,未知,未知,未知,未知,未知,6394000000.0,未知
17,000166,2105136280.3,2049964857.7299995,2017-06-30,半年度报告,2030202355.44,2017,6,-0.1109671954634121,True,0.510494033016083,True,0.13486956041954662,False,平均增速,6969019988.187491,5259000000.0,5259000000.0
18,000166,3662429450.85,3583691007.9700007,2017-09-30,三季度报告,3560804301.96,2017,9,-0.5101963955362936,True,0.3073238728248276,True,,False,平均增速,5821860232.163229,,5821860232.163229
19,000166,4725752651.45,4599683411.820001,2017-12-31,年度报告,4498586074.0,2017,12,-0.6510997235509794,True,0.38654840452655653,True,0.0,True,比例外推,4599683411.820001,6398000000.0,6398000000.0
20,000166,1018363344.59,992983064.9999998,2018-03-31,一季度报告,984240157.12,2018,3,0.9380089421090239,False,0.3605883033936783,True,0.027361976394030763,True,前期平均,8177067444.655001,5166000000.0,5166000000.0
21,000166,2115183886.6300004,2065565400.29,2018-06-30,半年度报告,2048785543.13,2018,6,-0.08375514910838619,True,0.5380557072356441,True,0.09332861102819495,True,比例外推,4409237105.694209,4562729637.0,4409237105.694209
22,000166,3375425359.24,3311480442.01,2018-09-30,三季度报告,3233529878.25,2018,9,-0.4733495066226198,True,0.38972019503720323,True,0.07413171230106075,True,比例外推,4585197643.698771,4509500000.0,4585197643.698771
23,000166,4247807755.0300007,4160188689.17,2018-12-31,年度报告,4073374217.14,2018,12,-0.5918490832019782,True,0.4736508260689274,True,0.0,True,比例外推,4160188689.17,4509500000.0,4160188689.17
24,000166,1878937315.6600003,1862235397.6300008,2019-03-31,一季度报告,1845576581.08,2019,3,0.8940393794579832,False,0.012375915932009734,True,0.023436791639382143,True,前期平均,5755997851.97,5844000000.0,5755997851.97
25,000166,3232577347.54,3201520942.57,2019-06-30,半年度报告,3190451033.63,2019,6,-0.08810752131670342,True,0.01037265142537962,True,0.059263441215106294,True,比例外推,7140533067.991468,5577000000.0,5577000000.0
26,000166,4801713338.02,4756648129.54,2019-09-30,三季度报告,4739673684.090001,2019,9,-0.42856971434133945,True,0.1117740798096388,True,0.050440840786691865,True,比例外推,6192772213.806333,5789000000.0,6192772213.806333
27,000166,5803340743.3,5735412391.330001,2019-12-31,年度报告,5616179662.63,2019,12,-0.5459257131008328,True,0.17148585447180498,True,0.0,True,比例外推,5735412391.330001,,5735412391.330001
28,000166,1999155833.73,1987384589.49,2020-03-31,一季度报告,1974079120.3900003,2020,3,0.0265484969478493,True,0.86622639790097,True,0.06646891804854449,True,比例外推,7543679575.420503,6492398060.0,6492398060.0
