,SECURITYCODE_x,NETPROFIT_x,PARENTNETPROFIT_x,REPORTDATE_x,REPORTTIMETYPE_x,KCFJCXSYJLR,Year,Month,managesituationChangeRate,managesituationGreatChange,historyprofitextroplaterate,ifhistoryprofitextroplate,IfprofitdisStableChangeRage,IfprofitdisStable,predicttype,predict,analyst_prediction,adj_prediction
0,000159,35101717.60000001,35532901.35,2013-12-31,年度报告,43079365.09,2013,12,未知,未知,未知,未知,未知,未知,未知,未知,未知,未知
1,000159,13656742.680000005,13795756.350000005,2014-03-31,一季度报告,-4231118.56,2014,3,未知,未知,未知,未知,未知,未知,未知,未知,未知,未知
2,000159,6638567.51,7045217.6099999985,2014-06-30,半年度报告,-21235797.29,2014,6,未知,未知,未知,未知,未知,未知,未知,未知,未知,未知
3,000159,68650672.95000002,64870828.92000001,2014-09-30,三季度报告,-9996289.369999995,2014,9,未知,未知,未知,未知,未知,未知,未知,未知,未知,未知
4,000159,132578751.53,129027226.70000002,2014-12-31,年度报告,-61659697.31999999,2014,12,0.0,True,未知,未知,未知,未知,未知,未知,未知,未知
5,000159,-8953722.61,-11129584.29,2015-03-31,一季度报告,-11894265.240000002,2015,3,1.5702847613439834,False,未知,未知,未知,未知,未知,未知,未知,未知
6,000159,54438351.62,50329381.83000001,2015-06-30,半年度报告,-45734373.99,2015,6,4.287543968954834,False,未知,未知,未知,未知,未知,未知,未知,未知
7,000159,-37522155.51,-41591973.48,2015-09-30,三季度报告,-60603829.35,2015,9,-0.48869084465398527,True,未知,未知,未知,未知,未知,未知,未知,未知
8,000159,60074134.46,56021535.24999999,2015-12-31,年度报告,-45088539.51000001,2015,12,-0.7352387377697008,True,未知,未知,未知,未知,未知,未知,未知,未知
9,000159,-25050790.1,-24501566.25,2016-03-31,一季度报告,-10199035.569999997,2016,3,-4.920349013358591,False,未知,未知,未知,未知,未知,未知,未知,未知
10,000159,-15690951.46,-15489298.21,2016-06-30,半年度报告,-9403787.52,2016,6,-0.3552024160278935,True,未知,未知,未知,未知,未知,未知,未知,未知
11,000159,12856556.37,11621105.61,2016-09-30,三季度报告,-11391056.27,2016,9,-1.9354931006201146,False,未知,未知,未知,未知,未知,未知,未知,未知
12,000159,35865214.35,35217632.20999999,2016-12-31,年度报告,-11944065.939999998,2016,12,-0.41569332766047135,True,0.2834689123701642,True,0.0,True,比例外推,35217632.20999999,未知,35217632.20999999
13,000159,-20287407.370000005,-19594288.52,2017-03-31,一季度报告,-14692036.59,2017,3,-2.401221975829018,False,11.653065361041493,False,0.45846038304168885,False,去年同期,-21339318.89,未知,-21339318.89
14,000159,-61648104.46000001,-60385497.6,2017-06-30,半年度报告,-39122992.5,2017,6,-3.2370675028523737,False,1.5138095268558778,True,0.37094535855060934,False,前期平均,-80274530.375,未知,-80274530.375
15,000159,-55478451.66,-53220694.88999998,2017-09-30,三季度报告,-54815330.53,2017,9,1.730258133656051,False,0.1739692457386759,True,0.6578555323871068,False,盈利变化,15917954.761111103,未知,15917954.761111103
16,000159,-71131359.96999998,-66305287.36000002,2017-12-31,年度报告,-93512940.45,2017,12,-0.02128794610145673,True,0.6276701055818946,True,0.0,True,比例外推,-66305287.36000002,未知,-66305287.36000002
17,000159,-15024107.89,-14576148.830000002,2018-03-31,一季度报告,-2730824.2,2018,3,-2.7302219529493286,False,-0.19321853208229692,True,0.4289631003427477,False,前期平均,-32045801.150000006,未知,-32045801.150000006
18,000159,-41517391.92,-39154712.01000001,2018-06-30,半年度报告,7982963.94,2018,6,-1.5693884330665113,False,4.182051141776528,False,0.32163427784027676,False,去年同期,-93544659.96000001,未知,-93544659.96000001
19,000159,23061188.81,26833913.27,2018-09-30,三季度报告,15655296.839999998,2018,9,-1.6327090347640032,False,-3.4984475215954554,True,0.38277840132816177,False,盈利变化,-34985008.52888891,未知,-34985008.52888891
20,000159,49833590.74,59920131.10999999,2018-12-31,年度报告,-24738369.63000001,2018,12,-1.4934773862724449,False,2.4828401662569086,False,0.0,True,前期平均,59920131.10999999,未知,59920131.10999999
21,000159,21916055.98,23747774.58,2019-03-31,一季度报告,-2587323.22,2019,3,-3.3363595267685477,False,-0.33724282267986694,True,0.48009968926717084,False,盈利变化,60111465.74999999,未知,60111465.74999999
22,000159,9073162.56,11489455.15,2019-06-30,半年度报告,-1806430.4,2019,6,-1.8454701987937399,False,-0.07364620439499135,True,0.6170266287333177,False,盈利变化,53393868.21666666,未知,53393868.21666666
23,000159,-14436692.29,-11272652.830000002,2019-09-30,三季度报告,-17097391.220000006,2019,9,0.5221122332071141,False,-2.0821287346839616,True,0.9351827962094881,False,盈利变化,45363380.861111104,未知,45363380.861111104
24,000159,26060907.71,30416046.77,2019-12-31,年度报告,-15721120.340000002,2019,12,-0.29562134538651935,True,-3.8261433090515338,True,0.0,True,比例外推,30416046.77,未知,30416046.77
25,000159,-28602927.68,-27678483.87000001,2020-03-31,一季度报告,-16010375.74,2020,3,0.6016439103839161,False,-2.2412979629240635,True,0.03363739673544262,True,盈利变化,12518643.41,未知,12518643.41
