,SECURITYCODE_x,NETPROFIT_x,PARENTNETPROFIT_x,REPORTDATE_x,REPORTTIMETYPE_x,KCFJCXSYJLR,Year,Month,managesituationChangeRate,managesituationGreatChange,historyprofitextroplaterate,ifhistoryprofitextroplate,IfprofitdisStableChangeRage,IfprofitdisStable,predicttype,predict,analyst_prediction,adj_prediction
0,000301,330610870.45999986,330078934.70000005,2013-12-31,年度报告,184088033.91,2013,12,未知,未知,未知,未知,未知,未知,未知,未知,未知,未知
1,000301,44862877.01000001,44742344.14,2014-03-31,一季度报告,38185873.44,2014,3,未知,未知,未知,未知,未知,未知,未知,未知,未知,未知
2,000301,102037962.78,101678840.03,2014-06-30,半年度报告,87012237.04999998,2014,6,未知,未知,未知,未知,未知,未知,未知,未知,未知,未知
3,000301,156398360.79,156048667.36,2014-09-30,三季度报告,132372994.59,2014,9,未知,未知,未知,未知,未知,未知,未知,未知,未知,未知
4,000301,224741482.71,225158193.4,2014-12-31,年度报告,181649104.1,2014,12,0.0,True,未知,未知,未知,未知,未知,未知,未知,未知
5,000301,36735420.8,36600841.96999999,2015-03-31,一季度报告,36106952.53,2015,3,6.3693639930026364,False,未知,未知,未知,未知,未知,未知,220000000.0,未知
6,000301,90047026.39000002,89891274.29000002,2015-06-30,半年度报告,90240966.38,2015,6,2.240077138474597,False,未知,未知,未知,未知,未知,未知,,未知
7,000301,136606055.32999998,136416793.88,2015-09-30,三季度报告,135161688.24000004,2015,9,1.113902401470303,False,未知,未知,未知,未知,未知,未知,未知,未知
8,000301,166867799.86,166815265.33,2015-12-31,年度报告,166025975.67000002,2015,12,0.47107185764459286,True,未知,未知,未知,未知,未知,未知,未知,未知
9,000301,36430146.81,36293076.61,2016-03-31,一季度报告,36409145.61000001,2016,3,7.999784493008989,False,未知,未知,未知,未知,未知,未知,未知,未知
10,000301,88160787.76,88094329.30999999,2016-06-30,半年度报告,87771187.80999999,2016,6,2.6715356821234817,False,未知,未知,未知,未知,未知,未知,未知,未知
11,000301,143877147.59,143842264.52,2016-09-30,三季度报告,141503090.35000002,2016,9,1.4201772729718416,False,未知,未知,未知,未知,未知,未知,未知,未知
12,000301,147203132.46000004,147379259.23000002,2016-12-31,年度报告,506836670.9600001,2016,12,0.9812742226923242,False,0.3990561166887868,True,0.0,True,前期平均,147379259.23000002,未知,147379259.23000002
13,000301,3891469.639999999,3832130.4700000007,2017-03-31,一季度报告,1532068.69,2017,3,8.075200058464981,False,0.10708561850574708,True,0.09467447263736879,True,前期平均,140523257.37,未知,140523257.37
14,000301,144198956.34,144646157.35,2017-06-30,半年度报告,84815189.68,2017,6,2.7500897945696834,False,0.08206478662447168,True,0.22539965833974981,False,前期平均,229857095.52,未知,229857095.52
15,000301,1049771832.38,1049771832.38,2017-09-30,三季度报告,983515311.73,2017,9,1.2978692307837951,False,0.01791823143665456,True,0.32815043584598036,False,前期平均,1089842030.85,240390000.0,240390000.0
16,000301,882024419.4399998,882479747.92,2017-12-31,年度报告,1175419266.09,2017,12,1.2459499667905354,False,0.24821428392118097,True,0.0,True,前期平均,882479747.92,未知,882479747.92
17,000301,882024419.4399998,882479747.92,2017-12-31,年度报告,1175419266.09,2017,12,1.2459499667905354,False,0.24821428392118097,True,0.0,True,前期平均,882479747.92,未知,882479747.92
18,000301,1429157967.52,1429157967.52,2017-12-31,年度报告,1175419266.09,2017,12,1.2459499667905354,False,0.24821428392118097,True,0.0,True,前期平均,1429157967.52,未知,1429157967.52
19,000301,1429157967.52,1429157967.52,2017-12-31,年度报告,1175419266.09,2017,12,1.2459499667905354,False,0.24821428392118097,True,0.0,True,前期平均,1429157967.52,未知,1429157967.52
20,000301,319668475.32000005,319668475.32000005,2018-03-31,一季度报告,333405666.55,2018,3,83.957843962519,False,0.8936256556979645,True,0.12060532906074406,False,前期平均,619841749.565,245500000.0,245500000.0
21,000301,718390752.74,718390752.74,2018-06-30,半年度报告,689412591.25,2018,6,1.2927410769913472,False,0.6183236075004624,True,0.2805795199443069,False,前期平均,965815998.96,,965815998.96
22,000301,780746492.0999997,780740812.3,2018-09-30,三季度报告,764003350.2400001,2018,9,-0.6850640679599371,True,6.485452401079564,False,0.3641526380099147,False,未知,未知,1343534000.0,未知
23,000301,965183487.05,965312259.3099996,2018-12-31,年度报告,817342638.8999997,2018,12,-0.6251681210029245,True,4.616721120446283,False,0.0,True,比例外推,965312259.3099996,1324934000.0,1324934000.0
24,000301,356772797.9399999,357784636.12999994,2019-03-31,一季度报告,244121985.19000003,2019,3,0.034230448057307065,True,14.855935523636479,False,0.24756297311154793,False,未知,未知,1633543636.0,未知
25,000301,795234177.7499999,796246015.9399999,2019-06-30,半年度报告,609161116.5400001,2019,6,-0.5397896350989716,True,5.183435564732144,False,0.4805430462793457,False,未知,未知,1568000000.0,未知
26,000301,1187501690.08,1188513528.2700002,2019-09-30,三季度报告,943655533.55,2019,9,-0.5765451733625535,True,0.30816765263707957,True,0.40436628953278597,False,平均增速,1261652128.121049,1553400000.0,1553400000.0
27,000301,1612160788.5900006,1613795525.7100008,2019-12-31,年度报告,1350558317.8,2019,12,-0.6574631923402633,True,0.8755492607406948,True,0.0,True,比例外推,1613795525.7100008,1553600000.0,1613795525.7100008
28,000301,195741949.55,197012200.61,2020-03-31,一季度报告,85080903.95,2020,3,-0.07332937833562017,True,1.2052964435020272,True,0.2112562088941308,False,平均增速,1039224840.3118671,1568340000.0,1568340000.0
