,SECURITYCODE_x,NETPROFIT_x,PARENTNETPROFIT_x,REPORTDATE_x,REPORTTIMETYPE_x,KCFJCXSYJLR,Year,Month,managesituationChangeRate,managesituationGreatChange,historyprofitextroplaterate,ifhistoryprofitextroplate,IfprofitdisStableChangeRage,IfprofitdisStable,predicttype,predict,analyst_prediction,adj_prediction
0,000338,3817636075.499999,3570791384.620001,2013-12-31,年度报告,3343447505.25,2013,12,未知,未知,未知,未知,未知,未知,未知,未知,未知,未知
1,000338,1156581063.6599998,1054956335.34,2014-03-31,一季度报告,1038517774.13,2014,3,未知,未知,未知,未知,未知,未知,未知,未知,未知,未知
2,000338,3994456310.899999,3764836231.86,2014-06-30,半年度报告,2195846012.4,2014,6,未知,未知,未知,未知,未知,未知,未知,未知,未知,未知
3,000338,4955905130.0,4445430278.9,2014-09-30,三季度报告,2953817549.73,2014,9,未知,未知,未知,未知,未知,未知,未知,未知,未知,未知
4,000338,5718203962.809999,5002427212.6500025,2014-12-31,年度报告,3431663737.15,2014,12,0.0,True,未知,未知,未知,未知,未知,未知,未知,未知
5,000338,760727168.2500001,600188448.3499999,2015-03-31,一季度报告,548701928.65,2015,3,2.300794207557828,False,未知,未知,未知,未知,未知,未知,4046666115.0,未知
6,000338,1306136286.5900006,969149138.37,2015-06-30,半年度报告,883002425.2499998,2015,6,-0.04426640865178479,True,未知,未知,未知,未知,未知,未知,2903800000.0,未知
7,000338,1565795763.9500005,1042218784.2100002,2015-09-30,三季度报告,938431111.69,2015,9,-0.22967934709032675,True,未知,未知,未知,未知,未知,未知,1222000000.0,未知
8,000338,2198114074.3900003,1412273295.73,2015-12-31,年度报告,1087062617.32,2015,12,-0.33237147532177863,True,未知,未知,未知,未知,未知,未知,4188800000.0,未知
9,000338,709262304.8899999,456674426.17,2016-03-31,一季度报告,380507695.76999986,2016,3,4.018403752139161,False,未知,未知,未知,未知,未知,未知,1646000000.0,未知
10,000338,1621173463.57,1071175304.71,2016-06-30,半年度报告,909418214.4899998,2016,6,1.9228466544382625,False,未知,未知,未知,未知,未知,未知,1888666667.0,未知
11,000338,2270777357.0800004,1540618666.8099995,2016-09-30,三季度报告,1436892368.88,2016,9,1.4381443374641194,False,未知,未知,未知,未知,未知,未知,1945485713.9999998,未知
12,000338,3596253651.270001,2441188631.7299995,2016-12-31,年度报告,2165448183.47,2016,12,0.7367779588779682,False,0.5389784087067039,True,0.0,True,前期平均,2441188631.7299995,2030166667.0,2030166667.0
13,000338,1487333535.74,1179934074.18,2017-03-31,一季度报告,1165501843.4600005,2017,3,4.3825447217191105,False,0.26014785407410357,True,0.1770557286635976,False,前期平均,2645687400.025,3260285714.0,3260285714.0
14,000338,3476091143.7499995,2650042739.8299994,2017-06-30,半年度报告,2539160610.03,2017,6,1.3548597119848917,False,0.3883048229974598,True,0.20407519487883213,False,前期平均,3369981698.24,4541779530.0,4541779530.0
15,000338,5919947003.91,4603153427.030001,2017-09-30,三季度报告,4476450374.64,2017,9,0.6812022823801225,False,0.303624194361156,True,0.13230587449592768,False,前期平均,4916392273.555,6353308182.0,6353308182.0
16,000338,9178366777.820002,6808342544.2300005,2017-12-31,年度报告,6471752124.65,2017,12,0.061559179551147036,True,0.09143275083930429,True,0.0,True,比例外推,6808342544.2300005,2930732699.0,2930732699.0
17,000338,2560594533.01,1919634540.67,2018-03-31,一季度报告,1988866510.84,2018,3,1.566765277433614,False,1.0235975330666172,True,0.21790154584716853,False,前期平均,3081285128.8549995,7325761286.000001,7325761286.000001
18,000338,5882229084.900001,4392587359.49,2018-06-30,半年度报告,4178893623.29,2018,6,0.09825545925747552,True,1.374939067216924,True,0.27075102340314494,False,平均增速,12525399296.21547,7807256666.999999,7807256666.999999
19,000338,8047386769.66,6001291382.620001,2018-09-30,三季度报告,5687566721.18,2018,9,-0.355123268336941,True,2.086059781558746,False,0.12376660642883675,False,未知,未知,7644458333.000001,未知
20,000338,11625733542.47,8657527308.21,2018-12-31,年度报告,8009141060.3200035,2018,12,-0.584061503760613,True,2.1680304780016524,False,0.0,True,比例外推,8657527308.21,6748986666.999999,6748986666.999999
21,000338,3372582746.690001,2591351278.94,2019-03-31,一季度报告,2447694571.19,2019,3,0.49091784204207295,True,1.3314207244202034,True,0.046946921848925516,True,比例外推,12298404725.696205,9410539061.0,9410539061.0
22,000338,6892820306.14,5287488377.89,2019-06-30,半年度报告,4952443135.02,2019,6,-0.3509882018536006,True,1.3079944001544441,True,0.07707273719259555,True,比例外推,11471819581.823463,9502233750.0,9502233750.0
23,000338,9329185055.02,7058241497.72,2019-09-30,三季度报告,6447076829.66,2019,9,-0.525605493463651,True,0.9650000207520901,True,0.024905512180277034,True,比例外推,9975657819.053974,9662772273.0,9975657819.053974
24,000338,11907007092.489998,9104955354.349998,2019-12-31,年度报告,8322706676.960002,2019,12,-0.6716219186037783,True,0.8201297810768936,True,0.0,True,比例外推,9104955354.349998,9778549500.0,9104955354.349998
25,000338,2591680889.2200003,2064227451.41,2020-03-31,一季度报告,1823691588.62,2020,3,0.13196216734690724,True,0.6663254333624828,True,0.0607472384621954,True,比例外推,7812815449.462788,9803671500.0,9803671500.0
