,SECURITYCODE_x,NETPROFIT_x,PARENTNETPROFIT_x,REPORTDATE_x,REPORTTIMETYPE_x,KCFJCXSYJLR,Year,Month,managesituationChangeRate,managesituationGreatChange,historyprofitextroplaterate,ifhistoryprofitextroplate,IfprofitdisStableChangeRage,IfprofitdisStable,predicttype,predict,analyst_prediction,adj_prediction
0,000416,22896843.000000004,5889413.75,2013-12-31,年度报告,7293057.479999999,2013,12,未知,未知,未知,未知,未知,未知,未知,未知,未知,未知
1,000416,-18976.37,-3478895.6,2014-03-31,一季度报告,1168504.16,2014,3,未知,未知,未知,未知,未知,未知,未知,未知,未知,未知
2,000416,10608080.78,3455173.81,2014-06-30,半年度报告,4314504.15,2014,6,未知,未知,未知,未知,未知,未知,未知,未知,未知,未知
3,000416,28395702.75,19040034.87,2014-09-30,三季度报告,-1707927.3200000003,2014,9,未知,未知,未知,未知,未知,未知,未知,未知,未知,未知
4,000416,100044746.04,88243076.93000002,2014-12-31,年度报告,2734314.84,2014,12,0.0,True,未知,未知,未知,未知,未知,未知,未知,未知
5,000416,10327820.409999996,10154977.79,2015-03-31,一季度报告,-2159544.33,2015,3,-1207.597626416433,False,未知,未知,未知,未知,未知,未知,未知,未知
6,000416,26643530.63000001,25748345.31,2015-06-30,半年度报告,-2055454.72,2015,6,1.158434072558034,False,未知,未知,未知,未知,未知,未知,未知,未知
7,000416,-16968260.24,-18254734.0,2015-09-30,三季度报告,-10156968.64,2015,9,-0.1936511238483082,True,未知,未知,未知,未知,未知,未知,未知,未知
8,000416,23182008.45,21337140.52,2015-12-31,年度报告,-13091065.929999998,2015,12,-0.7711339784815351,True,未知,未知,未知,未知,未知,未知,未知,未知
9,000416,-10854669.21,-11180590.65,2016-03-31,一季度报告,-17873478.78,2016,3,1.2170063083039233,False,未知,未知,未知,未知,未知,未知,未知,未知
10,000416,-2565398.5900000003,-3419567.2299999995,2016-06-30,半年度报告,-47846776.07000001,2016,6,-0.14062279065152578,True,未知,未知,未知,未知,未知,未知,未知,未知
11,000416,11359177.52,9833748.38,2016-09-30,三季度报告,-39355514.84,2016,9,-2.3493924937586885,False,未知,未知,未知,未知,未知,未知,未知,未知
12,000416,18628738.47,16642972.359999998,2016-12-31,年度报告,-33925225.17,2016,12,-0.012301153742353826,True,0.6228776831173453,True,0.0,True,比例外推,16642972.359999998,未知,16642972.359999998
13,000416,6665816.83,6161058.01,2017-03-31,一季度报告,1564895.62,2017,3,-3.109400347170967,False,3.1058945441180628,False,0.20809028870991256,False,盈利变化,42560804.89333333,未知,42560804.89333333
14,000416,15706793.42,14357722.99,2017-06-30,半年度报告,6594268.69,2017,6,-9.925257497705259,False,1.1377335633492263,True,0.8914154482534522,False,前期平均,8049822.730000001,32650000.0,32650000.0
15,000416,28921892.31,26859138.83,2017-09-30,三季度报告,10264091.670000002,2017,9,1.0157131059608622,False,0.9880524465661911,True,1.0617303360527877,False,前期平均,27613211.265,,27613211.265
16,000416,29761528.07000001,27213804.6,2017-12-31,年度报告,10491202.729999997,2017,12,0.22911398626769197,True,0.697651073468599,True,0.0,True,比例外推,27213804.6,未知,27213804.6
17,000416,3871169.72,3305351.3900000006,2018-03-31,一季度报告,1359377.9600000002,2018,3,2.4349643237946585,False,-26.304477603441228,True,0.24652419798770198,False,前期平均,-10186282.605,未知,-10186282.605
18,000416,5905152.44,4799666.81,2018-06-30,半年度报告,4849123.58,2018,6,0.4577668648041596,True,0.30465215440358495,True,0.6783851669503089,False,平均增速,7905985.231216423,未知,7905985.231216423
19,000416,17878881.639999993,15733439.840000002,2018-09-30,三季度报告,13448664.3,2018,9,-0.20832140737612737,True,-11.312521228069892,True,0.1955593869823481,False,平均增速,15979758.39857512,未知,15979758.39857512
20,000416,22668566.230000004,19983416.039999995,2018-12-31,年度报告,14960241.61,2018,12,-0.2306563377342071,True,0.42363053819369606,True,0.0,True,比例外推,19983416.039999995,未知,19983416.039999995
21,000416,7953397.9300000025,7467937.509999999,2019-03-31,一季度报告,1052355.83,2019,3,4.9147091592770575,False,-2.8483199544024034,True,0.2712232554268748,False,前期平均,3905217.8699999964,未知,3905217.8699999964
22,000416,20481143.590000004,19053485.85,2019-06-30,半年度报告,9629764.56,2019,6,2.877434703446877,False,0.10128985295847771,True,0.6226778267020016,False,前期平均,27962728.32,未知,27962728.32
23,000416,31960396.169999994,29657786.57,2019-09-30,三季度报告,18129390.05,2019,9,0.28066416351084544,True,0.11229360513734926,True,0.14760675121416278,False,平均增速,32088143.03436847,未知,32088143.03436847
24,000416,31013175.32,28397542.32,2019-12-31,年度报告,14074290.379999995,2019,12,0.010070190045715985,True,0.06309397112901288,True,0.0,True,比例外推,28397542.32,未知,28397542.32
25,000416,7470741.08,7065686.18,2020-03-31,一季度报告,2988411.18,2020,3,1.8788755701049142,False,0.5096152761056721,True,0.044229252854091,True,前期平均,18329271.559999995,未知,18329271.559999995
