,SECURITYCODE_x,NETPROFIT_x,PARENTNETPROFIT_x,REPORTDATE_x,REPORTTIMETYPE_x,KCFJCXSYJLR,Year,Month,managesituationChangeRate,managesituationGreatChange,historyprofitextroplaterate,ifhistoryprofitextroplate,IfprofitdisStableChangeRage,IfprofitdisStable,predicttype,predict,analyst_prediction,adj_prediction
0,000410,34346678.81,19091624.140000004,2013-12-31,年度报告,-76671148.1,2013,12,未知,未知,未知,未知,未知,未知,未知,未知,未知,未知
1,000410,3005207.2800000007,9169420.86,2014-03-31,一季度报告,2305329.1900000004,2014,3,未知,未知,未知,未知,未知,未知,未知,未知,未知,未知
2,000410,2512473.84,9719492.240000002,2014-06-30,半年度报告,-58668577.24999999,2014,6,未知,未知,未知,未知,未知,未知,未知,未知,未知,未知
3,000410,4020838.430000001,16851698.400000002,2014-09-30,三季度报告,-55499837.16999999,2014,9,未知,未知,未知,未知,未知,未知,未知,未知,未知,未知
4,000410,22083615.710000005,25578595.12,2014-12-31,年度报告,-64479681.52,2014,12,0.0,True,未知,未知,未知,未知,未知,未知,未知,未知
5,000410,-142677730.53,-139947155.01,2015-03-31,一季度报告,-144745001.50000003,2015,3,10.429054840436828,False,未知,未知,未知,未知,未知,未知,51995000.0,未知
6,000410,-266238317.84,-266418335.67,2015-06-30,半年度报告,-277094034.84,2015,6,12.67046226041502,False,未知,未知,未知,未知,未知,未知,,未知
7,000410,-471589920.65,-470363818.76,2015-09-30,三季度报告,-490924316.87,2015,9,7.542168358155092,False,未知,未知,未知,未知,未知,未知,未知,未知
8,000410,-639874048.28,-638033996.1600001,2015-12-31,年度报告,-679464447.25,2015,12,0.5553014171699692,False,未知,未知,未知,未知,未知,未知,未知,未知
9,000410,-129798906.33,-124455963.85999995,2016-03-31,一季度报告,-130646314.91,2016,3,-1.240729080021203,False,未知,未知,未知,未知,未知,未知,未知,未知
10,000410,-456479471.81999993,-443725390.0100001,2016-06-30,半年度报告,-455777170.4599999,2016,6,-1.1290072709618046,False,未知,未知,未知,未知,未知,未知,-318695000.0,未知
11,000410,-813848249.9500003,-798325829.2700001,2016-09-30,三季度报告,-816487431.95,2016,9,-1.0728316643465565,False,未知,未知,未知,未知,未知,未知,,未知
12,000410,-1437441786.58,-1403329308.89,2016-12-31,年度报告,-1431602839.94,2016,12,-1.0536772492998032,False,23.67838768954913,False,0.0,True,去年同期,-1403329308.89,未知,-1403329308.89
13,000410,-269795109.0300001,-267104813.98,2017-03-31,一季度报告,-273761228.00999993,2017,3,-1.2646145470800592,False,-0.8586176194106954,True,0.12526414796356616,False,前期平均,-567857042.21,未知,-567857042.21
14,000410,-495382923.72,-496978424.7000001,2017-06-30,半年度报告,-507173518.68,2017,6,-1.0752425485270094,False,-2.4617727629302797,True,0.36452436104408736,False,前期平均,-701069183.0400001,-566448454.0,-566448454.0
15,000410,-780519519.64,-782234340.5900003,2017-09-30,三季度报告,-785499015.32,2017,9,-1.042202804776087,False,-2.4811893296531933,True,0.14752945493180958,False,前期平均,-880994327.9550003,,-880994327.9550003
16,000410,108353262.59999998,117751570.5,2017-12-31,年度报告,-1074082423.2399998,2017,12,-1.0238943094118047,False,-3.65349319380121,True,0.0,True,盈利变化,-1284155836.6566668,未知,-1284155836.6566668
17,000410,6151945.48,12789859.97,2018-03-31,一季度报告,9687821.159999998,2018,3,-1.1273065287709896,False,-0.9803173742827889,True,0.0951298978858521,True,盈利变化,495683636.05999994,未知,495683636.05999994
18,000410,8200892.339999997,25248000.940000005,2018-06-30,半年度报告,29419107.27999999,2018,6,-1.0693335946101634,False,-0.37088897162210765,True,0.08108929503234169,True,盈利变化,475479987.8066667,未知,475479987.8066667
19,000410,-211807236.5,-175341773.50000003,2018-09-30,三季度报告,-175897492.28,2018,9,-1.044004894106738,False,-0.21440227541349433,True,0.10439187114046566,False,前期平均,-577169542.6850001,未知,-577169542.6850001
20,000410,-864093342.04,-788262394.7,2018-12-31,年度报告,-773984592.3799998,2018,12,-0.6830120479454763,True,-1.1043204512108313,True,0.0,True,比例外推,-788262394.7,未知,-788262394.7
21,000410,-469653021.82,-453641693.17,2019-03-31,一季度报告,-452634326.81,2019,3,4.583059687648597,False,-1.0307909790613736,True,0.1436721225501753,False,盈利变化,-1404691925.3266668,未知,-1404691925.3266668
22,000410,-1430927649.38,-1410103668.2499995,2019-06-30,半年度报告,-1399474358.0,2019,6,3.1881636029378746,False,-1.0172312560689984,True,0.2888602292597597,False,盈利变化,-1740858038.22,未知,-1740858038.22
23,000410,-2580048554.27,-2555162225.6099987,2019-09-30,三季度报告,-2539231472.1299987,2019,9,-1.1621600818629254,False,-0.7343056720790746,True,0.2823758065402999,False,前期平均,-3007011633.5649986,未知,-3007011633.5649986
24,000410,-3116594934.87,-2988269764.4500003,2019-12-31,年度报告,-4944411233.16,2019,12,-1.039748806221458,False,-0.30027959229148043,True,0.0,True,前期平均,-2988269764.4500003,未知,-2988269764.4500003
25,000410,-227626376.82,-224535029.59,2020-03-31,一季度报告,-226132789.56,2020,3,-1.07313202984812,False,-2.5627930987934,True,0.14357683400929327,False,前期平均,-1016531833.9749998,未知,-1016531833.9749998
