,SECURITYCODE_x,NETPROFIT_x,PARENTNETPROFIT_x,REPORTDATE_x,REPORTTIMETYPE_x,KCFJCXSYJLR,Year,Month,managesituationChangeRate,managesituationGreatChange,historyprofitextroplaterate,ifhistoryprofitextroplate,IfprofitdisStableChangeRage,IfprofitdisStable,predicttype,predict,analyst_prediction,adj_prediction
0,000413,409544339.12000006,369297308.74000007,2013-12-31,年度报告,73813371.39999999,2013,12,未知,未知,未知,未知,未知,未知,未知,未知,未知,未知
1,000413,220553478.72,207652354.2,2014-03-31,一季度报告,205657309.7,2014,3,未知,未知,未知,未知,未知,未知,未知,未知,未知,未知
2,000413,439098956.35,407536660.9,2014-06-30,半年度报告,265334873.54000005,2014,6,未知,未知,未知,未知,未知,未知,未知,未知,未知,未知
3,000413,640740245.0200001,604318819.09,2014-09-30,三季度报告,283168493.76,2014,9,未知,未知,未知,未知,未知,未知,未知,未知,未知,未知
4,000413,523424590.8899999,468902701.4399999,2014-12-31,年度报告,78312630.78,2014,12,0.0,True,未知,未知,未知,未知,未知,未知,未知,未知
5,000413,171874681.25,158271987.09999996,2015-03-31,一季度报告,34492437.26,2015,3,0.8568935819866631,False,未知,未知,未知,未知,未知,未知,1166000000.0,未知
6,000413,437150826.87000006,400081730.63000005,2015-06-30,半年度报告,182980317.37,2015,6,-0.06730741852741358,True,未知,未知,未知,未知,未知,未知,1090656533.0,未知
7,000413,793614616.8299999,739888047.1099999,2015-09-30,三季度报告,327555953.98,2015,9,-0.360826259466164,True,未知,未知,未知,未知,未知,未知,1073980900.0,未知
8,000413,1392523686.1799998,1326233674.37,2015-12-31,年度报告,734157856.81,2015,12,-0.21756763773051754,True,未知,未知,未知,未知,未知,未知,1073980900.0,未知
9,000413,365992915.38,347750532.74,2016-03-31,一季度报告,269369501.1,2016,3,1.382807846632734,False,未知,未知,未知,未知,未知,未知,1634846000.0,未知
10,000413,570324423.85,545963710.72,2016-06-30,半年度报告,459894653.13000005,2016,6,-0.06315094482987131,True,未知,未知,未知,未知,未知,未知,1620372500.0,未知
11,000413,847814546.0199999,801836908.63,2016-09-30,三季度报告,618240914.75,2016,9,-0.4839506097356464,True,未知,未知,未知,未知,未知,未知,1340800000.0,未知
12,000413,1388784208.7,1303685863.9,2016-12-31,年度报告,961311896.6,2016,12,-0.7058977572988573,True,1.9851448239869556,True,0.0,True,比例外推,1303685863.9,1572324000.0,1572324000.0
13,000413,425101424.92000014,387022905.51000017,2017-03-31,一季度报告,352582887.6799998,2017,3,0.11899526441592966,True,0.8652734574806205,True,1.6416734671302646,False,平均增速,2688068939.3566856,,2688068939.3566856
14,000413,685767271.37,637480381.47,2017-06-30,半年度报告,564088026.98,2017,6,-0.2819098709549329,True,0.3017393779070612,True,2.016218918565597,False,平均增速,2284289001.2550206,1588518000.0,1588518000.0
15,000413,1136533660.4199998,1055534505.8100004,2017-09-30,三季度报告,967638159.0900004,2017,9,-0.5169411269922479,True,0.18215452614913855,True,2.047485831277535,False,平均增速,2240365135.1307077,1523799328.0,1523799328.0
16,000413,1920899021.88,1730174564.5699992,2017-12-31,年度报告,1534569793.4299998,2017,12,-0.7051058497393469,True,0.4497094992812903,True,0.0,True,比例外推,1730174564.5699992,1523799328.0,1523799328.0
17,000413,432003462.95000017,425984601.16999984,2018-03-31,一季度报告,395736897.36,2018,3,-0.03659617420225717,True,0.5806917077119561,True,0.13866858603536797,False,平均增速,1947947652.1806614,2348980000.0,2348980000.0
18,000413,894060729.24,858296089.0800003,2018-06-30,半年度报告,811345478.77,2018,6,-0.40279398533874644,True,0.3613580499965852,True,0.11583782529371248,False,平均增速,2261224287.7251,2198500000.0,2261224287.7251
19,000413,1355553714.2500002,1315157554.0099995,2018-09-30,三季度报告,1251998827.1100006,2018,9,-0.6396548968301957,True,0.38480987927209215,True,0.12711695021969943,False,平均增速,2093764182.123878,1988000000.0,2093764182.123878
20,000413,2268828086.1800013,2163607505.39,2018-12-31,年度报告,2045875472.2800004,2018,12,-0.7867954877090959,True,0.3812918917866715,True,0.0,True,比例外推,2163607505.39,,2163607505.39
21,000413,450694729.19000006,431060886.41,2019-03-31,一季度报告,396063134.95000017,2019,3,-0.05198829582669227,True,0.0921667390166767,True,0.045742986796319524,True,比例外推,1724201754.8402936,未知,1724201754.8402936
22,000413,881097420.75,844176169.9800001,2019-06-30,半年度报告,778095326.6599997,2019,6,-0.5419278291440729,True,0.423559653554446,True,0.06421435680084642,True,比例外推,1944681405.9949164,未知,1944681405.9949164
23,000413,1185675793.33,1134880387.3500006,2019-09-30,三季度报告,962026486.57,2019,9,-0.697876716492498,True,0.36624581295831954,True,0.016585738034988307,True,比例外推,1703407339.7951212,2147000000.0,2147000000.0
24,000413,-1558120438.9000006,-1523458244.3900006,2019-12-31,年度报告,-1841552033.3600004,2019,12,-0.8194908016104715,True,0.3710243114610121,True,0.0,True,比例外推,-1523458244.3900006,,-1523458244.3900006
25,000413,-333342592.23,-332074298.57,2020-03-31,一季度报告,-354123553.35,2020,3,-0.09130435171486588,True,0.051667621007332916,True,0.28444407931662297,False,平均增速,426004684.4345836,未知,426004684.4345836
