,SECURITYCODE_x,NETPROFIT_x,PARENTNETPROFIT_x,REPORTDATE_x,REPORTTIMETYPE_x,KCFJCXSYJLR,Year,Month,managesituationChangeRate,managesituationGreatChange,historyprofitextroplaterate,ifhistoryprofitextroplate,IfprofitdisStableChangeRage,IfprofitdisStable,predicttype,predict,analyst_prediction,adj_prediction
0,000402,3520034870.81,2891517256.52,2013-12-31,年度报告,2624847880.2000003,2013,12,未知,未知,未知,未知,未知,未知,未知,未知,未知,未知
1,000402,349442980.85999995,267768062.64999995,2014-03-31,一季度报告,267025353.48999995,2014,3,未知,未知,未知,未知,未知,未知,未知,未知,未知,未知
2,000402,486793807.6999999,369524401.82,2014-06-30,半年度报告,314530973.6,2014,6,未知,未知,未知,未知,未知,未知,未知,未知,未知,未知
3,000402,751427562.72,580558606.9200001,2014-09-30,三季度报告,509104998.17,2014,9,未知,未知,未知,未知,未知,未知,未知,未知,未知,未知
4,000402,3112537826.0999994,2927455188.8399987,2014-12-31,年度报告,2067655335.83,2014,12,0.0,True,未知,未知,未知,未知,未知,未知,未知,未知
5,000402,799833767.3100003,797579156.1699997,2015-03-31,一季度报告,-89138255.96999998,2015,3,9.073273934840485,False,未知,未知,未知,未知,未知,未知,3175000000.0,未知
6,000402,888657544.65,858801226.3299999,2015-06-30,半年度报告,-69276027.16,2015,6,6.231059259856728,False,未知,未知,未知,未知,未知,未知,3118000000.0,未知
7,000402,1061387158.27,1013394415.45,2015-09-30,三季度报告,60829404.76000001,2015,9,3.684463340775337,False,未知,未知,未知,未知,未知,未知,2997000000.0,未知
8,000402,2265055422.7000003,2253185469.54,2015-12-31,年度报告,600785688.7199999,2015,12,0.1309211542082986,True,未知,未知,未知,未知,未知,未知,2993333333.0,未知
9,000402,780637760.85,779951649.2099997,2016-03-31,一季度报告,787274665.87,2016,3,3.4009580673851465,False,未知,未知,未知,未知,未知,未知,2750374000.0,未知
10,000402,754066566.53,758623105.82,2016-06-30,半年度报告,703491428.4799997,2016,6,2.9610701467643246,False,未知,未知,未知,未知,未知,未知,2701627435.0,未知
11,000402,777080256.08,803834519.3600001,2016-09-30,三季度报告,727945044.47,2016,9,2.3164475784194094,False,未知,未知,未知,未知,未知,未知,2837790000.0,未知
12,000402,2815596273.2000003,2804370409.02,2016-12-31,年度报告,1292485276.4499998,2016,12,0.5540612541012503,False,0.31699039687714237,True,0.0,True,前期平均,2804370409.02,3325000000.0,3325000000.0
13,000402,551896363.6700001,538398054.73,2017-03-31,一季度报告,517360710.31,2017,3,3.5091783248829755,False,0.3584852596957414,True,0.4124864337077907,False,前期平均,1783675018.2450001,3198993388.0000005,3198993388.0000005
14,000402,1179002836.58,1061419087.31,2017-06-30,半年度报告,1002394785.26,2017,6,3.668069142765737,False,0.09646417554740067,True,0.3505921869468659,False,前期平均,2273012126.365,3291609638.0000005,3291609638.0000005
15,000402,1660518243.1399994,1443926530.98,2017-09-30,三季度报告,1349177749.11,2017,9,3.529821525214011,False,0.14268099537979576,True,0.2596512442129091,False,前期平均,2493179841.79,3328935300.0000005,3328935300.0000005
16,000402,4102689364.92,3006412344.59,2017-12-31,年度报告,1756410945.8300002,2017,12,0.2501916216877878,True,0.04715851234315492,True,0.0,True,比例外推,3006412344.59,3313443388.0000005,3006412344.59
17,000402,585496785.2400001,547937091.61,2018-03-31,一季度报告,424465674.53,2018,3,5.378072229725295,False,0.3016054337751684,True,0.4001371649324136,False,前期平均,1145504369.245,3528307143.0,3528307143.0
18,000402,1018569696.73,864971152.34,2018-06-30,半年度报告,707452193.9699999,2018,6,1.9856033943232603,False,0.4354240356685334,True,0.4485393229989669,False,前期平均,1494498934.265,3531946000.0,3531946000.0
19,000402,1222718224.6999998,1040908275.6600002,2018-09-30,三季度报告,847432571.99,2018,9,1.1198411311360843,False,0.8064157462666638,True,0.3762861982078825,False,前期平均,1593156533.63,3428716667.0,3428716667.0
20,000402,4037487439.77,3268570827.61,2018-12-31,年度报告,2981952943.4100003,2018,12,-0.14201769675568932,True,0.6150248473953845,True,0.0,True,比例外推,3268570827.61,3375000000.0,3268570827.61
21,000402,689231487.9399999,610896149.3600001,2019-03-31,一季度报告,517328668.2800001,2019,3,5.012048160720656,False,0.12122808044273478,True,0.26044446202214727,False,前期平均,1483026572.4100003,3621218148.0,3621218148.0
22,000402,1393870514.2200005,1052641785.3899996,2019-06-30,半年度报告,1030218850.83,2019,6,2.455860587754244,False,0.053836654898457424,True,0.21350356496484157,False,前期平均,1724146789.6599998,3603426667.0,3603426667.0
23,000402,1821568583.9500003,1375331776.87,2019-09-30,三季度报告,1409362479.0299995,2019,9,1.878860231001839,False,0.0032154393689150817,True,0.25432796645213274,False,前期平均,1861218491.2199998,3634360000.0,3634360000.0
24,000402,4120652854.75,3441864333.900001,2019-12-31,年度报告,2865275261.37,2019,12,-0.12816202568533,True,0.16719304491369943,True,0.0,True,比例外推,3441864333.900001,3655360000.0,3441864333.900001
25,000402,246604015.56,164517227.71,2020-03-31,一季度报告,106375663.78,2020,3,4.1071881253289915,False,0.21194942768999828,True,0.08873841689385223,True,前期平均,2062785979.91,3866600000.0,3866600000.0
