,SECURITYCODE_x,NETPROFIT_x,PARENTNETPROFIT_x,REPORTDATE_x,REPORTTIMETYPE_x,KCFJCXSYJLR,Year,Month,managesituationChangeRate,managesituationGreatChange,historyprofitextroplaterate,ifhistoryprofitextroplate,IfprofitdisStableChangeRage,IfprofitdisStable,predicttype,predict,analyst_prediction,adj_prediction
0,000404,253682222.04,161222634.0,2013-12-31,年度报告,136667113.69,2013,12,未知,未知,未知,未知,未知,未知,未知,未知,未知,未知
1,000404,85949583.03000002,55110696.29999999,2014-03-31,一季度报告,57015114.27000001,2014,3,未知,未知,未知,未知,未知,未知,未知,未知,未知,未知
2,000404,204087465.64,140636012.71,2014-06-30,半年度报告,140350404.75000003,2014,6,未知,未知,未知,未知,未知,未知,未知,未知,未知,未知
3,000404,248548593.0,160974230.98999998,2014-09-30,三季度报告,154018615.60000002,2014,9,未知,未知,未知,未知,未知,未知,未知,未知,未知,未知
4,000404,289568238.48,187184740.40000004,2014-12-31,年度报告,170758648.73000002,2014,12,0.0,True,未知,未知,未知,未知,未知,未知,未知,未知
5,000404,67856038.67,38547345.83,2015-03-31,一季度报告,33973330.04000001,2015,3,1.9515235920511012,False,未知,未知,未知,未知,未知,未知,209090714.99999997,未知
6,000404,189365254.52,122185866.79,2015-06-30,半年度报告,113058394.89,2015,6,0.243007360812068,True,未知,未知,未知,未知,未知,未知,185300000.0,未知
7,000404,275928729.27,181762017.13,2015-09-30,三季度报告,162764515.89000002,2015,9,0.020654428086020152,True,未知,未知,未知,未知,未知,未知,225700000.0,未知
8,000404,331615685.21,217894895.46,2015-12-31,年度报告,184968878.72,2015,12,-0.12392939442658733,True,未知,未知,未知,未知,未知,未知,250000000.0,未知
9,000404,76142431.35000002,50168923.08,2016-03-31,一季度报告,42352467.44,2016,3,2.738535685434229,False,未知,未知,未知,未知,未知,未知,254300000.0,未知
10,000404,196620391.89,126324223.85,2016-06-30,半年度报告,108604360.11000004,2016,6,0.33964502982888595,True,未知,未知,未知,未知,未知,未知,238287500.0,未知
11,000404,286360528.58000004,181151363.6,2016-09-30,三季度报告,154403479.84000003,2016,9,-0.08062410640912814,True,未知,未知,未知,未知,未知,未知,227709575.0,未知
12,000404,395765556.5599999,252290794.64999995,2016-12-31,年度报告,203176268.25000003,2016,12,-0.23501139012965444,True,0.22085744719876374,True,0.0,True,比例外推,252290794.64999995,228115000.0,228115000.0
13,000404,81459047.79,52657968.00000001,2017-03-31,一季度报告,46776362.50000001,2017,3,2.331680083525464,False,0.009887538460500693,True,0.09188786677942873,True,前期平均,185027509.57000002,284993333.0,284993333.0
14,000404,208476714.67000005,126405355.06,2017-06-30,半年度报告,112836226.15,2017,6,0.29021318491687,True,0.0005386578085260409,True,0.16602778567096477,False,平均增速,227114622.67738628,281100000.0,281100000.0
15,000404,217416576.59000003,119972752.63,2017-09-30,三季度报告,99443823.21,2017,9,-0.11411595970312217,True,0.09198440588659869,True,0.08734204282284752,True,比例外推,137895794.73765922,,137895794.73765922
16,000404,212098044.04,97123634.22,2017-12-31,年度报告,60290327.88,2017,12,-0.3590088428992921,True,0.27422987449206904,True,0.0,True,比例外推,97123634.22,279293333.0,279293333.0
17,000404,32422374.51,13040823.139999995,2018-03-31,一季度报告,4993392.58,2018,3,2.114230142905529,False,0.13138768458701133,True,0.38652711357833436,False,前期平均,168950497.885,235500000.0,235500000.0
18,000404,119555640.25,60266493.89000001,2018-06-30,半年度报告,36698387.82,2018,6,0.21683720141866306,True,0.08023040032194789,True,0.8657778231646951,False,平均增速,33393921.964595374,,33393921.964595374
19,000404,144351646.99999997,62681826.57999999,2018-09-30,三季度报告,42173014.37000001,2018,9,0.16680257788433955,True,0.22667355438613232,True,0.5529757014354877,False,平均增速,40723062.861914456,未知,40723062.861914456
20,000404,163785526.30999997,72147188.31,2018-12-31,年度报告,253918.69,2018,12,0.196061110267276,True,0.41681739407003837,True,0.0,True,比例外推,72147188.31,未知,72147188.31
21,000404,31597614.64,13102345.169999998,2019-03-31,一季度报告,-631283.01,2019,3,6.824294977585835,False,0.5885524084301434,True,12.78211285608705,False,前期平均,100271228.26500002,未知,100271228.26500002
22,000404,94418395.93,47875840.95,2019-06-30,半年度报告,36659215.16,2019,6,1.1218758187362055,False,0.4097433019690439,True,95.55004510651892,False,前期平均,68888845.88499999,未知,68888845.88499999
23,000404,116663269.43000002,61194841.05999999,2019-09-30,三季度报告,48874539.10999999,2019,9,0.7573905619518151,False,0.42692255952644625,True,109.92265033436925,False,前期平均,66004487.599999994,未知,66004487.599999994
24,000404,100014036.09,30626402.76,2019-12-31,年度报告,35410248.15000001,2019,12,0.5488683753401435,False,0.46111092637120144,True,0.0,True,前期平均,30626402.76,未知,30626402.76
25,000404,25719504.21,8180808.2,2020-03-31,一季度报告,1569244.6000000003,2020,3,7.02852446079455,False,0.44507867917627864,True,12.85753936765564,False,前期平均,12568053.944999997,未知,12568053.944999997
