,SECURITYCODE_x,NETPROFIT_x,PARENTNETPROFIT_x,REPORTDATE_x,REPORTTIMETYPE_x,KCFJCXSYJLR,Year,Month,managesituationChangeRate,managesituationGreatChange,historyprofitextroplaterate,ifhistoryprofitextroplate,IfprofitdisStableChangeRage,IfprofitdisStable,predicttype,predict,analyst_prediction,adj_prediction
0,000407,53242226.31000002,22955160.870000005,2013-12-31,年度报告,17707710.630000006,2013,12,未知,未知,未知,未知,未知,未知,未知,未知,未知,未知
1,000407,9873811.65,11469749.06,2014-03-31,一季度报告,-37844728.87000001,2014,3,未知,未知,未知,未知,未知,未知,未知,未知,未知,未知
2,000407,14312585.340000002,16046847.319999995,2014-06-30,半年度报告,-33252866.44,2014,6,未知,未知,未知,未知,未知,未知,未知,未知,未知,未知
3,000407,49180851.5,40635967.67,2014-09-30,三季度报告,-8672953.379999999,2014,9,未知,未知,未知,未知,未知,未知,未知,未知,未知,未知
4,000407,52989019.36999999,36702777.48,2014-12-31,年度报告,-228870.67,2014,12,0.0,True,未知,未知,未知,未知,未知,未知,未知,未知
5,000407,5719419.020000001,8121496.62,2015-03-31,一季度报告,8055820.910000001,2015,3,4.392266755463177,False,未知,未知,未知,未知,未知,未知,133542113.00000001,未知
6,000407,13343292.16,17143783.999999996,2015-06-30,半年度报告,17094411.729999997,2015,6,2.719958696854136,False,未知,未知,未知,未知,未知,未知,128000000.0,未知
7,000407,19543424.12,21028597.88,2015-09-30,三季度报告,20964624.25,2015,9,0.08258040855596038,True,未知,未知,未知,未知,未知,未知,96010000.0,未知
8,000407,41466575.41,28739381.4,2015-12-31,年度报告,26241267.64,2015,12,0.004778479447449104,True,未知,未知,未知,未知,未知,未知,92885852.0,未知
9,000407,56089990.53,53369122.35000001,2016-03-31,一季度报告,2074595.84,2016,3,8.30902703995274,False,未知,未知,未知,未知,未知,未知,284132500.0,未知
10,000407,582030.0,18468113.539999995,2016-06-30,半年度报告,-38483183.43,2016,6,2.9901866549551754,False,未知,未知,未知,未知,未知,未知,150260000.0,未知
11,000407,3093774.6000000006,19500794.35,2016-09-30,三季度报告,-38632056.63,2016,9,1.7243038877467707,False,未知,未知,未知,未知,未知,未知,150260000.0,未知
12,000407,-325191718.74999994,-292688463.91,2016-12-31,年度报告,-347525481.0700002,2016,12,0.28397934441338574,True,0.21931489846387361,True,0.0,True,比例外推,-292688463.91,,-292688463.91
13,000407,43409442.10999999,24216955.570000004,2017-03-31,一季度报告,24788436.15,2017,3,-0.050771344282485545,True,6.194146192926164,False,110.13579981069938,False,未知,未知,167620000.0,未知
14,000407,76150307.58999999,42557049.97,2017-06-30,半年度报告,44526529.75,2017,6,90.47677320756665,False,0.9579091279963906,True,96.60666313118631,False,前期平均,63642475.81,115390000.0,115390000.0
15,000407,132114534.56000002,80454671.63000001,2017-09-30,三季度报告,81609972.02,2017,9,16.20947166286775,False,0.9099655959385723,True,24.95967967445246,False,前期平均,87315034.68,115390000.0,115390000.0
16,000407,122703196.55999996,62302459.69,2017-12-31,年度报告,49213394.71000002,2017,12,-1.1637256524079305,False,7.885599937355028,False,0.0,True,前期平均,62302459.69,未知,62302459.69
17,000407,53941434.91000001,32959546.11,2018-03-31,一季度报告,32608301.55,2018,3,0.22651256782069773,True,0.40462244910734596,True,0.2742075521795671,False,平均增速,-18765995.523659028,194910000.0,194910000.0
18,000407,112872486.53,72004998.31,2018-06-30,半年度报告,64564159.04999999,2018,6,-0.30082716675734406,True,9.936954522853206,False,0.44490904272117715,False,未知,未知,,未知
19,000407,141819730.62,90355877.88,2018-09-30,三季度报告,79170903.00999999,2018,9,-0.5969994786166394,True,10.672339514630545,False,0.8021647475766189,False,未知,未知,106910000.0,未知
20,000407,181890213.33,102530653.04,2018-12-31,年度报告,100856917.47999996,2018,12,-0.5660893293520239,True,-1.8649441153895867,True,0.0,True,比例外推,102530653.04,,102530653.04
21,000407,53655457.85,34332377.29,2019-03-31,一季度报告,33241701.059999995,2019,3,-0.01296236559458618,True,0.08425613048802243,True,0.2796482037531501,False,平均增速,140626854.23271188,未知,140626854.23271188
22,000407,127677979.32999995,85218473.79999998,2019-06-30,半年度报告,78544771.46999998,2019,6,-0.5282975688158607,True,1.9419796157678877,True,0.4411502396114436,False,平均增速,145319888.5170101,未知,145319888.5170101
23,000407,173997367.9,115745827.59999996,2019-09-30,三季度报告,107001720.00000004,2019,9,-0.624578145246515,True,1.0977960822241521,True,0.8068099951326314,False,平均增速,153121928.3565167,未知,153121928.3565167
24,000407,203953875.68,133427291.24,2019-12-31,年度报告,124438974.19,2019,12,-0.7072837216733391,True,-2.796548380745531,True,0.0,True,比例外推,133427291.24,,133427291.24
25,000407,28831447.83000001,19198668.85,2020-03-31,一季度报告,18447446.15,2020,3,-0.00770157513435484,True,0.10231072369233794,True,0.138980232119798,False,平均增速,119358221.64373705,未知,119358221.64373705
