,SECURITYCODE_x,NETPROFIT_x,PARENTNETPROFIT_x,REPORTDATE_x,REPORTTIMETYPE_x,KCFJCXSYJLR,Year,Month,managesituationChangeRate,managesituationGreatChange,historyprofitextroplaterate,ifhistoryprofitextroplate,IfprofitdisStableChangeRage,IfprofitdisStable,predicttype,predict,analyst_prediction,adj_prediction
0,000422,200448742.47,67940203.94,2013-12-31,年度报告,-15509182.070000002,2013,12,未知,未知,未知,未知,未知,未知,未知,未知,未知,未知
1,000422,53258758.74,47138813.66,2014-03-31,一季度报告,34929506.06999999,2014,3,未知,未知,未知,未知,未知,未知,未知,未知,未知,未知
2,000422,65643547.39999998,32523483.54,2014-06-30,半年度报告,947746.2200000002,2014,6,未知,未知,未知,未知,未知,未知,未知,未知,未知,未知
3,000422,49810548.46,18177543.4,2014-09-30,三季度报告,-23751777.47,2014,9,未知,未知,未知,未知,未知,未知,未知,未知,未知,未知
4,000422,78996015.99000001,31026267.35,2014-12-31,年度报告,-44930607.20000001,2014,12,0.0,True,未知,未知,未知,未知,未知,未知,未知,未知
5,000422,11429740.750000002,10416625.24,2015-03-31,一季度报告,-9508191.11,2015,3,2.763676570994752,False,未知,未知,未知,未知,未知,未知,,未知
6,000422,36570398.03999999,25140267.93,2015-06-30,半年度报告,-12161388.6,2015,6,2.0535939998574797,False,未知,未知,未知,未知,未知,未知,未知,未知
7,000422,42698358.09,33849791.35,2015-09-30,三季度报告,-11401603.86,2015,9,3.024222753358536,False,未知,未知,未知,未知,未知,未知,未知,未知
8,000422,54308267.42999999,35395961.39,2015-12-31,年度报告,-34714849.300000004,2015,12,1.5374538191315181,False,未知,未知,未知,未知,未知,未知,204000000.0,未知
9,000422,1594715.7999999996,13397274.73,2016-03-31,一季度报告,-1603445.6000000003,2016,3,16.537470608858733,False,未知,未知,未知,未知,未知,未知,46760000.0,未知
10,000422,-46505993.56999999,16086025.19,2016-06-30,半年度报告,-15344110.590000002,2016,6,4.481174753710722,False,未知,未知,未知,未知,未知,未知,,未知
11,000422,-34655912.75,18371974.76,2016-09-30,三季度报告,-41804792.13,2016,9,3.6945304558899488,False,未知,未知,未知,未知,未知,未知,104543333.0,未知
12,000422,-1407681287.52,-1249447321.1100006,2016-12-31,年度报告,-1329606915.2499998,2016,12,2.6909434227185773,False,0.6113130356834106,True,0.0,True,盈利变化,-396234727.25999993,92810000.0,92810000.0
13,000422,57602879.53999999,64014934.15000001,2017-03-31,一季度报告,3084187.84,2017,3,124.69558943982372,False,0.9506955390039145,True,0.6099733795556441,False,前期平均,11481548.42000001,,11481548.42000001
14,000422,91824842.15,82590516.58000001,2017-06-30,半年度报告,-38948318.62,2017,6,-5.3101700895452995,False,1.9099735534090936,True,0.23673265901162255,False,前期平均,48374609.52000001,未知,48374609.52000001
15,000422,-1247512202.7299998,-1230799526.0799994,2017-09-30,三季度报告,-1346161157.71,2017,9,-6.783969503732087,False,1.7492448898694717,True,0.2647284860975691,False,盈利变化,-1829161261.3677783,未知,-1829161261.3677783
16,000422,-5147244769.169999,-5090695151.150001,2017-12-31,年度报告,-5098339484.089999,2017,12,-1.142396396291623,False,22.119820780024565,False,0.0,True,去年同期,-5090695151.150001,431620000.0,431620000.0
17,000422,-409582370.48000014,-387654631.9,2018-03-31,一季度报告,-411006872.6100001,2018,3,2.47983892594825,False,7.845340965876997,False,0.18239570347090506,False,前期平均盈利变化,-1478350756.27,未知,-1478350756.27
18,000422,258641437.56000003,238214255.68,2018-06-30,半年度报告,-471648022.68,2018,6,1.1829467688336233,False,-19.484013740845185,True,0.22715500326788501,False,前期平均,-430193876.99999994,未知,-430193876.99999994
19,000422,396296346.78,334631333.68,2018-09-30,三季度报告,-440994838.85,2018,9,-1.160678782966088,False,311.23206251097736,False,0.1765307113574852,False,前期平均,-320926350.59999985,未知,-320926350.59999985
20,000422,313956297.26000005,268776992.1100001,2018-12-31,年度报告,-562812960.4899999,2018,12,-1.0389429202338716,False,-6.606542605419613,True,0.0,True,盈利变化,-3578852976.6166677,未知,-3578852976.6166677
21,000422,5551470.07,28223201.47,2019-03-31,一季度报告,-93350144.91,2019,3,-1.489397876756973,False,14.837804327272874,False,0.48664804822909613,False,前期平均,-3186490369.3199997,未知,-3186490369.3199997
22,000422,75426850.78,50378946.66,2019-06-30,半年度报告,-135450738.11999995,2019,6,-0.22499370417588405,True,10.41429871517711,False,0.5522861647620778,False,未知,未知,未知,未知
23,000422,103682854.69000004,112650870.97,2019-09-30,三季度报告,-337737894.88999987,2019,9,-0.4941948264254953,True,-1.6181659674661932,True,0.42387638187634535,False,平均增速,35801047.97078918,未知,35801047.97078918
24,000422,106154213.83,164393911.64000002,2019-12-31,年度报告,-666793260.2900001,2019,12,-0.3615393472932948,True,-1.0957924756266546,True,0.0,True,比例外推,164393911.64000002,未知,164393911.64000002
25,000422,-216547510.5,-189141626.34000003,2020-03-31,一季度报告,-243705717.91000003,2020,3,35.10732651756871,False,-1.0315442814873912,True,0.44038382211397475,False,盈利变化,-36080185.69333336,未知,-36080185.69333336
