,SECURITYCODE_x,NETPROFIT_x,PARENTNETPROFIT_x,REPORTDATE_x,REPORTTIMETYPE_x,KCFJCXSYJLR,Year,Month,managesituationChangeRate,managesituationGreatChange,historyprofitextroplaterate,ifhistoryprofitextroplate,IfprofitdisStableChangeRage,IfprofitdisStable,predicttype,predict,analyst_prediction,adj_prediction
0,000533,183508611.26,182566506.97,2013-12-31,年度报告,95514719.49,2013,12,未知,未知,未知,未知,未知,未知,未知,未知,未知,未知
1,000533,30938838.26,27386227.96,2014-03-31,一季度报告,19280194.350000005,2014,3,未知,未知,未知,未知,未知,未知,未知,未知,未知,未知
2,000533,71947685.71000002,61238117.32,2014-06-30,半年度报告,47522996.66,2014,6,未知,未知,未知,未知,未知,未知,未知,未知,未知,未知
3,000533,109061422.28,87745535.00000001,2014-09-30,三季度报告,71213372.61,2014,9,未知,未知,未知,未知,未知,未知,未知,未知,未知,未知
4,000533,160162813.04999998,127153169.01,2014-12-31,年度报告,104275223.31,2014,12,0.0,True,未知,未知,未知,未知,未知,未知,未知,未知
5,000533,59834985.73,51952618.30000001,2015-03-31,一季度报告,19715827.28,2015,3,4.931334903975802,False,未知,未知,未知,未知,未知,未知,未知,未知
6,000533,105090423.24,87533791.53999999,2015-06-30,半年度报告,49174813.7,2015,6,1.5505839339943368,False,未知,未知,未知,未知,未知,未知,未知,未知
7,000533,163385476.07999998,111592344.5,2015-09-30,三季度报告,46358821.26000001,2015,9,0.6826170741553985,False,未知,未知,未知,未知,未知,未知,未知,未知
8,000533,171918774.10999998,123795073.26000002,2015-12-31,年度报告,91645006.92999998,2015,12,0.1457629131595726,True,未知,未知,未知,未知,未知,未知,145000000.0,未知
9,000533,39068577.06,29928771.07,2016-03-31,一季度报告,27346308.68,2016,3,2.066911590621349,False,未知,未知,未知,未知,未知,未知,,未知
10,000533,64788859.00999998,45682005.95,2016-06-30,半年度报告,44227437.01000001,2016,6,0.7461972804211917,False,未知,未知,未知,未知,未知,未知,未知,未知
11,000533,47686957.55,16020268.550000004,2016-09-30,三季度报告,26193460.2,2016,9,0.12316354955655254,True,未知,未知,未知,未知,未知,未知,未知,未知
12,000533,261797612.36,226657894.04,2016-12-31,年度报告,5041869.64,2016,12,0.06741461024253464,True,0.00048338004922451286,True,0.0,True,比例外推,226657894.04,未知,226657894.04
13,000533,7140801.760000003,3491610.12,2017-03-31,一季度报告,2909987.26,2017,3,3.6970897091587083,False,0.13921050490714257,True,3.4825519903291875,False,前期平均,81953714.425,未知,81953714.425
14,000533,40255465.18,24135608.65,2017-06-30,半年度报告,12542184.05,2017,6,1.8324099862860053,False,0.2680800829351609,True,5.517245658529758,False,前期平均,73746818.58999997,未知,73746818.58999997
15,000533,39574015.98,23980884.000000004,2017-09-30,三季度报告,22358762.64,2017,9,2.8481928956694365,False,0.6499357648257135,True,3.0671956799154247,False,前期平均,63154902.18499999,未知,63154902.18499999
16,000533,66627239.12,38189966.72000001,2017-12-31,年度报告,13583561.02,2017,12,-0.2990439843750148,True,0.5767065834569354,True,0.0,True,比例外推,38189966.72000001,未知,38189966.72000001
17,000533,18051971.09,8318030.159999997,2018-03-31,一季度报告,8154011.8500000015,2018,3,24.698600441191907,False,0.8556007173338754,True,3.472774849110099,False,前期平均,33130400.46499999,未知,33130400.46499999
18,000533,29956192.0,14522685.560000002,2018-06-30,半年度报告,7548161.84,2018,6,3.558601184695091,False,0.5260697520400548,True,5.361382431665499,False,前期平均,16164998.489999983,未知,16164998.489999983
19,000533,-16167918.72,-21909300.58,2018-09-30,三季度报告,-30758572.36,2018,9,3.637098528305593,False,0.6250195698281342,True,2.7461691380482374,False,盈利变化,14582262.27555557,未知,14582262.27555557
20,000533,-1226986389.14,-967754652.9999998,2018-12-31,年度报告,-842064756.3600001,2018,12,1.754258073480863,False,0.6927612550575901,True,0.0,True,盈利变化,-247026139.07333332,未知,-247026139.07333332
21,000533,-5101494.44,-4506507.92,2019-03-31,一季度报告,-4440718.95,2019,3,9.165571966911454,False,0.21868800009980324,True,3.5477134958636016,False,盈利变化,-984547627.3999997,未知,-984547627.3999997
22,000533,-21777532.31,-15419753.840000002,2019-06-30,半年度报告,-16000614.159999998,2019,6,5.125899155006083,False,0.4296466328667804,True,5.543230156240096,False,盈利变化,-983453836.9999998,未知,-983453836.9999998
23,000533,-9315796.05,1288226.41,2019-09-30,三季度报告,-16609869.11,2019,9,-12.35016908719343,False,1.370564711026093,True,2.9026106582644142,False,前期平均,-13675169.68,未知,-13675169.68
24,000533,-10252072.59,2924433.6399999987,2019-12-31,年度报告,-30759618.40000001,2019,12,-1.149560429426297,False,8.471946069919861,False,0.0,True,前期平均,2924433.6399999987,未知,2924433.6399999987
25,000533,-1313648.26,724153.78,2020-03-31,一季度报告,-1264046.38,2020,3,-36.971539990544414,False,1.4049966607784503,True,0.1259879255221127,False,前期平均,-419048443.4450001,未知,-419048443.4450001
