,SECURITYCODE_x,NETPROFIT_x,PARENTNETPROFIT_x,REPORTDATE_x,REPORTTIMETYPE_x,KCFJCXSYJLR,Year,Month,managesituationChangeRate,managesituationGreatChange,historyprofitextroplaterate,ifhistoryprofitextroplate,IfprofitdisStableChangeRage,IfprofitdisStable,predicttype,predict,analyst_prediction,adj_prediction
0,000536,527387879.49,382751144.99,2013-12-31,年度报告,446639121.42,2013,12,未知,未知,未知,未知,未知,未知,未知,未知,未知,未知
1,000536,142744617.21,101141577.22,2014-03-31,一季度报告,52272578.33999999,2014,3,未知,未知,未知,未知,未知,未知,未知,未知,未知,未知
2,000536,236572916.15000004,163394358.32000002,2014-06-30,半年度报告,110152077.3,2014,6,未知,未知,未知,未知,未知,未知,未知,未知,未知,未知
3,000536,327015459.09000003,222104348.4,2014-09-30,三季度报告,167635019.70000002,2014,9,未知,未知,未知,未知,未知,未知,未知,未知,未知,未知
4,000536,374065420.86,249723457.04999992,2014-12-31,年度报告,68691986.64000002,2014,12,0.0,True,未知,未知,未知,未知,未知,未知,未知,未知
5,000536,54168585.11000001,30567578.300000004,2015-03-31,一季度报告,20428233.16,2015,3,2.694625337179115,False,未知,未知,未知,未知,未知,未知,未知,未知
6,000536,73918734.88999999,35012426.32,2015-06-30,半年度报告,21085400.19,2015,6,1.2292825741540403,False,未知,未知,未知,未知,未知,未知,未知,未知
7,000536,112111011.27,68563403.25999999,2015-09-30,三季度报告,46556543.00000001,2015,9,0.6127307282584894,False,未知,未知,未知,未知,未知,未知,未知,未知
8,000536,200599868.77,151962504.48999998,2015-12-31,年度报告,116280304.97,2015,12,0.40988140063174505,True,未知,未知,未知,未知,未知,未知,未知,未知
9,000536,55870229.82000001,60862478.39000002,2016-03-31,一季度报告,52576721.88,2016,3,8.736046795740275,False,未知,未知,未知,未知,未知,未知,456080000.0,未知
10,000536,389341490.37,397670461.1800001,2016-06-30,半年度报告,-59567486.31999999,2016,6,6.134698399192261,False,未知,未知,未知,未知,未知,未知,510000000.0,未知
11,000536,397428889.37,409170778.43,2016-09-30,三季度报告,-57271736.37,2016,9,3.704157722918737,False,未知,未知,未知,未知,未知,未知,,未知
12,000536,380723198.4699999,395669654.38,2016-12-31,年度报告,-55170159.38,2016,12,1.6290539606218906,False,0.5549411851016248,True,0.0,True,前期平均,395669654.38,550000000.0,550000000.0
13,000536,53252824.38999999,55413696.12000001,2017-03-31,一季度报告,42380737.91,2017,3,8.43951512619713,False,0.4325395233864886,True,0.947545176832148,False,前期平均,111549436.17500003,407000000.0,407000000.0
14,000536,67731156.72000001,70740911.23000002,2017-06-30,半年度报告,43493424.59,2017,6,0.3545637763620091,True,1.5079031211685747,True,0.7735349826047677,False,平均增速,78082938.40265833,245000000.0,245000000.0
15,000536,176320171.77999997,180106673.42,2017-09-30,三季度报告,27409374.2,2017,9,0.3269993540882486,True,0.8100885106934412,True,1.1474330030194075,False,平均增速,183351239.96763703,245000000.0,245000000.0
16,000536,198474445.16,204984864.14,2017-12-31,年度报告,-330978223.55,2017,12,0.3852265415120401,True,0.32502590756831584,True,0.0,True,比例外推,204984864.14,620000000.0,620000000.0
17,000536,-144418589.60000002,-142143888.17,2018-03-31,一季度报告,-146088863.08,2018,3,8.903472454862596,False,0.03210836241963898,True,0.6512060268924231,False,盈利变化,-46307937.18000004,未知,-46307937.18000004
18,000536,-274220683.51000005,-271237449.9699999,2018-06-30,半年度报告,-282585907.23,2018,6,6.786488597414875,False,0.7075891560429708,True,0.7031619398391638,False,盈利变化,-12401357.073333383,未知,-12401357.073333383
19,000536,-461835735.6100001,-460504161.53,2018-09-30,三季度报告,-483106580.0700001,2018,9,1.9910807944767537,False,0.30792398570343305,True,0.5862054958595,False,盈利变化,-21911115.5355556,未知,-21911115.5355556
20,000536,-4986059117.699999,-4966376035.17,2018-12-31,年度报告,-5004178727.369999,2018,12,1.6572079799232933,False,0.3171630153872439,True,0.0,True,盈利变化,-1352748637.1333327,,-1352748637.1333327
21,000536,-373661535.0199999,-371596041.27,2019-03-31,一季度报告,-389826028.52000016,2019,3,-4.651800512321302,False,3.646894199315135,False,0.6023768387000148,False,去年同期,-5229685905.559999,未知,-5229685905.559999
22,000536,-714324192.9700001,-711576172.1199999,2019-06-30,半年度报告,-1036245510.82,2019,6,-2.923224290522081,False,2.1998997763522024,False,0.7447827826643136,False,去年同期,-5433168992.259999,未知,-5433168992.259999
23,000536,-1496875708.12,-1493113474.4699998,2019-09-30,三季度报告,-1821644239.72,2019,9,-2.1419382235404925,False,2.609887551482227,False,0.6874859572021341,False,去年同期,-6014185621.769999,未知,-6014185621.769999
24,000536,-2592684141.150001,-2587137410.7700005,2019-12-31,年度报告,-3102844393.8700004,2019,12,-1.1057724882598818,False,18.217125009179657,False,0.0,True,去年同期,-2587137410.7700005,未知,-2587137410.7700005
25,000536,-406363898.91000015,-404830668.99000007,2020-03-31,一季度报告,-416989705.0099999,2020,3,-2.411405322899431,False,-7.197409063792133,True,0.13697408159214844,False,前期平均,-3020555081.865,未知,-3020555081.865
