,SECURITYCODE_x,NETPROFIT_x,PARENTNETPROFIT_x,REPORTDATE_x,REPORTTIMETYPE_x,KCFJCXSYJLR,Year,Month,managesituationChangeRate,managesituationGreatChange,historyprofitextroplaterate,ifhistoryprofitextroplate,IfprofitdisStableChangeRage,IfprofitdisStable,predicttype,predict,analyst_prediction,adj_prediction
0,000504,13329624.38,13801492.1,2013-12-31,年度报告,-22702302.78,2013,12,未知,未知,未知,未知,未知,未知,未知,未知,未知,未知
1,000504,-4861252.04,-4761546.849999999,2014-03-31,一季度报告,-4676076.94,2014,3,未知,未知,未知,未知,未知,未知,未知,未知,未知,未知
2,000504,-9184719.29,-9052521.8,2014-06-30,半年度报告,-9341036.47,2014,6,未知,未知,未知,未知,未知,未知,未知,未知,未知,未知
3,000504,-13458429.769999998,-13276197.85,2014-09-30,三季度报告,-13560407.07,2014,9,未知,未知,未知,未知,未知,未知,未知,未知,未知,未知
4,000504,-26561189.69,-26151229.17,2014-12-31,年度报告,-25757332.67000001,2014,12,0.0,True,未知,未知,未知,未知,未知,未知,未知,未知
5,000504,-3879519.13,-3809230.22,2015-03-31,一季度报告,-3764233.42,2015,3,-3.7420146641892695,False,未知,未知,未知,未知,未知,未知,未知,未知
6,000504,-7434513.870000001,-7354008.88,2015-06-30,半年度报告,-7309012.090000003,2015,6,-2.4512827185162678,False,未知,未知,未知,未知,未知,未知,未知,未知
7,000504,-21532331.15,-21217954.28,2015-12-31,年度报告,-23647904.98,2015,12,-1.501845908845659,False,未知,未知,未知,未知,未知,未知,未知,未知
8,000504,-4713233.55,-4659180.77,2016-03-31,一季度报告,-4659079.8500000015,2016,3,-4.435896030753688,False,未知,未知,未知,未知,未知,未知,未知,未知
9,000504,-12663565.409999998,-12570519.79,2016-06-30,半年度报告,-12539017.689999998,2016,6,-2.7929382624179566,False,未知,未知,未知,未知,未知,未知,未知,未知
10,000504,-15866849.489999998,-15809605.54,2016-09-30,三季度报告,-15778103.47,2016,9,未知,未知,未知,未知,未知,未知,未知,未知,未知,未知
11,000504,28897385.05,21756098.06,2016-12-31,年度报告,-21550397.7,2016,12,-1.6190516153194126,False,-2.254691436050509,True,0.0,True,未知,未知,未知,未知
12,000504,-5876015.48,-4897168.18,2017-03-31,一季度报告,-5053745.830000001,2017,3,-3.828127280049596,False,-0.07844799007591452,True,0.030555797924484956,True,前期平均,-25379631.825000007,未知,-25379631.825000007
13,000504,-13080958.45,-12036394.29,2017-06-30,半年度报告,-12430935.619999995,2017,6,-2.052596480409383,False,-0.5239650696374246,True,0.1639868400160011,False,前期平均,-28413988.835,未知,-28413988.835
14,000504,-22869766.18,-20490821.23,2017-09-30,三季度报告,-21500059.369999994,2017,9,-1.8400926969403049,False,未知,未知,未知,未知,未知,未知,未知,未知
15,000504,-36249200.68,-37119370.18999999,2017-12-31,年度报告,-37986486.47,2017,12,-0.5387255851373306,True,-2.201716345373727,True,0.0,True,比例外推,-37119370.18999999,未知,-37119370.18999999
16,000504,-6330245.77,-7265661.500000003,2018-03-31,一季度报告,-6535770.419999997,2018,3,-3.2684801334117655,False,-0.36766777744614443,True,0.04672343152942668,True,前期平均,-25653156.205000002,未知,-25653156.205000002
17,000504,-14528164.96,-15449940.11,2018-06-30,半年度报告,-14654898.35,2018,6,-2.019009763768495,False,-0.3017122947680997,True,0.1757898956503356,False,前期平均,-28125076.56,未知,-28125076.56
18,000504,-23341174.52,-23010118.49,2018-09-30,三季度报告,-22366665.020000007,2018,9,-1.582849176291841,False,未知,未知,未知,未知,未知,未知,未知,未知
19,000504,-38049976.35,-35188300.29,2018-12-31,年度报告,-34644771.15000001,2018,12,-1.3677218843436303,False,10.843566977832976,False,0.0,True,去年同期,-35188300.29,未知,-35188300.29
20,000504,-6556844.23,-6546948.1400000015,2019-03-31,一季度报告,-6556327.310000001,2019,3,-3.105704085482924,False,-0.19559862121780677,True,0.04625478538384645,True,前期平均,-31458977.384999998,未知,-31458977.384999998
21,000504,-14194715.000000002,-14324100.569999995,2019-06-30,半年度报告,-14357741.129999995,2019,6,-1.9175022734598686,False,-0.12864118513163297,True,0.1378138601863756,False,前期平均,-31607565.999999993,未知,-31607565.999999993
22,000504,-20455055.4,-20088395.46,2019-09-30,三季度报告,-19989404.56,2019,9,-1.571077705133409,False,-0.2051220333157204,True,0.0842352629576123,True,前期平均,-31217756.125000004,未知,-31217756.125000004
23,000504,18269312.880000006,18806368.87,2019-12-31,年度报告,-28259668.09,2019,12,-1.35031886110489,False,-9.351178066743769,True,0.0,True,盈利变化,-33059932.603333328,未知,-33059932.603333328
24,000504,-562222.11,-1600061.1900000004,2020-03-31,一季度报告,-1564162.31,2020,3,-3.0329329037606247,False,-0.07434112636250521,True,0.05152424285216908,True,前期平均,-32120931.87500001,未知,-32120931.87500001
