,SECURITYCODE_x,NETPROFIT_x,PARENTNETPROFIT_x,REPORTDATE_x,REPORTTIMETYPE_x,KCFJCXSYJLR,Year,Month,managesituationChangeRate,managesituationGreatChange,historyprofitextroplaterate,ifhistoryprofitextroplate,IfprofitdisStableChangeRage,IfprofitdisStable,predicttype,predict,analyst_prediction,adj_prediction
0,000560,93862181.69,74998058.94,2013-12-31,年度报告,60257761.02,2013,12,未知,未知,未知,未知,未知,未知,未知,未知,未知,未知
1,000560,84446670.55000001,50541583.35000001,2014-03-31,一季度报告,49868943.27,2014,3,未知,未知,未知,未知,未知,未知,未知,未知,未知,未知
2,000560,88690708.27000001,58575305.25000001,2014-06-30,半年度报告,47585765.36,2014,6,未知,未知,未知,未知,未知,未知,未知,未知,未知,未知
3,000560,79468688.3,53365365.04,2014-09-30,三季度报告,40609987.85000001,2014,9,未知,未知,未知,未知,未知,未知,未知,未知,未知,未知
4,000560,89442446.34000002,71062651.64,2014-12-31,年度报告,47267934.47000001,2014,12,0.0,True,未知,未知,未知,未知,未知,未知,未知,未知
5,000560,5202933.3,2471234.27,2015-03-31,一季度报告,2846525.95,2015,3,0.11149653477960576,True,未知,未知,未知,未知,未知,未知,未知,未知
6,000560,3667634.6600000006,4299523.41,2015-06-30,半年度报告,3062637.0800000015,2015,6,0.0583090779279441,True,未知,未知,未知,未知,未知,未知,未知,未知
7,000560,7865257.020000001,13412405.539999995,2015-09-30,三季度报告,10657299.95,2015,9,0.18112156747401606,True,未知,未知,未知,未知,未知,未知,未知,未知
8,000560,7865257.020000001,13412405.539999995,2015-09-30,三季度报告,10657299.95,2015,9,0.18112156747401606,True,未知,未知,未知,未知,未知,未知,未知,未知
9,000560,4197622.36,9112882.13,2015-09-30,三季度报告,10657299.95,2015,9,0.18112156747401606,True,未知,未知,未知,未知,未知,未知,未知,未知
10,000560,4197622.36,9112882.13,2015-09-30,三季度报告,10657299.95,2015,9,0.18112156747401606,True,未知,未知,未知,未知,未知,未知,未知,未知
11,000560,20223164.48,30827450.600000005,2015-12-31,年度报告,13699778.06,2015,12,0.049414294117125536,True,未知,未知,未知,未知,未知,未知,未知,未知
12,000560,18307379.69,16451972.69,2016-03-31,一季度报告,281850.08,2016,3,17.04024312400853,False,未知,未知,未知,未知,未知,未知,未知,未知
13,000560,40482449.18,36388038.99999999,2016-06-30,半年度报告,19710134.87,2016,6,24.5920205776439,False,未知,未知,未知,未知,未知,未知,未知,未知
14,000560,64566923.94,61588734.57,2016-09-30,三季度报告,21364230.49,2016,9,10.933771706547486,False,未知,未知,未知,未知,未知,未知,未知,未知
15,000560,87688182.04,79165752.17,2016-12-31,年度报告,21276778.300000004,2016,12,3.641320194118304,False,0.7793491119417865,True,0.0,True,前期平均,79165752.17,未知,79165752.17
16,000560,12410225.950000005,14505086.39,2017-03-31,一季度报告,15065360.299999995,2017,3,4.127013438262283,False,0.5915792395328024,True,0.6296760050110213,False,前期平均,18631208.045000006,未知,18631208.045000006
17,000560,24819326.74,25487325.96,2017-06-30,半年度报告,24209707.42,2017,6,1.3185895021482985,False,0.12336129264072329,True,0.4953282904127835,False,前期平均,30646981.005000006,未知,30646981.005000006
18,000560,46024540.99,46227962.17999999,2017-09-30,三季度报告,31740162.24000001,2017,9,0.4537192723819886,True,0.4786214845423636,True,0.12371939550764943,False,平均增速,46122708.1377346,313860000.0,313860000.0
19,000560,75766342.92999999,72890641.64999999,2017-12-31,年度报告,58909490.66,2017,12,0.07040857167256184,True,0.5991919688283552,True,0.0,True,比例外推,72890641.64999999,313860000.0,313860000.0
20,000560,169894517.41000003,145871631.68,2018-03-31,一季度报告,143832506.59,2018,3,6.5632935345548615,False,0.05572613646433669,True,0.1456742360313776,False,前期平均,161795721.845,未知,161795721.845
21,000560,365957182.68,328712956.55,2018-06-30,半年度报告,343306183.60999984,2018,6,2.7818182045497344,False,0.12431617706300584,True,0.40607284696417445,False,前期平均,334814848.755,未知,334814848.755
22,000560,549062448.7600001,502170090.19000006,2018-09-30,三季度报告,522425183.69,2018,9,1.039394194292865,False,0.27083129018071767,True,0.23481237914915876,False,前期平均,503647603.15000004,637300000.0,637300000.0
23,000560,695882653.2800001,631006557.23,2018-12-31,年度报告,654694144.17,2018,12,0.23883743176991698,True,0.4042331112226026,True,0.0,True,比例外推,631006557.23,663100000.0,631006557.23
24,000560,213946733.05000004,205481104.76999995,2019-03-31,一季度报告,168879222.43999997,2019,3,-0.4475267176309996,True,10.061703141911941,False,0.14964597526949974,False,未知,未知,772718570.9999999,未知
25,000560,395245071.28000015,380897478.98,2019-06-30,半年度报告,354444163.78000003,2019,6,-0.7435159463120173,True,10.208184694037339,False,0.30579862527131096,False,未知,未知,760010000.0,未知
26,000560,671254406.71,641184244.5099999,2019-09-30,三季度报告,604314790.98,2019,9,-0.8290500800009583,True,8.929562812239348,False,0.24149591509927204,False,未知,未知,805000000.0,未知
27,000560,855228103.9599997,827447871.9299997,2019-12-31,年度报告,735063712.4300001,2019,12,-0.8651178021932486,True,7.51469426628257,False,0.0,True,比例外推,827447871.9299997,753710000.0,827447871.9299997
28,000560,-170269274.31999996,-163351220.44,2020-03-31,一季度报告,-166338902.01000002,2020,3,-0.5612824727355659,True,1.3471329281599225,True,0.020677625410327333,True,比例外推,-704657420.263802,780316667.0,780316667.0
