,SECURITYCODE_x,NETPROFIT_x,PARENTNETPROFIT_x,REPORTDATE_x,REPORTTIMETYPE_x,KCFJCXSYJLR,Year,Month,managesituationChangeRate,managesituationGreatChange,historyprofitextroplaterate,ifhistoryprofitextroplate,IfprofitdisStableChangeRage,IfprofitdisStable,predicttype,predict,analyst_prediction,adj_prediction
0,000537,551956681.76,360802711.56999993,2013-12-31,年度报告,274645649.63,2013,12,未知,未知,未知,未知,未知,未知,未知,未知,未知,未知
1,000537,105429413.91000004,68575469.92999999,2014-03-31,一季度报告,68390472.77,2014,3,未知,未知,未知,未知,未知,未知,未知,未知,未知,未知
2,000537,275893766.4499999,180078321.02,2014-06-30,半年度报告,126172881.78,2014,6,未知,未知,未知,未知,未知,未知,未知,未知,未知,未知
3,000537,374164643.83,245931733.7200001,2014-09-30,三季度报告,191465579.48999995,2014,9,未知,未知,未知,未知,未知,未知,未知,未知,未知,未知
4,000537,432007613.22,280642651.95000005,2014-12-31,年度报告,223540755.67,2014,12,0.0,True,未知,未知,未知,未知,未知,未知,未知,未知
5,000537,75067443.63000003,48660227.76000001,2015-03-31,一季度报告,48670149.1,2015,3,4.235319644583992,False,未知,未知,未知,未知,未知,未知,未知,未知
6,000537,155283894.32999998,88688393.24999999,2015-06-30,半年度报告,70498500.39,2015,6,1.0006130941709073,False,未知,未知,未知,未知,未知,未知,未知,未知
7,000537,215989400.38000005,127464783.81,2015-09-30,三季度报告,111259207.92,2015,9,0.4751705989911196,True,未知,未知,未知,未知,未知,未知,未知,未知
8,000537,243008622.76999995,142365935.22000003,2015-12-31,年度报告,640908093.51,2015,12,0.2776549877117926,True,未知,未知,未知,未知,未知,未知,未知,未知
9,000537,97286879.56,62492412.83000001,2016-03-31,一季度报告,63860726.90000001,2016,3,6.352810420460562,False,未知,未知,未知,未知,未知,未知,未知,未知
10,000537,141120478.48999998,90805403.84,2016-06-30,半年度报告,20457451.200000007,2016,6,2.5545005110898034,False,未知,未知,未知,未知,未知,未知,未知,未知
11,000537,381848564.62,250676782.85,2016-09-30,三季度报告,180582053.39,2016,9,1.555480411487403,False,未知,未知,未知,未知,未知,未知,未知,未知
12,000537,770425293.8000001,578317114.3,2016-12-31,年度报告,276633972.8499999,2016,12,1.2713460759884627,False,0.506062112192924,True,0.0,True,前期平均,578317114.3,未知,578317114.3
13,000537,80690334.74000001,135340930.3,2017-03-31,一季度报告,-79197091.47,2017,3,4.673495586006438,False,0.07798973218622561,True,0.1283041067026538,False,前期平均,509035043.955,461300000.0,461300000.0
14,000537,314562824.39000005,295333615.71000004,2017-06-30,半年度报告,289802340.16,2017,6,2.911244403831245,False,0.34541841414180324,True,0.3149696015461868,False,前期平均,629222349.215,417690000.0,417690000.0
15,000537,827981992.3100001,709613310.72,2017-09-30,三季度报告,708672574.9100001,2017,9,0.4454858100862173,True,0.2940640443501672,True,0.38736801151465583,False,平均增速,977297110.5013573,1448292500.0,1448292500.0
16,000537,2217769992.9,2099401311.3100004,2017-12-31,年度报告,1488524371.36,2017,12,-0.28356884671119564,True,1.2826867050688644,True,0.0,True,比例外推,2099401311.3100004,1454723333.0,1454723333.0
17,000537,920588775.24,920588775.24,2018-03-31,一季度报告,915867388.74,2018,3,5.840431180989793,False,0.06366915263217893,True,0.14632137080260593,False,前期平均,1323094370.42,2754260000.0,2754260000.0
18,000537,1639383405.1199994,1639383405.1199994,2018-06-30,半年度报告,1635586729.560001,2018,6,0.7546786808973817,False,1.1225248561432484,True,0.06847763040222479,True,前期平均,2052676462.5049994,2706660000.0,2706660000.0
19,000537,2306894125.360001,2306894125.360001,2018-09-30,三季度报告,2333529032.5199995,2018,9,-0.33337115192555417,True,1.7699210849213969,True,0.26056054613994156,False,平均增速,4724065508.3336735,,4724065508.3336735
20,000537,2502375865.78,2502375865.78,2018-12-31,年度报告,2503982808.75,2018,12,-0.7511208630619759,True,3.376743183030847,False,0.0,True,比例外推,2502375865.78,,2502375865.78
21,000537,572907558.22,572907558.22,2019-03-31,一季度报告,570162930.15,2019,3,-0.4004307931995984,True,9.345018364971677,False,0.23434121216721912,False,未知,未知,未知,未知
22,000537,1551102016.2399998,1551102016.2399998,2019-06-30,半年度报告,1535196501.2000005,2019,6,-0.6633144632084416,True,6.1952752921110035,False,0.3459152614561187,False,未知,未知,未知,未知
23,000537,2460053402.84,2460053402.84,2019-09-30,三季度报告,2441421790.4700003,2019,9,-0.7607360148468605,True,2.8135821783404933,False,0.24499328112433105,False,未知,未知,未知,未知
24,000537,3142121542.3700004,3142121542.3700004,2019-12-31,年度报告,3107734880.6400003,2019,12,-0.7794269480824165,True,0.6748409161326853,True,0.0,True,比例外推,3142121542.3700004,未知,3142121542.3700004
25,000537,534561924.43000007,534561924.43000007,2020-03-31,一季度报告,530416718.79,2020,3,-0.03656938394231268,True,0.14435136518816125,True,0.21854673625471144,False,平均增速,3569426609.838788,未知,3569426609.838788
