,SECURITYCODE_x,NETPROFIT_x,PARENTNETPROFIT_x,REPORTDATE_x,REPORTTIMETYPE_x,KCFJCXSYJLR,Year,Month,managesituationChangeRate,managesituationGreatChange,historyprofitextroplaterate,ifhistoryprofitextroplate,IfprofitdisStableChangeRage,IfprofitdisStable,predicttype,predict,analyst_prediction,adj_prediction
0,000567,2311661.3600000003,2728021.65,2013-12-31,年度报告,2726187.0700000003,2013,12,未知,未知,未知,未知,未知,未知,未知,未知,未知,未知
1,000567,3855901.92,4478724.63,2014-03-31,一季度报告,4477612.339999999,2014,3,未知,未知,未知,未知,未知,未知,未知,未知,未知,未知
2,000567,5324108.11,6342329.480000001,2014-06-30,半年度报告,6534586.4300000025,2014,6,未知,未知,未知,未知,未知,未知,未知,未知,未知,未知
3,000567,7591312.97,8782431.78,2014-09-30,三季度报告,8906505.23,2014,9,未知,未知,未知,未知,未知,未知,未知,未知,未知,未知
4,000567,4956358.73,6192365.57,2014-12-31,年度报告,6323324.769999999,2014,12,0.0,True,未知,未知,未知,未知,未知,未知,未知,未知
5,000567,515936.62000000005,530276.13,2015-03-31,一季度报告,529756.13,2015,3,-0.40048751032547003,True,未知,未知,未知,未知,未知,未知,未知,未知
6,000567,14258596.12,14272935.63,2015-06-30,半年度报告,-4337872.84,2015,6,-0.565812468071765,True,未知,未知,未知,未知,未知,未知,未知,未知
7,000567,14475773.24,14490112.75,2015-09-30,三季度报告,-6181527.13,2015,9,-0.695485962818893,True,未知,未知,未知,未知,未知,未知,9766667.0,未知
8,000567,23228604.07,23242943.58,2015-12-31,年度报告,-15588483.329999998,2015,12,-0.5335968427773589,True,未知,未知,未知,未知,未知,未知,9575000.0,未知
9,000567,2152031.69,2152031.69,2016-03-31,一季度报告,658860.25,2016,3,3.4805142150987463,False,未知,未知,未知,未知,未知,未知,60690000.0,未知
10,000567,1146977.9900000002,1146977.9900000002,2016-06-30,半年度报告,-1890982.1500000004,2016,6,-0.8378759493189151,True,未知,未知,未知,未知,未知,未知,43800000.0,未知
11,000567,1621879.6,1621879.6,2016-09-30,三季度报告,-1416080.5400000003,2016,9,-0.8403082639059078,True,未知,未知,未知,未知,未知,未知,51433333.0,未知
12,000567,2977667.69,2977667.69,2016-12-31,年度报告,-348838.96,2016,12,-0.9004821231170953,True,5.392003264261752,False,0.0,True,比例外推,2977667.69,51433333.0,51433333.0
13,000567,18518138.97,18518138.97,2017-03-31,一季度报告,16905091.049999993,2017,3,0.07417626364043013,True,0.015502667671711441,True,1.4838577031650948,False,平均增速,5713165.8099083025,97000000.0,97000000.0
14,000567,37442726.84,37442726.84,2017-06-30,半年度报告,33586986.349999994,2017,6,1.015436547304626,False,0.8828580591803178,True,3.1766308246734267,False,前期平均,31711790.765,97000000.0,97000000.0
15,000567,56337861.53,56337861.53,2017-09-30,三季度报告,53135659.83000002,2017,9,0.4252977594637729,True,0.8530046436973611,True,2.1045867842852974,False,平均增速,77298081.99793375,未知,77298081.99793375
16,000567,73268328.28999999,73268328.28999999,2017-12-31,年度报告,70371071.35000001,2017,12,-0.22366711108720114,True,0.7887052247590691,True,0.0,True,比例外推,73268328.28999999,137250000.0,137250000.0
17,000567,22912861.289999995,22912861.289999995,2018-03-31,一季度报告,22237318.31,2018,3,-0.8751677280451903,True,12.881828281536071,False,1.3278968363594588,False,未知,未知,469950000.0,未知
18,000567,50521656.67999999,50521656.67999999,2018-06-30,半年度报告,50330916.67999999,2018,6,-0.9382614046813905,True,3.8609323576841375,False,3.362006125616824,False,未知,未知,,未知
19,000567,76345684.11999999,76345684.11999999,2018-09-30,三季度报告,76013129.56,2018,9,-0.9589678894934797,True,5.999512548812054,False,2.3223994529779013,False,未知,未知,未知,未知
20,000567,120627881.06,120627881.06,2018-12-31,年度报告,120746227.4,2018,12,-0.9684493775966838,True,4.591663626249443,False,0.0,True,比例外推,120627881.06,103000000.0,103000000.0
21,000567,33563069.57,33563069.57,2019-03-31,一季度报告,32469976.48,2019,3,-0.8991107513486807,True,1.2169977855422307,True,1.4006133545841666,False,平均增速,5165028985.698181,未知,5165028985.698181
22,000567,102593787.76,102593787.76,2019-06-30,半年度报告,103112615.92,2019,6,-0.9542441496991702,True,1.6184007834506147,True,3.3158201250575043,False,平均增速,3791346124.485415,未知,3791346124.485415
23,000567,153237857.98,153237857.98,2019-09-30,三季度报告,154673805.69999996,2019,9,-0.969721125867881,True,1.6344384095422888,True,2.244738286173546,False,平均增速,2496300518.536816,未知,2496300518.536816
24,000567,110344959.28000005,110344959.28000005,2019-12-31,年度报告,109397763.04,2019,12,-0.9808364257111489,True,2.164176151404509,False,0.0,True,比例外推,110344959.28000005,未知,110344959.28000005
25,000567,33306823.100000005,33306823.100000005,2020-03-31,一季度报告,37901572.59,2020,3,-0.9311248527141196,True,0.6201911302828877,True,0.05640652743384972,True,比例外推,153065664.3095306,116000000.0,116000000.0
