,SECURITYCODE_x,NETPROFIT_x,PARENTNETPROFIT_x,REPORTDATE_x,REPORTTIMETYPE_x,KCFJCXSYJLR,Year,Month,managesituationChangeRate,managesituationGreatChange,historyprofitextroplaterate,ifhistoryprofitextroplate,IfprofitdisStableChangeRage,IfprofitdisStable,predicttype,predict,analyst_prediction,adj_prediction
0,000520,-4628541754.119999,-4514584725.320001,2013-12-31,年度报告,-1220009556.8799994,2013,12,未知,未知,未知,未知,未知,未知,未知,未知,未知,未知
1,000520,16020905.35,16033604.14,2014-03-31,一季度报告,3132067.2099999995,2014,3,未知,未知,未知,未知,未知,未知,未知,未知,未知,未知
2,000520,217632188.10999992,186437664.39,2014-06-30,半年度报告,7983587.130000001,2014,6,未知,未知,未知,未知,未知,未知,未知,未知,未知,未知
3,000520,4391979302.259999,4360589742.3,2014-09-30,三季度报告,12294255.090000002,2014,9,未知,未知,未知,未知,未知,未知,未知,未知,未知,未知
4,000520,4339055863.009999,4307337010.700001,2014-12-31,年度报告,19465562.8,2014,12,-0.0,False,未知,未知,未知,未知,未知,未知,未知,未知
5,000520,2045958.6,1767264.9700000002,2015-03-31,一季度报告,3344930.98,2015,3,-289.906379071767,False,未知,未知,未知,未知,未知,未知,未知,未知
6,000520,109089299.36,108576756.83000004,2015-06-30,半年度报告,5550747.540000001,2015,6,-22.26772603959002,False,未知,未知,未知,未知,未知,未知,未知,未知
7,000520,109338415.49,108825872.96,2015-09-30,三季度报告,8642003.219999999,2015,9,-2.053862378572292,False,未知,未知,未知,未知,未知,未知,未知,未知
8,000520,123107262.07999998,122594719.55,2015-12-31,年度报告,14800597.85,2015,12,-2.06671633190479,False,未知,未知,未知,未知,未知,未知,未知,未知
9,000520,2547820.0,2547820.0,2016-03-31,一季度报告,1777035.6199999996,2016,3,-2263.2851479594938,False,未知,未知,未知,未知,未知,未知,未知,未知
10,000520,-15818232.28,-15818232.28,2016-06-30,半年度报告,-11075646.74,2016,6,-43.42892548833397,False,未知,未知,未知,未知,未知,未知,未知,未知
11,000520,-3194239.5900000012,-3194239.5900000012,2016-09-30,三季度报告,-1293004.2599999998,2016,9,-43.33225562467861,False,未知,未知,未知,未知,未知,未知,未知,未知
12,000520,9716301.249999998,9716301.249999998,2016-12-31,年度报告,14156881.48,2016,12,-38.597633770071084,False,-1.8505233993128967,True,0.0,True,前期平均,9716301.249999998,未知,9716301.249999998
13,000520,4200392.07,4200392.07,2017-03-31,一季度报告,3035875.24,2017,3,-1817.6674859762459,False,0.7179565853762905,True,0.05519064770317031,True,前期平均,18094973.3,未知,18094973.3
14,000520,18801620.52,18801620.52,2017-06-30,半年度报告,11031557.800000004,2017,6,291.6080280141138,False,1.096830070176835,True,0.7832919598446542,False,前期平均,29167533.509999998,未知,29167533.509999998
15,000520,34239831.57,34239831.57,2017-09-30,三季度报告,26318295.87,2017,9,1448.0277337399093,False,1.0014192464475034,True,0.46605117147607605,False,前期平均,40904782.74,未知,40904782.74
16,000520,50819846.51000001,50819846.51000001,2017-12-31,年度报告,43880580.09,2017,12,-477.36869576475925,False,0.9956450264243515,True,0.0,True,前期平均,50819846.51000001,未知,50819846.51000001
17,000520,14361435.580000002,14361435.580000002,2018-03-31,一季度报告,14857534.58,2018,3,-1102.9308857327687,False,0.8287307403103844,True,0.08576333070035994,True,前期平均,26279191.945,未知,26279191.945
18,000520,51264279.45999999,51264279.45999999,2018-06-30,半年度报告,48038634.01,2018,6,-247.17780947107423,False,0.5968391676301169,True,0.7303787962019216,False,前期平均,68505468.725,未知,68505468.725
19,000520,59860371.78,59860371.78,2018-09-30,三季度报告,55497257.65,2018,9,-136.18003862423785,False,0.35484295243371894,True,0.4554448065042814,False,前期平均,70664611.965,未知,70664611.965
20,000520,61214895.68999999,61214895.68999999,2018-12-31,年度报告,57672686.21000001,2018,12,-92.07744458081399,False,0.23477664300063739,True,0.0,True,前期平均,61214895.68999999,未知,61214895.68999999
21,000520,12609687.94,12609687.94,2019-03-31,一季度报告,4453877.59,2019,3,-323.2896296360366,False,3.256367592193943,False,0.10684232811949834,False,去年同期,55424839.57000001,未知,55424839.57000001
22,000520,23552052.67,23552052.67,2019-06-30,半年度报告,14603566.86,2019,6,-91.28785350882603,False,33.36648222492155,False,0.8830179923381083,False,去年同期,33186104.870000012,未知,33186104.870000012
23,000520,29539996.59,29539996.59,2019-09-30,三季度报告,21848401.660000004,2019,9,-78.3223021589459,False,2.856287992096455,False,0.5815728707991089,False,去年同期,31715425.15000001,未知,31715425.15000001
24,000520,32143439.46,32143439.46,2019-12-31,年度报告,23995031.12,2019,12,-76.61136390004684,False,1.0224245497976159,True,0.0,True,前期平均,32143439.46,未知,32143439.46
25,000520,1616497.39,1616497.39,2020-03-31,一季度报告,2170027.73,2020,3,-368.06235524175855,False,0.35866878819985143,True,0.10162166731561988,False,前期平均,43446425.63000001,未知,43446425.63000001
