,SECURITYCODE_x,NETPROFIT_x,PARENTNETPROFIT_x,REPORTDATE_x,REPORTTIMETYPE_x,KCFJCXSYJLR,Year,Month,managesituationChangeRate,managesituationGreatChange,historyprofitextroplaterate,ifhistoryprofitextroplate,IfprofitdisStableChangeRage,IfprofitdisStable,predicttype,predict,analyst_prediction,adj_prediction
0,000545,94924960.77,94924960.77,2013-12-31,年度报告,50848745.27000002,2013,12,未知,未知,未知,未知,未知,未知,未知,未知,未知,未知
1,000545,8136056.499999999,8136056.499999999,2014-03-31,一季度报告,698991.6300000001,2014,3,未知,未知,未知,未知,未知,未知,未知,未知,未知,未知
2,000545,21351988.11,21351988.11,2014-06-30,半年度报告,7181937.1099999985,2014,6,未知,未知,未知,未知,未知,未知,未知,未知,未知,未知
3,000545,34236959.15,34236959.15,2014-09-30,三季度报告,12104790.6,2014,9,未知,未知,未知,未知,未知,未知,未知,未知,未知,未知
4,000545,41697527.08,41697527.08,2014-12-31,年度报告,13876095.680000005,2014,12,0.0,True,未知,未知,未知,未知,未知,未知,未知,未知
5,000545,11368233.36,11368233.36,2015-03-31,一季度报告,2472864.65,2015,3,10.66719537530252,False,未知,未知,未知,未知,未知,未知,144000000.0,未知
6,000545,65096435.13999999,65096435.13999999,2015-06-30,半年度报告,14737412.62,2015,6,3.445720008880241,False,未知,未知,未知,未知,未知,未知,123280000.0,未知
7,000545,94588994.20999998,94588994.20999998,2015-09-30,三季度报告,14970466.869999995,2015,9,1.7725873771123157,False,未知,未知,未知,未知,未知,未知,154170000.0,未知
8,000545,131182214.16,131182214.16,2015-12-31,年度报告,7537039.299999998,2015,12,1.2765129593387867,False,未知,未知,未知,未知,未知,未知,127500000.0,未知
9,000545,15695596.2,15695596.2,2016-03-31,一季度报告,885467.3500000002,2016,3,7.350018667280419,False,未知,未知,未知,未知,未知,未知,169000000.0,未知
10,000545,33713646.83000001,33713646.83000001,2016-06-30,半年度报告,14265026.56,2016,6,0.45822057023321056,True,未知,未知,未知,未知,未知,未知,,未知
11,000545,48387980.55,48387980.55,2016-09-30,三季度报告,20494171.53,2016,9,0.0035518567757907168,True,未知,未知,未知,未知,未知,未知,未知,未知
12,000545,120803780.17999998,120803780.17999998,2016-12-31,年度报告,41933449.67,2016,12,-0.2763884846902938,True,0.9203604944454977,True,0.0,True,比例外推,120803780.17999998,,120803780.17999998
13,000545,53271412.59,53271412.59,2017-03-31,一季度报告,47787942.58,2017,3,5.047872254129473,False,0.6094506708689778,True,0.19490003968994615,False,前期平均,62392051.940000005,未知,62392051.940000005
14,000545,96455274.25999998,96455274.25999998,2017-06-30,半年度报告,103599034.49,2017,6,1.8156242262563904,False,0.2200286468498426,True,1.0176349543705205,False,前期平均,96202166.88499998,,96202166.88499998
15,000545,131336305.20000002,131336305.20000002,2017-09-30,三季度报告,120578008.96,2017,9,0.9617466918651971,False,0.2487852131040499,True,0.8704755529990278,False,前期平均,128505243.95500003,未知,128505243.95500003
16,000545,165827783.16,165827783.16,2017-12-31,年度报告,134832187.6,2017,12,-0.21422193387855942,True,0.39754698050240983,True,0.0,True,比例外推,165827783.16,未知,165827783.16
17,000545,32524889.020000003,32524889.020000003,2018-03-31,一季度报告,28659020.419999994,2018,3,0.7819118389178797,False,2.93672391942155,False,0.21342942189664757,False,去年同期,119569134.03999999,未知,119569134.03999999
18,000545,61852945.08999999,61852945.08999999,2018-06-30,半年度报告,52122286.23999999,2018,6,-0.01586552422084192,True,0.952336691498445,True,0.934041905627941,False,平均增速,138259125.3001114,未知,138259125.3001114
19,000545,81071967.19,81071967.19,2018-09-30,三季度报告,67878858.55999999,2018,9,-0.2772374658671304,True,0.8371672140980755,True,0.8631643445345938,False,平均增速,116368614.66936427,未知,116368614.66936427
20,000545,102044942.78,102044942.78,2018-12-31,年度报告,89533075.99999999,2018,12,-0.4275690179225815,True,0.3161666670747715,True,0.0,True,比例外推,102044942.78,未知,102044942.78
21,000545,24957571.08,24957571.08,2019-03-31,一季度报告,21603660.8,2019,3,1.9185329644516027,False,0.0567986174654567,True,0.21076250778342823,False,前期平均,89003684.75,未知,89003684.75
22,000545,38865560.7,38865560.7,2019-06-30,半年度报告,31968155.61,2019,6,0.5346878088323541,False,0.04965110608492646,True,0.22338236442911974,False,前期平均,68316348.81,未知,68316348.81
23,000545,52473538.76999999,52473538.76999999,2019-09-30,三季度报告,40278796.17,2019,9,0.1708727943844531,True,0.09781845172807985,True,0.22498771582708438,False,平均增速,79899705.10260263,未知,79899705.10260263
24,000545,25010953.37,25010953.37,2019-12-31,年度报告,-19176669.08,2019,12,-0.06977300213054229,True,0.2879713483685316,True,0.0,True,比例外推,25010953.37,未知,25010953.37
25,000545,2518025.1900000004,2518025.1900000004,2020-03-31,一季度报告,-98814.13999999998,2020,3,2.803453487750219,False,0.4182133585792919,True,0.9758795896954078,False,前期平均,76477175.48999998,未知,76477175.48999998
