,SECURITYCODE_x,NETPROFIT_x,PARENTNETPROFIT_x,REPORTDATE_x,REPORTTIMETYPE_x,KCFJCXSYJLR,Year,Month,managesituationChangeRate,managesituationGreatChange,historyprofitextroplaterate,ifhistoryprofitextroplate,IfprofitdisStableChangeRage,IfprofitdisStable,predicttype,predict,analyst_prediction,adj_prediction
0,000559,603613855.8800001,530623146.49,2013-12-31,年度报告,329702267.93999994,2013,12,未知,未知,未知,未知,未知,未知,未知,未知,未知,未知
1,000559,202227119.38,180169901.32,2014-03-31,一季度报告,168263377.61999995,2014,3,未知,未知,未知,未知,未知,未知,未知,未知,未知,未知
2,000559,395302136.49,350775847.28000003,2014-06-30,半年度报告,329920781.76,2014,6,未知,未知,未知,未知,未知,未知,未知,未知,未知,未知
3,000559,574160080.3699999,512080090.64,2014-09-30,三季度报告,485289270.87000006,2014,9,未知,未知,未知,未知,未知,未知,未知,未知,未知,未知
4,000559,782254920.1300002,706809538.88,2014-12-31,年度报告,639546980.51,2014,12,0.0,True,未知,未知,未知,未知,未知,未知,未知,未知
5,000559,224212600.30000004,205272800.37,2015-03-31,一季度报告,198171912.54,2015,3,1.98483140011387,False,未知,未知,未知,未知,未知,未知,936838981.0,未知
6,000559,490112458.9,448656572.4500001,2015-06-30,半年度报告,434887094.2199999,2015,6,0.5269683620727655,False,未知,未知,未知,未知,未知,未知,862448941.0,未知
7,000559,617460027.22,571831917.56,2015-09-30,三季度报告,540675617.58,2015,9,0.051298891227372766,True,未知,未知,未知,未知,未知,未知,857500000.0,未知
8,000559,837538619.83,778671979.89,2015-12-31,年度报告,729305174.7300001,2015,12,-0.22836681451656754,True,未知,未知,未知,未知,未知,未知,829000000.0,未知
9,000559,837538619.83,778671979.89,2015-12-31,年度报告,730189138.29,2015,12,-0.22836681451656754,True,未知,未知,未知,未知,未知,未知,829000000.0,未知
10,000559,248155908.89,230831878.64,2016-03-31,一季度报告,225991158.72,2016,3,1.6921495717562487,False,未知,未知,未知,未知,未知,未知,895840000.0,未知
11,000559,516058054.69,484015238.61,2016-06-30,半年度报告,458235595.8399999,2016,6,0.23158235404735625,True,未知,未知,未知,未知,未知,未知,899410000.0,未知
12,000559,665217097.5200003,621868633.2500001,2016-09-30,三季度报告,587464729.49,2016,9,-0.022424401142758583,True,未知,未知,0.0,True,未知,未知,899410000.0,未知
13,000559,890515058.78,833806649.88,2016-12-31,年度报告,795109001.0899999,2016,12,-0.2793002715474553,True,0.2086838730017776,True,0.011209503506662444,True,比例外推,833806649.88,906920000.0,833806649.88
14,000559,253555709.61,233616258.79000005,2017-03-31,一季度报告,222467589.63,2017,3,1.4323976752355467,False,0.16384988282149668,True,0.04696284212807156,True,前期平均,734824691.3300003,,734824691.3300003
15,000559,471435428.85,443923304.65,2017-06-30,半年度报告,433478745.1199998,2017,6,0.16966269665647513,True,0.16568680339562525,True,0.01246599566335338,True,比例外推,780622675.3648863,未知,780622675.3648863
16,000559,659359423.05,622262129.62,2017-09-30,三季度报告,600622482.7900001,2017,9,-0.09260622114143431,True,0.11649189751484325,True,0.0,True,比例外推,826401580.7781594,未知,826401580.7781594
17,000559,923541531.9600002,881512801.38,2017-12-31,年度报告,803813274.1600001,2017,12,-0.32217445406600165,True,0.09954143761061135,True,0.0066536700585221875,True,比例外推,881512801.38,941870000.0,881512801.38
18,000559,258255944.04,247143004.36999995,2018-03-31,一季度报告,236507933.28000003,2018,3,1.3805965829301685,False,0.07355043647929838,True,0.03135514922274052,True,前期平均,797268556.6499999,未知,797268556.6499999
19,000559,469278089.65,450197215.65,2018-06-30,半年度报告,398714997.4,2018,6,0.28037440323997426,True,0.06291145987189362,True,0.004742548344858433,True,比例外推,750206185.7719103,未知,750206185.7719103
20,000559,600506114.66,579950712.44,2018-09-30,三季度报告,513513469.37000006,2018,9,-0.08454503753375887,True,0.02809882601383832,True,0.0,True,比例外推,758062206.6534755,785210000.0,758062206.6534755
21,000559,748503140.5200001,722596037.4699999,2018-12-31,年度报告,617076634.71,2018,12,-0.34641395650180307,True,0.06888060642059697,True,0.06851708343500768,True,比例外推,722596037.4699999,未知,722596037.4699999
22,000559,225916616.92999995,221900923.35,2019-03-31,一季度报告,207746864.0,2019,3,1.3372699440618079,False,0.029499555191185956,True,0.05889157725983252,True,前期平均,797132686.8,未知,797132686.8
23,000559,331826327.65,327818044.35,2019-06-30,半年度报告,284284648.24999994,2019,6,0.2862604694163141,True,0.049557090811949374,True,0.05942604765704185,True,比例外推,527633330.29875743,未知,527633330.29875743
24,000559,423013258.5000001,415679815.68,2019-09-30,三季度报告,345157537.7,2019,9,0.00517520328957802,True,0.09328588370026918,True,0.0,True,比例外推,517186341.86390156,未知,517186341.86390156
25,000559,545872948.2099999,536030040.36,2019-12-31,年度报告,384012563.59,2019,12,-0.19357204639026965,True,0.17477421118966696,True,0.1406475608945889,False,平均增速,536030040.36,,536030040.36
26,000559,92825399.01,91892599.26,2020-03-31,一季度报告,76793422.69,2020,3,1.6718435504327214,False,0.11718846056408096,True,未知,未知,前期平均,572849792.2400001,未知,572849792.2400001
