,SECURITYCODE_x,NETPROFIT_x,PARENTNETPROFIT_x,REPORTDATE_x,REPORTTIMETYPE_x,KCFJCXSYJLR,Year,Month,managesituationChangeRate,managesituationGreatChange,historyprofitextroplaterate,ifhistoryprofitextroplate,IfprofitdisStableChangeRage,IfprofitdisStable,predicttype,predict,analyst_prediction,adj_prediction
0,000589,174346566.23,173644760.26999998,2013-12-31,年度报告,150016217.54,2013,12,未知,未知,未知,未知,未知,未知,未知,未知,未知,未知
1,000589,53756322.38,53559702.05,2014-03-31,一季度报告,53755783.97,2014,3,未知,未知,未知,未知,未知,未知,未知,未知,未知,未知
2,000589,89483727.56,89085284.53999999,2014-06-30,半年度报告,77291457.61,2014,6,未知,未知,未知,未知,未知,未知,未知,未知,未知,未知
3,000589,130374824.86,129765977.18000002,2014-09-30,三季度报告,128174793.87,2014,9,未知,未知,未知,未知,未知,未知,未知,未知,未知,未知
4,000589,166981873.97000003,166136870.15000004,2014-12-31,年度报告,126076111.08,2014,12,0.0,True,未知,未知,未知,未知,未知,未知,未知,未知
5,000589,43519184.75000001,43330119.48,2015-03-31,一季度报告,43581325.38,2015,3,2.2432755536652094,False,未知,未知,未知,未知,未知,未知,未知,未知
6,000589,65849921.43,65517174.90000001,2015-06-30,半年度报告,65244553.76999999,2015,6,0.9483605677143742,False,未知,未知,未知,未知,未知,未知,124000000.0,未知
7,000589,80886065.88999999,80488585.94,2015-09-30,三季度报告,76872569.42,2015,9,0.3372717195763678,True,未知,未知,未知,未知,未知,未知,,未知
8,000589,-258503010.17,-258982141.25,2015-12-31,年度报告,-275555659.16,2015,12,0.04410474074163943,True,未知,未知,未知,未知,未知,未知,未知,未知
9,000589,-6498782.78,-6537151.6099999985,2016-03-31,一季度报告,-7337346.67,2016,3,3.006200190365468,False,未知,未知,未知,未知,未知,未知,未知,未知
10,000589,-50462702.45,-50617057.71000001,2016-06-30,半年度报告,-55078399.60999999,2016,6,1.6476351443385462,False,未知,未知,未知,未知,未知,未知,未知,未知
11,000589,7010470.75,7026767.500000001,2016-09-30,三季度报告,-122463008.51,2016,9,1.155458598605852,False,未知,未知,未知,未知,未知,未知,未知,未知
12,000589,14765428.139999995,15227173.590000005,2016-12-31,年度报告,-272461205.31,2016,12,-1.6744469478918023,False,2.5146877887968033,False,0.0,True,前期平均,15227173.590000005,未知,15227173.590000005
13,000589,114753489.71,115235687.87999998,2017-03-31,一季度报告,-35310030.35999999,2017,3,-27.82757250581623,False,1.1336160143851002,True,0.32799313399576885,False,前期平均,-8172640.835000038,未知,-8172640.835000038
14,000589,7455810.510000003,8351094.8,2017-06-30,半年度报告,-140925968.55,2017,6,-4.454958965044489,False,1.6497330459705954,True,0.42958476569238246,False,前期平均,-137656684.93,未知,-137656684.93
15,000589,-14604107.28,-13295888.769999998,2017-09-30,三季度报告,-161963750.56999996,2017,9,23.86945205926435,False,0.9336321008104052,True,0.6746871803058727,False,盈利变化,-2328711.7699999753,未知,-2328711.7699999753
16,000589,-221691547.63000005,-221691547.63000005,2017-12-31,年度报告,-351500549.87,2017,12,10.807755560957277,False,-1.322667063654745,True,0.0,True,盈利变化,-11119274.596666662,未知,-11119274.596666662
17,000589,4161792.96,4161792.96,2018-03-31,一季度报告,3299626.0400000005,2018,3,0.5193138498062326,False,5.199472917824721,False,0.14790031678546856,False,去年同期,-312028726.55,未知,-312028726.55
18,000589,30819100.06,30819100.06,2018-06-30,半年度报告,29300141.56,2018,6,22.38398568420698,False,0.0309086366170628,True,0.35887569548944986,False,前期平均,-248272409.255,未知,-248272409.255
19,000589,63588793.35000001,63588793.35000001,2018-09-30,三季度报告,64302346.93,2018,9,-12.938187174834283,False,1.3323022234610769,True,0.4893978231453512,False,前期平均,-187624419.34000003,未知,-187624419.34000003
20,000589,88173143.99000001,88173143.99000001,2018-12-31,年度报告,51860886.40999999,2018,12,-1.7864375890459379,False,-0.8191002453016338,True,0.0,True,盈利变化,-87237735.53666672,未知,-87237735.53666672
21,000589,35501664.59,35501664.59,2019-03-31,一季度报告,50586812.77,2019,3,40.89217673865256,False,0.9231110946022677,True,0.03678526885066456,True,前期平均,-255155524.48499998,未知,-255155524.48499998
22,000589,92930347.34000002,92930347.34000002,2019-06-30,半年度报告,102469585.89,2019,6,4.657094655281118,False,-2.4332168017626805,True,0.18719992064419352,False,前期平均,-121048346.16999997,未知,-121048346.16999997
23,000589,129095573.93,129095573.93,2019-09-30,三季度报告,140605105.15000004,2019,9,1.7417813272596085,False,-17.74791599486788,True,0.5231845651174213,False,前期平均,-40671924.120000005,未知,-40671924.120000005
24,000589,135442537.60999998,135442537.60999998,2019-12-31,年度报告,148502681.07000002,2019,12,0.9773205121252473,False,-1.8522186006031112,True,0.0,True,前期平均,135442537.60999998,未知,135442537.60999998
25,000589,34659163.45,34659163.45,2020-03-31,一季度报告,36126871.01,2020,3,3.9109406064049566,False,0.40290829247708826,True,0.17240396497049237,False,前期平均,-99155466.12,未知,-99155466.12
