,SECURITYCODE_x,NETPROFIT_x,PARENTNETPROFIT_x,REPORTDATE_x,REPORTTIMETYPE_x,KCFJCXSYJLR,Year,Month,managesituationChangeRate,managesituationGreatChange,historyprofitextroplaterate,ifhistoryprofitextroplate,IfprofitdisStableChangeRage,IfprofitdisStable,predicttype,predict,analyst_prediction,adj_prediction
0,000523,32803543.4,31952414.9,2013-12-31,年度报告,25941271.67999999,2013,12,未知,未知,未知,未知,未知,未知,未知,未知,未知,未知
1,000523,3672074.99,4025745.7200000007,2014-03-31,一季度报告,3904471.7900000005,2014,3,未知,未知,未知,未知,未知,未知,未知,未知,未知,未知
2,000523,11938068.1,13068932.37,2014-06-30,半年度报告,12938670.700000005,2014,6,未知,未知,未知,未知,未知,未知,未知,未知,未知,未知
3,000523,23094543.12,25178461.91,2014-09-30,三季度报告,24564804.5,2014,9,未知,未知,未知,未知,未知,未知,未知,未知,未知,未知
4,000523,39965780.27,43924656.07,2014-12-31,年度报告,41361338.16,2014,12,0.0,True,未知,未知,未知,未知,未知,未知,未知,未知
5,000523,1668859.0300000003,4787862.04,2015-03-31,一季度报告,4732653.01,2015,3,7.933244416122339,False,未知,未知,未知,未知,未知,未知,114000000.0,未知
6,000523,10152144.35,13558171.759999998,2015-06-30,半年度报告,13499015.6,2015,6,1.747810041391873,False,未知,未知,未知,未知,未知,未知,114000000.0,未知
7,000523,24332539.48,28602724.660000004,2015-09-30,三季度报告,28469394.219999995,2015,9,0.42040235347162813,True,未知,未知,未知,未知,未知,未知,114000000.0,未知
8,000523,29670159.190000005,31840711.32,2015-12-31,年度报告,27075715.5,2015,12,-0.17920923404005903,True,未知,未知,未知,未知,未知,未知,81500000.0,未知
9,000523,4609279.119999999,5130673.149999999,2016-03-31,一季度报告,2733482.49,2016,3,18.656269828854263,False,未知,未知,未知,未知,未知,未知,86000000.0,未知
10,000523,11750213.409999995,12288762.490000002,2016-06-30,半年度报告,7442480.3999999985,2016,6,2.2311935556747673,False,未知,未知,未知,未知,未知,未知,65000000.0,未知
11,000523,16940764.05,20252159.49,2016-09-30,三季度报告,14289734.310000002,2016,9,0.3481348063551975,True,未知,未知,未知,未知,未知,未知,58000000.0,未知
12,000523,38992067.98,39271625.81,2016-12-31,年度报告,29052090.87,2016,12,0.10560725980385254,True,0.18454212039813495,True,0.0,True,比例外推,39271625.81,,39271625.81
13,000523,6817976.380000001,7453367.180000002,2017-03-31,一季度报告,4270211.399999999,2017,3,6.11684897919569,False,0.7260198694609594,True,0.05369949089633132,True,前期平均,37353331.61,54500000.0,54500000.0
14,000523,11568677.03,17088775.380000006,2017-06-30,半年度报告,10639546.76,2017,6,1.7917402225292869,False,0.06383887765642517,True,0.14271111355644067,False,前期平均,38088459.06,,38088459.06
15,000523,13643803.03,22507525.94,2017-09-30,三季度报告,15470495.19,2017,9,0.9363674095915406,False,0.2856080061732492,True,0.3390578085442112,False,前期平均,30208953.41,未知,30208953.41
16,000523,33799643.8,39973024.57000001,2017-12-31,年度报告,19041071.59,2017,12,-0.15871239717714503,True,0.1198834476096258,True,0.0,True,比例外推,39973024.57000001,未知,39973024.57000001
17,000523,7819278.1400000015,9334412.129999997,2018-03-31,一季度报告,7155911.830000001,2018,3,3.811331335237039,False,1.1719739888170513,True,0.07029281383253262,True,前期平均,33665247.565,未知,33665247.565
18,000523,15857793.64,17173186.13,2018-06-30,半年度报告,15024206.46,2018,6,1.835548379035351,False,0.0563864545330121,True,0.1816598335778603,False,前期平均,34766341.315,未知,34766341.315
19,000523,19359109.16,21023328.76,2018-09-30,三季度报告,13957239.010000005,2018,9,1.4042815135832403,False,0.33885578022205876,True,0.29340725433185877,False,前期平均,27707667.680000007,未知,27707667.680000007
20,000523,69159660.25,69366682.75000001,2018-12-31,年度报告,55939574.28999999,2018,12,-0.02947073661172721,True,0.015480703347537622,True,0.0,True,比例外推,69366682.75000001,未知,69366682.75000001
21,000523,12864970.089999998,14178461.159999998,2019-03-31,一季度报告,8860011.160000002,2019,3,3.195213779669947,False,0.36853125232038464,True,0.07550506388167108,True,前期平均,34723195.445,未知,34723195.445
22,000523,17234266.34,17129030.5,2019-06-30,半年度报告,14106323.289999995,2019,6,1.0686070297481811,False,0.3600813195466949,True,0.1975934156234445,False,前期平均,32134598.150000002,未知,32134598.150000002
23,000523,22021154.54,22076850.380000006,2019-09-30,三季度报告,16853686.31,2019,9,0.6944758732896157,False,0.2659397211255214,True,0.29452965836121814,False,前期平均,31243316.860000007,未知,31243316.860000007
24,000523,62372181.32999999,61355868.1,2019-12-31,年度报告,11157240.73,2019,12,-0.5256838555681019,True,0.9002070032100019,True,0.0,True,比例外推,61355868.1,未知,61355868.1
25,000523,-22420268.710000005,-18862733.41,2020-03-31,一季度报告,-23333902.37,2020,3,1.5498344085151312,False,0.7578392276258642,True,0.4120076466867376,False,盈利变化,18430650.060000002,未知,18430650.060000002
