,SECURITYCODE_x,NETPROFIT_x,PARENTNETPROFIT_x,REPORTDATE_x,REPORTTIMETYPE_x,KCFJCXSYJLR,Year,Month,managesituationChangeRate,managesituationGreatChange,historyprofitextroplaterate,ifhistoryprofitextroplate,IfprofitdisStableChangeRage,IfprofitdisStable,predicttype,predict,analyst_prediction,adj_prediction
0,000590,-164450534.23000002,-164450534.23000002,2013-12-31,年度报告,-163920452.57999998,2013,12,未知,未知,未知,未知,未知,未知,未知,未知,未知,未知
1,000590,2977699.6,2977699.6,2014-03-31,一季度报告,1348504.9600000002,2014,3,未知,未知,未知,未知,未知,未知,未知,未知,未知,未知
2,000590,1981945.05,1981945.05,2014-06-30,半年度报告,-383374.62000000005,2014,6,未知,未知,未知,未知,未知,未知,未知,未知,未知,未知
3,000590,1353881.86,1353881.86,2014-09-30,三季度报告,2313641.42,2014,9,未知,未知,未知,未知,未知,未知,未知,未知,未知,未知
4,000590,-85770537.74000001,-85770537.74000001,2014-12-31,年度报告,-91689754.8,2014,12,-0.0,False,未知,未知,未知,未知,未知,未知,未知,未知
5,000590,10257697.97,10257697.97,2015-03-31,一季度报告,10148098.29,2015,3,-56.2273755989355,False,未知,未知,未知,未知,未知,未知,未知,未知
6,000590,11302591.48,11302591.48,2015-06-30,半年度报告,10460968.85,2015,6,-83.97431567540181,False,未知,未知,未知,未知,未知,未知,-22000000.0,未知
7,000590,31498822.600000005,31498822.600000005,2015-09-30,三季度报告,30654781.95,2015,9,-122.46594107553817,False,未知,未知,未知,未知,未知,未知,,未知
8,000590,22372282.32,22372282.32,2015-12-31,年度报告,18128405.13,2015,12,0.9173312720564506,False,未知,未知,未知,未知,未知,未知,未知,未知
9,000590,13488156.46,13488156.46,2016-03-31,一季度报告,13472788.069999995,2016,3,-17.031914247325027,False,未知,未知,未知,未知,未知,未知,未知,未知
10,000590,11373540.86,11948301.96,2016-06-30,半年度报告,11561824.319999995,2016,6,-15.549807849022603,False,未知,未知,未知,未知,未知,未知,41000000.0,未知
11,000590,10570772.88,12338231.369999995,2016-09-30,三季度报告,11834953.089999998,2016,9,-6.220847023977334,False,未知,未知,未知,未知,未知,未知,,未知
12,000590,50108188.57999999,55175215.42999999,2016-12-31,年度报告,12832117.63,2016,12,-8.350637359112318,False,-1.1788201300862646,True,0.0,True,前期平均,55175215.42999999,未知,55175215.42999999
13,000590,9840441.52,10706913.39,2017-03-31,一季度报告,8249083.630000001,2017,3,-13.192217277260143,False,1.0381943781685736,True,0.5463771766871113,False,前期平均,-31822063.069999993,未知,-31822063.069999993
14,000590,12027483.14,13971049.44,2017-06-30,半年度报告,11497278.19,2017,6,-15.459044571454596,False,0.7122977281616912,True,0.48989759652054543,False,前期平均,-27848422.509999998,未知,-27848422.509999998
15,000590,11380863.809999995,14605902.32,2017-09-30,三季度报告,11438723.340000002,2017,9,-16.55709654316213,False,0.3564747223248847,True,0.8879129583301328,False,前期平均,-38658984.2,未知,-38658984.2
16,000590,9905957.38,19173756.940000005,2017-12-31,年度报告,13091101.77,2017,12,-4.281909382284839,False,-2.5807434525774835,True,0.0,True,前期平均,19173756.940000005,未知,19173756.940000005
17,000590,5457422.000000001,5457422.000000001,2018-03-31,一季度报告,3617144.06,2018,3,-17.71170281290387,False,0.17118657077525093,True,0.3033117446894029,False,前期平均,9127240.200000003,未知,9127240.200000003
18,000590,3454831.96,3454831.96,2018-06-30,半年度报告,933384.8,2018,6,-14.672896674706957,False,0.06080551653721745,True,0.20838704095229788,False,前期平均,7923696.755000003,未知,7923696.755000003
19,000590,-11208616.98,-11208616.98,2018-09-30,三季度报告,-14745644.15,2018,9,-15.449740984116046,False,0.45895064213724196,True,0.5286304170956253,False,盈利变化,7536260.277777782,未知,7536260.277777782
20,000590,-38180406.48,-38180406.48,2018-12-31,年度报告,-47788260.92999999,2018,12,-17.60117522431739,False,0.7266585810771822,True,0.0,True,盈利变化,-1119363.9599999897,未知,-1119363.9599999897
21,000590,10787950.32,10787950.32,2019-03-31,一季度报告,10594514.03,2019,3,-31.13337327221534,False,0.5321260193451196,True,0.6104794256934595,False,前期平均,12888624.170000002,未知,12888624.170000002
22,000590,15374011.09,15374011.09,2019-06-30,半年度报告,14099734.39,2019,6,-48.60015425757496,False,0.7047281383925763,True,0.606107152817477,False,前期平均,16806069.535000004,未知,16806069.535000004
23,000590,17333073.89,17333073.89,2019-09-30,三季度报告,15958330.919999998,2019,9,13.671795327062735,False,2.0212101392062536,False,0.3929819649323101,False,前期平均,18657845.375,未知,18657845.375
24,000590,42442308.86,42442308.86,2019-12-31,年度报告,22304902.15,2019,12,3.3071970518738185,False,2.272380232002222,False,0.0,True,前期平均,42442308.86,未知,42442308.86
25,000590,8881121.450000001,8881121.450000001,2020-03-31,一季度报告,8232884.549999998,2020,3,-16.243909116370496,False,0.41038652958253097,True,0.41883235862812157,False,前期平均,-14400571.975,未知,-14400571.975
