,SECURITYCODE_x,NETPROFIT_x,PARENTNETPROFIT_x,REPORTDATE_x,REPORTTIMETYPE_x,KCFJCXSYJLR,Year,Month,managesituationChangeRate,managesituationGreatChange,historyprofitextroplaterate,ifhistoryprofitextroplate,IfprofitdisStableChangeRage,IfprofitdisStable,predicttype,predict,analyst_prediction,adj_prediction
0,000564,63073971.90999999,63659815.77999998,2013-12-31,年度报告,53810054.83000002,2013,12,未知,未知,未知,未知,未知,未知,未知,未知,未知,未知
1,000564,25556221.15,25249602.829999994,2014-03-31,一季度报告,21687621.270000003,2014,3,未知,未知,未知,未知,未知,未知,未知,未知,未知,未知
2,000564,35452256.85,36030101.58,2014-06-30,半年度报告,28234886.71,2014,6,未知,未知,未知,未知,未知,未知,未知,未知,未知,未知
3,000564,66372310.38,66793735.51,2014-09-30,三季度报告,55787401.03999999,2014,9,未知,未知,未知,未知,未知,未知,未知,未知,未知,未知
4,000564,73290026.28999999,72621715.16,2014-12-31,年度报告,45392796.81999999,2014,12,0.0,True,未知,未知,未知,未知,未知,未知,未知,未知
5,000564,32088088.01,31579349.33,2015-03-31,一季度报告,22231599.070000004,2015,3,1.4680476640029385,False,未知,未知,未知,未知,未知,未知,未知,未知
6,000564,51507955.07999998,50124361.76,2015-06-30,半年度报告,24221600.27,2015,6,0.7791243072865187,False,未知,未知,未知,未知,未知,未知,23665592.0,未知
7,000564,-390328253.84,-393439241.49000007,2015-09-30,三季度报告,-419189526.86,2015,9,-0.0496944953568153,True,未知,未知,未知,未知,未知,未知,49000000.0,未知
8,000564,424682188.39000016,401401074.6,2015-12-31,年度报告,54789187.92000001,2015,12,-0.13939215057143356,True,未知,未知,未知,未知,未知,未知,未知,未知
9,000564,424682188.39000016,401401074.6,2015-12-31,年度报告,54789187.92000001,2015,12,-0.13939215057143356,True,未知,未知,未知,未知,未知,未知,未知,未知
10,000564,-348333139.34000003,-330363637.26000005,2015-12-31,年度报告,54789187.92000001,2015,12,-0.13939215057143356,True,未知,未知,未知,未知,未知,未知,未知,未知
11,000564,-348333139.34000003,-330363637.26000005,2015-12-31,年度报告,54789187.92000001,2015,12,-0.13939215057143356,True,未知,未知,未知,未知,未知,未知,未知,未知
12,000564,-31681336.000000004,-32130319.74000001,2016-03-31,一季度报告,15571126.489999998,2016,3,0.9656506766730221,False,未知,未知,未知,未知,未知,未知,未知,未知
13,000564,50569779.25999999,46738246.43000001,2016-06-30,半年度报告,37129621.56,2016,6,0.224548165657832,True,未知,未知,未知,未知,未知,未知,49800000.0,未知
14,000564,136080489.45,126480626.94,2016-09-30,三季度报告,141543544.57,2016,9,-1.1615921248064576,False,未知,未知,未知,未知,未知,未知,123640000.0,未知
15,000564,738087629.5799999,708313597.3500001,2016-12-31,年度报告,539861051.58,2016,12,-0.851479591952943,True,5.22865556885674,False,0.0,True,比例外推,708313597.3500001,,708313597.3500001
16,000564,189337448.58,184336248.53,2017-03-31,一季度报告,183367719.88000005,2017,3,-2.9908873764035704,False,2.099200821786724,False,0.27528573452230803,False,前期平均,212467630.73,未知,212467630.73
17,000564,363617062.50000006,356645036.67000014,2017-06-30,半年度报告,303857071.1,2017,6,0.24726611096542092,True,0.16305556616414293,True,0.30884907039369663,False,平均增速,3803848301.3591638,未知,3803848301.3591638
18,000564,1067372874.65,1033466653.3400002,2017-09-30,三季度报告,711298225.66,2017,9,-0.5364951128194226,True,-1.8401172578999299,True,5.597694809863883,False,平均增速,3135688587.2821674,未知,3135688587.2821674
19,000564,1474147474.8199995,1414520857.9800005,2017-12-31,年度报告,1189534813.2600005,2017,12,-0.9145440603768261,True,1.964372741375939,True,0.0,True,比例外推,1414520857.9800005,,1414520857.9800005
20,000564,195224670.38,186909528.37000003,2018-03-31,一季度报告,85065589.23,2018,3,-0.6668700651506372,True,929.9724054221685,False,0.209512907745891,False,未知,未知,未知,未知
21,000564,431459453.08,420842564.86,2018-06-30,半年度报告,311725759.98999995,2018,6,-0.8265373701763515,True,6.124316871862893,False,0.186658883486449,False,未知,未知,2548330000.0,未知
22,000564,769375129.6299999,767476958.4200001,2018-09-30,三季度报告,637726100.81,2018,9,-0.9409072748539892,True,-9.39632063008206,True,5.387351803557332,False,平均增速,2423366979.0930223,,2423366979.0930223
23,000564,753327980.08,757263827.25,2018-12-31,年度报告,151975533.01000002,2018,12,-0.9572132551272038,True,1.5355791869341988,True,0.0,True,比例外推,757263827.25,未知,757263827.25
24,000564,-131185971.10999998,-112703926.67,2019-03-31,一季度报告,-87784337.19,2019,3,-0.676915976924289,True,1.4765886610446066,True,0.31215688138200215,False,平均增速,-108233531.65815988,未知,-108233531.65815988
25,000564,-9465847.2,6775996.38,2019-06-30,半年度报告,5978865.17,2019,6,-0.8538125159624096,True,1.0834049254032485,True,1.259365628881922,False,平均增速,-87857220.94390273,未知,-87857220.94390273
26,000564,-115074640.81000002,-91525865.7,2019-09-30,三季度报告,-77331248.29,2019,9,-0.9180192217282448,True,0.2786122879059389,True,2.510778442335698,False,平均增速,-345166336.96242434,未知,-345166336.96242434
27,000564,-1298042084.9900005,-1220216560.6,2019-12-31,年度报告,-1640354719.2799995,2019,12,-0.916272893642817,True,0.3189440140591956,True,0.0,True,比例外推,-1220216560.6,未知,-1220216560.6
28,000564,-213513514.92,-209111326.55,2020-03-31,一季度报告,-214796178.85,2020,3,-1.4807981476701668,False,1.682261536652523,True,0.3039326750949306,False,前期平均,327427192.03000015,未知,327427192.03000015
