,SECURITYCODE_x,NETPROFIT_x,PARENTNETPROFIT_x,REPORTDATE_x,REPORTTIMETYPE_x,KCFJCXSYJLR,Year,Month,managesituationChangeRate,managesituationGreatChange,historyprofitextroplaterate,ifhistoryprofitextroplate,IfprofitdisStableChangeRage,IfprofitdisStable,predicttype,predict,analyst_prediction,adj_prediction
0,000528,328619584.46,331989364.17,2013-12-31,年度报告,250747772.09,2013,12,未知,未知,未知,未知,未知,未知,未知,未知,未知,未知
1,000528,123689073.28000002,125311184.69,2014-03-31,一季度报告,114472201.93999998,2014,3,未知,未知,未知,未知,未知,未知,未知,未知,未知,未知
2,000528,158679050.75000003,160213487.54000002,2014-06-30,半年度报告,127658612.83,2014,6,未知,未知,未知,未知,未知,未知,未知,未知,未知,未知
3,000528,176801706.57999998,179431071.53,2014-09-30,三季度报告,112537767.43000002,2014,9,未知,未知,未知,未知,未知,未知,未知,未知,未知,未知
4,000528,193158784.15,198520018.97000003,2014-12-31,年度报告,79118366.67999998,2014,12,0.0,True,未知,未知,未知,未知,未知,未知,未知,未知
5,000528,73254854.15,73367642.82,2015-03-31,一季度报告,38691611.50000001,2015,3,1.656819844676905,False,未知,未知,未知,未知,未知,未知,304580000.0,未知
6,000528,86605454.74000001,86703261.71000001,2015-06-30,半年度报告,30312910.45,2015,6,1.0709701936504679,False,未知,未知,未知,未知,未知,未知,128000000.0,未知
7,000528,22101673.129999995,22506342.25,2015-09-30,三季度报告,-73828287.28,2015,9,0.8586901157048775,False,未知,未知,未知,未知,未知,未知,46000000.0,未知
8,000528,20765185.87,21312750.69,2015-12-31,年度报告,-114709563.75,2015,12,0.7012924672626129,False,未知,未知,未知,未知,未知,未知,371500000.0,未知
9,000528,14938389.48,14998031.79,2016-03-31,一季度报告,999114.96,2016,3,3.4859769126985554,False,未知,未知,未知,未知,未知,未知,54000000.0,未知
10,000528,15521576.57,15987081.330000002,2016-06-30,半年度报告,-35238175.26,2016,6,2.7944444197718896,False,未知,未知,未知,未知,未知,未知,11000000.0,未知
11,000528,5266093.82,6289165.78,2016-09-30,三季度报告,-61491689.73,2016,9,13.868538799170995,False,未知,未知,未知,未知,未知,未知,32125000.0,未知
12,000528,47569603.26000001,49260116.04,2016-12-31,年度报告,-92562625.05999996,2016,12,14.825506524107986,False,0.9204061068099938,True,0.0,True,前期平均,49260116.04,91200000.0,91200000.0
13,000528,118582949.92000002,118990436.73000002,2017-03-31,一季度报告,111007277.51000002,2017,3,20.998327523858347,False,0.8482980442714125,True,1.0805964548583107,False,前期平均,24612931.475000024,257382500.0,257382500.0
14,000528,273966061.72,259573914.41,2017-06-30,半年度报告,239710511.29,2017,6,20.171791601064143,False,0.8734402196421428,True,1.0368636440222043,False,前期平均,162792554.23499998,391570166.0,391570166.0
15,000528,324620809.07,303264199.56,2017-09-30,三季度报告,274155332.24,2017,9,61.40291109359688,False,0.9470487245849927,True,0.5122863959524145,False,前期平均,266113860.95,359816000.0,359816000.0
16,000528,369466463.25,347010466.52000004,2017-12-31,年度报告,288088976.79,2017,12,5.90818425926052,False,0.5552662634715252,True,0.0,True,前期平均,347010466.52000004,167296667.00000003,167296667.00000003
17,000528,303430939.20000005,289597325.30999994,2018-03-31,一季度报告,279912150.99,2018,3,1.7712211973280951,False,1.6891617779133952,True,0.37291345907824947,False,前期平均,166115867.67499995,742427856.9999999,742427856.9999999
18,000528,636184977.16,595786258.1999999,2018-06-30,半年度报告,565853624.45,2018,6,0.19949012077217498,True,4.365201714096511,False,0.5804274793725871,False,未知,未知,926257000.0,未知
19,000528,763694517.9699997,715136771.9599999,2018-09-30,三季度报告,656862813.1,2018,9,0.012318296542529118,True,22.722856867575015,False,0.19844421355721265,False,未知,未知,912072500.0,未知
20,000528,840966364.9300003,790142263.72,2018-12-31,年度报告,691467734.77,2018,12,-0.11055639104748981,True,9.813422210087676,False,0.0,True,比例外推,790142263.72,934263333.0,934263333.0
21,000528,317431373.84,304320069.05,2019-03-31,一季度报告,292252852.8,2019,3,0.08301277821704718,True,3.545055353152037,False,0.27057315196503795,False,未知,未知,1110682000.0,未知
22,000528,707286674.5500001,660830164.0199999,2019-06-30,半年度报告,633042916.44,2019,6,-0.4834527751236848,True,3.395247969260014,False,0.29633902613788865,False,未知,未知,975233333.0,未知
23,000528,942380565.85,881820411.44,2019-09-30,三季度报告,826703687.5399997,2019,9,-0.5696975993313217,True,3.630038423954356,False,0.1909793704632674,False,未知,未知,1020062000.0,未知
24,000528,1073809543.99,1017249160.5199996,2019-12-31,年度报告,909760940.0000002,2019,12,-0.6092357576187326,True,3.033063000846403,False,0.0,True,比例外推,1017249160.5199996,1020262000.0,1017249160.5199996
25,000528,166790371.35,169580534.36999995,2020-03-31,一季度报告,117864230.2,2020,3,0.035246076922564616,True,0.5043645814687301,True,0.0492162804420333,True,比例外推,369874747.75532913,1137000000.0,1137000000.0
