,SECURITYCODE_x,NETPROFIT_x,PARENTNETPROFIT_x,REPORTDATE_x,REPORTTIMETYPE_x,KCFJCXSYJLR,Year,Month,managesituationChangeRate,managesituationGreatChange,historyprofitextroplaterate,ifhistoryprofitextroplate,IfprofitdisStableChangeRage,IfprofitdisStable,predicttype,predict,analyst_prediction,adj_prediction
0,000518,-99464723.89,-70713027.6,2013-12-31,年度报告,-73782349.92,2013,12,未知,未知,未知,未知,未知,未知,未知,未知,未知,未知
1,000518,11532617.73,12833227.7,2014-03-31,一季度报告,12799165.59,2014,3,未知,未知,未知,未知,未知,未知,未知,未知,未知,未知
2,000518,21245316.18,22866490.75,2014-06-30,半年度报告,19952947.33,2014,6,未知,未知,未知,未知,未知,未知,未知,未知,未知,未知
3,000518,26349117.44,28685024.23,2014-09-30,三季度报告,23301936.910000004,2014,9,未知,未知,未知,未知,未知,未知,未知,未知,未知,未知
4,000518,-9186246.14,5956603.04,2014-12-31,年度报告,266351.56,2014,12,-0.0,False,未知,未知,未知,未知,未知,未知,未知,未知
5,000518,9651125.86,10098042.27,2015-03-31,一季度报告,10104256.56,2015,3,-9.624644137060113,False,未知,未知,未知,未知,未知,未知,未知,未知
6,000518,2246052.3800000004,4096891.980000002,2015-06-30,半年度报告,1103798.61,2015,6,-5.681724811590919,False,未知,未知,未知,未知,未知,未知,未知,未知
7,000518,-13431203.54,-4624922.17,2015-09-30,三季度报告,7243695.129999999,2015,9,-4.774878764592124,False,未知,未知,未知,未知,未知,未知,未知,未知
8,000518,-112903436.59,-74445499.52,2015-12-31,年度报告,-88582794.33,2015,12,9.827570084029993,False,未知,未知,未知,未知,未知,未知,未知,未知
9,000518,-3359987.2700000005,-955222.59,2016-03-31,一季度报告,-925502.3299999998,2016,3,-11.306022875760114,False,未知,未知,未知,未知,未知,未知,未知,未知
10,000518,-5278598.46,-4914240.13,2016-06-30,半年度报告,-4299279.569999998,2016,6,-45.284240552751484,False,未知,未知,未知,未知,未知,未知,未知,未知
11,000518,9033409.569999997,10367776.72,2016-09-30,三季度报告,10564143.830000004,2016,9,6.4054959850604725,False,未知,未知,未知,未知,未知,未知,未知,未知
12,000518,5608661.99,4472925.910000001,2016-12-31,年度报告,571115.46,2016,12,-0.11902837598116377,False,-1.0782775627097638,True,0.0,True,盈利变化,-44727529.59,未知,-44727529.59
13,000518,11990301.2,10705384.53,2017-03-31,一季度报告,10409865.65,2017,3,28.60270855133329,False,1.3172231816085724,True,32.61396327830309,False,前期平均,-44904547.93,未知,-44904547.93
14,000518,19307898.06,19092935.66,2017-06-30,半年度报告,-5238437.449999998,2017,6,17.84301763881468,False,1.4494074873941698,True,52.45482314064486,False,前期平均,-35593658.69499999,未知,-35593658.69499999
15,000518,36193659.81,33619823.77,2017-09-30,三季度报告,8486788.93,2017,9,-12.010762118029376,False,0.3985864343003548,True,52.18522251596696,False,前期平均,-25811213.634999998,未知,-25811213.634999998
16,000518,10650335.19,7288394.729999999,2017-12-31,年度报告,-14881852.830000002,2017,12,-18.734126974907966,False,-1.0918777387996577,True,0.0,True,前期平均,7288394.729999999,未知,7288394.729999999
17,000518,5165146.3100000005,3565354.6099999994,2018-03-31,一季度报告,3819726.1799999992,2018,3,-9.295431635195287,False,2.8118064094340673,False,0.8091559132987647,False,去年同期,-21726363.870000005,未知,-21726363.870000005
18,000518,2673910.85,1028739.53,2018-06-30,半年度报告,543126.75,2018,6,-6.151504507684355,False,-13.73378708890056,True,5.13175641985479,False,前期平均,-41379359.425,未知,-41379359.425
19,000518,-8650152.74,-9392068.749999998,2018-09-30,三季度报告,-9965294.46,2018,9,-3.7481256223367256,False,-17.45991606559958,True,12.54894179217272,False,盈利变化,-912531.2211111132,未知,-912531.2211111132
20,000518,-29716740.02,-29439589.939999994,2018-12-31,年度报告,-30237281.180000003,2018,12,-10.33911676163875,False,-1.1985247693506966,True,0.0,True,盈利变化,2169918.6133333314,未知,2169918.6133333314
21,000518,-13869371.550000004,-12792592.57,2019-03-31,一季度报告,-12906020.790000005,2019,3,-20.256903468045223,False,0.19697761909803452,True,0.8050694548555933,False,盈利变化,-51740585.9,未知,-51740585.9
22,000518,-9971166.68,-9373965.089999998,2019-06-30,半年度报告,-9819834.590000004,2019,6,-38.19821993691375,False,0.618810499991033,True,5.129922582443289,False,盈利变化,-36348230.83333333,未知,-36348230.83333333
23,000518,11950960.01,9478093.1,2019-09-30,三季度报告,5039005.779999998,2019,9,10.49860897022727,False,1.3825210370064442,True,12.4118274745036,False,前期平均,-7202741.965000002,未知,-7202741.965000002
24,000518,17496139.06,14330773.52,2019-12-31,年度报告,9968680.96,2019,12,2.3470940561803926,False,4.655421019022527,False,0.0,True,前期平均,14330773.52,未知,14330773.52
25,000518,8292715.459999999,10309269.64,2020-03-31,一季度报告,11271079.81,2020,3,6.171537912256737,False,2.6169058302810786,False,0.58782931363416,False,前期平均,-19365093.279999997,未知,-19365093.279999997
