,SECURITYCODE_x,NETPROFIT_x,PARENTNETPROFIT_x,REPORTDATE_x,REPORTTIMETYPE_x,KCFJCXSYJLR,Year,Month,managesituationChangeRate,managesituationGreatChange,historyprofitextroplaterate,ifhistoryprofitextroplate,IfprofitdisStableChangeRage,IfprofitdisStable,predicttype,predict,analyst_prediction,adj_prediction
0,000519,379554689.97,380899334.0,2013-12-31,年度报告,197792144.04,2013,12,未知,未知,未知,未知,未知,未知,未知,未知,未知,未知
1,000519,67384594.47999999,67191440.68,2014-03-31,一季度报告,66501918.97999999,2014,3,未知,未知,未知,未知,未知,未知,未知,未知,未知,未知
2,000519,192381818.55,191897158.43000004,2014-06-30,半年度报告,188697979.01,2014,6,未知,未知,未知,未知,未知,未知,未知,未知,未知,未知
3,000519,267453724.03,267459428.27000004,2014-09-30,三季度报告,258013297.85999995,2014,9,未知,未知,未知,未知,未知,未知,未知,未知,未知,未知
4,000519,395747303.99000007,395900040.14,2014-12-31,年度报告,388103805.76999986,2014,12,0.0,True,未知,未知,未知,未知,未知,未知,未知,未知
5,000519,53130040.50000001,53272348.66,2015-03-31,一季度报告,49976478.99000001,2015,3,4.632662671623754,False,未知,未知,未知,未知,未知,未知,434400000.0,未知
6,000519,143397888.68,143888664.86,2015-06-30,半年度报告,137655060.17999998,2015,6,0.9729239115771942,False,未知,未知,未知,未知,未知,未知,338600000.0,未知
7,000519,211511925.64,211661818.64,2015-09-30,三季度报告,205710634.24,2015,9,0.4191415406405999,True,未知,未知,未知,未知,未知,未知,279500000.0,未知
8,000519,364090408.56,363665932.82,2015-12-31,年度报告,214034507.58,2015,12,-0.04091654916342577,True,未知,未知,未知,未知,未知,未知,426005716.0,未知
9,000519,4290678.3500000015,4308871.95,2016-03-31,一季度报告,12205659.87,2016,3,6.14388105858869,False,未知,未知,未知,未知,未知,未知,210300000.0,未知
10,000519,28203094.45000001,28264141.260000005,2016-06-30,半年度报告,28503257.38000001,2016,6,1.6468638657365204,False,未知,未知,未知,未知,未知,未知,129516667.0,未知
11,000519,48575294.28,48654534.69,2016-09-30,三季度报告,46566065.12000001,2016,9,0.7944836387902504,False,未知,未知,未知,未知,未知,未知,261050000.0,未知
12,000519,155325000.26,155861045.29999998,2016-12-31,年度报告,86394413.28000002,2016,12,0.04247374016569734,True,0.06077783522691565,True,0.0,True,比例外推,155861045.29999998,173760000.0,173760000.0
13,000519,-17379528.88,-17361335.28,2017-03-31,一季度报告,-17117707.13,2017,3,87.46029905038206,False,0.9287940696876846,True,0.05145513076428146,True,盈利变化,116763222.63333333,226656671.0,226656671.0
14,000519,-2000585.94,-1976327.8,2017-06-30,半年度报告,-1896685.41,2017,6,12.457909402207456,False,0.8320143007886914,True,0.15672113729737175,False,盈利变化,135594416.7733333,223000000.0,223000000.0
15,000519,26539860.93,26564119.07,2017-09-30,三季度报告,23188811.57,2017,9,6.813739383278937,False,0.7971658539042721,True,0.2394735100903036,False,前期平均,95771309.69499996,104230000.0,95771309.69499996
16,000519,120254822.89,126009188.15,2017-12-31,年度报告,130044667.04000002,2017,12,1.4436162197628188,False,0.5911626977852088,True,0.0,True,前期平均,126009188.15,333280000.0,333280000.0
17,000519,84719522.82999998,84719522.82999998,2018-03-31,一季度报告,76570162.27,2018,3,-22.839181751743784,False,1.6053399967144437,True,0.21267817678344114,False,前期平均,203842913.82999998,269820000.0,269820000.0
18,000519,155853475.00999996,155327680.39000002,2018-06-30,半年度报告,143492317.19000003,2018,6,-190.7217622003282,False,1.0233167188615044,True,0.3340780452720154,False,前期平均,222462982.04000002,313710000.0,313710000.0
19,000519,262160245.68000004,261676912.23,2018-09-30,三季度报告,250016166.04,2018,9,13.301306663629154,False,0.795915685990543,True,0.4016370627405277,False,前期平均,285753022.98,,285753022.98
20,000519,347663185.82999986,347180379.85999995,2018-12-31,年度报告,325555316.83000004,2018,12,2.156253369706327,False,0.5369608954682608,True,0.0,True,前期平均,347180379.85999995,,347180379.85999995
21,000519,72464806.22000001,72453979.9,2019-03-31,一季度报告,67673839.02000001,2019,3,3.480132527795543,False,-13.945296095454763,True,0.21324528548402608,False,前期平均,183129543.69000003,未知,183129543.69000003
22,000519,161336556.03,161331245.01,2019-06-30,半年度报告,150927751.19999996,2019,6,1.43533029947293,False,10.896072847416082,False,0.2666172017877267,False,去年同期,343394244.65,396000000.0,396000000.0
23,000519,283982532.1,283976993.26,2019-09-30,三季度报告,269427025.3299999,2019,9,0.44779651462981485,True,5.980222431733694,False,0.3167779450994862,False,未知,未知,,未知
24,000519,255218874.56,255217225.91000003,2019-12-31,年度报告,246630016.71,2019,12,0.09173103578356569,True,1.5231396250716398,True,0.0,True,比例外推,255217225.91000003,未知,255217225.91000003
25,000519,19922846.86,19922846.86,2020-03-31,一季度报告,15159503.529999996,2020,3,4.237779686013213,False,1.1522070903007566,True,0.2576172269818985,False,前期平均,217996611.22500002,未知,217996611.22500002
