,SECURITYCODE_x,NETPROFIT_x,PARENTNETPROFIT_x,REPORTDATE_x,REPORTTIMETYPE_x,KCFJCXSYJLR,Year,Month,managesituationChangeRate,managesituationGreatChange,historyprofitextroplaterate,ifhistoryprofitextroplate,IfprofitdisStableChangeRage,IfprofitdisStable,predicttype,predict,analyst_prediction,adj_prediction
0,000516,121524850.21,121535796.14000002,2013-12-31,年度报告,156070192.41,2013,12,未知,未知,未知,未知,未知,未知,未知,未知,未知,未知
1,000516,66128903.53,66130329.85999999,2014-03-31,一季度报告,63376459.58000001,2014,3,未知,未知,未知,未知,未知,未知,未知,未知,未知,未知
2,000516,138287957.44,138299772.23,2014-06-30,半年度报告,133201270.75,2014,6,未知,未知,未知,未知,未知,未知,未知,未知,未知,未知
3,000516,197333907.64000005,197347253.32,2014-09-30,三季度报告,190005629.54,2014,9,未知,未知,未知,未知,未知,未知,未知,未知,未知,未知
4,000516,350260891.81,350282600.03,2014-12-31,年度报告,247672484.31000003,2014,12,0.0,True,未知,未知,未知,未知,未知,未知,未知,未知
5,000516,97497038.24,97504235.98,2015-03-31,一季度报告,86629773.36000001,2015,3,0.8376964341298824,False,未知,未知,未知,未知,未知,未知,346103333.0,未知
6,000516,157212007.31,157230715.98000005,2015-06-30,半年度报告,135113383.82,2015,6,-0.12121885043586052,True,未知,未知,未知,未知,未知,未知,326895000.0,未知
7,000516,175450884.38,175477742.15000004,2015-09-30,三季度报告,180685488.4,2015,9,-0.3841664027061175,True,未知,未知,未知,未知,未知,未知,303705000.0,未知
8,000516,240994811.26,241024866.07,2015-12-31,年度报告,220669936.85,2015,12,-0.6530447644839508,True,未知,未知,未知,未知,未知,未知,262810000.0,未知
9,000516,53837839.26,53950415.99999999,2016-03-31,一季度报告,62157940.23000001,2016,3,0.2464465834423895,True,未知,未知,未知,未知,未知,未知,294415550.0,未知
10,000516,132999935.03,133008823.26,2016-06-30,半年度报告,140669091.45000002,2016,6,-0.22700019998873208,True,未知,未知,未知,未知,未知,未知,264657500.0,未知
11,000516,194382633.72000003,194392474.16,2016-09-30,三季度报告,204079541.74,2016,9,-0.3073568671971148,True,未知,未知,未知,未知,未知,未知,247890000.0,未知
12,000516,201294646.92999995,201592071.01,2016-12-31,年度报告,215355454.29,2016,12,-0.49573665269128336,True,0.02162820872099911,True,0.0,True,比例外推,201592071.01,283831100.0,283831100.0
13,000516,65899644.92,66285000.19999999,2017-03-31,一季度报告,70483168.59,2017,3,1.2572386239930238,False,0.3419400532994102,True,0.0802115951842039,True,前期平均,225453094.31,257000000.0,257000000.0
14,000516,121978244.46000002,122827815.9,2017-06-30,半年度报告,126799553.18,2017,6,-0.08627887537998903,True,0.09983112761098899,True,0.06328595479049015,True,比例外推,206974783.13503462,,206974783.13503462
15,000516,181919849.7,182712386.67,2017-09-30,三季度报告,181934245.42,2017,9,-0.37481632034551293,True,0.04286783088281847,True,0.10310392337451035,False,平均增速,193001277.01489398,未知,193001277.01489398
16,000516,189752592.07,194535346.83,2017-12-31,年度报告,201582741.56,2017,12,-0.39628374592464866,True,0.3190944429463938,True,0.0,True,比例外推,194535346.83,,194535346.83
17,000516,68095526.18,19908880.380000006,2018-03-31,一季度报告,20806516.419999994,2018,3,0.8440896056045091,False,0.12908846911380356,True,0.05498867729712581,True,前期平均,163527719.15499997,未知,163527719.15499997
18,000516,2267049897.74,2208667384.26,2018-06-30,半年度报告,14989168.36,2018,6,-0.0037170091437798165,True,0.159385079218446,True,0.021694250470041698,True,比例外推,2217414007.141656,2324000000.0,2217414007.141656
19,000516,2289898443.44,2231837090.67,2018-09-30,三季度报告,42162897.70999999,2018,9,-0.3319868589909021,True,0.01620680226820157,True,0.07085359347435305,True,比例外推,2237066453.563148,2339200000.0,2237066453.563148
20,000516,2243274095.3,2184294489.72,2018-12-31,年度报告,-34346041.779999994,2018,12,-0.3595615802435557,True,0.1419529063770471,True,0.0,True,比例外推,2184294489.72,2325000000.0,2184294489.72
21,000516,27980260.81000001,28463118.3,2019-03-31,一季度报告,7285557.13,2019,3,0.7846231173655641,False,0.1374136787045362,True,0.6166199853201682,False,前期平均,170611661.815,132000000.0,132000000.0
22,000516,2079823.21,5025000.6,2019-06-30,半年度报告,-10082992.65,2019,6,-0.9463951586018697,True,16.782305154695884,False,0.7183490597999355,False,未知,未知,33620000.0,未知
23,000516,-25288245.88000001,-20280832.93,2019-09-30,三季度报告,-62672871.73,2019,9,-0.9469300262821091,True,11.170519963771754,False,1.435117227591316,False,未知,未知,,未知
24,000516,-412547644.03,-403930095.11,2019-12-31,年度报告,-468766710.35,2019,12,-0.9458270166518603,True,10.473161662189874,False,0.0,True,比例外推,-403930095.11,,-403930095.11
25,000516,-192565750.57000005,-189425706.14,2020-03-31,一季度报告,-196639773.7,2020,3,3.3432350768713204,False,0.5823691170315614,True,0.5152294911909509,False,盈利变化,-675830536.2166667,-214000000.0,-214000000.0
