,SECURITYCODE_x,NETPROFIT_x,PARENTNETPROFIT_x,REPORTDATE_x,REPORTTIMETYPE_x,KCFJCXSYJLR,Year,Month,managesituationChangeRate,managesituationGreatChange,historyprofitextroplaterate,ifhistoryprofitextroplate,IfprofitdisStableChangeRage,IfprofitdisStable,predicttype,predict,analyst_prediction,adj_prediction
0,000530,158961626.07,153006057.13,2013-12-31,年度报告,121207821.52,2013,12,未知,未知,未知,未知,未知,未知,未知,未知,未知,未知
1,000530,22451939.38,20642828.05,2014-03-31,一季度报告,20709697.129999995,2014,3,未知,未知,未知,未知,未知,未知,未知,未知,未知,未知
2,000530,69324088.48,66477633.28000001,2014-06-30,半年度报告,63794559.91,2014,6,未知,未知,未知,未知,未知,未知,未知,未知,未知,未知
3,000530,96579111.98000002,96229952.71,2014-09-30,三季度报告,93119621.6,2014,9,未知,未知,未知,未知,未知,未知,未知,未知,未知,未知
4,000530,114519281.73,115439722.39,2014-12-31,年度报告,105435245.61,2014,12,0.0,True,未知,未知,未知,未知,未知,未知,未知,未知
5,000530,23000413.35,22435890.92,2015-03-31,一季度报告,22373319.52,2015,3,6.0800844140707815,False,未知,未知,未知,未知,未知,未知,153250000.0,未知
6,000530,64683180.92999998,65477775.99,2015-06-30,半年度报告,63880328.51000001,2015,6,1.293021510349327,False,未知,未知,未知,未知,未知,未知,148000000.0,未知
7,000530,98921791.32999998,99427795.31000005,2015-09-30,三季度报告,97766240.54999998,2015,9,0.6459213882906523,False,未知,未知,未知,未知,未知,未知,139566667.0,未知
8,000530,131215022.14999998,129947307.39,2015-12-31,年度报告,129659412.87,2015,12,0.3880773933317263,True,未知,未知,未知,未知,未知,未知,144000000.0,未知
9,000530,25566220.17999999,25527518.209999993,2016-03-31,一季度报告,25497476.68,2016,3,5.911250839324589,False,未知,未知,未知,未知,未知,未知,168015849.00000003,未知
10,000530,71063138.75000001,70632718.91000001,2016-06-30,半年度报告,65055890.1,2016,6,1.4575418800449529,False,未知,未知,未知,未知,未知,未知,167500000.0,未知
11,000530,138010853.90000004,136724864.44000003,2016-09-30,三季度报告,105067154.76,2016,9,0.6069424535561534,False,未知,未知,未知,未知,未知,未知,151150000.0,未知
12,000530,185531317.21,182234151.73,2016-12-31,年度报告,148598436.25,2016,12,0.211459049927082,True,0.040408171776589584,True,0.0,True,比例外推,182234151.73,160000000.0,160000000.0
13,000530,35433976.03,34979790.84,2017-03-31,一季度报告,34254953.33,2017,3,5.21764284868175,False,0.12496795630671355,True,0.016233680175935322,True,前期平均,130985611.75500001,236632500.0,236632500.0
14,000530,98741333.86,98260163.09000002,2017-06-30,半年度报告,69960863.49,2017,6,1.2369069093503833,False,0.06058632584445591,True,0.09321459574958435,True,前期平均,151970048.12,238114444.0,238114444.0
15,000530,147388492.66000003,145333511.79000005,2017-09-30,三季度报告,117460550.89,2017,9,0.15180524993476582,True,0.41186921966452816,True,0.10176911727918692,False,平均增速,195522198.25270122,238250000.0,238250000.0
16,000530,204556051.81,200759820.17,2017-12-31,年度报告,165044724.44,2017,12,-0.14320865899920387,True,0.5100156085704741,True,0.0,True,比例外推,200759820.17,240500000.0,240500000.0
17,000530,25671649.43000001,25593358.53,2018-03-31,一季度报告,24307838.369999994,2018,3,3.486135734116203,False,0.4591901251756377,True,0.023652688729678933,True,前期平均,140786884.99,248000000.0,248000000.0
18,000530,58521630.69999999,59017542.28,2018-06-30,半年度报告,57185177.31,2018,6,0.609879265914952,False,0.45479205760814323,True,0.04122296169986578,True,前期平均,133678357.535,170000000.0,170000000.0
19,000530,74737000.52000001,73435111.78,2018-09-30,三季度报告,70328648.03,2018,9,0.07852128209694904,True,0.24413832899155039,True,0.0297678272244577,True,比例外推,100211192.75967996,109000000.0,100211192.75967996
20,000530,112018365.50000004,110503175.90000004,2018-12-31,年度报告,45862588.97,2018,12,-0.22289453348635205,True,0.2916079928394093,True,0.0,True,比例外推,110503175.90000004,,110503175.90000004
21,000530,105181871.04000002,106786822.74,2019-03-31,一季度报告,16426346.229999995,2019,3,5.192108010178601,False,0.15830928341205697,True,0.22696436421175936,False,前期平均,233732188.07999998,未知,233732188.07999998
22,000530,106770376.48,108373919.3,2019-06-30,半年度报告,35262178.97,2019,6,1.7162883906104145,False,0.3107174410604592,True,0.5440248258211523,False,前期平均,197687122.85,未知,197687122.85
23,000530,103212743.03,104346557.56,2019-09-30,三季度报告,39829270.42,2019,9,1.1269468263910463,False,0.4762636886115792,True,0.5493951212070893,False,前期平均,149904285.08,未知,149904285.08
24,000530,86124671.03000002,89112113.43000002,2019-12-31,年度报告,21406535.65,2019,12,0.4190675373673429,True,0.4256755055595927,True,0.0,True,比例外推,89112113.43000002,,89112113.43000002
25,000530,-60040623.42999999,-58673476.79000002,2020-03-31,一季度报告,-29177871.92000001,2020,3,0.5113025134297893,False,2.44262480739527,False,0.294089135449048,False,前期平均盈利变化,-28105434.08500004,未知,-28105434.08500004
