,SECURITYCODE_x,NETPROFIT_x,PARENTNETPROFIT_x,REPORTDATE_x,REPORTTIMETYPE_x,KCFJCXSYJLR,Year,Month,managesituationChangeRate,managesituationGreatChange,historyprofitextroplaterate,ifhistoryprofitextroplate,IfprofitdisStableChangeRage,IfprofitdisStable,predicttype,predict,analyst_prediction,adj_prediction
0,000524,38757610.99,38757610.99,2013-12-31,年度报告,30490357.369999994,2013,12,未知,未知,未知,未知,未知,未知,未知,未知,未知,未知
1,000524,5004702.510000002,5004702.510000002,2014-03-31,一季度报告,4787848.789999999,2014,3,未知,未知,未知,未知,未知,未知,未知,未知,未知,未知
2,000524,16116903.95,16116903.95,2014-06-30,半年度报告,13470276.85,2014,6,未知,未知,未知,未知,未知,未知,未知,未知,未知,未知
3,000524,23485290.91,23485290.91,2014-09-30,三季度报告,16451891.700000005,2014,9,未知,未知,未知,未知,未知,未知,未知,未知,未知,未知
4,000524,36367314.59000001,36367314.59000001,2014-12-31,年度报告,26502559.35,2014,12,0.0,True,未知,未知,未知,未知,未知,未知,未知,未知
5,000524,7193660.18,7193660.18,2015-03-31,一季度报告,7070046.119999999,2015,3,6.744238725989728,False,未知,未知,未知,未知,未知,未知,43730000.0,未知
6,000524,23547539.91,23547539.91,2015-06-30,半年度报告,20298448.220000006,2015,6,1.4047801680917757,False,未知,未知,未知,未知,未知,未知,49195000.0,未知
7,000524,29545236.780000005,29545236.780000005,2015-09-30,三季度报告,26430699.4,2015,9,0.650292991410086,False,未知,未知,未知,未知,未知,未知,49000000.0,未知
8,000524,39231704.18,39231704.18,2015-12-31,年度报告,33076265.070000004,2015,12,0.06572650268373831,True,未知,未知,未知,未知,未知,未知,40451062.0,未知
9,000524,34089822.7,32685576.23,2016-03-31,一季度报告,5922051.23,2016,3,4.387745601016144,False,未知,未知,未知,未知,未知,未知,46415000.0,未知
10,000524,74118230.31,71575360.67,2016-06-30,半年度报告,27916533.43,2016,6,0.6459303663199525,False,未知,未知,未知,未知,未知,未知,48374907.0,未知
11,000524,116275046.3,107989146.31,2016-09-30,三季度报告,100955363.84999996,2016,9,0.3118057329713502,True,未知,未知,未知,未知,未知,未知,45362500.0,未知
12,000524,146401731.23999998,136562681.85999998,2016-12-31,年度报告,25647840.799999993,2016,12,-0.012084440375692026,True,0.04443908269093537,True,0.0,True,比例外推,136562681.85999998,42870000.0,42870000.0
13,000524,35716011.59,33855226.44,2017-03-31,一季度报告,29090907.98,2017,3,0.136926153329627,True,4.589245633423611,False,0.02777875882047856,True,比例外推,144332667.60621858,94680000.0,94680000.0
14,000524,84065423.04999998,80555726.07000001,2017-06-30,半年度报告,71586411.02000001,2017,6,-0.47708396668544256,True,2.737263054619317,False,0.35165384443807446,False,未知,未知,172100000.0,未知
15,000524,148020571.85000002,141184137.20000002,2017-09-30,三季度报告,124631818.6,2017,9,-0.666673011765552,True,3.385211739913576,False,2.150858752454282,False,未知,未知,173000000.0,未知
16,000524,185186903.88,177359289.29000002,2017-12-31,年度报告,149878176.38,2017,12,-0.7352653506093879,True,2.8731119430374576,False,0.0,True,比例外推,177359289.29000002,52220000.0,52220000.0
17,000524,39961566.42999999,38159948.13,2018-03-31,一季度报告,37840223.66,2018,3,0.08516066785160314,True,0.730280930696514,True,0.01881813731098736,True,比例外推,178044145.07131955,213500000.0,213500000.0
18,000524,104059397.01,100202984.43000002,2018-06-30,半年度报告,79540188.44,2018,6,-0.5389589490681804,True,0.7214920408785157,True,0.3618647093875176,False,平均增速,273253733.0859289,238200000.0,238200000.0
19,000524,171138553.23000002,161989460.89999998,2018-09-30,三季度报告,136212299.78,2018,9,-0.7381606454724692,True,1.0301780894060244,True,2.080596087516729,False,平均增速,217562665.1789925,,217562665.1789925
20,000524,217977089.67,204869356.78,2018-12-31,年度报告,160466470.15000004,2018,12,-0.7907108430566196,True,0.9951891043874752,True,0.0,True,比例外推,204869356.78,307000000.0,307000000.0
21,000524,121607358.57,111669474.23,2019-03-31,一季度报告,42578286.4,2019,3,-0.030127834005429663,True,0.14493485641857481,True,0.026172825453800452,True,比例外推,262391753.15327597,247750000.0,262391753.15327597
22,000524,197076793.5,180414661.81,2019-06-30,半年度报告,98566146.89999998,2019,6,-0.6275433828789587,True,0.3156782613077968,True,0.4011997673850679,False,平均增速,370444548.7670736,302000000.0,302000000.0
23,000524,264870951.0000001,237988986.73,2019-09-30,三季度报告,157816599.42,2019,9,-0.7735308014558702,True,0.29505403402390834,True,2.064006572530758,False,平均增速,293964924.4846765,267000000.0,267000000.0
24,000524,288743231.94,259204451.22,2019-12-31,年度报告,168441660.71,2019,12,-0.8221941074235097,True,0.3147440327146034,True,0.0,True,比例外推,259204451.22,267000000.0,259204451.22
25,000524,-66194862.32,-61794027.44,2020-03-31,一季度报告,-63407613.79000001,2020,3,-0.6812889331224949,True,2.213827972609317,False,0.033465831574728294,True,比例外推,-277024215.3384445,未知,-277024215.3384445
