,SECURITYCODE_x,NETPROFIT_x,PARENTNETPROFIT_x,REPORTDATE_x,REPORTTIMETYPE_x,KCFJCXSYJLR,Year,Month,managesituationChangeRate,managesituationGreatChange,historyprofitextroplaterate,ifhistoryprofitextroplate,IfprofitdisStableChangeRage,IfprofitdisStable,predicttype,predict,analyst_prediction,adj_prediction
0,000534,149853561.18000007,151039976.38,2013-12-31,年度报告,144817509.76000002,2013,12,未知,未知,未知,未知,未知,未知,未知,未知,未知,未知
1,000534,24563736.62999999,24935749.26,2014-03-31,一季度报告,13776744.2,2014,3,未知,未知,未知,未知,未知,未知,未知,未知,未知,未知
2,000534,48921129.34,49666217.37,2014-06-30,半年度报告,35896181.92,2014,6,未知,未知,未知,未知,未知,未知,未知,未知,未知,未知
3,000534,48224952.83999999,49843472.73,2014-09-30,三季度报告,33692567.73,2014,9,未知,未知,未知,未知,未知,未知,未知,未知,未知,未知
4,000534,41283327.53999999,51234352.57000001,2014-12-31,年度报告,31666955.42000001,2014,12,0.0,True,未知,未知,未知,未知,未知,未知,未知,未知
5,000534,13387132.5,14331693.98,2015-03-31,一季度报告,12751136.35,2015,3,5.100601200754697,False,未知,未知,未知,未知,未知,未知,未知,未知
6,000534,36049032.4,40027616.57000001,2015-06-30,半年度报告,39455103.58000001,2015,6,2.063166431390483,False,未知,未知,未知,未知,未知,未知,未知,未知
7,000534,41371526.64,47935553.53999999,2015-09-30,三季度报告,46408289.63999999,2015,9,2.107386370644714,False,未知,未知,未知,未知,未知,未知,未知,未知
8,000534,37800006.14,46427997.86,2015-12-31,年度报告,-8364835.260000003,2015,12,2.6298808770878477,False,未知,未知,未知,未知,未知,未知,未知,未知
9,000534,-29306396.79,-26591935.469999995,2016-03-31,一季度报告,-26598102.529999994,2016,3,10.193850600940872,False,未知,未知,未知,未知,未知,未知,40700000.0,未知
10,000534,86049231.97,89824591.2,2016-06-30,半年度报告,-60964602.66,2016,6,3.1569371271113527,False,未知,未知,未知,未知,未知,未知,127416667.0,未知
11,000534,63667567.39000001,68699294.14,2016-09-30,三季度报告,-79675344.61,2016,9,2.6221424092944727,False,未知,未知,未知,未知,未知,未知,143325000.0,未知
12,000534,71531750.06,76190243.32000001,2016-12-31,年度报告,-102501115.93,2016,12,2.964379281447388,False,0.6044718903489747,True,0.0,True,前期平均,76190243.32000001,143766667.0,143766667.0
13,000534,-24115523.27,-22885446.27,2017-03-31,一季度报告,-23167472.77,2017,3,-6.113339666210124,False,2.5444387684303873,False,1.2477632412368231,False,去年同期,-98788459.67,93060000.0,93060000.0
14,000534,3596010.4600000004,8755112.19,2017-06-30,半年度报告,8460126.439999998,2017,6,0.7414863299679962,False,1.0253988037189299,True,3.7206290820650314,False,前期平均,-17269470.480000004,47220000.0,47220000.0
15,000534,4762677.75,13097347.730000002,2017-09-30,三季度报告,10613775.27,2017,9,1.3536875574664553,False,0.42120689918875853,True,4.312440665340997,False,前期平均,-15302020.87499999,16440000.0,16440000.0
16,000534,77200559.72999999,89471482.81,2017-12-31,年度报告,-131098810.41999996,2017,12,1.0949237374215595,False,0.8090221221438021,True,0.0,True,前期平均,89471482.81,,89471482.81
17,000534,33134330.05,37848408.16,2018-03-31,一季度报告,-24389922.96,2018,3,-7.213987542473097,False,-2.029728363156662,True,1.161652084559361,False,盈利变化,87841549.22333333,未知,87841549.22333333
18,000534,62902083.83000001,72239040.22,2018-06-30,半年度报告,-39224171.1,2018,6,40.67217054757956,False,0.9410964524589335,True,3.321267166830599,False,前期平均,27560814.164999984,未知,27560814.164999984
19,000534,111138735.17,125839594.15000002,2018-09-30,三季度报告,12440769.08,2018,9,30.464140352556935,False,0.9093160923752875,True,3.930798585314669,False,前期平均,87040146.04000002,未知,87040146.04000002
20,000534,126250839.67000002,144901725.07,2018-12-31,年度报告,-51875494.44,2018,12,0.9410942317529242,False,0.41222573227082193,True,0.0,True,前期平均,144901725.07,未知,144901725.07
21,000534,6532654.670000001,19195591.01,2019-03-31,一季度报告,8808068.45,2019,3,3.522607246136249,False,-2.240476943276681,True,0.16803897184482863,False,前期平均,-72721584.51499999,未知,-72721584.51499999
22,000534,6532654.670000001,19195591.01,2019-03-31,一季度报告,8808068.45,2019,3,3.522607246136249,False,-2.240476943276681,True,0.16803897184482863,False,前期平均,-72721584.51499999,未知,-72721584.51499999
23,000534,44936861.05,45126287.76,2019-03-31,一季度报告,8808068.45,2019,3,3.522607246136249,False,-2.240476943276681,True,0.16803897184482863,False,前期平均,-46790887.76499999,未知,-46790887.76499999
24,000534,44936861.05,45126287.76,2019-03-31,一季度报告,8808068.45,2019,3,3.522607246136249,False,-2.240476943276681,True,0.16803897184482863,False,前期平均,-46790887.76499999,未知,-46790887.76499999
25,000534,20226292.19,34904920.4,2019-06-30,半年度报告,17079652.400000006,2019,6,1.382330632876905,False,0.40335576378450805,True,0.49331880451489823,False,前期平均,-55642804.664999984,未知,-55642804.664999984
26,000534,63687228.00000001,81355423.35000001,2019-09-30,三季度报告,39389252.97,2019,9,0.348346829310061,True,2.2482343134274494,False,0.6251346108768017,False,未知,未知,未知,未知
27,000534,51961652.25000001,70675636.77,2019-12-31,年度报告,2438134.38,2019,12,0.18695100620078156,True,0.6976921806466625,True,0.0,True,比例外推,70675636.77,85000000.0,85000000.0
28,000534,44936861.05,45126287.76,2020-03-31,一季度报告,34387482.1,2020,3,21.939152419639544,False,0.4486738277810183,True,2.192790767600981,False,前期平均,-22582166.80499997,,-22582166.80499997
