,SECURITYCODE_x,NETPROFIT_x,PARENTNETPROFIT_x,REPORTDATE_x,REPORTTIMETYPE_x,KCFJCXSYJLR,Year,Month,managesituationChangeRate,managesituationGreatChange,historyprofitextroplaterate,ifhistoryprofitextroplate,IfprofitdisStableChangeRage,IfprofitdisStable,predicttype,predict,analyst_prediction,adj_prediction
0,000561,30103499.29000001,30530271.27,2013-12-31,年度报告,25836349.2,2013,12,未知,未知,未知,未知,未知,未知,未知,未知,未知,未知
1,000561,-20600113.96,-17064299.41,2014-03-31,一季度报告,-17815177.54,2014,3,未知,未知,未知,未知,未知,未知,未知,未知,未知,未知
2,000561,10574755.8,5762816.0,2014-06-30,半年度报告,5703564.749999999,2014,6,未知,未知,未知,未知,未知,未知,未知,未知,未知,未知
3,000561,6433450.0,4386357.31,2014-09-30,三季度报告,2419371.28,2014,9,未知,未知,未知,未知,未知,未知,未知,未知,未知,未知
4,000561,42945783.35,37517971.25000001,2014-12-31,年度报告,34466902.19,2014,12,0.0,True,未知,未知,未知,未知,未知,未知,未知,未知
5,000561,-23543455.42,-18959830.41,2015-03-31,一季度报告,-22734486.46,2015,3,-2.461326832873502,False,未知,未知,未知,未知,未知,未知,58335000.0,未知
6,000561,8526150.0,5951672.03,2015-06-30,半年度报告,1106474.55,2015,6,1.8467323368356183,False,未知,未知,未知,未知,未知,未知,,未知
7,000561,7950869.8500000015,4563701.83,2015-09-30,三季度报告,-208516.73,2015,9,3.6792155515314504,False,未知,未知,未知,未知,未知,未知,未知,未知
8,000561,93359192.73,76462740.18,2015-12-31,年度报告,72599784.16,2015,12,-0.2990348075697632,True,未知,未知,未知,未知,未知,未知,53626022.99999999,未知
9,000561,-4324943.36,-5629439.29,2016-03-31,一季度报告,-5637726.4300000025,2016,3,-2.2786355593507013,False,未知,未知,未知,未知,未知,未知,,未知
10,000561,42340754.99,36024504.92999999,2016-06-30,半年度报告,30689782.039999995,2016,6,2.5307259771409147,False,未知,未知,未知,未知,未知,未知,110000000.0,未知
11,000561,76353734.91,70481850.65,2016-09-30,三季度报告,66207220.46,2016,9,2.7861894180043714,False,未知,未知,未知,未知,未知,未知,119466667.0,未知
12,000561,105991508.01999998,88240112.20999998,2016-12-31,年度报告,86610149.77999999,2016,12,-0.6775518466932228,True,1.5560604938474447,True,0.0,True,比例外推,88240112.20999998,84213353.0,88240112.20999998
13,000561,-20829671.15,-19521564.470000006,2017-03-31,一季度报告,-19009954.790000007,2017,3,-7.960437810219094,False,-0.8040510352586264,True,0.23327989313246766,False,前期平均,54286610.70499999,116967500.0,116967500.0
14,000561,23539385.23,16475162.4,2017-06-30,半年度报告,16519014.529999996,2017,6,-0.28901836310878665,True,3.4333766611214847,False,0.17598922487230315,False,未知,未知,113820000.0,未知
15,000561,13717542.7,6096670.8199999975,2017-09-30,三季度报告,4350040.08,2017,9,-0.6057363883314453,True,9.616245426439123,False,0.4871780076492195,False,未知,未知,,未知
16,000561,88910218.75999999,69703779.46000001,2017-12-31,年度报告,63971855.29000001,2017,12,-0.71598197013746,True,0.5552111312178585,True,0.0,True,比例外推,69703779.46000001,159195000.0,159195000.0
17,000561,-20226523.08,-19135385.99,2018-03-31,一季度报告,-20883687.37,2018,3,-2.445222013982684,False,-0.4948595586301566,True,0.16004102499655828,False,前期平均,74655687.42500001,97550000.0,97550000.0
18,000561,22609362.96,19847862.85,2018-06-30,半年度报告,16907607.26,2018,6,0.2788566479482357,True,0.0744714963637893,True,0.19402853969176892,False,平均增速,67047390.92460938,90000000.0,90000000.0
19,000561,10565518.71,7112196.659999997,2018-09-30,三季度报告,1237483.96,2018,9,1.1945256485332474,False,0.6745719231102175,True,0.48790959605442535,False,前期平均,53717811.76499999,87000000.0,87000000.0
20,000561,99187489.02000004,86505445.72999999,2018-12-31,年度报告,70323433.64999999,2018,12,-0.6614168797485477,True,0.10800194405637181,True,0.0,True,比例外推,86505445.72999999,90000000.0,86505445.72999999
21,000561,-21900130.700000007,-17945115.85,2019-03-31,一季度报告,-18588013.04,2019,3,-2.4883180451199927,False,-0.6081759529218085,True,0.15464707056153698,False,前期平均,69669727.29500002,102000000.0,102000000.0
22,000561,2078227.81,2668274.470000001,2019-06-30,半年度报告,1197114.99,2019,6,0.3314616313276263,True,0.31362128603556877,True,0.07001278924058285,True,比例外推,5681443.759800896,,5681443.759800896
23,000561,3875024.05,3893233.85,2019-09-30,三季度报告,225299.51000000004,2019,9,1.8492211424989287,False,0.7653964950792042,True,0.4810865376115749,False,前期平均,43905606.115,未知,43905606.115
24,000561,97206933.61,90935534.7,2019-12-31,年度报告,54644114.17,2019,12,-0.6964990283811906,True,0.017820525848499157,True,0.0,True,比例外推,90935534.7,,90935534.7
25,000561,-62818513.12999998,-52902239.91,2020-03-31,一季度报告,-53188866.95,2020,3,-2.374580805127341,False,-0.0668368615616815,True,0.02873414569458088,True,前期平均,34192225.640000015,101400000.0,101400000.0
