,SECURITYCODE_x,NETPROFIT_x,PARENTNETPROFIT_x,REPORTDATE_x,REPORTTIMETYPE_x,KCFJCXSYJLR,Year,Month,managesituationChangeRate,managesituationGreatChange,historyprofitextroplaterate,ifhistoryprofitextroplate,IfprofitdisStableChangeRage,IfprofitdisStable,predicttype,predict,analyst_prediction,adj_prediction
0,000581,1154293532.9499998,1108221450.83,2013-12-31,年度报告,1013085655.87,2013,12,未知,未知,未知,未知,未知,未知,未知,未知,未知,未知
1,000581,442770827.4500001,428270821.47999984,2014-03-31,一季度报告,424200694.33000016,2014,3,未知,未知,未知,未知,未知,未知,未知,未知,未知,未知
2,000581,870320027.1599997,840585795.24,2014-06-30,半年度报告,821614902.9200003,2014,6,未知,未知,未知,未知,未知,未知,未知,未知,未知,未知
3,000581,1278775287.86,1239452818.8600006,2014-09-30,三季度报告,1183664714.9900002,2014,9,未知,未知,未知,未知,未知,未知,未知,未知,未知,未知
4,000581,1589077322.3299994,1539439686.8099995,2014-12-31,年度报告,1404877811.2600002,2014,12,0.0,True,未知,未知,未知,未知,未知,未知,未知,未知
5,000581,445950852.29,434369050.0,2015-03-31,一季度报告,389141510.92,2015,3,1.6069773828546743,False,未知,未知,未知,未知,未知,未知,1962275000.0,未知
6,000581,1070089476.5799998,1045987200.83,2015-06-30,半年度报告,884001959.9,2015,6,0.32628630495457317,True,未知,未知,未知,未知,未知,未知,1782300000.0,未知
7,000581,1329357415.53,1293864194.62,2015-09-30,三季度报告,1100156185.14,2015,9,-0.0973445108704887,True,未知,未知,未知,未知,未知,未知,1623840000.0,未知
8,000581,1552764212.2000005,1515388285.7100005,2015-12-31,年度报告,1232371453.62,2015,12,-0.27360769880127284,True,未知,未知,未知,未知,未知,未知,1623840000.0,未知
9,000581,418652059.9,405471329.51,2016-03-31,一季度报告,331616138.91,2016,3,1.5883873234518846,False,未知,未知,未知,未知,未知,未知,1656920000.0,未知
10,000581,974748962.32,943568535.72,2016-06-30,半年度报告,829632717.13,2016,6,0.07868879959376454,True,未知,未知,未知,未知,未知,未知,1668300000.0,未知
11,000581,1354511143.4899998,1309694645.4799998,2016-09-30,三季度报告,1136811667.1,2016,9,-0.13169060520131387,True,未知,未知,未知,未知,未知,未知,1675450000.0,未知
12,000581,1726004780.5199995,1672224317.0500002,2016-12-31,年度报告,1435963836.76,2016,12,-0.2566202106663935,True,0.13201188910459521,True,0.0,True,比例外推,1672224317.0500002,1675450000.0,1672224317.0500002
13,000581,667949637.7199999,645645422.0099999,2017-03-31,一季度报告,574207149.77,2017,3,1.757166734652438,False,0.05785563817351978,True,0.05194744125132564,True,前期平均,1557598951.8249998,1992800000.0,1992800000.0
14,000581,1368367366.03,1325922029.56,2017-06-30,半年度报告,1208264288.8099995,2017,6,0.18419570327386214,True,0.004683764371635624,True,0.09068406851860267,True,比例外推,2045840440.4518788,2142419000.0,2045840440.4518788
15,000581,1912914391.39,1853693813.05,2017-09-30,三季度报告,1689633181.9500005,2017,9,-0.14781540299781087,True,0.03868268798549451,True,0.05063699669417976,True,比例外推,2170015880.4429197,2285596667.0,2170015880.4429197
16,000581,2647209924.5799994,2571339490.04,2017-12-31,年度报告,2322218596.990001,2017,12,-0.33123387259550824,True,0.09872172835616884,True,0.0,True,比例外推,2571339490.04,2297967273.0,2297967273.0
17,000581,803728113.15,784228178.4300003,2018-03-31,一季度报告,691598799.43,2018,3,0.7281146178776312,False,0.5451015218723094,True,0.051109974880754694,True,前期平均,1758016998.7050002,2678750657.0,2678750657.0
18,000581,1577947078.0099998,1545242704.9199998,2018-06-30,半年度报告,1378865501.5699995,2018,6,-0.15644470804728824,True,0.33836232731041516,True,0.1121921161557754,False,平均增速,2955725774.0787764,2732624614.9999995,2955725774.0787764
19,000581,2095467474.82,2055630198.83,2018-09-30,三季度报告,1831818927.4300003,2018,9,-0.3965785723890948,True,0.425490369087591,True,0.08872121003479594,True,比例外推,2502211303.253207,2695853333.0,2502211303.253207
20,000581,2466294703.470001,2396077415.21,2018-12-31,年度报告,2014800714.2000008,2018,12,-0.5639584446129117,True,0.6147584233337084,True,0.0,True,比例外推,2396077415.21,2695853333.0,2695853333.0
21,000581,699726864.3399999,689179364.6,2019-03-31,一季度报告,613343723.8000001,2019,3,0.43617414155895495,True,0.4793426421298951,True,0.06943847379059093,True,比例外推,2315782277.882022,2380330000.0,2315782277.882022
22,000581,1275102693.23,1256661577.0899994,2019-06-30,半年度报告,1114094824.7399998,2019,6,-0.2684840011201663,True,0.3468789909557542,True,0.09022571487245556,True,比例外推,2017697527.641714,2143922333.0,2017697527.641714
23,000581,1750915972.5100005,1726761695.7399995,2019-09-30,三季度报告,1540311879.6699994,2019,9,-0.44914748292661844,True,0.2826413042627815,True,0.09969883619628173,True,比例外推,2089285445.3671849,2178339000.0,2089285445.3671849
24,000581,2302736761.11,2268026432.780001,2019-12-31,年度报告,1947408959.68,2019,12,-0.5319725857068321,True,0.12790927031038904,True,0.0,True,比例外推,2268026432.780001,2178339000.0,2268026432.780001
25,000581,553797576.11,549996717.72,2020-03-31,一季度报告,495225376.36,2020,3,0.6496344384873071,False,0.04907597614172258,True,0.05455988267326711,True,前期平均,2085603398.715001,2286992875.0,2085603398.715001
