,SECURITYCODE_x,NETPROFIT_x,PARENTNETPROFIT_x,REPORTDATE_x,REPORTTIMETYPE_x,KCFJCXSYJLR,Year,Month,managesituationChangeRate,managesituationGreatChange,historyprofitextroplaterate,ifhistoryprofitextroplate,IfprofitdisStableChangeRage,IfprofitdisStable,predicttype,predict,analyst_prediction,adj_prediction
0,000557,3533374.06,3581990.0000000014,2013-12-31,年度报告,5096860.8,2013,12,未知,未知,未知,未知,未知,未知,未知,未知,未知,未知
1,000557,772223.59,772685.2999999998,2014-03-31,一季度报告,772685.2999999998,2014,3,未知,未知,未知,未知,未知,未知,未知,未知,未知,未知
2,000557,2926990.87,2928071.72,2014-06-30,半年度报告,431745.8,2014,6,未知,未知,未知,未知,未知,未知,未知,未知,未知,未知
3,000557,4421930.2700000005,4423484.87,2014-09-30,三季度报告,1926205.0,2014,9,未知,未知,未知,未知,未知,未知,未知,未知,未知,未知
4,000557,1058610.5100000002,1172802.86,2014-12-31,年度报告,157805698.36999995,2014,12,0.0,True,未知,未知,未知,未知,未知,未知,未知,未知
5,000557,-3283000.27,-3282861.32,2015-03-31,一季度报告,-3488444.5500000007,2015,3,3.575584203533591,False,未知,未知,未知,未知,未知,未知,109781438.99999999,未知
6,000557,61441954.8,61391625.59,2015-06-30,半年度报告,60949719.52999999,2015,6,0.20716948461134077,True,未知,未知,未知,未知,未知,未知,,未知
7,000557,70167033.04,70065500.2,2015-09-30,三季度报告,70144812.44999999,2015,9,-0.2009430623608636,True,未知,未知,未知,未知,未知,未知,未知,未知
8,000557,59507142.56999999,59175637.33999999,2015-12-31,年度报告,71358695.67999999,2015,12,2.3377470057424605,False,未知,未知,未知,未知,未知,未知,232960000.0,未知
9,000557,-23801652.07,-23801050.88,2016-03-31,一季度报告,-24086846.70000001,2016,3,-2.0762637128872363,False,未知,未知,未知,未知,未知,未知,未知,未知
10,000557,-58990066.71,-58946224.56000001,2016-06-30,半年度报告,-57939449.37,2016,6,-0.9424924862579405,True,未知,未知,未知,未知,未知,未知,未知,未知
11,000557,-62941154.78000001,-62896895.77,2016-09-30,三季度报告,-61490068.76000001,2016,9,-0.9496433879713035,True,未知,未知,未知,未知,未知,未知,未知,未知
12,000557,8263260.1499999985,8339451.87,2016-12-31,年度报告,-39245716.32,2016,12,-0.9406226898587242,True,24.917832110659724,False,0.0,True,比例外推,8339451.87,未知,8339451.87
13,000557,12267555.36,12268017.219999995,2017-03-31,一季度报告,12214861.3,2017,3,-1.1484507902900372,False,-17.959593069025956,True,0.4238262747569089,False,盈利变化,56741729.20333335,未知,56741729.20333335
14,000557,24815438.53,24816317.25,2017-06-30,半年度报告,24920050.53,2017,6,-1.0598977803732679,False,2.8328734794701824,False,0.7749950699142265,False,前期平均,108707781.60999997,未知,108707781.60999997
15,000557,36494217.59,36495513.01,2017-09-30,三季度报告,39101783.49,2017,9,-1.0561377380562893,False,2.6876801067313294,False,0.841791194609356,False,前期平均,115042201.30999997,未知,115042201.30999997
16,000557,86991527.43,86994814.66,2017-12-31,年度报告,75474977.22000001,2017,12,-0.5723995135261473,True,0.7271309368815991,True,0.0,True,比例外推,86994814.66,未知,86994814.66
17,000557,21556082.13,21556082.13,2018-03-31,一季度报告,21555876.250000004,2018,3,-0.7119740684830298,True,-1.905867663058953,True,0.3715117928027709,False,平均增速,130721091.51495214,未知,130721091.51495214
18,000557,50639418.75999998,50639418.75999998,2018-06-30,半年度报告,51902205.91999999,2018,6,-0.8576138779200531,True,19.241901440126526,False,0.5894476390445279,False,未知,未知,未知,未知
19,000557,82556201.74000001,82556201.74000001,2018-09-30,三季度报告,70514206.55000001,2018,9,-0.9031798927792823,True,9.100977701774902,False,0.5441762637389258,False,未知,未知,未知,未知
20,000557,147362646.5,147362646.5,2018-12-31,年度报告,135611853.49,2018,12,-0.9593825494920385,True,1.5672424521192223,True,0.0,True,比例外推,147362646.5,未知,147362646.5
21,000557,28745069.45,28745069.45,2019-03-31,一季度报告,28618807.97,2019,3,-0.8360845890876183,True,-4.7378015239478595,True,0.30223219576053534,False,平均增速,267556388.42060694,未知,267556388.42060694
22,000557,66262241.63999999,66262241.63999999,2019-06-30,半年度报告,65086045.31000001,2019,6,-0.9302248298554523,True,-3.963568088775032,True,0.7465827930512264,False,平均增速,238451823.2124733,未知,238451823.2124733
23,000557,11013676.350000003,11013676.350000003,2019-09-30,三季度报告,113800733.02000004,2019,9,-0.957200380037736,True,-7.243157848252899,True,0.6985156552064543,False,平均增速,156631536.9299259,未知,156631536.9299259
24,000557,44792379.54000001,44792379.54000001,2019-12-31,年度报告,150181875.64,2019,12,-0.9760225936224618,True,2.094073279544864,False,0.0,True,比例外推,44792379.54000001,未知,44792379.54000001
25,000557,46776949.71000001,46776949.71000001,2020-03-31,一季度报告,49617724.00999999,2020,3,-0.8770789520565935,True,0.6997030232776423,True,0.020109789834823755,True,比例外推,288255574.04985857,未知,288255574.04985857
