,SECURITYCODE_x,NETPROFIT_x,PARENTNETPROFIT_x,REPORTDATE_x,REPORTTIMETYPE_x,KCFJCXSYJLR,Year,Month,managesituationChangeRate,managesituationGreatChange,historyprofitextroplaterate,ifhistoryprofitextroplate,IfprofitdisStableChangeRage,IfprofitdisStable,predicttype,predict,analyst_prediction,adj_prediction
0,000570,75801072.87,75712361.03999999,2013-12-31,年度报告,71950142.51,2013,12,未知,未知,未知,未知,未知,未知,未知,未知,未知,未知
1,000570,19880414.470000006,19532558.06,2014-03-31,一季度报告,19307194.21,2014,3,未知,未知,未知,未知,未知,未知,未知,未知,未知,未知
2,000570,35150085.34,34303430.489999995,2014-06-30,半年度报告,33519687.430000003,2014,6,未知,未知,未知,未知,未知,未知,未知,未知,未知,未知
3,000570,52064477.1,51043900.61999999,2014-09-30,三季度报告,49051143.62,2014,9,未知,未知,未知,未知,未知,未知,未知,未知,未知,未知
4,000570,65669614.56,64202144.29000001,2014-12-31,年度报告,58685034.56999999,2014,12,0.0,True,未知,未知,未知,未知,未知,未知,未知,未知
5,000570,17614643.299999993,17279138.61,2015-03-31,一季度报告,15137500.97,2015,3,2.8128517382967813,False,未知,未知,未知,未知,未知,未知,未知,未知
6,000570,38217442.56,37563399.18,2015-06-30,半年度报告,35710619.28,2015,6,1.1564975486344011,False,未知,未知,未知,未知,未知,未知,未知,未知
7,000570,74976353.47,73747987.13,2015-09-30,三季度报告,71257105.37999998,2015,9,0.455907695460174,True,未知,未知,未知,未知,未知,未知,未知,未知
8,000570,72484335.88999999,71102792.49,2015-12-31,年度报告,61588462.28999999,2015,12,0.15427924128811885,True,未知,未知,未知,未知,未知,未知,未知,未知
9,000570,24667455.17,24282056.99000001,2016-03-31,一季度报告,24946954.15,2016,3,3.3032987713126176,False,未知,未知,未知,未知,未知,未知,未知,未知
10,000570,35403561.669999994,35018142.36,2016-06-30,半年度报告,28510501.61,2016,6,0.983415628897592,False,未知,未知,未知,未知,未知,未知,未知,未知
11,000570,55627491.36,55108750.63999999,2016-09-30,三季度报告,48229208.49,2016,9,0.010999726738244182,True,未知,未知,未知,未知,未知,未知,83500000.0,未知
12,000570,63716669.27000002,62539896.17,2016-12-31,年度报告,56835566.28000001,2016,12,0.045757982594106926,True,0.02472585956529528,True,0.0,True,比例外推,62539896.17,未知,62539896.17
13,000570,35266070.03,34991536.7,2017-03-31,一季度报告,14440682.83,2017,3,2.0729182377186417,False,0.3157710182133161,True,0.10102753513608209,False,前期平均,77905937.53999999,未知,77905937.53999999
14,000570,40050611.86999999,39679158.13,2017-06-30,半年度报告,20774047.49,2017,6,1.1410578284905089,False,0.034898334907642665,True,0.04924774455531289,True,前期平均,65200753.20499999,未知,65200753.20499999
15,000570,43305505.88000001,42751443.27,2017-09-30,三季度报告,21403055.82,2017,9,0.36265488550336106,True,0.12425806553037239,True,0.20985466997663815,False,平均增速,48904684.97322767,未知,48904684.97322767
16,000570,47137232.47000001,46431302.72999999,2017-12-31,年度报告,18818435.16,2017,12,0.1896584322195532,True,0.07759902539942137,True,0.0,True,比例外推,46431302.72999999,,46431302.72999999
17,000570,11538909.18,11343577.44,2018-03-31,一季度报告,11141982.06,2018,3,1.149405159279666,False,0.6681324393122062,True,0.2833403726178673,False,前期平均,50513364.165,未知,50513364.165
18,000570,18907908.92,18638557.66,2018-06-30,半年度报告,17262823.25,2018,6,0.8926320805295608,False,0.08802134089009549,True,0.3754607550312944,False,前期平均,45740011.5,未知,45740011.5
19,000570,23643295.6,23309400.04,2018-09-30,三季度报告,11280631.08,2018,9,0.7503795725200748,False,0.3368417915051665,True,0.19906139003301682,False,前期平均,22778257.390000008,未知,22778257.390000008
20,000570,62166697.84,62021374.04000002,2018-12-31,年度报告,-43333196.13,2018,12,0.6080934093498761,False,0.30782841999401855,True,0.0,True,前期平均,62021374.04000002,未知,62021374.04000002
21,000570,2567039.45,2518025.1,2019-03-31,一季度报告,1083678.62,2019,3,5.569171460451689,False,0.6149430843090138,True,0.5735159995383514,False,前期平均,20651207.330000006,未知,20651207.330000006
22,000570,19107039.42000001,19058025.07,2019-06-30,半年度报告,14227155.59,2019,6,3.008961180779794,False,0.4988240402639495,True,0.8007665287381838,False,前期平均,32242751.240000006,未知,32242751.240000006
23,000570,20057708.04,20008693.69,2019-09-30,三季度报告,14424860.12,2019,9,2.2060282184180786,False,0.5220341795034451,True,0.8355219121638209,False,前期平均,23019562.255000003,未知,23019562.255000003
24,000570,24952387.01,24934586.11000001,2019-12-31,年度报告,14376783.21,2019,12,0.21931959559909608,True,0.1215969282850789,True,0.0,True,比例外推,24934586.11000001,未知,24934586.11000001
25,000570,1517166.2699999998,1510305.6,2020-03-31,一季度报告,1271708.92,2020,3,28.528596792698295,False,0.8903091297837156,True,0.5721614629296549,False,前期平均,-23538407.33,未知,-23538407.33
