,SECURITYCODE_x,NETPROFIT_x,PARENTNETPROFIT_x,REPORTDATE_x,REPORTTIMETYPE_x,KCFJCXSYJLR,Year,Month,managesituationChangeRate,managesituationGreatChange,historyprofitextroplaterate,ifhistoryprofitextroplate,IfprofitdisStableChangeRage,IfprofitdisStable,predicttype,predict,analyst_prediction,adj_prediction
0,000698,30123846.04000001,36970040.65,2013-12-31,年度报告,-147370061.64,2013,12,未知,未知,未知,未知,未知,未知,未知,未知,未知,未知
1,000698,-30375968.49,-30376691.04,2014-03-31,一季度报告,-42328826.63999999,2014,3,未知,未知,未知,未知,未知,未知,未知,未知,未知,未知
2,000698,-42027484.02,-42026985.33000001,2014-06-30,半年度报告,-66242415.67999999,2014,6,未知,未知,未知,未知,未知,未知,未知,未知,未知,未知
3,000698,-24100897.99,-24453093.020000003,2014-09-30,三季度报告,-60502949.24,2014,9,未知,未知,未知,未知,未知,未知,未知,未知,未知,未知
4,000698,89430869.91,91236046.69,2014-12-31,年度报告,-234140573.8,2014,12,0.0,True,未知,未知,未知,未知,未知,未知,未知,未知
5,000698,-20680636.65,-20833203.369999994,2015-03-31,一季度报告,-48924519.38,2015,3,-1.9916999370708792,False,未知,未知,未知,未知,未知,未知,,未知
6,000698,21790740.61,21345120.99,2015-06-30,半年度报告,-18941132.84,2015,6,-1.7167653915629284,False,未知,未知,未知,未知,未知,未知,71370000.0,未知
7,000698,95035724.93,94502776.79999998,2015-09-30,三季度报告,-82949002.98000002,2015,9,-2.249905545116994,False,未知,未知,未知,未知,未知,未知,,未知
8,000698,186033998.6,187859567.3,2015-12-31,年度报告,-202887822.01,2015,12,-0.6631605387455634,True,未知,未知,未知,未知,未知,未知,未知,未知
9,000698,86865031.07999998,86676193.13,2016-03-31,一季度报告,7386614.24,2016,3,-2.4566208260324527,False,未知,未知,未知,未知,未知,未知,476950000.0,未知
10,000698,137975158.66,137938128.45999998,2016-06-30,半年度报告,46872559.85999999,2016,6,0.38241497061260327,True,未知,未知,未知,未知,未知,未知,,未知
11,000698,252071163.92999995,252773936.31,2016-09-30,三季度报告,-36127215.88,2016,9,-0.6830260824317573,True,未知,未知,未知,未知,未知,未知,未知,未知
12,000698,339125807.58000004,340492245.54,2016-12-31,年度报告,41380477.88,2016,12,-0.8380734367551242,True,2.112114768903016,False,0.0,True,比例外推,340492245.54,93200000.0,93200000.0
13,000698,83049177.10000001,82709504.64999999,2017-03-31,一季度报告,67598737.18,2017,3,-0.6532108989605163,True,-4.402695139710575,True,0.0409976179802794,True,比例外推,352862755.938705,368070000.0,352862755.938705
14,000698,114827392.44,114282013.87000002,2017-06-30,半年度报告,79422217.60000001,2017,6,-0.7816719594124074,True,-14.636102989952372,True,0.6297227302711266,False,平均增速,105046674.75976382,227000000.0,227000000.0
15,000698,177795037.24,177042361.01000002,2017-09-30,三季度报告,108083249.59000002,2017,9,-0.8804946763035323,True,6.107120008714859,False,0.8044485275662279,False,未知,未知,227000000.0,未知
16,000698,227923003.47,224848742.87,2017-12-31,年度报告,78669099.22999999,2017,12,-0.9111720625010417,True,1.4622073182278705,True,0.0,True,比例外推,224848742.87,未知,224848742.87
17,000698,36696083.03000001,36389008.14,2018-03-31,一季度报告,24460932.11000001,2018,3,-0.6372770075285911,True,1.5096301874556572,True,0.43297109114744614,False,平均增速,49753103.31637605,203000000.0,203000000.0
18,000698,68130902.53,67625413.84,2018-06-30,半年度报告,44056066.26,2018,6,-0.7376597569631269,True,0.43744557461470374,True,0.6518598290078593,False,平均增速,66643632.19455875,,66643632.19455875
19,000698,102376331.89,101858020.92999998,2018-09-30,三季度报告,23251139.51,2018,9,-0.8305698150655534,True,0.02443969247588636,True,1.1762794447763754,False,平均增速,68507384.42402968,未知,68507384.42402968
20,000698,118605837.75,117912698.77,2018-12-31,年度报告,57930893.13999999,2018,12,-0.8678332349899688,True,0.1319861086555481,True,0.0,True,比例外推,117912698.77,,117912698.77
21,000698,32343073.46,32201638.96000001,2019-03-31,一季度报告,23315161.42,2019,3,-0.1790991421244339,True,0.5680633959565558,True,0.37260356733083577,False,平均增速,70222020.74304676,未知,70222020.74304676
22,000698,61075930.63999999,60892832.51999999,2019-06-30,半年度报告,44503630.23,2019,6,-0.5578534127485599,True,0.4609951344751283,True,0.20710262046421213,False,平均增速,77049447.7729307,未知,77049447.7729307
23,000698,-128094838.22,-128393561.32,2019-09-30,三季度报告,-173980599.29000002,2019,9,-0.7057538057490955,True,0.5236828035730445,True,1.1737855216258155,False,平均增速,-235275143.98090756,未知,-235275143.98090756
24,000698,-745294960.6699997,-745761458.2800001,2019-12-31,年度报告,-767823848.4,2019,12,-0.7460171724135897,True,0.5816732689012134,True,0.0,True,比例外推,-745761458.2800001,未知,-745761458.2800001
25,000698,-149302333.2,-149370958.91,2020-03-31,一季度报告,-174864698.32999998,2020,3,-0.06861522986504667,True,0.4598020259860453,True,0.44741773879220953,False,平均增速,5293236694.521742,未知,5293236694.521742
