,SECURITYCODE_x,NETPROFIT_x,PARENTNETPROFIT_x,REPORTDATE_x,REPORTTIMETYPE_x,KCFJCXSYJLR,Year,Month,managesituationChangeRate,managesituationGreatChange,historyprofitextroplaterate,ifhistoryprofitextroplate,IfprofitdisStableChangeRage,IfprofitdisStable,predicttype,predict,analyst_prediction,adj_prediction
0,000633,5531168.96,5824313.6099999985,2013-12-31,年度报告,-36426.29,2013,12,未知,未知,未知,未知,未知,未知,未知,未知,未知,未知
1,000633,-7879188.8599999985,-7879188.8599999985,2014-03-31,一季度报告,-7853054.469999999,2014,3,未知,未知,未知,未知,未知,未知,未知,未知,未知,未知
2,000633,-14672392.510000005,-14672392.510000005,2014-06-30,半年度报告,-14627057.319999995,2014,6,未知,未知,未知,未知,未知,未知,未知,未知,未知,未知
3,000633,-21663062.43,-21663062.43,2014-09-30,三季度报告,-21646454.19,2014,9,未知,未知,未知,未知,未知,未知,未知,未知,未知,未知
4,000633,-28900316.59,-28900316.59,2014-12-31,年度报告,-29202550.270000003,2014,12,0.0,True,未知,未知,未知,未知,未知,未知,未知,未知
5,000633,-4787609.58,-4787609.58,2015-03-31,一季度报告,-4875859.580000001,2015,3,-1.701997256098263,False,未知,未知,未知,未知,未知,未知,未知,未知
6,000633,-13797777.329999994,-13797777.329999994,2015-06-30,半年度报告,-14062174.86,2015,6,-1.3769779847581245,False,未知,未知,未知,未知,未知,未知,未知,未知
7,000633,-42224753.81,-42223953.58000001,2015-12-31,年度报告,-41386631.85,2015,12,-1.191387832820969,False,未知,未知,未知,未知,未知,未知,未知,未知
8,000633,-9968249.48,-9808440.21,2016-03-31,一季度报告,-9907422.159999998,2016,3,-2.155309109394839,False,未知,未知,未知,未知,未知,未知,未知,未知
9,000633,-27673104.54000001,-27336750.5,2016-06-30,半年度报告,-27497804.680000003,2016,6,-1.400873910899677,False,未知,未知,未知,未知,未知,未知,未知,未知
10,000633,-37469307.6,-36870734.64000001,2016-09-30,三季度报告,-37131270.38,2016,9,未知,未知,未知,未知,未知,未知,未知,未知,未知,未知
11,000633,25189064.530000005,26407110.5,2016-12-31,年度报告,-25769579.45,2016,12,-1.1309935159098563,False,-2.613717922325437,True,0.0,True,未知,未知,未知,未知
12,000633,-7588171.68,-7571255.550000003,2017-03-31,一季度报告,-7665441.04,2017,3,-1.5548786646138395,False,-0.5739177547061375,True,0.13925126854863018,False,前期平均,-36501389.58500001,未知,-36501389.58500001
13,000633,-15376088.309999995,-14656689.66,2017-06-30,半年度报告,-14948383.94,2017,6,-1.1998752598214988,False,-0.9440069866474678,True,0.43115681676581386,False,前期平均,-35606664.63000001,未知,-35606664.63000001
14,000633,-19827776.05,-18820357.680000003,2017-09-30,三季度报告,-19249683.99,2017,9,-1.1476186594918556,False,未知,未知,未知,未知,未知,未知,未知,未知
15,000633,-24993690.910000004,-23709043.46,2017-12-31,年度报告,-26222986.06,2017,12,-0.7804138794669244,True,-1.708303398178429,True,0.0,True,比例外推,-23709043.46,未知,-23709043.46
16,000633,-6357735.4300000025,-5530740.75,2018-03-31,一季度报告,-5648728.4300000025,2018,3,-1.7289198496362963,False,-0.028496090826717266,True,0.1470515656803043,False,前期平均,-31717205.53,未知,-31717205.53
17,000633,-10870207.26,-9190989.24,2018-06-30,半年度报告,-9423073.01,2018,6,-1.3597253637261402,False,-0.2584634029148513,True,0.4081014802261925,False,前期平均,-21989105.119999997,未知,-21989105.119999997
18,000633,-11904025.56,-9250791.58,2018-09-30,三季度报告,-9710599.38,2018,9,-1.2789606331064043,False,未知,未知,未知,未知,未知,未知,未知,未知
19,000633,1302333.1800000002,4892881.9,2018-12-31,年度报告,3913916.82,2018,12,-1.221302607122623,False,-1.9342740994158363,True,0.0,True,盈利变化,-13663409.166666668,未知,-13663409.166666668
20,000633,-1686980.3200000003,-600767.34,2019-03-31,一季度报告,-1944864.48,2019,3,-1.8699904267642666,False,-0.2757367379081487,True,1.187754396812057,False,前期平均,-17810618.495,未知,-17810618.495
21,000633,-7441743.260000003,-5139029.859999999,2019-06-30,半年度报告,-6628503.47,2019,6,-1.5088374883479452,False,-0.49498670983792914,True,2.1507586887364116,False,前期平均,-9912218.304999998,未知,-9912218.304999998
22,000633,-11895630.490000002,-8339622.939999999,2019-09-30,三季度报告,-10000387.689999998,2019,9,-1.4646469324281255,False,-0.584480577311198,True,2.379019990645963,False,前期平均,-6145428.509999997,未知,-6145428.509999997
23,000633,-11453702.98,-6359251.379999999,2019-12-31,年度报告,-8191019.909999997,2019,12,3.247122813840924,False,12.331719809460388,False,0.0,True,前期平均盈利变化,90480242.45999998,未知,90480242.45999998
24,000633,-3774632.990000001,-2651701.02,2020-03-31,一季度报告,-2794409.84,2020,3,-4.278739469823809,False,-0.7580680400788931,True,1.138746628642764,False,前期平均,-7149150.9049999975,未知,-7149150.9049999975
