,SECURITYCODE_x,NETPROFIT_x,PARENTNETPROFIT_x,REPORTDATE_x,REPORTTIMETYPE_x,KCFJCXSYJLR,Year,Month,managesituationChangeRate,managesituationGreatChange,historyprofitextroplaterate,ifhistoryprofitextroplate,IfprofitdisStableChangeRage,IfprofitdisStable,predicttype,predict,analyst_prediction,adj_prediction
0,000667,50991232.63999999,51691415.56,2013-12-31,年度报告,53675798.98,2013,12,未知,未知,未知,未知,未知,未知,未知,未知,未知,未知
1,000667,9771961.64,12863820.8,2014-03-31,一季度报告,12967562.179999998,2014,3,未知,未知,未知,未知,未知,未知,未知,未知,未知,未知
2,000667,36661236.14,39901656.16,2014-06-30,半年度报告,39750434.59,2014,6,未知,未知,未知,未知,未知,未知,未知,未知,未知,未知
3,000667,24763886.19,28118613.83000001,2014-09-30,三季度报告,27641878.52999999,2014,9,未知,未知,未知,未知,未知,未知,未知,未知,未知,未知
4,000667,74836985.60000001,75317847.42,2014-12-31,年度报告,49745021.63999999,2014,12,0.0,True,未知,未知,未知,未知,未知,未知,未知,未知
5,000667,9191636.47,12222125.159999998,2015-03-31,一季度报告,12271660.930000005,2015,3,4.218116333088674,False,未知,未知,未知,未知,未知,未知,未知,未知
6,000667,33380909.989999995,36494084.99,2015-06-30,半年度报告,35937845.99,2015,6,0.39087597715683553,True,未知,未知,未知,未知,未知,未知,未知,未知
7,000667,157951238.25999996,161176749.17999998,2015-09-30,三季度报告,160488930.19,2015,9,1.0590965508713635,False,未知,未知,未知,未知,未知,未知,未知,未知
8,000667,424806708.11,428181075.21,2015-12-31,年度报告,431597413.9900001,2015,12,-0.31863593607917867,True,未知,未知,未知,未知,未知,未知,未知,未知
9,000667,424806708.11,428181075.21,2015-12-31,年度报告,430747451.31,2015,12,-0.31863593607917867,True,未知,未知,未知,未知,未知,未知,未知,未知
10,000667,103249416.71999998,103459004.38,2016-03-31,一季度报告,102894635.71000002,2016,3,4.547568466880413,False,未知,未知,未知,未知,未知,未知,598700000.0,未知
11,000667,270079137.38,273232766.58,2016-06-30,半年度报告,270280348.58,2016,6,0.5275566979832356,False,未知,未知,未知,未知,未知,未知,598700000.0,未知
12,000667,308582371.56000006,311830448.13,2016-09-30,三季度报告,308144111.16,2016,9,-0.677171048472159,True,未知,未知,0.0,True,未知,未知,,未知
13,000667,669683197.3100001,667994861.39,2016-12-31,年度报告,650251866.6800001,2016,12,-0.879966037102229,True,5.752169172414723,False,0.12068416225746252,False,未知,未知,616500000.0,未知
14,000667,80905037.83999999,80647780.17999999,2017-03-31,一季度报告,79316798.34,2017,3,-0.5061353927230205,True,9.889222195186038,False,0.3664151431787823,False,未知,未知,未知,未知
15,000667,289348752.65,296646325.64999986,2017-06-30,半年度报告,295672382.68999994,2017,6,-0.8111989206768845,True,6.7119035410116155,False,0.09528604192126927,True,比例外推,684343225.7360535,未知,684343225.7360535
16,000667,381840222.27,379810665.1100001,2017-09-30,三季度报告,379972341.47,2017,9,-0.8347564950576402,True,2.377743057547967,False,0.0,True,比例外推,813248932.6141548,未知,813248932.6141548
17,000667,646855690.3699999,664382372.78,2017-12-31,年度报告,682427062.7500001,2017,12,-0.9238576795045436,True,1.6806430491993491,True,0.07253313168089798,True,比例外推,664382372.78,未知,664382372.78
18,000667,-149424560.64,-135882101.95000002,2018-03-31,一季度报告,-122048250.95,2018,3,-0.3697397096477274,True,0.4390658135029872,True,0.22746221956121548,False,平均增速,-214496057.68499458,未知,-214496057.68499458
19,000667,181341034.28000003,226047455.69000003,2018-06-30,半年度报告,-191164913.38000005,2018,6,-0.8237724124503842,True,0.9069973471480116,True,0.09566080240601976,True,比例外推,-198001350.67440805,未知,-198001350.67440805
20,000667,222846270.23,292353141.36999995,2018-09-30,三季度报告,-375700849.00999993,2018,9,-0.8664592422011949,True,0.6369248184169333,True,0.0,True,比例外推,-135567883.28037488,未知,-135567883.28037488
21,000667,149093095.87,248814083.27000004,2018-12-31,年度报告,241791617.76,2018,12,-0.9211706205895273,True,0.18202221357496243,True,0.42799938578363067,False,平均增速,248814083.27000004,未知,248814083.27000004
22,000667,-165577483.23999998,-125165619.71999998,2019-03-31,一季度报告,-182525377.07,2019,3,-1.3412506780786209,False,2.6228177699748825,False,0.8100525549520916,False,去年同期,238674248.99,未知,238674248.99
23,000667,7273956.790000001,13059752.430000005,2019-06-30,半年度报告,9799499.839999998,2019,6,-0.7188102911045117,True,0.3516911204756867,True,1.3794404692848683,False,平均增速,609058671.7432868,未知,609058671.7432868
24,000667,39540300.11,76150753.47999999,2019-09-30,三季度报告,82246028.9,2019,9,-0.7711820234308977,True,0.3544641434927591,True,0.0,True,比例外推,-477742625.9316186,未知,-477742625.9316186
25,000667,-207852520.01,66886561.83,2019-12-31,年度报告,60511274.0,2019,12,-0.6579906511267215,True,0.7735074941345161,True,1.88141127385973,False,平均增速,66886561.83,未知,66886561.83
26,000667,-128440165.47,-91314678.96,2020-03-31,一季度报告,-94219879.52,2020,3,-1.3079599450493495,False,-3.83300164606517,True,未知,未知,前期平均,392160387.6,未知,392160387.6
