,SECURITYCODE_x,NETPROFIT_x,PARENTNETPROFIT_x,REPORTDATE_x,REPORTTIMETYPE_x,KCFJCXSYJLR,Year,Month,managesituationChangeRate,managesituationGreatChange,historyprofitextroplaterate,ifhistoryprofitextroplate,IfprofitdisStableChangeRage,IfprofitdisStable,predicttype,predict,analyst_prediction,adj_prediction
0,000600,1214546702.5200002,856445738.89,2013-12-31,年度报告,685771676.95,2013,12,未知,未知,未知,未知,未知,未知,未知,未知,未知,未知
1,000600,632008985.7800001,488279827.37,2014-03-31,一季度报告,311689016.29,2014,3,未知,未知,未知,未知,未知,未知,未知,未知,未知,未知
2,000600,1288566437.53,957514476.52,2014-06-30,半年度报告,877204513.9499999,2014,6,未知,未知,未知,未知,未知,未知,未知,未知,未知,未知
3,000600,2118052608.95,1586735652.5299993,2014-09-30,三季度报告,1412939391.4,2014,9,未知,未知,未知,未知,未知,未知,未知,未知,未知,未知
4,000600,2660119497.470001,2043192820.88,2014-12-31,年度报告,1882048874.85,2014,12,0.0,True,未知,未知,未知,未知,未知,未知,未知,未知
5,000600,717488617.7799999,543681108.71,2015-03-31,一季度报告,539946195.7900001,2015,3,0.9217237885012909,False,未知,未知,未知,未知,未知,未知,2146000000.0,未知
6,000600,1466393082.88,1094419856.6,2015-06-30,半年度报告,1077772198.6599998,2015,6,-0.05744347583030732,True,未知,未知,未知,未知,未知,未知,,未知
7,000600,2306925043.63,1751803850.13,2015-09-30,三季度报告,1732431931.7500002,2015,9,-0.4265738738557124,True,未知,未知,未知,未知,未知,未知,未知,未知
8,000600,2624261427.26,2044419252.11,2015-12-31,年度报告,2068726172.7800004,2015,12,-0.5434240064496588,True,未知,未知,未知,未知,未知,未知,2157000000.0,未知
9,000600,862189669.0400001,654058240.4300003,2016-03-31,一季度报告,650198351.39,2016,3,0.6927748711581805,False,未知,未知,未知,未知,未知,未知,2161291667.0,未知
10,000600,1532323342.78,1154647962.2999995,2016-06-30,半年度报告,1143656527.12,2016,6,-0.17174547759416112,True,未知,未知,未知,未知,未知,未知,2238137500.0,未知
11,000600,2160625581.9200006,1642282541.0100002,2016-09-30,三季度报告,1628797506.3800006,2016,9,-0.47352138472220023,True,未知,未知,未知,未知,未知,未知,2111900000.0,未知
12,000600,1943664694.75,1452358093.6899998,2016-12-31,年度报告,1439577081.5400002,2016,12,-0.5371853238767784,True,0.3545741964904084,True,0.0,True,比例外推,1452358093.6899998,未知,1452358093.6899998
13,000600,301064512.9,225614615.93,2017-03-31,一季度报告,220489926.57000005,2017,3,0.40867693749141065,True,0.2777935533424107,True,0.15890094469120386,False,平均增速,713704852.4554502,877450000.0,877450000.0
14,000600,336586361.60999995,234266183.06,2017-06-30,半年度报告,215881764.41000003,2017,6,-0.20738223545134876,True,0.11241078602269687,True,0.20060159997169347,False,平均增速,394994947.4971453,674000000.0,674000000.0
15,000600,382855853.1199998,237599644.54,2017-09-30,三季度报告,217281772.38000005,2017,9,-0.43787266397136915,True,0.023441132788438082,True,0.22489968375865088,False,平均增速,140062918.059375,386000000.0,386000000.0
16,000600,312469625.18000007,168468043.99,2017-12-31,年度报告,159539288.06999996,2017,12,-0.37512539801716216,True,0.26437373745939446,True,0.0,True,比例外推,168468043.99,332500000.0,332500000.0
17,000600,262235274.22000003,200522612.81000003,2018-03-31,一季度报告,197928162.36,2018,3,3.0341742400022342,False,0.6188280671932722,True,0.6838065497956393,False,前期平均,1359601966.3800004,386000000.0,386000000.0
18,000600,292309015.57,188421208.03,2018-06-30,半年度报告,178743085.98999998,2018,6,2.608425180124459,False,0.7755130436944072,True,0.4636306701440046,False,前期平均,831858472.3000004,221000000.0,221000000.0
19,000600,434635374.41,283147511.47000015,2018-09-30,三季度报告,269048623.41,2018,9,2.1723341634255244,False,0.8286059251660449,True,0.2728321381231863,False,前期平均,356684419.56500006,,356684419.56500006
20,000600,661644032.0300001,431841768.21,2018-12-31,年度报告,421583812.12,2018,12,2.8869272551543306,False,0.8631897203090029,True,0.0,True,前期平均,431841768.21,,431841768.21
21,000600,392895833.4,313037111.24,2019-03-31,一季度报告,305793691.19000006,2019,3,3.6315153677650045,False,0.5491350415217747,True,0.614312245144364,False,前期平均,677251157.065,889551713.0,889551713.0
22,000600,519097782.33,392267832.2499999,2019-06-30,半年度报告,379971612.56,2019,6,3.155009383311852,False,0.6871876529043893,True,0.49596518436382453,False,前期平均,512056871.28999996,837826250.0,837826250.0
23,000600,638501779.6999999,463928304.21,2019-09-30,三季度报告,440046306.6700001,2019,9,1.7944037094741732,False,0.6582358585973601,True,0.40566787312797525,False,前期平均,340446849.6349997,709166667.0,709166667.0
24,000600,895043424.87,639556309.9799999,2019-12-31,年度报告,628420761.4799999,2019,12,0.8356497508088013,False,0.4134710631497078,True,0.0,True,前期平均,639556309.9799999,729672000.0,729672000.0
25,000600,508154652.66,396793156.43,2020-03-31,一季度报告,390841281.45000017,2020,3,2.091268980914574,False,0.39497952026138866,True,0.6026631386560855,False,前期平均,478145662.05999994,835214286.0,835214286.0
