,SECURITYCODE_x,NETPROFIT_x,PARENTNETPROFIT_x,REPORTDATE_x,REPORTTIMETYPE_x,KCFJCXSYJLR,Year,Month,managesituationChangeRate,managesituationGreatChange,historyprofitextroplaterate,ifhistoryprofitextroplate,IfprofitdisStableChangeRage,IfprofitdisStable,predicttype,predict,analyst_prediction,adj_prediction
0,000601,234378580.23000005,206957772.35,2013-12-31,年度报告,201660170.92,2013,12,未知,未知,未知,未知,未知,未知,未知,未知,未知,未知
1,000601,56665141.44000001,53707302.27,2014-03-31,一季度报告,45652226.52,2014,3,未知,未知,未知,未知,未知,未知,未知,未知,未知,未知
2,000601,191274516.43,185641292.92,2014-06-30,半年度报告,168739072.55,2014,6,未知,未知,未知,未知,未知,未知,未知,未知,未知,未知
3,000601,273905495.34,265660127.59000003,2014-09-30,三季度报告,247053754.86000007,2014,9,未知,未知,未知,未知,未知,未知,未知,未知,未知,未知
4,000601,270927413.75000006,261736746.71,2014-12-31,年度报告,243006959.04,2014,12,0.0,True,未知,未知,未知,未知,未知,未知,未知,未知
5,000601,43477254.71,37532877.11,2015-03-31,一季度报告,35774414.52,2015,3,3.1362039213856407,False,未知,未知,未知,未知,未知,未知,396000000.0,未知
6,000601,150466327.26000002,139749817.13,2015-06-30,半年度报告,137097786.92,2015,6,0.22535183779055412,True,未知,未知,未知,未知,未知,未知,,未知
7,000601,257065050.0,240533409.79,2015-09-30,三季度报告,236161853.08,2015,9,-0.1443085873868102,True,未知,未知,未知,未知,未知,未知,306500000.0,未知
8,000601,301543274.97,281174718.55,2015-12-31,年度报告,271389030.6999999,2015,12,-0.1349026774888335,True,未知,未知,未知,未知,未知,未知,300325000.0,未知
9,000601,172449038.74,160894321.68999997,2016-03-31,一季度报告,159116027.03999996,2016,3,4.390832098147442,False,未知,未知,未知,未知,未知,未知,505000000.0,未知
10,000601,393800755.96,373870676.56999993,2016-06-30,半年度报告,367705226.9,2016,6,0.5576812732658974,False,未知,未知,未知,未知,未知,未知,623042500.0,未知
11,000601,484205980.61,458582806.25,2016-09-30,三季度报告,451284781.61,2016,9,-0.08825186375977578,True,未知,未知,未知,未知,未知,未知,579996000.0,未知
12,000601,463219198.7999999,440573127.97,2016-12-31,年度报告,436774595.16,2016,12,-0.2227365035638154,True,0.1935076114768392,True,0.0,True,比例外推,440573127.97,568400000.0,568400000.0
13,000601,129089434.60999998,123692882.32,2017-03-31,一季度报告,117924269.52,2017,3,0.3591179280701628,True,2.4440765424005684,False,0.13630402365223782,False,未知,未知,426464126.00000006,未知
14,000601,328783226.73,322153550.32,2017-06-30,半年度报告,314559198.51,2017,6,-0.4048295319834102,True,1.3046748039120808,True,0.17530104905260524,False,平均增速,398771003.18656355,,398771003.18656355
15,000601,444573783.17,434631081.23,2017-09-30,三季度报告,424085540.6499999,2017,9,-0.5159527357866766,True,0.8238525088051546,True,0.10316024102490806,False,平均增速,417923842.3135828,未知,417923842.3135828
16,000601,458473314.5799999,445753908.5299999,2017-12-31,年度报告,415543495.71,2017,12,-0.494022309875814,True,0.6183158646453044,True,0.0,True,比例外推,445753908.5299999,,445753908.5299999
17,000601,104808686.48,101082160.6,2018-03-31,一季度报告,33733970.63999999,2018,3,0.8156294582751529,False,0.195680549575052,True,0.1281472224633096,False,前期平均,357718752.75,未知,357718752.75
18,000601,209939395.79,203958502.78000003,2018-06-30,半年度报告,129527586.36,2018,6,-0.28713340226910655,True,0.20816869829734475,True,0.19616872127843754,False,平均增速,289399928.4517727,未知,289399928.4517727
19,000601,278099743.19,268708577.73,2018-09-30,三季度报告,184093064.57,2018,9,-0.4728016156085922,True,0.1994905097104777,True,0.10446134630870108,False,平均增速,261385944.84059447,未知,261385944.84059447
20,000601,316845970.88999987,302915113.63999987,2018-12-31,年度报告,170419816.38000005,2018,12,-0.4887846843502538,True,0.19899532287428737,True,0.0,True,比例外推,302915113.63999987,未知,302915113.63999987
21,000601,113403383.45000002,110026025.58000004,2019-03-31,一季度报告,102563475.92,2019,3,1.2362514797351751,False,0.30484037200555125,True,0.08406281321069756,True,前期平均,397664922.7350001,569000000.0,569000000.0
22,000601,365246045.89,353787959.28000003,2019-06-30,半年度报告,336202091.24999994,2019,6,0.11641066388724057,True,0.4189204277447503,True,0.055565761252025614,True,比例外推,445161137.0431979,575000000.0,575000000.0
23,000601,493310323.12000006,478254498.5999999,2019-09-30,三季度报告,446945136.5500001,2019,9,-0.1572139638048112,True,0.4011502962593111,True,0.03556264314330959,True,比例外推,459143124.56752056,589000000.0,589000000.0
24,000601,404903351.3899999,401116633.34000015,2019-12-31,年度报告,356501050.64000005,2019,12,-0.26027596446422924,True,0.3124692534865604,True,0.0,True,比例外推,401116633.34000015,未知,401116633.34000015
25,000601,82217122.42,79968031.89,2020-03-31,一季度报告,46835698.35000002,2020,3,1.0667688485091669,False,0.03031813234306105,True,0.058528456564686776,True,前期平均,297120567.855,505000000.0,505000000.0
