,SECURITYCODE_x,NETPROFIT_x,PARENTNETPROFIT_x,REPORTDATE_x,REPORTTIMETYPE_x,KCFJCXSYJLR,Year,Month,managesituationChangeRate,managesituationGreatChange,historyprofitextroplaterate,ifhistoryprofitextroplate,IfprofitdisStableChangeRage,IfprofitdisStable,predicttype,predict,analyst_prediction,adj_prediction
0,000620,501773102.17,508514764.25,2013-12-31,年度报告,319755430.20000005,2013,12,未知,未知,未知,未知,未知,未知,未知,未知,未知,未知
1,000620,12341581.84,15170641.67,2014-03-31,一季度报告,17997300.97,2014,3,未知,未知,未知,未知,未知,未知,未知,未知,未知,未知
2,000620,190723464.25000003,193435511.79,2014-06-30,半年度报告,77977759.58999999,2014,6,未知,未知,未知,未知,未知,未知,未知,未知,未知,未知
3,000620,221037610.5300001,225508462.44000003,2014-09-30,三季度报告,109976305.54,2014,9,未知,未知,未知,未知,未知,未知,未知,未知,未知,未知
4,000620,403297444.45,421456860.88,2014-12-31,年度报告,148689266.76000002,2014,12,0.0,True,未知,未知,未知,未知,未知,未知,未知,未知
5,000620,12149806.36,13878041.94,2015-03-31,一季度报告,-5546898.670000001,2015,3,39.6571141912875,False,未知,未知,未知,未知,未知,未知,未知,未知
6,000620,1576704514.91,1219753374.55,2015-06-30,半年度报告,29377152.11000001,2015,6,1.6308933939679102,False,未知,未知,未知,未知,未知,未知,未知,未知
7,000620,1576704514.91,1219753374.55,2015-06-30,半年度报告,29377152.11000001,2015,6,1.6308933939679102,False,未知,未知,未知,未知,未知,未知,未知,未知
8,000620,71404361.11999999,73630207.82,2015-06-30,半年度报告,29377152.11000001,2015,6,1.6308933939679102,False,未知,未知,未知,未知,未知,未知,未知,未知
9,000620,71404361.11999999,73630207.82,2015-06-30,半年度报告,29377152.11000001,2015,6,1.6308933939679102,False,未知,未知,未知,未知,未知,未知,未知,未知
10,000620,107194125.03000002,130613756.40000002,2015-09-30,三季度报告,63978093.79999999,2015,9,1.2700801957045107,False,未知,未知,未知,未知,未知,未知,未知,未知
11,000620,289065387.75,307545570.60999995,2015-12-31,年度报告,157389386.93999997,2015,12,0.2441762502470031,True,未知,未知,未知,未知,未知,未知,未知,未知
12,000620,56851240.16,67875832.99000001,2016-03-31,一季度报告,63210548.35000002,2016,3,40.29885590785663,False,未知,未知,未知,未知,未知,未知,489973333.0,未知
13,000620,82685339.53,106953700.84,2016-06-30,半年度报告,96495080.23,2016,6,-0.6817583146207697,True,未知,未知,未知,未知,未知,未知,568917015.0,未知
14,000620,145240817.95999998,165660237.78999996,2016-09-30,三季度报告,154443411.21,2016,9,3.6809757720357403,False,未知,未知,未知,未知,未知,未知,561430000.0,未知
15,000620,476561685.3,523893734.2899999,2016-12-31,年度报告,490303680.7900001,2016,12,0.7358463636053224,False,0.36123125687932467,True,0.0,True,前期平均,523893734.2899999,549860000.0,523893734.2899999
16,000620,60893049.48,67653082.92,2017-03-31,一季度报告,-27424662.5,2017,3,7.82607135319878,False,3.6425494296807557,False,0.10681573623089505,False,去年同期,494746215.3600001,649215000.0,649215000.0
17,000620,177208783.82,184505034.84000003,2017-06-30,半年度报告,54199500.17,2017,6,5.068465159872096,False,0.9064342756763446,True,0.22180308590391679,False,前期平均,283866905.84000003,789000000.0,789000000.0
18,000620,222964208.19,239494131.15,2017-09-30,三季度报告,108466455.16,2017,9,2.454766430110513,False,0.1150105110208014,True,0.25259532425620207,False,前期平均,305556258.33,,305556258.33
19,000620,853173410.96,847649693.0500001,2017-12-31,年度报告,316655665.88999987,2017,12,0.052902735674457725,True,0.3766241142255238,True,0.0,True,比例外推,847649693.0500001,815890000.0,847649693.0500001
20,000620,40996729.09,39041267.22,2018-03-31,一季度报告,35523705.95,2018,3,7.240236060682176,False,0.7649891574427095,True,0.12656426677529153,False,前期平均,334055976.245,1025800000.0,1025800000.0
21,000620,131637382.22,131185406.15,2018-06-30,半年度报告,129460877.2,2018,6,1.8315362893053686,False,0.7864169371099317,True,0.013711641975463429,True,前期平均,392095823.845,1026250000.0,1026250000.0
22,000620,336848634.66,305833909.79999995,2018-09-30,三季度报告,313112149.90000004,2018,9,1.2504647999037213,False,0.7665082777294626,True,0.05181941488329772,True,前期平均,520469691.15999997,1102000000.0,1102000000.0
23,000620,1249657188.4199998,1186458516.4199998,2018-12-31,年度报告,968624976.64,2018,12,-0.41187442585042655,True,1.228691855321273,True,0.0,True,比例外推,1186458516.4199998,未知,1186458516.4199998
24,000620,-5006396.300000002,7840833.610000001,2019-03-31,一季度报告,-126308969.36,2019,3,11.239344779639833,False,0.3036311278390416,True,0.11293666546086205,False,前期平均,393427564.025,1324050000.0,1324050000.0
25,000620,107022403.96000002,106091991.04,2019-06-30,半年度报告,-35497195.38,2019,6,2.8117827452038497,False,0.01300776272438945,True,0.03355348610045153,True,前期平均,434224374.18,1232600000.0,1232600000.0
26,000620,159134668.57999998,163181321.33,2019-09-30,三季度报告,37593118.24,2019,9,0.4896100222477297,True,0.8296797204651631,True,0.015608473439859216,True,比例外推,240576808.37426278,1117000000.0,1117000000.0
27,000620,883353918.1400002,809930745.4300001,2019-12-31,年度报告,513023755.33,2019,12,-0.5984713993407942,True,0.8795581043694696,True,0.0,True,比例外推,809930745.4300001,,809930745.4300001
28,000620,-347351440.68999994,-330072792.11999995,2020-03-31,一季度报告,-324960862.44999987,2020,3,-101.22640480339119,False,1.0982708250084285,True,0.14749232872789264,False,盈利变化,545061554.6433336,未知,545061554.6433336
