,SECURITYCODE_x,NETPROFIT_x,PARENTNETPROFIT_x,REPORTDATE_x,REPORTTIMETYPE_x,KCFJCXSYJLR,Year,Month,managesituationChangeRate,managesituationGreatChange,historyprofitextroplaterate,ifhistoryprofitextroplate,IfprofitdisStableChangeRage,IfprofitdisStable,predicttype,predict,analyst_prediction,adj_prediction
0,000632,22183489.24,14062555.870000005,2013-12-31,年度报告,-51095065.35,2013,12,未知,未知,未知,未知,未知,未知,未知,未知,未知,未知
1,000632,25941434.55,3770684.7,2014-03-31,一季度报告,1495032.44,2014,3,未知,未知,未知,未知,未知,未知,未知,未知,未知,未知
2,000632,17307408.19,5512154.25,2014-06-30,半年度报告,-73688525.59000002,2014,6,未知,未知,未知,未知,未知,未知,未知,未知,未知,未知
3,000632,11494987.35,5672366.6,2014-09-30,三季度报告,-73851400.60999998,2014,9,未知,未知,未知,未知,未知,未知,未知,未知,未知,未知
4,000632,2997502.72,12081429.449999996,2014-12-31,年度报告,-221000943.09,2014,12,0.0,True,未知,未知,未知,未知,未知,未知,未知,未知
5,000632,7944176.309999999,2958903.5,2015-03-31,一季度报告,2687139.93,2015,3,-0.1448626637342229,True,未知,未知,未知,未知,未知,未知,未知,未知
6,000632,4939693.98,2794931.87,2015-06-30,半年度报告,-54139295.45,2015,6,0.28173375218695856,True,未知,未知,未知,未知,未知,未知,未知,未知
7,000632,14426613.65,1024952.85,2015-09-30,三季度报告,-55980858.56,2015,9,0.9298402481495553,False,未知,未知,未知,未知,未知,未知,未知,未知
8,000632,35865726.260000005,12162099.0,2015-12-31,年度报告,-42783600.36,2015,12,6.400656917502313,False,未知,未知,未知,未知,未知,未知,未知,未知
9,000632,2313471.95,2172936.22,2016-03-31,一季度报告,-1948126.42,2016,3,1.7924215644705401,False,未知,未知,未知,未知,未知,未知,未知,未知
10,000632,20760968.790000007,3482811.2299999995,2016-06-30,半年度报告,-4540201.59,2016,6,3.4908630635454863,False,未知,未知,未知,未知,未知,未知,未知,未知
11,000632,21744171.53,1421392.7699999998,2016-09-30,三季度报告,-5548932.98,2016,9,0.5376781951875448,False,未知,未知,未知,未知,未知,未知,未知,未知
12,000632,39942013.46999999,16574969.27,2016-12-31,年度报告,-24363130.09,2016,12,-0.38148501220396047,True,1.8486349002432239,True,0.0,True,比例外推,16574969.27,未知,16574969.27
13,000632,2352915.96,3011314.81,2017-03-31,一季度报告,-2337957.7299999995,2017,3,8.588830000726828,False,0.8634540212624044,True,0.076498893910447,True,前期平均,-130972043.1,未知,-130972043.1
14,000632,7294426.459999999,5010943.56,2017-06-30,半年度报告,-713658.24,2017,6,0.06851898215295142,True,0.8663975767590952,True,0.6703523701409493,False,平均增速,-29295541.917283732,未知,-29295541.917283732
15,000632,5429858.109999999,2018616.09,2017-09-30,三季度报告,-16763816.949999996,2017,9,0.02020392956309599,True,0.6776873874418483,True,0.6850011483454156,False,平均增速,-3601104.1846596887,未知,-3601104.1846596887
16,000632,5429858.109999999,2018616.09,2017-09-30,三季度报告,-16763816.949999996,2017,9,0.02020392956309599,True,0.6776873874418483,True,0.6850011483454156,False,平均增速,-3601104.1846596887,未知,-3601104.1846596887
17,000632,-1864568.3500000003,-2992327.4700000007,2017-09-30,三季度报告,-16763816.949999996,2017,9,0.02020392956309599,True,0.6776873874418483,True,0.6850011483454156,False,平均增速,-8612047.744659688,未知,-8612047.744659688
18,000632,-1864568.3500000003,-2992327.4700000007,2017-09-30,三季度报告,-16763816.949999996,2017,9,0.02020392956309599,True,0.6776873874418483,True,0.6850011483454156,False,平均增速,-8612047.744659688,未知,-8612047.744659688
19,000632,61386985.04000002,24548727.64,2017-12-31,年度报告,410839.19000000006,2017,12,-0.44460763710217627,True,1.0555169767573949,True,0.0,True,比例外推,24548727.64,未知,24548727.64
20,000632,10689406.590000004,11458714.689999996,2018-03-31,一季度报告,12676815.579999998,2018,3,8.428083967775882,False,0.5412367629770919,True,3.799510254031044,False,前期平均,-22484157.290000007,未知,-22484157.290000007
21,000632,17800950.049999993,13853804.01,2018-06-30,半年度报告,12126144.54,2018,6,2.0411560609523236,False,0.4323549921432632,True,1.6419753043281915,False,前期平均,9620187.305000002,未知,9620187.305000002
22,000632,11484438.88,15298390.09,2018-09-30,三季度报告,14566999.249999998,2018,9,3.0854638906945584,False,0.6997655382387251,True,27.714635540437214,False,前期平均,12489920.635000002,未知,12489920.635000002
23,000632,31377040.76,33124696.12,2018-12-31,年度报告,30053421.190000005,2018,12,-0.6386287871029154,True,0.6195440006162556,True,0.0,True,比例外推,33124696.12,未知,33124696.12
24,000632,27767456.98,12139990.680000005,2019-03-31,一季度报告,11348644.48,2019,3,1.0752778980970534,False,3.5814479191036663,False,3.961049290652217,False,去年同期,29516596.290000014,未知,29516596.290000014
25,000632,35436180.78,18044255.49,2019-06-30,半年度报告,19779810.67,2019,6,0.2461969264387665,True,0.26898586823509385,True,1.3546635200619395,False,平均增速,369555596.799464,未知,369555596.799464
26,000632,49117770.17,20211032.82,2019-09-30,三季度报告,20858773.36,2019,9,0.9316128085832955,False,0.15474892519473968,True,27.44004826657472,False,前期平均,19391262.335,未知,19391262.335
27,000632,81282862.58,41133904.24999999,2019-12-31,年度报告,42987641.77,2019,12,-0.2930025042935248,True,0.380689808023644,True,0.0,True,比例外推,41133904.24999999,未知,41133904.24999999
28,000632,17000035.200000007,15381799.77,2020-03-31,一季度报告,85352.84999999999,2020,3,-0.20109755617959374,True,3.258054019680719,False,4.022394545135478,False,未知,未知,未知,未知
