,SECURITYCODE_x,NETPROFIT_x,PARENTNETPROFIT_x,REPORTDATE_x,REPORTTIMETYPE_x,KCFJCXSYJLR,Year,Month,managesituationChangeRate,managesituationGreatChange,historyprofitextroplaterate,ifhistoryprofitextroplate,IfprofitdisStableChangeRage,IfprofitdisStable,predicttype,predict,analyst_prediction,adj_prediction
0,000665,203506009.08,203506009.08,2013-12-31,年度报告,179661216.58,2013,12,未知,未知,未知,未知,未知,未知,未知,未知,未知,未知
1,000665,61485628.00000001,61485628.00000001,2014-03-31,一季度报告,56701052.29000001,2014,3,未知,未知,未知,未知,未知,未知,未知,未知,未知,未知
2,000665,132949818.92,132949818.92,2014-06-30,半年度报告,132810162.44,2014,6,未知,未知,未知,未知,未知,未知,未知,未知,未知,未知
3,000665,175092340.55999997,175092340.55999997,2014-09-30,三季度报告,174740326.83,2014,9,未知,未知,未知,未知,未知,未知,未知,未知,未知,未知
4,000665,244892801.94,245036907.17000005,2014-12-31,年度报告,222092124.00000003,2014,12,0.0,True,未知,未知,未知,未知,未知,未知,未知,未知
5,000665,97092103.56999998,97442422.31000002,2015-03-31,一季度报告,96255284.48,2015,3,2.3098142720441923,False,未知,未知,未知,未知,未知,未知,未知,未知
6,000665,212010603.56,212709630.0,2015-06-30,半年度报告,209370966.4100001,2015,6,0.5306979034131355,False,未知,未知,未知,未知,未知,未知,未知,未知
7,000665,273604204.04,274715556.25,2015-09-30,三季度报告,270389007.59,2015,9,0.16227819234767357,True,未知,未知,未知,未知,未知,未知,426265690.00000006,未知
8,000665,371597773.25,372163377.0,2015-12-31,年度报告,367610451.06,2015,12,-0.16899962976510827,True,未知,未知,未知,未知,未知,未知,426265690.00000006,未知
9,000665,100983643.20999998,101473253.12000002,2016-03-31,一季度报告,100054938.31,2016,3,1.0960098874907924,False,未知,未知,未知,未知,未知,未知,482802188.0,未知
10,000665,191371604.52,192228768.96,2016-06-30,半年度报告,190845961.07,2016,6,-0.040114005324234404,True,未知,未知,未知,未知,未知,未知,443645000.0,未知
11,000665,236138516.23,237658033.99,2016-09-30,三季度报告,234847561.84,2016,9,-0.25620291620136026,True,未知,未知,未知,未知,未知,未知,454605000.0,未知
12,000665,299223309.05,303268291.09000003,2016-12-31,年度报告,285685041.18,2016,12,-0.4523486852460572,True,0.6574431694174389,True,0.0,True,比例外推,303268291.09000003,,303268291.09000003
13,000665,89517344.99999999,91234776.64999998,2017-03-31,一季度报告,84825725.10000001,2017,3,1.0152373454857457,False,0.2736169474769336,True,0.0611038722727581,True,前期平均,309607895.79499996,409986667.0,409986667.0
14,000665,192882737.32,196016458.49,2017-06-30,半年度报告,186776249.05,2017,6,0.06340754988408874,True,0.10952788812226874,True,0.05617230599598799,True,比例外推,314501518.9549332,,314501518.9549332
15,000665,242239273.8700001,245176271.27,2017-09-30,三季度报告,226187842.83,2017,9,-0.13819222577910908,True,0.05255330834121149,True,0.045926673476805124,True,比例外推,308431800.9426792,未知,308431800.9426792
16,000665,331393546.85,335285516.25000006,2017-12-31,年度报告,327097166.1,2017,12,-0.3198858413600583,True,0.029268828780454517,True,0.0,True,比例外推,335285516.25000006,457700000.0,457700000.0
17,000665,93266315.03,92588940.48999998,2018-03-31,一季度报告,78060611.1,2018,3,1.2733695808337484,False,0.0961301779220282,True,0.05976232959484612,True,前期平均,321081575.21500003,未知,321081575.21500003
18,000665,178921371.01999998,179139382.79999998,2018-06-30,半年度报告,172515522.63000005,2018,6,0.05507632205766345,True,0.04367255939187643,True,0.06516707458344051,True,比例外推,292784665.06878257,348000000.0,348000000.0
19,000665,205327301.09,205997602.34,2018-09-30,三季度报告,193509775.52,2018,9,-0.1598967177006427,True,0.04956259604181869,True,0.072356470120431,True,比例外推,270606125.6102883,,270606125.6102883
20,000665,207935625.27,183360452.18,2018-12-31,年度报告,135232720.28000003,2018,12,-0.38590835272928914,True,0.011976350791561736,True,0.0,True,比例外推,183360452.18,未知,183360452.18
21,000665,65399524.84999998,66172734.96,2019-03-31,一季度报告,45354010.61,2019,3,1.1819883096543522,False,0.0208311683172238,True,0.1816354701437944,False,前期平均,280123506.895,未知,280123506.895
22,000665,134525406.69,131129854.82999998,2019-06-30,半年度报告,102424367.04,2019,6,0.13740470419965617,True,0.06873468149644908,True,0.43744884796035466,False,平均增速,105536961.57110877,未知,105536961.57110877
23,000665,154248286.85,150007269.93999997,2019-09-30,三季度报告,114751146.71,2019,9,-0.008870189206849182,True,0.14156842002602843,True,0.4494423184090177,False,平均增速,110023548.53513455,未知,110023548.53513455
24,000665,121386893.88,102926991.35,2019-12-31,年度报告,22640843.84,2019,12,-0.021302824776890612,True,0.3405326123950821,True,0.0,True,比例外推,102926991.35,未知,102926991.35
25,000665,-57525452.91000001,-59520440.56000001,2020-03-31,一季度报告,-55298154.06,2020,3,2.1117352847250856,False,0.2844051285627384,True,1.0566093994569123,False,盈利变化,-31275894.87666668,未知,-31275894.87666668
