,SECURITYCODE_x,NETPROFIT_x,PARENTNETPROFIT_x,REPORTDATE_x,REPORTTIMETYPE_x,KCFJCXSYJLR,Year,Month,managesituationChangeRate,managesituationGreatChange,historyprofitextroplaterate,ifhistoryprofitextroplate,IfprofitdisStableChangeRage,IfprofitdisStable,predicttype,predict,analyst_prediction,adj_prediction
0,000697,64778281.99,63858621.60999999,2013-12-31,年度报告,63737707.63000001,2013,12,未知,未知,未知,未知,未知,未知,未知,未知,未知,未知
1,000697,3105317.9000000013,3196195.66,2014-03-31,一季度报告,3094845.95,2014,3,未知,未知,未知,未知,未知,未知,未知,未知,未知,未知
2,000697,23655348.75,23559661.51,2014-06-30,半年度报告,21815785.16,2014,6,未知,未知,未知,未知,未知,未知,未知,未知,未知,未知
3,000697,45701913.34,45265596.43,2014-09-30,三季度报告,44755021.72,2014,9,未知,未知,未知,未知,未知,未知,未知,未知,未知,未知
4,000697,83114460.39,82459550.30999999,2014-12-31,年度报告,74682321.44999999,2014,12,0.0,True,未知,未知,未知,未知,未知,未知,未知,未知
5,000697,3913239.1399999987,3906870.5799999987,2015-03-31,一季度报告,3858675.58,2015,3,19.86043493002761,False,未知,未知,未知,未知,未知,未知,65780000.0,未知
6,000697,24229522.04,23959904.3,2015-06-30,半年度报告,1929292.5,2015,6,1.7384200788838509,False,未知,未知,未知,未知,未知,未知,,未知
7,000697,48145281.94000001,47578428.1,2015-09-30,三季度报告,24458072.94,2015,9,0.4174085340384131,True,未知,未知,未知,未知,未知,未知,77000000.0,未知
8,000697,60586242.59,59780813.42,2015-12-31,年度报告,27877799.4,2015,12,-0.2206135769150242,True,未知,未知,未知,未知,未知,未知,,未知
9,000697,-6862486.810000001,-6328124.6499999985,2016-03-31,一季度报告,-7776434.16,2016,3,15.553622120318469,False,未知,未知,未知,未知,未知,未知,67100000.0,未知
10,000697,-11949899.169999998,-10345131.75,2016-06-30,半年度报告,-14102231.1,2016,6,1.6735270255458992,False,未知,未知,未知,未知,未知,未知,,未知
11,000697,-27665241.4,-25215652.59,2016-09-30,三季度报告,-29355645.19,2016,9,0.3454751821939374,True,未知,未知,未知,未知,未知,未知,25000000.0,未知
12,000697,-42447745.72000001,-38038311.23,2016-12-31,年度报告,-48389646.31,2016,12,0.06919127545783654,True,0.18067321472303333,True,0.0,True,比例外推,-38038311.23,138000000.0,138000000.0
13,000697,-19412700.23,-18331159.6,2017-03-31,一季度报告,-19752126.430000003,2017,3,-10.439476356530875,False,2.9555264054675265,False,0.07207938185458403,True,去年同期,-58944371.75000001,82550000.0,82550000.0
14,000697,-147825891.02999997,-145328472.65,2017-06-30,半年度报告,-146018667.94,2017,6,-6.420822474605031,False,1.4991095923556526,True,0.14837817622882798,False,前期平均,-105920951.055,,-105920951.055
15,000697,-195053059.2,-191835938.5,2017-09-30,三季度报告,-195568047.22,2017,9,-3.3415043105316986,False,1.5895805690827247,True,0.18291325395977875,False,前期平均,-175162425.405,未知,-175162425.405
16,000697,53258773.73,57893244.41,2017-12-31,年度报告,-219216347.36,2017,12,-2.526071193916867,False,1.5907799313397626,True,0.0,True,前期平均,57893244.41,,57893244.41
17,000697,-26836348.26,-25523534.49,2018-03-31,一季度报告,-23223273.72,2018,3,-4.336902194054021,False,-12.164510005360102,True,0.03963724525033818,True,前期平均,-33820578.655,73611004.0,73611004.0
18,000697,-132994508.48,-130454689.93,2018-06-30,半年度报告,-126403667.96,2018,6,-1.4382066060190621,False,25.076617432795793,False,0.3238505581550863,False,去年同期,-203652369.35000002,,-203652369.35000002
19,000697,-216047048.59,-213072887.10999995,2018-09-30,三季度报告,-215448257.82,2018,9,-1.332105952378726,False,20.048112606909893,False,0.18538409170891545,False,去年同期,-236721187.24999997,未知,-236721187.24999997
20,000697,21924854.58,24551990.93,2018-12-31,年度报告,-210597367.72,2018,12,0.21629315609854552,True,4.872457250643176,False,0.0,True,比例外推,24551990.93,未知,24551990.93
21,000697,-31471951.43,-30919231.689999994,2019-03-31,一季度报告,-35762692.620000005,2019,3,-3.413826253945029,False,-1.0427141560701902,True,0.04034411022060731,True,前期平均,-150957948.23,182000000.0,182000000.0
22,000697,-47905384.28999999,-46771755.96,2019-06-30,半年度报告,-43685596.71,2019,6,-1.4870748629424912,False,-0.6647642088144095,True,0.2278157424316417,False,前期平均,-100514303.275,,-100514303.275
23,000697,-71304496.53999999,-69626024.62,2019-09-30,三季度报告,-67637835.15000002,2019,9,-1.299834144519752,False,-0.9400924666538157,True,0.23395155995715733,False,前期平均,-90967175.25000001,未知,-90967175.25000001
24,000697,-1560835923.1999993,-1548449345.11,2019-12-31,年度报告,-1570807764.4899998,2019,12,1.9545592539113665,False,3.0560166081745326,False,0.0,True,前期平均盈利变化,9333233829.049997,182000000.0,182000000.0
25,000697,-23925863.35,-23664713.91,2020-03-31,一季度报告,-24260994.23,2020,3,-3.0582861578850626,False,-0.36097725066948716,True,0.05161417884396896,True,前期平均,-217083871.375,未知,-217083871.375
