,SECURITYCODE_x,NETPROFIT_x,PARENTNETPROFIT_x,REPORTDATE_x,REPORTTIMETYPE_x,KCFJCXSYJLR,Year,Month,managesituationChangeRate,managesituationGreatChange,historyprofitextroplaterate,ifhistoryprofitextroplate,IfprofitdisStableChangeRage,IfprofitdisStable,predicttype,predict,analyst_prediction,adj_prediction
0,000692,19891641.12,20844999.09,2013-12-31,年度报告,2276673.6,2013,12,未知,未知,未知,未知,未知,未知,未知,未知,未知,未知
1,000692,120648384.24000004,121375482.06,2014-03-31,一季度报告,118866019.13,2014,3,未知,未知,未知,未知,未知,未知,未知,未知,未知,未知
2,000692,50231565.20000001,51125359.82,2014-06-30,半年度报告,44735704.61000001,2014,6,未知,未知,未知,未知,未知,未知,未知,未知,未知,未知
3,000692,-41750633.63,-39952842.90000001,2014-09-30,三季度报告,-42000669.08000001,2014,9,未知,未知,未知,未知,未知,未知,未知,未知,未知,未知
4,000692,47116119.86,41557944.05,2014-12-31,年度报告,-9048561.010000002,2014,12,0.0,True,未知,未知,未知,未知,未知,未知,未知,未知
5,000692,135894027.72999996,136278638.78,2015-03-31,一季度报告,133554046.93,2015,3,-0.8351271652305718,True,未知,未知,未知,未知,未知,未知,未知,未知
6,000692,52275437.34,52860567.64,2015-06-30,半年度报告,47719248.22,2015,6,-0.6040011685719879,True,未知,未知,未知,未知,未知,未知,未知,未知
7,000692,-37074846.4,-37089709.52,2015-09-30,三季度报告,-45593873.76000001,2015,9,-1.4764392630847838,False,未知,未知,未知,未知,未知,未知,未知,未知
8,000692,79757512.37999998,74565611.88,2015-12-31,年度报告,42055488.3,2015,12,-0.57781665427659,True,未知,未知,未知,未知,未知,未知,未知,未知
9,000692,96186986.74,94561947.59,2016-03-31,一季度报告,91161942.37,2016,3,-0.8536238755133407,True,未知,未知,未知,未知,未知,未知,未知,未知
10,000692,42151695.23,40086009.57000001,2016-06-30,半年度报告,10560128.920000002,2016,6,-0.6194839845982626,True,未知,未知,未知,未知,未知,未知,未知,未知
11,000692,-43686997.42000001,-46074885.97000001,2016-09-30,三季度报告,-79504194.4,2016,9,-1.5365265955626453,False,未知,未知,未知,未知,未知,未知,未知,未知
12,000692,60597020.31999999,52605576.88,2016-12-31,年度报告,-72753948.22,2016,12,-0.7505985263779611,True,1.3805455133415196,True,0.0,True,比例外推,52605576.88,未知,52605576.88
13,000692,51907324.7,51830613.04000001,2017-03-31,一季度报告,42964185.83000001,2017,3,-0.7931982090907113,True,0.25012799247207457,True,9.398518878623708,False,平均增速,-188322286.05554587,未知,-188322286.05554587
14,000692,1763329.25,3771609.01,2017-06-30,半年度报告,-36698996.17999999,2017,6,-0.5280939233532221,True,0.17758408332051911,True,3.625813583798827,False,平均增速,46109316.226378605,未知,46109316.226378605
15,000692,-117888109.57,-115098168.50999998,2017-09-30,三季度报告,-155436783.23,2017,9,-1.455321772946876,False,-0.10844862355099592,True,3.0915820606186806,False,前期平均,-54797433.44499997,未知,-54797433.44499997
16,000692,-56272237.34,-66597107.07999998,2017-12-31,年度报告,-218072246.98,2017,12,-0.6717389565533672,True,0.04476573658154768,True,0.0,True,比例外推,-66597107.07999998,未知,-66597107.07999998
17,000692,-61400494.66,-63001337.98,2018-03-31,一季度报告,-64538677.39,2018,3,-0.6167854684292755,True,0.5526792674658028,True,2.600453570190745,False,平均增速,311040802.3644524,未知,311040802.3644524
18,000692,-197250541.5,-198567750.71,2018-06-30,半年度报告,-196981263.85999995,2018,6,10.280729971444641,False,0.9626520640411733,True,0.7487357641225836,False,盈利变化,-173451952.19999993,未知,-173451952.19999993
19,000692,-300512022.41,-300982520.41,2018-09-30,三季度报告,-305764632.54,2018,9,-1.1687332267228248,False,-1.9194011427660342,True,1.3246102112328089,False,前期平均,-253782716.29000002,未知,-253782716.29000002
20,000692,22964013.49,5978088.96,2018-12-31,年度报告,-208524974.01,2018,12,-1.3534894303173624,False,1.801858497299532,True,0.0,True,前期平均,5978088.96,未知,5978088.96
21,000692,-52597482.75,-54188673.69,2019-03-31,一季度报告,-58522525.03,2019,3,-1.3239654864370112,False,1.8292080102600867,True,0.8728390177386078,False,前期平均,-266664835.39,未知,-266664835.39
22,000692,-183151400.33,-184025964.71,2019-06-30,半年度报告,-185439583.19,2019,6,-1.100844545057941,False,9.983282775571848,False,0.6220475053092499,False,去年同期,-195569674.86000004,未知,-195569674.86000004
23,000692,-299084048.30000013,-299686780.92,2019-09-30,三季度报告,-302244302.34,2019,9,-1.066192496927331,False,-2.719781196599782,True,0.37785005428153307,False,前期平均,-327629389.70500004,未知,-327629389.70500004
24,000692,-102845004.59000002,-115497722.0,2019-12-31,年度报告,-202288835.71,2019,12,-0.13379074051397438,True,9.61972986676897,False,0.0,True,比例外推,-115497722.0,未知,-115497722.0
25,000692,-77501562.56999998,-78183517.97,2020-03-31,一季度报告,-79767515.93999998,2020,3,-1.3781861807825775,False,-10.0811210526352,True,0.33094633616943936,False,前期平均,-280694882.68500006,未知,-280694882.68500006
