,SECURITYCODE_x,NETPROFIT_x,PARENTNETPROFIT_x,REPORTDATE_x,REPORTTIMETYPE_x,KCFJCXSYJLR,Year,Month,managesituationChangeRate,managesituationGreatChange,historyprofitextroplaterate,ifhistoryprofitextroplate,IfprofitdisStableChangeRage,IfprofitdisStable,predicttype,predict,analyst_prediction,adj_prediction
0,000628,18400095.36,13996882.079999998,2013-12-31,年度报告,3303752.39,2013,12,未知,未知,未知,未知,未知,未知,未知,未知,未知,未知
1,000628,-9897974.48,-10203840.249999998,2014-03-31,一季度报告,-10065434.19,2014,3,未知,未知,未知,未知,未知,未知,未知,未知,未知,未知
2,000628,-12340841.319999995,-12851197.400000002,2014-06-30,半年度报告,-13007285.409999995,2014,6,未知,未知,未知,未知,未知,未知,未知,未知,未知,未知
3,000628,-10079345.859999998,-11937917.750000002,2014-09-30,三季度报告,-12363208.38,2014,9,未知,未知,未知,未知,未知,未知,未知,未知,未知,未知
4,000628,-39823278.22,-41806711.65000001,2014-12-31,年度报告,-43235829.75,2014,12,0.0,True,未知,未知,未知,未知,未知,未知,未知,未知
5,000628,-10333962.31,-10557584.5,2015-03-31,一季度报告,-10557068.47,2015,3,-2.8589758336091404,False,未知,未知,未知,未知,未知,未知,未知,未知
6,000628,-12196528.669999998,-14320644.579999998,2015-06-30,半年度报告,-15340180.320000002,2015,6,-2.490991973957251,False,未知,未知,未知,未知,未知,未知,-40492400.0,未知
7,000628,-12892551.329999998,-15228623.57,2015-09-30,三季度报告,-16292895.87,2015,9,-2.8255247528533567,False,未知,未知,未知,未知,未知,未知,,未知
8,000628,49193359.87000002,46668701.81,2015-12-31,年度报告,-66643513.92,2015,12,-1.4620437136880189,False,未知,未知,未知,未知,未知,未知,未知,未知
9,000628,2488799.63,2378892.19,2016-03-31,一季度报告,2183364.71,2016,3,-2.7805460101392607,False,未知,未知,未知,未知,未知,未知,55500000.0,未知
10,000628,6189311.68,5199697.500000001,2016-06-30,半年度报告,3886174.1000000006,2016,6,-2.508633797193378,False,未知,未知,未知,未知,未知,未知,55500000.0,未知
11,000628,32127225.93,30488764.74,2016-09-30,三季度报告,28104490.36,2016,9,-2.427188063016229,False,未知,未知,未知,未知,未知,未知,,未知
12,000628,33698433.169999994,29366714.309999995,2016-12-31,年度报告,23501212.99,2016,12,-0.6259638412862083,True,-5.592535123420033,True,0.0,True,比例外推,29366714.309999995,未知,29366714.309999995
13,000628,3478874.89,2350544.01,2017-03-31,一季度报告,2307307.81,2017,3,6.393160597665309,False,-1.2460268293473646,True,0.07143025680781614,True,前期平均,-42277876.495000005,未知,-42277876.495000005
14,000628,19086815.21,17192948.7,2017-06-30,半年度报告,1727081.2100000004,2017,6,1.9728823351161402,False,-1.5044804461539605,True,0.06871562722731508,True,前期平均,-23572990.27,未知,-23572990.27
15,000628,27560118.299999993,24005679.33,2017-09-30,三季度报告,8535280.15,2017,9,-0.42727406966008163,True,-3.7970894753947837,True,0.6204405023263433,False,平均增速,20071440.751075774,未知,20071440.751075774
16,000628,29117917.68,24397228.160000004,2017-12-31,年度报告,6763409.54,2017,12,-0.4539777185729611,True,6.192772577387289,False,0.0,True,比例外推,24397228.160000004,未知,24397228.160000004
17,000628,-1674411.2399999998,-2455411.56,2018-03-31,一季度报告,-2483288.9399999995,2018,3,4.289093727656299,False,-1.8868840665009639,True,0.1436586455310297,False,盈利变化,18009765.82666667,未知,18009765.82666667
18,000628,13533923.699999996,13657860.32,2018-06-30,半年度报告,8937082.680000003,2018,6,-0.03597875509583254,True,-7.354628188651465,True,0.051606028855380126,True,比例外推,45911829.669741794,47750000.0,45911829.669741794
19,000628,14256895.070000002,13674518.32,2018-09-30,三季度报告,7314059.3500000015,2018,9,-0.33236515316409204,True,1.8656703451588406,True,0.6562987497762238,False,平均增速,11745716.616096044,47750000.0,47750000.0
20,000628,80414540.23,54744674.11000001,2018-12-31,年度报告,20591160.75,2018,12,-0.3680834061620302,True,0.29744751290519333,True,0.0,True,比例外推,54744674.11000001,未知,54744674.11000001
21,000628,16440415.169999998,17017837.44,2019-03-31,一季度报告,12947344.680000005,2019,3,-11.988994173259373,False,1.5611603764207973,True,0.2366622444418104,False,前期平均,29904812.445,96220000.0,96220000.0
22,000628,32756465.8,31821399.379999995,2019-06-30,半年度报告,31861769.28,2019,6,0.3595536496189945,True,0.07088588049100392,True,0.14911107815044283,False,平均增速,62304165.210848816,105440000.0,105440000.0
23,000628,46661411.17999999,44333435.79,2019-09-30,三季度报告,44098282.57999999,2019,9,0.2906102815274488,True,0.5222808032784204,True,0.5824817525252656,False,平均增速,95419676.72516364,125610000.0,125610000.0
24,000628,106471997.13999996,104561244.93,2019-12-31,年度报告,102826253.38,2019,12,-0.7711844735122227,True,1.5603060076515098,True,0.0,True,比例外推,104561244.93,105670000.0,104561244.93
25,000628,618633.48,5766512.01,2020-03-31,一季度报告,5204144.47,2020,3,0.11919894782073205,True,17.221941095904032,False,0.23608664860740491,False,未知,未知,,未知
