,SECURITYCODE_x,NETPROFIT_x,PARENTNETPROFIT_x,REPORTDATE_x,REPORTTIMETYPE_x,KCFJCXSYJLR,Year,Month,managesituationChangeRate,managesituationGreatChange,historyprofitextroplaterate,ifhistoryprofitextroplate,IfprofitdisStableChangeRage,IfprofitdisStable,predicttype,predict,analyst_prediction,adj_prediction
0,000676,14495634.96,21043027.870000005,2013-12-31,年度报告,-13637077.61,2013,12,未知,未知,未知,未知,未知,未知,未知,未知,未知,未知
1,000676,-13038660.63,-11618265.769999998,2014-03-31,一季度报告,-11631832.419999998,2014,3,未知,未知,未知,未知,未知,未知,未知,未知,未知,未知
2,000676,-20790630.94,-16763612.54,2014-06-30,半年度报告,-19569737.68,2014,6,未知,未知,未知,未知,未知,未知,未知,未知,未知,未知
3,000676,-26838680.24,-22361408.74,2014-09-30,三季度报告,-31611629.76999999,2014,9,未知,未知,未知,未知,未知,未知,未知,未知,未知,未知
4,000676,-82159306.67999999,-68589798.28999999,2014-12-31,年度报告,-73533114.23,2014,12,0.0,True,未知,未知,未知,未知,未知,未知,未知,未知
5,000676,-7436678.5299999975,-5105342.72,2015-03-31,一季度报告,-3764389.44,2015,3,-2.1117426376331725,False,未知,未知,未知,未知,未知,未知,未知,未知
6,000676,-25498913.41,-20998750.39,2015-06-30,半年度报告,-20905455.63,2015,6,-1.697219579426578,False,未知,未知,未知,未知,未知,未知,未知,未知
7,000676,-22943889.039999995,-17111116.48,2015-09-30,三季度报告,-16859732.380000006,2015,9,-1.5401023757642118,False,未知,未知,未知,未知,未知,未知,未知,未知
8,000676,-4220479.44,3503549.39,2015-12-31,年度报告,-39751864.1,2015,12,-1.176433267827571,False,未知,未知,未知,未知,未知,未知,未知,未知
9,000676,-6837357.38,-6729226.8199999975,2016-03-31,一季度报告,-7924332.300000003,2016,3,-2.9492082253554135,False,未知,未知,未知,未知,未知,未知,未知,未知
10,000676,86353061.48,86647594.52000001,2016-06-30,半年度报告,37073641.72000001,2016,6,-1.5684804966754073,False,未知,未知,未知,未知,未知,未知,未知,未知
11,000676,150079430.60999998,150180541.08,2016-09-30,三季度报告,99008484.23000002,2016,9,-1.631786308534205,False,未知,未知,未知,未知,未知,未知,未知,未知
12,000676,316259654.8099999,316113821.03000003,2016-12-31,年度报告,242070025.45,2016,12,-4.434594378689829,False,-0.8752512439033806,True,0.0,True,前期平均,316113821.03000003,未知,316113821.03000003
13,000676,122802929.31,122724389.66000004,2017-03-31,一季度报告,108371726.81,2017,3,-3.120063959564448,False,-0.3321373261198765,True,0.10611784689482182,False,盈利变化,471175233.17666674,492995000.0,471175233.17666674
14,000676,218941937.04,218132159.43,2017-06-30,半年度报告,181129605.6,2017,6,-0.8321352513557694,True,-4.7309963920610505,True,0.2108366392292444,False,平均增速,1208278513.9892964,497000000.0,497000000.0
15,000676,330606827.97,330088861.20000005,2017-09-30,三季度报告,287167640.12,2017,9,-0.9034135797218693,True,-7.029396745912588,True,0.012001868512731939,True,比例外推,725014261.9167238,514000000.0,514000000.0
16,000676,528475522.72,527325402.7000001,2017-12-31,年度报告,472170469.2600001,2017,12,-0.9541653994129964,True,-8.322538501557474,True,0.0,True,比例外推,527325402.7000001,未知,527325402.7000001
17,000676,201154124.23,201005883.68,2018-03-31,一季度报告,191091053.0,2018,3,-0.8819601857915973,True,-18.20647616193366,True,0.13235832234859465,False,平均增速,1434889765.141045,711000000.0,711000000.0
18,000676,437328813.47,437182230.2799999,2018-06-30,半年度报告,418150098.45000017,2018,6,-0.9337923325427065,True,6.195629023946008,False,0.20106808918651145,False,未知,未知,848566667.0,未知
19,000676,580744401.45,580506226.75,2018-09-30,三季度报告,553614308.92,2018,9,-0.9561544598186117,True,4.200856092440053,False,0.1277469288681548,False,未知,未知,829226667.0,未知
20,000676,713913767.65,713430009.1500001,2018-12-31,年度报告,678814433.8599999,2018,12,-0.9725708489101015,True,2.387238298481985,False,0.0,True,比例外推,713430009.1500001,,713430009.1500001
21,000676,171340528.88999996,171375463.35999998,2019-03-31,一季度报告,151365800.97,2019,3,-0.927937669607879,True,2.469204193662273,False,0.1921655611313008,False,未知,未知,未知,未知
22,000676,326056276.23000014,326504348.59000003,2019-06-30,半年度报告,297919188.65,2019,6,-0.9668541506675861,True,1.8649589124621737,True,0.2317460104511171,False,平均增速,640157778.7126327,未知,640157778.7126327
23,000676,426783061.78000015,426881963.07999986,2019-09-30,三季度报告,375069597.9,2019,9,-0.975039561425289,True,1.4163137226580296,True,0.20464240882903328,False,平均增速,575343813.4916553,未知,575343813.4916553
24,000676,607107578.8099997,619697152.8800001,2019-12-31,年度报告,391524986.91,2019,12,-0.9796955380091414,True,0.6902664566130159,True,0.0,True,比例外推,619697152.8800001,,619697152.8800001
25,000676,-135700368.22000003,-119933327.61999996,2020-03-31,一季度报告,9561392.230000002,2020,3,-0.9153986797291482,True,0.05779779768767418,True,0.08739538966648475,True,比例外推,-97539298.73773517,未知,-97539298.73773517
