,SECURITYCODE_x,NETPROFIT_x,PARENTNETPROFIT_x,REPORTDATE_x,REPORTTIMETYPE_x,KCFJCXSYJLR,Year,Month,managesituationChangeRate,managesituationGreatChange,historyprofitextroplaterate,ifhistoryprofitextroplate,IfprofitdisStableChangeRage,IfprofitdisStable,predicttype,predict,analyst_prediction,adj_prediction
0,000677,-301538154.95000005,-261001041.84,2013-12-31,年度报告,-344065640.34000003,2013,12,未知,未知,未知,未知,未知,未知,未知,未知,未知,未知
1,000677,-101835804.45,-101835804.45,2014-03-31,一季度报告,-102581064.23,2014,3,未知,未知,未知,未知,未知,未知,未知,未知,未知,未知
2,000677,-192178528.04,-192178528.04,2014-06-30,半年度报告,-193230534.38,2014,6,未知,未知,未知,未知,未知,未知,未知,未知,未知,未知
3,000677,-258830699.27000004,-258830334.67000005,2014-09-30,三季度报告,-258841144.35,2014,9,未知,未知,未知,未知,未知,未知,未知,未知,未知,未知
4,000677,-429613649.75999993,-429613164.5199999,2014-12-31,年度报告,-432635366.7699999,2014,12,-0.0,False,未知,未知,未知,未知,未知,未知,未知,未知
5,000677,-87591118.08,-89642645.74000001,2015-03-31,一季度报告,-94799642.81,2015,3,1.9610229582666203,False,未知,未知,未知,未知,未知,未知,未知,未知
6,000677,-174843768.59,-178922656.09,2015-06-30,半年度报告,-193683140.38,2015,6,0.569052266272109,False,未知,未知,未知,未知,未知,未知,未知,未知
7,000677,-240578576.23999995,-246386552.91000003,2015-09-30,三季度报告,-259682265.5900001,2015,9,0.1650015079372389,False,未知,未知,未知,未知,未知,未知,未知,未知
8,000677,58802482.12000001,54765164.61,2015-12-31,年度报告,-326725758.22,2015,12,-0.2981178435125331,False,未知,未知,未知,未知,未知,未知,未知,未知
9,000677,4721564.84,2073090.14,2016-03-31,一季度报告,2125314.12,2016,3,2.4425654285471596,False,未知,未知,未知,未知,未知,未知,未知,未知
10,000677,4524791.07,865558.4600000002,2016-06-30,半年度报告,1116015.0499999998,2016,6,0.7246148226025265,False,未知,未知,未知,未知,未知,未知,未知,未知
11,000677,8126559.43,1213098.5499999998,2016-09-30,三季度报告,1495511.71,2016,9,0.25338739493240303,False,未知,未知,未知,未知,未知,未知,未知,未知
12,000677,16265932.990000002,4521376.11,2016-12-31,年度报告,-44431.71,2016,12,-6.127983446934127,False,-1.160848900983902,True,0.0,True,前期平均,4521376.11,未知,4521376.11
13,000677,4606016.84,1802573.37,2017-03-31,一季度报告,1714031.97,2017,3,-64.86402922934339,False,-1.0498510431034662,True,32.06460139973968,False,前期平均,-279187635.60499996,未知,-279187635.60499996
14,000677,7458776.380000003,2897676.9800000004,2017-06-30,半年度报告,2816049.14,2017,6,-67.64134327643112,False,-1.0246567639707267,True,17.09150240133576,False,前期平均,-183326048.13499996,未知,-183326048.13499996
15,000677,8664274.53,3419617.7999999993,2017-09-30,三季度报告,3070718.6300000013,2017,9,-38.105266693410506,False,-1.032544687607979,True,22.903468786217218,False,前期平均,-116999239.72499993,未知,-116999239.72499993
16,000677,7732854.739999997,1931663.38,2017-12-31,年度报告,-576889.33,2017,12,-19.53801777834571,False,-1.0877316241229913,True,0.0,True,前期平均,1931663.38,未知,1931663.38
17,000677,-532932.0499999999,-483736.99,2018-03-31,一季度报告,-683758.0599999999,2018,3,-66.46614253151537,False,-1.1111630667697805,True,30.99517807138162,False,盈利变化,-1265389.9933333332,未知,-1265389.9933333332
18,000677,4944992.8,2031320.15,2018-06-30,半年度报告,1811918.73,2018,6,-41.42729525429209,False,-1.0875859694393029,True,15.315477937469206,False,前期平均,-65070212.15000001,未知,-65070212.15000001
19,000677,9290556.16,3385713.7499999995,2018-09-30,三季度报告,3538169.79,2018,9,-35.80247006323795,False,-1.0745467787193428,True,20.929742220534514,False,前期平均,-30906004.274999976,未知,-30906004.274999976
20,000677,6403689.880000001,1330813.88,2018-12-31,年度报告,1855320.6700000004,2018,12,-39.99441604537371,False,0.7939784734053913,True,0.0,True,前期平均,1330813.88,未知,1330813.88
21,000677,3499359.58,906125.75,2019-03-31,一季度报告,686998.27,2019,3,564.8097593304814,False,1.1142701438128817,True,30.7756148976054,False,前期平均,-1324207.815,未知,-1324207.815
22,000677,7702781.14,2675155.85,2019-06-30,半年度报告,2484874.36,2019,6,-61.978482102137754,False,0.17470439071964358,True,15.443413414886287,False,前期平均,398463.23499999987,未知,398463.23499999987
23,000677,12303771.48,4701792.2700000005,2019-09-30,三季度报告,4447064.83,2019,9,-33.45641593000177,False,0.10662236100153773,True,21.30048807246726,False,前期平均,2108016.58,未知,2108016.58
24,000677,17980386.439999998,7125933.020000001,2019-12-31,年度报告,6438273.0,2019,12,-48.08818831026839,False,0.4663322204400363,True,0.0,True,前期平均,7125933.020000001,未知,7125933.020000001
25,000677,1594148.08,466552.56,2020-03-31,一季度报告,278779.79000000004,2020,3,-87.16952561074048,False,0.7182846714074912,True,1.8934971453568086,False,前期平均,590631.2750000001,未知,590631.2750000001
