,SECURITYCODE_x,NETPROFIT_x,PARENTNETPROFIT_x,REPORTDATE_x,REPORTTIMETYPE_x,KCFJCXSYJLR,Year,Month,managesituationChangeRate,managesituationGreatChange,historyprofitextroplaterate,ifhistoryprofitextroplate,IfprofitdisStableChangeRage,IfprofitdisStable,predicttype,predict,analyst_prediction,adj_prediction
0,000617,9844601.9,9844601.9,2013-12-31,年度报告,-28959863.849999994,2013,12,未知,未知,未知,未知,未知,未知,未知,未知,未知,未知
1,000617,2477059.39,2477059.39,2014-03-31,一季度报告,-2794741.29,2014,3,未知,未知,未知,未知,未知,未知,未知,未知,未知,未知
2,000617,-28213733.26,-28213733.26,2014-06-30,半年度报告,-39418935.06,2014,6,未知,未知,未知,未知,未知,未知,未知,未知,未知,未知
3,000617,-50474501.52,-50474501.52,2014-09-30,三季度报告,-67758028.82000001,2014,9,未知,未知,未知,未知,未知,未知,未知,未知,未知,未知
4,000617,-115180623.91000004,-115180623.91000004,2014-12-31,年度报告,-140154747.94,2014,12,0.0,True,未知,未知,未知,未知,未知,未知,未知,未知
5,000617,2279652.74,2279652.74,2015-03-31,一季度报告,-1863372.63,2015,3,2.9743099982758183,False,未知,未知,未知,未知,未知,未知,未知,未知
6,000617,6033834.460000001,6033834.460000001,2015-06-30,半年度报告,-2364493.33,2015,6,-1.3489294312552809,False,未知,未知,未知,未知,未知,未知,12750784.000000002,未知
7,000617,-25358003.9,-25358003.9,2015-09-30,三季度报告,-40350526.48,2015,9,-1.1950410921066585,False,未知,未知,未知,未知,未知,未知,,未知
8,000617,11534323862.95,6017211930.590002,2015-12-31,年度报告,-77313572.96000001,2015,12,-1.0854709895276518,False,未知,未知,未知,未知,未知,未知,未知,未知
9,000617,2761881709.83,1404311008.7900002,2016-03-31,一季度报告,-62840492.77,2016,3,3.31846558349058,False,未知,未知,未知,未知,未知,未知,未知,未知
10,000617,6894518119.6,3010410459.49,2016-06-30,半年度报告,-165939232.84000003,2016,6,0.6315664550067883,False,未知,未知,未知,未知,未知,未知,未知,未知
11,000617,9166993788.47,3935231660.9699993,2016-09-30,三季度报告,3921615782.6,2016,9,-1.388224638612032,False,未知,未知,未知,未知,未知,未知,7004000000.0,未知
12,000617,12200878166.77,5535421902.28,2016-12-31,年度报告,-364702269.07000005,2016,12,-0.9991464951030531,True,-220.0005592171497,True,0.0,True,比例外推,5535421902.28,未知,5535421902.28
13,000617,2838133053.900001,1442752467.52,2017-03-31,一季度报告,1442833789.71,2017,3,-0.9964355454236286,True,1160.2566135382253,False,0.10019022569839267,False,未知,未知,6307666666.999999,未知
14,000617,7003000530.599999,3588896669.850001,2017-06-30,半年度报告,3589271768.37,2017,6,-0.9985721116792756,True,-622.6906742243567,True,0.2250286002263212,False,平均增速,1303555988.80927,6762700000.0,6762700000.0
15,000617,9913070297.999998,4996269401.28,2017-09-30,三季度报告,4984574449.920001,2017,9,-0.9989260817529535,True,-242.76950867437128,True,7.5037356508161075,False,平均增速,3631838594.713258,6762700000.0,6762700000.0
16,000617,13511996288.009995,6842540372.670001,2017-12-31,年度报告,6813650079.370001,2017,12,-0.9991931234977157,True,1.1369165639427987,True,0.0,True,比例外推,6842540372.670001,6637300000.0,6842540372.670001
17,000617,3792751772.92,1935462486.2700005,2018-03-31,一季度报告,1934332712.16,2018,3,-0.9965313106492762,True,1.0535219776469384,True,0.11195322102904376,False,平均增速,29658122717.69679,未知,29658122717.69679
18,000617,7623259121.6900015,4070515755.34,2018-06-30,半年度报告,4042893997.08,2018,6,-0.9985942308790378,True,1.029692864345358,True,0.306869836802233,False,平均增速,20368423438.228333,未知,20368423438.228333
19,000617,11232489299.26,5762275963.71,2018-09-30,三季度报告,5731695182.309998,2018,9,-0.9990069068811117,True,1.1687738456463315,True,7.586437521421697,False,平均增速,15028996903.810627,未知,15028996903.810627
20,000617,14334548576.719997,7322134372.199997,2018-12-31,年度报告,7205472854.860002,2018,12,-0.9992714176580454,True,0.1385617254145102,True,0.0,True,比例外推,7322134372.199997,,7322134372.199997
21,000617,3954293336.22,2104631238.09,2019-03-31,一季度报告,2087176923.25,2019,3,-0.9974043643007987,True,0.35455063350360244,True,0.05094795935900656,True,比例外推,9613435981.69904,,9613435981.69904
22,000617,7651359743.320002,4081647089.69,2019-06-30,半年度报告,4042533658.390001,2019,6,-0.9987086098290967,True,0.09706765841689219,True,0.059288285477359426,True,比例外推,7899568801.492993,8082000000.0,7899568801.492993
23,000617,11488475365.19,6028386871.119998,2019-09-30,三季度报告,5885305020.46,2019,9,-0.9991235600909365,True,0.17740582509103334,True,7.677623094743851,False,平均增速,14795109042.988873,,14795109042.988873
24,000617,15222213768.700003,7792586363.509998,2019-12-31,年度报告,7566609654.150002,2019,12,-0.9993132255370785,True,0.1149705259075164,True,0.0,True,比例外推,7792586363.509998,8492000000.0,7792586363.509998
25,000617,3676913363.19,1903436747.3,2020-03-31,一季度报告,1903011813.77,2020,3,-0.9975104017170838,True,0.192689494538054,True,0.04026032273444893,True,比例外推,7551558997.582265,未知,7551558997.582265
