,SECURITYCODE_x,NETPROFIT_x,PARENTNETPROFIT_x,REPORTDATE_x,REPORTTIMETYPE_x,KCFJCXSYJLR,Year,Month,managesituationChangeRate,managesituationGreatChange,historyprofitextroplaterate,ifhistoryprofitextroplate,IfprofitdisStableChangeRage,IfprofitdisStable,predicttype,predict,analyst_prediction,adj_prediction
0,000662,-62246144.45,-62577725.07000002,2013-12-31,年度报告,-60922459.23,2013,12,未知,未知,未知,未知,未知,未知,未知,未知,未知,未知
1,000662,-9706834.169999998,-9619950.96,2014-03-31,一季度报告,-9078778.58,2014,3,未知,未知,未知,未知,未知,未知,未知,未知,未知,未知
2,000662,-35588271.61,-32835547.17,2014-06-30,半年度报告,-33520693.61,2014,6,未知,未知,未知,未知,未知,未知,未知,未知,未知,未知
3,000662,-39842676.56,-36371879.42,2014-09-30,三季度报告,-36407395.88999999,2014,9,未知,未知,未知,未知,未知,未知,未知,未知,未知,未知
4,000662,6245406.69,9618786.93,2014-12-31,年度报告,-53270367.95000001,2014,12,-0.0,False,未知,未知,未知,未知,未知,未知,未知,未知
5,000662,-382489.8499999999,-314252.15,2015-03-31,一季度报告,-314252.15,2015,3,5.41261026611316,False,未知,未知,未知,未知,未知,未知,未知,未知
6,000662,-94594.61,-156215.81,2015-06-30,半年度报告,-4591032.3900000015,2015,6,0.7490634311251398,False,未知,未知,未知,未知,未知,未知,未知,未知
7,000662,-603322.8400000001,-346842.68000000005,2015-09-30,三季度报告,-4310018.270000001,2015,9,0.5622982646826475,False,未知,未知,未知,未知,未知,未知,未知,未知
8,000662,-2927612.57,-2539004.6300000004,2015-12-31,年度报告,-6285267.089999999,2015,12,-10.96670794068016,False,未知,未知,未知,未知,未知,未知,335000000.0,未知
9,000662,-641588.63,-628846.72,2016-03-31,一季度报告,-643940.6499999999,2016,3,161.73933661246178,False,未知,未知,未知,未知,未知,未知,443250000.0,未知
10,000662,43117065.08000001,43523830.97999999,2016-06-30,半年度报告,36360572.45,2016,6,657.0305627350227,False,未知,未知,未知,未知,未知,未知,461800000.0,未知
11,000662,136320965.25,136727731.14999998,2016-09-30,三季度报告,121997004.12999998,2016,9,102.17219956400125,False,未知,未知,未知,未知,未知,未知,486452000.0,未知
12,000662,328068502.86,331055855.54,2016-12-31,年度报告,326869648.81,2016,12,20.26174244770373,False,-0.8954437856677265,True,0.0,True,盈利变化,108512634.00333333,476764000.0,476764000.0
13,000662,81320980.36999999,85280215.98,2017-03-31,一季度报告,85171171.85,2017,3,96.01877735894416,False,-0.872818311964571,True,0.09760947260468772,True,盈利变化,445476005.54,768545000.0,768545000.0
14,000662,172241811.41,176136013.88,2017-06-30,半年度报告,123678952.26,2017,6,-2.443654486559037,False,-3.4166817101611193,True,0.3790739603835038,False,前期平均,165414059.35999998,,165414059.35999998
15,000662,204724542.39,208618744.86,2017-09-30,三季度报告,153341815.98,2017,9,-1.4566146104955047,False,-7.740887468341305,True,0.20757415191006218,False,前期平均,199199634.42000002,未知,199199634.42000002
16,000662,574216801.6499999,574174514.36,2017-12-31,年度报告,527930964.75000006,2017,12,-1.1897352044080955,False,196.76302627240773,False,0.0,True,去年同期,574174514.36,727725000.0,727725000.0
17,000662,87718941.96999998,87718941.96999998,2018-03-31,一季度报告,89067566.45,2018,3,-1.765437703367422,False,-159.81786788450037,True,0.0915440226627755,True,前期平均,248490229.22999996,未知,248490229.22999996
18,000662,125031291.89,125031291.89,2018-06-30,半年度报告,126410820.72,2018,6,-1.361388120227271,False,7.007062798967152,False,0.371792381056473,False,去年同期,529283304.38000005,未知,529283304.38000005
19,000662,135615111.24,135615111.24,2018-09-30,三季度报告,137238672.73,2018,9,-1.3040482773746842,False,2.016918637173665,False,0.23592687895165526,False,去年同期,510204260.0100001,未知,510204260.0100001
20,000662,150867498.01,150867498.01,2018-12-31,年度报告,206000166.79,2018,12,-1.1084018166503262,False,2.5321106560164965,False,0.0,True,去年同期,150867498.01,未知,150867498.01
21,000662,58720313.19000001,58720313.19000001,2019-03-31,一季度报告,58825625.88,2019,3,-1.7096089288364682,False,1.1745067749812956,True,0.2351242820671088,False,前期平均,443857004.37,未知,443857004.37
22,000662,65071334.38,65071334.38,2019-06-30,半年度报告,65238785.82,2019,6,-1.4978445276304344,False,0.16114361226067886,True,0.2939262344610121,False,前期平均,412451878.805,未知,412451878.805
23,000662,70160066.54,70160066.54,2019-09-30,三季度报告,70224845.95000002,2019,9,-1.458991213301017,False,0.20470958741874243,True,0.2229089447158259,False,前期平均,359890963.2650001,未知,359890963.2650001
24,000662,-5073268464.789999,-5073268464.789999,2019-12-31,年度报告,-4500483169.320001,2019,12,-1.4125881669083828,False,0.6655880412638862,True,0.0,True,盈利变化,-1417960280.6933336,未知,-1417960280.6933336
25,000662,-76278382.49,-76278382.49,2020-03-31,一季度报告,-58542081.19000001,2020,3,-2.0600444900317805,False,0.305249169815727,True,0.23882459376656326,False,盈利变化,-5229758740.883332,未知,-5229758740.883332
