,SECURITYCODE_x,NETPROFIT_x,PARENTNETPROFIT_x,REPORTDATE_x,REPORTTIMETYPE_x,KCFJCXSYJLR,Year,Month,managesituationChangeRate,managesituationGreatChange,historyprofitextroplaterate,ifhistoryprofitextroplate,IfprofitdisStableChangeRage,IfprofitdisStable,predicttype,predict,analyst_prediction,adj_prediction
0,000608,355267000.00000006,280076000.0,2013-12-31,年度报告,255037000.0,2013,12,未知,未知,未知,未知,未知,未知,未知,未知,未知,未知
1,000608,26554000.0,22090000.0,2014-03-31,一季度报告,-33998000.0,2014,3,未知,未知,未知,未知,未知,未知,未知,未知,未知,未知
2,000608,37121999.99999999,21236000.0,2014-06-30,半年度报告,-22349000.0,2014,6,未知,未知,未知,未知,未知,未知,未知,未知,未知,未知
3,000608,74957000.0,17883000.0,2014-09-30,三季度报告,-27980000.000000004,2014,9,未知,未知,未知,未知,未知,未知,未知,未知,未知,未知
4,000608,-522055000.00000006,-585172000.0,2014-12-31,年度报告,-619960999.9999999,2014,12,0.0,True,未知,未知,未知,未知,未知,未知,未知,未知
5,000608,-50829000.00000001,-52204000.0,2015-03-31,一季度报告,-51853999.99999999,2015,3,12.379038939519472,False,未知,未知,未知,未知,未知,未知,52000000.0,未知
6,000608,2396000.0,-16633999.999999998,2015-06-30,半年度报告,-15043000.000000002,2015,6,8.570254835407578,False,未知,未知,未知,未知,未知,未知,50000000.0,未知
7,000608,38069999.99999999,18093000.0,2015-09-30,三季度报告,19511000.0,2015,9,3.7396107101404814,False,未知,未知,未知,未知,未知,未知,,未知
8,000608,68331000.00000001,20180000.0,2015-12-31,年度报告,-124566000.00000004,2015,12,-1.6805164206836445,False,未知,未知,未知,未知,未知,未知,未知,未知
9,000608,-26696000.0,-42890000.0,2016-03-31,一季度报告,-43239000.00000001,2016,3,-7.989454838773141,False,未知,未知,未知,未知,未知,未知,70100000.0,未知
10,000608,-113011000.0,-135730000.0,2016-06-30,半年度报告,-136223000.00000003,2016,6,147.27504173622708,False,未知,未知,未知,未知,未知,未知,22983332.999999996,未知
11,000608,-309233000.0,-335755000.0,2016-09-30,三季度报告,-204063000.0,2016,9,8.331941161019179,False,未知,未知,未知,未知,未知,未知,,未知
12,000608,-438891000.0,-468238000.00000006,2016-12-31,年度报告,-304424000.0,2016,12,4.199206802183489,False,-1.8193754946399021,True,0.0,True,盈利变化,-39772666.66666665,未知,-39772666.66666665
13,000608,-16188000.000000002,-33668000.0,2017-03-31,一季度报告,-33655000.0,2017,3,-14.307873838777347,False,-1.199464469618949,True,0.21189341523388175,False,前期平均,-363005500.0,未知,-363005500.0
14,000608,-54460000.00000001,-78842000.0,2017-06-30,半年度报告,-72200000.0,2017,6,-4.143649733211812,False,6.719469608785871,False,0.24604779590540818,False,去年同期,-247042999.99999997,269800000.0,269800000.0
15,000608,331542000.0,303167000.0,2017-09-30,三季度报告,309776999.99999994,2017,9,-2.1488650952518005,False,6.471843010961982,False,0.4840499458527724,False,前期平均,-64862000.0,331060000.0,331060000.0
16,000608,190188000.0,152365000.0,2017-12-31,年度报告,124506000.0,2017,12,-1.809465220293877,False,-0.9346166391903445,True,0.0,True,盈利变化,-325261333.3333334,未知,-325261333.3333334
17,000608,-25537000.0,-29190000.0,2018-03-31,一季度报告,-29528000.0,2018,3,-22.94631826043983,False,-0.5823798774588842,True,0.3663097606220066,False,前期平均,-196138500.00000003,未知,-196138500.00000003
18,000608,69476000.0,58782000.00000001,2018-06-30,半年度报告,-57815000.0,2018,6,-7.5234484024972454,False,-0.015323419066130137,True,0.5760082047403933,False,盈利变化,161955000.0,未知,161955000.0
19,000608,10719000.0,-5903000.000000001,2018-09-30,三季度报告,-121016000.0,2018,9,0.07155956108125082,True,-3.4453336185246513,True,1.487468140545993,False,平均增速,-60734008.53342181,未知,-60734008.53342181
20,000608,84732000.00000001,11464000.0,2018-12-31,年度报告,-112158000.0,2018,12,0.8679780007150822,False,-2.0264896373056995,True,0.0,True,前期平均,11464000.0,,11464000.0
21,000608,-16274729.999999998,-24957647.320000004,2019-03-31,一季度报告,-26584034.35,2019,3,-14.911853389199987,False,-0.19098031900009327,True,0.31530780778909506,False,前期平均,-76469647.32000001,未知,-76469647.32000001
22,000608,-8724000.0,-25791000.000000004,2019-06-30,半年度报告,-36911000.00000001,2019,6,4.1135212159594685,False,-1.8297078300123604,True,0.7075798296032327,False,盈利变化,25399999.999999993,未知,25399999.999999993
23,000608,-19888000.0,-44316999.99999999,2019-09-30,三季度报告,-63671000.00000001,2019,9,32.143670118481204,False,0.03904253888565153,True,1.075598241811681,False,前期平均,-187132999.99999997,未知,-187132999.99999997
24,000608,-65451000.00000002,-81760999.99999999,2019-12-31,年度报告,-96689000.0,2019,12,3.192831515838172,False,-1.6813910568026924,True,0.0,True,盈利变化,16620333.333333332,未知,16620333.333333332
25,000608,-12185152.609999998,-19177373.26,2020-03-31,一季度报告,-19665491.42,2020,3,-22.82936368222392,False,-0.2199050928699821,True,0.3596105677418298,False,前期平均,18588126.74,未知,18588126.74
