,SECURITYCODE_x,NETPROFIT_x,PARENTNETPROFIT_x,REPORTDATE_x,REPORTTIMETYPE_x,KCFJCXSYJLR,Year,Month,managesituationChangeRate,managesituationGreatChange,historyprofitextroplaterate,ifhistoryprofitextroplate,IfprofitdisStableChangeRage,IfprofitdisStable,predicttype,predict,analyst_prediction,adj_prediction
0,000681,80342538.34,80342538.34,2013-12-31,年度报告,79004443.34,2013,12,未知,未知,未知,未知,未知,未知,未知,未知,未知,未知
1,000681,20336075.689999994,20336075.689999994,2014-03-31,一季度报告,20336682.78,2014,3,未知,未知,未知,未知,未知,未知,未知,未知,未知,未知
2,000681,71100488.80000001,70266494.11999999,2014-09-30,三季度报告,70223484.28,2014,9,未知,未知,未知,未知,未知,未知,未知,未知,未知,未知
3,000681,143019956.03000003,141768490.75,2014-12-31,年度报告,97425579.58,2014,12,0.0,True,未知,未知,未知,未知,未知,未知,未知,未知
4,000681,18906816.790000007,19158904.64,2015-03-31,一季度报告,19155362.76,2015,3,2.9507395411351376,False,未知,未知,未知,未知,未知,未知,235200000.0,未知
5,000681,47124217.07000001,47852056.95,2015-06-30,半年度报告,46104186.29,2015,6,未知,未知,未知,未知,未知,未知,未知,未知,246920000.0,未知
6,000681,90256988.61,90181041.42,2015-09-30,三季度报告,88917312.54,2015,9,0.12998573843841127,True,未知,未知,未知,未知,未知,未知,179235182.0,未知
7,000681,171049410.37000003,157557775.58000004,2015-12-31,年度报告,156406685.23000002,2015,12,-0.4382424623096146,True,未知,未知,未知,未知,未知,未知,178180000.0,未知
8,000681,22796903.39,25712408.81,2016-03-31,一季度报告,25254761.09,2016,3,3.249395296541612,False,未知,未知,未知,未知,未知,未知,245369480.0,未知
9,000681,68623136.48999998,69953656.5,2016-06-30,半年度报告,68981010.92999999,2016,6,0.7049097753848368,False,未知,未知,未知,未知,未知,未知,276601052.0,未知
10,000681,125819972.85000002,123092743.82000002,2016-09-30,三季度报告,121732344.55,2016,9,-0.109846898535916,True,未知,未知,未知,未知,未知,未知,262690000.0,未知
11,000681,230557613.35,214659215.55,2016-12-31,年度报告,211869959.87,2016,12,-0.5302963151629133,True,0.5315857825858323,True,0.0,True,比例外推,214659215.55,308000000.0,308000000.0
12,000681,28948804.71,29292026.489999995,2017-03-31,一季度报告,29292026.489999995,2017,3,2.5242741948559004,False,0.1618360395640234,True,0.05860350815398141,True,前期平均,136462136.125,303507500.0,303507500.0
13,000681,99210917.63,95488067.72,2017-06-30,半年度报告,99762579.56,2017,6,0.17077916355087935,True,未知,未知,未知,未知,未知,未知,285457885.0,未知
14,000681,172419580.67000002,162633296.73999998,2017-09-30,三季度报告,168930014.44000003,2017,9,-0.3614484527366516,True,0.5595183423734215,True,0.09950658202412954,True,比例外推,265607743.77643514,290511667.0,265607743.77643514
15,000681,312566573.09000003,290820917.16,2017-12-31,年度报告,288244783.14,2017,12,-0.6515294499599312,True,0.46819548810348366,True,0.0,True,比例外推,290820917.16,290511667.0,290820917.16
16,000681,40236124.6,39910374.07,2018-03-31,一季度报告,38072874.07000001,2018,3,1.775331801946444,False,0.3883080255215733,True,0.012808917346681978,True,前期平均,201843634.695,386733077.0,386733077.0
17,000681,138993561.23999998,136798171.61999995,2018-06-30,半年度报告,133728320.78,2018,6,-0.19018450530180822,True,0.7142667124319522,True,0.02738103859009633,True,比例外推,418178935.20936793,383759286.0,418178935.20936793
18,000681,225918786.79,220060124.35999995,2018-09-30,三季度报告,217197457.07,2018,9,-0.5340289192921165,True,0.5959089715533432,True,0.009688845563050608,True,比例外推,379695869.55287844,388773252.99999994,379695869.55287844
19,000681,335250250.25000006,321211367.56,2018-12-31,年度报告,333168439.75000006,2018,12,-0.7429586358331853,True,0.5565792161439941,True,0.0,True,比例外推,321211367.56,388410000.0,388410000.0
20,000681,55863544.31999999,57557184.51,2019-03-31,一季度报告,56343521.76,2019,3,0.9967762586161193,False,0.555148284848768,True,0.010076798317960378,True,前期平均,280341162.225,407266667.0,407266667.0
21,000681,131056490.29000002,132562346.38,2019-06-30,半年度报告,130893366.15,2019,6,-0.42196935150634307,True,0.6563213224965742,True,0.043693840783996685,True,比例外推,367610113.30410385,343384118.0,367610113.30410385
22,000681,213271014.68,214778865.52000004,2019-09-30,三季度报告,213109885.29,2019,9,-0.6443742484564534,True,0.5150155914839096,True,0.04773456184082692,True,比例外推,354394624.55656433,323938750.0,354394624.55656433
23,000681,217459717.74,219048159.38,2019-12-31,年度报告,201293794.74,2019,12,-0.7603505492387026,True,0.23452521032972182,True,0.0,True,比例外推,219048159.38,324872353.0,324872353.0
24,000681,29089862.329999994,29193724.41,2020-03-31,一季度报告,30089365.78,2020,3,0.4381926409784952,True,0.6149050053860636,True,0.11463886414209884,False,平均增速,131677229.22798103,258292727.0,258292727.0
