,SECURITYCODE_x,NETPROFIT_x,PARENTNETPROFIT_x,REPORTDATE_x,REPORTTIMETYPE_x,KCFJCXSYJLR,Year,Month,managesituationChangeRate,managesituationGreatChange,historyprofitextroplaterate,ifhistoryprofitextroplate,IfprofitdisStableChangeRage,IfprofitdisStable,predicttype,predict,analyst_prediction,adj_prediction
0,000619,160815588.92999998,139540247.14000002,2013-12-31,年度报告,120425140.93999995,2013,12,未知,未知,未知,未知,未知,未知,未知,未知,未知,未知
1,000619,18687149.72,17132304.21,2014-03-31,一季度报告,10308767.34,2014,3,未知,未知,未知,未知,未知,未知,未知,未知,未知,未知
2,000619,72844488.79,64765893.67,2014-06-30,半年度报告,48298826.46,2014,6,未知,未知,未知,未知,未知,未知,未知,未知,未知,未知
3,000619,115413653.81000005,102613296.33,2014-09-30,三季度报告,84946491.39,2014,9,未知,未知,未知,未知,未知,未知,未知,未知,未知,未知
4,000619,122053081.33,108584520.89,2014-12-31,年度报告,85472790.53000002,2014,12,0.0,True,未知,未知,未知,未知,未知,未知,未知,未知
5,000619,10057605.560000002,9343879.55,2015-03-31,一季度报告,6588845.920000001,2015,3,7.605677769996483,False,未知,未知,未知,未知,未知,未知,,未知
6,000619,49644289.85,43995618.20000001,2015-06-30,半年度报告,29733934.01,2015,6,1.2076562221969567,False,未知,未知,未知,未知,未知,未知,102905000.0,未知
7,000619,87041423.11999999,73950457.63000001,2015-09-30,三季度报告,57318591.51000001,2015,9,0.39338443608017953,True,未知,未知,未知,未知,未知,未知,84545000.0,未知
8,000619,117807832.02,94553319.1,2015-12-31,年度报告,58138218.04000001,2015,12,0.3175872921650882,True,未知,未知,未知,未知,未知,未知,220256667.00000003,未知
9,000619,11435668.79,10508822.82,2016-03-31,一季度报告,8830469.56,2016,3,14.989450766450613,False,未知,未知,未知,未知,未知,未知,119610000.0,未知
10,000619,62555201.18000001,56631314.32,2016-06-30,半年度报告,35567486.07999999,2016,6,2.2393572234773336,False,未知,未知,未知,未知,未知,未知,117965000.0,未知
11,000619,104002984.4,91002821.32,2016-09-30,三季度报告,57379182.34,2016,9,0.847575363149692,False,未知,未知,未知,未知,未知,未知,,未知
12,000619,87129773.52999997,75971867.92,2016-12-31,年度报告,35300311.690000005,2016,12,0.3650670432734781,True,0.16704927476262107,True,0.0,True,比例外推,75971867.92,,75971867.92
13,000619,-8120439.320000001,-6950453.389999999,2017-03-31,一季度报告,-37448145.77,2017,3,13.062630868657749,False,0.2043300644861153,True,0.08878866502534513,True,盈利变化,14267047.479999997,98000000.0,98000000.0
14,000619,3977153.859999999,2333797.85,2017-06-30,半年度报告,-33123396.9,2017,6,1.5707788624523764,False,0.021402970534183118,True,0.3128745304710868,False,前期平均,35122921.900000006,,35122921.900000006
15,000619,9404781.92,4963319.239999998,2017-09-30,三季度报告,-40459048.0,2017,9,0.5462593680148276,False,0.027417894152979065,True,0.4237239569981315,False,前期平均,5636282.074999999,未知,5636282.074999999
16,000619,14781622.550000004,9031525.6,2017-12-31,年度报告,-53972911.28999999,2017,12,0.8457019043510882,False,0.27349752560258084,True,0.0,True,前期平均,9031525.6,未知,9031525.6
17,000619,-18124976.43,-15325667.81,2018-03-31,一季度报告,-31019456.11000001,2018,3,-20.803804029903144,False,1.7556260798392498,True,0.34139367357445477,False,前期平均,23683939.315000005,未知,23683939.315000005
18,000619,2964318.6300000013,2655653.16,2018-06-30,半年度报告,-30451291.15,2018,6,39.434842249225944,False,0.9291056702042154,True,0.2966659591993198,False,前期平均,16724207.98000001,未知,16724207.98000001
19,000619,5781186.79,4561351.46,2018-09-30,三季度报告,-37882006.7,2018,9,16.099342685236874,False,0.9015434993142583,True,0.5051322320055567,False,前期平均,-6068270.600000002,未知,-6068270.600000002
20,000619,3131979.66,9702734.47,2018-12-31,年度报告,-64344938.57999999,2018,12,9.879427369088106,False,0.8557451424268384,True,0.0,True,前期平均,9702734.47,未知,9702734.47
21,000619,-16251705.52,-13823050.87,2019-03-31,一季度报告,-25289550.0,2019,3,-9.872595754873485,False,11.934372171830393,False,0.22520250405854597,False,去年同期,-47148533.33999998,未知,-47148533.33999998
22,000619,3071855.67,2846817.8,2019-06-30,半年度报告,-12180864.35,2019,6,53.250439646563876,False,0.910890915308264,True,0.30939412180767356,False,前期平均,-7711526.58999999,未知,-7711526.58999999
23,000619,23190089.84,21505170.78,2019-09-30,三季度报告,-15913964.409999998,2019,9,26.817054658771887,False,0.8980460161134404,True,0.6375218403446467,False,前期平均,3708803.810000006,未知,3708803.810000006
24,000619,11117339.750000002,11600322.55,2019-12-31,年度报告,-40129608.97000001,2019,12,50.34630693291283,False,0.9385352417792137,True,0.0,True,前期平均,11600322.55,未知,11600322.55
25,000619,-39985694.67,-36021507.45999999,2020-03-31,一季度报告,-45215169.94000001,2020,3,-10.89530537161739,False,-0.23844146153409665,True,0.11995583744258942,False,前期平均,-60946631.45499998,未知,-60946631.45499998
