,SECURITYCODE_x,NETPROFIT_x,PARENTNETPROFIT_x,REPORTDATE_x,REPORTTIMETYPE_x,KCFJCXSYJLR,Year,Month,managesituationChangeRate,managesituationGreatChange,historyprofitextroplaterate,ifhistoryprofitextroplate,IfprofitdisStableChangeRage,IfprofitdisStable,predicttype,predict,analyst_prediction,adj_prediction
0,000688,281385063.67,281385063.67,2013-12-31,年度报告,267273748.45,2013,12,未知,未知,未知,未知,未知,未知,未知,未知,未知,未知
1,000688,26458942.57,26458942.57,2014-03-31,一季度报告,26642940.06,2014,3,未知,未知,未知,未知,未知,未知,未知,未知,未知,未知
2,000688,93519002.95,93519002.95,2014-06-30,半年度报告,93569031.6,2014,6,未知,未知,未知,未知,未知,未知,未知,未知,未知,未知
3,000688,170862811.90000004,170862811.90000004,2014-09-30,三季度报告,171030622.93,2014,9,未知,未知,未知,未知,未知,未知,未知,未知,未知,未知
4,000688,322605939.40999985,322605939.40999985,2014-12-31,年度报告,321874935.85,2014,12,0.0,True,未知,未知,未知,未知,未知,未知,未知,未知
5,000688,13819542.489999998,13819542.489999998,2015-03-31,一季度报告,13816978.89,2015,3,9.634781149154595,False,未知,未知,未知,未知,未知,未知,,未知
6,000688,95030697.80999996,95030697.80999996,2015-06-30,半年度报告,95643701.96999998,2015,6,2.0088544017138714,False,未知,未知,未知,未知,未知,未知,未知,未知
7,000688,117634524.98,117634524.98,2015-09-30,三季度报告,118192759.03000005,2015,9,0.6468479041225469,False,未知,未知,未知,未知,未知,未知,未知,未知
8,000688,287958207.08000004,288392098.18,2015-12-31,年度报告,284071551.12,2015,12,-0.12777469570271063,True,未知,未知,未知,未知,未知,未知,365100000.0,未知
9,000688,9705579.230000002,10090184.94,2016-03-31,一季度报告,10100604.27,2016,3,19.3613877864346,False,未知,未知,未知,未知,未知,未知,未知,未知
10,000688,60537549.55000001,61306915.79999999,2016-06-30,半年度报告,61211091.70999999,2016,6,1.9609912391950282,False,未知,未知,未知,未知,未知,未知,372759523.0,未知
11,000688,150973175.22,152115585.39000002,2016-09-30,三季度报告,152499742.23999998,2016,9,1.3920278822721524,False,未知,未知,未知,未知,未知,未知,319803333.0,未知
12,000688,232746626.05,234323307.13,2016-12-31,年度报告,249629534.48,2016,12,-0.022826727102707257,True,0.04648179985601755,True,0.0,True,比例外推,234323307.13,319580000.0,319580000.0
13,000688,86587603.08,86892515.07999998,2017-03-31,一季度报告,86826661.36999999,2017,3,27.992093825810738,False,0.5180762525928029,True,0.025482313903681726,True,前期平均,369635799.09000003,未知,369635799.09000003
14,000688,240835872.27,241499816.87000003,2017-06-30,半年度报告,241794890.3,2017,6,3.648107922465454,False,0.3578610912031444,True,0.04582328434622174,True,前期平均,449866693.57000005,603365000.0,603365000.0
15,000688,354110797.04,355181467.36,2017-09-30,三季度报告,355900403.93,2017,9,0.8638083438330166,False,0.04661746172580455,True,0.10337596686869244,False,前期平均,513543019.865,,513543019.865
16,000688,410459393.56000006,412393597.99000007,2017-12-31,年度报告,442410231.42,2017,12,0.2089759084608651,True,0.2376013973699255,True,0.0,True,比例外推,412393597.99000007,,412393597.99000007
17,000688,109499531.96,110568345.14,2018-03-31,一季度报告,110581358.70000002,2018,3,2.24971535948423,False,6.361288422698117,False,0.1011383531439852,False,去年同期,466151915.19,未知,466151915.19
18,000688,254340326.73999995,256152946.9,2018-06-30,半年度报告,258922441.07000005,2018,6,0.16836856992192795,True,2.09620859470998,False,0.1703945023779615,False,未知,未知,未知,未知
19,000688,305423279.56,307235899.71999985,2018-09-30,三季度报告,319021032.31000006,2018,9,-0.2053756450746826,True,1.6366392086030006,True,0.19440947185595636,False,平均增速,403343507.2536504,未知,403343507.2536504
20,000688,403218611.69,405031231.84999985,2018-12-31,年度报告,402445577.38,2018,12,-0.3144630916362065,True,0.5765530390516812,True,0.0,True,比例外推,405031231.84999985,未知,405031231.84999985
21,000688,115305386.84000002,115305386.84000002,2019-03-31,一季度报告,67829784.49,2019,3,1.5697375927852326,False,1.2742945935151324,True,0.13003565067181294,False,前期平均,412861636.97,未知,412861636.97
22,000688,154848800.28000003,154848800.28000003,2019-06-30,半年度报告,111721349.99,2019,6,0.10633287012187657,True,0.6878749639170813,True,0.2331657009812494,False,平均增速,282042764.05105495,未知,282042764.05105495
23,000688,191450323.94000003,191450323.94000003,2019-09-30,三季度报告,129484976.38000004,2019,9,-0.07870459620704096,True,0.2093960463381266,True,0.1251184757948699,False,平均增速,264315360.61617672,未知,264315360.61617672
24,000688,170859251.95000002,170859251.95000002,2019-12-31,年度报告,112905343.56000005,2019,12,-0.3021525904009294,True,0.253777481543119,True,0.0,True,比例外推,170859251.95000002,未知,170859251.95000002
25,000688,26287309.980000004,26287309.980000004,2020-03-31,一季度报告,17283524.68,2020,3,1.4403462091537436,False,0.17606274186706608,True,0.24350064647783792,False,前期平均,350011204.34499997,未知,350011204.34499997
