,SECURITYCODE_x,NETPROFIT_x,PARENTNETPROFIT_x,REPORTDATE_x,REPORTTIMETYPE_x,KCFJCXSYJLR,Year,Month,managesituationChangeRate,managesituationGreatChange,historyprofitextroplaterate,ifhistoryprofitextroplate,IfprofitdisStableChangeRage,IfprofitdisStable,predicttype,predict,analyst_prediction,adj_prediction
0,000682,89899118.40999998,36484904.05,2013-12-31,年度报告,3968633.4,2013,12,未知,未知,未知,未知,未知,未知,未知,未知,未知,未知
1,000682,17221200.76,4360812.239999998,2014-03-31,一季度报告,3735862.03,2014,3,未知,未知,未知,未知,未知,未知,未知,未知,未知,未知
2,000682,44482759.39,15223702.97,2014-06-30,半年度报告,9167415.88,2014,6,未知,未知,未知,未知,未知,未知,未知,未知,未知,未知
3,000682,66937034.45,20786965.09,2014-09-30,三季度报告,14192811.7,2014,9,未知,未知,未知,未知,未知,未知,未知,未知,未知,未知
4,000682,108863618.88,44165215.94,2014-12-31,年度报告,30619136.910000004,2014,12,0.0,True,未知,未知,未知,未知,未知,未知,未知,未知
5,000682,19303611.12,5436671.009999999,2015-03-31,一季度报告,3968633.4,2015,3,4.220258428135296,False,未知,未知,未知,未知,未知,未知,未知,未知
6,000682,48505847.33000001,19686780.419999994,2015-06-30,半年度报告,11233445.96,2015,6,1.0209878982959375,False,未知,未知,未知,未知,未知,未知,未知,未知
7,000682,67534418.11,25199655.64,2015-09-30,三季度报告,15028244.74,2015,9,0.34304005471219345,True,未知,未知,未知,未知,未知,未知,未知,未知
8,000682,113403919.16,50209638.59999999,2015-12-31,年度报告,36071229.38,2015,12,-0.17420420766008632,True,未知,未知,未知,未知,未知,未知,未知,未知
9,000682,21579249.93,5735716.99,2016-03-31,一季度报告,3657346.4,2016,3,3.657114042090171,False,未知,未知,未知,未知,未知,未知,未知,未知
10,000682,58303119.96999999,22640044.23,2016-06-30,半年度报告,12720869.449999996,2016,6,0.8533666219330006,False,未知,未知,未知,未知,未知,未知,65940000.0,未知
11,000682,80336334.32000002,29264527.59,2016-09-30,三季度报告,17544360.48,2016,9,0.3311600355180728,True,未知,未知,未知,未知,未知,未知,61460000.0,未知
12,000682,148187786.81999996,59725827.13999999,2016-12-31,年度报告,44593320.88,2016,12,-0.20726621199781836,True,0.14109838399479024,True,0.0,True,比例外推,59725827.13999999,61460000.0,59725827.13999999
13,000682,24921262.25,8355579.9700000025,2017-03-31,一季度报告,6601181.379999999,2017,3,3.1659982947331287,False,0.18162141400740314,True,0.022667229384961005,True,前期平均,37848515.400000006,,37848515.400000006
14,000682,66617185.73,26195428.69,2017-06-30,半年度报告,21957989.87,2017,6,0.5419263747164438,False,0.2539841605662028,True,0.01343249315942907,True,前期平均,49340180.91500001,189280000.0,189280000.0
15,000682,106471301.3,34878039.63000001,2017-09-30,三季度报告,29120641.24,2017,9,0.11903435937105322,True,0.1948459363024229,True,0.03899928145060705,True,比例外推,74352701.60884176,,74352701.60884176
16,000682,186232800.44000003,63517662.53,2017-12-31,年度报告,53616100.24000001,2017,12,-0.3933432684354871,True,0.3334181691735084,True,0.0,True,比例外推,63517662.53,166270000.0,166270000.0
17,000682,27769562.58,7605245.040000001,2018-03-31,一季度报告,552681.7,2018,3,2.607326045854679,False,0.21915451169237588,True,0.023036794867606056,True,前期平均,44124530.27,未知,44124530.27
18,000682,75746106.11999999,45518393.06,2018-06-30,半年度报告,35813752.730000004,2018,6,0.34948838538994803,True,0.247408104656396,True,0.07413131808402645,True,比例外推,116480793.57031424,未知,116480793.57031424
19,000682,126988013.89,90933143.28000002,2018-09-30,三季度报告,73562445.54,2018,9,-0.15564929410701225,True,0.4400589643364675,True,0.09206922144112356,True,比例外推,180457486.7335435,未知,180457486.7335435
20,000682,223221024.12000003,171101008.97000003,2018-12-31,年度报告,139419974.85999998,2018,12,-0.5172755916379863,True,0.4238433114101751,True,0.0,True,比例外推,171101008.97000003,未知,171101008.97000003
21,000682,40767796.28,39056436.94,2019-03-31,一季度报告,35649126.94,2019,3,2.2373256925100615,False,0.19437663277798323,True,0.06573555048850503,True,前期平均,83031883.61,未知,83031883.61
22,000682,110667384.88,100770105.34000002,2019-06-30,半年度报告,93046495.29,2019,6,0.18684805087641373,True,0.21271086706922776,True,0.09231372294316481,True,比例外推,301035408.5249252,未知,301035408.5249252
23,000682,191631228.5,177914825.72,2019-09-30,三季度报告,164454603.55999997,2019,9,-0.2920661119412994,True,0.359559136526049,True,0.09463465988284281,True,比例外推,350412555.8490099,未知,350412555.8490099
24,000682,282743169.55000013,247085399.66000003,2019-12-31,年度报告,226628728.29,2019,12,-0.5972641073375254,True,0.33497178477504264,True,0.0,True,比例外推,247085399.66000003,未知,247085399.66000003
25,000682,38174982.18999998,39837990.46,2020-03-31,一季度报告,34809303.72000001,2020,3,1.2051503052202748,False,0.5474343554701192,True,0.09083099169667623,True,前期平均,132779096.47,未知,132779096.47
