,SECURITYCODE_x,NETPROFIT_x,PARENTNETPROFIT_x,REPORTDATE_x,REPORTTIMETYPE_x,KCFJCXSYJLR,Year,Month,managesituationChangeRate,managesituationGreatChange,historyprofitextroplaterate,ifhistoryprofitextroplate,IfprofitdisStableChangeRage,IfprofitdisStable,predicttype,predict,analyst_prediction,adj_prediction
0,000686,483162701.3999999,480057377.9500001,2013-12-31,年度报告,472108324.6700001,2013,12,未知,未知,未知,未知,未知,未知,未知,未知,未知,未知
1,000686,180009101.97999996,178198552.44,2014-03-31,一季度报告,176898377.12,2014,3,未知,未知,未知,未知,未知,未知,未知,未知,未知,未知
2,000686,334744311.06,331717288.11000013,2014-06-30,半年度报告,325989529.14000005,2014,6,未知,未知,未知,未知,未知,未知,未知,未知,未知,未知
3,000686,607544853.5500001,602322029.0400001,2014-09-30,三季度报告,594563029.17,2014,9,未知,未知,未知,未知,未知,未知,未知,未知,未知,未知
4,000686,1074646103.84,1060025355.59,2014-12-31,年度报告,1053979813.11,2014,12,0.0,True,未知,未知,未知,未知,未知,未知,未知,未知
5,000686,552719693.52,548682537.3399999,2015-03-31,一季度报告,548814607.16,2015,3,1.6841015042321696,False,未知,未知,未知,未知,未知,未知,1645000000.0,未知
6,000686,1852777088.65,1829376943.09,2015-06-30,半年度报告,1822870579.0899992,2015,6,0.4433783799641548,True,未知,未知,未知,未知,未知,未知,,未知
7,000686,2266895689.88,2232487040.09,2015-09-30,三季度报告,2222037887.19,2015,9,-0.20472916760501153,True,未知,未知,未知,未知,未知,未知,未知,未知
8,000686,2692144355.76,2630058890.07,2015-12-31,年度报告,2617150671.38,2015,12,-0.5503983128273304,True,未知,未知,未知,未知,未知,未知,1409000000.0,未知
9,000686,403855743.01,400359882.53999984,2016-03-31,一季度报告,396854808.41,2016,3,-0.12584496795658895,True,未知,未知,未知,未知,未知,未知,2771000000.0,未知
10,000686,599606682.43,588109937.0599997,2016-06-30,半年度报告,565293217.4200001,2016,6,-0.7392224329846125,True,未知,未知,未知,未知,未知,未知,2122500000.0,未知
11,000686,1185446263.65,1159404761.59,2016-09-30,三季度报告,1129771124.14,2016,9,-0.7868615201145067,True,未知,未知,未知,未知,未知,未知,2485000000.0,未知
12,000686,1362089505.6,1314941187.9,2016-12-31,年度报告,1274794557.5299995,2016,12,-0.8205286799104048,True,2.456321914094255,False,0.0,True,比例外推,1314941187.9,未知,1314941187.9
13,000686,197293881.78,193357411.04000005,2017-03-31,一季度报告,188432395.64,2017,3,0.196374472228407,True,0.10233348406736661,True,0.08169330147489964,True,比例外推,825568082.7461387,未知,825568082.7461387
14,000686,326090208.67,310946599.5,2017-06-30,半年度报告,300433199.32,2017,6,-0.1942006059006757,True,0.4517935390168161,True,0.21342887523609805,False,平均增速,1026325088.9766325,未知,1026325088.9766325
15,000686,666155559.6,640900585.7799999,2017-09-30,三季度报告,625479125.1899999,2017,9,-0.5924212541593092,True,0.1751812251886513,True,0.2023475029654952,False,平均增速,788732840.9356611,未知,788732840.9356611
16,000686,702702988.5999999,666946558.9799999,2017-12-31,年度报告,647204991.4399999,2017,12,-0.6452783026272808,True,0.2767904027533076,True,0.0,True,比例外推,666946558.9799999,,666946558.9799999
17,000686,139539241.7,132905501.50999998,2018-03-31,一季度报告,125912383.83,2018,3,1.4489492377607975,False,0.5874995860322565,True,0.06101940379512005,True,前期平均,1606043408.1799998,未知,1606043408.1799998
18,000686,258492004.13,248576087.92,2018-06-30,半年度报告,233088232.73,2018,6,0.4816841737463993,True,0.7340626597554151,True,0.1617931784683755,False,平均增速,469336821.5603648,560000000.0,560000000.0
19,000686,281017113.08000004,270941359.35,2018-09-30,三季度报告,251212523.32000008,2018,9,-0.27469988888163005,True,0.6140848336771161,True,0.06586509326528711,True,比例外推,298678386.85790956,,298678386.85790956
20,000686,311954563.76000005,301352976.41,2018-12-31,年度报告,249595942.64,2018,12,-0.31242258928966793,True,0.6533485671375272,True,0.0,True,比例外推,301352976.41,未知,301352976.41
21,000686,582628581.99,567906600.98,2019-03-31,一季度报告,566509601.75,2019,3,2.4625578834573814,False,0.5357586998453328,True,0.13549098815399324,False,前期平均,1236262773.4399996,1356000000.0,1236262773.4399996
22,000686,604138892.37,589740750.22,2019-06-30,半年度报告,576907744.9499999,2019,6,0.8691591758366701,False,0.4415191265840041,True,0.3200282865277181,False,前期平均,1117877316.3349996,1035000000.0,1117877316.3349996
23,000686,884772136.3299998,867914612.97,2019-09-30,三季度报告,851001554.1099999,2019,9,0.7193355098714327,False,0.6964605353577062,True,0.06681081165242908,True,前期平均,951289262.7899997,,951289262.7899997
24,000686,1043345906.73,1007080243.05,2019-12-31,年度报告,987451107.51,2019,12,0.5488239555671882,False,0.6978344655588588,True,0.0,True,前期平均,1007080243.05,未知,1007080243.05
25,000686,344119724.0099999,333797833.02000004,2020-03-31,一季度报告,336477209.14,2020,3,-0.17071919171948088,True,2.4594494506392834,False,0.16529267143429988,False,未知,未知,未知,未知
