,SECURITYCODE_x,NETPROFIT_x,PARENTNETPROFIT_x,REPORTDATE_x,REPORTTIMETYPE_x,KCFJCXSYJLR,Year,Month,managesituationChangeRate,managesituationGreatChange,historyprofitextroplaterate,ifhistoryprofitextroplate,IfprofitdisStableChangeRage,IfprofitdisStable,predicttype,predict,analyst_prediction,adj_prediction
0,000659,-1186757634.08,-1110481825.3,2013-12-31,年度报告,-1106189470.94,2013,12,未知,未知,未知,未知,未知,未知,未知,未知,未知,未知
1,000659,65201078.81,67053197.57,2014-03-31,一季度报告,-11738629.38,2014,3,未知,未知,未知,未知,未知,未知,未知,未知,未知,未知
2,000659,93054156.76,91523918.84,2014-06-30,半年度报告,11566423.25,2014,6,未知,未知,未知,未知,未知,未知,未知,未知,未知,未知
3,000659,112301754.32,110622805.74000002,2014-09-30,三季度报告,29990823.93,2014,9,未知,未知,未知,未知,未知,未知,未知,未知,未知,未知
4,000659,37520356.17,41822130.07,2014-12-31,年度报告,-56227742.57999999,2014,12,-0.0,False,未知,未知,未知,未知,未知,未知,未知,未知
5,000659,-42325878.21,-41717144.79000001,2015-03-31,一季度报告,-41591842.03000001,2015,3,-19.20150303859673,False,未知,未知,未知,未知,未知,未知,未知,未知
6,000659,4283095.6499999985,3905456.44,2015-06-30,半年度报告,3955040.49,2015,6,-13.75340807333108,False,未知,未知,未知,未知,未知,未知,未知,未知
7,000659,-8043986.16,-8170984.5,2015-09-30,三季度报告,-9788067.34,2015,9,-11.567578763715256,False,未知,未知,未知,未知,未知,未知,未知,未知
8,000659,-71664890.18,-66362146.97,2015-12-31,年度报告,-94024045.03,2015,12,-32.629700653771806,False,未知,未知,未知,未知,未知,未知,未知,未知
9,000659,-49809259.16,-49339981.74,2016-03-31,一季度报告,-47750115.3,2016,3,27.038582641850866,False,未知,未知,未知,未知,未知,未知,未知,未知
10,000659,-56121282.66,-55962787.99999999,2016-06-30,半年度报告,-52837324.99999999,2016,6,-278.07941429699343,False,未知,未知,未知,未知,未知,未知,未知,未知
11,000659,-80178810.84999998,-79146887.85999998,2016-09-30,三季度报告,-74299170.44999999,2016,9,146.53352510492135,False,未知,未知,未知,未知,未知,未知,未知,未知
12,000659,-588346640.89,-573494667.1400001,2016-12-31,年度报告,-510719355.4399999,2016,12,15.559819335510488,False,-0.8752826912988245,True,0.0,True,前期平均,-573494667.1400001,未知,-573494667.1400001
13,000659,-13207731.96,-10873411.58,2017-03-31,一季度报告,-5371689.3500000015,2017,3,22.826044677111796,False,5.354869715109732,False,0.1941471165751844,False,去年同期,-473842651.71999985,未知,-473842651.71999985
14,000659,9928750.910000002,10370195.8,2017-06-30,半年度报告,22475432.61,2017,6,20.14630275415733,False,2.153130610747224,False,0.15760197632774003,False,前期平均,-72516429.875,未知,-72516429.875
15,000659,40844678.91,41576139.1,2017-09-30,三季度报告,15589501.37,2017,9,13.801387317906329,False,2.5380879960321603,False,0.438781235642375,False,盈利变化,-533544146.3311112,未知,-533544146.3311112
16,000659,90920165.03,93969583.37,2017-12-31,年度报告,4540360.73,2017,12,1.017106160893135,False,-33.4621274209037,True,0.0,True,盈利变化,-401741428.4166668,未知,-401741428.4166668
17,000659,-12135693.68,-11347491.13,2018-03-31,一季度报告,-6705123.24,2018,3,88.85324942042509,False,-0.7132965264498417,True,0.9673480059565329,False,前期平均,-269048212.6999999,未知,-269048212.6999999
18,000659,6661604.67,7811190.6099999985,2018-06-30,半年度报告,16782952.2,2018,6,-120.52738515020313,False,-1.3830670585792155,True,3.2796308214750924,False,前期平均,-270119367.36999995,未知,-270119367.36999995
19,000659,22350789.37,24007082.0,2018-09-30,三季度报告,-9785569.59,2018,9,-30.05537920116802,False,-1.9259438669887172,True,2.2058316409633214,False,前期平均,-236320999.33999994,未知,-236320999.33999994
20,000659,20220324.48,22396912.12,2018-12-31,年度报告,-49621647.67999999,2018,12,-14.052743950568255,False,-1.275510838068546,True,0.0,True,前期平均,22396912.12,未知,22396912.12
21,000659,-21871371.83,-21419057.32,2019-03-31,一季度报告,-16267282.62,2019,3,96.79067149954628,False,-0.6148437599348205,True,0.8649385760371602,False,前期平均,-247947652.34999993,未知,-247947652.34999993
22,000659,-16987165.2,-16278511.860000005,2019-06-30,半年度报告,-3988928.25,2019,6,-179.14891349294072,False,-1.2884277790207936,True,3.378348894511509,False,盈利变化,8548991.820000002,未知,8548991.820000002
23,000659,-10617425.55,-9476963.680000003,2019-09-30,三季度报告,10631567.73,2019,9,-54.09690026755416,False,-2.136457741286562,True,2.174797676302624,False,盈利变化,31471195.373333335,未知,31471195.373333335
24,000659,16059486.000000002,18069754.51,2019-12-31,年度报告,-35799431.620000005,2019,12,-59.691324921804615,False,-1.081299751666982,True,0.0,True,前期平均,18069754.51,未知,18069754.51
25,000659,-37991730.25,-37647786.04,2020-03-31,一季度报告,-30988814.27,2020,3,53.2607772070418,False,-0.7259996450898102,True,0.9852401701806506,False,前期平均,-54150023.22,未知,-54150023.22
