,SECURITYCODE_x,NETPROFIT_x,PARENTNETPROFIT_x,REPORTDATE_x,REPORTTIMETYPE_x,KCFJCXSYJLR,Year,Month,managesituationChangeRate,managesituationGreatChange,historyprofitextroplaterate,ifhistoryprofitextroplate,IfprofitdisStableChangeRage,IfprofitdisStable,predicttype,predict,analyst_prediction,adj_prediction
0,000639,180948638.6,180948638.6,2013-12-31,年度报告,180357874.42,2013,12,未知,未知,未知,未知,未知,未知,未知,未知,未知,未知
1,000639,26939977.55,26939977.55,2014-03-31,一季度报告,26845231.58,2014,3,未知,未知,未知,未知,未知,未知,未知,未知,未知,未知
2,000639,48869808.2,48869808.2,2014-06-30,半年度报告,47189320.94,2014,6,未知,未知,未知,未知,未知,未知,未知,未知,未知,未知
3,000639,93089648.79,93089648.79,2014-09-30,三季度报告,90951456.45,2014,9,未知,未知,未知,未知,未知,未知,未知,未知,未知,未知
4,000639,117493988.53,117493988.53,2014-12-31,年度报告,128950216.48,2014,12,0.0,True,未知,未知,未知,未知,未知,未知,未知,未知
5,000639,49147084.71,49147084.71,2015-03-31,一季度报告,48840055.48,2015,3,5.716733087997691,False,未知,未知,未知,未知,未知,未知,258501542.99999997,未知
6,000639,72291870.38000001,72291870.38000001,2015-06-30,半年度报告,71731287.87,2015,6,2.7026672554037154,False,未知,未知,未知,未知,未知,未知,258101542.99999997,未知
7,000639,126462037.8,126462037.8,2015-09-30,三季度报告,125595194.97,2015,9,0.9438105197732585,False,未知,未知,未知,未知,未知,未知,187693947.99999997,未知
8,000639,146279847.48000002,146279847.48000002,2015-12-31,年度报告,143987852.73000002,2015,12,0.5400672056834463,False,未知,未知,未知,未知,未知,未知,177971527.0,未知
9,000639,54085453.99000001,54085453.99000001,2016-03-31,一季度报告,53702777.47,2016,3,2.68177766123292,False,未知,未知,未知,未知,未知,未知,192005530.0,未知
10,000639,94638876.67,94638876.67,2016-06-30,半年度报告,81319178.08,2016,6,1.5030288696204566,False,未知,未知,未知,未知,未知,未知,191710000.0,未知
11,000639,116338308.94,116338308.94,2016-09-30,三季度报告,102438874.32,2016,9,0.4308534145730807,True,未知,未知,未知,未知,未知,未知,188304545.0,未知
12,000639,128693757.05,124187580.86,2016-12-31,年度报告,109708290.56999998,2016,12,0.23700319433775752,True,0.019712104221081606,True,0.0,True,比例外推,124187580.86,180051817.99999997,180051817.99999997
13,000639,92298193.07000002,75706334.21,2017-03-31,一季度报告,75103379.16999999,2017,3,2.34560635533273,False,0.4216728148915131,True,0.14387726667925632,False,前期平均,174332725.28500003,447981667.0,447981667.0
14,000639,190136886.15,151368122.03000003,2017-06-30,半年度报告,150129262.60999998,2017,6,0.9119905578651031,False,0.5621915737575777,True,0.20611199094979538,False,前期平均,228376852.23000005,352829167.0,352829167.0
15,000639,279068419.42,235545953.19000003,2017-09-30,三季度报告,235560563.92,2017,9,0.5553659000950577,False,0.05978059879134537,True,0.13178553982077768,False,前期平均,263741662.08500004,313966667.0,313966667.0
16,000639,395971288.75,343273683.04,2017-12-31,年度报告,327005708.83,2017,12,0.40604053178506533,True,0.024211354721921367,True,0.0,True,比例外推,343273683.04,397266667.0,397266667.0
17,000639,91909136.14000005,83809616.36999999,2018-03-31,一季度报告,83633551.8,2018,3,0.9604786679059518,False,0.7881608692821968,True,0.13671492644110644,False,前期平均,159386271.545,470666667.0,470666667.0
18,000639,233338887.23,204544193.28,2018-06-30,半年度报告,204174548.66,2018,6,-0.04832438216512789,True,1.2780331306257098,True,0.1750610031735732,False,平均增速,490314377.21622074,461682857.0,490314377.21622074
19,000639,371814686.4,329755332.46,2018-09-30,三季度报告,327649790.54,2018,9,-0.35159757963271737,True,1.2987481127350882,True,0.12176295728868769,False,平均增速,478913430.86129963,463963333.0,478913430.86129963
20,000639,532097089.0599998,468462924.19,2018-12-31,年度报告,431418831.75,2018,12,-0.5430258613668236,True,1.880067629958998,True,0.0,True,比例外推,468462924.19,459716667.0,468462924.19
21,000639,104208835.07,91743304.15,2019-03-31,一季度报告,85483316.90000002,2019,3,0.9687774926354552,False,0.2557295570362192,True,0.18516115485331064,False,前期平均,245697225.53,524975000.0,524975000.0
22,000639,263869330.84,224300930.38,2019-06-30,半年度报告,215778628.07,2019,6,-0.22452429276548067,True,0.638755243208587,True,0.1833653426673829,False,平均增速,588667396.2462778,,588667396.2462778
23,000639,377712650.24,332668409.99999994,2019-09-30,三季度报告,321760907.49,2019,9,-0.5133364947146424,True,0.8806694966580308,True,0.12921697834014345,False,平均增速,495171716.0543053,未知,495171716.0543053
24,000639,-963027102.14,-751998817.1900003,2019-12-31,年度报告,-862003679.6800001,2019,12,-0.6599330416942084,True,1.0283306209151692,True,0.0,True,比例外推,-751998817.1900003,520666000.0,520666000.0
25,000639,80672731.67999998,77581974.51,2020-03-31,一季度报告,78278650.96000001,2020,3,0.7364040052693395,False,0.13142984610780412,True,0.20728774274451994,False,前期平均,377425779.315,未知,377425779.315
