,SECURITYCODE_x,NETPROFIT_x,PARENTNETPROFIT_x,REPORTDATE_x,REPORTTIMETYPE_x,KCFJCXSYJLR,Year,Month,managesituationChangeRate,managesituationGreatChange,historyprofitextroplaterate,ifhistoryprofitextroplate,IfprofitdisStableChangeRage,IfprofitdisStable,predicttype,predict,analyst_prediction,adj_prediction
0,000629,562089492.9499999,549063155.6400001,2013-12-31,年度报告,546466290.1600001,2013,12,未知,未知,未知,未知,未知,未知,未知,未知,未知,未知
1,000629,406564215.20000017,404358625.29000014,2014-03-31,一季度报告,370636005.14000016,2014,3,未知,未知,未知,未知,未知,未知,未知,未知,未知,未知
2,000629,-158314742.64000002,-121356515.18000002,2014-06-30,半年度报告,-167593622.47000003,2014,6,未知,未知,未知,未知,未知,未知,未知,未知,未知,未知
3,000629,-98910196.95000002,-74125449.16,2014-09-30,三季度报告,-121818537.81,2014,9,未知,未知,未知,未知,未知,未知,未知,未知,未知,未知
4,000629,-5971690881.28,-3775427436.4,2014-12-31,年度报告,-3099195004.280001,2014,12,0.0,True,未知,未知,未知,未知,未知,未知,未知,未知
5,000629,-385597058.41,-323136894.19,2015-03-31,一季度报告,-330952966.36999995,2015,3,0.3825355797078515,True,未知,未知,未知,未知,未知,未知,-429000000.0,未知
6,000629,-588933239.8,-530356700.70000017,2015-06-30,半年度报告,-568582202.74,2015,6,-4.5504557792710685,False,未知,未知,未知,未知,未知,未知,-231666667.00000003,未知
7,000629,-1045326801.82,-971910591.6400002,2015-09-30,三季度报告,-1062529118.16,2015,9,-6.682826546530295,False,未知,未知,未知,未知,未知,未知,-1252000000.0,未知
8,000629,-2422458242.7000012,-2207361974.5700006,2015-12-31,年度报告,-2079202868.32,2015,12,-1.0941256846887424,False,未知,未知,未知,未知,未知,未知,329000000.0,未知
9,000629,104398584.15,39866118.72,2016-03-31,一季度报告,-68981063.11,2016,3,-2.45771208750337,False,未知,未知,未知,未知,未知,未知,169000000.0,未知
10,000629,-1340726482.39,-836285538.15,2016-06-30,半年度报告,-984604740.93,2016,6,-1.9544197117161939,False,未知,未知,未知,未知,未知,未知,110000000.0,未知
11,000629,-1804580396.6000009,-1214420760.49,2016-09-30,三季度报告,-1365200264.01,2016,9,-1.5377165226906608,False,未知,未知,未知,未知,未知,未知,-5976000000.0,未知
12,000629,-6570227864.29,-5987820242.28,2016-12-31,年度报告,-1542110262.0300002,2016,12,-1.2320326860716126,False,-0.1043856769462124,True,0.0,True,前期平均,-5987820242.28,-5976000000.0,-5987820242.28
13,000629,235720800.69,222089544.76,2017-03-31,一季度报告,123903705.11,2017,3,4.384071992225384,False,8.958296701419316,False,0.14769557317886584,False,去年同期,-1251039654.1600003,未知,-1251039654.1600003
14,000629,446323993.14000016,415844840.32,2017-06-30,半年度报告,339838796.67999995,2017,6,-1.4192424781138138,False,-2.5884378784459368,True,0.3164731702513816,False,盈利变化,-5104857883.873333,未知,-5104857883.873333
15,000629,712962565.6999999,670258377.99,2017-09-30,三季度报告,565783918.5699999,2017,9,-1.3114793300475995,False,-2.1542073863016813,True,0.43923156999493385,False,盈利变化,-5129605050.0222225,未知,-5129605050.0222225
16,000629,919902345.98,863282017.2,2017-12-31,年度报告,761512483.79,2017,12,-1.0855509891833472,False,-0.5654303413601479,True,0.0,True,盈利变化,-5219945993.673333,,-5219945993.673333
17,000629,484297075.2600001,467733759.75,2018-03-31,一季度报告,471999569.87000006,2018,3,1.3845561838609752,False,-2.6765439521698777,True,0.07747239481086211,True,前期平均,-1142955790.6850002,未知,-1142955790.6850002
18,000629,1188796891.64,1150420580.61,2018-06-30,半年度报告,1154132804.91,2018,6,0.2593754796724252,True,-1.462593469726839,True,0.18574260782074742,False,平均增速,2261990943.514837,2764005714.0,2764005714.0
19,000629,2111015907.3900003,2047619174.3200004,2018-09-30,三季度报告,2051437382.21,2018,9,-0.21161429787252575,True,-1.500340899588077,True,0.2020667334453896,False,平均增速,2586058296.8233347,3391324000.0,3391324000.0
20,000629,3163069785.0,3090176703.7900004,2018-12-31,年度报告,3059333068.240001,2018,12,-0.38896830146553346,True,-1.2045890037827431,True,0.0,True,比例外推,3090176703.7900004,3380476364.0,3090176703.7900004
21,000629,762189666.7100003,753377768.3600001,2019-03-31,一季度报告,752706217.39,2019,3,0.1606295426174856,True,1.8478063694477431,True,0.07584201063358244,True,比例外推,6243382525.651697,2919767628.9999995,2919767628.9999995
22,000629,1215945455.08,1199969773.19,2019-06-30,半年度报告,1193573626.48,2019,6,-0.5271778577965731,True,-3.65830407658383,True,0.15114654888755852,False,平均增速,5286434846.575179,2089740000.0,2089740000.0
23,000629,1438068475.35,1410189870.39,2019-09-30,三季度报告,1401575088.63,2019,9,-0.7337350746707773,True,-4.867683080349725,True,0.11901223688622575,False,平均增速,3395161628.81936,1946842857.0,1946842857.0
24,000629,1456479557.12,1419135479.4399998,2019-12-31,年度报告,1404938189.6899998,2019,12,-0.8222962086971471,True,-2.1196062155180284,True,0.0,True,比例外推,1419135479.4399998,3190983750.0,3190983750.0
25,000629,77476244.23000002,70496865.19,2020-03-31,一季度报告,67446681.68,2020,3,-0.2625333069965837,True,1.1171409548807612,True,0.2515086092223107,False,平均增速,829676044.8556767,759053333.0,829676044.8556767
