,SECURITYCODE_x,NETPROFIT_x,PARENTNETPROFIT_x,REPORTDATE_x,REPORTTIMETYPE_x,KCFJCXSYJLR,Year,Month,managesituationChangeRate,managesituationGreatChange,historyprofitextroplaterate,ifhistoryprofitextroplate,IfprofitdisStableChangeRage,IfprofitdisStable,predicttype,predict,analyst_prediction,adj_prediction
0,000603,460833742.46,289843056.44000006,2013-12-31,年度报告,285151418.29,2013,12,未知,未知,未知,未知,未知,未知,未知,未知,未知,未知
1,000603,45407958.63,27940177.61,2014-03-31,一季度报告,27940413.709999993,2014,3,未知,未知,未知,未知,未知,未知,未知,未知,未知,未知
2,000603,138149151.10999998,84950996.59000002,2014-06-30,半年度报告,85203733.77,2014,6,未知,未知,未知,未知,未知,未知,未知,未知,未知,未知
3,000603,251117832.07,156263607.97000003,2014-09-30,三季度报告,156533534.04999998,2014,9,未知,未知,未知,未知,未知,未知,未知,未知,未知,未知
4,000603,378214644.2199999,236238767.26,2014-12-31,年度报告,235982810.38,2014,12,0.0,True,未知,未知,未知,未知,未知,未知,未知,未知
5,000603,50363330.44,31680574.11000001,2015-03-31,一季度报告,31679053.17,2015,3,9.148743884635625,False,未知,未知,未知,未知,未知,未知,350993333.0,未知
6,000603,212726886.42,132008754.93000004,2015-06-30,半年度报告,132072892.63,2015,6,2.335769628385667,False,未知,未知,未知,未知,未知,未知,340986667.0,未知
7,000603,311756174.72999984,193466915.75,2015-09-30,三季度报告,194003172.37,2015,9,0.8351295033940119,False,未知,未知,未知,未知,未知,未知,,未知
8,000603,411079785.76,252944265.2,2015-12-31,年度报告,255478215.94,2015,12,0.21844500074921,True,未知,未知,未知,未知,未知,未知,269513333.0,未知
9,000603,411079785.76,252944265.2,2015-12-31,年度报告,249083046.79,2015,12,0.21844500074921,True,未知,未知,未知,未知,未知,未知,269513333.0,未知
10,000603,25936019.48,19297648.880000006,2016-03-31,一季度报告,12345178.13,2016,3,8.150184041323698,False,未知,未知,未知,未知,未知,未知,305863329.0,未知
11,000603,120636835.2,75856150.11000001,2016-06-30,半年度报告,68970918.1,2016,6,1.1663163985305887,False,未知,未知,未知,未知,未知,未知,342963333.0,未知
12,000603,230270066.01,144896372.84,2016-09-30,三季度报告,132834152.25,2016,9,0.478186415582981,True,未知,未知,0.0,True,未知,未知,260730000.0,未知
13,000603,331431302.0300001,202097102.05,2016-12-31,年度报告,174563907.04000002,2016,12,0.12103236019746239,True,0.020128535407626,True,0.03365301091265917,True,比例外推,202097102.05,,202097102.05
14,000603,16498305.64,11725529.430000005,2017-03-31,一季度报告,8094236.659999997,2017,3,16.76809825483675,False,0.4583758925695746,True,0.09258788620810643,True,前期平均,227646309.15,449508571.0,449508571.0
15,000603,139352583.11999995,96995594.8,2017-06-30,半年度报告,68333501.3,2017,6,2.8200085545679165,False,0.3123677749599214,True,0.0645564028135377,True,前期平均,234087794.76,432280000.0,432280000.0
16,000603,263004962.55,174403365.45000002,2017-09-30,三季度报告,145706197.14,2017,9,1.001275069943252,False,0.1818060055069501,True,0.0,True,前期平均,244865525.40000004,390950000.0,390950000.0
17,000603,462057100.72000015,322885556.07000005,2017-12-31,年度报告,258641840.05,2017,12,0.390435181099119,True,0.16018334998665,True,0.04866093829021041,True,比例外推,322885556.07000005,453266667.0,453266667.0
18,000603,102356828.48,88790484.92999999,2018-03-31,一季度报告,64627077.56000001,2018,3,26.932186038711304,False,0.5675374519626051,True,0.12788833574542652,False,前期平均,281799430.77,331300000.0,331300000.0
19,000603,257966687.17,194678236.66000003,2018-06-30,半年度报告,122289448.06,2018,6,2.306962326368681,False,0.163960718684036,True,0.13120625460753765,False,前期平均,309177392.785,331300000.0,309177392.785
20,000603,428055920.96,323611822.73,2018-09-30,三季度报告,299424784.0700002,2018,9,0.7521864910529612,False,0.029548967256886896,True,0.0,True,前期平均,375214221.91,361780000.0,375214221.91
21,000603,557484266.8000001,411755333.63,2018-12-31,年度报告,305057764.08,2018,12,-0.0026476343683364506,True,0.2445796657266375,True,0.10722953576062372,False,平均增速,411755333.63,366085000.0,366085000.0
22,000603,103400868.13,97289387.71,2019-03-31,一季度报告,93169541.84,2019,3,3.502227641315054,False,3.824246795043644,False,0.08919155808270407,True,去年同期,337720074.22999996,463608916.0,463608916.0
23,000603,233875495.1,212248567.21,2019-06-30,半年度报告,124719532.54,2019,6,0.7864079564517982,False,0.9844398963383169,True,0.2129232149422523,False,前期平均,360199231.05500007,473842650.0,473842650.0
24,000603,408068326.7699999,340251694.5,2019-09-30,三季度报告,253289039.02,2019,9,0.07657369024703421,True,0.735566960320729,True,0.0,True,比例外推,416503705.2464018,453243448.0,416503705.2464018
25,000603,560023901.06,448436292.55,2019-12-31,年度报告,376216426.51000017,2019,12,-0.17336906186569367,True,0.4051478632023394,True,0.13230347028184267,False,平均增速,448436292.55,484151667.0,448436292.55
26,000603,-46678706.24,-43257761.46,2020-03-31,一季度报告,-41297048.92000001,2020,3,3.4567686016003276,False,0.7399478599822725,True,未知,未知,盈利变化,269147504.87,508495556.0,508495556.0
