,SECURITYCODE_x,NETPROFIT_x,PARENTNETPROFIT_x,REPORTDATE_x,REPORTTIMETYPE_x,KCFJCXSYJLR,Year,Month,managesituationChangeRate,managesituationGreatChange,historyprofitextroplaterate,ifhistoryprofitextroplate,IfprofitdisStableChangeRage,IfprofitdisStable,predicttype,predict,analyst_prediction,adj_prediction
0,000687,-167168874.31999996,-163793254.37,2013-12-31,年度报告,-166277157.94999996,2013,12,未知,未知,未知,未知,未知,未知,未知,未知,未知,未知
1,000687,-41904906.15,-42055795.00000001,2014-03-31,一季度报告,-48900017.13999999,2014,3,未知,未知,未知,未知,未知,未知,未知,未知,未知,未知
2,000687,-58103465.07000001,-57956611.76,2014-06-30,半年度报告,-64764533.06,2014,6,未知,未知,未知,未知,未知,未知,未知,未知,未知,未知
3,000687,-34036141.0,-33765666.08,2014-09-30,三季度报告,-93751665.35,2014,9,未知,未知,未知,未知,未知,未知,未知,未知,未知,未知
4,000687,14482618.33,14392268.79,2014-12-31,年度报告,-132009354.64,2014,12,-0.0,False,未知,未知,未知,未知,未知,未知,未知,未知
5,000687,-49811024.02,-51216931.95,2015-03-31,一季度报告,-51897649.92999999,2015,3,2.98924349625348,False,未知,未知,未知,未知,未知,未知,未知,未知
6,000687,5537746.02,3791996.2200000007,2015-06-30,半年度报告,-120126044.12,2015,6,1.8770895869739208,False,未知,未知,未知,未知,未知,未知,未知,未知
7,000687,11315053.64,10791355.239999998,2015-09-30,三季度报告,-113248510.17,2015,9,3.911510806116356,False,未知,未知,未知,未知,未知,未知,164900000.0,未知
8,000687,-272941348.4499999,-273176455.51,2015-12-31,年度报告,-405367577.32000005,2015,12,-12.542724562016403,False,未知,未知,未知,未知,未知,未知,未知,未知
9,000687,45211128.29000001,45680309.88000001,2016-03-31,一季度报告,44301898.31,2016,3,2.3560617877054426,False,未知,未知,未知,未知,未知,未知,226540000.0,未知
10,000687,115645112.9,116991094.47999996,2016-06-30,半年度报告,115559378.93,2016,6,-31.18716887994802,False,未知,未知,未知,未知,未知,未知,226940000.0,未知
11,000687,119061567.21999995,121434908.17999996,2016-09-30,三季度报告,119870119.71,2016,9,-15.774024024865335,False,未知,未知,未知,未知,未知,未知,219000000.0,未知
12,000687,157377029.17,161086845.0,2016-12-31,年度报告,152142910.92,2016,12,-0.38752821707179486,False,-2.5751921046236927,True,0.0,True,盈利变化,-87339626.09666666,211000000.0,211000000.0
13,000687,10995361.16,12096545.72,2017-03-31,一季度报告,12045438.510000002,2017,3,-4.697516090457205,False,-1.9858947776291194,True,0.13518740279224684,False,前期平均,-206193086.72500002,278166667.0,278166667.0
14,000687,60353767.04000001,64146597.21999999,2017-06-30,半年度报告,59318891.96999998,2017,6,-2.4455334093067407,False,-5.400020202900658,True,0.24404856561534538,False,前期平均,-112096580.17000002,238455000.0,238455000.0
15,000687,46702912.11000001,52353150.60999999,2017-09-30,三季度报告,45888563.85,2017,9,-2.4040540387907723,False,-11.48027018544943,True,0.313107738441413,False,前期平均,-112835227.61000004,198000000.0,198000000.0
16,000687,126091006.87,131008640.29,2017-12-31,年度报告,117294159.7,2017,12,-2.0622190239683755,False,-2.217811672269158,True,0.0,True,前期平均,131008640.29,285000000.0,285000000.0
17,000687,17384132.02,17679705.98,2018-03-31,一季度报告,17195158.320000004,2018,3,-16.20358193673012,False,-5.780700174697224,True,0.1172172478889264,False,前期平均,-105134751.41000001,185000000.0,185000000.0
18,000687,52918153.14,50774048.92000001,2018-06-30,半年度报告,44764628.57,2018,6,-3.7698167408375234,False,0.0039223768463308726,True,0.23900791553799428,False,前期平均,-73554951.685,157000000.0,157000000.0
19,000687,48566677.18000001,50177721.44999999,2018-09-30,三季度报告,42377549.46000001,2018,9,-4.579410078888975,False,0.2835692196663054,True,0.3017193867412406,False,前期平均,-79745416.52000004,157000000.0,157000000.0
20,000687,-502531644.39,-492835020.57,2018-12-31,年度报告,-516352394.15,2018,12,-2.325779518061516,False,-3.182178853396697,True,0.0,True,盈利变化,-80206877.66000001,185000000.0,185000000.0
21,000687,-24279271.6,-20899781.6,2019-03-31,一季度报告,-32089453.270000003,2019,3,-10.616176069514225,False,0.3814190428859813,True,0.17099303351573192,False,盈利变化,-558547836.0233333,46000000.0,46000000.0
22,000687,-79871559.22,-73514497.23,2019-06-30,半年度报告,-83497706.79,2019,6,-4.159008098369171,False,0.39865352372651014,True,0.47955347620051864,False,盈利变化,-578343244.1433333,,-578343244.1433333
23,000687,-144188923.43,-136108109.19,2019-09-30,三季度报告,-153062606.49999997,2019,9,-4.442048829085654,False,0.4140279343765243,True,0.4477489146550629,False,盈利变化,-579697312.1077777,未知,-579697312.1077777
24,000687,-1535443593.9099998,-1521029592.1999998,2019-12-31,年度报告,-1520360943.64,2019,12,-0.6673465717309832,False,4.545596543513556,False,0.0,True,去年同期,-1521029592.1999998,64000000.0,64000000.0
25,000687,-41927037.99,-40942434.10999999,2020-03-31,一季度报告,-42638837.79,2020,3,5.885250804641107,False,2.711043354157602,False,0.07252776139216,True,去年同期,-1529213924.48,未知,-1529213924.48
