,SECURITYCODE_x,NETPROFIT_x,PARENTNETPROFIT_x,REPORTDATE_x,REPORTTIMETYPE_x,KCFJCXSYJLR,Year,Month,managesituationChangeRate,managesituationGreatChange,historyprofitextroplaterate,ifhistoryprofitextroplate,IfprofitdisStableChangeRage,IfprofitdisStable,predicttype,predict,analyst_prediction,adj_prediction
0,000691,350115.95,231391.87,2014-03-31,一季度报告,231391.87,2014,3,未知,未知,未知,未知,未知,未知,未知,未知,未知,未知
1,000691,675879.98,225731.66,2014-06-30,半年度报告,245981.66,2014,6,未知,未知,未知,未知,未知,未知,未知,未知,未知,未知
2,000691,-2557078.8300000005,-3157266.81,2014-09-30,三季度报告,-3188660.6699999995,2014,9,未知,未知,未知,未知,未知,未知,未知,未知,未知,未知
3,000691,-43568508.93,-43142974.36000001,2014-12-31,年度报告,-14479435.479999995,2014,12,未知,未知,未知,未知,未知,未知,未知,未知,未知,未知
4,000691,332584.0,63219.91,2015-03-31,一季度报告,63219.91,2015,3,0.0,True,未知,未知,未知,未知,未知,未知,未知,未知
5,000691,-1990265.0300000003,-2738844.06,2015-06-30,半年度报告,-2742304.93,2015,6,-0.481985026394775,True,未知,未知,未知,未知,未知,未知,未知,未知
6,000691,-703298.9700000001,-1820910.44,2015-09-30,三季度报告,-1826772.7,2015,9,-1.1369202802402458,False,未知,未知,未知,未知,未知,未知,未知,未知
7,000691,14117421.779999996,11501772.13,2015-12-31,年度报告,11573150.27,2015,12,-1.0080359865094883,False,未知,未知,未知,未知,未知,未知,未知,未知
8,000691,-1492731.0799999996,-1480995.71,2016-03-31,一季度报告,-1480995.71,2016,3,0.052714351862988035,True,未知,未知,未知,未知,未知,未知,未知,未知
9,000691,-1646077.55,-1678323.03,2016-06-30,半年度报告,-1678323.03,2016,6,-1.1759142348996607,False,未知,未知,未知,未知,未知,未知,未知,未知
10,000691,768024.0100000001,145642.72,2016-09-30,三季度报告,145642.72,2016,9,-1.49781951194952,False,未知,未知,未知,未知,未知,未知,未知,未知
11,000691,2395372.82,1346282.4300000002,2016-12-31,年度报告,1946135.43,2016,12,-0.9751997244641366,True,未知,未知,未知,未知,未知,未知,未知,未知
12,000691,-1975284.0,-1847371.54,2017-03-31,一季度报告,-1847371.54,2017,3,-1.2345472367333572,False,5.373022379743839,False,0.5038227299658142,False,去年同期,1579759.5999999996,未知,1579759.5999999996
13,000691,-4271096.83,-3989061.15,2017-06-30,半年度报告,-3989061.15,2017,6,-1.212697117459624,False,-1.5047113096729146,True,0.4902775871639713,False,前期平均,-4194042.119999998,未知,-4194042.119999998
14,000691,-7401945.989999997,-6833211.67,2017-09-30,三季度报告,-6833211.67,2017,9,-0.5441341085156961,True,-1.4711257756693106,True,0.20358278872926958,False,平均增速,-47734925.515079215,未知,-47734925.515079215
15,000691,-8963364.419999998,-8600632.59,2017-12-31,年度报告,-8839027.169999998,2017,12,-0.8538365522574478,True,-1.1626678708191591,True,0.0,True,比例外推,-8600632.59,未知,-8600632.59
16,000691,-1362015.8099999998,-1371944.24,2018-03-31,一季度报告,-1371944.24,2018,3,-1.1772484108614256,False,-2.4052303092466527,True,0.5788168652637011,False,前期平均,6096586.51,未知,6096586.51
17,000691,-2164549.41,-2197155.0,2018-06-30,半年度报告,-2759535.39,2018,6,-1.0819733112910952,False,-1.3491168590611724,True,0.6673144982466255,False,前期平均,6772801.83,未知,6772801.83
18,000691,11509386.01,11559894.000000002,2018-09-30,三季度报告,-8221557.589999999,2018,9,-1.0473005275197909,False,229.71970384259302,False,0.5430515045918226,False,盈利变化,-9217675.221111111,未知,-9217675.221111111
19,000691,10759877.470000004,11002564.38,2018-12-31,年度报告,-8170576.25,2018,12,-1.0390607737892241,False,2.0856265867922805,False,0.0,True,前期平均,11002564.38,未知,11002564.38
20,000691,-1591863.0200000003,-1505923.44,2019-03-31,一季度报告,-1505923.44,2019,3,-1.2570571849676253,False,-0.2145271698184196,True,0.632966915946219,False,前期平均,-3288185.684999999,未知,-3288185.684999999
21,000691,-4327848.01,-4076269.72,2019-06-30,半年度报告,-4076269.72,2019,6,-1.1617500383139787,False,-0.26838410667221196,True,0.8379389002200625,False,前期平均,-4689023.499999999,未知,-4689023.499999999
22,000691,-7077736.69,-6539018.340000003,2019-09-30,三季度报告,-6533861.710000001,2019,9,-0.9695799628498167,True,-4.469858718477122,True,0.5432128900916398,False,平均增速,-6552473.040164303,未知,-6552473.040164303
23,000691,-10714491.070000002,-10180311.64,2019-12-31,年度报告,-10187000.97,2019,12,-0.9674609723971141,True,-4.276458961975532,True,0.0,True,比例外推,-10180311.64,未知,-10180311.64
24,000691,4921809.779999998,4985630.26,2020-03-31,一季度报告,-1228853.16,2020,3,-1.2199410034664917,False,-0.046017372949180464,True,0.03408754245391771,True,盈利变化,-9810884.600000001,未知,-9810884.600000001
