,SECURITYCODE_x,NETPROFIT_x,PARENTNETPROFIT_x,REPORTDATE_x,REPORTTIMETYPE_x,KCFJCXSYJLR,Year,Month,managesituationChangeRate,managesituationGreatChange,historyprofitextroplaterate,ifhistoryprofitextroplate,IfprofitdisStableChangeRage,IfprofitdisStable,predicttype,predict,analyst_prediction,adj_prediction
0,000638,-13462794.779999996,-12030923.36,2013-12-31,年度报告,-15046099.129999995,2013,12,未知,未知,未知,未知,未知,未知,未知,未知,未知,未知
1,000638,-4431085.529999998,-3768403.150000001,2014-03-31,一季度报告,-3768403.150000001,2014,3,未知,未知,未知,未知,未知,未知,未知,未知,未知,未知
2,000638,4213537.9,4073948.99,2014-06-30,半年度报告,-9620202.27,2014,6,未知,未知,未知,未知,未知,未知,未知,未知,未知,未知
3,000638,-1696183.91,-1429490.63,2014-09-30,三季度报告,-15528641.889999995,2014,9,未知,未知,未知,未知,未知,未知,未知,未知,未知,未知
4,000638,3543916.61,3025354.45,2014-12-31,年度报告,-3227416.41,2014,12,-0.0,False,未知,未知,未知,未知,未知,未知,未知,未知
5,000638,-6218095.199999997,-5167864.81,2015-03-31,一季度报告,-5167864.81,2015,3,2.038261096260085,False,未知,未知,未知,未知,未知,未知,3094000.0,未知
6,000638,-8270536.99,-7127865.19,2015-06-30,半年度报告,-7913905.520000001,2015,6,-4.195128440638921,False,未知,未知,未知,未知,未知,未知,2000000.0,未知
7,000638,-38236647.36000001,-35393779.68999999,2015-12-31,年度报告,-41161295.98,2015,12,-4.7988463786116,False,未知,未知,未知,未知,未知,未知,3750000.0,未知
8,000638,8055294.11,8999881.850000001,2016-03-31,一季度报告,-11742346.249999998,2016,3,1.1650994954210416,False,未知,未知,未知,未知,未知,未知,18564000.0,未知
9,000638,2489272.22,3573957.0499999993,2016-06-30,半年度报告,-11718258.409999998,2016,6,0.6278017734855684,False,未知,未知,未知,未知,未知,未知,30876000.0,未知
10,000638,7589547.530000001,8374425.630000001,2016-09-30,三季度报告,-14431993.319999995,2016,9,未知,未知,未知,未知,未知,未知,未知,未知,,未知
11,000638,13727201.66,10440721.17,2016-12-31,年度报告,-13888683.459999995,2016,12,-0.6479085979153171,False,-6.70987337573076,True,0.0,True,未知,未知,20000000.0,未知
12,000638,-2306270.59,-3955350.4,2017-03-31,一季度报告,2518053.4800000004,2017,3,-2.671297732417618,False,-2.5128476667331388,True,0.5873268506209938,False,盈利变化,29454587.476666667,未知,29454587.476666667
13,000638,11842696.300000004,5206313.3500000015,2017-06-30,半年度报告,6807285.78,2017,6,-6.40832564306687,False,-2.2271495086778543,True,1.6418524287945944,False,前期平均,-8220988.949999994,未知,-8220988.949999994
14,000638,32621447.33,24919452.60999999,2017-09-30,三季度报告,2215924.51,2017,9,-2.773859999793689,False,未知,未知,未知,未知,未知,未知,未知,未知
15,000638,19819697.340000007,16163867.489999998,2017-12-31,年度报告,-9574426.819999997,2017,12,-1.9807384719370398,False,-1.7913589598305113,True,0.0,True,前期平均,16163867.489999998,未知,16163867.489999998
16,000638,-9198218.9,-7944600.289999999,2018-03-31,一季度报告,-6457284.56,2018,3,4.837474075407603,False,3.5106378818829107,False,0.6094563810844561,False,去年同期,-20037080.589999996,未知,-20037080.589999996
17,000638,-19376526.37,-16451013.109999998,2018-06-30,半年度报告,-15037209.46,2018,6,-2.1368014883570043,False,-5.096922307192655,True,0.8193217599287744,False,盈利变化,1600870.6633333303,未知,1600870.6633333303
18,000638,-23023599.6,-19361444.070000004,2018-09-30,三季度报告,-16669169.71,2018,9,-1.412697653902654,False,未知,未知,未知,未知,未知,未知,未知,未知
19,000638,-144855295.45999995,-147473832.54000002,2018-12-31,年度报告,-147570599.43999997,2018,12,-1.67926338879199,False,-2.6173109406550146,True,0.0,True,盈利变化,-29834856.716666657,未知,-29834856.716666657
20,000638,-2658843.76,-2023390.49,2019-03-31,一季度报告,-1554111.2000000004,2019,3,0.46363061440079395,False,4.1999239063819305,False,0.6367211480376116,False,去年同期,-143136705.36999997,未知,-143136705.36999997
21,000638,-2866591.34,-4430466.88,2019-06-30,半年度报告,-5156478.86,2019,6,-0.3052008124199201,False,3.7039588236550207,False,0.7891993288638202,False,去年同期,-136963856.85999995,未知,-136963856.85999995
22,000638,-8935556.3,-10636804.8,2019-09-30,三季度报告,-11630977.819999995,2019,9,-0.41526107933183504,False,2.14513951620246,False,0.7322408415802599,False,去年同期,-141538234.52999997,未知,-141538234.52999997
23,000638,16145992.96,9358190.19,2019-12-31,年度报告,-1113865.7200000002,2019,12,-0.9070603892163708,False,9.635987216582965,False,0.0,True,前期平均,9358190.19,未知,9358190.19
24,000638,-10056799.430000003,-6269305.379999999,2020-03-31,一季度报告,-6243478.409999997,2020,3,4.063401987937794,False,-0.5377728386277139,True,1.003240905218248,False,前期平均,-82872202.96999997,未知,-82872202.96999997
