,SECURITYCODE_x,NETPROFIT_x,PARENTNETPROFIT_x,REPORTDATE_x,REPORTTIMETYPE_x,KCFJCXSYJLR,Year,Month,managesituationChangeRate,managesituationGreatChange,historyprofitextroplaterate,ifhistoryprofitextroplate,IfprofitdisStableChangeRage,IfprofitdisStable,predicttype,predict,analyst_prediction,adj_prediction
0,000626,135438758.98000002,36617249.03999999,2013-12-31,年度报告,-127763404.06000002,2013,12,未知,未知,未知,未知,未知,未知,未知,未知,未知,未知
1,000626,28542118.16,14394545.77,2014-03-31,一季度报告,-53492073.66000001,2014,3,未知,未知,未知,未知,未知,未知,未知,未知,未知,未知
2,000626,96682307.91,38348976.11,2014-06-30,半年度报告,-99479128.65,2014,6,未知,未知,未知,未知,未知,未知,未知,未知,未知,未知
3,000626,286524700.26000005,118023738.95,2014-09-30,三季度报告,-203971588.26,2014,9,未知,未知,未知,未知,未知,未知,未知,未知,未知,未知
4,000626,576826211.36,232592534.05,2014-12-31,年度报告,-311978640.12,2014,12,0.0,True,未知,未知,未知,未知,未知,未知,未知,未知
5,000626,313924812.89000005,142150091.43,2015-03-31,一季度报告,-138975602.3,2015,3,3.7452245212063136,False,未知,未知,未知,未知,未知,未知,453280000.0,未知
6,000626,485907773.13,204991375.88,2015-06-30,半年度报告,-230050653.38000005,2015,6,0.40086394199523845,True,未知,未知,未知,未知,未知,未知,,未知
7,000626,567927386.87,263058278.65,2015-09-30,三季度报告,-434885236.89999986,2015,9,-0.5273051193942465,True,未知,未知,未知,未知,未知,未知,未知,未知
8,000626,627827896.25,308081525.32,2015-12-31,年度报告,-359996145.06,2015,12,-0.7652000614523531,True,未知,未知,未知,未知,未知,未知,356100000.0,未知
9,000626,371863236.84,165263834.89000002,2016-03-31,一季度报告,-146681264.86,2016,3,-0.5685630653622208,True,未知,未知,未知,未知,未知,未知,,未知
10,000626,501519101.6,314364375.86,2016-06-30,半年度报告,-222238626.63,2016,6,-0.7212665314910188,True,未知,未知,未知,未知,未知,未知,578000000.0,未知
11,000626,587957594.6800001,376161681.55000013,2016-09-30,三季度报告,-294310842.25,2016,9,-0.7615209935086257,True,未知,未知,未知,未知,未知,未知,,未知
12,000626,553254535.3299999,390938242.36,2016-12-31,年度报告,180800864.67,2016,12,-0.7842740665252814,True,0.7629054421988661,True,0.0,True,比例外推,390938242.36,600000000.0,600000000.0
13,000626,87642795.68999998,95902499.98999998,2017-03-31,一季度报告,32479522.030000005,2017,3,-0.6357834129264177,True,1.1716738354846181,True,0.7266935898713869,False,平均增速,733770202.4032139,未知,733770202.4032139
14,000626,211627248.39999995,247131752.6,2017-06-30,半年度报告,-117436420.25999998,2017,6,-0.7299429701722053,True,0.7216877455404748,True,1.1387605856486922,False,平均增速,881059211.7078605,未知,881059211.7078605
15,000626,244440874.41000003,243344081.79,2017-09-30,三季度报告,-153034041.79000002,2017,9,-0.7696453618330868,True,0.37622133185929146,True,1.705820891016766,False,平均增速,992639051.9538375,未知,992639051.9538375
16,000626,-372174247.75,-192637719.73,2017-12-31,年度报告,-275438378.70000005,2017,12,-0.7551962969463688,True,0.08147154965894507,True,0.0,True,比例外推,-192637719.73,未知,-192637719.73
17,000626,-48881441.79000001,-29196761.270000003,2018-03-31,一季度报告,-27876850.74,2018,3,0.5453495967775653,False,0.7444026744866562,True,0.6302335667119978,False,盈利变化,-273112883.42333335,未知,-273112883.42333335
18,000626,-29460247.91,-37188702.08,2018-06-30,半年度报告,-99960167.13,2018,6,-0.36001266375677143,True,0.5713561098732158,True,1.1745928096405056,False,平均增速,-166609058.774117,未知,-166609058.774117
19,000626,58629696.86,24497011.980000004,2018-09-30,三季度报告,-147086168.57,2018,9,-0.44592425752483217,True,0.5770498305424583,True,1.673088186705962,False,平均增速,-69036046.83673492,未知,-69036046.83673492
20,000626,93234434.34,47669479.86,2018-12-31,年度报告,-280178251.29999995,2018,12,-1.3639122260575591,False,1.6302256943270619,True,0.0,True,前期平均,47669479.86,未知,47669479.86
21,000626,25024576.39,24886277.39,2019-03-31,一季度报告,19826453.68,2019,3,-3.770760313532888,False,1.2127564746902804,True,0.5347166889687195,False,前期平均,34668391.78999996,未知,34668391.78999996
22,000626,74575047.05,46434495.45,2019-06-30,半年度报告,-10662851.85,2019,6,-5.597339417976405,False,1.082620482906489,True,1.0805051546624058,False,前期平均,168953261.87999997,未知,168953261.87999997
23,000626,108812481.42,67736573.88,2019-09-30,三季度报告,43409522.69000001,2019,9,1.3100709407283813,False,0.8591306951246666,True,1.4454035393211913,False,前期平均,244090258.885,未知,244090258.885
24,000626,196512057.99,169154970.3,2019-12-31,年度报告,27392171.89,2019,12,0.45266885500793197,True,0.029757966325403853,True,0.0,True,比例外推,169154970.3,未知,169154970.3
25,000626,-120582016.65,-163659414.64999998,2020-03-31,一季度报告,-110663626.09,2020,3,4.412229836350889,False,0.2912127091618446,True,0.48867417076819064,False,盈利变化,-4831802.726666659,未知,-4831802.726666659
