,SECURITYCODE_x,NETPROFIT_x,PARENTNETPROFIT_x,REPORTDATE_x,REPORTTIMETYPE_x,KCFJCXSYJLR,Year,Month,managesituationChangeRate,managesituationGreatChange,historyprofitextroplaterate,ifhistoryprofitextroplate,IfprofitdisStableChangeRage,IfprofitdisStable,predicttype,predict,analyst_prediction,adj_prediction
0,000656,946284139.53,984071530.24,2013-12-31,年度报告,889884963.6899998,2013,12,未知,未知,未知,未知,未知,未知,未知,未知,未知,未知
1,000656,251701672.89,205656935.19,2014-03-31,一季度报告,175218909.47000003,2014,3,未知,未知,未知,未知,未知,未知,未知,未知,未知,未知
2,000656,492943652.03,451476735.49000007,2014-06-30,半年度报告,311178840.07,2014,6,未知,未知,未知,未知,未知,未知,未知,未知,未知,未知
3,000656,689786602.74,665702601.1000001,2014-09-30,三季度报告,509322079.1399999,2014,9,未知,未知,未知,未知,未知,未知,未知,未知,未知,未知
4,000656,863039064.86,907884138.79,2014-12-31,年度报告,694906306.7800001,2014,12,0.0,True,未知,未知,未知,未知,未知,未知,未知,未知
5,000656,94851907.82000004,118872480.73000002,2015-03-31,一季度报告,50400399.28000001,2015,3,2.7595464847925353,False,未知,未知,未知,未知,未知,未知,1137140000.0,未知
6,000656,500483486.75999993,468558442.3000001,2015-06-30,半年度报告,351642409.84,2015,6,0.9196598549004344,False,未知,未知,未知,未知,未知,未知,1579459108.9999998,未知
7,000656,828952268.3299999,804829153.6300001,2015-09-30,三季度报告,756046343.9699999,2015,9,0.37185056330628835,True,未知,未知,未知,未知,未知,未知,1209000000.0,未知
8,000656,1233646080.9699998,1266959610.26,2015-12-31,年度报告,1017915209.7999998,2015,12,0.09645574349928616,True,未知,未知,未知,未知,未知,未知,1209000000.0,未知
9,000656,410669270.06,290394867.19000006,2016-03-31,一季度报告,228429253.84000003,2016,3,8.976437599186285,False,未知,未知,未知,未知,未知,未知,1600040000.0,未知
10,000656,899282589.0200002,666623317.69,2016-06-30,半年度报告,557317324.6700001,2016,6,0.8907399835626898,False,未知,未知,未知,未知,未知,未知,1619900909.0,未知
11,000656,1313198620.9599998,1008575573.4499996,2016-09-30,三季度报告,1001476005.8900003,2016,9,0.14154237304444056,True,未知,未知,未知,未知,未知,未知,1690264748.0,未知
12,000656,1790348973.75,1395260332.2300005,2016-12-31,年度报告,1361585483.37,2016,12,-0.23293710073966342,True,0.3636547389397071,True,0.0,True,比例外推,1395260332.2300005,1767104851.0,1767104851.0
13,000656,118573368.07,151163650.67000002,2017-03-31,一季度报告,67034852.99,2017,3,1.30424871914995,False,1.3700189114690042,True,0.10696264034700709,False,前期平均,894764754.585,1858124554.0,1858124554.0
14,000656,494879619.78,455592274.7699999,2017-06-30,半年度报告,403047541.44000006,2017,6,0.05226560714493542,True,0.8104651139596039,True,0.05540253476184659,True,比例外推,1058011706.6081328,1658490000.0,1658490000.0
15,000656,1083664963.7200005,947598082.1199998,2017-09-30,三季度报告,638425363.2199997,2017,9,-0.279405168093895,True,0.7293277283866575,True,0.005673907853966154,True,比例外推,1175343838.607223,1511725000.0,1511725000.0
16,000656,2285397810.36,2004605156.41,2017-12-31,年度报告,1695432393.1999998,2017,12,-0.47145268693178427,True,0.7077900106372597,True,0.0,True,比例外推,2004605156.41,1511725000.0,1511725000.0
17,000656,208972406.57,170770053.20000002,2018-03-31,一季度报告,139547461.51,2018,3,6.980579070431394,False,0.5308866442855663,True,0.08216078398747319,True,前期平均,1221105573.2249997,2455082500.0,2455082500.0
18,000656,792630709.59,666661529.8099997,2018-06-30,半年度报告,598552075.3400003,2018,6,0.9121501506784075,False,0.29291096799265526,True,0.09310582554867186,True,前期平均,1401932009.1399994,2562400000.0,2562400000.0
19,000656,2408191875.51,2191389141.15,2018-09-30,三季度报告,2103598379.4800005,2018,9,-0.12677426030126526,True,0.011754091775648304,True,0.24171660102753906,False,平均增速,4615309790.139824,3136333333.0,3136333333.0
20,000656,4020503992.35,3885918469.56,2018-12-31,年度报告,4018633585.480001,2018,12,-0.5859433595147536,True,0.5115089601703146,True,0.0,True,比例外推,3885918469.56,,3885918469.56
21,000656,224704965.87000003,252588925.68000004,2019-03-31,一季度报告,261408702.9,2019,3,3.5282731584613347,False,0.2102964065466348,True,0.08709020232469714,True,前期平均,1633365810.55,5133482239.0,5133482239.0
22,000656,3166857952.7499995,2589997663.59,2019-06-30,半年度报告,2577185804.3900003,2019,6,0.19385248146577547,True,0.13707100161930588,True,0.1439867502066724,False,平均增速,13044212879.010159,5160916667.0,5160916667.0
23,000656,4662481786.360001,3980571190.62,2019-09-30,三季度报告,4041916395.480001,2019,9,-0.6070561697540822,True,1.0094525953854085,True,0.19034223871445566,False,平均增速,7551307457.289877,5324375000.0,5324375000.0
24,000656,6356997869.3600025,5675826256.49,2019-12-31,年度报告,5734927891.03,2019,12,-0.7646354433845759,True,0.9728919411895882,True,0.0,True,比例外推,5675826256.49,5354951111.0,5675826256.49
25,000656,505651999.63,396883427.60999984,2020-03-31,一季度报告,410522378.44,2020,3,3.2112293151432163,False,0.3720522947790699,True,0.005633375406973874,True,前期平均,3150625259.7000003,7161981686.0,7161981686.0
