,SECURITYCODE_x,NETPROFIT_x,PARENTNETPROFIT_x,REPORTDATE_x,REPORTTIMETYPE_x,KCFJCXSYJLR,Year,Month,managesituationChangeRate,managesituationGreatChange,historyprofitextroplaterate,ifhistoryprofitextroplate,IfprofitdisStableChangeRage,IfprofitdisStable,predicttype,predict,analyst_prediction,adj_prediction
0,000709,137128173.72999996,116175938.09,2013-12-31,年度报告,-61373156.56,2013,12,未知,未知,未知,未知,未知,未知,未知,未知,未知,未知
1,000709,178818229.96,162524250.10999998,2014-03-31,一季度报告,158398278.63,2014,3,未知,未知,未知,未知,未知,未知,未知,未知,未知,未知
2,000709,357137828.08,332930424.06,2014-06-30,半年度报告,278594443.8499999,2014,6,未知,未知,未知,未知,未知,未知,未知,未知,未知,未知
3,000709,526156600.7800001,500420826.2599998,2014-09-30,三季度报告,443832027.45,2014,9,未知,未知,未知,未知,未知,未知,未知,未知,未知,未知
4,000709,717290973.6,697171309.66,2014-12-31,年度报告,587425209.1699997,2014,12,0.0,True,未知,未知,未知,未知,未知,未知,未知,未知
5,000709,160989060.23000005,189725086.73999995,2015-03-31,一季度报告,159136014.16,2015,3,-0.23314209205250344,True,未知,未知,未知,未知,未知,未知,991437600.0,未知
6,000709,301464458.55999994,356995478.9,2015-06-30,半年度报告,312106566.39,2015,6,-0.6160357068104171,True,未知,未知,未知,未知,未知,未知,719260000.0,未知
7,000709,392172792.22,507517221.44,2015-09-30,三季度报告,460117888.86,2015,9,-0.7393776424609813,True,未知,未知,未知,未知,未知,未知,563566667.0,未知
8,000709,401751758.39000016,573452575.17,2015-12-31,年度报告,494119302.5899999,2015,12,-0.8088248998286295,True,未知,未知,未知,未知,未知,未知,973900000.0,未知
9,000709,70468864.52,116844682.35,2016-03-31,一季度报告,108372353.81,2016,3,-0.14821433497351177,True,未知,未知,未知,未知,未知,未知,985997726.0,未知
10,000709,371233267.03,409004857.28000015,2016-06-30,半年度报告,397431279.7599999,2016,6,-0.5451265652176123,True,未知,未知,未知,未知,未知,未知,826553333.0,未知
11,000709,857720751.6600003,933346901.43,2016-09-30,三季度报告,926825065.26,2016,9,-0.6503373603412188,True,未知,未知,未知,未知,未知,未知,1190633333.0,未知
12,000709,1429754080.0899994,1555479163.0900002,2016-12-31,年度报告,1532262527.9999998,2016,12,-0.6586743657836517,True,0.05959092877202878,True,0.0,True,比例外推,1555479163.0900002,1234975000.0,1234975000.0
13,000709,673688626.04,649296986.39,2017-03-31,一季度报告,649175857.1499999,2017,3,0.9459398794638044,False,0.5852421854716655,True,0.15008476392030312,False,前期平均,1031302095.8749998,2022666667.0,2022666667.0
14,000709,1293163004.98,1250802208.72,2017-06-30,半年度报告,1252937037.57,2017,6,-0.6306145329402324,True,0.12733670854356038,True,0.19571830439582893,False,平均增速,4158050943.2879047,3220773333.0,3220773333.0
15,000709,2329772140.53,2195077146.61,2017-09-30,三季度报告,2196913005.07,2017,9,-0.8401249200691399,True,0.868002392601192,True,0.16731573085129836,False,平均增速,3509313389.7589164,2947360000.0,2947360000.0
16,000709,2125843391.33,1817062368.93,2017-12-31,年度报告,1841396361.8800004,2017,12,-0.9040896783302985,True,1.5553163238859689,True,0.0,True,比例外推,1817062368.93,2068086667.0,2068086667.0
17,000709,428788773.19000006,372878986.42,2018-03-31,一季度报告,371909759.52,2018,3,-0.7964517012316933,True,4.821262130191978,False,0.17771709836820976,False,未知,未知,2191500000.0,未知
18,000709,2180505417.93,1822010712.2399995,2018-06-30,半年度报告,1790367425.0499997,2018,6,-0.8939590962609383,True,2.844707528469229,False,0.2644396332934391,False,未知,未知,3697750000.0,未知
19,000709,3939528887.649999,3371098747.2700005,2018-09-30,三季度报告,3333752751.31,2018,9,-0.9411409505056556,True,2.727952915570347,False,0.3048366021548695,False,未知,未知,4359336667.0,未知
20,000709,4381279591.77,3626314344.62,2018-12-31,年度报告,3565881352.339999,2018,12,-0.9354946962277367,True,1.3214159045152447,True,0.0,True,比例外推,3626314344.62,,3626314344.62
21,000709,439754047.17,369664413.79999983,2019-03-31,一季度报告,365165744.03999984,2019,3,-0.680196445653587,True,0.15241404844913717,True,0.17668903357700141,False,平均增速,4443569082.09808,2242000000.0,2242000000.0
22,000709,1393043138.0600002,1168460906.84,2019-06-30,半年度报告,1148651493.44,2019,6,-0.9371117482201999,True,1.6201758013994143,True,0.22125316643321213,False,平均增速,3131027628.871334,2119722500.0,2119722500.0
23,000709,2061092375.4600003,1783371340.7899997,2019-09-30,三季度报告,1762505426.9500003,2019,9,-0.9651917329100232,True,1.471866774857844,True,0.3060749474394219,False,平均增速,2026852743.5355577,2241000000.0,2026852743.5355577
24,000709,2873118509.510001,2559475686.5999994,2019-12-31,年度报告,2528671580.9799995,2019,12,-0.9687013415013304,True,1.4644407174810194,True,0.0,True,比例外推,2559475686.5999994,2402000000.0,2559475686.5999994
25,000709,233962889.95999995,229403276.95,2020-03-31,一季度报告,227150952.34,2020,3,-0.6881707522364451,True,0.2022438782379827,True,0.152128001315352,False,平均增速,2333270283.8677683,1374500000.0,1374500000.0
