,SECURITYCODE_x,NETPROFIT_x,PARENTNETPROFIT_x,REPORTDATE_x,REPORTTIMETYPE_x,KCFJCXSYJLR,Year,Month,managesituationChangeRate,managesituationGreatChange,historyprofitextroplaterate,ifhistoryprofitextroplate,IfprofitdisStableChangeRage,IfprofitdisStable,predicttype,predict,analyst_prediction,adj_prediction
0,000715,50444546.36000001,50444546.36000001,2013-12-31,年度报告,123926181.29,2013,12,未知,未知,未知,未知,未知,未知,未知,未知,未知,未知
1,000715,14546667.660000002,14546667.660000002,2014-03-31,一季度报告,14178762.13,2014,3,未知,未知,未知,未知,未知,未知,未知,未知,未知,未知
2,000715,33984013.95,33984013.95,2014-06-30,半年度报告,57036084.2,2014,6,未知,未知,未知,未知,未知,未知,未知,未知,未知,未知
3,000715,42107725.22,42107725.22,2014-09-30,三季度报告,40814102.98,2014,9,未知,未知,未知,未知,未知,未知,未知,未知,未知,未知
4,000715,83690595.64000002,83690595.64000002,2014-12-31,年度报告,109688954.62,2014,12,0.0,True,未知,未知,未知,未知,未知,未知,未知,未知
5,000715,11300062.35,11300062.35,2015-03-31,一季度报告,11066366.88,2015,3,2.467773344317952,False,未知,未知,未知,未知,未知,未知,未知,未知
6,000715,25362839.45000001,25362839.45000001,2015-06-30,半年度报告,47320788.44999999,2015,6,0.4843610420540097,True,未知,未知,未知,未知,未知,未知,未知,未知
7,000715,31570579.939999994,31570579.939999994,2015-09-30,三季度报告,64710640.32999998,2015,9,0.1979879249340273,True,未知,未知,未知,未知,未知,未知,47000000.0,未知
8,000715,69869014.25999998,69869014.25999998,2015-12-31,年度报告,101261895.77,2015,12,-0.3972495239848672,True,未知,未知,未知,未知,未知,未知,,未知
9,000715,9947013.0,9947013.0,2016-03-31,一季度报告,16782901.21,2016,3,3.4640945153722984,False,未知,未知,未知,未知,未知,未知,60710000.0,未知
10,000715,24559903.68,24559903.68,2016-06-30,半年度报告,38137028.65,2016,6,0.9889155730944781,False,未知,未知,未知,未知,未知,未知,69925000.0,未知
11,000715,31245228.899999995,31245228.899999995,2016-09-30,三季度报告,53789205.25,2016,9,0.5978340105208728,False,未知,未知,未知,未知,未知,未知,79050000.0,未知
12,000715,88671089.25,88671089.25,2016-12-31,年度报告,85703205.53000002,2016,12,-0.27801262270162697,True,0.041770459526556586,True,0.0,True,比例外推,88671089.25,,88671089.25
13,000715,16000418.339999998,16000418.339999998,2017-03-31,一季度报告,15973843.64,2017,3,4.071326071454818,False,0.23030781873362408,True,0.05103456401171538,True,前期平均,108853279.03,123730000.0,123730000.0
14,000715,34455237.98,34455237.98,2017-06-30,半年度报告,36956798.19000001,2017,6,1.0539390959044677,False,0.17232667705344615,True,0.04255332043662041,True,前期平均,87752226.85,123750000.0,123750000.0
15,000715,52339793.51,52339793.51,2017-09-30,三季度报告,55992729.92999999,2017,9,0.6144719733514263,False,0.15184724099861485,True,0.1741617704485664,False,前期平均,105052847.05000001,123750000.0,123750000.0
16,000715,84576880.11000001,84576880.11000001,2017-12-31,年度报告,91775313.19,2017,12,-0.43110492059281874,True,0.1548751564000947,True,0.0,True,比例外推,84576880.11000001,,84576880.11000001
17,000715,17065401.47,17065401.47,2018-03-31,一季度报告,18390208.08,2018,3,2.1527017161727544,False,0.5061290155400138,True,0.05043680808302091,True,前期平均,96623318.07500002,90060000.0,96623318.07500002
18,000715,39870075.78,39870075.78,2018-06-30,半年度报告,42263633.74,2018,6,0.46406030889356265,True,0.3803423377708928,True,0.03564161631568358,True,比例外推,94026241.80416349,92000000.0,94026241.80416349
19,000715,61792199.96000001,61792199.96000001,2018-09-30,三季度报告,64386438.38,2018,9,-0.03621044377330007,True,0.6664529033866694,True,0.015483630630635514,True,比例外推,100326857.38250816,92000000.0,100326857.38250816
20,000715,90287114.32,90287114.32,2018-12-31,年度报告,94847884.08,2018,12,-0.40356577004977917,True,0.06694619515831575,True,0.0,True,比例外推,90287114.32,,90287114.32
21,000715,20252904.28,20252904.28,2019-03-31,一季度报告,19771665.42000001,2019,3,1.9559542709076396,False,0.31538272489364655,True,0.01386993117833274,True,前期平均,92613791.215,98000000.0,92613791.215
22,000715,88356656.29,88356656.29,2019-06-30,半年度报告,56344272.31999999,2019,6,0.2652232375566356,True,0.3511812276822383,True,0.028402596687166604,True,比例外推,162714143.63239223,145000000.0,145000000.0
23,000715,118004047.9,118004047.9,2019-09-30,三季度报告,84535216.8,2019,9,-0.18364216854790227,True,0.4785471889185562,True,0.03998312864653075,True,比例外推,165791670.6173742,145000000.0,145000000.0
24,000715,154319737.05,154319737.05,2019-12-31,年度报告,122963885.68,2019,12,-0.44128742246416264,True,0.04228770649990359,True,0.0,True,比例外推,154319737.05,,154319737.05
25,000715,-22680696.440000005,-22680696.440000005,2020-03-31,一季度报告,-405101.54,2020,3,1.4907314853511964,False,0.22500542229864673,True,0.01764564196801069,True,盈利变化,127417381.10333334,107000000.0,107000000.0
