,SECURITYCODE_x,NETPROFIT_x,PARENTNETPROFIT_x,REPORTDATE_x,REPORTTIMETYPE_x,KCFJCXSYJLR,Year,Month,managesituationChangeRate,managesituationGreatChange,historyprofitextroplaterate,ifhistoryprofitextroplate,IfprofitdisStableChangeRage,IfprofitdisStable,predicttype,predict,analyst_prediction,adj_prediction
0,000727,-14520979.5,10349584.97,2013-12-31,年度报告,-109771723.33,2013,12,未知,未知,未知,未知,未知,未知,未知,未知,未知,未知
1,000727,-9520055.47,-7623054.369999999,2014-03-31,一季度报告,-18374390.65,2014,3,未知,未知,未知,未知,未知,未知,未知,未知,未知,未知
2,000727,7399906.810000001,4832696.199999998,2014-06-30,半年度报告,-16177344.139999995,2014,6,未知,未知,未知,未知,未知,未知,未知,未知,未知,未知
3,000727,7008795.400000001,4649422.48,2014-09-30,三季度报告,-25130915.250000004,2014,9,未知,未知,未知,未知,未知,未知,未知,未知,未知,未知
4,000727,11501040.470000004,8905105.48,2014-12-31,年度报告,-25864650.41,2014,12,-0.0,False,未知,未知,未知,未知,未知,未知,未知,未知
5,000727,-10200295.28,-7573469.06,2015-03-31,一季度报告,-14529905.19,2015,3,0.5253040852292428,False,未知,未知,未知,未知,未知,未知,未知,未知
6,000727,-9843965.470000004,-6545873.42,2015-06-30,半年度报告,-18222218.430000003,2015,6,-2.962319238990524,False,未知,未知,未知,未知,未知,未知,-5500000.0,未知
7,000727,-20427337.46,-15067208.970000004,2015-09-30,三季度报告,-26839026.480000004,2015,9,-3.0718224275743586,False,未知,未知,未知,未知,未知,未知,-48670000.0,未知
8,000727,17357657.200000007,10536077.88,2015-12-31,年度报告,-139885362.62,2015,12,-2.2625796368491518,False,未知,未知,未知,未知,未知,未知,未知,未知
9,000727,-29124568.42,-22814805.45,2016-03-31,一季度报告,-39884360.88,2016,3,0.42358422980868854,False,未知,未知,未知,未知,未知,未知,519000000.0,未知
10,000727,-32249876.72000001,-27037822.46,2016-06-30,半年度报告,-89144206.35,2016,6,0.47511483499748536,False,未知,未知,未知,未知,未知,未知,53666667.0,未知
11,000727,-49762338.55000001,-39759144.47000001,2016-09-30,三季度报告,-118501720.21,2016,9,-0.28913988284403663,False,未知,未知,未知,未知,未知,未知,36500000.0,未知
12,000727,83454880.78000002,23596977.820000004,2016-12-31,年度报告,-419325875.3,2016,12,-1.8365748518181355,False,-12.495369295584773,True,0.0,True,前期平均,23596977.820000004,1293245000.0,1293245000.0
13,000727,-413417346.98,-249547893.90000004,2017-03-31,一季度报告,-259171596.21,2017,3,-0.5014182084831045,False,-1.953757647540828,True,0.40727517923799295,False,前期平均,-315970752.495,444000000.0,444000000.0
14,000727,-328288820.94999987,-222894546.4,2017-06-30,半年度报告,-236796119.18,2017,6,-0.5497353485697295,False,-25.39042773220506,True,0.3026894622592288,False,前期平均,-288569771.63,151000000.0,151000000.0
15,000727,-384247003.46000016,-275627248.09,2017-09-30,三季度报告,-298421399.19000006,2017,9,-0.708193386341567,False,-6.416951607334309,True,0.48959949871672775,False,前期平均,-332517283.74,151000000.0,151000000.0
16,000727,62675566.04,11646221.839999998,2017-12-31,年度报告,-455079217.31,2017,12,-1.1739979658982385,False,4.783690015004061,False,0.0,True,去年同期,11646221.839999998,733333333.0,733333333.0
17,000727,-400086828.11,-239631174.99000007,2018-03-31,一季度报告,-248593411.0,2018,3,-0.9648757373001513,False,-20.025748500178526,True,0.31334399342915403,False,前期平均,-492029660.9150001,未知,-492029660.9150001
18,000727,-1627068261.5299995,-955101510.9400004,2018-06-30,半年度报告,-977835497.54,2018,6,-0.9557676698890346,False,-14.597949907646562,True,0.2326087258518531,False,前期平均,-1181023917.5100005,未知,-1181023917.5100005
19,000727,-2690163690.8700004,-1575038373.2,2018-09-30,三季度报告,-1602605972.15,2018,9,-0.962209257666959,False,-9.948818267953138,True,0.2790163642856228,False,前期平均,-1781973618.815,未知,-1781973618.815
20,000727,-1629829893.8099992,-987357576.85,2018-12-31,年度报告,-1568220302.39,2018,12,-1.2316848561165383,False,0.2434081572757164,True,0.0,True,盈利变化,-359400806.5200001,,-359400806.5200001
21,000727,-494044006.71,-290077435.92999995,2019-03-31,一季度报告,-291614570.9299998,2019,3,-0.9637054297223512,False,-0.8081307744527377,True,0.29512754193342144,False,前期平均,-577752003.6899999,未知,-577752003.6899999
22,000727,-1628418853.39,-956970961.26,2019-06-30,半年度报告,-976313606.78,2019,6,-0.9910753716710414,False,-8.025762127865956,True,0.23956458409051656,False,前期平均,-1231203344.8,未知,-1231203344.8
23,000727,-3046953948.170001,-1797073202.6699996,2019-09-30,三季度报告,-1834056205.3900003,2019,9,-0.9946021948220913,False,-11.396800854153113,True,0.370827502008283,False,前期平均,-2025814189.2749996,未知,-2025814189.2749996
24,000727,-9679827288.29,-5640540252.559999,2019-12-31,年度报告,-5689716749.18,2019,12,-0.991090493826902,False,23.306506676429787,False,0.0,True,去年同期,-5640540252.559999,未知,-5640540252.559999
25,000727,-746538677.3800001,-459350985.08,2020-03-31,一季度报告,-465538288.17,2020,3,-0.9706079229728948,False,-0.214607181715675,True,0.30974838010185873,False,前期平均,-1217118241.325,未知,-1217118241.325
