,SECURITYCODE_x,NETPROFIT_x,PARENTNETPROFIT_x,REPORTDATE_x,REPORTTIMETYPE_x,KCFJCXSYJLR,Year,Month,managesituationChangeRate,managesituationGreatChange,historyprofitextroplaterate,ifhistoryprofitextroplate,IfprofitdisStableChangeRage,IfprofitdisStable,predicttype,predict,analyst_prediction,adj_prediction
0,000710,-6229471.7799999975,-6156854.770000001,2013-12-31,年度报告,-6176728.699999997,2013,12,未知,未知,未知,未知,未知,未知,未知,未知,未知,未知
1,000710,-1455664.14,-1455664.14,2014-03-31,一季度报告,-1466582.27,2014,3,未知,未知,未知,未知,未知,未知,未知,未知,未知,未知
2,000710,-4674365.539999999,-4605072.47,2014-06-30,半年度报告,416052.78,2014,6,未知,未知,未知,未知,未知,未知,未知,未知,未知,未知
3,000710,-7215555.67,-7129120.670000003,2014-09-30,三季度报告,-2097633.1100000003,2014,9,未知,未知,未知,未知,未知,未知,未知,未知,未知,未知
4,000710,6791204.4300000025,6878248.23,2014-12-31,年度报告,-19756032.5,2014,12,-0.0,False,未知,未知,未知,未知,未知,未知,未知,未知
5,000710,-5524773.699999998,-5524773.699999998,2015-03-31,一季度报告,-5444098.86,2015,3,3.279470524017991,False,未知,未知,未知,未知,未知,未知,未知,未知
6,000710,-4834536.07,-4834536.07,2015-06-30,半年度报告,-4448995.449999998,2015,6,0.33268819622523543,False,未知,未知,未知,未知,未知,未知,未知,未知
7,000710,-7681753.310000001,-7681753.310000001,2015-09-30,三季度报告,-8161949.159999997,2015,9,-0.13666083876254018,False,未知,未知,未知,未知,未知,未知,未知,未知
8,000710,-13008739.61,-13008739.61,2015-12-31,年度报告,36875492.66,2015,12,-1.9172852686456379,False,未知,未知,未知,未知,未知,未知,未知,未知
9,000710,-13008739.61,-13008739.61,2015-12-31,年度报告,-13009166.32,2015,12,-1.9172852686456379,False,未知,未知,未知,未知,未知,未知,未知,未知
10,000710,-877960.3299999998,-877960.3299999998,2016-03-31,一季度报告,-972680.33,2016,3,0.12755238825438214,False,未知,未知,未知,未知,未知,未知,未知,未知
11,000710,-1642680.44,-1642680.44,2016-06-30,半年度报告,-1399850.24,2016,6,0.28853558848305316,False,未知,未知,未知,未知,未知,未知,未知,未知
12,000710,97166644.92,91918668.45,2016-09-30,三季度报告,92178296.66,2016,9,-0.18905599690495706,False,未知,未知,0.0,True,未知,未知,未知,未知
13,000710,157733674.23,151021790.20000002,2016-12-31,年度报告,142202757.24,2016,12,-0.5211317954883719,False,47.316480304286685,False,0.12088792485742456,False,盈利变化,22100348.583333336,未知,22100348.583333336
14,000710,42343515.34,38770309.41,2017-03-31,一季度报告,38282700.64000001,2017,3,6.095390950067184,False,-0.7484512146303991,True,0.07013154966058287,True,盈利变化,203362298.16000003,未知,203362298.16000003
15,000710,98913304.19000004,97077387.92000002,2017-06-30,半年度报告,92152849.32,2017,6,2.7922602767462172,False,-0.65449627993364,True,0.47053197584932804,False,盈利变化,213390256.57333335,未知,213390256.57333335
16,000710,170803624.83,159859790.61,2017-09-30,三季度报告,148493936.70000002,2017,9,-1.0641112162010833,False,-14.04485864533636,True,0.0,True,前期平均,173549311.82500002,228526667.00000003,228526667.00000003
17,000710,244446127.56,232749588.92000008,2017-12-31,年度报告,224411705.43,2017,12,-1.0394936072491183,False,-51.73832947093999,True,0.0,True,前期平均,232749588.92000008,227895000.0,232749588.92000008
18,000710,244446127.56,232749588.92000008,2017-12-31,年度报告,224411705.43,2017,12,-1.0394936072491183,False,-51.73832947093999,True,0.1652191482702875,False,前期平均,232749588.92000008,227895000.0,232749588.92000008
19,000710,252768173.23000008,241068873.44,2017-12-31,年度报告,224411705.43,2017,12,-1.0394936072491183,False,-51.73832947093999,True,0.0,True,前期平均,241068873.44,227895000.0,241068873.44
20,000710,252768173.23000008,241068873.44,2017-12-31,年度报告,224411705.43,2017,12,-1.0394936072491183,False,-51.73832947093999,True,0.1652191482702875,False,前期平均,241068873.44,227895000.0,241068873.44
21,000710,65969830.36,65667179.26000001,2018-03-31,一季度报告,65828456.68000001,2018,3,-1.1471174920169016,False,-14.226698201611857,True,0.31725898613681824,False,前期平均,158414693.80500004,318943333.0,318943333.0
22,000710,145715006.58,145868860.42000002,2018-06-30,半年度报告,141702100.88000005,2018,6,-1.0629791091402019,False,-31.541916898189356,True,0.5841988695941829,False,前期平均,238332408.21500003,321286667.0,321286667.0
23,000710,237776004.1900001,238986232.7,2018-09-30,三季度报告,229130275.85,2018,9,-1.036471543190024,False,2.8174852035226152,False,0.0,True,去年同期,314904001.42999995,326493333.0,314904001.42999995
24,000710,259770920.01999995,268091948.88,2018-12-31,年度报告,253604491.56,2018,12,-1.0254840272667889,False,2.378078949585778,False,0.14794763234988081,False,去年同期,268091948.88,313000000.0,313000000.0
25,000710,166625153.50000003,167685430.87,2019-03-31,一季度报告,71247945.92999998,2019,3,-1.0944291010906884,False,2.1819099174768284,False,0.3296941069418084,False,去年同期,355461465.75,422640000.0,422640000.0
26,000710,248855646.3,250826232.01,2019-06-30,半年度报告,154950200.63,2019,6,-1.0427510654270185,False,1.9960742711902253,True,0.1656895214196561,False,前期平均,388756963.805,361440000.0,388756963.805
27,000710,310545632.87999994,313384818.36000013,2019-09-30,三季度报告,215501375.94,2019,9,-1.0261989085114838,False,0.7746446604829011,True,0.0,True,前期平均,376355933.0150001,416350000.0,376355933.0150001
28,000710,387130302.67000014,390618298.15000015,2019-12-31,年度报告,293859059.18000007,2019,12,-1.0239806356289627,False,0.29181484929787965,True,0.05361492534601195,True,前期平均,390618298.15000015,,390618298.15000015
29,000710,60048341.04999999,62393298.10000001,2020-03-31,一季度报告,61104583.87000001,2020,3,-1.0373861427830582,False,2.0767243394273627,False,未知,未知,去年同期,285004411.3500001,368260000.0,368260000.0
