,SECURITYCODE_x,NETPROFIT_x,PARENTNETPROFIT_x,REPORTDATE_x,REPORTTIMETYPE_x,KCFJCXSYJLR,Year,Month,managesituationChangeRate,managesituationGreatChange,historyprofitextroplaterate,ifhistoryprofitextroplate,IfprofitdisStableChangeRage,IfprofitdisStable,predicttype,predict,analyst_prediction,adj_prediction
0,000779,-33248506.17,-33248506.17,2013-12-31,年度报告,-36883764.99,2013,12,未知,未知,未知,未知,未知,未知,未知,未知,未知,未知
1,000779,-11456225.21,-11456225.21,2014-03-31,一季度报告,-11456225.21,2014,3,未知,未知,未知,未知,未知,未知,未知,未知,未知,未知
2,000779,-14465065.430000005,-14465065.430000005,2014-06-30,半年度报告,-14555266.989999998,2014,6,未知,未知,未知,未知,未知,未知,未知,未知,未知,未知
3,000779,6070036.329999999,6070036.329999999,2014-09-30,三季度报告,-20661710.51,2014,9,未知,未知,未知,未知,未知,未知,未知,未知,未知,未知
4,000779,10050925.28,10050925.28,2014-12-31,年度报告,-35381688.97,2014,12,-0.0,False,未知,未知,未知,未知,未知,未知,未知,未知
5,000779,-9935844.69,-9935844.69,2015-03-31,一季度报告,-9935844.69,2015,3,1.902221766815284,False,未知,未知,未知,未知,未知,未知,未知,未知
6,000779,-17285406.790000007,-17285406.790000007,2015-06-30,半年度报告,-17441906.79,2015,6,1.298538249335799,False,未知,未知,未知,未知,未知,未知,未知,未知
7,000779,-23058434.07,-23058434.07,2015-09-30,三季度报告,-23402721.78,2015,9,-6.477480588654072,False,未知,未知,未知,未知,未知,未知,未知,未知
8,000779,-79062776.92,-79062776.92,2015-12-31,年度报告,-82291932.58000001,2015,12,-4.3080045114015615,False,未知,未知,未知,未知,未知,未知,-31200000.0,未知
9,000779,-15564197.32,-15564197.32,2016-03-31,一季度报告,-17054902.900000002,2016,3,2.3463190304759087,False,未知,未知,未知,未知,未知,未知,16300000.0,未知
10,000779,-33427139.94,-33427139.94,2016-06-30,半年度报告,-36434394.46,2016,6,0.9235015162752782,False,未知,未知,未知,未知,未知,未知,,未知
11,000779,-48220101.87000001,-48220101.87000001,2016-09-30,三季度报告,-51269036.02000001,2016,9,0.4419238561068515,False,未知,未知,未知,未知,未知,未知,未知,未知
12,000779,13141277.820000002,13141277.820000002,2016-12-31,年度报告,-73065228.77999999,2016,12,-0.5794670075446169,False,-5.8164673976054395,True,0.0,True,盈利变化,-75987208.98666666,未知,-75987208.98666666
13,000779,-12869719.209999995,-12869719.209999995,2017-03-31,一季度报告,-12922541.62,2017,3,1.136217209690323,False,-0.4551371038666998,True,0.10524397447062048,False,前期平均,-61010495.035,未知,-61010495.035
14,000779,34934483.260000005,34934483.260000005,2017-06-30,半年度报告,-20280471.42000001,2017,6,-0.005343974097713355,False,-1.105615293428224,True,0.16204368217056683,False,盈利变化,23910559.846666664,未知,23910559.846666664
15,000779,88721097.64999999,88721097.64999999,2017-09-30,三季度报告,-25619086.97,2017,9,-0.3104845307121705,False,-4.676827515812566,True,0.2389605335649549,False,盈利变化,24541255.175555564,未知,24541255.175555564
16,000779,277442476.75,275481211.13,2017-12-31,年度报告,-37598265.93,2017,12,-3.5300816728338518,False,-1.380841189091735,True,0.0,True,前期平均,275481211.13,未知,275481211.13
17,000779,38101668.11,37972888.070000015,2018-03-31,一季度报告,26134122.85,2018,3,1.5834678773850277,False,-0.009388079043403611,True,0.11188090909783241,False,盈利变化,327556763.75666666,未知,327556763.75666666
18,000779,127051985.62,126245355.20999998,2018-06-30,半年度报告,114229484.73000002,2018,6,-1.9517388856891882,False,-2.377745174029441,True,0.20471721291723857,False,前期平均,75504925.15499997,-9820000.0,-9820000.0
19,000779,198262153.49,197692376.3599999,2018-09-30,三季度报告,191508493.03,2018,9,-1.37475309763596,False,-3.489419752523609,True,0.271435173389969,False,前期平均,157349674.5799999,,157349674.5799999
20,000779,238709967.65,237342173.91000003,2018-12-31,年度报告,-14371490.620000005,2018,12,-1.119839278251397,False,-9.417359451402403,True,0.0,True,前期平均,237342173.91000003,未知,237342173.91000003
21,000779,55095922.54000001,55280020.76999999,2019-03-31,一季度报告,42112607.57,2019,3,-1.8726259982636755,False,-3.680015471649836,True,1.4046868225831306,False,前期平均,14936995.674999997,未知,14936995.674999997
22,000779,183589511.09,183155529.69,2019-06-30,半年度报告,116792552.48,2019,6,-1.2616921412739115,False,167.5773691158822,False,5.644911194386106,False,去年同期,54554554.339999974,270400000.0,270400000.0
23,000779,241700626.15000004,241160315.64,2019-09-30,三季度报告,179387918.56,2019,9,-1.1676997126517998,False,8.790482908961213,False,9.34474832083933,False,去年同期,35280331.98999998,,35280331.98999998
24,000779,302624304.83,300663842.48999995,2019-12-31,年度报告,258245054.51,2019,12,-1.1392841132581,False,0.642968430931304,True,0.0,True,前期平均,300663842.48999995,未知,300663842.48999995
25,000779,56366224.43000001,56400516.50000001,2020-03-31,一季度报告,56172468.40999998,2020,3,-1.6034658217377404,False,3.367155526381079,False,1.3812375011957447,False,去年同期,272532963.44,未知,272532963.44
