,SECURITYCODE_x,NETPROFIT_x,PARENTNETPROFIT_x,REPORTDATE_x,REPORTTIMETYPE_x,KCFJCXSYJLR,Year,Month,managesituationChangeRate,managesituationGreatChange,historyprofitextroplaterate,ifhistoryprofitextroplate,IfprofitdisStableChangeRage,IfprofitdisStable,predicttype,predict,analyst_prediction,adj_prediction
0,000776,2812566206.84,2812501034.32,2013-12-31,年度报告,2813006866.4800005,2013,12,未知,未知,未知,未知,未知,未知,未知,未知,未知,未知
1,000776,826852973.96,826237415.47,2014-03-31,一季度报告,829154706.07,2014,3,未知,未知,未知,未知,未知,未知,未知,未知,未知,未知
2,000776,1676135763.11,1674990055.35,2014-06-30,半年度报告,1674448024.9100006,2014,6,未知,未知,未知,未知,未知,未知,未知,未知,未知,未知
3,000776,3076963446.030001,3040621503.2100005,2014-09-30,三季度报告,2984487723.94,2014,9,未知,未知,未知,未知,未知,未知,未知,未知,未知,未知
4,000776,5145512970.61,5022567778.39,2014-12-31,年度报告,4949461646.67,2014,12,0.0,True,未知,未知,未知,未知,未知,未知,未知,未知
5,000776,2629701372.29,2517292617.4,2015-03-31,一季度报告,2515753734.510001,2015,3,2.4015312218929763,False,未知,未知,未知,未知,未知,未知,9446412816.0,未知
6,000776,8637748027.12,8405961242.74,2015-06-30,半年度报告,8357156753.050001,2015,6,0.6780062025652391,False,未知,未知,未知,未知,未知,未知,12758714286.0,未知
7,000776,10698265700.48,10386017154.63,2015-09-30,三季度报告,10309432605.699995,2015,9,-0.0859279753651721,True,未知,未知,未知,未知,未知,未知,12412600000.0,未知
8,000776,13612353378.750002,13201014064.72,2015-12-31,年度报告,13164284247.619991,2015,12,-0.4533943995662359,True,未知,未知,未知,未知,未知,未知,12631833333.0,未知
9,000776,1884299564.46,1805589600.41,2016-03-31,一季度报告,1786171770.54,2016,3,0.06953825117821558,True,未知,未知,未知,未知,未知,未知,8938378650.0,未知
10,000776,4202832369.8000007,4030494238.690001,2016-06-30,半年度报告,4012692568.2,2016,6,-0.6743866343392554,True,未知,未知,未知,未知,未知,未知,8556866000.0,未知
11,000776,6456920107.709999,6185056526.179999,2016-09-30,三季度报告,6138135482.689998,2016,9,-0.7371007333727178,True,未知,未知,未知,未知,未知,未知,8373591888.0,未知
12,000776,8409322040.830002,8030106628.9299965,2016-12-31,年度报告,7937166162.740002,2016,12,-0.7933813405674109,True,2.4210148140576293,False,0.0,True,比例外推,8030106628.9299965,8403298956.0,8030106628.9299965
13,000776,2220902608.16,2138526804.04,2017-03-31,一季度报告,2109030336.57,2017,3,0.4926322013166847,True,0.09027625531435259,True,0.03048308482297893,True,比例外推,10869724896.203342,9183706154.0,9183706154.0
14,000776,4496520544.830001,4301426721.92,2017-06-30,半年度报告,4139359121.16,2017,6,-0.3307926751849393,True,0.18501459677464976,True,0.15459157511596133,False,平均增速,9526672408.529032,8988129072.0,9526672408.529032
15,000776,6695171320.89,6367235868.809999,2017-09-30,三季度报告,6141429956.89,2017,9,-0.5644105610844393,True,0.06253173155440668,True,0.11683091023236858,False,平均增速,8734645969.08217,8628734630.0,8734645969.08217
16,000776,9083370804.38,8595399060.760002,2017-12-31,年度报告,8347525250.470001,2017,12,-0.665541860189909,True,0.1033818149453955,True,0.0,True,比例外推,8595399060.760002,8653629682.0,8595399060.760002
17,000776,1546471367.4899998,1526316890.7699995,2018-03-31,一季度报告,1522187438.87,2018,3,0.2664068187889558,True,0.01599373182274524,True,0.03182779245427955,True,比例外推,6832155748.807464,9087290508.0,9087290508.0
18,000776,3008234607.41,2858275883.84,2018-06-30,半年度报告,2533880245.61,2018,6,-0.37450164437170735,True,0.29963904966343174,True,0.0894117792329232,True,比例外推,4970104141.114344,6519447472.0,6519447472.0
19,000776,4314583253.690001,4113683274.06,2018-09-30,三季度报告,3679169143.9,2018,9,-0.5799112416937942,True,0.21945802327670721,True,0.0283467431993496,True,比例外推,5249768434.564947,5885937556.0,5885937556.0
20,000776,4632045042.919999,4300126341.29,2018-12-31,年度报告,3902787567.06,2018,12,-0.6903609609899685,True,0.17505179498706483,True,0.0,True,比例外推,4300126341.29,5885937556.0,5885937556.0
21,000776,3174148898.4,2919149980.51,2019-03-31,一季度报告,2920550981.7300005,2019,3,0.818699179283827,False,0.24657967989770443,True,0.10078634986920804,False,前期平均,9113894633.560001,7149133650.0,7149133650.0
22,000776,4439763456.45,4140017091.62,2019-06-30,半年度报告,3878558816.439999,2019,6,-0.06504426220216393,True,0.30840037484835264,True,0.0990205729875222,True,比例外推,7310458023.890966,6977300000.0,7310458023.890966
23,000776,6063618544.969996,5615657404.96,2019-09-30,三季度报告,5298859239.73,2019,9,-0.34812563775781047,True,0.3438939689382504,True,0.12544873883880114,False,平均增速,5861621143.798796,7006803750.0,7006803750.0
24,000776,8110261525.8099985,7538921643.019999,2019-12-31,年度报告,7104856216.099998,2019,12,-0.39280249203557316,True,0.4704022892406316,True,0.0,True,比例外推,7538921643.019999,7041347143.0,7538921643.019999
25,000776,2166525080.1200004,2070542242.3100004,2020-03-31,一季度报告,2075970929.0899987,2020,3,-0.1139148487149622,True,0.6850723707897101,True,0.098594339910554,True,比例外推,5904847466.758202,8252729015.0,8252729015.0
