,SECURITYCODE_x,NETPROFIT_x,PARENTNETPROFIT_x,REPORTDATE_x,REPORTTIMETYPE_x,KCFJCXSYJLR,Year,Month,managesituationChangeRate,managesituationGreatChange,historyprofitextroplaterate,ifhistoryprofitextroplate,IfprofitdisStableChangeRage,IfprofitdisStable,predicttype,predict,analyst_prediction,adj_prediction
0,000798,52297452.58,54306788.36999999,2013-12-31,年度报告,-34461899.34,2013,12,未知,未知,未知,未知,未知,未知,未知,未知,未知,未知
1,000798,4608981.38,4747557.44,2014-03-31,一季度报告,5044797.45,2014,3,未知,未知,未知,未知,未知,未知,未知,未知,未知,未知
2,000798,-4114879.38,-3578254.6100000013,2014-06-30,半年度报告,-3308597.0800000015,2014,6,未知,未知,未知,未知,未知,未知,未知,未知,未知,未知
3,000798,15763942.609999998,16572806.84,2014-09-30,三季度报告,16832568.270000003,2014,9,未知,未知,未知,未知,未知,未知,未知,未知,未知,未知
4,000798,19494277.220000006,21048280.82,2014-12-31,年度报告,16248585.31,2014,12,0.0,True,未知,未知,未知,未知,未知,未知,未知,未知
5,000798,6088960.75,4375462.899999999,2015-03-31,一季度报告,4458161.550000002,2015,3,10.346856988170344,False,未知,未知,未知,未知,未知,未知,395330000.0,未知
6,000798,4974275.94,3828408.9,2015-06-30,半年度报告,3551119.969999999,2015,6,-13.709352510838363,False,未知,未知,未知,未知,未知,未知,,未知
7,000798,-8408737.04,-9441953.85,2015-09-30,三季度报告,-9978299.65,2015,9,2.3175363469557824,False,未知,未知,未知,未知,未知,未知,未知,未知
8,000798,-383619620.88,-266768107.29,2015-12-31,年度报告,-243690221.71000007,2015,12,1.6827079552529305,False,未知,未知,未知,未知,未知,未知,347355000.0,未知
9,000798,-11937116.670000002,-10562874.9,2016-03-31,一季度报告,-10970217.249999998,2016,3,7.588896320279286,False,未知,未知,未知,未知,未知,未知,20600000.0,未知
10,000798,-9773469.97,-7774338.389999999,2016-06-30,半年度报告,-25789347.440000005,2016,6,9.513580913245436,False,未知,未知,未知,未知,未知,未知,,未知
11,000798,-27547054.289999995,-24433223.54,2016-09-30,三季度报告,-27816823.7,2016,9,-7.21941824690477,False,未知,未知,未知,未知,未知,未知,未知,未知
12,000798,43692098.24,51199519.93999999,2016-12-31,年度报告,32521295.86,2016,12,-1.136326323612001,False,11.687014282806706,False,0.0,True,前期平均,51199519.93999999,未知,51199519.93999999
13,000798,-4285423.46,-3158966.83,2017-03-31,一季度报告,-4890610.800000002,2017,3,-5.381079118664591,False,3.2316659643400034,False,0.32552356622485096,False,去年同期,40332546.28,未知,40332546.28
14,000798,969279.22,2700045.6300000004,2017-06-30,半年度报告,-4667842.72,2017,6,-6.3509605841659935,False,23.744959486456388,False,0.4559338523053418,False,盈利变化,65280523.08666666,未知,65280523.08666666
15,000798,83156262.51000002,85649418.04000002,2017-09-30,三季度报告,76604026.14000002,2017,9,-2.8984771304198858,False,8.490492013535933,False,0.9620920755236779,False,盈利变化,97608786.53555556,未知,97608786.53555556
16,000798,50093835.35000001,54250588.34,2017-12-31,年度报告,32294820.27,2017,12,0.19695447659050205,True,-1.2399838352410717,True,0.0,True,比例外推,54250588.34,未知,54250588.34
17,000798,18306390.020000003,18427033.840000004,2018-03-31,一季度报告,-4417957.900000001,2018,3,-13.203567061258399,False,-0.46556402347083753,True,0.16830582005410788,False,盈利变化,54880792.20666667,未知,54880792.20666667
18,000798,-3881838.21,-2659197.7,2018-06-30,半年度报告,-26178350.09,2018,6,52.954992019740196,False,-1.4039341664208564,True,0.4756289416606619,False,盈利变化,39910250.093333334,未知,39910250.093333334
19,000798,58777651.44,60357820.09000001,2018-09-30,三季度报告,47276779.99000001,2018,9,-0.3710942387085888,True,-5.625472528016255,True,1.8528130883770568,False,平均增速,12051864.970686898,未知,12051864.970686898
20,000798,54203814.19000001,57240555.21999999,2018-12-31,年度报告,16222287.420000002,2018,12,0.0439897886557011,True,-1.2947324474402848,True,0.0,True,比例外推,57240555.21999999,未知,57240555.21999999
21,000798,-22776323.36000001,-22056022.97,2019-03-31,一季度报告,-20525630.16,2019,3,1.8567867571303929,False,-3.2569079654975095,True,0.10226337344053424,False,盈利变化,35763658.87333333,未知,35763658.87333333
22,000798,-46793412.72999999,-45348636.15,2019-06-30,半年度报告,-45210408.2,2019,6,-14.472342161318464,False,-0.11818398300831909,True,0.7633058834393073,False,前期平均,2288016.9949999973,未知,2288016.9949999973
23,000798,9259637.43,12430640.02,2019-09-30,三季度报告,7357722.47,2019,9,-0.1102493669148207,True,1.1139539051685483,True,2.332338666714033,False,平均增速,-1595247.406818062,未知,-1595247.406818062
24,000798,20351465.93,22477221.61,2019-12-31,年度报告,-44901776.79,2019,12,-0.03517024841310367,True,0.15590498735045988,True,0.0,True,比例外推,22477221.61,未知,22477221.61
25,000798,-13291232.15,-12317209.03,2020-03-31,一季度报告,-12042328.920000002,2020,3,-3.2961323367864224,False,4.248894897870723,False,0.44600698275069345,False,去年同期,-36693355.66,未知,-36693355.66
