,SECURITYCODE_x,NETPROFIT_x,PARENTNETPROFIT_x,REPORTDATE_x,REPORTTIMETYPE_x,KCFJCXSYJLR,Year,Month,managesituationChangeRate,managesituationGreatChange,historyprofitextroplaterate,ifhistoryprofitextroplate,IfprofitdisStableChangeRage,IfprofitdisStable,predicttype,predict,analyst_prediction,adj_prediction
0,000702,-25146545.58000001,-26239811.17,2013-12-31,年度报告,-36870845.83000001,2013,12,未知,未知,未知,未知,未知,未知,未知,未知,未知,未知
1,000702,3729958.33,3631663.81,2014-03-31,一季度报告,-6622356.329999999,2014,3,未知,未知,未知,未知,未知,未知,未知,未知,未知,未知
2,000702,5320717.54,5180233.73,2014-06-30,半年度报告,-9676624.889999997,2014,6,未知,未知,未知,未知,未知,未知,未知,未知,未知,未知
3,000702,12198168.440000005,11879133.64,2014-09-30,三季度报告,-3581536.27,2014,9,未知,未知,未知,未知,未知,未知,未知,未知,未知,未知
4,000702,26572532.75,26026759.27,2014-12-31,年度报告,-4804153.3500000015,2014,12,-0.0,False,未知,未知,未知,未知,未知,未知,未知,未知
5,000702,2103607.7,2308466.3600000003,2015-03-31,一季度报告,-16092706.160000002,2015,3,-7.7417765441899755,False,未知,未知,未知,未知,未知,未知,未知,未知
6,000702,3532301.1999999993,3819775.02,2015-06-30,半年度报告,-14410182.04,2015,6,-5.726156837109607,False,未知,未知,未知,未知,未知,未知,未知,未知
7,000702,8160356.010000003,8498737.969999999,2015-09-30,三季度报告,-9844334.62,2015,9,-3.0615017495200285,False,未知,未知,未知,未知,未知,未知,未知,未知
8,000702,4553248.44,4883278.4,2015-12-31,年度报告,-11623829.22,2015,12,-1.946336046194167,False,未知,未知,未知,未知,未知,未知,未知,未知
9,000702,-8120693.619999997,-7925257.6000000015,2016-03-31,一季度报告,-10038535.65,2016,3,-12.954009095897494,False,未知,未知,未知,未知,未知,未知,未知,未知
10,000702,-4894596.12,-4398139.169999999,2016-06-30,半年度报告,-7495218.48,2016,6,-8.119026423907457,False,未知,未知,未知,未知,未知,未知,未知,未知
11,000702,-4962368.97,-4276359.3999999985,2016-09-30,三季度报告,-8419834.309999999,2016,9,-4.081550063402197,False,未知,未知,未知,未知,未知,未知,未知,未知
12,000702,1271257.53,2024489.66,2016-12-31,年度报告,-3617510.5200000005,2016,12,-6.52277037182711,False,5.386100149835191,False,0.0,True,去年同期,2024489.66,未知,2024489.66
13,000702,-5737821.63,-5434717.19,2017-03-31,一季度报告,-6568910.510000003,2017,3,2.0966007039186905,False,3.7841267513689214,False,0.9290153217778616,False,去年同期,986307.9399999995,未知,986307.9399999995
14,000702,-3571170.97,-2788379.03,2017-06-30,半年度报告,-4384149.1,2017,6,4.137614006035703,False,2.105746246279831,False,0.5355756833268475,False,去年同期,1089328.9300000002,未知,1089328.9300000002
15,000702,16146442.7,17253040.29,2017-09-30,三季度报告,6381948.02,2017,9,4.067447771824998,False,1.4874979011556015,True,1.0208751161525746,False,前期平均,15751984.449999997,未知,15751984.449999997
16,000702,14825367.320000002,16113256.790000005,2017-12-31,年度报告,6455879.22,2017,12,-20.780842973649886,False,0.9183148193300013,True,0.0,True,前期平均,16113256.790000005,未知,16113256.790000005
17,000702,40414364.05,41282933.86,2018-03-31,一季度报告,-4262267.15,2018,3,3.3825945108718916,False,-0.9071762332421548,True,2.064819764474512,False,盈利变化,19188781.270000007,未知,19188781.270000007
18,000702,28152787.43,31487238.719999995,2018-06-30,半年度报告,-14998721.69,2018,6,6.0415406574611605,False,-4.242874971595722,True,1.556608565263156,False,盈利变化,9036875.063333338,未知,9036875.063333338
19,000702,46593053.44999999,49255123.03000002,2018-09-30,三季度报告,-5762303.699999997,2018,9,-2.5574046895171536,False,9.097878758132794,False,0.9398618089541757,False,去年同期,49329054.23000003,未知,49329054.23000003
20,000702,52777514.58000001,55763801.53999999,2018-12-31,年度报告,1453363.5699999996,2018,12,-2.696183645047117,False,4.090686625221195,False,0.0,True,去年同期,55763801.53999999,未知,55763801.53999999
21,000702,-5136956.800000002,-5143849.029999998,2019-03-31,一季度报告,-6343795.020000001,2019,3,-1.6222180200309255,False,-6.832423361514143,True,3.166722966389167,False,盈利变化,52988431.04666666,未知,52988431.04666666
22,000702,5061859.079999999,4526955.6099999985,2019-06-30,半年度报告,6944585.7,2019,6,-1.893216902323622,False,-7.6509714077191795,True,7.3442821489170385,False,前期平均,11885823.75,未知,11885823.75
23,000702,5264920.719999999,3279984.8900000006,2019-09-30,三季度报告,11598093.22,2019,9,-1.5397058942914166,False,7.332036174800859,False,3.748560238498868,False,去年同期,10495652.159999996,未知,10495652.159999996
24,000702,15340254.81,9366630.009999998,2019-12-31,年度报告,16057704.739999998,2019,12,-1.4764632396980906,False,5.557587701995802,False,0.0,True,去年同期,9366630.009999998,未知,9366630.009999998
25,000702,-2578542.12,-2640860.6500000004,2020-03-31,一季度报告,-1288631.0499999998,2020,3,3.8952223191754314,False,1.2962784892323762,True,1.484270857539642,False,前期平均,6729349.575000001,未知,6729349.575000001
