,SECURITYCODE_x,NETPROFIT_x,PARENTNETPROFIT_x,REPORTDATE_x,REPORTTIMETYPE_x,KCFJCXSYJLR,Year,Month,managesituationChangeRate,managesituationGreatChange,historyprofitextroplaterate,ifhistoryprofitextroplate,IfprofitdisStableChangeRage,IfprofitdisStable,predicttype,predict,analyst_prediction,adj_prediction
0,000726,1039811812.78,999256730.65,2013-12-31,年度报告,929001764.9400002,2013,12,未知,未知,未知,未知,未知,未知,未知,未知,未知,未知
1,000726,219701774.02,213792166.20000005,2014-03-31,一季度报告,227859696.84000003,2014,3,未知,未知,未知,未知,未知,未知,未知,未知,未知,未知
2,000726,481537123.32,476880256.93,2014-06-30,半年度报告,475996558.52,2014,6,未知,未知,未知,未知,未知,未知,未知,未知,未知,未知
3,000726,716071868.86,710139886.58,2014-09-30,三季度报告,671500090.12,2014,9,未知,未知,未知,未知,未知,未知,未知,未知,未知,未知
4,000726,979377181.5700004,958725402.8400004,2014-12-31,年度报告,876095180.4200001,2014,12,0.0,True,未知,未知,未知,未知,未知,未知,未知,未知
5,000726,152004531.27999997,152714080.35,2015-03-31,一季度报告,131929166.88,2015,3,3.73283302976581,False,未知,未知,未知,未知,未知,未知,1089028889.0,未知
6,000726,345410247.32,344521516.72,2015-06-30,半年度报告,308604457.41,2015,6,1.1593596057785247,False,未知,未知,未知,未知,未知,未知,878832500.0,未知
7,000726,560833290.8999999,548863683.96,2015-09-30,三季度报告,497518363.6,2015,9,0.4521053793600356,True,未知,未知,未知,未知,未知,未知,793250000.0,未知
8,000726,735543028.77,712193243.19,2015-12-31,年度报告,718263125.89,2015,12,0.061707207751276395,True,未知,未知,未知,未知,未知,未知,1298000000.0,未知
9,000726,151183204.04000002,150268522.20999998,2016-03-31,一季度报告,137542633.98,2016,3,5.840663261969569,False,未知,未知,未知,未知,未知,未知,802235000.0,未知
10,000726,342657085.44,344641184.73000014,2016-06-30,半年度报告,333236862.51000005,2016,6,2.0103675870874858,False,未知,未知,未知,未知,未知,未知,784600000.0,未知
11,000726,592127393.08,581161076.32,2016-09-30,三季度报告,556154288.3699999,2016,9,0.8540479490997352,False,未知,未知,未知,未知,未知,未知,779704000.0,未知
12,000726,856387149.0400001,808760025.9099997,2016-12-31,年度报告,762785364.0199997,2016,12,0.4136655125653336,True,0.2714470702562644,True,0.0,True,比例外推,808760025.9099997,779704000.0,808760025.9099997
13,000726,166898360.43000004,159008371.61999995,2017-03-31,一季度报告,156062830.19000003,2017,3,5.877826272982592,False,0.18654485068268203,True,0.05205891851036512,True,前期平均,776293092.915,897494172.0,897494172.0
14,000726,411957743.81,395130296.25999993,2017-06-30,半年度报告,387141210.63000005,2017,6,2.034555119281411,False,0.17127232613411142,True,0.07336994900237825,True,前期平均,800008941.45,907698750.0,907698750.0
15,000726,623551339.5799999,594084424.9300001,2017-09-30,三季度报告,568286391.2199999,2017,9,0.7560609843961653,False,0.07255853960008568,True,0.03705339825847764,True,前期平均,806754351.2250001,844300000.0,806754351.2250001
16,000726,883319109.5999998,841150934.75,2017-12-31,年度报告,780637833.4699997,2017,12,0.21418427862400408,True,0.0012513190100983066,True,0.0,True,比例外推,841150934.75,,841150934.75
17,000726,165048841.75999996,159278371.57000002,2018-03-31,一季度报告,138044830.06000006,2018,3,5.230209872050327,False,0.1009572023343681,True,0.011946600049379863,True,前期平均,765066716.0949999,926882000.0,926882000.0
18,000726,390164336.95,377355959.02,2018-06-30,半年度报告,366432917.21,2018,6,1.5240739575939957,False,0.1974343910719916,True,0.04177882426056695,True,前期平均,796959544.0149997,887432000.0,887432000.0
19,000726,639621672.74,586896015.5300001,2018-09-30,三季度报告,590563214.17,2018,9,0.6675640749651456,False,0.08165238978923663,True,0.023916490304235927,True,前期平均,800583934.5,866748333.0,800583934.5
20,000726,858193572.0999999,811526477.8299999,2018-12-31,年度报告,805197824.28,2018,12,0.17716440353120627,True,0.10974604528845824,True,0.0,True,比例外推,811526477.8299999,870208750.0,811526477.8299999
21,000726,197478933.36,195173391.82,2019-03-31,一季度报告,175390785.72999996,2019,3,5.3000248998536215,False,0.03777684843201026,True,0.01602523844129186,True,前期平均,820082258.4799995,897740000.0,820082258.4799995
22,000726,420697509.9900001,411446216.59000015,2019-06-30,半年度报告,376816535.93,2019,6,1.6650611404118492,False,0.03407545631664378,True,0.033301967776478814,True,前期平均,822968778.7649999,883513333.0,822968778.7649999
23,000726,604518125.2899997,587899371.12,2019-09-30,三季度报告,549259289.55,2019,9,0.6256669482847141,False,0.0522873446020692,True,0.003263504253145033,True,前期平均,797390630.0699998,801500000.0,797390630.0699998
24,000726,989326675.9099998,952386011.49,2019-12-31,年度报告,662416012.9999999,2019,12,0.2116285259927783,True,0.013404052738322372,True,0.0,True,比例外推,952386011.49,945245000.0,952386011.49
25,000726,106686559.36,103518808.5,2020-03-31,一季度报告,103615262.08,2020,3,4.265431583451205,False,0.18982134542569204,True,0.052729849134747125,True,前期平均,749382807.2499998,660000000.0,660000000.0
