,SECURITYCODE_x,NETPROFIT_x,PARENTNETPROFIT_x,REPORTDATE_x,REPORTTIMETYPE_x,KCFJCXSYJLR,Year,Month,managesituationChangeRate,managesituationGreatChange,historyprofitextroplaterate,ifhistoryprofitextroplate,IfprofitdisStableChangeRage,IfprofitdisStable,predicttype,predict,analyst_prediction,adj_prediction
0,000786,1258063632.86,905509806.1,2013-12-31,年度报告,818034178.6200001,2013,12,未知,未知,未知,未知,未知,未知,未知,未知,未知,未知
1,000786,131734496.06000005,89684645.55000003,2014-03-31,一季度报告,88878506.35000002,2014,3,未知,未知,未知,未知,未知,未知,未知,未知,未知,未知
2,000786,566412865.4100001,418336997.98,2014-06-30,半年度报告,391617350.6,2014,6,未知,未知,未知,未知,未知,未知,未知,未知,未知,未知
3,000786,954421750.7100002,712829220.7,2014-09-30,三季度报告,673162194.9799999,2014,9,未知,未知,未知,未知,未知,未知,未知,未知,未知,未知
4,000786,1469126562.9900002,1105451605.15,2014-12-31,年度报告,969898547.76,2014,12,0.0,True,未知,未知,未知,未知,未知,未知,未知,未知
5,000786,115384997.04999998,80558906.42999999,2015-03-31,一季度报告,81567414.53999999,2015,3,8.549993892920803,False,未知,未知,未知,未知,未知,未知,1360828889.0,未知
6,000786,528470948.44,382642207.87,2015-06-30,半年度报告,353704457.05999994,2015,6,1.221107092878877,False,未知,未知,未知,未知,未知,未知,1097450000.0,未知
7,000786,858367507.6700001,623052922.5999999,2015-09-30,三季度报告,610582875.38,2015,9,0.31814224887909215,True,未知,未知,未知,未知,未知,未知,1190409009.0,未知
8,000786,1215781009.57,896876216.4799998,2015-12-31,年度报告,854611776.6800003,2015,12,-0.1436655870549643,True,未知,未知,未知,未知,未知,未知,1400666667.0,未知
9,000786,138188415.52,100774380.42,2016-03-31,一季度报告,112608184.01,2016,3,9.90318208627107,False,未知,未知,未知,未知,未知,未知,1136954454.0,未知
10,000786,610308190.2700001,459450068.98,2016-06-30,半年度报告,465243126.25,2016,6,1.3805729275633667,False,未知,未知,未知,未知,未知,未知,1217962195.0,未知
11,000786,1039628785.64,782277533.4700001,2016-09-30,三季度报告,790899595.6100001,2016,9,0.46564684895279523,True,未知,未知,未知,未知,未知,未知,1186342845.0,未知
12,000786,1465397146.4700005,1171068643.95,2016-12-31,年度报告,1149031360.43,2016,12,0.03477815737963745,True,0.1084002784843762,True,0.0,True,比例外推,1171068643.95,1067000000.0,1171068643.95
13,000786,151562320.98999998,149669158.15000004,2017-03-31,一季度报告,175173403.44,2017,3,8.103973210242941,False,0.11839348471379683,True,0.003390902883388988,True,前期平均,976701359.9250002,1648861818.0,1648861818.0
14,000786,687218378.86,682324347.4499999,2017-06-30,半年度报告,736784373.4700001,2017,6,1.061357938361327,False,0.11483644666175101,True,0.006360985169177824,True,前期平均,1221918605.8400002,1685039333.0,1685039333.0
15,000786,1575776032.14,1564635000.56,2017-09-30,三季度报告,1565771011.77,2017,9,0.2101085024165914,True,0.14699354139936233,True,0.015513356623433672,True,比例外推,2239062197.9261975,2235957647.0,2239062197.9261975
16,000786,2354897830.36,2343985433.41,2017-12-31,年度报告,2397740596.39,2017,12,-0.14148622720430903,True,0.09158107448203627,True,0.0,True,比例外推,2343985433.41,1629866961.0,1629866961.0
17,000786,492543410.2099999,490481564.84,2018-03-31,一季度报告,474546541.7300001,2018,3,7.30063583509655,False,0.19541177013706493,True,0.015777045876945714,True,前期平均,1395215334.1200001,3304950000.0,3304950000.0
18,000786,1303700227.56,1298643422.7599998,2018-06-30,半年度报告,1242556669.42,2018,6,0.8306606335921239,False,0.2069388268535996,True,0.06807069811542371,True,前期平均,1890991199.6599998,3026490526.0,3026490526.0
19,000786,2053654306.75,2043047233.46,2018-09-30,三季度报告,1990395454.41,2018,9,-0.20162281491775666,True,0.6604627076398915,True,0.03224542232331773,True,比例外推,2957215865.0409403,2795263529.0,2957215865.0409403
20,000786,2480669345.07,2465980208.4400005,2018-12-31,年度报告,2549015359.4600005,2018,12,-0.4657672122158794,True,0.7566142145795309,True,0.0,True,比例外推,2465980208.4400005,2795263529.0,2795263529.0
21,000786,329413965.77,328033639.2499999,2019-03-31,一季度报告,323851446.53000003,2019,3,1.5542187892101007,False,2.3997733095874363,False,0.06709224491768463,True,去年同期,2402502456.9800005,2725535625.0,2725535625.0
22,000786,-685481352.4,-691438663.56,2019-06-30,半年度报告,1098304503.27,2019,6,-0.035005435862670145,True,1.0095160416393467,True,0.09260003224811109,True,比例外推,956822816.1051245,859282778.0,859282778.0
23,000786,-772561.47,-10835394.910000002,2019-09-30,三季度报告,1841950332.91,2019,9,-0.38740243247124584,True,0.5704293979952032,True,0.07345319968788233,True,比例外推,751062055.6608287,483818667.0,483818667.0
24,000786,456591698.92,441144299.54,2019-12-31,年度报告,2371690463.72,2019,12,-0.4928531545890089,True,0.2986794790010726,True,0.0,True,比例外推,441144299.54,477840000.0,441144299.54
25,000786,33546478.31,33233210.4,2020-03-31,一季度报告,29951316.750000004,2020,3,2.819096224166744,False,0.02285680692915411,True,0.058867320033227546,True,前期平均,2181751215.7400007,2677406667.0,2677406667.0
