,SECURITYCODE_x,NETPROFIT_x,PARENTNETPROFIT_x,REPORTDATE_x,REPORTTIMETYPE_x,KCFJCXSYJLR,Year,Month,managesituationChangeRate,managesituationGreatChange,historyprofitextroplaterate,ifhistoryprofitextroplate,IfprofitdisStableChangeRage,IfprofitdisStable,predicttype,predict,analyst_prediction,adj_prediction
0,000713,56490199.74,55768436.48,2013-12-31,年度报告,10827771.5,2013,12,未知,未知,未知,未知,未知,未知,未知,未知,未知,未知
1,000713,14084997.17,14101919.2,2014-03-31,一季度报告,13209200.17,2014,3,未知,未知,未知,未知,未知,未知,未知,未知,未知,未知
2,000713,14544407.070000002,14588071.9,2014-06-30,半年度报告,-2745572.22,2014,6,未知,未知,未知,未知,未知,未知,未知,未知,未知,未知
3,000713,-25811289.71,-25857950.62,2014-09-30,三季度报告,-70617214.46000001,2014,9,未知,未知,未知,未知,未知,未知,未知,未知,未知,未知
4,000713,61015075.03000001,60968414.11999999,2014-12-31,年度报告,5052197.56,2014,12,0.0,True,未知,未知,未知,未知,未知,未知,未知,未知
5,000713,20284207.44,20284207.44,2015-03-31,一季度报告,20218758.44,2015,3,3.010664614141346,False,未知,未知,未知,未知,未知,未知,,未知
6,000713,8122676.6099999985,8122676.6099999985,2015-06-30,半年度报告,1091533.11,2015,6,2.8839809328851516,False,未知,未知,未知,未知,未知,未知,未知,未知
7,000713,-48152782.33999999,-48152782.33999999,2015-09-30,三季度报告,-65847155.28,2015,9,-3.188584932201747,False,未知,未知,未知,未知,未知,未知,未知,未知
8,000713,30434443.230000004,30434443.230000004,2015-12-31,年度报告,13737047.86,2015,12,-0.07415995617108079,True,未知,未知,未知,未知,未知,未知,23910077.0,未知
9,000713,14190882.97,14190882.97,2016-03-31,一季度报告,13723342.069999995,2016,3,1.7849350243087434,False,未知,未知,未知,未知,未知,未知,未知,未知
10,000713,-4025489.58,-4254078.42,2016-06-30,半年度报告,-9643536.889999997,2016,6,5.954628683659981,False,未知,未知,未知,未知,未知,未知,未知,未知
11,000713,-78311705.36999999,-78043963.14999999,2016-09-30,三季度报告,-92960166.81999998,2016,9,-2.173145081028354,False,未知,未知,未知,未知,未知,未知,未知,未知
12,000713,22220010.910000004,21383787.22,2016-12-31,年度报告,-50768786.88999999,2016,12,0.856127260587313,False,0.48199017806526334,True,0.0,True,前期平均,21383787.22,未知,21383787.22
13,000713,-5242817.9,-5849433.990000001,2017-03-31,一季度报告,-4703150.24,2017,3,2.980738891260126,False,0.17420940455101205,True,1.542336094448292,False,盈利变化,-3184869.193333328,未知,-3184869.193333328
14,000713,-24145575.13,-23793803.73,2017-06-30,半年度报告,-23184879.39,2017,6,-15.03312531739307,False,1.3551837225140557,True,0.4520971852280857,False,前期平均,-13572161.465000002,未知,-13572161.465000002
15,000713,-41384301.77,-40415806.31,2017-09-30,三季度报告,-84872451.25,2017,9,-1.7213506521547484,False,-1.117560680462833,True,8.330899679451687,False,前期平均,37211001.27000001,未知,37211001.27000001
16,000713,14625584.73,11657551.56,2017-12-31,年度报告,-106158562.2,2017,12,1.5423119713490723,False,0.514048595710995,True,0.0,True,前期平均,11657551.56,未知,11657551.56
17,000713,15344038.58,15467865.830000002,2018-03-31,一季度报告,14507152.89,2018,3,-11.77477814745387,False,1.3041510747411555,True,1.0565635790063774,False,前期平均,-20019053.939999994,未知,-20019053.939999994
18,000713,2053732.38,2039976.72,2018-06-30,半年度报告,-2210610.22,2018,6,-3.3395673714896517,False,12.786415876650869,False,0.08314351565407681,True,盈利变化,25640397.673333336,未知,25640397.673333336
19,000713,-19242187.980000004,-21080577.45,2018-09-30,三季度报告,-25378162.35,2018,9,-2.3650151705821565,False,-0.3455190066495228,True,4.072445241627631,False,前期平均,39807214.08499999,19600000.0,19600000.0
20,000713,57369701.69000001,53189563.65999999,2018-12-31,年度报告,-59856643.90000001,2018,12,2.8624233343729024,False,0.4444692298542173,True,0.0,True,前期平均,53189563.65999999,,53189563.65999999
21,000713,36957197.93,36582733.89,2019-03-31,一季度报告,35397176.489999995,2019,3,2.6815731038131947,False,2.4295768884032043,False,0.20042723772616247,False,去年同期,-37781062.90000002,未知,-37781062.90000002
22,000713,28233398.92,26915620.32,2019-06-30,半年度报告,21841042.58,2019,6,26.506115348875202,False,-1.1458043848283077,True,0.11149506967922776,False,前期平均,-35133846.08499999,未知,-35133846.08499999
23,000713,9197726.7,6017735.38,2019-09-30,三季度报告,-1029173.47,2019,9,-3.9357472132958544,False,-0.6784823748131585,True,0.8128764141866565,False,盈利变化,64011336.49555555,未知,64011336.49555555
24,000713,63562986.87000001,57228862.54000001,2019-12-31,年度报告,43020583.2,2019,12,-0.015330425714124194,True,2.114060212272362,False,0.0,True,比例外推,57228862.54000001,未知,57228862.54000001
25,000713,19412978.6,20966887.01,2020-03-31,一季度报告,19909973.67,2020,3,0.5285303784934434,False,6.317372642530962,False,0.6145514924279201,False,去年同期,28590293.72000001,未知,28590293.72000001
