,SECURITYCODE_x,NETPROFIT_x,PARENTNETPROFIT_x,REPORTDATE_x,REPORTTIMETYPE_x,KCFJCXSYJLR,Year,Month,managesituationChangeRate,managesituationGreatChange,historyprofitextroplaterate,ifhistoryprofitextroplate,IfprofitdisStableChangeRage,IfprofitdisStable,predicttype,predict,analyst_prediction,adj_prediction
0,000757,55066633.93,55066633.93,2013-12-31,年度报告,35032771.47000001,2013,12,未知,未知,未知,未知,未知,未知,未知,未知,未知,未知
1,000757,4034776.92,4034776.92,2014-03-31,一季度报告,5535108.3999999985,2014,3,未知,未知,未知,未知,未知,未知,未知,未知,未知,未知
2,000757,10218792.87,10218792.87,2014-06-30,半年度报告,13154875.780000005,2014,6,未知,未知,未知,未知,未知,未知,未知,未知,未知,未知
3,000757,13443580.029999996,13443580.029999996,2014-09-30,三季度报告,17892680.560000002,2014,9,未知,未知,未知,未知,未知,未知,未知,未知,未知,未知
4,000757,18178358.730000004,18178358.730000004,2014-12-31,年度报告,14801454.009999998,2014,12,0.0,True,未知,未知,未知,未知,未知,未知,未知,未知
5,000757,4181580.73,4181580.73,2015-03-31,一季度报告,5020209.990000001,2015,3,12.647999634636554,False,未知,未知,未知,未知,未知,未知,21000000.0,未知
6,000757,18123504.880000006,18123504.880000006,2015-06-30,半年度报告,20685751.58,2015,6,4.388761141412587,False,未知,未知,未知,未知,未知,未知,27000000.0,未知
7,000757,17231950.709999993,17231950.709999993,2015-09-30,三季度报告,21508632.19,2015,9,3.0961286954156675,False,未知,未知,未知,未知,未知,未知,23000000.0,未知
8,000757,15033461.959999995,15033461.959999995,2015-12-31,年度报告,19036776.76,2015,12,2.0292412394262387,False,未知,未知,未知,未知,未知,未知,41000000.0,未知
9,000757,7263331.6,7263331.6,2016-03-31,一季度报告,6966445.57,2016,3,12.168855867096939,False,未知,未知,未知,未知,未知,未知,29000000.0,未知
10,000757,16629597.199999996,16629597.199999996,2016-06-30,半年度报告,16419694.3,2016,6,2.0384097499136704,False,未知,未知,未知,未知,未知,未知,,未知
11,000757,20509144.08,20509144.08,2016-09-30,三季度报告,20395244.950000007,2016,9,2.1956123167207005,False,未知,未知,未知,未知,未知,未知,未知,未知
12,000757,26319822.37,26319822.37,2016-12-31,年度报告,25280559.77,2016,12,2.662937657109023,False,0.5895019873977009,True,0.0,True,前期平均,26319822.37,,26319822.37
13,000757,12937916.36,12937916.36,2017-03-31,一季度报告,12773912.4,2017,3,6.581456687176447,False,0.7680173890677701,True,0.06954589612534229,True,前期平均,24579372.549999997,未知,24579372.549999997
14,000757,21648977.44,21648977.44,2017-06-30,半年度报告,22296590.200000007,2017,6,2.311363063562358,False,0.1734826404468206,True,0.22545948103445013,False,前期平均,21647779.145,未知,21647779.145
15,000757,28051553.86,28051553.86,2017-09-30,三季度报告,28679725.17,2017,9,1.684979622513823,False,0.3371663723657553,True,0.24172677661350084,False,前期平均,25270012.869999997,未知,25270012.869999997
16,000757,47095174.43000001,47095174.43000001,2017-12-31,年度报告,47553460.54999998,2017,12,1.092211457808558,False,0.5849671486348136,True,0.0,True,前期平均,47095174.43000001,未知,47095174.43000001
17,000757,13436789.969999995,13436789.969999995,2018-03-31,一季度报告,13315695.609999998,2018,3,3.2562212026852215,False,1.2609026590944623,True,0.006265788893741964,True,前期平均,29602130.454999994,未知,29602130.454999994
18,000757,60187282.64999999,60187282.64999999,2018-06-30,半年度报告,24768137.12,2018,6,1.5436136225194383,False,0.24587309588451003,True,0.35162264607124827,False,前期平均,63793227.974999994,未知,63793227.974999994
19,000757,110314824.58,108778535.88000004,2018-09-30,三季度报告,72048588.02,2018,9,0.9630511095687303,False,0.48652570976465864,True,0.283277224722144,False,前期平均,109985265.57500003,未知,109985265.57500003
20,000757,132815576.09,131579009.58000004,2018-12-31,年度报告,42093821.24,2018,12,0.16926276622774558,True,1.2776993505125067,True,0.0,True,比例外推,131579009.58000004,未知,131579009.58000004
21,000757,-21075211.87,-21152395.59,2019-03-31,一季度报告,5305348.38,2019,3,3.098198606433976,False,0.33029305878585874,True,0.02949333455001074,True,盈利变化,120898546.60666671,未知,120898546.60666671
22,000757,68180369.79999998,68185004.45,2019-06-30,半年度报告,167526.36000000002,2019,6,-0.08507858295875387,True,2.144698213872678,False,0.10005120626341568,False,未知,未知,未知,未知
23,000757,102618454.79,101732136.65999997,2019-09-30,三季度报告,9325028.68,2019,9,-0.5008229026365733,True,3.543378874673563,False,0.6711257374789121,False,未知,未知,未知,未知
24,000757,140779067.48999998,139497166.76,2019-12-31,年度报告,40132634.98,2019,12,-0.5853902414827826,True,2.618213767735259,False,0.0,True,比例外推,139497166.76,未知,139497166.76
25,000757,-30426450.780000005,-30419841.33,2020-03-31,一季度报告,-31968691.23,2020,3,-3.6128626497172194,False,2.598138125695673,False,0.10685504727575773,False,去年同期,4407445.269999996,未知,4407445.269999996
