,SECURITYCODE_x,NETPROFIT_x,PARENTNETPROFIT_x,REPORTDATE_x,REPORTTIMETYPE_x,KCFJCXSYJLR,Year,Month,managesituationChangeRate,managesituationGreatChange,historyprofitextroplaterate,ifhistoryprofitextroplate,IfprofitdisStableChangeRage,IfprofitdisStable,predicttype,predict,analyst_prediction,adj_prediction
0,000703,502116936.36,426933201.17000014,2013-12-31,年度报告,365406241.02,2013,12,未知,未知,未知,未知,未知,未知,未知,未知,未知,未知
1,000703,-157399648.32,-147558155.52999997,2014-03-31,一季度报告,-73111057.78,2014,3,未知,未知,未知,未知,未知,未知,未知,未知,未知,未知
2,000703,-50978324.20000001,-60370063.21,2014-06-30,半年度报告,22583041.19,2014,6,未知,未知,未知,未知,未知,未知,未知,未知,未知,未知
3,000703,40862384.74,12233979.689999998,2014-09-30,三季度报告,91550961.32,2014,9,未知,未知,未知,未知,未知,未知,未知,未知,未知,未知
4,000703,-396459484.19,-352682419.34000015,2014-12-31,年度报告,-270567336.13,2014,12,0.0,True,未知,未知,未知,未知,未知,未知,未知,未知
5,000703,71368759.94,51359514.87000001,2015-03-31,一季度报告,26656300.45,2015,3,-4.190076608933557,False,未知,未知,未知,未知,未知,未知,460665000.0,未知
6,000703,154993709.54000002,110341772.11000004,2015-06-30,半年度报告,106814243.64000005,2015,6,-10.849616366165288,False,未知,未知,未知,未知,未知,未知,333650000.0,未知
7,000703,2690824.76,9799799.98,2015-09-30,三季度报告,-5819169.240000001,2015,9,11.287998841841455,False,未知,未知,未知,未知,未知,未知,144470000.0,未知
8,000703,162138750.38,184605841.36,2015-12-31,年度报告,-428222158.8,2015,12,-2.2665025214010632,False,未知,未知,未知,未知,未知,未知,152988750.0,未知
9,000703,167650201.34,151610265.36999995,2016-03-31,一季度报告,163423317.88,2016,3,6.035528384998306,False,未知,未知,未知,未知,未知,未知,744310909.0,未知
10,000703,399170377.9400001,351997728.61,2016-06-30,半年度报告,268778396.98,2016,6,2.23959558004137,False,未知,未知,未知,未知,未知,未知,712208159.0,未知
11,000703,563951337.83,502800134.31,2016-09-30,三季度报告,399435195.83,2016,9,185.60335813172765,False,未知,未知,未知,未知,未知,未知,700491429.0000001,未知
12,000703,888645393.45,830337431.1000001,2016-12-31,年度报告,519613629.1399999,2016,12,2.0968348724978005,False,2.0691398864913584,False,0.0,True,去年同期,830337431.1000001,786589905.0,830337431.1000001
13,000703,497525904.16,450116886.68,2017-03-31,一季度报告,398697835.58,2017,3,1.995027338748557,False,-4.897442058240432,True,0.23640691259372246,False,前期平均,123949517.88,1341683380.0,1341683380.0
14,000703,953570588.8,852048507.04,2017-06-30,半年度报告,844828229.4300001,2017,6,0.25790129756440483,True,6.675217981171016,False,0.4558112574848052,False,未知,未知,1614340000.0,未知
15,000703,1515124565.23,1351014230.39,2017-09-30,三季度报告,1352411498.8199995,2017,9,-0.10964492381191879,True,24.89711960630594,False,0.6207363552043439,False,未知,未知,1712362343.0,未知
16,000703,1906547080.15,1684556358.8000007,2017-12-31,年度报告,1588002050.65,2017,12,-0.43496366485328347,True,-8.584863524459275,True,0.0,True,比例外推,1684556358.8000007,1734023529.0,1684556358.8000007
17,000703,827501089.58,741294148.1400001,2018-03-31,一季度报告,643600603.51,2018,3,0.009227724951831958,True,3.1630664069129706,False,0.2300252232245083,False,未知,未知,2758089388.0,未知
18,000703,1444843079.1,1240284622.1399994,2018-06-30,半年度报告,973345339.1000004,2018,6,-0.4734349588194849,True,2.44147378129917,False,0.5160486398111497,False,未知,未知,3025660952.0,未知
19,000703,2849378938.7300005,2440142165.2900004,2018-09-30,三季度报告,2274484319.17,2018,9,-0.6685969273531135,True,4.347729714656918,False,0.5310603092492988,False,未知,未知,3085039474.0,未知
20,000703,2153863581.9500012,1872494729.34,2018-12-31,年度报告,1536880249.1699998,2018,12,-0.7366354381762786,True,2.6288082406741164,False,0.0,True,比例外推,1872494729.34,3085401500.0,3085401500.0
21,000703,534221798.9500001,443760028.67,2019-03-31,一季度报告,411237818.85,2019,3,-0.39321296046286713,True,1.4880661910066162,True,0.09065450055683427,True,比例外推,1285851573.226133,3483344091.0,3483344091.0
22,000703,1592848874.8400006,1276796952.98,2019-06-30,半年度报告,1071886354.83,2019,6,-0.6524764913067437,True,1.136171099455883,True,0.07245932220327744,True,比例外推,2116037597.7110128,3203692353.0,3203692353.0
23,000703,2729127925.26,2213626783.79,2019-09-30,三季度报告,1900882279.0199995,2019,9,-0.8237802176695392,True,1.7410052076850706,True,0.4465042278954605,False,平均增速,1163386921.718274,3171092632.0,3171092632.0
24,000703,4020682052.55,3201348425.3299994,2019-12-31,年度报告,2725438479.51,2019,12,-0.7668761658965382,True,0.5411200497230767,True,0.0,True,比例外推,3201348425.3299994,3150288000.0,3201348425.3299994
25,000703,882468507.6800002,811550417.1600003,2020-03-31,一季度报告,729510068.7900003,2020,3,-0.0600965042106133,True,0.19364390088066932,True,0.1451947061312719,False,平均增速,4450075331.792266,4118665000.0,4450075331.792266
