,SECURITYCODE_x,NETPROFIT_x,PARENTNETPROFIT_x,REPORTDATE_x,REPORTTIMETYPE_x,KCFJCXSYJLR,Year,Month,managesituationChangeRate,managesituationGreatChange,historyprofitextroplaterate,ifhistoryprofitextroplate,IfprofitdisStableChangeRage,IfprofitdisStable,predicttype,predict,analyst_prediction,adj_prediction
0,000777,62093893.15000001,64282469.11000001,2013-12-31,年度报告,58558857.65000001,2013,12,未知,未知,未知,未知,未知,未知,未知,未知,未知,未知
1,000777,17649043.119999994,18566512.84,2014-03-31,一季度报告,16486719.43,2014,3,未知,未知,未知,未知,未知,未知,未知,未知,未知,未知
2,000777,34215978.53,36286775.07,2014-06-30,半年度报告,32073028.34,2014,6,未知,未知,未知,未知,未知,未知,未知,未知,未知,未知
3,000777,49753172.85,52260322.1,2014-09-30,三季度报告,46113317.69000001,2014,9,未知,未知,未知,未知,未知,未知,未知,未知,未知,未知
4,000777,71099233.46,71937235.62,2014-12-31,年度报告,50598788.85,2014,12,0.0,True,未知,未知,未知,未知,未知,未知,未知,未知
5,000777,18397478.37,19474128.67,2015-03-31,一季度报告,16430554.969999995,2015,3,2.5182583400022898,False,未知,未知,未知,未知,未知,未知,,未知
6,000777,32807305.95000001,34956847.77,2015-06-30,半年度报告,27162683.340000004,2015,6,0.8147630381389537,False,未知,未知,未知,未知,未知,未知,73400000.0,未知
7,000777,48670873.34000001,51088334.96,2015-09-30,三季度报告,38148229.66,2015,9,0.24803886050053212,True,未知,未知,未知,未知,未知,未知,59300000.0,未知
8,000777,83656656.82,86647497.91000001,2015-12-31,年度报告,68864113.58000001,2015,12,-0.12665875385374345,True,未知,未知,未知,未知,未知,未知,未知,未知
9,000777,10930358.689999998,12268591.400000002,2016-03-31,一季度报告,8399714.680000003,2016,3,2.375130651125207,False,未知,未知,未知,未知,未知,未知,97000000.0,未知
10,000777,28186888.34,30225268.31000001,2016-06-30,半年度报告,23404555.58000001,2016,6,0.892684917336225,False,未知,未知,未知,未知,未知,未知,,未知
11,000777,44609337.43000001,47199542.27,2016-09-30,三季度报告,37229771.00000001,2016,9,0.2757916365344596,True,未知,未知,未知,未知,未知,未知,未知,未知
12,000777,102235911.03,105422658.05,2016-12-31,年度报告,47143008.12000001,2016,12,-0.2577531124199183,True,0.25617077921675774,True,0.0,True,比例外推,105422658.05,,105422658.05
13,000777,-13800511.74,-13360706.34,2017-03-31,一季度报告,-16278950.689999998,2017,3,4.680865094281734,False,0.39354155473602126,True,0.07829850926879586,True,盈利变化,72517770.89,141200000.0,141200000.0
14,000777,327182.85,2304296.86,2017-06-30,半年度报告,-4132490.44,2017,6,1.202935364876108,False,0.15889265771774977,True,0.12561380718539472,False,前期平均,32417892.235,,32417892.235
15,000777,1587489.53,4797844.81,2017-09-30,三季度报告,-4872057.2,2017,9,0.3919483392336052,True,0.09352766611758412,True,0.19771479467362885,False,平均增速,9218738.48296854,未知,9218738.48296854
16,000777,40033670.70999999,44560926.65000001,2017-12-31,年度报告,31760174.56,2017,12,-0.3926410737242881,True,0.3212538901753526,True,0.0,True,比例外推,44560926.65000001,142000000.0,142000000.0
17,000777,-15695141.1,-15695141.1,2018-03-31,一季度报告,-18246039.14,2018,3,-5.499390625495748,False,1.9411203227681872,True,0.480628754921704,False,前期平均,29893284.925000012,未知,29893284.925000012
18,000777,27826639.12,27826639.12,2018-06-30,半年度报告,22853258.69,2018,6,188.78345946311066,False,0.9892716723678849,True,0.38370950599057685,False,前期平均,60546580.510000005,未知,60546580.510000005
19,000777,53782267.82,53782267.82,2018-09-30,三季度报告,46063584.0,2018,9,38.11452137262285,False,0.9659629943608455,True,0.550162220628306,False,前期平均,74096828.34,未知,74096828.34
20,000777,102986326.82,102986326.82,2018-12-31,年度报告,87626646.13000001,2018,12,0.5510417118580537,False,0.5692816429078125,True,0.0,True,前期平均,102986326.82,未知,102986326.82
21,000777,12255851.56,12255851.56,2019-03-31,一季度报告,9772081.22,2019,3,-4.956249437604611,False,-9.936797325146118,True,0.35904459117942555,False,盈利变化,140343820.63333333,未知,140343820.63333333
22,000777,43789232.30000001,43789232.30000001,2019-06-30,半年度报告,38632322.79000001,2019,6,1.2314550054796563,False,0.9517829589875552,True,0.3391640876050309,False,前期平均,73604791.07000001,未知,73604791.07000001
23,000777,90490348.64,90490348.64,2019-09-30,三季度报告,82248463.35,2019,9,0.15454211335634996,True,1.328396617653759,True,0.5407343027360545,False,平均增速,163265116.5147521,未知,163265116.5147521
24,000777,135758936.10999998,135758936.10999998,2019-12-31,年度报告,123899240.38,2019,12,-0.397066629451422,True,0.4477631206958799,True,0.0,True,比例外推,135758936.10999998,未知,135758936.10999998
25,000777,-18162885.820000004,-18162885.820000004,2020-03-31,一季度报告,-20881068.37,2020,3,4.066469094049635,False,-1.8310276518700714,True,0.2985878734714247,False,盈利变化,94888069.98999998,未知,94888069.98999998
