,SECURITYCODE_x,NETPROFIT_x,PARENTNETPROFIT_x,REPORTDATE_x,REPORTTIMETYPE_x,KCFJCXSYJLR,Year,Month,managesituationChangeRate,managesituationGreatChange,historyprofitextroplaterate,ifhistoryprofitextroplate,IfprofitdisStableChangeRage,IfprofitdisStable,predicttype,predict,analyst_prediction,adj_prediction
0,000720,65329810.37,33683952.34,2013-12-31,年度报告,22590595.04000001,2013,12,未知,未知,未知,未知,未知,未知,未知,未知,未知,未知
1,000720,14944173.159999998,7357174.12,2014-03-31,一季度报告,7544709.1099999985,2014,3,未知,未知,未知,未知,未知,未知,未知,未知,未知,未知
2,000720,58575062.85999999,35874723.56,2014-06-30,半年度报告,35817506.87,2014,6,未知,未知,未知,未知,未知,未知,未知,未知,未知,未知
3,000720,89187103.31,56128613.67,2014-09-30,三季度报告,52995272.55,2014,9,未知,未知,未知,未知,未知,未知,未知,未知,未知,未知
4,000720,128913583.73,79436542.03,2014-12-31,年度报告,77742038.83000001,2014,12,0.0,True,未知,未知,未知,未知,未知,未知,未知,未知
5,000720,46868578.36999999,31689790.73,2015-03-31,一季度报告,31445507.63000001,2015,3,3.371590831459558,False,未知,未知,未知,未知,未知,未知,未知,未知
6,000720,93695881.71,62610969.80999999,2015-06-30,半年度报告,61780640.40000001,2015,6,0.11531780215318758,True,未知,未知,未知,未知,未知,未知,未知,未知
7,000720,115545749.93999998,74379746.24000001,2015-09-30,三季度报告,69405903.25999999,2015,9,-0.26749711622627653,True,未知,未知,未知,未知,未知,未知,未知,未知
8,000720,135708804.73,80724132.76,2015-12-31,年度报告,7190370.14,2015,12,-0.4932278780890269,True,未知,未知,未知,未知,未知,未知,未知,未知
9,000720,36182309.04,21789309.55,2016-03-31,一季度报告,20360862.070000004,2016,3,0.39389357736134833,True,未知,未知,未知,未知,未知,未知,未知,未知
10,000720,-4994508.59,-17923720.449999996,2016-06-30,半年度报告,-20970650.06,2016,6,-0.3027461914259625,True,未知,未知,未知,未知,未知,未知,未知,未知
11,000720,-45725339.20999999,-56227067.58999999,2016-09-30,三季度报告,-59521876.79999999,2016,9,-0.43459789387386266,True,未知,未知,未知,未知,未知,未知,未知,未知
12,000720,-75883920.3,-87432036.95,2016-12-31,年度报告,-98950024.99000002,2016,12,-0.5186030081100692,True,0.39730676926016495,True,0.0,True,比例外推,-87432036.95,未知,-87432036.95
13,000720,-51186655.87000002,-46708700.48,2017-03-31,一季度报告,-46916198.20999999,2017,3,0.8055732788578271,False,0.17070695429047203,True,2.9517609118129604,False,盈利变化,-177134783.99,未知,-177134783.99
14,000720,-115621918.03,-105510210.0,2017-06-30,半年度报告,-105834466.87,2017,6,-14.08032796275559,False,1.065600283811256,True,5.503872798246247,False,前期平均,-111843079.15,未知,-111843079.15
15,000720,-596859127.72,-579415867.2899997,2017-09-30,三季度报告,-585009820.9899999,2017,9,-2.4287441383422816,False,1.4466829674294102,True,6.0073407324543915,False,前期平均,-598150250.7099997,未知,-598150250.7099997
16,000720,-565207860.7900003,-548956345.3599999,2017-12-31,年度报告,-146914197.59000003,2017,12,-1.8609177031408588,False,1.57352607798316,True,0.0,True,前期平均,-548956345.3599999,未知,-548956345.3599999
17,000720,587993465.6999997,580711894.4,2018-03-31,一季度报告,15131938.259999998,2018,3,-2.2763054991503973,False,2.2326576504187177,False,2.877662174326451,False,前期平均,508928882.12499994,未知,508928882.12499994
18,000720,569786701.16,562488147.6899998,2018-06-30,半年度报告,-5019777.33,2018,6,-1.5650296369676995,False,3.606992743473778,False,5.417319353290418,False,盈利变化,-481746552.33333325,未知,-481746552.33333325
19,000720,562543203.58,555398462.3100002,2018-09-30,三季度报告,-12059259.52,2018,9,-1.1094559961235069,False,18.096981283255197,False,4.907240110332185,False,盈利变化,-294311651.3733333,未知,-294311651.3733333
20,000720,1082802267.27,1072987169.75,2018-12-31,年度报告,496762566.1699999,2018,12,-1.1155854596195591,False,19.89541003464335,False,0.0,True,盈利变化,-334397424.10666656,未知,-334397424.10666656
21,000720,374745333.01,374364578.33,2019-03-31,一季度报告,374385354.02,2019,3,-0.8888936456254227,True,-79.3764161628619,True,0.27133215166677627,False,平均增速,7042466180.039528,未知,7042466180.039528
22,000720,369911453.38,368290278.12,2019-06-30,半年度报告,368331350.09,2019,6,-0.8853433921202472,True,-10.447912148070898,True,0.41297964397322484,False,平均增速,20019171547.706226,未知,20019171547.706226
23,000720,372515182.24,370197209.42000014,2019-09-30,三季度报告,370228200.39999986,2019,9,-0.8838670346486386,True,-2.7508770676253547,True,2.462235582369205,False,平均增速,9439699610.894527,未知,9439699610.894527
24,000720,489823873.9000001,486174885.83,2019-12-31,年度报告,486112236.28,2019,12,-0.939665983028728,True,-4.377994537471663,True,0.0,True,比例外推,486174885.83,591000000.0,591000000.0
25,000720,-14203657.71,-14708171.29,2020-03-31,一季度报告,-14734787.88,2020,3,-0.8256687819291489,True,0.39620185939398705,True,0.3968398104337299,False,平均增速,160735345.02695855,696411519.0,696411519.0
