,SECURITYCODE_x,NETPROFIT_x,PARENTNETPROFIT_x,REPORTDATE_x,REPORTTIMETYPE_x,KCFJCXSYJLR,Year,Month,managesituationChangeRate,managesituationGreatChange,historyprofitextroplaterate,ifhistoryprofitextroplate,IfprofitdisStableChangeRage,IfprofitdisStable,predicttype,predict,analyst_prediction,adj_prediction
0,000780,37043859.22,37043859.22,2013-12-31,年度报告,37960319.84,2013,12,未知,未知,未知,未知,未知,未知,未知,未知,未知,未知
1,000780,13993636.460000005,13993636.460000005,2014-03-31,一季度报告,13993940.06,2014,3,未知,未知,未知,未知,未知,未知,未知,未知,未知,未知
2,000780,-36570310.28,-36570310.28,2014-06-30,半年度报告,-36211442.6,2014,6,未知,未知,未知,未知,未知,未知,未知,未知,未知,未知
3,000780,-4613265.12,-4613265.12,2014-09-30,三季度报告,-10788434.92,2014,9,未知,未知,未知,未知,未知,未知,未知,未知,未知,未知
4,000780,27382457.80999999,27382457.80999999,2014-12-31,年度报告,29678555.14,2014,12,0.0,True,未知,未知,未知,未知,未知,未知,未知,未知
5,000780,-27598191.06,-27598191.06,2015-03-31,一季度报告,-27101650.559999995,2015,3,1.6471931956991819,False,未知,未知,未知,未知,未知,未知,-76500000.0,未知
6,000780,-50049233.07000002,-50049233.07000002,2015-06-30,半年度报告,-49484370.57,2015,6,-2.0129489997862824,False,未知,未知,未知,未知,未知,未知,-98000000.0,未知
7,000780,-211352640.39,-211352640.39,2015-09-30,三季度报告,-206014224.85,2015,9,-9.029857000717964,False,未知,未知,未知,未知,未知,未知,,未知
8,000780,-390611090.41,-390611090.41,2015-12-31,年度报告,-388282702.7,2015,12,0.35283178292606343,True,未知,未知,未知,未知,未知,未知,,未知
9,000780,-85187737.62,-85187737.62,2016-03-31,一季度报告,-85117199.97999999,2016,3,-2.3422567855793375,False,未知,未知,未知,未知,未知,未知,-284000000.0,未知
10,000780,-225239250.1,-225239250.1,2016-06-30,半年度报告,-224976412.33000004,2016,6,-1.7401483888512257,False,未知,未知,未知,未知,未知,未知,-289000000.0,未知
11,000780,-388845666.12,-388845666.12,2016-09-30,三季度报告,-389436140.53,2016,9,-1.1752703876878214,False,未知,未知,未知,未知,未知,未知,11270000.0,未知
12,000780,-323606543.01,-323606543.01,2016-12-31,年度报告,-325518652.38,2016,12,-1.0948356565634563,False,13.125823992953462,False,0.0,True,去年同期,-323606543.01,,-323606543.01
13,000780,-22531542.65,-22531542.65,2017-03-31,一季度报告,-22811932.31,2017,3,-1.4348496656319583,False,-11.52341441887411,True,0.2039177446987494,False,前期平均,-195279761.18,未知,-195279761.18
14,000780,135597716.11,135597716.11,2017-06-30,半年度报告,136487051.51999998,2017,6,-1.1644644936597575,False,-4.2006566044774685,True,1.0862731025032215,False,盈利变化,-82630900.4433333,未知,-82630900.4433333
15,000780,231913316.66,231913316.66,2017-09-30,三季度报告,232987651.98000005,2017,9,-1.0952662262887818,False,-2.600991232405386,True,0.8179842088123637,False,盈利变化,-46973746.33888888,318600000.0,318600000.0
16,000780,483797872.03,483797872.03,2017-12-31,年度报告,337895339.78,2017,12,-1.1144719104732543,False,-0.7818338862419293,True,0.0,True,盈利变化,-102468545.62333333,未知,-102468545.62333333
17,000780,-4040857.6799999992,-4040857.6799999992,2018-03-31,一季度报告,-19059674.32,2018,3,-2.644088902186198,False,-0.600454721369946,True,0.17355888360083255,False,前期平均,-304832109.95000005,417000000.0,417000000.0
18,000780,-23104258.4,-23104258.4,2018-06-30,半年度报告,-47097426.92,2018,6,-0.7268105962054024,True,-1.9851317755727822,True,0.28362907926483044,False,平均增速,153607799.79594046,,153607799.79594046
19,000780,-51995735.40000001,-51995735.40000001,2018-09-30,三季度报告,-80720295.42,2018,9,-0.8402685117288512,True,-1.7727889737260898,True,0.3908692266195569,False,平均增速,39975572.55174435,未知,39975572.55174435
20,000780,-251022382.59,-251022382.59,2018-12-31,年度报告,-310630134.85,2018,12,-0.9234311241085762,True,-2.35476316851309,True,0.0,True,比例外推,-251022382.59,,-251022382.59
21,000780,-175785456.63,-175785456.63,2019-03-31,一季度报告,-175591786.20999998,2019,3,-10.167325888102054,False,-0.9249742911413532,True,0.1763724370015628,False,前期平均,-115632546.78500001,未知,-115632546.78500001
22,000780,-186542806.48,-186542806.48,2019-06-30,半年度报告,-191332859.71,2019,6,-2.603334700411765,False,-0.48451889717600305,True,0.27557080961089236,False,前期平均,-136109782.37499997,未知,-136109782.37499997
23,000780,-172346994.06,-172346994.06,2019-09-30,三季度报告,-248813752.19,2019,9,-1.7124403364049734,False,-0.3373484105869065,True,0.481108585100949,False,前期平均,-87934406.08500005,未知,-87934406.08500005
24,000780,-78020964.00999999,-78020964.00999999,2019-12-31,年度报告,-245301801.04999995,2019,12,-1.1475719369635038,False,4.13403208682612,False,0.0,True,去年同期,-78020964.00999999,未知,-78020964.00999999
25,000780,-103878793.64999998,-103878793.64999998,2020-03-31,一季度报告,-122221379.58,2020,3,-1.2107333560476015,False,-12.230679535678966,True,0.47926417185205894,False,前期平均,-69310387.87,未知,-69310387.87
