,SECURITYCODE_x,NETPROFIT_x,PARENTNETPROFIT_x,REPORTDATE_x,REPORTTIMETYPE_x,KCFJCXSYJLR,Year,Month,managesituationChangeRate,managesituationGreatChange,historyprofitextroplaterate,ifhistoryprofitextroplate,IfprofitdisStableChangeRage,IfprofitdisStable,predicttype,predict,analyst_prediction,adj_prediction
0,000797,119498907.21,104114997.25,2013-12-31,年度报告,72811119.55,2013,12,未知,未知,未知,未知,未知,未知,未知,未知,未知,未知
1,000797,19005990.26,23892872.72,2014-03-31,一季度报告,23588747.57,2014,3,未知,未知,未知,未知,未知,未知,未知,未知,未知,未知
2,000797,30975153.17,41429568.57,2014-06-30,半年度报告,37853878.51000001,2014,6,未知,未知,未知,未知,未知,未知,未知,未知,未知,未知
3,000797,54642331.19000003,68083425.83999999,2014-09-30,三季度报告,65211459.41,2014,9,未知,未知,未知,未知,未知,未知,未知,未知,未知,未知
4,000797,98721414.69,113554326.58,2014-12-31,年度报告,102891695.47,2014,12,0.0,True,未知,未知,未知,未知,未知,未知,未知,未知
5,000797,18397344.54,23656867.260000005,2015-03-31,一季度报告,21149794.710000005,2015,3,5.28743388664664,False,未知,未知,未知,未知,未知,未知,191000000.0,未知
6,000797,38750878.73,68970691.32000001,2015-06-30,半年度报告,28077814.69,2015,6,2.857895602780646,False,未知,未知,未知,未知,未知,未知,188333332.99999997,未知
7,000797,40431292.19,69072003.38000001,2015-09-30,三季度报告,25346924.15,2015,9,1.1869291556116703,False,未知,未知,未知,未知,未知,未知,,未知
8,000797,128448568.26,127047266.27,2015-12-31,年度报告,66822403.84000001,2015,12,0.21046591142605106,True,未知,未知,未知,未知,未知,未知,210750000.0,未知
9,000797,15750244.910000002,16542822.900000004,2016-03-31,一季度报告,17585764.449999996,2016,3,5.4954432391143335,False,未知,未知,未知,未知,未知,未知,161866667.0,未知
10,000797,38099289.99999999,40021544.43,2016-06-30,半年度报告,33534878.88000001,2016,6,2.0837728362914985,False,未知,未知,未知,未知,未知,未知,197500000.0,未知
11,000797,8994052.650000002,12754930.2,2016-09-30,三季度报告,-3376566.8000000007,2016,9,1.9556044523245795,False,未知,未知,未知,未知,未知,未知,107650000.0,未知
12,000797,212813181.36,219664175.23,2016-12-31,年度报告,189436831.1600001,2016,12,-0.06967505493626443,True,0.17723745562855409,True,0.0,True,比例外推,219664175.23,117100000.0,117100000.0
13,000797,72714926.96000001,62520071.47000001,2017-03-31,一季度报告,17585764.449999996,2017,3,6.587114225387622,False,0.15781600789242978,True,0.1200339822550894,False,前期平均,125007849.98500003,244000000.0,244000000.0
14,000797,63852869.60000001,54149499.58999999,2017-06-30,半年度报告,52544687.54000001,2017,6,2.1365127069297096,False,0.09282828699161896,True,0.1446792443552491,False,前期平均,106040702.64499998,,106040702.64499998
15,000797,127739969.27000004,104790678.07,2017-09-30,三季度报告,105567010.68,2017,9,12.286436255184693,False,0.810798151364198,True,0.34958453968416214,False,前期平均,144368535.945,未知,144368535.945
16,000797,261013494.01,249757938.61,2017-12-31,年度报告,251904961.26,2017,12,-0.43847976687189927,True,0.8736030050839956,True,0.0,True,比例外推,249757938.61,159000000.0,159000000.0
17,000797,40508053.32000001,38651165.74,2018-03-31,一季度报告,39070416.55,2018,3,0.6433889464777368,False,3.2588614968837866,False,0.1567907202734131,False,去年同期,272970362.55,未知,272970362.55
18,000797,77970030.85000001,79558304.85,2018-06-30,半年度报告,80608760.08,2018,6,0.8714727773174344,False,0.6617496267141902,True,0.15158596103055,False,前期平均,176881575.56500006,未知,176881575.56500006
19,000797,224657711.03,179434874.15,2018-09-30,三季度报告,177584207.56,2018,9,-0.06451435762115433,True,4.169006698224183,False,0.2780136614275303,False,未知,未知,未知,未知
20,000797,426473834.29,305155432.27000004,2018-12-31,年度报告,303021833.64,2018,12,-0.5421734509809607,True,0.5296967462696441,True,0.0,True,比例外推,305155432.27000004,未知,305155432.27000004
21,000797,44901917.64,45919598.54,2019-03-31,一季度报告,43528675.57000001,2019,3,1.9500037008937159,False,0.08420336582792634,True,0.031743011900920354,True,前期平均,249004730.30000004,未知,249004730.30000004
22,000797,82247512.72000001,85341761.68,2019-06-30,半年度报告,83915890.89,2019,6,0.5326261373410753,False,0.5295415252782937,True,0.04880642814063266,True,前期平均,262972874.68000004,未知,262972874.68000004
23,000797,178583774.19,180683593.68,2019-09-30,三季度报告,178804015.75000003,2019,9,-0.4680845511060934,True,2.2860543100449733,False,0.3469224981490154,False,未知,未知,未知,未知
24,000797,385982519.8799999,359147265.84,2019-12-31,年度报告,343894675.6,2019,12,-0.7197977985942713,True,0.8001258960651666,True,0.0,True,比例外推,359147265.84,未知,359147265.84
25,000797,29560630.030000005,28844583.340000004,2020-03-31,一季度报告,29409025.42,2020,3,1.661331931702327,False,0.20684091641188523,True,0.03862978808017237,True,前期平均,277979890.28999996,未知,277979890.28999996
