,SECURITYCODE_x,NETPROFIT_x,PARENTNETPROFIT_x,REPORTDATE_x,REPORTTIMETYPE_x,KCFJCXSYJLR,Year,Month,managesituationChangeRate,managesituationGreatChange,historyprofitextroplaterate,ifhistoryprofitextroplate,IfprofitdisStableChangeRage,IfprofitdisStable,predicttype,predict,analyst_prediction,adj_prediction
0,000731,169181728.20999998,170254547.02,2013-12-31,年度报告,98120148.10999998,2013,12,未知,未知,未知,未知,未知,未知,未知,未知,未知,未知
1,000731,2172105.6700000004,1705664.4800000002,2014-03-31,一季度报告,-8226011.5,2014,3,未知,未知,未知,未知,未知,未知,未知,未知,未知,未知
2,000731,-126020398.70000002,-125783114.65999998,2014-06-30,半年度报告,-129906695.93,2014,6,未知,未知,未知,未知,未知,未知,未知,未知,未知,未知
3,000731,-218671278.77,-217485836.97000003,2014-09-30,三季度报告,-218033129.05,2014,9,未知,未知,未知,未知,未知,未知,未知,未知,未知,未知
4,000731,-245380981.54,-244501354.83000004,2014-12-31,年度报告,-245481660.31000003,2014,12,0.0,True,未知,未知,未知,未知,未知,未知,未知,未知
5,000731,20351679.83,17533629.33,2015-03-31,一季度报告,16828386.67,2015,3,76.88835071269804,False,未知,未知,未知,未知,未知,未知,64000000.0,未知
6,000731,46137473.72,45687945.79,2015-06-30,半年度报告,44261448.01999999,2015,6,-2.3424947862032113,False,未知,未知,未知,未知,未知,未知,150400000.0,未知
7,000731,58699183.23,54762444.38000001,2015-09-30,三季度报告,52862118.91000001,2015,9,-1.7736806093677557,False,未知,未知,未知,未知,未知,未知,65860000.0,未知
8,000731,56932375.6,55443024.88,2015-12-31,年度报告,42635001.92,2015,12,-1.6894655288613776,False,未知,未知,未知,未知,未知,未知,未知,未知
9,000731,-5174466.57,-4720770.840000002,2016-03-31,一季度报告,-7775983.820000001,2016,3,7.312912232464106,False,未知,未知,未知,未知,未知,未知,106005000.0,未知
10,000731,-52821445.72,-45017622.76,2016-06-30,半年度报告,-48131521.01,2016,6,2.66690489463583,False,未知,未知,未知,未知,未知,未知,,未知
11,000731,-113073563.22,-104314757.1,2016-09-30,三季度报告,-110406477.08999996,2016,9,1.8821819810864853,False,未知,未知,未知,未知,未知,未知,未知,未知
12,000731,-261788885.01,-250373779.84,2016-12-31,年度报告,-268561206.05,2016,12,1.9716260111584027,False,-2.494302715892505,True,0.0,True,盈利变化,-48289044.443333335,,-48289044.443333335
13,000731,32011700.57,32667568.61,2017-03-31,一季度报告,30827062.49,2017,3,-33.69549158764784,False,1.4594668662601142,True,0.24231752430728315,False,前期平均,-73056948.17000002,未知,-73056948.17000002
14,000731,82648854.35000001,85326773.82,2017-06-30,半年度报告,82543077.60000001,2017,6,-4.2028984800380425,False,-0.32247149771305195,True,0.455961769545839,False,盈利变化,-163257380.76666665,未知,-163257380.76666665
15,000731,121567921.75000004,135507991.20000002,2017-09-30,三季度报告,126950253.60999998,2017,9,-2.4962094002541857,False,-0.4136660876799812,True,0.4352846301759185,False,盈利变化,-144881899.52888894,未知,-144881899.52888894
16,000731,147764262.22000003,155603301.58999997,2017-12-31,年度报告,147034075.21,2017,12,-1.646252525975415,False,-1.7783584145308111,True,0.0,True,盈利变化,-111842019.42000002,未知,-111842019.42000002
17,000731,50034489.8,47692555.81,2018-03-31,一季度报告,47396484.87,2018,3,4.284996585546907,False,3.2183897691373686,False,0.18360098105488393,False,去年同期,163899568.53000003,未知,163899568.53000003
18,000731,110239017.04,122702862.11,2018-06-30,半年度报告,122418181.00999996,2018,6,1.0469942328970705,False,-25.73046097440265,True,0.44522964972375745,False,前期平均,11674796.540000007,未知,11674796.540000007
19,000731,203308491.39000005,213025605.65000004,2018-09-30,三季度报告,212656266.17,2018,9,0.39166422995957745,True,-5.471514774875874,True,0.4270253047392401,False,平均增速,211010394.66541028,未知,211010394.66541028
20,000731,222861869.98,219596981.88000008,2018-12-31,年度报告,218796816.0,2018,12,0.14494347732141336,True,-2.4426123206489327,True,0.0,True,比例外推,219596981.88000008,未知,219596981.88000008
21,000731,42289355.08,29196282.6,2019-03-31,一季度报告,28646458.65,2019,3,2.3813021554983456,False,2.728736709602785,False,0.1227913752779277,False,去年同期,200596613.73,未知,200596613.73
22,000731,73932992.57000001,63489365.26000001,2019-06-30,半年度报告,61256702.92,2019,6,0.534681029935279,False,6.391793126079553,False,0.2541512554593187,False,去年同期,159868000.25000006,未知,159868000.25000006
23,000731,96846799.25,106363225.27,2019-09-30,三季度报告,103158879.35,2019,9,-0.1678570479111756,True,46.86906290144524,False,0.3377115863240216,False,未知,未知,未知,未知
24,000731,86564701.83,86358201.80999999,2019-12-31,年度报告,78864718.23000002,2019,12,-0.24086732187438506,True,-4.909013062739027,True,0.0,True,比例外推,86358201.80999999,未知,86358201.80999999
25,000731,-2809756.52,7038490.670000001,2020-03-31,一季度报告,9194487.11,2020,3,3.0005747992598613,False,0.030867000388186232,True,0.10006274580035784,False,前期平均,150842162.595,未知,150842162.595
