,SECURITYCODE_x,NETPROFIT_x,PARENTNETPROFIT_x,REPORTDATE_x,REPORTTIMETYPE_x,KCFJCXSYJLR,Year,Month,managesituationChangeRate,managesituationGreatChange,historyprofitextroplaterate,ifhistoryprofitextroplate,IfprofitdisStableChangeRage,IfprofitdisStable,predicttype,predict,analyst_prediction,adj_prediction
0,000799,-38797225.75,-36683559.86,2013-12-31,年度报告,5979608.050000003,2013,12,未知,未知,未知,未知,未知,未知,未知,未知,未知,未知
1,000799,389203.68000000005,1625089.52,2014-03-31,一季度报告,-20397827.689999994,2014,3,未知,未知,未知,未知,未知,未知,未知,未知,未知,未知
2,000799,-46846089.33000001,-44472978.09,2014-06-30,半年度报告,-65593409.76000001,2014,6,未知,未知,未知,未知,未知,未知,未知,未知,未知,未知
3,000799,-79548870.83000001,-76033586.74000001,2014-09-30,三季度报告,-98511882.12,2014,9,未知,未知,未知,未知,未知,未知,未知,未知,未知,未知
4,000799,-103661998.56999998,-97475299.35,2014-12-31,年度报告,-114106662.15999998,2014,12,-0.0,False,未知,未知,未知,未知,未知,未知,未知,未知
5,000799,16143810.420000002,19031828.220000006,2015-03-31,一季度报告,15906139.13,2015,3,-100.68360461031611,False,未知,未知,未知,未知,未知,未知,57000000.0,未知
6,000799,34091007.63999999,39493006.02,2015-06-30,半年度报告,35277267.050000004,2015,6,-0.17181505852710655,False,未知,未知,未知,未知,未知,未知,,未知
7,000799,52138156.76000001,61013309.35999999,2015-09-30,三季度报告,52936961.26000001,2015,9,-0.5122843939179018,False,未知,未知,未知,未知,未知,未知,未知,未知
8,000799,74226652.10000001,88569586.08999999,2015-12-31,年度报告,80038185.03,2015,12,-0.6257333807451017,False,未知,未知,未知,未知,未知,未知,80060000.0,未知
9,000799,25710879.209999993,28267020.320000004,2016-03-31,一季度报告,26970587.799999993,2016,3,-3.4032260501483265,False,未知,未知,未知,未知,未知,未知,126952636.0,未知
10,000799,33927614.57,38747722.77,2016-06-30,半年度报告,36284060.48,2016,6,-2.138048665492599,False,未知,未知,未知,未知,未知,未知,104665556.0,未知
11,000799,59691603.92000001,65516546.53999999,2016-09-30,三季度报告,61322598.62,2016,9,-1.7441234627566453,False,未知,未知,未知,未知,未知,未知,105564427.0,未知
12,000799,97022263.96,108584368.32000002,2016-12-31,年度报告,102584161.62,2016,12,-1.5226859174212977,False,-2.0420757582291458,True,0.0,True,前期平均,108584368.32000002,118631241.00000001,108584368.32000002
13,000799,35604208.04000001,37028815.16,2017-03-31,一季度报告,34900791.56,2017,3,-2.5089809038856283,False,2.1102470553146135,False,0.049443561186536505,True,去年同期,112642388.98,164930000.0,164930000.0
14,000799,80836852.55999999,82771400.38,2017-06-30,半年度报告,60488676.44000001,2017,6,-2.1435294299855046,False,-6.319858452431432,True,0.11841000546283637,False,前期平均,80895233.17000002,168919241.0,168919241.0
15,000799,114471336.17000002,116405883.99,2017-09-30,三季度报告,90271384.03999998,2017,9,-1.6499611872047684,False,-5.355348333324176,True,0.1558294541347901,False,前期平均,122159105.855,177462222.0,177462222.0
16,000799,174164201.7,176098749.51999998,2017-12-31,年度报告,151645732.06000003,2017,12,-1.3998796169711643,False,-7.592228432499242,True,0.0,True,前期平均,176098749.51999998,177462222.0,176098749.51999998
17,000799,62535528.6,62535528.6,2018-03-31,一季度报告,57761951.71999999,2018,3,-2.08968090812223,False,0.7013246713687319,True,0.03231495514715885,True,前期平均,132408338.46000001,273666263.0,273666263.0
18,000799,114474471.95,114474471.95,2018-06-30,半年度报告,103297452.32999995,2018,6,-1.4799447841094917,False,1.3769035576882203,True,0.04407870893886856,True,前期平均,170004981.51,277762425.0,277762425.0
19,000799,161044191.54,161044191.54,2018-09-30,三季度报告,142882059.14999998,2018,9,-1.3389252458133512,False,1.0472427996615112,True,0.0432453716001987,True,前期平均,195225584.92499998,256150909.0,256150909.0
20,000799,222678845.51,222678845.51,2018-12-31,年度报告,195178768.29,2018,12,-1.2227623436464212,False,1.0340473470673364,True,0.0,True,前期平均,222678845.51,254190909.0,254190909.0
21,000799,72651574.94999999,72651574.94999999,2019-03-31,一季度报告,72455662.98,2019,3,-1.62040293923413,False,1.039808843295742,True,0.03294298884736779,True,前期平均,168830832.11,302313333.0,302313333.0
22,000799,155828904.35000005,155828904.35000005,2019-06-30,半年度报告,154572923.14,2019,6,-1.338915961690968,False,0.9949462549297337,True,0.10196958562594144,False,前期平均,234557482.73000008,296140000.0,296140000.0
23,000799,184005770.61,184005770.61,2019-09-30,三季度报告,183135753.02,2019,9,-1.2409104319690014,False,0.8493508602551056,True,0.09035274788267722,True,前期平均,235323726.12000003,275346667.0,275346667.0
24,000799,299495662.8,299495662.8,2019-12-31,年度报告,287367419.53000003,2019,12,-1.1742295082460257,False,0.6422563343495438,True,0.0,True,前期平均,299495662.8,279690000.0,299495662.8
25,000799,96071792.13,96071792.13,2020-03-31,一季度报告,94887048.22,2020,3,-1.5340176833977912,False,0.4805740760544999,True,0.03653493623908555,True,前期平均,223152670.665,359169091.0,359169091.0
