,SECURITYCODE_x,NETPROFIT_x,PARENTNETPROFIT_x,REPORTDATE_x,REPORTTIMETYPE_x,KCFJCXSYJLR,Year,Month,managesituationChangeRate,managesituationGreatChange,historyprofitextroplaterate,ifhistoryprofitextroplate,IfprofitdisStableChangeRage,IfprofitdisStable,predicttype,predict,analyst_prediction,adj_prediction
0,000820,15921815.78,15921815.78,2013-12-31,年度报告,-4765759.039999999,2013,12,未知,未知,未知,未知,未知,未知,未知,未知,未知,未知
1,000820,274748.07,274748.07,2014-03-31,一季度报告,227490.27,2014,3,未知,未知,未知,未知,未知,未知,未知,未知,未知,未知
2,000820,3325197.87,3325197.87,2014-06-30,半年度报告,3726223.64,2014,6,未知,未知,未知,未知,未知,未知,未知,未知,未知,未知
3,000820,883387.8500000002,883387.8500000002,2014-09-30,三季度报告,1524967.9300000004,2014,9,未知,未知,未知,未知,未知,未知,未知,未知,未知,未知
4,000820,2236082.5900000003,2236082.5900000003,2014-12-31,年度报告,1927516.7100000004,2014,12,0.0,True,未知,未知,未知,未知,未知,未知,未知,未知
5,000820,-975843.67,-975843.67,2015-03-31,一季度报告,-840739.2999999998,2015,3,56.95060099967217,False,未知,未知,未知,未知,未知,未知,未知,未知
6,000820,-3638043.68,-3638043.68,2015-06-30,半年度报告,-1465557.4299999997,2015,6,3.78823107750878,False,未知,未知,未知,未知,未知,未知,未知,未知
7,000820,91047758.32000002,91047758.32000002,2015-09-30,三季度报告,94163680.86,2015,9,17.02358474819412,False,未知,未知,未知,未知,未知,未知,未知,未知
8,000820,171390767.39000005,171390767.39000005,2015-12-31,年度报告,157347957.48000002,2015,12,6.120405950658557,False,未知,未知,未知,未知,未知,未知,未知,未知
9,000820,43453287.19000001,43453287.19000001,2016-03-31,一季度报告,40316223.67,2016,3,-17.315949233958754,False,未知,未知,未知,未知,未知,未知,未知,未知
10,000820,100802605.52,100802605.52,2016-06-30,半年度报告,97481556.99999996,2016,6,-5.376477354444519,False,未知,未知,未知,未知,未知,未知,301000000.0,未知
11,000820,150375124.91000003,150375124.91000003,2016-09-30,三季度报告,149126420.94000003,2016,9,-0.8251267678217781,True,未知,未知,未知,未知,未知,未知,304000000.0,未知
12,000820,333302247.63000005,333302247.63000005,2016-12-31,年度报告,326965435.67,2016,12,-0.9071022551420761,True,17.877819877345203,False,0.0,True,比例外推,333302247.63000005,303733333.0,333302247.63000005
13,000820,73139837.71000001,73139837.71000001,2017-03-31,一季度报告,74118145.09,2017,3,-0.6335877718437808,True,-124.9582367654283,True,0.08400435706720973,True,比例外推,941267319.8389193,645066000.0,645066000.0
14,000820,207726875.8,207726875.8,2017-06-30,半年度报告,208671666.14000005,2017,6,-0.8420495611411454,True,-645.4235613703759,True,1.192506753511865,False,平均增速,5255896322.603863,660000000.0,660000000.0
15,000820,304978638.38,304978638.38,2017-09-30,三季度报告,305089557.92,2017,9,-0.8941193512588651,True,2.2714728614810222,False,0.17592630678067656,False,未知,未知,,未知
16,000820,159431111.19000003,159431111.19000003,2017-12-31,年度报告,111353954.82,2017,12,-0.9522300977769738,True,2.839293838117698,False,0.0,True,比例外推,159431111.19000003,658682500.0,658682500.0
17,000820,-66734342.95,-66734342.95,2018-03-31,一季度报告,-67093285.78,2018,3,-0.7823099383521999,True,2.4437024288226277,False,0.4044186867833884,False,未知,未知,未知,未知
18,000820,-82655900.52,-82655900.52,2018-06-30,半年度报告,-83065981.46000001,2018,6,-0.9233521626959356,True,3.2757744565773272,False,1.1530241584102465,False,未知,未知,未知,未知
19,000820,-127209165.74000002,-127209165.74000002,2018-09-30,三季度报告,-127319517.77,2018,9,-0.9477936688793214,True,1.526509784819787,True,1.47503371008918,False,平均增速,-203924006.5697233,未知,-203924006.5697233
20,000820,-656609114.9299997,-656609114.9299997,2018-12-31,年度报告,-656926546.3600003,2018,12,-0.900133570787038,True,0.3682055964904446,True,0.0,True,比例外推,-656609114.9299997,未知,-656609114.9299997
21,000820,-37260250.31,-37260250.31,2019-03-31,一季度报告,-37219091.01000001,2019,3,-1.2385850384700612,False,2.1447389030397277,False,0.36859359265655983,False,去年同期,-627093510.8900003,未知,-627093510.8900003
22,000820,-86523974.07000001,-86523974.07000001,2019-06-30,半年度报告,-85242786.16,2019,6,-1.1926276972343608,False,1.5358055260480676,True,1.107770660247777,False,前期平均,-20440890.395000003,未知,-20440890.395000003
23,000820,-144191291.42999998,-144191291.42999998,2019-09-30,三季度报告,-142906238.21,2019,9,-1.1251624887827834,False,1.5587267570641978,True,1.6099108626181013,False,前期平均,-152139585.615,未知,-152139585.615
24,000820,-2042566079.93,-2042566079.93,2019-12-31,年度报告,-1694572247.1500006,2019,12,-1.0242485451663237,False,3.6651701297531387,False,0.0,True,去年同期,-2042566079.93,未知,-2042566079.93
25,000820,-53646534.45,-53646534.45,2020-03-31,一季度报告,-38300091.6,2020,3,-1.427313709584148,False,12.633839915903692,False,0.40237376889668347,False,去年同期,-1710999690.5900006,未知,-1710999690.5900006
