,SECURITYCODE_x,NETPROFIT_x,PARENTNETPROFIT_x,REPORTDATE_x,REPORTTIMETYPE_x,KCFJCXSYJLR,Year,Month,managesituationChangeRate,managesituationGreatChange,historyprofitextroplaterate,ifhistoryprofitextroplate,IfprofitdisStableChangeRage,IfprofitdisStable,predicttype,predict,analyst_prediction,adj_prediction
0,000885,141976883.8,66376879.56000001,2013-12-31,年度报告,55696184.06000001,2013,12,未知,未知,未知,未知,未知,未知,未知,未知,未知,未知
1,000885,11121698.72,663201.62,2014-03-31,一季度报告,-6025017.14,2014,3,未知,未知,未知,未知,未知,未知,未知,未知,未知,未知
2,000885,98006080.93,63799180.94,2014-06-30,半年度报告,61392762.06000001,2014,6,未知,未知,未知,未知,未知,未知,未知,未知,未知,未知
3,000885,157170242.16000003,105836959.66000004,2014-09-30,三季度报告,102057486.09999996,2014,9,未知,未知,未知,未知,未知,未知,未知,未知,未知,未知
4,000885,254894330.29,179532704.65,2014-12-31,年度报告,138865768.84999996,2014,12,0.0,True,未知,未知,未知,未知,未知,未知,未知,未知
5,000885,7094425.090000003,374224.37,2015-03-31,一季度报告,-521628.2,2015,3,11.76575524786379,False,未知,未知,未知,未知,未知,未知,218000000.0,未知
6,000885,104481958.24,73159008.06,2015-06-30,半年度报告,51719103.91,2015,6,0.44865382283172583,True,未知,未知,未知,未知,未知,未知,186550000.0,未知
7,000885,132170935.59000002,90143957.24,2015-09-30,三季度报告,71619699.94,2015,9,-0.09666816155015595,True,未知,未知,未知,未知,未知,未知,144580000.0,未知
8,000885,83693709.38000001,36089312.04,2015-12-31,年度报告,186682.45,2015,12,-0.4429970896627274,True,未知,未知,未知,未知,未知,未知,未知,未知
9,000885,-46803456.97999999,-42666358.59,2016-03-31,一季度报告,-43952507.94,2016,3,19.01245795097964,False,未知,未知,未知,未知,未知,未知,107560000.0,未知
10,000885,15770924.25,1096637.3099999998,2016-06-30,半年度报告,-1681824.77,2016,6,0.358865072894905,True,未知,未知,未知,未知,未知,未知,95955000.0,未知
11,000885,293881399.97,274285840.80999994,2016-09-30,三季度报告,268816772.83,2016,9,0.07419141104076368,True,未知,未知,未知,未知,未知,未知,90280000.0,未知
12,000885,503114844.63000005,471166757.85999984,2016-12-31,年度报告,34003473.660000004,2016,12,0.6963865606120181,False,0.578232401803672,True,0.0,True,前期平均,471166757.85999984,195810000.0,195810000.0
13,000885,128193834.04000004,122592806.43,2017-03-31,一季度报告,-749681.89,2017,3,-4.033470024675089,False,6.138684548719038,False,1.417474981258944,False,前期平均,195392354.75,225000000.0,225000000.0
14,000885,421848937.87000006,382869555.56,2017-06-30,半年度报告,124868661.12999997,2017,6,8.002445357633368,False,0.8442285844176759,True,184.56458836477674,False,前期平均,395839848.22499996,,395839848.22499996
15,000885,655930039.96,592223025.8400003,2017-09-30,三季度报告,338816855.95000005,2017,9,-0.5168905421898314,True,1.0313831737003771,True,252.88284889031877,False,平均增速,-10248414927.326502,未知,-10248414927.326502
16,000885,663658759.5699999,602850812.2099997,2017-12-31,年度报告,356356458.85,2017,12,-0.7178042243925193,True,1.9718406185897988,True,0.0,True,比例外推,602850812.2099997,,602850812.2099997
17,000885,129212888.08999996,128483346.62999998,2018-03-31,一季度报告,128685511.81,2018,3,0.10751725980595354,True,-7.456658746811874,True,1.431236182691859,False,平均增速,48331834736.706436,未知,48331834736.706436
18,000885,291818604.94,287390485.37,2018-06-30,半年度报告,287094052.96000004,2018,6,-0.6634414098163438,True,6.016030370915728,False,184.59515425487302,False,未知,未知,未知,未知
19,000885,445980583.69,436561748.44000006,2018-09-30,三季度报告,455223909.9100001,2018,9,-0.7835487397273982,True,2.079105477020096,False,252.81090072542557,False,未知,未知,未知,未知
20,000885,587909559.72,581109030.6,2018-12-31,年度报告,595710888.2799999,2018,12,-0.7860694494682927,True,1.2619259894384232,True,0.0,True,比例外推,581109030.6,未知,581109030.6
21,000885,145888048.48999998,145647247.15,2019-03-31,一季度报告,145556752.14000002,2019,3,0.09878268258433799,True,2.1751391935374795,False,0.9330312867560766,False,未知,未知,651000000.0,未知
22,000885,343297497.52,337899091.06000006,2019-06-30,半年度报告,337349957.37999994,2019,6,-0.5134755584579966,True,0.33366252402858354,True,0.31041992820877906,False,平均增速,1456771960.5906677,651000000.0,651000000.0
23,000885,567619924.7399999,556460594.38,2019-09-30,三季度报告,574779226.9599999,2019,9,-0.6816523207685476,True,0.06090711284153786,True,4.698728681605804,False,平均增速,1071940064.5526497,681100000.0,681100000.0
24,000885,628733300.9399999,624135537.9000003,2019-12-31,年度报告,652107229.3900003,2019,12,-0.7585055703676286,True,0.007752588169152215,True,0.0,True,比例外推,624135537.9000003,699650000.0,699650000.0
25,000885,-99876557.84,-100921602.08,2020-03-31,一季度报告,-101200431.47000004,2020,3,-0.026809356424204015,True,0.1335216678321328,True,0.14781246754266697,False,平均增速,73308102.92314179,626316000.0,626316000.0
