,SECURITYCODE_x,NETPROFIT_x,PARENTNETPROFIT_x,REPORTDATE_x,REPORTTIMETYPE_x,KCFJCXSYJLR,Year,Month,managesituationChangeRate,managesituationGreatChange,historyprofitextroplaterate,ifhistoryprofitextroplate,IfprofitdisStableChangeRage,IfprofitdisStable,predicttype,predict,analyst_prediction,adj_prediction
0,000806,12371728.2,12212662.79,2013-12-31,年度报告,-25563661.34,2013,12,未知,未知,未知,未知,未知,未知,未知,未知,未知,未知
1,000806,-24671678.09999999,-23773841.12,2014-03-31,一季度报告,-27925766.77,2014,3,未知,未知,未知,未知,未知,未知,未知,未知,未知,未知
2,000806,-15565417.78,-12654309.09,2014-06-30,半年度报告,-46526739.87000001,2014,6,未知,未知,未知,未知,未知,未知,未知,未知,未知,未知
3,000806,5337315.369999999,7022603.2799999975,2014-09-30,三季度报告,-40350219.72000001,2014,9,未知,未知,未知,未知,未知,未知,未知,未知,未知,未知
4,000806,22998231.77,26086193.17,2014-12-31,年度报告,-65188290.49,2014,12,0.0,True,未知,未知,未知,未知,未知,未知,未知,未知
5,000806,29712857.17,30650543.47000001,2015-03-31,一季度报告,-20551808.41,2015,3,-1.5014546700007407,False,未知,未知,未知,未知,未知,未知,未知,未知
6,000806,99170465.97,100328736.11000004,2015-06-30,半年度报告,-14733855.49,2015,6,-1.7948214673618608,False,未知,未知,未知,未知,未知,未知,未知,未知
7,000806,102390986.53,103333238.17,2015-09-30,三季度报告,-16560487.02,2015,9,1.317968368430888,False,未知,未知,未知,未知,未知,未知,未知,未知
8,000806,102585010.84000003,102514788.15999998,2015-12-31,年度报告,-18548432.69,2015,12,-0.46205741712115983,True,未知,未知,未知,未知,未知,未知,未知,未知
9,000806,-11115143.42,-12600017.139999995,2016-03-31,一季度报告,-14730524.41,2016,3,-0.583623744791151,True,未知,未知,未知,未知,未知,未知,未知,未知
10,000806,11659561.83,6468638.000000001,2016-06-30,半年度报告,2730065.75,2016,6,-0.8752478565166512,True,未知,未知,未知,未知,未知,未知,未知,未知
11,000806,7334441.56,3513333.54,2016-09-30,三季度报告,-1889374.32,2016,9,-0.8791717062285053,True,未知,未知,未知,未知,未知,未知,未知,未知
12,000806,16422490.070000002,12873440.77,2016-12-31,年度报告,-1164805.03,2016,12,-0.8794002349983082,True,4.800685719011858,False,0.0,True,比例外推,12873440.77,未知,12873440.77
13,000806,-15367495.31,-13179674.45,2017-03-31,一季度报告,-6703517.329999999,2017,3,-2.113051602891508,False,5.409739573087601,False,7.91876425090568,False,去年同期,386044.93000000156,未知,386044.93000000156
14,000806,-25527220.910000004,-21173415.43,2017-06-30,半年度报告,-13427590.810000002,2017,6,0.061080028596580564,True,0.7210799567149918,True,2.065222059096811,False,平均增速,-15151789.169123698,未知,-15151789.169123698
15,000806,-2996809.4999999995,2536754.5,2017-09-30,三季度报告,-8059728.83,2017,9,0.686798933332833,False,0.8638344533304112,True,0.5774334526034623,False,前期平均,-10876253.719999991,未知,-10876253.719999991
16,000806,13945402.509999998,9552612.249999998,2017-12-31,年度报告,-13415825.77,2017,12,-0.2466594196576672,True,0.7384604867864385,True,0.0,True,比例外推,9552612.249999998,未知,9552612.249999998
17,000806,-19873897.83,-20482668.01,2018-03-31,一季度报告,-24296023.0,2018,3,-1.8050582056758082,False,2.652621985323331,False,7.895002211340585,False,去年同期,-27194976.450000003,未知,-27194976.450000003
18,000806,-64483736.67000001,-60771308.88999999,2018-06-30,半年度报告,-69549415.07000001,2018,6,-1.4846484559999051,False,1.460655319081315,True,2.1609382145808964,False,前期平均,-64626032.879999995,未知,-64626032.879999995
19,000806,-125182957.17,-116376017.96,2018-09-30,三季度报告,-126096316.59000002,2018,9,-5.128299846887165,False,1.0546237923545294,True,0.5835057133168435,False,盈利变化,-42908093.42111112,未知,-42908093.42111112
20,000806,-736342747.16,-705963315.28,2018-12-31,年度报告,-746492929.9100001,2018,12,-0.1128453846256173,True,0.7656382597169858,True,0.0,True,比例外推,-705963315.28,未知,-705963315.28
21,000806,-14233696.65,-12415867.69,2019-03-31,一季度报告,-14084128.310000002,2019,3,-1.6225114119951174,False,-0.5009001204616741,True,8.253489187065274,False,前期平均,-8989162.219999999,未知,-8989162.219999999
22,000806,-108291741.79,-102750530.0,2019-06-30,半年度报告,-107629691.71999998,2019,6,-1.1918581155324972,False,-8.299873366947523,True,1.9272126071260591,False,前期平均,-104692082.87,未知,-104692082.87
23,000806,-116099435.86,-108374888.06000002,2019-09-30,三季度报告,-115396978.62000003,2019,9,-1.098829173552747,False,58.719490928882514,False,0.8248076340603706,False,去年同期,-728771501.3800001,未知,-728771501.3800001
24,000806,-1169540970.87,-1153274420.0399995,2019-12-31,年度报告,-1009553120.48,2019,12,-1.0168015889987598,False,49.49482032513169,False,0.0,True,去年同期,-1153274420.0399995,未知,-1153274420.0399995
25,000806,-9128795.23,-8381906.62,2020-03-31,一季度报告,-10417544.86,2020,3,-1.8691858836263735,False,-0.19221714116379,True,0.3176156590556526,False,前期平均,-372836514.295,未知,-372836514.295
