,SECURITYCODE_x,NETPROFIT_x,PARENTNETPROFIT_x,REPORTDATE_x,REPORTTIMETYPE_x,KCFJCXSYJLR,Year,Month,managesituationChangeRate,managesituationGreatChange,historyprofitextroplaterate,ifhistoryprofitextroplate,IfprofitdisStableChangeRage,IfprofitdisStable,predicttype,predict,analyst_prediction,adj_prediction
0,000830,305921526.83000004,305921526.83000004,2013-12-31,年度报告,277569791.31,2013,12,未知,未知,未知,未知,未知,未知,未知,未知,未知,未知
1,000830,83534093.91000001,83534093.91000001,2014-03-31,一季度报告,75230976.25000001,2014,3,未知,未知,未知,未知,未知,未知,未知,未知,未知,未知
2,000830,175593904.36,175593904.36,2014-06-30,半年度报告,161475069.65,2014,6,未知,未知,未知,未知,未知,未知,未知,未知,未知,未知
3,000830,302147149.23000014,302147149.23000014,2014-09-30,三季度报告,283512857.46000004,2014,9,未知,未知,未知,未知,未知,未知,未知,未知,未知,未知
4,000830,361066572.43000007,361066572.43000007,2014-12-31,年度报告,324813709.14,2014,12,0.0,True,未知,未知,未知,未知,未知,未知,未知,未知
5,000830,103227188.24999996,103227188.24999996,2015-03-31,一季度报告,84644461.27999999,2015,3,2.662235531753073,False,未知,未知,未知,未知,未知,未知,,未知
6,000830,278024233.27000004,278024233.27000004,2015-06-30,半年度报告,251673305.99,2015,6,0.7422104027187885,False,未知,未知,未知,未知,未知,未知,624520000.0,未知
7,000830,350303948.85999995,350303948.85999995,2015-09-30,三季度报告,302198473.07000005,2015,9,0.012491852428919582,True,未知,未知,未知,未知,未知,未知,,未知
8,000830,289313758.75999993,289313758.75999993,2015-12-31,年度报告,225791669.87000003,2015,12,-0.15272819421878492,True,未知,未知,未知,未知,未知,未知,624673333.0,未知
9,000830,15724021.380000005,15724021.380000005,2016-03-31,一季度报告,7430112.869999999,2016,3,1.963575120239703,False,未知,未知,未知,未知,未知,未知,未知,未知
10,000830,128072057.57000002,128072057.57000002,2016-06-30,半年度报告,103559371.01000002,2016,6,0.10034123008589638,True,未知,未知,未知,未知,未知,未知,197410000.0,未知
11,000830,179480040.16999996,179480040.16999996,2016-09-30,三季度报告,144103995.66,2016,9,-0.12669689329633416,True,未知,未知,未知,未知,未知,未知,,未知
12,000830,252597950.3,252597950.3,2016-12-31,年度报告,203247807.64,2016,12,0.057404003671242876,True,0.13247699897199547,True,0.0,True,比例外推,252597950.3,235000000.0,252597950.3
13,000830,240207551.16,240207551.16,2017-03-31,一季度报告,234951072.57,2017,3,18.455679907629328,False,0.831613692108527,True,0.17779248020952668,False,前期平均,435572521.9,782067500.0,782067500.0
14,000830,551202363.41,551202363.41,2017-06-30,半年度报告,535793070.65,2017,6,1.3886672287028206,False,0.4353309669708852,True,0.40753277804924526,False,前期平均,619930865.0949999,1020807000.0,1020807000.0
15,000830,1071790155.14,1071790155.14,2017-09-30,三季度报告,1044923949.27,2017,9,0.7044877332333846,False,0.4498283758111104,True,0.3649787688803382,False,前期平均,1054237179.38,1580965833.0,1580965833.0
16,000830,1949906862.8700004,1949936379.17,2017-12-31,年度报告,1959973392.4400003,2017,12,0.21110059074774698,True,0.2232300449866869,True,0.0,True,比例外推,1949936379.17,1596039333.0,1596039333.0
17,000830,816213818.77,817320185.6300002,2018-03-31,一季度报告,814516455.1899999,2018,3,0.2735716481545103,True,3.038757603342921,False,0.19777520916025534,False,未知,未知,3295370714.0,未知
18,000830,1716739471.4700005,1720161483.28,2018-06-30,半年度报告,1707973344.060001,2018,6,-0.44499235283131955,True,1.7146387487058876,True,0.4821207122314315,False,平均增速,7744060464.797924,3367596471.0,3367596471.0
19,000830,2346313125.02,2351426685.2900004,2018-09-30,三季度报告,2329404535.320001,2018,9,-0.714569568153908,True,3.046140228217837,False,0.47821739252458884,False,未知,未知,2953885000.0,未知
20,000830,3067333329.130001,3067752732.300001,2018-12-31,年度报告,3147813367.63,2018,12,-0.8431096722334088,True,6.1964005585054025,False,0.0,True,比例外推,3067752732.300001,3102286875.0,3067752732.300001
21,000830,361442341.8,361846606.25,2019-03-31,一季度报告,357589353.43000007,2019,3,-0.6251943794690821,True,5.378375365489012,False,0.12036033576782873,False,未知,未知,2362859000.0,未知
22,000830,763139874.1100001,763285981.8399997,2019-06-30,半年度报告,748750660.2399999,2019,6,-0.8218008428686926,True,4.054627168186999,False,0.16845935359507758,False,未知,未知,1871440000.0,未知
23,000830,864229174.6500003,864133910.62,2019-09-30,三季度报告,831059924.7699999,2019,9,-0.8696160697530974,True,2.750290119295465,False,0.1275833956743696,False,未知,未知,1173030000.0,未知
24,000830,1691946832.27,1691616406.13,2019-12-31,年度报告,937618901.32,2019,12,-0.9002646618400715,True,1.7853136218261227,True,0.0,True,比例外推,1691616406.13,3098337500.0,3098337500.0
25,000830,15274255.809999995,15297631.659999995,2020-03-31,一季度报告,2550160.45,2020,3,-0.15360905059850952,True,0.31572315349139574,True,0.13346243329203822,False,平均增速,293447271.82177526,827870000.0,827870000.0
