,SECURITYCODE_x,NETPROFIT_x,PARENTNETPROFIT_x,REPORTDATE_x,REPORTTIMETYPE_x,KCFJCXSYJLR,Year,Month,managesituationChangeRate,managesituationGreatChange,historyprofitextroplaterate,ifhistoryprofitextroplate,IfprofitdisStableChangeRage,IfprofitdisStable,predicttype,predict,analyst_prediction,adj_prediction
0,000888,113022661.84,114201786.59,2013-12-31,年度报告,115618908.71,2013,12,未知,未知,未知,未知,未知,未知,未知,未知,未知,未知
1,000888,9585032.510000004,9885156.28,2014-03-31,一季度报告,9798379.53,2014,3,未知,未知,未知,未知,未知,未知,未知,未知,未知,未知
2,000888,53161695.93999999,53818663.63,2014-06-30,半年度报告,55019049.52,2014,6,未知,未知,未知,未知,未知,未知,未知,未知,未知,未知
3,000888,140438542.52,141298005.95999998,2014-09-30,三季度报告,142512546.40999997,2014,9,未知,未知,未知,未知,未知,未知,未知,未知,未知,未知
4,000888,188018366.33,189503997.45,2014-12-31,年度报告,190294960.77,2014,12,0.0,True,未知,未知,未知,未知,未知,未知,未知,未知
5,000888,2121744.0,2604005.99,2015-03-31,一季度报告,2572294.15,2015,3,10.791578351151566,False,未知,未知,未知,未知,未知,未知,229992751.0,未知
6,000888,53428844.99000001,54850766.3,2015-06-30,半年度报告,55042192.20999998,2015,6,1.126016859348525,False,未知,未知,未知,未知,未知,未知,226452647.0,未知
7,000888,138742664.04,141562858.64000002,2015-09-30,三季度报告,141640816.25,2015,9,-0.19521621478018172,True,未知,未知,未知,未知,未知,未知,205570000.0,未知
8,000888,190938776.61000004,196248208.16,2015-12-31,年度报告,140834343.51999998,2015,12,-0.39887435442541536,True,未知,未知,未知,未知,未知,未知,204914791.0,未知
9,000888,14820251.1,16033529.63,2016-03-31,一季度报告,16091767.13,2016,3,52.26875525039779,False,未知,未知,未知,未知,未知,未知,219986722.99999997,未知
10,000888,57152401.03000001,59387278.87000001,2016-06-30,半年度报告,58513110.73,2016,6,1.1153865830555358,False,未知,未知,未知,未知,未知,未知,212479504.00000003,未知
11,000888,140922341.58,144704540.24,2016-09-30,三季度报告,146906573.92999998,2016,9,-0.1853791865534946,True,未知,未知,未知,未知,未知,未知,196778182.00000003,未知
12,000888,186937945.93,191199521.16,2016-12-31,年度报告,154353299.91,2016,12,-0.4080685765005542,True,0.26852328249540497,True,0.0,True,比例外推,191199521.16,200907692.0,191199521.16
13,000888,16511585.070000006,16518494.22,2017-03-31,一季度报告,16388323.04,2017,3,6.626231234368223,False,1.5319098023850455,True,0.04625016046647068,True,前期平均,175897809.525,214007368.0,214007368.0
14,000888,62856803.79000001,62780521.68000001,2017-06-30,半年度报告,63146705.75000001,2017,6,0.9775662929834391,False,0.07237284906046315,True,0.06388823812839783,True,前期平均,173314552.96000004,203019091.0,203019091.0
15,000888,151351595.82999998,151497771.02,2017-09-30,三季度报告,154944251.87999997,2017,9,-0.19797910982171465,True,0.00954031481136824,True,0.15322495841867567,False,平均增速,158843039.21353683,195157500.0,195157500.0
16,000888,196426121.47,196605770.5,2017-12-31,年度报告,199016402.89000005,2017,12,-0.3954001084278417,True,0.013408511159280491,True,0.0,True,比例外推,196605770.5,195617500.0,196605770.5
17,000888,18279027.49,18389965.96,2018-03-31,一季度报告,18316963.92,2018,3,5.8450522079404434,False,0.9491901600184035,True,0.0500233525698736,True,前期平均,156651757.035,238070000.0,238070000.0
18,000888,69891813.2,70035195.63000001,2018-06-30,半年度报告,70571302.03,2018,6,0.7980975013874467,False,0.13684383297022285,True,0.04510898735498331,True,前期平均,160851365.875,233529000.0,233529000.0
19,000888,168567796.54000002,168834243.86,2018-09-30,三季度报告,168932592.54999998,2018,9,-0.2532443333670001,True,0.08237779334931708,True,0.1334604647148857,False,平均增速,219141589.27246398,222698750.0,219141589.27246398
20,000888,208798943.29,209237064.62000003,2018-12-31,年度报告,209404253.61,2018,12,-0.4246047267330386,True,0.039630703630903555,True,0.0,True,比例外推,209237064.62000003,242550714.0,242550714.0
21,000888,19267844.339999992,19385824.950000007,2019-03-31,一季度报告,18083599.220000006,2019,3,5.183187913133338,False,0.16680218745060515,True,0.012895754827818684,True,前期平均,179830631.26500005,220771176.0,220771176.0
22,000888,77000831.41000001,77110897.24999999,2019-06-30,半年度报告,74443637.5,2019,6,0.6171087379945095,False,0.16477420719235109,True,0.03462243744230126,True,前期平均,192965840.41000003,220763636.0,220763636.0
23,000888,186127631.58000004,186299648.0,2019-09-30,三季度报告,182393596.64,2019,9,-0.32951213600765983,True,0.15349181000380627,True,0.10607698629954376,False,平均增速,231839551.5144906,229375000.0,231839551.5144906
24,000888,225897311.9100001,226176414.65,2019-12-31,年度报告,224600917.12,2019,12,-0.4587009873750975,True,0.08929845567472193,True,0.0,True,比例外推,226176414.65,229285714.0,226176414.65
25,000888,-96060023.52,-95889305.76,2020-03-31,一季度报告,-97450151.34000002,2020,3,4.865869572413208,False,0.1076461678718997,True,0.004027538520529478,True,盈利变化,72131413.9033333,88340000.0,88340000.0
