,SECURITYCODE_x,NETPROFIT_x,PARENTNETPROFIT_x,REPORTDATE_x,REPORTTIMETYPE_x,KCFJCXSYJLR,Year,Month,managesituationChangeRate,managesituationGreatChange,historyprofitextroplaterate,ifhistoryprofitextroplate,IfprofitdisStableChangeRage,IfprofitdisStable,predicttype,predict,analyst_prediction,adj_prediction
0,000852,97662253.32999998,103787863.71999998,2013-12-31,年度报告,97838384.71999998,2013,12,未知,未知,未知,未知,未知,未知,未知,未知,未知,未知
1,000852,-1441859.0599999996,965937.31,2014-03-31,一季度报告,1437925.4,2014,3,未知,未知,未知,未知,未知,未知,未知,未知,未知,未知
2,000852,92733263.78,74259796.53999998,2014-06-30,半年度报告,53333168.61999999,2014,6,未知,未知,未知,未知,未知,未知,未知,未知,未知,未知
3,000852,218156025.39,191886298.74,2014-09-30,三季度报告,191274279.97,2014,9,未知,未知,未知,未知,未知,未知,未知,未知,未知,未知
4,000852,257148786.78,228790869.88000005,2014-12-31,年度报告,41582387.49,2014,12,0.0,True,未知,未知,未知,未知,未知,未知,未知,未知
5,000852,33260659.800000004,22024108.01,2015-03-31,一季度报告,-19520093.81,2015,3,-68.73356428470895,False,未知,未知,未知,未知,未知,未知,89000000.0,未知
6,000852,21550315.750000004,2959586.5400000005,2015-06-30,半年度报告,-17779540.9,2015,6,0.0531523355167731,True,未知,未知,未知,未知,未知,未知,,未知
7,000852,-27748669.820000004,-54501933.5,2015-09-30,三季度报告,-75829616.64,2015,9,-0.5523284165293713,True,未知,未知,未知,未知,未知,未知,43000000.0,未知
8,000852,42572040.88,5837230.21,2015-12-31,年度报告,-75256230.00999999,2015,12,-0.6202111059790706,True,未知,未知,未知,未知,未知,未知,99000000.0,未知
9,000852,-90965117.07,-94498470.95,2016-03-31,一季度报告,-94665759.82000002,2016,3,1.936269271783958,False,未知,未知,未知,未知,未知,未知,未知,未知
10,000852,-170246542.24,-176003096.64000002,2016-06-30,半年度报告,-178362554.33,2016,6,3.5318247056310517,False,未知,未知,未知,未知,未知,未知,未知,未知
11,000852,-334616505.63999987,-340696824.03000003,2016-09-30,三季度报告,-348297713.13,2016,9,-4.519529186930949,False,未知,未知,未知,未知,未知,未知,未知,未知
12,000852,-807847582.3900001,-828721994.6400003,2016-12-31,年度报告,-862514006.0200003,2016,12,1.2940467807330542,False,0.7600297844914767,True,0.0,True,盈利变化,-256582028.4600001,,-256582028.4600001
13,000852,-106788421.45,-107528490.01999998,2017-03-31,一季度报告,-112132715.56000005,2017,3,-2.073623125827963,False,6.7176961390405925,False,0.12480925195517076,False,去年同期,-875376736.2200003,81350000.0,81350000.0
14,000852,-155382930.42,-158934304.71000004,2017-06-30,半年度报告,-168523202.49999997,2017,6,-1.5736519053193077,False,3.979370141190046,False,0.7073778232829897,False,去年同期,-843085756.4000003,,-843085756.4000003
15,000852,-109445576.48999998,-125956150.47,2017-09-30,三季度报告,-140897192.86,2017,9,-1.2918632275571929,False,4.514743478667596,False,2.596112606735938,False,去年同期,-640172443.3600004,未知,-640172443.3600004
16,000852,34686702.14,9413754.4,2017-12-31,年度报告,-75121148.54,2017,12,-1.1208919299369173,False,6.3906669663038125,False,0.0,True,前期平均,9413754.4,未知,9413754.4
17,000852,-86699819.18,-84627530.08,2018-03-31,一季度报告,-94304595.9,2018,3,-1.9145397226021077,False,-2.7012191606043685,True,0.8720820103614433,False,前期平均,-496419721.28000015,,-496419721.28000015
18,000852,-79004799.68,-82888490.39,2018-06-30,半年度报告,-116971875.37,2018,6,-1.6285262677568184,False,-1.0899377756630517,True,1.3478858049875058,False,前期平均,-453702560.79000014,116176667.0,116176667.0
19,000852,-23083321.79000001,-36517739.19000001,2018-09-30,三季度报告,-71820192.83000001,2018,9,-1.8923362319620416,False,-0.39593766784534035,True,0.7799210364171412,False,前期平均,-293339192.3200002,105530000.0,105530000.0
20,000852,31945866.78,13535355.550000004,2018-12-31,年度报告,-100020200.42,2018,12,1.8155531458661749,False,-1.0906515372791297,True,0.0,True,前期平均,13535355.550000004,105530000.0,105530000.0
21,000852,14588827.61,10423227.01,2019-03-31,一季度报告,1866699.71,2019,3,-2.1264412573599554,False,-0.12315279080347234,True,0.7386786553268985,False,盈利变化,141763749.69666666,162961667.0,162961667.0
22,000852,31571222.89,21658215.56,2019-06-30,半年度报告,5500955.249999999,2019,6,-2.236155951607622,False,-0.5147564559520604,True,1.0368094369322767,False,盈利变化,95183909.29666668,125736667.0,125736667.0
23,000852,49673285.52000001,34657312.06000001,2019-09-30,三季度报告,13294590.52,2019,9,-5.2308578556622,False,-0.8960356097990716,True,0.8764417855144272,False,盈利变化,51364148.150000006,81510000.0,81510000.0
24,000852,45181756.05,24947334.64,2019-12-31,年度报告,-63156746.14000002,2019,12,2.0571170287087757,False,-1.082637049017975,True,0.0,True,前期平均,24947334.64,206890000.0,206890000.0
25,000852,-3133303.52,-14226149.160000002,2020-03-31,一季度报告,-14269121.470000004,2020,3,5.694318141305392,False,-1.1507980801572086,True,0.8315534797569158,False,盈利变化,3432906.399999995,,3432906.399999995
