,SECURITYCODE_x,NETPROFIT_x,PARENTNETPROFIT_x,REPORTDATE_x,REPORTTIMETYPE_x,KCFJCXSYJLR,Year,Month,managesituationChangeRate,managesituationGreatChange,historyprofitextroplaterate,ifhistoryprofitextroplate,IfprofitdisStableChangeRage,IfprofitdisStable,predicttype,predict,analyst_prediction,adj_prediction
0,000813,79938871.36,29299944.24,2013-12-31,年度报告,-32517999.41,2013,12,未知,未知,未知,未知,未知,未知,未知,未知,未知,未知
1,000813,7432187.07,7114211.719999999,2014-03-31,一季度报告,-6500411.19,2014,3,未知,未知,未知,未知,未知,未知,未知,未知,未知,未知
2,000813,23836444.739999995,15664883.79,2014-06-30,半年度报告,1544857.57,2014,6,未知,未知,未知,未知,未知,未知,未知,未知,未知,未知
3,000813,61786664.38,41459159.27,2014-09-30,三季度报告,26901620.23,2014,9,未知,未知,未知,未知,未知,未知,未知,未知,未知,未知
4,000813,51311413.9,21503636.62,2014-12-31,年度报告,337505091.1,2014,12,0.0,True,未知,未知,未知,未知,未知,未知,未知,未知
5,000813,10617541.0,5149675.22,2015-03-31,一季度报告,4146093.2700000005,2015,3,9.755766856659596,False,未知,未知,未知,未知,未知,未知,未知,未知
6,000813,16502712.63,5586652.279999998,2015-06-30,半年度报告,3393532.05,2015,6,2.353640705732193,False,未知,未知,未知,未知,未知,未知,未知,未知
7,000813,506296561.6999999,509204626.0300001,2015-12-31,年度报告,503030892.18,2015,12,0.5579159739349923,False,未知,未知,未知,未知,未知,未知,未知,未知
8,000813,130588065.23,130773079.59000002,2016-03-31,一季度报告,129478947.75,2016,3,6.528943976764488,False,未知,未知,未知,未知,未知,未知,,未知
9,000813,333263761.04999995,334068669.86,2016-06-30,半年度报告,332086381.65,2016,6,3.8439837226929883,False,未知,未知,未知,未知,未知,未知,未知,未知
10,000813,518336345.59,519964842.69000006,2016-09-30,三季度报告,522684388.7000001,2016,9,未知,未知,未知,未知,未知,未知,未知,未知,未知,未知
11,000813,659198594.7699999,661671880.16,2016-12-31,年度报告,661637482.0799999,2016,12,-0.8421105782516318,True,6.714978458097105,False,0.0,True,比例外推,661671880.16,655610000.0,661671880.16
12,000813,162360722.85,162846842.28,2017-03-31,一季度报告,161557656.69000003,2017,3,-0.3878546923931634,True,13.469809708329862,False,0.13413578688252134,False,未知,未知,未知,未知
13,000813,426054842.99000007,427347813.67000014,2017-06-30,半年度报告,423103479.11,2017,6,-0.7601333217024857,True,15.523089859970467,False,0.33083612376710037,False,未知,未知,817066667.0,未知
14,000813,633097464.3699999,633572962.12,2017-09-30,三季度报告,628790557.5800003,2017,9,-0.8457779933046967,True,未知,未知,未知,未知,未知,未知,804400000.0,未知
15,000813,795310431.0800003,797177693.48,2017-12-31,年度报告,788841122.6199999,2017,12,-0.8787332497456379,True,1.364380079250789,True,0.0,True,比例外推,797177693.48,813800000.0,797177693.48
16,000813,177880864.49999997,177880864.49999997,2018-03-31,一季度报告,176120093.11,2018,3,-0.5076464925950531,True,1.2996356474054136,True,0.12800468242808327,False,平均增速,913030912.1702218,964400000.0,913030912.1702218
17,000813,443722311.12,443722311.12,2018-06-30,半年度报告,440490401.11,2018,6,-0.8123742220625896,True,1.4362245958416018,True,0.3415948011347272,False,平均增速,863382963.8344814,892000000.0,863382963.8344814
18,000813,730112461.9100001,730112461.9100001,2018-09-30,三季度报告,725119992.5400001,2018,9,-0.8737337047471074,True,未知,未知,未知,未知,未知,未知,965000000.0,未知
19,000813,930525670.98,930525670.98,2018-12-31,年度报告,924031064.44,2018,12,-0.899487208722453,True,0.3647597360915705,True,0.0,True,比例外推,930525670.98,1067000000.0,1067000000.0
20,000813,120802841.01,120802841.01,2019-03-31,一季度报告,120017665.13,2019,3,-0.5506044363754483,True,0.2144161146106079,True,0.007771046860862191,True,比例外推,609910640.5274652,未知,609910640.5274652
21,000813,241933692.44000003,241933692.44000003,2019-06-30,半年度报告,230630842.12,2019,6,-0.8198448233125213,True,0.16873815223056293,True,0.03136685291267227,True,比例外推,468003034.2328434,未知,468003034.2328434
22,000813,337687727.29,338232991.95000017,2019-09-30,三季度报告,308609452.34,2019,9,-0.8905115642720615,True,0.26817964800836236,True,0.00649728611548428,True,比例外推,419967292.46446663,,419967292.46446663
23,000813,335703002.95000005,336921030.17,2019-12-31,年度报告,255176480.19,2019,12,-0.9140927823347302,True,0.2795048424484136,True,0.0,True,比例外推,336921030.17,,336921030.17
24,000813,91064829.49000002,91561632.0,2020-03-31,一季度报告,73029190.26,2020,3,-0.33826993892153,True,0.2898996154415865,True,0.18175348557609233,False,平均增速,181594556.75426936,未知,181594556.75426936
