,SECURITYCODE_x,NETPROFIT_x,PARENTNETPROFIT_x,REPORTDATE_x,REPORTTIMETYPE_x,KCFJCXSYJLR,Year,Month,managesituationChangeRate,managesituationGreatChange,historyprofitextroplaterate,ifhistoryprofitextroplate,IfprofitdisStableChangeRage,IfprofitdisStable,predicttype,predict,analyst_prediction,adj_prediction
0,000882,63224274.08999998,65715267.51000001,2013-12-31,年度报告,46674389.08000001,2013,12,未知,未知,未知,未知,未知,未知,未知,未知,未知,未知
1,000882,10059983.86,7064668.62,2014-03-31,一季度报告,6701946.410000001,2014,3,未知,未知,未知,未知,未知,未知,未知,未知,未知,未知
2,000882,37127646.26,36952364.91,2014-06-30,半年度报告,34759832.52,2014,6,未知,未知,未知,未知,未知,未知,未知,未知,未知,未知
3,000882,46298384.57,48497011.45999999,2014-09-30,三季度报告,46217541.63999999,2014,9,未知,未知,未知,未知,未知,未知,未知,未知,未知,未知
4,000882,65344535.17999999,74319023.24999999,2014-12-31,年度报告,59501387.16,2014,12,0.0,True,未知,未知,未知,未知,未知,未知,未知,未知
5,000882,10084642.57,12473829.67,2015-03-31,一季度报告,3729618.82,2015,3,5.2847291774879634,False,未知,未知,未知,未知,未知,未知,,未知
6,000882,25821562.96,35693552.01,2015-06-30,半年度报告,-108769191.88,2015,6,0.7028893684035005,False,未知,未知,未知,未知,未知,未知,未知,未知
7,000882,214709475.5000001,233539952.97,2015-09-30,三季度报告,-132552057.52000006,2015,9,0.3655827233973831,True,未知,未知,未知,未知,未知,未知,未知,未知
8,000882,194439973.98,220892346.85,2015-12-31,年度报告,-395573899.31000006,2015,12,-0.03244741253663336,True,未知,未知,未知,未知,未知,未知,470880000.0,未知
9,000882,8511992.799999999,18525189.09,2016-03-31,一季度报告,-72631509.63000001,2016,3,5.269361918495836,False,未知,未知,未知,未知,未知,未知,373500000.0,未知
10,000882,35255708.47,46029356.36,2016-06-30,半年度报告,-117910270.65999998,2016,6,1.4485068618015204,False,未知,未知,未知,未知,未知,未知,343000000.0,未知
11,000882,115951606.26,124841437.23,2016-09-30,三季度报告,-155637179.31,2016,9,-0.7055357061314234,True,未知,未知,未知,未知,未知,未知,154000000.0,未知
12,000882,104446949.42,115976901.31999998,2016-12-31,年度报告,-226413387.68,2016,12,-0.6748391146333768,True,2.024683437359488,False,0.0,True,比例外推,115976901.31999998,168500000.0,168500000.0
13,000882,9963933.8,10191175.14,2017-03-31,一季度报告,-41562960.68,2017,3,6.427670062173924,False,0.15491182429437594,True,0.1794588055614288,False,前期平均,-163060863.55,156000000.0,156000000.0
14,000882,28404366.369999994,26948386.89,2017-06-30,半年度报告,-81650582.08999999,2017,6,0.7933060157846258,False,0.12013189385065955,True,0.18500948288983887,False,前期平均,-104083189.50500004,,-104083189.50500004
15,000882,33096794.02,29818329.329999994,2017-09-30,三季度报告,-114037097.79,2017,9,-0.45473567698379913,True,0.11150870147050151,True,0.264658022375233,False,平均增速,77343403.20398268,未知,77343403.20398268
16,000882,10162722.319999997,19862779.19,2017-12-31,年度报告,-220399278.12,2017,12,-0.39467572350281116,True,0.1958954769264425,True,0.0,True,比例外推,19862779.19,364000000.0,364000000.0
17,000882,8851718.16,5902823.7,2018-03-31,一季度报告,-18488613.24,2018,3,5.345312540113421,False,0.07158457449499395,True,0.17607620947232377,False,前期平均,-270639874.3900001,未知,-270639874.3900001
18,000882,301713984.72,296705962.32,2018-06-30,半年度报告,-69860456.50999999,2018,6,1.225864617658781,False,0.06988751445604668,True,0.13203879435719656,False,前期平均,99052050.09499994,未知,99052050.09499994
19,000882,318397100.58,310815518.71,2018-09-30,三季度报告,-83028975.68999998,2018,9,0.9102839402449163,False,0.7998143970022922,True,0.1782127214919796,False,前期平均,143916493.62999997,未知,143916493.62999997
20,000882,28965960.86,32799167.840000004,2018-12-31,年度报告,-461637806.59,2018,12,5.221194685756208,False,0.9319962064288826,True,0.0,True,前期平均,32799167.840000004,未知,32799167.840000004
21,000882,15152401.500000002,13704867.2,2019-03-31,一季度报告,-135418.61,2019,3,6.142599091745142,False,0.041810638065643814,True,0.14309059898552948,False,前期平均,-152604230.54500002,未知,-152604230.54500002
22,000882,42630369.05,41564516.17,2019-06-30,半年度报告,23060077.4,2019,6,-0.7904496400832263,True,8.478907634912861,False,0.19619247988018437,False,未知,未知,未知,未知
23,000882,214221504.39,217634964.85,2019-09-30,三季度报告,86370597.43000002,2019,9,-0.8014294917421387,True,3.272398764184844,False,0.2816997724866732,False,未知,未知,未知,未知
24,000882,39893788.29,48141883.18,2019-12-31,年度报告,-128292419.47,2019,12,1.1827093668868536,False,0.494528508454133,True,0.0,True,前期平均,48141883.18,未知,48141883.18
25,000882,-109911790.59,-112177338.39,2020-03-31,一季度报告,-136411271.01,2020,3,3.1725579994695874,False,0.6106166857478375,True,0.11201833344113989,False,盈利变化,-133559253.3533333,未知,-133559253.3533333
