,SECURITYCODE_x,NETPROFIT_x,PARENTNETPROFIT_x,REPORTDATE_x,REPORTTIMETYPE_x,KCFJCXSYJLR,Year,Month,managesituationChangeRate,managesituationGreatChange,historyprofitextroplaterate,ifhistoryprofitextroplate,IfprofitdisStableChangeRage,IfprofitdisStable,predicttype,predict,analyst_prediction,adj_prediction
0,000819,60141967.95,62453508.62000001,2013-12-31,年度报告,63824436.83000001,2013,12,未知,未知,未知,未知,未知,未知,未知,未知,未知,未知
1,000819,7628061.029999997,8198144.910000001,2014-03-31,一季度报告,8198144.910000001,2014,3,未知,未知,未知,未知,未知,未知,未知,未知,未知,未知
2,000819,7678586.09,9264271.169999998,2014-06-30,半年度报告,9577614.329999998,2014,6,未知,未知,未知,未知,未知,未知,未知,未知,未知,未知
3,000819,23769399.83,26153772.23,2014-09-30,三季度报告,26469953.6,2014,9,未知,未知,未知,未知,未知,未知,未知,未知,未知,未知
4,000819,36486001.71,40572739.63,2014-12-31,年度报告,38391583.59,2014,12,0.0,True,未知,未知,未知,未知,未知,未知,未知,未知
5,000819,15680290.9,11932276.98,2015-03-31,一季度报告,12870264.94,2015,3,6.88430607902465,False,未知,未知,未知,未知,未知,未知,57630000.0,未知
6,000819,29739367.85,26103878.28,2015-06-30,半年度报告,27032698.680000003,2015,6,6.8324273824740045,False,未知,未知,未知,未知,未知,未知,76010000.0,未知
7,000819,37574252.13000001,36445247.59,2015-09-30,三季度报告,37373430.99,2015,9,1.5302266098487354,False,未知,未知,未知,未知,未知,未知,,未知
8,000819,47148260.47000001,48604106.47,2015-12-31,年度报告,48371462.3,2015,12,0.648357318733459,False,未知,未知,未知,未知,未知,未知,未知,未知
9,000819,1750627.4300000004,3417020.73,2016-03-31,一季度报告,3433411.0300000007,2016,3,2.8355135331067105,False,未知,未知,未知,未知,未知,未知,未知,未知
10,000819,12132174.550000004,16188155.060000002,2016-06-30,半年度报告,16215305.2,2016,6,1.0223014911865385,False,未知,未知,未知,未知,未知,未知,未知,未知
11,000819,21128260.4,27828660.89,2016-09-30,三季度报告,27895559.48,2016,9,0.6006165004141624,False,未知,未知,未知,未知,未知,未知,未知,未知
12,000819,11576304.29,30337588.22,2016-12-31,年度报告,30757247.40000001,2016,12,0.27559251074104335,True,0.024128093844913857,True,0.0,True,比例外推,30337588.22,未知,30337588.22
13,000819,1875868.46,3036487.42,2017-03-31,一季度报告,3047643.56,2017,3,33.35452165284534,False,0.8497853957879552,True,0.08545097982183168,True,前期平均,35883805.44,未知,35883805.44
14,000819,-6235407.1000000015,-5120005.06,2017-06-30,半年度报告,-5040057.03,2017,6,3.9572290360758107,False,0.3515319106194824,True,0.1957052175015337,False,盈利变化,16167346.733333332,未知,16167346.733333332
15,000819,2749489.78,5774836.9,2017-09-30,三季度报告,6029519.53,2017,9,1.8465177355538465,False,0.3111508778845779,True,0.11727036682254,False,前期平均,17234667.549999997,未知,17234667.549999997
16,000819,-12577063.72,-9850583.239999998,2017-12-31,年度报告,-10070292.79,2017,12,4.195264951868332,False,0.7231683764941896,True,0.0,True,盈利变化,16728408.15666666,未知,16728408.15666666
17,000819,8478650.46,9556007.180000003,2018-03-31,一季度报告,9607777.5,2018,3,31.060866330680778,False,0.7847653893516923,True,0.3276582838953924,False,前期平均,40968524.045,未知,40968524.045
18,000819,21965259.61,25095690.36,2018-06-30,半年度报告,25008660.3,2018,6,-10.645235184403596,False,1.2978350804674441,True,0.03000743781873616,True,前期平均,43036043.27,未知,43036043.27
19,000819,37524717.59,41699371.87,2018-09-30,三季度报告,41731727.25,2018,9,20.873864884851475,False,0.9063246303607577,True,0.9590264115601059,False,前期平均,48629231.485,未知,48629231.485
20,000819,46558704.75000001,52073630.86,2018-12-31,年度报告,52099839.84,2018,12,-5.781876699436806,False,1.4283408066590497,True,0.0,True,前期平均,52073630.86,未知,52073630.86
21,000819,4993543.820000001,6753313.919999999,2019-03-31,一季度报告,6747850.739999997,2019,3,6.093342063543447,False,3.6759465429864306,False,0.3004380962840467,False,去年同期,49245376.260000005,未知,49245376.260000005
22,000819,25991854.54000001,26614198.710000005,2019-06-30,半年度报告,26454136.759999994,2019,6,1.7380494935110855,False,6.449932457485665,False,0.024634567050355605,True,去年同期,53705378.25000001,未知,53705378.25000001
23,000819,47534589.83000001,48221184.05,2019-09-30,三季度报告,48162664.75000001,2019,9,0.6027293957843747,False,2.143069787322819,False,0.9684802181328813,False,去年同期,58589296.64,未知,58589296.64
24,000819,58575941.24000002,60299774.90000001,2019-12-31,年度报告,58916837.69,2019,12,0.29174486861127713,True,-94.04674700891889,True,0.0,True,比例外推,60299774.90000001,未知,60299774.90000001
25,000819,-25989366.84,-26717886.88000001,2020-03-31,一季度报告,-2432847.2,2020,3,11.04394516557982,False,0.035485113585557025,True,0.30140558095544606,False,盈利变化,48058844.31333335,未知,48058844.31333335
