,SECURITYCODE_x,NETPROFIT_x,PARENTNETPROFIT_x,REPORTDATE_x,REPORTTIMETYPE_x,KCFJCXSYJLR,Year,Month,managesituationChangeRate,managesituationGreatChange,historyprofitextroplaterate,ifhistoryprofitextroplate,IfprofitdisStableChangeRage,IfprofitdisStable,predicttype,predict,analyst_prediction,adj_prediction
0,000889,92765141.41,92903757.45,2013-12-31,年度报告,98736708.07,2013,12,未知,未知,未知,未知,未知,未知,未知,未知,未知,未知
1,000889,39636336.26999999,39663348.19,2014-03-31,一季度报告,39288452.59,2014,3,未知,未知,未知,未知,未知,未知,未知,未知,未知,未知
2,000889,61468692.57999999,61518534.64,2014-06-30,半年度报告,60234381.42,2014,6,未知,未知,未知,未知,未知,未知,未知,未知,未知,未知
3,000889,77554146.89,77602347.71999998,2014-09-30,三季度报告,80392887.99000002,2014,9,未知,未知,未知,未知,未知,未知,未知,未知,未知,未知
4,000889,98678522.44999996,98755198.43,2014-12-31,年度报告,97744902.31,2014,12,0.0,True,未知,未知,未知,未知,未知,未知,未知,未知
5,000889,43701158.32,43703235.01000001,2015-03-31,一季度报告,43562277.15,2015,3,1.340406559730704,False,未知,未知,未知,未知,未知,未知,242512447.0,未知
6,000889,91268438.69,91268438.69,2015-06-30,半年度报告,90708136.42000002,2015,6,0.5091445338497878,False,未知,未知,未知,未知,未知,未知,162500000.0,未知
7,000889,114970228.21,114970228.21,2015-09-30,三季度报告,114425527.68000002,2015,9,0.19613386427388235,True,未知,未知,未知,未知,未知,未知,161164884.0,未知
8,000889,153603203.01000002,153603203.01000002,2015-12-31,年度报告,155400582.05000004,2015,12,-0.059925715274022774,True,未知,未知,未知,未知,未知,未知,未知,未知
9,000889,48240823.52000001,48240823.52000001,2016-03-31,一季度报告,47739499.42999999,2016,3,1.1227158495601175,False,未知,未知,未知,未知,未知,未知,225000000.0,未知
10,000889,127871058.04000002,127871058.04000002,2016-06-30,半年度报告,125756588.02,2016,6,0.01639890789721582,True,未知,未知,未知,未知,未知,未知,232428822.0,未知
11,000889,172689370.22999996,172689370.22999996,2016-09-30,三季度报告,171169041.10999998,2016,9,-0.19313771178605543,True,未知,未知,未知,未知,未知,未知,224000000.0,未知
12,000889,219954137.88,219954137.88,2016-12-31,年度报告,214953701.91,2016,12,-0.3960728709286048,True,0.6046830687729406,True,0.0,True,比例外推,219954137.88,,219954137.88
13,000889,45685374.41999999,45685374.41999999,2017-03-31,一季度报告,45660615.70999999,2017,3,0.9229593245136205,False,0.15772195354163257,True,0.10049441281516996,False,前期平均,130832751.73,274000000.0,274000000.0
14,000889,107807126.95,107807126.95,2017-06-30,半年度报告,107962016.75000004,2017,6,-0.27454153557577005,True,0.6743938684295028,True,0.02124522821580921,True,比例外推,181295276.23850045,,181295276.23850045
15,000889,177417975.05,177417975.05,2017-09-30,三季度报告,170632573.81,2017,9,-0.46282077879808814,True,0.7939481184167205,True,0.04871019418947087,True,比例外推,224141646.64864364,252000000.0,252000000.0
16,000889,228581216.75,228581216.75,2017-12-31,年度报告,226636787.19000003,2017,12,-0.5782523470387735,True,0.7437183567612342,True,0.0,True,比例外推,228581216.75,274000000.0,274000000.0
17,000889,65451649.03,65451649.03,2018-03-31,一季度报告,64583223.36999998,2018,3,1.0305216404090494,False,0.006212972448147848,True,0.04569416935907028,True,前期平均,204977902.72000006,447000000.0,447000000.0
18,000889,115669623.08,109866209.78000002,2018-06-30,半年度报告,109340957.56999998,2018,6,-0.13952681947434095,True,0.016086752423016815,True,0.07200466011902756,True,比例外推,199917749.59807178,447000000.0,447000000.0
19,000889,161671320.28,161486869.37999997,2018-09-30,三季度报告,158611421.40999997,2018,9,-0.47713786394046664,True,0.2335272385288118,True,0.0344656134531518,True,比例外推,211070378.80038866,260847500.0,260847500.0
20,000889,252883527.21,252883527.21,2018-12-31,年度报告,244261174.7,2018,12,-0.5941698853083912,True,0.22380792306426361,True,0.0,True,比例外推,252883527.21,261574000.0,252883527.21
21,000889,52422031.91000001,52422031.91000001,2019-03-31,一季度报告,52287839.98,2019,3,0.41730793318103804,True,0.3936824968005301,True,0.03508073251449001,True,比例外推,228145163.7674356,388640000.0,388640000.0
22,000889,83590401.22000001,83590401.22000001,2019-06-30,半年度报告,82278470.75000001,2019,6,-0.1980163941068494,True,0.018410438921973696,True,0.08202511672017387,True,比例外推,164882466.81074467,334516667.0,334516667.0
23,000889,110969135.78,110969135.78,2019-09-30,三季度报告,105723017.12,2019,9,-0.4262115182251297,True,0.07644713851574514,True,0.08349768797101764,True,比例外推,149509062.10623366,,149509062.10623366
24,000889,-1240168787.9299998,-1240168787.9299998,2019-12-31,年度报告,-1203632653.04,2019,12,-0.6331704859013383,True,0.1275968531782982,True,0.0,True,比例外推,-1240168787.9299998,345230000.0,345230000.0
25,000889,-22767645.9,-22767645.9,2020-03-31,一季度报告,-24723437.01,2020,3,0.7695830937889332,False,0.056623431460094284,True,0.18425205504227754,False,盈利变化,-1342850490.5833333,275035000.0,275035000.0
