,SECURITYCODE_x,NETPROFIT_x,PARENTNETPROFIT_x,REPORTDATE_x,REPORTTIMETYPE_x,KCFJCXSYJLR,Year,Month,managesituationChangeRate,managesituationGreatChange,historyprofitextroplaterate,ifhistoryprofitextroplate,IfprofitdisStableChangeRage,IfprofitdisStable,predicttype,predict,analyst_prediction,adj_prediction
0,000802,32187138.06000001,32547754.06,2013-12-31,年度报告,1161249.0099999998,2013,12,未知,未知,未知,未知,未知,未知,未知,未知,未知,未知
1,000802,1485026.25,1360904.98,2014-03-31,一季度报告,-1949078.1,2014,3,未知,未知,未知,未知,未知,未知,未知,未知,未知,未知
2,000802,6381341.0299999975,6316979.47,2014-06-30,半年度报告,2577581.7,2014,6,未知,未知,未知,未知,未知,未知,未知,未知,未知,未知
3,000802,19206861.43,19777086.750000004,2014-09-30,三季度报告,13679477.64,2014,9,未知,未知,未知,未知,未知,未知,未知,未知,未知,未知
4,000802,77374843.51,79843675.09,2014-12-31,年度报告,41755909.82999999,2014,12,0.0,True,未知,未知,未知,未知,未知,未知,未知,未知
5,000802,-2540494.54,-1842688.8600000003,2015-03-31,一季度报告,-1802729.57,2015,3,20.67445731009806,False,未知,未知,未知,未知,未知,未知,196811885.0,未知
6,000802,924327.01,3361566.65,2015-06-30,半年度报告,461296.31,2015,6,4.043945764484557,False,未知,未知,未知,未知,未知,未知,191372000.0,未知
7,000802,9407370.72,3646515.63,2015-09-30,三季度报告,718175.14,2015,9,0.6758145612341209,False,未知,未知,未知,未知,未知,未知,83189077.0,未知
8,000802,20576325.99,21224567.340000004,2015-12-31,年度报告,-34918330.38000001,2015,12,-0.5840102984396975,True,未知,未知,未知,未知,未知,未知,230000000.0,未知
9,000802,-27268944.63,-25024084.87,2016-03-31,一季度报告,-25183740.4,2016,3,-13.669634810551495,False,未知,未知,未知,未知,未知,未知,257966459.0,未知
10,000802,6825674.659999997,10188053.75,2016-06-30,半年度报告,-16737068.4,2016,6,33.822241167657765,False,未知,未知,未知,未知,未知,未知,240487143.0,未知
11,000802,11032951.25,14374499.44,2016-09-30,三季度报告,-6247707.06,2016,9,2.42148077481101,False,未知,未知,未知,未知,未知,未知,271720000.0,未知
12,000802,524108502.34,522399245.7600001,2016-12-31,年度报告,182501300.79,2016,12,0.5642801380403292,False,0.624389305575792,True,0.0,True,前期平均,522399245.7600001,257373236.0,257373236.0
13,000802,4429336.55,5009867.16,2017-03-31,一季度报告,5073914.739999998,2017,3,-2.180358774302884,False,-50.67174587499924,True,0.09597468855035339,True,盈利变化,562742785.9466667,320221445.0,320221445.0
14,000802,37618430.26,38657409.59,2017-06-30,半年度报告,33901166.06999999,2017,6,3.715598041703327,False,0.8685969914395398,True,0.07731254848187116,True,前期平均,40556760.309999995,363945847.99999994,363945847.99999994
15,000802,17419268.11,18916199.99,2017-09-30,三季度报告,14373310.769999998,2017,9,1.917364296339115,False,0.22884869374347336,True,0.23667087336612114,False,前期平均,15136163.324999988,410495409.0,410495409.0
16,000802,320300084.80999994,310333510.41,2017-12-31,年度报告,300103743.5,2017,12,-0.9385868805480291,True,9.701424087437772,False,0.0,True,比例外推,310333510.41,391446939.0,391446939.0
17,000802,12706998.989999998,12752804.9,2018-03-31,一季度报告,12743856.96,2018,3,6.266807951181765,False,-1.297176778451951,True,0.1148394860137702,False,前期平均,100037525.09,407382000.0,407382000.0
18,000802,44095905.49,44235389.91,2018-06-30,半年度报告,43509226.71,2018,6,-0.14437849114015605,True,8.707979910667557,False,0.11028322518699335,False,未知,未知,429990000.0,未知
19,000802,46041630.03,46259099.75,2018-09-30,三季度报告,45307872.33,2018,9,0.8477893477925239,False,0.7044025172955728,True,0.05019666530701898,True,前期平均,122815350.91499999,383970000.0,383970000.0
20,000802,121403579.88,125105283.36,2018-12-31,年度报告,109203120.94,2018,12,-0.899509430104918,True,0.1760932860643021,True,0.0,True,比例外推,125105283.36,388646667.0,388646667.0
21,000802,-19602107.63,-17497196.12,2019-03-31,一季度报告,-15715192.079999998,2019,3,1.5330243659679408,False,-2.1127160278312447,True,0.13653002768053007,False,盈利变化,87159884.64,431333333.0,431333333.0
22,000802,-47916800.18000001,-45970749.52,2019-06-30,半年度报告,-44046338.58000001,2019,6,-0.2700651522554774,True,0.9843309059490901,True,0.2585313326326891,False,平均增速,-46240302.09187788,420000000.0,420000000.0
23,000802,124982707.0,126558285.14,2019-09-30,三季度报告,124855751.06,2019,9,-0.30091228223181116,True,2.236417479244403,False,0.27204336331243484,False,未知,未知,,未知
24,000802,-2319247883.570001,-2305834809.46,2019-12-31,年度报告,-2281849336.65,2019,12,-0.7348748851408252,True,0.7124529955580995,True,0.0,True,比例外推,-2305834809.46,447666667.0,447666667.0
25,000802,-19236809.360000007,-19235504.69,2020-03-31,一季度报告,-19870244.43,2020,3,-2.6420243510314823,False,3.2877828908338476,False,0.06986768625280394,True,去年同期,-2285369649.26,330795000.0,330795000.0
