,SECURITYCODE_x,NETPROFIT_x,PARENTNETPROFIT_x,REPORTDATE_x,REPORTTIMETYPE_x,KCFJCXSYJLR,Year,Month,managesituationChangeRate,managesituationGreatChange,historyprofitextroplaterate,ifhistoryprofitextroplate,IfprofitdisStableChangeRage,IfprofitdisStable,predicttype,predict,analyst_prediction,adj_prediction
0,000821,11532529.8,10184408.22,2013-12-31,年度报告,-36447421.56,2013,12,未知,未知,未知,未知,未知,未知,未知,未知,未知,未知
1,000821,750668.64,-3568469.39,2014-03-31,一季度报告,-2198823.88,2014,3,未知,未知,未知,未知,未知,未知,未知,未知,未知,未知
2,000821,-6050546.310000001,-11137131.160000002,2014-06-30,半年度报告,-11900470.710000005,2014,6,未知,未知,未知,未知,未知,未知,未知,未知,未知,未知
3,000821,4612425.830000001,-2184556.9400000004,2014-09-30,三季度报告,-15048498.209999995,2014,9,未知,未知,未知,未知,未知,未知,未知,未知,未知,未知
4,000821,21957183.44,10588221.8,2014-12-31,年度报告,-51179528.84999999,2014,12,0.0,True,未知,未知,未知,未知,未知,未知,未知,未知
5,000821,25711235.29,23917013.3,2015-03-31,一季度报告,647822.8899999999,2015,3,14.363009969352124,False,未知,未知,未知,未知,未知,未知,103000000.0,未知
6,000821,36281400.13,28413158.48,2015-06-30,半年度报告,-7877480.6099999985,2015,6,-2.906031159688785,False,未知,未知,未知,未知,未知,未知,,未知
7,000821,28776721.04,18427083.090000004,2015-09-30,三季度报告,-9829737.47,2015,9,1.5003176690648266,False,未知,未知,未知,未知,未知,未知,49000000.0,未知
8,000821,65638547.68999998,50588314.8,2015-12-31,年度报告,5474065.8500000015,2015,12,-0.47477189724658053,True,未知,未知,未知,未知,未知,未知,49000000.0,未知
9,000821,3997955.64,927667.16,2016-03-31,一季度报告,17075202.099999998,2016,3,-0.5514595207144557,True,未知,未知,未知,未知,未知,未知,88666667.0,未知
10,000821,33494472.86000001,27834048.570000004,2016-06-30,半年度报告,41420392.19999999,2016,6,-0.6821365835199922,True,未知,未知,未知,未知,未知,未知,126325000.0,未知
11,000821,52854308.36,44728752.82,2016-09-30,三季度报告,57020716.87000001,2016,9,-0.599241005117656,True,未知,未知,未知,未知,未知,未知,112200000.0,未知
12,000821,97882088.0,85362986.27000001,2016-12-31,年度报告,94475744.75,2016,12,-0.8243024837407094,True,2.91992294586754,False,0.0,True,比例外推,85362986.27000001,117500000.0,117500000.0
13,000821,17229072.079999994,12421254.750000006,2017-03-31,一季度报告,10432602.78,2017,3,1.8846067436606175,False,0.6978331075061083,True,0.07105148432073993,True,前期平均,-9655976.254999986,136853333.0,136853333.0
14,000821,77579032.39999999,71323576.63000001,2017-06-30,半年度报告,62027859.95,2017,6,-0.655688571418825,True,1.2159131236869585,True,1.1830190500122897,False,平均增速,367913427.2207782,210766667.00000003,210766667.00000003
15,000821,111549461.82999998,105863296.77,2017-09-30,三季度报告,94877946.65,2017,9,-0.7818053029575204,True,2.165957403211722,False,1.4963222430567473,False,未知,未知,215333332.99999997,未知
16,000821,159991639.63000005,153224480.30000004,2017-12-31,年度报告,133137955.14,2017,12,-0.8821793646249149,True,1.2348597754092407,True,0.0,True,比例外推,153224480.30000004,,153224480.30000004
17,000821,41228176.42999999,41663394.71999999,2018-03-31,一季度报告,40000037.57000001,2018,3,-0.33063546623690226,True,0.15984794877751285,True,0.054923122142372466,True,比例外推,319595226.9287589,298250000.0,319595226.9287589
18,000821,224272945.47000003,219978841.73,2018-06-30,半年度报告,88437492.41000001,2018,6,-0.8513447584582146,True,1.2236635408665772,True,1.2608082498941646,False,平均增速,602543304.0468116,312000000.0,312000000.0
19,000821,271028057.92,268534427.7,2018-09-30,三季度报告,133351983.12,2018,9,-0.8966151014016057,True,1.7330161741167502,True,1.6358540089346376,False,平均增速,473981482.76836264,,473981482.76836264
20,000821,155291340.2,143901555.61999995,2018-12-31,年度报告,-31882248.520000003,2018,12,-0.92791792229475,True,0.956837300135132,True,0.0,True,比例外推,143901555.61999995,324000000.0,324000000.0
21,000821,96870364.64000002,98290599.41,2019-03-31,一季度报告,53386126.43999999,2019,3,-0.7202755300229998,True,2.884498289052029,False,0.9227771232460571,False,未知,未知,,未知
22,000821,126515539.8,129676381.64,2019-06-30,半年度报告,80415990.19000003,2019,6,-0.9485781498261784,True,3.0382797849950562,False,2.1506909141243096,False,未知,未知,未知,未知
23,000821,138063767.7,142398836.52,2019-09-30,三季度报告,110147274.53,2019,9,-0.9574489449966685,True,2.2971027076419874,False,3.2271528447631526,False,未知,未知,未知,未知
24,000821,-527601221.4599999,-517525017.23000014,2019-12-31,年度报告,-535171900.24000007,2019,12,-0.9257361692857615,True,0.20439830476110882,True,0.0,True,比例外推,-517525017.23000014,279000000.0,279000000.0
25,000821,13244516.22,16691440.82,2020-03-31,一季度报告,12053189.78,2020,3,-0.8809488346321559,True,2.314229359372906,False,0.8292799703074196,False,未知,未知,未知,未知
