,SECURITYCODE_x,NETPROFIT_x,PARENTNETPROFIT_x,REPORTDATE_x,REPORTTIMETYPE_x,KCFJCXSYJLR,Year,Month,managesituationChangeRate,managesituationGreatChange,historyprofitextroplaterate,ifhistoryprofitextroplate,IfprofitdisStableChangeRage,IfprofitdisStable,predicttype,predict,analyst_prediction,adj_prediction
0,000890,16378494.64,6400356.949999997,2013-12-31,年度报告,6475199.1,2013,12,未知,未知,未知,未知,未知,未知,未知,未知,未知,未知
1,000890,3436185.5800000005,1667053.69,2014-03-31,一季度报告,1815342.16,2014,3,未知,未知,未知,未知,未知,未知,未知,未知,未知,未知
2,000890,7839144.93,4171556.58,2014-06-30,半年度报告,3713832.96,2014,6,未知,未知,未知,未知,未知,未知,未知,未知,未知,未知
3,000890,10145188.9,4102061.65,2014-09-30,三季度报告,3299049.0499999993,2014,9,未知,未知,未知,未知,未知,未知,未知,未知,未知,未知
4,000890,11391506.16,5213268.24,2014-12-31,年度报告,-14419596.600000005,2014,12,0.0,True,未知,未知,未知,未知,未知,未知,未知,未知
5,000890,4104298.4499999993,1777066.66,2015-03-31,一季度报告,1204831.2199999995,2015,3,3.7664755755130077,False,未知,未知,未知,未知,未知,未知,未知,未知
6,000890,40334279.20999999,33246405.25,2015-06-30,半年度报告,2288928.52,2015,6,1.0893215760459223,False,未知,未知,未知,未知,未知,未知,未知,未知
7,000890,65926037.68,55256404.04000001,2015-09-30,三季度报告,53139428.55,2015,9,0.6144100224688769,False,未知,未知,未知,未知,未知,未知,162500000.0,未知
8,000890,129960485.37,111195919.5,2015-12-31,年度报告,-25608781.8,2015,12,0.4377813091574539,True,未知,未知,未知,未知,未知,未知,未知,未知
9,000890,129960485.37,111195919.5,2015-12-31,年度报告,80058955.12,2015,12,0.4377813091574539,True,未知,未知,未知,未知,未知,未知,未知,未知
10,000890,26254190.95,21344039.09,2016-03-31,一季度报告,923667.98,2016,3,2.9905710658054128,False,未知,未知,未知,未知,未知,未知,150100000.0,未知
11,000890,49970238.89,39394903.55,2016-06-30,半年度报告,-13181997.139999995,2016,6,-0.5939311434146239,True,未知,未知,未知,未知,未知,未知,121600000.0,未知
12,000890,148418491.41,135909664.99,2016-09-30,三季度报告,-14284939.969999995,2016,9,-0.7515625810927699,True,未知,未知,0.0,True,未知,未知,164250000.0,未知
13,000890,154434908.26000002,141347431.36,2016-12-31,年度报告,-17075433.979999997,2016,12,-0.873973272773104,True,8.359775414194441,False,0.05021574683556558,True,比例外推,141347431.36,221000000.0,221000000.0
14,000890,10073741.4,8443527.86,2017-03-31,一季度报告,8364033.01,2017,3,-0.3761569468588023,True,5.963529355820412,False,0.6303024375489169,False,未知,未知,168780000.0,未知
15,000890,32819591.149999995,29418019.4,2017-06-30,半年度报告,26831734.049999993,2017,6,-0.6722350142040716,True,1.0745977593279716,True,1.5859611263416347,False,平均增速,20046307.37063565,158200000.0,158200000.0
16,000890,23586204.85,18783958.5,2017-09-30,三季度报告,15985877.01,2017,9,-0.8896465360589397,True,2.902092764441396,False,0.0,True,比例外推,-29887126.61356072,,-29887126.61356072
17,000890,148939104.93,143136710.32999998,2017-12-31,年度报告,72521593.72000001,2017,12,-0.893945644643853,True,1.1851111765513873,True,0.11060140204088818,False,平均增速,143136710.32999998,192000000.0,192000000.0
18,000890,6561078.09,6561078.09,2018-03-31,一季度报告,6535269.089999999,2018,3,0.6258601436800829,False,0.33634765107910797,True,0.4402433242853078,False,前期平均,-15845279.399999999,未知,-15845279.399999999
19,000890,43441554.94000001,43441554.94000001,2018-06-30,半年度报告,43492371.18,2018,6,-0.5009537271459884,True,0.2731351245647144,True,0.4402433242853078,False,平均增速,167057875.45573437,未知,167057875.45573437
20,000890,43441554.94000001,43441554.94000001,2018-06-30,半年度报告,43492371.18,2018,6,-0.5009537271459884,True,0.2731351245647144,True,1.7357006185322237,False,平均增速,167057875.45573437,未知,167057875.45573437
21,000890,-35874.579999999994,-35874.579999999994,2018-06-30,半年度报告,43492371.18,2018,6,-0.5009537271459884,True,0.2731351245647144,True,0.4402433242853078,False,平均增速,123580445.93573438,未知,123580445.93573438
22,000890,-35874.579999999994,-35874.579999999994,2018-06-30,半年度报告,43492371.18,2018,6,-0.5009537271459884,True,0.2731351245647144,True,1.7357006185322237,False,平均增速,123580445.93573438,未知,123580445.93573438
23,000890,39457067.67999999,39457067.67999999,2018-09-30,三季度报告,36355178.72,2018,9,-0.3055900792789053,True,0.7799224925391353,True,0.0,True,比例外推,-104031027.1418824,未知,-104031027.1418824
24,000890,-145228526.01000002,-145228526.01000002,2018-12-31,年度报告,-152356297.32,2018,12,-0.8900322742794934,True,0.04740870116743606,True,0.10921708981863015,False,平均增速,-145228526.01000002,未知,-145228526.01000002
25,000890,8007225.860000001,8007225.860000001,2019-03-31,一季度报告,7935875.86,2019,3,1.4963114926132515,False,0.638786043379097,True,0.570966167272895,False,前期平均,31086455.235000014,未知,31086455.235000014
26,000890,-86604615.51,-86604615.51,2019-06-30,半年度报告,-86675775.62,2019,6,-0.6229763261784387,True,0.049441819581250025,True,0.563782384233809,False,平均增速,-94462933.28727768,未知,-94462933.28727768
27,000890,-155158842.39000002,-155158842.39000002,2019-09-30,三季度报告,-155498002.49999997,2019,9,-0.5849033999984258,True,0.5412094141853288,True,0.0,True,比例外推,-569676415.9507546,未知,-569676415.9507546
28,000890,-777563777.5699997,-777563777.5699997,2019-12-31,年度报告,-779508097.9100001,2019,12,-1.1127773936015315,False,1.9574223215951252,True,0.09457950240536538,True,前期平均,-777563777.5699997,未知,-777563777.5699997
29,000890,-35641507.49,-35641507.49,2020-03-31,一季度报告,-35681515.12,2020,3,1.0454643001664996,False,0.037293327431231274,True,未知,未知,盈利变化,-835720298.8766663,未知,-835720298.8766663
