,SECURITYCODE_x,NETPROFIT_x,PARENTNETPROFIT_x,REPORTDATE_x,REPORTTIMETYPE_x,KCFJCXSYJLR,Year,Month,managesituationChangeRate,managesituationGreatChange,historyprofitextroplaterate,ifhistoryprofitextroplate,IfprofitdisStableChangeRage,IfprofitdisStable,predicttype,predict,analyst_prediction,adj_prediction
0,000895,4069065319.37,3858197094.189999,2013-12-31,年度报告,3644922779.57,2013,12,未知,未知,未知,未知,未知,未知,未知,未知,未知,未知
1,000895,1122616085.3,1077632327.82,2014-03-31,一季度报告,965344270.86,2014,3,未知,未知,未知,未知,未知,未知,未知,未知,未知,未知
2,000895,2291403256.69,2197224062.8,2014-06-30,半年度报告,1969302203.45,2014,6,未知,未知,未知,未知,未知,未知,未知,未知,未知,未知
3,000895,3303340152.4400005,3162494901.1200013,2014-09-30,三季度报告,2933170736.16,2014,9,未知,未知,未知,未知,未知,未知,未知,未知,未知,未知
4,000895,4215457780.43,4039863758.01,2014-12-31,年度报告,3743277493.62,2014,12,0.0,True,未知,未知,未知,未知,未知,未知,未知,未知
5,000895,949959015.2999998,920797156.4,2015-03-31,一季度报告,868126965.1000001,2015,3,2.6246276644812294,False,未知,未知,未知,未知,未知,未知,4537669359.0,未知
6,000895,2054720709.2799995,1982790580.8700004,2015-06-30,半年度报告,1845828142.16,2015,6,0.7757962538850038,False,未知,未知,未知,未知,未知,未知,4195197331.0,未知
7,000895,3236582683.67,3119281874.8699994,2015-09-30,三季度报告,2899481783.99,2015,9,0.23180330562215917,True,未知,未知,未知,未知,未知,未知,4150594444.0,未知
8,000895,4416463356.259999,4255541752.84,2015-12-31,年度报告,3926798992.52,2015,12,-0.03472753581820172,True,未知,未知,未知,未知,未知,未知,4129445000.0,未知
9,000895,1108974123.7699995,1074141362.8,2016-03-31,一季度报告,1015601196.47,2016,3,3.2834114460032544,False,未知,未知,未知,未知,未知,未知,4660198316.0,未知
10,000895,2228159511.89,2151463456.36,2016-06-30,半年度报告,2027956642.62,2016,6,0.9803495925224078,False,未知,未知,未知,未知,未知,未知,4647549048.0,未知
11,000895,3393859077.900001,3277067649.66,2016-09-30,三季度报告,3058796268.8900013,2016,9,0.2572103718839766,True,未知,未知,未知,未知,未知,未知,4517931502.0,未知
12,000895,4561541599.11,4405056392.24,2016-12-31,年度报告,4106447817.34,2016,12,-0.07865978020571351,True,0.06619615952706301,True,0.0,True,比例外推,4405056392.24,4517931502.0,4405056392.24
13,000895,912552977.37,878616646.21,2017-03-31,一季度报告,818735143.0599997,2017,3,2.6692157482782903,False,0.07014131690471159,True,0.02101702688315027,True,前期平均,3796919271.3,4867535431.0,4867535431.0
14,000895,1983290938.09,1904054872.2300005,2017-06-30,半年度报告,1793880630.4399996,2017,6,0.8262001879382871,False,0.025354789387698997,True,0.02942485095739139,True,前期平均,3831527942.4950004,4655122353.0,4655122353.0
15,000895,3295472648.69,3151038717.0,2017-09-30,三季度报告,3023574122.91,2017,9,0.19894940419500046,True,0.037889639663912636,True,0.027969215365934996,True,比例外推,4128942478.354345,4603874824.0,4603874824.0
16,000895,4510532603.91,4319299922.469999,2017-12-31,年度报告,3962729985.77,2017,12,-0.1079626852106504,True,0.05690066599917316,True,0.0,True,比例外推,4319299922.469999,4597481699.0,4319299922.469999
17,000895,1112816234.9799998,1063891434.59,2018-03-31,一季度报告,1010469410.4,2018,3,3.458990787687906,False,0.11356715761815206,True,0.02231698401751475,True,前期平均,4138650758.7349997,4921947505.0,4921947505.0
18,000895,2458736676.57,2385332323.73,2018-06-30,半年度报告,2213119832.11,2018,6,1.051673428855928,False,0.07385178399959846,True,0.021648846359721863,True,前期平均,4465063336.27,5015144500.0,5015144500.0
19,000895,3749645194.9499993,3655707197.7199993,2018-09-30,三季度报告,3460948479.57,2018,9,0.23474407259532698,True,0.00595683750951901,True,0.014248711160057992,True,比例外推,4817035210.554901,4921648889.0,4817035210.554901
20,000895,5034944951.920001,4911892293.449999,2018-12-31,年度报告,4611169396.639999,2018,12,-0.09787475744157345,True,0.004796193883168354,True,0.0,True,比例外推,4911892293.449999,4935957647.0,4911892293.449999
21,000895,1331668646.75,1286818447.23,2019-03-31,一季度报告,1226595435.38,2019,3,2.656547407796519,False,0.10096593248979896,True,0.022964431013291486,True,前期平均,4404239179.02,5180005909.0,5180005909.0
22,000895,2478995765.6400003,2381626534.860001,2019-06-30,半年度报告,2231012665.88,2019,6,0.6549414819997922,False,0.1676436447598128,True,0.02280613326618286,True,前期平均,4505296799.885001,4978173889.0,4505296799.885001
23,000895,4109966981.2199993,3943102020.359999,2019-09-30,三季度报告,3748568266.04,2019,9,0.08518675976334875,True,0.12108214937082924,True,0.010190507397895843,True,比例外推,5173953248.936365,5376749473.999999,5173953248.936365
24,000895,5665988893.71,5437612565.070001,2019-12-31,年度报告,5169704549.37,2019,12,-0.19183519219642658,True,0.10998760355022659,True,0.0,True,比例外推,5437612565.070001,5376696842.0,5437612565.070001
25,000895,1513426924.0899994,1464652220.36,2020-03-31,一季度报告,1389504948.56,2020,3,2.055613969211294,False,0.3149885350581473,True,0.01626269435385483,True,前期平均,4836999634.835,6033609375.0,6033609375.0
