,SECURITYCODE_x,NETPROFIT_x,PARENTNETPROFIT_x,REPORTDATE_x,REPORTTIMETYPE_x,KCFJCXSYJLR,Year,Month,managesituationChangeRate,managesituationGreatChange,historyprofitextroplaterate,ifhistoryprofitextroplate,IfprofitdisStableChangeRage,IfprofitdisStable,predicttype,predict,analyst_prediction,adj_prediction
0,000860,204692434.1,197654290.26,2013-12-31,年度报告,196741126.19,2013,12,未知,未知,未知,未知,未知,未知,未知,未知,未知,未知
1,000860,183677349.64,180812457.83,2014-03-31,一季度报告,181158141.84,2014,3,未知,未知,未知,未知,未知,未知,未知,未知,未知,未知
2,000860,250685223.46,246200284.4,2014-06-30,半年度报告,246789533.03000003,2014,6,未知,未知,未知,未知,未知,未知,未知,未知,未知,未知
3,000860,287783828.04,282427762.15000004,2014-09-30,三季度报告,283282475.99,2014,9,未知,未知,未知,未知,未知,未知,未知,未知,未知,未知
4,000860,364752571.77,359434009.94,2014-12-31,年度报告,359662084.8800002,2014,12,0.0,True,未知,未知,未知,未知,未知,未知,未知,未知
5,000860,192861503.61,192027039.83,2015-03-31,一季度报告,195243102.22,2015,3,0.1144130427686849,True,未知,未知,未知,未知,未知,未知,558915264.0,未知
6,000860,249181797.41000003,247392171.46,2015-06-30,半年度报告,250486782.03000003,2015,6,-0.18346829033319048,True,未知,未知,未知,未知,未知,未知,451133839.0,未知
7,000860,292613941.73,287953995.1900001,2015-09-30,三季度报告,290297293.9,2015,9,-0.2887285032863309,True,未知,未知,未知,未知,未知,未知,388005749.0,未知
8,000860,383280250.68,376270975.84,2015-12-31,年度报告,373427578.68,2015,12,-0.4388183937766126,True,未知,未知,未知,未知,未知,未知,377335714.0,未知
9,000860,178032713.42999998,175306276.08999994,2016-03-31,一季度报告,177680562.92000002,2016,3,0.06134417843140023,True,未知,未知,未知,未知,未知,未知,477008605.0,未知
10,000860,238832000.27000007,230660137.22,2016-06-30,半年度报告,233169579.94000003,2016,6,-0.178541786649038,True,未知,未知,未知,未知,未知,未知,443728712.0,未知
11,000860,260065775.02,246785435.83000004,2016-09-30,三季度报告,249541123.15,2016,9,-0.3004693047439508,True,未知,未知,未知,未知,未知,未知,414158255.0,未知
12,000860,424677825.44,412568751.05,2016-12-31,年度报告,229073919.69,2016,12,-0.46594578317864505,True,0.34615369958130776,True,0.0,True,比例外推,412568751.05,409642429.0,412568751.05
13,000860,189914028.03,187956551.78000003,2017-03-31,一季度报告,188790895.3,2017,3,0.1497461907779227,True,0.054372679507808656,True,0.17492136771361844,False,平均增速,236481761.36852747,474440769.0,474440769.0
14,000860,249516361.66000003,244597356.11000007,2017-06-30,半年度报告,245885563.16,2017,6,-0.1429438522953592,True,0.04441785395515058,True,0.2262701515252593,False,平均增速,240746636.72427806,448873750.0,448873750.0
15,000860,277618587.39000005,272204677.21,2017-09-30,三季度报告,273879005.07000005,2017,9,-0.21292052333968822,True,0.10383606359115104,True,0.20455810418148568,False,平均增速,252521518.5962144,464916667.0,464916667.0
16,000860,442388155.48,438369527.4999999,2017-12-31,年度报告,345298286.52000004,2017,12,-0.5180053635060358,True,0.13545238308947674,True,0.0,True,比例外推,438369527.4999999,493326667.0,493326667.0
17,000860,364920079.9,365787971.5,2018-03-31,一季度报告,367758491.21,2018,3,0.07781629521156544,True,0.024087296618692088,True,0.1605688948015297,False,平均增速,601203917.225237,606466684.0,601203917.225237
18,000860,478476458.31,481321672.81,2018-06-30,半年度报告,483403972.9799999,2018,6,-0.17964323967291063,True,0.022579127254974265,True,0.217628303788155,False,平均增速,631751636.7343419,855338667.0,855338667.0
19,000860,520221493.06,536328495.86,2018-09-30,三季度报告,556683388.01,2018,9,-0.26268469260508487,True,0.004627378122430599,True,0.20271432575899773,False,平均增速,646778052.8050301,801694421.0,801694421.0
20,000860,728090593.5000002,744255928.9,2018-12-31,年度报告,792786462.7300001,2018,12,-0.5373012781549167,True,0.09507700598637348,True,0.0,True,比例外推,744255928.9,814478607.0,744255928.9
21,000860,428696239.04999983,428579787.54,2019-03-31,一季度报告,429479709.73,2019,3,-0.43907599122500357,True,0.9835483714409846,True,0.1802221335342814,False,平均增速,1080888768.5822363,1163722500.0,1080888768.5822363
22,000860,651948673.4700001,648028259.0300001,2019-06-30,半年度报告,649436277.4,2019,6,-0.572199571065664,True,0.9595702396502966,True,0.23796975139520649,False,平均增速,1150020123.9204078,1183714000.0,1150020123.9204078
23,000860,671405602.1500001,664692565.6400001,2019-09-30,三季度报告,666454798.1,2019,9,-0.6065283022122432,True,0.9350441613301592,True,0.22778099325910428,False,平均增速,1030515944.6675559,1063995500.0,1030515944.6675559
24,000860,818384874.8999999,809229378.3300003,2019-12-31,年度报告,800472827.4200003,2019,12,-0.7188640590506407,True,0.6794352668004803,True,0.0,True,比例外推,809229378.3300003,1061695500.0,1061695500.0
25,000860,355620040.45,352978906.14,2020-03-31,一季度报告,362785115.2,2020,3,-0.5225233733013314,True,0.5453132131670818,True,0.051839338073474794,True,比例外推,693647125.3238833,1014971818.0,1014971818.0
