,SECURITYCODE_x,NETPROFIT_x,PARENTNETPROFIT_x,REPORTDATE_x,REPORTTIMETYPE_x,KCFJCXSYJLR,Year,Month,managesituationChangeRate,managesituationGreatChange,historyprofitextroplaterate,ifhistoryprofitextroplate,IfprofitdisStableChangeRage,IfprofitdisStable,predicttype,predict,analyst_prediction,adj_prediction
0,000858,8322215360.950002,7972814983.239999,2013-12-31,年度报告,8174172701.950002,2013,12,未知,未知,未知,未知,未知,未知,未知,未知,未知,未知
1,000858,2735548585.5999994,2619140414.1699986,2014-03-31,一季度报告,2614278234.78,2014,3,未知,未知,未知,未知,未知,未知,未知,未知,未知,未知
2,000858,4162447434.2,4001813151.2700014,2014-06-30,半年度报告,3993898745.999999,2014,6,未知,未知,未知,未知,未知,未知,未知,未知,未知,未知
3,000858,4894197804.049997,4707288391.6,2014-09-30,三季度报告,4692531124.809999,2014,9,未知,未知,未知,未知,未知,未知,未知,未知,未知,未知
4,000858,6058214963.0700035,5834915278.94,2014-12-31,年度报告,5860776426.57,2014,12,0.0,True,未知,未知,未知,未知,未知,未知,未知,未知
5,000858,2289923256.68,2200799535.17,2015-03-31,一季度报告,2196245543.0,2015,3,2.0422473228069737,False,未知,未知,未知,未知,未知,未知,6221619089.0,未知
6,000858,3421203676.33,3297527845.59,2015-06-30,半年度报告,3289422987.5799994,2015,6,0.9993562663571479,False,未知,未知,未知,未知,未知,未知,5881473785.0,未知
7,000858,4777110529.650001,4603019813.79,2015-09-30,三季度报告,4590217129.87,2015,9,0.7004248079354876,False,未知,未知,未知,未知,未知,未知,5922793190.0,未知
8,000858,6410484336.27,6176119256.18,2015-12-31,年度报告,6164002847.369999,2015,12,0.37370750488073057,True,未知,未知,未知,未知,未知,未知,5959397371.0,未知
9,000858,3008278093.8,2903112187.15,2016-03-31,一季度报告,2896971315.340001,2016,3,2.634276972677155,False,未知,未知,未知,未知,未知,未知,7109328696.0,未知
10,000858,4026624588.92,3886813135.2800007,2016-06-30,半年度报告,3883296276.120001,2016,6,1.4325401666460924,False,未知,未知,未知,未知,未知,未知,7208970000.0,未知
11,000858,5296615569.5,5101313177.669999,2016-09-30,三季度报告,5055244779.440001,2016,9,0.7421023250972877,False,未知,未知,未知,未知,未知,未知,7140755908.999999,未知
12,000858,7056765568.859999,6784533260.36,2016-12-31,年度报告,6724241894.080001,2016,12,0.29821943622318553,True,0.10844332306768277,True,0.0,True,比例外推,6784533260.36,7121615913.0,6784533260.36
13,000858,3739205084.99,3593112440.79,2017-03-31,一季度报告,3588668071.750001,2017,3,1.7664381754140077,False,0.19721219746609067,True,0.054761586266719786,True,前期平均,7200240188.869999,8232693478.0,8232693478.0
14,000858,5189809959.76,4971505554.13,2017-06-30,半年度报告,4959327974.09,2017,6,1.066796935540033,False,0.06192242502532287,True,0.08392246638844336,True,前期平均,7342234324.309999,8526985000.0,8526985000.0
15,000858,7264975166.489999,6964763242.9800005,2017-09-30,三季度报告,6949876917.86,2017,9,0.5712326582417266,False,0.0953255519822,True,0.03495302110075704,True,前期平均,8335778752.610001,9060084846.0,8335778752.610001
16,000858,10085969230.03,9673721498.150002,2017-12-31,年度报告,9642325077.81,2017,12,0.17932433488709942,True,0.1319168743180019,True,0.0,True,比例外推,9673721498.150002,9065319658.0,9673721498.150002
17,000858,5213969088.07,4971013118.030001,2018-03-31,一季度报告,4960143160.869999,2018,3,1.2256643248473382,False,0.41149980441994344,True,0.04438979897028328,True,前期平均,8868527059.585,12975980952.000002,12975980952.000002
18,000858,7463891285.889998,7110255593.99,2018-06-30,半年度报告,7086663072.03,2018,6,0.6035684207085799,False,0.3936438314440095,True,0.03567811058227843,True,前期平均,9968018332.864998,13033782603.0,13033782603.0
19,000858,9963464943.260002,9494416489.819998,2018-09-30,三季度报告,9444796685.820002,2018,9,0.1455256446486655,True,0.44236106778861123,True,0.018313244060523592,True,比例外推,12828729002.825155,12810559500.0,12828729002.825155
20,000858,14038650126.479996,13384246683.599998,2018-12-31,年度报告,13398843689.900005,2018,12,-0.1748720255688062,True,0.4978513506589066,True,0.0,True,比例外推,13384246683.599998,12819122273.0,13384246683.599998
21,000858,6811793755.47,6475113303.329999,2019-03-31,一季度报告,6540037045.57,2019,3,0.5961382241394433,False,0.5454559722237057,True,0.03975978428475041,True,前期平均,11415577095.73,17067179258.0,17067179258.0
22,000858,9807094323.82,9335637379.259998,2019-06-30,半年度报告,9394348262.26,2019,6,0.11499686184907451,True,0.6196917032213927,True,0.03726123469297804,True,比例外推,17330318566.142014,17263503571.0,17330318566.142014
23,000858,13126198629.740005,12543547315.61,2019-09-30,三季度报告,12606370480.639996,2019,9,-0.16472678848739852,True,0.5863380924700643,True,0.025974624533412927,True,比例外推,17305644429.973335,17462894124.0,17305644429.973335
24,000858,18228255278.61,17402164190.16,2019-12-31,年度报告,17405930787.449997,2019,12,-0.4071926227969408,True,0.6378542036815509,True,0.0,True,比例外推,17402164190.16,17500670543.0,17402164190.16
25,000858,8060492743.980001,7704289543.989999,2020-03-31,一季度报告,7728228541.4,2020,3,0.22173625034773023,True,0.521648886484664,True,0.0030338895936434795,True,比例外推,20711725391.940998,20488503488.0,20711725391.940998
