,SECURITYCODE_x,NETPROFIT_x,PARENTNETPROFIT_x,REPORTDATE_x,REPORTTIMETYPE_x,KCFJCXSYJLR,Year,Month,managesituationChangeRate,managesituationGreatChange,historyprofitextroplaterate,ifhistoryprofitextroplate,IfprofitdisStableChangeRage,IfprofitdisStable,predicttype,predict,analyst_prediction,adj_prediction
0,000818,-93036646.38,-86251017.20000002,2013-12-31,年度报告,-123413857.0,2013,12,未知,未知,未知,未知,未知,未知,未知,未知,未知,未知
1,000818,16108196.09,15860765.940000005,2014-03-31,一季度报告,25798809.6,2014,3,未知,未知,未知,未知,未知,未知,未知,未知,未知,未知
2,000818,27262968.76,26949164.27000001,2014-06-30,半年度报告,34636910.34,2014,6,未知,未知,未知,未知,未知,未知,未知,未知,未知,未知
3,000818,44359058.0,42017156.99999999,2014-09-30,三季度报告,55548225.01000001,2014,9,未知,未知,未知,未知,未知,未知,未知,未知,未知,未知
4,000818,88238081.08999997,85040466.87000002,2014-12-31,年度报告,91649262.23,2014,12,-0.0,False,未知,未知,未知,未知,未知,未知,未知,未知
5,000818,18784608.91,18965913.96,2015-03-31,一季度报告,22612536.23,2015,3,-6.775733412989511,False,未知,未知,未知,未知,未知,未知,未知,未知
6,000818,40817944.67,40270918.99,2015-06-30,半年度报告,45192871.68000001,2015,6,-4.412564757676082,False,未知,未知,未知,未知,未知,未知,未知,未知
7,000818,60157793.63999999,58351535.81,2015-09-30,三季度报告,64294131.86,2015,9,-3.0973539695094514,False,未知,未知,未知,未知,未知,未知,未知,未知
8,000818,121172242.15,121486702.46999998,2015-12-31,年度报告,126050843.29,2015,12,-2.0543820222598184,False,未知,未知,未知,未知,未知,未知,未知,未知
9,000818,7724169.8500000015,9196257.88,2016-03-31,一季度报告,5191181.67,2016,3,-5.952812529968184,False,未知,未知,未知,未知,未知,未知,未知,未知
10,000818,8937096.940000001,10474640.03,2016-06-30,半年度报告,4155448.54,2016,6,-3.279307474498568,False,未知,未知,未知,未知,未知,未知,273645000.0,未知
11,000818,40464476.32,41520954.56,2016-09-30,三季度报告,31679609.38,2016,9,-2.5465435274564037,False,未知,未知,未知,未知,未知,未知,201050000.0,未知
12,000818,111543280.97,112076593.94000004,2016-12-31,年度报告,110001629.42999998,2016,12,-1.7678049421981419,False,-51.503529628956855,True,0.0,True,前期平均,112076593.94000004,277000000.0,277000000.0
13,000818,29241218.77,29233038.33,2017-03-31,一季度报告,33558179.16,2017,3,-13.044873195013956,False,0.5572628884378885,True,0.12216782261582484,False,前期平均,113877418.17500001,,113877418.17500001
14,000818,60513093.03999999,61016475.7,2017-06-30,半年度报告,67573618.69000001,2017,6,-11.410164173512923,False,0.737456608916124,True,0.22030179365319308,False,前期平均,129951637.45,223573332.99999997,223573332.99999997
15,000818,120295700.81999996,119504557.76,2017-09-30,三季度报告,129545365.85,2017,9,-3.2992178533153442,False,0.2256851276122116,True,0.1800588050950998,False,前期平均,168433432.085,241908000.0,241908000.0
16,000818,262216187.71,255541980.85,2017-12-31,年度报告,237441518.01,2017,12,-1.8340856174476574,False,0.06530833097624332,True,0.0,True,前期平均,255541980.85,231232500.0,231232500.0
17,000818,133430346.7,128104176.13,2018-03-31,一季度报告,127758021.68,2018,3,-4.1816952334234045,False,1.2061535942291743,True,0.07544695340904334,True,前期平均,232228553.54,490302857.0,490302857.0
18,000818,252294876.2,241088406.96,2018-06-30,半年度报告,240226635.59,2018,6,-2.5374630795768693,False,1.432440656539931,True,0.18918899949662263,False,前期平均,334440483.21,513550000.0,513550000.0
19,000818,347931967.59000003,330567976.96000004,2018-09-30,三季度报告,320487056.83,2018,9,-1.7733995957113375,False,1.3910353218590812,True,0.1598897397282546,False,前期平均,400607342.70000005,508005000.0,508005000.0
20,000818,517022059.36,503305415.4800001,2018-12-31,年度报告,410137181.55000013,2018,12,-1.3548089353007244,False,1.2535341363952586,True,0.0,True,前期平均,503305415.4800001,505010000.0,503305415.4800001
21,000818,108582704.57000002,110182272.41000004,2019-03-31,一季度报告,103378852.53,2019,3,-1.6972675158311643,False,6.219204324978093,False,0.14482571753756276,False,去年同期,392561432.28000015,699000000.0,699000000.0
22,000818,152568211.99000004,154589510.81999993,2019-06-30,半年度报告,147532742.98999998,2019,6,-1.3687615372190425,False,6.265491318962696,False,0.2830261570836341,False,去年同期,324500056.7800001,548975000.0,548975000.0
23,000818,238360363.7,240628071.03000003,2019-09-30,三季度报告,232056394.34000003,2019,9,-1.267398960274997,False,3.3285840284562416,False,0.2503394825185315,False,去年同期,330278195.7500002,391105000.0,391105000.0
24,000818,312372402.96000004,306662510.40999985,2019-12-31,年度报告,300463493.63999987,2019,12,-1.1799471506015937,False,1.7666031374988735,True,0.0,True,前期平均,306662510.40999985,308270000.0,306662510.40999985
25,000818,94185713.73,97616069.45999998,2020-03-31,一季度报告,93869779.15,2020,3,-1.8568274915276406,False,0.3349930488008357,True,0.12430017082026393,False,前期平均,340747318.82000005,420250000.0,420250000.0
