,SECURITYCODE_x,NETPROFIT_x,PARENTNETPROFIT_x,REPORTDATE_x,REPORTTIMETYPE_x,KCFJCXSYJLR,Year,Month,managesituationChangeRate,managesituationGreatChange,historyprofitextroplaterate,ifhistoryprofitextroplate,IfprofitdisStableChangeRage,IfprofitdisStable,predicttype,predict,analyst_prediction,adj_prediction
0,000970,390458102.25,340979079.39000005,2013-12-31,年度报告,325501163.18,2013,12,未知,未知,未知,未知,未知,未知,未知,未知,未知,未知
1,000970,77499824.64,68252112.03999999,2014-03-31,一季度报告,67168778.69,2014,3,未知,未知,未知,未知,未知,未知,未知,未知,未知,未知
2,000970,181967043.50000003,161933641.97000003,2014-06-30,半年度报告,156218463.16000003,2014,6,未知,未知,未知,未知,未知,未知,未知,未知,未知,未知
3,000970,267220293.73,232547353.1,2014-09-30,三季度报告,226460446.45,2014,9,未知,未知,未知,未知,未知,未知,未知,未知,未知,未知
4,000970,345248901.60000014,296069814.63000005,2014-12-31,年度报告,264158078.95000008,2014,12,0.0,True,未知,未知,未知,未知,未知,未知,未知,未知
5,000970,71821023.98,61450187.43000001,2015-03-31,一季度报告,61230055.61,2015,3,4.0381804612300085,False,未知,未知,未知,未知,未知,未知,412526570.99999994,未知
6,000970,155766800.37000003,131918405.53,2015-06-30,半年度报告,120140647.62999998,2015,6,1.1457627421967755,False,未知,未知,未知,未知,未知,未知,347028889.0,未知
7,000970,222860096.16,184838930.07,2015-09-30,三季度报告,172239153.17999998,2015,9,0.46118431650449343,True,未知,未知,未知,未知,未知,未知,307947200.0,未知
8,000970,330884546.52000004,274763529.25,2015-12-31,年度报告,255530900.28,2015,12,0.13094668930294964,True,未知,未知,未知,未知,未知,未知,315806000.0,未知
9,000970,74451237.07,62578631.77000001,2016-03-31,一季度报告,61422918.43000002,2016,3,4.436543237795257,False,未知,未知,未知,未知,未知,未知,352246923.0,未知
10,000970,180218581.63,152640340.84,2016-06-30,半年度报告,146205093.96999997,2016,6,1.5066837177275705,False,未知,未知,未知,未知,未知,未知,330645333.0,未知
11,000970,276291172.65000004,231480486.63000005,2016-09-30,三季度报告,223205506.73,2016,9,0.7520323690862757,False,未知,未知,未知,未知,未知,未知,331297636.0,未知
12,000970,377989105.06,316593071.13999987,2016-12-31,年度报告,295201042.5000001,2016,12,0.18004333038986178,True,0.10049912590620778,True,0.0,True,比例外推,316593071.13999987,329688545.0,316593071.13999987
13,000970,86394556.26,72690100.42999999,2017-03-31,一季度报告,67151720.86,2017,3,4.244481053859271,False,0.002801849064391013,True,0.025916986537023817,True,前期平均,268335172.89500004,406185714.0,406185714.0
14,000970,180761825.09,153133026.65,2017-06-30,半年度报告,141991415.61,2017,6,1.1665807083735398,False,0.0672225179740614,True,0.07244369604538792,True,前期平均,274797960.87000006,391503091.0,391503091.0
15,000970,236389525.02,201271955.89,2017-09-30,三季度报告,188572237.85,2017,9,0.4132123676083719,True,0.12753408767085914,True,0.09480830276925412,True,比例外推,260013056.8221168,324608333.0,324608333.0
16,000970,333567348.0700002,282259318.68999994,2017-12-31,年度报告,262749225.9000001,2017,12,0.03298771584440439,True,0.11809024124159147,True,0.0,True,比例外推,282259318.68999994,413000000.0,413000000.0
17,000970,52175511.31,42192829.05,2018-03-31,一季度报告,39625975.02,2018,3,3.5194757534830816,False,0.18128421123493665,True,0.026349817738629017,True,前期平均,256232313.42000008,371456000.0,371456000.0
18,000970,141532160.60000002,112280407.15,2018-06-30,半年度报告,101588024.84,2018,6,1.1600694840052304,False,0.07601005742565314,True,0.038459767134317535,True,前期平均,254473507.7400001,276288571.0,254473507.7400001
19,000970,233266902.51,187709745.63,2018-09-30,三季度报告,174211776.24999997,2018,9,0.651757209702777,False,0.05283412147358183,True,0.04190464269567651,True,前期平均,265353387.06500006,310595000.0,310595000.0
20,000970,297819010.15,248287947.29999995,2018-12-31,年度报告,239374116.93000004,2018,12,0.17055252712582983,True,0.05888066984429205,True,0.0,True,比例外推,248287947.29999995,,248287947.29999995
21,000970,52413493.7,44220445.29,2019-03-31,一季度报告,40112059.46,2019,3,6.483551046200566,False,0.3512356123239868,True,0.04584514857649649,True,前期平均,258908259.8450001,290893333.0,290893333.0
22,000970,117182691.78999998,100312731.32,2019-06-30,半年度报告,85059472.69000001,2019,6,1.758794189212709,False,0.2158457469422621,True,0.062299732154221354,True,前期平均,235189610.7300001,277624000.0,277624000.0
23,000970,184234781.16,156077255.86,2019-09-30,三季度报告,137295093.19,2019,9,0.6738684230321159,False,0.09001098122033006,True,0.022252572277155935,True,前期平均,229163517.7700001,232050000.0,229163517.7700001
24,000970,245146579.34000003,201005795.87,2019-12-31,年度报告,167030063.61,2019,12,0.3110583574008297,True,0.1629082728715301,True,0.0,True,比例外推,201005795.87,243630000.0,243630000.0
25,000970,11797291.009999998,12222882.820000002,2020-03-31,一季度报告,11747294.270000005,2020,3,6.4495721366118355,False,0.24350915577748672,True,0.05488076896126426,True,前期平均,209895706.29500005,230757000.0,209895706.29500005
