,SECURITYCODE_x,NETPROFIT_x,PARENTNETPROFIT_x,REPORTDATE_x,REPORTTIMETYPE_x,KCFJCXSYJLR,Year,Month,managesituationChangeRate,managesituationGreatChange,historyprofitextroplaterate,ifhistoryprofitextroplate,IfprofitdisStableChangeRage,IfprofitdisStable,predicttype,predict,analyst_prediction,adj_prediction
0,000977,144618647.93,144618647.93,2013-12-31,年度报告,64365142.88,2013,12,未知,未知,未知,未知,未知,未知,未知,未知,未知,未知
1,000977,53035786.27000002,53035786.27000002,2014-03-31,一季度报告,6696332.39,2014,3,未知,未知,未知,未知,未知,未知,未知,未知,未知,未知
2,000977,100873138.29000002,100873138.29000002,2014-06-30,半年度报告,24266164.640000004,2014,6,未知,未知,未知,未知,未知,未知,未知,未知,未知,未知
3,000977,192413234.82,192413234.82,2014-09-30,三季度报告,62445490.1,2014,9,未知,未知,未知,未知,未知,未知,未知,未知,未知,未知
4,000977,338798121.12999994,338798121.12999994,2014-12-31,年度报告,123668852.44,2014,12,0.0,True,未知,未知,未知,未知,未知,未知,未知,未知
5,000977,69051007.39000002,69051007.39000002,2015-03-31,一季度报告,9212303.17,2015,3,1.7268125562193153,False,未知,未知,未知,未知,未知,未知,523920000.0,未知
6,000977,239901153.90000007,239901153.90000007,2015-06-30,半年度报告,47083148.32999999,2015,6,0.4336685700630835,True,未知,未知,未知,未知,未知,未知,522163661.99999994,未知
7,000977,307860000.28000003,308655103.79,2015-09-30,三季度报告,110840821.59000002,2015,9,-0.24839552713050733,True,未知,未知,未知,未知,未知,未知,499188333.0,未知
8,000977,447034430.16999984,449201357.18,2015-12-31,年度报告,216443673.91,2015,12,-0.5731421194201118,True,未知,未知,未知,未知,未知,未知,485966000.0,未知
9,000977,118324880.15,119535081.80999996,2016-03-31,一季度报告,12120631.98,2016,3,1.0943741937491809,False,未知,未知,未知,未知,未知,未知,640980000.0,未知
10,000977,257476430.52000004,259913309.63,2016-06-30,半年度报告,62040127.74,2016,6,-0.39717402113754496,True,未知,未知,未知,未知,未知,未知,616857778.0,未知
11,000977,345686600.85,349186009.59000003,2016-09-30,三季度报告,138833610.97,2016,9,-0.5302454109060329,True,未知,未知,未知,未知,未知,未知,626861250.0,未知
12,000977,283541472.04999995,287024706.42,2016-12-31,年度报告,58679608.11,2016,12,-0.6764932672523593,True,0.8494783746921097,True,0.0,True,比例外推,287024706.42,557698889.0,557698889.0
13,000977,70100540.03999999,71072296.54,2017-03-31,一季度报告,15688413.17,2017,3,0.22221672860912675,True,0.938373129521665,True,0.10546760763776213,False,平均增速,124731603.9506938,550125000.0,550125000.0
14,000977,142292683.75,143827379.83999997,2017-06-30,半年度报告,80399039.91,2017,6,-0.43832277137783904,True,0.511125906037789,True,0.5669294316729077,False,平均增速,139951746.8574701,485583000.0,485583000.0
15,000977,248256358.69000003,250199894.82,2017-09-30,三季度报告,181230891.94,2017,9,-0.581648095198365,True,0.3819911863999698,True,1.2382929927037367,False,平均增速,157380369.8603894,446465000.0,446465000.0
16,000977,424415677.92,427530774.37,2017-12-31,年度报告,333841696.57,2017,12,-0.48995592466805765,True,0.27836669127299857,True,0.0,True,比例外推,427530774.37,444165000.0,427530774.37
17,000977,53437985.47000001,54976170.67000002,2018-03-31,一季度报告,47478369.24,2018,3,1.0630176008270311,False,0.2517656251257484,True,0.10785217870865939,False,前期平均,181871344.10500002,616827143.0,616827143.0
18,000977,186754311.93000004,195928717.44,2018-06-30,半年度报告,181950926.87,2018,6,0.016346337132038296,True,0.42782832114989755,True,0.5520591166181803,False,平均增速,860362410.212347,646366503.0,646366503.0
19,000977,361161411.29,372200891.19,2018-09-30,三季度报告,341142661.60000014,2018,9,-0.41746246221799044,True,0.2402795508055342,True,1.2256517832578424,False,平均增速,743238433.95116,626381429.0,626381429.0
20,000977,651347086.31,658597936.72,2018-12-31,年度报告,613146110.38,2018,12,-0.6592523428004471,True,0.16186607477834622,True,0.0,True,比例外推,658597936.72,629780000.0,658597936.72
21,000977,86256333.86000001,92298575.63,2019-03-31,一季度报告,67635510.33,2019,3,1.706289293244197,False,0.4327943075184285,True,0.09622821384620206,True,前期平均,274654705.395,910222856.9999999,910222856.9999999
22,000977,271922482.89,273262594.62,2019-06-30,半年度报告,240934982.95000005,2019,6,-0.22562083608432817,True,0.06568914273918594,True,0.5256527887221331,False,平均增速,1370030937.6264176,883588889.0,883588889.0
23,000977,514841352.24,517689445.18,2019-09-30,三季度报告,468682107.56,2019,9,-0.5995733668958441,True,0.21614847179841687,True,1.2108915751129,False,平均增速,1216302074.8206596,868330435.0,868330435.0
24,000977,955389613.89,928747236.93,2019-12-31,年度报告,801005062.81,2019,12,-0.7779699165474263,True,0.8400748868419537,True,0.0,True,比例外推,928747236.93,875784783.0,928747236.93
25,000977,115894394.97,136452263.39,2020-03-31,一季度报告,115418179.04999998,2020,3,0.6766148230311534,False,0.3964280940526179,True,0.022628395733457686,True,前期平均,578362775.6600001,1312957931.0,1312957931.0
