,SECURITYCODE_x,NETPROFIT_x,PARENTNETPROFIT_x,REPORTDATE_x,REPORTTIMETYPE_x,KCFJCXSYJLR,Year,Month,managesituationChangeRate,managesituationGreatChange,historyprofitextroplaterate,ifhistoryprofitextroplate,IfprofitdisStableChangeRage,IfprofitdisStable,predicttype,predict,analyst_prediction,adj_prediction
0,000905,361767829.68,329305035.45999986,2013-12-31,年度报告,136781945.59000003,2013,12,未知,未知,未知,未知,未知,未知,未知,未知,未知,未知
1,000905,42342780.64000001,35891934.849999994,2014-03-31,一季度报告,26679571.47,2014,3,未知,未知,未知,未知,未知,未知,未知,未知,未知,未知
2,000905,105603433.73,90114588.25,2014-06-30,半年度报告,66456867.66,2014,6,未知,未知,未知,未知,未知,未知,未知,未知,未知,未知
3,000905,156564948.92,130777506.8,2014-09-30,三季度报告,102847356.53,2014,9,未知,未知,未知,未知,未知,未知,未知,未知,未知,未知
4,000905,322286254.77999985,286657679.95000005,2014-12-31,年度报告,94460327.74000002,2014,12,0.0,True,未知,未知,未知,未知,未知,未知,未知,未知
5,000905,46077293.87,39733295.49,2015-03-31,一季度报告,26696727.14,2015,3,7.543790091533298,False,未知,未知,未知,未知,未知,未知,未知,未知
6,000905,106228512.01,91105750.33,2015-06-30,半年度报告,57273899.95,2015,6,2.4257203284217486,False,未知,未知,未知,未知,未知,未知,未知,未知
7,000905,165528133.01999998,142857197.74999997,2015-09-30,三季度报告,90406349.14,2015,9,1.3106565816647286,False,未知,未知,未知,未知,未知,未知,未知,未知
8,000905,386792208.35,263802259.22,2015-12-31,年度报告,97825997.25,2015,12,0.1225046812094149,True,未知,未知,未知,未知,未知,未知,未知,未知
9,000905,71520285.52,34147305.69,2016-03-31,一季度报告,17193969.62,2016,3,6.85132544243315,False,未知,未知,未知,未知,未知,未知,未知,未知
10,000905,169908485.01999998,83020549.78,2016-06-30,半年度报告,47411012.21,2016,6,2.405562431731552,False,未知,未知,未知,未知,未知,未知,286400000.0,未知
11,000905,237939144.99000004,123252666.5,2016-09-30,三季度报告,85698656.58000001,2016,9,1.1855368213226287,False,未知,未知,未知,未知,未知,未知,232520000.0,未知
12,000905,337589239.54999995,206607920.4699999,2016-12-31,年度报告,99202370.55,2016,12,-0.0646972150156551,True,0.13088194964975106,True,0.0,True,比例外推,206607920.4699999,未知,206607920.4699999
13,000905,39441183.42,21313197.88,2017-03-31,一季度报告,19009158.67,2017,3,4.058254830076636,False,0.6177386394740325,True,0.06956595943058777,True,前期平均,90768211.07000001,未知,90768211.07000001
14,000905,100654744.71,63851466.76000001,2017-06-30,半年度报告,41321947.52,2017,6,1.1291922509780261,False,0.6041818850924744,True,0.11456534184839862,False,前期平均,98129245.45000002,未知,98129245.45000002
15,000905,151500816.08,93554673.03,2017-09-30,三季度报告,62849147.69,2017,9,0.520421659476015,False,0.47745579356667933,True,0.12984868716828013,False,前期平均,93070982.69000001,未知,93070982.69000001
16,000905,178912895.37000003,108656156.17,2017-12-31,年度报告,54404468.04,2017,12,0.07162132940679525,True,0.0478085089206621,True,0.0,True,比例外推,108656156.17,,108656156.17
17,000905,30651079.14,11869581.510000002,2018-03-31,一季度报告,3282860.52,2018,3,8.172337093124677,False,0.32921776749847087,True,0.09188672138251192,True,前期平均,88438417.03000002,未知,88438417.03000002
18,000905,55035107.86000001,18720209.430000003,2018-06-30,半年度报告,605737.0599999999,2018,6,2.594145817192248,False,0.2709796529071061,True,0.15189174727652854,False,前期平均,64891937.25,未知,64891937.25
19,000905,81613621.51,22771835.11000001,2018-09-30,三季度报告,640883.94,2018,9,1.3878936037477745,False,0.2490056847869331,True,0.17413630783345535,False,前期平均,33233516.150000002,未知,33233516.150000002
20,000905,107066361.40999998,25199170.23,2018-12-31,年度报告,-18331765.13,2018,12,1.022033285705022,False,0.5060257385423853,True,0.0,True,前期平均,25199170.23,未知,25199170.23
21,000905,38857446.04000001,11870044.29,2019-03-31,一季度报告,-1455250.62,2019,3,10.802776275106378,False,0.44753652898063373,True,0.29362913533260604,False,前期平均,70571899.44,未知,70571899.44
22,000905,111986648.65,56548898.59999999,2019-06-30,半年度报告,12133275.39,2019,6,5.573400938911142,False,0.5931811731038208,True,0.43451349010543633,False,前期平均,88985838.02999999,未知,88985838.02999999
23,000905,150614003.91,71271122.28,2019-09-30,三季度报告,4285181.869999999,2019,9,3.4326893352682935,False,0.5808667334201467,True,0.6963393431996162,False,前期平均,73800639.44,未知,73800639.44
24,000905,187198602.41000003,85629224.28999999,2019-12-31,年度报告,9578816.61,2019,12,2.3789121523859964,False,0.5854175455573547,True,0.0,True,前期平均,85629224.28999999,未知,85629224.28999999
25,000905,27417170.21,8685802.929999998,2020-03-31,一季度报告,-6814721.619999999,2020,3,8.31012885683724,False,0.10875136914684311,True,0.34327100388293913,False,前期平均,15576144.789999997,未知,15576144.789999997
