,SECURITYCODE_x,NETPROFIT_x,PARENTNETPROFIT_x,REPORTDATE_x,REPORTTIMETYPE_x,KCFJCXSYJLR,Year,Month,managesituationChangeRate,managesituationGreatChange,historyprofitextroplaterate,ifhistoryprofitextroplate,IfprofitdisStableChangeRage,IfprofitdisStable,predicttype,predict,analyst_prediction,adj_prediction
0,000999,1142317582.9500005,1108790816.26,2013-12-31,年度报告,1081556442.89,2013,12,未知,未知,未知,未知,未知,未知,未知,未知,未知,未知
1,000999,300742111.08999985,289159141.28,2014-03-31,一季度报告,285748004.76,2014,3,未知,未知,未知,未知,未知,未知,未知,未知,未知,未知
2,000999,581519499.9600003,555959711.0399998,2014-06-30,半年度报告,550399079.0799999,2014,6,未知,未知,未知,未知,未知,未知,未知,未知,未知,未知
3,000999,740665279.7400001,704132151.0200001,2014-09-30,三季度报告,694050356.87,2014,9,未知,未知,未知,未知,未知,未知,未知,未知,未知,未知
4,000999,1072142401.54,1035889014.46,2014-12-31,年度报告,1001141181.56,2014,12,0.0,True,未知,未知,未知,未知,未知,未知,未知,未知
5,000999,347263243.91,339004147.1,2015-03-31,一季度报告,335240455.19000006,2015,3,2.7983293354223724,False,未知,未知,未知,未知,未知,未知,1177794444.0,未知
6,000999,645559195.74,627091019.9399999,2015-06-30,半年度报告,620046862.5500001,2015,6,0.9643667719286707,False,未知,未知,未知,未知,未知,未知,1174147500.0,未知
7,000999,854582751.7099999,828479429.85,2015-09-30,三季度报告,779680722.4,2015,9,0.5422858532682869,False,未知,未知,未知,未知,未知,未知,1188826667.0,未知
8,000999,1274698668.38,1249226535.65,2015-12-31,年度报告,1053543210.6599996,2015,12,0.06545322832974668,True,未知,未知,未知,未知,未知,未知,,未知
9,000999,314731726.01,312366169.61000013,2016-03-31,一季度报告,309358488.57,2016,3,2.2894860109239032,False,未知,未知,未知,未知,未知,未知,1292727429.0,未知
10,000999,643356255.6099999,636139343.2800001,2016-06-30,半年度报告,606894660.8399999,2016,6,0.7695009078765733,False,未知,未知,未知,未知,未知,未知,1310431429.0,未知
11,000999,878207008.63,869297953.94,2016-09-30,三季度报告,800001763.9799999,2016,9,0.33669627741052577,True,未知,未知,未知,未知,未知,未知,1285860000.0,未知
12,000999,1207759473.7299998,1197840599.2199998,2016-12-31,年度报告,1069718120.79,2016,12,-0.10385284672670224,True,0.15125012626820483,True,0.0,True,比例外推,1197840599.2199998,1294945167.0,1197840599.2199998
13,000999,376419788.46,374692855.17,2017-03-31,一季度报告,353439301.79999983,2017,3,2.629496134475193,False,0.028613811347284166,True,0.020595717099229804,True,前期平均,1091540821.3049998,1425907857.0,1425907857.0
14,000999,749353903.85,741254467.92,2017-06-30,半年度报告,695088747.6,2017,6,0.7755599218770465,False,0.04859819971528456,True,0.019985738852746127,True,前期平均,1183373693.2149997,1415611000.0,1415611000.0
15,000999,970180931.22,959115018.37,2017-09-30,三季度报告,900773125.35,2017,9,0.30073840418560555,True,0.10102879466555943,True,0.03379984404260261,True,比例外推,1297268917.1596625,1374382222.0,1297268917.1596625
16,000999,1326477100.3199995,1301687249.7200005,2017-12-31,年度报告,1124424935.75,2017,12,-0.05418453939168114,True,0.029263966111834152,True,0.0,True,比例外推,1301687249.7200005,1372055000.0,1301687249.7200005
17,000999,429717907.81,422914173.75000006,2018-03-31,一季度报告,391272661.16,2018,3,2.034690571458594,False,0.13722854572592622,True,0.01804641987382294,True,前期平均,1162245367.5949998,1477460909.0,1477460909.0
18,000999,844831401.5999999,826501378.0900003,2018-06-30,半年度报告,772719224.9,2018,6,0.5244033254261407,False,0.16276657722604324,True,0.026823253173452577,True,前期平均,1274661282.1200001,1476960000.0,1476960000.0
19,000999,1137111533.0299995,1112454763.0300002,2018-09-30,三季度报告,1021701998.15,2018,9,0.17742737070036937,True,0.11979070216762552,True,0.03809181961677455,True,比例外推,1429803144.100469,1479000000.0,1429803144.100469
20,000999,1474871654.4999998,1432078201.63,2018-12-31,年度报告,1254066144.08,2018,12,-0.13883354437522688,True,0.06868033568738596,True,0.0,True,比例外推,1432078201.63,,1432078201.63
21,000999,1168469235.1799998,1166843861.8300006,2019-03-31,一季度报告,435456820.5599998,2019,3,1.658296436310206,False,0.24348395051850022,True,0.01597987191310657,True,前期平均,1932516494.915001,2175490000.0,2175490000.0
22,000999,1732695571.9600005,1722327728.5599995,2019-06-30,半年度报告,976520967.14,2019,6,0.3521249101141373,True,0.2132192701567842,True,0.03322074003475983,True,比例外推,2371820107.0852385,2246511111.0,2371820107.0852385
23,000999,1984323275.57,1969393683.4300003,2019-09-30,三季度报告,1175571043.72,2019,9,0.004578310718675723,True,0.23038190037344455,True,0.04002789922282379,True,比例外推,2285872129.183461,2043450000.0,2043450000.0
24,000999,2139083018.85,2112494768.1900003,2019-12-31,年度报告,1202508689.7100005,2019,12,-0.22548000738595744,True,0.16395735867941214,True,0.0,True,比例外推,2112494768.1900003,2043450000.0,2112494768.1900003
25,000999,537660668.4600002,533309778.1200001,2020-03-31,一季度报告,445396805.87,2020,3,-0.022381121763955306,True,1.898932131784702,True,0.03263837412268045,True,比例外推,1439708805.613985,1741080000.0,1741080000.0
