,SECURITYCODE_x,NETPROFIT_x,PARENTNETPROFIT_x,REPORTDATE_x,REPORTTIMETYPE_x,KCFJCXSYJLR,Year,Month,managesituationChangeRate,managesituationGreatChange,historyprofitextroplaterate,ifhistoryprofitextroplate,IfprofitdisStableChangeRage,IfprofitdisStable,predicttype,predict,analyst_prediction,adj_prediction
0,000918,26079858.95000001,57158291.99999999,2013-12-31,年度报告,22040416.24,2013,12,未知,未知,未知,未知,未知,未知,未知,未知,未知,未知
1,000918,-177893016.23000002,-157329416.08,2014-03-31,一季度报告,-160353634.31,2014,3,未知,未知,未知,未知,未知,未知,未知,未知,未知,未知
2,000918,-163350205.45000002,-126584105.73,2014-06-30,半年度报告,-122638470.4,2014,6,未知,未知,未知,未知,未知,未知,未知,未知,未知,未知
3,000918,-115880256.51,-58276778.81999999,2014-09-30,三季度报告,-57741959.84,2014,9,未知,未知,未知,未知,未知,未知,未知,未知,未知,未知
4,000918,-74254621.03,38090871.38,2014-12-31,年度报告,-56141053.63000001,2014,12,0.0,True,未知,未知,未知,未知,未知,未知,未知,未知
5,000918,-175879573.5,-146815861.17999998,2015-03-31,一季度报告,-145874201.55,2015,3,-1.1466041753785379,False,未知,未知,未知,未知,未知,未知,119667660.0,未知
6,000918,-297499070.33,-222546165.4,2015-06-30,半年度报告,-414325646.39000016,2015,6,-1.1596561135515855,False,未知,未知,未知,未知,未知,未知,104200000.0,未知
7,000918,-702522333.8499999,-586061827.23,2015-09-30,三季度报告,-783289034.0300001,2015,9,-1.225058691924361,False,未知,未知,未知,未知,未知,未知,-2292000000.0,未知
8,000918,-2666925446.94,-2330954496.5400004,2015-12-31,年度报告,-2583526175.28,2015,12,-1.3512220328949407,False,未知,未知,未知,未知,未知,未知,245000000.0,未知
9,000918,-279458486.97,-240798738.29,2016-03-31,一季度报告,-243870373.7,2016,3,-1.1482824777830156,False,未知,未知,未知,未知,未知,未知,103000000.0,未知
10,000918,-1051089188.04,-939640388.3,2016-06-30,半年度报告,-953151036.92,2016,6,-1.087663665372369,False,未知,未知,未知,未知,未知,未知,128000000.0,未知
11,000918,-1021901347.12,-958822153.61,2016-09-30,三季度报告,-960254471.94,2016,9,-1.0371231741588567,False,未知,未知,未知,未知,未知,未知,1257000000.0,未知
12,000918,272903648.62,398830998.97,2016-12-31,年度报告,-1957958672.4600003,2016,12,-1.009778998126822,False,-109.71878019911128,True,0.0,True,前期平均,398830998.97,,398830998.97
13,000918,-379321626.83000016,-362114783.93,2017-03-31,一季度报告,-349143952.86,2017,3,-1.093322837437389,False,-0.5798764239099662,True,1.8438367048487174,False,前期平均,-1528834480.4550002,,-1528834480.4550002
14,000918,-743426435.1699997,-716536373.96,2017-06-30,半年度报告,-694754450.5799999,2017,6,-1.0248122226417646,False,-3.5615312566608806,True,1.2405867038101595,False,前期平均,-1767887930.02,未知,-1767887930.02
15,000918,-988112188.4799998,-992677281.1,2017-09-30,三季度报告,-970807716.9699998,2017,9,-1.0255209164989363,False,-1.4973072156833835,True,0.42113633544766593,False,前期平均,-1891995398.6200001,未知,-1891995398.6200001
16,000918,1893157634.91,1987749618.41,2017-12-31,年度报告,-1847310369.04,2017,12,-0.9044356530889974,True,-1.1991139887589366,True,0.0,True,比例外推,1987749618.41,536580000.0,536580000.0
17,000918,-103322434.5,-90499186.45,2018-03-31,一季度报告,-185658962.56000003,2018,3,-1.0687539467969438,False,-0.6661099071685961,True,0.06687606233432511,True,前期平均,-2166369322.695,未知,-2166369322.695
18,000918,-293264124.75000006,-241167636.70000005,2018-06-30,半年度报告,-413071212.15,2018,6,-1.0350806182242314,False,-0.10252544548854077,True,0.1807179947357625,False,前期平均,-1828171718.9150002,未知,-1828171718.9150002
19,000918,-620533177.38,-539261256.01,2018-09-30,三季度报告,-544713934.5300001,2018,9,-1.0263936213458902,False,-0.1460202030213133,True,0.13652981686142107,False,前期平均,-1938231926.895,未知,-1938231926.895
20,000918,-1654609405.68,-1564047010.2900002,2018-12-31,年度报告,-1570225538.0599995,2018,12,-0.9862241482330446,True,-2.5815709249084695,True,0.0,True,比例外推,-1564047010.2900002,未知,-1564047010.2900002
21,000918,-106287372.98,-102225532.48999998,2019-03-31,一季度报告,-126259909.25999998,2019,3,-1.2524123543565944,False,-0.6863219385782255,True,0.045070656698532274,True,前期平均,-1708352889.9600003,未知,-1708352889.9600003
22,000918,-399287343.98,-377582887.04,2019-06-30,半年度报告,-342798663.74,2019,6,-1.088929591958213,False,-0.6731551166710781,True,0.11225616625840817,False,前期平均,-1456264664.04,未知,-1456264664.04
23,000918,-460384060.0,-439983345.47,2019-09-30,三季度报告,-484175652.44,2019,9,-1.042028145956859,False,-0.38255821029108894,True,0.10738602312773277,False,前期平均,-1377086771.7650003,未知,-1377086771.7650003
24,000918,43845268.05,114369818.82999998,2019-12-31,年度报告,-800250878.0899999,2019,12,-1.0157619428854159,False,2.5277586264627803,False,0.0,True,前期平均,114369818.82999998,未知,114369818.82999998
25,000918,-315619910.24,-313392657.20999986,2020-03-31,一季度报告,-257598961.74,2020,3,-1.2453711877412514,False,-0.5595620810619372,True,0.036767462671287374,True,前期平均,-1754759153.0499995,未知,-1754759153.0499995
