,SECURITYCODE_x,NETPROFIT_x,PARENTNETPROFIT_x,REPORTDATE_x,REPORTTIMETYPE_x,KCFJCXSYJLR,Year,Month,managesituationChangeRate,managesituationGreatChange,historyprofitextroplaterate,ifhistoryprofitextroplate,IfprofitdisStableChangeRage,IfprofitdisStable,predicttype,predict,analyst_prediction,adj_prediction
0,000937,1122415420.58,1184003806.18,2013-12-31,年度报告,1143469418.6699998,2013,12,未知,未知,未知,未知,未知,未知,未知,未知,未知,未知
1,000937,63381233.03999999,73749683.98000002,2014-03-31,一季度报告,45943302.81,2014,3,未知,未知,未知,未知,未知,未知,未知,未知,未知,未知
2,000937,-9608571.58,52704166.13,2014-06-30,半年度报告,28211992.28,2014,6,未知,未知,未知,未知,未知,未知,未知,未知,未知,未知
3,000937,-50921880.08,40786562.25999999,2014-09-30,三季度报告,52301978.66,2014,9,未知,未知,未知,未知,未知,未知,未知,未知,未知,未知
4,000937,-163650789.46999997,24373979.18,2014-12-31,年度报告,1660009.33,2014,12,0.0,True,未知,未知,未知,未知,未知,未知,未知,未知
5,000937,-41597633.75,5010346.2700000005,2015-03-31,一季度报告,10031830.220000004,2015,3,16.708955265538016,False,未知,未知,未知,未知,未知,未知,20825000.0,未知
6,000937,-121335302.16,6385687.580000001,2015-06-30,半年度报告,-59068801.14,2015,6,-117.81397294435307,False,未知,未知,未知,未知,未知,未知,-4366667.0,未知
7,000937,-181891742.9,1690171.13,2015-09-30,三季度报告,-68785130.36000001,2015,9,-23.041908484459867,False,未知,未知,未知,未知,未知,未知,25200000.0,未知
8,000937,303413664.74,351812985.7,2015-12-31,年度报告,-1498835771.57,2015,12,-7.858600708344021,False,未知,未知,未知,未知,未知,未知,-372173333.0,未知
9,000937,-44756714.41,4203202.25,2016-03-31,一季度报告,26161692.099999994,2016,3,-27.98267471956863,False,未知,未知,未知,未知,未知,未知,202756406.0,未知
10,000937,-65258695.1,9160023.87,2016-06-30,半年度报告,34626394.45,2016,6,-10.250526438710441,False,未知,未知,未知,未知,未知,未知,321600000.0,未知
11,000937,72232.45000000001,81116808.57000001,2016-09-30,三季度报告,115202501.60999995,2016,9,-7.1707881989842654,False,未知,未知,未知,未知,未知,未知,352293047.0,未知
12,000937,159807116.66000003,243975734.26,2016-12-31,年度报告,231009877.93,2016,12,2.699290938467836,False,0.3670737219650542,True,0.0,True,前期平均,243975734.26,351470000.0,351470000.0
13,000937,286350522.35,284944789.61999995,2017-03-31,一季度报告,305089376.81,2017,3,-26.07814604749491,False,5.109212055745633,False,18.415503204879993,False,去年同期,489792975.4499999,1351585804.0,1351585804.0
14,000937,568111037.91,570545997.81,2017-06-30,半年度报告,608301044.55,2017,6,-18.1994769257959,False,-0.003256994984330541,True,11.26695330428634,False,前期平均,-162613478.88,1194261667.0,1194261667.0
15,000937,845847280.2499999,841378029.9499999,2017-09-30,三季度报告,901526736.69,2017,9,15537.936040242297,False,-1.0006205173827496,True,20.823164924862567,False,前期平均,101031724.67999983,1223523333.0,1223523333.0
16,000937,1089594515.88,1064340651.5,2017-12-31,年度报告,1102240451.4900002,2017,12,6.023563430957904,False,1.2868321269332452,True,0.0,True,前期平均,1064340651.5,1077823333.0,1064340651.5
17,000937,328952645.09,287260777.46,2018-03-31,一季度报告,311884080.09,2018,3,2.9197254168375357,False,-7.631988509008045,True,0.14900809519086702,False,前期平均,-364748930.52000004,1147823410.0,1147823410.0
18,000937,700492211.85,605158927.62,2018-06-30,半年度报告,683677446.15,2018,6,0.9756972593055175,False,-7.089274534575668,True,0.30481753713733706,False,前期平均,-16532815.8549999,1210100000.0,1210100000.0
19,000937,1037901450.63,848727434.02,2018-09-30,三季度报告,949139362.3,2018,9,0.3269717202947761,True,-10.304252092160441,True,0.40826997749663146,False,平均增速,1301896476.647082,1134200000.0,1134200000.0
20,000937,1049157227.47,872022195.1600001,2018-12-31,年度报告,948629988.9,2018,12,0.03012212728832646,True,3.704428469667963,False,0.0,True,比例外推,872022195.1600001,1507750000.0,1507750000.0
21,000937,295992324.76,234247811.28,2019-03-31,一季度报告,177178072.82,2019,3,2.4120881450061367,False,1.7231877165634606,True,0.12635496984031525,False,前期平均,735247441.5350002,987333333.0,987333333.0
22,000937,621439384.47,457365554.55,2019-06-30,半年度报告,416293699.04,2019,6,0.6023239110906039,False,1.7860751644729922,True,0.32426463343439493,False,前期平均,802526999.7600002,969000000.0,969000000.0
23,000937,949908417.86,731611294.18,2019-09-30,三季度报告,710015145.6199999,2019,9,0.08142774046485864,True,1.453901192838627,True,0.2736864084550532,False,平均增速,730703570.1840179,848476667.0,848476667.0
24,000937,1203149175.7999995,901369331.26,2019-12-31,年度报告,917113537.1699998,2019,12,0.06982575270120289,True,0.6794555091737656,True,0.0,True,比例外推,901369331.26,915215000.0,901369331.26
25,000937,271722546.85,250580374.22,2020-03-31,一季度报告,258447221.76,2020,3,2.792042315590751,False,0.03789760747863195,True,0.07306046647194711,True,前期平均,967528865.9650002,687000000.0,687000000.0
