,SECURITYCODE_x,NETPROFIT_x,PARENTNETPROFIT_x,REPORTDATE_x,REPORTTIMETYPE_x,KCFJCXSYJLR,Year,Month,managesituationChangeRate,managesituationGreatChange,historyprofitextroplaterate,ifhistoryprofitextroplate,IfprofitdisStableChangeRage,IfprofitdisStable,predicttype,predict,analyst_prediction,adj_prediction
0,000958,691237717.95,685378854.4300001,2013-12-31,年度报告,60314286.43999999,2013,12,未知,未知,未知,未知,未知,未知,未知,未知,未知,未知
1,000958,106861253.15,107556282.41,2014-03-31,一季度报告,108052749.41,2014,3,未知,未知,未知,未知,未知,未知,未知,未知,未知,未知
2,000958,146856795.53,146370955.67000002,2014-06-30,半年度报告,147546487.93,2014,6,未知,未知,未知,未知,未知,未知,未知,未知,未知,未知
3,000958,164042859.36,163938191.67000002,2014-09-30,三季度报告,164586225.98,2014,9,未知,未知,未知,未知,未知,未知,未知,未知,未知,未知
4,000958,389302232.81,384018896.34,2014-12-31,年度报告,137586934.25,2014,12,0.0,True,未知,未知,未知,未知,未知,未知,未知,未知
5,000958,201009578.99,200559255.19,2015-03-31,一季度报告,200320909.6600001,2015,3,5.468553358434951,False,未知,未知,未知,未知,未知,未知,486363032.0,未知
6,000958,313506021.95,312503564.99000007,2015-06-30,半年度报告,312744133.44999987,2015,6,3.7068827523803187,False,未知,未知,未知,未知,未知,未知,410636667.0,未知
7,000958,397419371.31000006,396358342.68000007,2015-09-30,三季度报告,383059180.79000014,2015,9,3.2137629193175994,False,未知,未知,未知,未知,未知,未知,396353620.0,未知
8,000958,447034159.84,445345078.08,2015-12-31,年度报告,191006863.89,2015,12,0.775581180104252,False,未知,未知,未知,未知,未知,未知,410205747.0,未知
9,000958,172008998.81,170818122.12000003,2016-03-31,一季度报告,170107713.59,2016,3,2.438829738479221,False,未知,未知,未知,未知,未知,未知,473075847.0,未知
10,000958,243826148.67000008,242956313.41,2016-06-30,半年度报告,241476180.89999995,2016,6,1.204862648731651,False,未知,未知,未知,未知,未知,未知,402750000.0,未知
11,000958,285113402.60999984,284445650.76999986,2016-09-30,三季度报告,282849706.78000003,2016,9,0.7393156143131536,False,未知,未知,未知,未知,未知,未知,358500000.0,未知
12,000958,285358809.65,283654999.17,2016-12-31,年度报告,268088636.57999995,2016,12,0.5462749383568453,False,0.1725726392150932,True,0.0,True,前期平均,283654999.17,624260000.0,624260000.0
13,000958,76858889.45999998,76929682.47,2017-03-31,一季度报告,76936626.89999999,2017,3,3.0186136930750735,False,0.11741016590867756,True,0.2258879023074526,False,前期平均,87039752.00499995,410262000.0,410262000.0
14,000958,85712022.61999997,85849165.58,2017-06-30,半年度报告,86388271.60000002,2017,6,1.8349613924531822,False,0.05927820150502423,True,0.43385667492264424,False,前期平均,20000753.960000053,,20000753.960000053
15,000958,102471335.86,102547355.1,2017-09-30,三季度报告,102206347.55,2017,9,1.4244308111166857,False,0.015610265608678104,True,0.5865506441477806,False,前期平均,-6978449.215000078,未知,-6978449.215000078
16,000958,108356900.35999998,107148843.45999998,2017-12-31,年度报告,-492370116.56999993,2017,12,1.4223458136716407,False,0.3175980092273222,True,0.0,True,前期平均,107148843.45999998,592000000.0,592000000.0
17,000958,96039227.41,96095528.39,2018-03-31,一季度报告,64640527.83000001,2018,3,7.993594921895716,False,0.5879085169789633,True,0.6652662408811938,False,前期平均,140428966.99999994,未知,140428966.99999994
18,000958,118949078.20999998,117515918.51,2018-06-30,半年度报告,83706442.18999998,2018,6,7.064652971900667,False,0.6924203297841205,True,0.9629951604139608,False,前期平均,69953511.57000007,未知,69953511.57000007
19,000958,136856223.81999996,134541485.22,2018-09-30,三季度报告,99059593.13,2018,9,5.745669041480963,False,0.6997321160961254,True,1.1585648113168696,False,前期平均,31134791.669999883,未知,31134791.669999883
20,000958,1830045232.9,616095755.8099997,2018-12-31,年度报告,104256980.0,2018,12,5.379268100632849,False,0.7041017462648391,True,0.0,True,前期平均,616095755.8099997,未知,616095755.8099997
21,000958,1830045232.9,616095755.8099997,2018-12-31,年度报告,104256980.0,2018,12,5.379268100632849,False,0.7041017462648391,True,0.0,True,前期平均,616095755.8099997,未知,616095755.8099997
22,000958,2373540168.82,893228543.57,2018-12-31,年度报告,104256980.0,2018,12,5.379268100632849,False,0.7041017462648391,True,0.0,True,前期平均,893228543.57,未知,893228543.57
23,000958,2373540168.82,893228543.57,2018-12-31,年度报告,104256980.0,2018,12,5.379268100632849,False,0.7041017462648391,True,0.0,True,前期平均,893228543.57,未知,893228543.57
24,000958,697079713.3200003,302854614.24999994,2019-03-31,一季度报告,97671914.32,2019,3,6.197451880772061,False,0.22819108501611265,True,0.5223491165677558,False,前期平均,67191704.00999993,268400000.0,268400000.0
25,000958,697079713.3200003,302854614.24999994,2019-03-31,一季度报告,97671914.32,2019,3,6.197451880772061,False,0.22819108501611265,True,0.5223491165677558,False,前期平均,67191704.00999993,268400000.0,268400000.0
26,000958,760540034.07,382044636.84,2019-03-31,一季度报告,97671914.32,2019,3,6.197451880772061,False,0.22819108501611265,True,0.5223491165677558,False,前期平均,146381726.59999996,268400000.0,268400000.0
27,000958,760540034.07,382044636.84,2019-03-31,一季度报告,97671914.32,2019,3,6.197451880772061,False,0.22819108501611265,True,0.5223491165677558,False,前期平均,146381726.59999996,268400000.0,268400000.0
28,000958,206947820.77,155019255.64000002,2019-06-30,半年度报告,150904189.6,2019,6,4.81120701691901,False,0.2780861910815033,True,0.6848420728213047,False,前期平均,-121053710.60499999,,-121053710.60499999
29,000958,263639527.1900001,194056777.23,2019-09-30,三季度报告,188590945.57,2019,9,4.050831439417398,False,0.29379972823365946,True,0.8067897875135137,False,前期平均,-110611989.92999998,未知,-110611989.92999998
30,000958,2486029172.51,1333750925.4499998,2019-12-31,年度报告,232204472.37,2019,12,-0.6222838072397681,True,8.296277422374223,False,0.0,True,比例外推,1333750925.4499998,未知,1333750925.4499998
31,000958,710901783.1899999,321504896.42,2020-03-31,一季度报告,312966023.27000004,2020,3,-0.00838067047192697,True,7.063473749041769,False,0.45105194772693114,False,未知,未知,未知,未知
