,SECURITYCODE_x,NETPROFIT_x,PARENTNETPROFIT_x,REPORTDATE_x,REPORTTIMETYPE_x,KCFJCXSYJLR,Year,Month,managesituationChangeRate,managesituationGreatChange,historyprofitextroplaterate,ifhistoryprofitextroplate,IfprofitdisStableChangeRage,IfprofitdisStable,predicttype,predict,analyst_prediction,adj_prediction
0,000980,39267226.03,39005761.99,2013-12-31,年度报告,37472012.36000001,2013,12,未知,未知,未知,未知,未知,未知,未知,未知,未知,未知
1,000980,31378747.660000004,31329667.89,2014-03-31,一季度报告,20393387.54,2014,3,未知,未知,未知,未知,未知,未知,未知,未知,未知,未知
2,000980,32432743.280000005,32381646.14000001,2014-06-30,半年度报告,20065881.77,2014,6,未知,未知,未知,未知,未知,未知,未知,未知,未知,未知
3,000980,35152739.12,34848041.25,2014-09-30,三季度报告,22360510.750000004,2014,9,未知,未知,未知,未知,未知,未知,未知,未知,未知,未知
4,000980,42068850.26,41968609.43000001,2014-12-31,年度报告,29390095.01,2014,12,0.0,True,未知,未知,未知,未知,未知,未知,未知,未知
5,000980,20091576.31,20349373.73,2015-03-31,一季度报告,20436071.7,2015,3,0.25139557688772324,True,未知,未知,未知,未知,未知,未知,未知,未知
6,000980,26138380.24,26131095.38,2015-06-30,半年度报告,25928460.45,2015,6,0.21072786507746794,True,未知,未知,未知,未知,未知,未知,未知,未知
7,000980,31367559.92,31135344.320000004,2015-09-30,三季度报告,31067615.55,2015,9,0.11704598312963568,True,未知,未知,未知,未知,未知,未知,未知,未知
8,000980,60551105.85,60329417.70999999,2015-12-31,年度报告,55361512.05,2015,12,-0.0665961682500233,True,未知,未知,未知,未知,未知,未知,未知,未知
9,000980,27851815.39,27948320.369999994,2016-03-31,一季度报告,27996988.95000001,2016,3,0.9544124076743485,False,未知,未知,未知,未知,未知,未知,1088045000.0,未知
10,000980,36950366.41,37348007.91,2016-06-30,半年度报告,36007798.42,2016,6,0.5022823017131227,False,未知,未知,未知,未知,未知,未知,829890000.0,未知
11,000980,44110465.53,44354746.35,2016-09-30,三季度报告,41324484.81,2016,9,0.2518419070577167,True,未知,未知,未知,未知,未知,未知,738989556.0,未知
12,000980,87150634.43,86784363.52,2016-12-31,年度报告,83074341.7,2016,12,-0.3515027433640174,True,0.4889114059081939,True,0.0,True,比例外推,86784363.52,732484556.0,732484556.0
13,000980,31326123.55,31227353.25,2017-03-31,一季度报告,31386173.779999994,2017,3,0.4098623547569048,True,0.08224752602038075,True,0.22720764845035474,False,平均增速,108698734.39860363,1906393333.0,1906393333.0
14,000980,222296966.32000005,222265728.01999995,2017-06-30,半年度报告,215559596.31,2017,6,0.0627019389819362,True,0.2617263999514276,True,0.1545657371243161,False,平均增速,402968285.43273705,1418082500.0,1418082500.0
15,000980,480441856.0199999,480294511.12,2017-09-30,三季度报告,471023126.3800001,2017,9,-0.10979796839156143,True,0.3262257135517532,True,0.15433962181200522,False,平均增速,753553382.0296593,1419223333.0,1419223333.0
16,000980,1256805628.689999,1256411169.3300002,2017-12-31,年度报告,1103671471.4699998,2017,12,-0.549432700211268,True,0.6985124089622846,True,0.0,True,比例外推,1256411169.3300002,2089843667.0000002,2089843667.0000002
17,000980,141230884.59,140950446.19,2018-03-31,一季度报告,139791757.58,2018,3,0.2534977705532289,True,0.3067963045259478,True,0.21642464688537646,False,平均增速,6492574099.232216,1193000000.0,1193000000.0
18,000980,304794099.08999985,304501806.6,2018-06-30,半年度报告,303009752.70000005,2018,6,-0.8233568964972999,True,6.047119434888951,False,0.17038868033369306,False,未知,未知,1392000000.0,未知
19,000980,415927128.17,415238702.41,2018-09-30,三季度报告,382100939.87,2018,9,-0.9182685156632868,True,11.73064188300119,False,0.06835339796935197,True,比例外推,804853403.2251952,1190265000.0,1190265000.0
20,000980,800764883.4100001,799886806.5899999,2018-12-31,年度报告,-1240604026.91,2018,12,-0.9687563254542955,True,16.01815599880485,False,0.0,True,比例外推,799886806.5899999,1055530000.0,1055530000.0
21,000980,106113431.16000004,105922334.7,2019-03-31,一季度报告,100381537.97,2019,3,-0.7219643129475919,True,3.773092375967767,False,0.25275498700126114,False,未知,未知,未知,未知
22,000980,-289215074.3,-290411658.46000016,2019-06-30,半年度报告,-422367125.50999993,2019,6,-0.8711680240948328,True,1.351376933219488,True,0.3724131685893951,False,平均增速,-3907664117.08328,未知,-3907664117.08328
23,000980,-758442447.8400003,-759976905.9300001,2019-09-30,三季度报告,-908222998.69,2019,9,-0.9055910918752322,True,0.5858365737129013,True,0.5134033238720122,False,平均增速,-3764998949.567753,未知,-3764998949.567753
24,000980,-11191325134.77,-11190223844.22,2019-12-31,年度报告,-11131057759.69,2019,12,-0.950962852088639,True,0.19165318899741812,True,0.0,True,比例外推,-11190223844.22,,-11190223844.22
25,000980,-418242401.88999987,-417444128.27000016,2020-03-31,一季度报告,-419843352.74,2020,3,-0.629950463379211,True,0.2298941932733029,True,0.08159353936447708,True,比例外推,13507891534.146536,未知,13507891534.146536
