,SECURITYCODE_x,NETPROFIT_x,PARENTNETPROFIT_x,REPORTDATE_x,REPORTTIMETYPE_x,KCFJCXSYJLR,Year,Month,managesituationChangeRate,managesituationGreatChange,historyprofitextroplaterate,ifhistoryprofitextroplate,IfprofitdisStableChangeRage,IfprofitdisStable,predicttype,predict,analyst_prediction,adj_prediction
0,000938,140428235.57,100944629.77,2013-12-31,年度报告,96741569.12999998,2013,12,未知,未知,未知,未知,未知,未知,未知,未知,未知,未知
1,000938,24244980.99000001,17632118.47,2014-03-31,一季度报告,17360105.200000007,2014,3,未知,未知,未知,未知,未知,未知,未知,未知,未知,未知
2,000938,54466120.55000001,40039638.18999999,2014-06-30,半年度报告,36754407.11999999,2014,6,未知,未知,未知,未知,未知,未知,未知,未知,未知,未知
3,000938,106704996.77,76095939.48999998,2014-09-30,三季度报告,62280683.20000001,2014,9,未知,未知,未知,未知,未知,未知,未知,未知,未知,未知
4,000938,172227044.59,125820136.42,2014-12-31,年度报告,82800410.6,2014,12,0.0,True,未知,未知,未知,未知,未知,未知,未知,未知
5,000938,36330821.74,31230092.07,2015-03-31,一季度报告,15710206.840000002,2015,3,4.792053853451998,False,未知,未知,未知,未知,未知,未知,786590000.0,未知
6,000938,114882050.29,94613669.48,2015-06-30,半年度报告,34415256.17,2015,6,1.5782676304453624,False,未知,未知,未知,未知,未知,未知,171800000.0,未知
7,000938,146053101.53,116296871.73000002,2015-09-30,三季度报告,59629213.31,2015,9,0.3160417957997751,True,未知,未知,未知,未知,未知,未知,737606667.0,未知
8,000938,202547834.6200001,152155608.99000004,2015-12-31,年度报告,97730550.2,2015,12,-0.18463307604040685,True,未知,未知,未知,未知,未知,未知,659520000.0,未知
9,000938,39668968.59,39661489.98000001,2016-03-31,一季度报告,11010719.4,2016,3,2.865264501171175,False,未知,未知,未知,未知,未知,未知,1200405000.0,未知
10,000938,376077105.64999986,265303783.08,2016-06-30,半年度报告,189033239.0000001,2016,6,0.22236881406201428,True,未知,未知,未知,未知,未知,未知,1052705000.0,未知
11,000938,756017735.1199999,519734600.06999993,2016-09-30,三季度报告,397066978.29,2016,9,-0.0385124718412408,True,未知,未知,未知,未知,未知,未知,997466667.0,未知
12,000938,1193527377.3500006,814822574.6,2016-12-31,年度报告,542502881.82,2016,12,-0.3066910054434433,True,0.2956623314747611,True,0.0,True,比例外推,814822574.6,931000000.0,931000000.0
13,000938,528217696.77,316008561.33999985,2017-03-31,一季度报告,228756889.87,2017,3,2.5400021871352614,False,0.30972985258861613,True,0.10993999403287101,False,前期平均,389738885.71999985,1347315000.0,1347315000.0
14,000938,1296248733.78,801794002.2099999,2017-06-30,半年度报告,514468617.36,2017,6,-0.6265972231218695,True,3.441466403617871,False,0.062397464497159716,True,比例外推,1635887691.1189108,1419762500.0,1419762500.0
15,000938,1839202186.01,1118851984.58,2017-09-30,三季度报告,782171946.2200001,2017,9,-0.8142527231220174,True,4.982144510540495,False,0.08793912796204828,True,比例外推,1457144916.8898387,1639000000.0,1639000000.0
16,000938,2620183799.9100013,1565147285.0100002,2017-12-31,年度报告,971062992.5600002,2017,12,-0.8823418396301943,True,5.36930297924917,False,0.0,True,比例外推,1565147285.0100002,1528785000.0,1565147285.0100002
17,000938,432004254.01000017,247136444.2800001,2018-03-31,一季度报告,200864129.54,2018,3,-0.7341470449992398,True,12.900504053403745,False,0.11857720097828282,False,未知,未知,1942198152.0,未知
18,000938,1291158714.13,733173622.8199999,2018-06-30,半年度报告,584343802.76,2018,6,-0.8916656719420691,True,4.280474834197468,False,0.1196693463397297,False,未知,未知,1855917143.0,未知
19,000938,2033738780.4300003,1162000564.8300002,2018-09-30,三季度报告,933468320.38,2018,9,-0.9236472005969895,True,3.077733391404612,False,0.10570636013234203,False,未知,未知,1846434000.0,未知
20,000938,2936746561.9999995,1705539607.3200002,2018-12-31,年度报告,1312809815.42,2018,12,-0.9464051966221516,True,2.753642751399707,False,0.0,True,比例外推,1705539607.3200002,1846434000.0,1705539607.3200002
21,000938,615100681.88,376032865.95,2019-03-31,一季度报告,226675441.66,2019,3,-0.6749378408511012,True,0.521445317741842,True,0.11599486984507894,False,平均增速,1876854230.3748312,2144781250.0,2144781250.0
22,000938,1406902538.5200002,846885143.2700001,2019-06-30,半年度报告,598292492.61,2019,6,-0.8912385951988696,True,0.5441472991532347,True,0.09267188453474623,True,比例外推,1604900825.7668977,2097627000.0,2097627000.0
23,000938,2023347540.4000008,1241820950.0899994,2019-09-30,三季度报告,910667331.3799998,2019,9,-0.9309507017708987,True,0.5672959072728434,True,0.055999112055701517,True,比例外推,1546217521.140306,1920493750.0,1920493750.0
24,000938,3074634216.739999,1843401709.04,2019-12-31,年度报告,1302289267.5799994,2019,12,-0.9521823784908545,True,0.5400990927215068,True,0.0,True,比例外推,1843401709.04,1917495000.0,1843401709.04
25,000938,431770822.56,252472475.36,2020-03-31,一季度报告,199991268.55,2020,3,-0.7716987808552029,True,0.28116355053192876,True,0.04802831466655244,True,比例外推,1118843258.9295745,2194562500.0,2194562500.0
