,SECURITYCODE_x,NETPROFIT_x,PARENTNETPROFIT_x,REPORTDATE_x,REPORTTIMETYPE_x,KCFJCXSYJLR,Year,Month,managesituationChangeRate,managesituationGreatChange,historyprofitextroplaterate,ifhistoryprofitextroplate,IfprofitdisStableChangeRage,IfprofitdisStable,predicttype,predict,analyst_prediction,adj_prediction
0,000957,102745343.82,104506141.46,2013-12-31,年度报告,58399780.16999998,2013,12,未知,未知,未知,未知,未知,未知,未知,未知,未知,未知
1,000957,196555317.29000005,186921608.13,2014-03-31,一季度报告,2991637.64,2014,3,未知,未知,未知,未知,未知,未知,未知,未知,未知,未知
2,000957,214257662.21,204793795.42000008,2014-06-30,半年度报告,12717027.600000005,2014,6,未知,未知,未知,未知,未知,未知,未知,未知,未知,未知
3,000957,287004641.85999995,277602464.62,2014-09-30,三季度报告,82205865.92999999,2014,9,未知,未知,未知,未知,未知,未知,未知,未知,未知,未知
4,000957,288568984.26,279598922.4700001,2014-12-31,年度报告,75686104.31000002,2014,12,0.0,True,未知,未知,未知,未知,未知,未知,未知,未知
5,000957,8417421.629999999,8718488.389999999,2015-03-31,一季度报告,4661464.66,2015,3,-0.4772700874410419,True,未知,未知,未知,未知,未知,未知,226000000.0,未知
6,000957,47728111.91,48258154.67000001,2015-06-30,半年度报告,38926487.63,2015,6,-0.5204589522716981,True,未知,未知,未知,未知,未知,未知,233000000.0,未知
7,000957,187792736.62000003,188505738.72000003,2015-09-30,三季度报告,177832141.87,2015,9,-0.6420080764055416,True,未知,未知,未知,未知,未知,未知,377000000.0,未知
8,000957,397117919.88999987,399269973.37,2015-12-31,年度报告,394394379.38,2015,12,-0.6439487629501213,True,未知,未知,未知,未知,未知,未知,188000000.0,未知
9,000957,135295830.47000003,135492679.45999998,2016-03-31,一季度报告,130793563.59,2016,3,11.206272696832938,False,未知,未知,未知,未知,未知,未知,600000000.0,未知
10,000957,291193671.46,291831115.82,2016-06-30,半年度报告,286211490.39,2016,6,1.1527217337602829,False,未知,未知,未知,未知,未知,未知,647160000.0,未知
11,000957,454525501.4,455240193.2799999,2016-09-30,三季度报告,449338282.9699999,2016,9,-0.45287903212196146,True,未知,未知,未知,未知,未知,未知,644820000.0,未知
12,000957,585502357.4099997,585811826.61,2016-12-31,年度报告,720473761.5600001,2016,12,-0.7412724566837476,True,1.029662046051191,True,0.0,True,比例外推,585811826.61,596000000.0,585811826.61
13,000957,45174639.1,45163776.88999999,2017-03-31,一季度报告,8458169.88,2017,3,-0.24058750766319922,True,0.32013487435327087,True,0.10391011463821963,False,平均增速,1101729633.511438,846000000.0,846000000.0
14,000957,61568477.64999998,61567566.62000001,2017-06-30,半年度报告,17077137.110000007,2017,6,-0.647158046722476,True,1.2229731552265246,True,0.17592881671184926,False,平均增速,838575598.8626003,554000000.0,554000000.0
15,000957,121923383.54,121920861.24,2017-09-30,三季度报告,74255557.34,2017,9,-0.7739503207113122,True,0.9146083024093447,True,0.3659047970959961,False,平均增速,621367168.3583174,271000000.0,271000000.0
16,000957,191164200.74,191211732.5900001,2017-12-31,年度报告,132721536.44,2017,12,-0.8245176257282731,True,0.7077834033765245,True,0.0,True,比例外推,191211732.5900001,905300000.0,905300000.0
17,000957,1199527.75,1199527.75,2018-03-31,一季度报告,-20294297.340000004,2018,3,1.2744032020390836,False,0.3713225685190657,True,0.09584285321448861,True,前期平均,490906084.095,未知,490906084.095
18,000957,30562017.46,30562017.46,2018-06-30,半年度报告,-5359594.209999999,2018,6,0.6687978612055226,False,0.6366803158073446,True,0.18904693627438177,False,前期平均,425427098.92,未知,425427098.92
19,000957,33688727.69,33688727.69,2018-09-30,三季度报告,4125884.45,2018,9,-0.15729582925910335,True,0.6203645597364973,True,0.09378528993723961,True,比例外推,37137657.49842726,未知,37137657.49842726
20,000957,36571256.92,36571256.92,2018-12-31,年度报告,6751427.510000003,2018,12,-0.4625283216090097,True,0.6109093102265861,True,0.0,True,比例外推,36571256.92,,36571256.92
21,000957,3653821.13,3653821.13,2019-03-31,一季度报告,282920.62000000005,2019,3,84.65482859400292,False,0.9867066589580216,True,2.0857068998282506,False,前期平均,360625603.39500004,未知,360625603.39500004
22,000957,32930612.689999994,32930612.689999994,2019-06-30,半年度报告,19876138.77,2019,6,2.361863919961257,False,0.8267273428449943,True,0.7045385438082321,False,前期平均,307883947.94000006,未知,307883947.94000006
23,000957,55373957.72000001,55373957.72000001,2019-09-30,三季度报告,13358058.14,2019,9,2.049843400601277,False,0.8831163401642922,True,0.03860525178541174,True,前期平均,220174686.56500012,未知,220174686.56500012
24,000957,33071857.49,33071857.49,2019-12-31,年度报告,-79474494.33,2019,12,1.8094561815240993,False,0.9058250763181774,True,0.0,True,前期平均,33071857.49,81000000.0,81000000.0
25,000957,3856194.08,3856194.08,2020-03-31,一季度报告,-2218638.13,2020,3,27.119970891952228,False,0.84241997740602,True,2.024007510937097,False,前期平均,79510739.785,,79510739.785
