,SECURITYCODE_x,NETPROFIT_x,PARENTNETPROFIT_x,REPORTDATE_x,REPORTTIMETYPE_x,KCFJCXSYJLR,Year,Month,managesituationChangeRate,managesituationGreatChange,historyprofitextroplaterate,ifhistoryprofitextroplate,IfprofitdisStableChangeRage,IfprofitdisStable,predicttype,predict,analyst_prediction,adj_prediction
0,000910,260511359.64000005,130430576.73999998,2013-12-31,年度报告,132603310.81,2013,12,未知,未知,未知,未知,未知,未知,未知,未知,未知,未知
1,000910,36006598.27,20875218.470000006,2014-03-31,一季度报告,20154330.21,2014,3,未知,未知,未知,未知,未知,未知,未知,未知,未知,未知
2,000910,97942367.71999998,48246921.55,2014-06-30,半年度报告,44248584.3,2014,6,未知,未知,未知,未知,未知,未知,未知,未知,未知,未知
3,000910,170294998.52,81193075.5,2014-09-30,三季度报告,75107199.33999999,2014,9,未知,未知,未知,未知,未知,未知,未知,未知,未知,未知
4,000910,273963514.08,163554192.98999998,2014-12-31,年度报告,161210336.64,2014,12,0.0,True,未知,未知,未知,未知,未知,未知,未知,未知
5,000910,46288948.04999999,23997511.86,2015-03-31,一季度报告,20762999.46,2015,3,6.235100569249082,False,未知,未知,未知,未知,未知,未知,263941429.0,未知
6,000910,121411984.26,71076877.22,2015-06-30,半年度报告,62326862.81000001,2015,6,1.6598433926445015,False,未知,未知,未知,未知,未知,未知,232000000.0,未知
7,000910,244663737.85,154937186.57000002,2015-09-30,三季度报告,123090115.46,2015,9,0.529765183382087,False,未知,未知,未知,未知,未知,未知,238700000.0,未知
8,000910,390517789.14000016,317897318.80000013,2015-12-31,年度报告,257722701.37,2015,12,-0.04910199259625418,True,未知,未知,未知,未知,未知,未知,252800000.0,未知
9,000910,30355682.51,29378013.660000004,2016-03-31,一季度报告,28125491.32,2016,3,4.627938646577217,False,未知,未知,未知,未知,未知,未知,359213125.0,未知
10,000910,113574627.96999998,103553412.07,2016-06-30,半年度报告,102062996.55,2016,6,1.1456807680708276,False,未知,未知,未知,未知,未知,未知,375192308.0,未知
11,000910,307257594.65,282037486.51000005,2016-09-30,三季度报告,276238695.17,2016,9,0.06477307151955641,True,未知,未知,未知,未知,未知,未知,440838333.0,未知
12,000910,534142934.95000017,541118174.1799998,2016-12-31,年度报告,540288810.6599998,2016,12,-0.33290782933679103,True,0.4613139301458878,True,0.0,True,比例外推,541118174.1799998,324500000.0,324500000.0
13,000910,39730312.03999999,40690718.82,2017-03-31,一季度报告,37819699.72,2017,3,7.581963510594117,False,0.2622764203553803,True,0.03913931941575259,True,前期平均,229698572.98999998,651986923.0,651986923.0
14,000910,153453901.55000004,139815678.38,2017-06-30,半年度报告,134128052.72,2017,6,1.2937460971372274,False,0.03553567043297455,True,0.04616840688475493,True,前期平均,295994473.83,679753685.0,679753685.0
15,000910,403878222.53999984,363217919.92,2017-09-30,三季度报告,355133549.91,2017,9,-0.15214021011669054,True,0.48090673948858487,True,0.026352298590029577,True,比例外推,740428132.8437843,694510000.0,740428132.8437843
16,000910,737440933.8,659188327.9900001,2017-12-31,年度报告,645836048.62,2017,12,-0.5122815587472184,True,0.6076989145115289,True,0.0,True,比例外推,659188327.9900001,690750000.0,659188327.9900001
17,000910,60042297.45,57503608.38000001,2018-03-31,一季度报告,55764019.24,2018,3,5.556992539543118,False,0.036740910608154626,True,0.016836990931990453,True,前期平均,432065119.0049999,827505625.0,827505625.0
18,000910,200097180.68,179721051.32,2018-06-30,半年度报告,176598329.24,2018,6,0.6976522395888212,False,0.30606505701527004,True,0.029029346280004448,True,前期平均,496531877.65499985,812108750.0,812108750.0
19,000910,474191184.4999999,442032552.95,2018-09-30,三季度报告,434043005.55000013,2018,9,-0.3549754725529942,True,0.4635354669499021,True,0.0369590989066958,True,比例外推,854204629.5399762,794959960.0,854204629.5399762
20,000910,764873901.1,724803230.0400001,2018-12-31,年度报告,711373532.92,2018,12,-0.646735965282539,True,0.5950519246413288,True,0.0,True,比例外推,724803230.0400001,784828300.0,724803230.0400001
21,000910,60096048.04999999,63076261.16,2019-03-31,一季度报告,61144824.53,2019,3,3.338797326283857,False,0.7133893250859207,True,0.01538758586185765,True,前期平均,623166095.28,815472000.0,815472000.0
22,000910,202633071.49,196917867.98,2019-06-30,半年度报告,187031646.49000004,2019,6,0.3019241888101151,True,0.49869514721656755,True,0.03330459597441093,True,比例外推,880022669.3501513,794200000.0,794200000.0
23,000910,480508704.54000026,467707242.6599999,2019-09-30,三季度报告,458773795.78,2019,9,-0.450619564101154,True,0.33361637267471916,True,0.0530446810013937,True,比例外推,832432309.4475708,800062500.0,832432309.4475708
24,000910,737030845.5400001,719607056.45,2019-12-31,年度报告,705383525.9200001,2019,12,-0.6594061331346948,True,0.20302548639892853,True,0.0,True,比例外推,719607056.45,800062500.0,800062500.0
25,000910,-63525847.04,-55528408.15,2020-03-31,一季度报告,-59867445.63000001,2020,3,3.3349166558049586,False,0.20466024407276415,True,0.01598457918732501,True,盈利变化,558257362.9033334,711733333.0,711733333.0
