,SECURITYCODE_x,NETPROFIT_x,PARENTNETPROFIT_x,REPORTDATE_x,REPORTTIMETYPE_x,KCFJCXSYJLR,Year,Month,managesituationChangeRate,managesituationGreatChange,historyprofitextroplaterate,ifhistoryprofitextroplate,IfprofitdisStableChangeRage,IfprofitdisStable,predicttype,predict,analyst_prediction,adj_prediction
0,000982,281182557.52,281151303.67,2013-12-31,年度报告,236807892.7,2013,12,未知,未知,未知,未知,未知,未知,未知,未知,未知,未知
1,000982,55265428.57999999,55789976.11000002,2014-03-31,一季度报告,54019218.88999999,2014,3,未知,未知,未知,未知,未知,未知,未知,未知,未知,未知
2,000982,112320263.25,111732343.29,2014-06-30,半年度报告,99503150.08,2014,6,未知,未知,未知,未知,未知,未知,未知,未知,未知,未知
3,000982,152223907.08,152063638.28,2014-09-30,三季度报告,122826342.99,2014,9,未知,未知,未知,未知,未知,未知,未知,未知,未知,未知
4,000982,89483813.97999997,87132170.13,2014-12-31,年度报告,44688784.6,2014,12,0.0,True,未知,未知,未知,未知,未知,未知,未知,未知
5,000982,5184653.97,5446173.120000001,2015-03-31,一季度报告,3103081.34,2015,3,4.08785627370955,False,未知,未知,未知,未知,未知,未知,未知,未知
6,000982,13547790.3,13633418.28,2015-06-30,半年度报告,19908661.09,2015,6,1.5034000934822416,False,未知,未知,未知,未知,未知,未知,未知,未知
7,000982,19081798.970000006,19229601.9,2015-09-30,三季度报告,17337052.57,2015,9,0.8471642392691104,False,未知,未知,未知,未知,未知,未知,未知,未知
8,000982,-876459038.49,-874357184.97,2015-12-31,年度报告,-889614285.9300002,2015,12,2.1422728314066446,False,未知,未知,未知,未知,未知,未知,未知,未知
9,000982,-91078257.84,-91093693.73,2016-03-31,一季度报告,-107734910.3,2016,3,53.233620825422214,False,未知,未知,未知,未知,未知,未知,-229400000.0,未知
10,000982,-292889420.46,-292864107.89,2016-06-30,半年度报告,-309224339.59000003,2016,6,19.754864911069664,False,未知,未知,未知,未知,未知,未知,,未知
11,000982,-322487710.16,-322557497.01,2016-09-30,三季度报告,-350561191.66,2016,9,13.73564195713775,False,未知,未知,未知,未知,未知,未知,未知,未知
12,000982,-1061437144.31,-1060214058.73,2016-12-31,年度报告,-1083084339.8200002,2016,12,-1.320816541528778,False,5.729099297263875,False,0.0,True,去年同期,-1060214058.73,未知,-1060214058.73
13,000982,-149082685.42999995,-148921877.15,2017-03-31,一季度报告,-160177140.16,2017,3,-4.087263241397987,False,4.013337749031742,False,0.7738638382516079,False,去年同期,-1124271306.6700003,未知,-1124271306.6700003
14,000982,-310629209.34000003,-310226142.57,2017-06-30,半年度报告,-326550556.31000006,2017,6,-1.9600297514276426,False,5.653911968911987,False,1.3966784442290887,False,去年同期,-1084086142.8000002,未知,-1084086142.8000002
15,000982,-385369030.76,-384999181.99,2017-09-30,三季度报告,-402158380.40999985,2017,9,-1.8719171263317083,False,4.765055088893229,False,1.7309279891611806,False,去年同期,-1117522330.15,未知,-1117522330.15
16,000982,46993342.01,47962203.76000001,2017-12-31,年度报告,-714874197.48,2017,12,-1.2649074031630823,False,-1.69751095397162,True,0.0,True,盈利变化,-937477344.6166667,未知,-937477344.6166667
17,000982,-167590824.04000002,-165887725.04999998,2018-03-31,一季度报告,-160177140.16,2018,3,-2.886084602708783,False,-2.4713338063131367,True,0.11738147982077042,False,前期平均,-1099921123.4450002,未知,-1099921123.4450002
18,000982,-394602322.87,-394135706.67000014,2018-06-30,半年度报告,-409775187.52,2018,6,-1.9052032103401804,False,-1.2240094264652162,True,0.26235195682921897,False,前期平均,-1235827180.2950003,未知,-1235827180.2950003
19,000982,-524595289.23,-523933991.67,2018-09-30,三季度报告,-547256246.52,2018,9,-1.7296449249320056,False,-1.5402868998071217,True,0.308401384347362,False,前期平均,-1343671235.0,未知,-1343671235.0
20,000982,-2990468971.53,-2983039111.45,2018-12-31,年度报告,-2929917487.619999,2018,12,4.983455219255644,False,-1.048499339053448,True,0.0,True,盈利变化,-690385559.6199996,未知,-690385559.6199996
21,000982,-231704582.78,-231265444.04,2019-03-31,一季度报告,-228568732.81,2019,3,-2.677792081581318,False,-0.39565427881907284,True,0.09799560467523433,True,前期平均,-996288687.4600002,未知,-996288687.4600002
22,000982,-578390384.8199999,-577452086.34,2019-06-30,半年度报告,-548018273.57,2019,6,-1.7125719774656125,False,-0.30767238453191503,True,0.16274214993036756,False,前期平均,-1158543907.04,未知,-1158543907.04
23,000982,-689097470.1500001,-687657387.32,2019-09-30,三季度报告,-645859120.63,2019,9,-1.5359990135113855,False,-0.48220751150348445,True,0.20488834460264455,False,前期平均,-1210276869.9350002,未知,-1210276869.9350002
24,000982,-2731990945.6,-2731990945.6,2019-12-31,年度报告,-883276122.2399998,2019,12,-1.0940262414346804,False,-4.895780455752901,True,0.0,True,前期平均,-2731990945.6,未知,-2731990945.6
25,000982,1721505.6399999997,1721505.6399999997,2020-03-31,一季度报告,3485995.74,2020,3,-2.2135390424581223,False,-0.4633657432716235,True,0.12449940026015155,False,盈利变化,-2422584640.866667,未知,-2422584640.866667
