,SECURITYCODE_x,NETPROFIT_x,PARENTNETPROFIT_x,REPORTDATE_x,REPORTTIMETYPE_x,KCFJCXSYJLR,Year,Month,managesituationChangeRate,managesituationGreatChange,historyprofitextroplaterate,ifhistoryprofitextroplate,IfprofitdisStableChangeRage,IfprofitdisStable,predicttype,predict,analyst_prediction,adj_prediction
0,000930,50473332.76999998,50717547.75,2013-12-31,年度报告,20726846.950000007,2013,12,未知,未知,未知,未知,未知,未知,未知,未知,未知,未知
1,000930,20546955.26,17199736.69,2014-03-31,一季度报告,15324894.110000005,2014,3,未知,未知,未知,未知,未知,未知,未知,未知,未知,未知
2,000930,32093393.23,23933801.08,2014-06-30,半年度报告,18643666.21,2014,6,未知,未知,未知,未知,未知,未知,未知,未知,未知,未知
3,000930,35069218.120000005,32458497.06,2014-09-30,三季度报告,25753988.879999995,2014,9,未知,未知,未知,未知,未知,未知,未知,未知,未知,未知
4,000930,31590997.3,35231783.65,2014-12-31,年度报告,7912702.01,2014,12,0.0,True,未知,未知,未知,未知,未知,未知,未知,未知
5,000930,-199877817.85,-183565216.9,2015-03-31,一季度报告,-184763316.36999995,2015,3,1.4564872085091587,False,未知,未知,未知,未知,未知,未知,未知,未知
6,000930,-354261571.27000004,-323417791.48,2015-06-30,半年度报告,-334493341.24,2015,6,0.5727016588205117,False,未知,未知,未知,未知,未知,未知,未知,未知
7,000930,-554807911.0699999,-511570027.31000006,2015-09-30,三季度报告,-529308499.86,2015,9,0.4392488762449767,True,未知,未知,未知,未知,未知,未知,未知,未知
8,000930,-1494952290.23,-1418036825.77,2015-12-31,年度报告,-857468697.4899997,2015,12,0.5977125473655109,False,未知,未知,未知,未知,未知,未知,未知,未知
9,000930,-37192275.45,-30976766.780000005,2016-03-31,一季度报告,-48971714.21,2016,3,-1.2525209316017154,False,未知,未知,未知,未知,未知,未知,未知,未知
10,000930,7352177.990000001,12080682.02,2016-06-30,半年度报告,-36440058.78999999,2016,6,-1.142474761202738,False,未知,未知,未知,未知,未知,未知,未知,未知
11,000930,108478754.47,105952746.2,2016-09-30,三季度报告,32339117.22,2016,9,-1.0909744287399532,False,未知,未知,未知,未知,未知,未知,未知,未知
12,000930,133241450.62,127078702.35,2016-12-31,年度报告,66550335.75,2016,12,-1.0337625040610725,False,37.4336682930287,False,0.0,True,前期平均,127078702.35,190000000.0,190000000.0
13,000930,80130122.08,73510909.76999998,2017-03-31,一季度报告,66076922.35,2017,3,-2.35709181972086,False,-0.5852105442103199,True,1.4646255025858788,False,盈利变化,280476884.43,555396667.0,555396667.0
14,000930,228294016.79,224234812.41,2017-06-30,半年度报告,-552454.5299999999,2017,6,5.865085807042598,False,-1.0456418634188456,True,1.6232670582503204,False,前期平均,-42618347.81499982,440500000.0,440500000.0
15,000930,221722778.5,215477402.04,2017-09-30,三季度报告,-17332657.089999996,2017,9,-0.5347168851947091,True,-1.4174357458525255,True,1.8021014071950001,False,平均增速,-702755328.7992523,494000000.0,494000000.0
16,000930,962574642.6599996,929298582.2000002,2017-12-31,年度报告,7884748.369999999,2017,12,-0.6211889578270341,True,-1.1821032868147259,True,0.0,True,比例外推,929298582.2000002,,929298582.2000002
17,000930,117946664.30000004,111077599.09,2018-03-31,一季度报告,48247606.22000001,2018,3,-0.37010787629140746,True,-1.676003632213528,True,5.760359067930709,False,平均增速,57883592.057768464,817566667.0,817566667.0
18,000930,389365218.86,364792210.81999993,2018-06-30,半年度报告,175041697.62,2018,6,-0.7789108384017409,True,-2.316159326972952,True,0.4717134706657285,False,平均增速,1714498617.7762856,914333333.0,914333333.0
19,000930,580924271.5500001,540423172.07,2018-09-30,三季度报告,514346919.98999983,2018,9,-0.7723583787310333,True,-1.9935392981673743,True,1.8332429658107035,False,平均增速,953648990.7062731,866063333.0,866063333.0
20,000930,517368106.62,483042529.69,2018-12-31,年度报告,335922012.8700001,2018,12,-0.9475642401813943,True,-2.4137724613188585,True,0.0,True,比例外推,483042529.69,866063333.0,866063333.0
21,000930,55802469.43000001,57934652.7,2019-03-31,一季度报告,52587180.20999998,2019,3,-0.5720664669106715,True,4.493832297476817,False,5.784308363739367,False,未知,未知,600250000.0,未知
22,000930,178522656.39000002,186076158.79,2019-06-30,半年度报告,199919661.58,2019,6,-0.8703702068772914,True,2.3046595063715123,False,0.5532597753265339,False,未知,未知,539000000.0,未知
23,000930,375303656.66000015,389164440.03,2019-09-30,三季度报告,334417858.46999985,2019,9,-0.9131154691895917,True,2.5186043282408326,False,2.137862255849793,False,未知,未知,,未知
24,000930,558871317.8299999,592821396.2700003,2019-12-31,年度报告,405170523.35,2019,12,-0.902442125588789,True,0.05573917048176876,True,0.0,True,比例外推,592821396.2700003,,592821396.2700003
25,000930,100861519.8,100683394.13,2020-03-31,一季度报告,96656225.36,2020,3,-0.09550001486376919,True,0.4365572013779963,True,5.495758362541256,False,平均增速,4286394772.2078385,631560000.0,631560000.0
