,SECURITYCODE_x,NETPROFIT_x,PARENTNETPROFIT_x,REPORTDATE_x,REPORTTIMETYPE_x,KCFJCXSYJLR,Year,Month,managesituationChangeRate,managesituationGreatChange,historyprofitextroplaterate,ifhistoryprofitextroplate,IfprofitdisStableChangeRage,IfprofitdisStable,predicttype,predict,analyst_prediction,adj_prediction
0,000948,4289783.8,9477743.36,2013-12-31,年度报告,-47455350.71000001,2013,12,未知,未知,未知,未知,未知,未知,未知,未知,未知,未知
1,000948,-58444183.11,-58098264.15000001,2014-03-31,一季度报告,-58868030.64000001,2014,3,未知,未知,未知,未知,未知,未知,未知,未知,未知,未知
2,000948,-41764406.26,-40506043.07,2014-06-30,半年度报告,-44182865.73,2014,6,未知,未知,未知,未知,未知,未知,未知,未知,未知,未知
3,000948,-36669403.17,-34893416.730000004,2014-09-30,三季度报告,-39866972.42,2014,9,未知,未知,未知,未知,未知,未知,未知,未知,未知,未知
4,000948,9690441.86,11845160.65,2014-12-31,年度报告,-16583895.499999998,2014,12,0.0,True,未知,未知,未知,未知,未知,未知,未知,未知
5,000948,-63091757.03999999,-63093732.2,2015-03-31,一季度报告,-63758045.74,2015,3,-1.0733996707923188,False,未知,未知,未知,未知,未知,未知,40000000.0,未知
6,000948,-46887052.58,-48242034.68000001,2015-06-30,半年度报告,-50391717.01,2015,6,-1.1027138701145274,False,未知,未知,未知,未知,未知,未知,,未知
7,000948,-48117532.16,-49246764.03000002,2015-09-30,三季度报告,-52138538.17,2015,9,-1.1169853727946562,False,未知,未知,未知,未知,未知,未知,未知,未知
8,000948,19421358.58,18561982.180000003,2015-12-31,年度报告,-37825842.96999999,2015,12,-0.5573180395718302,True,未知,未知,未知,未知,未知,未知,未知,未知
9,000948,-51770714.18,-49731353.0,2016-03-31,一季度报告,-52137429.66,2016,3,-1.067992777523699,False,未知,未知,未知,未知,未知,未知,未知,未知
10,000948,-50202936.51000001,-47262678.88999999,2016-06-30,半年度报告,-53087936.95999999,2016,6,-1.091491863189324,False,未知,未知,未知,未知,未知,未知,20855000.0,未知
11,000948,-51818077.56999999,-49069950.65000001,2016-09-30,三季度报告,-57574754.81,2016,9,-1.089152198947686,False,未知,未知,未知,未知,未知,未知,21000000.0,未知
12,000948,22403041.28,20689391.090000004,2016-12-31,年度报告,8440079.12,2016,12,-0.7791203029216712,True,1.7784041620398277,True,0.0,True,比例外推,20689391.090000004,,20689391.090000004
13,000948,-45370710.55,-45678472.65,2017-03-31,一季度报告,-46775946.33000001,2017,3,-1.082861205759785,False,-0.1480591812412947,True,5.863334798909646,False,前期平均,-11570303.694999985,未知,-11570303.694999985
14,000948,-57778038.54000001,-57568657.76000001,2017-06-30,半年度报告,-67985697.68,2017,6,-1.0854488621227467,False,-0.1325913226223906,True,5.525456141622546,False,前期平均,-37486235.625000015,未知,-37486235.625000015
15,000948,-50925039.44000001,-50352646.86,2017-09-30,三季度报告,-63662907.28000001,2017,9,-1.082785467951894,False,-0.22231278600455093,True,5.808506671049634,False,前期平均,-31554760.799999993,未知,-31554760.799999993
16,000948,21858039.46,21984499.53,2017-12-31,年度报告,6241738.62,2017,12,-0.8085177924557214,True,0.5391037958076909,True,0.0,True,比例外推,21984499.53,未知,21984499.53
17,000948,-55491452.66,-53322192.43000001,2018-03-31,一季度报告,-59601054.37,2018,3,-1.094549627898653,False,-0.2099994007076527,True,5.680852228966242,False,前期平均,-10067336.655000001,未知,-10067336.655000001
18,000948,-42981641.25000001,-41963799.23,2018-06-30,半年度报告,-57773228.7,2018,6,-1.0742459229907946,False,-0.1901955923888549,True,6.615498941811485,False,前期平均,-4916854.169999994,35340000.0,35340000.0
19,000948,18072461.86,19958939.45,2018-09-30,三季度报告,-42177430.87,2018,9,-1.0842372209658124,False,-0.019157026761255906,True,6.592634893102427,False,盈利变化,31533600.156666674,,31533600.156666674
20,000948,98775281.45,74771358.39000002,2018-12-31,年度报告,14127575.22,2018,12,-0.803743432348987,True,0.04522907839280595,True,0.0,True,比例外推,74771358.39000002,未知,74771358.39000002
21,000948,-58451497.26000001,-49666137.43,2019-03-31,一季度报告,-50698236.74,2019,3,-1.0773053072927068,False,-0.14248793064824555,True,1.7446236132879944,False,前期平均,7131459.435000002,未知,7131459.435000002
22,000948,-37617022.95999999,-38010949.92999999,2019-06-30,半年度报告,-43085049.38,2019,6,-1.099805025477011,False,-0.20390344261852444,True,3.801614203278505,False,前期平均,29866776.260000005,未知,29866776.260000005
23,000948,-15029687.979999995,-19533013.84,2019-09-30,三季度报告,-24403275.38,2019,9,-0.762634231394084,True,-1.351798979550932,True,3.683399864564409,False,平均增速,62753475.615223885,78000000.0,78000000.0
24,000948,83478172.85999998,59178171.08,2019-12-31,年度报告,57963921.03,2019,12,-0.9565702700409769,True,3.4633018353179956,False,0.0,True,比例外推,59178171.08,未知,59178171.08
25,000948,-54734721.46,-47069838.17,2020-03-31,一季度报告,-47204588.39,2020,3,-1.073390486148173,False,-0.15903715327423854,True,3.3211761724999778,False,前期平均,16303319.100000009,75000000.0,75000000.0
