,SECURITYCODE_x,NETPROFIT_x,PARENTNETPROFIT_x,REPORTDATE_x,REPORTTIMETYPE_x,KCFJCXSYJLR,Year,Month,managesituationChangeRate,managesituationGreatChange,historyprofitextroplaterate,ifhistoryprofitextroplate,IfprofitdisStableChangeRage,IfprofitdisStable,predicttype,predict,analyst_prediction,adj_prediction
0,000935,197303338.33,68461551.75,2013-12-31,年度报告,66540744.71000001,2013,12,未知,未知,未知,未知,未知,未知,未知,未知,未知,未知
1,000935,22152736.97,1565375.2600000002,2014-03-31,一季度报告,1182202.59,2014,3,未知,未知,未知,未知,未知,未知,未知,未知,未知,未知
2,000935,121909018.03000002,50859392.28999999,2014-06-30,半年度报告,39192545.95,2014,6,未知,未知,未知,未知,未知,未知,未知,未知,未知,未知
3,000935,178445324.88000005,76129672.76,2014-09-30,三季度报告,70129119.58,2014,9,未知,未知,未知,未知,未知,未知,未知,未知,未知,未知
4,000935,236550348.32999992,103667502.78,2014-12-31,年度报告,85603760.67000002,2014,12,0.0,True,未知,未知,未知,未知,未知,未知,未知,未知
5,000935,-15841185.39,-19258071.379999995,2015-03-31,一季度报告,-21033280.84,2015,3,7.90649939089671,False,未知,未知,未知,未知,未知,未知,未知,未知
6,000935,-57572048.67999999,-61618705.14999999,2015-06-30,半年度报告,-50365265.9,2015,6,0.6184474415292769,False,未知,未知,未知,未知,未知,未知,未知,未知
7,000935,-81294709.72,-86490746.79,2015-09-30,三季度报告,-78166597.02,2015,9,0.10567950414325224,True,未知,未知,未知,未知,未知,未知,未知,未知
8,000935,-105654838.09,-113724978.28,2015-12-31,年度报告,-113196432.86,2015,12,-0.16591398100690305,True,未知,未知,未知,未知,未知,未知,未知,未知
9,000935,-16609955.45,-17068615.59,2016-03-31,一季度报告,-23958470.03,2016,3,-13.455086754716657,False,未知,未知,未知,未知,未知,未知,14000000.0,未知
10,000935,26954046.09,15899027.23,2016-06-30,半年度报告,-5722106.86,2016,6,-4.42706821893141,False,未知,未知,未知,未知,未知,未知,34300000.0,未知
11,000935,65139247.45999999,46379026.83,2016-09-30,三季度报告,6708564.69,2016,9,-3.427013258421904,False,未知,未知,未知,未知,未知,未知,,未知
12,000935,108288792.81,84538922.11000003,2016-12-31,年度报告,33457247.6,2016,12,-2.867433066926202,False,1.4870528537091767,True,0.0,True,前期平均,84538922.11000003,未知,84538922.11000003
13,000935,-1198027.9300000002,-4027597.86,2017-03-31,一季度报告,-16025217.72,2017,3,-12.878619357163899,False,6.263350933432442,False,0.5439355182093017,False,去年同期,53388119.77,未知,53388119.77
14,000935,67227330.87000002,50030934.36999998,2017-06-30,半年度报告,32029659.64,2017,6,6.319989647238895,False,0.16209773751178444,True,0.41494281426402574,False,前期平均,41820958.249999985,未知,41820958.249999985
15,000935,125478400.41,93686303.45,2017-09-30,三季度报告,67831576.55000001,2017,9,2.028947155877997,False,0.340995059119705,True,0.36958190640303146,False,前期平均,83908706.07500002,未知,83908706.07500002
16,000935,246934723.74000004,203665683.0000001,2017-12-31,年度报告,168464207.69,2017,12,0.8220106920591684,False,0.6545837609166276,True,0.0,True,前期平均,203665683.0000001,未知,203665683.0000001
17,000935,107622259.45999998,98123390.58,2018-03-31,一季度报告,112383202.24,2018,3,-165.69009894452125,False,-0.9261642026142093,True,0.5076236758294748,False,盈利变化,374876909.6133334,未知,374876909.6133334
18,000935,302680522.58,293228163.58,2018-06-30,半年度报告,293669833.61999995,2018,6,1.9348679439844605,False,-5.391359669683799,True,0.3257063663073719,False,前期平均,281402257.33,未知,281402257.33
19,000935,506049108.92,497701296.1699999,2018-09-30,三季度报告,488441182.91,2018,9,0.5724087786050223,False,-16.533866922604535,True,0.25930681187747323,False,前期平均,493560719.7049999,未知,493560719.7049999
20,000935,703735780.95,695658081.73,2018-12-31,年度报告,672038431.11,2018,12,-0.20098989991483496,True,186.5011152355726,False,0.0,True,比例外推,695658081.73,未知,695658081.73
21,000935,165302444.93,166183271.85999998,2019-03-31,一季度报告,158045357.87000003,2019,3,0.8332948901089727,False,-13.086967644058975,True,0.5014287162881931,False,前期平均,287135843.38,未知,287135843.38
22,000935,401002063.85,401926538.49000007,2019-06-30,半年度报告,387352298.4,2019,6,-0.348146565070596,True,5.427608776808436,False,0.3230553082533143,False,未知,未知,未知,未知
23,000935,558526514.8000001,560642241.6,2019-09-30,三季度报告,537349042.48,2019,9,-0.6101102939375175,True,4.309572482660391,False,0.28348416608209526,False,未知,未知,未知,未知
24,000935,726371988.7899997,728684384.66,2019-12-31,年度报告,677984584.5799999,2019,12,-0.7196343518818203,True,2.962213919758573,False,0.0,True,比例外推,728684384.66,未知,728684384.66
25,000935,132960903.03000002,133115410.54000002,2020-03-31,一季度报告,121346125.06,2020,3,0.1935899581736453,True,2.106481344587446,False,0.19686286804273634,False,未知,未知,未知,未知
