,SECURITYCODE_x,NETPROFIT_x,PARENTNETPROFIT_x,REPORTDATE_x,REPORTTIMETYPE_x,KCFJCXSYJLR,Year,Month,managesituationChangeRate,managesituationGreatChange,historyprofitextroplaterate,ifhistoryprofitextroplate,IfprofitdisStableChangeRage,IfprofitdisStable,predicttype,predict,analyst_prediction,adj_prediction
0,000972,-468841249.25,-365679191.94,2013-12-31,年度报告,-378343973.29,2013,12,未知,未知,未知,未知,未知,未知,未知,未知,未知,未知
1,000972,-7444613.1400000015,-6635770.52,2014-03-31,一季度报告,-6270986.2799999975,2014,3,未知,未知,未知,未知,未知,未知,未知,未知,未知,未知
2,000972,-29749029.98,-27222547.3,2014-06-30,半年度报告,-26637791.62,2014,6,未知,未知,未知,未知,未知,未知,未知,未知,未知,未知
3,000972,-54188482.81999999,-49106031.66000001,2014-09-30,三季度报告,-49837171.78,2014,9,未知,未知,未知,未知,未知,未知,未知,未知,未知,未知
4,000972,108165149.51,11269942.2,2014-12-31,年度报告,-218163607.38,2014,12,-0.0,False,未知,未知,未知,未知,未知,未知,未知,未知
5,000972,-10340340.48,-8769262.02,2015-03-31,一季度报告,-8786982.55,2015,3,61.97724817034615,False,未知,未知,未知,未知,未知,未知,未知,未知
6,000972,-30887123.52,-25362620.11,2015-06-30,半年度报告,-47589083.67,2015,6,14.759883584950423,False,未知,未知,未知,未知,未知,未知,未知,未知
7,000972,-72845408.79999998,-64553942.27000001,2015-09-30,三季度报告,-86992651.00000001,2015,9,7.65204605944345,False,未知,未知,未知,未知,未知,未知,未知,未知
8,000972,-59160124.74999999,-48308582.78,2015-12-31,年度报告,-164083566.19999996,2015,12,-5.334494533349256,False,未知,未知,未知,未知,未知,未知,未知,未知
9,000972,-22715259.65,-22442614.68,2016-03-31,一季度报告,-22018593.79,2016,3,44.340987577422595,False,未知,未知,未知,未知,未知,未知,,未知
10,000972,-58251231.04000001,-54720007.25,2016-06-30,半年度报告,-53903478.85,2016,6,14.179181348707218,False,未知,未知,未知,未知,未知,未知,未知,未知
11,000972,-94713831.67,-91255014.13,2016-09-30,三季度报告,-95938763.25,2016,9,5.436112542620533,False,未知,未知,未知,未知,未知,未知,未知,未知
12,000972,-289633867.0,-275073152.69,2016-12-31,年度报告,-260298827.75000003,2016,12,6.924953695267521,False,-0.6719487385349533,True,0.0,True,前期平均,-275073152.69,34000000.0,34000000.0
13,000972,-21338663.3,-20725628.91,2017-03-31,一季度报告,-20924563.110000007,2017,3,19.639924723466677,False,-1.5544356353514064,True,0.028961020013087375,True,前期平均,-204320231.285,未知,-204320231.285
14,000972,-41369519.48000001,-40068245.37,2017-06-30,半年度报告,-40062699.69,2017,6,7.048606714046191,False,-0.9213366177655055,True,0.08430416003068657,True,前期平均,-194078394.515,未知,-194078394.515
15,000972,151228278.96000004,79901214.06,2017-09-30,三季度报告,-144072594.89,2017,9,3.950082168394655,False,-0.49115846900636767,True,0.15444487365381993,False,盈利变化,-296465966.75222224,未知,-296465966.75222224
16,000972,90126954.47,26583871.800000004,2017-12-31,年度报告,-136412768.11,2017,12,0.6187376638865233,False,12.820578335322523,False,0.0,True,盈利变化,-233777799.47666666,未知,-233777799.47666666
17,000972,-10923594.919999998,-9981246.45,2018-03-31,一季度报告,-10334821.25,2018,3,20.97144416492105,False,-0.29107704691973485,True,0.05621383562290608,True,前期平均,-206769655.25499997,未知,-206769655.25499997
18,000972,-88938172.57000001,-83846141.9,2018-06-30,半年度报告,-85391823.05999999,2018,6,10.33301172320022,False,-0.07179082036669782,True,0.056516914076296776,True,前期平均,-245291057.615,未知,-245291057.615
19,000972,-121580443.12999998,-117220861.76999998,2018-09-30,三季度报告,-118542612.95000002,2018,9,-4.100222078001752,False,-2.8050723855731032,True,0.40451972958433846,False,盈利变化,37930530.43999999,未知,37930530.43999999
20,000972,-462770209.6899998,-423854369.08,2018-12-31,年度报告,-542680243.98,2018,12,-6.202009232499477,False,-1.5167918978065367,True,0.0,True,盈利变化,-108838620.15666667,未知,-108838620.15666667
21,000972,-9035125.01,-8966936.170000002,2019-03-31,一季度报告,-8966936.170000002,2019,3,41.920050833411906,False,-0.5040807179692951,True,0.06771644899094482,True,前期平均,-185851155.64999998,未知,-185851155.64999998
22,000972,28125891.520000003,28211162.65,2019-06-30,半年度报告,-29072063.09,2019,6,4.271541293261811,False,-0.7855350839209879,True,0.07431318825612007,True,盈利变化,-386307862.43333334,未知,-386307862.43333334
23,000972,22699015.33,22860511.96,2019-09-30,三季度报告,-35628188.08,2019,9,2.8562225731377793,False,5.3026322988215115,False,0.5084309599629397,False,盈利变化,-387003513.5822222,未知,-387003513.5822222
24,000972,5063392.48,4975779.0200000005,2019-12-31,年度报告,-113681230.79,2019,12,0.013118907468281168,False,-3.639139604953916,True,0.0,True,盈利变化,-280854698.01666665,未知,-280854698.01666665
25,000972,-13053465.199999996,-13041004.34,2020-03-31,一季度报告,-13041004.34,2020,3,50.89095322212924,False,-0.43989506572116205,True,0.06962037640515108,True,前期平均,-336957818.205,未知,-336957818.205
