,SECURITYCODE_x,NETPROFIT_x,PARENTNETPROFIT_x,REPORTDATE_x,REPORTTIMETYPE_x,KCFJCXSYJLR,Year,Month,managesituationChangeRate,managesituationGreatChange,historyprofitextroplaterate,ifhistoryprofitextroplate,IfprofitdisStableChangeRage,IfprofitdisStable,predicttype,predict,analyst_prediction,adj_prediction
0,000965,167257911.77,167257911.77,2013-12-31,年度报告,145315820.58,2013,12,未知,未知,未知,未知,未知,未知,未知,未知,未知,未知
1,000965,22612811.05,22612811.05,2014-03-31,一季度报告,22603045.680000003,2014,3,未知,未知,未知,未知,未知,未知,未知,未知,未知,未知
2,000965,147811080.87000003,147811080.87000003,2014-06-30,半年度报告,147782940.49999997,2014,6,未知,未知,未知,未知,未知,未知,未知,未知,未知,未知
3,000965,262557137.73999992,262557137.73999992,2014-09-30,三季度报告,262339584.8700001,2014,9,未知,未知,未知,未知,未知,未知,未知,未知,未知,未知
4,000965,265162075.31000003,265162075.31000003,2014-12-31,年度报告,257958277.07000005,2014,12,0.0,True,未知,未知,未知,未知,未知,未知,未知,未知
5,000965,29340643.09,29340643.09,2015-03-31,一季度报告,29306143.08999999,2015,3,6.396599715098225,False,未知,未知,未知,未知,未知,未知,未知,未知
6,000965,70798454.85,70798454.85,2015-06-30,半年度报告,70562072.1,2015,6,0.13156544682264706,True,未知,未知,未知,未知,未知,未知,未知,未知
7,000965,82122358.49,82122358.49,2015-09-30,三季度报告,81655593.0,2015,9,-0.36296566450374323,True,未知,未知,未知,未知,未知,未知,未知,未知
8,000965,186876400.01,186876400.01,2015-12-31,年度报告,186235574.87,2015,12,-0.3692238546011552,True,未知,未知,未知,未知,未知,未知,未知,未知
9,000965,79110285.92999998,79110285.92999998,2016-03-31,一季度报告,78906710.39000002,2016,3,4.700553708279337,False,未知,未知,未知,未知,未知,未知,未知,未知
10,000965,111573053.65,111573053.65,2016-06-30,半年度报告,111009051.65,2016,6,1.3624514422577123,False,未知,未知,未知,未知,未知,未知,270870000.0,未知
11,000965,116460828.84,116460828.84,2016-09-30,三季度报告,115644638.04,2016,9,1.0366915276838637,False,未知,未知,未知,未知,未知,未知,279008417.0,未知
12,000965,290632020.89,290632020.89,2016-12-31,年度报告,284376234.65999985,2016,12,-0.10498109038353784,True,0.13567177469330602,True,0.0,True,比例外推,290632020.89,未知,290632020.89
13,000965,176634448.70000005,176634448.70000005,2017-03-31,一季度报告,176421289.34000003,2017,3,1.1142372297579188,False,2.0454293074266023,False,0.10332080075965325,False,去年同期,382103972.9699999,408900000.0,382103972.9699999
14,000965,173711552.77,173711552.77,2017-06-30,半年度报告,173711552.77,2017,6,0.4990887700777741,True,0.020751938221992866,True,0.1255145233315768,False,平均增速,406830310.59183997,408900000.0,406830310.59183997
15,000965,165303208.35000002,165303208.35000002,2017-09-30,三季度报告,-37182713.25,2017,9,0.4361731187727309,True,0.32423697891047576,True,0.3962850574136151,False,平均增速,233043855.8524626,463000000.0,463000000.0
16,000965,410859621.67000014,410859621.67000014,2017-12-31,年度报告,208270181.86,2017,12,-0.4245028085418547,True,0.2858729367417686,True,0.0,True,比例外推,410859621.67000014,409000000.0,410859621.67000014
17,000965,234814608.1,234814608.1,2018-03-31,一季度报告,234603719.04000005,2018,3,-0.053084418124605806,True,2.2574077565979356,False,0.41977479138355495,False,未知,未知,497950000.0,未知
18,000965,239560342.26,238842481.1900001,2018-06-30,半年度报告,228563289.1,2018,6,-0.03715147839674682,True,0.9050295103524902,True,0.29963021687580016,False,平均增速,281097944.6443863,,281097944.6443863
19,000965,380624735.05,379477303.24,2018-09-30,三季度报告,368628509.64,2018,9,0.011824957540214533,True,0.6648258150404623,True,0.4007254099789018,False,平均增速,1980277952.3928745,540060000.0,540060000.0
20,000965,97023993.88,96102349.92,2018-12-31,年度报告,84665787.36000001,2018,12,-0.5929073996365101,True,0.7208476486995505,True,0.0,True,比例外推,96102349.92,,96102349.92
21,000965,-19544052.41,-19649590.76,2019-03-31,一季度报告,-19865741.34,2019,3,-0.2877022723442732,True,0.8363201763642892,True,1.4724419289697528,False,平均增速,-55992250.00133613,424880000.0,424880000.0
22,000965,-25175064.430000003,-25032989.469999995,2019-06-30,半年度报告,-25618795.090000004,2019,6,-0.3018130205020687,True,0.6794480800503893,True,1.3915869330853592,False,平均增速,-57939543.848576084,,-57939543.848576084
23,000965,-29632209.6,-30134927.86,2019-09-30,三季度报告,-30919168.33999999,2019,9,-0.5605700408618255,True,1.7017268693757102,True,2.8265736496961136,False,平均增速,-99076961.86616074,未知,-99076961.86616074
24,000965,189861211.49,189761981.51,2019-12-31,年度报告,188679637.30000004,2019,12,0.7238819500346054,False,0.7233780475960515,True,0.0,True,前期平均,189761981.51,未知,189761981.51
25,000965,90942492.02,90938640.99,2020-03-31,一季度报告,90650036.84,2020,3,-9.55799545873199,False,1.0950010801434409,True,1.6000289796625908,False,前期平均,31894121.409999967,未知,31894121.409999967
