,SECURITYCODE_x,NETPROFIT_x,PARENTNETPROFIT_x,REPORTDATE_x,REPORTTIMETYPE_x,KCFJCXSYJLR,Year,Month,managesituationChangeRate,managesituationGreatChange,historyprofitextroplaterate,ifhistoryprofitextroplate,IfprofitdisStableChangeRage,IfprofitdisStable,predicttype,predict,analyst_prediction,adj_prediction
0,000911,67990224.96,49371242.93,2013-12-31,年度报告,-260044801.6,2013,12,未知,未知,未知,未知,未知,未知,未知,未知,未知,未知
1,000911,-56830766.39999999,-58954392.79000001,2014-03-31,一季度报告,-58651004.48999999,2014,3,未知,未知,未知,未知,未知,未知,未知,未知,未知,未知
2,000911,-46659302.08,-52378181.63,2014-06-30,半年度报告,-59123181.72000001,2014,6,未知,未知,未知,未知,未知,未知,未知,未知,未知,未知
3,000911,-136610496.79000002,-145811417.4,2014-09-30,三季度报告,-153342039.34,2014,9,未知,未知,未知,未知,未知,未知,未知,未知,未知,未知
4,000911,-274374636.33,-286667055.7,2014-12-31,年度报告,-318440570.5,2014,12,0.0,True,未知,未知,未知,未知,未知,未知,未知,未知
5,000911,22217961.25,21040755.980000004,2015-03-31,一季度报告,-22025574.739999995,2015,3,-2.1963629784869485,False,未知,未知,未知,未知,未知,未知,115226667.0,未知
6,000911,26028129.21,23813842.779999994,2015-06-30,半年度报告,-19100570.97,2015,6,-2.4571633506953647,False,未知,未知,未知,未知,未知,未知,51585000.0,未知
7,000911,43500853.81,39710788.8,2015-09-30,三季度报告,-25192545.78,2015,9,-1.4976940027128056,False,未知,未知,未知,未知,未知,未知,48450000.0,未知
8,000911,52881185.45999999,59804932.10000001,2015-12-31,年度报告,-72024508.73,2015,12,-1.2478006927660243,False,未知,未知,未知,未知,未知,未知,54300000.0,未知
9,000911,-115907254.35,-114292185.26000004,2016-03-31,一季度报告,-118898324.25,2016,3,2.0601468872397097,False,未知,未知,未知,未知,未知,未知,153740000.0,未知
10,000911,-201794681.35999995,-200599662.6899999,2016-06-30,半年度报告,-212427521.41,2016,6,1.612182551094689,False,未知,未知,未知,未知,未知,未知,55726667.0,未知
11,000911,-260360003.76000005,-258392529.51,2016-09-30,三季度报告,-277106607.7,2016,9,0.5629629996910626,False,未知,未知,未知,未知,未知,未知,-35370000.0,未知
12,000911,19261451.92,18398585.03,2016-12-31,年度报告,-83341501.85000001,2016,12,0.2857167321150293,True,-1.5124532914958981,True,0.0,True,比例外推,18398585.03,4026667.0,4026667.0
13,000911,219648.83000000005,2951824.98,2017-03-31,一季度报告,-24249328.340000004,2017,3,-1.586591627429056,False,-5.697362657993065,True,0.7877638285189172,False,盈利变化,144597246.24333334,,144597246.24333334
14,000911,-75606025.19,-72874245.51999998,2017-06-30,半年度报告,-101727849.31999998,2017,6,-1.3369277351701159,False,-18.56211434333253,True,1.5489668856817942,False,前期平均,-228994908.78999996,未知,-228994908.78999996
15,000911,-104234006.04,-100197287.34,2017-09-30,三季度报告,-171548467.46999997,2017,9,-1.2611392839841613,False,-4.5925464952309065,True,1.939529605511666,False,前期平均,-206162534.39499998,未知,-206162534.39499998
16,000911,-198357015.64,-193633993.08,2017-12-31,年度报告,-281531929.22,2017,12,2.5298598071624494,False,-1.1739234441862123,True,0.0,True,盈利变化,-47664890.76,316993333.0,316993333.0
17,000911,-197108916.04,-193720358.44,2018-03-31,一季度报告,-223714001.28,2018,3,308.5405741974586,False,-1.004688877943941,True,0.8204466468761895,False,盈利变化,-459586890.3333334,未知,-459586890.3333334
18,000911,-506509041.07000005,-496047928.39,2018-06-30,半年度报告,-555275561.35,2018,6,-1.8992699297329636,False,-0.13969951318749788,True,1.49040952469902,False,前期平均,-457966887.49,未知,-457966887.49
19,000911,-660982105.2299999,-647709264.0799999,2018-09-30,三季度报告,-732041493.5199999,2018,9,-1.6522844851027658,False,-0.03869395352667725,True,1.8969300151085913,False,前期平均,-574242692.6299999,未知,-574242692.6299999
20,000911,-1382370257.5700002,-1363041771.9,2018-12-31,年度报告,-1445849736.33,2018,12,-1.3427669283117067,False,6.4990231254004645,False,0.0,True,去年同期,-1363041771.9,未知,-1363041771.9
21,000911,-276725596.05,-266706247.21,2019-03-31,一季度报告,-287533720.22,2019,3,-1.3449373388375923,False,-2.4076064614531925,True,0.8708060716777227,False,前期平均,-377569136.45000005,22685666.0,22685666.0
22,000911,-507803422.59,-498216182.6600001,2019-06-30,半年度报告,-562195946.6,2019,6,-1.13423299378106,False,-2.651822285309894,True,1.4507920351069787,False,前期平均,-523575212.8300001,,-523575212.8300001
23,000911,-549350698.43,-538710335.34,2019-09-30,三季度报告,-607396740.7499999,2019,9,-1.1028624291369304,False,-2.6258527977055084,True,1.8447540250689647,False,前期平均,-496819513.2900001,未知,-496819513.2900001
24,000911,18276381.71,31891158.49,2019-12-31,年度报告,-569558938.54,2019,12,-1.0491838019428432,False,-14.437236175556125,True,0.0,True,盈利变化,-1070944839.3033335,未知,-1070944839.3033335
25,000911,16376167.470000004,12088364.43,2020-03-31,一季度报告,-15274085.350000005,2020,3,-1.2456954684730905,False,-1.8109769513728493,True,0.2562698799977955,False,盈利变化,394904004.98333335,未知,394904004.98333335
