,SECURITYCODE_x,NETPROFIT_x,PARENTNETPROFIT_x,REPORTDATE_x,REPORTTIMETYPE_x,KCFJCXSYJLR,Year,Month,managesituationChangeRate,managesituationGreatChange,historyprofitextroplaterate,ifhistoryprofitextroplate,IfprofitdisStableChangeRage,IfprofitdisStable,predicttype,predict,analyst_prediction,adj_prediction
0,000998,303309318.47,186276827.67,2013-12-31,年度报告,83667075.19000001,2013,12,未知,未知,未知,未知,未知,未知,未知,未知,未知,未知
1,000998,134192042.28,138575501.92999998,2014-03-31,一季度报告,131102052.56,2014,3,未知,未知,未知,未知,未知,未知,未知,未知,未知,未知
2,000998,120648692.86000004,132008515.98,2014-06-30,半年度报告,117024230.74,2014,6,未知,未知,未知,未知,未知,未知,未知,未知,未知,未知
3,000998,94796864.82,116048523.84,2014-09-30,三季度报告,37411940.63,2014,9,未知,未知,未知,未知,未知,未知,未知,未知,未知,未知
4,000998,325835354.01,362021052.47000015,2014-12-31,年度报告,259503418.08,2014,12,0.0,True,未知,未知,未知,未知,未知,未知,未知,未知
5,000998,142673916.61999995,147271277.92,2015-03-31,一季度报告,137301029.95,2015,3,1.2602630775759889,False,未知,未知,未知,未知,未知,未知,478194444.0,未知
6,000998,168399501.14,182806768.24,2015-06-30,半年度报告,135303754.14000002,2015,6,1.5139876055015216,False,未知,未知,未知,未知,未知,未知,482779615.0,未知
7,000998,108186197.47999996,131944355.83000004,2015-09-30,三季度报告,63469176.12000001,2015,9,2.1995711993843137,False,未知,未知,未知,未知,未知,未知,494020000.0,未知
8,000998,467421264.0199999,491066970.96,2015-12-31,年度报告,361154152.15,2015,12,-0.06913318417653547,True,未知,未知,未知,未知,未知,未知,494020000.0,未知
9,000998,151111033.80999997,156556558.97,2016-03-31,一季度报告,154800855.54999998,2016,3,1.1258918634569979,False,未知,未知,未知,未知,未知,未知,607221120.0,未知
10,000998,140429406.87,155106891.53999996,2016-06-30,半年度报告,149259395.77999997,2016,6,0.8011295545219099,False,未知,未知,未知,未知,未知,未知,607288996.0,未知
11,000998,82596612.44000001,100154025.80999994,2016-09-30,三季度报告,86384378.81,2016,9,1.8035860907864136,False,未知,未知,未知,未知,未知,未知,596745591.0,未知
12,000998,501768996.07,501157641.57000005,2016-12-31,年度报告,427578405.73,2016,12,-0.3511007268659004,True,0.4858943720447982,True,0.0,True,比例外推,501157641.57000005,598183458.0,598183458.0
13,000998,272797200.97,231372783.37,2017-03-31,一季度报告,226157481.88000005,2017,3,1.007195046070343,False,0.09158261572040437,True,0.08939778224366829,True,前期平均,407500027.23,819253229.0,819253229.0
14,000998,291768266.06999993,234024810.79,2017-06-30,半年度报告,237796251.10000005,2017,6,1.159870394886615,False,0.02833223119878753,True,0.059395182076066255,True,前期平均,418189603.465,822544118.0,822544118.0
15,000998,261899866.95,160430656.85,2017-09-30,三季度报告,163027576.47000003,2017,9,2.6721762492418266,False,0.18617236823508074,True,0.02981221978537324,True,前期平均,420318883.59000003,831704667.0,831704667.0
16,000998,892446230.4200002,771772045.3700001,2017-12-31,年度报告,612694489.9899999,2017,12,-0.3955200085186482,True,0.2650861894253335,True,0.0,True,比例外推,771772045.3700001,827126667.0,771772045.3700001
17,000998,255478891.52,224805406.05,2018-03-31,一季度报告,115708137.82999998,2018,3,0.11184908566329267,True,0.8571216842164238,True,0.009728495461222342,True,比例外推,421446784.0763452,1109851263.0,1109851263.0
18,000998,231635279.38,157527352.27999997,2018-06-30,半年度报告,118005543.75,2018,6,0.03955554370409567,True,0.889513957421061,True,0.02153222600447835,True,比例外推,357928198.75424045,1013060000.0,1013060000.0
19,000998,137678499.6,77231952.86,2018-09-30,三季度报告,-3125016.33,2018,9,0.15811176997621626,True,1.745528981985549,True,0.05146481495031996,True,比例外推,65796149.92478016,892538379.0,892538379.0
20,000998,903186657.18,791002502.22,2018-12-31,年度报告,325628675.38,2018,12,-0.6601371509774235,True,0.8416326848706194,True,0.0,True,比例外推,791002502.22,934754059.0,934754059.0
21,000998,151308851.80999994,134388219.68,2019-03-31,一季度报告,95421220.35,2019,3,0.18721870392276868,True,0.20534998171285127,True,0.00695348338562396,True,比例外推,302440701.43698245,782333333.0,782333333.0
22,000998,133504681.24999996,68496582.66,2019-06-30,半年度报告,-29946758.31000001,2019,6,0.30942626391732864,True,0.07189507895456383,True,0.021585779718961084,True,比例外推,16739856.59608505,754000000.0,754000000.0
23,000998,-219917273.52,-268687642.42,2019-09-30,三季度报告,-329451336.06,2019,9,1.203026030580014,False,0.20069720396685997,True,0.1624361305123012,False,盈利变化,645968582.34,394923333.0,394923333.0
24,000998,-184828490.48,-298270707.81,2019-12-31,年度报告,-328461486.0,2019,12,-0.6641786987675216,True,0.29562013098051315,True,0.0,True,比例外推,-298270707.81,1050695116.0,1050695116.0
25,000998,41123737.1,23958948.68,2020-03-31,一季度报告,42136412.4,2020,3,1.004570881622105,False,0.427159949272684,True,0.43515880309844546,False,前期平均,322187721.50999993,411144000.0,411144000.0
