,SECURITYCODE_x,NETPROFIT_x,PARENTNETPROFIT_x,REPORTDATE_x,REPORTTIMETYPE_x,KCFJCXSYJLR,Year,Month,managesituationChangeRate,managesituationGreatChange,historyprofitextroplaterate,ifhistoryprofitextroplate,IfprofitdisStableChangeRage,IfprofitdisStable,predicttype,predict,analyst_prediction,adj_prediction
0,000988,57774592.79999999,52822244.73,2013-12-31,年度报告,-23521845.34,2013,12,未知,未知,未知,未知,未知,未知,未知,未知,未知,未知
1,000988,24839109.06,19914255.63,2014-03-31,一季度报告,12355336.129999995,2014,3,未知,未知,未知,未知,未知,未知,未知,未知,未知,未知
2,000988,58669141.79000001,54820908.47000002,2014-06-30,半年度报告,44402943.20999999,2014,6,未知,未知,未知,未知,未知,未知,未知,未知,未知,未知
3,000988,149769112.70000002,147624115.70999998,2014-09-30,三季度报告,104223943.55,2014,9,未知,未知,未知,未知,未知,未知,未知,未知,未知,未知
4,000988,168827138.76000002,168351348.21,2014-12-31,年度报告,111809758.77000004,2014,12,0.0,True,未知,未知,未知,未知,未知,未知,未知,未知
5,000988,27318078.149999995,28946475.67,2015-03-31,一季度报告,25542977.33,2015,3,1.325952700656164,False,未知,未知,未知,未知,未知,未知,299669290.0,未知
6,000988,86268774.97,88939093.02999999,2015-06-30,半年度报告,73679143.53,2015,6,-0.015247350868058724,True,未知,未知,未知,未知,未知,未知,261300000.0,未知
7,000988,105314135.45999998,109402665.16,2015-09-30,三季度报告,84050849.70000002,2015,9,-0.6142422709298726,True,未知,未知,未知,未知,未知,未知,211013332.99999997,未知
8,000988,150968721.02,150830368.10000002,2015-12-31,年度报告,83224653.65999998,2015,12,-0.657788473912771,True,未知,未知,未知,未知,未知,未知,418000000.0,未知
9,000988,46400380.13,44895012.24,2016-03-31,一季度报告,38261731.95,2016,3,1.1148849667523189,False,未知,未知,未知,未知,未知,未知,243462857.0,未知
10,000988,126261258.2,117280185.81,2016-06-30,半年度报告,92760641.75,2016,6,-0.3302954305298629,True,未知,未知,未知,未知,未知,未知,230083332.99999997,未知
11,000988,179075064.61,167645841.12000003,2016-09-30,三季度报告,112216722.29000002,2016,9,-0.4514070447651947,True,未知,未知,未知,未知,未知,未知,225902500.0,未知
12,000988,237794127.11000004,229809816.82,2016-12-31,年度报告,146889605.98000002,2016,12,-0.6173075296018032,True,0.33245867082022934,True,0.0,True,比例外推,229809816.82,226100000.0,229809816.82
13,000988,56347598.7,54920167.65,2017-03-31,一季度报告,49513129.6,2017,3,0.24513188551759363,True,0.7792516280902414,True,0.1154630333532254,False,平均增速,193351365.85586342,317275000.0,317275000.0
14,000988,179412078.36,176131117.51999998,2017-06-30,半年度报告,141948350.59000003,2017,6,-0.5424202671219699,True,0.7422805711920598,True,0.24732672359992292,False,平均增速,251503648.593712,362872000.0,362872000.0
15,000988,255835477.18,254929858.17,2017-09-30,三季度报告,193878887.23,2017,9,-0.6773722074269535,True,0.4040519391353827,True,0.13805867070995848,False,平均增速,306633674.97512114,366252000.0,366252000.0
16,000988,320643586.89,324161947.26000005,2017-12-31,年度报告,215361938.63,2017,12,-0.7570394462548089,True,0.4871620118758751,True,0.0,True,比例外推,324161947.26000005,364498000.0,364498000.0
17,000988,59614366.42,60749278.74,2018-03-31,一季度报告,56406581.41,2018,3,0.025324843168516187,True,0.5287242846555092,True,0.041148629955619576,True,比例外推,216583133.7917729,424000000.0,424000000.0
18,000988,177500832.99,180623190.96000004,2018-06-30,半年度报告,142182882.80999997,2018,6,-0.6779782424454605,True,0.6883456486970067,True,0.15999808985022335,False,平均增速,276692759.18493164,452315000.0,452315000.0
19,000988,248974207.59000003,256451488.48,2018-09-30,三季度报告,206751707.4,2018,9,-0.7741728651677535,True,0.7991926354237663,True,0.12742283519365072,False,平均增速,285259818.4694619,399083333.0,399083333.0
20,000988,270368750.10999995,283609488.28000003,2018-12-31,年度报告,196530303.85,2018,12,-0.8198167836120791,True,0.649558791084783,True,0.0,True,比例外推,283609488.28000003,376125000.0,376125000.0
21,000988,99043003.98,99947712.84999998,2019-03-31,一季度报告,52152225.96999999,2019,3,-0.030861245878858946,True,0.16039978788554032,True,0.029226150291826264,True,比例外推,249052284.00108272,423033333.0,423033333.0
22,000988,332305743.14,331204839.67,2019-06-30,半年度报告,159070247.02,2019,6,-0.6745108638264539,True,0.16137596420784794,True,0.052105518498595904,True,比例外推,409071951.95754355,457000000.0,457000000.0
23,000988,460180154.1099999,462709078.56999993,2019-09-30,三季度报告,265088404.82,2019,9,-0.7679494861767341,True,0.1449444594526255,True,0.1466063550312311,False,平均增速,450077920.5429707,498804286.0,450077920.5429707
24,000988,495482661.91,502787483.0500001,2019-12-31,年度报告,239291908.92,2019,12,-0.7863118693395805,True,0.031695949854848256,True,0.0,True,比例外推,502787483.0500001,500518750.0,502787483.0500001
25,000988,-15276943.25,-11764892.29,2020-03-31,一季度报告,12383008.499999998,2020,3,-0.41667164283843255,True,0.7081980954273777,True,0.04205790363913517,True,比例外推,26404435.492324702,649766667.0,649766667.0
