,SECURITYCODE_x,NETPROFIT_x,PARENTNETPROFIT_x,REPORTDATE_x,REPORTTIMETYPE_x,KCFJCXSYJLR,Year,Month,managesituationChangeRate,managesituationGreatChange,historyprofitextroplaterate,ifhistoryprofitextroplate,IfprofitdisStableChangeRage,IfprofitdisStable,predicttype,predict,analyst_prediction,adj_prediction
0,000969,61616936.76000001,62960919.07000001,2013-12-31,年度报告,49651048.31000001,2013,12,未知,未知,未知,未知,未知,未知,未知,未知,未知,未知
1,000969,8530313.79,6526177.219999999,2014-03-31,一季度报告,5831432.099999999,2014,3,未知,未知,未知,未知,未知,未知,未知,未知,未知,未知
2,000969,21946489.81,12808601.56,2014-06-30,半年度报告,3067642.29,2014,6,未知,未知,未知,未知,未知,未知,未知,未知,未知,未知
3,000969,22699708.66,5961470.540000001,2014-09-30,三季度报告,-4245226.8900000015,2014,9,未知,未知,未知,未知,未知,未知,未知,未知,未知,未知
4,000969,-186027952.56,-189892714.34,2014-12-31,年度报告,-207999678.03000003,2014,12,0.0,True,未知,未知,未知,未知,未知,未知,未知,未知
5,000969,7451531.6,4706274.510000002,2015-03-31,一季度报告,2921314.52,2015,3,6.223290757748317,False,未知,未知,未知,未知,未知,未知,50212500.0,未知
6,000969,26088589.72,14175501.26,2015-06-30,半年度报告,7798006.209999999,2015,6,1.807598722777254,False,未知,未知,未知,未知,未知,未知,72582500.0,未知
7,000969,99526009.39000002,84260371.97,2015-09-30,三季度报告,6642700.12,2015,9,1.714437338509877,False,未知,未知,未知,未知,未知,未知,55050000.0,未知
8,000969,108932670.6,87588021.21000001,2015-12-31,年度报告,8551680.790000001,2015,12,-1.3312240763394232,False,未知,未知,未知,未知,未知,未知,,未知
9,000969,24183997.90000001,15673513.77,2016-03-31,一季度报告,8381406.189999999,2016,3,7.269029787111151,False,未知,未知,未知,未知,未知,未知,186306667.00000003,未知
10,000969,42033722.65,12975780.85,2016-06-30,半年度报告,3742170.26,2016,6,1.3618347109335436,False,未知,未知,未知,未知,未知,未知,163866667.00000003,未知
11,000969,98693226.04,70373884.89999999,2016-09-30,三季度报告,6636096.35,2016,9,-0.3808961382290583,True,未知,未知,未知,未知,未知,未知,177300000.0,未知
12,000969,98610818.56000002,79034572.61000001,2016-12-31,年度报告,-59665041.46999999,2016,12,-0.4343576043751192,True,-2.751174040329635,True,0.0,True,比例外推,79034572.61000001,,79034572.61000001
13,000969,3629963.9299999992,11983503.529999996,2017-03-31,一季度报告,11100239.38,2017,3,1.5478391544187151,False,2.026433720242617,False,0.2839080709016065,False,去年同期,-56062944.13,277820000.0,277820000.0
14,000969,11675893.33,20346568.49,2017-06-30,半年度报告,16383950.92,2017,6,0.46589292775856517,True,0.7501260770786528,True,0.6337348172968595,False,平均增速,-40215370.56670657,124000000.0,124000000.0
15,000969,53698491.15,60899773.85999999,2017-09-30,三季度报告,53832828.00999999,2017,9,-0.3756720776861941,True,0.6149338717670965,True,0.5481184417893321,False,平均增速,-126208062.25873682,,-126208062.25873682
16,000969,47770422.87000001,59169689.4,2017-12-31,年度报告,-15614651.9,2017,12,-0.37515033685164045,True,-3.5581544305438326,True,0.0,True,比例外推,59169689.4,,59169689.4
17,000969,4357443.65,9690405.56,2018-03-31,一季度报告,11683251.42,2018,3,15.974531413594521,False,0.7705134709377949,True,0.5409683290558137,False,前期平均,-21517635.134999998,未知,-21517635.134999998
18,000969,-14145677.77,-9649235.89,2018-06-30,半年度报告,-15802592.41,2018,6,4.277278150673205,False,0.6572079565771793,True,0.982561379472438,False,盈利变化,37711993.846666664,未知,37711993.846666664
19,000969,-89652477.26,-80432618.06,2018-09-30,三季度报告,-88379612.12,2018,9,0.1474612310405674,True,0.4581909164011147,True,2.520239091733951,False,平均增速,67528449.28547749,未知,67528449.28547749
20,000969,-331503192.19,-217656162.57,2018-12-31,年度报告,-178601354.01000002,2018,12,0.28985537615359186,True,0.5396586704469183,True,0.0,True,比例外推,-217656162.57,未知,-217656162.57
21,000969,60755647.71,54671144.95,2019-03-31,一季度报告,48788084.81,2019,3,13.14061585397668,False,0.6866722060932663,True,0.4052942277171943,False,前期平均,7290475.480000004,182400000.0,182400000.0
22,000969,96181763.08999996,73195312.58,2019-06-30,半年度报告,59284746.48,2019,6,-5.355884374142648,False,1.5267465615567783,True,0.7080985255650485,False,前期平均,25492405.305,147000000.0,147000000.0
23,000969,146521479.99999997,112836393.61,2019-09-30,三季度报告,96505764.58,2019,9,-1.6872864938389323,False,2.176605643838536,False,2.426262961986164,False,前期平均,44962084.745000005,,44962084.745000005
24,000969,201641024.19,164756350.28000003,2019-12-31,年度报告,51543634.24999999,2019,12,-1.185871322544262,False,5.529312485008892,False,0.0,True,前期平均,164756350.28000003,未知,164756350.28000003
25,000969,21646903.960000005,8273419.14,2020-03-31,一季度报告,-13686336.12,2020,3,0.014176279612903363,True,14.212857764296034,False,0.8897934440927019,False,未知,未知,未知,未知
