,SECURITYCODE_x,NETPROFIT_x,PARENTNETPROFIT_x,REPORTDATE_x,REPORTTIMETYPE_x,KCFJCXSYJLR,Year,Month,managesituationChangeRate,managesituationGreatChange,historyprofitextroplaterate,ifhistoryprofitextroplate,IfprofitdisStableChangeRage,IfprofitdisStable,predicttype,predict,analyst_prediction,adj_prediction
0,000917,576840513.2800001,483666917.0200001,2013-12-31,年度报告,448627670.25,2013,12,未知,未知,未知,未知,未知,未知,未知,未知,未知,未知
1,000917,203801321.36,188649910.6200001,2014-03-31,一季度报告,153273430.78000003,2014,3,未知,未知,未知,未知,未知,未知,未知,未知,未知,未知
2,000917,263111432.45,233389347.99000007,2014-06-30,半年度报告,224586965.07,2014,6,未知,未知,未知,未知,未知,未知,未知,未知,未知,未知
3,000917,390438518.60000014,325140298.14,2014-09-30,三季度报告,316671423.23999983,2014,9,未知,未知,未知,未知,未知,未知,未知,未知,未知,未知
4,000917,387175755.49,332540333.29999995,2014-12-31,年度报告,305446869.64999986,2014,12,0.0,True,未知,未知,未知,未知,未知,未知,未知,未知
5,000917,143477184.05,124456006.49,2015-03-31,一季度报告,123413332.31,2015,3,1.8304061496296868,False,未知,未知,未知,未知,未知,未知,626282324.0,未知
6,000917,171793138.44,147615169.48000002,2015-06-30,半年度报告,141319487.07000002,2015,6,1.1923810300018765,False,未知,未知,未知,未知,未知,未知,597500000.0,未知
7,000917,392778406.34999985,343239483.68,2015-09-30,三季度报告,330662713.42,2015,9,0.47741702163091826,True,未知,未知,未知,未知,未知,未知,638489634.0,未知
8,000917,473424676.62,381353233.76999986,2015-12-31,年度报告,364596627.5,2015,12,0.4898673408668502,True,未知,未知,未知,未知,未知,未知,709000000.0,未知
9,000917,155310375.74000004,127956125.51000002,2016-03-31,一季度报告,125309285.05,2016,3,3.020433751187773,False,未知,未知,未知,未知,未知,未知,417550000.0,未知
10,000917,169826377.39000005,135071870.6,2016-06-30,半年度报告,97128735.62,2016,6,2.357762239622078,False,未知,未知,未知,未知,未知,未知,659935000.0,未知
11,000917,292173775.24,214193488.16000003,2016-09-30,三季度报告,173068432.75,2016,9,0.4686156467725592,True,未知,未知,未知,未知,未知,未知,524415000.0,未知
12,000917,476795976.6400001,333141800.7,2016-12-31,年度报告,243233495.34,2016,12,0.21844200728684882,True,0.017807703133375086,True,0.0,True,比例外推,333141800.7,512000000.0,512000000.0
13,000917,184985860.39,101093417.7,2017-03-31,一季度报告,100113565.29,2017,3,2.7141144661556273,False,0.1055572209593608,True,0.11333202419093147,False,前期平均,297771784.72999996,,297771784.72999996
14,000917,251922631.62,122011696.66,2017-06-30,半年度报告,117008015.58,2017,6,2.396648519183254,False,0.219017739719484,True,0.22787292867132303,False,前期平均,274080219.1649999,未知,274080219.1649999
15,000917,278124749.23,109916201.0,2017-09-30,三季度报告,92265037.67,2017,9,0.9743062593696733,False,0.25391353038329156,True,0.1735371154845461,False,前期平均,121270881.245,未知,121270881.245
16,000917,-236181585.79999992,-464288791.96,2017-12-31,年度报告,-507423008.78,2017,12,0.20982672157810087,True,0.10805423481139297,True,0.0,True,比例外推,-464288791.96,600070000.0,600070000.0
17,000917,44143059.25000001,-54003269.06,2018-03-31,一季度报告,-73009058.1,2018,3,2.118295160851024,False,0.2382433895173915,True,0.41608997263032294,False,盈利变化,-695118956.48,未知,-695118956.48
18,000917,62001693.75,-35329150.93,2018-06-30,半年度报告,-107039251.10999998,2018,6,1.2897526497345664,False,0.4748725991717882,True,0.41603778505810024,False,盈利变化,-613653636.42,未知,-613653636.42
19,000917,19872053.96,-135306655.10999998,2018-09-30,三季度报告,-238085076.0,2018,9,1.074035176218611,False,0.18790024557807597,True,0.6607069387196196,False,盈利变化,-611111064.7022222,未知,-611111064.7022222
20,000917,271770686.53000003,87579279.87,2018-12-31,年度报告,-738829122.5900003,2018,12,-3.4423602345039397,False,1.4971089293622746,True,0.0,True,前期平均,87579279.87,未知,87579279.87
21,000917,749936.28,8593055.280000001,2019-03-31,一季度报告,-32790674.07,2019,3,12.067524613849685,False,0.7405609903182329,True,0.3762809584982282,False,前期平均,-236213126.60999995,未知,-236213126.60999995
22,000917,34905286.99999999,11173745.27,2019-06-30,半年度报告,-72166247.32,2019,6,8.303625084919556,False,0.7059782362237637,True,0.3351283982541291,False,前期平均,-227989387.04999998,未知,-227989387.04999998
23,000917,121075310.92000002,68283521.23,2019-09-30,三季度报告,-177419819.24,2019,9,28.02772478582783,False,0.9303099934250475,True,0.46581325668407825,False,前期平均,-196477970.69999993,未知,-196477970.69999993
24,000917,300481596.80999994,111110832.55,2019-12-31,年度报告,-435716191.73,2019,12,1.12252660743205,False,1.2589728368384887,True,0.0,True,前期平均,111110832.55,未知,111110832.55
25,000917,-186348890.32,-141879832.65,2020-03-31,一季度报告,-172824184.4,2020,3,768.1860344188177,False,0.9934540233404122,True,0.18955676030798294,False,盈利变化,-75600514.55666669,未知,-75600514.55666669
