,SECURITYCODE_x,NETPROFIT_x,PARENTNETPROFIT_x,REPORTDATE_x,REPORTTIMETYPE_x,KCFJCXSYJLR,Year,Month,managesituationChangeRate,managesituationGreatChange,historyprofitextroplaterate,ifhistoryprofitextroplate,IfprofitdisStableChangeRage,IfprofitdisStable,predicttype,predict,analyst_prediction,adj_prediction
0,000967,56557374.03,53114927.65000001,2013-12-31,年度报告,313323.15,2013,12,未知,未知,未知,未知,未知,未知,未知,未知,未知,未知
1,000967,7558548.86,6502271.57,2014-03-31,一季度报告,2620784.1,2014,3,未知,未知,未知,未知,未知,未知,未知,未知,未知,未知
2,000967,31263222.70000001,27861546.17999999,2014-06-30,半年度报告,5767290.620000001,2014,6,未知,未知,未知,未知,未知,未知,未知,未知,未知,未知
3,000967,41132128.57999999,30505059.84,2014-09-30,三季度报告,11773008.990000002,2014,9,未知,未知,未知,未知,未知,未知,未知,未知,未知,未知
4,000967,68675300.68999998,60517263.40000001,2014-12-31,年度报告,30993453.11,2014,12,0.0,True,未知,未知,未知,未知,未知,未知,未知,未知
5,000967,7537413.959999999,8231562.3900000015,2015-03-31,一季度报告,3002120.45,2015,3,6.48257040836275,False,未知,未知,未知,未知,未知,未知,未知,未知
6,000967,35426250.04,35630747.550000004,2015-06-30,半年度报告,22615791.230000004,2015,6,0.8090705034705198,False,未知,未知,未知,未知,未知,未知,未知,未知
7,000967,45692804.60999999,45363728.1,2015-09-30,三季度报告,33446418.13,2015,9,0.3750169510434807,True,未知,未知,未知,未知,未知,未知,未知,未知
8,000967,107481758.65999997,112101485.48,2015-12-31,年度报告,20403509.360000007,2015,12,-0.1764524732800261,True,未知,未知,未知,未知,未知,未知,173975000.0,未知
9,000967,47026573.17,49147889.61999998,2016-03-31,一季度报告,46854035.64999999,2016,3,6.503551527107582,False,未知,未知,未知,未知,未知,未知,264696000.0,未知
10,000967,115739226.17,118071067.84999998,2016-06-30,半年度报告,116284556.14000005,2016,6,0.5964820991818417,False,未知,未知,未知,未知,未知,未知,282560000.0,未知
11,000967,166517620.55000004,162544647.58999997,2016-09-30,三季度报告,141485277.56,2016,9,0.23777418595185706,True,未知,未知,未知,未知,未知,未知,287674167.0,未知
12,000967,244010282.4,245789877.16,2016-12-31,年度报告,118625510.56,2016,12,-0.4737956027598179,True,0.7165130250601419,True,0.0,True,比例外推,245789877.16,283056667.0,283056667.0
13,000967,70469201.59000002,66463290.06,2017-03-31,一季度报告,23612201.84,2017,3,0.20266841101830596,True,5.230350952864894,False,0.18608399764042652,False,未知,未知,434141667.0,未知
14,000967,183731295.79,174757534.91,2017-06-30,半年度报告,99591683.07999998,2017,6,-0.5113378938016447,True,2.4709893905213076,False,0.5721768955140346,False,未知,未知,419763321.0,未知
15,000967,258681739.99,247291359.7,2017-09-30,三季度报告,163203522.66000003,2017,9,-0.6603520165421918,True,2.8357097306509327,False,0.690748071628814,False,未知,未知,410863846.0,未知
16,000967,774198882.08,566123432.27,2017-12-31,年度报告,221449614.46000004,2017,12,-0.7682172510366309,True,1.7703718863197526,True,0.0,True,比例外推,566123432.27,410863846.0,410863846.0
17,000967,195532568.98,143397426.08,2018-03-31,一季度报告,91090218.45,2018,3,-0.19741713040742304,True,1.5829931167641935,True,0.17872855209611604,False,平均增速,904888100.5299354,488255000.0,488255000.0
18,000967,574029512.6999999,369043280.47,2018-06-30,半年度报告,73332868.41000001,2018,6,-0.6921734330190346,True,1.4308631890890133,True,0.3964134147485956,False,平均增速,647898165.0584903,826323570.9999999,826323570.9999999
19,000967,898571101.4200002,560938805.89,2018-09-30,三季度报告,411759875.8,2018,9,-0.7813630987939606,True,1.4379739100467102,True,0.45266578862068574,False,平均增速,746259518.3660684,610180000.0,610180000.0
20,000967,1358179193.9,928577765.3199998,2018-12-31,年度报告,319411269.58000004,2018,12,-0.9269472284976049,True,3.4052142958642055,False,0.0,True,比例外推,928577765.3199998,573650000.0,573650000.0
21,000967,242790183.45,236548760.94,2019-03-31,一季度报告,188166381.41,2019,3,-0.7107521558938605,True,2.328333625262695,False,0.15563491158324005,False,未知,未知,1432466667.0,未知
22,000967,641778896.87,635552371.96,2019-06-30,半年度报告,562291460.6599998,2019,6,-0.9014730553417415,True,2.8336294934342323,False,0.42707275538590594,False,未知,未知,1463245556.0,未知
23,000967,641778896.87,635552371.96,2019-06-30,半年度报告,-50415068.91,2019,6,-0.9014730553417415,True,2.8336294934342323,False,0.42707275538590594,False,未知,未知,1463245556.0,未知
24,000967,641778896.87,635552371.96,2019-06-30,半年度报告,562291460.6599998,2019,6,-0.9014730553417415,True,2.8336294934342323,False,0.335956791956719,False,未知,未知,1463245556.0,未知
25,000967,641778896.87,635552371.96,2019-06-30,半年度报告,-50415068.91,2019,6,-0.9014730553417415,True,2.8336294934342323,False,0.0,True,比例外推,594832799.7276075,1463245556.0,1463245556.0
26,000967,22670132.08,22845842.39,2019-06-30,半年度报告,562291460.6599998,2019,6,-0.9014730553417415,True,2.8336294934342323,False,0.42707275538590594,False,未知,未知,1463245556.0,未知
27,000967,22670132.08,22845842.39,2019-06-30,半年度报告,-50415068.91,2019,6,-0.9014730553417415,True,2.8336294934342323,False,0.42707275538590594,False,未知,未知,1463245556.0,未知
28,000967,22670132.08,22845842.39,2019-06-30,半年度报告,562291460.6599998,2019,6,-0.9014730553417415,True,2.8336294934342323,False,0.335956791956719,False,未知,未知,1463245556.0,未知
29,000967,22670132.08,22845842.39,2019-06-30,半年度报告,-50415068.91,2019,6,-0.9014730553417415,True,2.8336294934342323,False,0.0,True,比例外推,-17873729.84239261,1463245556.0,1463245556.0
30,000967,982187528.43,964262591.8600004,2019-09-30,三季度报告,819100102.7700001,2019,9,-0.9370585433466276,True,3.2265872661653177,False,0.10448702261430406,False,未知,未知,1404047552.0000002,未知
31,000967,1391566165.4299998,1361453754.1699994,2019-12-31,年度报告,1252134237.7,2019,12,-0.9583579440150338,True,1.6677803368497925,True,未知,未知,True,True,1403911632.9999998,1403911632.9999998
32,000967,150748795.67,143689074.76999998,2020-03-31,一季度报告,185050750.11,2020,3,-0.7670524679938413,True,0.825477950238743,True,未知,未知,True,True,1583323333.0,1583323333.0
