,SECURITYCODE_x,NETPROFIT_x,PARENTNETPROFIT_x,REPORTDATE_x,REPORTTIMETYPE_x,KCFJCXSYJLR,Year,Month,managesituationChangeRate,managesituationGreatChange,historyprofitextroplaterate,ifhistoryprofitextroplate,IfprofitdisStableChangeRage,IfprofitdisStable,predicttype,predict,analyst_prediction,adj_prediction
0,000925,-148605818.96,-148605818.96,2013-12-31,年度报告,-169789818.23000002,2013,12,未知,未知,未知,未知,未知,未知,未知,未知,未知,未知
1,000925,-3921678.17,-3921678.17,2014-03-31,一季度报告,-6154464.540000001,2014,3,未知,未知,未知,未知,未知,未知,未知,未知,未知,未知
2,000925,-20404961.790000007,-20404961.790000007,2014-06-30,半年度报告,-23204610.620000005,2014,6,未知,未知,未知,未知,未知,未知,未知,未知,未知,未知
3,000925,-23767968.32,-23767968.32,2014-09-30,三季度报告,-28802680.840000004,2014,9,未知,未知,未知,未知,未知,未知,未知,未知,未知,未知
4,000925,12595107.69,12139049.67,2014-12-31,年度报告,-6242149.550000003,2014,12,-0.0,False,未知,未知,未知,未知,未知,未知,未知,未知
5,000925,-2214075.46,1046898.97,2015-03-31,一季度报告,651841.3,2015,3,36.89342534448716,False,未知,未知,未知,未知,未知,未知,106333333.0,未知
6,000925,6362609.64,11258937.0,2015-06-30,半年度报告,10386631.27,2015,6,6.282827602883738,False,未知,未知,未知,未知,未知,未知,75046864.0,未知
7,000925,-3467871.5,8003023.62,2015-09-30,三季度报告,4973678.289999999,2015,9,5.252356825760024,False,未知,未知,未知,未知,未知,未知,,未知
8,000925,17244017.15,34162405.35999999,2015-12-31,年度报告,27985476.419999994,2015,12,-12.798693795844791,False,未知,未知,未知,未知,未知,未知,118196667.0,未知
9,000925,-20879991.590000004,-19616890.35,2016-03-31,一季度报告,-20257753.08,2016,3,66.1186784934602,False,未知,未知,未知,未知,未知,未知,146000000.0,未知
10,000925,-24747111.14,-11182880.42,2016-06-30,半年度报告,-11191840.2,2016,6,-24.356111307812373,False,未知,未知,未知,未知,未知,未知,96000000.0,未知
11,000925,-51117721.76999999,-27406447.94,2016-09-30,三季度报告,-29427771.44,2016,9,41.85216997227262,False,未知,未知,未知,未知,未知,未知,1742857.0,未知
12,000925,-134039155.2,-108793425.59,2016-12-31,年度报告,-129370817.14000005,2016,12,-9.617819019044529,False,-1.2535685166114343,True,0.0,True,盈利变化,-18289692.493333355,-27200000.0,-27200000.0
13,000925,-2823462.4899999993,-16074287.180000005,2017-03-31,一季度报告,-15127565.190000005,2017,3,6.117139789997395,False,-5.806007166881635,True,0.5973422170292033,False,前期平均,-2451312.1250000093,186178000.0,186178000.0
14,000925,-9274729.3,-26116199.34,2017-06-30,半年度报告,-23280082.37,2017,6,5.004976424088586,False,-2.524639017117939,True,2.3257202190272914,False,前期平均,-8835546.23,109740000.0,109740000.0
15,000925,44009824.39,29628851.51,2017-09-30,三季度报告,31071860.12,2017,9,1.9071291484514852,False,-2.75370997243587,True,2.9410858411890777,False,盈利变化,-81904700.45222223,81163333.0,81163333.0
16,000925,122364718.71,60210499.93,2017-12-31,年度报告,46859215.96000001,2017,12,0.10867469090106593,False,9.984121077191755,False,0.0,True,前期平均,60210499.93,77000000.0,77000000.0
17,000925,10206278.24,947582.83,2018-03-31,一季度报告,-1711313.85,2018,3,51.63247501474689,False,-0.7554815716186294,True,0.2751796830473779,False,盈利变化,78098835.05000001,156250000.0,156250000.0
18,000925,14441647.079999994,16382214.539999995,2018-06-30,半年度报告,11890552.440000005,2018,6,15.022658360497916,False,-0.00897261750610978,True,0.483757164922885,False,盈利变化,83657589.80333334,134500000.0,134500000.0
19,000925,52904411.44000001,40912886.06,2018-09-30,三季度报告,32930086.2,2018,9,-4.376651032349189,False,-2.612506954804414,True,0.30699577184249555,False,前期平均,2447262.274999976,112500000.0,112500000.0
20,000925,26426995.629999995,27010950.58,2018-12-31,年度报告,17044396.03,2018,12,-2.214449888224648,False,-3.0953735018938144,True,0.0,True,前期平均,27010950.58,91000000.0,91000000.0
21,000925,15947084.89,10241866.73,2019-03-31,一季度报告,7443109.169999999,2019,3,-15.560235912204567,False,-1.8611637954159295,True,0.24546895606939162,False,前期平均,-13321274.72500002,146666667.0,146666667.0
22,000925,28828821.14,24739501.19,2019-06-30,半年度报告,19882417.790000007,2019,6,-11.290087975200683,False,-1.8489633067011113,True,0.6018480228484306,False,前期平均,719661.8849999867,145750000.0,145750000.0
23,000925,82649556.89,83876312.04999998,2019-09-30,三季度报告,28714687.46,2019,9,-3.8089494791665333,False,-15.886093203557227,True,0.9911595724444876,False,前期平均,41798467.11999996,144750000.0,144750000.0
24,000925,99870203.15,133871701.69999996,2019-12-31,年度报告,71140894.7,2019,12,-6.623258165271814,False,-5.5273269767901185,True,0.0,True,前期平均,133871701.69999996,135500000.0,133871701.69999996
25,000925,-210418180.04999995,-152666029.39000002,2020-03-31,一季度报告,-154445508.66,2020,3,-10.318682378946063,False,3.320054957351468,False,0.2166272601356013,False,前期平均盈利变化,-274183401.705,155333333.0,155333333.0
