,SECURITYCODE_x,NETPROFIT_x,PARENTNETPROFIT_x,REPORTDATE_x,REPORTTIMETYPE_x,KCFJCXSYJLR,Year,Month,managesituationChangeRate,managesituationGreatChange,historyprofitextroplaterate,ifhistoryprofitextroplate,IfprofitdisStableChangeRage,IfprofitdisStable,predicttype,predict,analyst_prediction,adj_prediction
0,000933,-3302204.6400000006,95177389.74000002,2013-12-31,年度报告,-25510595.4,2013,12,未知,未知,未知,未知,未知,未知,未知,未知,未知,未知
1,000933,-208361665.0,-183679138.34,2014-03-31,一季度报告,-186812051.65,2014,3,未知,未知,未知,未知,未知,未知,未知,未知,未知,未知
2,000933,-381178529.88000005,-355568782.66,2014-06-30,半年度报告,-354932302.1900001,2014,6,未知,未知,未知,未知,未知,未知,未知,未知,未知,未知
3,000933,-371743891.99,-351392645.58,2014-09-30,三季度报告,-351801262.22,2014,9,未知,未知,未知,未知,未知,未知,未知,未知,未知,未知
4,000933,-412433489.42,-366528936.43,2014-12-31,年度报告,-407093354.69000006,2014,12,-0.0,False,未知,未知,未知,未知,未知,未知,未知,未知
5,000933,-99159436.35,-94337214.78000002,2015-03-31,一季度报告,-94271234.43,2015,3,-0.9841515729872864,False,未知,未知,未知,未知,未知,未知,212250000.0,未知
6,000933,-297246059.01,-287848912.79999995,2015-06-30,半年度报告,-303354711.00999993,2015,6,-0.9913368556171315,False,未知,未知,未知,未知,未知,未知,,未知
7,000933,-906965306.04,-849447431.5899999,2015-09-30,三季度报告,-863552326.2200003,2015,9,-0.9911169901882643,False,未知,未知,未知,未知,未知,未知,未知,未知
8,000933,-1837891117.74,-1672163424.6799998,2015-12-31,年度报告,-1765627442.4700005,2015,12,-0.9919933644461224,False,未知,未知,未知,未知,未知,未知,,未知
9,000933,381240551.11,420418831.2,2016-03-31,一季度报告,-274271089.27,2016,3,-0.9666980293398975,False,未知,未知,未知,未知,未知,未知,707666667.0,未知
10,000933,600537805.6899999,645981694.0799999,2016-06-30,半年度报告,-57178233.55,2016,6,-0.9888906697333575,False,未知,未知,未知,未知,未知,未知,1000988570.9999999,未知
11,000933,769376939.4300003,825743928.3199997,2016-09-30,三季度报告,123187134.91,2016,9,-0.9963590617876905,False,未知,未知,未知,未知,未知,未知,1083500000.0,未知
12,000933,-1024682304.23,342139236.6,2016-12-31,年度报告,357899598.48,2016,12,-0.9982032642695065,False,-7.841632527587352,True,0.0,True,盈利变化,-964321077.6966664,504886667.0,504886667.0
13,000933,289900101.39000005,291581525.23,2017-03-31,一季度报告,272371642.93,2017,3,-1.0086617350394271,False,-3.479443195516508,True,0.6816518192125491,False,前期平均,-654237230.3100002,1166570000.0,1166570000.0
14,000933,614550156.17,611724884.18,2017-06-30,半年度报告,575868435.24,2017,6,-1.005498745638846,False,-2.77038926809114,True,0.5772294573622292,False,前期平均,-145492007.8000003,1571056667.0,1571056667.0
15,000933,873400619.0800003,888586150.6999998,2017-09-30,三季度报告,789330170.64,2017,9,-1.0042920504511696,False,-2.2033649880916077,True,0.2983570383466466,False,前期平均,409902546.3399997,1377103333.0,1377103333.0
16,000933,306498556.17,368090226.91,2017-12-31,年度报告,501203370.3999999,2017,12,-0.9967773380818932,False,-0.08930267129488462,True,0.0,True,前期平均,368090226.91,1357174286.0000002,1357174286.0000002
17,000933,62833070.58,68777905.92999999,2018-03-31,一季度报告,-36304973.57,2018,3,-1.0113908364438877,False,1.0554378596855205,True,0.7098328076310021,False,前期平均,-450814854.2150002,868578333.0,868578333.0
18,000933,310312782.29,328857944.04,2018-06-30,半年度报告,-379490063.34000015,2018,6,-1.0053733688078121,False,3.052534649539314,False,0.7619641494911986,False,去年同期,254192879.19999993,556948571.0,556948571.0
19,000933,263973668.82999995,303714265.39000016,2018-09-30,三季度报告,-429399980.56,2018,9,-1.0037808590558115,False,-13.695849810554016,True,0.7721514987322583,False,前期平均,-29967060.949999988,418670000.0,418670000.0
20,000933,-55215993.63000001,243644712.47000003,2018-12-31,年度报告,-2332195781.8700004,2018,12,-1.010773964749669,False,-1.214141970171071,True,0.0,True,前期平均,243644712.47000003,1750515000.0,1750515000.0
21,000933,36924906.5,56375945.47999999,2019-03-31,一季度报告,41615907.92,2019,3,-1.0525552007807033,False,0.8127573695738838,True,0.6972242675921589,False,前期平均,486877153.0899999,360331429.0,360331429.0
22,000933,221219225.10000005,273979430.39000005,2019-06-30,半年度报告,-249771773.92999995,2019,6,-1.0106415359871124,False,0.489234043904134,True,0.7649952671289066,False,前期平均,444185813.985,359424000.0,359424000.0
23,000933,2248300171.94,2523361850.86,2019-09-30,三季度报告,-291374418.02000004,2019,9,-1.012509598607453,False,0.6786251827430319,True,0.8738090259217994,False,前期平均,2496654682.525,2118600000.0,2118600000.0
24,000933,569293741.5300001,1345485086.2599998,2019-12-31,年度报告,-1569788674.77,2019,12,-0.9401947801188197,False,-0.8462343549846326,True,0.0,True,前期平均,1345485086.2599998,438650000.0,438650000.0
25,000933,39806282.14,39309460.29000001,2020-03-31,一季度报告,68665086.68,2020,3,-1.0894302776365865,False,0.7906354750035222,True,0.36593813601387337,False,前期平均,-994220080.1250002,318767500.0,318767500.0
