,SECURITYCODE_x,NETPROFIT_x,PARENTNETPROFIT_x,REPORTDATE_x,REPORTTIMETYPE_x,KCFJCXSYJLR,Year,Month,managesituationChangeRate,managesituationGreatChange,historyprofitextroplaterate,ifhistoryprofitextroplate,IfprofitdisStableChangeRage,IfprofitdisStable,predicttype,predict,analyst_prediction,adj_prediction
0,000989,225051966.5,224830507.59,2013-12-31,年度报告,365303016.31000006,2013,12,未知,未知,未知,未知,未知,未知,未知,未知,未知,未知
1,000989,41961642.02,41925368.11,2014-03-31,一季度报告,36339806.08,2014,3,未知,未知,未知,未知,未知,未知,未知,未知,未知,未知
2,000989,72706849.67,72592319.47,2014-06-30,半年度报告,59566722.43000002,2014,6,未知,未知,未知,未知,未知,未知,未知,未知,未知,未知
3,000989,116655474.73,116510699.98,2014-09-30,三季度报告,97968235.03000002,2014,9,未知,未知,未知,未知,未知,未知,未知,未知,未知,未知
4,000989,403316536.54,403316536.54,2014-12-31,年度报告,401381947.00000006,2014,12,0.0,True,未知,未知,未知,未知,未知,未知,未知,未知
5,000989,112175204.74,112175204.74,2015-03-31,一季度报告,106286903.37,2015,3,4.3632783577138,False,未知,未知,未知,未知,未知,未知,763084606.0,未知
6,000989,220807882.89999995,220807882.89999995,2015-06-30,半年度报告,214080848.98,2015,6,2.0953337618320713,False,未知,未知,未知,未知,未知,未知,,未知
7,000989,362783820.83,362783820.83,2015-09-30,三季度报告,351371802.58,2015,9,0.9292019257637458,False,未知,未知,未知,未知,未知,未知,未知,未知
8,000989,471031522.79,471031522.79,2015-12-31,年度报告,462638457.12000006,2015,12,-0.44199667975260454,True,未知,未知,未知,未知,未知,未知,未知,未知
9,000989,131194923.26000002,131154991.35999998,2016-03-31,一季度报告,126927195.61999996,2016,3,1.0062541184714222,False,未知,未知,未知,未知,未知,未知,未知,未知
10,000989,303714065.21,303627452.16,2016-06-30,半年度报告,277517098.80999994,2016,6,0.01922070690710859,True,未知,未知,未知,未知,未知,未知,704176931.0,未知
11,000989,463722824.03,463632846.0100001,2016-09-30,三季度报告,423258089.49,2016,9,-0.3796526923799641,True,未知,未知,未知,未知,未知,未知,,未知
12,000989,651955755.3799999,651809785.1,2016-12-31,年度报告,611800271.75,2016,12,-0.5222146382752075,True,0.49922066593466935,True,0.0,True,比例外推,651809785.1,未知,651809785.1
13,000989,133012901.7,132976115.52,2017-03-31,一季度报告,127750756.18,2017,3,0.7154014874035605,False,0.7023174668193145,True,0.08537746127103162,True,前期平均,493672962.855,未知,493672962.855
14,000989,362370176.36,362134088.63,2017-06-30,半年度报告,344650153.64,2017,6,-0.2590005130503583,True,1.0694979263950073,True,0.2065127171617621,False,平均增速,776548410.5452018,未知,776548410.5452018
15,000989,515411797.05,515186537.3,2017-09-30,三季度报告,482306436.5299999,2017,9,-0.5146843009706148,True,0.9344381168771629,True,0.32105491591873425,False,平均增速,739271168.6694177,未知,739271168.6694177
16,000989,712195788.1999999,712254464.8499999,2017-12-31,年度报告,657536899.41,2017,12,-0.6548048473491489,True,0.4912957109542484,True,0.0,True,比例外推,712254464.8499999,未知,712254464.8499999
17,000989,141958206.46,142326508.79999998,2018-03-31,一季度报告,122667099.32999998,2018,3,0.6919559202428857,False,0.09309143889672444,True,0.019243192743114507,True,前期平均,562938823.74,未知,562938823.74
18,000989,325776091.28000003,326760458.12999994,2018-06-30,半年度报告,285907577.06,2018,6,-0.3789445677879958,True,0.38171597076431857,True,0.04398677462388412,True,比例外推,636287060.0523641,未知,636287060.0523641
19,000989,333076219.24999994,334474869.63000005,2018-09-30,三季度报告,273729452.88,2018,9,-0.5633550341918779,True,0.2472054526247746,True,0.03645075530210784,True,比例外推,436605576.9802698,416070000.0,436605576.9802698
20,000989,332593833.24999994,336479563.54,2018-12-31,年度报告,259377306.53,2018,12,-0.6840026714159666,True,0.2683951137195099,True,0.0,True,比例外推,336479563.54,未知,336479563.54
21,000989,79774177.46,80531852.87999998,2019-03-31,一季度报告,65248892.96,2019,3,0.5853396017891616,False,0.0745950198976271,True,0.1813688229793996,False,前期平均,587861462.56,,587861462.56
22,000989,174977447.98999998,176451170.73,2019-06-30,半年度报告,154284814.4,2019,6,-0.30918206546173166,True,0.02181714879749587,True,0.40893608873606135,False,平均增速,159548144.61917812,未知,159548144.61917812
23,000989,186462408.98,188830349.05,2019-09-30,三季度报告,166799049.98000002,2019,9,-0.3243229222225536,True,0.3196518393300975,True,0.22844581924565577,False,平均增速,179185921.33297294,218200000.0,218200000.0
24,000989,186687969.66,192146815.99,2019-12-31,年度报告,153577965.77,2019,12,-0.323342936635762,True,0.5123799334241707,True,0.0,True,比例外推,192146815.99,397280000.0,397280000.0
25,000989,88189073.69,88932629.47,2020-03-31,一季度报告,86484976.0,2020,3,1.8211129674492044,False,0.4197632035320522,True,0.1697379891387882,False,前期平均,422180804.68500006,202930000.0,202930000.0
