,SECURITYCODE_x,NETPROFIT_x,PARENTNETPROFIT_x,REPORTDATE_x,REPORTTIMETYPE_x,KCFJCXSYJLR,Year,Month,managesituationChangeRate,managesituationGreatChange,historyprofitextroplaterate,ifhistoryprofitextroplate,IfprofitdisStableChangeRage,IfprofitdisStable,predicttype,predict,analyst_prediction,adj_prediction
0,000932,147466525.87,105780481.98,2013-12-31,年度报告,-378120088.89000016,2013,12,未知,未知,未知,未知,未知,未知,未知,未知,未知,未知
1,000932,-187490063.69,-129364166.56000002,2014-03-31,一季度报告,-184112878.62,2014,3,未知,未知,未知,未知,未知,未知,未知,未知,未知,未知
2,000932,40134675.06999999,19012127.22,2014-06-30,半年度报告,-28718428.850000005,2014,6,未知,未知,未知,未知,未知,未知,未知,未知,未知,未知
3,000932,79336095.13000001,43059567.53,2014-09-30,三季度报告,-29233476.70000001,2014,9,未知,未知,未知,未知,未知,未知,未知,未知,未知,未知
4,000932,146555205.36,74634321.83,2014-12-31,年度报告,40401841.12000001,2014,12,0.0,True,未知,未知,未知,未知,未知,未知,未知,未知
5,000932,-229260676.66,-170014328.41,2015-03-31,一季度报告,-164407564.76000002,2015,3,-1.786529819061901,False,未知,未知,未知,未知,未知,未知,180000000.0,未知
6,000932,-220087005.54,-154296263.02000004,2015-06-30,半年度报告,-174451396.21,2015,6,2.6742922575752655,False,未知,未知,未知,未知,未知,未知,84826000.0,未知
7,000932,-1514430600.4400005,-1096445955.5799997,2015-09-30,三季度报告,-1125435817.5300002,2015,9,0.8587570465670332,False,未知,未知,未知,未知,未知,未知,-1297650000.0,未知
8,000932,-4019117057.39,-2958953781.78,2015-12-31,年度报告,-2980440786.73,2015,12,0.006218274593259322,True,未知,未知,未知,未知,未知,未知,697584700.0,未知
9,000932,-1159885976.1299994,-815315960.9699999,2016-03-31,一季度报告,-813906714.88,2016,3,-1.6432264268708277,False,未知,未知,未知,未知,未知,未知,65111000.0,未知
10,000932,-1376253477.68,-945619126.38,2016-06-30,半年度报告,-913142731.64,2016,6,-1.6700374041083423,False,未知,未知,未知,未知,未知,未知,-185826000.0,未知
11,000932,-1619525889.5299995,-1096237056.57,2016-09-30,三季度报告,-1074521368.0000002,2016,9,-1.0973742380979064,False,未知,未知,未知,未知,未知,未知,93166667.0,未知
12,000932,-1552929370.7800007,-1055166753.1,2016-12-31,年度报告,-1114341057.2,2016,12,-1.0366912741689998,False,28.33891158708963,False,0.0,True,去年同期,-1055166753.1,107250000.0,107250000.0
13,000932,353808881.60999995,307563651.59,2017-03-31,一季度报告,339807355.00999993,2017,3,-1.1271388126978028,False,-4.566329529041228,True,3.299879527785264,False,盈利变化,483118673.4199997,1830000000.0,1830000000.0
14,000932,1186107359.3,956261687.05,2017-06-30,半年度报告,985117828.2100002,2017,6,-1.1071507017141855,False,-14.295756093688784,True,0.7665393526717679,False,盈利变化,210340286.80000007,2376094444.0,2376094444.0
15,000932,3311420009.26,2571013032.04,2017-09-30,三季度报告,2582463146.2000012,2017,9,-1.0910553680082238,False,-1.2570302980571433,True,0.9296697320242507,False,盈利变化,570159697.6555563,3957072000.0,3957072000.0
16,000932,5295269760.590001,4120753446.68,2017-12-31,年度报告,4093543219.76,2017,12,-1.0949602271968948,False,-0.19798343829372075,True,0.0,True,盈利变化,680794672.5533334,4047883636.0,4047883636.0
17,000932,1895634328.6,1533944643.22,2018-03-31,一季度报告,1538917135.5900002,2018,3,-0.5832028715645672,True,-1.50939025177709,True,0.4408709731909441,False,平均增速,16884107343.873934,5106870000.0,5106870000.0
18,000932,4260839463.14,3438594280.1900005,2018-06-30,半年度报告,3427953409.6,2018,6,-0.8756718565872235,True,-2.486033050928442,True,0.44656967699659783,False,平均增速,14519434913.178476,6671942500.0,6671942500.0
19,000932,7702825700.539998,5888916254.529999,2018-09-30,三季度报告,5910344299.360001,2018,9,-0.955467284289632,True,-3.1132520632356955,True,0.30668752748769046,False,平均增速,10375659711.685085,7253691666.999999,7253691666.999999
20,000932,9781758848.38,7377847681.74,2018-12-31,年度报告,6763621455.68,2018,12,-0.972151272260477,True,-2.9006552902428346,True,0.0,True,比例外推,7377847681.74,7216869231.0,7377847681.74
21,000932,1767118981.0299995,1187914358.0300002,2019-03-31,一季度报告,1102079358.0400002,2019,3,-0.9222072930178946,True,-5.703357387245464,True,0.3834155037934009,False,平均增速,12627476297.663342,5042630769.0,5042630769.0
22,000932,3306139228.170001,2237213661.7899995,2019-06-30,半年度报告,2304257415.86,2019,6,-0.9653902647246594,True,-45.816475870676115,True,0.2971396414908666,False,平均增速,9467414644.681494,4468480141.0,4468480141.0
23,000932,5162061148.23,3393579094.49,2019-09-30,三季度报告,3482549626.39,2019,9,-0.9808555286588321,True,8.105564716743913,False,0.19212806457843812,False,未知,未知,4238446667.0,未知
24,000932,6651677376.76,4391403125.89,2019-12-31,年度报告,4161835579.69,2019,12,-0.9849243343497041,True,4.227615785573487,False,0.0,True,比例外推,4391403125.89,4111336667.0,4391403125.89
25,000932,1248031231.2700002,1134215748.5799994,2020-03-31,一季度报告,1124945596.58,2020,3,-0.9165497471007603,True,0.5711612304851453,True,0.1087711704406072,False,平均增速,4430406099.077844,4810949231.0,4430406099.077844
