,SECURITYCODE_x,NETPROFIT_x,PARENTNETPROFIT_x,REPORTDATE_x,REPORTTIMETYPE_x,KCFJCXSYJLR,Year,Month,managesituationChangeRate,managesituationGreatChange,historyprofitextroplaterate,ifhistoryprofitextroplate,IfprofitdisStableChangeRage,IfprofitdisStable,predicttype,predict,analyst_prediction,adj_prediction
0,000909,35100067.27,32566231.87,2013-12-31,年度报告,9108625.94,2013,12,未知,未知,未知,未知,未知,未知,未知,未知,未知,未知
1,000909,5145290.419999999,4482786.7,2014-03-31,一季度报告,1197193.52,2014,3,未知,未知,未知,未知,未知,未知,未知,未知,未知,未知
2,000909,24712304.35,24228096.3,2014-06-30,半年度报告,16559183.14,2014,6,未知,未知,未知,未知,未知,未知,未知,未知,未知,未知
3,000909,28400817.19,25416225.19,2014-09-30,三季度报告,14601097.670000002,2014,9,未知,未知,未知,未知,未知,未知,未知,未知,未知,未知
4,000909,42319016.67999999,35120092.48,2014-12-31,年度报告,21142185.05,2014,12,0.0,True,未知,未知,未知,未知,未知,未知,未知,未知
5,000909,3199608.62,3230414.76,2015-03-31,一季度报告,2324479.0500000003,2015,3,5.821785439664261,False,未知,未知,未知,未知,未知,未知,未知,未知
6,000909,18474331.260000005,19838677.23,2015-06-30,半年度报告,16593152.21,2015,6,0.4203478062133854,True,未知,未知,未知,未知,未知,未知,未知,未知
7,000909,20795870.52,22486993.46,2015-09-30,三季度报告,13248885.859999996,2015,9,0.23588229997687618,True,未知,未知,未知,未知,未知,未知,未知,未知
8,000909,23329254.38000001,28180309.49000001,2015-12-31,年度报告,14776468.22,2015,12,-0.1705840536084968,True,未知,未知,未知,未知,未知,未知,未知,未知
9,000909,3105306.1099999994,3476731.32,2016-03-31,一季度报告,223863.48000000004,2016,3,9.970112735225722,False,未知,未知,未知,未知,未知,未知,61430000.0,未知
10,000909,13654558.609999998,16275415.04,2016-06-30,半年度报告,8047431.500000001,2016,6,0.8999370952061186,False,未知,未知,未知,未知,未知,未知,62770000.0,未知
11,000909,23776345.05,22647969.49,2016-09-30,三季度报告,6549577.950000001,2016,9,0.6878383252215019,False,未知,未知,未知,未知,未知,未知,60000000.0,未知
12,000909,37649581.29,21442957.750000004,2016-12-31,年度报告,1170578.8,2016,12,0.5045516113918763,False,0.3973254864377657,True,0.0,True,前期平均,21442957.750000004,未知,21442957.750000004
13,000909,5471122.119999999,5150628.019999999,2017-03-31,一季度报告,2377087.72,2017,3,10.303255146720467,False,0.2557594537416957,True,0.07843319319399968,True,前期平均,21349118.369999997,,21349118.369999997
14,000909,47414379.40999999,19569484.430000003,2017-06-30,半年度报告,13210682.699999996,2017,6,1.5705750198541208,False,0.36764888409884655,True,3.9477724579626563,False,前期平均,20952643.390000004,未知,20952643.390000004
15,000909,55756041.44000001,27220573.96,2017-09-30,三季度报告,16140637.35,2017,9,0.47626000531986734,True,0.03341683528962115,True,3.201029622030581,False,平均增速,19546241.814618148,未知,19546241.814618148
16,000909,69852271.36000001,30524816.17,2017-12-31,年度报告,10617850.55,2017,12,-0.06771692891780354,True,0.14700907372228358,True,0.0,True,比例外推,30524816.17,108000000.0,108000000.0
17,000909,5417183.84,5765291.96,2018-03-31,一季度报告,4305896.59,2018,3,5.415515227066438,False,0.7355102659730973,True,0.03349973911835283,True,前期平均,12464644.205,未知,12464644.205
18,000909,35927663.73,20034596.77,2018-06-30,半年度报告,17293289.22,2018,6,-0.25971682627154286,True,1.9515105938517123,True,3.794117100500962,False,平均增速,12406553.05780391,未知,12406553.05780391
19,000909,47798498.9,27856610.33,2018-09-30,三季度报告,23271261.260000005,2018,9,-0.3704706007909159,True,1.5018294795077431,True,2.924520526721663,False,平均增速,11242163.026635513,未知,11242163.026635513
20,000909,64181380.98000001,36919185.33,2018-12-31,年度报告,19476887.72,2018,12,-0.49751000809832513,True,1.2910332935190987,True,0.0,True,比例外推,36919185.33,未知,36919185.33
21,000909,64181380.98000001,36919185.33,2018-12-31,年度报告,19476887.72,2018,12,-0.49751000809832513,True,1.2910332935190987,True,0.0,True,比例外推,36919185.33,未知,36919185.33
22,000909,-4846941.040000001,-4619151.649999999,2018-12-31,年度报告,19476887.72,2018,12,-0.49751000809832513,True,1.2910332935190987,True,0.0,True,比例外推,-4619151.649999999,未知,-4619151.649999999
23,000909,-4846941.040000001,-4619151.649999999,2018-12-31,年度报告,19476887.72,2018,12,-0.49751000809832513,True,1.2910332935190987,True,0.0,True,比例外推,-4619151.649999999,未知,-4619151.649999999
24,000909,10751872.769999998,4330278.17,2019-03-31,一季度报告,494275.81,2019,3,5.479393778520908,False,0.2632727039097489,True,0.020823462387775854,True,前期平均,8924017.245000001,未知,8924017.245000001
25,000909,22133920.82,15785495.659999995,2019-06-30,半年度报告,8437038.11,2019,6,-0.023035075874108153,True,0.17662644528823276,True,3.872469330104769,False,平均增速,22271171.06646173,未知,22271171.06646173
26,000909,26627630.04,20248476.48,2019-09-30,三季度报告,10943832.69,2019,9,-0.2656659083911105,True,0.20198829708221905,True,2.825122674380312,False,平均增速,9011916.632690027,未知,9011916.632690027
27,000909,38870033.85000001,27513002.79,2019-12-31,年度报告,-29420985.04,2019,12,-0.45311137382759387,True,0.19405162604888387,True,0.0,True,比例外推,27513002.79,未知,27513002.79
28,000909,8619057.200000001,3878681.83,2020-03-31,一季度报告,-5542989.94,2020,3,2.264553815028078,False,0.9749395010571504,True,0.15951800312786663,False,前期平均,15584558.81,未知,15584558.81
