,SECURITYCODE_x,NETPROFIT_x,PARENTNETPROFIT_x,REPORTDATE_x,REPORTTIMETYPE_x,KCFJCXSYJLR,Year,Month,managesituationChangeRate,managesituationGreatChange,historyprofitextroplaterate,ifhistoryprofitextroplate,IfprofitdisStableChangeRage,IfprofitdisStable,predicttype,predict,analyst_prediction,adj_prediction
0,000921,1245793922.54,1215669602.0699995,2013-12-31,年度报告,1077904382.91,2013,12,未知,未知,未知,未知,未知,未知,未知,未知,未知,未知
1,000921,767711932.5300001,711872414.6999999,2014-09-30,三季度报告,665311052.47,2014,9,未知,未知,未知,未知,未知,未知,未知,未知,未知,未知
2,000921,711510498.4700001,672478632.35,2014-12-31,年度报告,582931287.47,2014,12,0.0,True,未知,未知,未知,未知,未知,未知,未知,未知
3,000921,231070166.86000004,224500108.92,2015-03-31,一季度报告,90810688.39,2015,3,未知,未知,未知,未知,未知,未知,未知,未知,986000000.0,未知
4,000921,514069507.4400001,505717733.9,2015-06-30,半年度报告,287527945.85,2015,6,未知,未知,未知,未知,未知,未知,未知,未知,634000000.0,未知
5,000921,448327709.3900001,459700620.95,2015-09-30,三季度报告,223886236.14,2015,9,0.6227361719316741,False,未知,未知,未知,未知,未知,未知,,未知
6,000921,544276396.75,580335074.1800001,2015-12-31,年度报告,232460457.89,2015,12,0.7509143227245397,False,未知,未知,未知,未知,未知,未知,,未知
7,000921,170172729.01000002,146360992.25,2016-03-31,一季度报告,138018516.72,2016,3,4.391409628811136,False,未知,未知,未知,未知,未知,未知,581377725.0,未知
8,000921,590627757.4200001,559279481.3100001,2016-06-30,半年度报告,519161229.89,2016,6,1.423395872561851,False,未知,未知,未知,未知,未知,未知,853700119.0,未知
9,000921,909519139.31,863374128.19,2016-09-30,三季度报告,800901281.98,2016,9,1.7787573608489238,False,未知,未知,未知,未知,未知,未知,1075843333.0,未知
10,000921,1141593773.7,1087732130.3800004,2016-12-31,年度报告,1026750580.0800002,2016,12,1.2888994084235934,False,0.4438510525928872,True,0.0,True,前期平均,1087732130.3800004,未知,1087732130.3800004
11,000921,279151554.37000006,256258113.99000004,2017-03-31,一季度报告,245995510.99,2017,3,6.320761262909477,False,未知,未知,未知,未知,未知,未知,1740416228.9999998,未知
12,000921,705367756.3499999,672098859.3,2017-06-30,半年度报告,604512199.6300001,2017,6,1.1092708679692243,False,未知,未知,未知,未知,未知,未知,1670404826.0,未知
13,000921,1788593721.12,1729646161.92,2017-09-30,三季度报告,908588928.5199996,2017,9,0.36972809993323774,True,0.4958708712389735,True,0.18145513889519715,False,平均增速,2129657868.2745075,1938954000.0,2129657868.2745075
14,000921,2071807115.2599995,2018112935.64,2017-12-31,年度报告,1033389817.12,2017,12,0.09127603114221497,True,0.8181329619624756,True,0.0,True,比例外推,2018112935.64,1898372000.0,2018112935.64
15,000921,2071807115.2599995,2018112935.64,2017-12-31,年度报告,1033389817.12,2017,12,0.09127603114221497,True,0.8181329619624756,True,0.0,True,比例外推,2018112935.64,1898372000.0,2018112935.64
16,000921,2051224253.16,1997530073.54,2017-12-31,年度报告,1033389817.12,2017,12,0.09127603114221497,True,0.8181329619624756,True,0.0,True,比例外推,1997530073.54,1898372000.0,1997530073.54
17,000921,2051224253.16,1997530073.54,2017-12-31,年度报告,1033389817.12,2017,12,0.09127603114221497,True,0.8181329619624756,True,0.0,True,比例外推,1997530073.54,1898372000.0,1997530073.54
18,000921,300955479.17,282882785.68999994,2018-03-31,一季度报告,266491076.3,2018,3,3.462786980898442,False,0.39143425213660726,True,0.13627676576987358,False,前期平均,798073702.1199999,1391994444.0,1391994444.0
19,000921,818566461.5999997,791634530.3499999,2018-06-30,半年度报告,738078515.83,2018,6,0.7661622768050703,False,0.2770335888165563,True,0.4610547911095493,False,前期平均,1017895461.4649999,1372151429.0,1372151429.0
20,000921,1181925983.0800002,1146890264.1200006,2018-09-30,三季度报告,1002024038.6800002,2018,9,-0.30347853297846983,True,1.6344557529921673,True,0.09409236988293868,True,比例外推,1291179900.5260868,1340704444.0,1291179900.5260868
21,000921,1423074375.69,1377457177.6999993,2018-12-31,年度报告,1161082586.9299998,2018,12,-0.39869213047679863,True,1.4578489513305564,True,0.0,True,比例外推,1377457177.6999993,1332417500.0,1377457177.6999993
22,000921,432701421.30000013,421644890.03,2019-03-31,一季度报告,390578128.46000016,2019,3,3.139462507796016,False,0.33959142784845914,True,0.06624045910238921,True,前期平均,1259708074.775,1616964545.0,1616964545.0
23,000921,986532193.71,959746468.35,2019-06-30,半年度报告,878846308.5600001,2019,6,0.5219215310934264,False,0.26322422092160186,True,0.06979692119994396,True,前期平均,1427979952.19,1619177143.0,1619177143.0
24,000921,1379771787.93,1348955619.78,2019-09-30,三季度报告,1097988396.07,2019,9,0.0540371735407367,True,0.12388692080757814,True,0.06072338904145391,True,比例外推,1556917358.9245734,1599484000.0,1556917358.9245734
25,000921,1950449152.52,1793669013.19,2019-12-31,年度报告,1226400481.95,2019,12,-0.1245756765622618,True,0.11428768157802392,True,0.0,True,比例外推,1793669013.19,1478000000.0,1478000000.0
26,000921,88966145.78000002,43550392.56999999,2020-03-31,一季度报告,-37404936.92,2020,3,1.879107535161682,False,0.4917985691692673,True,0.05646124642477296,True,前期平均,884543300.95,1412002500.0,1412002500.0
