,SECURITYCODE_x,NETPROFIT_x,PARENTNETPROFIT_x,REPORTDATE_x,REPORTTIMETYPE_x,KCFJCXSYJLR,Year,Month,managesituationChangeRate,managesituationGreatChange,historyprofitextroplaterate,ifhistoryprofitextroplate,IfprofitdisStableChangeRage,IfprofitdisStable,predicttype,predict,analyst_prediction,adj_prediction
0,000975,561845335.35,466253918.6400001,2013-12-31,年度报告,202061842.11,2013,12,未知,未知,未知,未知,未知,未知,未知,未知,未知,未知
1,000975,60423417.02999999,45794220.8,2014-03-31,一季度报告,37802809.97000001,2014,3,未知,未知,未知,未知,未知,未知,未知,未知,未知,未知
2,000975,102793009.69,77055845.32999998,2014-06-30,半年度报告,65201997.47000001,2014,6,未知,未知,未知,未知,未知,未知,未知,未知,未知,未知
3,000975,231758404.57,177433932.43,2014-09-30,三季度报告,155958976.59,2014,9,未知,未知,未知,未知,未知,未知,未知,未知,未知,未知
4,000975,352800632.52,270499800.79,2014-12-31,年度报告,233162107.78,2014,12,0.0,True,未知,未知,未知,未知,未知,未知,未知,未知
5,000975,35127666.349999994,26447518.3,2015-03-31,一季度报告,21136004.47,2015,3,8.298470079423778,False,未知,未知,未知,未知,未知,未知,313215000.0,未知
6,000975,106226499.76000002,80718787.69000001,2015-06-30,半年度报告,61037766.78,2015,6,4.465793219250958,False,未知,未知,未知,未知,未知,未知,246046667.00000003,未知
7,000975,219003569.25,166584464.81,2015-09-30,三季度报告,139985566.42,2015,9,1.424271673739025,False,未知,未知,未知,未知,未知,未知,213000000.0,未知
8,000975,324696562.18000007,247913387.52,2015-12-31,年度报告,221011925.43,2015,12,0.5925292744993859,False,未知,未知,未知,未知,未知,未知,213000000.0,未知
9,000975,30071501.37,20668712.230000004,2016-03-31,一季度报告,16115659.39,2016,3,14.994382597237351,False,未知,未知,未知,未知,未知,未知,294518170.0,未知
10,000975,120234862.07000002,88558439.71000002,2016-06-30,半年度报告,80457754.41,2016,6,4.289125939566777,False,未知,未知,未知,未知,未知,未知,,未知
11,000975,217803689.43,163922715.91000003,2016-09-30,三季度报告,151627188.34,2016,9,1.5654620026244161,False,未知,未知,未知,未知,未知,未知,286000000.0,未知
12,000975,294876090.53000003,219643584.57,2016-12-31,年度报告,231653775.42,2016,12,0.7303704467266063,False,0.2900060272803834,True,0.0,True,前期平均,219643584.57,327253333.0,327253333.0
13,000975,23469207.76,9384039.230000002,2017-03-31,一季度报告,4653416.83,2017,3,17.683647631591466,False,0.37056702433382693,True,0.053020433110000764,True,前期平均,207001648.61499998,324075855.0,324075855.0
14,000975,151795329.39999998,105929377.59,2017-06-30,半年度报告,95617746.51000002,2017,6,3.6728987389938283,False,0.15046545067853245,True,0.04627384825319464,True,前期平均,269896512.07,315234000.0,315234000.0
15,000975,316342392.04999983,238116700.39000005,2017-09-30,三季度报告,223780116.95,2017,9,1.5795951244920103,False,0.03361994986305471,True,0.018886460471888578,True,前期平均,317231445.49000007,308000000.0,317231445.49000007
16,000975,508792073.15,336703028.44,2017-12-31,年度报告,308661188.28000003,2017,12,0.9053607715029006,False,0.12951347153378845,True,0.0,True,前期平均,336703028.44,420050000.0,420050000.0
17,000975,121932155.92,116401220.64,2018-03-31,一季度报告,110422144.74,2018,3,22.939680499466505,False,0.2800764616876922,True,0.04501615774931174,True,前期平均,324108239.135,835627500.0,835627500.0
18,000975,304203884.12,272680627.96000004,2018-06-30,半年度报告,260575011.4099999,2018,6,2.7013348010824902,False,0.34058479710061673,True,0.03622722341250123,True,前期平均,428265717.79,773485000.0,773485000.0
19,000975,562412994.21,479433822.42,2018-09-30,三季度报告,456503502.44000006,2018,9,0.7760671647864285,False,0.4484301062485257,True,0.05402598307708173,True,前期平均,559960295.465,684985000.0,684985000.0
20,000975,770404317.7099997,662572790.7699999,2018-12-31,年度报告,633078699.06,2018,12,0.10427297318438981,True,0.6423968066523023,True,0.0,True,比例外推,662572790.7699999,678277143.0000001,662572790.7699999
21,000975,183242467.74,170312277.76000002,2019-03-31,一季度报告,167192316.87999997,2019,3,3.6078520560124283,False,3.5547456468662575,False,0.08806592080491975,True,去年同期,692968832.0799999,900478327.0,900478327.0
22,000975,481753174.0,438065203.36,2019-06-30,半年度报告,436930608.70000017,2019,6,0.8469367574819249,False,1.236545013449716,True,0.05536607564668827,True,前期平均,620184934.75,1030153374.0,1030153374.0
23,000975,728490144.6899999,658351244.96,2019-09-30,三季度报告,652162867.69,2019,9,-0.0010093274263646467,True,1.1058396334264173,True,0.045667607907850405,True,比例外推,937570362.8281896,979120000.0,937570362.8281896
24,000975,955451417.5500004,864165428.8499999,2019-12-31,年度报告,852934275.1500001,2019,12,-0.27071367276332775,True,0.9172199485477064,True,0.0,True,比例外推,864165428.8499999,968767500.0,968767500.0
25,000975,295644474.46000004,274289760.46,2020-03-31,一季度报告,268021966.65,2020,3,2.0661305879551564,False,1.5205054904888082,True,0.1134295939522789,False,前期平均,687621923.3449999,1222687916.0,1222687916.0
