,SECURITYCODE_x,NETPROFIT_x,PARENTNETPROFIT_x,REPORTDATE_x,REPORTTIMETYPE_x,KCFJCXSYJLR,Year,Month,managesituationChangeRate,managesituationGreatChange,historyprofitextroplaterate,ifhistoryprofitextroplate,IfprofitdisStableChangeRage,IfprofitdisStable,predicttype,predict,analyst_prediction,adj_prediction
0,002033,197209216.36,147804953.98000005,2013-12-31,年度报告,152802812.12999997,2013,12,未知,未知,未知,未知,未知,未知,未知,未知,未知,未知
1,002033,45766840.73,29802433.14,2014-03-31,一季度报告,29898807.95000001,2014,3,未知,未知,未知,未知,未知,未知,未知,未知,未知,未知
2,002033,118785752.12999998,83515850.71000001,2014-06-30,半年度报告,84456083.00999999,2014,6,未知,未知,未知,未知,未知,未知,未知,未知,未知,未知
3,002033,218742728.83,162588680.69,2014-09-30,三季度报告,163559920.17,2014,9,未知,未知,未知,未知,未知,未知,未知,未知,未知,未知
4,002033,240338091.49,181066548.56,2014-12-31,年度报告,178642715.20000002,2014,12,0.0,True,未知,未知,未知,未知,未知,未知,未知,未知
5,002033,56279717.62000001,42092328.19999999,2015-03-31,一季度报告,40491879.67,2015,3,3.3089978074612896,False,未知,未知,未知,未知,未知,未知,215081575.0,未知
6,002033,139300998.73999998,108904332.53000002,2015-06-30,半年度报告,107485406.25,2015,6,0.6602093502272295,False,未知,未知,未知,未知,未知,未知,223942222.0,未知
7,002033,238642969.91,193789500.04,2015-09-30,三季度报告,193122525.44,2015,9,-0.09844218633084334,True,未知,未知,未知,未知,未知,未知,224625000.0,未知
8,002033,248582855.38,197250254.78000003,2015-12-31,年度报告,199184677.13,2015,12,-0.1794508513511871,True,未知,未知,未知,未知,未知,未知,223107143.0,未知
9,002033,51290720.39,41066263.01000001,2016-03-31,一季度报告,40993182.24,2016,3,2.5040903668272523,False,未知,未知,未知,未知,未知,未知,231813835.0,未知
10,002033,137786542.01999998,116075812.82,2016-06-30,半年度报告,116155802.65999998,2016,6,0.415705688715725,True,未知,未知,未知,未知,未知,未知,222346470.99999997,未知
11,002033,243758296.44,209411576.68000004,2016-09-30,三季度报告,210189739.22,2016,9,-0.17362235127071204,True,未知,未知,未知,未知,未知,未知,221554245.0,未知
12,002033,255112818.87000003,223823560.63,2016-12-31,年度报告,218505874.53,2016,12,-0.2066660588537648,True,0.13625590156856443,True,0.0,True,比例外推,223823560.63,221596876.0,223823560.63
13,002033,48390528.95000002,46883999.18000001,2017-03-31,一季度报告,46913744.95000001,2017,3,2.8449297428555775,False,0.005241552862228324,True,0.018720625941676727,True,前期平均,200602351.535,246774217.0,246774217.0
14,002033,109543582.11999996,99930309.73,2017-06-30,半年度报告,99800095.08,2017,6,0.4312661706204567,True,0.06775370340032683,True,0.041895808288200165,True,比例外推,194044397.75042287,213743048.00000003,194044397.75042287
15,002033,197662802.45,183644275.6,2017-09-30,三季度报告,183813887.08,2017,9,-0.19096408516071914,True,0.06587633636776176,True,0.03345532416655972,True,比例外推,193517397.90962577,207963750.0,193517397.90962577
16,002033,216882875.27,204212170.89,2017-12-31,年度报告,206462581.70999995,2017,12,-0.2269725322564306,True,0.04357491943511433,True,0.0,True,比例外推,204212170.89,205967778.0,204212170.89
17,002033,47616740.35999999,46123222.2,2018-03-31,一季度报告,44214754.3,2018,3,3.0753680655933384,False,0.1003006059062154,True,0.021185953109155026,True,前期平均,214225967.075,234661667.00000003,214225967.075
18,002033,125049373.88,118891398.15000002,2018-06-30,半年度报告,114181177.3,2018,6,0.8002808794765026,False,0.20932148865631323,True,0.03481867900851843,True,前期平均,215916069.52500004,241630769.0,241630769.0
19,002033,214481789.3,202903194.82,2018-09-30,三季度报告,196649878.03000003,2018,9,-0.0022947468333841476,True,0.1805046286649327,True,0.05030121683287825,True,比例外推,215321326.44700372,224050000.0,215321326.44700372
20,002033,200507004.74,191631395.67,2018-12-31,年度报告,191053362.5,2018,12,-0.09071098345366378,True,0.13883367931266283,True,0.0,True,比例外推,191631395.67,219333332.99999997,219333332.99999997
21,002033,39153909.79,35318454.33000001,2019-03-31,一季度报告,33650120.13,2019,3,3.141594213905155,False,0.04461991246547546,True,0.027813011530943565,True,前期平均,203849218.855,150550000.0,150550000.0
22,002033,113592323.93,98045489.95,2019-06-30,半年度报告,94792394.25,2019,6,0.577050809940449,False,0.011194041282382971,True,0.060102746128909645,True,前期平均,202551769.2,158200000.0,158200000.0
23,002033,220676680.2800001,184773658.66,2019-09-30,三季度报告,179812097.93,2019,9,-0.08053165257699571,True,0.028221397484908886,True,0.0702104748122584,True,比例外推,192166047.7556142,178000000.0,192166047.7556142
24,002033,232775699.71000004,203483569.61999995,2019-12-31,年度报告,203275403.05000004,2019,12,-0.016447247737186435,True,0.15038629703885803,True,0.0,True,比例外推,203483569.61999995,199000000.0,203483569.61999995
25,002033,-23334595.660000004,-21459181.689999994,2020-03-31,一季度报告,-22511527.57,2020,3,4.036769441869831,False,0.18435530827202112,True,0.042524489720901615,True,盈利变化,128601372.68666661,81333333.0,81333333.0
