,SECURITYCODE_x,NETPROFIT_x,PARENTNETPROFIT_x,REPORTDATE_x,REPORTTIMETYPE_x,KCFJCXSYJLR,Year,Month,managesituationChangeRate,managesituationGreatChange,historyprofitextroplaterate,ifhistoryprofitextroplate,IfprofitdisStableChangeRage,IfprofitdisStable,predicttype,predict,analyst_prediction,adj_prediction
0,002009,14295385.64,13536790.97,2014-03-31,一季度报告,8905929.94,2014,3,未知,未知,未知,未知,未知,未知,未知,未知,未知,未知
1,002009,49190672.84,42375420.35,2014-06-30,半年度报告,35590524.8,2014,6,未知,未知,未知,未知,未知,未知,未知,未知,未知,未知
2,002009,89190497.10000001,81953555.72,2014-09-30,三季度报告,48835494.26,2014,9,未知,未知,未知,未知,未知,未知,未知,未知,未知,未知
3,002009,132914103.81000002,130009280.65999998,2014-12-31,年度报告,42190318.93,2014,12,未知,未知,未知,未知,未知,未知,未知,未知,未知,未知
4,002009,26552149.76,24353936.26,2015-03-31,一季度报告,10908539.4,2015,3,0.0,True,未知,未知,未知,未知,未知,未知,197717731.0,未知
5,002009,62002183.35000002,53933243.49999999,2015-06-30,半年度报告,30434862.939999994,2015,6,-0.7093882881720713,True,未知,未知,未知,未知,未知,未知,162387500.0,未知
6,002009,86945326.28999999,70638194.68,2015-09-30,三季度报告,58773506.79000001,2015,9,-0.8397207538380229,True,未知,未知,未知,未知,未知,未知,120966000.0,未知
7,002009,120391189.64,98646531.76,2015-12-31,年度报告,44666737.97000001,2015,12,-0.8924464354780951,True,未知,未知,未知,未知,未知,未知,121206000.0,未知
8,002009,23699597.31000001,20588590.090000004,2016-03-31,一季度报告,12726452.359999998,2016,3,-0.4616109893468754,True,未知,未知,未知,未知,未知,未知,144280000.0,未知
9,002009,54726569.31,48639582.59000001,2016-06-30,半年度报告,25757165.89,2016,6,-0.7694373832078931,True,未知,未知,未知,未知,未知,未知,145986767.0,未知
10,002009,70677301.38,65666371.39000002,2016-09-30,三季度报告,35120337.43000001,2016,9,-0.8355818966931154,True,未知,未知,未知,未知,未知,未知,117251667.0,未知
11,002009,99031013.85,103940147.34,2016-12-31,年度报告,63228827.55999999,2016,12,-0.8812588721587783,True,未知,未知,未知,未知,未知,未知,102127500.0,未知
12,002009,27653394.870000005,27496639.74000001,2017-03-31,一季度报告,23766276.070000004,2017,3,-0.39680892240442905,True,0.16039301161851768,True,0.02535858490180995,True,比例外推,112320570.85902311,135170000.0,135170000.0
13,002009,62624760.49,52062333.71,2017-06-30,半年度报告,44515616.59,2017,6,-0.7387852770557672,True,0.015645947317220563,True,0.2367395887621624,False,平均增速,107621815.56243488,151162000.0,151162000.0
14,002009,92608094.88,79550371.33,2017-09-30,三季度报告,68102666.94000001,2017,9,-0.7977372457510771,True,0.19746818086510096,True,0.45414368453285836,False,平均增速,124190248.87360772,131905000.0,124190248.87360772
15,002009,93533563.58,84766398.19000001,2017-12-31,年度报告,50907653.27000002,2017,12,-0.8556473867706444,True,0.21808966167895938,True,0.0,True,比例外推,84766398.19000001,138375000.0,138375000.0
16,002009,75770832.17,71347495.62,2018-03-31,一季度报告,62389637.42000001,2018,3,-0.4830513321346864,True,0.10059436665870333,True,0.16273491613097485,False,平均增速,122040587.4864514,281990000.0,281990000.0
17,002009,120692734.75999998,115721032.30000004,2018-06-30,半年度报告,103887529.51,2018,6,-0.7717294959989076,True,0.07299631089881276,True,0.24702882309049512,False,平均增速,126728385.65464759,,126728385.65464759
18,002009,142258282.76999998,137143745.42999998,2018-09-30,三季度报告,121159004.88,2018,9,-0.8456356794886698,True,0.17506091922138303,True,0.51423168209818,False,平均增速,112301979.54975387,197000000.0,197000000.0
19,002009,140938458.66,138449136.52999997,2018-12-31,年度报告,117185341.02,2018,12,-0.8471630386692897,True,0.14745579898195932,True,0.0,True,比例外推,138449136.52999997,185000000.0,185000000.0
20,002009,42818371.18,37064108.76000001,2019-03-31,一季度报告,30806196.559999995,2019,3,-0.8113339232182806,True,1.9509802234857812,True,0.19889997111303578,False,平均增速,93155670.55789086,232586667.00000003,232586667.00000003
21,002009,63372945.55,59609740.30000002,2019-06-30,半年度报告,29763811.19,2019,6,-0.881555541280702,True,1.0569470318861263,True,0.31541109321344285,False,平均增速,71843906.96590765,,71843906.96590765
22,002009,63550821.12000001,72439126.03000002,2019-09-30,三季度报告,45331794.16,2019,9,-0.899511048765347,True,0.7424495518690667,True,0.42026053030343025,False,平均增速,68609153.79889968,未知,68609153.79889968
23,002009,58868058.11999999,71987431.74999999,2019-12-31,年度报告,20260392.36,2019,12,-0.8985700157649219,True,0.463804615999359,True,0.0,True,比例外推,71987431.74999999,236500000.0,236500000.0
24,002009,-6355526.979999999,-6107344.590000003,2020-03-31,一季度报告,-14217650.150000002,2020,3,-0.6661389668489487,True,0.17198566708282556,True,0.6805915067413338,False,平均增速,-10198519.336653236,154800000.0,154800000.0
