,SECURITYCODE_x,NETPROFIT_x,PARENTNETPROFIT_x,REPORTDATE_x,REPORTTIMETYPE_x,KCFJCXSYJLR,Year,Month,managesituationChangeRate,managesituationGreatChange,historyprofitextroplaterate,ifhistoryprofitextroplate,IfprofitdisStableChangeRage,IfprofitdisStable,predicttype,predict,analyst_prediction,adj_prediction
0,002044,-45169482.29,-6234721.8999999985,2013-12-31,年度报告,92330087.62,2013,12,未知,未知,未知,未知,未知,未知,未知,未知,未知,未知
1,002044,4533167.63,4052304.9900000007,2014-03-31,一季度报告,4198681.38,2014,3,未知,未知,未知,未知,未知,未知,未知,未知,未知,未知
2,002044,11225828.63,11281332.339999998,2014-06-30,半年度报告,11146526.47,2014,6,未知,未知,未知,未知,未知,未知,未知,未知,未知,未知
3,002044,4811671.39,9164109.680000003,2014-09-30,三季度报告,21824396.78,2014,9,未知,未知,未知,未知,未知,未知,未知,未知,未知,未知
4,002044,145622497.30999997,140110161.65,2014-12-31,年度报告,139038597.59000003,2014,12,-0.0,False,未知,未知,未知,未知,未知,未知,未知,未知
5,002044,-106449681.54,-99528506.16,2015-03-31,一季度报告,-99523818.6,2015,3,-10.964220601742893,False,未知,未知,未知,未知,未知,未知,248920000.0,未知
6,002044,-26070741.76,-25195474.57,2015-06-30,半年度报告,-26227856.620000005,2015,6,-5.023710300484072,False,未知,未知,未知,未知,未知,未知,261975000.0,未知
7,002044,85506626.89999999,78525430.80999999,2015-09-30,三季度报告,44695959.03,2015,9,-10.387482774462702,False,未知,未知,未知,未知,未知,未知,261975000.0,未知
8,002044,286160233.19000006,260273434.15000004,2015-12-31,年度报告,223144844.79,2015,12,-1.3101820331637601,False,未知,未知,未知,未知,未知,未知,未知,未知
9,002044,-139176602.42000002,-129068576.48999998,2016-03-31,一季度报告,-128947999.46,2016,3,-0.5756729222996603,False,未知,未知,未知,未知,未知,未知,403263333.0,未知
10,002044,-21860446.84,-22452081.77,2016-06-30,半年度报告,-30164724.9,2016,6,0.7325737298085989,False,未知,未知,未知,未知,未知,未知,450685000.0,未知
11,002044,112222387.96,95376111.58,2016-09-30,三季度报告,84942264.80999997,2016,9,-1.528257094538716,False,未知,未知,未知,未知,未知,未知,500697175.0,未知
12,002044,495888806.0899999,451700993.64,2016-12-31,年度报告,310681882.94000006,2016,12,-1.1578468181496382,False,4.697394610465921,False,0.0,True,去年同期,451700993.64,515739675.0,515739675.0
13,002044,-152672757.05,-141544143.07000002,2017-03-31,一季度报告,-106754071.09000002,2017,3,-0.675452040755458,False,-1.7311884420007433,True,0.3071499024899995,False,前期平均,87210146.72999999,527874076.0,527874076.0
14,002044,22668506.45,15204091.969999995,2017-06-30,半年度报告,16006913.66,2017,6,1.0662652790495293,False,-1.945176795386205,True,0.12498883825652629,False,盈利变化,482482086.0133333,551311408.0,551311408.0
15,002044,275322104.8,246087137.12,2017-09-30,三季度报告,178375357.85,2017,9,-1.4024997427973107,False,1.485042125122174,True,0.06318172032102962,True,前期平均,393918680.40500003,622822308.0,622822308.0
16,002044,633848220.5,583952692.1600001,2017-12-31,年度报告,532276068.87,2017,12,-1.0910879248236187,False,1.2969367279500306,True,0.0,True,前期平均,583952692.1600001,622822308.0,583952692.1600001
17,002044,-124188606.34999998,-111182583.97,2018-03-31,一季度报告,-98625864.71999998,2018,3,-0.7041418314388134,False,-0.24313045484059514,True,0.15331028516326123,False,前期平均,269966688.9250001,936857500.0,936857500.0
18,002044,203969904.54,158801700.78000003,2018-06-30,半年度报告,90128021.22,2018,6,-2.992609543536998,False,-1.945877083882706,True,0.0915915058914432,True,前期平均,453911355.40500003,886970000.0,886970000.0
19,002044,499085757.3900001,413873093.0099999,2018-09-30,三季度报告,343008733.78000003,2018,9,-1.164060500419362,False,1.7848427302886125,True,0.06930787420292048,True,前期平均,615967344.9549999,870098750.0,870098750.0
20,002044,972786566.67,820648327.5400001,2018-12-31,年度报告,710855388.4499999,2018,12,-1.0712623003885202,False,0.6209935404653337,True,0.0,True,前期平均,820648327.5400001,866328235.0,820648327.5400001
21,002044,-135408814.29,-118358904.01999997,2019-03-31,一季度报告,-270514741.76,2019,3,-0.6362832016755294,False,-0.14895405920693372,True,0.16359756398579617,False,前期平均,420971107.1600001,1138940652.0,1138940652.0
22,002044,44959997.24,16837785.999999996,2019-06-30,半年度报告,-136306020.08,2019,6,-1.2214517008863037,False,503.8387569822977,False,0.11701489971750238,False,去年同期,637565153.2299999,1014896429.0000001,1014896429.0000001
23,002044,450042158.04,391288044.76000017,2019-09-30,三季度报告,240856634.85,2019,9,-1.0905044506303216,False,1.5756307557649945,True,0.11884502273790082,False,前期平均,681108209.3350003,985806667.0,985806667.0
24,002044,-713736929.5200001,-866474165.8199999,2019-12-31,年度报告,-868972664.0300001,2019,12,-1.0464330859796123,False,0.7221469134392462,True,0.0,True,盈利变化,294038976.7133334,961540000.0,961540000.0
25,002044,-639811870.8800001,-598512877.0100001,2020-03-31,一季度报告,-598736112.8800001,2020,3,-0.6664214030169248,False,-0.02182946275269261,True,0.3206373866222785,False,前期平均,125742819.55499983,613555000.0,613555000.0
