,SECURITYCODE_x,NETPROFIT_x,PARENTNETPROFIT_x,REPORTDATE_x,REPORTTIMETYPE_x,KCFJCXSYJLR,Year,Month,managesituationChangeRate,managesituationGreatChange,historyprofitextroplaterate,ifhistoryprofitextroplate,IfprofitdisStableChangeRage,IfprofitdisStable,predicttype,predict,analyst_prediction,adj_prediction
0,002036,21051557.62,16938170.509999998,2013-12-31,年度报告,123347361.07000004,2013,12,未知,未知,未知,未知,未知,未知,未知,未知,未知,未知
1,002036,1493221.4500000004,1467784.0,2014-03-31,一季度报告,661619.49,2014,3,未知,未知,未知,未知,未知,未知,未知,未知,未知,未知
2,002036,7831844.069999997,7141747.07,2014-06-30,半年度报告,395887.08,2014,6,未知,未知,未知,未知,未知,未知,未知,未知,未知,未知
3,002036,14581593.340000002,10953059.63,2014-09-30,三季度报告,4041245.07,2014,9,未知,未知,未知,未知,未知,未知,未知,未知,未知,未知
4,002036,140301219.99,140322468.94,2014-12-31,年度报告,134890061.59,2014,12,0.0,True,未知,未知,未知,未知,未知,未知,未知,未知
5,002036,8211929.3199999975,6873673.869999999,2015-03-31,一季度报告,2973449.72,2015,3,13.098081446660169,False,未知,未知,未知,未知,未知,未知,未知,未知
6,002036,67374204.05,64684141.44000001,2015-06-30,半年度报告,57831972.12999999,2015,6,1.6879439161254919,False,未知,未知,未知,未知,未知,未知,未知,未知
7,002036,82705153.87000002,79598946.14999999,2015-09-30,三季度报告,-30871909.82,2015,9,0.44370763394228624,True,未知,未知,未知,未知,未知,未知,198590000.0,未知
8,002036,170239005.77999997,162504743.67,2015-12-31,年度报告,143871388.14000005,2015,12,-0.8499545647464758,True,未知,未知,未知,未知,未知,未知,198590000.0,未知
9,002036,10796604.05,9357668.52,2016-03-31,一季度报告,4260603.550000002,2016,3,1.5635337080568064,False,未知,未知,未知,未知,未知,未知,256320000.0,未知
10,002036,74768925.86000001,69242773.48,2016-06-30,半年度报告,56118392.75999999,2016,6,-0.6875427633345079,True,未知,未知,未知,未知,未知,未知,253015000.0,未知
11,002036,140004725.32,132891204.78000002,2016-09-30,三季度报告,113338601.85999995,2016,9,-0.7454625662979859,True,未知,未知,未知,未知,未知,未知,260295000.0,未知
12,002036,228975407.48,210479451.51,2016-12-31,年度报告,176032732.49999997,2016,12,-0.8763411621000363,True,1.110146578219788,True,0.0,True,比例外推,210479451.51,261993332.99999997,261993332.99999997
13,002036,12495689.18,11030308.7,2017-03-31,一季度报告,9168734.840000002,2017,3,0.9498314027733563,False,1.224922477943123,True,0.011687043236201552,True,前期平均,148593498.96,342216667.0,342216667.0
14,002036,89570961.4,83045858.72999999,2017-06-30,半年度报告,80460779.67,2017,6,-0.7184450976409947,True,0.9883753429165033,True,0.23829845767551924,False,平均增速,237665259.34802255,326946000.0,326946000.0
15,002036,161100865.37,150157525.78,2017-09-30,三季度报告,146543712.89999998,2017,9,-0.849636806387186,True,1.8781869953528267,True,0.490773178891866,False,平均增速,226582771.29831296,317831429.0,317831429.0
16,002036,296070503.4,283698019.58000004,2017-12-31,年度报告,254610127.58,2017,12,-0.9080619274721073,True,0.47469080317851925,True,0.0,True,比例外推,283698019.58000004,313495000.0,283698019.58000004
17,002036,22632165.20000001,22206784.45,2018-03-31,一季度报告,11100307.19,2018,3,0.684705606609847,False,0.3147452185575958,True,0.009050290702102785,True,前期平均,178541818.135,442258333.0,442258333.0
18,002036,94161863.2,96426226.85,2018-06-30,半年度报告,81461482.72000001,2018,6,-0.7649734100096418,True,0.2602925158143507,True,0.05637634011940279,True,比例外推,250679423.4435198,371590000.0,371590000.0
19,002036,181443276.3,183362618.06,2018-09-30,三季度报告,148915678.62999997,2018,9,-0.8693268495383253,True,0.4467329959131303,True,0.5495235396340904,False,平均增速,310402628.77990115,346266667.0,346266667.0
20,002036,241662542.16,245685945.67,2018-12-31,年度报告,142535001.44,2018,12,-0.9288968087727445,True,0.4832656014710343,True,0.0,True,比例外推,245685945.67,346266667.0,346266667.0
21,002036,34289063.59,40516299.90000001,2019-03-31,一季度报告,18754287.68,2019,3,-0.06983899092429781,True,0.9433179014636688,True,0.03184705803490447,True,比例外推,429191951.1374666,383000000.0,383000000.0
22,002036,110978750.63,122425896.12,2019-06-30,半年度报告,90398509.1,2019,6,-0.7764322316425871,True,0.14594046241528366,True,0.16940915132125484,False,平均增速,186944165.63055757,309000000.0,309000000.0
23,002036,207441023.85,224473829.93000007,2019-09-30,三季度报告,188417937.71,2019,9,-0.8839771963487192,True,0.20518038794439372,True,0.29004019276348203,False,平均增速,217236980.62387124,326400000.0,326400000.0
24,002036,252012306.49000004,267330115.33,2019-12-31,年度报告,149483277.32999998,2019,12,-0.9128886196766804,True,0.07946129223266221,True,0.0,True,比例外推,267330115.33,320861667.0,320861667.0
25,002036,23368304.70000001,24146991.77,2020-03-31,一季度报告,15204920.69,2020,3,-0.38605621104976934,True,0.9522435511758686,True,0.04567763461000787,True,比例外推,199520190.69837692,430483333.0,430483333.0
