,SECURITYCODE_x,NETPROFIT_x,PARENTNETPROFIT_x,REPORTDATE_x,REPORTTIMETYPE_x,KCFJCXSYJLR,Year,Month,managesituationChangeRate,managesituationGreatChange,historyprofitextroplaterate,ifhistoryprofitextroplate,IfprofitdisStableChangeRage,IfprofitdisStable,predicttype,predict,analyst_prediction,adj_prediction
0,002003,211595266.48999995,209268558.69000003,2013-12-31,年度报告,209470514.72,2013,12,未知,未知,未知,未知,未知,未知,未知,未知,未知,未知
1,002003,9228274.13,8958849.950000001,2014-03-31,一季度报告,9220849.09,2014,3,未知,未知,未知,未知,未知,未知,未知,未知,未知,未知
2,002003,104798126.51000004,104768046.86000004,2014-06-30,半年度报告,105461556.72,2014,6,未知,未知,未知,未知,未知,未知,未知,未知,未知,未知
3,002003,193748915.43,193348720.84,2014-09-30,三季度报告,192189693.47,2014,9,未知,未知,未知,未知,未知,未知,未知,未知,未知,未知
4,002003,234379900.73,236003955.50000003,2014-12-31,年度报告,233624629.64,2014,12,0.0,True,未知,未知,未知,未知,未知,未知,未知,未知
5,002003,6157265.060000001,6394862.590000003,2015-03-31,一季度报告,6597637.42,2015,3,21.92901830929896,False,未知,未知,未知,未知,未知,未知,269093333.0,未知
6,002003,114284306.17,113594118.67,2015-06-30,半年度报告,112706504.0,2015,6,1.0190748970098156,False,未知,未知,未知,未知,未知,未知,270900000.0,未知
7,002003,201834074.07,200873542.09000003,2015-09-30,三季度报告,200185126.97,2015,9,0.09211071463493013,True,未知,未知,未知,未知,未知,未知,263200000.0,未知
8,002003,248443478.72,247581770.05000004,2015-12-31,年度报告,240153782.41,2015,12,-0.09721240673383248,True,未知,未知,未知,未知,未知,未知,263560000.0,未知
9,002003,7840550.85,7356729.96,2016-03-31,一季度报告,8996897.889999999,2016,3,33.36513848731403,False,未知,未知,未知,未知,未知,未知,281525000.0,未知
10,002003,136746955.59999996,134043593.73,2016-06-30,半年度报告,133125716.0,2016,6,0.8514813939128975,False,未知,未知,未知,未知,未知,未知,287700000.0,未知
11,002003,239968315.53,236049787.4,2016-09-30,三季度报告,234452715.09,2016,9,0.048362460426848365,True,未知,未知,未知,未知,未知,未知,289100000.0,未知
12,002003,313511802.78000003,295475427.83,2016-12-31,年度报告,294331614.39000005,2016,12,-0.14831627869584216,True,0.11415835221804012,True,0.0,True,比例外推,295475427.83,289100000.0,295475427.83
13,002003,9210987.82,9362281.79,2017-03-31,一季度报告,9579847.04,2017,3,25.987295986990503,False,0.01921040961581002,True,0.006965844963321678,True,前期平均,238342244.56,352806667.0,352806667.0
14,002003,168646480.14000002,163145097.37999997,2017-06-30,半年度报告,160232087.32999998,2017,6,0.5473490108908867,False,0.2483607556041489,True,0.011635498651676901,True,前期平均,290950273.04499996,351116667.0,351116667.0
15,002003,287494924.7,279516170.8600001,2017-09-30,三季度报告,273427069.0400001,2017,9,-0.11823664710624246,True,0.2132387989347555,True,0.02103140262803771,True,比例外推,340519177.94158286,350850000.0,340519177.94158286
16,002003,408841452.07000005,364559003.88,2017-12-31,年度报告,359544507.38999987,2017,12,-0.3250803809817577,True,0.29866040512425746,True,0.0,True,比例外推,364559003.88,350850000.0,364559003.88
17,002003,14789156.409999995,16320030.180000005,2018-03-31,一季度报告,13830227.79,2018,3,21.972049320330115,False,0.3160607167893523,True,0.002339160062481388,True,前期平均,275765460.925,432000000.0,432000000.0
18,002003,179813222.38999996,180741053.36,2018-06-30,半年度报告,175603953.35000002,2018,6,0.25466755258898066,True,0.3436293069706784,True,0.013556015783671882,True,比例外推,390441601.8379577,420000000.0,390441601.8379577
19,002003,301226633.53,302429913.04,2018-09-30,三季度报告,297083668.15000004,2018,9,-0.2640034716758951,True,0.3014638737481377,True,0.036699856560572064,True,比例外推,378159124.7378717,390000000.0,378159124.7378717
20,002003,326892295.61999995,310285599.53000003,2018-12-31,年度报告,305368694.05000013,2018,12,-0.4824515336723451,True,0.4550675668665285,True,0.0,True,比例外推,310285599.53000003,417300000.0,417300000.0
21,002003,18062700.630000006,19318920.540000007,2019-03-31,一季度报告,17305743.700000007,2019,3,13.307460183930804,False,0.7346418638477032,True,0.011122969273472304,True,前期平均,336968608.965,367000000.0,336968608.965
22,002003,166464269.16,165985064.26,2019-06-30,半年度报告,156895763.44,2019,6,0.17675031723232998,True,0.17758406924689685,True,0.08405321727752696,True,比例外推,328631108.17885387,328000000.0,328631108.17885387
23,002003,281205118.87,280076737.03000003,2019-09-30,三季度报告,270865929.8,2019,9,-0.2975545886817256,True,0.1421710957474507,True,0.12956532374755536,False,平均增速,288143002.88843375,329333333.0,329333333.0
24,002003,283289927.86,290642629.46,2019-12-31,年度报告,281123441.38,2019,12,-0.352706474502013,True,0.09492400449450296,True,0.0,True,比例外推,290642629.46,359560000.0,359560000.0
25,002003,23023474.160000004,22912992.69,2020-03-31,一季度报告,7921309.760000003,2020,3,10.714486710728366,False,0.5052160067789734,True,0.017853566089669513,True,前期平均,343664555.995,299000000.0,299000000.0
