,SECURITYCODE_x,NETPROFIT_x,PARENTNETPROFIT_x,REPORTDATE_x,REPORTTIMETYPE_x,KCFJCXSYJLR,Year,Month,managesituationChangeRate,managesituationGreatChange,historyprofitextroplaterate,ifhistoryprofitextroplate,IfprofitdisStableChangeRage,IfprofitdisStable,predicttype,predict,analyst_prediction,adj_prediction
0,002014,175691346.79999998,176269220.53,2013-12-31,年度报告,162272307.4,2013,12,未知,未知,未知,未知,未知,未知,未知,未知,未知,未知
1,002014,33939467.919999994,34086528.18,2014-03-31,一季度报告,32768244.059999995,2014,3,未知,未知,未知,未知,未知,未知,未知,未知,未知,未知
2,002014,65368437.03,66112817.31000002,2014-06-30,半年度报告,61969648.36999998,2014,6,未知,未知,未知,未知,未知,未知,未知,未知,未知,未知
3,002014,102570679.77999996,103829365.43000002,2014-09-30,三季度报告,97580723.07,2014,9,未知,未知,未知,未知,未知,未知,未知,未知,未知,未知
4,002014,153483518.95000002,154491070.54,2014-12-31,年度报告,141257224.57,2014,12,0.0,True,未知,未知,未知,未知,未知,未知,未知,未知
5,002014,36703471.7,36302131.39,2015-03-31,一季度报告,35129332.32000001,2015,3,4.176608755745043,False,未知,未知,未知,未知,未知,未知,187933332.99999997,未知
6,002014,86228808.30999999,85174863.63,2015-06-30,半年度报告,79391997.09,2015,6,1.687709157240041,False,未知,未知,未知,未知,未知,未知,182920000.0,未知
7,002014,135137354.43,132829233.45000002,2015-09-30,三季度报告,125509282.73999998,2015,9,0.7128807879292,False,未知,未知,未知,未知,未知,未知,184966667.00000003,未知
8,002014,193761593.44000003,190020890.48,2015-12-31,年度报告,177425936.75,2015,12,0.1446919382740668,True,未知,未知,未知,未知,未知,未知,185475000.0,未知
9,002014,193761593.44000003,190020890.48,2015-12-31,年度报告,165534527.10000002,2015,12,0.1446919382740668,True,未知,未知,未知,未知,未知,未知,185475000.0,未知
10,002014,43423122.84,42213114.31,2016-03-31,一季度报告,41398423.55,2016,3,3.7867773445529394,False,未知,未知,未知,未知,未知,未知,215000000.0,未知
11,002014,89130105.79,86956642.11999999,2016-06-30,半年度报告,83424997.81,2016,6,1.0375017380313836,False,未知,未知,未知,未知,未知,未知,205000000.0,未知
12,002014,148748522.12000003,145031102.65,2016-09-30,三季度报告,138471753.28,2016,9,0.3000946151495558,True,未知,未知,0.0,True,未知,未知,,未知
13,002014,207525336.11,202710560.33,2016-12-31,年度报告,188170663.71,2016,12,-0.09326020868834181,True,0.17725630721245325,True,0.01866389166744517,True,比例外推,202710560.33,222620000.0,202710560.33
14,002014,42862607.89,41948750.56,2017-03-31,一季度报告,39792914.25999999,2017,3,3.046032051802564,False,0.22936907987068844,True,0.004470539110595917,True,前期平均,167341543.03,未知,167341543.03
15,002014,85115827.02,83307371.46999998,2017-06-30,半年度报告,77922369.56,2017,6,0.9711784838890178,False,0.17588028186264695,True,0.024525449788280973,True,前期平均,171968129.39999998,223000000.0,223000000.0
16,002014,139050420.33,135643642.62000003,2017-09-30,三季度报告,127663343.39,2017,9,0.18113003272909386,True,0.25152288280328083,True,0.0,True,比例外推,187444466.06565708,,187444466.06565708
17,002014,211284350.18,205483203.04,2017-12-31,年度报告,187353709.13000005,2017,12,-0.15339808577939726,True,0.1952671395813508,True,0.0121368538398825,True,比例外推,205483203.04,未知,205483203.04
18,002014,43559421.7,42886271.79,2018-03-31,一季度报告,40293847.62000001,2018,3,3.0989420720942507,False,0.069872197516208,True,0.01966404850230924,True,前期平均,187420694.085,283000000.0,283000000.0
19,002014,93544938.78,91377855.39999998,2018-06-30,半年度报告,86472018.61,2018,6,1.0641442720014587,False,0.029238662239184126,True,0.027658395560205107,True,前期平均,192767658.17999995,230000000.0,230000000.0
20,002014,153021073.52999997,149184345.85999995,2018-09-30,三季度报告,139814550.97000003,2018,9,0.2635082035929288,True,0.020378033455923414,True,0.0,True,比例外推,206785108.39164314,223000000.0,206785108.39164314
21,002014,230584117.45000005,225324381.72,2018-12-31,年度报告,202459001.79999995,2018,12,-0.16846019759474465,True,0.053033800113712025,True,0.01145157944251668,True,比例外推,225324381.72,未知,225324381.72
22,002014,51431264.79999998,50995792.72000001,2019-03-31,一季度报告,47811279.48000002,2019,3,3.0333718847328033,False,0.009655277447981829,True,0.014558596379747102,True,前期平均,198162310.235,261690000.0,261690000.0
23,002014,107343358.13,106123942.17000002,2019-06-30,半年度报告,101029858.56,2019,6,0.8781491451204302,False,0.07371158995145788,True,0.03326095291449416,True,前期平均,213212444.90500006,258000000.0,258000000.0
24,002014,187675391.31,184913570.76,2019-09-30,三季度报告,177580146.61999995,2019,9,0.14815131502495618,True,0.06338871315751735,True,0.0,True,比例外推,260072334.679265,270333333.0,260072334.679265
25,002014,274376207.67,269116549.45,2019-12-31,年度报告,238302049.39000005,2019,12,-0.23805963418925866,True,0.10114032697101799,True,0.00837794006602166,True,比例外推,269116549.45,278333333.0,269116549.45
26,002014,49861504.67999999,49315034.39000002,2020-03-31,一季度报告,45789514.18,2020,3,2.4160417303212043,False,0.19023506029650467,True,未知,未知,前期平均,204178008.91500002,314666667.0,314666667.0
