,SECURITYCODE_x,NETPROFIT_x,PARENTNETPROFIT_x,REPORTDATE_x,REPORTTIMETYPE_x,KCFJCXSYJLR,Year,Month,managesituationChangeRate,managesituationGreatChange,historyprofitextroplaterate,ifhistoryprofitextroplate,IfprofitdisStableChangeRage,IfprofitdisStable,predicttype,predict,analyst_prediction,adj_prediction
0,002092,115800749.13999996,113787641.29999997,2013-12-31,年度报告,60599970.24000001,2013,12,未知,未知,未知,未知,未知,未知,未知,未知,未知,未知
1,002092,97491184.76,96227119.37,2014-03-31,一季度报告,93861024.32,2014,3,未知,未知,未知,未知,未知,未知,未知,未知,未知,未知
2,002092,181133249.22,179554895.37,2014-06-30,半年度报告,163575039.03,2014,6,未知,未知,未知,未知,未知,未知,未知,未知,未知,未知
3,002092,254377694.97,251431506.58,2014-09-30,三季度报告,187466640.33,2014,9,未知,未知,未知,未知,未知,未知,未知,未知,未知,未知
4,002092,337115678.76,332178587.96,2014-12-31,年度报告,277581316.01,2014,12,0.0,True,未知,未知,未知,未知,未知,未知,未知,未知
5,002092,-104001736.35999995,-104391212.19,2015-03-31,一季度报告,-124851220.87,2015,3,0.1878073840734803,True,未知,未知,未知,未知,未知,未知,503500000.0,未知
6,002092,51375482.21,22707448.17,2015-06-30,半年度报告,-75203768.32999998,2015,6,-0.36068750691182483,True,未知,未知,未知,未知,未知,未知,-40870000.0,未知
7,002092,169545661.0,65089255.7,2015-09-30,三季度报告,-105956728.0,2015,9,-0.5447684626843682,True,未知,未知,未知,未知,未知,未知,95000000.0,未知
8,002092,232090389.86,30424702.62,2015-12-31,年度报告,-121124008.52999996,2015,12,-0.6564955104848712,True,未知,未知,未知,未知,未知,未知,503500000.0,未知
9,002092,100051537.09,55076043.27000002,2016-03-31,一季度报告,51978228.54000001,2016,3,-2.1134501518239843,False,未知,未知,未知,未知,未知,未知,573937500.0,未知
10,002092,354034702.41,272239211.66,2016-06-30,半年度报告,146943152.67,2016,6,1.2540080240348552,False,未知,未知,未知,未知,未知,未知,996835000.0,未知
11,002092,811347596.8000003,712756396.8,2016-09-30,三季度报告,515905802.8899999,2016,9,-0.3169937322076325,True,未知,未知,未知,未知,未知,未知,1087608000.0,未知
12,002092,1936211135.82,1843474395.45,2016-12-31,年度报告,1744536524.2200005,2016,12,-0.5010532352940055,True,0.024870707102033235,True,0.0,True,比例外推,1843474395.45,1202008000.0,1202008000.0
13,002092,712267342.64,697521813.2199999,2017-03-31,一季度报告,680206931.9299997,2017,3,0.1574109954536027,True,-31.73519518376931,True,0.5645366790394502,False,平均增速,18528329082.384884,2446526940.0,2446526940.0
14,002092,1272905947.9199998,1244360208.5299995,2017-06-30,半年度报告,1230455816.94,2017,6,-0.6729113040283448,True,2.0453454391375154,False,0.34723612770002366,False,未知,未知,2775487273.0000005,未知
15,002092,2092920591.4,2045367487.21,2017-09-30,三季度报告,2077470272.11,2017,9,-0.8572735661056685,True,2.827803235533063,False,0.31956110949530775,False,未知,未知,2595918000.0,未知
16,002092,2453018140.36,2402315993.11,2017-12-31,年度报告,2347742878.9,2017,12,-0.9401920859777736,True,5.803199201702847,False,0.0,True,比例外推,2402315993.11,2544485000.0,2402315993.11
17,002092,430595010.48,424552848.12000006,2018-03-31,一季度报告,418878450.68,2018,3,-0.8374195443093213,True,-361.62349970512184,True,0.5806736140483852,False,平均增速,8337130017.94818,2691821429.0,2691821429.0
18,002092,1274908709.1999998,1242984395.7199993,2018-06-30,半年度报告,1211035806.12,2018,6,-0.9090264686646922,True,5.2795953146225125,False,0.32550768989296874,False,未知,未知,2586664444.0,未知
19,002092,2100071349.91,2010786416.62,2018-09-30,三季度报告,1979277643.64,2018,9,-0.9446702614443016,True,3.267376852184944,False,0.3894018593668163,False,未知,未知,2593438000.0,未知
20,002092,2561208385.09,2428013752.65,2018-12-31,年度报告,2389436961.0,2018,12,-0.9527925426906932,True,1.2626171787530431,True,0.0,True,比例外推,2428013752.65,2585865000.0,2428013752.65
21,002092,180965885.1,187812268.98,2019-03-31,一季度报告,180821421.29,2019,3,-0.7310680655335215,True,0.06016250815965757,True,0.13514751859669236,False,平均增速,1777505130.0793993,2485538333.0,2485538333.0
22,002092,357277799.85,373511007.17000014,2019-06-30,半年度报告,357443841.68,2019,6,-0.9091693794980313,True,0.567246732622243,True,0.2874898615969419,False,平均增速,1243712826.318451,1235322500.0,1243712826.318451
23,002092,364860023.92,406077493.4,2019-09-30,三季度报告,384832173.2400001,2019,9,-0.9448586596141304,True,0.44619657264612106,True,0.37392381783975476,False,平均增速,688307020.9330509,506203333.0,506203333.0
24,002092,191410178.75,343103874.22,2019-12-31,年度报告,307789805.9,2019,12,-0.9547866742065462,True,0.16704242313769083,True,0.0,True,比例外推,343103874.22,2619000000.0,2619000000.0
25,002092,-10412349.79,12936591.7,2020-03-31,一季度报告,13276482.480000002,2020,3,-0.360096246449934,True,0.6833111448531568,True,0.23664488124254207,False,平均增速,53992398.38339074,96500000.0,96500000.0
