,SECURITYCODE_x,NETPROFIT_x,PARENTNETPROFIT_x,REPORTDATE_x,REPORTTIMETYPE_x,KCFJCXSYJLR,Year,Month,managesituationChangeRate,managesituationGreatChange,historyprofitextroplaterate,ifhistoryprofitextroplate,IfprofitdisStableChangeRage,IfprofitdisStable,predicttype,predict,analyst_prediction,adj_prediction
0,002094,54314459.1,54205729.26000001,2013-12-31,年度报告,53068364.82,2013,12,未知,未知,未知,未知,未知,未知,未知,未知,未知,未知
1,002094,5496590.259999999,5496052.29,2014-03-31,一季度报告,5399510.53,2014,3,未知,未知,未知,未知,未知,未知,未知,未知,未知,未知
2,002094,18897696.0,18909797.970000006,2014-06-30,半年度报告,18947822.1,2014,6,未知,未知,未知,未知,未知,未知,未知,未知,未知,未知
3,002094,47495589.49,47507034.98,2014-09-30,三季度报告,47445995.65000001,2014,9,未知,未知,未知,未知,未知,未知,未知,未知,未知,未知
4,002094,49190559.10000001,49054022.66,2014-12-31,年度报告,48211517.39,2014,12,0.0,True,未知,未知,未知,未知,未知,未知,未知,未知
5,002094,16845729.840000004,10347753.910000002,2015-03-31,一季度报告,10347753.910000002,2015,3,8.881482251871548,False,未知,未知,未知,未知,未知,未知,90502637.0,未知
6,002094,48923619.1,35901692.31,2015-06-30,半年度报告,35579801.03,2015,6,1.874131275050673,False,未知,未知,未知,未知,未知,未知,96321386.0,未知
7,002094,100205326.73,81092872.95,2015-09-30,三季度报告,79741918.47999997,2015,9,0.14356848042565476,True,未知,未知,未知,未知,未知,未知,88380000.0,未知
8,002094,113106228.19,90573647.86,2015-12-31,年度报告,89379237.86,2015,12,0.10416429684370047,True,未知,未知,未知,未知,未知,未知,91207778.0,未知
9,002094,20309611.36,15109699.449999996,2016-03-31,一季度报告,14716253.400000002,2016,3,2.2242271255609776,False,未知,未知,未知,未知,未知,未知,170582220.00000003,未知
10,002094,59470532.47000001,51793078.26000001,2016-06-30,半年度报告,48566479.74000001,2016,6,0.11018890464708078,True,未知,未知,未知,未知,未知,未知,186603330.0,未知
11,002094,124761843.64,114786513.91,2016-09-30,三季度报告,111108606.12,2016,9,-0.45796834487303706,True,未知,未知,未知,未知,未知,未知,177882314.0,未知
12,002094,199382203.89,185337758.69,2016-12-31,年度报告,172954410.40999997,2016,12,-0.519792499766144,True,1.1855216328052387,True,0.0,True,比例外推,185337758.69,181063545.0,185337758.69
13,002094,28817737.61,24949445.79,2017-03-31,一季度报告,23791925.41,2017,3,1.6743229172259257,False,0.8180396009991816,True,0.019198303812204096,True,前期平均,85871191.195,489093333.0,489093333.0
14,002094,319915910.61,306589334.37000006,2017-06-30,半年度报告,82695780.68999998,2017,6,-0.08669963351347157,True,0.7537416483980866,True,0.07649368028070086,True,比例外推,455340696.1983028,505883635.99999994,455340696.1983028
15,002094,403141859.63000005,381621724.46,2017-09-30,三季度报告,155933687.34000003,2017,9,-0.5646548855375667,True,0.6893848302764441,True,0.1971551421584572,False,平均增速,483602830.1712356,490988889.0,483602830.1712356
16,002094,444794684.0700001,402939057.48,2017-12-31,年度报告,191974468.54,2017,12,-0.7275862236432821,True,1.4570074025400623,True,0.0,True,比例外推,402939057.48,491174444.0,491174444.0
17,002094,57541754.65000001,47816116.79000002,2018-03-31,一季度报告,47079479.35000001,2018,3,0.8847579166364685,False,0.5512029592127657,True,0.023177130403105914,True,前期平均,166450937.26999998,411742000.0,411742000.0
18,002094,155385968.60999998,127902806.01,2018-06-30,半年度报告,124351478.99,2018,6,-0.8302227013453759,True,4.902826046909016,False,0.0890770272998942,True,比例外推,339743511.79979146,413748333.0,413748333.0
19,002094,190120183.33000007,162412763.90000004,2018-09-30,三季度报告,156007558.62000003,2018,9,-0.8652720926825873,True,2.584006137135111,False,0.13986881979793775,False,未知,未知,252780000.0,未知
20,002094,155062081.8,104432876.93999998,2018-12-31,年度报告,89206896.16000001,2018,12,-0.877888695514508,True,1.846791358703022,True,0.0,True,比例外推,104432876.93999998,465730000.0,465730000.0
21,002094,33134102.57,27129648.87,2019-03-31,一季度报告,26110991.009999994,2019,3,-0.056086151171964846,True,1.3425548439480557,True,0.28216395835390984,False,平均增速,55395911.128729515,323500000.0,323500000.0
22,002094,292038268.81,280953267.94,2019-06-30,半年度报告,38267510.37000001,2019,6,-0.6504545449896912,True,0.1808565042624139,True,0.6921215488140573,False,平均增速,261710502.6635644,294000000.0,294000000.0
23,002094,314608065.72,298934167.90000004,2019-09-30,三季度报告,42868851.93,2019,9,-0.7143151339922497,True,0.2797164249754779,True,0.6809929040335507,False,平均增速,263459232.00165433,294000000.0,294000000.0
24,002094,48470646.44000001,21170966.32,2019-12-31,年度报告,-258030301.50000003,2019,12,-0.6497244299218483,True,0.518572973671702,True,0.0,True,比例外推,21170966.32,180000000.0,180000000.0
25,002094,-32432542.34,-19220839.71,2020-03-31,一季度报告,-21339002.25,2020,3,0.6392313322883518,False,0.23264711954896358,True,0.34425761758216744,False,盈利变化,-42095691.359999985,87500000.0,87500000.0
