,SECURITYCODE_x,NETPROFIT_x,PARENTNETPROFIT_x,REPORTDATE_x,REPORTTIMETYPE_x,KCFJCXSYJLR,Year,Month,managesituationChangeRate,managesituationGreatChange,historyprofitextroplaterate,ifhistoryprofitextroplate,IfprofitdisStableChangeRage,IfprofitdisStable,predicttype,predict,analyst_prediction,adj_prediction
0,002071,158813644.35,154080169.01000002,2013-12-31,年度报告,131223959.23000002,2013,12,未知,未知,未知,未知,未知,未知,未知,未知,未知,未知
1,002071,15941468.15,15780344.990000002,2014-03-31,一季度报告,13916471.53,2014,3,未知,未知,未知,未知,未知,未知,未知,未知,未知,未知
2,002071,39853670.86000001,39450862.95,2014-06-30,半年度报告,30695505.809999995,2014,6,未知,未知,未知,未知,未知,未知,未知,未知,未知,未知
3,002071,57751717.35000002,55528349.76,2014-09-30,三季度报告,45569300.50999999,2014,9,未知,未知,未知,未知,未知,未知,未知,未知,未知,未知
4,002071,202649867.41,196561902.09,2014-12-31,年度报告,178760647.05999997,2014,12,0.0,True,未知,未知,未知,未知,未知,未知,未知,未知
5,002071,18599810.29,17294205.94,2015-03-31,一季度报告,11144631.97,2015,3,8.962297252402061,False,未知,未知,未知,未知,未知,未知,255500000.0,未知
6,002071,50156780.71000002,46005178.45,2015-06-30,半年度报告,33052072.809999995,2015,6,2.9849188524662784,False,未知,未知,未知,未知,未知,未知,283060000.0,未知
7,002071,115238772.09,78717783.46000001,2015-09-30,三季度报告,43089550.59,2015,9,1.7499380388555656,False,未知,未知,未知,未知,未知,未知,267000000.0,未知
8,002071,290491193.69,231933721.14,2015-12-31,年度报告,203178361.73,2015,12,-0.21631508384513679,True,未知,未知,未知,未知,未知,未知,未知,未知
9,002071,27524368.07,16414299.160000002,2016-03-31,一季度报告,11832261.16,2016,3,7.5384550634575325,False,未知,未知,未知,未知,未知,未知,265000000.0,未知
10,002071,95358709.62,64213849.67,2016-06-30,半年度报告,53820898.19000001,2016,6,2.166344452373046,False,未知,未知,未知,未知,未知,未知,257945000.0,未知
11,002071,154697204.65999997,110437586.25999998,2016-09-30,三季度报告,90874481.41,2016,9,0.3781268358705573,True,未知,未知,未知,未知,未知,未知,257945000.0,未知
12,002071,306329862.1,256255320.73,2016-12-31,年度报告,222789666.85,2016,12,-0.4532927407104835,True,0.6073057680183038,True,0.0,True,比例外推,256255320.73,264345000.0,256255320.73
13,002071,19186806.86,12330949.989999998,2017-03-31,一季度报告,9511443.14,2017,3,4.769928811666265,False,0.5937087052415424,True,0.01591282253193959,True,前期平均,190769902.635,358110000.0,358110000.0
14,002071,80632170.39999999,64909681.82000001,2017-06-30,半年度报告,61665158.46999999,2017,6,0.6654340750086167,False,1.118836378591895,True,0.049588768548526674,True,前期平均,224005396.90499997,361669837.0,361669837.0
15,002071,141857140.92,111855785.76999997,2017-09-30,三季度报告,100943613.72000004,2017,9,0.02660965787356864,True,0.7885053121796629,True,0.11626393167101867,False,平均增速,258767166.8983165,,258767166.8983165
16,002071,219072174.03,169752222.28,2017-12-31,年度报告,107654784.4,2017,12,-0.48156003054590873,True,0.24236201875666527,True,0.0,True,比例外推,169752222.28,321905000.0,321905000.0
17,002071,28370289.69,18410915.440000005,2018-03-31,一季度报告,17579015.439999998,2018,3,7.277231615912561,False,0.16803691503199714,True,0.02291387493522784,True,前期平均,219906483.16499996,未知,219906483.16499996
18,002071,90282215.04,66473818.02,2018-06-30,半年度报告,63773289.82,2018,6,0.9696064680158977,False,0.10822799988018247,True,0.24711897176842235,False,前期平均,236021346.81,未知,236021346.81
19,002071,146424494.34999996,111947499.78000002,2018-09-30,三季度报告,108106044.35000002,2018,9,0.11953225139059154,True,0.05104286303696631,True,0.41844982090376515,False,平均增速,118191648.12476477,未知,118191648.12476477
20,002071,-371002362.93,-414258700.99,2018-12-31,年度报告,-431178502.53999984,2018,12,-0.2750624534896346,True,0.26586982176753604,True,0.0,True,比例外推,-414258700.99,未知,-414258700.99
21,002071,13129343.65,10935678.390000002,2019-03-31,一季度报告,10935678.390000002,2019,3,4.597885889969564,False,0.21471102932070912,True,0.07433342496081952,True,前期平均,165486051.865,未知,165486051.865
22,002071,-5730721.35,-12949982.550000004,2019-06-30,半年度报告,-15800998.759999998,2019,6,0.759080061113219,False,0.02598742650460231,True,0.37006367572079657,False,盈利变化,-467308226.71000004,未知,-467308226.71000004
23,002071,-35588472.79,-41443225.01,2019-09-30,三季度报告,-44406879.82,2019,9,0.08461118513673073,True,0.012494697633761095,True,0.6156661251141324,False,平均增速,544155918.331747,未知,544155918.331747
24,002071,-944535066.9199996,-944756785.64,2019-12-31,年度报告,-862823880.2799999,2019,12,-1.4280663958465531,False,2.4122608494733853,False,0.0,True,去年同期,-944756785.64,未知,-944756785.64
25,002071,-26201938.739999995,-24739312.17,2020-03-31,一季度报告,-27599396.21,2020,3,11.096084052914556,False,0.44784923376488167,True,0.07671554571585587,True,盈利变化,-996136885.1066667,未知,-996136885.1066667
