,SECURITYCODE_x,NETPROFIT_x,PARENTNETPROFIT_x,REPORTDATE_x,REPORTTIMETYPE_x,KCFJCXSYJLR,Year,Month,managesituationChangeRate,managesituationGreatChange,historyprofitextroplaterate,ifhistoryprofitextroplate,IfprofitdisStableChangeRage,IfprofitdisStable,predicttype,predict,analyst_prediction,adj_prediction
0,002095,33905704.79,32955693.97,2013-12-31,年度报告,32327470.04,2013,12,未知,未知,未知,未知,未知,未知,未知,未知,未知,未知
1,002095,10551302.97,10668028.49,2014-03-31,一季度报告,10520159.77,2014,3,未知,未知,未知,未知,未知,未知,未知,未知,未知,未知
2,002095,20325828.780000005,20162060.39,2014-06-30,半年度报告,19951559.510000005,2014,6,未知,未知,未知,未知,未知,未知,未知,未知,未知,未知
3,002095,29479512.37,29366031.280000005,2014-09-30,三季度报告,28996343.33,2014,9,未知,未知,未知,未知,未知,未知,未知,未知,未知,未知
4,002095,33846946.8,33370416.44,2014-12-31,年度报告,33121936.22,2014,12,0.0,True,未知,未知,未知,未知,未知,未知,未知,未知
5,002095,8728543.07,8663623.48,2015-03-31,一季度报告,8440415.530000001,2015,3,2.2134140102319515,False,未知,未知,未知,未知,未知,未知,57820000.0,未知
6,002095,17375138.56,17217019.220000006,2015-06-30,半年度报告,16841714.47,2015,6,0.6681093379750487,False,未知,未知,未知,未知,未知,未知,29000000.0,未知
7,002095,20931669.37,21337133.76,2015-09-30,三季度报告,21235968.64,2015,9,0.1501446958974918,True,未知,未知,未知,未知,未知,未知,,未知
8,002095,17921125.57,18101027.82,2015-12-31,年度报告,17653926.200000007,2015,12,0.001735990851618028,True,未知,未知,未知,未知,未知,未知,170200000.0,未知
9,002095,5816922.3500000015,5944666.07,2016-03-31,一季度报告,5348769.58,2016,3,2.8844632509787225,False,未知,未知,未知,未知,未知,未知,未知,未知
10,002095,12477802.83,12693789.279999996,2016-06-30,半年度报告,12056299.04,2016,6,0.9513919082093353,False,未知,未知,未知,未知,未知,未知,未知,未知
11,002095,15820374.38,16051580.89,2016-09-30,三季度报告,15410188.57,2016,9,0.6198280314227989,False,未知,未知,未知,未知,未知,未知,未知,未知
12,002095,12013998.4,12619243.28,2016-12-31,年度报告,11755058.209999995,2016,12,0.8919405847341539,False,0.4709837873667787,True,0.0,True,前期平均,12619243.28,未知,12619243.28
13,002095,6416802.42,6499163.31,2017-03-31,一季度报告,6506413.510000003,2017,3,4.828804778526911,False,0.39657999986809006,True,0.0992948332701239,True,前期平均,22406806.87,159000000.0,159000000.0
14,002095,13503682.73,13729148.849999998,2017-06-30,半年度报告,13650672.97,2017,6,1.7172816602360113,False,0.33806457975091314,True,0.258295056499406,False,前期平均,20720443.069999997,37950000.0,37950000.0
15,002095,21905127.2,20230112.84,2017-09-30,三季度报告,20126020.789999995,2017,9,1.1431670310446849,False,0.3723466170027539,True,0.25431998507950215,False,前期平均,20501888.065000005,,20501888.065000005
16,002095,20664793.06,19168958.339999992,2017-12-31,年度报告,17660619.080000002,2017,12,1.8221832283580128,False,0.5358529746237101,True,0.0,True,前期平均,19168958.339999992,22090000.0,22090000.0
17,002095,13444060.85,13050584.85,2018-03-31,一季度报告,13042609.3,2018,3,4.283894153312578,False,0.11769032688676948,True,0.06543178981461195,True,前期平均,20860484.5,85200000.0,85200000.0
18,002095,28138395.58000001,27817774.20000001,2018-06-30,半年度报告,27732426.8,2018,6,1.5108487416306469,False,0.09531978416549591,True,0.14457689041990973,False,前期平均,28073259.650000013,,28073259.650000013
19,002095,34333188.379999995,31587335.669999994,2018-09-30,三季度报告,31495359.86,2018,9,0.547843319074632,False,0.19204947343914713,True,0.09312662168794339,True,前期平均,27968749.269999996,未知,27968749.269999996
20,002095,37675303.65000001,34846506.07000001,2018-12-31,年度报告,34721168.45,2018,12,0.6407473663808372,False,0.3806385489306527,True,0.0,True,前期平均,34846506.07000001,36000000.0,34846506.07000001
21,002095,11692957.55,10266176.999999996,2019-03-31,一季度报告,10222881.230000002,2019,3,1.5219838833145416,False,1.1978687771312349,True,0.055328295793071136,True,前期平均,19046424.099999994,83630000.0,83630000.0
22,002095,20571503.84,18198701.35,2019-06-30,半年度报告,18011071.07,2019,6,0.20496226210208066,True,1.166034387450169,True,0.1598635486483997,False,平均增速,26528101.330865644,,26528101.330865644
23,002095,36044856.94000001,30792144.56,2019-09-30,三季度报告,30498587.53,2019,9,-0.01245103091704168,True,0.8201580862851444,True,0.2121173698520411,False,平均增速,35151107.41599594,未知,35151107.41599594
24,002095,41066244.24,34998326.809999995,2019-12-31,年度报告,34220949.660000004,2019,12,-0.10005490320713083,True,1.3057954083838088,True,0.0,True,比例外推,34998326.809999995,76000000.0,76000000.0
25,002095,8200698.460000001,6358560.869999999,2020-03-31,一季度报告,6370891.93,2020,3,1.8996688515302098,False,0.17748734191854704,True,0.04886296381111993,True,前期平均,22774943.23,未知,22774943.23
