,SECURITYCODE_x,NETPROFIT_x,PARENTNETPROFIT_x,REPORTDATE_x,REPORTTIMETYPE_x,KCFJCXSYJLR,Year,Month,managesituationChangeRate,managesituationGreatChange,historyprofitextroplaterate,ifhistoryprofitextroplate,IfprofitdisStableChangeRage,IfprofitdisStable,predicttype,predict,analyst_prediction,adj_prediction
0,002062,166391620.04,179226191.85,2013-12-31,年度报告,167150212.6,2013,12,未知,未知,未知,未知,未知,未知,未知,未知,未知,未知
1,002062,52270503.98,55681775.68,2014-03-31,一季度报告,56695398.18,2014,3,未知,未知,未知,未知,未知,未知,未知,未知,未知,未知
2,002062,87345837.56,94427912.0,2014-06-30,半年度报告,94661607.12,2014,6,未知,未知,未知,未知,未知,未知,未知,未知,未知,未知
3,002062,127464492.93999998,137870822.17000002,2014-09-30,三季度报告,137355339.31,2014,9,未知,未知,未知,未知,未知,未知,未知,未知,未知,未知
4,002062,198921659.21,204518166.59,2014-12-31,年度报告,200270311.82,2014,12,0.0,True,未知,未知,未知,未知,未知,未知,未知,未知
5,002062,60625118.59999999,60371696.63,2015-03-31,一季度报告,61179531.59,2015,3,2.183279428560046,False,未知,未知,未知,未知,未知,未知,256200000.0,未知
6,002062,91305047.98,95189641.31,2015-06-30,半年度报告,96602373.40999998,2015,6,0.9049748069071007,False,未知,未知,未知,未知,未知,未知,248268000.0,未知
7,002062,147534382.15,151506562.11999995,2015-09-30,三季度报告,153918946.01999998,2015,9,0.3053958494804021,True,未知,未知,未知,未知,未知,未知,259150000.0,未知
8,002062,212839600.33,211124042.02,2015-12-31,年度报告,212493899.29,2015,12,-0.16353191150320295,True,未知,未知,未知,未知,未知,未知,未知,未知
9,002062,67436742.13,64279467.39999998,2016-03-31,一季度报告,64994614.14,2016,3,1.7445986726696485,False,未知,未知,未知,未知,未知,未知,未知,未知
10,002062,101250204.55,100358767.9,2016-06-30,半年度报告,87029525.4,2016,6,0.8223704353832374,False,未知,未知,未知,未知,未知,未知,258125000.0,未知
11,002062,154863590.04,159109548.03,2016-09-30,三季度报告,145398555.60999998,2016,9,0.12781588681360798,True,未知,未知,未知,未知,未知,未知,274000000.0,未知
12,002062,229616586.57,232994588.2,2016-12-31,年度报告,206463928.66,2016,12,-0.21822997326617852,True,0.16524425702217346,True,0.0,True,比例外推,232994588.2,274500000.0,274500000.0
13,002062,69605698.44,69651340.55999999,2017-03-31,一季度报告,69458667.77000001,2017,3,1.4673733455160314,False,0.19467417051025232,True,0.019530483416873412,True,前期平均,217095981.22999996,281590000.0,281590000.0
14,002062,125659744.6,120542715.31000002,2017-06-30,半年度报告,120262295.31,2017,6,0.6433707050718249,False,0.13349793082699304,True,0.028077805121510646,True,前期平均,231292830.60000002,294795000.0,294795000.0
15,002062,196496516.22,184843007.98,2017-09-30,三季度报告,183539080.61,2017,9,0.07443989899125034,True,0.1262852619983785,True,0.019536173746611762,True,比例外推,261713572.35100225,285020000.0,261713572.35100225
16,002062,272501032.44000006,271952321.5900001,2017-12-31,年度报告,272746628.04,2017,12,-0.27535017166856757,True,0.11528989796911276,True,0.0,True,比例外推,271952321.5900001,317000000.0,317000000.0
17,002062,80336685.22000001,81288495.35000001,2018-03-31,一季度报告,78719767.81,2018,3,1.39048847679374,False,0.08706367443393001,True,0.03112780331386028,True,前期平均,227680336.45999998,未知,227680336.45999998
18,002062,153451083.5,152729579.32999998,2018-06-30,半年度报告,140330587.44000003,2018,6,0.32414418451714727,True,0.30518116695281816,True,0.017498225660472988,True,比例外推,332042375.6688248,341000000.0,332042375.6688248
19,002062,231606241.66000003,223114202.28,2018-09-30,三季度报告,209466649.10000005,2018,9,-0.1532082947785913,True,0.29958884841026023,True,0.02757324913898218,True,比例外推,312671129.17081463,,312671129.17081463
20,002062,198000653.43,300418813.95,2018-12-31,年度报告,423046944.81,2018,12,-0.38939086376989596,True,0.23176504480245103,True,0.0,True,比例外推,300418813.95,,300418813.95
21,002062,92949569.90000002,94600774.09999996,2019-03-31,一季度报告,95262140.51,2019,3,1.0711785603842214,False,0.1724351213515464,True,0.06576880331836743,True,前期平均,266979411.49499997,383250000.0,383250000.0
22,002062,148514608.71000004,153633413.1,2019-06-30,半年度报告,152310730.59999996,2019,6,0.08433004345648684,True,0.3525284728574011,True,0.06634220231041749,True,比例外推,383958943.09856963,,383958943.09856963
23,002062,269073373.9699999,232846048.60000005,2019-09-30,三季度报告,231013815.97,2019,9,-0.28157540639917494,True,0.31834114080450376,True,0.12896165612230498,False,平均增速,503977335.9849994,未知,503977335.9849994
24,002062,387725252.28000015,350815369.81,2019-12-31,年度报告,346081900.0,2019,12,-0.1596410559381052,True,0.2113375594332344,True,0.0,True,比例外推,350815369.81,351000000.0,350815369.81
25,002062,93686557.17,95791105.12,2020-03-31,一季度报告,94872508.84999998,2020,3,0.7901279179560782,False,0.23980381838889067,True,0.052588825720812665,True,前期平均,369598673.755,389500000.0,369598673.755
