,SECURITYCODE_x,NETPROFIT_x,PARENTNETPROFIT_x,REPORTDATE_x,REPORTTIMETYPE_x,KCFJCXSYJLR,Year,Month,managesituationChangeRate,managesituationGreatChange,historyprofitextroplaterate,ifhistoryprofitextroplate,IfprofitdisStableChangeRage,IfprofitdisStable,predicttype,predict,analyst_prediction,adj_prediction
0,002034,30701104.730000004,38396510.79,2013-12-31,年度报告,24510085.60999999,2013,12,未知,未知,未知,未知,未知,未知,未知,未知,未知,未知
1,002034,688837.1699999999,-2658586.48,2014-03-31,一季度报告,-3994193.34,2014,3,未知,未知,未知,未知,未知,未知,未知,未知,未知,未知
2,002034,2155757.56,3546927.76,2014-06-30,半年度报告,233589.74,2014,6,未知,未知,未知,未知,未知,未知,未知,未知,未知,未知
3,002034,-3288921.9199999995,3197257.83,2014-09-30,三季度报告,-4282725.93,2014,9,未知,未知,未知,未知,未知,未知,未知,未知,未知,未知
4,002034,-45478761.66,-16497697.019999998,2014-12-31,年度报告,-23669227.23,2014,12,0.0,True,未知,未知,未知,未知,未知,未知,未知,未知
5,002034,-3618023.86,-3776273.12,2015-03-31,一季度报告,-4366687.32,2015,3,43.56946585794725,False,未知,未知,未知,未知,未知,未知,31000000.0,未知
6,002034,7480035.469999999,6488998.8999999985,2015-06-30,半年度报告,5336351.500000001,2015,6,13.241445930496937,False,未知,未知,未知,未知,未知,未知,44420000.0,未知
7,002034,20877044.71,18961662.18,2015-09-30,三季度报告,18748775.960000005,2015,9,-10.334701606415761,False,未知,未知,未知,未知,未知,未知,,未知
8,002034,41364009.63,39235507.65000001,2015-12-31,年度报告,37490319.0,2015,12,-1.6750646589615168,False,未知,未知,未知,未知,未知,未知,,未知
9,002034,51834.99000000001,-72737.45999999999,2016-03-31,一季度报告,-691527.6000000001,2016,3,-9.485600404525803,False,未知,未知,未知,未知,未知,未知,38300000.0,未知
10,002034,7973218.17,6675401.590000003,2016-06-30,半年度报告,5631479.23,2016,6,3.104406303035888,False,未知,未知,未知,未知,未知,未知,45500000.0,未知
11,002034,17852156.550000004,15727117.49,2016-09-30,三季度报告,14396237.959999995,2016,9,0.47056756147551515,True,未知,未知,未知,未知,未知,未知,,未知
12,002034,184355356.49000004,138198007.61999995,2016-12-31,年度报告,16154916.060000002,2016,12,-0.25778218783380547,True,-6.598182421737953,True,0.0,True,比例外推,138198007.61999995,40266667.0,40266667.0
13,002034,3649207.29,3156354.23,2017-03-31,一季度报告,-1283292.4600000002,2017,3,591.2853410408683,False,-1.0353920698717909,True,0.16559401028816767,False,盈利变化,137408987.8066666,,137408987.8066666
14,002034,126492957.34,103419630.72999996,2017-06-30,半年度报告,-35050.62,2017,6,2.850528616602498,False,0.6549168595000427,True,0.18823801797622797,False,前期平均,107545205.99499996,260000000.0,260000000.0
15,002034,172550101.75,167156351.11,2017-09-30,三季度报告,33582099.05,2017,9,0.719742073962487,False,1.030024097870197,True,0.3670787281738934,False,前期平均,166833871.98000002,,166833871.98000002
16,002034,269989424.70000005,234816575.79000008,2017-12-31,年度报告,44776132.07,2017,12,-0.8334677911478785,True,-90.60703106573365,True,0.0,True,比例外推,234816575.79000008,260000000.0,234816575.79000008
17,002034,51322374.35,50035771.39000002,2018-03-31,一季度报告,50198450.06,2018,3,7.413088731388566,False,-3.046558622118071,True,0.05382797411717366,True,前期平均,79387496.38000003,未知,79387496.38000003
18,002034,127133059.99,124008181.42000005,2018-06-30,半年度报告,120201878.20999998,2018,6,-0.7572900074786092,True,15.371045255166086,False,0.18520930987318016,False,未知,未知,未知,未知
19,002034,229093669.96,223791694.47,2018-09-30,三季度报告,221687348.89999992,2018,9,-0.8220742589043416,True,7.910594390605823,False,0.21364791116381,False,未知,未知,未知,未知
20,002034,311792268.87000006,306290406.7,2018-12-31,年度报告,298708030.7,2018,12,-0.8862877508475983,True,1.392257512866349,True,0.0,True,比例外推,306290406.7,未知,306290406.7
21,002034,64916273.60000001,63580793.88,2019-03-31,一季度报告,63151210.96999998,2019,3,-0.40179882324559674,True,26.73401137692488,False,0.13585666425516443,False,未知,未知,406655714.0,未知
22,002034,210385569.57,206549041.50000003,2019-06-30,半年度报告,203898703.59,2019,6,-0.75851202879554,True,0.8909299607550057,True,0.25085460036078117,False,平均增速,779349429.9278318,409041000.0,409041000.0
23,002034,316477150.47,311498299.75000006,2019-09-30,三季度报告,307773888.47,2019,9,-0.8659888562815357,True,1.406417570941174,True,0.0967064530135281,True,比例外推,391139045.42990905,407682500.0,391139045.42990905
24,002034,416036848.5,411405432.75,2019-12-31,年度报告,407806896.27999985,2019,12,-0.9015334637986144,True,0.3724919126543826,True,0.0,True,比例外推,411405432.75,407606667.0,411405432.75
25,002034,85005900.14,85311403.78999999,2020-03-31,一季度报告,83835447.9,2020,3,-0.5270661264512262,True,1.361812109577861,True,0.12674264849586775,False,平均增速,1006528668.0680817,504205000.0,504205000.0
