,SECURITYCODE_x,NETPROFIT_x,PARENTNETPROFIT_x,REPORTDATE_x,REPORTTIMETYPE_x,KCFJCXSYJLR,Year,Month,managesituationChangeRate,managesituationGreatChange,historyprofitextroplaterate,ifhistoryprofitextroplate,IfprofitdisStableChangeRage,IfprofitdisStable,predicttype,predict,analyst_prediction,adj_prediction
0,002055,122800936.26,122730586.97,2013-12-31,年度报告,110945692.98,2013,12,未知,未知,未知,未知,未知,未知,未知,未知,未知,未知
1,002055,20132830.16,19930023.37,2014-03-31,一季度报告,19696380.26,2014,3,未知,未知,未知,未知,未知,未知,未知,未知,未知,未知
2,002055,54190835.56999999,52584559.84,2014-06-30,半年度报告,51320091.82000001,2014,6,未知,未知,未知,未知,未知,未知,未知,未知,未知,未知
3,002055,100211020.45,95198739.39,2014-09-30,三季度报告,90976840.59,2014,9,未知,未知,未知,未知,未知,未知,未知,未知,未知,未知
4,002055,87796456.71999998,98614072.77,2014-12-31,年度报告,95564291.96,2014,12,0.0,True,未知,未知,未知,未知,未知,未知,未知,未知
5,002055,22624780.81,23945261.33,2015-03-31,一季度报告,23113909.18,2015,3,5.099536691268646,False,未知,未知,未知,未知,未知,未知,181743000.0,未知
6,002055,53721441.95000002,52815675.75000001,2015-06-30,半年度报告,50391708.17,2015,6,1.2660830926176476,False,未知,未知,未知,未知,未知,未知,163321648.0,未知
7,002055,94956866.84000002,95263685.32,2015-09-30,三季度报告,89519571.55000001,2015,9,0.22542346848240286,True,未知,未知,未知,未知,未知,未知,135304219.0,未知
8,002055,60803990.90000001,85183653.36999999,2015-12-31,年度报告,79150078.11999999,2015,12,0.39870036727833025,True,未知,未知,未知,未知,未知,未知,122720000.0,未知
9,002055,9293229.849999998,21778156.4,2016-03-31,一季度报告,20583841.08,2016,3,4.4277182745444685,False,未知,未知,未知,未知,未知,未知,148199091.0,未知
10,002055,39633994.16,53287987.13,2016-06-30,半年度报告,35230050.620000005,2016,6,1.2858830999788524,False,未知,未知,未知,未知,未知,未知,128821347.0,未知
11,002055,50662792.44999999,76496622.64000002,2016-09-30,三季度报告,46662573.83,2016,9,0.29322860311847226,True,未知,未知,未知,未知,未知,未知,93920000.0,未知
12,002055,-13447282.249999994,38675585.13,2016-12-31,年度报告,-4263378.800000002,2016,12,1.0196196736816494,False,0.42255704081033474,True,0.0,True,前期平均,38675585.13,93536000.0,93536000.0
13,002055,23501630.63,31980291.389999993,2017-03-31,一季度报告,7382199.199999997,2017,3,12.214021200605519,False,0.5653064032730734,True,3.384749624943466,False,前期平均,97932331.70999998,233890000.0,233890000.0
14,002055,69272803.41,91640328.15999998,2017-06-30,半年度报告,11769268.65,2017,6,2.0983739807868007,False,0.2654405027703285,True,5.900167856324858,False,前期平均,128141613.20499997,253833332.99999997,253833332.99999997
15,002055,94721664.82999998,122584078.2,2017-09-30,三季度报告,28802158.73,2017,9,1.4238880314620328,False,0.480828601943924,True,7.99098548163955,False,前期平均,119693057.16999999,259296667.00000003,259296667.00000003
16,002055,147955358.77,174755807.96,2017-12-31,年度报告,63974789.72999999,2017,12,-10.132026381018369,False,1.180985756979512,True,0.0,True,前期平均,174755807.96,223300000.0,223300000.0
17,002055,27049969.750000004,32988504.41,2018-03-31,一季度报告,28315977.24,2018,3,4.225209186261473,False,0.47262502543446433,True,3.3545117085447496,False,前期平均,48582978.94,未知,48582978.94
18,002055,53851573.87000001,52453815.34,2018-06-30,半年度报告,42572842.33,2018,6,0.7727149792565327,False,0.4840657662051167,True,5.782483076153988,False,前期平均,47086285.60499999,未知,47086285.60499999
19,002055,90609539.04999998,87504299.78999999,2018-09-30,三季度报告,70335519.76999998,2018,9,0.296439800550326,True,0.30094611252128783,True,7.823723780357451,False,平均增速,279510242.61303234,未知,279510242.61303234
20,002055,245973279.73,261024389.48,2018-12-31,年度报告,10270473.3,2018,12,-0.17001359544606376,True,5.248549064652952,False,0.0,True,比例外推,261024389.48,,261024389.48
21,002055,18219407.15,21803695.15,2019-03-31,一季度报告,7352916.080000001,2019,3,3.5397809089971344,False,0.6496468869868481,True,4.176178752530612,False,前期平均,37676380.474999994,未知,37676380.474999994
22,002055,32582597.85,27459220.99,2019-06-30,半年度报告,8392389.54,2019,6,1.280359280797376,False,0.011052109297643435,True,6.951985825264895,False,前期平均,33815266.81999999,未知,33815266.81999999
23,002055,32939406.6,47974550.99000001,2019-09-30,三季度报告,24919740.29,2019,9,0.3552760288542714,True,0.24648178691471193,True,9.729494645288625,False,平均增速,-220437974.55172575,未知,-220437974.55172575
24,002055,-619814251.82,-585481081.7600001,2019-12-31,年度报告,-617779643.8200003,2019,12,-0.5007549747078375,True,2.6573756177894077,False,0.0,True,比例外推,-585481081.7600001,未知,-585481081.7600001
25,002055,13198030.89,12789984.64,2020-03-31,一季度报告,5955628.460000001,2020,3,5.740117021864788,False,0.2791758514846846,True,1.8035216109417544,False,前期平均,32063527.935,339040000.0,339040000.0
