,SECURITYCODE_x,NETPROFIT_x,PARENTNETPROFIT_x,REPORTDATE_x,REPORTTIMETYPE_x,KCFJCXSYJLR,Year,Month,managesituationChangeRate,managesituationGreatChange,historyprofitextroplaterate,ifhistoryprofitextroplate,IfprofitdisStableChangeRage,IfprofitdisStable,predicttype,predict,analyst_prediction,adj_prediction
0,002054,152844824.03,115297439.76999997,2013-12-31,年度报告,113402878.89,2013,12,未知,未知,未知,未知,未知,未知,未知,未知,未知,未知
1,002054,25506356.25,18705162.25,2014-03-31,一季度报告,16398715.23,2014,3,未知,未知,未知,未知,未知,未知,未知,未知,未知,未知
2,002054,60427285.48,46743101.46000001,2014-06-30,半年度报告,44715586.65000001,2014,6,未知,未知,未知,未知,未知,未知,未知,未知,未知,未知
3,002054,91904018.43,70758069.25,2014-09-30,三季度报告,69690781.58,2014,9,未知,未知,未知,未知,未知,未知,未知,未知,未知,未知
4,002054,114024284.73,95767549.28,2014-12-31,年度报告,89193045.23000002,2014,12,0.0,True,未知,未知,未知,未知,未知,未知,未知,未知
5,002054,13275159.58,12301847.17,2015-03-31,一季度报告,12571451.18,2015,3,4.992420968792828,False,未知,未知,未知,未知,未知,未知,122580000.0,未知
6,002054,266252074.1,259133253.10000008,2015-06-30,半年度报告,41322555.33,2015,6,1.5294007966084797,False,未知,未知,未知,未知,未知,未知,279510000.0,未知
7,002054,333553396.75000006,321213747.13999987,2015-09-30,三季度报告,74675497.75000001,2015,9,0.6630918499653682,False,未知,未知,未知,未知,未知,未知,,未知
8,002054,322002737.98000014,298244647.99999994,2015-12-31,年度报告,47631981.79,2015,12,0.340458520673239,True,未知,未知,未知,未知,未知,未知,126000000.0,未知
9,002054,-7318843.980000002,-5912902.329999999,2016-03-31,一季度报告,-6656509.36,2016,3,10.513595984207369,False,未知,未知,未知,未知,未知,未知,未知,未知
10,002054,107100113.76,99531056.36,2016-06-30,半年度报告,30545464.01,2016,6,-0.4259394051796421,True,未知,未知,未知,未知,未知,未知,172000000.0,未知
11,002054,145727436.08,130922471.11,2016-09-30,三季度报告,60025245.12,2016,9,-0.5417680481768322,True,未知,未知,未知,未知,未知,未知,,未知
12,002054,175294282.0,148329284.13000005,2016-12-31,年度报告,46322996.99000001,2016,12,-0.5253306695811595,True,1.4131885438234275,True,0.0,True,比例外推,148329284.13000005,未知,148329284.13000005
13,002054,5829703.840000003,4326985.89,2017-03-31,一季度报告,-5150880.96,2017,3,-21.883738531341113,False,1.3774398098353033,True,0.24506022479283507,False,前期平均,58254416.19500001,未知,58254416.19500001
14,002054,27191999.74,25470434.54,2017-06-30,半年度报告,15514019.230000004,2017,6,0.42712102409628655,True,0.3443104951736479,True,0.19144647381097968,False,平均增速,35419548.875778,未知,35419548.875778
15,002054,40942696.98000001,35356490.32,2017-09-30,三季度报告,28748859.430000003,2017,9,0.04884041153439874,True,0.314961117702713,True,0.43362072184795974,False,平均增速,26914386.14042713,未知,26914386.14042713
16,002054,36292096.88,27002244.98,2017-12-31,年度报告,16979306.880000006,2017,12,-0.12806725760741014,True,0.19594762310597647,True,0.0,True,比例外推,27002244.98,未知,27002244.98
17,002054,-1283341.45,913518.44,2018-03-31,一季度报告,354921.81,2018,3,25.218282819320702,False,0.9574865509141272,True,0.32497252128988985,False,前期平均,44933536.92,未知,44933536.92
18,002054,31154746.579999994,27218185.890000004,2018-06-30,半年度报告,17137045.34,2018,6,4.620948274913451,False,0.8543359293226025,True,0.15414538030179048,False,前期平均,38261665.610000014,未知,38261665.610000014
19,002054,43930524.71,34858645.19,2018-09-30,三季度报告,27171647.01,2018,9,2.733140103219452,False,0.8291494498611743,True,0.22311135781304303,False,前期平均,14485763.144999996,未知,14485763.144999996
20,002054,57195917.20000001,49357293.57999999,2018-12-31,年度报告,41392854.9,2018,12,3.211518131216892,False,0.8540425724591731,True,0.0,True,前期平均,49357293.57999999,未知,49357293.57999999
21,002054,24331882.18,20276064.45,2019-03-31,一季度报告,17513490.529999994,2019,3,-120.09910961731968,False,-0.7236006411055447,True,0.15720042327846356,False,前期平均,57830911.545,未知,57830911.545
22,002054,60743546.33,50893514.88999999,2019-06-30,半年度报告,44839178.88,2019,6,3.9059883583877326,False,0.5360152466436534,True,0.25133055230950707,False,前期平均,59514925.205,未知,59514925.205
23,002054,113109083.35,94616726.39000002,2019-09-30,三季度报告,84602242.64,2019,9,2.4792396639689485,False,0.5293245471049219,True,0.5587006012299917,False,前期平均,81880826.05000003,未知,81880826.05000003
24,002054,124642730.04999998,110132083.85,2019-12-31,年度报告,85708670.55000001,2019,12,1.6723030508548251,False,0.4593610656531123,True,0.0,True,前期平均,110132083.85,未知,110132083.85
25,002054,20430102.919999994,23480714.87,2020-03-31,一季度报告,11316003.12,2020,3,5.281668754570633,False,9.703890316143491,False,0.2732121462951889,False,去年同期,91675894.89000002,未知,91675894.89000002
