,SECURITYCODE_x,NETPROFIT_x,PARENTNETPROFIT_x,REPORTDATE_x,REPORTTIMETYPE_x,KCFJCXSYJLR,Year,Month,managesituationChangeRate,managesituationGreatChange,historyprofitextroplaterate,ifhistoryprofitextroplate,IfprofitdisStableChangeRage,IfprofitdisStable,predicttype,predict,analyst_prediction,adj_prediction
0,002025,180604319.99,175651410.39000005,2013-12-31,年度报告,170804631.51000002,2013,12,未知,未知,未知,未知,未知,未知,未知,未知,未知,未知
1,002025,45528842.49,44642678.45,2014-03-31,一季度报告,44014253.09,2014,3,未知,未知,未知,未知,未知,未知,未知,未知,未知,未知
2,002025,103530578.76,95783307.51,2014-06-30,半年度报告,94561817.16,2014,6,未知,未知,未知,未知,未知,未知,未知,未知,未知,未知
3,002025,156951201.2,144754821.38,2014-09-30,三季度报告,143369162.39000002,2014,9,未知,未知,未知,未知,未知,未知,未知,未知,未知,未知
4,002025,211706597.63,203408626.55,2014-12-31,年度报告,195589278.66,2014,12,0.0,True,未知,未知,未知,未知,未知,未知,未知,未知
5,002025,55090662.95000001,50154142.28,2015-03-31,一季度报告,49693435.64999999,2015,3,2.966811148991282,False,未知,未知,未知,未知,未知,未知,240000000.0,未知
6,002025,124446790.9,112426504.89000002,2015-06-30,半年度报告,108189058.5,2015,6,0.7444538816755669,False,未知,未知,未知,未知,未知,未知,239000000.0,未知
7,002025,190442185.81,172675691.08999994,2015-09-30,三季度报告,167001400.98,2015,9,0.1507036493455013,True,未知,未知,未知,未知,未知,未知,239000000.0,未知
8,002025,257500269.58,233312860.48,2015-12-31,年度报告,226097772.86,2015,12,-0.14691217934718073,True,未知,未知,未知,未知,未知,未知,,未知
9,002025,65668116.48,58670073.47999999,2016-03-31,一季度报告,58280484.63000002,2016,3,2.2783108846215105,False,未知,未知,未知,未知,未知,未知,276000000.0,未知
10,002025,144209401.49,126069754.61,2016-06-30,半年度报告,122935925.23,2016,6,0.4512573501001383,True,未知,未知,未知,未知,未知,未知,272178750.0,未知
11,002025,225968713.31,199516823.3,2016-09-30,三季度报告,192144400.32,2016,9,-0.051658017776665385,True,未知,未知,未知,未知,未知,未知,272807500.0,未知
12,002025,291814673.4,261067169.88000005,2016-12-31,年度报告,255219092.64999995,2016,12,-0.2986247343174529,True,0.312735679864101,True,0.0,True,比例外推,261067169.88000005,,261067169.88000005
13,002025,77504259.75000001,69846425.05999999,2017-03-31,一季度报告,65734783.13,2017,3,1.7502588725078663,False,0.3052760733187716,True,0.004604684087617716,True,前期平均,233836106.45,306475000.0,306475000.0
14,002025,167496362.52,148932244.64,2017-06-30,半年度报告,138587747.6,2017,6,0.2523754909455314,True,0.26512032053945045,True,0.0027159699798827153,True,比例外推,298336029.43573976,309015833.0,298336029.43573976
15,002025,251750109.54,227254145.33000004,2017-09-30,三季度报告,212029206.97,2017,9,-0.2007551959539013,True,0.30093848506963844,True,0.01136171553330978,True,比例外推,301171701.3068783,303031250.0,301171701.3068783
16,002025,345432984.58,311392158.87000006,2017-12-31,年度报告,293127544.85,2017,12,-0.3810992508164943,True,0.2438636081146454,True,0.0,True,比例外推,311392158.87000006,302138889.0,311392158.87000006
17,002025,71832774.08999999,64771849.84,2018-03-31,一季度报告,59657912.44999999,2018,3,1.3302502413746358,False,0.2836211183291522,True,0.0043443835054916,True,前期平均,251443322.45499998,376723333.0,376723333.0
18,002025,162577682.22,157014702.96,2018-06-30,半年度报告,147026539.1,2018,6,0.07825816198506899,True,0.24691979760399982,True,0.004871203095944909,True,比例外推,317793285.3455319,376818125.0,376818125.0
19,002025,274847772.04999995,266326972.7,2018-09-30,三季度报告,253530889.47000003,2018,9,-0.2826048007685009,True,0.20914274853046738,True,0.0149389045185645,True,比例外推,356206745.43194234,373838750.0,356206745.43194234
20,002025,403904643.00999993,358950104.79999995,2018-12-31,年度报告,326313802.92,2018,12,-0.47716538937475655,True,0.2576864656404471,True,0.0,True,比例外推,358950104.79999995,372967059.0,358950104.79999995
21,002025,87363820.85000001,77733645.64,2019-03-31,一季度报告,76703437.36999999,2019,3,1.5142328453543932,False,0.0034446026739662376,True,0.02898680055121783,True,前期平均,289899330.51,434020714.0,434020714.0
22,002025,203748784.17,187110890.62,2019-06-30,半年度报告,173744103.73000002,2019,6,0.11088014986956438,True,0.04314838537784795,True,0.017780612612777913,True,比例外推,384338580.18803,436087619.0,436087619.0
23,002025,322703422.82,296517628.49,2019-09-30,三季度报告,280942882.4,2019,9,-0.3428932727271855,True,0.1506675429295362,True,0.027715412540428863,True,比例外推,389641706.42625654,423441364.00000006,389641706.42625654
24,002025,458626732.5199999,402233891.06,2019-12-31,年度报告,370143518.21,2019,12,-0.5528540631667643,True,0.2676535973167169,True,0.0,True,比例外推,402233891.06,423770000.0,402233891.06
25,002025,81452638.66000001,72971358.85999998,2020-03-31,一季度报告,69366292.46,2020,3,1.0672667270366987,False,0.17002217873969266,True,0.021943962678531936,True,前期平均,319995684.95500004,474862105.0,474862105.0
