,SECURITYCODE_x,NETPROFIT_x,PARENTNETPROFIT_x,REPORTDATE_x,REPORTTIMETYPE_x,KCFJCXSYJLR,Year,Month,managesituationChangeRate,managesituationGreatChange,historyprofitextroplaterate,ifhistoryprofitextroplate,IfprofitdisStableChangeRage,IfprofitdisStable,predicttype,predict,analyst_prediction,adj_prediction
0,002098,60610397.67,60610397.67,2013-12-31,年度报告,60698417.55000002,2013,12,未知,未知,未知,未知,未知,未知,未知,未知,未知,未知
1,002098,5821885.2799999975,5821885.2799999975,2014-03-31,一季度报告,-600685.02,2014,3,未知,未知,未知,未知,未知,未知,未知,未知,未知,未知
2,002098,53033109.9,53033109.9,2014-06-30,半年度报告,46526481.44999999,2014,6,未知,未知,未知,未知,未知,未知,未知,未知,未知,未知
3,002098,66925081.03,66925081.03,2014-09-30,三季度报告,59333323.56,2014,9,未知,未知,未知,未知,未知,未知,未知,未知,未知,未知
4,002098,78202504.82000001,78202504.82000001,2014-12-31,年度报告,66505978.04999998,2014,12,0.0,True,未知,未知,未知,未知,未知,未知,未知,未知
5,002098,1098647.46,1098647.46,2015-03-31,一季度报告,-1002717.69,2015,3,9.410785296339611,False,未知,未知,未知,未知,未知,未知,96033333.0,未知
6,002098,45285347.30999999,45285347.30999999,2015-06-30,半年度报告,42225772.76000001,2015,6,0.14287843545829854,True,未知,未知,未知,未知,未知,未知,84155000.0,未知
7,002098,60701620.64999999,60701620.64999999,2015-09-30,三季度报告,56391432.59,2015,9,-0.09435451198287476,True,未知,未知,未知,未知,未知,未知,89100000.0,未知
8,002098,71968330.7,71968330.7,2015-12-31,年度报告,60688815.67000002,2015,12,-0.22495580148605276,True,未知,未知,未知,未知,未知,未知,89100000.0,未知
9,002098,5982258.1,5982258.1,2016-03-31,一季度报告,5555489.67,2016,3,54.16819532809915,False,未知,未知,未知,未知,未知,未知,85833333.0,未知
10,002098,62919295.96,62919295.96,2016-06-30,半年度报告,63705169.58,2016,6,0.33841079444732247,True,未知,未知,未知,未知,未知,未知,95730000.0,未知
11,002098,86359157.57,86359157.57,2016-09-30,三季度报告,85373739.27999997,2016,9,-0.0015028096288560837,True,未知,未知,未知,未知,未知,未知,97000000.0,未知
12,002098,118495872.16000004,118495872.16000004,2016-12-31,年度报告,110537695.76999998,2016,12,-0.1578184865416088,True,0.03691125837793867,True,0.0,True,比例外推,118495872.16000004,97000000.0,97000000.0
13,002098,7685520.080000001,7685520.080000001,2017-03-31,一季度报告,7438206.739999997,2017,3,9.131692189944129,False,0.7288432335340709,True,0.04202396191688685,True,前期平均,72084618.295,,72084618.295
14,002098,64194455.34,64194455.34,2017-06-30,半年度报告,65643364.84,2017,6,-0.03669618762847961,True,0.2799081219431599,True,0.0809057043527216,True,比例外推,98430458.9172739,158250000.0,158250000.0
15,002098,86203063.07,86203063.07,2017-09-30,三季度报告,87638262.52000003,2017,9,-0.2981589981251133,True,0.3533086169778073,True,0.09221366740351811,True,比例外推,99931896.71655644,143666667.0,143666667.0
16,002098,139921297.17,118993445.82,2017-12-31,年度报告,119644601.66,2017,12,-0.4885020333184239,True,0.5781476043558212,True,0.0,True,比例外推,118993445.82,145500000.0,145500000.0
17,002098,5591855.82,3295559.7199999993,2018-03-31,一季度报告,235618.03,2018,3,6.886310495463568,False,1.1707732195767349,True,0.048490840636411216,True,前期平均,86632429.44999999,未知,86632429.44999999
18,002098,28575807.370000005,36292326.76000001,2018-06-30,半年度报告,34310481.050000004,2018,6,-0.05583126534865623,True,0.1865379044745316,True,0.0888588900060201,True,比例外推,58514320.74599127,未知,58514320.74599127
19,002098,32077075.97000001,47478010.32,2018-09-30,三季度报告,43808099.61,2018,9,-0.2968881207761472,True,0.17234607504989458,True,0.11784731918503122,False,平均增速,78712360.82316835,未知,78712360.82316835
20,002098,-677084103.9000003,-649729150.7000003,2018-12-31,年度报告,-752967538.9799999,2018,12,-0.56682507312407,True,0.4692660885242418,True,0.0,True,比例外推,-649729150.7000003,,-649729150.7000003
21,002098,-8887683.290000001,-6220635.520000001,2019-03-31,一季度报告,-7437055.740000001,2019,3,9.839048720322692,False,0.18174618487991873,True,0.03768459920002595,True,盈利变化,-659959382.3933337,未知,-659959382.3933337
22,002098,40025127.67999999,45140501.96,2019-06-30,半年度报告,43617943.29,2019,6,1.121038852383613,False,0.55038999199137,True,0.405369250369388,False,前期平均,95557383.46499999,未知,95557383.46499999
23,002098,58181792.99,66516122.87000001,2019-09-30,三季度报告,59997135.42999999,2019,9,0.889523774756954,False,0.6282259714666127,True,0.5403996559586874,False,前期平均,95101270.685,未知,95101270.685
24,002098,34500540.65,54500755.39999999,2019-12-31,年度报告,50590188.55000001,2019,12,-1.0895167931441374,False,6.2402408528464335,False,0.0,True,前期平均,54500755.39999999,未知,54500755.39999999
25,002098,-8680300.26,-8521120.49,2020-03-31,一季度报告,-9440922.37,2020,3,-7.819594678648816,False,2.3387710579166474,False,0.11862268076986093,False,去年同期,49506123.80000001,未知,49506123.80000001
