,SECURITYCODE_x,NETPROFIT_x,PARENTNETPROFIT_x,REPORTDATE_x,REPORTTIMETYPE_x,KCFJCXSYJLR,Year,Month,managesituationChangeRate,managesituationGreatChange,historyprofitextroplaterate,ifhistoryprofitextroplate,IfprofitdisStableChangeRage,IfprofitdisStable,predicttype,predict,analyst_prediction,adj_prediction
0,002077,48153577.13,54096017.88,2013-12-31,年度报告,-68364475.31,2013,12,未知,未知,未知,未知,未知,未知,未知,未知,未知,未知
1,002077,-3055550.68,1613850.8999999997,2014-03-31,一季度报告,-40283507.79,2014,3,未知,未知,未知,未知,未知,未知,未知,未知,未知,未知
2,002077,19583937.58,23474386.99,2014-06-30,半年度报告,-31811633.01,2014,6,未知,未知,未知,未知,未知,未知,未知,未知,未知,未知
3,002077,28512170.19,36680829.48,2014-09-30,三季度报告,-61948423.53,2014,9,未知,未知,未知,未知,未知,未知,未知,未知,未知,未知
4,002077,23185297.539999995,38527088.90999999,2014-12-31,年度报告,-75100890.77,2014,12,0.0,True,未知,未知,未知,未知,未知,未知,未知,未知
5,002077,-541107.2999999999,2517761.62,2015-03-31,一季度报告,-14301882.989999998,2015,3,-16.759377661508793,False,未知,未知,未知,未知,未知,未知,78807500.0,未知
6,002077,-45904372.69000001,-29301558.06,2015-06-30,半年度报告,-65040964.94000001,2015,6,1.4588301986407786,False,未知,未知,未知,未知,未知,未知,,未知
7,002077,-36080636.11,-14527416.38,2015-09-30,三季度报告,-79794049.07000001,2015,9,0.6888780057467804,False,未知,未知,未知,未知,未知,未知,未知,未知
8,002077,-42534688.88,-18425634.88,2015-12-31,年度报告,-89465549.63000001,2015,12,1.076901409047003,False,未知,未知,未知,未知,未知,未知,15355000.0,未知
9,002077,497430.87,3316601.53,2016-03-31,一季度报告,-4985815.19,2016,3,-89.99081038086163,False,未知,未知,未知,未知,未知,未知,104643333.0,未知
10,002077,6295875.630000001,10671616.5,2016-06-30,半年度报告,857242.97,2016,6,-2.0489976075958873,False,未知,未知,未知,未知,未知,未知,119000000.0,未知
11,002077,11254884.7,20313231.85,2016-09-30,三季度报告,8540244.81,2016,9,-2.3346099825732813,False,未知,未知,未知,未知,未知,未知,47000000.0,未知
12,002077,19672267.900000006,41594915.16,2016-12-31,年度报告,13576200.060000002,2016,12,-2.1321013130212885,False,2.1924687367653988,False,0.0,True,前期平均,41594915.16,88500000.0,88500000.0
13,002077,-30155059.9,-28176819.29000001,2017-03-31,一季度报告,-30316339.070000004,2017,3,95.80456126496533,False,-1.2766072686177405,True,0.47691482072947955,False,盈利变化,7820883.319999993,166000000.0,166000000.0
14,002077,-20684117.85,-14995995.259999998,2017-06-30,半年度报告,-13408135.199999996,2017,6,6.648432078382717,False,-1.4784020935587032,True,0.3414312265719531,False,盈利变化,32084663.046666667,137425000.0,137425000.0
15,002077,4451570.22,9769042.06,2017-09-30,三季度报告,9558404.760000002,2017,9,3.278460278673491,False,-3.9741521779885356,True,0.15288207628871697,False,前期平均,-1642941.839999998,208860000.0,208860000.0
16,002077,27250182.57,33631028.48,2017-12-31,年度报告,-3137784.91,2017,12,1.44778982142674,False,-3.033373304030761,True,0.0,True,前期平均,33631028.48,207865000.0,207865000.0
17,002077,-18534072.96,-18619370.300000004,2018-03-31,一季度报告,-19607252.33,2018,3,-2.5968655771099964,False,-1379.839042934601,True,6.510263096790645,False,前期平均,-46920195.99500001,未知,-46920195.99500001
18,002077,-32005440.33999999,-33405990.88000001,2018-06-30,半年度报告,-41018091.38,2018,6,-3.3280459664369975,False,-0.04442831136294553,True,2.585368262937644,False,前期平均,-39258804.68000001,未知,-39258804.68000001
19,002077,-103566138.61,-104888360.2,2018-09-30,三季度报告,-113313017.15,2018,9,9.817211624261429,False,-1.3586252151229448,True,2.53780357820662,False,盈利变化,-20978492.3688889,未知,-20978492.3688889
20,002077,-570105020.35,-570415313.8599999,2018-12-31,年度报告,-591738181.5500001,2018,12,0.7670919086983571,False,-3.3838405034915953,True,0.0,True,盈利变化,-162569103.73333338,,-162569103.73333338
21,002077,-120334747.24,-120004479.63,2019-03-31,一季度报告,-120990519.16,2019,3,-3.5981109081594984,False,-0.24986882405548805,True,6.552504461904903,False,前期平均,-97134194.925,未知,-97134194.925
22,002077,-206792204.74,-210188101.92,2019-06-30,半年度报告,-216102816.41,2019,6,-2.5045434969322478,False,-3.448832574629813,True,2.804593780902625,False,前期平均,-198693448.23,未知,-198693448.23
23,002077,-283834900.73999995,-286774749.98,2019-09-30,三季度报告,-296637306.7,2019,9,-1.4649548373270187,False,14.187716660125874,False,2.304335205788497,False,去年同期,-765199914.3800001,未知,-765199914.3800001
24,002077,-471918524.7000001,-475332738.28999984,2019-12-31,年度报告,-685333481.4499999,2019,12,-1.0844643976305233,False,25.299882663395774,False,0.0,True,去年同期,-475332738.28999984,未知,-475332738.28999984
25,002077,7168103.68,5109070.680000002,2020-03-31,一季度报告,-19501452.78,2020,3,-1.4001635291090175,False,-3.9429817362329587,True,6.371241366428922,False,盈利变化,-340013983.11666656,未知,-340013983.11666656
