,SECURITYCODE_x,NETPROFIT_x,PARENTNETPROFIT_x,REPORTDATE_x,REPORTTIMETYPE_x,KCFJCXSYJLR,Year,Month,managesituationChangeRate,managesituationGreatChange,historyprofitextroplaterate,ifhistoryprofitextroplate,IfprofitdisStableChangeRage,IfprofitdisStable,predicttype,predict,analyst_prediction,adj_prediction
0,002001,882120714.89,882120714.89,2013-12-31,年度报告,855444133.6099999,2013,12,未知,未知,未知,未知,未知,未知,未知,未知,未知,未知
1,002001,203536075.96,203536075.96,2014-03-31,一季度报告,204177692.46,2014,3,未知,未知,未知,未知,未知,未知,未知,未知,未知,未知
2,002001,548723718.22,548723718.22,2014-06-30,半年度报告,543999716.9999999,2014,6,未知,未知,未知,未知,未知,未知,未知,未知,未知,未知
3,002001,712748951.03,712748951.03,2014-09-30,三季度报告,685727058.77,2014,9,未知,未知,未知,未知,未知,未知,未知,未知,未知,未知
4,002001,808040363.7999997,808040363.7999997,2014-12-31,年度报告,782586391.5200003,2014,12,0.0,True,未知,未知,未知,未知,未知,未知,未知,未知
5,002001,80427695.62,80427695.62,2015-03-31,一季度报告,66250845.79000002,2015,3,3.3339772113095028,False,未知,未知,未知,未知,未知,未知,未知,未知
6,002001,185537899.41,185616696.74,2015-06-30,半年度报告,151694506.81,2015,6,0.607586269008935,False,未知,未知,未知,未知,未知,未知,未知,未知
7,002001,284736159.15000004,284986283.8400001,2015-09-30,三季度报告,245813238.2200001,2015,9,0.2376317265921463,True,未知,未知,未知,未知,未知,未知,未知,未知
8,002001,389835858.74,402067778.48,2015-12-31,年度报告,354521817.93999994,2015,12,0.09167902299041103,True,未知,未知,未知,未知,未知,未知,,未知
9,002001,164413157.14,155676229.09,2016-03-31,一季度报告,148390924.67000002,2016,3,9.967872548006243,False,未知,未知,未知,未知,未知,未知,1179783844.0,未知
10,002001,535458500.6100001,515689916.69000006,2016-06-30,半年度报告,504017689.12,2016,6,3.7543963669691953,False,未知,未知,未知,未知,未知,未知,1593991667.0,未知
11,002001,875018695.12,845357506.75,2016-09-30,三季度报告,809070384.4999999,2016,9,2.0980284257655373,False,未知,未知,未知,未知,未知,未知,1287000000.0,未知
12,002001,1225384782.78,1202633456.89,2016-12-31,年度报告,1147686307.91,2016,12,1.2628003430498373,False,0.5386997563070713,True,0.0,True,前期平均,1202633456.89,806500000.0,806500000.0
13,002001,231297873.46,231742243.61999995,2017-03-31,一季度报告,218769856.95,2017,3,4.3652683899188345,False,0.1579868532185662,True,0.06854425722844654,True,前期平均,665082079.2250001,1156790000.0,1156790000.0
14,002001,585684199.6000001,585944554.24,2017-06-30,半年度报告,556937962.3299999,2017,6,0.6474119168620511,False,0.45849514056942486,True,0.17440549804521066,False,前期平均,806651547.0650003,1227146667.0,1227146667.0
15,002001,890756661.1600002,901046879.28,2017-09-30,三季度报告,860753800.41,2017,9,0.008116420608620266,True,0.7544496377737397,True,0.1180467169967424,False,平均增速,1393568207.6689837,1617471818.0,1617471818.0
16,002001,1713801962.65,1704413449.19,2017-12-31,年度报告,1646420076.4800005,2017,12,-0.2801275752023339,True,1.0459288860107274,True,0.0,True,比例外推,1704413449.19,1632988182.0,1704413449.19
17,002001,1501725321.96,1493714340.67,2018-03-31,一季度报告,1483150753.8300006,2018,3,2.8137865328993237,False,0.8893732059226636,True,0.03719194410318166,True,前期平均,2137497518.365,4763368000.0,4763368000.0
18,002001,2067593534.18,2058544371.13,2018-06-30,半年度报告,2005950369.0199995,2018,6,0.5061371221768568,False,0.6246522162489397,True,0.06350014814790733,True,前期平均,2481792336.09,3178396667.0,3178396667.0
19,002001,2554980803.72,2537389099.04,2018-09-30,三季度报告,2423553362.4,2018,9,-0.009695067852486153,True,0.5361119772517462,True,0.11757228253457508,False,平均增速,4561082828.41103,3090865000.0,3090865000.0
20,002001,3098438455.550001,3078884552.84,2018-12-31,年度报告,2889118351.12,2018,12,-0.48528433616331995,True,1.1220654548312736,True,0.0,True,比例外推,3078884552.84,4947916000.0,4947916000.0
21,002001,512237364.3,510551709.49,2019-03-31,一季度报告,481691435.50000006,2019,3,-0.41259516504743593,True,6.590009910428815,False,0.2548477734124131,False,未知,未知,2602281111.0,未知
22,002001,1160916229.5399995,1155557075.04,2019-06-30,半年度报告,1056250176.5599998,2019,6,-0.573358737920485,True,2.6883681868378053,False,0.20373089417233858,False,未知,未知,2729194167.0,未知
23,002001,1712957223.5400002,1705875626.46,2019-09-30,三季度报告,1599048071.51,2019,9,-0.6547446800360887,True,1.8938911109311627,True,0.16606897366481743,False,平均增速,2230676038.1245756,2417098571.0,2230676038.1245756
24,002001,2176554927.13,2168616205.8899994,2019-12-31,年度报告,1934679280.2300005,2019,12,-0.7153015212195282,True,1.108364472157214,True,0.0,True,比例外推,2168616205.8899994,2417098571.0,2417098571.0
25,002001,901274306.1999998,901198515.2000002,2020-03-31,一季度报告,879433307.0,2020,3,0.7220936549512852,False,0.40885111560684134,True,0.21495387606963728,False,前期平均,2318007423.61,4013438996.0,4013438996.0
