,SECURITYCODE_x,NETPROFIT_x,PARENTNETPROFIT_x,REPORTDATE_x,REPORTTIMETYPE_x,KCFJCXSYJLR,Year,Month,managesituationChangeRate,managesituationGreatChange,historyprofitextroplaterate,ifhistoryprofitextroplate,IfprofitdisStableChangeRage,IfprofitdisStable,predicttype,predict,analyst_prediction,adj_prediction
0,002073,125449923.94,127541222.01999998,2013-12-31,年度报告,112206726.19,2013,12,未知,未知,未知,未知,未知,未知,未知,未知,未知,未知
1,002073,42613939.33,43070342.57999999,2014-03-31,一季度报告,38358853.34,2014,3,未知,未知,未知,未知,未知,未知,未知,未知,未知,未知
2,002073,109225566.83,108829147.63000004,2014-06-30,半年度报告,100324501.25,2014,6,未知,未知,未知,未知,未知,未知,未知,未知,未知,未知
3,002073,119889297.7,120746448.65999998,2014-09-30,三季度报告,100585594.56,2014,9,未知,未知,未知,未知,未知,未知,未知,未知,未知,未知
4,002073,190109370.63,192151415.90000004,2014-12-31,年度报告,130215200.84999998,2014,12,0.0,True,未知,未知,未知,未知,未知,未知,未知,未知
5,002073,22725798.730000004,26059575.270000003,2015-03-31,一季度报告,-21974406.35,2015,3,1.9438706186847148,False,未知,未知,未知,未知,未知,未知,259553250.0,未知
6,002073,116908396.67999998,120922092.46,2015-06-30,半年度报告,50513172.03,2015,6,0.14853992138353272,True,未知,未知,未知,未知,未知,未知,269846667.0,未知
7,002073,156594986.17999998,164121452.29,2015-09-30,三季度报告,54797338.38000001,2015,9,0.04638133967482566,True,未知,未知,未知,未知,未知,未知,278000000.0,未知
8,002073,196990658.01,209589923.1,2015-12-31,年度报告,60053752.63999999,2015,12,-0.3401170940481589,True,未知,未知,未知,未知,未知,未知,280000000.0,未知
9,002073,-39222322.16,-35255330.980000004,2016-03-31,一季度报告,-91226562.68999998,2016,3,4.520154667848718,False,未知,未知,未知,未知,未知,未知,281785000.0,未知
10,002073,10247547.919999998,18200539.83,2016-06-30,半年度报告,-133043163.2,2016,6,0.07306170901804229,True,未知,未知,未知,未知,未知,未知,201000000.0,未知
11,002073,-47041319.87000001,-35426583.06,2016-09-30,三季度报告,-191984527.15,2016,9,-0.19888926842268062,True,未知,未知,未知,未知,未知,未知,-76666667.0,未知
12,002073,-786835923.2500002,-771394229.4099997,2016-12-31,年度报告,-955949046.6599996,2016,12,-0.3631681562603254,True,0.24851754582878802,True,0.0,True,比例外推,-771394229.4099997,309870000.0,309870000.0
13,002073,10343440.75,14789364.529999996,2017-03-31,一季度报告,-32613015.96,2017,3,-4.198431837570731,False,2.2005656381414638,False,0.3739451348045335,False,前期平均,101731617.77999999,75093334.0,75093334.0
14,002073,51856919.48,61669652.87000001,2017-06-30,半年度报告,-14742865.880000005,2017,6,11.241945577552373,False,0.9093674584663012,True,0.44441212331492985,False,前期平均,81385292.975,159000000.0,159000000.0
15,002073,70731365.89,85151473.63,2017-09-30,三季度报告,-752432.27,2017,9,-3.666802808396625,False,1.3402820529966681,True,0.42775515238882916,False,前期平均,102594483.90499997,,102594483.90499997
16,002073,76367411.58,92052238.50000004,2017-12-31,年度报告,-51523932.32999999,2017,12,-1.1594359385903903,False,5.065284758641811,False,0.0,True,前期平均,92052238.50000004,280000000.0,280000000.0
17,002073,10045344.3,16284603.14,2018-03-31,一季度报告,12814783.310000002,2018,3,11.128451931239612,False,-2.254014616339075,True,0.5121395120862559,False,前期平均,-375062559.34999985,177734487.99999997,177734487.99999997
18,002073,53215649.84,63018861.77,2018-06-30,半年度报告,34832098.86,2018,6,1.4191549594144925,False,0.18435713496323625,True,0.41898503996140113,False,前期平均,-343663789.6549998,,-343663789.6549998
19,002073,66731282.85,78166460.46000002,2018-09-30,三季度报告,34566639.440000005,2018,9,0.7736109342932412,False,0.29126424103149706,True,0.5365027109413136,False,前期平均,-301187592.1649998,未知,-301187592.1649998
20,002073,-339269902.37000006,-312858601.06,2018-12-31,年度报告,-397406215.3899999,2018,12,0.6427154115153264,False,-1.258940491957419,True,0.0,True,盈利变化,-23241855.853333265,未知,-23241855.853333265
21,002073,10321306.11,18091247.860000007,2019-03-31,一季度报告,14631605.560000002,2019,3,11.488364778099243,False,-1.6956879082249745,True,0.40091743318109085,False,前期平均,-423725452.3099998,未知,-423725452.3099998
22,002073,43207707.72,65251861.32999999,2019-06-30,半年度报告,45742847.61999999,2019,6,1.3573878044744738,False,0.71374627519952,True,0.20020246001016534,False,前期平均,-364591613.6249998,未知,-364591613.6249998
23,002073,44636994.90999999,71001087.1,2019-09-30,三季度报告,49335403.73,2019,9,0.8799267537234224,False,4.633698034496264,False,0.1580132500984358,False,去年同期,-360971767.7299999,未知,-360971767.7299999
24,002073,57123659.55,78048598.05,2019-12-31,年度报告,6682514.749999999,2019,12,-1.369764376573514,False,-0.044940354717409876,True,0.0,True,盈利变化,-178162357.68000004,未知,-178162357.68000004
25,002073,-45865439.1,-37620459.5,2020-03-31,一季度报告,-41557503.85,2020,3,11.15446210033974,False,0.012449352395325687,True,1.2594498128762117,False,盈利变化,3129785.50333333,未知,3129785.50333333
