,SECURITYCODE_x,NETPROFIT_x,PARENTNETPROFIT_x,REPORTDATE_x,REPORTTIMETYPE_x,KCFJCXSYJLR,Year,Month,managesituationChangeRate,managesituationGreatChange,historyprofitextroplaterate,ifhistoryprofitextroplate,IfprofitdisStableChangeRage,IfprofitdisStable,predicttype,predict,analyst_prediction,adj_prediction
0,002063,340123189.55999994,340954072.85999995,2013-12-31,年度报告,328026932.60999995,2013,12,未知,未知,未知,未知,未知,未知,未知,未知,未知,未知
1,002063,23589754.47,25875955.82000001,2014-03-31,一季度报告,23312713.25,2014,3,未知,未知,未知,未知,未知,未知,未知,未知,未知,未知
2,002063,111668285.36,117630497.75,2014-06-30,半年度报告,109837279.73000002,2014,6,未知,未知,未知,未知,未知,未知,未知,未知,未知,未知
3,002063,133617816.0,142364049.58,2014-09-30,三季度报告,132923350.91000004,2014,9,未知,未知,未知,未知,未知,未知,未知,未知,未知,未知
4,002063,177830964.67,190570344.01999992,2014-12-31,年度报告,172089437.85999995,2014,12,0.0,True,未知,未知,未知,未知,未知,未知,未知,未知
5,002063,35268513.300000004,38336012.16,2015-03-31,一季度报告,37837016.65,2015,3,13.41825899428278,False,未知,未知,未知,未知,未知,未知,487442537.0,未知
6,002063,117583181.77999996,123367800.48999998,2015-06-30,半年度报告,122181281.54999998,2015,6,2.045835157793453,False,未知,未知,未知,未知,未知,未知,455000000.0,未知
7,002063,121665483.03000005,122545963.57,2015-09-30,三季度报告,108027785.64999998,2015,9,1.5454928073364105,False,未知,未知,未知,未知,未知,未知,246755000.0,未知
8,002063,110011481.77,121227460.02,2015-12-31,年度报告,94035623.89,2015,12,0.9126207305413025,False,未知,未知,未知,未知,未知,未知,242935000.0,未知
9,002063,2154786.12,5755999.820000001,2016-03-31,一季度报告,2043848.6700000004,2016,3,8.64381987601388,False,未知,未知,未知,未知,未知,未知,182070000.0,未知
10,002063,63923383.74999999,72567137.98,2016-06-30,半年度报告,64570562.05,2016,6,1.8926176721121217,False,未知,未知,未知,未知,未知,未知,160546667.0,未知
11,002063,87186901.74000001,95243845.85,2016-09-30,三季度报告,86334052.55999999,2016,9,1.7955602615421584,False,未知,未知,未知,未知,未知,未知,,未知
12,002063,142089799.45,131374311.56,2016-12-31,年度报告,113508656.14,2016,12,2.0917062845412118,False,0.5752076477365258,True,0.0,True,前期平均,131374311.56,403980000.0,403980000.0
13,002063,2989109.3800000013,5922808.039999999,2017-03-31,一季度报告,604486.2000000001,2017,3,156.84545222520737,False,0.9267805118417606,True,0.21708774575640677,False,前期平均,108410473.96499997,177100000.0,177100000.0
14,002063,66140542.63,74309407.60000001,2017-06-30,半年度报告,65120466.95,2017,6,4.320794513791676,False,0.4423295558587368,True,0.46383324056734454,False,前期平均,91362657.835,,91362657.835
15,002063,115057080.92000002,126362485.15000004,2017-09-30,三季度报告,114843875.32,2017,9,2.901081272210831,False,0.3169400264624902,True,0.2548632710619013,False,前期平均,138949447.745,168733332.99999997,168733332.99999997
16,002063,166683791.26,172272603.74999997,2017-12-31,年度报告,150767196.44,2017,12,1.3937199635480235,False,0.01272518207547799,True,0.0,True,前期平均,172272603.74999997,168733332.99999997,172272603.74999997
17,002063,1856153.49,6072192.05,2018-03-31,一季度报告,4855842.48,2018,3,112.78746854690202,False,0.8402540969756108,True,0.26090747482272164,False,前期平均,89903899.405,214000000.0,214000000.0
18,002063,72629325.38,76121456.95000002,2018-06-30,半年度报告,73201291.62,2018,6,4.142431193265218,False,0.2712049568359212,True,0.5326097930698158,False,前期平均,86517675.16500004,192090000.0,192090000.0
19,002063,124567388.48,130864438.65000002,2018-09-30,三季度报告,123347415.86,2018,9,1.956125662500424,False,0.1018028934331521,True,0.25842283028031854,False,前期平均,137455659.56000003,,137455659.56000003
20,002063,187643005.92,194695651.63,2018-12-31,年度报告,168804547.73,2018,12,1.0405294779350338,False,0.32235576474155936,True,0.0,True,前期平均,194695651.63,,194695651.63
21,002063,2153648.61,6860169.440000001,2019-03-31,一季度报告,6646145.09,2019,3,182.24087495587443,False,0.2783082432370567,True,0.012917788556845312,True,前期平均,137673928.29500002,221200000.0,221200000.0
22,002063,68285192.33,80308540.12,2019-06-30,半年度报告,78783922.59000002,2019,6,3.6830008096655127,False,0.11682504752014389,True,0.09071598054772062,True,前期平均,147600951.91,228970000.0,228970000.0
23,002063,120736610.96000002,134167892.32,2019-09-30,三季度报告,131108738.18999998,2019,9,1.730435258459389,False,0.23185260536937635,True,0.020300465759278463,True,前期平均,165716854.67,223964000.0,223964000.0
24,002063,221406711.26999995,226707159.85,2019-12-31,年度报告,185073550.07,2019,12,0.8126078714866068,False,0.2154083870225431,True,0.0,True,前期平均,226707159.85,223964000.0,226707159.85
25,002063,7147509.31,6955094.19,2020-03-31,一季度报告,4685491.54,2020,3,156.92882273399277,False,0.11102919788539795,True,0.018886031082096865,True,前期平均,164010801.935,301934545.0,301934545.0
