,SECURITYCODE_x,NETPROFIT_x,PARENTNETPROFIT_x,REPORTDATE_x,REPORTTIMETYPE_x,KCFJCXSYJLR,Year,Month,managesituationChangeRate,managesituationGreatChange,historyprofitextroplaterate,ifhistoryprofitextroplate,IfprofitdisStableChangeRage,IfprofitdisStable,predicttype,predict,analyst_prediction,adj_prediction
0,002086,58835921.19,57006323.60000001,2013-12-31,年度报告,42502994.25999999,2013,12,未知,未知,未知,未知,未知,未知,未知,未知,未知,未知
1,002086,1717280.1,1255223.61,2014-03-31,一季度报告,351370.06,2014,3,未知,未知,未知,未知,未知,未知,未知,未知,未知,未知
2,002086,35645178.35,34450526.02,2014-06-30,半年度报告,32221462.02,2014,6,未知,未知,未知,未知,未知,未知,未知,未知,未知,未知
3,002086,39067927.96000001,37431094.5,2014-09-30,三季度报告,33995227.97,2014,9,未知,未知,未知,未知,未知,未知,未知,未知,未知,未知
4,002086,43586595.15000001,41598501.63,2014-12-31,年度报告,21275753.090000004,2014,12,0.0,True,未知,未知,未知,未知,未知,未知,未知,未知
5,002086,1648610.7800000003,1566558.07,2015-03-31,一季度报告,-71267.06,2015,3,33.261109291373025,False,未知,未知,未知,未知,未知,未知,91470000.0,未知
6,002086,40180759.33000001,40011006.45,2015-06-30,半年度报告,37460848.02,2015,6,0.6505997140003087,False,未知,未知,未知,未知,未知,未知,,未知
7,002086,44124900.10999999,43540302.86,2015-09-30,三季度报告,39303137.78999999,2015,9,0.5059903164109343,False,未知,未知,未知,未知,未知,未知,50000000.0,未知
8,002086,50321579.44000001,49960214.40000001,2015-12-31,年度报告,38586623.20000001,2015,12,0.34986274994687167,True,未知,未知,未知,未知,未知,未知,,未知
9,002086,2009558.26,1998046.24,2016-03-31,一季度报告,283446.43,2016,3,34.68818177326245,False,未知,未知,未知,未知,未知,未知,,未知
10,002086,52488956.67999999,52324467.26,2016-06-30,半年度报告,48332866.85,2016,6,0.46428096857969403,True,未知,未知,未知,未知,未知,未知,未知,未知
11,002086,56450799.21999999,57705255.03000002,2016-09-30,三季度报告,52137834.21000001,2016,9,0.33339500017737284,True,未知,未知,未知,未知,未知,未知,未知,未知
12,002086,73840603.79,76617087.03000002,2016-12-31,年度报告,51414712.89,2016,12,0.16919861905669914,True,0.017372717675606157,True,0.0,True,比例外推,76617087.03000002,136484167.0,136484167.0
13,002086,1512670.62,2648710.1,2017-03-31,一季度报告,891892.64,2017,3,28.278037049794218,False,0.19407213819124153,True,0.009788028930726066,True,前期平均,32439846.74500001,未知,32439846.74500001
14,002086,100921413.26,102938714.22,2017-06-30,半年度报告,99452992.95,2017,6,0.12091999749003216,True,0.3844591517354774,True,0.3726845325032988,False,平均增速,108533365.1848296,133065000.0,133065000.0
15,002086,107185265.00000004,111261527.99,2017-09-30,三季度报告,89914775.72999999,2017,9,0.042251341043103956,True,0.3571073499869782,True,0.3876815072488029,False,平均增速,110069243.6717156,125840000.0,125840000.0
16,002086,121318727.98,124054068.96999998,2017-12-31,年度报告,66031174.97000001,2017,12,-0.2032036823896075,True,0.572612908564896,True,0.0,True,比例外推,124054068.96999998,125840000.0,124054068.96999998
17,002086,2940576.2300000004,2985996.2800000007,2018-03-31,一季度报告,1143397.45,2018,3,37.89539494724899,False,0.17299031102182194,True,0.0077827608511403575,True,前期平均,47880574.64000001,124030000.0,124030000.0
18,002086,80886386.56999998,80063724.78,2018-06-30,半年度报告,76072591.9,2018,6,-0.4170125121174904,True,1.178088324973599,True,0.3671401367983653,False,平均增速,45417374.8948078,122780000.0,122780000.0
19,002086,93372291.94,92350048.99,2018-09-30,三季度报告,83860361.99999999,2018,9,-0.45108200096347223,True,1.1314346450291803,True,0.23025676923333904,False,平均增速,65588088.13902382,134955000.0,134955000.0
20,002086,-791173579.23,-788151047.6,2018-12-31,年度报告,-743364751.12,2018,12,-0.5150301839655013,True,0.9541977246850959,True,0.0,True,比例外推,-788151047.6,,-788151047.6
21,002086,626267.8400000001,362023.04,2019-03-31,一季度报告,-1644125.4,2019,3,19.008296533771542,False,0.6697246716119144,True,0.007679827814713979,True,前期平均,58497297.435,未知,58497297.435
22,002086,35303228.84,34400851.24,2019-06-30,半年度报告,29141284.75,2019,6,-0.2726103404423594,True,0.05451002564735721,True,0.8836273779663212,False,平均增速,1920613476.2209399,未知,1920613476.2209399
23,002086,29846545.76,29338775.190000005,2019-09-30,三季度报告,22575181.8,2019,9,-0.3698781515633427,True,0.1412189896533553,True,0.8671300322267994,False,平均增速,1980576642.7759435,未知,1980576642.7759435
24,002086,-1029473772.84,-1020993843.41,2019-12-31,年度报告,-891698957.4,2019,12,-1.0743653766184424,False,9.107975899019957,False,0.0,True,去年同期,-1020993843.41,,-1020993843.41
25,002086,38280333.73,37766992.79,2020-03-31,一季度报告,-38767115.48,2020,3,92.94689848675606,False,0.7187365259125486,True,0.00890287173511905,True,前期平均,-301917440.33,未知,-301917440.33
