,SECURITYCODE_x,NETPROFIT_x,PARENTNETPROFIT_x,REPORTDATE_x,REPORTTIMETYPE_x,KCFJCXSYJLR,Year,Month,managesituationChangeRate,managesituationGreatChange,historyprofitextroplaterate,ifhistoryprofitextroplate,IfprofitdisStableChangeRage,IfprofitdisStable,predicttype,predict,analyst_prediction,adj_prediction
0,002029,377475101.56,379069295.63000005,2013-12-31,年度报告,325330618.0,2013,12,未知,未知,未知,未知,未知,未知,未知,未知,未知,未知
1,002029,111953498.02,111849533.13999996,2014-03-31,一季度报告,75910454.34,2014,3,未知,未知,未知,未知,未知,未知,未知,未知,未知,未知
2,002029,150782758.29,151247384.38,2014-06-30,半年度报告,100063362.73,2014,6,未知,未知,未知,未知,未知,未知,未知,未知,未知,未知
3,002029,231490510.41000003,228379730.86,2014-09-30,三季度报告,154569861.64000002,2014,9,未知,未知,未知,未知,未知,未知,未知,未知,未知,未知
4,002029,294391623.43,288707146.75,2014-12-31,年度报告,175899329.15,2014,12,0.0,True,未知,未知,未知,未知,未知,未知,未知,未知
5,002029,71250754.69999999,67896726.72000003,2015-03-31,一季度报告,32882736.83999999,2015,3,2.3717133295162047,False,未知,未知,未知,未知,未知,未知,296491000.0,未知
6,002029,113036693.07,111501092.7,2015-06-30,半年度报告,59827167.84,2015,6,1.5034367711592287,False,未知,未知,未知,未知,未知,未知,289244683.0,未知
7,002029,188305961.08000007,181887753.45,2015-09-30,三季度报告,80529788.77,2015,9,0.6306288361084095,False,未知,未知,未知,未知,未知,未知,261530000.0,未知
8,002029,280083782.38,273030773.86,2015-12-31,年度报告,151637985.45000002,2015,12,0.28222093129547027,True,未知,未知,未知,未知,未知,未知,327400000.0,未知
9,002029,65054874.56999999,64380522.56999999,2016-03-31,一季度报告,46767082.94000001,2016,3,4.297840046036734,False,未知,未知,未知,未知,未知,未知,287177143.0,未知
10,002029,105778019.01,105225385.34,2016-06-30,半年度报告,56586777.47000001,2016,6,2.339403261967703,False,未知,未知,未知,未知,未知,未知,277034286.0,未知
11,002029,174157746.41,168855729.43000004,2016-09-30,三季度报告,78692163.02000001,2016,9,1.0045839196754538,False,未知,未知,未知,未知,未知,未知,244714000.0,未知
12,002029,277609142.6700001,267191552.8499999,2016-12-31,年度报告,134821480.22000003,2016,12,0.3477220935550835,True,0.1662519605084811,True,0.0,True,比例外推,267191552.8499999,284000000.0,267191552.8499999
13,002029,72294525.93999998,70693104.09,2017-03-31,一季度报告,58647042.55,2017,3,4.802410719489303,False,0.28981043175426124,True,0.11491242178704356,False,前期平均,180065165.8,319633333.0,319633333.0
14,002029,126460454.9,122005197.97,2017-06-30,半年度报告,85748372.94,2017,6,2.568558998295425,False,0.1981029566644156,True,0.10782621888602895,False,前期平均,205828589.985,318262500.0,318262500.0
15,002029,205548614.74,194825147.10999995,2017-09-30,三季度报告,116151794.98,2017,9,1.1674321661888805,False,0.17027532036248397,True,0.21424605080948145,False,前期平均,241043979.20499998,320708571.0,320708571.0
16,002029,343245371.55999994,316579206.29,2017-12-31,年度报告,175417340.63000005,2017,12,0.3597358427374012,True,0.03352122697550054,True,0.0,True,比例外推,316579206.29,298000000.0,316579206.29
17,002029,85728328.91,83732432.38000001,2018-03-31,一季度报告,67078822.62000001,2018,3,4.22135108643331,False,0.060770950212128284,True,0.08250322253693462,True,前期平均,187137255.32500005,371416250.0,371416250.0
18,002029,135695145.86999995,134803965.32999998,2018-06-30,半年度报告,80473452.27000001,2018,6,1.984926013894957,False,0.1558679368301826,True,0.05446470487549071,True,前期平均,219826725.51,354321667.0,354321667.0
19,002029,218563459.52000004,214651454.64000005,2018-09-30,三季度报告,110580578.11,2018,9,0.836427367985287,False,0.13417487319428165,True,0.06984936536520514,True,前期平均,278270211.58000004,350541225.0,350541225.0
20,002029,364544081.71,346286529.66,2018-12-31,年度报告,205759843.17000005,2018,12,0.09972379188809145,True,0.2309475560559647,True,0.0,True,比例外推,346286529.66,368270000.0,346286529.66
21,002029,94327987.59000002,91645888.51999998,2019-03-31,一季度报告,64153498.67,2019,3,3.4031547839487684,False,0.24832476285556673,True,0.011143007230436264,True,前期平均,194058236.20000002,384250000.0,384250000.0
22,002029,121648978.31,123453340.18,2019-06-30,半年度报告,68139847.61,2019,6,1.7817878019132134,False,0.1685845466120849,True,0.05560992949210197,True,前期平均,207405175.40000004,365600000.0,365600000.0
23,002029,201763557.47,198021284.01999995,2019-09-30,三季度报告,117418190.59,2019,9,0.7270732371687156,False,0.15122358686879248,True,0.06772956861588397,True,前期平均,255718715.445,336333333.0,336333333.0
24,002029,353421570.71000004,347303953.8,2019-12-31,年度报告,224769725.23,2019,12,0.0354717591061781,True,0.17433013163193978,True,0.0,True,比例外推,347303953.8,,347303953.8
25,002029,-36175754.63000001,-42052580.65000001,2020-03-31,一季度报告,-25579489.56,2020,3,3.001729616036219,False,0.1938524674742647,True,0.029832173557106934,True,盈利变化,227659969.49333334,250333332.99999997,227659969.49333334
