,SECURITYCODE_x,NETPROFIT_x,PARENTNETPROFIT_x,REPORTDATE_x,REPORTTIMETYPE_x,KCFJCXSYJLR,Year,Month,managesituationChangeRate,managesituationGreatChange,historyprofitextroplaterate,ifhistoryprofitextroplate,IfprofitdisStableChangeRage,IfprofitdisStable,predicttype,predict,analyst_prediction,adj_prediction
0,002080,121907336.43999998,107949115.41,2013-12-31,年度报告,84260617.99000001,2013,12,未知,未知,未知,未知,未知,未知,未知,未知,未知,未知
1,002080,-12688319.510000002,-13711216.100000005,2014-03-31,一季度报告,-15230430.510000002,2014,3,未知,未知,未知,未知,未知,未知,未知,未知,未知,未知
2,002080,43842038.42,35696487.239999995,2014-06-30,半年度报告,29859644.56,2014,6,未知,未知,未知,未知,未知,未知,未知,未知,未知,未知
3,002080,85172770.4,71657130.39000002,2014-09-30,三季度报告,63368102.64,2014,9,未知,未知,未知,未知,未知,未知,未知,未知,未知,未知
4,002080,172756835.94000003,152194786.21,2014-12-31,年度报告,202646791.12,2014,12,0.0,True,未知,未知,未知,未知,未知,未知,未知,未知
5,002080,33404582.78000001,27639424.83000001,2015-03-31,一季度报告,23721973.45,2015,3,-10.60783942616842,False,未知,未知,未知,未知,未知,未知,241500000.0,未知
6,002080,367757272.41,334583724.31000006,2015-06-30,半年度报告,312155098.79000014,2015,6,1.7806037500388645,False,未知,未知,未知,未知,未知,未知,326500000.0,未知
7,002080,578678286.41,532656517.4,2015-09-30,三季度报告,506377131.50999993,2015,9,0.43129471857592616,True,未知,未知,未知,未知,未知,未知,535450000.0,未知
8,002080,687727320.4399999,630342954.21,2015-12-31,年度报告,593633258.5899999,2015,12,-0.2943414610676276,True,未知,未知,未知,未知,未知,未知,423266667.0,未知
9,002080,687727320.4399999,630342954.21,2015-12-31,年度报告,586482144.96,2015,12,-0.2943414610676276,True,未知,未知,未知,未知,未知,未知,423266667.0,未知
10,002080,78413263.0,75231170.60000001,2016-03-31,一季度报告,45878712.02,2016,3,2.6494195195573087,False,未知,未知,未知,未知,未知,未知,517757500.0,未知
11,002080,280468892.55999994,272548986.52,2016-06-30,半年度报告,236556573.37,2016,6,-0.6685114188466961,True,未知,未知,未知,未知,未知,未知,593433750.0,未知
12,002080,352273040.89,338668981.4,2016-09-30,三季度报告,209266890.91,2016,9,-0.7893348699909101,True,未知,未知,0.0,True,未知,未知,482410000.0,未知
13,002080,423465718.12,401403276.47,2016-12-31,年度报告,265026760.24,2016,12,-0.8227388489350619,True,3.6678720041546438,False,0.12713877843501853,False,未知,未知,450926667.0,未知
14,002080,146857532.37,137004433.82999998,2017-03-31,一季度报告,125569166.09999998,2017,3,0.5546775095942632,False,6.5702130232678755,False,0.374572675518137,False,去年同期,356152482.04999995,781592000.0,781592000.0
15,002080,395260946.35,373540556.71000016,2017-06-30,半年度报告,353992509.1,2017,6,-0.5653445366889639,True,0.36282488906226584,True,0.33907186841922854,False,平均增速,418870258.8905412,822178530.0,822178530.0
16,002080,632260538.7000003,599976333.56,2017-09-30,三季度报告,572762816.7900001,2017,9,-0.6539407723849452,True,0.06130143885821561,True,0.0,True,比例外推,905988573.7198504,835754667.0,905988573.7198504
17,002080,810516863.27,767283673.9799999,2017-12-31,年度报告,740379040.4699999,2017,12,-0.7121199397646296,True,0.015750110027609787,True,0.0875965384100687,True,比例外推,767283673.9799999,831708570.9999999,767283673.9799999
18,002080,162549199.48999998,148235481.54,2018-03-31,一季度报告,130807337.77000004,2018,3,-0.16989387964887825,True,1.6267279850649257,True,0.2603969053836046,False,平均增速,966467585.9521133,1110736667.0,1110736667.0
19,002080,415394660.64999986,384393569.36,2018-06-30,半年度报告,354401704.97,2018,6,-0.6915775829468056,True,0.219515557099713,True,0.04760420935427312,True,比例外推,590595033.3836844,929070000.0,929070000.0
20,002080,786600730.0300001,745578938.5100001,2018-09-30,三季度报告,650361694.58,2018,9,-0.8071881305598236,True,0.3583106230348683,True,0.0,True,比例外推,902709500.38256,893270000.0,902709500.38256
21,002080,987235210.5099996,929755023.8200002,2018-12-31,年度报告,932395583.5900002,2018,12,-0.8495930905765867,True,0.45882278801953696,True,0.020709191598335175,True,比例外推,929755023.8200002,874038750.0,929755023.8200002
22,002080,224157935.7,216943052.15000004,2019-03-31,一季度报告,196511217.99,2019,3,-0.25002807259287846,True,0.4431448978818419,True,0.308976999710585,False,平均增速,1631253363.3291337,1318982667.0,1318982667.0
23,002080,667884171.97,652298951.05,2019-06-30,半年度报告,613513767.07,2019,6,-0.7065264723209436,True,0.22946963928679198,True,0.056060119576105794,True,比例外推,1090043971.3909817,1404881818.0,1404881818.0
24,002080,1051396488.4099998,1018893810.43,2019-09-30,三季度报告,962381877.38,2019,9,-0.8450200568268599,True,0.5979154928521028,True,0.0,True,比例外推,1333596860.4755971,1367966667.0,1333596860.4755971
25,002080,1428477136.8199995,1379965477.8200002,2019-12-31,年度报告,1099384977.13,2019,12,-0.876516421677238,True,0.6000796533091162,True,0.02258811388935933,True,比例外推,1379965477.8200002,1362950954.0,1379965477.8200002
26,002080,252693638.71000007,241939010.06000003,2020-03-31,一季度报告,229012674.66,2020,3,-0.45615426882252474,True,0.44895319085317575,True,未知,未知,True,True,1670546190.0,1670546190.0
