,SECURITYCODE_x,NETPROFIT_x,PARENTNETPROFIT_x,REPORTDATE_x,REPORTTIMETYPE_x,KCFJCXSYJLR,Year,Month,managesituationChangeRate,managesituationGreatChange,historyprofitextroplaterate,ifhistoryprofitextroplate,IfprofitdisStableChangeRage,IfprofitdisStable,predicttype,predict,analyst_prediction,adj_prediction
0,002053,-2590072.74,37339483.38,2013-12-31,年度报告,16531506.39,2013,12,未知,未知,未知,未知,未知,未知,未知,未知,未知,未知
1,002053,500758.6,8234714.869999997,2014-03-31,一季度报告,7849766.789999997,2014,3,未知,未知,未知,未知,未知,未知,未知,未知,未知,未知
2,002053,-9914990.94,2520590.82,2014-06-30,半年度报告,-616178.03,2014,6,未知,未知,未知,未知,未知,未知,未知,未知,未知,未知
3,002053,-5935856.1400000015,12930567.340000002,2014-09-30,三季度报告,12325863.01,2014,9,未知,未知,未知,未知,未知,未知,未知,未知,未知,未知
4,002053,33783425.46,55633060.74999999,2014-12-31,年度报告,53755723.08000001,2014,12,-0.0,False,未知,未知,未知,未知,未知,未知,未知,未知
5,002053,1531553.9,12114066.2,2015-03-31,一季度报告,11399500.129999995,2015,3,-6.1722980693691545,False,未知,未知,未知,未知,未知,未知,75960000.0,未知
6,002053,4804588.67,22145998.8,2015-06-30,半年度报告,19678457.45,2015,6,-0.7387720517675026,False,未知,未知,未知,未知,未知,未知,94790000.0,未知
7,002053,51576144.08999999,75370834.27,2015-09-30,三季度报告,71555461.34,2015,9,-0.5636564163766948,False,未知,未知,未知,未知,未知,未知,131660000.0,未知
8,002053,113193412.5,102528759.59,2015-12-31,年度报告,97614339.53,2015,12,-1.0766669662632844,False,未知,未知,未知,未知,未知,未知,65047886.0,未知
9,002053,34898366.67999999,40492626.32,2016-03-31,一季度报告,39103758.1,2016,3,-2.6911404423964447,False,未知,未知,未知,未知,未知,未知,204850000.0,未知
10,002053,82159588.12,92442873.99,2016-06-30,半年度报告,87752578.62,2016,6,-1.539083138619648,False,未知,未知,未知,未知,未知,未知,255110000.0,未知
11,002053,167079496.20999998,178262592.19,2016-09-30,三季度报告,169924976.32,2016,9,-1.050218425314625,False,未知,未知,未知,未知,未知,未知,265804929.0,未知
12,002053,260365567.19,270126824.99,2016-12-31,年度报告,264261806.88,2016,12,-1.0228818328098377,False,6.257534226349748,False,0.0,True,去年同期,270126824.99,259673697.0,270126824.99
13,002053,41849464.09,42517797.9,2017-03-31,一季度报告,41850188.56,2017,3,-1.074217592007948,False,33.34350443644862,False,0.020146059059379107,True,去年同期,267675846.68,362022000.0,362022000.0
14,002053,96778753.21,95830216.31,2017-06-30,半年度报告,85033198.67,2017,6,-1.0315248992755053,False,-33.15386334743469,True,0.1855286191661121,False,前期平均,161984107.905,251486667.00000003,251486667.00000003
15,002053,126379136.21999995,125391465.32,2017-09-30,三季度报告,108474457.53000002,2017,9,-1.0155020382437865,False,6.321579407782856,False,0.3058240406418391,False,去年同期,219728295.88,227041636.0,219728295.88
16,002053,159952697.42,162128045.38000005,2017-12-31,年度报告,141190817.44,2017,12,-1.0099478313048589,False,2.542946913320572,False,0.0,True,去年同期,162128045.38000005,201111636.0,201111636.0
17,002053,116380226.42,110317421.32,2018-03-31,一季度报告,36072374.82,2018,3,-1.0618902247930793,False,1.2975325459795453,True,0.10935429202884972,False,前期平均,266003865.41,291000000.0,266003865.41
18,002053,161245912.04999998,152399279.85999998,2018-06-30,半年度报告,55559437.59999999,2018,6,-1.0267628240093134,False,1.2257153872381292,True,0.2236179434218023,False,前期平均,279621835.03,,279621835.03
19,002053,148762369.51,139836429.60999998,2018-09-30,三季度报告,65512700.18,2018,9,-1.0204944646519123,False,0.1559650237844789,True,0.07176336973563291,True,前期平均,200034283.98499998,未知,200034283.98499998
20,002053,253005865.90000007,239028768.95,2018-12-31,年度报告,95852575.32999998,2018,12,-1.016192741865422,False,0.14362814914668828,True,0.0,True,前期平均,239028768.95,109000000.0,109000000.0
21,002053,146445145.04,137143407.41,2019-03-31,一季度报告,25222470.12,2019,3,-1.0222552646585579,False,2.0327952009163996,False,0.12559781256661756,False,去年同期,196923607.92,,196923607.92
22,002053,226368700.0,210282510.89000005,2019-06-30,半年度报告,97142332.24,2019,6,-1.0160628738246515,False,0.8022511089742199,True,0.17258597067995335,False,前期平均,326615934.40500003,未知,326615934.40500003
23,002053,228355200.5,210289500.04,2019-09-30,三季度报告,90838938.92,2019,9,-1.0174108058948732,False,0.013855808419505058,True,0.070024746809491,True,前期平均,273816095.275,未知,273816095.275
24,002053,286313835.35,262558043.16,2019-12-31,年度报告,130054723.72999996,2019,12,-1.0102372043066532,False,0.20387757184311836,True,0.0,True,前期平均,262558043.16,215000000.0,215000000.0
25,002053,126250135.43,119657293.96999998,2020-03-31,一季度报告,116933138.11,2020,3,-1.0176862998038791,False,0.8510450796937478,True,0.09495527182747976,True,前期平均,199217708.66499996,未知,199217708.66499996
