,SECURITYCODE_x,NETPROFIT_x,PARENTNETPROFIT_x,REPORTDATE_x,REPORTTIMETYPE_x,KCFJCXSYJLR,Year,Month,managesituationChangeRate,managesituationGreatChange,historyprofitextroplaterate,ifhistoryprofitextroplate,IfprofitdisStableChangeRage,IfprofitdisStable,predicttype,predict,analyst_prediction,adj_prediction
0,002039,-158898561.97,-99100698.12,2013-12-31,年度报告,-115150080.83,2013,12,未知,未知,未知,未知,未知,未知,未知,未知,未知,未知
1,002039,-118764560.51,-73799670.23,2014-03-31,一季度报告,-73844571.72999997,2014,3,未知,未知,未知,未知,未知,未知,未知,未知,未知,未知
2,002039,-38817470.54,-30089714.06,2014-06-30,半年度报告,-32921250.46,2014,6,未知,未知,未知,未知,未知,未知,未知,未知,未知,未知
3,002039,489684692.1,281384926.25,2014-09-30,三季度报告,264618604.32,2014,9,未知,未知,未知,未知,未知,未知,未知,未知,未知,未知
4,002039,511098271.01,294225409.75,2014-12-31,年度报告,263856343.74,2014,12,-0.0,False,未知,未知,未知,未知,未知,未知,未知,未知
5,002039,65672443.57,30476909.5,2015-03-31,一季度报告,27167693.65,2015,3,0.33792910349397287,False,未知,未知,未知,未知,未知,未知,,未知
6,002039,163790529.48999998,92409204.29,2015-06-30,半年度报告,79304843.36,2015,6,3.093480583858775,False,未知,未知,未知,未知,未知,未知,316000000.0,未知
7,002039,451480253.46,261699491.34000003,2015-09-30,三季度报告,245339248.29,2015,9,-1.3244915851638484,False,未知,未知,未知,未知,未知,未知,,未知
8,002039,633478634.2599999,359475020.44999987,2015-12-31,年度报告,329026140.33,2015,12,-1.3108963011281465,False,未知,未知,未知,未知,未知,未知,318000000.0,未知
9,002039,117013109.14,58368986.14999999,2016-03-31,一季度报告,57647891.99,2016,3,-3.419562198879209,False,未知,未知,未知,未知,未知,未知,403300000.0,未知
10,002039,188253209.28,102491390.79,2016-06-30,半年度报告,97988930.59000002,2016,6,-1.9701327815763692,False,未知,未知,未知,未知,未知,未知,429605000.0,未知
11,002039,339256721.48999983,193236855.31,2016-09-30,三季度报告,188721977.2,2016,9,-1.3519501921784005,False,未知,未知,未知,未知,未知,未知,327100000.0,未知
12,002039,239638859.07,129613733.58,2016-12-31,年度报告,122027079.48000002,2016,12,-1.2508349190902357,False,2.5972694922814634,False,0.0,True,去年同期,129613733.58,335500000.0,335500000.0
13,002039,-4570128.97,-3866230.150000001,2017-03-31,一季度报告,-4223359.52,2017,3,-2.357955216623518,False,-5.407927801117361,True,0.38071141724302454,False,盈利变化,47118731.56666666,250195000.0,250195000.0
14,002039,73009623.00999999,47131914.98,2017-06-30,半年度报告,46590482.1,2017,6,-1.8440682768582228,False,2.0127006710353075,False,0.49658667635305026,False,去年同期,71170063.87,325322500.0,325322500.0
15,002039,581121246.94,345046366.12,2017-09-30,三季度报告,338444452.19,2017,9,-1.468372627289814,False,0.2790706388068042,True,0.4481915563736534,False,前期平均,386508681.85,319958000.0,319958000.0
16,002039,543441539.71,320349916.9,2017-12-31,年度报告,314756921.18000007,2017,12,-1.663075106377404,False,0.5812621101009017,True,0.0,True,前期平均,320349916.9,314447500.0,320349916.9
17,002039,47075711.68999998,19867837.03,2018-03-31,一季度报告,14448036.489999998,2018,3,33.768944818202804,False,1.0500327355086994,True,0.2918951731938244,False,前期平均,202986654.115,393650000.0,393650000.0
18,002039,231283404.37,140026050.73,2018-06-30,半年度报告,134432283.88000005,2018,6,-3.1764057314504415,False,0.5852241356992336,True,0.40565663746894165,False,前期平均,276905773.65999997,386057500.0,386057500.0
19,002039,472803375.44,292799172.71000004,2018-09-30,三季度报告,287138350.27,2018,9,-1.2734344386936622,False,0.4698218632731718,True,0.42406900225455346,False,前期平均,301295169.87000006,270970000.0,270970000.0
20,002039,550684594.39,367794553.19000006,2018-12-31,年度报告,313697837.71,2018,12,-1.2923931101306574,False,0.24483026365067478,True,0.0,True,前期平均,367794553.19000006,386000000.0,367794553.19000006
21,002039,11921618.08,6854952.739999997,2019-03-31,一季度报告,5561984.53,2019,3,-4.375383106608537,False,0.16267406611195687,True,0.3040661198729899,False,前期平均,198534686.83500004,377552500.0,377552500.0
22,002039,141902866.0,93868219.33,2019-06-30,半年度报告,87587183.57999998,2019,6,-1.6870296742770141,False,0.7705036904237261,True,0.3431527467986135,False,前期平均,239970513.315,340882000.0,340882000.0
23,002039,459043341.77,285759011.04999995,2019-09-30,三季度报告,279358720.81000006,2019,9,-1.3360774694599544,False,0.02741132807974093,True,0.36750853049615984,False,前期平均,240567796.685,361505000.0,361505000.0
24,002039,446443809.5500001,290218152.09,2019-12-31,年度报告,281560954.44,2019,12,-1.2885473165379067,False,0.40645735801314653,True,0.0,True,前期平均,290218152.09,,290218152.09
25,002039,84615739.08999999,51589151.58,2020-03-31,一季度报告,51390511.11000002,2020,3,-14.328606981343594,False,0.4390563630884859,True,0.030882323351643755,True,前期平均,360704192.54,370925000.0,360704192.54
