,SECURITYCODE_x,NETPROFIT_x,PARENTNETPROFIT_x,REPORTDATE_x,REPORTTIMETYPE_x,KCFJCXSYJLR,Year,Month,managesituationChangeRate,managesituationGreatChange,historyprofitextroplaterate,ifhistoryprofitextroplate,IfprofitdisStableChangeRage,IfprofitdisStable,predicttype,predict,analyst_prediction,adj_prediction
0,002008,570448896.36,546149555.6099999,2013-12-31,年度报告,311830296.07,2013,12,未知,未知,未知,未知,未知,未知,未知,未知,未知,未知
1,002008,27748424.03,30517521.84,2014-03-31,一季度报告,26236678.520000003,2014,3,未知,未知,未知,未知,未知,未知,未知,未知,未知,未知
2,002008,243857299.99000004,241056106.74000004,2014-06-30,半年度报告,233469077.39000008,2014,6,未知,未知,未知,未知,未知,未知,未知,未知,未知,未知
3,002008,533752363.16,528922239.9699999,2014-09-30,三季度报告,506830281.6899999,2014,9,未知,未知,未知,未知,未知,未知,未知,未知,未知,未知
4,002008,716693750.26,707533039.1,2014-12-31,年度报告,641221390.4999999,2014,12,0.0,True,未知,未知,未知,未知,未知,未知,未知,未知
5,002008,74131592.20999998,75801617.29,2015-03-31,一季度报告,55424828.21000001,2015,3,19.557884503396068,False,未知,未知,未知,未知,未知,未知,711770000.0,未知
6,002008,314927957.28000003,316581679.29,2015-06-30,半年度报告,283964704.36000013,2015,6,1.339273404500881,False,未知,未知,未知,未知,未知,未知,829432500.0,未知
7,002008,609710536.67,611521780.8399999,2015-09-30,三季度报告,573083536.5400003,2015,9,0.06875198262869268,True,未知,未知,未知,未知,未知,未知,760698570.9999999,未知
8,002008,746370580.5699999,746951537.5,2015-12-31,年度报告,670527906.6,2015,12,-0.2040548753870753,True,未知,未知,未知,未知,未知,未知,758270000.0,未知
9,002008,117099217.55,115139418.51,2016-03-31,一季度报告,111929745.87,2016,3,6.695084907174695,False,未知,未知,未知,未知,未知,未知,1058773077.0,未知
10,002008,401116021.35000014,399608029.78999984,2016-06-30,半年度报告,389655794.5999999,2016,6,0.8113631488512729,False,未知,未知,未知,未知,未知,未知,998346154.0,未知
11,002008,633772230.98,632979798.22,2016-09-30,三季度报告,615785401.6999999,2016,9,-0.06439390161179047,True,未知,未知,未知,未知,未知,未知,836470000.0,未知
12,002008,754365598.7900001,754262107.6600001,2016-12-31,年度报告,715631636.4,2016,12,-0.2357028650240331,True,0.15973250133533828,True,0.0,True,比例外推,754262107.6600001,836470000.0,754262107.6600001
13,002008,156436487.02,151413263.98000002,2017-03-31,一季度报告,142164659.31000003,2017,3,3.8715004958630486,False,1.2987671551631472,True,0.06307954548089152,True,前期平均,766457159.165,1212320000.0,1212320000.0
14,002008,918661923.9199996,914110441.1900002,2017-06-30,半年度报告,895360650.29,2017,6,0.4221543543438914,True,0.4356714538593649,True,0.10046314959885261,False,平均增速,1460822397.4958138,1609998947.0,1460822397.4958138
15,002008,1509629203.01,1502154124.5799994,2017-09-30,三季度报告,1508715485.0200002,2017,9,-0.09991497185366316,True,0.10851385046987312,True,0.04477519148111264,True,比例外推,1799874513.8688862,1682197190.0,1799874513.8688862
16,002008,1710756561.3100002,1665043916.8199995,2017-12-31,年度报告,1641343422.1299994,2017,12,-0.24380314097700354,True,0.031213163896965018,True,0.0,True,比例外推,1665043916.8199995,1694388932.0,1665043916.8199995
17,002008,364332003.00000006,364494627.85,2018-03-31,一季度报告,176550906.03999996,2018,3,2.6465207524576386,False,0.6361012874058545,True,0.047846847911450524,True,前期平均,973897112.3100001,2200500909.0,2200500909.0
18,002008,1018443059.89,1018597903.08,2018-06-30,半年度报告,785174183.68,2018,6,-0.3790437140075953,True,1.5659371528482549,True,0.08100280559400413,True,比例外推,1789774137.7387788,2122067895.0000002,2122067895.0000002
19,002008,1655882378.1999993,1656691737.81,2018-09-30,三季度报告,1392334533.87,2018,9,-0.6221264829650879,True,1.4280661417817275,True,0.041079226546758885,True,比例外推,1849949657.2767625,1882974375.0,1849949657.2767625
20,002008,1725124561.06,1718628590.94,2018-12-31,年度报告,1454198562.3699994,2018,12,-0.6665516828863234,True,1.279889809865935,True,0.0,True,比例外推,1718628590.94,1873724375.0,1718628590.94
21,002008,159165484.48000002,160665336.01,2019-03-31,一季度报告,142050684.86,2019,3,0.5657391929964493,False,1.663871640250639,True,0.034930445798014034,True,前期平均,1212105662.6849997,1642692667.0,1642692667.0
22,002008,373234107.03,379491043.86,2019-06-30,半年度报告,336256297.78,2019,6,-0.4398814044433539,True,0.5433551735578476,True,0.003374950599206894,True,比例外推,662136841.0792599,893631111.0,893631111.0
23,002008,584169125.65,600202549.4300003,2019-09-30,三季度报告,513759742.97,2019,9,-0.6555015598510702,True,0.545097760915023,True,0.05189916362485525,True,比例外推,649542878.5392085,847947856.9999999,847947856.9999999
24,002008,615788987.37,642219450.17,2019-12-31,年度报告,462281239.74,2019,12,-0.6693288651519235,True,0.3996260217708792,True,0.0,True,比例外推,642219450.17,850884667.0,850884667.0
25,002008,102149921.5,107237137.05999996,2020-03-31,一季度报告,62942711.70999999,2020,3,2.5839987433436296,False,0.3887284367996717,True,0.1355137996209478,False,前期平均,1495650346.6349995,1240074615.0,1240074615.0
