,SECURITYCODE_x,NETPROFIT_x,PARENTNETPROFIT_x,REPORTDATE_x,REPORTTIMETYPE_x,KCFJCXSYJLR,Year,Month,managesituationChangeRate,managesituationGreatChange,historyprofitextroplaterate,ifhistoryprofitextroplate,IfprofitdisStableChangeRage,IfprofitdisStable,predicttype,predict,analyst_prediction,adj_prediction
0,002065,770837062.3699999,770870494.9500003,2013-12-31,年度报告,762218669.3400003,2013,12,未知,未知,未知,未知,未知,未知,未知,未知,未知,未知
1,002065,150929684.81,150930444.83,2014-03-31,一季度报告,150122789.21,2014,3,未知,未知,未知,未知,未知,未知,未知,未知,未知,未知
2,002065,353546786.1,353570999.68999994,2014-06-30,半年度报告,350684800.04,2014,6,未知,未知,未知,未知,未知,未知,未知,未知,未知,未知
3,002065,553997732.53,553997762.5999999,2014-09-30,三季度报告,551107215.4699999,2014,9,未知,未知,未知,未知,未知,未知,未知,未知,未知,未知
4,002065,1038619499.33,1038654013.57,2014-12-31,年度报告,1017138835.9399998,2014,12,0.0,True,未知,未知,未知,未知,未知,未知,未知,未知
5,002065,166619765.82000002,166633722.42999998,2015-03-31,一季度报告,164142050.07000002,2015,3,4.1072594721202735,False,未知,未知,未知,未知,未知,未知,1345340000.0,未知
6,002065,409137937.04999983,409186498.2499999,2015-06-30,半年度报告,220834586.96,2015,6,1.1802971846333519,False,未知,未知,未知,未知,未知,未知,1203000000.0,未知
7,002065,601681253.9499999,601709917.0200001,2015-09-30,三季度报告,407758296.87000006,2015,9,0.3914083345607514,True,未知,未知,未知,未知,未知,未知,1167835000.0,未知
8,002065,1138942886.2,1141878403.18,2015-12-31,年度报告,936583557.45,2015,12,-0.25782535099017795,True,未知,未知,未知,未知,未知,未知,1181490000.0,未知
9,002065,170487393.35,173664102.07999998,2016-03-31,一季度报告,167769328.76999998,2016,3,3.6263242453643714,False,未知,未知,未知,未知,未知,未知,1384000000.0,未知
10,002065,323404247.59000003,326219277.9,2016-06-30,半年度报告,252263978.06,2016,6,0.884051789301068,False,未知,未知,未知,未知,未知,未知,1321548333.0,未知
11,002065,625046641.25,631819332.1100001,2016-09-30,三季度报告,516022176.4500001,2016,9,0.28113857180941343,True,未知,未知,未知,未知,未知,未知,1324522000.0,未知
12,002065,890458944.9200002,899647231.2399998,2016-12-31,年度报告,733256861.71,2016,12,-0.323199546079223,True,0.2588783951021776,True,0.0,True,比例外推,899647231.2399998,1335816667.0,1335816667.0
13,002065,465742364.15,466758800.88,2017-03-31,一季度报告,128413491.19000004,2017,3,3.5213727960959518,False,0.07376909650930104,True,0.04491701557385974,True,前期平均,1286487577.935,1527265000.0,1527265000.0
14,002065,612273904.87,612617358.1899999,2017-06-30,半年度报告,253684839.27000004,2017,6,1.3835093945557533,False,0.15193201653681218,True,0.072411062072959,True,前期平均,1303718861.3849998,1485086667.0,1485086667.0
15,002065,901801433.51,900340485.5700002,2017-09-30,三季度报告,539415458.51,2017,9,0.23324726748141675,True,0.08169595287664591,True,0.1434303913138132,False,平均增速,1106407993.4250546,1384257143.0,1384257143.0
16,002065,665294651.6500001,663799645.5299999,2017-12-31,年度报告,304804425.64,2017,12,-0.13433733608094336,True,0.18215069213434265,True,0.0,True,比例外推,663799645.5299999,1322682500.0,1322682500.0
17,002065,130731908.85000004,134535330.82,2018-03-31,一季度报告,130788560.5,2018,3,0.6550718201828407,False,1.7631710064936972,True,0.14617986196118343,False,前期平均,803499850.98,963457500.0,963457500.0
18,002065,327577867.08999985,333691347.08999985,2018-06-30,半年度报告,322274307.35,2018,6,0.25897422091452116,True,0.6716413544726999,True,0.36158497342757345,False,平均增速,381479690.12523484,1031232500.0,1031232500.0
19,002065,645370353.4499997,654351416.3199999,2018-09-30,三季度报告,621662705.9999999,2018,9,-0.1452252860480154,True,0.47025503706015365,True,0.8001041195751709,False,平均增速,448859058.02665436,958605000.0,958605000.0
20,002065,797808664.7199999,806409576.3799999,2018-12-31,年度报告,474453656.8899999,2018,12,0.15864010098118722,True,0.34434409051180104,True,0.0,True,比例外推,806409576.3799999,777000000.0,806409576.3799999
21,002065,148944292.4,154795109.8,2019-03-31,一季度报告,154598860.81000003,2019,3,4.896319185964366,False,0.5890418286510277,True,0.11271145214785933,False,前期平均,525734343.495,916457500.0,916457500.0
22,002065,378403446.79,386826235.9099999,2019-06-30,半年度报告,360702527.04,2019,6,1.3531414659288246,False,0.2998065280700167,True,0.2744921130040702,False,前期平均,652882470.9199998,899153333.0,899153333.0
23,002065,738274521.07,753467837.4499999,2019-09-30,三季度报告,725620662.7599999,2019,9,0.1944104005541692,True,0.15463710618170934,True,0.5575002467634407,False,平均增速,594970763.4149195,929833333.0,929833333.0
24,002065,577742462.67,583701772.0199999,2019-12-31,年度报告,487336020.71,2019,12,-0.03380710631848805,True,0.025623423245099985,True,0.0,True,比例外推,583701772.0199999,1039400000.0,1039400000.0
25,002065,150594706.06,158471548.39000002,2020-03-31,一季度报告,146825729.62,2020,3,4.175338040479353,False,0.5005843532835824,True,0.083233999294273,True,前期平均,418499563.80999994,1067996000.0,1067996000.0
