,SECURITYCODE_x,NETPROFIT_x,PARENTNETPROFIT_x,REPORTDATE_x,REPORTTIMETYPE_x,KCFJCXSYJLR,Year,Month,managesituationChangeRate,managesituationGreatChange,historyprofitextroplaterate,ifhistoryprofitextroplate,IfprofitdisStableChangeRage,IfprofitdisStable,predicttype,predict,analyst_prediction,adj_prediction
0,002059,71419374.22,63232857.85,2013-12-31,年度报告,24906253.190000005,2013,12,未知,未知,未知,未知,未知,未知,未知,未知,未知,未知
1,002059,-108086.61,3846196.18,2014-03-31,一季度报告,3525450.77,2014,3,未知,未知,未知,未知,未知,未知,未知,未知,未知,未知
2,002059,-11637863.4,3213162.6499999994,2014-06-30,半年度报告,2741632.8300000005,2014,6,未知,未知,未知,未知,未知,未知,未知,未知,未知,未知
3,002059,-5143252.83,11654266.88,2014-09-30,三季度报告,11120165.729999997,2014,9,未知,未知,未知,未知,未知,未知,未知,未知,未知,未知
4,002059,76800320.91999999,65021489.48000001,2014-12-31,年度报告,51033974.89,2014,12,0.0,True,未知,未知,未知,未知,未知,未知,未知,未知
5,002059,-10842430.81,-2930499.4499999993,2015-03-31,一季度报告,-4752891.050000002,2015,3,-661.760608737752,False,未知,未知,未知,未知,未知,未知,121113333.0,未知
6,002059,3681954.78,11072807.369999995,2015-06-30,半年度报告,11078572.28,2015,6,-7.1368115233248055,False,未知,未知,未知,未知,未知,未知,87000000.0,未知
7,002059,41985847.95,45648914.72,2015-09-30,三季度报告,43674139.32,2015,9,-14.886032163034846,False,未知,未知,未知,未知,未知,未知,114666667.0,未知
8,002059,106325091.92,81728544.63,2015-12-31,年度报告,78860716.89,2015,12,-0.07006411738311769,True,未知,未知,未知,未知,未知,未知,160885666.0,未知
9,002059,-21471887.93,-12319280.08,2016-03-31,一季度报告,-12735793.420000002,2016,3,-7.587026052693806,False,未知,未知,未知,未知,未知,未知,107168000.0,未知
10,002059,39209446.14,31015949.71,2016-06-30,半年度报告,30955908.99,2016,6,18.3971350783401,False,未知,未知,未知,未知,未知,未知,120425000.0,未知
11,002059,75298658.84,62163330.08999999,2016-09-30,三季度报告,61510528.31999999,2016,9,0.7010344605889993,False,未知,未知,未知,未知,未知,未知,124263618.0,未知
12,002059,85027900.17999999,64494871.45,2016-12-31,年度报告,50358426.39000002,2016,12,-0.3282923820678509,True,0.4346958657494377,True,0.0,True,比例外推,64494871.45,124693375.0,124693375.0
13,002059,-3333931.36,-597239.25,2017-03-31,一季度报告,172222.39,2017,3,-4.326180466889201,False,-2.9216207063939814,True,0.17153896066811386,False,前期平均,64963826.779999994,100617500.0,100617500.0
14,002059,19777262.77,17934030.6,2017-06-30,半年度报告,14591135.579999998,2017,6,0.821483883373212,False,-10.856685895419446,True,0.34507290419538356,False,前期平均,75971273.935,95145000.0,95145000.0
15,002059,44412416.97,35607213.65000001,2017-09-30,三季度报告,28675187.1,2017,9,-0.051518641630032044,True,3.087587130860069,False,0.5570660468910675,False,未知,未知,82766000.0,未知
16,002059,112770116.35999998,71617484.4,2017-12-31,年度报告,62906662.74,2017,12,-0.1600477717454082,True,0.07136973660460304,True,0.0,True,比例外推,71617484.4,75582500.0,71617484.4
17,002059,-25944923.14,-20832442.67,2018-03-31,一季度报告,-21605033.46,2018,3,-22.421968993386834,False,-0.7936560948832184,True,0.1494247202563933,False,前期平均,52521471.20500001,105360000.0,105360000.0
18,002059,66817288.33,48194424.08,2018-06-30,半年度报告,495303.69,2018,6,2.6111859892126015,False,0.07779823713904475,True,0.2856638206005583,False,前期平均,91786755.08500001,123600000.0,123600000.0
19,002059,127767831.82,108781264.20000002,2018-09-30,三季度报告,-750417.9900000001,2018,9,0.6080947422483861,False,0.24265500728887882,True,0.4777528019431193,False,前期平均,120798502.02000004,114480000.0,120798502.02000004
20,002059,701453049.1500001,596684766.85,2018-12-31,年度报告,-187026172.34,2018,12,-0.3666817369239433,True,0.17866060125223396,True,0.0,True,比例外推,596684766.85,530300000.0,530300000.0
21,002059,1790113.75,1784041.12,2019-03-31,一季度报告,-21243254.300000004,2019,3,-3.752730229132604,False,-1.0918416631745125,True,0.20802078956328277,False,盈利变化,597167139.0633334,202366667.00000003,202366667.00000003
22,002059,31372494.19,34882375.01,2019-06-30,半年度报告,-29357343.309999995,2019,6,0.06887567581717814,True,1.265503180791037,True,0.33337418270952807,False,平均增速,5673029480.5522,282333333.0,282333333.0
23,002059,62675861.28,63279742.12999999,2019-09-30,三季度报告,-11520452.749999998,2019,9,-0.4410222573032624,True,1.1346033515359482,True,0.6610198866003643,False,平均增速,1387141108.4591682,,1387141108.4591682
24,002059,60547378.36999999,94700448.85,2019-12-31,年度报告,-165553648.57999998,2019,12,-0.8981836712998199,True,6.092619647256654,False,0.0,True,比例外推,94700448.85,128000000.0,128000000.0
25,002059,-41188143.34,-27159172.19,2020-03-31,一季度报告,-29399301.38,2020,3,38.896556417155054,False,-1.1222803132547416,True,0.07945323921507325,True,盈利变化,83825719.41,74000000.0,74000000.0
