,SECURITYCODE_x,NETPROFIT_x,PARENTNETPROFIT_x,REPORTDATE_x,REPORTTIMETYPE_x,KCFJCXSYJLR,Year,Month,managesituationChangeRate,managesituationGreatChange,historyprofitextroplaterate,ifhistoryprofitextroplate,IfprofitdisStableChangeRage,IfprofitdisStable,predicttype,predict,analyst_prediction,adj_prediction
0,002019,117403591.29999998,117646246.88000004,2013-12-31,年度报告,115215920.18,2013,12,未知,未知,未知,未知,未知,未知,未知,未知,未知,未知
1,002019,41886244.57,41859671.54,2014-03-31,一季度报告,41882834.98999999,2014,3,未知,未知,未知,未知,未知,未知,未知,未知,未知,未知
2,002019,83257512.58,83144055.53999999,2014-06-30,半年度报告,82723491.96999998,2014,6,未知,未知,未知,未知,未知,未知,未知,未知,未知,未知
3,002019,111429342.89,111416637.18,2014-09-30,三季度报告,110694582.88999996,2014,9,未知,未知,未知,未知,未知,未知,未知,未知,未知,未知
4,002019,237938112.79,237909176.45,2014-12-31,年度报告,235322616.49,2014,12,0.0,True,未知,未知,未知,未知,未知,未知,未知,未知
5,002019,84235539.7,84182914.68,2015-03-31,一季度报告,83909573.31000002,2015,3,1.8029151934066547,False,未知,未知,未知,未知,未知,未知,432500000.0,未知
6,002019,170913615.95000002,170894481.20000002,2015-06-30,半年度报告,172195445.62,2015,6,0.4101260974760674,True,未知,未知,未知,未知,未知,未知,443333333.0,未知
7,002019,293928688.99999994,293519409.97,2015-09-30,三季度报告,239199083.58,2015,9,0.053614678638979285,True,未知,未知,未知,未知,未知,未知,440319243.0,未知
8,002019,361961540.69,360573499.9,2015-12-31,年度报告,297427543.86000013,2015,12,-0.5065792952488518,True,未知,未知,未知,未知,未知,未知,448439748.00000006,未知
9,002019,136673464.88,136589313.69,2016-03-31,一季度报告,136193784.44,2016,3,0.3937536545515833,True,未知,未知,未知,未知,未知,未知,1323269367.0,未知
10,002019,364677485.76000017,364266397.3699998,2016-06-30,半年度报告,364387410.74,2016,6,-0.31308228049925607,True,未知,未知,未知,未知,未知,未知,790063494.0000001,未知
11,002019,528312770.77,536593797.71,2016-09-30,三季度报告,535718917.4499999,2016,9,-0.6005711735746897,True,未知,未知,未知,未知,未知,未知,733378000.0,未知
12,002019,683395723.2199997,704762728.1099999,2016-12-31,年度报告,708709367.34,2016,12,-0.6756462272864795,True,1.0372589905648866,True,0.0,True,比例外推,704762728.1099999,1299000000.0,1299000000.0
13,002019,191963339.9,199368699.06000003,2017-03-31,一季度报告,179885352.17999998,2017,3,-0.14099206160405064,True,1.1673252669405798,True,0.0646944466909751,True,比例外推,846834391.462582,837508570.9999999,846834391.462582
14,002019,461261758.87000006,480973512.0200001,2017-06-30,半年度报告,437255276.63000005,2017,6,-0.6780618604536912,True,1.8695429561108234,True,0.130013677319482,False,平均增速,1001472780.6292813,1014787000.0,1001472780.6292813
15,002019,844739778.17,876506174.3499999,2017-09-30,三季度报告,833326803.8599999,2017,9,-0.7777763518211234,True,1.606647601414079,True,0.20644805547645229,False,平均增速,1168763614.2668588,1221673077.0,1168763614.2668588
16,002019,1265657599.8299994,1305103508.11,2017-12-31,年度报告,1254062423.77,2017,12,-0.8282055516138996,True,1.2783667876973805,True,0.0,True,比例外推,1305103508.11,808045000.0,808045000.0
17,002019,315314371.67,325197573.44999987,2018-03-31,一季度报告,315163094.47000015,2018,3,-0.3884061854666659,True,0.7379403819682905,True,0.07620724270459747,True,比例外推,1540617749.0033274,1177997500.0,1177997500.0
18,002019,519108780.0800001,539642574.48,2018-06-30,半年度报告,518662301.8300001,2018,6,-0.7454729575076513,True,0.7224399636114707,True,0.13192114507859692,False,平均增速,1871988388.6942737,1024070000.0,1024070000.0
19,002019,682324415.82,711069197.27,2018-09-30,三季度报告,679993810.2200001,2018,9,-0.86101803853213,True,1.0547243589645632,True,0.07704348908303149,True,比例外推,948070979.908645,896376667.0,948070979.908645
20,002019,693675493.2700001,737436708.47,2018-12-31,年度报告,718170663.06,2018,12,-0.9072390579286457,True,1.4214833407212382,True,0.0,True,比例外推,737436708.47,1525072000.0,1525072000.0
21,002019,141058138.48,147151836.1,2019-03-31,一季度报告,144512907.75,2019,3,-0.6276617818648889,True,0.91892306086095,True,0.18068978209823244,False,平均增速,475526887.6116369,1137715000.0,1137715000.0
22,002019,472293704.06,485436473.03,2019-06-30,半年度报告,432252493.15,2019,6,-0.7738362443380231,True,0.2570144437501517,True,0.1938570230179386,False,平均增速,685392455.2452734,1086512500.0,1086512500.0
23,002019,721147412.4399999,742154059.2099997,2019-09-30,三季度报告,643204642.49,2019,9,-0.827935819709885,True,0.0061204629833633405,True,0.1577578132161369,False,平均增速,782563996.8280821,1020333333.0,1020333333.0
24,002019,873115959.5000001,903467850.5099996,2019-12-31,年度报告,778921897.4300001,2019,12,-0.8307514213215792,True,0.2881923905658017,True,0.0,True,比例外推,903467850.5099996,1020333333.0,1020333333.0
25,002019,315515221.75,323421676.20999986,2020-03-31,一季度报告,316651209.86,2020,3,-0.16769360091444763,True,0.44386226612073354,True,0.18290383724266895,False,平均增速,1281314423.265634,1309950000.0,1281314423.265634
