,SECURITYCODE_x,NETPROFIT_x,PARENTNETPROFIT_x,REPORTDATE_x,REPORTTIMETYPE_x,KCFJCXSYJLR,Year,Month,managesituationChangeRate,managesituationGreatChange,historyprofitextroplaterate,ifhistoryprofitextroplate,IfprofitdisStableChangeRage,IfprofitdisStable,predicttype,predict,analyst_prediction,adj_prediction
0,002179,257745533.79,244444708.02,2013-12-31,年度报告,233526031.48,2013,12,未知,未知,未知,未知,未知,未知,未知,未知,未知,未知
1,002179,54055178.55000001,46529899.24999999,2014-03-31,一季度报告,45006425.05,2014,3,未知,未知,未知,未知,未知,未知,未知,未知,未知,未知
2,002179,152154476.2,133625205.63,2014-06-30,半年度报告,130842055.05,2014,6,未知,未知,未知,未知,未知,未知,未知,未知,未知,未知
3,002179,261207678.14000005,236984906.39000005,2014-09-30,三季度报告,232842089.25000003,2014,9,未知,未知,未知,未知,未知,未知,未知,未知,未知,未知
4,002179,374428277.92,339597922.11,2014-12-31,年度报告,331583996.8,2014,12,0.0,True,未知,未知,未知,未知,未知,未知,未知,未知
5,002179,84435897.59,83526381.22000001,2015-03-31,一季度报告,81272186.33,2015,3,3.768193181557809,False,未知,未知,未知,未知,未知,未知,470423605.0,未知
6,002179,270607117.13,255654431.38000005,2015-06-30,半年度报告,250882884.99,2015,6,0.6939727323644785,False,未知,未知,未知,未知,未知,未知,518714217.0,未知
7,002179,448007291.47,422760490.86,2015-09-30,三季度报告,415410441.05,2015,9,-0.01325437435320887,True,未知,未知,未知,未知,未知,未知,563407399.0,未知
8,002179,603323213.0000001,568357284.4100001,2015-12-31,年度报告,555590686.6300001,2015,12,-0.3116290916332189,True,未知,未知,未知,未知,未知,未知,564007399.0,未知
9,002179,173294076.01999998,165729412.49000004,2016-03-31,一季度报告,161965337.89,2016,3,2.0525587001105743,False,未知,未知,未知,未知,未知,未知,763128750.0,未知
10,002179,425103734.87000006,396575440.45000017,2016-06-30,半年度报告,383185903.73,2016,6,-0.04752862185003539,True,未知,未知,未知,未知,未知,未知,780905000.0,未知
11,002179,599892274.3900001,562888389.48,2016-09-30,三季度报告,539714166.71,2016,9,-0.42468451139648594,True,未知,未知,未知,未知,未知,未知,783191000.0,未知
12,002179,776488985.5200001,733765932.95,2016-12-31,年度报告,690135719.03,2016,12,-0.5727902917768226,True,0.9087257391065903,True,0.0,True,比例外推,733765932.95,783191000.0,733765932.95
13,002179,197273469.09,183714232.86,2017-03-31,一季度报告,180090952.46000004,2017,3,0.48733032143726257,True,1.5026027791829384,True,0.062453381195174906,True,比例外推,1049248271.1617986,936593087.0,936593087.0
14,002179,478149082.64,441633243.11,2017-06-30,半年度报告,410336172.89,2017,6,-0.39368791039010625,True,1.0110802001740582,True,0.08810256819660206,True,比例外推,909716516.8269664,888509549.0,909716516.8269664
15,002179,664239878.91,629428013.7999997,2017-09-30,三季度报告,595158748.4300001,2017,9,-0.5703469692919645,True,0.6917078744682533,True,0.041769724618422766,True,比例外推,834234028.5433066,852180000.0,834234028.5433066
16,002179,866373254.1,825350754.9100001,2017-12-31,年度报告,772408219.76,2017,12,-0.6680628591049587,True,0.5883156256593889,True,0.0,True,比例外推,825350754.9100001,845571429.0000001,825350754.9100001
17,002179,171405661.10000002,167378172.36,2018-03-31,一季度报告,163165167.36,2018,3,0.30653926743900595,True,0.5308539113771573,True,0.05842666316544204,True,比例外推,801278516.6401458,1017476000.0,1017476000.0
18,002179,489992747.4700001,465349454.9299999,2018-06-30,半年度报告,456027923.98,2018,6,-0.4609515250622002,True,0.37456266857254655,True,0.061118010192938665,True,比例外推,898822050.3839865,1006724211.0000001,1006724211.0000001
19,002179,739488550.9500003,697122122.6800001,2018-09-30,三季度报告,677900025.07,2018,9,-0.6119691967110533,True,0.2677548508474957,True,0.019060392668167503,True,比例外推,903341224.1885228,974238000.0,903341224.1885228
20,002179,1006999399.0399996,951561049.63,2018-12-31,年度报告,882997388.3100002,2018,12,-0.7025005878583481,True,0.25578430895056625,True,0.0,True,比例外推,951561049.63,966038000.0,951561049.63
21,002179,247016305.25,232893052.0300001,2019-03-31,一季度报告,229700960.85,2019,3,0.5037165758465136,False,0.07490192618395859,True,0.03275674626657457,True,前期平均,793136876.2500001,1158053810.0,1158053810.0
22,002179,617968579.91,573001673.0899999,2019-06-30,半年度报告,560338840.5099999,2019,6,-0.4739809208996904,True,0.0849514952430809,True,0.02092276192177467,True,比例外推,1061377863.3869724,1183252778.0,1183252778.0
23,002179,902170209.96,831137957.7100003,2019-09-30,三季度报告,816488793.36,2019,9,-0.6514543281854986,True,0.1699545004366438,True,0.00861056418925743,True,比例外推,1070321601.0742016,1174186428.0,1070321601.0742016
24,002179,1162569223.38,1071086932.0,2019-12-31,年度报告,1034124625.66,2019,12,-0.7440459904586677,True,0.22590850864394102,True,0.0,True,比例外推,1071086932.0,1167586428.0,1071086932.0
25,002179,164777853.57,163700268.34,2020-03-31,一季度报告,149279460.21,2020,3,0.04343530492507839,True,0.340006987228701,True,0.02856839530231553,True,比例外推,714100641.1852078,1268233333.0,1268233333.0
