,SECURITYCODE_x,NETPROFIT_x,PARENTNETPROFIT_x,REPORTDATE_x,REPORTTIMETYPE_x,KCFJCXSYJLR,Year,Month,managesituationChangeRate,managesituationGreatChange,historyprofitextroplaterate,ifhistoryprofitextroplate,IfprofitdisStableChangeRage,IfprofitdisStable,predicttype,predict,analyst_prediction,adj_prediction
0,002114,-50429810.67000001,-51059493.23,2013-12-31,年度报告,-63958606.40999999,2013,12,未知,未知,未知,未知,未知,未知,未知,未知,未知,未知
1,002114,-19768459.090000004,-19350848.0,2014-03-31,一季度报告,-19563709.3,2014,3,未知,未知,未知,未知,未知,未知,未知,未知,未知,未知
2,002114,-27340339.13,-26151035.53,2014-06-30,半年度报告,-24661273.47,2014,6,未知,未知,未知,未知,未知,未知,未知,未知,未知,未知
3,002114,26535315.169999994,28382944.03,2014-09-30,三季度报告,28272571.41,2014,9,未知,未知,未知,未知,未知,未知,未知,未知,未知,未知
4,002114,23325350.3,26347745.56,2014-12-31,年度报告,24709560.26,2014,12,-0.0,False,未知,未知,未知,未知,未知,未知,未知,未知
5,002114,-15404151.089999998,-15246628.71,2015-03-31,一季度报告,-15135673.089999994,2015,3,1.5510238527144606,False,未知,未知,未知,未知,未知,未知,未知,未知
6,002114,-38040264.24000001,-37810872.930000015,2015-06-30,半年度报告,-15135673.089999994,2015,6,0.8445203049681415,False,未知,未知,未知,未知,未知,未知,未知,未知
7,002114,-27485852.710000005,-27123771.97,2015-09-30,三季度报告,-27449127.05,2015,9,-2.9004790539293985,False,未知,未知,未知,未知,未知,未知,未知,未知
8,002114,17172236.810000002,17729192.98,2015-12-31,年度报告,13242825.54,2015,12,-3.162017291118668,False,未知,未知,未知,未知,未知,未知,未知,未知
9,002114,-24002916.71,-23773683.53,2016-03-31,一季度报告,-38559531.54999999,2016,3,2.2737805787128265,False,未知,未知,未知,未知,未知,未知,未知,未知
10,002114,-24367666.189999994,-23625839.71,2016-06-30,半年度报告,-37945527.24,2016,6,0.3256955932754056,False,未知,未知,未知,未知,未知,未知,未知,未知
11,002114,25738372.26,26160358.75,2016-09-30,三季度报告,11061661.249999996,2016,9,0.8347551812228278,False,未知,未知,未知,未知,未知,未知,未知,未知
12,002114,81625552.07,82913501.81000002,2016-12-31,年度报告,56240388.99,2016,12,-3.9367059881583364,False,-2.2671151962137364,True,0.0,True,前期平均,82913501.81000002,未知,82913501.81000002
13,002114,5036125.76,5730647.1000000015,2017-03-31,一季度报告,3414792.5300000007,2017,3,1.100986779202135,False,-0.36486411370451216,True,0.26950037924638026,False,盈利变化,138879267.25,未知,138879267.25
14,002114,6453583.75,7796010.64,2017-06-30,半年度报告,7179561.450000001,2017,6,1.0695379802393798,False,-0.2545903545092967,True,0.26385825807812724,False,盈利变化,112996894.27000003,未知,112996894.27000003
15,002114,47091100.85,47527825.56,2017-09-30,三季度报告,48273622.40000001,2017,9,-2.959324006995305,False,-55.155404025389096,True,1.8287967124406097,False,前期平均,66092296.28000001,未知,66092296.28000001
16,002114,54712332.57,55289658.19000001,2017-12-31,年度报告,39615429.60999999,2017,12,-1.6178189230101954,False,3.031131625115726,False,0.0,True,去年同期,55289658.19000001,未知,55289658.19000001
17,002114,7648150.490000001,7764770.8999999985,2018-03-31,一季度报告,9006279.95,2018,3,-11.01361226332839,False,-1.2555950514034437,True,0.6669836132663722,False,前期平均,69353980.48499998,未知,69353980.48499998
18,002114,-80164550.87,-80023061.44,2018-06-30,半年度报告,-75298281.08999999,2018,6,-8.81423355201674,False,-1.206819348295444,True,0.7266997100285065,False,盈利变化,304429.83000002056,未知,304429.83000002056
19,002114,-140897323.51000002,-140626439.16,2018-09-30,三季度报告,-112598774.92,2018,9,-2.0708989545739196,False,-54.895997348639774,True,1.8535835200124107,False,盈利变化,-16209185.063333333,未知,-16209185.063333333
20,002114,-258504373.72,-257773420.38000005,2018-12-31,年度报告,-229959179.10000005,2018,12,-1.9217265706132918,False,0.10756188352461442,True,0.0,True,盈利变化,-34568544.71333334,未知,-34568544.71333334
21,002114,3139713.93,3355163.9100000006,2019-03-31,一季度报告,-5010768.120000001,2019,3,-7.5937262526328775,False,-1.806478071083501,True,0.47275790603115175,False,前期平均,68855442.71999998,未知,68855442.71999998
22,002114,6681361.3999999985,7388274.659999997,2019-06-30,半年度报告,-2395449.82,2019,6,-0.37092130969734693,False,-7.9498919231277165,True,0.6193594175890245,False,盈利变化,-209171532.86666673,未知,-209171532.86666673
23,002114,2362313.3200000003,3597090.45,2019-09-30,三季度报告,-5611648.93,2019,9,-0.6420811310413514,False,4.869239127878679,False,0.5835933310067126,False,前期平均,21857357.924999993,未知,21857357.924999993
24,002114,23835558.79000001,25565427.57,2019-12-31,年度报告,9970304.22,2019,12,-0.8049169925278585,False,4.792113606611697,False,0.0,True,前期平均,25565427.57,未知,25565427.57
25,002114,-95473585.98,-95129260.58,2020-03-31,一季度报告,-94693259.89,2020,3,-17.061912580041966,False,0.5049439371836449,True,0.35072410653292474,False,盈利变化,-94011228.12333333,未知,-94011228.12333333
