,SECURITYCODE_x,NETPROFIT_x,PARENTNETPROFIT_x,REPORTDATE_x,REPORTTIMETYPE_x,KCFJCXSYJLR,Year,Month,managesituationChangeRate,managesituationGreatChange,historyprofitextroplaterate,ifhistoryprofitextroplate,IfprofitdisStableChangeRage,IfprofitdisStable,predicttype,predict,analyst_prediction,adj_prediction
0,002149,-1469771.28,-3853933.6800000006,2014-03-31,一季度报告,-6842511.77,2014,3,未知,未知,未知,未知,未知,未知,未知,未知,未知,未知
1,002149,13039394.7,1883513.62,2014-06-30,半年度报告,-5238177.95,2014,6,未知,未知,未知,未知,未知,未知,未知,未知,未知,未知
2,002149,16817050.51,128240.95,2014-09-30,三季度报告,-9695069.939999998,2014,9,未知,未知,未知,未知,未知,未知,未知,未知,未知,未知
3,002149,39119558.31,5473461.039999999,2014-12-31,年度报告,-20145711.08,2014,12,未知,未知,未知,未知,未知,未知,未知,未知,未知,未知
4,002149,-34498969.46,-28442002.67000001,2015-03-31,一季度报告,-32095267.52,2015,3,-0.0,False,未知,未知,未知,未知,未知,未知,未知,未知
5,002149,-47335892.38,-53054181.8,2015-06-30,半年度报告,-59744808.41,2015,6,-1.1127177536852995,False,未知,未知,未知,未知,未知,未知,未知,未知
6,002149,-61310505.78,-67233163.37,2015-09-30,三季度报告,-80232290.87999998,2015,9,-1.0873976848155402,False,未知,未知,未知,未知,未知,未知,-52555000.0,未知
7,002149,-175093204.53000003,-132311026.65999998,2015-12-31,年度报告,-153264527.01,2015,12,-1.0375712646945783,False,未知,未知,未知,未知,未知,未知,-28996667.000000004,未知
8,002149,-7110684.12,-6547907.209999999,2016-03-31,一季度报告,-9168622.76,2016,3,-0.9573966613204451,False,未知,未知,未知,未知,未知,未知,7116667.0,未知
9,002149,16612513.269999998,5013821.87,2016-06-30,半年度报告,-2269539.43,2016,6,-0.9689501727737365,False,未知,未知,未知,未知,未知,未知,36000000.0,未知
10,002149,22950887.04,8446030.389999999,2016-09-30,三季度报告,-5624803.129999999,2016,9,-0.976027415508951,False,未知,未知,未知,未知,未知,未知,40853333.0,未知
11,002149,40897518.62000001,21221073.94,2016-12-31,年度报告,-23051600.12,2016,12,-0.9916057777116748,False,未知,未知,未知,未知,未知,未知,40890000.0,未知
12,002149,-3820036.32,-865269.36,2017-03-31,一季度报告,-4923699.279999998,2017,3,-0.793301002379501,False,-0.6046186786799365,True,0.1061908729426207,False,前期平均,-68101498.75999999,33500000.0,33500000.0
13,002149,36063495.68,20106355.980000004,2017-06-30,半年度报告,9499636.009999998,2017,6,-1.0884737460318068,False,-1.9687585843313429,True,0.1509733450306219,False,前期平均,-34107269.88499999,57792500.0,57792500.0
14,002149,64499788.27,35700240.82,2017-09-30,三季度报告,21492482.6,2017,9,-1.0640398463657812,False,-2.0316522688888488,True,0.172239289650912,False,前期平均,-6041197.815000005,48000000.0,48000000.0
15,002149,91449703.03,54074793.60999999,2017-12-31,年度报告,19805506.620000005,2017,12,-1.0359379084500555,False,-1.6015506645137605,True,0.0,True,前期平均,54074793.60999999,82610000.0,82610000.0
16,002149,-3129840.6700000013,987644.03,2018-03-31,一季度报告,-4558696.64,2018,3,-0.6152467785960737,False,-0.816387016409282,True,0.3681198188961312,False,盈利变化,54561463.79666666,84333333.0,84333333.0
17,002149,33457693.46,23146905.809999995,2018-06-30,半年度报告,11674377.790000005,2018,6,-1.0407550974270945,False,-3.3476256013949883,True,0.22418389622017104,False,前期平均,-34003983.835,76323333.0,76323333.0
18,002149,57117787.13999999,37194618.43,2018-09-30,三季度报告,19105278.39,2018,9,-1.022787226430069,False,-4.362900382674658,True,0.4676186765443232,False,前期平均,-8034898.13000001,,-8034898.13000001
19,002149,102954364.14,60316522.82,2018-12-31,年度报告,36722839.18,2018,12,-1.01607190872471,False,-2.362930595121096,True,0.0,True,前期平均,60316522.82,,60316522.82
20,002149,2556882.8600000003,1373324.35,2019-03-31,一季度报告,-1034340.8099999998,2019,3,-0.530400606622573,False,-0.4273313113842656,True,0.38940911259052463,False,前期平均,6796438.620000001,120000000.0,120000000.0
21,002149,48354077.19000001,25684745.22000001,2019-06-30,半年度报告,20678586.6,2019,6,-1.0439292469983674,False,0.27031998539441376,True,0.20021393583183228,False,前期平均,20446650.180000015,,20446650.180000015
22,002149,76634642.72,41208300.34,2019-09-30,三季度报告,33486140.87,2019,9,-1.0257322867988123,False,0.30628578767461073,True,0.4686963276681796,False,前期平均,31651413.855000004,未知,31651413.855000004
23,002149,116873500.04,61465474.92999999,2019-12-31,年度报告,40640981.28,2019,12,-1.0142759492740043,False,0.555822069499409,True,0.0,True,前期平均,61465474.92999999,未知,61465474.92999999
24,002149,-23657505.07,-14231050.319999995,2020-03-31,一季度报告,-17811885.889999993,2020,3,-1.5748293373126996,False,-1.7358066520253619,True,0.11587216141560222,False,盈利变化,39095414.82333334,70790000.0,70790000.0
