,SECURITYCODE_x,NETPROFIT_x,PARENTNETPROFIT_x,REPORTDATE_x,REPORTTIMETYPE_x,KCFJCXSYJLR,Year,Month,managesituationChangeRate,managesituationGreatChange,historyprofitextroplaterate,ifhistoryprofitextroplate,IfprofitdisStableChangeRage,IfprofitdisStable,predicttype,predict,analyst_prediction,adj_prediction
0,002168,33222906.14,35659127.27,2013-12-31,年度报告,27915594.21,2013,12,未知,未知,未知,未知,未知,未知,未知,未知,未知,未知
1,002168,3196161.89,3510465.7500000005,2014-03-31,一季度报告,2292571.01,2014,3,未知,未知,未知,未知,未知,未知,未知,未知,未知,未知
2,002168,843962.6200000001,2083623.86,2014-06-30,半年度报告,-144549.86000000002,2014,6,未知,未知,未知,未知,未知,未知,未知,未知,未知,未知
3,002168,-22771721.8,-18895949.540000007,2014-09-30,三季度报告,-22170910.25,2014,9,未知,未知,未知,未知,未知,未知,未知,未知,未知,未知
4,002168,-119385542.32,-88852296.24,2014-12-31,年度报告,-91339214.65000002,2014,12,0.0,True,未知,未知,未知,未知,未知,未知,未知,未知
5,002168,15348504.73,19859131.379999995,2015-03-31,一季度报告,-15090692.920000002,2015,3,9.394625580120412,False,未知,未知,未知,未知,未知,未知,未知,未知
6,002168,103975258.69000004,109082319.87,2015-06-30,半年度报告,-40423151.99,2015,6,38.36537632436848,False,未知,未知,未知,未知,未知,未知,未知,未知
7,002168,106696370.51,111803431.69,2015-09-30,三季度报告,-44811976.38000001,2015,9,-2.458954506461606,False,未知,未知,未知,未知,未知,未知,未知,未知
8,002168,130251403.31000002,135358464.48999998,2015-12-31,年度报告,33735388.2,2015,12,-1.2782824912831539,False,未知,未知,未知,未知,未知,未知,,未知
9,002168,130251403.31000002,135358464.48999998,2015-12-31,年度报告,26708461.83000001,2015,12,-1.2782824912831539,False,未知,未知,未知,未知,未知,未知,,未知
10,002168,-17065820.44,-17065820.44,2016-03-31,一季度报告,-17687864.0,2016,3,1.1645695606467068,False,未知,未知,未知,未知,未知,未知,107000000.0,未知
11,002168,-20385011.17,-20385011.17,2016-06-30,半年度报告,-26127565.86000001,2016,6,-0.6804729648323995,True,未知,未知,未知,未知,未知,未知,,未知
12,002168,5015359.5600000005,5015359.5600000005,2016-09-30,三季度报告,-27810359.840000004,2016,9,-0.688621965478327,True,未知,未知,0.0,True,未知,未知,未知,未知
13,002168,75912490.21,75912490.21,2016-12-31,年度报告,39723846.33,2016,12,-0.7449324514306456,True,-4.02338482397162,True,0.28079897800402426,False,平均增速,75912490.21,未知,75912490.21
14,002168,-5562076.38,-5562076.38,2017-03-31,一季度报告,-6792938.910000003,2017,3,-2.9467511835604427,False,2.8405098123031127,False,0.6197123077942029,False,去年同期,51849633.949999996,89000000.0,89000000.0
15,002168,-65048114.20000001,-64888205.70000001,2017-06-30,半年度报告,-67846445.71,2017,6,-2.629771299261937,False,1.3889555925952144,True,0.8379642677261465,False,前期平均,-73406268.00000003,,-73406268.00000003
16,002168,-92716391.22,-92245965.25,2017-09-30,三季度报告,-100929040.32,2017,9,5.624232169707089,False,0.880479462539534,True,0.0,True,盈利变化,43415298.88555555,未知,43415298.88555555
17,002168,-106367307.20999998,-107607635.77,2017-12-31,年度报告,-115438310.62000003,2017,12,-0.5623525713872112,True,12.972659926325786,False,0.336761830996441,False,未知,未知,204075358.0,未知
18,002168,169148965.31,156162545.93999997,2018-03-31,一季度报告,154818894.70999998,2018,3,-6.973112174342346,False,-5.477639897674956,True,1.0104766170438908,False,盈利变化,107874809.05666663,未知,107874809.05666663
19,002168,286394822.08,249889853.78,2018-06-30,半年度报告,248003963.34,2018,6,-1.5107435711026345,False,2.556356539904644,False,1.259017547001234,False,盈利变化,102959303.59666668,未知,102959303.59666668
20,002168,387452452.26000017,325763762.55000013,2018-09-30,三季度报告,323615046.0300001,2018,9,-1.3583282923638365,False,2.6599222151855084,False,0.0,True,前期平均,398804547.92500013,未知,398804547.92500013
21,002168,402467389.19000006,336389804.52999985,2018-12-31,年度报告,261472491.31000003,2018,12,-1.3123413294125075,False,2.0318713465671063,False,0.523544607794436,False,前期平均,336389804.52999985,未知,336389804.52999985
22,002168,37733843.05,26596218.399999995,2019-03-31,一季度报告,25260541.31,2019,3,-0.8035878843295776,True,-15.950480520177658,True,0.95055957991331,False,平均增速,71533222.15946433,,71533222.15946433
23,002168,88665739.08999999,57224634.8,2019-06-30,半年度报告,55766727.11999999,2019,6,-0.8839961354792941,True,-7.704538101343253,True,1.1707199866663545,False,平均增速,63314917.55315058,未知,63314917.55315058
24,002168,145072777.42,97585434.25999996,2019-09-30,三季度报告,95869725.89,2019,9,-0.9142529465326348,True,-9.835755861164294,True,0.0,True,比例外推,205421808.1407013,未知,205421808.1407013
25,002168,194273417.17,134997926.83,2019-12-31,年度报告,137568478.64,2019,12,-0.9174519301877752,True,-27.4304585504487,True,0.3139138552609276,False,平均增速,134997926.83,509930000.0,509930000.0
26,002168,41314712.7,27693225.01,2020-03-31,一季度报告,25779440.70000001,2020,3,-0.11954618309146746,True,0.5386691036572426,True,未知,未知,True,True,278000000.0,278000000.0
