,SECURITYCODE_x,NETPROFIT_x,PARENTNETPROFIT_x,REPORTDATE_x,REPORTTIMETYPE_x,KCFJCXSYJLR,Year,Month,managesituationChangeRate,managesituationGreatChange,historyprofitextroplaterate,ifhistoryprofitextroplate,IfprofitdisStableChangeRage,IfprofitdisStable,predicttype,predict,analyst_prediction,adj_prediction
0,002122,28954270.12,31039324.02,2013-12-31,年度报告,-20816115.19,2013,12,未知,未知,未知,未知,未知,未知,未知,未知,未知,未知
1,002122,10833136.430000003,10262519.11,2014-03-31,一季度报告,-12277555.320000002,2014,3,未知,未知,未知,未知,未知,未知,未知,未知,未知,未知
2,002122,21834984.390000004,20346026.19,2014-06-30,半年度报告,-85061258.07000001,2014,6,未知,未知,未知,未知,未知,未知,未知,未知,未知,未知
3,002122,27593299.529999994,25833456.79,2014-09-30,三季度报告,-101629945.26000002,2014,9,未知,未知,未知,未知,未知,未知,未知,未知,未知,未知
4,002122,35322778.0,33793571.169999994,2014-12-31,年度报告,-230870890.62000003,2014,12,0.0,True,未知,未知,未知,未知,未知,未知,未知,未知
5,002122,22986146.99,20702595.68,2015-03-31,一季度报告,-9191770.410000002,2015,3,1.6727504363203143,False,未知,未知,未知,未知,未知,未知,未知,未知
6,002122,35585951.480000004,32536407.19,2015-06-30,半年度报告,-13640692.52,2015,6,0.32604949941070216,True,未知,未知,未知,未知,未知,未知,未知,未知
7,002122,45557075.73,40090647.15,2015-09-30,三季度报告,-22902263.36,2015,9,0.04932250267933099,True,未知,未知,未知,未知,未知,未知,未知,未知
8,002122,53374547.52000001,47158057.49,2015-12-31,年度报告,-256793189.52,2015,12,-0.18029464953181198,True,未知,未知,未知,未知,未知,未知,未知,未知
9,002122,14048226.76,11900059.329999998,2016-03-31,一季度报告,-11672554.929999998,2016,3,0.25963999675963106,True,未知,未知,未知,未知,未知,未知,未知,未知
10,002122,31508947.260000005,24399521.08,2016-06-30,半年度报告,-18393632.2,2016,6,-0.18635672461159672,True,未知,未知,未知,未知,未知,未知,未知,未知
11,002122,36247512.85,28486404.14999999,2016-09-30,三季度报告,-49535531.28,2016,9,-0.3644396692272065,True,未知,未知,未知,未知,未知,未知,未知,未知
12,002122,-269085376.1000001,-261231992.79,2016-12-31,年度报告,-251431839.03000003,2016,12,-0.4575266402183451,True,0.6607653612329578,True,0.0,True,比例外推,-261231992.79,未知,-261231992.79
13,002122,18394241.1,16600743.21,2017-03-31,一季度报告,-5159555.510000002,2017,3,1.0610622689009044,False,0.16921795263750747,True,0.009338249450725221,True,前期平均,-216496633.995,未知,-216496633.995
14,002122,38431572.93,35469529.51,2017-06-30,半年度报告,2006322.18,2017,6,-0.08107783223983231,True,0.0974724386706518,True,0.20353268232725205,False,平均增速,-321472271.1415997,130440000.0,130440000.0
15,002122,40621956.33,37413299.03,2017-09-30,三季度报告,-51616462.6,2017,9,-0.2012067078969254,True,0.00895893640559825,True,0.19806854221354256,False,平均增速,-155628839.20030826,1055000000.0,1055000000.0
16,002122,44981422.81,52091592.55000001,2017-12-31,年度报告,-360766800.84,2017,12,-1.107602540649551,False,7.067496951513494,False,0.0,True,前期平均,52091592.55000001,1055000000.0,1055000000.0
17,002122,-22354056.45,-23579617.04,2018-03-31,一季度报告,-75845294.61999999,2018,3,0.5740943028087198,False,0.006639549291690049,True,0.017871835524150996,True,盈利变化,-42156059.596666634,未知,-42156059.596666634
18,002122,-97977480.43000002,-99076292.2,2018-06-30,半年度报告,-158742710.62000003,2018,6,-0.2466020016214829,True,0.14558852168259473,True,0.04579915151229416,True,比例外推,-3885439813.416251,未知,-3885439813.416251
19,002122,-204255351.6600001,-205723985.53,2018-09-30,三季度报告,-251319974.08,2018,9,-0.2872261029285587,True,0.006853844383700973,True,0.053922522133546535,True,比例外推,-1710765776.1117072,未知,-1710765776.1117072
20,002122,-633974470.57,-634975473.0200001,2018-12-31,年度报告,-592089419.41,2018,12,-0.35630604122279874,True,-1.417052988077674,True,0.0,True,比例外推,-634975473.0200001,,-634975473.0200001
21,002122,-128446382.4,-127734448.51,2019-03-31,一季度报告,-103897284.51,2019,3,-2.2952579852682624,False,2.3780737363424485,False,0.06515647963784835,True,去年同期,-643978573.3,未知,-643978573.3
22,002122,-297124487.87000006,-301381849.19000006,2019-06-30,半年度报告,-271784733.74,2019,6,-1.295519643829649,False,3.801737252277649,False,0.1562058930443116,False,去年同期,-734728557.98,未知,-734728557.98
23,002122,-560041334.83,-562048778.0799999,2019-09-30,三季度报告,-454379718.66,2019,9,-1.141755258232826,False,6.3143427121035325,False,0.16961255602235958,False,去年同期,-902818223.4099998,未知,-902818223.4099998
24,002122,-1655825310.8700006,-1654015461.13,2019-12-31,年度报告,-1387733637.4099998,2019,12,-1.0456710348193792,False,-4.657860660312494,True,0.0,True,前期平均,-1654015461.13,未知,-1654015461.13
25,002122,2320499.17,-1510071.56,2020-03-31,一季度报告,-24637475.44,2020,3,-1.2254191171366147,False,-63.87493534262909,True,0.05812091656495096,True,前期平均,-437435756.61999995,未知,-437435756.61999995
