,SECURITYCODE_x,NETPROFIT_x,PARENTNETPROFIT_x,REPORTDATE_x,REPORTTIMETYPE_x,KCFJCXSYJLR,Year,Month,managesituationChangeRate,managesituationGreatChange,historyprofitextroplaterate,ifhistoryprofitextroplate,IfprofitdisStableChangeRage,IfprofitdisStable,predicttype,predict,analyst_prediction,adj_prediction
0,002159,42138907.46,31231467.030000005,2013-12-31,年度报告,-36797722.77,2013,12,未知,未知,未知,未知,未知,未知,未知,未知,未知,未知
1,002159,-29473548.25,-25862357.87,2014-03-31,一季度报告,-26069218.26,2014,3,未知,未知,未知,未知,未知,未知,未知,未知,未知,未知
2,002159,-27660305.49,-27339238.22000001,2014-06-30,半年度报告,-33526416.87,2014,6,未知,未知,未知,未知,未知,未知,未知,未知,未知,未知
3,002159,-14808060.769999998,-23157390.08,2014-09-30,三季度报告,-30147176.680000003,2014,9,未知,未知,未知,未知,未知,未知,未知,未知,未知,未知
4,002159,-25937385.26,-37265309.72000001,2014-12-31,年度报告,-43568037.78999999,2014,12,0.0,True,未知,未知,未知,未知,未知,未知,未知,未知
5,002159,-24274846.97000001,-21004109.04,2015-03-31,一季度报告,-21657277.69,2015,3,-2.429719526898157,False,未知,未知,未知,未知,未知,未知,24309667.0,未知
6,002159,-27351162.4,-29314587.459999993,2015-06-30,半年度报告,-33526416.87,2015,6,-2.523443313929936,False,未知,未知,未知,未知,未知,未知,18032222.0,未知
7,002159,6324612.06,-10886359.000000002,2015-09-30,三季度报告,-11811658.52,2015,9,-3.845673590519713,False,未知,未知,未知,未知,未知,未知,62096445.0,未知
8,002159,62543579.54,43007066.33,2015-12-31,年度报告,-25834551.8,2015,12,-2.6246397637076235,False,未知,未知,未知,未知,未知,未知,32400000.0,未知
9,002159,-17049655.27,-16732072.079999998,2016-03-31,一季度报告,-16502445.6,2016,3,-2.7359082638946077,False,未知,未知,未知,未知,未知,未知,95144498.0,未知
10,002159,-21012247.4,-28192335.81,2016-06-30,半年度报告,-28808595.41,2016,6,-2.54066239831913,False,未知,未知,未知,未知,未知,未知,38753846.0,未知
11,002159,3044808.4700000007,-7753761.02,2016-09-30,三季度报告,-9516669.14,2016,9,5.662686511083812,False,未知,未知,未知,未知,未知,未知,1920000.0,未知
12,002159,-44129637.38999999,-53940340.97000001,2016-12-31,年度报告,-58499011.82,2016,12,-0.3262472699847649,True,6.720704112604926,False,0.0,True,比例外推,-53940340.97000001,-9031333.0,-9031333.0
13,002159,-30397588.45999999,-29501412.070000004,2017-03-31,一季度报告,-30188655.77,2017,3,-3.4715401451046466,False,-0.3655752808911494,True,0.290822493527486,False,前期平均,-40339458.89,27397082.999999996,27397082.999999996
14,002159,-33785154.64,-33570432.64,2017-06-30,半年度报告,-35175860.68,2017,6,-3.0054450463019013,False,-0.23607755960936244,True,0.44449652373165216,False,前期平均,-34745310.565,17970000.0,17970000.0
15,002159,17482704.54,14026879.88,2017-09-30,三季度报告,506058.52,2017,9,12.839592169815527,False,-1.717823275435351,True,0.2745994949930137,False,盈利变化,-49485795.34333335,25696667.000000004,25696667.000000004
16,002159,5001827.19,5501395.779999998,2017-12-31,年度报告,-30134752.46,2017,12,-1.954889048545613,False,3.411047543071718,False,0.0,True,盈利变化,-44485587.85000002,25863332.999999996,25863332.999999996
17,002159,-28201310.680000003,-27529808.82,2018-03-31,一季度报告,-27997705.23,2018,3,-2.3862582393814016,False,-0.4711653770666196,True,0.42529991029810155,False,前期平均,-50616728.985,39034000.0,39034000.0
18,002159,98111614.55999996,96533650.87,2018-06-30,半年度报告,-27362537.42000001,2018,6,-2.2472610502753048,False,-0.3971370000466759,True,0.49336507548159697,False,盈利变化,10710277.953333326,91800000.0,91800000.0
19,002159,164414933.08999994,158844178.11,2018-09-30,三季度报告,34916639.919999994,2018,9,1.4103197170430475,False,2.73186463005306,False,0.25617339547437534,False,去年同期,128203367.13000001,122900000.0,128203367.13000001
20,002159,141895893.75,134726722.17999998,2018-12-31,年度报告,5012607.699999998,2018,12,7.424702785463486,False,0.45673477745774294,True,0.0,True,前期平均,134726722.17999998,122900000.0,134726722.17999998
21,002159,-38608501.33000001,-38991614.84000001,2019-03-31,一季度报告,-42294585.27,2019,3,-2.494218050293824,False,-0.18874389587224227,True,4.151600259943745,False,前期平均,-59962946.29500002,64822222.0,64822222.0
22,002159,-33586060.2,-37199519.43999999,2019-06-30,半年度报告,-42459141.5,2019,6,-0.5705003159006211,True,-4.58088562258416,True,4.192411522422551,False,平均增速,-390950.2919205129,50000000.0,50000000.0
23,002159,27371380.079999994,18010299.78,2019-09-30,三季度报告,12723698.7,2019,9,-0.7437038919273021,True,15.01898223227578,False,4.595213132949077,False,未知,未知,35750000.0,未知
24,002159,23781794.48,11405762.62,2019-12-31,年度报告,2117166.6300000004,2019,12,-0.7030294087703295,True,-8.252943265912695,True,0.0,True,比例外推,11405762.62,33500000.0,33500000.0
25,002159,-81453802.75999999,-78423261.87000003,2020-03-31,一季度报告,-79630933.88000001,2020,3,-2.091441159547334,False,-0.31772104584284233,True,11.790094019221028,False,前期平均,-61891153.75000004,未知,-61891153.75000004
