,SECURITYCODE_x,NETPROFIT_x,PARENTNETPROFIT_x,REPORTDATE_x,REPORTTIMETYPE_x,KCFJCXSYJLR,Year,Month,managesituationChangeRate,managesituationGreatChange,historyprofitextroplaterate,ifhistoryprofitextroplate,IfprofitdisStableChangeRage,IfprofitdisStable,predicttype,predict,analyst_prediction,adj_prediction
0,002153,362633160.31000006,359633268.51,2013-12-31,年度报告,280830087.5299999,2013,12,未知,未知,未知,未知,未知,未知,未知,未知,未知,未知
1,002153,56900730.03000001,52397211.52999998,2014-03-31,一季度报告,49030399.00000001,2014,3,未知,未知,未知,未知,未知,未知,未知,未知,未知,未知
2,002153,181618307.17,169433486.22,2014-06-30,半年度报告,162539023.70999998,2014,6,未知,未知,未知,未知,未知,未知,未知,未知,未知,未知
3,002153,236203316.1,229782005.66,2014-09-30,三季度报告,220972058.38000005,2014,9,未知,未知,未知,未知,未知,未知,未知,未知,未知,未知
4,002153,395151959.92,382047507.19,2014-12-31,年度报告,361862019.87000006,2014,12,0.0,True,未知,未知,未知,未知,未知,未知,未知,未知
5,002153,58262256.44000001,55084023.77,2015-03-31,一季度报告,50045755.04,2015,3,5.373084495028578,False,未知,未知,未知,未知,未知,未知,470239332.99999994,未知
6,002153,179374950.23000002,173402223.71,2015-06-30,半年度报告,165020991.88999996,2015,6,0.9966773502109836,False,未知,未知,未知,未知,未知,未知,498460000.0,未知
7,002153,244421972.1,235489514.39,2015-09-30,三季度报告,225197439.46,2015,9,0.5352585488532016,False,未知,未知,未知,未知,未知,未知,427800000.0,未知
8,002153,372860202.23,360995723.54,2015-12-31,年度报告,345007761.73,2015,12,-0.08229441558782476,True,未知,未知,未知,未知,未知,未知,427800000.0,未知
9,002153,60276997.79000001,57898612.75,2016-03-31,一季度报告,53363881.65,2016,3,5.224152349530938,False,未知,未知,未知,未知,未知,未知,456980000.0,未知
10,002153,180167017.99,175686589.67,2016-06-30,半年度报告,166970289.29,2016,6,1.0216488414074585,False,未知,未知,未知,未知,未知,未知,434733333.0,未知
11,002153,274848955.14,264610782.89999995,2016-09-30,三季度报告,254591850.34,2016,9,0.48363568624524683,True,未知,未知,未知,未知,未知,未知,447500000.0,未知
12,002153,405797847.51,388790331.19,2016-12-31,年度报告,375524963.56999993,2016,12,-0.02742862300356575,True,0.01592102490259791,True,0.0,True,比例外推,388790331.19,460550000.0,460550000.0
13,002153,61890027.24999999,62791446.70000001,2017-03-31,一季度报告,59869074.43999999,2017,3,5.016111843748149,False,0.04681199468029029,True,0.005390724935847135,True,前期平均,366688260.48,451298000.0,451298000.0
14,002153,182852840.13,182494278.73999995,2017-06-30,半年度报告,177052288.20000002,2017,6,1.012761072229811,False,0.0018261322240418032,True,0.02093873679523156,True,前期平均,372149161.74,451933333.0,451933333.0
15,002153,280862484.81999993,278461780.4,2017-09-30,三季度报告,267841985.43,2017,9,0.3193907181684041,True,0.14371408200073144,True,0.036462806822952665,True,比例外推,424521081.6647564,428088750.0,424521081.6647564
16,002153,424964145.31,419028697.62000006,2017-12-31,年度报告,390403534.34,2017,12,-0.10636992646673965,True,0.056748493081139,True,0.0,True,比例外推,419028697.62000006,418424444.0,419028697.62000006
17,002153,68903423.21999998,66923674.96999999,2018-03-31,一季度报告,59848692.35000001,2018,3,4.85931492395651,False,0.044211517138713526,True,0.0065139665724028295,True,前期平均,375485219.275,500272727.0,500272727.0
18,002153,208298986.2799999,204065102.49000004,2018-06-30,半年度报告,189381437.63,2018,6,0.9831967611341694,False,0.017143233849764235,True,0.01949308965393831,True,前期平均,398335824.5500001,491423077.0,491423077.0
19,002153,335223625.75999993,315969915.82000005,2018-09-30,三季度报告,293867288.72,2018,9,0.2911413232792752,True,0.08175701772030494,True,0.019521311650952944,True,比例外推,459240674.70353186,506910000.0,459240674.70353186
20,002153,542661025.92,463482459.69,2018-12-31,年度报告,412310624.39,2018,12,-0.14667351513745036,True,0.09152957566392293,True,0.0,True,比例外推,463482459.69,499723635.99999994,463482459.69
21,002153,75048245.60000001,72916620.42,2019-03-31,一季度报告,66553060.98000001,2019,3,4.262919363993831,False,0.12801999062250372,True,0.006481472498860219,True,前期平均,399264391.33,537150000.0,537150000.0
22,002153,238304720.28,208394506.02,2019-06-30,半年度报告,202986947.2,2019,6,0.7409261887743461,False,0.14759003740861198,True,0.007855011364016229,True,前期平均,419347466.23,538197857.0,538197857.0
23,002153,363591775.44,321744345.85,2019-09-30,三季度报告,313442688.59000003,2019,9,0.08176492479567571,True,0.20646652796685025,True,0.020479516525812036,True,比例外推,461087819.23240757,525372727.0,525372727.0
24,002153,465176300.65,368017553.68,2019-12-31,年度报告,334324158.19,2019,12,-0.3317501294750066,True,0.30641755547326194,True,0.0,True,比例外推,368017553.68,525354286.0,525354286.0
25,002153,31726543.07,37899130.66,2020-03-31,一季度报告,35030608.65000001,2020,3,3.832000500621963,False,0.14758415395140584,True,0.03320958932654264,True,前期平均,379397326.63,363133333.0,379397326.63
