,SECURITYCODE_x,NETPROFIT_x,PARENTNETPROFIT_x,REPORTDATE_x,REPORTTIMETYPE_x,KCFJCXSYJLR,Year,Month,managesituationChangeRate,managesituationGreatChange,historyprofitextroplaterate,ifhistoryprofitextroplate,IfprofitdisStableChangeRage,IfprofitdisStable,predicttype,predict,analyst_prediction,adj_prediction
0,002177,124382450.36999996,124382450.36999996,2013-12-31,年度报告,131213366.07000004,2013,12,未知,未知,未知,未知,未知,未知,未知,未知,未知,未知
1,002177,33126852.41000001,33126852.41000001,2014-03-31,一季度报告,33734472.85,2014,3,未知,未知,未知,未知,未知,未知,未知,未知,未知,未知
2,002177,72943582.80000001,72943582.80000001,2014-06-30,半年度报告,72059666.00000001,2014,6,未知,未知,未知,未知,未知,未知,未知,未知,未知,未知
3,002177,119063696.45000002,119063696.45000002,2014-09-30,三季度报告,92604011.52,2014,9,未知,未知,未知,未知,未知,未知,未知,未知,未知,未知
4,002177,132007798.39999998,132007798.39999998,2014-12-31,年度报告,113538055.88,2014,12,0.0,True,未知,未知,未知,未知,未知,未知,未知,未知
5,002177,33297687.26,33297687.26,2015-03-31,一季度报告,33611405.61,2015,3,2.754731926551905,False,未知,未知,未知,未知,未知,未知,191130000.0,未知
6,002177,55096465.60999999,55096465.60999999,2015-06-30,半年度报告,57250565.24999999,2015,6,0.7051870170819186,False,未知,未知,未知,未知,未知,未知,105000000.0,未知
7,002177,61310356.83,61310356.83,2015-09-30,三季度报告,67300652.24000001,2015,9,0.04467150003387906,True,未知,未知,未知,未知,未知,未知,164700000.0,未知
8,002177,69446758.00999999,69446758.00999999,2015-12-31,年度报告,75259550.21,2015,12,-0.05776437545677618,True,未知,未知,未知,未知,未知,未知,202000000.0,未知
9,002177,33731138.55,33731138.55,2016-03-31,一季度报告,30570235.71,2016,3,2.7354681542528234,False,未知,未知,未知,未知,未知,未知,132000000.0,未知
10,002177,56525075.84,56525075.84,2016-06-30,半年度报告,50977455.84,2016,6,1.2575395534523104,False,未知,未知,未知,未知,未知,未知,121790607.0,未知
11,002177,33536713.84999999,33536713.84999999,2016-09-30,三季度报告,33088181.500000004,2016,9,1.0287347326143423,False,未知,未知,未知,未知,未知,未知,,未知
12,002177,23246241.180000003,23246241.180000003,2016-12-31,年度报告,26800330.12,2016,12,0.7910476159605536,False,0.45827301667546166,True,0.0,True,前期平均,23246241.180000003,104330000.0,104330000.0
13,002177,17261258.040000007,17261258.040000007,2017-03-31,一季度报告,13362571.500000006,2017,3,2.6874667063380215,False,0.015622801981850409,True,0.5125352843241896,False,前期平均,77987121.855,未知,77987121.855
14,002177,17969853.799999993,17969853.799999993,2017-06-30,半年度报告,5386217.5600000005,2017,6,1.200482679971579,False,0.11707193894523138,True,0.8029528187843904,False,前期平均,47713541.219999984,未知,47713541.219999984
15,002177,12632575.17,12632575.17,2017-09-30,三季度报告,-14586698.47,2017,9,2.7088443109341793,False,0.6281425932371775,True,0.25312287437055736,False,前期平均,27079046.334999993,未知,27079046.334999993
16,002177,13767025.879999995,13767025.879999995,2017-12-31,年度报告,-40452469.65,2017,12,4.350647849124653,False,0.7692160297165054,True,0.0,True,前期平均,13767025.879999995,未知,13767025.879999995
17,002177,3847540.71,3847540.71,2018-03-31,一季度报告,8490203.370000001,2018,3,6.205873991441699,False,0.48496015463768405,True,0.7493094385002972,False,前期平均,22786660.214999996,未知,22786660.214999996
18,002177,4466584.649999999,4466584.649999999,2018-06-30,半年度报告,2869346.96,2018,6,5.921728565760508,False,0.6780217587650954,True,1.058893955891714,False,前期平均,1382514.2700000005,未知,1382514.2700000005
19,002177,2627881.25,2627881.25,2018-09-30,三季度报告,-552808.45,2018,9,8.846167443783353,False,0.733622238843402,True,0.46922953714026366,False,前期平均,3463404.544999987,未知,3463404.544999987
20,002177,-94817582.68,-94817582.68,2018-12-31,年度报告,-44687445.7,2018,12,8.03480907598904,False,0.7029543546912176,True,0.0,True,盈利变化,12355367.19666666,未知,12355367.19666666
21,002177,35280209.63,35280209.63,2019-03-31,一季度报告,-7773931.25,2019,3,31.327780196508947,False,0.8490935524785853,True,0.9338837581240239,False,前期平均,6487736.259999998,未知,6487736.259999998
22,002177,58580833.84,58580833.84,2019-06-30,半年度报告,-18309984.26,2019,6,26.84732857799974,False,0.8800835259101535,True,1.3338664728053269,False,前期平均,23572927.375,未知,23572927.375
23,002177,60491263.10999999,60491263.10999999,2019-09-30,三季度报告,-19640717.88,2019,9,46.33183828987705,False,0.8861632350950159,True,0.6987592431465364,False,前期平均,44414451.82999999,未知,44414451.82999999
24,002177,67277711.54,67277711.54,2019-12-31,年度报告,-24653800.9,2019,12,-2.3118078615205624,False,6.123437632581683,False,0.0,True,前期平均,67277711.54,未知,67277711.54
25,002177,-46758631.34,-46758631.34,2020-03-31,一季度报告,17908687.13,2020,3,2.5255587105194857,False,2.3427017849606426,False,0.38365539606767807,False,前期平均盈利变化,-74572358.07000001,未知,-74572358.07000001
