,SECURITYCODE_x,NETPROFIT_x,PARENTNETPROFIT_x,REPORTDATE_x,REPORTTIMETYPE_x,KCFJCXSYJLR,Year,Month,managesituationChangeRate,managesituationGreatChange,historyprofitextroplaterate,ifhistoryprofitextroplate,IfprofitdisStableChangeRage,IfprofitdisStable,predicttype,predict,analyst_prediction,adj_prediction
0,002196,5438176.3,5438176.3,2013-12-31,年度报告,742967.62,2013,12,未知,未知,未知,未知,未知,未知,未知,未知,未知,未知
1,002196,1629138.25,1629138.25,2014-03-31,一季度报告,701757.2599999999,2014,3,未知,未知,未知,未知,未知,未知,未知,未知,未知,未知
2,002196,2658878.329999999,2658878.329999999,2014-06-30,半年度报告,-167323.34,2014,6,未知,未知,未知,未知,未知,未知,未知,未知,未知,未知
3,002196,5351161.459999999,5351161.459999999,2014-09-30,三季度报告,1160779.38,2014,9,未知,未知,未知,未知,未知,未知,未知,未知,未知,未知
4,002196,10186790.52,10186790.52,2014-12-31,年度报告,2296853.59,2014,12,0.0,True,未知,未知,未知,未知,未知,未知,未知,未知
5,002196,5531773.84,5531773.84,2015-03-31,一季度报告,4025349.139999999,2015,3,2.3380692522565227,False,未知,未知,未知,未知,未知,未知,未知,未知
6,002196,9130076.66,9188727.72,2015-06-30,半年度报告,4215382.38,2015,6,1.0452896391088349,False,未知,未知,未知,未知,未知,未知,56945519.00000001,未知
7,002196,18084883.77,18184937.76,2015-09-30,三季度报告,11321296.84,2015,9,0.016260925903738437,True,未知,未知,未知,未知,未知,未知,74207780.0,未知
8,002196,63228469.31000001,65013718.96,2015-12-31,年度报告,50467163.58000001,2015,12,-0.46615410522842476,True,未知,未知,未知,未知,未知,未知,76649336.0,未知
9,002196,17281272.41,18128714.06,2016-03-31,一季度报告,16482678.919999994,2016,3,-0.016919986736117186,True,未知,未知,未知,未知,未知,未知,184076022.0,未知
10,002196,47547731.77,49056217.84999999,2016-06-30,半年度报告,43749869.79,2016,6,-0.4043668522713149,True,未知,未知,未知,未知,未知,未知,168081211.0,未知
11,002196,72112649.27999999,71764571.8,2016-09-30,三季度报告,61818496.53,2016,9,-0.6992971384742275,True,未知,未知,未知,未知,未知,未知,135941733.0,未知
12,002196,118830849.34,118290164.31,2016-12-31,年度报告,90422820.36,2016,12,-0.913991650290672,True,7.093261257882147,False,0.0,True,比例外推,118290164.31,134186850.0,134186850.0
13,002196,21771526.460000005,21814557.3,2017-03-31,一季度报告,20184428.099999994,2017,3,-0.6853138952399628,True,3.826556224348231,False,0.11633779529739957,False,未知,未知,174227244.0,未知
14,002196,56779852.56,56868771.41,2017-06-30,半年度报告,53013493.18000001,2017,6,-0.8856270089537439,True,7.0664879644264404,False,0.3189983006794894,False,未知,未知,169706667.00000003,未知
15,002196,86230105.9,86374522.32,2017-09-30,三季度报告,81674646.65,2017,9,-0.924587761588337,True,5.153994718160902,False,0.24679282295408794,False,未知,未知,154205494.0,未知
16,002196,132089314.86,132295940.09,2017-12-31,年度报告,73437508.98,2017,12,-0.9542359889691587,True,2.237224784470261,False,0.0,True,比例外推,132295940.09,152107325.0,152107325.0
17,002196,18552729.1,18612587.12,2018-03-31,一季度报告,17536328.380000006,2018,3,-0.75021612242066,True,0.9086908623612688,True,0.09920425419334666,True,比例外推,99063185.02773906,156914975.0,156914975.0
18,002196,44366615.42,44490583.85,2018-06-30,半年度报告,40458492.78,2018,6,-0.9042234867684201,True,1.0036008495327065,True,0.3462226381193545,False,平均增速,65579502.010439105,106450000.0,106450000.0
19,002196,56728879.11,56915118.17999999,2018-09-30,三季度报告,52480297.31,2018,9,-0.9369341340447084,True,0.9120280341192774,True,0.44905522924535113,False,平均增速,48906604.48449218,76000000.0,76000000.0
20,002196,-444657132.03,-444371351.39,2018-12-31,年度报告,-441453669.7,2018,12,-0.9588295517637906,True,0.451057994058905,True,0.0,True,比例外推,-444371351.39,161207500.0,161207500.0
21,002196,10007183.999999998,10082106.13,2019-03-31,一季度报告,6231346.39,2019,3,-0.7068799813392413,True,0.04986430489866709,True,0.1788614533878466,False,平均增速,525120279.5615564,未知,525120279.5615564
22,002196,9458235.93,9614712.87,2019-06-30,半年度报告,-621798.73,2019,6,-0.8774263880956643,True,0.1494748832741425,True,0.4630063465701614,False,平均增速,639698490.4148414,56800000.0,56800000.0
23,002196,16560300.3,16795576.8,2019-09-30,三季度报告,3872925.8,2019,9,-0.9041374272624862,True,0.2834673232063942,True,0.6778623004235447,False,平均增速,640576269.5910944,,640576269.5910944
24,002196,16553041.579999994,16868844.209999993,2019-12-31,年度报告,-5307100.540000001,2019,12,-1.0122300440232972,False,4.544212028137992,False,0.0,True,前期平均,16868844.209999993,,16868844.209999993
25,002196,-17412166.36,-17331970.200000007,2020-03-31,一季度报告,-21801077.26,2020,3,-0.4565727681233801,True,0.5036642903371185,True,0.8611443624085002,False,平均增速,14457990.456054732,未知,14457990.456054732
