,SECURITYCODE_x,NETPROFIT_x,PARENTNETPROFIT_x,REPORTDATE_x,REPORTTIMETYPE_x,KCFJCXSYJLR,Year,Month,managesituationChangeRate,managesituationGreatChange,historyprofitextroplaterate,ifhistoryprofitextroplate,IfprofitdisStableChangeRage,IfprofitdisStable,predicttype,predict,analyst_prediction,adj_prediction
0,002107,10621288.44,10621288.44,2013-12-31,年度报告,8980585.29,2013,12,未知,未知,未知,未知,未知,未知,未知,未知,未知,未知
1,002107,2824133.6700000013,2824133.6700000013,2014-03-31,一季度报告,2824133.6700000013,2014,3,未知,未知,未知,未知,未知,未知,未知,未知,未知,未知
2,002107,5201330.25,4835687.22,2014-06-30,半年度报告,4407272.69,2014,6,未知,未知,未知,未知,未知,未知,未知,未知,未知,未知
3,002107,19761847.980000004,17435505.990000002,2014-09-30,三季度报告,17387658.7,2014,9,未知,未知,未知,未知,未知,未知,未知,未知,未知,未知
4,002107,49806382.85,43348244.04000001,2014-12-31,年度报告,28723413.27,2014,12,0.0,True,未知,未知,未知,未知,未知,未知,未知,未知
5,002107,23808630.18,21459625.340000007,2015-03-31,一季度报告,16619135.31,2015,3,2.760901459030441,False,未知,未知,未知,未知,未知,未知,,未知
6,002107,44785458.86000001,40662697.0,2015-06-30,半年度报告,31341532.57,2015,6,1.0420330818255579,False,未知,未知,未知,未知,未知,未知,85700000.0,未知
7,002107,67078872.58,61389782.86,2015-09-30,三季度报告,50920070.79,2015,9,-0.4625356671729646,True,未知,未知,未知,未知,未知,未知,,未知
8,002107,81928389.38,71365669.72,2015-12-31,年度报告,60918437.53999999,2015,12,-0.7867484480455501,True,未知,未知,未知,未知,未知,未知,72345000.0,未知
9,002107,17768788.85,15612253.97,2016-03-31,一季度报告,15601970.44,2016,3,-0.5538891418909847,True,未知,未知,未知,未知,未知,未知,未知,未知
10,002107,29123144.68,25555035.88,2016-06-30,半年度报告,23907063.58,2016,6,-0.7628406918146736,True,未知,未知,未知,未知,未知,未知,未知,未知
11,002107,51169618.33999999,42670463.35,2016-09-30,三季度报告,40914757.31999999,2016,9,-0.8416597054857656,True,未知,未知,未知,未知,未知,未知,未知,未知
12,002107,61453894.75,48809430.01999999,2016-12-31,年度报告,45911295.76,2016,12,-0.8703588765704111,True,1.7116182911241224,True,0.0,True,比例外推,48809430.01999999,未知,48809430.01999999
13,002107,24041075.01,18840530.27,2017-03-31,一季度报告,17808277.58,2017,3,-0.40225028674365737,True,0.33435560425321764,True,0.13866495739245555,False,平均增速,57919400.557350695,未知,57919400.557350695
14,002107,47039057.72999999,35909711.97,2017-06-30,半年度报告,34736316.45,2017,6,-0.6352973363039998,True,0.16523366267483772,True,0.24277658958189618,False,平均增速,67708364.71438438,未知,67708364.71438438
15,002107,79009183.15000002,61236479.64000001,2017-09-30,三季度报告,60196033.14000002,2017,9,-0.79242978969618,True,0.17847060710754625,True,0.1721155920846128,False,平均增速,68502726.83356018,未知,68502726.83356018
16,002107,80797936.08000001,57031878.59,2017-12-31,年度报告,55288405.16999999,2017,12,-0.8271665533452622,True,0.06700571595925088,True,0.0,True,比例外推,57031878.59,未知,57031878.59
17,002107,20631220.53,17229854.39,2018-03-31,一季度报告,17097435.02,2018,3,-0.5582024333112382,True,0.15644864789001314,True,0.03876907552744324,True,比例外推,55005989.68611328,未知,55005989.68611328
18,002107,43101617.94000001,37948031.7,2018-06-30,半年度报告,37301842.17999999,2018,6,-0.7742027805708769,True,0.27289802477574954,True,0.0737811114308391,True,比例外推,67918075.8733435,未知,67918075.8733435
19,002107,47022918.49,46111932.21000001,2018-09-30,三季度报告,45822144.8,2018,9,-0.865568937476099,True,0.3363245912956811,True,0.15016188558051868,False,平均增速,41841895.089555554,未知,41841895.089555554
20,002107,39995975.16,45651518.39,2018-12-31,年度报告,41783902.91,2018,12,-0.86854505256813,True,0.12702816209488174,True,0.0,True,比例外推,45651518.39,未知,45651518.39
21,002107,12017701.910000002,13535130.58,2019-03-31,一季度报告,12181248.91,2019,3,-0.48518370861503274,True,0.013093149545596178,True,0.05214926513626145,True,比例外推,35471409.10095178,未知,35471409.10095178
22,002107,27428431.440000005,31271588.54,2019-06-30,半年度报告,29945870.20000001,2019,6,-0.7535756440794066,True,0.1318374883114154,True,0.2121556398080967,False,平均增速,35266881.62360419,未知,35266881.62360419
23,002107,46302158.48,51909134.64,2019-09-30,三季度报告,49456752.94,2019,9,-0.7741252822863655,True,0.27756412024407556,True,0.13435684935713044,False,平均增速,47751130.33410134,未知,47751130.33410134
24,002107,97240858.89999996,95801508.49999996,2019-12-31,年度报告,90025394.46000001,2019,12,-0.7344410681947229,True,0.4376736675143713,True,0.0,True,比例外推,95801508.49999996,未知,95801508.49999996
25,002107,45213931.06,44134455.33000001,2020-03-31,一季度报告,38041634.91,2020,3,-0.11619638101008634,True,0.4619617476680044,True,0.1535556437566589,False,平均增速,222324085.5792556,未知,222324085.5792556
26,002107,93526659.40999998,90732886.66,2020-06-30,半年度报告,90209121.88000004,2020,6,-0.6127635492669647,True,0.39143053374896,True,0.2852437255430291,False,平均增速,224937084.18155175,未知,224937084.18155175
