,SECURITYCODE_x,NETPROFIT_x,PARENTNETPROFIT_x,REPORTDATE_x,REPORTTIMETYPE_x,KCFJCXSYJLR,Year,Month,managesituationChangeRate,managesituationGreatChange,historyprofitextroplaterate,ifhistoryprofitextroplate,IfprofitdisStableChangeRage,IfprofitdisStable,predicttype,predict,analyst_prediction,adj_prediction
0,002142,4847264999.999999,4847071000.0,2013-12-31,年度报告,4852157000.0,2013,12,未知,未知,未知,未知,未知,未知,未知,未知,未知,未知
1,002142,1501798000.0,1502152000.0,2014-03-31,一季度报告,1503183000.0000002,2014,3,未知,未知,未知,未知,未知,未知,未知,未知,未知,未知
2,002142,3086110000.0,3086079000.000001,2014-06-30,半年度报告,3095876000.0000005,2014,6,未知,未知,未知,未知,未知,未知,未知,未知,未知,未知
3,002142,4586384000.0,4584419000.000001,2014-09-30,三季度报告,4600920000.0,2014,9,未知,未知,未知,未知,未知,未知,未知,未知,未知,未知
4,002142,5634130000.0,5627466000.0,2014-12-31,年度报告,5645248000.0,2014,12,0.0,True,未知,未知,未知,未知,未知,未知,未知,未知
5,002142,1760103000.0000005,1751656999.9999998,2015-03-31,一季度报告,1752955000.0,2015,3,2.227641134160519,False,未知,未知,未知,未知,未知,未知,6250933419.999999,未知
6,002142,3567449999.999999,3551700000.0,2015-06-30,半年度报告,3552175000.0,2015,6,0.5706714925909961,False,未知,未知,未知,未知,未知,未知,6474805368.999999,未知
7,002142,5344100999.999999,5320519000.0,2015-09-30,三季度报告,5322887000.0,2015,9,0.056881630495832676,True,未知,未知,未知,未知,未知,未知,6492007587.0,未知
8,002142,6566991000.0,6544333000.000001,2015-12-31,年度报告,6506462000.0,2015,12,-0.13966042672071835,True,未知,未知,未知,未知,未知,未知,6508674253.999999,未知
9,002142,2033865000.0,2030235000.0000005,2016-03-31,一季度报告,2032033000.0,2016,3,1.7539666712686688,False,未知,未知,未知,未知,未知,未知,7726010897.0,未知
10,002142,4145786000.0,4138853000.0,2016-06-30,半年度报告,4134850000.0,2016,6,0.35874784509944085,True,未知,未知,未知,未知,未知,未知,7804474319.0,未知
11,002142,6353515999.999999,6343378000.0,2016-09-30,三季度报告,6347573000.000001,2016,9,-0.0929690512959991,True,未知,未知,未知,未知,未知,未知,7773299014.0,未知
12,002142,7822742000.000002,7810416999.999997,2016-12-31,年度报告,7812396000.0,2016,12,-0.2618742739254555,True,0.2530757594766727,True,0.0,True,比例外推,7810416999.999997,7781465680.0,7810416999.999997
13,002142,2361862000.0,2359215000.0000005,2017-03-31,一季度报告,2369866999.9999995,2017,3,1.3832776511715374,False,0.24704275206390366,True,0.005161403529466757,True,前期平均,6807001000.0,9138689762.0,9138689762.0
14,002142,4774312000.0,4765489999.999999,2017-06-30,半年度报告,4773565000.0,2017,6,0.1692028966280457,True,0.24618580128532713,True,0.011937970934191355,True,比例外推,8812164646.442924,9117654609.0,8812164646.442924
15,002142,7383292999.999998,7367864000.000002,2017-09-30,三季度报告,7386503999.999998,2017,9,-0.23707361404299607,True,0.2795983277755314,True,0.0028923364889439362,True,比例外推,9042331027.9893,9151636364.0,9042331027.9893
16,002142,9355717000.0,9333572000.0,2017-12-31,年度报告,9350207999.999998,2017,12,-0.3803624100091761,True,0.282298896962009,True,0.0,True,比例外推,9333572000.0,9131800000.0,9333572000.0
17,002142,9355717000.0,9333572000.0,2017-12-31,年度报告,9350207999.999998,2017,12,-0.3803624100091761,True,0.282298896962009,True,0.0,True,比例外推,9333572000.0,9131800000.0,9333572000.0
18,002142,831265999.9999999,831265999.9999999,2017-12-31,年度报告,9350207999.999998,2017,12,-0.3803624100091761,True,0.282298896962009,True,0.0,True,比例外推,831265999.9999999,9131800000.0,9131800000.0
19,002142,831265999.9999999,831265999.9999999,2017-12-31,年度报告,9350207999.999998,2017,12,-0.3803624100091761,True,0.282298896962009,True,0.0,True,比例外推,831265999.9999999,9131800000.0,9131800000.0
20,002142,2831403000.0000005,2821902000.0,2018-03-31,一季度报告,2763545000.0,2018,3,1.05230661232536,False,0.24506163467904826,True,0.008425108303391604,True,前期平均,8088837000.0,11013958573.0,11013958573.0
21,002142,5720307000.0,5701296000.0,2018-06-30,半年度报告,5651487000.0,2018,6,0.015280316828895775,True,0.23795304590706173,True,0.018050948390933907,True,比例外推,10741611707.891651,11184226316.0,10741611707.891651
22,002142,8952744999.999998,8923839000.000002,2018-09-30,三季度报告,8858155000.0,2018,9,-0.3434819666509239,True,0.262358478654242,True,0.016875611635465027,True,比例外推,11044257540.26693,11257076923.0,11044257540.26693
23,002142,11220635999.999998,11186355999.999998,2018-12-31,年度报告,11136509000.0,2018,12,-0.48189272933330507,True,0.3003322577284789,True,0.0,True,比例外推,11186355999.999998,11281583333.0,11186355999.999998
24,002142,3419935000.000001,3387942000.000001,2019-03-31,一季度报告,3388087000.0,2019,3,0.7119657639693107,False,0.288252432419029,True,0.006199826022708521,True,前期平均,9768294000.0,13272395260.999998,13272395260.999998
25,002142,6889426999.999999,6843139999.999999,2019-06-30,半年度报告,6834912000.000002,2019,6,-0.15262152887948163,True,0.2825659538718072,True,0.013510498676988614,True,比例外推,13260413432.931038,13218642856.999998,13260413432.931038
26,002142,10776224000.0,10711918000.0,2019-09-30,三季度报告,10716380999.999996,2019,9,-0.4585722032739679,True,0.30346793057980215,True,0.013200561830823077,True,比例外推,13402751296.763914,13243500000.0,13402751296.763914
27,002142,13790844000.000002,13714237000.0,2019-12-31,年度报告,13744235000.000004,2019,12,-0.5680044339732614,True,0.30636118175675675,True,0.0,True,比例外推,13714237000.0,13248636364.0,13714237000.0
28,002142,4015616000.000001,4001741000.0,2020-03-31,一季度报告,4004204000.0,2020,3,0.41735588541887425,True,0.31706546844807687,True,0.004083547184911579,True,比例外推,16054654717.113749,16089171713.0,16054654717.113749
