,SECURITYCODE_x,NETPROFIT_x,PARENTNETPROFIT_x,REPORTDATE_x,REPORTTIMETYPE_x,KCFJCXSYJLR,Year,Month,managesituationChangeRate,managesituationGreatChange,historyprofitextroplaterate,ifhistoryprofitextroplate,IfprofitdisStableChangeRage,IfprofitdisStable,predicttype,predict,analyst_prediction,adj_prediction
0,002191,496171649.5800001,476765174.44,2013-12-31,年度报告,465316210.5799999,2013,12,未知,未知,未知,未知,未知,未知,未知,未知,未知,未知
1,002191,197389512.13000005,193166623.96000004,2014-03-31,一季度报告,192712949.10000005,2014,3,未知,未知,未知,未知,未知,未知,未知,未知,未知,未知
2,002191,332406163.90000004,321611200.30000013,2014-06-30,半年度报告,321321845.79999995,2014,6,未知,未知,未知,未知,未知,未知,未知,未知,未知,未知
3,002191,454948291.92,433330262.60000014,2014-09-30,三季度报告,423253260.67,2014,9,未知,未知,未知,未知,未知,未知,未知,未知,未知,未知
4,002191,608239483.8100001,581431834.39,2014-12-31,年度报告,568455693.9599999,2014,12,0.0,True,未知,未知,未知,未知,未知,未知,未知,未知
5,002191,283338861.98,264691457.73,2015-03-31,一季度报告,235411128.57999995,2015,3,1.5136677436703079,False,未知,未知,未知,未知,未知,未知,765585714.0,未知
6,002191,420112574.34000015,393168487.45,2015-06-30,半年度报告,363126314.19000006,2015,6,0.49266681387191946,True,未知,未知,未知,未知,未知,未知,750385714.0,未知
7,002191,547914190.09,512399615.24,2015-09-30,三季度报告,477463342.9299999,2015,9,0.09061108348385441,True,未知,未知,未知,未知,未知,未知,706738333.0,未知
8,002191,789268020.8300003,720729704.99,2015-12-31,年度报告,683470869.4499999,2015,12,-0.1842495221257411,True,未知,未知,未知,未知,未知,未知,717212500.0,未知
9,002191,249358202.0,237756324.60000005,2016-03-31,一季度报告,135152746.5,2016,3,0.7511598871849188,False,未知,未知,未知,未知,未知,未知,882198232.0,未知
10,002191,381352334.13,352071873.04,2016-06-30,半年度报告,244953538.39000005,2016,6,0.18104451017561018,True,未知,未知,未知,未知,未知,未知,794163272.0,未知
11,002191,482163741.0200003,440906147.15,2016-09-30,三季度报告,327543914.43,2016,9,-0.09443548177042237,True,未知,未知,未知,未知,未知,未知,732922120.0,未知
12,002191,637882841.6799997,570721416.8700002,2016-12-31,年度报告,439452495.62,2016,12,-0.3713521433970906,True,0.4293010944345243,True,0.0,True,比例外推,570721416.8700002,701755453.0,701755453.0
13,002191,194715341.64,175648254.55,2017-03-31,一季度报告,167197439.82999998,2017,3,0.9897947835700232,False,0.03741828204607684,True,0.022783365954664847,True,前期平均,587549497.415,693500000.0,693500000.0
14,002191,349530683.3,303080075.77,2017-06-30,半年度报告,289209383.85,2017,6,0.3010846012308898,True,0.013535782569112786,True,0.020021771359140628,True,比例外推,538447715.2624812,670833333.0,670833333.0
15,002191,513940236.65,435419769.62000006,2017-09-30,三季度报告,420608216.87000006,2017,9,0.029052181589529297,True,0.038425009072794475,True,0.030913269626909656,True,比例外推,591382493.4147844,671665556.0000001,671665556.0000001
16,002191,672647406.37,574411233.05,2017-12-31,年度报告,547399781.03,2017,12,-0.22215865177808064,True,0.08711353668999564,True,0.0,True,比例外推,574411233.05,667859091.0,667859091.0
17,002191,234200230.07000005,212693817.64,2018-03-31,一季度报告,209245596.68000004,2018,3,1.5481898108334395,False,0.26894531693041007,True,0.025294048427101812,True,前期平均,588873562.635,717304443.9999999,717304443.9999999
18,002191,424430064.14,379016975.56,2018-06-30,半年度报告,360924101.26000017,2018,6,0.4195367482348869,True,0.12777046229695685,True,0.01839397071132287,True,比例外推,687695700.9741559,721755385.0,687695700.9741559
19,002191,610900199.31,545501105.1800001,2018-09-30,三季度报告,520633155.04,2018,9,-0.03457325541549399,True,0.0021332927768217148,True,0.03884926767927421,True,比例外推,730872952.0553234,719646923.0,730872952.0553234
20,002191,815425675.7499999,725308104.7399999,2018-12-31,年度报告,692189290.04,2018,12,-0.2623599751054815,True,0.05735626969810027,True,0.0,True,比例外推,725308104.7399999,720141429.0000001,725308104.7399999
21,002191,277076415.29999995,259077299.07,2019-03-31,一季度报告,253810830.11999995,2019,3,1.118578830736842,False,0.05478127857065356,True,0.002798901936163778,True,前期平均,601328344.23,890317000.0,890317000.0
22,002191,500252080.0100001,464828262.13,2019-06-30,半年度报告,452035963.8400001,2019,6,0.16903040453876958,True,0.16141722825198782,True,0.021685116381559122,True,比例外推,856582082.9922781,887542917.0,856582082.9922781
23,002191,738404863.68,673350003.5,2019-09-30,三季度报告,659934403.16,2019,9,-0.18780244278784577,True,0.22657917848890533,True,0.013083308004697924,True,比例外推,887163522.6552117,895151905.0,887163522.6552117
24,002191,966420965.77,876786038.8999999,2019-12-31,年度报告,858689915.03,2019,12,-0.3915182409192121,True,0.24442099213400154,True,0.0,True,比例外推,876786038.8999999,895137619.0,876786038.8999999
25,002191,219752241.59,214806334.48,2020-03-31,一季度报告,214030206.27,2020,3,0.7907393851720594,False,0.29198580594941825,True,0.005525471200706122,True,前期平均,646379351.76,988390556.0000001,988390556.0000001
