,SECURITYCODE_x,NETPROFIT_x,PARENTNETPROFIT_x,REPORTDATE_x,REPORTTIMETYPE_x,KCFJCXSYJLR,Year,Month,managesituationChangeRate,managesituationGreatChange,historyprofitextroplaterate,ifhistoryprofitextroplate,IfprofitdisStableChangeRage,IfprofitdisStable,predicttype,predict,analyst_prediction,adj_prediction
0,002113,3233130.54,3233130.54,2013-12-31,年度报告,1824364.27,2013,12,未知,未知,未知,未知,未知,未知,未知,未知,未知,未知
1,002113,752743.2600000001,752743.2600000001,2014-03-31,一季度报告,752639.1,2014,3,未知,未知,未知,未知,未知,未知,未知,未知,未知,未知
2,002113,718894.68,718894.68,2014-06-30,半年度报告,714122.52,2014,6,未知,未知,未知,未知,未知,未知,未知,未知,未知,未知
3,002113,556767.21,556767.21,2014-09-30,三季度报告,552245.0499999999,2014,9,未知,未知,未知,未知,未知,未知,未知,未知,未知,未知
4,002113,641274.38,641274.38,2014-12-31,年度报告,536752.22,2014,12,0.0,True,未知,未知,未知,未知,未知,未知,未知,未知
5,002113,38590.66,38590.66,2015-03-31,一季度报告,38590.66,2015,3,3.2951305070469834,False,未知,未知,未知,未知,未知,未知,未知,未知
6,002113,-2283983.0500000003,-2283983.0500000003,2015-06-30,半年度报告,-2283983.0500000003,2015,6,3.49736328553718,False,未知,未知,未知,未知,未知,未知,65300000.0,未知
7,002113,-3962094.73,-3962094.73,2015-09-30,三季度报告,-3962094.73,2015,9,4.80697009796967,False,未知,未知,未知,未知,未知,未知,,未知
8,002113,-4388218.1400000015,-4388218.1400000015,2015-12-31,年度报告,-4562253.44,2015,12,4.04172728684405,False,未知,未知,未知,未知,未知,未知,未知,未知
9,002113,792691.7799999998,792691.7799999998,2016-03-31,一季度报告,414152.78,2016,3,82.78013073629732,False,未知,未知,未知,未知,未知,未知,82150000.0,未知
10,002113,13756171.28,13756171.28,2016-06-30,半年度报告,13080972.009999998,2016,6,-2.415566783650167,False,未知,未知,未知,未知,未知,未知,94980000.0,未知
11,002113,33563349.99,33563349.99,2016-09-30,三季度报告,31008322.24,2016,9,-1.8160154565511863,False,未知,未知,未知,未知,未知,未知,,未知
12,002113,54113080.63000001,54113080.63000001,2016-12-31,年度报告,51677248.22000001,2016,12,-1.736775255206433,False,3.2652346518288033,False,0.0,True,前期平均,54113080.63000001,未知,54113080.63000001
13,002113,5251821.880000001,5251821.880000001,2017-03-31,一季度报告,5152068.19,2017,3,3.0786729742548875,False,1.0034318255939279,True,0.934954535509847,False,前期平均,2843456.3900000006,未知,2843456.3900000006
14,002113,17154074.46,17154074.46,2017-06-30,半年度报告,17053520.880000006,2017,6,-0.7649687202789757,True,-18.578778992524235,True,0.6357158767689284,False,平均增速,88892704.32542899,87000000.0,88892704.32542899
15,002113,20181145.77,20181145.77,2017-09-30,三季度报告,19000624.23,2017,9,-0.9036708033922928,True,-20.71225956556449,True,0.23241297047583287,False,平均增速,51457941.40249315,,51457941.40249315
16,002113,5386915.92,5386915.92,2017-12-31,年度报告,-341809100.12,2017,12,-0.9402523289681725,True,-29.88384993000268,True,0.0,True,比例外推,5386915.92,未知,5386915.92
17,002113,-327126963.72,-327126963.72,2018-03-31,一季度报告,23229089.76,2018,3,-0.38437924707377935,True,11.635469311729963,False,0.013186687390834503,True,比例外推,-4841265926.518671,未知,-4841265926.518671
18,002113,-307243076.78000003,-307243076.78000003,2018-06-30,半年度报告,-311674588.46000004,2018,6,-0.8115240465150693,True,1.9905496869623807,True,0.28451274358939216,False,平均增速,2369844613.5844464,未知,2369844613.5844464
19,002113,-277458394.95000005,-277458394.95000005,2018-09-30,三季度报告,-284502467.50000006,2018,9,-0.8397945004289021,True,0.3635331064673234,True,0.5265554200709424,False,平均增速,1818288414.9706948,未知,1818288414.9706948
20,002113,-377655121.92,-377655121.92,2018-12-31,年度报告,-383427299.13000005,2018,12,-0.39981789431753373,True,0.7833310883028246,True,0.0,True,比例外推,-377655121.92,未知,-377655121.92
21,002113,27922837.230000004,27922837.230000004,2019-03-31,一季度报告,26608877.4,2019,3,-1.0098834119426712,False,109.23930000680981,False,0.03803560945242254,True,前期平均,-119926199.20499997,未知,-119926199.20499997
22,002113,60197947.05,60197947.05,2019-06-30,半年度报告,57244423.45000001,2019,6,-1.0105230378952204,False,20.879691631335444,False,0.4741644863172057,False,前期平均,-99935225.34499998,未知,-99935225.34499998
23,002113,115339674.87000002,115339674.87000002,2019-09-30,三季度报告,111451039.53,2019,9,-1.0116526679273217,False,11.325090635848959,False,0.4844044898417139,False,前期平均,-54730724.31499998,未知,-54730724.31499998
24,002113,-2148850627.2000003,-2148850627.2000003,2019-12-31,年度报告,-810741440.4200001,2019,12,-1.0085610663071713,False,13.694290548492477,False,0.0,True,去年同期,-2148850627.2000003,未知,-2148850627.2000003
25,002113,28699532.72,28699532.72,2020-03-31,一季度报告,28270962.22000001,2020,3,-0.8842119619375084,True,-1.1735010480795693,True,0.024424061991483767,True,比例外推,-781428966.2628983,未知,-781428966.2628983
