,SECURITYCODE_x,NETPROFIT_x,PARENTNETPROFIT_x,REPORTDATE_x,REPORTTIMETYPE_x,KCFJCXSYJLR,Year,Month,managesituationChangeRate,managesituationGreatChange,historyprofitextroplaterate,ifhistoryprofitextroplate,IfprofitdisStableChangeRage,IfprofitdisStable,predicttype,predict,analyst_prediction,adj_prediction
0,002133,242950261.32,219377374.69,2013-12-31,年度报告,209879553.94,2013,12,未知,未知,未知,未知,未知,未知,未知,未知,未知,未知
1,002133,20294612.57,16367907.15,2014-03-31,一季度报告,15418479.28,2014,3,未知,未知,未知,未知,未知,未知,未知,未知,未知,未知
2,002133,18636573.97,13913160.209999995,2014-06-30,半年度报告,11644492.259999998,2014,6,未知,未知,未知,未知,未知,未知,未知,未知,未知,未知
3,002133,53171035.54,47811542.81,2014-09-30,三季度报告,30682845.57,2014,9,未知,未知,未知,未知,未知,未知,未知,未知,未知,未知
4,002133,150099460.14999998,131296377.31999998,2014-12-31,年度报告,116267283.47999996,2014,12,0.0,True,未知,未知,未知,未知,未知,未知,未知,未知
5,002133,2276219.48,1046966.36,2015-03-31,一季度报告,-1607210.67,2015,3,10.971170204999877,False,未知,未知,未知,未知,未知,未知,161000000.0,未知
6,002133,-280164.58,-2616957.5,2015-06-30,半年度报告,-8789531.13,2015,6,12.036208356272256,False,未知,未知,未知,未知,未知,未知,,未知
7,002133,-34657615.58,-35371616.46,2015-09-30,三季度报告,-41471636.28,2015,9,3.569221924166422,False,未知,未知,未知,未知,未知,未知,77000000.0,未知
8,002133,-58021980.98,-64401603.37,2015-12-31,年度报告,-80963483.38,2015,12,0.6185951706769015,False,未知,未知,未知,未知,未知,未知,87710000.0,未知
9,002133,-2302430.96,440677.3500000001,2016-03-31,一季度报告,-2780509.72,2016,3,105.73411042066998,False,未知,未知,未知,未知,未知,未知,322220522.0,未知
10,002133,368482703.72,153484013.04000002,2016-06-30,半年度报告,147171418.60999998,2016,6,-868.1697946971027,False,未知,未知,未知,未知,未知,未知,347982284.0,未知
11,002133,375892102.92,160223331.55,2016-09-30,三季度报告,153347709.94,2016,9,-8.010010851992952,False,未知,未知,未知,未知,未知,未知,208200000.0,未知
12,002133,408352898.6100001,151401321.26000002,2016-12-31,年度报告,139722188.36999995,2016,12,-5.187210729736102,False,1.2952399038116535,True,0.0,True,前期平均,151401321.26000002,207907209.0,207907209.0
13,002133,40076427.35,19922619.379999995,2017-03-31,一季度报告,15535782.71,2017,3,-106.51902121747008,False,1.2040182617016104,True,0.08842464806662664,True,前期平均,30668885.124999978,221845952.0,221845952.0
14,002133,83628593.22,61186947.06999999,2017-06-30,半年度报告,52070792.38999999,2017,6,-0.3406739071676719,True,39.14757961551434,False,0.6326382364252754,False,未知,未知,297000000.0,未知
15,002133,150318948.59,128930658.45,2017-09-30,三季度报告,113759124.2,2017,9,-0.35367021697791196,True,39.60752726747954,False,0.47297056001736026,False,未知,未知,,未知
16,002133,289262037.11,189978786.63,2017-12-31,年度报告,168073861.64999998,2017,12,-0.4050482752859528,True,7.869767119841974,False,0.0,True,比例外推,189978786.63,232243253.0,232243253.0
17,002133,401722887.13,208360047.00000003,2018-03-31,一季度报告,206855820.92000005,2018,3,5.06217363634336,False,-3058.9293767463746,True,0.06163924436143135,True,前期平均,239933259.69,未知,239933259.69
18,002133,499468641.96,266208112.04,2018-06-30,半年度报告,264321281.09,2018,6,1.9051099864955972,False,0.5457467869975646,True,0.5627528366526275,False,前期平均,226396520.79499996,未知,226396520.79499996
19,002133,552912296.9799999,323285253.12,2018-09-30,三季度报告,320809592.5900001,2018,9,0.6162317764918315,False,0.11896977493822393,True,0.33532361060928273,False,前期平均,296726568.78499997,未知,296726568.78499997
20,002133,616497000.9,336059228.77,2018-12-31,年度报告,326169749.92,2018,12,-0.1601031931210132,True,0.6513645958904627,True,0.0,True,比例外推,336059228.77,未知,336059228.77
21,002133,-5539255.449999998,-5061207.96,2019-03-31,一季度报告,-14461759.97,2019,3,-0.395229226157135,True,20.269811273469017,False,0.3986198906284878,False,未知,未知,未知,未知
22,002133,291194332.73,173709306.54999998,2019-06-30,半年度报告,168485608.27,2019,6,-0.5135825537182438,True,1.2094941902161085,True,0.41469204039305935,False,平均增速,242027166.50218722,未知,242027166.50218722
23,002133,387249125.91000015,211144372.61,2019-09-30,三季度报告,204610904.21,2019,9,-0.5605989184053397,True,1.1014849285030361,True,0.24246829492006483,False,平均增速,217066192.61502162,未知,217066192.61502162
24,002133,421571554.73,233237854.46000007,2019-12-31,年度报告,228455052.33000004,2019,12,-0.6059181780846843,True,0.7674420925742388,True,0.0,True,比例外推,233237854.46000007,未知,233237854.46000007
25,002133,11247991.62,11415800.87,2020-03-31,一季度报告,11999762.02,2020,3,-44.85973232557817,False,1.0250758897465457,True,0.41308727624719443,False,前期平均,147341804.84,未知,147341804.84
