,SECURITYCODE_x,NETPROFIT_x,PARENTNETPROFIT_x,REPORTDATE_x,REPORTTIMETYPE_x,KCFJCXSYJLR,Year,Month,managesituationChangeRate,managesituationGreatChange,historyprofitextroplaterate,ifhistoryprofitextroplate,IfprofitdisStableChangeRage,IfprofitdisStable,predicttype,predict,analyst_prediction,adj_prediction
0,002140,238656618.83,235195996.92000005,2013-12-31,年度报告,234044399.92000005,2013,12,未知,未知,未知,未知,未知,未知,未知,未知,未知,未知
1,002140,24124467.64,23082212.35,2014-03-31,一季度报告,22347781.52,2014,3,未知,未知,未知,未知,未知,未知,未知,未知,未知,未知
2,002140,97750840.94,96627553.86,2014-06-30,半年度报告,96068344.29,2014,6,未知,未知,未知,未知,未知,未知,未知,未知,未知,未知
3,002140,142567520.98,141275014.33999997,2014-09-30,三季度报告,139716815.47,2014,9,未知,未知,未知,未知,未知,未知,未知,未知,未知,未知
4,002140,264149107.94,263166186.20999995,2014-12-31,年度报告,265110538.92999995,2014,12,0.0,True,未知,未知,未知,未知,未知,未知,未知,未知
5,002140,24324331.95,24287033.219999995,2015-03-31,一季度报告,24468941.459999993,2015,3,8.892720634974394,False,未知,未知,未知,未知,未知,未知,382000000.0,未知
6,002140,81223186.86999999,81085516.84000002,2015-06-30,半年度报告,80898117.75000001,2015,6,1.4414789329177102,False,未知,未知,未知,未知,未知,未知,,未知
7,002140,111427101.95,111259974.00999998,2015-09-30,三季度报告,109512288.51,2015,9,0.6739901008973834,False,未知,未知,未知,未知,未知,未知,180500000.0,未知
8,002140,180538714.55,179073368.92999998,2015-12-31,年度报告,173521710.03999996,2015,12,-0.09650795078887968,True,未知,未知,未知,未知,未知,未知,482000000.0,未知
9,002140,17483198.110000007,17334025.780000005,2016-03-31,一季度报告,17193779.419999998,2016,3,8.811435698237132,False,未知,未知,未知,未知,未知,未知,119000000.0,未知
10,002140,58829857.47000001,58772825.53000001,2016-06-30,半年度报告,58230940.74,2016,6,1.9382818875597272,False,未知,未知,未知,未知,未知,未知,119000000.0,未知
11,002140,82404054.84,82144544.44,2016-09-30,三季度报告,78017731.85,2016,9,1.1418184144921129,False,未知,未知,未知,未知,未知,未知,,未知
12,002140,83327866.56,81800182.87000002,2016-12-31,年度报告,74872765.12,2016,12,0.321913803501156,True,0.28187486761627756,True,0.0,True,比例外推,81800182.87000002,213000000.0,213000000.0
13,002140,20794955.809999995,20774451.21,2017-03-31,一季度报告,20914997.48,2017,3,12.650627152333968,False,0.2782814741354872,True,0.07799004343260368,True,前期平均,216682214.20499998,131620000.0,131620000.0
14,002140,67552968.91,67177148.53999999,2017-06-30,半年度报告,66415739.23,2017,6,3.0567261097258607,False,0.3425877688526497,True,0.24229324761403237,False,前期平均,198010042.00499994,134500000.0,134500000.0
15,002140,98528259.14000002,98122319.37999997,2017-09-30,三季度报告,97470842.82999998,2017,9,1.8961756711291466,False,0.35113543830642224,True,0.30862636258973086,False,前期平均,192823891.87499994,115365000.0,115365000.0
16,002140,-61607294.7,-63135836.62000001,2017-12-31,年度报告,-65185495.28,2017,12,1.8640673124417024,False,0.6252298248537091,True,0.0,True,盈利变化,35114096.070000015,162187500.0,162187500.0
17,002140,26024700.71,26072177.96,2018-03-31,一季度报告,25606944.27,2018,3,10.47665909995507,False,0.005205245076370161,True,0.33745359452165136,False,前期平均,129438055.1,241333332.99999997,241333332.99999997
18,002140,73950541.58000001,73799471.24,2018-06-30,半年度报告,73332780.89,2018,6,2.5328812734782886,False,0.03532309164226491,True,1.0938970382398099,False,前期平均,128432179.57499996,238000000.0,238000000.0
19,002140,119245571.57999998,118982785.27999996,2018-09-30,三季度报告,118330881.4,2018,9,1.42221491491989,False,0.016640056962020925,True,1.5545627914977547,False,前期平均,149415012.67999995,150000000.0,149415012.67999995
20,002140,149163284.94000003,148269862.28999996,2018-12-31,年度报告,143940146.65999997,2018,12,-4.873837018686685,False,1.4669579182088035,True,0.0,True,前期平均,148269862.28999996,295000000.0,295000000.0
21,002140,30781382.419999994,30682358.04,2019-03-31,一季度报告,30802360.01999999,2019,3,8.170388604634216,False,0.35976780721404233,True,0.3497490037945468,False,前期平均,16471604.51,179450000.0,179450000.0
22,002140,88246562.19000001,87884767.19000001,2019-06-30,半年度报告,85222944.68999998,2019,6,2.227246396455667,False,0.17026250635747187,True,1.1083150206188734,False,前期平均,30405062.125000015,286000000.0,286000000.0
23,002140,128483845.53999998,127957964.46000002,2019-09-30,三季度报告,124849751.52,2019,9,1.0013876881783323,False,0.31812354528535136,True,1.6182188430485924,False,前期平均,45057312.04000004,,45057312.04000004
24,002140,179658572.44,176947648.34999996,2019-12-31,年度报告,170590873.01,2019,12,0.5999689127656186,False,12.734747492048768,False,0.0,True,去年同期,176947648.34999996,187000000.0,176947648.34999996
25,002140,31809815.37999999,31664722.35,2020-03-31,一季度报告,31679411.01,2020,3,6.753278120313872,False,0.3148914241543435,True,0.3333899365745722,False,前期平均,47781077.164999984,未知,47781077.164999984
