,SECURITYCODE_x,NETPROFIT_x,PARENTNETPROFIT_x,REPORTDATE_x,REPORTTIMETYPE_x,KCFJCXSYJLR,Year,Month,managesituationChangeRate,managesituationGreatChange,historyprofitextroplaterate,ifhistoryprofitextroplate,IfprofitdisStableChangeRage,IfprofitdisStable,predicttype,predict,analyst_prediction,adj_prediction
0,002148,56222837.44999999,56306587.9,2013-12-31,年度报告,55090418.25999999,2013,12,未知,未知,未知,未知,未知,未知,未知,未知,未知,未知
1,002148,11030134.230000002,11160837.62,2014-03-31,一季度报告,11194218.32,2014,3,未知,未知,未知,未知,未知,未知,未知,未知,未知,未知
2,002148,15324114.849999996,15640178.070000006,2014-06-30,半年度报告,15263599.28,2014,6,未知,未知,未知,未知,未知,未知,未知,未知,未知,未知
3,002148,22217621.96,22548636.52,2014-09-30,三季度报告,19902180.2,2014,9,未知,未知,未知,未知,未知,未知,未知,未知,未知,未知
4,002148,13564704.14,15262137.81,2014-12-31,年度报告,11999919.9,2014,12,0.0,True,未知,未知,未知,未知,未知,未知,未知,未知
5,002148,6483549.38,7437603.050000003,2015-03-31,一季度报告,-5465672.470000002,2015,3,4.097203377369957,False,未知,未知,未知,未知,未知,未知,23000000.0,未知
6,002148,-4397405.48,-2843794.75,2015-06-30,半年度报告,-17765731.95,2015,6,2.6689125603884394,False,未知,未知,未知,未知,未知,未知,23000000.0,未知
7,002148,-3951555.46,-1292928.39,2015-09-30,三季度报告,-19731667.48,2015,9,1.5305515392791382,False,未知,未知,未知,未知,未知,未知,6000000.0,未知
8,002148,-22520390.72000001,-19098211.29,2015-12-31,年度报告,-38640232.6,2015,12,3.1447890694650997,False,未知,未知,未知,未知,未知,未知,未知,未知
9,002148,2128763.13,3456966.4600000004,2016-03-31,一季度报告,1393781.2,2016,3,7.671613980982742,False,未知,未知,未知,未知,未知,未知,54000000.0,未知
10,002148,21875834.110000007,22591871.08,2016-06-30,半年度报告,20024162.06,2016,6,-13.785456721175501,False,未知,未知,未知,未知,未知,未知,46685000.0,未知
11,002148,49104994.46,46921149.84,2016-09-30,三季度报告,43664053.03,2016,9,-15.228026917278795,False,未知,未知,未知,未知,未知,未知,75670000.0,未知
12,002148,79114127.91000001,78830452.35000001,2016-12-31,年度报告,74712872.96,2016,12,-3.4965302844443706,False,1.6453985971394929,True,0.0,True,前期平均,78830452.35000001,,78830452.35000001
13,002148,29414538.22,29379524.5,2017-03-31,一季度报告,26708614.16,2017,3,25.41103496094466,False,0.7569028677913864,True,0.5685366798486536,False,前期平均,13195095.225000001,146230000.0,146230000.0
14,002148,76980002.13999997,77654607.96000002,2017-06-30,半年度报告,61404236.6,2017,6,1.570088855459874,False,3.0041028582789173,False,0.6053874684075236,False,去年同期,132343318.86000001,155845000.0,155845000.0
15,002148,110819749.26,110812350.33,2017-09-30,三季度报告,92524283.48000002,2017,9,0.14495150785116262,True,4.376635901331029,False,0.7406588552957206,False,未知,未知,,未知
16,002148,129931665.73,129662224.63,2017-12-31,年度报告,106723459.34,2017,12,-0.2893451658348694,True,-18.6679090326093,True,0.0,True,比例外推,129662224.63,110000000.0,110000000.0
17,002148,16409677.680000005,16987416.01,2018-03-31,一季度报告,6967402.1499999985,2018,3,0.9113962296294716,False,5.830810699413415,False,0.11813332493159079,False,去年同期,97002261.19000001,未知,97002261.19000001
18,002148,27674926.67,28619778.5,2018-06-30,半年度报告,16368486.13,2018,6,-0.26964359720658215,True,7.808572414555775,False,0.16636717102038495,False,未知,未知,未知,未知
19,002148,36505757.28999999,38631286.07,2018-09-30,三季度报告,19780500.2,2018,9,-0.4926640980021291,True,3.9085851139710535,False,0.21294384001074074,False,未知,未知,未知,未知
20,002148,39458975.38999999,41708323.69,2018-12-31,年度报告,11449491.1,2018,12,-0.5672891813237282,True,3.5917330143363877,False,0.0,True,比例外推,41708323.69,未知,41708323.69
21,002148,4001587.4899999993,5080384.220000002,2019-03-31,一季度报告,-1588046.16,2019,3,2.4261999867629314,False,0.040454041124012304,True,0.31605079650983564,False,前期平均,81747352.69,未知,81747352.69
22,002148,7356207.299999999,8414712.23,2019-06-30,半年度报告,-5977347.199999997,2019,6,1.0315442248649682,False,0.44009523929347144,True,0.6719593436913865,False,前期平均,58418679.05,未知,58418679.05
23,002148,6363983.38,8085517.199999997,2019-09-30,三季度报告,-10339947.510000002,2019,9,0.5401087834822451,False,0.5434633010397049,True,0.6679614829994349,False,前期平均,30709515.094999984,未知,30709515.094999984
24,002148,-32212970.09,-28369829.090000004,2019-12-31,年度报告,-47181979.15,2019,12,0.42484281191569984,True,0.6224848660867799,True,0.0,True,比例外推,-28369829.090000004,未知,-28369829.090000004
25,002148,3441263.06,4255559.28,2020-03-31,一季度报告,552982.38,2020,3,13.050133250991344,False,0.8253505308750958,True,0.3110498871009498,False,前期平均,46504026.345000006,未知,46504026.345000006
