,SECURITYCODE_x,NETPROFIT_x,PARENTNETPROFIT_x,REPORTDATE_x,REPORTTIMETYPE_x,KCFJCXSYJLR,Year,Month,managesituationChangeRate,managesituationGreatChange,historyprofitextroplaterate,ifhistoryprofitextroplate,IfprofitdisStableChangeRage,IfprofitdisStable,predicttype,predict,analyst_prediction,adj_prediction
0,002127,-536463009.0899999,-520714991.8299999,2013-12-31,年度报告,74678060.25,2013,12,未知,未知,未知,未知,未知,未知,未知,未知,未知,未知
1,002127,-98283327.61,-98738196.19999996,2014-03-31,一季度报告,-93824119.35999998,2014,3,未知,未知,未知,未知,未知,未知,未知,未知,未知,未知
2,002127,-179592931.14,-180812158.85,2014-06-30,半年度报告,-174439544.55,2014,6,未知,未知,未知,未知,未知,未知,未知,未知,未知,未知
3,002127,20857791.16,18999465.01,2014-09-30,三季度报告,-228758874.34,2014,9,未知,未知,未知,未知,未知,未知,未知,未知,未知,未知
4,002127,66485596.99,66500866.81,2014-12-31,年度报告,63385943.78,2014,12,-0.0,False,未知,未知,未知,未知,未知,未知,未知,未知
5,002127,4172313.5200000005,4443416.430000002,2015-03-31,一季度报告,4243741.2,2015,3,4.458331765268971,False,未知,未知,未知,未知,未知,未知,未知,未知
6,002127,32791931.8,33216473.320000004,2015-06-30,半年度报告,31834504.2,2015,6,1.987105370376773,False,未知,未知,未知,未知,未知,未知,未知,未知
7,002127,85722552.52999999,86364516.46,2015-09-30,三季度报告,81242683.34,2015,9,-26.720029746908246,False,未知,未知,未知,未知,未知,未知,152000000.0,未知
8,002127,172266115.55999997,171819355.12000003,2015-12-31,年度报告,165688709.54,2015,12,-9.068860525847253,False,未知,未知,未知,未知,未知,未知,149500000.0,未知
9,002127,16305953.02,16312776.19,2016-03-31,一季度报告,10878783.82,2016,3,-129.5768690484218,False,未知,未知,未知,未知,未知,未知,283048750.0,未知
10,002127,85330010.80000001,85078812.08,2016-06-30,半年度报告,78882778.19,2016,6,-17.359603708678115,False,未知,未知,未知,未知,未知,未知,321353077.0,未知
11,002127,144365224.54999998,144281828.38,2016-09-30,三季度报告,134122922.01,2016,9,-7.25813153314883,False,未知,未知,未知,未知,未知,未知,311350769.0,未知
12,002127,303062954.36,301144671.46,2016-12-31,年度报告,290463549.52000004,2016,12,-4.1141528172622595,False,-1.7330825317338692,True,0.0,True,前期平均,301144671.46,310795833.0,301144671.46
13,002127,26059168.38000001,25819168.72000001,2017-03-31,一季度报告,21812364.75,2017,3,-33.89982550740845,False,-1.3465259231912288,True,1.0078245530676795,False,前期平均,185146684.46,501165714.0,501165714.0
14,002127,140305636.61,139845351.24,2017-06-30,半年度报告,124998758.52,2017,6,-7.286920674923901,False,-2.1625262931946474,True,1.989251645268193,False,前期平均,325685198.07500005,521100000.0,521100000.0
15,002127,243556761.04,242949297.8700001,2017-09-30,三季度报告,223192837.44,2017,9,-4.716012708477445,False,1.7090403267961163,True,2.7233521810171197,False,前期平均,431244720.0300001,527612223.0,527612223.0
16,002127,535608259.22,534291649.7799999,2017-12-31,年度报告,501301653.3900001,2017,12,-2.770137198797153,False,1.5387290513908405,True,0.0,True,前期平均,534291649.7799999,524761350.0,534291649.7799999
17,002127,89739516.15999998,89261118.66000001,2018-03-31,一季度报告,81808005.67,2018,3,-21.58634417135608,False,1.545056079732031,True,0.00991305476093985,True,前期平均,309775985.68,847234375.0,847234375.0
18,002127,292583904.87000006,291777146.85,2018-06-30,半年度报告,273754043.06,2018,6,-4.82353141364646,False,1.375606657352755,True,0.04555167554652653,True,前期平均,464494635.18500006,856486923.0,856486923.0
19,002127,450281436.7699999,449474488.87000006,2018-09-30,三季度报告,425113479.65,2018,9,-3.202620066054726,False,1.1170769184780895,True,0.0245617137343494,True,前期平均,569867815.7250001,910083300.0,910083300.0
20,002127,887279687.71,886472236.97,2018-12-31,年度报告,841191770.5699997,2018,12,-2.0015958489349,False,1.253631402388856,True,0.0,True,前期平均,886472236.97,906846635.0,886472236.97
21,002127,122050303.16,122050417.6,2019-03-31,一季度报告,118975641.84,2019,3,-6.9780020223590205,False,3.2364810105324033,False,0.037846790187338504,True,去年同期,881434182.4999998,1221339444.0,1221339444.0
22,002127,386221580.33,386221275.63,2019-06-30,半年度报告,361551691.4,2019,6,-2.8335356120438666,False,1.5934191536530493,True,0.043316010807389116,True,前期平均,680163108.73,1214451579.0,1214451579.0
23,002127,602121907.3599999,602097840.83,2019-09-30,三季度报告,565759856.6899999,2019,9,-2.1913949039032246,False,1.3215051144118886,True,0.03458652682171859,True,前期平均,819322562.5600002,1215551111.0,1215551111.0
24,002127,1206160984.91,1206136918.38,2019-12-31,年度报告,1147929618.0500002,2019,12,-1.604615451610945,False,1.1159178313096192,True,0.0,True,前期平均,1206136918.38,1214884444.0,1206136918.38
25,002127,128496363.96999998,128496795.47,2020-03-31,一季度报告,103544556.76000002,2020,3,-5.395425453279963,False,1.107973914295037,True,0.03795775493358602,True,前期平均,747933322.24,1531263810.0,1531263810.0
