,SECURITYCODE_x,NETPROFIT_x,PARENTNETPROFIT_x,REPORTDATE_x,REPORTTIMETYPE_x,KCFJCXSYJLR,Year,Month,managesituationChangeRate,managesituationGreatChange,historyprofitextroplaterate,ifhistoryprofitextroplate,IfprofitdisStableChangeRage,IfprofitdisStable,predicttype,predict,analyst_prediction,adj_prediction
0,002182,3025014.8200000008,25347486.45,2013-12-31,年度报告,21099757.61,2013,12,未知,未知,未知,未知,未知,未知,未知,未知,未知,未知
1,002182,-1180820.91,1839935.99,2014-03-31,一季度报告,314425.54,2014,3,未知,未知,未知,未知,未知,未知,未知,未知,未知,未知
2,002182,12105935.71,14783765.9,2014-06-30,半年度报告,11506697.83,2014,6,未知,未知,未知,未知,未知,未知,未知,未知,未知,未知
3,002182,19094751.510000005,26795546.84000001,2014-09-30,三季度报告,22572069.070000004,2014,9,未知,未知,未知,未知,未知,未知,未知,未知,未知,未知
4,002182,18172420.55,27637784.19,2014-12-31,年度报告,25740534.320000004,2014,12,0.0,True,未知,未知,未知,未知,未知,未知,未知,未知
5,002182,-368641.3,3698951.03,2015-03-31,一季度报告,1259182.01,2015,3,-3.5617896790123753,False,未知,未知,未知,未知,未知,未知,56366667.0,未知
6,002182,10346901.55,15103543.819999995,2015-06-30,半年度报告,10741401.470000004,2015,6,-0.7501213543120658,True,未知,未知,未知,未知,未知,未知,43200000.0,未知
7,002182,16953122.08,24455146.69,2015-09-30,三季度报告,18531658.17,2015,9,-0.8415787281433965,True,未知,未知,未知,未知,未知,未知,,未知
8,002182,23261841.32,30136402.5,2015-12-31,年度报告,23700207.25,2015,12,-0.8335381458030366,True,未知,未知,未知,未知,未知,未知,32000000.0,未知
9,002182,18461756.78,20630464.390000004,2016-03-31,一季度报告,16812168.38,2016,3,-9.205848937707199,False,未知,未知,未知,未知,未知,未知,93435000.0,未知
10,002182,69448487.01999998,69930209.91,2016-06-30,半年度报告,65264272.42000001,2016,6,-0.7076405138889139,True,未知,未知,未知,未知,未知,未知,139188750.0,未知
11,002182,116601501.93,117179161.53999998,2016-09-30,三季度报告,106428329.92999998,2016,9,-0.8215659153679615,True,未知,未知,未知,未知,未知,未知,169848000.0,未知
12,002182,174735129.92,169302171.58000004,2016-12-31,年度报告,150031143.97000003,2016,12,-0.8699580665869661,True,1.1947788413047062,True,0.0,True,比例外推,169302171.58000004,168748571.0,169302171.58000004
13,002182,59327823.92,61022782.36999999,2017-03-31,一季度报告,29559053.16,2017,3,-0.8361469682410149,True,-24.829889700891773,True,0.05292364794115429,True,比例外推,531327580.4744969,249027143.0,249027143.0
14,002182,94647611.49,95702795.61,2017-06-30,半年度报告,60166598.24999999,2017,6,-0.9564423222189298,True,5.186165803083006,False,0.01007881457790799,True,比例外推,170716626.59943324,249861429.0,249861429.0
15,002182,133716873.01,134846849.97,2017-09-30,三季度报告,91237789.14,2017,9,-0.9740568108478052,True,5.469258256739243,False,0.0875068441203889,True,比例外推,159187610.01971424,177235000.0,177235000.0
16,002182,153239983.92000002,154821856.58,2017-12-31,年度报告,109213471.12,2017,12,-0.9826879985645419,True,7.43433052907912,False,0.0,True,比例外推,154821856.58,177990000.0,177990000.0
17,002182,58219312.95000001,57620331.29,2018-03-31,一季度报告,13979935.21,2018,3,-0.9490118696401363,True,5.558055077422188,False,0.12537346295562066,False,未知,未知,,未知
18,002182,145676480.64,145365667.54,2018-06-30,半年度报告,61189770.78000001,2018,6,-0.9680391847995063,True,1.372257675190616,True,0.07119728944742731,True,比例外推,211731405.14913487,260359836.0,260359836.0
19,002182,247878070.74,247640287.31,2018-09-30,三季度报告,126588333.34,2018,9,-0.9773774636520719,True,1.0024297024712203,True,0.06619255679889946,True,比例外推,284272225.603753,315470000.0,284272225.603753
20,002182,328575745.73,329502481.09,2018-12-31,年度报告,208722577.1,2018,12,-0.9802596245273738,True,0.5479023033564666,True,0.0,True,比例外推,329502481.09,299402857.0,299402857.0
21,002182,47738687.82000001,47449852.44000001,2019-03-31,一季度报告,41367572.31,2019,3,-0.9480410422809704,True,0.4968408988994591,True,0.12075713952897957,False,平均增速,464063607.61695594,398500680.99999994,398500680.99999994
22,002182,278133046.5,277758475.62,2019-06-30,半年度报告,105952666.84999998,2019,6,-0.9792347068880974,True,0.7755020620569171,True,0.13319557312974667,False,平均增速,502825898.1021284,568123000.0,568123000.0
23,002182,515658900.77,517584531.3400001,2019-09-30,三季度报告,169279119.43000004,2019,9,-0.9877963596740554,True,0.9805023965932591,True,0.11831663297298334,False,平均增速,626690921.0190399,606201667.0,626690921.0190399
24,002182,911018529.41,910370373.13,2019-12-31,年度报告,279072592.1,2019,12,-0.9907935541216553,True,1.0036626674686848,True,0.0,True,比例外推,910370373.13,616734000.0,616734000.0
25,002182,38164054.19,38037295.41,2020-03-31,一季度报告,33599668.75000001,2020,3,-0.9366338925903054,True,0.1877524354711234,True,0.10869899150921142,False,平均增速,327599940.1425886,391204545.0,391204545.0
