,SECURITYCODE_x,NETPROFIT_x,PARENTNETPROFIT_x,REPORTDATE_x,REPORTTIMETYPE_x,KCFJCXSYJLR,Year,Month,managesituationChangeRate,managesituationGreatChange,historyprofitextroplaterate,ifhistoryprofitextroplate,IfprofitdisStableChangeRage,IfprofitdisStable,predicttype,predict,analyst_prediction,adj_prediction
0,002145,17408324.919999998,16353006.080000002,2013-12-31,年度报告,6689387.049999999,2013,12,未知,未知,未知,未知,未知,未知,未知,未知,未知,未知
1,002145,-13246642.69,-13801128.57,2014-03-31,一季度报告,-13870690.76,2014,3,未知,未知,未知,未知,未知,未知,未知,未知,未知,未知
2,002145,14645385.590000002,12211142.42,2014-06-30,半年度报告,12351706.01,2014,6,未知,未知,未知,未知,未知,未知,未知,未知,未知,未知
3,002145,41525504.33999998,37389124.59,2014-09-30,三季度报告,32862940.05,2014,9,未知,未知,未知,未知,未知,未知,未知,未知,未知,未知
4,002145,34554100.78,30580309.270000003,2014-12-31,年度报告,28311962.04,2014,12,0.0,True,未知,未知,未知,未知,未知,未知,未知,未知
5,002145,-26543793.52,-26543793.52,2015-03-31,一季度报告,-26989704.97000001,2015,3,-2.314168829596475,False,未知,未知,未知,未知,未知,未知,未知,未知
6,002145,20543656.6,20543656.6,2015-06-30,半年度报告,19091169.04,2015,6,0.18865596354708172,True,未知,未知,未知,未知,未知,未知,未知,未知
7,002145,-13754975.430000005,-13754975.430000005,2015-09-30,三季度报告,-18023337.38,2015,9,-0.5807799279819654,True,未知,未知,未知,未知,未知,未知,未知,未知
8,002145,-126366504.44,-126366504.44,2015-12-31,年度报告,-134844411.63,2015,12,-0.4962008986766636,True,未知,未知,未知,未知,未知,未知,-24000000.0,未知
9,002145,-46635726.43999999,-46635726.43999999,2016-03-31,一季度报告,-48247903.28,2016,3,-1.655834099481045,False,未知,未知,未知,未知,未知,未知,30000000.0,未知
10,002145,10577817.88,10577817.88,2016-06-30,半年度报告,4827080.18,2016,6,-0.152617994987319,True,未知,未知,未知,未知,未知,未知,,未知
11,002145,46431770.71000001,46431770.71000001,2016-09-30,三季度报告,47035983.45,2016,9,-2.265602036775139,False,未知,未知,未知,未知,未知,未知,未知,未知
12,002145,84090715.42999999,84090715.42999999,2016-12-31,年度报告,93685793.99,2016,12,-1.137760595635259,False,5.863764642919662,False,0.0,True,前期平均,84090715.42999999,,84090715.42999999
13,002145,118345957.9,118345957.9,2017-03-31,一季度报告,115901790.38000004,2017,3,-1.3732830224569779,False,-1.344067111698547,True,0.46840972517737434,False,盈利变化,302956973.6433334,369000000.0,369000000.0
14,002145,235034097.67,235034097.67,2017-06-30,半年度报告,241259335.81,2017,6,0.6457387636550986,False,0.3988004661856925,True,0.3208661228456046,False,前期平均,166046435.35,482536667.0,482536667.0
15,002145,305723294.51000005,305723294.51000005,2017-09-30,三季度报告,303722003.12,2017,9,-0.6250772982850993,True,2.343960128413705,False,0.5619222504630373,False,未知,未知,407000000.0,未知
16,002145,388549022.0500001,388549022.0500001,2017-12-31,年度报告,383784453.78,2017,12,-0.7929816052701883,True,-2.8317942255690203,True,0.0,True,比例外推,388549022.0500001,未知,388549022.0500001
17,002145,75574752.97999999,75574752.97999999,2018-03-31,一季度报告,73861521.28,2018,3,-0.8529030882938166,True,-4.234401044573346,True,0.5107151748720332,False,平均增速,615748728.3987076,640680000.0,615748728.3987076
18,002145,212540145.82,212540145.82,2018-06-30,半年度报告,213837752.72,2018,6,-0.9259327685107113,True,14.104303481574627,False,0.4491066206776346,False,未知,未知,,未知
19,002145,313754703.1500001,313754703.1500001,2018-09-30,三季度报告,322687308.44000006,2018,9,-0.9430585590545159,True,17.711950905241896,False,0.34204248084994493,False,未知,未知,未知,未知
20,002145,403043511.64000016,403043511.64000016,2018-12-31,年度报告,415368230.51000017,2018,12,-0.9551965802715112,True,-19.38163313560354,True,0.0,True,比例外推,403043511.64000016,,403043511.64000016
21,002145,107927724.66,107927724.66,2019-03-31,一季度报告,106837712.28,2019,3,-0.7696542266620849,True,1.1077815938205586,True,0.5032709641611177,False,平均增速,797064474.4359335,未知,797064474.4359335
22,002145,213501612.04,213501612.04,2019-06-30,半年度报告,211466472.26,2019,6,-0.918093944779999,True,0.7306989796814848,True,0.3467996651332474,False,平均增速,574071059.8749368,未知,574071059.8749368
23,002145,328756927.05999994,328756927.05999994,2019-09-30,三季度报告,324041382.66,2019,9,-0.9445161307695922,True,0.7819121979914714,True,0.1880451320065437,False,平均增速,495285880.1267695,未知,495285880.1267695
24,002145,430939894.9,430939894.9,2019-12-31,年度报告,401898003.32,2019,12,-0.9568078274001612,True,0.705499896343587,True,0.0,True,比例外推,430939894.9,未知,430939894.9
25,002145,162025054.64,162025054.64,2020-03-31,一季度报告,143212143.00999996,2020,3,-0.8387038643236417,True,0.11311189166160507,True,0.07072880723096245,True,比例外推,595002009.3941242,478483333.0,478483333.0
