,SECURITYCODE_x,NETPROFIT_x,PARENTNETPROFIT_x,REPORTDATE_x,REPORTTIMETYPE_x,KCFJCXSYJLR,Year,Month,managesituationChangeRate,managesituationGreatChange,historyprofitextroplaterate,ifhistoryprofitextroplate,IfprofitdisStableChangeRage,IfprofitdisStable,predicttype,predict,analyst_prediction,adj_prediction
0,002135,62580755.71999999,60467506.64999999,2013-12-31,年度报告,47548874.47,2013,12,未知,未知,未知,未知,未知,未知,未知,未知,未知,未知
1,002135,18348019.25,18958112.91,2014-03-31,一季度报告,17037121.269999996,2014,3,未知,未知,未知,未知,未知,未知,未知,未知,未知,未知
2,002135,44693599.13,45650118.58,2014-06-30,半年度报告,43050554.2,2014,6,未知,未知,未知,未知,未知,未知,未知,未知,未知,未知
3,002135,58363303.27,59640585.42,2014-09-30,三季度报告,57181375.95000001,2014,9,未知,未知,未知,未知,未知,未知,未知,未知,未知,未知
4,002135,66723596.73,64518374.02,2014-12-31,年度报告,54115844.84,2014,12,0.0,True,未知,未知,未知,未知,未知,未知,未知,未知
5,002135,17799058.55,17798000.430000003,2015-03-31,一季度报告,17247649.04,2015,3,2.4107635743841938,False,未知,未知,未知,未知,未知,未知,100576667.0,未知
6,002135,39896636.17,39458163.07999999,2015-06-30,半年度报告,36719333.7,2015,6,0.4002174122959246,True,未知,未知,未知,未知,未知,未知,99000000.0,未知
7,002135,46210615.33,45126202.66,2015-09-30,三季度报告,40431216.81,2015,9,0.07226205875444082,True,未知,未知,未知,未知,未知,未知,80000000.0,未知
8,002135,37491866.17999999,34583536.39,2015-12-31,年度报告,15703816.120000005,2015,12,-0.062089593682489806,True,未知,未知,未知,未知,未知,未知,83650000.0,未知
9,002135,19469336.780000005,19103196.79,2016-03-31,一季度报告,17744408.97,2016,3,2.515958753897126,False,未知,未知,未知,未知,未知,未知,,未知
10,002135,38771265.37,36091811.2,2016-06-30,半年度报告,32208537.37,2016,6,0.5685722338430416,False,未知,未知,未知,未知,未知,未知,55500000.0,未知
11,002135,44569479.22,41079102.57,2016-09-30,三季度报告,29558056.97000001,2016,9,0.35425064723975824,True,未知,未知,未知,未知,未知,未知,,未知
12,002135,53925574.14000002,49124614.71000001,2016-12-31,年度报告,34284163.85999999,2016,12,0.6691822012685954,False,0.42009892985624714,True,0.0,True,前期平均,49124614.71000001,121600000.0,121600000.0
13,002135,32396591.67,32429953.739999995,2017-03-31,一季度报告,30059643.51,2017,3,2.214323961167822,False,0.07722880879737429,True,0.4547411002600621,False,前期平均,50197399.065,120585000.0,120585000.0
14,002135,70594005.13,68653191.08999999,2017-06-30,半年度报告,58135412.78000001,2017,6,0.6141014517525404,False,0.08331581694985564,True,0.9805004725749955,False,前期平均,63678077.61999999,120446000.0,120446000.0
15,002135,155177853.11,149712977.82,2017-09-30,三季度报告,71180811.89999999,2017,9,0.4041168264743299,True,0.1475985634528952,True,1.0768084438405037,False,平均增速,158325955.49472728,111823333.0,111823333.0
16,002135,155177853.11,149712977.82,2017-09-30,三季度报告,71180811.89999999,2017,9,0.4041168264743299,True,0.1475985634528952,True,1.0768084438405037,False,平均增速,158325955.49472728,111823333.0,111823333.0
17,002135,87430461.28,85375673.35999998,2017-09-30,三季度报告,71180811.89999999,2017,9,0.4041168264743299,True,0.1475985634528952,True,1.0768084438405037,False,平均增速,93988651.03472728,111823333.0,111823333.0
18,002135,87430461.28,85375673.35999998,2017-09-30,三季度报告,71180811.89999999,2017,9,0.4041168264743299,True,0.1475985634528952,True,1.0768084438405037,False,平均增速,93988651.03472728,111823333.0,111823333.0
19,002135,105041549.60999998,103583329.95000002,2017-12-31,年度报告,89739717.74,2017,12,0.16050235380952338,True,0.03488623730568477,True,0.0,True,比例外推,103583329.95000002,111000000.0,103583329.95000002
20,002135,56644218.13999999,53637756.40000001,2018-03-31,一季度报告,47977808.12000001,2018,3,0.9317080129127049,False,0.7385557592774412,True,0.4480284636277815,False,前期平均,61135717.38500001,201710000.0,201710000.0
21,002135,129608910.45,125707515.15,2018-06-30,半年度报告,116996028.48999996,2018,6,-0.11351175493221381,True,0.7947346693646152,True,1.0297349104465128,False,平均增速,195439645.5197568,,195439645.5197568
22,002135,155177853.11,149712977.82,2018-09-30,三季度报告,138933395.68999997,2018,9,-0.5967159329389694,True,2.4187638574121757,False,1.1646270202748512,False,未知,未知,未知,未知
23,002135,181225120.01,170718307.38,2018-12-31,年度报告,156743779.39,2018,12,-0.4042285557253214,True,1.2980636789284357,True,0.0,True,比例外推,170718307.38,149210000.0,149210000.0
24,002135,87333667.92,87377282.58000001,2019-03-31,一季度报告,84056668.01,2019,3,0.10480394601488623,True,1.1842554383117379,True,0.13136063318009578,False,平均增速,301324213.5291691,215500000.0,215500000.0
25,002135,191969474.95999995,192079131.2,2019-06-30,半年度报告,175725323.63,2019,6,-0.5171569955898816,True,1.3702023477370726,True,0.1615593315020929,False,平均增速,265295773.75680357,,265295773.75680357
26,002135,234627157.73,234821983.43000004,2019-09-30,三季度报告,212198411.22,2019,9,-0.5967159329389694,True,0.5537414322373294,True,0.05404597624236751,True,比例外推,273082660.5218019,未知,273082660.5218019
27,002135,265073721.62,267478595.00000003,2019-12-31,年度报告,240722706.39,2019,12,-0.6546794632192998,True,1.2800326977671694,True,0.0,True,比例外推,267478595.00000003,268944572.0,267478595.00000003
28,002135,100927899.6,102039874.58,2020-03-31,一季度报告,100136464.25,2020,3,-0.2834292065080141,True,0.9616548435791905,True,0.023989351651905355,True,比例外推,305273679.12445134,391524000.0,391524000.0
