,SECURITYCODE_x,NETPROFIT_x,PARENTNETPROFIT_x,REPORTDATE_x,REPORTTIMETYPE_x,KCFJCXSYJLR,Year,Month,managesituationChangeRate,managesituationGreatChange,historyprofitextroplaterate,ifhistoryprofitextroplate,IfprofitdisStableChangeRage,IfprofitdisStable,predicttype,predict,analyst_prediction,adj_prediction
0,002119,21926485.590000004,17285530.649999995,2013-12-31,年度报告,4229103.950000001,2013,12,未知,未知,未知,未知,未知,未知,未知,未知,未知,未知
1,002119,-675208.54,-940833.4200000002,2014-03-31,一季度报告,-4650707.46,2014,3,未知,未知,未知,未知,未知,未知,未知,未知,未知,未知
2,002119,3318495.8100000005,856711.67,2014-06-30,半年度报告,-4306854.819999998,2014,6,未知,未知,未知,未知,未知,未知,未知,未知,未知,未知
3,002119,7672171.960000001,3364094.0899999994,2014-09-30,三季度报告,-3442617.74,2014,9,未知,未知,未知,未知,未知,未知,未知,未知,未知,未知
4,002119,7616877.54,2315477.44,2014-12-31,年度报告,-6056063.439999999,2014,12,0.0,True,未知,未知,未知,未知,未知,未知,未知,未知
5,002119,1963781.17,223779.27,2015-03-31,一季度报告,-97746.95,2015,3,-33.47364968162281,False,未知,未知,未知,未知,未知,未知,未知,未知
6,002119,-42419410.25,-42897940.67,2015-06-30,半年度报告,-44269575.68,2015,6,5.607356719850732,False,未知,未知,未知,未知,未知,未知,未知,未知
7,002119,-45550456.43,-47213921.36,2015-09-30,三季度报告,-36642917.89,2015,9,1.8579241581545574,False,未知,未知,未知,未知,未知,未知,未知,未知
8,002119,-53987123.97,-57279608.92999999,2015-12-31,年度报告,-39758042.05,2015,12,1.8786711450792215,False,未知,未知,未知,未知,未知,未知,未知,未知
9,002119,9388359.0,7504944.839999997,2016-03-31,一季度报告,4096288.3,2016,3,10.165442425542762,False,未知,未知,未知,未知,未知,未知,未知,未知
10,002119,21629170.639999993,17579143.36,2016-06-30,半年度报告,20381638.4,2016,6,-1.5168974641744342,False,未知,未知,未知,未知,未知,未知,未知,未知
11,002119,37632880.07,31965713.88,2016-09-30,三季度报告,30097306.46,2016,9,-1.4813669786974737,False,未知,未知,未知,未知,未知,未知,未知,未知
12,002119,51013167.18,43617898.34,2016-12-31,年度报告,43229695.47,2016,12,-1.4061428721816018,False,4.654771715220087,False,0.0,True,前期平均,43617898.34,未知,43617898.34
13,002119,16117122.6,13595398.06,2017-03-31,一季度报告,11224310.11,2017,3,1.3354971395959616,False,13.571718786235591,False,0.47955658612633884,False,去年同期,52728805.230000004,未知,52728805.230000004
14,002119,39241118.7,33354766.67,2017-06-30,半年度报告,29424299.39,2017,6,0.013746017124215103,True,-2.1063255655153417,True,0.34810410154110083,False,平均增速,41406741.69204413,未知,41406741.69204413
15,002119,64793291.43000001,56156993.42,2017-09-30,三季度报告,51485165.40999999,2017,9,-0.41735829016500775,True,-2.987042475474603,True,0.1928731868064636,False,平均增速,62537920.41101132,未知,62537920.41101132
16,002119,74758188.28000002,64002727.39999999,2017-12-31,年度报告,57465720.92,2017,12,-0.570179880958334,True,-3.2002543056142216,True,0.0,True,比例外推,64002727.39999999,未知,64002727.39999999
17,002119,20668949.31,17520737.8,2018-03-31,一季度报告,16878285.540000007,2018,3,0.36044665876029286,True,1.8394861865064516,True,0.09780959100557475,True,比例外推,173731335.22567397,未知,173731335.22567397
18,002119,46359639.45,39551164.1,2018-06-30,半年度报告,37079957.73,2018,6,-0.44123699026959695,True,-4.774955886619528,True,0.41448139749591795,False,平均增速,88181955.8207506,未知,88181955.8207506
19,002119,76148526.47000001,65648062.58,2018-09-30,三季度报告,62306401.88000001,2018,9,-0.6615932744566855,True,-17.3669508152366,True,0.14171319361444035,False,平均增速,75870318.21154317,未知,75870318.21154317
20,002119,92354978.63,80236613.36,2018-12-31,年度报告,71775007.92,2018,12,-0.7067012176930193,True,-51.27523502115176,True,0.0,True,比例外推,80236613.36,未知,80236613.36
21,002119,26160028.11000001,26160028.11000001,2019-03-31,一季度报告,8670957.020000001,2019,3,0.06084180967010195,True,0.6207456604152103,True,0.0803215322018983,True,比例外推,67015354.73064138,未知,67015354.73064138
22,002119,48181436.51000001,48181436.51000001,2019-06-30,半年度报告,26460203.58000001,2019,6,-0.5270350276634862,True,0.5232271754468386,True,0.028566592784116274,True,比例外推,74637439.63808765,未知,74637439.63808765
23,002119,79122671.33,79122671.33,2019-09-30,三季度报告,51703723.54,2019,9,-0.7120563377068326,True,0.4868958851986382,True,0.12385699254350113,False,平均增速,89154604.83685598,未知,89154604.83685598
24,002119,92468553.68,92582917.83,2019-12-31,年度报告,77823042.74,2019,12,-0.7625846931561354,True,0.46861705182739055,True,0.0,True,比例外推,92582917.83,未知,92582917.83
25,002119,11354864.4,11354864.4,2020-03-31,一季度报告,8342633.5,2020,3,-0.1618324912419219,True,0.42227896329907505,True,0.06921317460665265,True,比例外推,49198014.85344266,未知,49198014.85344266
