,SECURITYCODE_x,NETPROFIT_x,PARENTNETPROFIT_x,REPORTDATE_x,REPORTTIMETYPE_x,KCFJCXSYJLR,Year,Month,managesituationChangeRate,managesituationGreatChange,historyprofitextroplaterate,ifhistoryprofitextroplate,IfprofitdisStableChangeRage,IfprofitdisStable,predicttype,predict,analyst_prediction,adj_prediction
0,002125,7586191.320000001,5697800.16,2013-12-31,年度报告,-49495748.86,2013,12,未知,未知,未知,未知,未知,未知,未知,未知,未知,未知
1,002125,16290838.990000006,17081552.459999993,2014-03-31,一季度报告,-10503311.11,2014,3,未知,未知,未知,未知,未知,未知,未知,未知,未知,未知
2,002125,4945056.3100000005,4899206.83,2014-06-30,半年度报告,-23202773.71,2014,6,未知,未知,未知,未知,未知,未知,未知,未知,未知,未知
3,002125,3967291.5200000005,3549628.72,2014-09-30,三季度报告,-9038136.0,2014,9,未知,未知,未知,未知,未知,未知,未知,未知,未知,未知
4,002125,-14027318.4,-14274132.21,2014-12-31,年度报告,-73397779.4,2014,12,0.0,True,未知,未知,未知,未知,未知,未知,未知,未知
5,002125,-3564844.819999999,-3263052.7200000007,2015-03-31,一季度报告,-4146294.82,2015,3,-0.5343277700641005,True,未知,未知,未知,未知,未知,未知,17197500.0,未知
6,002125,1519941.6,1425784.32,2015-06-30,半年度报告,74035.32999999999,2015,6,0.5340960434887344,False,未知,未知,未知,未知,未知,未知,20113333.0,未知
7,002125,7820793.35,7374915.65,2015-09-30,三季度报告,3315154.04,2015,9,0.9121839879313937,False,未知,未知,未知,未知,未知,未知,12410000.0,未知
8,002125,12274292.49,11435175.85,2015-12-31,年度报告,7777074.789999999,2015,12,-1.5408155075456191,False,未知,未知,未知,未知,未知,未知,14755000.0,未知
9,002125,295587.73,190757.9,2016-03-31,一季度报告,-403096.04,2016,3,-3.128056536273016,False,未知,未知,未知,未知,未知,未知,58652500.0,未知
10,002125,6655505.270000001,5514482.669999999,2016-06-30,半年度报告,3020525.2,2016,6,3.991107105694061,False,未知,未知,未知,未知,未知,未知,,未知
11,002125,15690943.3,13651726.430000005,2016-09-30,三季度报告,11482552.53,2016,9,-0.029997216331000283,True,未知,未知,未知,未知,未知,未知,,未知
12,002125,25735115.0,22240666.49,2016-12-31,年度报告,19428198.939999994,2016,12,-0.3819447168803779,True,-4.811225065908808,True,0.0,True,比例外推,22240666.49,63012000.0,63012000.0
13,002125,5787536.33,5263071.92,2017-03-31,一季度报告,4782388.1,2017,3,24.664770726443894,False,0.9535458328753895,True,0.39621323159602717,False,前期平均,-20222477.42,未知,-20222477.42
14,002125,23927566.04,22014314.720000006,2017-06-30,半年度报告,20747084.31,2017,6,0.13983702397398892,True,1.0589350105451159,True,0.15575213866605275,False,平均增速,97249638.92535514,66000000.0,66000000.0
15,002125,44319840.44,40237431.84,2017-09-30,三季度报告,37949146.34,2017,9,-0.5165242028501881,True,1.6621700595204485,True,0.257006499036548,False,平均增速,62513001.581655025,,62513001.581655025
16,002125,51568285.54,47171460.16,2017-12-31,年度报告,44804278.7,2017,12,-0.705220228469933,True,-30.360792505342943,True,0.0,True,比例外推,47171460.16,未知,47171460.16
17,002125,11677443.1,10319232.23,2018-03-31,一季度报告,9193311.739999998,2018,3,0.3107807687835285,True,-4.540581955272293,True,0.38409267463852437,False,平均增速,96855935.1328109,未知,96855935.1328109
18,002125,33080476.36000001,30380450.78,2018-06-30,半年度报告,29446077.120000005,2018,6,-0.6829518176935309,True,4.853518815663221,False,0.253709930711833,False,未知,未知,87985000.0,未知
19,002125,66734738.78999999,62169120.50999998,2018-09-30,三季度报告,59588352.7,2018,9,-0.828830807045207,True,2.7700184465106283,False,0.22556628239305299,False,未知,未知,97985000.0,未知
20,002125,74968168.19,70736755.30999999,2018-12-31,年度报告,69740152.07000001,2018,12,-0.8528903716584564,True,1.7134485352641837,True,0.0,True,比例外推,70736755.30999999,未知,70736755.30999999
21,002125,17922701.59,18041877.41,2019-03-31,一季度报告,17349315.39,2019,3,-0.35035510299339406,True,2.839291451175829,False,0.09335262686640011,True,比例外推,239648580.25401714,117000000.0,117000000.0
22,002125,51608112.71,51797734.56999999,2019-06-30,半年度报告,51650411.67000001,2019,6,-0.770674665097235,True,1.1633194406595397,True,0.19144784994587286,False,平均增速,126047961.74147059,,126047961.74147059
23,002125,74591490.59000002,74849427.64999999,2019-09-30,三季度报告,74278979.42999999,2019,9,-0.8863232035136583,True,1.2240915592481478,True,0.1731273578448992,False,平均增速,90980048.97187963,101000000.0,90980048.97187963
24,002125,70311100.97999999,67991660.91,2019-12-31,年度报告,70451855.32999998,2019,12,-0.8988078340026463,True,0.9395826746640558,True,0.0,True,比例外推,67991660.91,130970000.0,130970000.0
25,002125,5063292.879999999,5067802.399999999,2020-03-31,一季度报告,4941999.630000001,2020,3,-0.5767272427147518,True,1.0524159976064742,True,0.08465119864352172,True,比例外推,30706243.864920445,136520000.0,136520000.0
