,SECURITYCODE_x,NETPROFIT_x,PARENTNETPROFIT_x,REPORTDATE_x,REPORTTIMETYPE_x,KCFJCXSYJLR,Year,Month,managesituationChangeRate,managesituationGreatChange,historyprofitextroplaterate,ifhistoryprofitextroplate,IfprofitdisStableChangeRage,IfprofitdisStable,predicttype,predict,analyst_prediction,adj_prediction
0,002108,151920305.76000005,149355595.03000003,2013-12-31,年度报告,145429954.83999997,2013,12,未知,未知,未知,未知,未知,未知,未知,未知,未知,未知
1,002108,22524504.70000001,21844791.78,2014-03-31,一季度报告,20637297.06,2014,3,未知,未知,未知,未知,未知,未知,未知,未知,未知,未知
2,002108,75307339.08000001,73974326.60999998,2014-06-30,半年度报告,71701391.5,2014,6,未知,未知,未知,未知,未知,未知,未知,未知,未知,未知
3,002108,122006802.88,120392300.45,2014-09-30,三季度报告,116196741.68,2014,9,未知,未知,未知,未知,未知,未知,未知,未知,未知,未知
4,002108,169287886.96999997,167102025.48000002,2014-12-31,年度报告,161294545.86999995,2014,12,0.0,True,未知,未知,未知,未知,未知,未知,未知,未知
5,002108,31781964.89999999,31314973.45000001,2015-03-31,一季度报告,31889601.649999995,2015,3,5.744667986417476,False,未知,未知,未知,未知,未知,未知,226709895.0,未知
6,002108,90650740.74,89964711.37999998,2015-06-30,半年度报告,90848723.16,2015,6,1.0173373221780289,False,未知,未知,未知,未知,未知,未知,212812500.0,未知
7,002108,156353596.32,155062397.91,2015-09-30,三季度报告,153753549.28999996,2015,9,0.2451789750561822,True,未知,未知,未知,未知,未知,未知,216209000.0,未知
8,002108,215396339.56,214632809.65,2015-12-31,年度报告,212008787.52,2015,12,-0.1025919900168503,True,未知,未知,未知,未知,未知,未知,217149167.00000003,未知
9,002108,103652721.31,103652721.31,2016-03-31,一季度报告,101635227.96,2016,3,3.780079086928955,False,未知,未知,未知,未知,未知,未知,380957398.00000006,未知
10,002108,256762302.62000003,256762302.62000003,2016-06-30,半年度报告,251801230.36,2016,6,0.6758859830581022,False,未知,未知,未知,未知,未知,未知,481323271.0,未知
11,002108,387201559.27,387201559.27,2016-09-30,三季度报告,381730937.81,2016,9,-0.028354260243087594,True,未知,未知,未知,未知,未知,未知,509945355.0,未知
12,002108,486582327.8000001,487319497.79,2016-12-31,年度报告,488519764.2000001,2016,12,-0.2946941156459082,True,0.3411634225722073,True,0.0,True,比例外推,487319497.79,510855613.0,487319497.79
13,002108,137400534.62,137272484.10999995,2017-03-31,一季度报告,134802486.60999998,2017,3,0.4656663504824295,True,2.8173249733766528,False,0.04591011168243725,True,比例外推,833879934.684377,608813925.0,608813925.0
14,002108,285205973.74000007,284933701.97,2017-06-30,半年度报告,275715218.3,2017,6,-0.40832316812161784,True,2.0943031264098417,False,0.052607780950936656,True,比例外推,604935269.0972729,611364379.0,604935269.0972729
15,002108,445004714.91,444894210.92,2017-09-30,三季度报告,432643530.96,2017,9,-0.6076454184574595,True,1.782016122859476,True,0.03906102027950653,True,比例外推,595059398.1405607,590571401.0,595059398.1405607
16,002108,545058530.0799999,545280027.1700001,2017-12-31,年度报告,538002872.42,2017,12,-0.68778088089043,True,1.529775302664007,True,0.0,True,比例外推,545280027.1700001,587810000.0,545280027.1700001
17,002108,55022794.85,55487216.95000001,2018-03-31,一季度报告,53832712.62,2018,3,0.10567477906950261,True,1.029030205850691,True,0.05259179887580087,True,比例外推,266829551.87558445,577210000.0,577210000.0
18,002108,123003104.43000004,123379764.91000004,2018-06-30,半年度报告,110201796.95,2018,6,-0.4673312631996485,True,0.6418840869164542,True,0.05696277368016284,True,比例外推,240175043.98134705,400783333.0,400783333.0
19,002108,308610567.69000006,310088968.52999985,2018-09-30,三季度报告,159874609.26999998,2018,9,-0.6586096716060073,True,0.6373856832503827,True,0.0450413470782377,True,比例外推,357772592.231271,357500000.0,357772592.231271
20,002108,292724087.63000005,297880237.42,2018-12-31,年度报告,120830795.95000003,2018,12,-0.7212770787428971,True,0.5529204958032553,True,0.0,True,比例外推,297880237.42,691133333.0,691133333.0
21,002108,27549925.149999995,29020940.66,2019-03-31,一季度报告,27197435.59,2019,3,1.7610430581390224,False,0.5434801771275125,True,0.14414489813416387,False,前期平均,424063401.685,285000000.0,285000000.0
22,002108,92593717.57,96839463.49,2019-06-30,半年度报告,82782964.10000001,2019,6,0.23509326422290855,True,0.5460874379728612,True,0.2653839411673018,False,平均增速,104354888.36490528,210000000.0,210000000.0
23,002108,164909874.67,170046594.45999998,2019-09-30,三季度报告,153549021.32,2019,9,-0.5077281154137135,True,0.258331552488993,True,0.35356229889013757,False,平均增速,138355205.36668417,210000000.0,210000000.0
24,002108,158471162.27000004,166097639.40999997,2019-12-31,年度报告,146848624.01,2019,12,-0.481011942030457,True,0.43250776586816886,True,0.0,True,比例外推,166097639.40999997,,166097639.40999997
25,002108,28426126.03,29298396.94,2020-03-31,一季度报告,18605231.35,2020,3,4.514363648280187,False,0.7136529627059052,True,0.1517582418729463,False,前期平均,264397631.51,未知,264397631.51
