,SECURITYCODE_x,NETPROFIT_x,PARENTNETPROFIT_x,REPORTDATE_x,REPORTTIMETYPE_x,KCFJCXSYJLR,Year,Month,managesituationChangeRate,managesituationGreatChange,historyprofitextroplaterate,ifhistoryprofitextroplate,IfprofitdisStableChangeRage,IfprofitdisStable,predicttype,predict,analyst_prediction,adj_prediction
0,002188,5455257.720000002,7859263.840000003,2013-12-31,年度报告,-31324979.14,2013,12,未知,未知,未知,未知,未知,未知,未知,未知,未知,未知
1,002188,-2650453.05,-2511446.8,2014-03-31,一季度报告,-4782028.52,2014,3,未知,未知,未知,未知,未知,未知,未知,未知,未知,未知
2,002188,-5739517.89,-5493026.199999998,2014-06-30,半年度报告,-11187643.82,2014,6,未知,未知,未知,未知,未知,未知,未知,未知,未知,未知
3,002188,-8156187.81,-7914786.85,2014-09-30,三季度报告,-16341297.920000002,2014,9,未知,未知,未知,未知,未知,未知,未知,未知,未知,未知
4,002188,-20199319.390000004,-19919969.01,2014-12-31,年度报告,-32922335.100000005,2014,12,0.0,True,未知,未知,未知,未知,未知,未知,未知,未知
5,002188,-4335808.16,-4107078.55,2015-03-31,一季度报告,-7169836.489999997,2015,3,-3.058235938191775,False,未知,未知,未知,未知,未知,未知,未知,未知
6,002188,-9611729.12,-9373624.8,2015-06-30,半年度报告,-15967139.120000005,2015,6,-1.9504731624767184,False,未知,未知,未知,未知,未知,未知,98000000.0,未知
7,002188,-14015194.259999998,-13768058.009999998,2015-09-30,三季度报告,-22838370.98,2015,9,-1.6688489582487926,False,未知,未知,未知,未知,未知,未知,,未知
8,002188,10611008.13,10867310.06,2015-12-31,年度报告,-2292504.99,2015,12,-1.270071363033188,False,未知,未知,未知,未知,未知,未知,55000000.0,未知
9,002188,8380656.970000002,8390389.440000001,2016-03-31,一季度报告,4562586.22,2016,3,-2.2581870596414952,False,未知,未知,未知,未知,未知,未知,137127441.0,未知
10,002188,12137106.58,12156430.96,2016-06-30,半年度报告,4948554.83,2016,6,-1.5675625740064552,False,未知,未知,未知,未知,未知,未知,143915000.0,未知
11,002188,27149303.98,27177827.73,2016-09-30,三季度报告,22702419.62,2016,9,-1.3892388231513535,False,未知,未知,未知,未知,未知,未知,,未知
12,002188,93384809.28,93600733.8,2016-12-31,年度报告,86098003.63000003,2016,12,-0.4858869531372227,True,-2.43936024787395,True,0.0,True,比例外推,93600733.8,136500000.0,136500000.0
13,002188,-6734159.959999999,-6734429.2,2017-03-31,一季度报告,3691950.16,2017,3,-0.34906562343166747,True,-3.399182257314997,True,2.018926310165778,False,平均增速,871912104.582529,未知,871912104.582529
14,002188,-5781256.450000001,-5781855.13,2017-06-30,半年度报告,-7605467.349999999,2017,6,-0.5505306240789392,True,-2.5812535062583173,True,4.510855645394382,False,平均增速,773513588.4106301,未知,773513588.4106301
15,002188,69501472.60000001,69500151.94,2017-09-30,三季度报告,26730964.42,2017,9,-0.7990645460370287,True,-3.4490402893499015,True,6.388113482892404,False,平均增速,764340566.4043512,未知,764340566.4043512
16,002188,-2033423578.8500004,-2033425614.2,2017-12-31,年度报告,-1670101384.6099994,2017,12,-0.9415830287381832,True,-20.478885644769935,True,0.0,True,比例外推,-2033425614.2,未知,-2033425614.2
17,002188,-82899039.51000002,-82899531.26,2018-03-31,一季度报告,-82077563.71000001,2018,3,-1.8100873386440914,False,4.329746191428103,False,2.0680804491730793,False,去年同期,-1756692866.0299995,未知,-1756692866.0299995
18,002188,-146828273.09000003,-146828273.09000003,2018-06-30,半年度报告,-144514615.71,2018,6,-1.9436110933982178,False,5.578528589543995,False,4.622610769582458,False,去年同期,-1809324190.3499994,未知,-1809324190.3499994
19,002188,-497734761.09,-497734761.09,2018-09-30,三季度报告,-193812574.21000004,2018,9,-0.9215087462765501,True,9.583354956166758,False,6.558901686831245,False,未知,未知,未知,未知
20,002188,-640856107.24,-640856107.24,2018-12-31,年度报告,-417496352.73,2018,12,-1.0026827945622059,False,40.10587232240882,False,0.0,True,去年同期,-640856107.24,未知,-640856107.24
21,002188,4725703.69,4725703.69,2019-03-31,一季度报告,-26940999.879999995,2019,3,-1.0658060425337248,False,101.69746741902664,False,0.11413568154208666,False,盈利变化,-567340688.8,未知,-567340688.8
22,002188,-26757332.239999995,-26757332.239999995,2019-06-30,半年度报告,-35343795.88000001,2019,6,-1.037154000419634,False,47.20255987376469,False,0.21008729979852833,False,去年同期,-299739069.26,未知,-299739069.26
23,002188,-35543382.12,-35543382.12,2019-09-30,三季度报告,-40307837.29,2019,9,-1.010960170248213,False,11.299653633471094,False,0.2533060387555973,False,去年同期,-259227160.64,未知,-259227160.64
24,002188,515828326.56000006,515828326.56000006,2019-12-31,年度报告,-51453674.40999999,2019,12,-1.00851245335477,False,-0.33933680368455477,True,0.0,True,盈利变化,-518841881.1333333,未知,-518841881.1333333
25,002188,-3614289.61,-3614289.61,2020-03-31,一季度报告,-3755045.89,2020,3,0.1543799776409598,True,-1.1054453867081175,True,0.28427011037093763,False,平均增速,-48644153.964749806,未知,-48644153.964749806
