,SECURITYCODE_x,NETPROFIT_x,PARENTNETPROFIT_x,REPORTDATE_x,REPORTTIMETYPE_x,KCFJCXSYJLR,Year,Month,managesituationChangeRate,managesituationGreatChange,historyprofitextroplaterate,ifhistoryprofitextroplate,IfprofitdisStableChangeRage,IfprofitdisStable,predicttype,predict,analyst_prediction,adj_prediction
0,002175,10870993.52,10870993.52,2013-12-31,年度报告,9391229.26,2013,12,未知,未知,未知,未知,未知,未知,未知,未知,未知,未知
1,002175,1554872.44,1554872.44,2014-03-31,一季度报告,974640.02,2014,3,未知,未知,未知,未知,未知,未知,未知,未知,未知,未知
2,002175,9464140.81,9464140.81,2014-06-30,半年度报告,8421116.559999999,2014,6,未知,未知,未知,未知,未知,未知,未知,未知,未知,未知
3,002175,9214510.13,9214510.13,2014-09-30,三季度报告,8580124.579999998,2014,9,未知,未知,未知,未知,未知,未知,未知,未知,未知,未知
4,002175,21745143.44,21738599.28,2014-12-31,年度报告,19422463.24,2014,12,0.0,True,未知,未知,未知,未知,未知,未知,未知,未知
5,002175,420905.83,551578.2000000001,2015-03-31,一季度报告,-90838.74,2015,3,5.991566150596895,False,未知,未知,未知,未知,未知,未知,46000000.0,未知
6,002175,15003037.869999995,15220833.87,2015-06-30,半年度报告,13762321.24,2015,6,0.1486508641665063,True,未知,未知,未知,未知,未知,未知,46000000.0,未知
7,002175,27504599.08,18983240.399999995,2015-09-30,三季度报告,17346632.8,2015,9,0.17976901285364355,True,未知,未知,未知,未知,未知,未知,92772703.0,未知
8,002175,66608121.41,53364864.86000001,2015-12-31,年度报告,45106136.16,2015,12,-0.500072577125295,True,未知,未知,未知,未知,未知,未知,46000000.0,未知
9,002175,5091828.68,3226734.43,2016-03-31,一季度报告,1640775.63,2016,3,24.827614504650597,False,未知,未知,未知,未知,未知,未知,77000000.0,未知
10,002175,25508127.939999994,22076596.42,2016-06-30,半年度报告,18971577.57,2016,6,-0.2754138452361313,True,未知,未知,未知,未知,未知,未知,,未知
11,002175,28261598.59,24365022.169999994,2016-09-30,三季度报告,15772413.579999998,2016,9,-0.6047572448381967,True,未知,未知,未知,未知,未知,未知,123940000.0,未知
12,002175,56299237.53,47375821.39000001,2016-12-31,年度报告,34701426.94,2016,12,-0.836791771185309,True,3.0843660603760226,False,0.0,True,比例外推,47375821.39000001,254361714.0,254361714.0
13,002175,13547736.65,13563306.66,2017-03-31,一季度报告,28260095.14,2017,3,1.1349880766216196,False,4.154251119484171,False,0.03383050169727884,True,去年同期,46623957.97,197070000.0,197070000.0
14,002175,23113513.97000001,29393908.9,2017-06-30,半年度报告,-15101391.449999996,2017,6,-0.5738223696552464,True,1.085089439498874,True,0.12335517550555292,False,平均增速,35291407.48658794,199000000.0,199000000.0
15,002175,1555945.7899999996,10185992.71,2017-09-30,三季度报告,-22893373.62,2017,9,-0.6153439981329804,True,0.539340098277945,True,0.04237776950087252,True,比例外推,-20541188.455370743,,-20541188.455370743
16,002175,-276617197.2,-270167963.66,2017-12-31,年度报告,-305811567.12999994,2017,12,-0.8069069138954643,True,0.2744121595411537,True,0.0,True,比例外推,-270167963.66,429645000.0,429645000.0
17,002175,-43640354.64999999,-40858266.05,2018-03-31,一季度报告,-41647300.79000001,2018,3,-0.1975786213706775,True,3.915069508761814,False,0.0766963608476884,True,比例外推,2651154266.2928333,未知,2651154266.2928333
18,002175,-74701618.13999999,-69078886.14,2018-06-30,半年度报告,-69934857.19000001,2018,6,-0.5296693728997713,True,0.14109349893330148,True,0.2510186242031911,False,平均增速,897922310.1860638,未知,897922310.1860638
19,002175,-114957704.97,-105851161.67,2018-09-30,三季度报告,-105838413.64,2018,9,5.986743104976687,False,0.9441975298654067,True,0.22978977112303606,False,盈利变化,-307032425.89111114,未知,-307032425.89111114
20,002175,-1037925794.64,-1017996134.6500003,2018-12-31,年度报告,-964534931.71,2018,12,-1.0392997746706978,False,5.501230838993732,False,0.0,True,去年同期,-1017996134.6500003,未知,-1017996134.6500003
21,002175,-21456655.260000005,-19390636.84,2019-03-31,一季度报告,-19612376.74,2019,3,-1.2491041515859909,False,5.68255067941544,False,0.09176053509418888,True,去年同期,-942278267.7600001,未知,-942278267.7600001
22,002175,-53031278.72,-48999542.87000001,2019-06-30,半年度报告,-50971844.00999999,2019,6,-1.1455255426947568,False,4.072772337810999,False,0.32384335374554085,False,去年同期,-943599617.39,未知,-943599617.39
23,002175,-95193263.17,-89066911.67,2019-09-30,三季度报告,-91602083.73,2019,9,-1.0945651578799085,False,8.710742608778167,False,0.24148146881286975,False,去年同期,-947763429.74,未知,-947763429.74
24,002175,145789293.0,153114926.98999998,2019-12-31,年度报告,-151772405.96999997,2019,12,-1.010473767562324,False,-8.422071593206853,True,0.0,True,盈利变化,-747075292.7366669,未知,-747075292.7366669
25,002175,-9284195.61,-9284195.61,2020-03-31,一季度报告,-9890605.44,2020,3,-1.5066490274589048,False,-0.42604111480097945,True,0.11907374399759732,False,前期平均,-637763842.205,未知,-637763842.205
