,SECURITYCODE_x,NETPROFIT_x,PARENTNETPROFIT_x,REPORTDATE_x,REPORTTIMETYPE_x,KCFJCXSYJLR,Year,Month,managesituationChangeRate,managesituationGreatChange,historyprofitextroplaterate,ifhistoryprofitextroplate,IfprofitdisStableChangeRage,IfprofitdisStable,predicttype,predict,analyst_prediction,adj_prediction
0,002102,25582459.33,28037311.79,2013-12-31,年度报告,-102811720.89999998,2013,12,未知,未知,未知,未知,未知,未知,未知,未知,未知,未知
1,002102,1618508.05,1710442.4,2014-03-31,一季度报告,760240.1100000001,2014,3,未知,未知,未知,未知,未知,未知,未知,未知,未知,未知
2,002102,2021672.61,2544192.91,2014-06-30,半年度报告,-2188952.75,2014,6,未知,未知,未知,未知,未知,未知,未知,未知,未知,未知
3,002102,419764.0,1163729.14,2014-09-30,三季度报告,-3966229.57,2014,9,未知,未知,未知,未知,未知,未知,未知,未知,未知,未知
4,002102,3197591.68,5691152.84,2014-12-31,年度报告,-78347175.03,2014,12,0.0,True,未知,未知,未知,未知,未知,未知,未知,未知
5,002102,24107424.4,24422145.63000001,2015-03-31,一季度报告,22299891.500000004,2015,3,14.806198387459363,False,未知,未知,未知,未知,未知,未知,,未知
6,002102,28462772.81,29093861.29,2015-06-30,半年度报告,5708766.77,2015,6,11.65410591381559,False,未知,未知,未知,未知,未知,未知,未知,未知
7,002102,52245910.78,53823820.37,2015-09-30,三季度报告,29383985.480000004,2015,9,59.944862660923754,False,未知,未知,未知,未知,未知,未知,未知,未知
8,002102,191301902.36,193289904.47,2015-12-31,年度报告,-32004518.039999995,2015,12,7.00053974683847,False,未知,未知,未知,未知,未知,未知,186000000.0,未知
9,002102,37987959.67000001,38891560.44000001,2016-03-31,一季度报告,36269708.35,2016,3,0.061185919554309576,True,未知,未知,未知,未知,未知,未知,未知,未知
10,002102,80063331.39999999,81030590.32999998,2016-06-30,半年度报告,47544530.53,2016,6,-0.10119581459006842,True,未知,未知,未知,未知,未知,未知,303500000.0,未知
11,002102,120564719.22,121977094.40999998,2016-09-30,三季度报告,72888749.35,2016,9,-0.5103452318455305,True,未知,未知,未知,未知,未知,未知,204000000.0,未知
12,002102,247518719.05,245401053.05,2016-12-31,年度报告,85994798.35,2016,12,-0.8662717985843245,True,12.294062772406464,False,0.0,True,比例外推,245401053.05,未知,245401053.05
13,002102,32558231.14,33397302.22000001,2017-03-31,一季度报告,51909041.88000002,2017,3,-0.3265640073266933,True,1.9532814597746493,True,0.6018697641366484,False,平均增速,147029735.06142682,未知,147029735.06142682
14,002102,77942289.44,78601608.28999999,2017-06-30,半年度报告,86063128.3,2017,6,-0.6804722101533737,True,4.252733339703314,False,0.41872942456584217,False,未知,未知,221500000.0,未知
15,002102,141461369.35000002,142400559.04999998,2017-09-30,三季度报告,145893733.42999998,2017,9,-0.7878113971026756,True,3.578493287084396,False,0.9114861573123363,False,未知,未知,246500000.0,未知
16,002102,278166690.25,282554111.86,2017-12-31,年度报告,281490513.81999993,2017,12,-0.8966443450087821,True,1.5451862512207488,True,0.0,True,比例外推,282554111.86,,282554111.86
17,002102,261099080.88000005,261900383.27000007,2018-03-31,一季度报告,242694500.47000003,2018,3,-0.21425524562450177,True,0.048652218763867175,True,0.6665735182360333,False,平均增速,1255475142.0010571,1360500000.0,1255475142.0010571
18,002102,326745397.44,328762180.7500001,2018-06-30,半年度报告,308124643.05999994,2018,6,-0.6717769068139398,True,0.43637864838823004,True,0.40512171653504564,False,平均增速,1067513599.6421657,,1067513599.6421657
19,002102,390502886.94,393090537.85000014,2018-09-30,三季度报告,368570285.76000017,2018,9,-0.819155862497665,True,0.6371836541536828,True,1.0673749175788567,False,平均增速,834216937.8040133,未知,834216937.8040133
20,002102,-2766262058.43,-2712495871.48,2018-12-31,年度报告,395335875.82,2018,12,-0.9080319095467255,True,0.2677922443854459,True,0.0,True,比例外推,-2712495871.48,1128633333.0,1128633333.0
21,002102,157376428.57,157591564.86,2019-03-31,一季度报告,148481091.83999997,2019,3,-0.902020109592965,True,6.402216275098697,False,0.22228172933299797,False,未知,未知,未知,未知
22,002102,281078308.70000005,279136689.20000005,2019-06-30,半年度报告,310228175.51,2019,6,-0.9217052190162903,True,3.135870555780667,False,0.24026497165289612,False,未知,未知,未知,未知
23,002102,643881154.42,641247464.48,2019-09-30,三季度报告,355115424.36,2019,9,-0.9344884245787134,True,1.9806412717997544,True,0.24777044617360844,False,平均增速,685442606.3366783,未知,685442606.3366783
24,002102,669819202.1899999,689188009.4100001,2019-12-31,年度报告,359837786.0,2019,12,-1.009248024514539,False,11.524401132280008,False,0.0,True,前期平均,689188009.4100001,未知,689188009.4100001
25,002102,84136981.31000002,83710162.74,2020-03-31,一季度报告,37278412.14,2020,3,-0.8374441486412236,True,0.0718372887597745,True,0.21923743021508793,False,平均增速,232546252.85930938,未知,232546252.85930938
