,SECURITYCODE_x,NETPROFIT_x,PARENTNETPROFIT_x,REPORTDATE_x,REPORTTIMETYPE_x,KCFJCXSYJLR,Year,Month,managesituationChangeRate,managesituationGreatChange,historyprofitextroplaterate,ifhistoryprofitextroplate,IfprofitdisStableChangeRage,IfprofitdisStable,predicttype,predict,analyst_prediction,adj_prediction
0,002185,200680403.83,199164273.88000005,2013-12-31,年度报告,188336248.82,2013,12,未知,未知,未知,未知,未知,未知,未知,未知,未知,未知
1,002185,48042416.70999999,48958976.67999999,2014-03-31,一季度报告,38408616.41,2014,3,未知,未知,未知,未知,未知,未知,未知,未知,未知,未知
2,002185,141493462.3,139302456.2,2014-06-30,半年度报告,120018737.63,2014,6,未知,未知,未知,未知,未知,未知,未知,未知,未知,未知
3,002185,228588767.2,224571458.9,2014-09-30,三季度报告,196319257.48,2014,9,未知,未知,未知,未知,未知,未知,未知,未知,未知,未知
4,002185,305777488.28,298183078.68,2014-12-31,年度报告,248840143.11000007,2014,12,0.0,True,未知,未知,未知,未知,未知,未知,未知,未知
5,002185,64804913.44,64265250.1,2015-03-31,一季度报告,50905332.28,2015,3,3.1771504760339946,False,未知,未知,未知,未知,未知,未知,427532080.0,未知
6,002185,172102794.64,170902586.74,2015-06-30,半年度报告,118432810.07,2015,6,0.4183015990131722,True,未知,未知,未知,未知,未知,未知,394325455.0,未知
7,002185,265244127.54,260707350.79,2015-09-30,三季度报告,184623932.09000003,2015,9,-0.1220898284366791,True,未知,未知,未知,未知,未知,未知,379520000.0,未知
8,002185,328332692.90000004,318516127.68,2015-12-31,年度报告,211215485.05,2015,12,-0.34370445333033384,True,未知,未知,未知,未知,未知,未知,434144444.0,未知
9,002185,82679695.85999998,77290400.08999999,2016-03-31,一季度报告,66231370.99000001,2016,3,2.096685007006469,False,未知,未知,未知,未知,未知,未知,413360000.0,未知
10,002185,192158183.41,179993838.38000005,2016-06-30,半年度报告,160349699.54,2016,6,0.16604965218477657,True,未知,未知,未知,未知,未知,未知,392937500.0,未知
11,002185,311502662.51000005,291441057.63,2016-09-30,三季度报告,253628689.52,2016,9,-0.2434124529307948,True,未知,未知,未知,未知,未知,未知,394534481.0,未知
12,002185,413280817.05,390920674.34,2016-12-31,年度报告,341040999.19000006,2016,12,-0.38878945603165677,True,0.29658436768396884,True,0.0,True,比例外推,390920674.34,394534481.0,390920674.34
13,002185,125941702.68000002,114474064.97999996,2017-03-31,一季度报告,107829043.56,2017,3,1.4272029758044644,False,0.46533720824586106,True,0.04448954015293252,True,前期平均,299844904.71500003,548725000.0,548725000.0
14,002185,279015881.77,254993014.70999995,2017-06-30,半年度报告,240127462.28,2017,6,0.04435002594615763,True,0.2255132461403415,True,0.056316933956049975,True,比例外推,490927923.55440694,572538000.0,572538000.0
15,002185,427946980.71,387694302.00000006,2017-09-30,三季度报告,350883916.80000013,2017,9,-0.3557666499124782,True,0.2615711339926203,True,0.07185917773154216,True,比例外推,474188938.0178572,546382017.0,546382017.0
16,002185,547018340.0600002,495169978.15000015,2017-12-31,年度报告,423416413.0700002,2017,12,-0.5144211984905144,True,0.3034984433807257,True,0.0,True,比例外推,495169978.15000015,546489882.0,495169978.15000015
17,002185,93767960.07,81300293.57,2018-03-31,一季度报告,72503815.35000001,2018,3,0.5934388654399918,False,0.7078623088572,True,0.03575619092778523,True,前期平均,298860184.055,629164000.0,629164000.0
18,002185,236105091.78,210483588.1,2018-06-30,半年度报告,192522070.4100001,2018,6,-0.2807563406178216,True,0.5319559249176623,True,0.062494947528613454,True,比例外推,379388474.21414506,576740000.0,576740000.0
19,002185,364807740.71,327403023.92999995,2018-09-30,三季度报告,282800600.2,2018,9,-0.5310624612958961,True,0.48400299088929427,True,0.0718066014076657,True,比例外推,391385834.4940993,508772500.0,508772500.0
20,002185,429237139.37,389826128.22000015,2018-12-31,年度报告,307687586.37,2018,12,-0.6331377046554084,True,0.47521136743283016,True,0.0,True,比例外推,389826128.22000015,444600000.0,444600000.0
21,002185,18192853.08,16657858.900000002,2019-03-31,一季度报告,830028.5500000002,2019,3,1.1401809709861168,False,0.10107054476464557,True,0.033966074600125185,True,前期平均,311856357.7550001,408200000.0,408200000.0
22,002185,100693311.84,85610167.48000002,2019-06-30,半年度报告,24943810.29000001,2019,6,-0.15003779750336052,True,0.002199014030206082,True,0.08415695759424563,True,比例外推,105664144.68691754,402196250.0,402196250.0
23,002185,190221514.53,167595332.98000002,2019-09-30,三季度报告,83118001.21,2019,9,-0.44990091646786423,True,0.013299298863917668,True,0.08861512064075394,True,比例外推,184559099.1556152,311942222.0,311942222.0
24,002185,292914147.04,286794698.20999986,2019-12-31,年度报告,151608683.08,2019,12,-0.5324719475007622,True,0.10603453894142731,True,0.0,True,比例外推,286794698.20999986,308703333.0,286794698.20999986
25,002185,70940591.86999999,62655326.48,2020-03-31,一季度报告,48727459.21999999,2020,3,10.030727448165596,False,0.834391871051197,True,0.15978523199269512,False,前期平均,338040896.7450001,600935385.0,600935385.0
