,SECURITYCODE_x,NETPROFIT_x,PARENTNETPROFIT_x,REPORTDATE_x,REPORTTIMETYPE_x,KCFJCXSYJLR,Year,Month,managesituationChangeRate,managesituationGreatChange,historyprofitextroplaterate,ifhistoryprofitextroplate,IfprofitdisStableChangeRage,IfprofitdisStable,predicttype,predict,analyst_prediction,adj_prediction
0,002131,52602070.53,55990125.47,2013-12-31,年度报告,32781214.23,2013,12,未知,未知,未知,未知,未知,未知,未知,未知,未知,未知
1,002131,119593290.16,90535775.39000002,2014-03-31,一季度报告,32688473.530000005,2014,3,未知,未知,未知,未知,未知,未知,未知,未知,未知,未知
2,002131,156354098.16000003,125415789.11999996,2014-06-30,半年度报告,71741538.83000001,2014,6,未知,未知,未知,未知,未知,未知,未知,未知,未知,未知
3,002131,174110773.33999997,142359431.53,2014-09-30,三季度报告,89689738.31,2014,9,未知,未知,未知,未知,未知,未知,未知,未知,未知,未知
4,002131,213125866.24,179916115.75,2014-12-31,年度报告,93832078.95,2014,12,0.0,True,未知,未知,未知,未知,未知,未知,未知,未知
5,002131,78441425.27000001,75363609.71000001,2015-03-31,一季度报告,46201291.31,2015,3,-0.5601586806448305,True,未知,未知,未知,未知,未知,未知,541004449.0,未知
6,002131,165689070.02,155103252.96,2015-06-30,半年度报告,120173922.44,2015,6,-0.6635708871783371,True,未知,未知,未知,未知,未知,未知,483266667.0,未知
7,002131,184681225.34,171724173.37999997,2015-09-30,三季度报告,148266358.27,2015,9,-0.6978815869866952,True,未知,未知,未知,未知,未知,未知,479000000.0,未知
8,002131,239974766.63000005,225410543.63,2015-12-31,年度报告,204280689.15,2015,12,-0.7531877690023553,True,未知,未知,未知,未知,未知,未知,469203333.0,未知
9,002131,137871030.53,133852370.62,2016-03-31,一季度报告,117149598.32000002,2016,3,-0.3294095517905166,True,未知,未知,未知,未知,未知,未知,834211250.0,未知
10,002131,284488569.59000003,272896626.02000004,2016-06-30,半年度报告,254130170.38000005,2016,6,-0.6825254042185733,True,未知,未知,未知,未知,未知,未知,741916667.0,未知
11,002131,450380811.7500002,435642754.96999985,2016-09-30,三季度报告,408986942.67,2016,9,-0.715173697634077,True,未知,未知,未知,未知,未知,未知,583266667.0,未知
12,002131,580386152.4099997,562532890.65,2016-12-31,年度报告,520109631.06000006,2016,12,-0.7808016598215788,True,0.806168892491793,True,0.0,True,比例外推,562532890.65,585464000.0,562532890.65
13,002131,153803776.98,150108551.56000003,2017-03-31,一季度报告,147102785.04999998,2017,3,-0.6184690117438842,True,0.39239254320269656,True,0.08177938795401546,True,比例外推,554794345.0786729,792733750.0,792733750.0
14,002131,330930931.45999986,319016560.21,2017-06-30,半年度报告,295364307.45,2017,6,-0.8150995289342936,True,0.7667728907137717,True,0.15075336656500016,False,平均增速,787649344.5105953,687500000.0,687500000.0
15,002131,459850085.64,445357299.94,2017-09-30,三季度报告,410204084.8200002,2017,9,-0.883205347213596,True,1.5105398861008972,True,0.13318752371923503,False,平均增速,632296047.5769738,720285000.0,720285000.0
16,002131,435998361.37000006,421182750.63000005,2017-12-31,年度报告,305889125.0,2017,12,-0.9093671165110078,True,1.5618421617897822,True,0.0,True,比例外推,421182750.63000005,656000000.0,656000000.0
17,002131,111396447.18,109989155.26000002,2018-03-31,一季度报告,92830294.57999998,2018,3,-0.6579923356704033,True,0.4220519702499719,True,0.1701328919757676,False,平均增速,284506968.6350155,622000000.0,622000000.0
18,002131,174538407.76999998,170443181.26999998,2018-06-30,半年度报告,116531224.93,2018,6,-0.8410481900318885,True,0.4702237620984173,True,0.284766042913708,False,平均增速,180766043.10879302,502000000.0,502000000.0
19,002131,255581557.89999995,250872727.76999995,2018-09-30,三季度报告,177804261.18,2018,9,-0.8856103930984581,True,0.44820524226936476,True,0.38996648547904045,False,平均增速,146529485.68064368,252000000.0,252000000.0
20,002131,-1851948229.57,-1859508127.77,2018-12-31,年度报告,-1966913852.66,2018,12,-0.8793525958108809,True,0.06294278835274783,True,0.0,True,比例外推,-1859508127.77,252000000.0,252000000.0
21,002131,137635260.52,135302867.49,2019-03-31,一季度报告,49369262.11000001,2019,3,-0.527794001858938,True,0.23615996780125886,True,0.266844777215876,False,平均增速,2595864530.269493,未知,2595864530.269493
22,002131,234038721.44,226286025.5,2019-06-30,半年度报告,130321589.94,2019,6,-0.6986218036358107,True,0.43278232986699083,True,0.5242309983703095,False,平均增速,2104171940.9586446,未知,2104171940.9586446
23,002131,319860050.11,308693841.35,2019-09-30,三季度报告,202282112.5,2019,9,-0.7941867521185494,True,0.43842478071694646,True,0.7693882872429041,False,平均增速,2221082037.4624457,未知,2221082037.4624457
24,002131,308894237.44,307609363.91000015,2019-12-31,年度报告,124422026.5,2019,12,-1.0284036398480823,False,4.644188207241539,False,0.0,True,前期平均,307609363.91000015,,307609363.91000015
25,002131,87929719.32,87699230.2,2020-03-31,一季度报告,80575986.58,2020,3,-0.6178154469191686,True,0.03797242974396747,True,0.32402763124470535,False,平均增速,67009459.51998618,未知,67009459.51998618
