,SECURITYCODE_x,NETPROFIT_x,PARENTNETPROFIT_x,REPORTDATE_x,REPORTTIMETYPE_x,KCFJCXSYJLR,Year,Month,managesituationChangeRate,managesituationGreatChange,historyprofitextroplaterate,ifhistoryprofitextroplate,IfprofitdisStableChangeRage,IfprofitdisStable,predicttype,predict,analyst_prediction,adj_prediction
0,002150,50629094.58999999,48222737.75000001,2013-12-31,年度报告,47575247.28000001,2013,12,未知,未知,未知,未知,未知,未知,未知,未知,未知,未知
1,002150,11737434.500000002,11148255.28,2014-03-31,一季度报告,10761106.05,2014,3,未知,未知,未知,未知,未知,未知,未知,未知,未知,未知
2,002150,30138055.70000001,28948071.35,2014-06-30,半年度报告,28223059.11000001,2014,6,未知,未知,未知,未知,未知,未知,未知,未知,未知,未知
3,002150,45902088.69,44425000.18,2014-09-30,三季度报告,43220024.91,2014,9,未知,未知,未知,未知,未知,未知,未知,未知,未知,未知
4,002150,60741545.39,58420514.89999999,2014-12-31,年度报告,57094842.65,2014,12,0.0,True,未知,未知,未知,未知,未知,未知,未知,未知
5,002150,13395040.909999995,12748644.220000004,2015-03-31,一季度报告,12638294.74,2015,3,3.313471959311039,False,未知,未知,未知,未知,未知,未知,未知,未知
6,002150,32487059.12,30487879.72000001,2015-06-30,半年度报告,29762914.0,2015,6,0.6799058006253526,False,未知,未知,未知,未知,未知,未知,未知,未知
7,002150,54351361.8,51370559.34,2015-09-30,三季度报告,50088967.07,2015,9,0.10298019185845443,True,未知,未知,未知,未知,未知,未知,未知,未知
8,002150,70428661.78,66320452.28,2015-12-31,年度报告,65029836.86000001,2015,12,-0.16648326503831173,True,未知,未知,未知,未知,未知,未知,未知,未知
9,002150,14939086.04,14104915.21,2016-03-31,一季度报告,13899326.409999995,2016,3,2.7796894335875537,False,未知,未知,未知,未知,未知,未知,65052000.0,未知
10,002150,40348312.64,38041354.73,2016-06-30,半年度报告,37716258.7,2016,6,0.5584388356910771,False,未知,未知,未知,未知,未知,未知,75000000.0,未知
11,002150,69026150.97999999,65077486.42,2016-09-30,三季度报告,61283079.79,2016,9,-0.06848526121014338,True,未知,未知,未知,未知,未知,未知,83000000.0,未知
12,002150,106801731.62999998,99329613.55,2016-12-31,年度报告,98453689.73,2016,12,-0.2811293966062919,True,0.26476173240357825,True,0.0,True,比例外推,99329613.55,未知,99329613.55
13,002150,21758922.17,19532427.3,2017-03-31,一季度报告,19355296.66,2017,3,2.3890356113110647,False,0.18882726801004765,True,0.033490414391663004,True,前期平均,68895066.66000001,110000000.0,110000000.0
14,002150,47997738.59,43001016.26,2017-06-30,半年度报告,42707910.79,2017,6,0.25480079035096886,True,0.2885665042202631,True,0.06194240145678531,True,比例外推,96259751.3165359,,96259751.3165359
15,002150,71605587.28000002,64166058.84999999,2017-09-30,三季度报告,63564401.21999998,2017,9,-0.26652299351488484,True,0.3770329229094246,True,0.09410687676698981,True,比例外推,89309030.54202835,未知,89309030.54202835
16,002150,81724798.92999999,70767046.05,2017-12-31,年度报告,72496246.96000001,2017,12,-0.5259524933041575,True,0.6284449637497661,True,0.0,True,比例外推,70767046.05,,70767046.05
17,002150,15342279.65,12409198.42,2018-03-31,一季度报告,12308277.49,2018,3,1.3268199681234478,False,0.5358808978584043,True,0.06614815958834716,True,前期平均,80882151.14,未知,80882151.14
18,002150,56724029.71000001,49610338.0,2018-06-30,半年度报告,47669798.32,2018,6,0.05482249950309555,True,0.31797881798853056,True,0.11248102295287721,False,平均增速,82993305.35988069,未知,82993305.35988069
19,002150,104260671.51,91884152.67,2018-09-30,三季度报告,89601015.03000002,2018,9,-0.2929449151499232,True,0.16075588924674097,True,0.13404329455085962,False,平均增速,103204253.10862492,未知,103204253.10862492
20,002150,141726495.09,121170152.20000002,2018-12-31,年度报告,121540427.51000002,2018,12,-0.38049288278622145,True,0.07775638977519993,True,0.0,True,比例外推,121170152.20000002,未知,121170152.20000002
21,002150,27966051.37,22974279.08,2019-03-31,一季度报告,22913064.19,2019,3,2.299972086612304,False,0.16386308694435817,True,0.09717385752059729,True,前期平均,91821935.89000002,未知,91821935.89000002
22,002150,78713190.11,67341110.21,2019-06-30,半年度报告,67263244.39999999,2019,6,-0.10744890923935063,True,0.28413276926944336,True,0.1343034831950743,False,平均增速,164017519.68703717,未知,164017519.68703717
23,002150,130677828.28,113763047.39,2019-09-30,三季度报告,112949807.99000002,2019,9,-0.5143989209282622,True,0.4827473911648998,True,0.13130799534023974,False,平均增速,153160533.795835,未知,153160533.795835
24,002150,178150943.64999998,152705188.75,2019-12-31,年度报告,150855349.07999998,2019,12,-0.642769021008745,True,0.5035177772488046,True,0.0,True,比例外推,152705188.75,未知,152705188.75
25,002150,27941770.42,24041855.680000003,2020-03-31,一季度报告,23557345.6,2020,3,0.8103769431072166,False,0.5075550115966567,True,0.09360340396524022,True,前期平均,105228405.84000002,未知,105228405.84000002
