,SECURITYCODE_x,NETPROFIT_x,PARENTNETPROFIT_x,REPORTDATE_x,REPORTTIMETYPE_x,KCFJCXSYJLR,Year,Month,managesituationChangeRate,managesituationGreatChange,historyprofitextroplaterate,ifhistoryprofitextroplate,IfprofitdisStableChangeRage,IfprofitdisStable,predicttype,predict,analyst_prediction,adj_prediction
0,002154,159392963.98999998,160738212.88,2013-12-31,年度报告,42806966.58,2013,12,未知,未知,未知,未知,未知,未知,未知,未知,未知,未知
1,002154,54126841.16000001,54110090.16000001,2014-03-31,一季度报告,41642517.8,2014,3,未知,未知,未知,未知,未知,未知,未知,未知,未知,未知
2,002154,67227086.32,67095219.41,2014-06-30,半年度报告,-1658883.41,2014,6,未知,未知,未知,未知,未知,未知,未知,未知,未知,未知
3,002154,126948003.05999996,126948003.05999996,2014-09-30,三季度报告,47850356.11,2014,9,未知,未知,未知,未知,未知,未知,未知,未知,未知,未知
4,002154,134169528.33,134058225.05,2014-12-31,年度报告,21194349.49,2014,12,0.0,True,未知,未知,未知,未知,未知,未知,未知,未知
5,002154,68580788.91999999,68580788.91999999,2015-03-31,一季度报告,60775836.51000001,2015,3,1.9448044736036088,False,未知,未知,未知,未知,未知,未知,207330000.0,未知
6,002154,75199297.95000002,75199297.95000002,2015-06-30,半年度报告,51840446.22000001,2015,6,1.3709634421948869,False,未知,未知,未知,未知,未知,未知,215272385.0,未知
7,002154,165461426.67999998,165461426.67999998,2015-09-30,三季度报告,133961639.8,2015,9,0.2555767727568383,True,未知,未知,未知,未知,未知,未知,187408000.0,未知
8,002154,100017098.36,100017098.36,2015-12-31,年度报告,21469408.440000005,2015,12,0.18799675286896034,True,未知,未知,未知,未知,未知,未知,167670000.0,未知
9,002154,9492655.91,9492655.91,2016-03-31,一季度报告,4385047.36,2016,3,1.324163464726734,False,未知,未知,未知,未知,未知,未知,123453333.0,未知
10,002154,-97440729.24000002,-97440729.24000002,2016-06-30,半年度报告,-138058251.81,2016,6,1.119607075267914,False,未知,未知,未知,未知,未知,未知,-95035000.0,未知
11,002154,-100791655.19999996,-100791655.19999996,2016-09-30,三季度报告,-137592944.97999996,2016,9,-0.03667599640450531,True,未知,未知,未知,未知,未知,未知,,未知
12,002154,-387170922.31,-386697100.08,2016-12-31,年度报告,-432815063.12000006,2016,12,0.5936571506632137,False,0.31859756626554586,True,0.0,True,盈利变化,-51411058.8266667,135000000.0,135000000.0
13,002154,13518989.68,14062924.97,2017-03-31,一季度报告,9343253.47,2017,3,15.791187366444843,False,0.8452801035467605,True,1.605289085298872,False,前期平均,-15814373.220000004,未知,-15814373.220000004
14,002154,-32290068.759999994,-30602597.19,2017-06-30,半年度报告,-38967464.22,2017,6,-2.6357940384190823,False,2.3682960462617664,False,1.529510349944152,False,去年同期,-325359408.50000006,-63525000.0,-63525000.0
15,002154,-34110433.04,-32149292.5,2017-09-30,三季度报告,-39009172.32,2017,9,-2.5814103228458545,False,1.6893871739336197,True,3.301235938941749,False,前期平均,-101723411.49,,-101723411.49
16,002154,30427000.54000001,25928830.33999999,2017-12-31,年度报告,4608342.78,2017,12,-1.411686298751478,False,4.306516070386119,False,0.0,True,前期平均,25928830.33999999,未知,25928830.33999999
17,002154,32064620.930000003,35186218.21,2018-03-31,一季度报告,24057482.86000001,2018,3,10.790301476877818,False,0.6536853290017688,True,1.626179605467676,False,前期平均,-203067051.06500003,69000000.0,69000000.0
18,002154,37103084.24,39390148.45,2018-06-30,半年度报告,17194056.41,2018,6,-5.9362844401078325,False,-1.903596296387451,True,6.5484335187715965,False,盈利变化,63369844.09333332,150000000.0,150000000.0
19,002154,67315414.27999999,70618368.9,2018-09-30,三季度报告,33788921.55,2018,9,-5.6728507903457555,False,2.054911197592498,False,7.8291198369375605,False,盈利变化,58283538.72666666,,58283538.72666666
20,002154,50928754.16,51837510.56999999,2018-12-31,年度报告,-16848292.220000006,2018,12,4.238536864008611,False,-1.2119212631157443,True,0.0,True,前期平均,51837510.56999999,未知,51837510.56999999
21,002154,88967731.83,91194650.63,2019-03-31,一季度报告,66906434.81,2019,3,3.970991683886405,False,1.7868168579768229,True,1.8309832897071607,False,前期平均,-129772859.95500004,145000000.0,145000000.0
22,002154,106843482.12999997,111665474.15999998,2019-06-30,半年度报告,69252382.44,2019,6,3.295949171205611,False,-1.572001171842017,True,5.403386376100146,False,前期平均,-13925027.99500005,157000000.0,157000000.0
23,002154,157570968.13000005,163323787.25,2019-09-30,三季度报告,114934588.09999998,2019,9,1.3678523811351935,False,-1.9979892106672408,True,5.080742297420441,False,前期平均,37521485.72999996,215000000.0,215000000.0
24,002154,204250133.03,210088660.45,2019-12-31,年度报告,107173024.62,2019,12,2.129724388883421,False,-1.285519954522644,True,0.0,True,前期平均,210088660.45,未知,210088660.45
25,002154,63019101.51,65112159.56000001,2020-03-31,一季度报告,51893565.69000001,2020,3,0.7915817421823104,False,2.90349648215372,False,1.8358420841404823,False,去年同期,105378749.37,105000000.0,105378749.37
