,SECURITYCODE_x,NETPROFIT_x,PARENTNETPROFIT_x,REPORTDATE_x,REPORTTIMETYPE_x,KCFJCXSYJLR,Year,Month,managesituationChangeRate,managesituationGreatChange,historyprofitextroplaterate,ifhistoryprofitextroplate,IfprofitdisStableChangeRage,IfprofitdisStable,predicttype,predict,analyst_prediction,adj_prediction
0,002158,149208317.82000002,149208317.82000002,2013-12-31,年度报告,137895439.85999995,2013,12,未知,未知,未知,未知,未知,未知,未知,未知,未知,未知
1,002158,29146927.059999995,29146927.059999995,2014-03-31,一季度报告,26617182.57,2014,3,未知,未知,未知,未知,未知,未知,未知,未知,未知,未知
2,002158,85806892.13,85806892.13,2014-06-30,半年度报告,81399651.75000001,2014,6,未知,未知,未知,未知,未知,未知,未知,未知,未知,未知
3,002158,148685242.62000003,148685242.62000003,2014-09-30,三季度报告,138376163.98,2014,9,未知,未知,未知,未知,未知,未知,未知,未知,未知,未知
4,002158,183347552.74,183347552.74,2014-12-31,年度报告,169537865.95000002,2014,12,0.0,True,未知,未知,未知,未知,未知,未知,未知,未知
5,002158,28134475.66,28134475.66,2015-03-31,一季度报告,24712406.58,2015,3,4.119178344696487,False,未知,未知,未知,未知,未知,未知,224584000.0,未知
6,002158,77299677.41,77299677.41,2015-06-30,半年度报告,69263642.75000001,2015,6,0.7388850023136251,False,未知,未知,未知,未知,未知,未知,173666667.00000003,未知
7,002158,126898548.76,126898548.76,2015-09-30,三季度报告,112945691.25,2015,9,0.0035180034735311917,True,未知,未知,未知,未知,未知,未知,168000000.0,未知
8,002158,156712908.84000003,156712908.84000003,2015-12-31,年度报告,154092901.55,2015,12,-0.18619956694165354,True,未知,未知,未知,未知,未知,未知,173500000.0,未知
9,002158,24082914.66,24082914.66,2016-03-31,一季度报告,20435185.630000006,2016,3,4.303397853336785,False,未知,未知,未知,未知,未知,未知,190000000.0,未知
10,002158,80603648.38000001,80820742.07000001,2016-06-30,半年度报告,72706312.56,2016,6,0.9302579625086178,False,未知,未知,未知,未知,未知,未知,187800000.0,未知
11,002158,126698934.05,128885030.84,2016-09-30,三季度报告,118721668.42000002,2016,9,0.1758079133134447,True,未知,未知,未知,未知,未知,未知,173996667.00000003,未知
12,002158,201635448.34,207001861.60000005,2016-12-31,年度报告,137587931.82,2016,12,-0.04788751019650851,True,0.05752432771006679,True,0.0,True,比例外推,207001861.60000005,,207001861.60000005
13,002158,27763222.01,28107731.68,2017-03-31,一季度报告,17475307.289999995,2017,3,5.1956087926443715,False,0.15913669999595287,True,0.006774259670906363,True,前期平均,164258320.85500002,201947500.0,201947500.0
14,002158,102805443.45,103064089.95000002,2017-06-30,半年度报告,66738906.55,2017,6,0.8511360319146885,False,0.011644367148155838,True,0.04241702091189509,True,前期平均,189547826.45000002,191000000.0,189547826.45000002
15,002158,175410607.76,176770090.23,2017-09-30,三季度报告,109884988.72,2017,9,0.17766040368671931,True,0.08050518199529408,True,0.0710439647730301,True,比例外推,203555359.60449153,172795000.0,172795000.0
16,002158,223809730.73999995,226930127.91,2017-12-31,年度报告,145290853.54,2017,12,-0.26000949213848923,True,0.1858799897121517,True,0.0,True,比例外推,226930127.91,195000000.0,195000000.0
17,002158,29126071.69,29088899.559999995,2018-03-31,一季度报告,22099397.25,2018,3,4.37431562396673,False,0.06337072151100183,True,0.022780594399326295,True,前期平均,152355520.14000002,305280000.0,305280000.0
18,002158,104520030.33,104538181.05,2018-06-30,半年度报告,90535005.78,2018,6,0.45136592784182983,True,0.30213145208510417,True,0.04934360460204473,True,比例外推,202975384.36119777,313000000.0,313000000.0
19,002158,159584130.16000003,159471643.84000003,2018-09-30,三季度报告,140561278.47,2018,9,-0.1493768836138486,True,0.3833781456846787,True,0.07882505257559846,True,比例外推,198185488.36090237,235060000.0,235060000.0
20,002158,202755357.32,202633452.54,2018-12-31,年度报告,172307381.27,2018,12,-0.3333251537962149,True,0.2491182183797721,True,0.0,True,比例外推,202633452.54,,202633452.54
21,002158,26608832.64,26849476.03,2019-03-31,一季度报告,19313936.03,2019,3,4.122843870195803,False,0.12355803385648871,True,0.01617178039291986,True,前期平均,149333622.25,,149333622.25
22,002158,94796984.08,95266262.47,2019-06-30,半年度报告,79632289.72999999,2019,6,0.42755716152115686,True,0.13974753690922292,True,0.0450562401728401,True,比例外推,173508259.62905106,207120000.0,207120000.0
23,002158,170146228.63,170426431.57,2019-09-30,三季度报告,145740505.61999995,2019,9,-0.06501782056647581,True,0.05646534170287301,True,0.055338840858917604,True,比例外推,204246864.22573143,235730000.0,235730000.0
24,002158,244851293.31,246235156.32,2019-12-31,年度报告,212752158.18,2019,12,-0.26409679235004874,True,0.046855541959852594,True,0.0,True,比例外推,246235156.32,254995000.0,246235156.32
25,002158,29358270.63000001,28949777.7,2020-03-31,一季度报告,20516404.24,2020,3,4.60747327170231,False,0.06453988406609452,True,0.022323661393958985,True,前期平均,167961542.83499998,318986667.0,318986667.0
