,SECURITYCODE_x,NETPROFIT_x,PARENTNETPROFIT_x,REPORTDATE_x,REPORTTIMETYPE_x,KCFJCXSYJLR,Year,Month,managesituationChangeRate,managesituationGreatChange,historyprofitextroplaterate,ifhistoryprofitextroplate,IfprofitdisStableChangeRage,IfprofitdisStable,predicttype,predict,analyst_prediction,adj_prediction
0,002161,47665687.97,39047846.19,2013-12-31,年度报告,14903010.53,2013,12,未知,未知,未知,未知,未知,未知,未知,未知,未知,未知
1,002161,-2748677.29,-4831781.43,2014-03-31,一季度报告,-9522799.07,2014,3,未知,未知,未知,未知,未知,未知,未知,未知,未知,未知
2,002161,-2899561.63,-7065981.6099999985,2014-06-30,半年度报告,-13886306.62,2014,6,未知,未知,未知,未知,未知,未知,未知,未知,未知,未知
3,002161,16144015.99,10508165.93,2014-09-30,三季度报告,3016869.8600000013,2014,9,未知,未知,未知,未知,未知,未知,未知,未知,未知,未知
4,002161,54885400.03999999,46194999.29,2014-12-31,年度报告,23018281.6,2014,12,0.0,True,未知,未知,未知,未知,未知,未知,未知,未知
5,002161,1630045.2999999996,2826188.31,2015-03-31,一季度报告,2002008.97,2015,3,-18.341318365532825,False,未知,未知,未知,未知,未知,未知,93500000.0,未知
6,002161,1704483.08,4135891.21,2015-06-30,半年度报告,2476557.5500000003,2015,6,-17.438929070116025,False,未知,未知,未知,未知,未知,未知,87335000.0,未知
7,002161,-401757.06,3471784.79,2015-09-30,三季度报告,-1192596.66,2015,9,1.95252977942572,False,未知,未知,未知,未知,未知,未知,79410000.0,未知
8,002161,12520608.999999998,18959292.270000003,2015-12-31,年度报告,1808566.41,2015,12,-0.13154157689910853,True,未知,未知,未知,未知,未知,未知,,未知
9,002161,5088849.87,1540918.9600000004,2016-03-31,一季度报告,-1185789.02,2016,3,28.241940681035068,False,未知,未知,未知,未知,未知,未知,,未知
10,002161,-5422603.25,-4203563.54,2016-06-30,半年度报告,-8088571.930000002,2016,6,26.96489359694905,False,未知,未知,未知,未知,未知,未知,未知,未知
11,002161,-17372118.919999994,-16325254.9,2016-09-30,三季度报告,-21506549.58,2016,9,-119.64306247661212,False,未知,未知,未知,未知,未知,未知,未知,未知
12,002161,38024576.99999999,40271299.24,2016-12-31,年度报告,-8334662.42,2016,12,2.8069783961786525,False,0.7558171396722951,True,0.0,True,前期平均,40271299.24,83220000.0,83220000.0
13,002161,-15737394.14,-15428169.23,2017-03-31,一季度报告,-16027798.420000002,2017,3,8.366691725570595,False,-10.098344970449125,True,0.8284506774184339,False,盈利变化,20481953.37333333,未知,20481953.37333333
14,002161,-23214436.69,-22333000.12,2017-06-30,半年度报告,-24437878.54000001,2017,6,-9.790185409563202,False,-8.074890098228272,True,1.1821227216230317,False,前期平均,-4214701.580000002,49720000.0,49720000.0
15,002161,-35231296.87,-33157565.430000003,2017-09-30,三季度报告,-35711892.77,2017,9,-3.743803918768017,False,3.2070681211949794,False,1.8963667319879538,False,去年同期,-19985678.270000003,,-19985678.270000003
16,002161,2433150.18,2269374.92,2017-12-31,年度报告,-40463881.15,2017,12,0.25354946012943175,True,0.12822514020776676,True,0.0,True,比例外推,2269374.92,未知,2269374.92
17,002161,-24978214.45,-22964755.45,2018-03-31,一季度报告,-27214204.28,2018,3,-4.028817067550422,False,5.684518434003191,False,0.5585149211665573,False,去年同期,-47400838.17999999,未知,-47400838.17999999
18,002161,-68496536.82,-63552391.74999999,2018-06-30,半年度报告,-68062255.95,2018,6,-3.053277820457852,False,-11.487190100690048,True,0.388093321361049,False,前期平均,-64009432.56499999,未知,-64009432.56499999
19,002161,-81625796.74,-72912252.5,2018-09-30,三季度报告,-107162764.17999996,2018,9,-2.3529359462946164,False,-2.9643909870468232,True,1.645867351455272,False,前期平均,-64825727.385,未知,-64825727.385
20,002161,-195470117.84,-179030863.7,2018-12-31,年度报告,-255675983.9100001,2018,12,18.59011341009785,False,0.9037237619424331,True,0.0,True,盈利变化,-69467992.66666669,未知,-69467992.66666669
21,002161,51521545.74,51662164.22000001,2019-03-31,一季度报告,16764269.310000002,2019,3,-2.9082904450762292,False,-3.6913857550220803,True,0.18116350877190526,False,盈利变化,-120392898.91333333,未知,-120392898.91333333
22,002161,85307038.91,87075872.12999998,2019-06-30,半年度报告,37539036.41,2019,6,-1.6958846415149316,False,-3.7837721331194256,True,0.35693318727932033,False,盈利变化,-108630002.12666665,未知,-108630002.12666665
23,002161,642670082.43,645219831.98,2019-09-30,三季度报告,22461318.54,2019,9,-1.5839537238678107,False,-2.1034409273291796,True,1.2863505159287871,False,盈利变化,-121420160.26888889,未知,-121420160.26888889
24,002161,737117394.2000003,743231193.7299999,2019-12-31,年度报告,5566969.0,2019,12,-1.2438515334042834,False,10.662931235377421,False,0.0,True,前期平均,743231193.7299999,未知,743231193.7299999
25,002161,-125661450.35000002,-125049207.26000002,2020-03-31,一季度报告,-21979315.63,2020,3,-0.07483971442662704,True,-3.530800718653828,True,1.840074032768399,False,平均增速,-111279296.69083048,未知,-111279296.69083048
