,SECURITYCODE_x,NETPROFIT_x,PARENTNETPROFIT_x,REPORTDATE_x,REPORTTIMETYPE_x,KCFJCXSYJLR,Year,Month,managesituationChangeRate,managesituationGreatChange,historyprofitextroplaterate,ifhistoryprofitextroplate,IfprofitdisStableChangeRage,IfprofitdisStable,predicttype,predict,analyst_prediction,adj_prediction
0,002241,1324522036.7400002,1306626480.47,2013-12-31,年度报告,1268696742.05,2013,12,未知,未知,未知,未知,未知,未知,未知,未知,未知,未知
1,002241,263323777.40000004,257802916.83,2014-03-31,一季度报告,233947202.26,2014,3,未知,未知,未知,未知,未知,未知,未知,未知,未知,未知
2,002241,616942603.0400001,607530996.87,2014-06-30,半年度报告,564468797.9,2014,6,未知,未知,未知,未知,未知,未知,未知,未知,未知,未知
3,002241,1087688557.53,1072807580.58,2014-09-30,三季度报告,1025103385.7500002,2014,9,未知,未知,未知,未知,未知,未知,未知,未知,未知,未知
4,002241,1684311572.9900002,1657388259.1,2014-12-31,年度报告,1589792143.3099995,2014,12,0.0,True,未知,未知,未知,未知,未知,未知,未知,未知
5,002241,268125819.43,269726686.36,2015-03-31,一季度报告,269967507.03000003,2015,3,4.030013050162177,False,未知,未知,未知,未知,未知,未知,2127606000.0,未知
6,002241,515343225.25999993,518371137.73,2015-06-30,半年度报告,516889672.38,2015,6,1.1469129060197576,False,未知,未知,未知,未知,未知,未知,1812500000.0,未知
7,002241,854339714.7,854197671.4899999,2015-09-30,三季度报告,853451370.36,2015,9,0.21774015877101666,True,未知,未知,未知,未知,未知,未知,1480666667.0,未知
8,002241,1240405414.7,1251142078.87,2015-12-31,年度报告,1211925471.0899994,2015,12,-0.2136122211707537,True,未知,未知,未知,未知,未知,未知,1534980000.0,未知
9,002241,194214450.30000004,197309568.56,2016-03-31,一季度报告,181890469.45,2016,3,3.939927231013256,False,未知,未知,未知,未知,未知,未知,1744403800.0,未知
10,002241,462782872.2099999,474255799.36,2016-06-30,半年度报告,428267443.86,2016,6,1.5701745396415272,False,未知,未知,未知,未知,未知,未知,1654829091.0,未知
11,002241,1013565897.63,1036440812.0,2016-09-30,三季度报告,987559631.2800002,2016,9,0.5503458565134174,False,未知,未知,未知,未知,未知,未知,1670516427.0,未知
12,002241,1608949366.19,1651496619.7699995,2016-12-31,年度报告,1598588810.7799995,2016,12,0.06781381397012391,True,0.17549085420425853,True,0.0,True,比例外推,1651496619.7699995,1907204000.0,1907204000.0
13,002241,287950842.42,299118555.5,2017-03-31,一季度报告,283401985.96,2017,3,5.819894372916288,False,0.26911431880481673,True,0.06152686364934354,True,前期平均,1448020008.0549994,2191657857.0,2191657857.0
14,002241,706565059.09,718842187.16,2017-06-30,半年度报告,644185198.9899999,2017,6,1.8620809374703122,False,0.1825688167362892,True,0.08191806988798478,True,前期平均,1579021759.2199993,2270391667.0,2270391667.0
15,002241,1370074876.68,1385338757.2599998,2017-09-30,三季度报告,1191448321.0300002,2017,9,0.30679420039397787,True,0.043821979446404744,True,0.04861638659654899,True,比例外推,2011245419.1229055,2264104615.0,2264104615.0
16,002241,2106754596.4,2139226164.64,2017-12-31,年度报告,1946575959.8099992,2017,12,-0.17677829733295158,True,0.1002427742321695,True,0.0,True,比例外推,2139226164.64,2259429231.0,2139226164.64
17,002241,181091258.86,183808537.43,2018-03-31,一季度报告,98508117.40999998,2018,3,3.5998199748555546,False,0.24562302387442528,True,0.06204881252656838,True,前期平均,1363136690.1249995,2564248365.0,2564248365.0
18,002241,432920364.73,444916645.68,2018-06-30,半年度报告,266155521.87,2018,6,0.874593173975911,False,0.4447320461392171,True,0.08472326412061293,True,前期平均,1377595228.4949996,1895220000.0,1895220000.0
19,002241,843095759.88,856198277.0899997,2018-09-30,三季度报告,669739542.77,2018,9,-0.03324843095465308,True,0.4669637134083958,True,0.05952622442241862,True,比例外推,1225322165.236015,1404756667.0,1404756667.0
20,002241,844472628.17,867722661.4700001,2018-12-31,年度报告,706311057.36,2018,12,-0.37129742638116014,True,0.4787590583872129,True,0.0,True,比例外推,867722661.4700001,1404648571.0,1404648571.0
21,002241,203363767.5,203227339.61,2019-03-31,一季度报告,161227700.79,2019,3,6.314113586034409,False,0.24884158360538744,True,0.019164887367072933,True,前期平均,1743163497.1999993,1227722000.0,1227722000.0
22,002241,523348311.3999999,523814152.3000001,2019-06-30,半年度报告,417051265.89,2019,6,2.059505037528245,False,0.25955251958463865,True,0.05731679667280498,True,前期平均,1760170216.1699991,1245056923.0,1245056923.0
23,002241,984568699.1900002,984992924.24,2019-09-30,三季度报告,1087198565.4600003,2019,9,0.571022059141328,False,0.2925983067863457,True,0.2222000243036858,False,前期平均,1668071333.3799992,1275012500.0,1275012500.0
24,002241,1279141621.01,1280542212.6099994,2019-12-31,年度报告,1348634308.2699995,2019,12,0.5684605901440325,False,0.5454575301626734,True,0.0,True,前期平均,1280542212.6099994,1273262500.0,1280542212.6099994
25,002241,294094607.3699998,294126282.23,2020-03-31,一季度报告,299385158.38999987,2020,3,5.5130679521857315,False,0.13285495291349259,True,0.0153202429145287,True,前期平均,1429614739.1299996,1938694375.0,1938694375.0
