,SECURITYCODE_x,NETPROFIT_x,PARENTNETPROFIT_x,REPORTDATE_x,REPORTTIMETYPE_x,KCFJCXSYJLR,Year,Month,managesituationChangeRate,managesituationGreatChange,historyprofitextroplaterate,ifhistoryprofitextroplate,IfprofitdisStableChangeRage,IfprofitdisStable,predicttype,predict,analyst_prediction,adj_prediction
0,002200,15522228.94,15870117.209999995,2013-12-31,年度报告,-25577458.259999994,2013,12,未知,未知,未知,未知,未知,未知,未知,未知,未知,未知
1,002200,2347276.06,2460219.43,2014-03-31,一季度报告,2185787.72,2014,3,未知,未知,未知,未知,未知,未知,未知,未知,未知,未知
2,002200,4966329.13,2886341.27,2014-06-30,半年度报告,2122713.92,2014,6,未知,未知,未知,未知,未知,未知,未知,未知,未知,未知
3,002200,-8862647.889999999,-11816578.390000002,2014-09-30,三季度报告,-12762951.77,2014,9,未知,未知,未知,未知,未知,未知,未知,未知,未知,未知
4,002200,22619761.33,4605549.63,2014-12-31,年度报告,5226126.48,2014,12,0.0,True,未知,未知,未知,未知,未知,未知,未知,未知
5,002200,639982.02,2229783.2800000003,2015-03-31,一季度报告,2366251.23,2015,3,5.612868935407622,False,未知,未知,未知,未知,未知,未知,未知,未知
6,002200,7360733.439999999,2914174.33,2015-06-30,半年度报告,4017370.28,2015,6,2.1254934044212246,False,未知,未知,未知,未知,未知,未知,23850000.0,未知
7,002200,15875708.84,4926614.840000002,2015-09-30,三季度报告,5122697.57,2015,9,-2.75142114779424,False,未知,未知,未知,未知,未知,未知,10333333.0,未知
8,002200,37037573.82,10248418.33,2015-12-31,年度报告,17855667.0,2015,12,-0.313775741770835,True,未知,未知,未知,未知,未知,未知,未知,未知
9,002200,850307.6799999998,1002431.32,2016-03-31,一季度报告,743551.5399999998,2016,3,23.25416410917294,False,未知,未知,未知,未知,未知,未知,49068333.0,未知
10,002200,33670025.98,25136029.34,2016-06-30,半年度报告,22462791.77,2016,6,1.1087883519390158,False,未知,未知,未知,未知,未知,未知,71047000.0,未知
11,002200,52972462.04999999,34416582.35,2016-09-30,三季度报告,31083721.8,2016,9,-0.022265456211276822,True,未知,未知,未知,未知,未知,未知,72662222.0,未知
12,002200,67744906.05,33435660.83,2016-12-31,年度报告,-643134.69,2016,12,-0.5809058926095717,True,0.9420892070821665,True,0.0,True,比例外推,33435660.83,71248333.0,71248333.0
13,002200,-17039746.41,-17095743.190000005,2017-03-31,一季度报告,-17216037.169999998,2017,3,17.25483798993795,False,0.43071026524765493,True,0.9543455285903916,False,盈利变化,9489542.55,124217500.0,124217500.0
14,002200,-47298014.59,-50396211.63,2017-06-30,半年度报告,-47291817.81999999,2017,6,-0.5389896951900125,True,4.462781711182634,False,23.495082353387772,False,未知,未知,67655000.0,未知
15,002200,-61316247.57000001,-61415147.31000001,2017-09-30,三季度报告,-58112086.31999999,2017,9,-0.7069755050209149,True,14.106802130387868,False,31.502643332648713,False,未知,未知,-25400000.0,未知
16,002200,-434461119.98,-436040208.3299999,2017-12-31,年度报告,-434306145.43000007,2017,12,-0.7708723822195042,True,1.271134165804253,True,0.0,True,比例外推,-436040208.3299999,92000000.0,92000000.0
17,002200,-39227283.85,-39188428.46999999,2018-03-31,一季度报告,-39294209.15,2018,3,-1.9109424850883097,False,23.867696676693136,False,0.828144834799811,False,去年同期,-456278536.73,未知,-456278536.73
18,002200,-203223613.34,-200788414.45,2018-06-30,半年度报告,-171700193.52,2018,6,-1.3281792919756465,False,3.3054905762697193,False,23.395988033950417,False,去年同期,-587802742.0600001,未知,-587802742.0600001
19,002200,-237091093.99000004,-233276088.63,2018-09-30,三季度报告,-202758260.31,2018,9,-1.2531503403283033,False,2.781201933976318,False,32.361292703733845,False,去年同期,-609470147.74,未知,-609470147.74
20,002200,-227757395.26999995,-255400202.84,2018-12-31,年度报告,-198071966.72000003,2018,12,-1.0357275443674099,False,9.292629083011223,False,0.0,True,去年同期,-255400202.84,,-255400202.84
21,002200,6955456.449999997,7270056.51,2019-03-31,一季度报告,-45056284.7,2019,3,-1.395699814429033,False,-3.8460338254110678,True,0.8500989928604061,False,盈利变化,-263082970.24,未知,-263082970.24
22,002200,25840472.06,13272680.95,2019-06-30,半年度报告,-74153109.52999999,2019,6,-1.076380046023642,False,-28.824447195513162,True,23.60994346346095,False,盈利变化,-190368813.51333332,未知,-190368813.51333332
23,002200,51870030.61,28001980.43,2019-09-30,三季度报告,-62737640.14,2019,9,-1.0654694728459715,False,-55.830582095307626,True,32.606880961983535,False,盈利变化,-193168816.09777778,未知,-193168816.09777778
24,002200,65704336.03999998,35881516.64,2019-12-31,年度报告,-103977147.82,2019,12,-1.0681524695239812,False,-0.24214521539249437,True,0.0,True,盈利变化,-224035263.20666665,未知,-224035263.20666665
25,002200,-40897136.08,-36828070.57,2020-03-31,一季度报告,-36746498.37,2020,3,1.2316621564067165,False,-1.2472302667427109,True,0.2095445415508739,False,盈利变化,46961231.74666668,未知,46961231.74666668
