,SECURITYCODE_x,NETPROFIT_x,PARENTNETPROFIT_x,REPORTDATE_x,REPORTTIMETYPE_x,KCFJCXSYJLR,Year,Month,managesituationChangeRate,managesituationGreatChange,historyprofitextroplaterate,ifhistoryprofitextroplate,IfprofitdisStableChangeRage,IfprofitdisStable,predicttype,predict,analyst_prediction,adj_prediction
0,002211,-880627647.4599998,-876306055.5599997,2013-12-31,年度报告,-321672045.5900001,2013,12,未知,未知,未知,未知,未知,未知,未知,未知,未知,未知
1,002211,1760783.3099999996,2465633.71,2014-03-31,一季度报告,-8285162.080000001,2014,3,未知,未知,未知,未知,未知,未知,未知,未知,未知,未知
2,002211,2952981.75,3236404.66,2014-06-30,半年度报告,-19975149.69999999,2014,6,未知,未知,未知,未知,未知,未知,未知,未知,未知,未知
3,002211,6926340.93,6815797.49,2014-09-30,三季度报告,-25357635.66,2014,9,未知,未知,未知,未知,未知,未知,未知,未知,未知,未知
4,002211,14045100.95,12440591.090000002,2014-12-31,年度报告,-30259355.12999999,2014,12,-0.0,False,未知,未知,未知,未知,未知,未知,未知,未知
5,002211,1483306.1400000004,1272538.08,2015-03-31,一季度报告,-7711124.669999999,2015,3,-501.1340269746196,False,未知,未知,未知,未知,未知,未知,未知,未知
6,002211,-25400990.29,-25515828.67,2015-06-30,半年度报告,-28110725.44,2015,6,-299.21642055864373,False,未知,未知,未知,未知,未知,未知,2956005697.0,未知
7,002211,-36297986.22000001,-36348718.57999999,2015-09-30,三季度报告,-39519908.66,2015,9,-128.14182803877657,False,未知,未知,未知,未知,未知,未知,,未知
8,002211,-60040434.49000001,-60652889.59,2015-12-31,年度报告,-66477251.08,2015,12,-63.69998703426905,False,未知,未知,未知,未知,未知,未知,未知,未知
9,002211,-2956520.7299999995,-3164515.4400000004,2016-03-31,一季度报告,-1996328.38,2016,3,-594.6924440021529,False,未知,未知,未知,未知,未知,未知,未知,未知
10,002211,-5050918.790000001,-5892541.949999997,2016-06-30,半年度报告,-705937.3900000001,2016,6,33.66902815228783,False,未知,未知,未知,未知,未知,未知,未知,未知
11,002211,-11027938.34,-11279657.500000002,2016-09-30,三季度报告,-3328407.33,2016,9,23.26106071346675,False,未知,未知,未知,未知,未知,未知,未知,未知
12,002211,11824530.489999998,11038713.21,2016-12-31,年度报告,-17074375.06,2016,12,13.667243082770696,False,-0.8614317014996397,True,0.0,True,盈利变化,-44185264.25000001,未知,-44185264.25000001
13,002211,12443672.54,10514163.689999998,2017-03-31,一季度报告,7879982.93,2017,3,296.8594530132045,False,2.822712212821382,False,0.1048979853946522,False,前期平均,-29855996.04,未知,-29855996.04
14,002211,17407905.899999995,15135126.799999995,2017-06-30,半年度报告,8313200.45,2017,6,173.34999137255969,False,-0.5499895876286939,True,0.3334346723687458,False,盈利变化,17051471.77,未知,17051471.77
15,002211,23449297.29,19813903.4,2017-09-30,三季度报告,9339767.46,2017,9,78.85424113823979,False,-0.2490758872296054,True,0.34754194982038356,False,盈利变化,16669013.116666667,未知,16669013.116666667
16,002211,24025394.51,20426851.78,2017-12-31,年度报告,5261339.94,2017,12,-75.47463966579868,False,-1.5141621803749616,True,0.0,True,前期平均,20426851.78,未知,20426851.78
17,002211,7796605.269999998,6667029.8,2018-03-31,一季度报告,2227529.05,2018,3,-71.7691113398585,False,-17.89322468629639,True,0.9208373892245543,False,前期平均,-30255056.744999994,未知,-30255056.744999994
18,002211,15685466.13,14077906.499999998,2018-06-30,半年度报告,7201833.58,2018,6,-51.587799159691,False,-2.1433047336551416,True,0.8986335102984702,False,前期平均,-13289575.155000003,未知,-13289575.155000003
19,002211,16242533.230000002,14634973.61,2018-09-30,三季度报告,2473981.32,2018,9,-38.554543173263674,False,-1.9909704885013235,True,0.9203048106572324,False,前期平均,-5716681.465000004,未知,-5716681.465000004
20,002211,12739945.680000005,11132386.06,2018-12-31,年度报告,-12514541.11,2018,12,-37.65403484190278,False,-1.9965755079485803,True,0.0,True,前期平均,11132386.06,未知,11132386.06
21,002211,3991829.11,3991829.11,2019-03-31,一季度报告,227568.11,2019,3,-113.9501388057318,False,0.6436134734941062,True,1.0188346249470648,False,前期平均,-4856515.725,未知,-4856515.725
22,002211,924543.14,924543.14,2019-06-30,半年度报告,-1192684.97,2019,6,-57.14290580601316,False,1.5387201573280604,True,1.2314133678062291,False,前期平均,-8785605.95,未知,-8785605.95
23,002211,201604.27,201604.27,2019-09-30,三季度报告,-631293.8500000001,2019,9,-55.21738315015285,False,1.6152586517113738,True,1.184363559060671,False,前期平均,-8710593.355,未知,-8710593.355
24,002211,-87996928.58,-87996928.58,2019-12-31,年度报告,-36288970.25,2019,12,-70.12334397488573,False,0.28926235243169934,True,0.0,True,盈利变化,3207576.3466666667,未知,3207576.3466666667
25,002211,-3050034.52,-3050034.52,2020-03-31,一季度报告,-5003002.69,2020,3,-221.6075518748847,False,0.6055558972587046,True,1.0598981439739223,False,盈利变化,-94971022.98,未知,-94971022.98
