,SECURITYCODE_x,NETPROFIT_x,PARENTNETPROFIT_x,REPORTDATE_x,REPORTTIMETYPE_x,KCFJCXSYJLR,Year,Month,managesituationChangeRate,managesituationGreatChange,historyprofitextroplaterate,ifhistoryprofitextroplate,IfprofitdisStableChangeRage,IfprofitdisStable,predicttype,predict,analyst_prediction,adj_prediction
0,002255,103338774.73999998,102593677.36,2013-12-31,年度报告,92048791.24,2013,12,未知,未知,未知,未知,未知,未知,未知,未知,未知,未知
1,002255,13548981.220000004,13244732.87,2014-03-31,一季度报告,12935978.99,2014,3,未知,未知,未知,未知,未知,未知,未知,未知,未知,未知
2,002255,49623707.82000001,46417569.75000001,2014-06-30,半年度报告,39156333.06,2014,6,未知,未知,未知,未知,未知,未知,未知,未知,未知,未知
3,002255,52518561.18999999,50632963.12999999,2014-09-30,三季度报告,41617095.41,2014,9,未知,未知,未知,未知,未知,未知,未知,未知,未知,未知
4,002255,65652140.22999999,63503347.88,2014-12-31,年度报告,55827679.62000001,2014,12,0.0,True,未知,未知,未知,未知,未知,未知,未知,未知
5,002255,13108498.26,11695714.169999998,2015-03-31,一季度报告,10820580.96,2015,3,6.627051293528913,False,未知,未知,未知,未知,未知,未知,114400000.0,未知
6,002255,56542243.68999998,52035110.00999999,2015-06-30,半年度报告,50363085.81,2015,6,1.0824476702716481,False,未知,未知,未知,未知,未知,未知,136380000.0,未知
7,002255,72253340.71999998,66491104.78,2015-09-30,三季度报告,50145017.28,2015,9,0.967661954145016,False,未知,未知,未知,未知,未知,未知,,未知
8,002255,104585432.75,84804685.95000002,2015-12-31,年度报告,65420730.68999998,2015,12,0.5740351247951997,False,未知,未知,未知,未知,未知,未知,,未知
9,002255,12916328.94,13947109.38,2016-03-31,一季度报告,10039286.77,2016,3,6.883341988558191,False,未知,未知,未知,未知,未知,未知,120493333.0,未知
10,002255,37155229.22,28634957.94,2016-06-30,半年度报告,24610138.23,2016,6,0.8276383814297839,False,未知,未知,未知,未知,未知,未知,122000000.0,未知
11,002255,61083058.40999999,51400800.49999999,2016-09-30,三季度报告,38132040.85,2016,9,0.4302283286867514,True,未知,未知,未知,未知,未知,未知,78170000.0,未知
12,002255,82875363.83999999,75352579.39,2016-12-31,年度报告,64655906.26999999,2016,12,-0.011919996668943555,True,0.2377639681821532,True,0.0,True,比例外推,75352579.39,87056667.0,87056667.0
13,002255,20585135.92,20658946.8,2017-03-31,一季度报告,16426389.140000002,2017,3,7.000630459323064,False,0.0309414699397531,True,0.04758428653987054,True,前期平均,69404871.98,,69404871.98
14,002255,50976947.97,46288960.87,2017-06-30,半年度报告,44180382.63999999,2017,6,1.781271355590899,False,0.3000537612758028,True,0.23664908384893518,False,前期平均,62153456.589999996,未知,62153456.589999996
15,002255,80039317.53999999,72592333.05999999,2017-09-30,三季度报告,61011854.43,2017,9,0.6917747314872866,False,0.020884390236189432,True,0.1108063241025018,False,前期平均,87335481.86999999,151608785.0,151608785.0
16,002255,102179145.07000002,97104399.32999998,2017-12-31,年度报告,53455928.24,2017,12,0.24691790119325277,True,0.026356374926275176,True,0.0,True,比例外推,97104399.32999998,115500000.0,115500000.0
17,002255,33740252.79,30692056.34,2018-03-31,一季度报告,26944210.28,2018,3,4.020067642089194,False,0.5819613910827429,True,0.09796815795201622,True,前期平均,85300440.95499998,未知,85300440.95499998
18,002255,113122913.31000002,98683794.1,2018-06-30,半年度报告,93047942.73999998,2018,6,1.0271667656685721,False,0.08811788379747047,True,0.2783503829529435,False,前期平均,126235500.55999997,未知,126235500.55999997
19,002255,147960991.41,125837689.57,2018-09-30,三季度报告,110628005.49,2018,9,0.29110014822847513,True,0.20056215800403418,True,0.3088093738345171,False,平均增速,115558744.04383813,未知,115558744.04383813
20,002255,-145100767.87,-160357084.28,2018-12-31,年度报告,-750980812.53,2018,12,0.011348985834687967,True,0.09013881226034148,True,0.0,True,比例外推,-160357084.28,,-160357084.28
21,002255,72180097.86,65136635.36000001,2019-03-31,一季度报告,36987344.17,2019,3,2.0627741701635305,False,1.014255372473883,True,0.17810612424806863,False,前期平均,110959714.66,未知,110959714.66
22,002255,153728175.57,144961535.82,2019-06-30,半年度报告,103684189.76,2019,6,-0.08649121812472915,True,1.567119454365088,True,0.4849728810977745,False,平均增速,2464606414.8870516,未知,2464606414.8870516
23,002255,59263413.11000001,70302791.54,2019-09-30,三季度报告,42515679.31,2019,9,-0.30158095214671704,True,1.0969175216044116,True,0.675246765692944,False,平均增速,2752748998.3724184,未知,2752748998.3724184
24,002255,-2097259264.26,-1844478909.62,2019-12-31,年度报告,-1550038573.3900006,2019,12,-1.7121862706652538,False,2.5681948926796347,False,0.0,True,去年同期,-1844478909.62,未知,-1844478909.62
25,002255,33540778.5,35000425.05,2020-03-31,一季度报告,18145945.38,2020,3,0.4316796153481965,True,1.6573246717225374,True,0.22477259833592178,False,平均增速,5244975881.808261,未知,5244975881.808261
