,SECURITYCODE_x,NETPROFIT_x,PARENTNETPROFIT_x,REPORTDATE_x,REPORTTIMETYPE_x,KCFJCXSYJLR,Year,Month,managesituationChangeRate,managesituationGreatChange,historyprofitextroplaterate,ifhistoryprofitextroplate,IfprofitdisStableChangeRage,IfprofitdisStable,predicttype,predict,analyst_prediction,adj_prediction
0,002266,89674305.86000001,91462747.68,2013-12-31,年度报告,71766654.97,2013,12,未知,未知,未知,未知,未知,未知,未知,未知,未知,未知
1,002266,9151201.95,9450940.38,2014-03-31,一季度报告,8993649.19,2014,3,未知,未知,未知,未知,未知,未知,未知,未知,未知,未知
2,002266,40418770.49,38888170.23,2014-06-30,半年度报告,36398107.66,2014,6,未知,未知,未知,未知,未知,未知,未知,未知,未知,未知
3,002266,68457483.28,70039254.25999999,2014-09-30,三季度报告,-43546265.05,2014,9,未知,未知,未知,未知,未知,未知,未知,未知,未知,未知
4,002266,104844916.73999998,101209401.28,2014-12-31,年度报告,-14987147.53,2014,12,0.0,True,未知,未知,未知,未知,未知,未知,未知,未知
5,002266,5316681.87,5915572.76,2015-03-31,一季度报告,4324966.7,2015,3,8.799183358640667,False,未知,未知,未知,未知,未知,未知,119000000.0,未知
6,002266,30505169.15,28673186.719999995,2015-06-30,半年度报告,26252798.77,2015,6,1.21863022484037,False,未知,未知,未知,未知,未知,未知,182100000.0,未知
7,002266,52152284.55,49875773.34,2015-09-30,三季度报告,24358888.390000004,2015,9,0.3099270023296131,True,未知,未知,未知,未知,未知,未知,,未知
8,002266,100536156.89999996,70948609.69,2015-12-31,年度报告,12213019.670000002,2015,12,-0.14469572156388713,True,未知,未知,未知,未知,未知,未知,168500000.0,未知
9,002266,10590288.96,6175811.249999999,2016-03-31,一季度报告,5590581.09,2016,3,15.86659236957505,False,未知,未知,未知,未知,未知,未知,209000000.0,未知
10,002266,57884626.25999999,35953104.870000005,2016-06-30,半年度报告,34073103.32,2016,6,1.9396429640843351,False,未知,未知,未知,未知,未知,未知,,未知
11,002266,85242470.42,50452140.61,2016-09-30,三季度报告,47326514.84,2016,9,0.7194703287451675,False,未知,未知,未知,未知,未知,未知,86360000.0,未知
12,002266,124215068.45,64324467.48,2016-12-31,年度报告,55567978.86,2016,12,-0.10803925050371556,True,0.03368865612564878,True,0.0,True,比例外推,64324467.48,88020000.0,88020000.0
13,002266,30083486.39,19642562.66,2017-03-31,一季度报告,17621881.58,2017,3,7.467597645229881,False,0.4639720766018704,True,0.5516390291548956,False,前期平均,11596190.785000002,147190000.0,147190000.0
14,002266,72512137.63999999,51444084.86000001,2017-06-30,半年度报告,45448261.36000001,2017,6,0.5491903749574288,False,0.632301492382241,True,2.53999878522365,False,前期平均,18731567.71500001,119340000.0,119340000.0
15,002266,102040850.62000002,77230417.28000002,2017-09-30,三季度报告,67637303.82000001,2017,9,0.051990931494169765,True,0.41352515561011016,True,1.0655673294063206,False,平均增速,98293790.96762596,119845195.0,119845195.0
16,002266,125357919.02,86536622.94,2017-12-31,年度报告,62368147.78,2017,12,-0.27807224212820525,True,0.20960579520320446,True,0.0,True,比例外推,86536622.94,193887146.0,193887146.0
17,002266,19871077.69,17035688.14,2018-03-31,一季度报告,14404200.839999994,2018,3,1.9808481868580397,False,2.7824280576743847,False,0.14515259950522857,False,去年同期,61781954.34,308680296.0,308680296.0
18,002266,74609397.69,63714752.02,2018-06-30,半年度报告,39884260.58000001,2018,6,0.23667993771201187,True,0.640735501279287,True,0.9857537588625129,False,平均增速,95132538.58634956,,95132538.58634956
19,002266,119722708.96,104597972.97,2018-09-30,三季度报告,58984249.08000001,2018,9,-0.12119209791824453,True,0.4853674820742689,True,0.6842772803317869,False,平均增速,94828422.70421831,未知,94828422.70421831
20,002266,132952488.01999998,109845581.93000002,2018-12-31,年度报告,-73531481.17,2018,12,-0.2846538410892646,True,0.11552601170278795,True,0.0,True,比例外推,109845581.93000002,,109845581.93000002
21,002266,45740585.65,43387753.61,2019-03-31,一季度报告,30462260.460000005,2019,3,3.512805357563876,False,0.022904683963643882,True,0.2583124576604089,False,前期平均,90749585.595,136000000.0,136000000.0
22,002266,72777849.46000001,64550685.92000001,2019-06-30,半年度报告,47216578.0,2019,6,0.2019170323904007,True,0.1443443143607034,True,0.8089031969661928,False,平均增速,-977087.1975696012,,-977087.1975696012
23,002266,95837873.07000002,82219549.39999999,2019-09-30,三季度报告,49482109.04999999,2019,9,-0.2509833210509738,True,0.27851971328968034,True,1.1801659883121371,False,平均增速,28511179.70594818,635500000.0,635500000.0
24,002266,181406404.07,161326519.35999998,2019-12-31,年度报告,-81898613.51000002,2019,12,-0.3255161509537877,True,0.06543972861631572,True,0.0,True,比例外推,161326519.35999998,1124000000.0,1124000000.0
25,002266,55143459.53999999,52149316.64999998,2020-03-31,一季度报告,-30947056.739999995,2020,3,0.9604975447007644,False,0.8312875506930056,True,0.37764494555323497,False,前期平均,30554608.74499999,未知,30554608.74499999
