,SECURITYCODE_x,NETPROFIT_x,PARENTNETPROFIT_x,REPORTDATE_x,REPORTTIMETYPE_x,KCFJCXSYJLR,Year,Month,managesituationChangeRate,managesituationGreatChange,historyprofitextroplaterate,ifhistoryprofitextroplate,IfprofitdisStableChangeRage,IfprofitdisStable,predicttype,predict,analyst_prediction,adj_prediction
0,002281,163514700.87000003,163514700.87000003,2013-12-31,年度报告,93687489.37,2013,12,未知,未知,未知,未知,未知,未知,未知,未知,未知,未知
1,002281,32871686.68,32871686.68,2014-03-31,一季度报告,30754456.5,2014,3,未知,未知,未知,未知,未知,未知,未知,未知,未知,未知
2,002281,96501182.68,96501182.68,2014-06-30,半年度报告,90450464.31000005,2014,6,未知,未知,未知,未知,未知,未知,未知,未知,未知,未知
3,002281,130291301.79999997,130291301.79999997,2014-09-30,三季度报告,117757740.88,2014,9,未知,未知,未知,未知,未知,未知,未知,未知,未知,未知
4,002281,144128493.61999995,144128493.61999995,2014-12-31,年度报告,127755161.12999997,2014,12,0.0,True,未知,未知,未知,未知,未知,未知,未知,未知
5,002281,41569250.53000001,41569250.53000001,2015-03-31,一季度报告,39658877.72000001,2015,3,3.974332545262628,False,未知,未知,未知,未知,未知,未知,224373500.0,未知
6,002281,112520824.25,113080384.84000002,2015-06-30,半年度报告,106403894.74999996,2015,6,0.6944320922181678,False,未知,未知,未知,未知,未知,未知,208906000.0,未知
7,002281,174229669.92999998,175070826.17999998,2015-09-30,三季度报告,164101684.82999998,2015,9,0.25499322373030486,True,未知,未知,未知,未知,未知,未知,209882500.0,未知
8,002281,243387823.86,243289797.71000007,2015-12-31,年度报告,194122585.41000003,2015,12,0.13450641689985698,True,未知,未知,未知,未知,未知,未知,207105000.0,未知
9,002281,243387823.86,243289797.71000007,2015-12-31,年度报告,192922585.41,2015,12,0.13450641689985698,True,未知,未知,未知,未知,未知,未知,207105000.0,未知
10,002281,74123834.64999999,73992363.39000002,2016-03-31,一季度报告,56811690.88999999,2016,3,2.9335494093643457,False,未知,未知,未知,未知,未知,未知,325393333.0,未知
11,002281,144446805.14,153048052.77,2016-06-30,半年度报告,127713590.93,2016,6,0.4531950148774353,True,未知,未知,未知,未知,未知,未知,327610909.0,未知
12,002281,206572767.27,211411691.29000008,2016-09-30,三季度报告,184708409.35,2016,9,-0.06149910669236119,True,未知,未知,0.0,True,未知,未知,314145714.0,未知
13,002281,273936635.08,285021294.51000005,2016-12-31,年度报告,237109419.41,2016,12,-0.32817222210731495,True,0.5822734142614774,True,0.023911530438879308,True,比例外推,285021294.51000005,304344615.0,285021294.51000005
14,002281,95700279.13,96470862.76999998,2017-03-31,一季度报告,88348367.81000002,2017,3,1.205966564494246,False,0.9914804253711782,True,0.10974748756519048,False,前期平均,222203068.92999995,399074615.0,399074615.0
15,002281,173114552.55,171678826.48999998,2017-06-30,半年度报告,167969152.67,2017,6,0.13200635148364245,True,0.38212054569329823,True,0.07304646785630686,True,比例外推,284476684.7987755,363136923.0,363136923.0
16,002281,246966844.07,251589016.64,2017-09-30,三季度报告,245001922.43000004,2017,9,-0.20844018778003356,True,0.3567063450273986,True,0.0,True,比例外推,295266499.00990784,351712143.0,351712143.0
17,002281,327270652.27000016,334289565.27000004,2017-12-31,年度报告,291991825.12,2017,12,-0.4030929787019999,True,0.41380696875629286,True,0.053747826962392414,True,比例外推,334289565.27000004,351358571.0,334289565.27000004
18,002281,72958331.03999999,77772632.03999999,2018-03-31,一季度报告,55016705.99999999,2018,3,0.708612580407215,False,0.6543820053049084,True,0.021250430570288525,True,前期平均,245153350.145,412847778.00000006,412847778.00000006
19,002281,130521720.51999997,139163871.21999997,2018-06-30,半年度报告,93560900.46000002,2018,6,-0.05545375324369272,True,0.3473646697130393,True,0.04214017757347621,True,比例外推,214484700.91527802,353938824.0,353938824.0
20,002281,247700293.97,263315934.11000004,2018-09-30,三季度报告,205525914.73000005,2018,9,-0.33790828689678837,True,0.29708646764931995,True,0.0,True,比例外推,308083135.1849375,362020870.0,362020870.0
21,002281,309730660.44999987,332715272.45000005,2018-12-31,年度报告,280542289.6,2018,12,-0.500368579535511,True,0.26524329795107354,True,0.056477723335181806,True,比例外推,332715272.45000005,364329565.0,332715272.45000005
22,002281,57487761.43000001,63929521.76999999,2019-03-31,一季度报告,61844043.53,2019,3,1.241206707159348,False,0.1407777209482223,True,0.14895994324128153,False,前期平均,255900114.685,411142500.0,411142500.0
23,002281,132711239.77,143920674.28,2019-06-30,半年度报告,132143901.22,2019,6,0.252777700282801,True,0.17797479221376883,True,0.05551311971908934,True,比例外推,285672787.2335568,382926818.0,382926818.0
24,002281,238020505.25000003,265609211.76999995,2019-09-30,三季度报告,238795130.7,2019,9,-0.33986876539676625,True,0.09229839148188207,True,0.0,True,比例外推,331571502.060138,376486364.00000006,376486364.00000006
25,002281,327735769.25,357697304.57000005,2019-12-31,年度报告,326653101.26,2019,12,-0.4720745416923412,True,0.03036229589042354,True,0.07323598762531688,True,比例外推,357697304.57000005,375259091.0,357697304.57000005
26,002281,-13297385.180000005,-5513189.6499999985,2020-03-31,一季度报告,-8519675.41,2020,3,1.8443393307130904,False,0.318294377357254,True,未知,未知,盈利变化,263879012.65000004,420407273.0,420407273.0
