,SECURITYCODE_x,NETPROFIT_x,PARENTNETPROFIT_x,REPORTDATE_x,REPORTTIMETYPE_x,KCFJCXSYJLR,Year,Month,managesituationChangeRate,managesituationGreatChange,historyprofitextroplaterate,ifhistoryprofitextroplate,IfprofitdisStableChangeRage,IfprofitdisStable,predicttype,predict,analyst_prediction,adj_prediction
0,002218,6166289.85,3814330.53,2013-12-31,年度报告,-7138155.93,2013,12,未知,未知,未知,未知,未知,未知,未知,未知,未知,未知
1,002218,4502275.32,4502275.32,2014-03-31,一季度报告,1731284.1,2014,3,未知,未知,未知,未知,未知,未知,未知,未知,未知,未知
2,002218,8526711.960000003,8526711.960000003,2014-06-30,半年度报告,-1137826.6900000002,2014,6,未知,未知,未知,未知,未知,未知,未知,未知,未知,未知
3,002218,10327457.6,10327457.6,2014-09-30,三季度报告,-2405039.62,2014,9,未知,未知,未知,未知,未知,未知,未知,未知,未知,未知
4,002218,-4940205.299999999,-5377433.64,2014-12-31,年度报告,-32390949.47000001,2014,12,0.0,True,未知,未知,未知,未知,未知,未知,未知,未知
5,002218,6793153.959999999,6793153.959999999,2015-03-31,一季度报告,3700908.04,2015,3,0.3695941300186856,True,未知,未知,未知,未知,未知,未知,199000000.0,未知
6,002218,12095815.42,12095815.42,2015-06-30,半年度报告,5668163.05,2015,6,-0.27682676758322233,True,未知,未知,未知,未知,未知,未知,92500000.0,未知
7,002218,30554758.33999999,30554758.33999999,2015-09-30,三季度报告,19895847.789999995,2015,9,-0.40292276290730067,True,未知,未知,未知,未知,未知,未知,72000000.0,未知
8,002218,31061735.61000001,31061735.61000001,2015-12-31,年度报告,13662185.569999995,2015,12,-2.2481849387919164,False,未知,未知,未知,未知,未知,未知,,未知
9,002218,27250122.63000001,27250122.63000001,2016-03-31,一季度报告,24284892.76,2016,3,-0.09227880211329695,True,未知,未知,未知,未知,未知,未知,144390000.0,未知
10,002218,58203229.66,58203229.66,2016-06-30,半年度报告,50019639.67000001,2016,6,-0.4902129673866998,True,未知,未知,未知,未知,未知,未知,141056000.0,未知
11,002218,84392589.20000002,84392589.20000002,2016-09-30,三季度报告,71837666.81,2016,9,-0.7981888849722121,True,未知,未知,未知,未知,未知,未知,129500000.0,未知
12,002218,128712093.10999998,128712093.10999998,2016-12-31,年度报告,108636020.57,2016,12,-0.801482765566557,True,49.668178813606275,False,0.0,True,比例外推,128712093.10999998,60325000.0,60325000.0
13,002218,31310458.98,31310458.98,2017-03-31,一季度报告,24347179.90000001,2017,3,-0.7737151522682891,True,3.824982203775085,False,0.20044329025353824,False,未知,未知,169620000.0,未知
14,002218,87088672.5,87088672.5,2017-06-30,半年度报告,87045634.17,2017,6,-0.8940558816749345,True,4.644626246581809,False,0.2683523712599998,False,未知,未知,186976250.0,未知
15,002218,120651751.17,120651751.17,2017-09-30,三季度报告,120167452.79999998,2017,9,-0.9269332780466464,True,3.128572155866365,False,0.7256742626312175,False,未知,未知,176725658.0,未知
16,002218,163163901.15,163163901.15,2017-12-31,年度报告,145928032.21,2017,12,-0.9520923815236991,True,8.854866202898197,False,0.0,True,比例外推,163163901.15,182530000.0,182530000.0
17,002218,5756173.489999997,5756173.489999997,2018-03-31,一季度报告,1390831.9500000002,2018,3,-0.8030597426266155,True,0.839450377064894,True,0.05358104132984537,True,比例外推,10675121.630052974,223000000.0,223000000.0
18,002218,53162883.71000001,53162883.71000001,2018-06-30,半年度报告,42820237.58,2018,6,-0.9291952710612279,True,1.4776630294449513,True,0.10589368528709275,False,平均增速,204471750.82289213,,204471750.82289213
19,002218,72923174.94000001,72923174.94000001,2018-09-30,三季度报告,55875643.64000002,2018,9,-0.9488918329804297,True,1.0992524621416766,True,0.4759341626797928,False,平均增速,138772510.81978148,未知,138772510.81978148
20,002218,88912412.61,88912412.61,2018-12-31,年度报告,75316298.59,2018,12,-0.962208001852498,True,1.0424358914993648,True,0.0,True,比例外推,88912412.61,,88912412.61
21,002218,6549917.81,6549917.81,2019-03-31,一季度报告,1413025.94,2019,3,0.07124808880630218,True,0.8034113278336343,True,0.1178181022602251,False,平均增速,78466626.18579842,未知,78466626.18579842
22,002218,43386409.75999999,43386409.75999999,2019-06-30,半年度报告,31375015.63000001,2019,6,-0.8840113737314044,True,0.26819206136546586,True,0.0813897439974709,True,比例外推,69917784.28142299,未知,69917784.28142299
23,002218,73323574.46000001,73323574.46000001,2019-09-30,三季度报告,57024114.16,2019,9,-0.915441286599582,True,0.2887082393163251,True,0.08126405398890324,True,比例外推,93129973.26176159,未知,93129973.26176159
24,002218,77942256.80999999,77942256.80999999,2019-12-31,年度报告,58883922.18,2019,12,-0.9306475927377268,True,0.39075213886348065,True,0.0,True,比例外推,77942256.80999999,未知,77942256.80999999
25,002218,69655922.91000001,69655922.91000001,2020-03-31,一季度报告,17409745.33,2020,3,-0.058569889138807375,True,0.6465868424761166,True,0.09707471538457478,True,比例外推,301780169.40120745,未知,301780169.40120745
