,SECURITYCODE_x,NETPROFIT_x,PARENTNETPROFIT_x,REPORTDATE_x,REPORTTIMETYPE_x,KCFJCXSYJLR,Year,Month,managesituationChangeRate,managesituationGreatChange,historyprofitextroplaterate,ifhistoryprofitextroplate,IfprofitdisStableChangeRage,IfprofitdisStable,predicttype,predict,analyst_prediction,adj_prediction
0,002203,287811390.36,288514503.06,2013-12-31,年度报告,289296301.58000004,2013,12,未知,未知,未知,未知,未知,未知,未知,未知,未知,未知
1,002203,104146172.2,104132063.37999997,2014-03-31,一季度报告,101255890.75,2014,3,未知,未知,未知,未知,未知,未知,未知,未知,未知,未知
2,002203,272348143.97,272316222.83000004,2014-06-30,半年度报告,228310752.29,2014,6,未知,未知,未知,未知,未知,未知,未知,未知,未知,未知
3,002203,383067404.77,383035483.63,2014-09-30,三季度报告,355686303.06,2014,9,未知,未知,未知,未知,未知,未知,未知,未知,未知,未知
4,002203,495079187.16,495047266.0199999,2014-12-31,年度报告,435245304.52,2014,12,0.0,True,未知,未知,未知,未知,未知,未知,未知,未知
5,002203,106103114.57999998,106103114.57999998,2015-03-31,一季度报告,109481543.79,2015,3,1.763533063964112,False,未知,未知,未知,未知,未知,未知,630000000.0,未知
6,002203,267689611.31000003,267689611.31000003,2015-06-30,半年度报告,254514286.4700001,2015,6,0.05677749869925058,True,未知,未知,未知,未知,未知,未知,623660000.0,未知
7,002203,302167563.28000003,302167563.28000003,2015-09-30,三季度报告,271162536.0,2015,9,-0.24866645719228775,True,未知,未知,未知,未知,未知,未知,718985166.9999999,未知
8,002203,478644124.76,456690307.65,2015-12-31,年度报告,303087734.23,2015,12,-0.41865584774222203,True,未知,未知,未知,未知,未知,未知,690775000.0,未知
9,002203,138329786.78,133348985.31999998,2016-03-31,一季度报告,142461812.72,2016,3,1.7125630713035762,False,未知,未知,未知,未知,未知,未知,637430000.0,未知
10,002203,302317805.67,295245450.91,2016-06-30,半年度报告,235352677.48999995,2016,6,0.07516832256406768,True,未知,未知,未知,未知,未知,未知,578325000.0,未知
11,002203,407343249.72999984,396759915.15000015,2016-09-30,三季度报告,352572980.48,2016,9,-0.047510635371199775,True,未知,未知,未知,未知,未知,未知,585486595.0,未知
12,002203,565318125.8599999,551248526.37,2016-12-31,年度报告,510382362.92,2016,12,-0.39869440473271583,True,0.22276123510446105,True,0.0,True,比例外推,551248526.37,591223333.0,551248526.37
13,002203,204896966.01,201013217.40000004,2017-03-31,一季度报告,116317841.48999996,2017,3,1.0806176099854465,False,0.31586450445128134,True,0.07022422689927921,True,前期平均,464811019.50500005,701815405.0,701815405.0
14,002203,411004251.64,402537915.84999985,2017-06-30,半年度报告,251187720.87,2017,6,-0.04798399246730019,True,0.11961729606572986,True,0.23126312661103499,False,平均增速,712968580.223774,788585000.0,712968580.223774
15,002203,586552449.05,575138887.63,2017-09-30,三季度报告,446005538.02,2017,9,-0.293442592823692,True,0.1889155361968538,True,0.110090774658124,False,平均增速,768862033.9818428,667210000.0,667210000.0
16,002203,720361647.3400003,705332026.5999999,2017-12-31,年度报告,711731283.6600003,2017,12,-0.4908859681048401,True,0.1611473586789216,True,0.0,True,比例外推,705332026.5999999,667210000.0,705332026.5999999
17,002203,252305352.9900001,250491770.09,2018-03-31,一季度报告,275013991.32000005,2018,3,0.40466399266230907,True,0.676508889515069,True,0.10449646069994636,False,平均增速,1412606720.2753417,825730000.0,825730000.0
18,002203,558945806.28,550669933.5,2018-06-30,半年度报告,536772760.8099999,2018,6,-0.29973622119097937,True,0.4421014162151542,True,0.28847364548778265,False,平均增速,1397186545.0399623,1084052000.0,1084052000.0
19,002203,704219551.14,691184877.1499999,2018-09-30,三季度报告,629480584.82,2018,9,-0.5093168721294251,True,0.6533996051776396,True,0.15729439580299898,False,平均增速,1083209838.8432226,1015850000.0,1083209838.8432226
20,002203,926163772.74,908442464.75,2018-12-31,年度报告,801133480.8700002,2018,12,-0.6004626406433917,True,0.3800530563479358,True,0.0,True,比例外推,908442464.75,933665000.0,908442464.75
21,002203,304072144.55,300262564.06000006,2019-03-31,一季度报告,299493789.92,2019,3,0.1407264528842841,True,0.47019631155832853,True,0.09851661937702391,True,比例外推,1144110256.207108,1187445000.0,1144110256.207108
22,002203,653380663.83,643829929.24,2019-06-30,半年度报告,619360632.0899999,2019,6,-0.4850817608320637,True,0.5671625475534393,True,0.17532607314788745,False,平均增速,962902636.6132882,1235430000.0,1235430000.0
23,002203,834150114.5899999,819416949.7299999,2019-09-30,三季度报告,687247306.3399997,2019,9,-0.5913044591078349,True,0.4170894430963425,True,0.08467482857233866,True,比例外推,1112463382.4087775,1012635000.0,1112463382.4087775
24,002203,1083056108.9999998,1063402787.9799998,2019-12-31,年度报告,934474056.71,2019,12,-0.6892435238440311,True,0.4407378758628507,True,0.0,True,比例外推,1063402787.9799998,1262330000.0,1262330000.0
25,002203,172050566.43,168513630.70999998,2020-03-31,一季度报告,97281506.14,2020,3,-0.053476632047517805,True,0.33014261701502845,True,0.11230557836270652,False,平均增速,635492682.9652843,1224853333.0,1224853333.0
