,SECURITYCODE_x,NETPROFIT_x,PARENTNETPROFIT_x,REPORTDATE_x,REPORTTIMETYPE_x,KCFJCXSYJLR,Year,Month,managesituationChangeRate,managesituationGreatChange,historyprofitextroplaterate,ifhistoryprofitextroplate,IfprofitdisStableChangeRage,IfprofitdisStable,predicttype,predict,analyst_prediction,adj_prediction
0,002298,87559506.52000001,87486738.75,2013-12-31,年度报告,48110252.09,2013,12,未知,未知,未知,未知,未知,未知,未知,未知,未知,未知
1,002298,1529454.4299999997,1643530.6700000004,2014-03-31,一季度报告,1554965.8399999996,2014,3,未知,未知,未知,未知,未知,未知,未知,未知,未知,未知
2,002298,7246912.370000001,7460092.3999999985,2014-06-30,半年度报告,2085461.49,2014,6,未知,未知,未知,未知,未知,未知,未知,未知,未知,未知
3,002298,11551004.62,10591970.209999997,2014-09-30,三季度报告,4998373.47,2014,9,未知,未知,未知,未知,未知,未知,未知,未知,未知,未知
4,002298,16654491.85,14998539.050000004,2014-12-31,年度报告,5583266.48,2014,12,0.0,True,未知,未知,未知,未知,未知,未知,未知,未知
5,002298,1405213.5800000005,2162646.74,2015-03-31,一季度报告,1476694.23,2015,3,56.248849526036565,False,未知,未知,未知,未知,未知,未知,未知,未知
6,002298,9635418.17,9090079.6,2015-06-30,半年度报告,879269.0400000002,2015,6,11.08231893108982,False,未知,未知,未知,未知,未知,未知,193400000.0,未知
7,002298,20704042.11,20188075.72,2015-09-30,三季度报告,8984759.78,2015,9,6.580250324581725,False,未知,未知,未知,未知,未知,未知,193400000.0,未知
8,002298,77775568.73,66348794.92999999,2015-12-31,年度报告,53051540.26,2015,12,4.257410872010485,False,未知,未知,未知,未知,未知,未知,,未知
9,002298,33264014.31,29757761.35,2016-03-31,一季度报告,26089667.120000005,2016,3,61.31046138907936,False,未知,未知,未知,未知,未知,未知,214414000.0,未知
10,002298,79688260.03,72886454.33000001,2016-06-30,半年度报告,57981375.47000001,2016,6,8.087255475078152,False,未知,未知,未知,未知,未知,未知,216433332.99999997,未知
11,002298,112951917.82000002,103497608.71,2016-09-30,三季度报告,85475804.99000001,2016,9,3.2291020301639066,False,未知,未知,未知,未知,未知,未知,197666667.00000003,未知
12,002298,173897540.45,155797834.2,2016-12-31,年度报告,131956969.71999998,2016,12,0.12579705876488298,True,0.49261269976163186,True,0.0,True,比例外推,155797834.2,144000000.0,155797834.2
13,002298,25645277.52,22686495.710000005,2017-03-31,一季度报告,21242518.83,2017,3,1.6322591646335787,False,21.669694968324542,False,0.14018265029435847,False,去年同期,128553798.30999999,未知,128553798.30999999
14,002298,91934078.33,81386954.92999999,2017-06-30,半年度报告,68622498.16,2017,6,0.0987754844570172,True,8.440433575351618,False,0.25992277201093184,False,未知,未知,235000000.0,未知
15,002298,129577268.72,116773952.54,2017-09-30,三季度报告,102252967.65,2017,9,-0.2248072612672705,True,6.0036741081478535,False,0.4014262585955546,False,未知,未知,,未知
16,002298,193330087.68,172215037.92000005,2017-12-31,年度报告,155150522.3,2017,12,-0.49648795323142814,True,2.6830970854387224,False,0.0,True,比例外推,172215037.92000005,,172215037.92000005
17,002298,39228082.43999999,39578848.31,2018-03-31,一季度报告,36289569.49,2018,3,2.414254591384902,False,0.47942593941627,True,0.09298627332231969,True,前期平均,118299922.625,未知,118299922.625
18,002298,90262566.4,84152122.95,2018-06-30,半年度报告,67555839.03999999,2018,6,-0.04758378927014787,True,1.058448111018339,True,0.2828482094633232,False,平均增速,205983875.31492907,未知,205983875.31492907
19,002298,125098414.33,117756646.3,2018-09-30,三季度报告,100089375.68999998,2018,9,-0.32426800329303923,True,0.9389673126116311,True,0.3226978450549335,False,平均增速,192088064.31921065,未知,192088064.31921065
20,002298,188365536.62000003,174762669.00000003,2018-12-31,年度报告,160469065.25000003,2018,12,-0.5470983975089873,True,0.5363587179409598,True,0.0,True,比例外推,174762669.00000003,未知,174762669.00000003
21,002298,18639836.9,27701744.31,2019-03-31,一季度报告,24428248.18,2019,3,1.2320618565519674,False,0.3318130712962601,True,0.05000972431512685,True,前期平均,147589397.345,未知,147589397.345
22,002298,103743446.23000002,114079467.92,2019-06-30,半年度报告,108075763.49,2019,6,-0.02994663222870644,True,0.051874333639046664,True,0.013237588482254814,True,比例外推,254895799.58177042,未知,254895799.58177042
23,002298,142007242.35000002,166056922.31,2019-09-30,三季度报告,153385913.1,2019,9,-0.3000750090322907,True,0.03161533763993127,True,0.019783871627627958,True,比例外推,251027805.4074646,未知,251027805.4074646
24,002298,288323693.23,284714313.3,2019-12-31,年度报告,265900300.91000003,2019,12,-0.5351617493775492,True,0.02587889467465617,True,0.0,True,比例外推,284714313.3,未知,284714313.3
25,002298,29905111.759999994,39295699.77000001,2020-03-31,一季度报告,34563577.00000001,2020,3,3.6974395210507454,False,0.4253469556226759,True,0.07450271566411543,True,前期平均,168339449.38500005,未知,168339449.38500005
