,SECURITYCODE_x,NETPROFIT_x,PARENTNETPROFIT_x,REPORTDATE_x,REPORTTIMETYPE_x,KCFJCXSYJLR,Year,Month,managesituationChangeRate,managesituationGreatChange,historyprofitextroplaterate,ifhistoryprofitextroplate,IfprofitdisStableChangeRage,IfprofitdisStable,predicttype,predict,analyst_prediction,adj_prediction
0,002253,71682103.58,68398642.08999999,2013-12-31,年度报告,44446089.12,2013,12,未知,未知,未知,未知,未知,未知,未知,未知,未知,未知
1,002253,5431640.81,4041859.619999999,2014-03-31,一季度报告,3305945.01,2014,3,未知,未知,未知,未知,未知,未知,未知,未知,未知,未知
2,002253,15332724.98,12517928.339999994,2014-06-30,半年度报告,6688218.489999997,2014,6,未知,未知,未知,未知,未知,未知,未知,未知,未知,未知
3,002253,21495003.03,18403431.23,2014-09-30,三季度报告,10419697.39,2014,9,未知,未知,未知,未知,未知,未知,未知,未知,未知,未知
4,002253,14811824.46,10975751.31,2014-12-31,年度报告,4586777.92,2014,12,0.0,True,未知,未知,未知,未知,未知,未知,未知,未知
5,002253,4751939.29,4248301.23,2015-03-31,一季度报告,3293198.1500000013,2015,3,12.197136203857339,False,未知,未知,未知,未知,未知,未知,68062000.0,未知
6,002253,14290227.71,13134844.44,2015-06-30,半年度报告,12014738.9,2015,6,3.675105284514142,False,未知,未知,未知,未知,未知,未知,56877513.0,未知
7,002253,21833115.67,19508966.25,2015-09-30,三季度报告,16140992.489999995,2015,9,2.334826400347802,False,未知,未知,未知,未知,未知,未知,36530000.0,未知
8,002253,37037469.42,33411877.76,2015-12-31,年度报告,29398793.4,2015,12,3.8395188434470544,False,未知,未知,未知,未知,未知,未知,36530000.0,未知
9,002253,6723620.32,4617259.970000002,2016-03-31,一季度报告,4559622.77,2016,3,14.08481047534595,False,未知,未知,未知,未知,未知,未知,47753750.0,未知
10,002253,16519910.759999998,13537487.62,2016-06-30,半年度报告,11564664.17,2016,6,4.016162445741741,False,未知,未知,未知,未知,未知,未知,50266749.0,未知
11,002253,25175594.61,20675819.88,2016-09-30,三季度报告,17844990.32,2016,9,2.2831825133641126,False,未知,未知,未知,未知,未知,未知,50375132.0,未知
12,002253,42864726.99,38890981.22,2016-12-31,年度报告,30267079.340000004,2016,12,0.9353942022100492,False,0.14358220838642802,True,0.0,True,前期平均,38890981.22,46600000.0,46600000.0
13,002253,4719077.5600000005,4830376.789999999,2017-03-31,一季度报告,4260202.93,2017,3,9.661236085383239,False,0.3204826306614902,True,0.3929488029955152,False,前期平均,18523590.869999997,50711935.0,50711935.0
14,002253,14095575.4,13703585.17,2017-06-30,半年度报告,10529141.03,2017,6,3.3391338259263095,False,0.11534531570019513,True,0.7085116747583857,False,前期平均,21344892.135,51050000.0,51050000.0
15,002253,22087207.89,21062649.16,2017-09-30,三季度报告,14253003.7,2017,9,1.847285424254772,False,0.16209036373416313,True,1.1349141536118001,False,前期平均,24775089.880000003,48300000.0,48300000.0
16,002253,48925925.82,45444751.29,2017-12-31,年度报告,36428589.88,2017,12,0.6722864838663934,False,0.6534353231195826,True,0.0,True,前期平均,45444751.29,45600000.0,45444751.29
17,002253,6343070.210000003,7197296.78,2018-03-31,一季度报告,3236963.19,2018,3,14.189854938514719,False,0.17754293117213815,True,0.024109241038809875,True,前期平均,33103822.69,未知,33103822.69
18,002253,19157650.860000007,20236060.33,2018-06-30,半年度报告,8032368.480000001,2018,6,4.085432949406237,False,0.08500408631886289,True,0.07089946161786836,True,前期平均,38279295.165,未知,38279295.165
19,002253,29972945.399999995,31298539.33,2018-09-30,三季度报告,15771391.259999998,2018,9,2.245412635992534,False,0.060292964497812636,True,0.11870086049792017,False,前期平均,44138484.295,未知,44138484.295
20,002253,54234279.04,54940662.85,2018-12-31,年度报告,32509849.06000001,2018,12,0.4651149135883638,True,0.2246453293711154,True,0.0,True,比例外推,54940662.85,,54940662.85
21,002253,3183665.1900000004,4180439.99,2019-03-31,一季度报告,3627355.0,2019,3,10.300852931911654,False,0.10866690294894027,True,0.028259056552695935,True,前期平均,33118361.750000007,未知,33118361.750000007
22,002253,9917930.55,10984331.990000004,2019-06-30,半年度报告,9134835.81,2019,6,2.741695894963187,False,0.25150067909292406,True,0.07602147215501076,True,前期平均,33285264.000000007,未知,33285264.000000007
23,002253,23991067.05,24960149.98000001,2019-09-30,三季度报告,18476243.42,2019,9,1.3915602094947936,False,0.26835243847421003,True,0.10092767246466999,False,前期平均,42258987.58000001,68220000.0,68220000.0
24,002253,56910722.75,51767414.83000001,2019-12-31,年度报告,42461651.75000001,2019,12,0.3217121136086554,True,0.18169502840906962,True,0.0,True,比例外推,51767414.83000001,未知,51767414.83000001
25,002253,4077440.59,3052704.2800000007,2020-03-31,一季度报告,1099423.21,2020,3,21.51559108827018,False,0.4244037855589052,True,0.01629935719592937,True,前期平均,33773340.690000005,未知,33773340.690000005
