,SECURITYCODE_x,NETPROFIT_x,PARENTNETPROFIT_x,REPORTDATE_x,REPORTTIMETYPE_x,KCFJCXSYJLR,Year,Month,managesituationChangeRate,managesituationGreatChange,historyprofitextroplaterate,ifhistoryprofitextroplate,IfprofitdisStableChangeRage,IfprofitdisStable,predicttype,predict,analyst_prediction,adj_prediction
0,002289,10671799.65,8064622.0,2013-12-31,年度报告,-5990906.75,2013,12,未知,未知,未知,未知,未知,未知,未知,未知,未知,未知
1,002289,-3913208.97,-4195784.12,2014-03-31,一季度报告,-5975016.0,2014,3,未知,未知,未知,未知,未知,未知,未知,未知,未知,未知
2,002289,20221303.36,20067788.28,2014-06-30,半年度报告,14959395.47,2014,6,未知,未知,未知,未知,未知,未知,未知,未知,未知,未知
3,002289,14480528.13,13169680.19,2014-09-30,三季度报告,3400943.66,2014,9,未知,未知,未知,未知,未知,未知,未知,未知,未知,未知
4,002289,-323713509.69,-327065654.94,2014-12-31,年度报告,-339339687.23999995,2014,12,0.0,True,未知,未知,未知,未知,未知,未知,未知,未知
5,002289,-37480339.52,-37582951.01000001,2015-03-31,一季度报告,-38533052.94000001,2015,3,-3.7271223519657832,False,未知,未知,未知,未知,未知,未知,98340000.0,未知
6,002289,-26042314.67,-26035951.6,2015-06-30,半年度报告,-38533052.94000001,2015,6,-0.4722496636339468,True,未知,未知,未知,未知,未知,未知,,未知
7,002289,2297008.65,2230190.9400000004,2015-09-30,三季度报告,-599087.9900000001,2015,9,-0.2630241415096785,True,未知,未知,未知,未知,未知,未知,未知,未知
8,002289,-1102879506.7700002,-1098070059.75,2015-12-31,年度报告,-1093215492.06,2015,12,-1.0329668034559931,False,未知,未知,未知,未知,未知,未知,未知,未知
9,002289,-43742649.78000001,-44479320.69000001,2016-03-31,一季度报告,-46957322.42,2016,3,-1.2847306024083742,False,未知,未知,未知,未知,未知,未知,未知,未知
10,002289,-158410942.39,-158150978.69,2016-06-30,半年度报告,-170816014.15,2016,6,-1.4097869096979159,False,未知,未知,未知,未知,未知,未知,未知,未知
11,002289,-218072840.6699999,-217304735.21000004,2016-09-30,三季度报告,-244330960.43000004,2016,9,3.6459553602464667,False,未知,未知,未知,未知,未知,未知,未知,未知
12,002289,27033859.92,29854961.77,2016-12-31,年度报告,-352549667.34000003,2016,12,-1.0096763060556402,False,-6.046214427010867,True,0.0,True,盈利变化,-851181451.51,未知,-851181451.51
13,002289,-23737313.34,-22824262.66,2017-03-31,一季度报告,-24609530.01,2017,3,-1.243967836966277,False,-1.1135008413481395,True,0.07117725763433119,True,前期平均,-716847817.8399999,未知,-716847817.8399999
14,002289,-37856212.58000001,-36109993.71,2017-06-30,半年度报告,-42755411.69000001,2017,6,-1.067367818718776,False,-53.42729242524008,True,0.3259562432420888,False,前期平均,-740600754.625,未知,-740600754.625
15,002289,-74637326.02999999,-71680277.94,2017-09-30,三季度报告,-77766870.43,2017,9,-1.0489368580572085,False,26.99581136725124,False,0.46518462934852667,False,去年同期,-179898984.85,未知,-179898984.85
16,002289,-130716484.07000002,-127454061.93,2017-12-31,年度报告,-124136806.17999998,2017,12,-0.6052432141921079,True,-1.0378998910103776,True,0.0,True,比例外推,-127454061.93,未知,-127454061.93
17,002289,-12122254.95,-12122254.95,2018-03-31,一季度报告,-12992692.79,2018,3,-1.4495790866111558,False,-0.41550259244152205,True,0.08698127924148945,True,前期平均,-692259646.97,未知,-692259646.97
18,002289,-34276221.260000005,-34276221.260000005,2018-06-30,半年度报告,-35821801.63,2018,6,-1.2819035218446038,False,-0.5895305598460001,True,0.25281433130713876,False,前期平均,-652484267.415,未知,-652484267.415
19,002289,-67381903.77999999,-67381903.77999999,2018-09-30,三季度报告,-70853400.85,2018,9,-1.1429820736840244,False,-0.30819568316546236,True,0.4394682792711101,False,前期平均,-667799459.27,未知,-667799459.27
20,002289,-154320452.15,-154320452.15,2018-12-31,年度报告,-153942040.99999997,2018,12,-1.0816408100778256,False,-0.7569976985960232,True,0.0,True,前期平均,-154320452.15,未知,-154320452.15
21,002289,-21522533.83,-21522533.83,2019-03-31,一季度报告,-23266404.25,2019,3,-1.8803477318384565,False,-0.640715424564091,True,0.05963235680714832,True,前期平均,-224082344.375,未知,-224082344.375
22,002289,-41529741.01000001,-41529741.01000001,2019-06-30,半年度报告,-44463591.16000001,2019,6,-1.3113470288644062,False,-0.6507187230054949,True,0.13063798135601223,False,前期平均,-173087264.85,未知,-173087264.85
23,002289,-51064810.24000001,-51064810.24000001,2019-09-30,三季度报告,-60063679.4,2019,9,-1.158377829229093,False,-0.5395998400762072,True,0.1329934557121613,False,前期平均,-128359131.57000001,未知,-128359131.57000001
24,002289,13033017.73,13033017.73,2019-12-31,年度报告,-75092100.58000001,2019,12,-1.0691535016993534,False,-1.9767852311828271,True,0.0,True,盈利变化,-128037138.67666669,未知,-128037138.67666669
25,002289,-6125604.4700000025,-6125604.4700000025,2020-03-31,一季度报告,-6542699.55,2020,3,-1.495843088657373,False,-0.2003788587718103,True,0.11309455770855892,False,前期平均,-126363916.65999998,未知,-126363916.65999998
