,SECURITYCODE_x,NETPROFIT_x,PARENTNETPROFIT_x,REPORTDATE_x,REPORTTIMETYPE_x,KCFJCXSYJLR,Year,Month,managesituationChangeRate,managesituationGreatChange,historyprofitextroplaterate,ifhistoryprofitextroplate,IfprofitdisStableChangeRage,IfprofitdisStable,predicttype,predict,analyst_prediction,adj_prediction
0,002230,278438551.76000005,278986167.31000006,2013-12-31,年度报告,218880620.88,2013,12,未知,未知,未知,未知,未知,未知,未知,未知,未知,未知
1,002230,49055254.54,50896334.14000001,2014-03-31,一季度报告,40663006.87000001,2014,3,未知,未知,未知,未知,未知,未知,未知,未知,未知,未知
2,002230,117863667.14,116794339.23999996,2014-06-30,半年度报告,91969633.05,2014,6,未知,未知,未知,未知,未知,未知,未知,未知,未知,未知
3,002230,200550280.38,198083916.57,2014-09-30,三季度报告,142274786.97000003,2014,9,未知,未知,未知,未知,未知,未知,未知,未知,未知,未知
4,002230,388486550.11,379429886.55,2014-12-31,年度报告,288791143.93,2014,12,0.0,True,未知,未知,未知,未知,未知,未知,未知,未知
5,002230,60587264.85,66586553.26000001,2015-03-31,一季度报告,47063360.22,2015,3,4.676018896873918,False,未知,未知,未知,未知,未知,未知,556768566.0,未知
6,002230,141157126.67000002,143092293.14,2015-06-30,半年度报告,81738978.07000001,2015,6,1.3623781485541862,False,未知,未知,未知,未知,未知,未知,549787291.0,未知
7,002230,227797165.88000005,223648016.32,2015-09-30,三季度报告,139306120.20999998,2015,9,0.38837278727518304,True,未知,未知,未知,未知,未知,未知,499750196.0,未知
8,002230,436584277.88,425294489.51000017,2015-12-31,年度报告,316252665.83000016,2015,12,-0.2832736379646602,True,未知,未知,未知,未知,未知,未知,502566421.0,未知
9,002230,61324357.82000001,70669421.49,2016-03-31,一季度报告,49458272.7,2016,3,3.595661356381564,False,未知,未知,未知,未知,未知,未知,537660479.0,未知
10,002230,248198167.3100001,256096339.67,2016-06-30,半年度报告,88528011.48,2016,6,0.9725433517142873,False,未知,未知,未知,未知,未知,未知,528974683.0,未知
11,002230,269925782.87,278475158.41,2016-09-30,三季度报告,90381417.2,2016,9,0.22230911295304295,True,未知,未知,未知,未知,未知,未知,522731125.0,未知
12,002230,496778331.5100001,484430415.83,2016-12-31,年度报告,255162424.87000003,2016,12,-0.3622341301155788,True,0.3092453010266237,True,0.0,True,比例外推,484430415.83,521690507.0,484430415.83
13,002230,64700551.47000001,73982687.96,2017-03-31,一季度报告,55585054.7,2017,3,3.540423441159812,False,0.11862365369165578,True,0.032680399511466285,True,前期平均,332641409.2950001,603093571.0,603093571.0
14,002230,101100616.36,107283558.14,2017-06-30,半年度报告,78867064.17999999,2017,6,0.12183967664930276,True,0.9164343036649123,True,0.04949662274718081,True,比例外推,284513632.431156,534194815.0,534194815.0
15,002230,172372777.60999998,168618839.48000002,2017-09-30,三季度报告,121641011.76,2017,9,0.031537442623996804,True,0.26031232461770937,True,0.07490788692214156,True,比例外推,330444547.8327672,511896190.0,511896190.0
16,002230,479179742.6700001,434675994.14,2017-12-31,年度报告,359073780.68,2017,12,-0.4395114800726869,True,0.20420772291811326,True,0.0,True,比例外推,434675994.14,505719091.0,505719091.0
17,002230,89813448.59,81992215.25,2018-03-31,一季度报告,29829243.83,2018,3,3.303495803882056,False,0.06143368536954943,True,0.0280147314841388,True,前期平均,319438944.1400001,655582632.0,655582632.0
18,002230,135059327.31,130602669.24,2018-06-30,半年度报告,20198671.86,2018,6,1.7540737315441628,False,0.48067681152323977,True,0.07193136413684265,True,前期平均,331176719.8150001,639149091.0,639149091.0
19,002230,241204979.25,219103403.3,2018-09-30,三季度报告,24626686.54000001,2018,9,0.6153278703321585,False,0.30735451100696326,True,0.06266843448329867,True,前期平均,389967179.9450001,635666667.0,635666667.0
20,002230,617971087.65,542066004.0,2018-12-31,年度报告,266341728.35999992,2018,12,-0.4189267054393111,True,0.02678152702767553,True,0.0,True,比例外推,542066004.0,598125000.0,542066004.0
21,002230,124835335.32,101882786.04000004,2019-03-31,一季度报告,33030383.42000001,2019,3,2.100187735035952,False,0.4253285179254103,True,0.04154649596140829,True,前期平均,356479225.11500007,859348462.0,859348462.0
22,002230,249866510.66,189452061.85,2019-06-30,半年度报告,31633296.86,2019,6,1.0616017960825725,False,0.22668309410663587,True,0.13830436622451336,False,前期平均,412872626.79499996,864095505.0,864095505.0
23,002230,477074257.00999993,373585127.93000007,2019-09-30,三季度报告,69814337.8,2019,9,0.15436485857702315,True,0.0906885113450731,True,0.16934970253771386,False,平均增速,846065178.6241829,860579000.0,846065178.6241829
24,002230,943070469.5600004,819175858.6300001,2019-12-31,年度报告,488797977.00999993,2019,12,-0.5494311023209242,True,0.26638859598393955,True,0.0,True,比例外推,819175858.6300001,856816522.0,819175858.6300001
25,002230,-124879982.32999998,-131445229.01,2020-03-31,一季度报告,-134570828.41,2020,3,1.2304466203119264,False,0.615844975491213,True,0.04388263773468026,True,盈利变化,595707576.19,1069828636.0,1069828636.0
