,SECURITYCODE_x,NETPROFIT_x,PARENTNETPROFIT_x,REPORTDATE_x,REPORTTIMETYPE_x,KCFJCXSYJLR,Year,Month,managesituationChangeRate,managesituationGreatChange,historyprofitextroplaterate,ifhistoryprofitextroplate,IfprofitdisStableChangeRage,IfprofitdisStable,predicttype,predict,analyst_prediction,adj_prediction
0,002287,211165150.41,213372739.91,2013-12-31,年度报告,180931445.54,2013,12,未知,未知,未知,未知,未知,未知,未知,未知,未知,未知
1,002287,49703479.06,49771350.30000001,2014-03-31,一季度报告,36028591.81,2014,3,未知,未知,未知,未知,未知,未知,未知,未知,未知,未知
2,002287,130260917.06,130753946.03000005,2014-06-30,半年度报告,97898960.41,2014,6,未知,未知,未知,未知,未知,未知,未知,未知,未知,未知
3,002287,171808031.87,172678589.15,2014-09-30,三季度报告,138310079.29,2014,9,未知,未知,未知,未知,未知,未知,未知,未知,未知,未知
4,002287,235469484.27000004,237534133.86000004,2014-12-31,年度报告,191957303.72,2014,12,0.0,True,未知,未知,未知,未知,未知,未知,未知,未知
5,002287,55764815.66000001,55534375.83000001,2015-03-31,一季度报告,52305455.41,2015,3,3.2484983828816105,False,未知,未知,未知,未知,未知,未知,288736000.0,未知
6,002287,151624650.31000003,152260932.59,2015-06-30,半年度报告,140839743.82999998,2015,6,0.6210936877769283,False,未知,未知,未知,未知,未知,未知,318825000.0,未知
7,002287,186024086.61,187482436.28000003,2015-09-30,三季度报告,175411071.69000003,2015,9,0.2290761270682612,True,未知,未知,未知,未知,未知,未知,289300000.0,未知
8,002287,261357376.53,264911033.57,2015-12-31,年度报告,226182538.51999995,2015,12,-0.10321649081344056,True,未知,未知,未知,未知,未知,未知,338150000.0,未知
9,002287,64335970.7,64992459.03999999,2016-03-31,一季度报告,65902459.04,2016,3,2.7867093777818823,False,未知,未知,未知,未知,未知,未知,308253333.0,未知
10,002287,160058843.87,161256154.29,2016-06-30,半年度报告,154320864.14000002,2016,6,0.39268351140970853,True,未知,未知,未知,未知,未知,未知,304572000.0,未知
11,002287,199087568.46,201321956.03,2016-09-30,三季度报告,183394591.41000003,2016,9,0.13514950809949836,True,未知,未知,未知,未知,未知,未知,308753333.0,未知
12,002287,287785576.18,289861633.0,2016-12-31,年度报告,223231709.94,2016,12,-0.19204442126866342,True,0.17034083896003496,True,0.0,True,比例外推,289861633.0,312565000.0,289861633.0
13,002287,69169292.83000001,69313018.33,2017-03-31,一季度报告,70083815.40999998,2017,3,2.2822252950012607,False,0.22000589600506618,True,0.057165334219207026,True,前期平均,234215915.83999997,331252500.0,331252500.0
14,002287,169392013.82,169649086.24,2017-06-30,半年度报告,163544664.87,2017,6,0.3192969866851506,True,0.1356299321270923,True,0.09799253876882252,True,比例外推,275093962.8008239,324336667.0,324336667.0
15,002287,207496298.37000003,208023087.07,2017-09-30,三季度报告,201511089.51,2017,9,0.06066467154842255,True,0.11274286559677525,True,0.05200732890351989,True,比例外推,267356784.8943557,319500000.0,319500000.0
16,002287,300772618.24,300842399.35999995,2017-12-31,年度报告,276223716.47,2017,12,-0.266241368963108,True,0.1584944329161358,True,0.0,True,比例外推,300842399.35999995,368000000.0,368000000.0
17,002287,76867042.08,77080535.58,2018-03-31,一季度报告,77086855.98,2018,3,2.052874212968876,False,0.1518541206327536,True,0.03515514896977123,True,前期平均,242683702.58499998,350316667.0,350316667.0
18,002287,190042977.56,190128060.21,2018-06-30,半年度报告,178606011.26999998,2018,6,0.24660629298845893,True,0.08694888874785622,True,0.05595067508688423,True,比例外推,292635159.74394786,336333333.0,336333333.0
19,002287,245813301.0,245757264.11000007,2018-09-30,三季度报告,231881512.44000003,2018,9,0.01768153007461268,True,0.077590333288066,True,0.04601238861243284,True,比例外推,312872745.2912525,340346667.0,312872745.2912525
20,002287,317441318.46000004,318767001.92999995,2018-12-31,年度报告,275434568.68999994,2018,12,-0.2979242869724869,True,0.09542557818760426,True,0.0,True,比例外推,318767001.92999995,,318767001.92999995
21,002287,84479612.85,84775457.80999999,2019-03-31,一季度报告,78608518.92999999,2019,3,1.7471481235121307,False,0.15152077225370486,True,0.02255037414489003,True,前期平均,266510033.79000002,376173333.0,376173333.0
22,002287,201912106.80000007,202076832.88000005,2019-06-30,半年度报告,186425000.91,2019,6,0.11114419023102994,True,0.15369544879936417,True,0.051869586521069544,True,比例外推,305157358.5807216,386000000.0,386000000.0
23,002287,275417504.3699999,275319266.56,2019-09-30,三季度报告,257308206.31000003,2019,9,-0.14095311542966507,True,0.20916406701783335,True,0.06812537719028189,True,比例外推,340595242.0510721,369000000.0,340595242.0510721
24,002287,364389364.2,364254312.93,2019-12-31,年度报告,303016185.35,2019,12,-0.33478996548268064,True,0.07870834683671482,True,0.0,True,比例外推,364254312.93,369000000.0,364254312.93
25,002287,48478920.28999998,48730150.83000001,2020-03-31,一季度报告,49637789.07,2020,3,1.4995989361946989,False,0.15696703703312598,True,0.015535243908155139,True,前期平均,250973957.715,413500000.0,413500000.0
