,SECURITYCODE_x,NETPROFIT_x,PARENTNETPROFIT_x,REPORTDATE_x,REPORTTIMETYPE_x,KCFJCXSYJLR,Year,Month,managesituationChangeRate,managesituationGreatChange,historyprofitextroplaterate,ifhistoryprofitextroplate,IfprofitdisStableChangeRage,IfprofitdisStable,predicttype,predict,analyst_prediction,adj_prediction
0,002295,3577467.37,3577467.37,2013-12-31,年度报告,-22053363.3,2013,12,未知,未知,未知,未知,未知,未知,未知,未知,未知,未知
1,002295,-12209980.569999995,-12209980.569999995,2014-03-31,一季度报告,-12607207.999999994,2014,3,未知,未知,未知,未知,未知,未知,未知,未知,未知,未知
2,002295,-24550776.38,-24550776.38,2014-06-30,半年度报告,-25132074.48,2014,6,未知,未知,未知,未知,未知,未知,未知,未知,未知,未知
3,002295,-31593967.11,-31593967.11,2014-09-30,三季度报告,-32454955.57,2014,9,未知,未知,未知,未知,未知,未知,未知,未知,未知,未知
4,002295,-56003141.24000001,-56003141.24000001,2014-12-31,年度报告,-58241753.68,2014,12,0.0,True,未知,未知,未知,未知,未知,未知,未知,未知
5,002295,-6860473.000000001,-6860473.000000001,2015-03-31,一季度报告,-7220271.950000001,2015,3,-1.2929953368467975,False,未知,未知,未知,未知,未知,未知,未知,未知
6,002295,2854646.41,2854646.41,2015-06-30,半年度报告,2219957.58,2015,6,-1.145717076911439,False,未知,未知,未知,未知,未知,未知,未知,未知
7,002295,7402110.88,7402110.88,2015-09-30,三季度报告,6539093.8900000015,2015,9,-1.1132326104393415,False,未知,未知,未知,未知,未知,未知,未知,未知
8,002295,6366100.650000001,6366100.650000001,2015-12-31,年度报告,3822425.38,2015,12,-1.063879762648828,False,未知,未知,未知,未知,未知,未知,未知,未知
9,002295,-4200175.219999999,-4200175.219999999,2016-03-31,一季度报告,-4863724.38,2016,3,-1.5214607462196847,False,未知,未知,未知,未知,未知,未知,53640000.0,未知
10,002295,4452095.51,4452095.51,2016-06-30,半年度报告,1832941.71,2016,6,0.2532085786414437,True,未知,未知,未知,未知,未知,未知,,未知
11,002295,9063066.73,9063066.73,2016-09-30,三季度报告,4694808.84,2016,9,-0.5166963278453348,True,未知,未知,未知,未知,未知,未知,未知,未知
12,002295,9184280.67,9184280.67,2016-12-31,年度报告,8210171.04,2016,12,-0.4380441707279637,True,-1.2428619483570598,True,0.0,True,比例外推,9184280.67,77400000.0,77400000.0
13,002295,13846758.92,13846758.92,2017-03-31,一季度报告,13285095.11,2017,3,-1.851742411355877,False,-0.5595096671840721,True,1.1339698518370196,False,盈利变化,33382706.656666666,42890000.0,42890000.0
14,002295,37430280.53000001,37430280.53000001,2017-06-30,半年度报告,39422589.27,2017,6,-0.1964531394341088,True,-1.4104045759456705,True,0.18859329171113165,False,平均增速,112728101.72098601,,112728101.72098601
15,002295,49253910.49,49253910.49,2017-09-30,三季度报告,49300780.12,2017,9,-0.6052696646094319,True,-1.7492659218734121,True,0.7641210497180836,False,平均增速,71414559.07506022,未知,71414559.07506022
16,002295,58831640.28000001,58831640.28000001,2017-12-31,年度报告,54732336.96999998,2017,12,-0.6104793071399025,True,-1.3700575441578717,True,0.0,True,比例外推,58831640.28000001,未知,58831640.28000001
17,002295,17365241.799999993,17365241.799999993,2018-03-31,一季度报告,18594645.78,2018,3,-0.7416386469448261,True,-3.503787959725927,True,1.1427248673740151,False,平均增速,137703439.18549788,未知,137703439.18549788
18,002295,36279923.76000001,36279923.76000001,2018-06-30,半年度报告,36058212.1,2018,6,-0.9044231750512077,True,9.24540922337654,False,0.2848488427275993,False,未知,未知,未知,未知
19,002295,43579799.3,43579799.3,2018-09-30,三季度报告,42004602.75999999,2018,9,-0.9273668357616736,True,4.98279735046235,False,0.6496157299174208,False,未知,未知,未知,未知
20,002295,47794207.86,47794207.86,2018-12-31,年度报告,45295326.62000001,2018,12,-0.9391914392838003,True,6.5665849048131255,False,0.0,True,比例外推,47794207.86,未知,47794207.86
21,002295,17274357.94,17274357.94,2019-03-31,一季度报告,12180799.63,2019,3,-0.7939868957079537,True,2.6002884212780923,False,0.6126844237943798,False,未知,未知,未知,未知
22,002295,44989593.38,44989593.38,2019-06-30,半年度报告,33052589.52,2019,6,-0.9013926436652467,True,0.73246731395328,True,0.35661456354656934,False,平均增速,66528872.17936985,未知,66528872.17936985
23,002295,49668387.07000001,49668387.07000001,2019-09-30,三季度报告,37736017.45999999,2019,9,-0.9179099622425293,True,0.49458361449688315,True,0.2281514307856919,False,平均增速,57311703.35192288,未知,57311703.35192288
24,002295,50998867.54000001,50998867.54000001,2019-12-31,年度报告,38054909.94,2019,12,-0.9251485163122861,True,0.40538295129855173,True,0.0,True,比例外推,50998867.54000001,未知,50998867.54000001
25,002295,-7226307.22,-7226307.22,2020-03-31,一季度报告,-7467579.770000001,2020,3,-0.7929030194681724,True,0.10690487898976353,True,0.08607569449920804,True,比例外推,-22775237.303484745,未知,-22775237.303484745
