,SECURITYCODE_x,NETPROFIT_x,PARENTNETPROFIT_x,REPORTDATE_x,REPORTTIMETYPE_x,KCFJCXSYJLR,Year,Month,managesituationChangeRate,managesituationGreatChange,historyprofitextroplaterate,ifhistoryprofitextroplate,IfprofitdisStableChangeRage,IfprofitdisStable,predicttype,predict,analyst_prediction,adj_prediction
0,002250,453815416.38,449559079.2999999,2013-12-31,年度报告,448503731.17,2013,12,未知,未知,未知,未知,未知,未知,未知,未知,未知,未知
1,002250,121809321.12000002,119964624.76,2014-03-31,一季度报告,119848819.75,2014,3,未知,未知,未知,未知,未知,未知,未知,未知,未知,未知
2,002250,245316819.78,241048769.16,2014-06-30,半年度报告,240695962.14,2014,6,未知,未知,未知,未知,未知,未知,未知,未知,未知,未知
3,002250,374220613.32,368183926.73,2014-09-30,三季度报告,367430168.61,2014,9,未知,未知,未知,未知,未知,未知,未知,未知,未知,未知
4,002250,558805078.97,551050422.21,2014-12-31,年度报告,556875191.9100001,2014,12,0.0,True,未知,未知,未知,未知,未知,未知,未知,未知
5,002250,152754221.84,150641751.88000005,2015-03-31,一季度报告,149486509.10999998,2015,3,2.7256214237736813,False,未知,未知,未知,未知,未知,未知,713734454.0,未知
6,002250,306557985.92,302238266.26000005,2015-06-30,半年度报告,303456837.55,2015,6,0.8499156184520141,False,未知,未知,未知,未知,未知,未知,699587273.0,未知
7,002250,438022508.4,432707064.72999984,2015-09-30,三季度报告,433066993.11,2015,9,0.21269486561377005,True,未知,未知,未知,未知,未知,未知,662791000.0,未知
8,002250,644576317.16,638072408.2300001,2015-12-31,年度报告,638339514.4399997,2015,12,-0.1878824415546096,True,未知,未知,未知,未知,未知,未知,667537273.0,未知
9,002250,106714766.65,106035620.81000002,2016-03-31,一季度报告,106585790.04999998,2016,3,1.970886244017149,False,未知,未知,未知,未知,未知,未知,747952000.0,未知
10,002250,249793494.79,246069664.3100001,2016-06-30,半年度报告,190075383.0000001,2016,6,0.4803575089328404,True,未知,未知,未知,未知,未知,未知,536580000.0,未知
11,002250,245509303.7800001,239297575.50000003,2016-09-30,三季度报告,183726846.89,2016,9,0.03605501470161441,True,未知,未知,未知,未知,未知,未知,437477500.0,未知
12,002250,269177263.45,263852074.01,2016-12-31,年度报告,228229261.7,2016,12,-0.2959477345064298,True,0.2730856626345687,True,0.0,True,比例外推,263852074.01,399636667.0,399636667.0
13,002250,84307969.71000002,81935409.60999998,2017-03-31,一季度报告,82341851.22,2017,3,3.2526018715705076,False,0.22265887524953148,True,0.16154232108018163,False,前期平均,544875098.3549999,532164286.0,544875098.3549999
14,002250,176559013.14,168464473.39000005,2017-06-30,半年度报告,170823729.58,2017,6,0.8167623490816689,False,0.09474579303122563,True,0.2526807688566335,False,前期平均,493995426.7199999,385939329.0,385939329.0
15,002250,180116846.58,170667768.41000003,2017-09-30,三季度报告,175670658.39,2017,9,0.8484652491486114,False,0.3954782817732912,True,0.09059522731823633,True,前期平均,368026540.7249999,237333332.99999997,237333332.99999997
16,002250,210767984.17,204530642.12,2017-12-31,年度报告,226100450.92,2017,12,0.6859351735860736,False,0.5526318350679886,True,0.0,True,前期平均,204530642.12,583000000.0,583000000.0
17,002250,61894790.37,60105456.08000001,2018-03-31,一季度报告,60849857.16999999,2018,3,4.382829380674453,False,0.3501499335189394,True,0.12094467923777547,False,前期平均,365353694.5699998,235250000.0,235250000.0
18,002250,9178140.11,5640702.339999999,2018-06-30,半年度报告,64607052.87,2018,6,1.5703327647178988,False,0.3652968698324291,True,0.21252617670628982,False,前期平均,192158980.1349998,52000000.0,52000000.0
19,002250,-11030874.16,-17934886.18,2018-09-30,三季度报告,58099485.18,2018,9,1.519561190398895,False,0.47298181775753734,True,0.07503792511151786,True,盈利变化,152276787.36,82000000.0,82000000.0
20,002250,47014315.7,37531203.65,2018-12-31,年度报告,113669038.45,2018,12,1.1531515717015364,False,0.5386765345875933,True,0.0,True,前期平均,37531203.65,,37531203.65
21,002250,154884216.38,152003404.09,2019-03-31,一季度报告,138401060.09999996,2019,3,6.332045454345078,False,0.3519641530696792,True,0.09132384853265046,True,前期平均,284704439.765,491000000.0,491000000.0
22,002250,259576033.31000003,238547870.1900001,2019-06-30,半年度报告,233498327.77,2019,6,48.44524826827905,False,0.956945766991914,True,0.15053021924377907,False,前期平均,285263170.21000004,391800000.0,391800000.0
23,002250,333123885.19999987,293156171.94,2019-09-30,三季度报告,330537379.54,2019,9,-42.1404762485297,False,1.0518336298212407,True,0.18657049970272077,False,前期平均,340622275.61,395500000.0,395500000.0
24,002250,195983032.8400001,144254905.49000004,2019-12-31,年度报告,165105538.25999996,2019,12,8.652707045143698,False,0.8040846703529654,True,0.0,True,前期平均,144254905.49000004,394750000.0,394750000.0
25,002250,-31390111.26,-36800566.58000001,2020-03-31,一季度报告,-30818907.46,2020,3,1.930030102399773,False,1.1187591300636133,True,0.25900294748503194,False,盈利变化,-81371717.92333326,348347778.00000006,348347778.00000006
