,SECURITYCODE_x,NETPROFIT_x,PARENTNETPROFIT_x,REPORTDATE_x,REPORTTIMETYPE_x,KCFJCXSYJLR,Year,Month,managesituationChangeRate,managesituationGreatChange,historyprofitextroplaterate,ifhistoryprofitextroplate,IfprofitdisStableChangeRage,IfprofitdisStable,predicttype,predict,analyst_prediction,adj_prediction
0,002277,408577784.67,411434858.34,2013-12-31,年度报告,406526678.28,2013,12,未知,未知,未知,未知,未知,未知,未知,未知,未知,未知
1,002277,180180029.77,182400120.72,2014-03-31,一季度报告,180703056.39,2014,3,未知,未知,未知,未知,未知,未知,未知,未知,未知,未知
2,002277,265150672.52,270019203.3500001,2014-06-30,半年度报告,266023522.98,2014,6,未知,未知,未知,未知,未知,未知,未知,未知,未知,未知
3,002277,307701414.92999995,314618361.68,2014-09-30,三季度报告,309444454.63,2014,9,未知,未知,未知,未知,未知,未知,未知,未知,未知,未知
4,002277,335087469.07999986,352392097.64,2014-12-31,年度报告,348657907.15,2014,12,0.0,True,未知,未知,未知,未知,未知,未知,未知,未知
5,002277,145885648.1,148955528.27999997,2015-03-31,一季度报告,144360299.42000002,2015,3,1.2676085978648686,False,未知,未知,未知,未知,未知,未知,351002392.00000006,未知
6,002277,242396350.48,250125048.48,2015-06-30,半年度报告,244850930.66,2015,6,0.540926827704657,False,未知,未知,未知,未知,未知,未知,321003333.0,未知
7,002277,277154326.92,288171195.55999994,2015-09-30,三季度报告,280263284.13,2015,9,0.32783849811983734,True,未知,未知,未知,未知,未知,未知,319800000.0,未知
8,002277,300770616.55999994,310183069.92,2015-12-31,年度报告,303378834.22000015,2015,12,0.21931681238863288,True,未知,未知,未知,未知,未知,未知,310491066.0,未知
9,002277,111448386.47,128036570.47,2016-03-31,一季度报告,127562890.10999998,2016,3,1.800671553310939,False,未知,未知,未知,未知,未知,未知,288100000.0,未知
10,002277,179098409.33,208689911.76,2016-06-30,半年度报告,207426788.14000005,2016,6,0.6855772946289123,False,未知,未知,未知,未知,未知,未知,304470000.0,未知
11,002277,187504595.58000004,234069632.88000005,2016-09-30,三季度报告,232100763.88000005,2016,9,0.4741887280292582,True,未知,未知,未知,未知,未知,未知,350455000.0,未知
12,002277,222257281.39,299171824.18,2016-12-31,年度报告,495280190.6400001,2016,12,0.3584365033493686,True,0.19111289644544593,True,0.0,True,比例外推,299171824.18,343180000.0,343180000.0
13,002277,185313782.03,164697997.88,2017-03-31,一季度报告,165795489.31,2017,3,2.6660717809493115,False,0.31640528866436746,True,0.1596698272345532,False,前期平均,328184690.6600001,370990000.0,370990000.0
14,002277,271305798.41,268535384.94,2017-06-30,半年度报告,270918722.59000003,2017,6,1.2813032577925911,False,0.29425885203152885,True,0.24415294711903796,False,前期平均,339116528.80500007,358024000.0,339116528.80500007
15,002277,278528611.51,301469954.9,2017-09-30,三季度报告,304496586.1299999,2017,9,1.179028110783971,False,0.35880053092446157,True,0.2913620903676068,False,前期平均,332634456.20500004,369597500.0,369597500.0
16,002277,528679880.6700001,565110516.3800001,2017-12-31,年度报告,580394271.83,2017,12,0.8383100077295517,False,0.3009217421013213,True,0.0,True,前期平均,565110516.3800001,370090000.0,370090000.0
17,002277,290647226.96000004,267122194.18,2018-03-31,一季度报告,266082726.86,2018,3,1.2047889811231436,False,0.44025862991388304,True,0.1361554227577227,False,前期平均,530490111.84500015,353333333.0,353333333.0
18,002277,384499263.33,385330487.54,2018-06-30,半年度报告,383225912.91000015,2018,6,0.5059677569166922,False,0.28735075393249654,True,0.24285624059677102,False,前期平均,558521140.5700002,285050000.0,285050000.0
19,002277,468025825.02,493040176.73999983,2018-09-30,三季度报告,485681332.34,2018,9,0.4669149515913588,True,0.19885188047798633,True,0.2847833303376871,False,平均增速,906504466.3696918,223000000.0,223000000.0
20,002277,387656085.78,453515620.58,2018-12-31,年度报告,440230404.11,2018,12,-0.22717357022891385,True,1.0216125477901008,True,0.0,True,比例外推,453515620.58,361000000.0,361000000.0
21,002277,136978778.26,165711313.50000003,2019-03-31,一季度报告,164808183.24,2019,3,0.4057515323420926,True,0.9587889415223763,True,0.221872271038335,False,平均增速,303685326.85110855,345000000.0,345000000.0
22,002277,184461716.08,246246816.54,2019-06-30,半年度报告,248375628.87,2019,6,0.06262306234728576,True,0.7073520039224667,True,0.285144465905968,False,平均增速,292229329.40230364,342000000.0,342000000.0
23,002277,228185141.46,322138204.23000014,2019-09-30,三季度报告,321696029.24,2019,9,-0.1270187181390249,True,1.0085513989118597,True,0.4044081183744549,False,平均增速,285151678.80140615,317500000.0,317500000.0
24,002277,201734598.67000005,316636079.37000006,2019-12-31,年度报告,303856752.34,2019,12,0.053969741885784274,True,0.03245945297624292,True,0.0,True,比例外推,316636079.37000006,292000000.0,316636079.37000006
25,002277,-2051782.77,38753863.28999999,2020-03-31,一季度报告,37044005.13,2020,3,1.982781638586941,False,0.42441176620466436,True,0.1918281724589987,False,前期平均,333127093.17499995,244000000.0,244000000.0
