,SECURITYCODE_x,NETPROFIT_x,PARENTNETPROFIT_x,REPORTDATE_x,REPORTTIMETYPE_x,KCFJCXSYJLR,Year,Month,managesituationChangeRate,managesituationGreatChange,historyprofitextroplaterate,ifhistoryprofitextroplate,IfprofitdisStableChangeRage,IfprofitdisStable,predicttype,predict,analyst_prediction,adj_prediction
0,002205,56903799.19000001,70789371.45,2013-12-31,年度报告,69120882.53999999,2013,12,未知,未知,未知,未知,未知,未知,未知,未知,未知,未知
1,002205,-5725874.02,-4034656.1,2014-03-31,一季度报告,-4259126.68,2014,3,未知,未知,未知,未知,未知,未知,未知,未知,未知,未知
2,002205,22390361.63,24844216.39,2014-06-30,半年度报告,24498772.03,2014,6,未知,未知,未知,未知,未知,未知,未知,未知,未知,未知
3,002205,60159037.08,67264431.7,2014-12-31,年度报告,66251748.42,2014,12,0.0,True,未知,未知,未知,未知,未知,未知,未知,未知
4,002205,-10113462.12,-9931638.029999996,2015-03-31,一季度报告,-10132511.809999997,2015,3,-10.938011033990582,False,未知,未知,未知,未知,未知,未知,未知,未知
5,002205,930554.82,4046165.23,2015-06-30,半年度报告,3479991.06,2015,6,1.5414417207874287,False,未知,未知,未知,未知,未知,未知,72900000.0,未知
6,002205,-14706668.12,-8700330.12,2015-09-30,三季度报告,-9259617.63,2015,9,未知,未知,未知,未知,未知,未知,未知,未知,,未知
7,002205,-60868871.43000001,-52924086.03000001,2015-12-31,年度报告,-56059391.09,2015,12,-0.0541105384660852,True,未知,未知,未知,未知,未知,未知,,未知
8,002205,-15094525.31,-12689455.049999995,2016-03-31,一季度报告,-12745134.12,2016,3,-6.626540003296123,False,未知,未知,未知,未知,未知,未知,未知,未知
9,002205,-21491842.220000006,-15010241.61,2016-06-30,半年度报告,-14428510.79,2016,6,60.150399704554765,False,未知,未知,未知,未知,未知,未知,未知,未知
10,002205,-27575711.74000001,-19736888.78,2016-09-30,三季度报告,-19397257.76,2016,9,-4.8692516024492996,False,未知,未知,未知,未知,未知,未知,6126667.0,未知
11,002205,4442982.5200000005,13328630.99,2016-12-31,年度报告,12635461.39,2016,12,-1.9348587850103336,False,2.039935018994564,False,0.0,True,未知,未知,-1835000.0,未知
12,002205,-13132642.829999998,-11766631.71,2017-03-31,一季度报告,-12613657.63,2017,3,-4.769830320685985,False,-0.9059542870462753,True,0.7112728416906493,False,前期平均,525366.1999999955,56310000.0,56310000.0
13,002205,-6987312.03,-4690280.120000001,2017-06-30,半年度报告,-5431907.079999999,2017,6,-3.6476929528659086,False,2.8431387347987354,False,0.8638394735158368,False,去年同期,22373692.06,47265000.0,47265000.0
14,002205,481650.8300000001,2798346.88,2017-09-30,三季度报告,2135942.36,2017,9,-3.063547796210028,False,未知,未知,未知,未知,未知,未知,,未知
15,002205,17630633.36,21249151.17,2017-12-31,年度报告,16371372.77,2017,12,11.807567649399621,False,-13.51836437613915,True,0.0,True,前期平均,21249151.17,42185000.0,42185000.0
16,002205,-13802385.430000005,-12933558.63,2018-03-31,一季度报告,-13498633.609999998,2018,3,-5.333004401826104,False,-0.04194298465658973,True,0.7135473886141976,False,前期平均,-23206700.515000008,未知,-23206700.515000008
17,002205,-4014094.74,-5215087.06,2018-06-30,半年度报告,-5540438.59,2018,6,-9.143875491130744,False,-0.3203429440901645,True,0.6299807941138821,False,前期平均,-21452792.045,未知,-21452792.045
18,002205,-2088747.58,-4705451.569999998,2018-09-30,三季度报告,-5186900.52,2018,9,117.14325990053834,False,-1.0227825790125713,True,1.1219773533884625,False,盈利变化,17994554.33444445,未知,17994554.33444445
19,002205,2961394.5900000012,3345887.47,2018-12-31,年度报告,1107998.0099999998,2018,12,2.22755275026603,False,-1.6249129149962025,True,0.0,True,前期平均,3345887.47,未知,3345887.47
20,002205,-18482256.880000006,-17544815.65,2019-03-31,一季度报告,-17937981.12,2019,3,-5.122751062024211,False,-0.02204958276058896,True,7.528886091457783,False,前期平均,9637997.305,未知,9637997.305
21,002205,2073272.53,-3056669.85,2019-06-30,半年度报告,-20978860.72,2019,6,-15.175998045825898,False,-0.7181029531451062,True,2.8423701668893675,False,前期平均,21376956.164999995,未知,21376956.164999995
22,002205,7677796.35,1665756.7600000002,2019-09-30,三季度报告,-17365861.759999998,2019,9,-28.24302339586673,False,-0.8458150967521392,True,2.6526589547046937,False,盈利变化,-2066984.1922222213,未知,-2066984.1922222213
23,002205,13735165.5,4209180.32,2019-12-31,年度报告,-16693581.409999995,2019,12,18.21520333094145,False,0.7316801555214885,True,0.0,True,前期平均,4209180.32,未知,4209180.32
24,002205,-24929048.83000001,-22359023.69,2020-03-31,一季度报告,-22273470.85,2020,3,-4.078833908621662,False,-0.3723584546927817,True,8.22329387810145,False,前期平均,-563192.6800000034,未知,-563192.6800000034
