,SECURITYCODE_x,NETPROFIT_x,PARENTNETPROFIT_x,REPORTDATE_x,REPORTTIMETYPE_x,KCFJCXSYJLR,Year,Month,managesituationChangeRate,managesituationGreatChange,historyprofitextroplaterate,ifhistoryprofitextroplate,IfprofitdisStableChangeRage,IfprofitdisStable,predicttype,predict,analyst_prediction,adj_prediction
0,002271,364960674.68,358496468.13,2013-12-31,年度报告,336641035.98,2013,12,未知,未知,未知,未知,未知,未知,未知,未知,未知,未知
1,002271,56860632.03000001,56108046.24999999,2014-03-31,一季度报告,37258211.32,2014,3,未知,未知,未知,未知,未知,未知,未知,未知,未知,未知
2,002271,226528546.29,223274742.44,2014-06-30,半年度报告,217233875.98999995,2014,6,未知,未知,未知,未知,未知,未知,未知,未知,未知,未知
3,002271,432234538.87,427448008.33,2014-09-30,三季度报告,412361569.66,2014,9,未知,未知,未知,未知,未知,未知,未知,未知,未知,未知
4,002271,582572942.0899999,576550564.08,2014-12-31,年度报告,553270468.3000001,2014,12,0.0,True,未知,未知,未知,未知,未知,未知,未知,未知
5,002271,45162083.94000001,44183051.38,2015-03-31,一季度报告,43986297.61000001,2015,3,5.418512451417081,False,未知,未知,未知,未知,未知,未知,881562500.0,未知
6,002271,287582770.57,284052032.60000014,2015-06-30,半年度报告,223258620.43000007,2015,6,0.6111023562248104,False,未知,未知,未知,未知,未知,未知,778190611.0000001,未知
7,002271,463739506.8800001,464062909.6800001,2015-09-30,三季度报告,400575289.71000016,2015,9,-0.15564203722792608,True,未知,未知,未知,未知,未知,未知,672971395.0,未知
8,002271,728814633.89,729715166.8299999,2015-12-31,年度报告,627153462.21,2015,12,-0.373536516524967,True,未知,未知,未知,未知,未知,未知,672971395.0,未知
9,002271,55108400.08,55932590.75999999,2016-03-31,一季度报告,49421812.32999998,2016,3,7.081130072847563,False,未知,未知,未知,未知,未知,未知,858566384.0,未知
10,002271,362605857.71,364391830.85,2016-06-30,半年度报告,355948062.92000014,2016,6,0.2690630734123399,True,未知,未知,未知,未知,未知,未知,911903333.0,未知
11,002271,719347322.0799999,720696429.9399997,2016-09-30,三季度报告,699010687.6099999,2016,9,-0.21300499684526703,True,未知,未知,未知,未知,未知,未知,1088323636.0,未知
12,002271,1026322705.43,1028709692.11,2016-12-31,年度报告,956471658.39,2016,12,-0.49924074283189607,True,0.5383404261147373,True,0.0,True,比例外推,1028709692.11,1088323636.0,1028709692.11
13,002271,77569337.36999997,78758604.36,2017-03-31,一季度报告,62721681.72999999,2017,3,5.622596086081112,False,0.08031627184292421,True,0.011378752879689813,True,前期平均,628348315.1500001,1271310000.0,1271310000.0
14,002271,491592620.1999999,493718902.54,2017-06-30,半年度报告,470447251.6999999,2017,6,0.006494150383757265,True,0.41061223831702903,True,0.019045890238587104,True,比例外推,1282532274.2600584,1342468667.0000002,1282532274.2600584
15,002271,887825203.14,868731699.8099997,2017-09-30,三季度报告,825451694.2500001,2017,9,-0.49265026298462805,True,0.6057324997128687,True,0.0662330448159898,True,比例外推,1214211909.619471,1307711667.0,1214211909.619471
16,002271,1242134670.4499998,1238836792.5400002,2017-12-31,年度报告,1141010956.2299998,2017,12,-0.644399687594272,True,0.5652469555585486,True,0.0,True,比例外推,1238836792.5400002,1311656923.0,1238836792.5400002
17,002271,97819660.48000003,98857595.45,2018-03-31,一季度报告,76132853.06000002,2018,3,3.704960581771696,False,0.5472018137366914,True,0.011210533945827432,True,前期平均,843966100.7800001,1659667692.0,1659667692.0
18,002271,617260448.5300001,618414793.65,2018-06-30,半年度报告,528442767.3700001,2018,6,-0.2575952939824053,True,0.5121538544912797,True,0.03216018488500588,True,比例外推,1480072380.4735222,1605540713.9999998,1480072380.4735222
19,002271,1115417857.91,1114300443.7199996,2018-09-30,三季度报告,994774907.5000004,2018,9,-0.5889273323293461,True,0.5008622890687547,True,0.058940530264421476,True,比例外推,1545398507.541339,1595145556.0,1545398507.541339
20,002271,1510934633.98,1508221286.1999998,2018-12-31,年度报告,1323057092.1799998,2018,12,-0.7061826842432614,True,0.4154273202702703,True,0.0,True,比例外推,1508221286.1999998,1591443158.0,1508221286.1999998
21,002271,123305091.78,127415323.68999998,2019-03-31,一季度报告,106953013.72,2019,3,2.730954216045546,False,0.4745452004239021,True,0.0030571596628313144,True,前期平均,1120084883.97,1961715000.0,1961715000.0
22,002271,924304839.13,915950873.55,2019-06-30,半年度报告,688906310.48,2019,6,-0.4087411957964415,True,0.445238933322089,True,0.02247459535850238,True,比例外推,1972783544.5857089,2038617200.0,1972783544.5857089
23,002271,1576387437.5000005,1566103896.7800007,2019-09-30,三季度报告,1303715974.2799995,2019,9,-0.6728036295170668,True,0.38804993291845225,True,0.016497000190955124,True,比例外推,2035236929.6802895,2085946842.0,2035236929.6802895
24,002271,2075261309.8,2065944687.98,2019-12-31,年度报告,1877957843.33,2019,12,-0.7584536971538962,True,0.3321252142935815,True,0.0,True,比例外推,2065944687.98,2082110556.0,2065944687.98
25,002271,122137940.87,131054901.8,2020-03-31,一季度报告,108585063.75999998,2020,3,1.95981836120085,False,0.40607556108457443,True,0.0015181192249739336,True,前期平均,1293661658.6099997,2848538148.0,2848538148.0
