,SECURITYCODE_x,NETPROFIT_x,PARENTNETPROFIT_x,REPORTDATE_x,REPORTTIMETYPE_x,KCFJCXSYJLR,Year,Month,managesituationChangeRate,managesituationGreatChange,historyprofitextroplaterate,ifhistoryprofitextroplate,IfprofitdisStableChangeRage,IfprofitdisStable,predicttype,predict,analyst_prediction,adj_prediction
0,002290,30008163.340000004,30008163.340000004,2013-12-31,年度报告,24057295.63,2013,12,未知,未知,未知,未知,未知,未知,未知,未知,未知,未知
1,002290,9947858.46,9947858.46,2014-03-31,一季度报告,9067959.25,2014,3,未知,未知,未知,未知,未知,未知,未知,未知,未知,未知
2,002290,21491492.9,21491492.9,2014-06-30,半年度报告,20429999.96,2014,6,未知,未知,未知,未知,未知,未知,未知,未知,未知,未知
3,002290,30096890.94,30096890.94,2014-09-30,三季度报告,27846006.28,2014,9,未知,未知,未知,未知,未知,未知,未知,未知,未知,未知
4,002290,-122223066.24,-122223066.24,2014-12-31,年度报告,-121357094.17,2014,12,0.0,True,未知,未知,未知,未知,未知,未知,未知,未知
5,002290,10312610.78,10312610.78,2015-03-31,一季度报告,9071175.99,2015,3,2.0165450645143177,False,未知,未知,未知,未知,未知,未知,未知,未知
6,002290,22277039.21,22277039.21,2015-06-30,半年度报告,20770331.19,2015,6,0.3962810066116908,True,未知,未知,未知,未知,未知,未知,169000000.0,未知
7,002290,30185222.8,30185222.8,2015-09-30,三季度报告,25571658.83,2015,9,-0.002948065306043793,True,未知,未知,未知,未知,未知,未知,34000000.0,未知
8,002290,28268059.59,28268059.59,2015-12-31,年度报告,23187268.58,2015,12,-1.2455196409577491,False,未知,未知,未知,未知,未知,未知,,未知
9,002290,7119092.239999997,7119092.239999997,2016-03-31,一季度报告,5981394.33,2016,3,1.9098512471930995,False,未知,未知,未知,未知,未知,未知,120000000.0,未知
10,002290,19797242.51,19797242.51,2016-06-30,半年度报告,17517802.740000002,2016,6,0.34704450879314147,True,未知,未知,未知,未知,未知,未知,79000000.0,未知
11,002290,27273091.04000001,27273091.04000001,2016-09-30,三季度报告,22617958.89,2016,9,-0.0058657662119359,True,未知,未知,未知,未知,未知,未知,,未知
12,002290,27966196.58,27966196.58,2016-12-31,年度报告,22132810.79,2016,12,0.06155724076001227,True,-1.6130909148308608,True,0.0,True,比例外推,27966196.58,,27966196.58
13,002290,12354088.22,12354088.22,2017-03-31,一季度报告,9890263.93,2017,3,3.215167092707878,False,0.2972431037337616,True,0.2703021136528597,False,前期平均,-45800392.195,未知,-45800392.195
14,002290,30334515.33,30334515.33,2017-06-30,半年度报告,24439201.24,2017,6,0.5157749027341688,False,0.09536639427408013,True,0.6746474822432931,False,前期平均,-39350563.04000001,未知,-39350563.04000001
15,002290,43802290.37000001,43802290.37000001,2017-09-30,三季度报告,36452854.91,2017,9,0.10028464672334376,True,0.09515146872154091,True,0.8612206555555153,False,平均增速,43029819.89657517,未知,43029819.89657517
16,002290,2371237.76,2371237.76,2017-12-31,年度报告,-19062855.750000004,2017,12,0.07301553338362486,True,-1.5953104060580685,True,0.0,True,比例外推,2371237.76,未知,2371237.76
17,002290,19977954.21,19977954.21,2018-03-31,一季度报告,17226466.409999996,2018,3,1.4290067227640377,False,0.41742756927716446,True,0.56637047369453,False,前期平均,35111708.735,未知,35111708.735
18,002290,50883047.64999999,50883047.64999999,2018-06-30,半年度报告,44447296.4,2018,6,-0.01075843758997664,True,0.44195047853094993,True,1.4171050686969338,False,平均增速,10310772.451186806,未知,10310772.451186806
19,002290,77920487.94,77920487.94,2018-09-30,三季度报告,63139709.63,2018,9,-0.31491793952965397,True,0.5246632712534192,True,1.983080728295527,False,平均增速,28547383.06113562,未知,28547383.06113562
20,002290,62835914.73999999,62835914.73999999,2018-12-31,年度报告,43529006.55,2018,12,11.655063041843603,False,0.9156657197409499,True,0.0,True,前期平均,62835914.73999999,未知,62835914.73999999
21,002290,4566791.84,4566791.84,2019-03-31,一季度报告,1339115.41,2019,3,0.5020638762391078,False,1.0518429694663245,True,0.5678815338943095,False,前期平均,-1834059.7700000023,未知,-1834059.7700000023
22,002290,-99614420.98,-99614420.98,2019-06-30,半年度报告,-107982899.07000002,2019,6,-0.4102522406595665,True,1.0299726098732782,True,1.4588822624309212,False,平均增速,-99284578.99106182,未知,-99284578.99106182
23,002290,-354701139.2,-354701139.2,2019-09-30,三季度报告,-365756352.5699999,2019,9,-0.614887379002211,True,1.1926154005565952,True,2.098976885983383,False,平均增速,-314678302.24520636,未知,-314678302.24520636
24,002290,-1198141827.5000002,-1198141827.5000002,2019-12-31,年度报告,-1208815861.1799998,2019,12,-0.5224361185133276,True,3.1424672921105032,False,0.0,True,比例外推,-1198141827.5000002,未知,-1198141827.5000002
25,002290,9437328.830000004,9437328.830000004,2020-03-31,一季度报告,8342504.17,2020,3,5.570950547200768,False,0.7175067520162227,True,0.47742890352851214,False,前期平均,8112039.060000002,未知,8112039.060000002
