,SECURITYCODE_x,NETPROFIT_x,PARENTNETPROFIT_x,REPORTDATE_x,REPORTTIMETYPE_x,KCFJCXSYJLR,Year,Month,managesituationChangeRate,managesituationGreatChange,historyprofitextroplaterate,ifhistoryprofitextroplate,IfprofitdisStableChangeRage,IfprofitdisStable,predicttype,predict,analyst_prediction,adj_prediction
0,002270,18552444.42,18552444.42,2013-12-31,年度报告,179600715.25000003,2013,12,未知,未知,未知,未知,未知,未知,未知,未知,未知,未知
1,002270,6437823.659999997,6437823.659999997,2014-06-30,半年度报告,2431149.58,2014,6,未知,未知,未知,未知,未知,未知,未知,未知,未知,未知
2,002270,10721730.49,10721730.49,2014-09-30,三季度报告,3522180.9800000004,2014,9,未知,未知,未知,未知,未知,未知,未知,未知,未知,未知
3,002270,163082019.88,163082019.88,2014-12-31,年度报告,152909943.13,2014,12,0.0,True,未知,未知,未知,未知,未知,未知,未知,未知
4,002270,27785882.270000003,27785882.270000003,2015-03-31,一季度报告,27725985.58,2015,3,未知,未知,未知,未知,未知,未知,未知,未知,未知,未知
5,002270,84629249.30000001,84629249.30000001,2015-06-30,半年度报告,83370160.56,2015,6,1.8817882253084284,False,未知,未知,未知,未知,未知,未知,未知,未知
6,002270,120747558.88,120747558.88,2015-09-30,三季度报告,116114809.51,2015,9,0.7303591465298995,False,未知,未知,未知,未知,未知,未知,未知,未知
7,002270,203145778.07,203303262.27,2015-12-31,年度报告,201669206.49,2015,12,-0.8862385661297831,True,未知,未知,未知,未知,未知,未知,未知,未知
8,002270,29093527.88000001,30262820.25,2016-03-31,一季度报告,25178774.770000003,2016,3,-0.3323068081940736,True,未知,未知,未知,未知,未知,未知,未知,未知
9,002270,91387972.26,92993494.01,2016-06-30,半年度报告,82690145.39999999,2016,6,-0.7807797590850188,True,未知,未知,未知,未知,未知,未知,264645000.0,未知
10,002270,141836742.04,143738976.26999998,2016-09-30,三季度报告,131890871.83,2016,9,-0.8463534617835414,True,未知,未知,未知,未知,未知,未知,,未知
11,002270,234214061.10000005,237048804.97,2016-12-31,年度报告,221172544.3,2016,12,-0.9086742309081747,True,1.23686378962167,True,0.0,True,比例外推,237048804.97,未知,237048804.97
12,002270,32374150.030000005,32722690.88,2017-03-31,一季度报告,30207142.799999993,2017,3,-0.3623171278326252,True,未知,未知,未知,未知,未知,未知,未知,未知
13,002270,98051902.0,98559235.27,2017-06-30,半年度报告,90210480.18,2017,6,-0.796992492981264,True,1.007047537371514,True,0.2518245848500018,False,平均增速,257726651.74701303,未知,257726651.74701303
14,002270,146313090.6,147067048.24999997,2017-09-30,三季度报告,135860301.36999995,2017,9,-0.8691986000724132,True,1.157716721824249,True,0.37534188789236334,False,平均增速,246968281.73377442,未知,246968281.73377442
15,002270,305216436.45999986,306459708.94,2017-12-31,年度报告,291582582.73999995,2017,12,-0.9207885114460364,True,0.2790621706546515,True,0.0,True,比例外推,306459708.94,未知,306459708.94
16,002270,27775155.459999993,27895217.29,2018-03-31,一季度报告,18921939.52,2018,3,-0.4269364785543993,True,0.138343381009903,True,0.019175183514321223,True,比例外推,168912163.67714387,未知,168912163.67714387
17,002270,40661476.38,41078008.67,2018-06-30,半年度报告,27523252.719999995,2018,6,-0.8107895508238075,True,0.11411714298167676,True,0.056169224124106354,True,比例外推,88847166.08124238,未知,88847166.08124238
18,002270,72318652.38,73483118.29999998,2018-09-30,三季度报告,43710032.19,2018,9,-0.8732003791053813,True,0.11440851633073329,True,0.0800707387195077,True,比例外推,109826358.36394434,未知,109826358.36394434
19,002270,171242829.69,164019449.00999996,2018-12-31,年度报告,126154187.43,2018,12,-0.9392154477813275,True,0.3957222823166597,True,0.0,True,比例外推,164019449.00999996,未知,164019449.00999996
20,002270,37721343.18,35520061.4,2019-03-31,一季度报告,29685906.31000001,2019,3,-0.33204894400256196,True,0.09626794424647273,True,0.02751390598135392,True,比例外推,248214240.7225817,未知,248214240.7225817
21,002270,70096190.73,64753861.11000001,2019-06-30,半年度报告,52685783.99,2019,6,-0.543734117113236,True,0.5707189255817023,True,0.08230361733208452,True,比例外推,187409643.89748275,未知,187409643.89748275
22,002270,106562539.75,100455583.17,2019-09-30,三季度报告,85614247.92999999,2019,9,-0.7434625257877351,True,0.4980482777489494,True,0.12674309930678979,False,平均增速,217286684.16664094,未知,217286684.16664094
23,002270,157535414.43,150990035.72,2019-12-31,年度报告,135700507.11,2019,12,-0.8916600218906368,True,0.3650977078063594,True,0.0,True,比例外推,150990035.72,未知,150990035.72
24,002270,175389365.05,175429028.97,2020-03-31,一季度报告,16516140.88,2020,3,-0.5081711610461268,True,0.2542569817791591,True,0.06131104774890206,True,比例外推,263810962.38358355,未知,263810962.38358355
