,SECURITYCODE_x,NETPROFIT_x,PARENTNETPROFIT_x,REPORTDATE_x,REPORTTIMETYPE_x,KCFJCXSYJLR,Year,Month,managesituationChangeRate,managesituationGreatChange,historyprofitextroplaterate,ifhistoryprofitextroplate,IfprofitdisStableChangeRage,IfprofitdisStable,predicttype,predict,analyst_prediction,adj_prediction
0,002226,357343225.63,269113945.71000004,2013-12-31,年度报告,259418595.11,2013,12,未知,未知,未知,未知,未知,未知,未知,未知,未知,未知
1,002226,35370316.65,21992563.06,2014-03-31,一季度报告,21093066.380000006,2014,3,未知,未知,未知,未知,未知,未知,未知,未知,未知,未知
2,002226,136699050.99,97643449.87,2014-06-30,半年度报告,90122297.0,2014,6,未知,未知,未知,未知,未知,未知,未知,未知,未知,未知
3,002226,218228240.06000003,158723986.70000002,2014-09-30,三季度报告,146416604.47000003,2014,9,未知,未知,未知,未知,未知,未知,未知,未知,未知,未知
4,002226,233197939.32,161925922.63000005,2014-12-31,年度报告,156468434.76999998,2014,12,0.0,True,未知,未知,未知,未知,未知,未知,未知,未知
5,002226,27612943.03,18812193.27,2015-03-31,一季度报告,16990802.48,2015,3,9.102912822806182,False,未知,未知,未知,未知,未知,未知,204000000.0,未知
6,002226,72966456.66,50599287.35000002,2015-06-30,半年度报告,47195075.52,2015,6,1.6140870989378036,False,未知,未知,未知,未知,未知,未知,152500000.0,未知
7,002226,80826388.15,47854032.55,2015-09-30,三季度报告,43408981.78,2015,9,0.6374747169832441,False,未知,未知,未知,未知,未知,未知,142430219.0,未知
8,002226,70434462.75000001,35718578.92,2015-12-31,年度报告,28985766.20000001,2015,12,0.5323601343648443,False,未知,未知,未知,未知,未知,未知,116215110.0,未知
9,002226,3719145.96,582335.88,2016-03-31,一季度报告,-2549058.910000001,2016,3,11.941149563151075,False,未知,未知,未知,未知,未知,未知,,未知
10,002226,52943805.80999999,41980203.51,2016-06-30,半年度报告,38242215.78,2016,6,3.8973630074309824,False,未知,未知,未知,未知,未知,未知,77260000.0,未知
11,002226,86512883.32999998,63258305.56000001,2016-09-30,三季度报告,58545194.08999999,2016,9,3.421120797416209,False,未知,未知,未知,未知,未知,未知,90000000.0,未知
12,002226,85448214.51,61309706.69,2016-12-31,年度报告,79368297.37,2016,12,4.073414514402609,False,0.7614579069827806,True,0.0,True,前期平均,61309706.69,,61309706.69
13,002226,-3955285.19,-5070725.900000001,2017-03-31,一季度报告,-6779056.47,2017,3,95.08206547236453,False,0.8819004929596873,True,0.3565548568930974,False,盈利变化,55669709.943333335,74000000.0,74000000.0
14,002226,115763371.7,95881845.12,2017-06-30,半年度报告,82749405.52999999,2017,6,5.749481269110149,False,0.49496885392917905,True,0.7328737472955742,False,前期平均,119950259.345,,119950259.345
15,002226,197187081.69,168287329.46,2017-09-30,三季度报告,148277184.44,2017,9,3.1305203557593653,False,0.4214242137108842,True,0.4405984507864449,False,前期平均,166101636.82,未知,166101636.82
16,002226,241074250.17,198593536.22000003,2017-12-31,年度报告,157640414.29,2017,12,3.1819858692094747,False,0.4371601059211025,True,0.0,True,前期平均,198593536.22000003,74000000.0,74000000.0
17,002226,15093370.83,10581966.769999998,2018-03-31,一季度报告,7880570.86,2018,3,-91.34575472167154,False,1.2524750386903585,True,0.41582500918842724,False,前期平均,57538126.77,未知,57538126.77
18,002226,124664902.57,107923148.39,2018-06-30,半年度报告,96809000.16999996,2018,6,2.0868418946543175,False,0.83882345138598,True,0.7498912220203112,False,前期平均,119381534.525,未知,119381534.525
19,002226,254273643.0000001,213887431.02000004,2018-09-30,三季度报告,200936320.2,2018,9,0.8122040377461606,False,1.3567340761796893,True,0.4389831910400541,False,前期平均,217087374.87000006,未知,217087374.87000006
20,002226,274177711.8899999,219431949.5,2018-12-31,年度报告,201852658.57999995,2018,12,0.4822952902601991,True,2.0930216802461907,False,0.0,True,比例外推,219431949.5,未知,219431949.5
21,002226,76396533.17,70779095.88999999,2019-03-31,一季度报告,5525116.669999999,2019,3,22.675508251591804,False,-128.83450534669737,True,0.05106751284251036,True,前期平均,193947509.40999997,未知,193947509.40999997
22,002226,243610024.35000005,198047538.1,2019-06-30,半年度报告,171800522.14,2019,6,1.866430071842794,False,0.4778849887712759,True,0.029471818012367035,True,前期平均,256056083.27499998,未知,256056083.27499998
23,002226,452296563.6499999,362359446.14000016,2019-09-30,三季度报告,317946738.79000014,2019,9,0.40534906179796176,True,0.7925532206680009,True,0.153595053787549,False,平均增速,363832758.59722304,未知,363832758.59722304
24,002226,520427685.7200001,404645676.51000017,2019-12-31,年度报告,330723196.08999985,2019,12,0.3033270398483961,True,0.6793803890871691,True,0.0,True,比例外推,404645676.51000017,未知,404645676.51000017
25,002226,26969635.24,22898798.230000004,2020-03-31,一季度报告,34669546.27,2020,3,3.677479602835229,False,12.718072501730196,False,0.04725131686517134,True,去年同期,348096877.64999986,未知,348096877.64999986
