,SECURITYCODE_x,NETPROFIT_x,PARENTNETPROFIT_x,REPORTDATE_x,REPORTTIMETYPE_x,KCFJCXSYJLR,Year,Month,managesituationChangeRate,managesituationGreatChange,historyprofitextroplaterate,ifhistoryprofitextroplate,IfprofitdisStableChangeRage,IfprofitdisStable,predicttype,predict,analyst_prediction,adj_prediction
0,002208,157734626.99000004,157954448.73,2013-12-31,年度报告,154668689.37,2013,12,未知,未知,未知,未知,未知,未知,未知,未知,未知,未知
1,002208,12759958.710000005,12894632.85,2014-03-31,一季度报告,12878357.849999996,2014,3,未知,未知,未知,未知,未知,未知,未知,未知,未知,未知
2,002208,40577139.19,40797673.74,2014-06-30,半年度报告,40575037.69,2014,6,未知,未知,未知,未知,未知,未知,未知,未知,未知,未知
3,002208,55420819.59,55778022.72000001,2014-09-30,三季度报告,55498763.92,2014,9,未知,未知,未知,未知,未知,未知,未知,未知,未知,未知
4,002208,172159352.64,172629880.20999995,2014-12-31,年度报告,170875844.73999998,2014,12,0.0,True,未知,未知,未知,未知,未知,未知,未知,未知
5,002208,3442502.5100000007,3633343.16,2015-03-31,一季度报告,3559865.7400000007,2015,3,11.361687884333286,False,未知,未知,未知,未知,未知,未知,212000000.0,未知
6,002208,-21083412.16,-19058610.05,2015-06-30,半年度报告,-19112091.88,2015,6,2.887278160528203,False,未知,未知,未知,未知,未知,未知,571000000.0,未知
7,002208,-12452244.55,-9245065.12,2015-09-30,三季度报告,-9282046.97,2015,9,1.8461258450689042,False,未知,未知,未知,未知,未知,未知,,未知
8,002208,87824196.87000002,91519553.63,2015-12-31,年度报告,91774496.83,2015,12,-0.08378705791350928,True,未知,未知,未知,未知,未知,未知,195000000.0,未知
9,002208,69625327.29,70990815.07000001,2016-03-31,一季度报告,66421086.0,2016,3,44.81975656714918,False,未知,未知,未知,未知,未知,未知,178000000.0,未知
10,002208,67329021.15,70103742.43,2016-06-30,半年度报告,65534210.6,2016,6,-8.481456312335357,False,未知,未知,未知,未知,未知,未知,178577500.0,未知
11,002208,61379440.43000001,66575064.26,2016-09-30,三季度报告,61130925.64000001,2016,9,-13.66716424951677,False,未知,未知,未知,未知,未知,未知,155120500.0,未知
12,002208,100529376.26,108759367.48000002,2016-12-31,年度报告,103343057.08000004,2016,12,0.7960269790281546,False,0.4675610814813825,True,0.0,True,前期平均,108759367.48000002,223000000.0,223000000.0
13,002208,41922296.21999999,42858481.47,2017-03-31,一季度报告,42542415.22,2017,3,1.2654777094693068,False,7.594413693649931,False,0.39043080672190245,False,去年同期,79780452.55000004,未知,79780452.55000004
14,002208,28371243.12,30824158.460000005,2017-06-30,半年度报告,30450342.83,2017,6,1.3427435048935064,False,5.907762794296193,False,0.42936561469002354,False,去年同期,68633004.94000004,未知,68633004.94000004
15,002208,17550875.15,21994572.540000007,2017-09-30,三季度报告,21576988.540000007,2017,9,1.5698283641065123,False,1.856945587460654,True,0.3728677901700651,False,前期平均,130211384.84999998,未知,130211384.84999998
16,002208,166370312.43,132765595.48000002,2017-12-31,年度报告,131979836.62,2017,12,0.5690401438684907,False,0.22664817485974628,True,0.0,True,前期平均,132765595.48000002,,132765595.48000002
17,002208,8385641.2799999975,2767484.9,2018-03-31,一季度报告,2716489.1,2018,3,2.7625474082392727,False,0.14748984155541417,True,0.3081063039747581,False,前期平均,65335785.98500002,未知,65335785.98500002
18,002208,170937690.70000002,166905910.37,2018-06-30,半年度报告,166511164.24999997,2018,6,4.5596656911662325,False,0.2269810578615107,True,0.42712105880126033,False,前期平均,241253627.96500003,未知,241253627.96500003
19,002208,184190617.06,179437384.17,2018-09-30,三季度报告,179112069.29999998,2018,9,7.987279873049524,False,0.2825717953243964,True,0.3735735304844898,False,前期平均,251071721.79000002,未知,251071721.79000002
20,002208,294146715.77,247549649.2800001,2018-12-31,年度报告,245015307.02,2018,12,-0.05190640874484993,True,0.7665745296498585,True,0.0,True,比例外推,247549649.2800001,未知,247549649.2800001
21,002208,204070745.59,132741458.17999998,2019-03-31,一季度报告,132569242.41,2019,3,17.810085206745224,False,0.8496491271416778,True,0.31734038801304393,False,前期平均,195921154.42000002,未知,195921154.42000002
22,002208,194770890.74,110606869.34999998,2019-06-30,半年度报告,111443430.78999998,2019,6,-0.07723904339606232,True,2.5723556670174283,False,0.2840993311513641,False,未知,未知,未知,未知
23,002208,175493971.76000002,91044770.54,2019-09-30,三季度报告,91800814.51,2019,9,-0.14363375557497557,True,3.667170420047621,False,0.33186130737319447,False,未知,未知,未知,未知
24,002208,730224910.2500001,522193758.12,2019-12-31,年度报告,536020859.78,2019,12,-0.46375526724107186,True,1.2041742889527833,True,0.0,True,比例外推,522193758.12,未知,522193758.12
25,002208,357716257.95999986,256913534.74,2020-03-31,一季度报告,261031863.0000001,2020,3,-0.22705909397270588,True,7.112864718017909,False,0.1824957593249545,False,未知,未知,未知,未知
