,SECURITYCODE_x,NETPROFIT_x,PARENTNETPROFIT_x,REPORTDATE_x,REPORTTIMETYPE_x,KCFJCXSYJLR,Year,Month,managesituationChangeRate,managesituationGreatChange,historyprofitextroplaterate,ifhistoryprofitextroplate,IfprofitdisStableChangeRage,IfprofitdisStable,predicttype,predict,analyst_prediction,adj_prediction
0,002276,218921788.94,220017013.67,2013-12-31,年度报告,213762639.35,2013,12,未知,未知,未知,未知,未知,未知,未知,未知,未知,未知
1,002276,23726342.15,23864871.95,2014-03-31,一季度报告,23408339.28,2014,3,未知,未知,未知,未知,未知,未知,未知,未知,未知,未知
2,002276,96591603.95000002,96938715.13,2014-06-30,半年度报告,95189604.94,2014,6,未知,未知,未知,未知,未知,未知,未知,未知,未知,未知
3,002276,148705098.14,148879014.29999998,2014-09-30,三季度报告,143175461.43,2014,9,未知,未知,未知,未知,未知,未知,未知,未知,未知,未知
4,002276,236772300.02000004,235406336.63000005,2014-12-31,年度报告,226598460.61999995,2014,12,0.0,True,未知,未知,未知,未知,未知,未知,未知,未知
5,002276,25451957.00999999,25965319.69,2015-03-31,一季度报告,25004242.22000001,2015,3,8.226950684431566,False,未知,未知,未知,未知,未知,未知,303911641.0,未知
6,002276,107425025.81,108159615.44,2015-06-30,半年度报告,106295427.87000003,2015,6,1.2664680985453287,False,未知,未知,未知,未知,未知,未知,294203067.0,未知
7,002276,155010246.3,155978809.67000002,2015-09-30,三季度报告,154023172.65999997,2015,9,0.4721875152786878,True,未知,未知,未知,未知,未知,未知,297877300.0,未知
8,002276,276190525.41,271891782.76,2015-12-31,年度报告,261218971.36,2015,12,-0.07539104480757343,True,未知,未知,未知,未知,未知,未知,293553067.0,未知
9,002276,26249144.840000004,27213667.73,2016-03-31,一季度报告,26894657.04000001,2016,3,7.601373515364117,False,未知,未知,未知,未知,未知,未知,332025400.0,未知
10,002276,102088863.82,103320024.02,2016-06-30,半年度报告,103545032.96,2016,6,1.0379030611284337,False,未知,未知,未知,未知,未知,未知,276448833.0,未知
11,002276,127953921.14,131021865.79000002,2016-09-30,三季度报告,128379856.85,2016,9,0.41230527765441,True,未知,未知,未知,未知,未知,未知,251858833.0,未知
12,002276,208902713.63000005,215218216.65,2016-12-31,年度报告,203877410.98,2016,12,-0.20735228474975956,True,0.21217515039675447,True,0.0,True,比例外推,215218216.65,425186633.0,425186633.0
13,002276,-33835024.22,-31547892.11000001,2017-03-31,一季度报告,-45732599.13,2017,3,7.34014937531961,False,0.06750925869149191,True,0.021602364960385298,True,盈利变化,118381875.08999999,212120000.0,212120000.0
14,002276,53139701.22000001,57186646.32,2017-06-30,半年度报告,40589367.92,2017,6,1.1444237965660613,False,0.000789631120705586,True,0.06291881706773389,True,前期平均,200352845.90499994,194000000.0,200352845.90499994
15,002276,76905364.16999999,82221293.52,2017-09-30,三季度报告,64391492.31,2017,9,0.7109424001197123,False,0.15740891277043967,True,0.02742438998268848,True,前期平均,177530692.46499997,134110000.0,134110000.0
16,002276,109218856.69,114951714.07000004,2017-12-31,年度报告,75541795.34,2017,12,0.047960484265155694,True,0.18550544689126858,True,0.0,True,比例外推,114951714.07000004,116000000.0,114951714.07000004
17,002276,-29107800.82,-28254818.309999995,2018-03-31,一季度报告,-20173547.3,2018,3,-7.470271382592792,False,2.3088705272922536,False,0.4794755075948741,False,去年同期,93019576.16,未知,93019576.16
18,002276,37649358.0,38928117.62,2018-06-30,半年度报告,34412374.34,2018,6,3.1197406818991507,False,0.4927333809338909,True,0.07711580143421254,True,前期平均,166556078.37499997,未知,166556078.37499997
19,002276,67786852.23,66948008.66,2018-09-30,三季度报告,62716562.2,2018,9,1.8466387397382509,False,0.45643036808675025,True,0.16182244005107393,False,前期平均,158294685.07500002,未知,158294685.07500002
20,002276,115198239.5,111714711.21999998,2018-12-31,年度报告,100661508.45,2018,12,1.0044321610266804,False,0.5496995303165049,True,0.0,True,前期平均,111714711.21999998,,111714711.21999998
21,002276,-14561588.28,-15937756.03,2019-03-31,一季度报告,-12400611.73,2019,3,-8.521069361914096,False,-6.674206077344725,True,0.3807651300995053,False,前期平均,133190818.17499998,141000000.0,133190818.17499998
22,002276,102439652.25999998,97931766.64,2019-06-30,半年度报告,79981157.98,2019,6,4.814754900734297,False,0.5149171418250457,True,0.12048812523073549,False,前期平均,165574169.36,,165574169.36
23,002276,182161392.8,170225237.37999997,2019-09-30,三季度报告,146060008.67000002,2019,9,2.229561216343265,False,0.33821059536137066,True,0.15068520057165813,False,前期平均,213549165.95999998,未知,213549165.95999998
24,002276,232884761.55,220879359.32000005,2019-12-31,年度报告,171696051.35999998,2019,12,0.9003917932270137,False,0.2757596450682579,True,0.0,True,前期平均,220879359.32000005,未知,220879359.32000005
25,002276,-90832175.2,-90129795.54,2020-03-31,一季度报告,-76785968.14,2020,3,-16.034197144598846,False,-0.5373074446294348,True,0.3127184513681622,False,前期平均,30924929.569999993,249000000.0,249000000.0
