,SECURITYCODE_x,NETPROFIT_x,PARENTNETPROFIT_x,REPORTDATE_x,REPORTTIMETYPE_x,KCFJCXSYJLR,Year,Month,managesituationChangeRate,managesituationGreatChange,historyprofitextroplaterate,ifhistoryprofitextroplate,IfprofitdisStableChangeRage,IfprofitdisStable,predicttype,predict,analyst_prediction,adj_prediction
0,002209,20390619.52,20390619.52,2013-12-31,年度报告,10791303.260000002,2013,12,未知,未知,未知,未知,未知,未知,未知,未知,未知,未知
1,002209,3356120.72,3356120.72,2014-03-31,一季度报告,2404256.7299999995,2014,3,未知,未知,未知,未知,未知,未知,未知,未知,未知,未知
2,002209,8504025.440000001,8504025.440000001,2014-06-30,半年度报告,6078094.5,2014,6,未知,未知,未知,未知,未知,未知,未知,未知,未知,未知
3,002209,10917593.180000003,10917593.180000003,2014-09-30,三季度报告,6204859.82,2014,9,未知,未知,未知,未知,未知,未知,未知,未知,未知,未知
4,002209,13235739.63,13235739.63,2014-12-31,年度报告,6492893.700000001,2014,12,0.0,True,未知,未知,未知,未知,未知,未知,未知,未知
5,002209,3786925.379999999,3786925.379999999,2015-03-31,一季度报告,3101567.19,2015,3,5.075651390752118,False,未知,未知,未知,未知,未知,未知,未知,未知
6,002209,6426811.7200000025,6426811.7200000025,2015-06-30,半年度报告,4161851.5200000005,2015,6,1.3977608796993435,False,未知,未知,未知,未知,未知,未知,未知,未知
7,002209,-5492743.69,-5492743.69,2015-09-30,三季度报告,-10113779.63,2015,9,0.8676844963735856,False,未知,未知,未知,未知,未知,未知,未知,未知
8,002209,12804241.739999995,12804241.739999995,2015-12-31,年度报告,-29229284.93,2015,12,0.5405727288396348,False,未知,未知,未知,未知,未知,未知,未知,未知
9,002209,1091456.85,1091456.85,2016-03-31,一季度报告,-956590.17,2016,3,4.384478824877189,False,未知,未知,未知,未知,未知,未知,未知,未知
10,002209,-14383973.34,-14383973.34,2016-06-30,半年度报告,-23040184.870000005,2016,6,2.1727426301512986,False,未知,未知,未知,未知,未知,未知,92160000.0,未知
11,002209,-26142372.84,-26142372.84,2016-09-30,三季度报告,-38490743.55,2016,9,-4.712283090347513,False,未知,未知,未知,未知,未知,未知,,未知
12,002209,-45318148.61,-45318148.61,2016-12-31,年度报告,-61922228.29000001,2016,12,0.5924894214001312,False,0.2384401961043115,True,0.0,True,盈利变化,1906593.9533333257,未知,1906593.9533333257
13,002209,2774667.67,2774667.67,2017-03-31,一季度报告,-427943.59,2017,3,17.682020750522568,False,0.6944001663379996,True,0.2770814480246841,False,前期平均,-11346439.905000001,未知,-11346439.905000001
14,002209,-8976097.09,-8976097.09,2017-06-30,半年度报告,-15662079.179999998,2017,6,-2.4175929722628364,False,2.9267470652663654,False,0.5475111769823663,False,去年同期,-47858140.510000005,未知,-47858140.510000005
15,002209,-10811261.52,-10811261.52,2017-09-30,三季度报告,-18578372.620000005,2017,9,-1.7799835020637707,False,10.638008533947357,False,0.3145545772032725,False,去年同期,-34242746.260000005,未知,-34242746.260000005
16,002209,20178249.16,20178249.16,2017-12-31,年度报告,-7168920.6000000015,2017,12,-1.4499437895285192,False,4.480659065463841,False,0.0,True,前期平均,20178249.16,未知,20178249.16
17,002209,1643478.66,1643478.66,2018-03-31,一季度报告,-1175885.48,2018,3,6.348851086011321,False,0.13753598598197614,True,0.0957886017248725,True,前期平均,-45004766.46000001,未知,-45004766.46000001
18,002209,2768753.51,2768753.51,2018-06-30,半年度报告,-4454550.42,2018,6,-3.271657638676455,False,-1.2561052593022493,True,1.3799141126887422,False,盈利变化,27649935.0,未知,27649935.0
19,002209,-532110.0099999999,-532110.0099999999,2018-09-30,三季度报告,-21137038.98,2018,9,-2.8860536748906616,False,-0.31650250064686586,True,1.405139530105667,False,前期平均,-21805605.030000005,未知,-21805605.030000005
20,002209,10345981.01,10345981.01,2018-12-31,年度报告,-12934830.529999996,2018,12,0.010524716902643273,True,-2.241207292662704,True,0.0,True,比例外推,10345981.01,未知,10345981.01
21,002209,-8030587.15,-8030587.15,2019-03-31,一季度报告,-11163728.8,2019,3,11.40698770010193,False,0.1498056249879919,True,0.03990207941287733,True,盈利变化,-2971143.416666668,未知,-2971143.416666668
22,002209,-20486089.53,-20486089.53,2019-06-30,半年度报告,-26830611.85,2019,6,6.3645485039944925,False,-1.2370500995103377,True,1.2176572807298092,False,盈利变化,-4571393.276666667,未知,-4571393.276666667
23,002209,-29180455.91,-29180455.91,2019-09-30,三季度报告,-37858264.56,2019,9,-39.32030808817148,False,-0.9712012082591812,True,0.9941458869811007,False,前期平均,-35191472.27,未知,-35191472.27
24,002209,-36732009.94,-36038725.76,2019-12-31,年度报告,-53911710.49,2019,12,0.9708734725388791,False,-1.8230725847234843,True,0.0,True,盈利变化,-3312978.9766666703,未知,-3312978.9766666703
25,002209,-4303307.72,-4464208.34,2020-03-31,一季度报告,-6291408.499999999,2020,3,-3.5391193868059823,False,4.635274411565269,False,0.08784860816533338,True,去年同期,-47212190.03,未知,-47212190.03
