,SECURITYCODE_x,NETPROFIT_x,PARENTNETPROFIT_x,REPORTDATE_x,REPORTTIMETYPE_x,KCFJCXSYJLR,Year,Month,managesituationChangeRate,managesituationGreatChange,historyprofitextroplaterate,ifhistoryprofitextroplate,IfprofitdisStableChangeRage,IfprofitdisStable,predicttype,predict,analyst_prediction,adj_prediction
0,002249,225275129.36,215439289.79,2013-12-31,年度报告,194651815.99,2013,12,未知,未知,未知,未知,未知,未知,未知,未知,未知,未知
1,002249,56481795.78,49149003.76,2014-03-31,一季度报告,50005583.20999999,2014,3,未知,未知,未知,未知,未知,未知,未知,未知,未知,未知
2,002249,158629826.68,136766935.22,2014-06-30,半年度报告,130939477.99000002,2014,6,未知,未知,未知,未知,未知,未知,未知,未知,未知,未知
3,002249,233820145.84,201998270.31,2014-09-30,三季度报告,182571616.33,2014,9,未知,未知,未知,未知,未知,未知,未知,未知,未知,未知
4,002249,338200632.56999993,296877364.16000015,2014-12-31,年度报告,273588664.46,2014,12,0.0,True,未知,未知,未知,未知,未知,未知,未知,未知
5,002249,60795855.41,53733902.47999999,2015-03-31,一季度报告,55529021.56,2015,3,2.9884555058670625,False,未知,未知,未知,未知,未知,未知,457000000.0,未知
6,002249,161696714.29000002,147856521.08999997,2015-06-30,半年度报告,111395565.82,2015,6,0.42013096827270646,True,未知,未知,未知,未知,未知,未知,432166700.0,未知
7,002249,238745971.34,217355006.24,2015-09-30,三季度报告,173224677.50000003,2015,9,-0.036545253401078746,True,未知,未知,未知,未知,未知,未知,350414629.0,未知
8,002249,372109570.85,341173925.92999995,2015-12-31,年度报告,295581622.79,2015,12,-0.33390092251417325,True,未知,未知,未知,未知,未知,未知,352731703.0,未知
9,002249,83672497.27,74778630.07000001,2016-03-31,一季度报告,69287948.58,2016,3,2.7054356393338233,False,未知,未知,未知,未知,未知,未知,570011123.0,未知
10,002249,213267846.87,198603739.57,2016-06-30,半年度报告,186605360.32,2016,6,0.3931954668910173,True,未知,未知,未知,未知,未知,未知,568220307.0,未知
11,002249,320263069.42999995,299286187.48999995,2016-09-30,三季度报告,272519208.17,2016,9,-0.056423326870785426,True,未知,未知,未知,未知,未知,未知,503291775.0,未知
12,002249,548470314.53,509350112.52,2016-12-31,年度报告,457576113.8,2016,12,-0.3946000129870081,True,0.32076513664212175,True,0.0,True,比例外推,509350112.52,503291775.0,509350112.52
13,002249,53129726.56999999,50096956.88999999,2017-03-31,一季度报告,42455538.37000001,2017,3,1.6923438012500955,False,0.4269129100214204,True,0.022597448252852537,True,前期平均,281914798.13,629556291.0,629556291.0
14,002249,154167261.67,145034299.61,2017-06-30,半年度报告,123708020.52,2017,6,0.056301419394547525,True,0.3315652597764196,True,0.0575059371690716,True,比例外推,315104065.22617,620150000.0,620150000.0
15,002249,222012675.9,213161775.47,2017-09-30,三季度报告,155100143.16,2017,9,-0.2965934855962576,True,0.3554212110726171,True,0.05100832449597448,True,比例外推,309719608.18710995,548541511.0,548541511.0
16,002249,448889188.7200001,417751016.75,2017-12-31,年度报告,281272252.3,2017,12,-0.5892665046912434,True,0.5443120819304759,True,0.0,True,比例外推,417751016.75,525926889.0,525926889.0
17,002249,28070850.5,31279852.76,2018-03-31,一季度报告,21359649.53,2018,3,3.240095778832841,False,0.2644793744179628,True,0.024454066480900177,True,前期平均,345450235.985,582942000.0,582942000.0
18,002249,118367397.78,110804318.16,2018-06-30,半年度报告,89846261.02,2018,6,0.46123844271301073,True,0.17769689384477202,True,0.03165003676119993,True,比例外推,241079973.08740234,469666667.0,469666667.0
19,002249,150016533.65,144638577.77,2018-09-30,三季度报告,114319627.66,2018,9,0.014694897247531478,True,0.2056920024256086,True,0.02625702199634128,True,比例外推,228213138.885186,321000000.0,321000000.0
20,002249,-2396844372.1600003,-2375651310.19,2018-12-31,年度报告,-2604113328.8199987,2018,12,-0.4981497995031508,True,0.024768635837168804,True,0.0,True,比例外推,-2375651310.19,409000000.0,409000000.0
21,002249,-24121052.79,-21159250.42,2019-03-31,一季度报告,-26333234.19,2019,3,7.025233484108364,False,0.5896141201208707,True,0.1062565018328131,False,盈利变化,-2439241821.8166666,245000000.0,245000000.0
22,002249,261238639.98,273481285.94,2019-06-30,半年度报告,52904250.65999999,2019,6,0.9031856202389517,False,0.3557099197715114,True,0.30554400169996243,False,前期平均,487748778.57000005,430000000.0,430000000.0
23,002249,248879386.56,264649410.96,2019-09-30,三季度报告,8519967.399999999,2019,9,0.5016686753047104,False,0.4467149418283202,True,0.4115980451851077,False,前期平均,420263918.345,356000000.0,356000000.0
24,002249,31480790.58,53616805.37999999,2019-12-31,年度报告,-172642436.46,2019,12,-1.093988217164465,False,5.806379975023315,False,0.0,True,前期平均,53616805.37999999,337500000.0,337500000.0
25,002249,16296029.82,23319848.73,2020-03-31,一季度报告,20358299.44,2020,3,-10.339357254480765,False,1.5941103785310822,True,0.10662537087529629,False,前期平均,-1170008283.4799993,70000000.0,70000000.0
