,SECURITYCODE_x,NETPROFIT_x,PARENTNETPROFIT_x,REPORTDATE_x,REPORTTIMETYPE_x,KCFJCXSYJLR,Year,Month,managesituationChangeRate,managesituationGreatChange,historyprofitextroplaterate,ifhistoryprofitextroplate,IfprofitdisStableChangeRage,IfprofitdisStable,predicttype,predict,analyst_prediction,adj_prediction
0,002232,3492503.66,7612050.29,2013-12-31,年度报告,-6493604.66,2013,12,未知,未知,未知,未知,未知,未知,未知,未知,未知,未知
1,002232,-583439.1000000001,774169.11,2014-03-31,一季度报告,-404069.67999999993,2014,3,未知,未知,未知,未知,未知,未知,未知,未知,未知,未知
2,002232,108150.56,1286158.28,2014-06-30,半年度报告,-3500320.5500000007,2014,6,未知,未知,未知,未知,未知,未知,未知,未知,未知,未知
3,002232,2254339.83,3459783.47,2014-09-30,三季度报告,-5502342.29,2014,9,未知,未知,未知,未知,未知,未知,未知,未知,未知,未知
4,002232,7767360.91,7687939.29,2014-12-31,年度报告,-2919646.08,2014,12,0.0,True,未知,未知,未知,未知,未知,未知,未知,未知
5,002232,2919629.7900000005,1018693.78,2015-03-31,一季度报告,-10815.29,2015,3,-6.98606377255141,False,未知,未知,未知,未知,未知,未知,未知,未知
6,002232,2336483.4,1712787.4100000004,2015-06-30,半年度报告,-164569.33,2015,6,31.292978048379965,False,未知,未知,未知,未知,未知,未知,12000000.0,未知
7,002232,-7761567.36,-9053932.96,2015-09-30,三季度报告,-12044025.62,2015,9,0.5492356624866093,False,未知,未知,未知,未知,未知,未知,,未知
8,002232,4493119.07,3015637.75,2015-12-31,年度报告,14503865.9,2015,12,-0.550361609243158,True,未知,未知,未知,未知,未知,未知,,未知
9,002232,1397063.35,689702.3200000001,2016-03-31,一季度报告,-774215.6600000001,2016,3,0.1962145584218058,True,未知,未知,未知,未知,未知,未知,23715000.0,未知
10,002232,2698754.6300000004,1210862.39,2016-06-30,半年度报告,-3132276.68,2016,6,0.49476930159229904,True,未知,未知,未知,未知,未知,未知,,未知
11,002232,2859651.39,466939.88,2016-09-30,三季度报告,-5915200.460000001,2016,9,-1.4499740191651187,False,未知,未知,未知,未知,未知,未知,未知,未知
12,002232,50279497.98,45717077.63999999,2016-12-31,年度报告,2448531.2,2016,12,-0.2226995088291751,True,0.20192307073192442,True,0.0,True,比例外推,45717077.63999999,未知,45717077.63999999
13,002232,2495599.35,1272165.34,2017-03-31,一季度报告,-703845.7699999998,2017,3,1.4998892569903863,False,0.19601824969176626,True,0.25668100922146625,False,前期平均,7271717.734999999,未知,7271717.734999999
14,002232,9958804.24,6024297.24,2017-06-30,半年度报告,1587959.7300000002,2017,6,0.29411678304374034,True,1.207900793458666,True,1.2486776802111623,False,平均增速,22976603.80461161,未知,22976603.80461161
15,002232,24987777.24,19199808.73,2017-09-30,三季度报告,12309625.29,2017,9,0.2213039925821168,True,-2.0385085324411865,True,2.338467114271596,False,平均增速,51188009.02076287,未知,51188009.02076287
16,002232,60564552.15000001,53179323.20999999,2017-12-31,年度报告,38565064.67,2017,12,-0.9305382153698265,True,7.2018808500187275,False,0.0,True,比例外推,53179323.20999999,未知,53179323.20999999
17,002232,2933641.12,1174714.7299999995,2018-03-31,一季度报告,-341442.14,2018,3,0.3994648860603366,True,0.1562551560011976,True,0.20446512043643622,False,平均增速,187200239.17653692,未知,187200239.17653692
18,002232,25825357.97,22466804.030000005,2018-06-30,半年度报告,19454463.51,2018,6,-0.649304918960833,True,2.9556438764822404,False,0.8627746449247378,False,未知,未知,未知,未知
19,002232,46037331.50000001,40149220.66,2018-09-30,三季度报告,35336851.58000001,2018,9,-0.8602315193362112,True,-11.195106318805378,True,1.4401405728344874,False,平均增速,182325320.0078547,未知,182325320.0078547
20,002232,79039513.56999998,72167400.44999999,2018-12-31,年度报告,64051261.1,2018,12,-0.942334194904139,True,1.2114901719854927,True,0.0,True,比例外推,72167400.44999999,未知,72167400.44999999
21,002232,6497537.17,6307557.19,2019-03-31,一季度报告,4359440.719999999,2019,3,0.19050133166936248,True,0.5072670539885205,True,0.20293676027717839,False,平均增速,762062266.1853081,未知,762062266.1853081
22,002232,22361225.009999994,20465096.16,2019-06-30,半年度报告,16332184.22,2019,6,-0.8647645595442641,True,3.080622217165322,False,0.967801078261648,False,未知,未知,未知,未知
23,002232,44682924.37000001,41938023.65,2019-09-30,三季度报告,34307073.25,2019,9,-0.9241375738730643,True,2.3063973059547807,False,1.9008397335936253,False,未知,未知,未知,未知
24,002232,94717976.7,90831161.07000002,2019-12-31,年度报告,77627134.79000002,2019,12,-0.9558131939045029,True,0.42613903907879463,True,0.0,True,比例外推,90831161.07000002,未知,90831161.07000002
25,002232,4685393.779999998,4316754.239999998,2020-03-31,一季度报告,2327591.13,2020,3,-0.4624880830039176,True,1.3935344937852787,True,0.04529969107166292,True,比例外推,216335272.01604584,未知,216335272.01604584
