,SECURITYCODE_x,NETPROFIT_x,PARENTNETPROFIT_x,REPORTDATE_x,REPORTTIMETYPE_x,KCFJCXSYJLR,Year,Month,managesituationChangeRate,managesituationGreatChange,historyprofitextroplaterate,ifhistoryprofitextroplate,IfprofitdisStableChangeRage,IfprofitdisStable,predicttype,predict,analyst_prediction,adj_prediction
0,002228,101989411.39000002,94654074.51,2013-12-31,年度报告,85462559.39999999,2013,12,未知,未知,未知,未知,未知,未知,未知,未知,未知,未知
1,002228,20246240.77,19595588.860000007,2014-03-31,一季度报告,17945559.139999993,2014,3,未知,未知,未知,未知,未知,未知,未知,未知,未知,未知
2,002228,68156124.8,65279842.34,2014-06-30,半年度报告,62772045.99,2014,6,未知,未知,未知,未知,未知,未知,未知,未知,未知,未知
3,002228,94856021.81,90645721.63,2014-09-30,三季度报告,87366301.18,2014,9,未知,未知,未知,未知,未知,未知,未知,未知,未知,未知
4,002228,131887497.99,125559001.11000004,2014-12-31,年度报告,120514524.71,2014,12,0.0,True,未知,未知,未知,未知,未知,未知,未知,未知
5,002228,21815200.04,19928171.47,2015-03-31,一季度报告,19131749.96,2015,3,4.03744929977932,False,未知,未知,未知,未知,未知,未知,189500000.0,未知
6,002228,70609307.35000001,66116222.67000001,2015-06-30,半年度报告,63115470.34,2015,6,0.496408601417433,True,未知,未知,未知,未知,未知,未知,166166667.00000003,未知
7,002228,99014956.40999998,93030003.05,2015-09-30,三季度报告,88278482.77999999,2015,9,0.07520228493546195,True,未知,未知,未知,未知,未知,未知,151845059.0,未知
8,002228,123149081.47,114738657.09,2015-12-31,年度报告,109939714.87000002,2015,12,-0.22669386451069773,True,未知,未知,未知,未知,未知,未知,176500000.0,未知
9,002228,27617139.96,22271835.73,2016-03-31,一季度报告,17134003.320000004,2016,3,3.6751536177983186,False,未知,未知,未知,未知,未知,未知,151704616.0,未知
10,002228,59110160.22,50943429.84,2016-06-30,半年度报告,42825140.24000001,2016,6,0.4444188056463069,True,未知,未知,未知,未知,未知,未知,131454493.0,未知
11,002228,82530542.36,70001720.86000001,2016-09-30,三季度报告,61681823.06,2016,9,0.03004046143981971,True,未知,未知,未知,未知,未知,未知,105908985.0,未知
12,002228,439134371.77,416683431.11,2016-12-31,年度报告,73200826.47999999,2016,12,-0.17182158264943803,True,0.05311021764794283,True,0.0,True,比例外推,416683431.11,152508333.0,152508333.0
13,002228,39211255.77,30633514.61,2017-03-31,一季度报告,30374423.98000001,2017,3,2.6929751428902127,False,0.3131808814991471,True,0.04840288587196745,True,前期平均,127321979.85000001,138857143.0,127321979.85000001
14,002228,89044703.84000002,71071654.02,2017-06-30,半年度报告,70761568.86999999,2017,6,0.7254125350093665,False,0.14805640995512157,True,0.03913126969797465,True,前期平均,123355015.645,142800000.0,142800000.0
15,002228,130527835.04,103071683.82999998,2017-09-30,三季度报告,100784346.48,2017,9,0.23577779175520272,True,0.1486034359784744,True,0.06524058156626811,True,比例外推,129832632.60163121,148500000.0,148500000.0
16,002228,190063053.68,141680068.71,2017-12-31,年度报告,126957957.02,2017,12,-0.7677489671807842,True,2.443697156696488,False,0.0,True,比例外推,141680068.71,133000000.0,141680068.71
17,002228,70288102.63000001,58172600.7,2018-03-31,一季度报告,56132947.66,2018,3,1.6010238485662254,False,0.586461647172681,True,0.04175853135050872,True,前期平均,131609994.735,223385714.0,223385714.0
18,002228,149037588.03,120509010.76,2018-06-30,半年度报告,117797364.06999998,2018,6,0.14537313272735114,True,0.37288111812437363,True,0.014801161500894389,True,比例外推,208592287.9868795,503282000.0,503282000.0
19,002228,224393277.46000004,182443004.15,2018-09-30,三季度报告,173271827.1,2018,9,-0.2186386041050512,True,0.4379627798468938,True,0.029488208864372645,True,比例外推,222258305.77789512,543521818.0,543521818.0
20,002228,285370320.3699998,233055183.79,2018-12-31,年度报告,213832065.47,2018,12,-0.46339170388309836,True,0.3239599970982066,True,0.0,True,比例外推,233055183.79,543640833.0,543640833.0
21,002228,74951332.34,68334848.0,2019-03-31,一季度报告,63248865.87000001,2019,3,0.45101955485805667,True,1.1035400255298036,True,0.01723421847160192,True,比例外推,262954881.91475746,341896667.0,341896667.0
22,002228,145092864.65,133757105.20000002,2019-06-30,半年度报告,120260672.55,2019,6,-0.3156799386107187,True,1.0119162334034812,True,0.020607697056966634,True,比例外推,226562661.4094615,289685000.0,289685000.0
23,002228,214134267.92,194463481.29,2019-09-30,三季度报告,176651517.93,2019,9,-0.545488115577881,True,1.1064018246860077,True,0.02703967669217433,True,比例外推,234403193.13820833,258374286.0,234403193.13820833
24,002228,290367317.63000005,266799359.28000003,2019-12-31,年度报告,217264214.92,2019,12,-0.6426068020747057,True,0.09290690385166832,True,0.0,True,比例外推,266799359.28000003,373546000.0,373546000.0
25,002228,40389996.97,36781438.73,2020-03-31,一季度报告,10173636.57,2020,3,0.3607418067946784,True,0.3689821280267885,True,0.026824184508393523,True,比例外推,65101904.28811912,262991667.00000003,262991667.00000003
