,SECURITYCODE_x,NETPROFIT_x,PARENTNETPROFIT_x,REPORTDATE_x,REPORTTIMETYPE_x,KCFJCXSYJLR,Year,Month,managesituationChangeRate,managesituationGreatChange,historyprofitextroplaterate,ifhistoryprofitextroplate,IfprofitdisStableChangeRage,IfprofitdisStable,predicttype,predict,analyst_prediction,adj_prediction
0,002229,58145888.85,49089630.25999998,2013-12-31,年度报告,47319848.64,2013,12,未知,未知,未知,未知,未知,未知,未知,未知,未知,未知
1,002229,7697339.44,6471915.3999999985,2014-03-31,一季度报告,6332123.010000003,2014,3,未知,未知,未知,未知,未知,未知,未知,未知,未知,未知
2,002229,22654624.06,18434479.26,2014-06-30,半年度报告,13786098.009999994,2014,6,未知,未知,未知,未知,未知,未知,未知,未知,未知,未知
3,002229,26568647.46,21032633.71,2014-09-30,三季度报告,16586931.68,2014,9,未知,未知,未知,未知,未知,未知,未知,未知,未知,未知
4,002229,36443111.23,27673025.4,2014-12-31,年度报告,23408194.13,2014,12,0.0,True,未知,未知,未知,未知,未知,未知,未知,未知
5,002229,-3785842.4899999993,-3671924.21,2015-03-31,一季度报告,-4070439.56,2015,3,6.554024257763537,False,未知,未知,未知,未知,未知,未知,37000000.0,未知
6,002229,-3537321.76,-6784883.3599999985,2015-06-30,半年度报告,-8853861.409999998,2015,6,1.5666234273410409,False,未知,未知,未知,未知,未知,未知,,未知
7,002229,-5070195.39,-11395830.07,2015-09-30,三季度报告,-14346667.870000005,2015,9,1.1885152015186549,False,未知,未知,未知,未知,未知,未知,-9470000.0,未知
8,002229,16960874.360000007,9173520.42,2015-12-31,年度报告,-28896555.62,2015,12,0.5955248300022821,False,未知,未知,未知,未知,未知,未知,11143333.0,未知
9,002229,-4327398.73,-10214887.46,2016-03-31,一季度报告,-10367311.23,2016,3,-16.35877126520391,False,未知,未知,未知,未知,未知,未知,21460000.0,未知
10,002229,-5022757.3500000015,-18965033.94,2016-06-30,半年度报告,-19078476.180000003,2016,6,-17.437828615850883,False,未知,未知,未知,未知,未知,未知,16000000.0,未知
11,002229,10008960.87,-12029660.12,2016-09-30,三季度报告,-12697609.630000005,2016,9,-12.46817516435003,False,未知,未知,未知,未知,未知,未知,5070000.0,未知
12,002229,41045222.46,12680057.52,2016-12-31,年度报告,440421.8899999999,2016,12,2.428236517518781,False,0.6413774467294272,True,0.0,True,前期平均,12680057.52,26448000.0,26448000.0
13,002229,-12567239.37,-11554379.7,2017-03-31,一季度报告,-11772750.42,2017,3,-14.436683901323784,False,3.2126560676469396,False,15.830123984072909,False,去年同期,-746646.5799999982,26351682.0,26351682.0
14,002229,-18619612.52,-16617766.319999995,2017-06-30,半年度报告,-18804838.53,2017,6,-12.576487733376167,False,1.5254671680323852,True,29.177538888906703,False,前期平均,-21828065.364999995,20710000.0,20710000.0
15,002229,-12621052.92,-11359213.939999998,2017-09-30,三季度报告,-13680419.56,2017,9,4.8093831722613185,False,0.0688668340017841,True,19.622066111886024,False,前期平均,-15223526.589999996,,-15223526.589999996
16,002229,12969028.679999998,10760151.47,2017-12-31,年度报告,6974677.580000001,2017,12,0.41662988686844604,True,0.5371595212056905,True,0.0,True,比例外推,10760151.47,13000000.0,13000000.0
17,002229,-7409315.480000002,-9514289.88,2018-03-31,一季度报告,-9969524.49,2018,3,-5.626782950343374,False,-2.0979577777178426,True,15.177311861143759,False,前期平均,-16523481.350000001,17380000.0,17380000.0
18,002229,-6013696.3199999975,-9312594.99,2018-06-30,半年度报告,-10583632.609999998,2018,6,-4.12283023008902,False,-3.3503365519714214,True,28.082504861721695,False,前期平均,-9574493.059999999,,-9574493.059999999
19,002229,-591606.75,-5344429.790000001,2018-09-30,三季度报告,-8185754.3500000015,2018,9,-5.607055308187393,False,6.1110152814950025,False,18.732054030824933,False,去年同期,15310667.35,15000000.0,15310667.35
20,002229,13983580.29,5143116.58,2018-12-31,年度报告,-7422035.3999999985,2018,12,3.4834420745532664,False,0.5528391189552203,True,0.0,True,前期平均,5143116.58,,5143116.58
21,002229,-7209784.8199999975,-8055737.62,2019-03-31,一季度报告,-10032276.449999996,2019,3,-8.847673514099036,False,-0.12287964546574079,True,15.57810211764972,False,前期平均,6721842.94,49000000.0,49000000.0
22,002229,-17349.649999999998,-7353813.040000001,2019-06-30,半年度报告,-13940041.32,2019,6,-10.668910060626411,False,-0.49127804420056664,True,28.455696833091338,False,前期平均,15295394.050000003,,15295394.050000003
23,002229,9321136.4,-4018998.07,2019-09-30,三季度报告,-10641907.31,2019,9,-99.28469477402008,False,-0.5470245774837836,True,18.934192427396805,False,前期平均,12877566.260000002,未知,12877566.260000002
24,002229,50069207.09,35309282.9,2019-12-31,年度报告,-13613066.71,2019,12,3.158154610202478,False,0.4822262645554101,True,0.0,True,前期平均,35309282.9,未知,35309282.9
25,002229,-16387734.739999998,-16171877.96,2020-03-31,一季度报告,-19199755.78,2020,3,-9.064857731773474,False,-0.27817535364462537,True,1.8186825454959696,False,前期平均,-5524419.414999999,未知,-5524419.414999999
