,SECURITYCODE_x,NETPROFIT_x,PARENTNETPROFIT_x,REPORTDATE_x,REPORTTIMETYPE_x,KCFJCXSYJLR,Year,Month,managesituationChangeRate,managesituationGreatChange,historyprofitextroplaterate,ifhistoryprofitextroplate,IfprofitdisStableChangeRage,IfprofitdisStable,predicttype,predict,analyst_prediction,adj_prediction
0,002300,147348988.22,138627104.99,2013-12-31,年度报告,104780806.56999998,2013,12,未知,未知,未知,未知,未知,未知,未知,未知,未知,未知
1,002300,13162790.69,12655973.04,2014-03-31,一季度报告,11782207.45,2014,3,未知,未知,未知,未知,未知,未知,未知,未知,未知,未知
2,002300,48074496.26,45382868.23000001,2014-06-30,半年度报告,46887185.64999999,2014,6,未知,未知,未知,未知,未知,未知,未知,未知,未知,未知
3,002300,104091424.06000002,98486849.84,2014-09-30,三季度报告,82877491.30000001,2014,9,未知,未知,未知,未知,未知,未知,未知,未知,未知,未知
4,002300,175052802.45999998,166484273.29999998,2014-12-31,年度报告,99662883.37,2014,12,0.0,True,未知,未知,未知,未知,未知,未知,未知,未知
5,002300,16660546.47,16351502.799999995,2015-03-31,一季度报告,8503123.74,2015,3,10.194357768823567,False,未知,未知,未知,未知,未知,未知,未知,未知
6,002300,93575802.81999998,90328506.53,2015-06-30,半年度报告,51449029.46,2015,6,2.0650136700985167,False,未知,未知,未知,未知,未知,未知,未知,未知
7,002300,149455444.17999998,143724511.38,2015-09-30,三季度报告,89268765.24,2015,9,0.4155727962283003,True,未知,未知,未知,未知,未知,未知,未知,未知
8,002300,189482320.99,181099945.37,2015-12-31,年度报告,128292582.78000002,2015,12,-0.15825975848818744,True,未知,未知,未知,未知,未知,未知,未知,未知
9,002300,23739854.88000001,22671222.54000001,2016-03-31,一季度报告,18483360.42,2016,3,7.844186983021571,False,未知,未知,未知,未知,未知,未知,未知,未知
10,002300,76292085.50000001,72432771.68,2016-06-30,半年度报告,64917135.00000001,2016,6,0.5746484003288408,False,未知,未知,未知,未知,未知,未知,未知,未知
11,002300,122453296.37000002,115669846.73999998,2016-09-30,三季度报告,105025091.80999996,2016,9,-0.014094206949484033,True,未知,未知,未知,未知,未知,未知,未知,未知
12,002300,164883431.76999998,155330820.13000005,2016-12-31,年度报告,123454930.10000002,2016,12,-0.22236023155016985,True,0.17544211271500523,True,0.0,True,比例外推,155330820.13000005,未知,155330820.13000005
13,002300,12802480.93,11797633.060000002,2017-03-31,一季度报告,4665986.64,2017,3,5.2068192482564974,False,0.592032089007172,True,0.045126594887521326,True,前期平均,115632700.54000002,未知,115632700.54000002
14,002300,43248277.69000001,40064517.05,2017-06-30,半年度报告,23280161.03,2017,6,0.9313797395143952,False,0.07718919049951961,True,0.06474560821610598,True,前期平均,104874142.57000002,未知,104874142.57000002
15,002300,83115330.48000002,76480704.98,2017-09-30,三季度报告,52763090.96999999,2017,9,0.20330764943049098,True,0.03407762659415434,True,0.09688364275858663,True,比例外推,90278398.94025634,未知,90278398.94025634
16,002300,110749035.35,101841214.64,2017-12-31,年度报告,68364071.04,2017,12,-0.10634448447469977,True,0.09537698200642353,True,0.0,True,比例外推,101841214.64,未知,101841214.64
17,002300,12889871.849999998,12422035.75,2018-03-31,一季度报告,5099761.039999999,2018,3,10.509408920478664,False,0.36622011157322343,True,0.05496792227730103,True,前期平均,124802550.11000001,未知,124802550.11000001
18,002300,45292348.12000001,41303624.73,2018-06-30,半年度报告,26159269.56,2018,6,2.4070486985906134,False,0.49080102051391633,True,0.1033708189517567,False,前期平均,108994298.94,未知,108994298.94
19,002300,84306962.53,78186867.98,2018-09-30,三季度报告,54627050.88,2018,9,0.7728256311927494,False,0.3886527493608369,True,0.07793825961046408,True,前期平均,106913695.89500004,未知,106913695.89500004
20,002300,122015954.18,112845230.28,2018-12-31,年度报告,83648225.28999999,2018,12,0.3304764935814857,True,0.37494504202268897,True,0.0,True,比例外推,112845230.28,未知,112845230.28
21,002300,27634887.95,26038031.629999995,2019-03-31,一季度报告,19393520.25,2019,3,10.431377280915328,False,0.2945239233189569,True,0.05673872092772779,True,前期平均,110372858.67000002,未知,110372858.67000002
22,002300,76080003.98,73601667.91000001,2019-06-30,半年度报告,60611484.47000001,2019,6,2.2532865778918234,False,0.2422250207151976,True,0.13280393464865037,False,前期平均,125412520.46500002,未知,125412520.46500002
23,002300,134480124.37,127349013.52,2019-09-30,三季度报告,107377873.15999998,2019,9,0.7477677263911265,False,0.1797681988553888,True,0.10546596062263924,False,前期平均,144364422.70000005,未知,144364422.70000005
24,002300,206886242.86000004,194042969.27,2019-12-31,年度报告,164446277.72000006,2019,12,0.2076206690366759,True,0.11464744734241447,True,0.0,True,比例外推,194042969.27,未知,194042969.27
25,002300,1967645.38,2572231.9600000004,2020-03-31,一季度报告,-3643983.38,2020,3,4.331991520522883,False,1.1512150472659048,True,0.03554857377444756,True,前期平均,73695506.28500001,未知,73695506.28500001
