,SECURITYCODE_x,NETPROFIT_x,PARENTNETPROFIT_x,REPORTDATE_x,REPORTTIMETYPE_x,KCFJCXSYJLR,Year,Month,managesituationChangeRate,managesituationGreatChange,historyprofitextroplaterate,ifhistoryprofitextroplate,IfprofitdisStableChangeRage,IfprofitdisStable,predicttype,predict,analyst_prediction,adj_prediction
0,002395,18144630.16,18831661.88,2013-12-31,年度报告,17167788.239999995,2013,12,未知,未知,未知,未知,未知,未知,未知,未知,未知,未知
1,002395,-3049393.84,-1595558.88,2014-03-31,一季度报告,-2401613.8800000004,2014,3,未知,未知,未知,未知,未知,未知,未知,未知,未知,未知
2,002395,-502307.54,3633057.42,2014-06-30,半年度报告,2529672.42,2014,6,未知,未知,未知,未知,未知,未知,未知,未知,未知,未知
3,002395,3709396.19,8258600.77,2014-09-30,三季度报告,6485306.650000001,2014,9,未知,未知,未知,未知,未知,未知,未知,未知,未知,未知
4,002395,1783163.21,7977466.22,2014-12-31,年度报告,6701548.93,2014,12,0.0,True,未知,未知,未知,未知,未知,未知,未知,未知
5,002395,-1440373.5399999996,129991.68,2015-03-31,一季度报告,-449152.02,2015,3,-6.950241625725853,False,未知,未知,未知,未知,未知,未知,,未知
6,002395,5634001.39,6258471.07,2015-06-30,半年度报告,5310808.51,2015,6,-37.122551853392444,False,未知,未知,未知,未知,未知,未知,未知,未知
7,002395,21011067.46,16466613.47,2015-09-30,三季度报告,15238902.159999998,2015,9,3.891531998904652,False,未知,未知,未知,未知,未知,未知,25000000.0,未知
8,002395,30689962.370000005,23153455.29000001,2015-12-31,年度报告,19932930.130000006,2015,12,9.175529675716,False,未知,未知,未知,未知,未知,未知,22235000.0,未知
9,002395,10482468.019999998,7248148.250000003,2016-03-31,一季度报告,6650091.129999999,2016,3,-13.597169870254632,False,未知,未知,未知,未知,未知,未知,49669952.99999999,未知
10,002395,27874608.17,20117919.43,2016-06-30,半年度报告,19148469.64,2016,6,2.2205583392658697,False,未知,未知,未知,未知,未知,未知,57504930.00000001,未知
11,002395,35799082.99,24125977.93,2016-09-30,三季度报告,27735692.55,2016,9,-0.13642511526161177,True,未知,未知,未知,未知,未知,未知,45940000.0,未知
12,002395,54570444.54999999,35550907.39,2016-12-31,年度报告,37414435.4,2016,12,-0.40877639596793036,True,2.0801164785461643,False,0.0,True,比例外推,35550907.39,36680000.0,35550907.39
13,002395,8184093.98,3902743.219999999,2017-03-31,一季度报告,3740664.36,2017,3,0.730950204224902,False,-5.669492707660057,True,0.29064737419508846,False,前期平均,18645365.700000003,49820000.0,49820000.0
14,002395,20272836.4,11455428.310000002,2017-06-30,半年度报告,11310574.849999998,2017,6,-0.3490624137444154,True,9.863706598553225,False,0.12655918831156038,False,未知,未知,,未知
15,002395,21376350.13,8611744.839999998,2017-09-30,三季度报告,8272361.840000003,2017,9,-0.4931537725402502,True,1.896311614284791,True,0.14321538995389327,False,平均增速,21793966.881640047,未知,21793966.881640047
16,002395,30512812.329999994,13089533.89,2017-12-31,年度报告,5569632.84,2017,12,-0.6675007816112796,True,2.360960398811107,False,0.0,True,比例外推,13089533.89,75098520.0,75098520.0
17,002395,9515296.449999996,2250242.0,2018-03-31,一季度报告,2116978.14,2018,3,1.2170603373252074,False,0.8102208505125025,True,0.3960091253354337,False,前期平均,27823455.210000005,58230000.0,58230000.0
18,002395,28125123.61,14464077.95,2018-06-30,半年度报告,15412342.73,2018,6,-0.10497821804550243,True,0.21000761692004968,True,1.0944292961659658,False,平均增速,7645019.464957534,125330000.0,125330000.0
19,002395,30354533.939999994,16693488.280000005,2018-09-30,三季度报告,17250180.98,2018,9,-0.15118202828576138,True,0.24744610036497455,True,0.4882348016987468,False,平均增速,12506665.657760233,,12506665.657760233
20,002395,35900268.69,22239223.03,2018-12-31,年度报告,18024079.45,2018,12,-0.4053438941070561,True,0.28424427158481125,True,0.0,True,比例外推,22239223.03,未知,22239223.03
21,002395,3214791.7100000014,3214791.7100000014,2019-03-31,一季度报告,2084912.85,2019,3,0.9068906844200328,False,0.019501764706323053,True,0.34934714521246457,False,前期平均,19511448.085,未知,19511448.085
22,002395,20163166.46,20163166.46,2019-06-30,半年度报告,5014251.98,2019,6,-0.35486042971385895,True,0.16829143732061622,True,0.8982081465737923,False,平均增速,22798198.22785516,未知,22798198.22785516
23,002395,24206044.52,24206044.52,2019-09-30,三季度报告,14657174.340000002,2019,9,-0.40224316420520856,True,0.06180337545644084,True,0.42405006978868,False,平均增速,25189739.53917041,未知,25189739.53917041
24,002395,30282885.69,30282885.69,2019-12-31,年度报告,26592014.17,2019,12,-0.4945823298237827,True,0.15611437534336178,True,0.0,True,比例外推,30282885.69,35000000.0,35000000.0
25,002395,3136285.29,3136285.29,2020-03-31,一季度报告,-3894078.8900000006,2020,3,4.644107549350372,False,0.6367341889299176,True,0.38245967829046995,False,前期平均,12004320.184999999,,12004320.184999999
