,SECURITYCODE_x,NETPROFIT_x,PARENTNETPROFIT_x,REPORTDATE_x,REPORTTIMETYPE_x,KCFJCXSYJLR,Year,Month,managesituationChangeRate,managesituationGreatChange,historyprofitextroplaterate,ifhistoryprofitextroplate,IfprofitdisStableChangeRage,IfprofitdisStable,predicttype,predict,analyst_prediction,adj_prediction
0,002373,215536594.29,198927859.41,2013-12-31,年度报告,175539984.56999996,2013,12,未知,未知,未知,未知,未知,未知,未知,未知,未知,未知
1,002373,43246918.54000001,38984769.24000001,2014-03-31,一季度报告,38896819.89000001,2014,3,未知,未知,未知,未知,未知,未知,未知,未知,未知,未知
2,002373,93997043.02,86417946.01,2014-06-30,半年度报告,80922907.22,2014,6,未知,未知,未知,未知,未知,未知,未知,未知,未知,未知
3,002373,167892340.27,154876518.33999997,2014-09-30,三季度报告,136445448.38,2014,9,未知,未知,未知,未知,未知,未知,未知,未知,未知,未知
4,002373,268194266.24,249235995.1900001,2014-12-31,年度报告,215542287.38,2014,12,0.0,True,未知,未知,未知,未知,未知,未知,未知,未知
5,002373,49048925.64000001,45766283.41,2015-03-31,一季度报告,45259340.95,2015,3,3.9838601585138504,False,未知,未知,未知,未知,未知,未知,337481291.0,未知
6,002373,118133732.42000002,109548814.52,2015-06-30,半年度报告,105598251.19,2015,6,1.2930146243445095,False,未知,未知,未知,未知,未知,未知,329590561.0,未知
7,002373,227438681.58000004,215154361.35,2015-09-30,三季度报告,170514544.97999996,2015,9,0.2837786044519944,True,未知,未知,未知,未知,未知,未知,327110622.0,未知
8,002373,317609826.42,292947028.61,2015-12-31,年度报告,246392620.3,2015,12,-0.19634152768530125,True,未知,未知,未知,未知,未知,未知,326900708.0,未知
9,002373,70926248.4,57548015.26000001,2016-03-31,一季度报告,56254853.47,2016,3,3.3943183561645074,False,未知,未知,未知,未知,未知,未知,372582491.0,未知
10,002373,164420775.13000005,130442006.87000002,2016-06-30,半年度报告,122976396.99000002,2016,6,0.8245135396527071,False,未知,未知,未知,未知,未知,未知,376626364.00000006,未知
11,002373,268991312.44000006,220324191.39,2016-09-30,三季度报告,201570478.43,2016,9,-0.052330972055048476,True,未知,未知,未知,未知,未知,未知,363410245.99999994,未知
12,002373,412216570.43,335873779.80000013,2016-12-31,年度报告,281180221.78,2016,12,-0.3213793265798417,True,0.3131675166310896,True,0.0,True,比例外推,335873779.80000013,362956030.0,335873779.80000013
13,002373,91328205.87,68212591.31,2017-03-31,一季度报告,51727750.53,2017,3,2.0388833351856794,False,0.5369326545554112,True,0.0119952076085737,True,前期平均,257101964.73000002,440305000.0,440305000.0
14,002373,292492770.24,187503955.79,2017-06-30,半年度报告,104093121.16,2017,6,0.31088418795973305,True,0.550183133861268,True,0.038352590084578475,True,比例外推,334970338.4152893,430575000.0,430575000.0
15,002373,517008501.57000005,313619117.07000005,2017-09-30,三季度报告,181458648.59000003,2017,9,-0.19872284225507628,True,0.3608409033079277,True,0.04761676875353582,True,比例外推,398756555.54522985,498177778.00000006,498177778.00000006
16,002373,788449245.48,465569707.8,2017-12-31,年度报告,269896307.85,2017,12,-0.47712777760203834,True,0.40735298914768747,True,0.0,True,比例外推,465569707.8,476405833.0,465569707.8
17,002373,148357215.67,101425596.67,2018-03-31,一季度报告,57410370.77,2018,3,1.3600222104089383,False,0.5224517338820606,True,0.008262676246052425,True,前期平均,314454920.5,813110000.0,813110000.0
18,002373,342177183.73,286911175.73999995,2018-06-30,半年度报告,228683633.46000007,2018,6,-0.26310454062455946,True,1.0703458088577213,True,0.03152623163682883,True,比例外推,606360827.1335483,838295556.0000001,838295556.0000001
19,002373,575525427.0300001,490558420.13,2018-09-30,三季度报告,385040607.38000005,2018,9,-0.5831082203958352,True,1.0829059798879552,True,0.02312482214270528,True,比例外推,660532845.9620223,900700000.0,900700000.0
20,002373,889489362.0499998,762614387.4300003,2018-12-31,年度报告,637700972.63,2018,12,-0.7266322524555358,True,1.1606487484777799,True,0.0,True,比例外推,762614387.4300003,900700000.0,900700000.0
21,002373,152999779.60999998,152411561.58999997,2019-03-31,一季度报告,124892051.53,2019,3,0.4528217809737761,True,0.8286982177158073,True,0.07055685169778521,True,比例外推,805256315.8561196,997393077.0,997393077.0
22,002373,395917087.12,374304911.17000014,2019-06-30,半年度报告,313432057.28000003,2019,6,-0.3701023781291264,True,0.4977764927188198,True,0.04347709007701045,True,比例外推,856626374.5876558,967435556.0000001,967435556.0000001
23,002373,624347998.29,591326723.3999999,2019-09-30,三季度报告,523018150.58,2019,9,-0.6254959656565012,True,0.46444163668129773,True,0.06053677492448495,True,比例外推,855593230.5240264,951935000.0,951935000.0
24,002373,1072812050.9099996,1013374155.73,2019-12-31,年度报告,751808761.79,2019,12,-0.7576850230189889,True,0.48166017598467964,True,0.0,True,比例外推,1013374155.73,952383636.0,1013374155.73
25,002373,155838259.53,115263665.51,2020-03-31,一季度报告,99046105.09000002,2020,3,0.40873793961931065,True,0.2766715524620805,True,0.0592419210913651,True,比例外推,679758479.8057859,1180007059.0,1180007059.0
