,SECURITYCODE_x,NETPROFIT_x,PARENTNETPROFIT_x,REPORTDATE_x,REPORTTIMETYPE_x,KCFJCXSYJLR,Year,Month,managesituationChangeRate,managesituationGreatChange,historyprofitextroplaterate,ifhistoryprofitextroplate,IfprofitdisStableChangeRage,IfprofitdisStable,predicttype,predict,analyst_prediction,adj_prediction
0,002334,115898457.56999998,123483875.06,2013-12-31,年度报告,107522659.83,2013,12,未知,未知,未知,未知,未知,未知,未知,未知,未知,未知
1,002334,19361021.72,21117711.31,2014-03-31,一季度报告,18551783.41,2014,3,未知,未知,未知,未知,未知,未知,未知,未知,未知,未知
2,002334,75531249.16999999,76007276.63000001,2014-06-30,半年度报告,70864430.28999999,2014,6,未知,未知,未知,未知,未知,未知,未知,未知,未知,未知
3,002334,128623655.57999998,126617600.94,2014-09-30,三季度报告,119864440.32,2014,9,未知,未知,未知,未知,未知,未知,未知,未知,未知,未知
4,002334,159997719.07999998,161914020.67000002,2014-12-31,年度报告,140906191.87,2014,12,0.0,True,未知,未知,未知,未知,未知,未知,未知,未知
5,002334,21200473.2,19647737.8,2015-03-31,一季度报告,15354609.53,2015,3,4.986174657832055,False,未知,未知,未知,未知,未知,未知,214123980.0,未知
6,002334,65748216.83000001,61954217.54,2015-06-30,半年度报告,57144735.52,2015,6,0.5344438076106031,False,未知,未知,未知,未知,未知,未知,160676667.0,未知
7,002334,108666876.73,102870324.88,2015-09-30,三季度报告,94332714.85,2015,9,-0.09893357448611248,True,未知,未知,未知,未知,未知,未知,145000000.0,未知
8,002334,150531972.17999995,148880180.66,2015-12-31,年度报告,132122914.84000003,2015,12,-0.27562431366880963,True,未知,未知,未知,未知,未知,未知,149250000.0,未知
9,002334,3751790.73,4340054.41,2016-03-31,一季度报告,2573434.09,2016,3,4.466786353146117,False,未知,未知,未知,未知,未知,未知,176436000.0,未知
10,002334,29961790.58,27735623.3,2016-06-30,半年度报告,22517598.520000003,2016,6,0.7627619904836278,False,未知,未知,未知,未知,未知,未知,155678000.0,未知
11,002334,65511832.19000001,59062367.76000001,2016-09-30,三季度报告,49956489.85,2016,9,0.06654816129452194,True,未知,未知,未知,未知,未知,未知,111333333.0,未知
12,002334,65039452.49999999,68067254.72999997,2016-12-31,年度报告,37643484.84,2016,12,-0.23007414377449753,True,0.09122187924310231,True,0.0,True,比例外推,68067254.72999997,111333333.0,111333333.0
13,002334,2589891.2499999995,8375098.21,2017-03-31,一季度报告,5424800.86,2017,3,29.891503793976263,False,0.8150072753778079,True,0.037049481353614425,True,前期平均,127936455.09500001,149913099.0,149913099.0
14,002334,82036461.92999999,90922221.42,2017-06-30,半年度报告,57960838.17,2017,6,2.868208652635205,False,0.5758507385638052,True,0.08697662331494971,True,前期平均,163432191.87,177550247.00000003,163432191.87
15,002334,164852283.16,177376871.61999995,2017-09-30,三季度报告,141431531.64,2017,9,0.769122518720995,False,0.4478344200904371,True,0.3631817282176627,False,前期平均,206792847.39,215413750.0,206792847.39
16,002334,212283693.76,225854957.6,2017-12-31,年度报告,170633010.82,2017,12,0.781971605157654,False,0.5811063847962683,True,0.0,True,前期平均,225854957.6,223757143.0,225854957.6
17,002334,17494041.44,24703869.92999999,2018-03-31,一季度报告,18654917.43,2018,3,43.750318211237634,False,0.7924123232051754,True,0.044091207372466634,True,前期平均,100623047.96000001,283209345.0,283209345.0
18,002334,83242123.10999998,96268656.87000002,2018-06-30,半年度报告,85807619.55000001,2018,6,0.4127676260452788,True,0.7142713525989891,True,0.14138926832802545,False,平均增速,315378426.0279683,266870000.0,266870000.0
19,002334,162382810.89999998,186358297.15,2018-09-30,三季度报告,136604866.03,2018,9,-0.29695570271530364,True,0.8929096923748168,True,0.370449906148703,False,平均增速,235632346.30096188,,235632346.30096188
20,002334,177878433.20999998,224180075.15,2018-12-31,年度报告,172258684.01000002,2018,12,-0.4540397544569276,True,0.9694975257051778,True,0.0,True,比例外推,224180075.15,262200000.0,262200000.0
21,002334,12076905.910000002,25501322.32,2019-03-31,一季度报告,8434562.67,2019,3,5.625024752999555,False,4.517161376168536,False,0.03881211676621191,True,去年同期,179105088.9,268920000.0,268920000.0
22,002334,-32385385.34000001,-10843018.85,2019-06-30,半年度报告,44833654.38,2019,6,0.39230540067852915,True,0.4864896771950534,True,0.13898342791667256,False,平均增速,131528434.88356996,,131528434.88356996
23,002334,-92956675.1,-39394030.55,2019-09-30,三季度报告,4342301.409999998,2019,9,-0.2862640021586177,True,0.4097925855620895,True,0.3441016701075198,False,平均增速,10574542.237609781,未知,10574542.237609781
24,002334,-439780871.26,-297616613.10999995,2019-12-31,年度报告,-291178609.9,2019,12,-0.34844008079848326,True,0.2828242835759034,True,0.0,True,比例外推,-297616613.10999995,未知,-297616613.10999995
25,002334,-7925256.4300000025,4327443.590000002,2020-03-31,一季度报告,-8106244.27,2020,3,8.596701210865024,False,0.20264353564710152,True,0.07125555180592316,True,前期平均,163733431.85999998,未知,163733431.85999998
