,SECURITYCODE_x,NETPROFIT_x,PARENTNETPROFIT_x,REPORTDATE_x,REPORTTIMETYPE_x,KCFJCXSYJLR,Year,Month,managesituationChangeRate,managesituationGreatChange,historyprofitextroplaterate,ifhistoryprofitextroplate,IfprofitdisStableChangeRage,IfprofitdisStable,predicttype,predict,analyst_prediction,adj_prediction
0,002302,451297495.85,407101065.56999993,2013-12-31,年度报告,385780387.55,2013,12,未知,未知,未知,未知,未知,未知,未知,未知,未知,未知
1,002302,-136573083.23999998,-131951510.54,2014-03-31,一季度报告,-136243340.99,2014,3,未知,未知,未知,未知,未知,未知,未知,未知,未知,未知
2,002302,23629092.4,15917958.62,2014-06-30,半年度报告,9112546.8,2014,6,未知,未知,未知,未知,未知,未知,未知,未知,未知,未知
3,002302,192243493.88000005,170544134.23000002,2014-09-30,三季度报告,160888819.45999995,2014,9,未知,未知,未知,未知,未知,未知,未知,未知,未知,未知
4,002302,365528611.67000014,332717520.94000006,2014-12-31,年度报告,326525873.45000005,2014,12,0.0,True,未知,未知,未知,未知,未知,未知,未知,未知
5,002302,-98398412.03,-94530315.76000002,2015-03-31,一季度报告,-97652370.69,2015,3,-4.30443953628062,False,未知,未知,未知,未知,未知,未知,470100000.0,未知
6,002302,54528185.59,50685213.06,2015-06-30,半年度报告,48845743.83000001,2015,6,18.099231075417865,False,未知,未知,未知,未知,未知,未知,382014363.0,未知
7,002302,242445122.25,228669282.11,2015-09-30,三季度报告,226703551.5300001,2015,9,1.3475306588617433,False,未知,未知,未知,未知,未知,未知,400000000.0,未知
8,002302,366680451.09,346790887.56,2015-12-31,年度报告,337152291.12,2015,12,0.23464342172325536,True,未知,未知,未知,未知,未知,未知,,未知
9,002302,-45843897.03,-35895841.52,2016-03-31,一季度报告,-35961052.45,2016,3,-5.5864306805317865,False,未知,未知,未知,未知,未知,未知,452620000.0,未知
10,002302,74269095.17,77145310.03,2016-06-30,半年度报告,63016476.95999999,2016,6,7.276407714045853,False,未知,未知,未知,未知,未知,未知,456581429.0,未知
11,002302,182356540.69,181398289.4,2016-09-30,三季度报告,149083943.51,2016,9,0.8614418457329884,False,未知,未知,未知,未知,未知,未知,430512341.0,未知
12,002302,320988398.17,316309763.86000013,2016-12-31,年度报告,263632768.1200001,2016,12,0.23076508308110266,True,0.10218234281640735,True,0.0,True,比例外推,316309763.86000013,,316309763.86000013
13,002302,-137492433.35999998,-131036199.31000002,2017-03-31,一季度报告,-134469092.85,2017,3,-10.844221915834801,False,-0.6097918432419055,True,0.1446927799721459,False,前期平均,317750738.815,459388405.0,459388405.0
14,002302,-10519222.28,-18360742.95,2017-06-30,半年度报告,-16674953.6,2017,6,5.076518029699863,False,0.9005036275573085,True,0.10936450213908877,False,盈利变化,263182143.4866668,,263182143.4866668
15,002302,122754296.76,99377262.06000002,2017-09-30,三季度报告,94358314.57,2017,9,1.4748083844011421,False,0.1609785307307722,True,0.09552875105877257,True,前期平均,237420158.85000002,171320000.0,171320000.0
16,002302,142428160.44,105741158.36,2017-12-31,年度报告,83933590.38000001,2017,12,0.40596201739038074,True,0.12323292760113783,True,0.0,True,比例外推,105741158.36,171320000.0,171320000.0
17,002302,142428160.44,105741158.36,2017-12-31,年度报告,83933590.38000001,2017,12,0.40596201739038074,True,0.12323292760113783,True,0.0,True,比例外推,105741158.36,171320000.0,171320000.0
18,002302,-137492433.35999998,-131036199.31000002,2017-12-31,年度报告,83933590.38000001,2017,12,0.40596201739038074,True,0.12323292760113783,True,0.0,True,比例外推,-131036199.31000002,171320000.0,171320000.0
19,002302,-137492433.35999998,-131036199.31000002,2017-12-31,年度报告,83933590.38000001,2017,12,0.40596201739038074,True,0.12323292760113783,True,0.0,True,比例外推,-131036199.31000002,171320000.0,171320000.0
20,002302,-122926385.76999998,-122361277.01,2018-03-31,一季度报告,-121928755.95000003,2018,3,-4.282344233943086,False,-0.9064092117772145,True,0.9260445505183729,False,盈利变化,122461607.55999994,286000000.0,286000000.0
21,002302,98675475.18000002,79399538.48,2018-06-30,半年度报告,80090300.23,2018,6,-43.90217316807189,False,1.1633454094361113,True,0.2604151670542105,False,前期平均,323860957.70500004,,323860957.70500004
22,002302,251603640.6,223044157.99,2018-09-30,三季度报告,219864482.33,2018,9,2.6764293206969616,False,0.4220630121340268,True,0.3368328663872936,False,盈利变化,161521677.36444443,未知,161521677.36444443
23,002302,338307166.68000007,303394861.47000015,2018-12-31,年度报告,298371660.33,2018,12,2.168597378887835,False,0.5857652688695529,True,0.0,True,前期平均,303394861.47000015,,303394861.47000015
24,002302,-44893845.85,-43064351.49,2019-03-31,一季度报告,-47211741.3,2019,3,-4.671282556817339,False,-0.340993195494928,True,0.8863750558373572,False,前期平均,215933900.41000006,未知,215933900.41000006
25,002302,334492778.1,305140172.92999995,2019-06-30,半年度报告,300878367.87,2019,6,3.573552800498406,False,2.095707354593912,False,0.30159757796027814,False,去年同期,523421533.0299999,561000000.0,523421533.0299999
26,002302,669706969.29,611698016.8700001,2019-09-30,三季度报告,600487172.97,2019,9,0.7936842836367132,False,0.649260594627233,True,0.31534144040163214,False,前期平均,663760067.0800002,,663760067.0800002
27,002302,733572667.3100001,660681098.32,2019-12-31,年度报告,605521633.6099999,2019,12,0.33398739458829113,True,0.4600564455216675,True,0.0,True,比例外推,660681098.32,未知,660681098.32
28,002302,-127801187.20000002,-109064968.11,2020-03-31,一季度报告,-110794382.64,2020,3,-11.052547009625375,False,-0.6552181136526144,True,0.9058541029384596,False,前期平均,210286581.64499998,未知,210286581.64499998
