,SECURITYCODE_x,NETPROFIT_x,PARENTNETPROFIT_x,REPORTDATE_x,REPORTTIMETYPE_x,KCFJCXSYJLR,Year,Month,managesituationChangeRate,managesituationGreatChange,historyprofitextroplaterate,ifhistoryprofitextroplate,IfprofitdisStableChangeRage,IfprofitdisStable,predicttype,predict,analyst_prediction,adj_prediction
0,002343,70615717.63999999,52323217.52999998,2013-12-31,年度报告,64456296.51000001,2013,12,未知,未知,未知,未知,未知,未知,未知,未知,未知,未知
1,002343,10137381.249999996,7812865.120000001,2014-03-31,一季度报告,7115599.420000001,2014,3,未知,未知,未知,未知,未知,未知,未知,未知,未知,未知
2,002343,40220122.66,31771665.42000001,2014-06-30,半年度报告,30794738.70000001,2014,6,未知,未知,未知,未知,未知,未知,未知,未知,未知,未知
3,002343,33928255.86,34454254.32,2014-09-30,三季度报告,32680793.83,2014,9,未知,未知,未知,未知,未知,未知,未知,未知,未知,未知
4,002343,118792108.86000004,121478886.8,2014-12-31,年度报告,102399984.76999998,2014,12,0.0,True,未知,未知,未知,未知,未知,未知,未知,未知
5,002343,-10076811.44,-9846118.78,2015-03-31,一季度报告,-10108499.16,2015,3,5.965873720099065,False,未知,未知,未知,未知,未知,未知,269153333.0,未知
6,002343,-30743315.01,-29764789.44,2015-06-30,半年度报告,-33803634.510000005,2015,6,0.7557310363508472,False,未知,未知,未知,未知,未知,未知,203000000.0,未知
7,002343,50421480.74,46245423.34000001,2015-09-30,三季度报告,40041273.33,2015,9,1.0813247203565501,False,未知,未知,未知,未知,未知,未知,208085556.0,未知
8,002343,202240699.10999992,199212571.21,2015-12-31,年度报告,185826766.29,2015,12,-0.40555211690683374,True,未知,未知,未知,未知,未知,未知,未知,未知
9,002343,20184432.880000006,20501786.25,2016-03-31,一季度报告,19583844.419999994,2016,3,-8.007744271138211,False,未知,未知,未知,未知,未知,未知,344444119.99999994,未知
10,002343,92138167.55,92394171.79,2016-06-30,半年度报告,90200365.24,2016,6,-3.2969454535735827,False,未知,未知,未知,未知,未知,未知,323901429.0,未知
11,002343,142985551.60000002,145972777.47,2016-09-30,三季度报告,138279155.88000005,2016,9,0.40050860473797306,True,未知,未知,未知,未知,未知,未知,285580311.0,未知
12,002343,304136538.8,290109214.02,2016-12-31,年度报告,279252749.6399999,2016,12,-0.6508332993766419,True,1.1355051989892286,True,0.0,True,比例外推,290109214.02,291501520.0,290109214.02
13,002343,28847214.92,28571329.63000001,2017-03-31,一季度报告,19620510.64,2017,3,2.4985237415300596,False,665.4849330054387,False,0.0828042041624123,True,去年同期,288240234.84999996,426020235.0,426020235.0
14,002343,78219755.14999999,76184673.76999998,2017-06-30,半年度报告,64735704.01999999,2017,6,-0.23358886422741768,True,18.44497998753832,False,0.3291849627629802,False,未知,未知,437607647.0,未知
15,002343,152897299.98,149503133.87000003,2017-09-30,三季度报告,129844833.47,2017,9,-0.5061338936010373,True,2.390302266812296,False,0.15190882759251062,False,未知,未知,430327647.0,未知
16,002343,411683240.51000017,408421611.16,2017-12-31,年度报告,387303625.76,2017,12,-0.7678157385540682,True,0.894738053242341,True,0.0,True,比例外推,408421611.16,430504118.0,408421611.16
17,002343,87284847.62,87348738.16000001,2018-03-31,一季度报告,87329807.67999999,2018,3,1.44792150076996,False,4.708012531185573,False,0.07652785837063511,True,去年同期,455031853.28000003,558529000.0,558529000.0
18,002343,196487430.29,193055391.56,2018-06-30,半年度报告,189135295.31,2018,6,-0.09721377285594848,True,1.5480883792020914,True,0.2846565196735766,False,平均增速,897301327.5494318,531156250.0,531156250.0
19,002343,253176679.8,245475260.15000004,2018-09-30,三季度报告,240631027.58,2018,9,-0.5381493482930241,True,0.581093491070315,True,0.14654052306506576,False,平均增速,670032973.9486928,474573750.0,474573750.0
20,002343,-1100266392.69,-1094302053.35,2018-12-31,年度报告,-1094292932.95,2018,12,-0.828470749616817,True,0.6259942575980081,True,0.0,True,比例外推,-1094302053.35,470902857.0,470902857.0
21,002343,5347640.95,6249489.3500000015,2019-03-31,一季度报告,5132652.6,2019,3,-0.1909739254236899,True,2.560347307764761,False,0.0934660899316393,True,比例外推,376824066.7480115,322000000.0,322000000.0
22,002343,80206155.17,84992604.16999999,2019-06-30,半年度报告,82489790.30999999,2019,6,-0.6406094907151224,True,1.3067601104295457,True,0.2786088584751911,False,平均增速,266662379.9804737,196000000.0,196000000.0
23,002343,85165305.61,89891152.88999999,2019-09-30,三季度报告,87089069.63,2019,9,-0.7210812714038918,True,0.7113305380697046,True,0.42340722587426816,False,平均增速,328390647.06434816,196000000.0,196000000.0
24,002343,156793852.43,164724538.39000002,2019-12-31,年度报告,160500006.02999997,2019,12,-1.0641805640062805,False,4.074143588908871,False,0.0,True,前期平均,164724538.39000002,356000000.0,356000000.0
25,002343,-15951012.11,-15383411.71,2020-03-31,一季度报告,-16956004.88,2020,3,12.205022233214812,False,0.9079041423524518,True,0.08074931764441903,True,盈利变化,135272995.08333334,204000000.0,204000000.0
