,SECURITYCODE_x,NETPROFIT_x,PARENTNETPROFIT_x,REPORTDATE_x,REPORTTIMETYPE_x,KCFJCXSYJLR,Year,Month,managesituationChangeRate,managesituationGreatChange,historyprofitextroplaterate,ifhistoryprofitextroplate,IfprofitdisStableChangeRage,IfprofitdisStable,predicttype,predict,analyst_prediction,adj_prediction
0,002344,1051401765.21,1039004364.46,2013-12-31,年度报告,969992602.23,2013,12,未知,未知,未知,未知,未知,未知,未知,未知,未知,未知
1,002344,279109140.31,273047421.92999995,2014-03-31,一季度报告,256298829.55000007,2014,3,未知,未知,未知,未知,未知,未知,未知,未知,未知,未知
2,002344,611345072.29,597773585.3799999,2014-06-30,半年度报告,577708120.2900001,2014,6,未知,未知,未知,未知,未知,未知,未知,未知,未知,未知
3,002344,811178863.3700002,790184356.4,2014-09-30,三季度报告,754997182.66,2014,9,未知,未知,未知,未知,未知,未知,未知,未知,未知,未知
4,002344,959181074.4199998,936377829.54,2014-12-31,年度报告,858080370.1700003,2014,12,0.0,True,未知,未知,未知,未知,未知,未知,未知,未知
5,002344,173303721.58999997,167256269.12,2015-03-31,一季度报告,135074601.67000002,2015,3,2.7669915218191448,False,未知,未知,未知,未知,未知,未知,1100655882.0,未知
6,002344,529131767.8000001,513458654.84,2015-06-30,半年度报告,474220483.27,2015,6,0.719817191413057,False,未知,未知,未知,未知,未知,未知,1063081711.0000001,未知
7,002344,681413202.48,662991065.0700003,2015-09-30,三季度报告,614330366.1,2015,9,0.29614048477792715,True,未知,未知,未知,未知,未知,未知,945748000.0,未知
8,002344,558910699.91,548802740.64,2015-12-31,年度报告,469813967.85,2015,12,0.09614523602414117,True,未知,未知,未知,未知,未知,未知,952248570.9999999,未知
9,002344,142251214.02999997,143369846.15,2016-03-31,一季度报告,121379986.53,2016,3,5.066815851175976,False,未知,未知,未知,未知,未知,未知,696300000.0,未知
10,002344,386755796.83,384319154.73,2016-06-30,半年度报告,352737974.72,2016,6,0.9870320196072716,False,未知,未知,未知,未知,未知,未知,557516250.0,未知
11,002344,489694377.44,488706160.6599999,2016-09-30,三季度报告,429388472.7199999,2016,9,0.542972401156051,False,未知,未知,未知,未知,未知,未知,566080000.0,未知
12,002344,530622040.3600001,549988153.0699999,2016-12-31,年度报告,457922976.77,2016,12,0.8811623491539967,False,0.4440311646021467,True,0.0,True,前期平均,549988153.0699999,575474000.0,549988153.0699999
13,002344,88515006.36999999,88728385.6,2017-03-31,一季度报告,79496582.64000002,2017,3,6.391161983252146,False,0.37114425335925677,True,0.018687470332640288,True,前期平均,556988839.0000001,530082500.0,556988839.0000001
14,002344,203390451.6,208890410.6500001,2017-06-30,半年度报告,175636954.71,2017,6,1.7185158537446508,False,0.32176475096244944,True,0.19173411255557515,False,前期平均,346873277.88000023,390370000.0,390370000.0
15,002344,246715613.0300001,256781737.19,2017-09-30,三季度报告,218751929.99,2017,9,1.147057049555002,False,0.34383360511684197,True,0.2658840386313728,False,前期平均,236065131.82000017,360460000.0,360460000.0
16,002344,283206476.13000005,302724792.08000004,2017-12-31,年度报告,259013567.04,2017,12,0.9814513631900352,False,0.3009354910783484,True,0.0,True,前期平均,302724792.08000004,633046667.0,633046667.0
17,002344,111726515.26000002,115701564.37,2018-03-31,一季度报告,107238130.95,2018,3,10.878231819981512,False,0.43898829409157314,True,0.02143144677862363,True,前期平均,451342742.58000004,364293333.0,364293333.0
18,002344,199940203.46,232215824.28,2018-06-30,半年度报告,223183777.95,2018,6,4.169376226558317,False,0.5558615283041525,True,0.19011977347626996,False,前期平均,282605067.595,329500000.0,329500000.0
19,002344,257388000.67000005,297140198.06000006,2018-09-30,三季度报告,248173881.09,2018,9,3.2615939554751723,False,0.5786627680322015,True,0.2776539957839528,False,前期平均,239149250.9600001,352390000.0,352390000.0
20,002344,325292160.92999995,364222360.25,2018-12-31,年度报告,300137157.59000003,2018,12,2.712491958437334,False,0.48013223345666894,True,0.0,True,前期平均,364222360.25,346500000.0,364222360.25
21,002344,101124902.59,98512959.74000002,2019-03-31,一季度报告,89399268.75000001,2019,3,8.410494570275205,False,0.03169090288571514,True,0.047535749784500814,True,前期平均,356542947.06,388290000.0,356542947.06
22,002344,205785390.91000003,206273674.68000004,2019-06-30,半年度报告,190008349.29000005,2019,6,4.25858105081074,False,0.32240455991404693,True,0.05256895677826523,True,前期平均,300554481.87,348500000.0,348500000.0
23,002344,236882401.22000003,242769405.5900001,2019-09-30,三季度报告,214224504.18,2019,9,3.0848903696874883,False,0.3009654838991879,True,0.06798272700349128,True,前期平均,277167476.1400001,339666667.0,339666667.0
24,002344,268918150.51000005,279339807.8000001,2019-12-31,年度报告,255650279.93,2019,12,2.232176767506711,False,0.20058795105148677,True,0.0,True,前期平均,279339807.8000001,325000000.0,325000000.0
25,002344,66319400.95000002,66243844.66,2020-03-31,一季度报告,60233827.48,2020,3,9.397060845366594,False,0.0100293062779999,True,0.031049873497249192,True,前期平均,252451850.18000004,250000000.0,252451850.18000004
