,SECURITYCODE_x,NETPROFIT_x,PARENTNETPROFIT_x,REPORTDATE_x,REPORTTIMETYPE_x,KCFJCXSYJLR,Year,Month,managesituationChangeRate,managesituationGreatChange,historyprofitextroplaterate,ifhistoryprofitextroplate,IfprofitdisStableChangeRage,IfprofitdisStable,predicttype,predict,analyst_prediction,adj_prediction
0,002376,235742947.92999995,227042984.42,2013-12-31,年度报告,205333362.84000003,2013,12,未知,未知,未知,未知,未知,未知,未知,未知,未知,未知
1,002376,40514326.16,40285043.97,2014-03-31,一季度报告,39089928.19,2014,3,未知,未知,未知,未知,未知,未知,未知,未知,未知,未知
2,002376,261821804.11,257889569.12000003,2014-06-30,半年度报告,81803521.46000001,2014,6,未知,未知,未知,未知,未知,未知,未知,未知,未知,未知
3,002376,296587866.51000005,280752895.99000007,2014-09-30,三季度报告,103664326.93,2014,9,未知,未知,未知,未知,未知,未知,未知,未知,未知,未知
4,002376,334374748.72,306435647.8,2014-12-31,年度报告,120241119.24,2014,12,0.0,True,未知,未知,未知,未知,未知,未知,未知,未知
5,002376,30174871.70000001,22490656.82,2015-03-31,一季度报告,20767051.95,2015,3,4.8187552471932795,False,未知,未知,未知,未知,未知,未知,,未知
6,002376,76197808.78,61056207.00000002,2015-06-30,半年度报告,56059597.56000002,2015,6,-0.0996053642997719,True,未知,未知,未知,未知,未知,未知,355863333.0,未知
7,002376,138777636.95999998,108449785.6,2015-09-30,三季度报告,99282529.95,2015,9,-0.20514972273131948,True,未知,未知,未知,未知,未知,未知,182650000.0,未知
8,002376,201419743.01,147278003.02,2015-12-31,年度报告,136651369.34,2015,12,-0.2949738315096058,True,未知,未知,未知,未知,未知,未知,182766667.00000003,未知
9,002376,47078557.54,31598087.27,2016-03-31,一季度报告,30034489.81,2016,3,6.812558418599667,False,未知,未知,未知,未知,未知,未知,184000000.0,未知
10,002376,111051508.75000004,83693725.75,2016-06-30,半年度报告,69781871.1,2016,6,2.093828440797323,False,未知,未知,未知,未知,未知,未知,215000000.0,未知
11,002376,182938245.75,138534877.98999998,2016-09-30,三季度报告,121351397.26,2016,9,0.6987099153298624,False,未知,未知,未知,未知,未知,未知,221500000.0,未知
12,002376,292166138.15000004,227126606.77,2016-12-31,年度报告,180578469.1,2016,12,0.17040635841887602,True,0.29340996010634884,True,0.0,True,比例外推,227126606.77,201000000.0,201000000.0
13,002376,72481013.46,63231426.14000001,2017-03-31,一季度报告,61757422.63,2017,3,4.007437785868916,False,0.3319873181540156,True,0.11063251529713586,False,前期平均,161749180.36,320553846.0,320553846.0
14,002376,159045956.85999998,134222909.2,2017-06-30,半年度报告,129996512.16,2017,6,1.1228252599494724,False,0.34292860819209936,True,0.18799491774378924,False,前期平均,193737593.97999996,321533333.0,321533333.0
15,002376,231469161.28000003,191643586.95,2017-09-30,三季度报告,185251486.08,2017,9,0.2886476907194238,True,0.15961074411305154,True,0.10857350961245071,False,平均增速,273244766.3194943,321318000.0,321318000.0
16,002376,348740746.68,286431832.95,2017-12-31,年度报告,271504500.44000006,2017,12,-0.19312022459985437,True,0.09059030154132199,True,0.0,True,比例外推,286431832.95,321318000.0,321318000.0
17,002376,81310400.41,77624861.55000001,2018-03-31,一季度报告,76676889.67,2018,3,2.2524786378725117,False,0.8764477945652419,True,0.04554420804647896,True,前期平均,210839009.89000002,432658000.0,432658000.0
18,002376,188559875.7,174638287.04,2018-06-30,半年度报告,169772127.26000002,2018,6,0.4822316303048961,True,0.6987614049329556,True,0.053642631627367765,True,比例外推,404181586.17894316,412154000.0,404181586.17894316
19,002376,284635270.51000005,260895340.03,2018-09-30,三季度报告,253722770.24,2018,9,0.018463741028681,True,0.4389663284896019,True,0.03291611621442836,True,比例外推,372966184.4149926,410467000.0,372966184.4149926
20,002376,414948699.97000015,380449654.3399999,2018-12-31,年度报告,366506881.91000015,2018,12,-0.3240166221634129,True,0.41309044683534113,True,0.0,True,比例外推,380449654.3399999,406667000.0,380449654.3399999
21,002376,75061595.91999999,70342238.80999999,2019-03-31,一季度报告,64066641.19,2019,3,1.8992963598910897,False,0.36016547617087047,True,0.03467538553701427,True,前期平均,250487767.36,518347000.0,518347000.0
22,002376,171574909.74,155980262.23999998,2019-06-30,半年度报告,98165727.93,2019,6,0.2502285921373248,True,0.3962358015773903,True,0.056382331492160265,True,比例外推,279498925.6758286,460333333.0,460333333.0
23,002376,262532863.86,219469273.10999992,2019-09-30,三季度报告,163323500.36,2019,9,-0.17177183450384226,True,0.37369779439967665,True,0.01018598189154618,True,比例外推,295552576.9655415,448000000.0,448000000.0
24,002376,386619525.9,322422660.59000003,2019-12-31,年度报告,242938121.22,2019,12,-0.4318744752133369,True,0.2948798329107196,True,0.0,True,比例外推,322422660.59000003,531750000.0,531750000.0
25,002376,25008803.469999995,15081099.44,2020-03-31,一季度报告,9184374.17,2020,3,2.1406599478813746,False,0.023851929946497416,True,0.03025269710566439,True,前期平均,264869634.4650001,357374000.0,357374000.0
