,SECURITYCODE_x,NETPROFIT_x,PARENTNETPROFIT_x,REPORTDATE_x,REPORTTIMETYPE_x,KCFJCXSYJLR,Year,Month,managesituationChangeRate,managesituationGreatChange,historyprofitextroplaterate,ifhistoryprofitextroplate,IfprofitdisStableChangeRage,IfprofitdisStable,predicttype,predict,analyst_prediction,adj_prediction
0,002329,39502464.42999999,36363925.08,2013-12-31,年度报告,27944874.81,2013,12,未知,未知,未知,未知,未知,未知,未知,未知,未知,未知
1,002329,11061674.31,10674047.44,2014-03-31,一季度报告,7878200.49,2014,3,未知,未知,未知,未知,未知,未知,未知,未知,未知,未知
2,002329,29245404.879999995,25060070.03,2014-06-30,半年度报告,21594093.21,2014,6,未知,未知,未知,未知,未知,未知,未知,未知,未知,未知
3,002329,41468397.63,32961180.12,2014-09-30,三季度报告,29177728.730000004,2014,9,未知,未知,未知,未知,未知,未知,未知,未知,未知,未知
4,002329,89871938.18999998,75468672.09,2014-12-31,年度报告,65379388.89999998,2014,12,0.0,True,未知,未知,未知,未知,未知,未知,未知,未知
5,002329,17916709.16,11793852.94,2015-03-31,一季度报告,8923549.720000003,2015,3,2.5711107851267037,False,未知,未知,未知,未知,未知,未知,222995348.0,未知
6,002329,72721551.62,56614722.36,2015-06-30,半年度报告,57562292.35000001,2015,6,0.3507238006136983,True,未知,未知,未知,未知,未知,未知,235433332.99999997,未知
7,002329,96727899.74999996,75219384.32,2015-09-30,三季度报告,73784936.42999999,2015,9,-0.047407985655509646,True,未知,未知,未知,未知,未知,未知,221700000.0,未知
8,002329,215312622.61999995,184617257.56000003,2015-12-31,年度报告,174934832.31,2015,12,-0.5604583007157687,True,未知,未知,未知,未知,未知,未知,223672500.0,未知
9,002329,25974274.9,16229691.85,2016-03-31,一季度报告,12666535.86,2016,3,1.2047834832409587,False,未知,未知,未知,未知,未知,未知,424527738.0,未知
10,002329,121710640.57,100943445.23000002,2016-06-30,半年度报告,97956476.15,2016,6,-0.45679838301007925,True,未知,未知,未知,未知,未知,未知,402783750.0,未知
11,002329,163063255.12,132668561.07000004,2016-09-30,三季度报告,129713033.36,2016,9,-0.5916125075381882,True,未知,未知,未知,未知,未知,未知,374768333.0,未知
12,002329,327200143.82,290602509.85,2016-12-31,年度报告,266717406.54,2016,12,-0.8165343770870463,True,2.3285196802402823,False,0.0,True,比例外推,290602509.85,349360000.0,349360000.0
13,002329,23680678.22000001,16682492.05,2017-03-31,一季度报告,14661313.99,2017,3,0.5208303054496429,False,0.7926655520236305,True,0.04749944426767025,True,前期平均,128438727.54999998,460510000.0,460510000.0
14,002329,99089323.99,89169865.92999998,2017-06-30,半年度报告,75087015.24999997,2017,6,-0.6754395158467614,True,1.38725651422184,True,0.025064961946078712,True,比例外推,233505963.22414348,306000000.0,306000000.0
15,002329,126778400.8,113129752.39,2017-09-30,三季度报告,94474838.49,2017,9,-0.7577476029107251,True,1.359878784185123,True,0.034864704180536665,True,比例外推,227916975.10203177,,227916975.10203177
16,002329,71098150.79,56740002.18,2017-12-31,年度报告,8315964.729999999,2017,12,-0.8792712497958706,True,1.1442771741241942,True,0.0,True,比例外推,56740002.18,529460000.0,529460000.0
17,002329,13834882.75,9526207.000000004,2018-03-31,一季度报告,4415141.299999999,2018,3,0.6681306195291892,False,0.07906800119258975,True,1.1425211046059995,False,前期平均,219557283.635,未知,219557283.635
18,002329,-62702219.95999999,-72577992.52,2018-06-30,半年度报告,-78627496.56,2018,6,-0.6013448993356081,True,0.01926870107157429,True,5.787401664511789,False,平均增速,-63589653.3473075,未知,-63589653.3473075
19,002329,-25855429.8,-44163007.03,2018-09-30,三季度报告,-52033505.76000001,2018,9,-0.688413292952659,True,0.023997557858040374,True,7.271067043379068,False,平均增速,-53948816.821745254,未知,-53948816.821745254
20,002329,-597892804.1299999,-616199415.3000001,2018-12-31,年度报告,-630603017.6299999,2018,12,-0.4443953324935698,True,0.7378931697532201,True,0.0,True,比例外推,-616199415.3000001,未知,-616199415.3000001
21,002329,21866881.39,10561771.4,2019-03-31,一季度报告,1020458.8199999998,2019,3,1.8552800297494385,False,0.44275920605279595,True,1.1618584938064123,False,前期平均,134414532.11,85000000.0,85000000.0
22,002329,38006439.64000001,14831673.52,2019-06-30,半年度报告,-4208487.09,2019,6,-1.6300010502849827,False,1.5679549821029193,True,5.855522902714135,False,前期平均,65826613.455,,65826613.455
23,002329,51623530.49,20136126.07,2019-09-30,三季度报告,-3273902.33,2019,9,-2.5278208382364618,False,1.1784107237307286,True,7.384157506392663,False,前期平均,45558875.78,未知,45558875.78
24,002329,85952709.14,48625794.16,2019-12-31,年度报告,3703122.37,2019,12,-1.0660694762625222,False,4.002236324990726,False,0.0,True,前期平均,48625794.16,未知,48625794.16
25,002329,-48372455.52,-44417176.53000001,2020-03-31,一季度报告,-52555004.08000001,2020,3,0.806497402417199,False,0.16574993547270914,True,1.085832940074006,False,盈利变化,-22808156.37333335,未知,-22808156.37333335
