,SECURITYCODE_x,NETPROFIT_x,PARENTNETPROFIT_x,REPORTDATE_x,REPORTTIMETYPE_x,KCFJCXSYJLR,Year,Month,managesituationChangeRate,managesituationGreatChange,historyprofitextroplaterate,ifhistoryprofitextroplate,IfprofitdisStableChangeRage,IfprofitdisStable,predicttype,predict,analyst_prediction,adj_prediction
0,002332,50609586.77,60591468.84000001,2013-12-31,年度报告,58332061.15,2013,12,未知,未知,未知,未知,未知,未知,未知,未知,未知,未知
1,002332,4635077.049999999,8058198.09,2014-03-31,一季度报告,8515088.06,2014,3,未知,未知,未知,未知,未知,未知,未知,未知,未知,未知
2,002332,24475981.08,28498147.62,2014-06-30,半年度报告,28130424.28,2014,6,未知,未知,未知,未知,未知,未知,未知,未知,未知,未知
3,002332,38024031.19000001,41269919.84,2014-09-30,三季度报告,35018775.849999994,2014,9,未知,未知,未知,未知,未知,未知,未知,未知,未知,未知
4,002332,48817970.24999999,56695716.72999999,2014-12-31,年度报告,50537704.34000001,2014,12,0.0,True,未知,未知,未知,未知,未知,未知,未知,未知
5,002332,12120152.05,11729974.54,2015-03-31,一季度报告,11268745.98,2015,3,9.918823187631803,False,未知,未知,未知,未知,未知,未知,162315000.0,未知
6,002332,43754462.09,42393774.82,2015-06-30,半年度报告,40739649.06,2015,6,1.0677245420554151,False,未知,未知,未知,未知,未知,未知,,未知
7,002332,69320099.87000002,72426281.77,2015-09-30,三季度报告,69959422.88,2015,9,0.3309895133714776,True,未知,未知,未知,未知,未知,未知,未知,未知
8,002332,104601886.23999998,106551038.95,2015-12-31,年度报告,93328404.12,2015,12,0.03669993878944631,True,未知,未知,未知,未知,未知,未知,105000000.0,未知
9,002332,12919059.05,13591139.43,2016-03-31,一季度报告,11786026.47,2016,3,3.1756560941824157,False,未知,未知,未知,未知,未知,未知,166936703.00000003,未知
10,002332,57758363.87,58910567.99000002,2016-06-30,半年度报告,58557269.07000001,2016,6,0.1566725849788638,True,未知,未知,未知,未知,未知,未知,149500000.0,未知
11,002332,99147339.57000002,100608057.10000002,2016-09-30,三季度报告,102325962.67000002,2016,9,-0.2699146875882885,True,未知,未知,未知,未知,未知,未知,147153333.0,未知
12,002332,146412584.2,146186888.11,2016-12-31,年度报告,130700572.17,2016,12,-0.5161694631980088,True,1.1040823967737468,True,0.0,True,比例外推,146186888.11,176000000.0,176000000.0
13,002332,13305745.89,16235968.850000005,2017-03-31,一季度报告,15762982.279999996,2017,3,2.9174359815314874,False,0.5420927965705943,True,0.04202029674439464,True,前期平均,78277106.06000002,207494286.0,207494286.0
14,002332,83083783.80000001,81168064.68999998,2017-06-30,半年度报告,78721005.04000002,2017,6,-0.12377042251560569,True,0.6930379222685619,True,0.07623321083313067,True,比例外推,166316246.05313498,207925714.0,207925714.0
15,002332,152314701.23000002,140940701.44,2017-09-30,三季度报告,137616045.64000002,2017,9,-0.4895517419883101,True,0.847280118455318,True,0.04888701101589643,True,比例外推,188838336.62335613,199503332.99999997,188838336.62335613
16,002332,230098348.91,206630126.59,2017-12-31,年度报告,187005646.48,2017,12,-0.6543358137790453,True,0.9086523420068936,True,0.0,True,比例外推,206630126.59,198670000.0,206630126.59
17,002332,49166573.44999998,40501223.77,2018-03-31,一季度报告,41019589.09,2018,3,2.80358885464932,False,0.06279274030322783,True,0.022339540253783458,True,前期平均,140988325.69,321108889.0,321108889.0
18,002332,132606673.37,123302397.69999996,2018-06-30,半年度报告,115656689.67,2018,6,-0.3908608340247499,True,0.6369120456313224,True,0.014211647903831226,True,比例外推,273421196.4221275,316594000.0,316594000.0
19,002332,230038441.95,211667094.16,2018-09-30,三季度报告,202394020.22000003,2018,9,-0.6677301247922357,True,0.8082390488786071,True,0.026770040324064714,True,比例外推,276942705.25989,315285000.0,315285000.0
20,002332,345370418.07,301362969.27000004,2018-12-31,年度报告,282371781.88000005,2018,12,-0.7800523688686036,True,0.8333472847733728,True,0.0,True,比例外推,301362969.27000004,315428000.0,301362969.27000004
21,002332,73803935.72999999,58010342.6,2019-03-31,一季度报告,56262217.21,2019,3,0.029349479102250175,True,2.7496235767998036,False,0.038689591668178216,True,比例外推,529643114.5704061,407375000.0,407375000.0
22,002332,195550187.58,173705966.92000002,2019-06-30,半年度报告,163394977.46,2019,6,-0.6183481156428017,True,0.883053838126693,True,0.021835626652895623,True,比例外推,393695845.33195555,405946667.0,393695845.33195555
23,002332,326346375.04999995,290822049.48,2019-09-30,三季度报告,283263838.46000004,2019,9,-0.7799950897728639,True,0.829607691229713,True,0.03771687597832607,True,比例外推,387682799.9874703,405036667.0,387682799.9874703
24,002332,442478393.71000016,410368585.97,2019-12-31,年度报告,378108887.06000006,2019,12,-0.8534628789205033,True,0.8345837408609745,True,0.0,True,比例外推,410368585.97,406370000.0,410368585.97
25,002332,62519729.43000002,67354593.91999999,2020-03-31,一季度报告,63293446.49999999,2020,3,-0.314269811366874,True,1.3627723929482658,True,0.0418280146257268,True,比例外推,505914154.6985928,507031000.0,505914154.6985928
