,SECURITYCODE_x,NETPROFIT_x,PARENTNETPROFIT_x,REPORTDATE_x,REPORTTIMETYPE_x,KCFJCXSYJLR,Year,Month,managesituationChangeRate,managesituationGreatChange,historyprofitextroplaterate,ifhistoryprofitextroplate,IfprofitdisStableChangeRage,IfprofitdisStable,predicttype,predict,analyst_prediction,adj_prediction
0,002346,59768156.41,60238395.58,2013-12-31,年度报告,18696881.86,2013,12,未知,未知,未知,未知,未知,未知,未知,未知,未知,未知
1,002346,3829530.66,3829530.66,2014-03-31,一季度报告,2185614.54,2014,3,未知,未知,未知,未知,未知,未知,未知,未知,未知,未知
2,002346,43407050.52,43407050.52,2014-06-30,半年度报告,22823376.74,2014,6,未知,未知,未知,未知,未知,未知,未知,未知,未知,未知
3,002346,31999149.23,31999149.23,2014-09-30,三季度报告,15508943.32,2014,9,未知,未知,未知,未知,未知,未知,未知,未知,未知,未知
4,002346,84415105.99,84415105.99,2014-12-31,年度报告,-24240933.66,2014,12,0.0,True,未知,未知,未知,未知,未知,未知,未知,未知
5,002346,20346178.4,20346178.4,2015-03-31,一季度报告,12966292.84,2015,3,14.607175321583663,False,未知,未知,未知,未知,未知,未知,未知,未知
6,002346,96824708.81,96824708.81,2015-06-30,半年度报告,27493510.53,2015,6,0.37692277392728024,True,未知,未知,未知,未知,未知,未知,未知,未知
7,002346,98663995.12000002,98663995.12000002,2015-09-30,三季度报告,36753348.84,2015,9,0.8678045463148082,False,未知,未知,未知,未知,未知,未知,未知,未知
8,002346,115822267.60999998,115822267.60999998,2015-12-31,年度报告,7939669.699999997,2015,12,-0.2919732113221505,True,未知,未知,未知,未知,未知,未知,未知,未知
9,002346,10614208.02,10614208.02,2016-03-31,一季度报告,4557401.94,2016,3,1.9375617983375197,False,未知,未知,未知,未知,未知,未知,未知,未知
10,002346,79680245.97,79680245.97,2016-06-30,半年度报告,47745066.24,2016,6,-0.3827179328028387,True,未知,未知,未知,未知,未知,未知,未知,未知
11,002346,12029062.16,12029062.16,2016-09-30,三季度报告,44453794.73,2016,9,-0.3942252557550805,True,未知,未知,未知,未知,未知,未知,未知,未知
12,002346,23180261.42,20161860.140000004,2016-12-31,年度报告,19045762.630000006,2016,12,-0.4839666184808864,True,0.606597959875265,True,0.0,True,比例外推,20161860.140000004,未知,20161860.140000004
13,002346,17333854.41,17371024.51,2017-03-31,一季度报告,6723989.830000003,2017,3,4.630957702862131,False,0.12191133723049527,True,1.0390266060747884,False,前期平均,1644438.8399999999,未知,1644438.8399999999
14,002346,40635567.59,40674213.23,2017-06-30,半年度报告,16157717.330000002,2017,6,-0.24989995095518405,True,0.1364079913237439,True,2.6175691572380706,False,平均增速,1907373.8218932971,未知,1907373.8218932971
15,002346,244362452.27000007,244410376.45,2017-09-30,三季度报告,25331767.340000004,2017,9,3.968646401108962,False,0.8158767383130101,True,2.7475653387107304,False,前期平均,210128598.39,未知,210128598.39
16,002346,259255842.86000007,259255842.86000007,2017-12-31,年度报告,66541230.43,2017,12,1.5784073495578375,False,0.7684721787621369,True,0.0,True,前期平均,259255842.86000007,未知,259255842.86000007
17,002346,16142305.240000002,16142305.240000002,2018-03-31,一季度报告,10557234.73,2018,3,2.4480592138537522,False,0.11974406099806045,True,0.9752892324364334,False,前期平均,20873174.015,未知,20873174.015
18,002346,43592314.81999999,43592314.81999999,2018-06-30,半年度报告,52914005.84,2018,6,0.4708335567757229,True,0.5395532364442783,True,1.8280059420535864,False,平均增速,200313429.46029142,未知,200313429.46029142
19,002346,52225658.34,52225658.34,2018-09-30,三季度报告,70631586.13,2018,9,-0.7554118652240354,True,3.4151360216184288,False,2.181137039531659,False,未知,未知,未知,未知
20,002346,58116151.77,58267662.1,2018-12-31,年度报告,65457857.54,2018,12,-0.769462644503348,True,2.7302320277071597,False,0.0,True,比例外推,58267662.1,未知,58267662.1
21,002346,98815056.70000003,98815186.52,2019-03-31,一季度报告,17231966.24,2019,3,2.7025787532437957,False,0.1551645328137334,True,0.07208031467298229,True,前期平均,135967987.165,未知,135967987.165
22,002346,71205516.39999999,71205609.11,2019-06-30,半年度报告,50133179.04000001,2019,6,0.37107094809699315,True,0.2753684901401419,True,1.3208434808776461,False,平均增速,91189114.1297042,未知,91189114.1297042
23,002346,74596220.34,74596317.51999998,2019-09-30,三季度报告,57651964.19000001,2019,9,0.14442131147293052,True,0.5926100873025684,True,1.0694571775371708,False,平均增速,66693519.99999975,未知,66693519.99999975
24,002346,94663779.43,94663779.43,2019-12-31,年度报告,43846727.11,2019,12,0.028425912413092197,True,0.5884651367915406,True,0.0,True,比例外推,94663779.43,未知,94663779.43
25,002346,-41522985.03,-41522985.03,2020-03-31,一季度报告,4283129.68,2020,3,-0.39515132201507935,True,4.90360768577587,False,0.17455877788762678,False,未知,未知,未知,未知
