,SECURITYCODE_x,NETPROFIT_x,PARENTNETPROFIT_x,REPORTDATE_x,REPORTTIMETYPE_x,KCFJCXSYJLR,Year,Month,managesituationChangeRate,managesituationGreatChange,historyprofitextroplaterate,ifhistoryprofitextroplate,IfprofitdisStableChangeRage,IfprofitdisStable,predicttype,predict,analyst_prediction,adj_prediction
0,002305,540222395.53,540580206.4,2013-12-31,年度报告,539792823.01,2013,12,未知,未知,未知,未知,未知,未知,未知,未知,未知,未知
1,002305,62245478.1,62446706.76999999,2014-03-31,一季度报告,62393817.29999999,2014,3,未知,未知,未知,未知,未知,未知,未知,未知,未知,未知
2,002305,116516652.32999998,116748126.57,2014-06-30,半年度报告,116573423.44,2014,6,未知,未知,未知,未知,未知,未知,未知,未知,未知,未知
3,002305,138988374.49,139219836.87,2014-09-30,三季度报告,139974161.20000002,2014,9,未知,未知,未知,未知,未知,未知,未知,未知,未知,未知
4,002305,486472699.55,490188190.31000006,2014-12-31,年度报告,490771109.13000005,2014,12,0.0,True,未知,未知,未知,未知,未知,未知,未知,未知
5,002305,36138745.14,38030715.02,2015-03-31,一季度报告,37981937.91,2015,3,7.678901857932712,False,未知,未知,未知,未知,未知,未知,654180000.0,未知
6,002305,-124586380.81999998,-120575533.48999998,2015-06-30,半年度报告,-120628308.48,2015,6,3.6364393820719725,False,未知,未知,未知,未知,未知,未知,643127065.0,未知
7,002305,1601394.4400000004,4630469.82,2015-09-30,三季度报告,-116223365.1,2015,9,2.88681713497461,False,未知,未知,未知,未知,未知,未知,260480000.0,未知
8,002305,1601394.4400000004,4630469.82,2015-09-30,三季度报告,-116223365.1,2015,9,2.88681713497461,False,未知,未知,未知,未知,未知,未知,260480000.0,未知
9,002305,-122984986.38,-115945063.67,2015-09-30,三季度报告,-116223365.1,2015,9,2.88681713497461,False,未知,未知,未知,未知,未知,未知,260480000.0,未知
10,002305,-122984986.38,-115945063.67,2015-09-30,三季度报告,-116223365.1,2015,9,2.88681713497461,False,未知,未知,未知,未知,未知,未知,260480000.0,未知
11,002305,83763764.07,30687210.02,2015-12-31,年度报告,30961639.250000004,2015,12,0.1104886174079652,True,未知,未知,未知,未知,未知,未知,260480000.0,未知
12,002305,11248399.13,3766435.8000000007,2016-03-31,一季度报告,3775655.64,2016,3,13.948565409152996,False,未知,未知,未知,未知,未知,未知,506896667.0,未知
13,002305,24095642.73,4781824.96,2016-06-30,半年度报告,4351182.99,2016,6,-5.336127207278803,False,未知,未知,未知,未知,未知,未知,459891429.0,未知
14,002305,33578834.12,10635173.53,2016-09-30,三季度报告,9929284.88,2016,9,336.34499261156407,False,未知,未知,未知,未知,未知,未知,427050000.0,未知
15,002305,39943726.53,43281353.35,2016-12-31,年度报告,42514702.19000001,2016,12,5.449356729940467,False,0.836828354452257,True,0.0,True,前期平均,43281353.35,427050000.0,427050000.0
16,002305,116893.34,5077826.85,2017-03-31,一季度报告,4880415.75,2017,3,47.02660265576831,False,0.7713373392691126,True,0.7458470564347828,False,前期平均,215756323.43500003,253454710.0,253454710.0
17,002305,361940.93,10999583.98,2017-06-30,半年度报告,10541750.28,2017,6,21.419920546771817,False,-6.971859588549804,True,2.7106634440737176,False,前期平均,273893400.69000006,189040000.0,189040000.0
18,002305,12108199.55,12641908.56,2017-09-30,三季度报告,11621659.25,2017,9,15.088182025600357,False,0.5223146836990822,True,2.675444657312805,False,前期平均,261632884.7,,261632884.7
19,002305,75353210.24,57374415.87000001,2017-12-31,年度报告,-94049187.07,2017,12,12.524586773952159,False,0.8599046919012246,True,0.0,True,前期平均,57374415.87000001,,57374415.87000001
20,002305,41324205.74999999,9632905.420000002,2018-03-31,一季度报告,8870191.959999999,2018,3,4620.498500513374,False,0.9950664534948985,True,0.805522527735542,False,前期平均,25492279.36500001,未知,25492279.36500001
21,002305,64830044.47000001,15965296.89,2018-06-30,半年度报告,14850604.29,2018,6,1491.570612364841,False,-1.0072034684365805,True,2.594123853153625,False,前期平均,110842030.355,未知,110842030.355
22,002305,94075235.33,29712389.41,2018-09-30,三季度报告,28563000.61,2018,9,43.61624482642425,False,0.3116474766871155,True,2.5391837475563586,False,前期平均,119597600.24000001,未知,119597600.24000001
23,002305,112207841.85,84344162.13999999,2018-12-31,年度报告,83112310.45,2018,12,6.169202132323115,False,0.21824814123260533,True,0.0,True,前期平均,84344162.13999999,未知,84344162.13999999
24,002305,65321493.85,10101010.07,2019-03-31,一季度报告,9833364.39,2019,3,12.072783510908739,False,6.272000409858347,False,0.09977264301956545,True,去年同期,84343128.56,未知,84343128.56
25,002305,96803136.39,21253096.88,2019-06-30,半年度报告,20837923.2,2019,6,7.332901819618324,False,4.301426777987766,False,0.16840059673195745,False,去年同期,89514803.03999999,未知,89514803.03999999
26,002305,163074688.34,29944508.3,2019-09-30,三季度报告,29391974.83,2019,9,4.742450642137554,False,3.118246590904137,False,0.27478565777559466,False,去年同期,84493818.14,未知,84493818.14
27,002305,-178697883.06,-354571895.91,2019-12-31,年度报告,-356545274.31000006,2019,12,3.814479867210814,False,0.9464149697894875,True,0.0,True,盈利变化,-62208366.113333374,未知,-62208366.113333374
28,002305,-154603134.5,-153120945.69,2020-03-31,一季度报告,-153267111.32999998,2020,3,7.270208834637666,False,2.1524981375680987,False,0.09764082245371332,True,前期平均盈利变化,-328565163.5749999,未知,-328565163.5749999
