,SECURITYCODE_x,NETPROFIT_x,PARENTNETPROFIT_x,REPORTDATE_x,REPORTTIMETYPE_x,KCFJCXSYJLR,Year,Month,managesituationChangeRate,managesituationGreatChange,historyprofitextroplaterate,ifhistoryprofitextroplate,IfprofitdisStableChangeRage,IfprofitdisStable,predicttype,predict,analyst_prediction,adj_prediction
0,002381,145838739.07999998,143626079.91000003,2013-12-31,年度报告,135325774.75,2013,12,未知,未知,未知,未知,未知,未知,未知,未知,未知,未知
1,002381,31422841.16,30927343.92,2014-03-31,一季度报告,31914012.42,2014,3,未知,未知,未知,未知,未知,未知,未知,未知,未知,未知
2,002381,66694509.76000001,66147729.97,2014-06-30,半年度报告,65302702.45999999,2014,6,未知,未知,未知,未知,未知,未知,未知,未知,未知,未知
3,002381,96367354.45,95673774.92999998,2014-09-30,三季度报告,95310151.72,2014,9,未知,未知,未知,未知,未知,未知,未知,未知,未知,未知
4,002381,133968271.76,133418117.21000002,2014-12-31,年度报告,126701800.29,2014,12,0.0,True,未知,未知,未知,未知,未知,未知,未知,未知
5,002381,22732716.87,23385215.180000003,2015-03-31,一季度报告,22967847.83,2015,3,3.6411697254685795,False,未知,未知,未知,未知,未知,未知,163157143.0,未知
6,002381,51324510.49,52350413.6,2015-06-30,半年度报告,51614924.24000001,2015,6,1.1866678322518633,False,未知,未知,未知,未知,未知,未知,134458000.0,未知
7,002381,85555168.94000001,86804529.36,2015-09-30,三季度报告,86386151.77,2015,9,0.5133624857956239,False,未知,未知,未知,未知,未知,未知,130932500.0,未知
8,002381,106425423.96999995,106812553.12999998,2015-12-31,年度报告,100175408.1,2015,12,0.08860655709036504,True,未知,未知,未知,未知,未知,未知,,未知
9,002381,14058824.93,15252357.49,2016-03-31,一季度报告,14159292.21,2016,3,5.4153677676978855,False,未知,未知,未知,未知,未知,未知,152236250.0,未知
10,002381,41038221.81,44111960.53000001,2016-06-30,半年度报告,44807421.07,2016,6,1.8415027768928258,False,未知,未知,未知,未知,未知,未知,136634286.0,未知
11,002381,49600637.3,59991743.35,2016-09-30,三季度报告,59527929.58,2016,9,0.7046163415594088,False,未知,未知,未知,未知,未知,未知,94705000.0,未知
12,002381,32790223.22,53904482.18,2016-12-31,年度报告,54382690.48000001,2016,12,0.370337402847558,True,0.2392940859451414,True,0.0,True,比例外推,53904482.18,78955000.0,78955000.0
13,002381,8164376.3199999975,9471466.86,2017-03-31,一季度报告,9856788.11,2017,3,9.373465763045104,False,0.48079844649696063,True,0.017898066156069425,True,前期平均,95469140.92999999,83590000.0,83590000.0
14,002381,56824097.20000001,62864639.01000001,2017-06-30,半年度报告,9132224.170000002,2017,6,2.5537294904055194,False,0.3045490172165703,True,0.2057352782783981,False,前期平均,117844429.855,95453333.0,95453333.0
15,002381,77961462.98000002,84792339.1,2017-09-30,三季度报告,21914097.33,2017,9,1.9402593800946988,False,0.45470592232642193,True,0.19154486878558852,False,前期平均,107382791.55,94000000.0,94000000.0
16,002381,103612189.72,112515546.72,2017-12-31,年度报告,30881265.91,2017,12,3.4476287368195595,False,0.7271956477858006,True,0.0,True,前期平均,112515546.72,115000000.0,112515546.72
17,002381,16872132.3,17747234.94,2018-03-31,一季度报告,16088364.480000002,2018,3,16.86281442254735,False,0.5561818874358782,True,0.0495755272554082,True,前期平均,76462714.21000001,93000000.0,93000000.0
18,002381,71071342.52999999,72779226.22,2018-06-30,半年度报告,67171615.42,2018,6,1.5664946082064626,False,0.23045509341217277,True,0.2789633341968798,False,前期平均,101847102.85499999,,101847102.85499999
19,002381,117831329.96999998,120325281.60999998,2018-09-30,三季度报告,110273757.98,2018,9,0.8706516464091109,False,0.15365318218829063,True,0.20575006766399395,False,前期平均,124647290.225,未知,124647290.225
20,002381,153000161.42,156370605.79,2018-12-31,年度报告,130316140.17,2018,12,0.407544223069818,True,0.4885135659871804,True,0.0,True,比例外推,156370605.79,161500000.0,156370605.79
21,002381,52212798.69,52637130.48999998,2019-03-31,一季度报告,50346393.28000001,2019,3,7.64376455132467,False,0.5184250108881144,True,0.11087817600142963,False,前期平均,83261068.52499999,219866667.00000003,219866667.00000003
22,002381,121563587.94,122526953.03,2019-06-30,半年度报告,113087974.65999998,2019,6,1.0520048431396927,False,0.45247615729885965,True,0.27889474249887136,False,前期平均,138189108.60500002,254400000.0,254400000.0
23,002381,185096996.4,186942254.9,2019-09-30,三季度报告,176940469.63000005,2019,9,0.23769068139289207,True,0.8474347742998759,True,0.21113241597562615,False,平均增速,227011352.0489856,251933332.99999997,227011352.0489856
24,002381,246131596.18,248630128.48999995,2019-12-31,年度报告,238894062.23000005,2019,12,-0.046806632578257346,True,1.2433644408812756,True,0.0,True,比例外推,248630128.48999995,250700000.0,248630128.48999995
25,002381,52890624.78,53415941.79000001,2020-03-31,一季度报告,51764810.11999998,2020,3,1.7931607333650093,False,3.1709328950355857,False,0.10138754669338504,False,去年同期,241963610.74000007,288000000.0,288000000.0
