,SECURITYCODE_x,NETPROFIT_x,PARENTNETPROFIT_x,REPORTDATE_x,REPORTTIMETYPE_x,KCFJCXSYJLR,Year,Month,managesituationChangeRate,managesituationGreatChange,historyprofitextroplaterate,ifhistoryprofitextroplate,IfprofitdisStableChangeRage,IfprofitdisStable,predicttype,predict,analyst_prediction,adj_prediction
0,002301,27865077.93,27605378.34,2013-12-31,年度报告,24182005.95,2013,12,未知,未知,未知,未知,未知,未知,未知,未知,未知,未知
1,002301,6517329.199999997,6532841.48,2014-03-31,一季度报告,5434097.85,2014,3,未知,未知,未知,未知,未知,未知,未知,未知,未知,未知
2,002301,12916506.059999995,12879493.82,2014-06-30,半年度报告,10692383.2,2014,6,未知,未知,未知,未知,未知,未知,未知,未知,未知,未知
3,002301,15909566.920000002,15928759.329999994,2014-09-30,三季度报告,13538268.55,2014,9,未知,未知,未知,未知,未知,未知,未知,未知,未知,未知
4,002301,29107041.76999999,29073364.05,2014-12-31,年度报告,25415320.21,2014,12,0.0,True,未知,未知,未知,未知,未知,未知,未知,未知
5,002301,7393687.0699999975,7067422.450000001,2015-03-31,一季度报告,5511485.07,2015,3,3.2755363546773135,False,未知,未知,未知,未知,未知,未知,71565000.0,未知
6,002301,-19679593.74,-19957711.180000003,2015-06-30,半年度报告,-28224527.23,2015,6,1.1573231801665729,False,未知,未知,未知,未知,未知,未知,,未知
7,002301,-18527209.740000006,-18818058.68,2015-09-30,三季度报告,-29555048.45000001,2015,9,0.7514667790843924,False,未知,未知,未知,未知,未知,未知,41570000.0,未知
8,002301,19809763.070000004,19708310.75,2015-12-31,年度报告,-29514544.54000001,2015,12,-0.04266884452957547,True,未知,未知,未知,未知,未知,未知,41570000.0,未知
9,002301,7743096.89,7942186.17,2016-03-31,一季度报告,7191239.76,2016,3,2.7687662009747473,False,未知,未知,未知,未知,未知,未知,127100000.0,未知
10,002301,46856507.53,46660266.19000001,2016-06-30,半年度报告,40662349.6,2016,6,-2.4159376610179963,False,未知,未知,未知,未知,未知,未知,120150000.0,未知
11,002301,67268609.04999998,66746290.83000001,2016-09-30,三季度报告,58246210.69000001,2016,9,-2.50400833806289,False,未知,未知,未知,未知,未知,未知,100000000.0,未知
12,002301,104769931.04,104891423.62,2016-12-31,年度报告,87448247.80999999,2016,12,0.4066335791869718,True,0.3045804448100951,True,0.0,True,比例外推,104891423.62,99996667.0,104891423.62
13,002301,28903483.840000004,29042811.1,2017-03-31,一季度报告,16632304.21,2017,3,2.598699373888372,False,0.1132323821227192,True,0.22317400029138507,False,前期平均,21520407.474999994,154932500.0,154932500.0
14,002301,81230973.93999998,80282095.13000001,2017-06-30,半年度报告,57857596.06,2017,6,-0.4053103955270394,True,-14.856542971804258,True,0.3422968322230837,False,平均增速,158032710.4111383,169910000.0,158032710.4111383
15,002301,98742480.96999998,97502012.18000002,2017-09-30,三季度报告,80646564.99999999,2017,9,-0.5857640239106444,True,-52.396323849867244,True,0.26799944697645695,False,平均增速,145471891.8458562,164213332.99999997,164213332.99999997
16,002301,141140885.32999998,140071834.95999995,2017-12-31,年度报告,120458674.41999996,2017,12,-0.7340355419403549,True,3.283596665100583,False,0.0,True,比例外推,140071834.95999995,192816667.00000003,192816667.00000003
17,002301,31233623.340000004,29848552.12,2018-03-31,一季度报告,21289874.300000004,2018,3,-0.03592666945439072,True,2.81897289627433,False,0.19792829222051442,False,未知,未知,191640000.0,未知
18,002301,112804162.76,111169474.2,2018-06-30,半年度报告,81713862.24000002,2018,6,-0.6569648672367007,True,4.977939553231367,False,0.32242865484078,False,未知,未知,221057143.0,未知
19,002301,141784301.57000002,140012540.81,2018-09-30,三季度报告,111136116.54999998,2018,9,-0.7178005083904466,True,3.0516883949920413,False,0.22239468168092003,False,未知,未知,229550000.0,未知
20,002301,193431482.39,191770385.75,2018-12-31,年度报告,134458820.40000004,2018,12,-0.8025726006688355,True,1.265873043569636,True,0.0,True,比例外推,191770385.75,246233332.99999997,246233332.99999997
21,002301,39958569.41,39055238.96,2019-03-31,一季度报告,34662473.27,2019,3,-0.10784997223444148,True,0.7045859514217222,True,0.04398126994865324,True,比例外推,279022045.8758489,276728333.0,279022045.8758489
22,002301,141401380.72000003,140551329.03,2019-06-30,半年度报告,123018466.91000004,2019,6,-0.7529782833521383,True,0.7613612425726466,True,0.09004993866051825,True,比例外推,255169742.73213553,276099000.0,255169742.73213553
23,002301,184153324.08,183400946.55,2019-09-30,三季度报告,160852722.86,2019,9,-0.8034685249252168,True,0.7081304815590179,True,0.10584238394418122,False,平均增速,214818998.74350855,271828949.0,271828949.0
24,002301,230245760.68,230241388.46,2019-12-31,年度报告,216352057.22,2019,12,-0.8559434194180555,True,0.5731840123613021,True,0.0,True,比例外推,230241388.46,270847746.0,270847746.0
25,002301,52416491.56999999,51321933.32,2020-03-31,一季度报告,48163303.58,2020,3,-0.3026507619908307,True,0.32891558253367886,True,0.01413374709349835,True,比例外推,319588375.79407454,327167500.0,319588375.79407454
