,SECURITYCODE_x,NETPROFIT_x,PARENTNETPROFIT_x,REPORTDATE_x,REPORTTIMETYPE_x,KCFJCXSYJLR,Year,Month,managesituationChangeRate,managesituationGreatChange,historyprofitextroplaterate,ifhistoryprofitextroplate,IfprofitdisStableChangeRage,IfprofitdisStable,predicttype,predict,analyst_prediction,adj_prediction
0,002392,172928233.26,172877864.51999998,2013-12-31,年度报告,146561796.62,2013,12,未知,未知,未知,未知,未知,未知,未知,未知,未知,未知
1,002392,60544996.07000001,60394819.76000001,2014-03-31,一季度报告,52158567.46,2014,3,未知,未知,未知,未知,未知,未知,未知,未知,未知,未知
2,002392,120438022.29,120183919.76,2014-06-30,半年度报告,102664935.36,2014,6,未知,未知,未知,未知,未知,未知,未知,未知,未知,未知
3,002392,196987695.6900001,196682077.99,2014-09-30,三季度报告,169834743.54999998,2014,9,未知,未知,未知,未知,未知,未知,未知,未知,未知,未知
4,002392,203392890.56000003,202874253.38,2014-12-31,年度报告,160735340.42,2014,12,0.0,True,未知,未知,未知,未知,未知,未知,未知,未知
5,002392,50192913.28000001,50097838.66,2015-03-31,一季度报告,40823969.12,2015,3,1.8561936491013462,False,未知,未知,未知,未知,未知,未知,229300000.0,未知
6,002392,97239940.05,97006670.67000002,2015-06-30,半年度报告,81877702.96000001,2015,6,0.4358275731530196,True,未知,未知,未知,未知,未知,未知,197166667.00000003,未知
7,002392,144281534.36,143891800.26,2015-09-30,三季度报告,119983705.9,2015,9,-0.1221368793909977,True,未知,未知,未知,未知,未知,未知,170000000.0,未知
8,002392,-45892771.86999999,-46337766.91,2015-12-31,年度报告,-97523651.55000004,2015,12,-0.14978231154551147,True,未知,未知,未知,未知,未知,未知,369740000.0,未知
9,002392,29452651.48,29405758.11000001,2016-03-31,一季度报告,23910668.03000001,2016,3,2.445271891179614,False,未知,未知,未知,未知,未知,未知,122200000.0,未知
10,002392,82739308.33,82559073.71000001,2016-06-30,半年度报告,68490785.82000002,2016,6,0.7783663088550001,False,未知,未知,未知,未知,未知,未知,152550000.0,未知
11,002392,140875611.29000002,140674359.59,2016-09-30,三季度报告,116086618.56999998,2016,9,0.19854722939473995,True,未知,未知,未知,未知,未知,未知,178275000.0,未知
12,002392,147847806.56,147506927.05999994,2016-12-31,年度报告,119746248.88,2016,12,-4.7680930179997,False,1.2439021833488741,True,0.0,True,前期平均,147506927.05999994,196516667.00000003,196516667.00000003
13,002392,40254545.94000001,40203468.83,2017-03-31,一季度报告,31430391.42000001,2017,3,4.871397805302112,False,0.46806560367847516,True,0.45379638343056966,False,前期平均,25318044.974999968,,25318044.974999968
14,002392,84571447.75999999,84449244.03999999,2017-06-30,半年度报告,58121071.23,2017,6,1.0900372114580377,False,0.2398007823983015,True,0.9632738964009327,False,前期平均,23783769.31499996,217015000.0,217015000.0
15,002392,118333340.85,118087715.81000002,2017-09-30,三季度报告,43225434.26,2017,9,0.22752427958603794,True,0.1744019156408561,True,1.495552292302601,False,平均增速,121167152.42718953,,121167152.42718953
16,002392,165711214.68000004,164353898.14000005,2017-12-31,年度报告,75889669.96999998,2017,12,0.16963678585127862,True,0.8774310494457691,True,0.0,True,比例外推,164353898.14000005,254500000.0,254500000.0
17,002392,59425971.07999999,59095193.42,2018-03-31,一季度报告,47888598.99,2018,3,3.295868434778821,False,0.010842124386990405,True,0.4836828285092903,False,前期平均,37839173.509999976,未知,37839173.509999976
18,002392,180714230.66,180148471.1,2018-06-30,半年度报告,152476889.07000002,2018,6,1.0447590509593991,False,0.060208901623595136,True,1.0056546907971837,False,前期平均,116075525.37499996,未知,116075525.37499996
19,002392,239592831.68,238725995.16000003,2018-09-30,三季度报告,198403048.8,2018,9,0.4613652586653899,True,0.1700482161843383,True,1.3332094560665981,False,平均增速,345224015.6123628,未知,345224015.6123628
20,002392,333734736.64000005,333079491.36,2018-12-31,年度报告,305748876.19,2018,12,0.04355178129577121,True,2.250672518210685,False,0.0,True,比例外推,333079491.36,未知,333079491.36
21,002392,79974820.89,79784409.84,2019-03-31,一季度报告,75675666.43999998,2019,3,1.9099774074739448,False,0.7050167925112941,True,0.15733766991238313,False,前期平均,149931839.54,未知,149931839.54
22,002392,200292132.79,199535779.59,2019-06-30,半年度报告,186199617.26,2019,6,-0.043084583718527206,True,1.1602225090990566,True,0.15368657344513637,False,平均增速,471783102.0351459,未知,471783102.0351459
23,002392,310084036.87000006,309004986.75,2019-09-30,三季度报告,308165771.96000004,2019,9,-0.2782412059348971,True,0.8486462732243503,True,0.24012860473532727,False,平均增速,517499469.7273272,未知,517499469.7273272
24,002392,417303990.56,415903443.65999985,2019-12-31,年度报告,385006245.18,2019,12,-0.4818392745057946,True,1.1286884703250646,True,0.0,True,比例外推,415903443.65999985,未知,415903443.65999985
25,002392,97094014.17000002,96887320.74,2020-03-31,一季度报告,94269674.3,2020,3,1.16228347041691,False,0.6046229149063054,True,0.15837794323401772,False,前期平均,248047098.61499995,477000000.0,477000000.0
