,SECURITYCODE_x,NETPROFIT_x,PARENTNETPROFIT_x,REPORTDATE_x,REPORTTIMETYPE_x,KCFJCXSYJLR,Year,Month,managesituationChangeRate,managesituationGreatChange,historyprofitextroplaterate,ifhistoryprofitextroplate,IfprofitdisStableChangeRage,IfprofitdisStable,predicttype,predict,analyst_prediction,adj_prediction
0,002364,88948423.4,88948423.4,2013-12-31,年度报告,84821411.40999997,2013,12,未知,未知,未知,未知,未知,未知,未知,未知,未知,未知
1,002364,19425504.72,19425504.72,2014-03-31,一季度报告,16703623.13,2014,3,未知,未知,未知,未知,未知,未知,未知,未知,未知,未知
2,002364,46621720.56,46621720.56,2014-06-30,半年度报告,44025501.59000001,2014,6,未知,未知,未知,未知,未知,未知,未知,未知,未知,未知
3,002364,74858259.13000001,74858259.13000001,2014-09-30,三季度报告,72407403.49,2014,9,未知,未知,未知,未知,未知,未知,未知,未知,未知,未知
4,002364,125709264.47000004,125709264.47000004,2014-12-31,年度报告,123210767.64,2014,12,0.0,True,未知,未知,未知,未知,未知,未知,未知,未知
5,002364,25677947.299999993,25787252.419999994,2015-03-31,一季度报告,23692910.6,2015,3,3.5789504407790753,False,未知,未知,未知,未知,未知,未知,190165179.0,未知
6,002364,64138629.84,64771212.12000001,2015-06-30,半年度报告,59324135.55000003,2015,6,0.9078751777409736,False,未知,未知,未知,未知,未知,未知,187199894.0,未知
7,002364,99744189.62,100802263.81,2015-09-30,三季度报告,94319274.39000002,2015,9,0.1882245784734427,True,未知,未知,未知,未知,未知,未知,178925000.0,未知
8,002364,146775713.45000002,143478328.2,2015-12-31,年度报告,138814350.73,2015,12,-0.29242746129321956,True,未知,未知,未知,未知,未知,未知,182292000.0,未知
9,002364,39968048.79,41602675.66,2016-03-31,一季度报告,41576856.98,2016,3,2.4640005433767684,False,未知,未知,未知,未知,未知,未知,262941250.0,未知
10,002364,95650580.60999998,98197130.10000002,2016-06-30,半年度报告,96847152.83000004,2016,6,0.3868151474687006,True,未知,未知,未知,未知,未知,未知,244686000.0,未知
11,002364,127040725.76999998,131897446.49,2016-09-30,三季度报告,129880135.35,2016,9,-0.1082345373813665,True,未知,未知,未知,未知,未知,未知,224150000.0,未知
12,002364,162224867.31000003,158281756.02000004,2016-12-31,年度报告,145896414.85,2016,12,-0.39398405015894683,True,0.36753279052264465,True,0.0,True,比例外推,158281756.02000004,231524286.0,231524286.0
13,002364,27723745.33,30768354.11,2017-03-31,一季度报告,25780257.38,2017,3,1.2254882610695494,False,0.7722833619154991,True,0.0879000981590983,True,前期平均,141582646.43,200612500.0,200612500.0
14,002364,54959593.98000001,60133823.03000003,2017-06-30,半年度报告,54599221.66000001,2017,6,-0.07006917435584586,True,0.7271628387697838,True,0.18097783354732083,False,平均增速,100663148.35979256,170540000.0,170540000.0
15,002364,73785140.11000001,80376006.39000003,2017-09-30,三季度报告,70611999.27999999,2017,9,-0.2998432364040798,True,0.4551998174080589,True,0.17110288100476423,False,平均增速,93449297.14000103,146417946.0,146417946.0
16,002364,58901469.88999999,63774347.23,2017-12-31,年度报告,29387671.180000003,2017,12,-0.45169674122755804,True,0.19070686794064853,True,0.0,True,比例外推,63774347.23,318000000.0,318000000.0
17,002364,9846328.739999998,10752810.590000002,2018-03-31,一季度报告,9727906.24,2018,3,2.2083840888463397,False,0.155356092335288,True,0.432946337693797,False,前期平均,120473309.59,139051043.0,139051043.0
18,002364,38264728.26999999,40174214.06000001,2018-06-30,半年度报告,33589864.19,2018,6,0.6184330516045778,False,0.31209881036119713,True,0.8748734056021875,False,前期平均,104443952.65999997,,104443952.65999997
19,002364,84132414.52999999,89041401.23,2018-09-30,三季度报告,80057361.85,2018,9,0.20550592256644545,True,0.34929410994454924,True,1.0786225224899018,False,平均增速,52764248.99264409,未知,52764248.99264409
20,002364,71053859.7,76624164.46000001,2018-12-31,年度报告,59413580.42,2018,12,0.5101223036727855,False,0.6187614292171922,True,0.0,True,前期平均,76624164.46000001,,76624164.46000001
21,002364,10013509.319999997,11405883.4,2019-03-31,一季度报告,8125091.77,2019,3,8.033663789697927,False,0.709083534629175,True,0.43526251250766684,False,前期平均,65369369.23500001,160000000.0,160000000.0
22,002364,38218641.34000001,41139956.71,2019-06-30,半年度报告,36426185.26000001,2019,6,1.324553901764844,False,0.49187060735881205,True,0.8288755580715221,False,前期平均,53058812.479999974,149150000.0,149150000.0
23,002364,58831249.17,62395187.24,2019-09-30,三季度报告,55751924.25999999,2019,9,0.057243202835724205,True,0.16213567250075397,True,0.8559573414627728,False,平均增速,43733489.314966574,132950000.0,132950000.0
24,002364,73395849.28999998,76714387.09,2019-12-31,年度报告,69652917.97,2019,12,0.2518450619790891,True,0.35734602580845354,True,0.0,True,比例外推,76714387.09,122900000.0,122900000.0
25,002364,-26004956.87999999,-24250847.8,2020-03-31,一季度报告,-29118783.270000003,2020,3,7.882842224188397,False,0.466942263603581,True,0.49137052807226334,False,盈利变化,27055887.03666666,170696667.00000003,170696667.00000003
