,SECURITYCODE_x,NETPROFIT_x,PARENTNETPROFIT_x,REPORTDATE_x,REPORTTIMETYPE_x,KCFJCXSYJLR,Year,Month,managesituationChangeRate,managesituationGreatChange,historyprofitextroplaterate,ifhistoryprofitextroplate,IfprofitdisStableChangeRage,IfprofitdisStable,predicttype,predict,analyst_prediction,adj_prediction
0,002363,52309525.81,52782324.70999999,2013-12-31,年度报告,36817027.81,2013,12,未知,未知,未知,未知,未知,未知,未知,未知,未知,未知
1,002363,19481329.37,19205321.53,2014-03-31,一季度报告,18797993.82,2014,3,未知,未知,未知,未知,未知,未知,未知,未知,未知,未知
2,002363,30808470.33000001,30799138.44,2014-06-30,半年度报告,30243605.55,2014,6,未知,未知,未知,未知,未知,未知,未知,未知,未知,未知
3,002363,41521990.81,41817208.55,2014-09-30,三季度报告,40644091.78,2014,9,未知,未知,未知,未知,未知,未知,未知,未知,未知,未知
4,002363,44457249.23,45395298.8,2014-12-31,年度报告,38945263.72,2014,12,0.0,True,未知,未知,未知,未知,未知,未知,未知,未知
5,002363,23366797.05,23473489.84,2015-03-31,一季度报告,14171233.089999994,2015,3,1.6851106932442361,False,未知,未知,未知,未知,未知,未知,78080000.0,未知
6,002363,36032972.89,37259682.94000001,2015-06-30,半年度报告,28804560.140000004,2015,6,0.6978942884763466,False,未知,未知,未知,未知,未知,未知,77000000.0,未知
7,002363,49816843.78,51167770.67999999,2015-09-30,三季度报告,41415405.56,2015,9,0.2598029330858088,True,未知,未知,未知,未知,未知,未知,73500000.0,未知
8,002363,49816843.78,51167770.67999999,2015-09-30,三季度报告,43759917.66,2015,9,0.2598029330858088,True,未知,未知,未知,未知,未知,未知,73500000.0,未知
9,002363,49816843.78,51167770.67999999,2015-09-30,三季度报告,41415405.56,2015,9,0.2598029330858088,True,未知,未知,未知,未知,未知,未知,73500000.0,未知
10,002363,49816843.78,51167770.67999999,2015-09-30,三季度报告,43759917.66,2015,9,0.2598029330858088,True,未知,未知,未知,未知,未知,未知,73500000.0,未知
11,002363,53512282.78,53512282.78,2015-09-30,三季度报告,41415405.56,2015,9,0.2598029330858088,True,未知,未知,未知,未知,未知,未知,73500000.0,未知
12,002363,53512282.78,53512282.78,2015-09-30,三季度报告,43759917.66,2015,9,0.2598029330858088,True,未知,未知,未知,未知,未知,未知,73500000.0,未知
13,002363,53512282.78,53512282.78,2015-09-30,三季度报告,41415405.56,2015,9,0.2598029330858088,True,未知,未知,未知,未知,未知,未知,73500000.0,未知
14,002363,53512282.78,53512282.78,2015-09-30,三季度报告,43759917.66,2015,9,0.2598029330858088,True,未知,未知,未知,未知,未知,未知,73500000.0,未知
15,002363,53022579.31000001,55528466.98,2015-12-31,年度报告,45647197.68,2015,12,0.17662533593511778,True,未知,未知,未知,未知,未知,未知,83898000.0,未知
16,002363,24001155.02000001,24306329.37,2016-03-31,一季度报告,23562435.03,2016,3,1.2386262737707991,False,未知,未知,未知,未知,未知,未知,78000000.0,未知
17,002363,38250728.32,38672309.02,2016-06-30,半年度报告,39349636.56,2016,6,0.45171274015298163,True,未知,未知,0.0,True,未知,未知,69000000.0,未知
18,002363,52398949.45,52899761.21999999,2016-09-30,三季度报告,53346666.36,2016,9,0.05003693210690196,True,未知,未知,0.08718297430092364,True,未知,未知,未知,未知
19,002363,58852620.73,60156017.81,2016-12-31,年度报告,59901302.35000001,2016,12,-0.013448110395216595,True,0.09588398059318055,True,0.08840008877410055,True,比例外推,60156017.81,77000000.0,77000000.0
20,002363,24283874.72,24816686.38000001,2017-03-31,一季度报告,24777662.83,2017,3,1.179458687151131,False,0.12028959141593243,True,0.09645742216086461,True,前期平均,50628303.625000015,71000000.0,71000000.0
21,002363,41976958.42,42918583.43,2017-06-30,半年度报告,43268714.56,2017,6,0.36754326276838856,True,0.14452131723435857,True,0.0,True,比例外推,62525191.0738224,,62525191.0738224
22,002363,56314343.48,57687950.18000001,2017-09-30,三季度报告,57320506.39000002,2017,9,-0.0017065922301616027,True,0.1473531425095885,True,0.07316572305446234,True,比例外推,60885513.57390746,未知,60885513.57390746
23,002363,53343146.76999999,56074091.49,2017-12-31,年度报告,55425368.81999999,2017,12,-0.11117763047491046,True,0.20748305801236266,True,0.09113293700737246,True,比例外推,56074091.49,,56074091.49
24,002363,19602509.6,20033739.430000003,2018-03-31,一季度报告,18252241.37,2018,3,1.1540848160824313,False,0.025329306367877974,True,0.09017187970944307,True,前期平均,53941155.385000005,未知,53941155.385000005
25,002363,50584274.05,51110355.75000001,2018-06-30,半年度报告,46740035.52999999,2018,6,0.24614854860653812,True,0.1301795073816031,True,0.0,True,比例外推,72155349.57453766,未知,72155349.57453766
26,002363,73874423.24999999,75179514.20000002,2018-09-30,三季度报告,68717828.63000003,2018,9,-0.07111541079089917,True,0.10187167169528788,True,0.10632115020463012,False,平均增速,72983421.68762685,未知,72983421.68762685
27,002363,77505240.51000002,81061045.08999999,2018-12-31,年度报告,70007549.67,2018,12,-0.01937682762617392,True,0.046381204218135755,True,0.07892728003453264,True,比例外推,81061045.08999999,未知,81061045.08999999
28,002363,20319594.01,20933229.41,2019-03-31,一季度报告,19253678.19,2019,3,1.6685116792392745,False,0.18805022154678297,True,0.07820595500330052,True,前期平均,54426516.065,未知,54426516.065
29,002363,45713975.23,46095440.79000001,2019-06-30,半年度报告,41634448.18,2019,6,0.0341064845231283,True,0.26101788809971094,True,0.0,True,比例外推,63791385.03891016,未知,63791385.03891016
30,002363,68585288.28000002,68956594.38,2019-09-30,三季度报告,59485589.31,2019,9,-0.2919129042405077,True,0.35906881778601607,True,0.10491774793473135,False,平均增速,70220415.88854313,未知,70220415.88854313
31,002363,58919939.50000001,61852894.68000001,2019-12-31,年度报告,49476989.07000001,2019,12,-0.3250840141157832,True,0.3816072074198348,True,未知,未知,True,True,未知,True
32,002363,19309787.09,19945178.65,2020-03-31,一季度报告,16850392.360000007,2020,3,1.5743391223395806,False,0.07399097351750113,True,未知,未知,前期平均,61146685.794999994,未知,61146685.794999994
