,SECURITYCODE_x,NETPROFIT_x,PARENTNETPROFIT_x,REPORTDATE_x,REPORTTIMETYPE_x,KCFJCXSYJLR,Year,Month,managesituationChangeRate,managesituationGreatChange,historyprofitextroplaterate,ifhistoryprofitextroplate,IfprofitdisStableChangeRage,IfprofitdisStable,predicttype,predict,analyst_prediction,adj_prediction
0,002349,40673322.43,35597156.40000001,2013-12-31,年度报告,33674918.70000001,2013,12,未知,未知,未知,未知,未知,未知,未知,未知,未知,未知
1,002349,11820060.15,10377863.27,2014-03-31,一季度报告,10010889.23,2014,3,未知,未知,未知,未知,未知,未知,未知,未知,未知,未知
2,002349,23719954.230000004,21392566.230000004,2014-06-30,半年度报告,15412491.750000006,2014,6,未知,未知,未知,未知,未知,未知,未知,未知,未知,未知
3,002349,32877435.46,29760627.91,2014-09-30,三季度报告,19004220.45,2014,9,未知,未知,未知,未知,未知,未知,未知,未知,未知,未知
4,002349,40627322.53,39467838.39,2014-12-31,年度报告,25864640.19,2014,12,0.0,True,未知,未知,未知,未知,未知,未知,未知,未知
5,002349,12859683.180000005,13512906.56,2015-03-31,一季度报告,13267143.4,2015,3,2.4410419163560686,False,未知,未知,未知,未知,未知,未知,70233333.0,未知
6,002349,32913523.27,31381898.18,2015-06-30,半年度报告,30867818.92,2015,6,0.7147302239967261,False,未知,未知,未知,未知,未知,未知,89400000.0,未知
7,002349,51762341.63,48511846.85,2015-09-30,三季度报告,45814099.42,2015,9,0.2371196798328381,True,未知,未知,未知,未知,未知,未知,73350000.0,未知
8,002349,81841950.23000002,78081130.49,2015-12-31,年度报告,75920700.18,2015,12,0.0011322405006146121,True,未知,未知,未知,未知,未知,未知,73350000.0,未知
9,002349,41790545.82,41806897.38,2016-03-31,一季度报告,40624071.56,2016,3,2.1628557143038405,False,未知,未知,未知,未知,未知,未知,,未知
10,002349,84177677.83,80830650.68,2016-06-30,半年度报告,79021016.55000001,2016,6,0.23576324832634668,True,未知,未知,未知,未知,未知,未知,174460000.0,未知
11,002349,116733040.73,112594611.22,2016-09-30,三季度报告,111084502.28,2016,9,-0.21422947360582928,True,未知,未知,未知,未知,未知,未知,171158966.0,未知
12,002349,173459557.58999997,165029744.10999998,2016-12-31,年度报告,161258928.52000004,2016,12,-0.5030259870922434,True,1.0133161371663493,True,0.0,True,比例外推,165029744.10999998,147366667.0,147366667.0
13,002349,38174929.89999999,31951248.03,2017-03-31,一季度报告,31021366.99,2017,3,-0.026733878873276717,True,2.3866272644092357,False,0.11581006026642177,False,未知,未知,,未知
14,002349,110079584.79999998,96320472.11,2017-06-30,半年度报告,94174396.88,2017,6,-0.5168158177023924,True,1.9727179592671136,True,0.09839181552067405,True,比例外推,191441869.7957353,未知,191441869.7957353
15,002349,145307252.8,130145008.79,2017-09-30,三季度报告,127802643.51,2017,9,-0.6515697511548924,True,1.7583494367163626,True,0.0722404375138942,True,比例外推,191487056.45058438,未知,191487056.45058438
16,002349,190326263.42,175319960.72,2017-12-31,年度报告,126463286.73999996,2017,12,-0.7655169712461849,True,1.8327033170177198,True,0.0,True,比例外推,175319960.72,219290000.0,219290000.0
17,002349,66846072.44999999,60093236.1,2018-03-31,一季度报告,59782300.64999998,2018,3,0.06544589699429963,True,0.3970638585979204,True,0.04923921317575147,True,比例外推,267209042.43395162,未知,267209042.43395162
18,002349,139556826.17000002,127134862.63,2018-06-30,半年度报告,122996872.42,2018,6,-0.6305098488162174,True,0.8802366662203448,True,0.19758336295922418,False,平均增速,171696580.48580766,未知,171696580.48580766
19,002349,190205965.92,172181569.48,2018-09-30,三季度报告,168651490.61,2018,9,-0.7200874584974605,True,0.7247624328308625,True,0.2429590025537368,False,平均增速,170324042.98013005,未知,170324042.98013005
20,002349,260069406.43,229665275.6,2018-12-31,年度报告,219381913.67,2018,12,-0.7862968478488715,True,0.49099208261777505,True,0.0,True,比例外推,229665275.6,未知,229665275.6
21,002349,83393533.31,67613810.04999998,2019-03-31,一季度报告,60225675.64000001,2019,3,-0.39153758868296823,True,0.6718733140302261,True,0.015929660173818527,True,比例外推,242118678.44157147,未知,242118678.44157147
22,002349,152185183.06999996,128549603.31999998,2019-06-30,半年度报告,124154926.84,2019,6,-0.7085536870804576,True,0.4368247990378883,True,0.14622599969671712,False,平均增速,237893697.58433312,未知,237893697.58433312
23,002349,-191459430.54,-212909030.14000005,2019-09-30,三季度报告,-218629122.5,2019,9,-0.7861616893388766,True,0.4517306736127893,True,0.18785541898339564,False,平均增速,-213843745.85346514,未知,-213843745.85346514
24,002349,-524348989.87000006,-393617953.72,2019-12-31,年度报告,-419304865.47,2019,12,-0.8436058935638491,True,0.42979407887835763,True,0.0,True,比例外推,-393617953.72,未知,-393617953.72
25,002349,54338530.47000001,53945183.55,2020-03-31,一季度报告,57253335.34000002,2020,3,-0.5122724650746664,True,0.5881305918615625,True,0.2683556969076736,False,平均增速,-152821206.98575622,未知,-152821206.98575622
