,SECURITYCODE_x,NETPROFIT_x,PARENTNETPROFIT_x,REPORTDATE_x,REPORTTIMETYPE_x,KCFJCXSYJLR,Year,Month,managesituationChangeRate,managesituationGreatChange,historyprofitextroplaterate,ifhistoryprofitextroplate,IfprofitdisStableChangeRage,IfprofitdisStable,predicttype,predict,analyst_prediction,adj_prediction
0,002318,220799792.47,217194576.32,2013-12-31,年度报告,198772235.97,2013,12,未知,未知,未知,未知,未知,未知,未知,未知,未知,未知
1,002318,50086469.12000001,48786599.45,2014-03-31,一季度报告,52847271.67000001,2014,3,未知,未知,未知,未知,未知,未知,未知,未知,未知,未知
2,002318,105641526.15,105060322.89,2014-06-30,半年度报告,105947088.14,2014,6,未知,未知,未知,未知,未知,未知,未知,未知,未知,未知
3,002318,162998717.95000002,163756024.33999997,2014-09-30,三季度报告,158186467.63,2014,9,未知,未知,未知,未知,未知,未知,未知,未知,未知,未知
4,002318,187219001.17,189944300.72000003,2014-12-31,年度报告,180859773.54,2014,12,0.0,True,未知,未知,未知,未知,未知,未知,未知,未知
5,002318,29845764.23,31264127.51,2015-03-31,一季度报告,26705491.15,2015,3,3.4083720882978454,False,未知,未知,未知,未知,未知,未知,272916487.0,未知
6,002318,71045963.38000001,73695950.01,2015-06-30,半年度报告,65507722.48,2015,6,1.090085220432041,False,未知,未知,未知,未知,未知,未知,207415419.0,未知
7,002318,182479860.1,182479860.1,2015-09-30,三季度报告,169792913.07000002,2015,9,0.3546106082731921,True,未知,未知,未知,未知,未知,未知,166949273.0,未知
8,002318,182479860.1,182479860.1,2015-09-30,三季度报告,104172018.22000004,2015,9,0.3546106082731921,True,未知,未知,未知,未知,未知,未知,166949273.0,未知
9,002318,182479860.1,182479860.1,2015-09-30,三季度报告,169792913.07000002,2015,9,0.3546106082731921,True,未知,未知,未知,未知,未知,未知,166949273.0,未知
10,002318,182479860.1,182479860.1,2015-09-30,三季度报告,104172018.22000004,2015,9,0.3546106082731921,True,未知,未知,未知,未知,未知,未知,166949273.0,未知
11,002318,113748848.64,116858965.25000004,2015-09-30,三季度报告,169792913.07000002,2015,9,0.3546106082731921,True,未知,未知,未知,未知,未知,未知,166949273.0,未知
12,002318,113748848.64,116858965.25000004,2015-09-30,三季度报告,104172018.22000004,2015,9,0.3546106082731921,True,未知,未知,未知,未知,未知,未知,166949273.0,未知
13,002318,113748848.64,116858965.25000004,2015-09-30,三季度报告,169792913.07000002,2015,9,0.3546106082731921,True,未知,未知,未知,未知,未知,未知,166949273.0,未知
14,002318,113748848.64,116858965.25000004,2015-09-30,三季度报告,104172018.22000004,2015,9,0.3546106082731921,True,未知,未知,未知,未知,未知,未知,166949273.0,未知
15,002318,112874149.78,122799128.64,2015-12-31,年度报告,106887321.85,2015,12,0.17936636286990834,True,未知,未知,未知,未知,未知,未知,162967177.0,未知
16,002318,23318357.58,23626102.18,2016-03-31,一季度报告,20583390.92,2016,3,6.3980277659655025,False,未知,未知,未知,未知,未知,未知,197760400.0,未知
17,002318,60992844.30000001,62623859.35999999,2016-06-30,半年度报告,52435170.85,2016,6,2.10784430199108,False,未知,未知,0.0,True,未知,未知,153244550.0,未知
18,002318,103893142.75,107039551.32999995,2016-09-30,三季度报告,91181503.12,2016,9,0.20999540633689912,True,未知,未知,0.08809399169499704,True,未知,未知,137180000.0,未知
19,002318,158648078.27,167766686.78000003,2016-12-31,年度报告,148207011.50000003,2016,12,0.9561590753981757,False,0.44672082982731304,True,0.16369009977628518,False,前期平均,167766686.78000003,134590000.0,134590000.0
20,002318,23350304.61,24308807.480000004,2017-03-31,一季度报告,21878147.19,2017,3,8.46892557558936,False,0.41654682716306224,True,0.5623927531361934,False,前期平均,128405973.76499999,222320000.0,222320000.0
21,002318,65394914.55000001,66720316.68999999,2017-06-30,半年度报告,60263082.56,2017,6,2.620093389709323,False,0.3095963447978704,True,0.0,True,前期平均,124866459.07499999,172333332.99999997,172333332.99999997
22,002318,105899558.84,108014601.71,2017-09-30,三季度报告,90811747.23,2017,9,1.1252585745847985,False,0.3985552254127671,True,0.0559508346843311,True,前期平均,87898459.05499998,166000000.0,166000000.0
23,002318,128706429.77,133824225.66,2017-12-31,年度报告,111753893.6,2017,12,0.3917583804212568,True,0.057325552201177396,True,0.14817386832464124,False,平均增速,133824225.66,175887500.0,175887500.0
24,002318,49374568.89,48213835.64999999,2018-03-31,一季度报告,37805469.9,2018,3,8.455970539049856,False,0.12157658905943289,True,0.5830698268109176,False,前期平均,152116561.29,231646000.0,231646000.0
25,002318,134208098.47000004,132401686.66,2018-06-30,半年度报告,118869180.42000002,2018,6,2.376406162304557,False,0.009459177964003848,True,0.0,True,前期平均,200977406.67000002,253874000.0,253874000.0
26,002318,213745832.32,215580126.93,2018-09-30,三季度报告,198381441.75,2018,9,1.0849925617121674,False,0.26040822433622085,True,0.03746236535985248,True,前期平均,212640085.51,281670000.0,281670000.0
27,002318,308161974.0300001,303636480.23999995,2018-12-31,年度报告,269515897.98,2018,12,0.715530396302438,False,0.051963953785035315,True,0.09455083367312384,True,前期平均,303636480.23999995,283431429.0,303636480.23999995
28,002318,70539546.72,71773703.47000001,2019-03-31,一季度报告,56895567.28,2019,3,3.4719335770184174,False,1.1159624713039156,True,0.10606973367272288,False,前期平均,180523386.96500003,366870769.0,366870769.0
29,002318,214377122.53000003,210944754.69,2019-06-30,半年度报告,185929247.7,2019,6,0.6452046857616127,False,1.1237515356100487,True,0.0,True,前期平均,284576080.535,429080216.0,429080216.0
30,002318,392663460.86,387897168.87,2019-09-30,三季度报告,365400999.17,2019,9,0.03300162662090873,True,1.037686065340115,True,0.041513134479950475,True,比例外推,529082583.8648175,530777778.00000006,529082583.8648175
31,002318,507397477.0899999,500039876.37,2019-12-31,年度报告,448949640.68,2019,12,-0.28349435985731075,True,1.1448208774027908,True,未知,未知,True,True,360603333.0,360603333.0
32,002318,78942227.07000001,79545537.61999999,2020-03-31,一季度报告,69869389.68,2020,3,2.1301561001865195,False,0.9399015309390671,True,未知,未知,前期平均,240338624.865,492240000.0,492240000.0
