,SECURITYCODE_x,NETPROFIT_x,PARENTNETPROFIT_x,REPORTDATE_x,REPORTTIMETYPE_x,KCFJCXSYJLR,Year,Month,managesituationChangeRate,managesituationGreatChange,historyprofitextroplaterate,ifhistoryprofitextroplate,IfprofitdisStableChangeRage,IfprofitdisStable,predicttype,predict,analyst_prediction,adj_prediction
0,002339,123423015.87999998,114147181.08,2013-12-31,年度报告,108444354.78,2013,12,未知,未知,未知,未知,未知,未知,未知,未知,未知,未知
1,002339,-3632620.39,-4821223.2700000005,2014-03-31,一季度报告,-5743679.11,2014,3,未知,未知,未知,未知,未知,未知,未知,未知,未知,未知
2,002339,20769281.91,16936184.25,2014-06-30,半年度报告,15097225.179999998,2014,6,未知,未知,未知,未知,未知,未知,未知,未知,未知,未知
3,002339,68386527.77999999,63013490.95000001,2014-09-30,三季度报告,60103590.53999999,2014,9,未知,未知,未知,未知,未知,未知,未知,未知,未知,未知
4,002339,141123343.51,129690268.71000002,2014-12-31,年度报告,120950620.15000002,2014,12,0.0,True,未知,未知,未知,未知,未知,未知,未知,未知
5,002339,-11581893.39,-10009920.929999998,2015-03-31,一季度报告,-10481784.62,2015,3,-34.97630432834739,False,未知,未知,未知,未知,未知,未知,190639566.0,未知
6,002339,19045813.87,19529564.99,2015-06-30,半年度报告,18637660.92,2015,6,4.942575020880921,False,未知,未知,未知,未知,未知,未知,181974333.0,未知
7,002339,77253667.61,72284008.08,2015-09-30,三季度报告,71035490.53,2015,9,0.8047855313995883,False,未知,未知,未知,未知,未知,未知,165600000.0,未知
8,002339,162984977.35000002,144105659.87999997,2015-12-31,年度报告,135489067.73,2015,12,-0.12542452006705584,True,未知,未知,未知,未知,未知,未知,164514167.00000003,未知
9,002339,-38150772.52,-34298318.99,2016-03-31,一季度报告,-34566187.04,2016,3,-11.656549125772948,False,未知,未知,未知,未知,未知,未知,181500000.0,未知
10,002339,23058592.46,20066228.500000004,2016-06-30,半年度报告,19269932.96,2016,6,5.480322485688555,False,未知,未知,未知,未知,未知,未知,174367500.0,未知
11,002339,87879195.41999999,79648853.00999998,2016-09-30,三季度报告,72433568.7,2016,9,0.5976330923610887,False,未知,未知,未知,未知,未知,未知,167300000.0,未知
12,002339,104278293.61,78984466.07000001,2016-12-31,年度报告,69649136.88000001,2016,12,-0.24273379125637579,True,0.2321846176663806,True,0.0,True,比例外推,78984466.07000001,206190500.0,206190500.0
13,002339,-54887903.11000001,-51040091.74999999,2017-03-31,一季度报告,-52014681.13999999,2017,3,-4.235138051668474,False,-4.015049849328803,True,0.2892433658032759,False,前期平均,85292484.055,未知,85292484.055
14,002339,-7194717.310000001,-7783834.08,2017-06-30,半年度报告,-8705048.719999999,2017,6,4.352582387416026,False,0.15828391258487637,True,0.09698774816106856,True,盈利变化,60334478.283333346,未知,60334478.283333346
15,002339,39214945.65000001,33151256.29,2017-09-30,三季度报告,30271796.520000003,2017,9,0.40446228814596946,True,0.20679864764908149,True,0.3529132714222084,False,平均增速,31431793.98512879,未知,31431793.98512879
16,002339,99427794.03000002,71528907.64999998,2017-12-31,年度报告,65746325.59,2017,12,0.18359259254472549,True,0.31420295692595807,True,0.0,True,比例外推,71528907.64999998,,71528907.64999998
17,002339,-53748450.87000001,-52247815.18,2018-03-31,一季度报告,-54947921.51,2018,3,-3.248637839792309,False,-1.2073179511160455,True,0.37756903192050456,False,前期平均,72845272.95500001,未知,72845272.95500001
18,002339,7449864.319999997,2105851.94,2018-06-30,半年度报告,-1711081.0300000003,2018,6,-18.154672040894955,False,1.3417560268448037,True,0.22634569739329835,False,前期平均,85721157.305,未知,85721157.305
19,002339,43275731.22,36396040.08,2018-09-30,三季度报告,31766714.04,2018,9,2.147346345487028,False,0.5250497698586408,True,0.365077738344044,False,前期平均,67230612.77,未知,67230612.77
20,002339,90992394.67000005,73398882.14999999,2018-12-31,年度报告,74387928.52999999,2018,12,0.24133314114119805,True,0.2559561688154234,True,0.0,True,比例外推,73398882.14999999,未知,73398882.14999999
21,002339,-47039916.51000001,-49104364.35999999,2019-03-31,一季度报告,-51872920.28000002,2019,3,-3.296308337862984,False,-0.15540017108044482,True,0.17907624032768493,False,前期平均,61883800.96500001,未知,61883800.96500001
22,002339,-28579411.49,-38960781.92000001,2019-06-30,半年度报告,-49464246.74,2019,6,15.567149491388326,False,0.060776229066578695,True,0.23624958730091392,False,盈利变化,41563438.34333332,未知,41563438.34333332
23,002339,-13195317.359999998,-28135025.42000001,2019-09-30,三季度报告,-41502918.29,2019,9,1.8520145679932427,False,0.31899722747778114,True,0.3974938090146919,False,盈利变化,40834601.114444435,未知,40834601.114444435
24,002339,71137631.3,51722279.13,2019-12-31,年度报告,38513454.0,2019,12,0.35641023986252146,True,0.10663058012476745,True,0.0,True,比例外推,51722279.13,未知,51722279.13
25,002339,-61738333.31000002,-60123278.31000002,2020-03-31,一季度报告,-61917652.13000001,2020,3,-3.6237932597895237,False,-0.133993091876775,True,0.38798220199317224,False,前期平均,63425150.07499997,未知,63425150.07499997
