,SECURITYCODE_x,NETPROFIT_x,PARENTNETPROFIT_x,REPORTDATE_x,REPORTTIMETYPE_x,KCFJCXSYJLR,Year,Month,managesituationChangeRate,managesituationGreatChange,historyprofitextroplaterate,ifhistoryprofitextroplate,IfprofitdisStableChangeRage,IfprofitdisStable,predicttype,predict,analyst_prediction,adj_prediction
0,002389,36486354.13,35199234.17999999,2013-12-31,年度报告,24710500.1,2013,12,未知,未知,未知,未知,未知,未知,未知,未知,未知,未知
1,002389,8532707.78,8532707.78,2014-03-31,一季度报告,8851502.11,2014,3,未知,未知,未知,未知,未知,未知,未知,未知,未知,未知
2,002389,19652757.99,19652757.99,2014-06-30,半年度报告,19893654.460000005,2014,6,未知,未知,未知,未知,未知,未知,未知,未知,未知,未知
3,002389,39431145.02,36288906.59,2014-09-30,三季度报告,33116921.20000001,2014,9,未知,未知,未知,未知,未知,未知,未知,未知,未知,未知
4,002389,54644822.6,48646859.43000002,2014-12-31,年度报告,43610690.11,2014,12,0.0,True,未知,未知,未知,未知,未知,未知,未知,未知
5,002389,22595738.14,19580137.910000004,2015-03-31,一季度报告,18618699.84,2015,3,3.2760580897333864,False,未知,未知,未知,未知,未知,未知,,未知
6,002389,50587257.58000001,44212609.3,2015-06-30,半年度报告,42274937.06,2015,6,0.8565513374034076,False,未知,未知,未知,未知,未知,未知,133949391.0,未知
7,002389,79613356.67,69359982.75999999,2015-09-30,三季度报告,64893440.76000001,2015,9,-0.07468185081884798,True,未知,未知,未知,未知,未知,未知,104333333.0,未知
8,002389,114759648.88,100077895.96,2015-12-31,年度报告,32094127.669999994,2015,12,-0.3322998887363942,True,未知,未知,未知,未知,未知,未知,104333333.0,未知
9,002389,32763102.87,29233678.38000001,2016-03-31,一季度报告,24022672.95,2016,3,0.6147449534038547,False,未知,未知,未知,未知,未知,未知,155091530.0,未知
10,002389,75290337.47,66872305.13999999,2016-06-30,半年度报告,65741866.55000002,2016,6,-0.2787441763906745,True,未知,未知,未知,未知,未知,未知,,未知
11,002389,112847475.98,98382481.65,2016-09-30,三季度报告,95610578.05,2016,9,-0.5417056175481063,True,未知,未知,未知,未知,未知,未知,188848000.0,未知
12,002389,69512993.54,65014458.75000002,2016-12-31,年度报告,64752238.48999999,2016,12,-0.6820628636799643,True,1.5185595752813668,True,0.0,True,比例外推,65014458.75000002,188848000.0,188848000.0
13,002389,5798254.24,5526223.66,2017-03-31,一季度报告,5526208.36,2017,3,0.11364159477731425,True,1.10502656985839,True,0.1954319380333031,False,平均增速,38248141.87947871,190260000.0,190260000.0
14,002389,13241042.100000005,12639265.900000002,2017-06-30,半年度报告,12457439.900000002,2017,6,-0.5153912791991633,True,1.1438018445473415,True,0.47339041282620414,False,平均增速,11864269.213658646,164860000.0,164860000.0
15,002389,82930301.8,82117283.10000001,2017-09-30,三季度报告,79121150.39,2017,9,-0.6766754966104293,True,0.8958872417957199,True,0.6599267204537852,False,平均增速,48107016.79888433,282497295.0,282497295.0
16,002389,195878650.37,186704047.14,2017-12-31,年度报告,185992938.29,2017,12,-0.4751146185496301,True,0.17932516263944356,True,0.0,True,比例外推,186704047.14,318329727.0,318329727.0
17,002389,16606095.79,13799320.899999995,2018-03-31,一季度报告,13359531.700000005,2018,3,5.292644754742593,False,0.7905211115618332,True,0.29723259487767084,False,前期平均,40901817.58499998,406053333.0,406053333.0
18,002389,36570362.16,30096529.95,2018-06-30,半年度报告,29021194.71,2018,6,1.7555500431495485,False,0.7896203515051187,True,0.7328481508402657,False,前期平均,24511311.22499998,406700000.0,406700000.0
19,002389,94720553.04999998,83003244.95,2018-09-30,三季度报告,80991076.70999998,2018,9,-0.5600359176553725,True,0.13821112942171412,True,0.8825784169041713,False,平均增速,268351486.6736353,394186487.0,394186487.0
20,002389,263668266.54,241798368.72000003,2018-12-31,年度报告,213422273.73,2018,12,-0.8137298063822677,True,1.1259656104952054,True,0.0,True,比例外推,241798368.72000003,421117216.0,421117216.0
21,002389,10329832.4,6112215.630000003,2019-03-31,一季度报告,3365575.6300000013,2019,3,1.19716630515715,False,0.13871829030137578,True,0.2165595930636495,False,前期平均,116710363.36499998,354482224.0,354482224.0
22,002389,43681152.38,35771124.12,2019-06-30,半年度报告,33136474.87,2019,6,-0.0022971615548254046,True,0.17384406890249496,True,0.6092028067176647,False,平均增速,326362275.4432758,340000000.0,326362275.4432758
23,002389,101904945.14,87598161.78,2019-09-30,三季度报告,83060438.71000002,2019,9,-0.614800030667684,True,0.03236665443777128,True,0.7160780848250936,False,平均增速,288594109.34050226,338415000.0,338415000.0
24,002389,255931031.9100001,231882442.04,2019-12-31,年度报告,235078271.35999995,2019,12,-0.8616202298107618,True,0.9870125724788497,True,0.0,True,比例外推,231882442.04,583194761.0,583194761.0
25,002389,9184819.07,5215368.789999999,2020-03-31,一季度报告,4263466.29,2020,3,2.5321341835129876,False,0.07787261079494928,True,0.027054886643346626,True,前期平均,195480104.76999995,347155000.0,347155000.0
