,SECURITYCODE_x,NETPROFIT_x,PARENTNETPROFIT_x,REPORTDATE_x,REPORTTIMETYPE_x,KCFJCXSYJLR,Year,Month,managesituationChangeRate,managesituationGreatChange,historyprofitextroplaterate,ifhistoryprofitextroplate,IfprofitdisStableChangeRage,IfprofitdisStable,predicttype,predict,analyst_prediction,adj_prediction
0,002313,76911341.23000002,52027351.82,2013-12-31,年度报告,79107514.15,2013,12,未知,未知,未知,未知,未知,未知,未知,未知,未知,未知
1,002313,10076432.920000002,5306642.6,2014-03-31,一季度报告,3714076.57,2014,3,未知,未知,未知,未知,未知,未知,未知,未知,未知,未知
2,002313,36941514.79,20339717.76,2014-06-30,半年度报告,15516974.409999998,2014,6,未知,未知,未知,未知,未知,未知,未知,未知,未知,未知
3,002313,27951546.05,5282565.500000001,2014-09-30,三季度报告,131649.91,2014,9,未知,未知,未知,未知,未知,未知,未知,未知,未知,未知
4,002313,46891219.11000002,12107220.29,2014-12-31,年度报告,-92385.1,2014,12,0.0,True,未知,未知,未知,未知,未知,未知,未知,未知
5,002313,-14913436.54,-15625826.83,2015-03-31,一季度报告,-17245001.150000002,2015,3,6.632794446271172,False,未知,未知,未知,未知,未知,未知,96920000.0,未知
6,002313,-28192429.57,-30257028.52,2015-06-30,半年度报告,-32480528.26,2015,6,1.0819758384899738,False,未知,未知,未知,未知,未知,未知,,未知
7,002313,-15118252.609999998,-14339097.990000002,2015-09-30,三季度报告,-12897609.11,2015,9,1.7515952460168127,False,未知,未知,未知,未知,未知,未知,未知,未知
8,002313,-49363490.16,-28947583.17,2015-12-31,年度报告,-39422897.59,2015,12,0.6402077550932751,False,未知,未知,未知,未知,未知,未知,,未知
9,002313,-17151401.05,-14088081.110000005,2016-03-31,一季度报告,-17295659.15,2016,3,-6.1571843299639655,False,未知,未知,未知,未知,未知,未知,139000000.0,未知
10,002313,-31001124.68,-32646488.81,2016-06-30,半年度报告,-37546910.37000001,2016,6,-3.728084893819955,False,未知,未知,未知,未知,未知,未知,,未知
11,002313,22604495.26,12671124.31,2016-09-30,三季度报告,-38512085.77,2016,9,-6.087316848980739,False,未知,未知,未知,未知,未知,未知,未知,未知
12,002313,89907322.57999998,67465795.36999999,2016-12-31,年度报告,3708226.61,2016,12,-2.5580612509510616,False,1.7974550772525644,True,0.0,True,前期平均,67465795.36999999,45000000.0,45000000.0
13,002313,-3754246.000000002,-7210854.3500000015,2017-03-31,一季度报告,-7178400.5699999975,2017,3,-5.484259974201933,False,-6.091746212089877,True,25.39251244280112,False,前期平均,-20203033.405,91500000.0,91500000.0
14,002313,29562624.940000005,28709642.86000001,2017-06-30,半年度报告,5111713.65,2017,6,-3.48092099960549,False,8.0867122448717,False,108.87267164346375,False,盈利变化,95904878.05,96750000.0,95904878.05
15,002313,70155082.08000001,70453223.87000002,2017-09-30,三季度报告,36619617.01,2017,9,2.402479920270514,False,2.522789432920501,False,6.557769626221903,False,去年同期,112673536.25000003,98692000.0,98692000.0
16,002313,99437807.28,102020799.59,2017-12-31,年度报告,66421792.49999999,2017,12,-0.1445486416129907,True,-73.73257726332305,True,0.0,True,比例外推,102020799.59,102385000.0,102020799.59
17,002313,-3750491.57,-1908030.13,2018-03-31,一季度报告,-5500949.790000001,2018,3,-21.48649481946574,False,-0.7658340860475257,True,3.2192091999576116,False,前期平均,-2495035.4700000016,227828889.00000003,227828889.00000003
18,002313,52491667.62000001,49147231.79000001,2018-06-30,半年度报告,42768792.38999999,2018,6,1.6016411393135241,False,-1.9988460843268254,True,7.050486776877488,False,前期平均,66303615.61500001,226272000.0,226272000.0
19,002313,107730612.65,103141287.82,2018-09-30,三季度报告,85886845.79,2018,9,0.09630462896894104,True,17.74240132464848,False,7.21654685279621,False,未知,未知,203641250.0,未知
20,002313,69799751.86,71697046.87,2018-12-31,年度报告,40182906.05,2018,12,-0.22653824200456546,True,3.9052001917286945,False,0.0,True,比例外推,71697046.87,201732857.0,201732857.0
21,002313,3597602.4899999993,7201637.760000003,2019-03-31,一季度报告,7820942.250000003,2019,3,-21.50700282736538,False,-0.6411982311736197,True,3.0277645584834216,False,盈利变化,89459569.59,247333332.99999997,247333332.99999997
22,002313,37030547.13000001,43193978.23,2019-06-30,半年度报告,34720299.53000001,2019,6,0.4652104746753329,True,-73.98112910329787,True,7.130637717107229,False,平均增速,30173650.316460326,117336667.0,117336667.0
23,002313,73480928.14,80474247.36999997,2019-09-30,三季度报告,71934432.93,2019,9,-0.2860771944194451,True,1.3227922278068454,True,7.819959258667513,False,平均增速,-150240081.31547156,158000000.0,158000000.0
24,002313,68800653.2,78135811.07,2019-12-31,年度报告,35329647.46,2019,12,0.10188559673197697,True,0.2627246139194678,True,0.0,True,比例外推,78135811.07,261455000.0,261455000.0
25,002313,-16083680.04,-18480851.17,2020-03-31,一季度报告,-37278201.6,2020,3,20.378498998648414,False,-1.9587550414504362,True,0.2292372538696286,False,盈利变化,18003619.26999999,,18003619.26999999
