,SECURITYCODE_x,NETPROFIT_x,PARENTNETPROFIT_x,REPORTDATE_x,REPORTTIMETYPE_x,KCFJCXSYJLR,Year,Month,managesituationChangeRate,managesituationGreatChange,historyprofitextroplaterate,ifhistoryprofitextroplate,IfprofitdisStableChangeRage,IfprofitdisStable,predicttype,predict,analyst_prediction,adj_prediction
0,002396,392351581.24,239177474.6600001,2013-12-31,年度报告,203214615.71,2013,12,未知,未知,未知,未知,未知,未知,未知,未知,未知,未知
1,002396,15815815.29,9504468.430000003,2014-03-31,一季度报告,1565465.3699999996,2014,3,未知,未知,未知,未知,未知,未知,未知,未知,未知,未知
2,002396,69139527.64999999,52782078.14000002,2014-06-30,半年度报告,34606136.72,2014,6,未知,未知,未知,未知,未知,未知,未知,未知,未知,未知
3,002396,214268369.5000001,136541253.9,2014-09-30,三季度报告,107341406.76,2014,9,未知,未知,未知,未知,未知,未知,未知,未知,未知,未知
4,002396,371717215.82,241752733.69000003,2014-12-31,年度报告,186344779.18000004,2014,12,0.0,True,未知,未知,未知,未知,未知,未知,未知,未知
5,002396,-14279891.97,-10399668.910000002,2015-03-31,一季度报告,-11801403.32,2015,3,23.80754700569091,False,未知,未知,未知,未知,未知,未知,354000000.0,未知
6,002396,39563965.05,21624819.49,2015-06-30,半年度报告,12797285.260000002,2015,6,4.674779602576589,False,未知,未知,未知,未知,未知,未知,319877797.0,未知
7,002396,245376318.6,138303033.45000002,2015-09-30,三季度报告,119702807.03,2015,9,0.8311222610950976,False,未知,未知,未知,未知,未知,未知,270453333.0,未知
8,002396,482931029.3500001,262340647.92,2015-12-31,年度报告,231318644.84,2015,12,0.05551092212525336,True,未知,未知,未知,未知,未知,未知,267590000.0,未知
9,002396,-18972544.71,-10114103.6,2016-03-31,一季度报告,-16317961.359999998,2016,3,-28.475808785127665,False,未知,未知,未知,未知,未知,未知,326372000.0,未知
10,002396,68388117.96999998,38529506.46,2016-06-30,半年度报告,27501091.02,2016,6,8.91689232219661,False,未知,未知,未知,未知,未知,未知,334357500.0,未知
11,002396,305458575.69,176123979.6,2016-09-30,三季度报告,157460874.57999998,2016,9,0.5989790028580207,False,未知,未知,未知,未知,未知,未知,,未知
12,002396,557400415.01,319458028.13,2016-12-31,年度报告,283279576.04,2016,12,-0.1875618724104667,True,0.26410352368329215,True,0.0,True,比例外推,319458028.13,352000000.0,319458028.13
13,002396,-35688087.44,-18592374.220000006,2017-03-31,一季度报告,-29905909.42000001,2017,3,-21.67996608979924,False,25.705067581108178,False,0.04180783381492868,True,去年同期,281005163.18,451260000.0,451260000.0
14,002396,77453132.66,51824938.96,2017-06-30,半年度报告,31455247.01,2017,6,4.737130847965637,False,0.2582506094581079,True,0.07300540986549305,True,前期平均,236954939.98000005,437728824.0,437728824.0
15,002396,423144221.88000005,271146855.55999994,2017-09-30,三季度报告,245192327.02,2017,9,0.2844673957957065,True,0.329107389242991,True,0.032308663953958705,True,比例外推,471930002.7513795,460448667.0,471930002.7513795
16,002396,700032172.4399999,472302810.59,2017-12-31,年度报告,398681606.1,2017,12,-0.2961046122777625,True,0.30439726088509356,True,0.0,True,比例外推,472302810.59,464848667.0,472302810.59
17,002396,-23305612.969999995,-6679026.54,2018-03-31,一季度报告,-24399396.0,2018,3,-11.993908875045058,False,-1.1464945732211524,True,0.013800779602060755,True,前期平均,264679766.24000004,614523846.0,614523846.0
18,002396,149222494.71999997,117326586.8,2018-06-30,半年度报告,50931469.88,2018,6,4.065664457528477,False,0.4349539257274076,True,0.021777626299184873,True,前期平均,354476509.1,611721429.0,611721429.0
19,002396,595540778.47,402434955.22000015,2018-09-30,三季度报告,316664892.99,2018,9,-0.07277102946884281,True,0.5363740615068073,True,0.052228624250790445,True,比例外推,648450532.5231134,614610000.0,648450532.5231134
20,002396,828746740.0499997,581302345.68,2018-12-31,年度报告,455932510.37000006,2018,12,-0.43952350093791065,True,0.34578681868190886,True,0.0,True,比例外推,581302345.68,620041111.0,581302345.68
21,002396,-32316463.7,-6163950.170000001,2019-03-31,一季度报告,-40214520.16,2019,3,-17.83506809046611,False,-0.14726149137665998,True,0.012968307370361594,True,前期平均,357928576.29,711665833.0,711665833.0
22,002396,175142708.89999998,157475956.53,2019-06-30,半年度报告,118840969.17000002,2019,6,1.6293058695755338,False,1.0463688301546208,True,0.016997705781484795,True,前期平均,468978378.58500004,715639286.0,715639286.0
23,002396,669977997.25,480301626.75999993,2019-09-30,三季度报告,434092936.24000007,2019,9,-0.3411843564298184,True,0.6347474384018785,True,0.0727430332611737,True,比例外推,744331423.4342991,713151250.0,744331423.4342991
24,002396,854161346.3699999,611313601.66,2019-12-31,年度报告,543253198.73,2019,12,-0.5265723986843933,True,0.3181569307514925,True,0.0,True,比例外推,611313601.66,712482353.0,712482353.0
25,002396,-117047196.25,-53703991.4,2020-03-31,一季度报告,-59135649.24000002,2020,3,-13.140919405114243,False,-0.09559032491279525,True,0.014002216130519989,True,前期平均,400755719.545,764613333.0,764613333.0
