,SECURITYCODE_x,NETPROFIT_x,PARENTNETPROFIT_x,REPORTDATE_x,REPORTTIMETYPE_x,KCFJCXSYJLR,Year,Month,managesituationChangeRate,managesituationGreatChange,historyprofitextroplaterate,ifhistoryprofitextroplate,IfprofitdisStableChangeRage,IfprofitdisStable,predicttype,predict,analyst_prediction,adj_prediction
0,002307,3886669.32,9917459.289999995,2013-12-31,年度报告,-2983629.7,2013,12,未知,未知,未知,未知,未知,未知,未知,未知,未知,未知
1,002307,940616.87,2221864.79,2014-03-31,一季度报告,-13590002.61,2014,3,未知,未知,未知,未知,未知,未知,未知,未知,未知,未知
2,002307,18078908.34,20869497.04,2014-06-30,半年度报告,-4768505.44,2014,6,未知,未知,未知,未知,未知,未知,未知,未知,未知,未知
3,002307,23104914.92,31171512.95000001,2014-09-30,三季度报告,3866606.24,2014,9,未知,未知,未知,未知,未知,未知,未知,未知,未知,未知
4,002307,10819672.71,30067368.04000001,2014-12-31,年度报告,1955878.1,2014,12,0.0,True,未知,未知,未知,未知,未知,未知,未知,未知
5,002307,1287185.9,4360738.97,2015-03-31,一季度报告,1021107.97,2015,3,3.132042964528161,False,未知,未知,未知,未知,未知,未知,未知,未知
6,002307,5840583.04,15047501.27,2015-06-30,半年度报告,8602469.11,2015,6,-0.7850163711820666,True,未知,未知,未知,未知,未知,未知,44800000.0,未知
7,002307,9073775.580000002,33647942.47,2015-12-31,年度报告,-1981596.05,2015,12,-0.6407775517638555,True,未知,未知,未知,未知,未知,未知,未知,未知
8,002307,1112937.0399999998,4306855.0,2016-03-31,一季度报告,1229839.65,2016,3,2.0195089302951503,False,未知,未知,未知,未知,未知,未知,41700000.0,未知
9,002307,3575303.7500000005,13908505.889999995,2016-06-30,半年度报告,10029063.61,2016,6,-0.33454086802950417,True,未知,未知,未知,未知,未知,未知,,未知
10,002307,5029335.070000001,26196817.9,2016-09-30,三季度报告,18669721.4,2016,9,未知,未知,未知,未知,未知,未知,未知,未知,未知,未知
11,002307,31019593.45,40209131.34,2016-12-31,年度报告,31511206.59,2016,12,-0.5716590865916038,True,0.2339949066178493,True,0.0,True,比例外推,40209131.34,未知,40209131.34
12,002307,5136980.83,4644200.84,2017-03-31,一季度报告,740647.91,2017,3,2.4922634257909153,False,0.0008657364224394109,True,4.473435719886513,False,前期平均,10915789.184999999,未知,10915789.184999999
13,002307,13744051.320000006,17875999.16,2017-06-30,半年度报告,18672606.91,2017,6,0.08708786491217685,True,0.7010552027883462,True,2.4719198821125596,False,平均增速,128576072.64487834,未知,128576072.64487834
14,002307,40205041.46,30956412.49,2017-09-30,三季度报告,37687179.42,2017,9,-0.22720016346017707,True,未知,未知,未知,未知,未知,未知,未知,未知
15,002307,50445387.16,50598138.63,2017-12-31,年度报告,46437814.61999999,2017,12,-0.8747027640363868,True,2.1185738136301757,False,0.0,True,比例外推,50598138.63,未知,50598138.63
16,002307,1111685.67,5980651.23,2018-03-31,一季度报告,5408105.24,2018,3,-0.24339423318424186,True,3.2805980846964458,False,0.36185644385523796,False,未知,未知,未知,未知
17,002307,7856576.920000001,18597933.46,2018-06-30,半年度报告,18552665.74,2018,6,-0.7172107969107905,True,1.919332321326689,True,3.134244307769393,False,平均增速,166883424.02801913,未知,166883424.02801913
18,002307,33597319.870000005,31481578.83999999,2018-09-30,三季度报告,31531221.48000001,2018,9,-0.9033288070634911,True,未知,未知,未知,未知,未知,未知,未知,未知
19,002307,63894897.15,53131681.96999998,2018-12-31,年度报告,40728975.50000001,2018,12,-0.9229529291216961,True,1.516395522773557,True,0.0,True,比例外推,53131681.96999998,未知,53131681.96999998
20,002307,18971750.460000005,6549097.090000003,2019-03-31,一季度报告,757491.7900000002,2019,3,2.4961944953378774,False,0.6442559108380732,True,0.0701958695671351,True,前期平均,44538363.915,61000000.0,61000000.0
21,002307,17075673.52,21238752.53,2019-06-30,半年度报告,4212793.79,2019,6,-0.5052973630149351,True,0.09274024485947589,True,0.073691615917924,True,比例外推,27773941.15865163,,27773941.15865163
22,002307,30950159.9,37283754.26,2019-09-30,三季度报告,17127606.590000004,2019,9,-0.8843160902405636,True,0.4854773049748058,True,0.13359215209290176,False,平均增速,45187262.9080031,未知,45187262.9080031
23,002307,48267573.74,53493674.44,2019-12-31,年度报告,21451215.73,2019,12,-0.9391708963725909,True,0.5686469614689079,True,0.0,True,比例外推,53493674.44,未知,53493674.44
24,002307,293630.58,3989000.76,2020-03-31,一季度报告,3101998.9000000013,2020,3,-0.7951338581964461,True,5.072255723681206,False,0.0714346503672294,True,比例外推,51450900.03960673,未知,51450900.03960673
