,SECURITYCODE_x,NETPROFIT_x,PARENTNETPROFIT_x,REPORTDATE_x,REPORTTIMETYPE_x,KCFJCXSYJLR,Year,Month,managesituationChangeRate,managesituationGreatChange,historyprofitextroplaterate,ifhistoryprofitextroplate,IfprofitdisStableChangeRage,IfprofitdisStable,predicttype,predict,analyst_prediction,adj_prediction
0,002341,110530899.62,108462073.66,2013-12-31,年度报告,106280532.79000002,2013,12,未知,未知,未知,未知,未知,未知,未知,未知,未知,未知
1,002341,16537129.38,16035182.3,2014-03-31,一季度报告,15445892.86,2014,3,未知,未知,未知,未知,未知,未知,未知,未知,未知,未知
2,002341,72311975.06,70359321.88999999,2014-06-30,半年度报告,72625099.59,2014,6,未知,未知,未知,未知,未知,未知,未知,未知,未知,未知
3,002341,85619181.9,80563827.88,2014-09-30,三季度报告,84071233.92,2014,9,未知,未知,未知,未知,未知,未知,未知,未知,未知,未知
4,002341,90355098.26,87084354.1,2014-12-31,年度报告,82458544.41,2014,12,0.0,True,未知,未知,未知,未知,未知,未知,未知,未知
5,002341,8092682.9700000025,9690121.5,2015-03-31,一季度报告,8468838.490000002,2015,3,5.683802072303797,False,未知,未知,未知,未知,未知,未知,177478000.0,未知
6,002341,19542266.51,22958626.75,2015-06-30,半年度报告,27372743.87,2015,6,0.528528290484229,False,未知,未知,未知,未知,未知,未知,25000000.0,未知
7,002341,-644835.23,4774085.58,2015-09-30,三季度报告,9773181.760000002,2015,9,0.2909595392898749,True,未知,未知,未知,未知,未知,未知,,未知
8,002341,-120300348.54999998,-106615187.76,2015-12-31,年度报告,-94837381.24,2015,12,0.22329455391596625,True,未知,未知,未知,未知,未知,未知,5000000.0,未知
9,002341,18890056.16,20502769.380000006,2016-03-31,一季度报告,18823890.69,2016,3,12.658127969394553,False,未知,未知,未知,未知,未知,未知,94885345.0,未知
10,002341,36219801.06,41822197.48,2016-06-30,半年度报告,39648363.8,2016,6,4.655991824870471,False,未知,未知,未知,未知,未知,未知,82895000.0,未知
11,002341,45778363.03,51563355.00999998,2016-09-30,三季度报告,30839163.1,2016,9,-172.40952367010098,False,未知,未知,未知,未知,未知,未知,76500000.0,未知
12,002341,49427760.07000001,50146900.38,2016-12-31,年度报告,-5505586.1400000015,2016,12,-1.9187911835023526,False,2.1976976973961304,False,0.0,True,前期平均,50146900.38,65063875.0,65063875.0
13,002341,20249214.110000007,22761075.809999995,2017-03-31,一季度报告,17817958.779999994,2017,3,4.8512742727600235,False,0.5339179926801187,True,2.3120414995092338,False,前期平均,4614291.719999999,143962000.0,143962000.0
14,002341,71046671.00999999,73951013.77,2017-06-30,半年度报告,55727746.24,2017,6,2.0516705333886227,False,0.211363559462897,True,4.998358964752299,False,前期平均,17762673.624999993,169270556.0,169270556.0
15,002341,119117336.62000002,122193185.26,2017-09-30,三季度报告,93465238.76,2017,9,1.414479074919425,False,0.07746313620465757,True,4.039789462323998,False,前期平均,69081559.005,195500714.0,195500714.0
16,002341,164930325.11999995,172530469.34000003,2017-12-31,年度报告,-22026577.06,2017,12,1.2362109766549247,False,-4.301208678593419,True,0.0,True,前期平均,172530469.34000003,188180769.0,172530469.34000003
17,002341,49987030.11999999,51241700.94000001,2018-03-31,一季度报告,38894534.22000001,2018,3,4.45852787271456,False,0.5009012993411396,True,1.979959146191135,False,前期平均,-12576147.339999989,428314176.0,428314176.0
18,002341,153400701.77,156490481.05,2018-06-30,半年度报告,137727284.63000005,2018,6,0.5557505798469081,False,1.548207916459077,True,3.8614357012332863,False,前期平均,72808443.525,456161210.99999994,456161210.99999994
19,002341,300005651.17,306061534.52,2018-09-30,三季度报告,275526844.15,2018,9,-0.07208385650354053,True,4.278441213274713,False,3.2128737483157646,False,未知,未知,449542000.0,未知
20,002341,273209367.94000006,289295763.23,2018-12-31,年度报告,222817438.6,2018,12,-0.32983276702098313,True,-5.654276883552596,True,0.0,True,比例外推,289295763.23,452373529.0,452373529.0
21,002341,8584605.13,9789826.64,2019-03-31,一季度报告,-2094289.8300000003,2019,3,1.211191570186447,False,1.554315896804786,True,2.0679112737893863,False,前期平均,-22297179.694999993,384160000.0,384160000.0
22,002341,10757224.819999997,11899448.41,2019-06-30,半年度报告,-13231627.750000002,2019,6,-0.27946288156019305,True,1.8601798644015015,True,4.163684162306744,False,平均增速,222985438.89672396,295000000.0,295000000.0
23,002341,38400015.84,40432346.57999999,2019-09-30,三季度报告,11830905.59,2019,9,-0.631570608123755,True,2.6387322629611094,False,4.105947553750264,False,未知,未知,,未知
24,002341,-1092676.23,9880780.09,2019-12-31,年度报告,-33442681.77,2019,12,-0.5954351768630647,True,1.549093193268976,True,0.0,True,比例外推,9880780.09,649018235.0,649018235.0
25,002341,-40775553.12000001,-40263731.8,2020-03-31,一季度报告,-48757231.71999999,2020,3,11.87547859758111,False,0.7555505644097849,True,0.6183470331088861,False,盈利变化,-52336475.76333332,未知,-52336475.76333332
