,SECURITYCODE_x,NETPROFIT_x,PARENTNETPROFIT_x,REPORTDATE_x,REPORTTIMETYPE_x,KCFJCXSYJLR,Year,Month,managesituationChangeRate,managesituationGreatChange,historyprofitextroplaterate,ifhistoryprofitextroplate,IfprofitdisStableChangeRage,IfprofitdisStable,predicttype,predict,analyst_prediction,adj_prediction
0,002394,290822650.64,280478470.54,2013-12-31,年度报告,214522482.46,2013,12,未知,未知,未知,未知,未知,未知,未知,未知,未知,未知
1,002394,45628288.67,43951533.46000001,2014-03-31,一季度报告,33270655.68,2014,3,未知,未知,未知,未知,未知,未知,未知,未知,未知,未知
2,002394,117068077.66,111679909.79999997,2014-06-30,半年度报告,81764019.35000001,2014,6,未知,未知,未知,未知,未知,未知,未知,未知,未知,未知
3,002394,180039646.11000004,174172597.27,2014-09-30,三季度报告,137654097.01000002,2014,9,未知,未知,未知,未知,未知,未知,未知,未知,未知,未知
4,002394,315089033.95000005,303820398.77,2014-12-31,年度报告,224472721.59,2014,12,0.0,True,未知,未知,未知,未知,未知,未知,未知,未知
5,002394,46094512.88999999,46260707.47,2015-03-31,一季度报告,31877034.24,2015,3,5.373735660860146,False,未知,未知,未知,未知,未知,未知,330000000.0,未知
6,002394,119192710.7,117156676.72999996,2015-06-30,半年度报告,88186561.85000001,2015,6,1.4842182126252572,False,未知,未知,未知,未知,未知,未知,341120000.0,未知
7,002394,179762322.02,177794595.28999996,2015-09-30,三季度报告,129162073.40999998,2015,9,0.6153256070183236,False,未知,未知,未知,未知,未知,未知,330300000.0,未知
8,002394,293953273.83000004,294489086.81,2015-12-31,年度报告,221913352.37000003,2015,12,-0.07701436957609505,True,未知,未知,未知,未知,未知,未知,306840000.0,未知
9,002394,293953273.83000004,294489086.81,2015-12-31,年度报告,221913352.37000003,2015,12,-0.07701436957609505,True,未知,未知,未知,未知,未知,未知,306840000.0,未知
10,002394,41986292.76000001,41986292.76000001,2015-12-31,年度报告,221913352.37000003,2015,12,-0.07701436957609505,True,未知,未知,未知,未知,未知,未知,306840000.0,未知
11,002394,41986292.76000001,41986292.76000001,2015-12-31,年度报告,221913352.37000003,2015,12,-0.07701436957609505,True,未知,未知,未知,未知,未知,未知,306840000.0,未知
12,002394,55478408.60999999,58261748.75,2016-03-31,一季度报告,42056300.69,2016,3,5.30926833599521,False,未知,未知,未知,未知,未知,未知,340133333.0,未知
13,002394,142370108.88,147329627.76,2016-06-30,半年度报告,109598190.01,2016,6,1.4399365442068095,False,未知,未知,未知,未知,未知,未知,361208333.0,未知
14,002394,228415935.06,235909310.59,2016-09-30,三季度报告,181888555.76,2016,9,0.6178176125675747,False,未知,未知,未知,未知,未知,未知,363968333.0,未知
15,002394,383573390.72999984,394020199.74,2016-12-31,年度报告,311791913.52,2016,12,-0.010650070840206286,True,0.029715777708072117,True,0.0,True,比例外推,394020199.74,363962000.0,394020199.74
16,002394,57517427.2,59934533.87,2017-03-31,一季度报告,37301881.84,2017,3,4.242087109679263,False,0.20969721086657114,True,0.00736387923949125,True,前期平均,250553725.89000002,425767500.0,425767500.0
17,002394,137678454.32999998,140732751.48000002,2017-06-30,半年度报告,96357268.52,2017,6,1.0427226819439095,False,0.20519456375524292,True,0.026341268364327486,True,前期平均,278950497.86,392397500.0,392397500.0
18,002394,215398178.55,219460991.82,2017-09-30,三季度报告,147724558.29,2017,9,0.27321524465272995,True,0.2696758511196973,True,0.020354207151232595,True,比例外推,320901257.30544364,,320901257.30544364
19,002394,355988088.79,360286457.62,2017-12-31,年度报告,233099374.69,2017,12,-0.24180702397911588,True,0.2595952229596347,True,0.0,True,比例外推,360286457.62,424690000.0,424690000.0
20,002394,43267683.04000001,44829430.02,2018-03-31,一季度报告,31730846.520000003,2018,3,4.0562527706385305,False,0.1325346627939615,True,0.013839739286385128,True,前期平均,274715395.5,365000000.0,365000000.0
21,002394,135307973.6,134644271.07999998,2018-06-30,半年度报告,112351216.9,2018,6,1.1123323330092765,False,0.05273719369652616,True,0.0359148991234024,True,前期平均,302604528.09499997,,302604528.09499997
22,002394,249881152.79000005,250938549.60000005,2018-09-30,三季度报告,208694580.78,2018,9,0.35016299858121513,True,0.05541230976339583,True,0.034025950631393576,True,比例外推,390233717.07055765,384000000.0,390233717.07055765
23,002394,390564439.5,390341949.8200002,2018-12-31,年度报告,333510809.76,2018,12,-0.18305510830852997,True,0.050845988537399245,True,0.0,True,比例外推,390341949.8200002,未知,390341949.8200002
24,002394,72742618.85,73281162.59,2019-03-31,一季度报告,35074945.910000004,2019,3,5.721475017997634,False,0.2341720784692693,True,0.034875897575548306,True,前期平均,306047715.43,400000000.0,400000000.0
25,002394,166650275.79,167757501.48,2019-06-30,半年度报告,114638117.48,2019,6,1.1493386006927828,False,0.03368207250157094,True,0.04612114386052568,True,前期平均,337225416.32,,337225416.32
26,002394,240437971.69,242919639.36,2019-09-30,三季度报告,195276407.8,2019,9,0.16384388095250682,True,0.12606221896576356,True,0.030920279695891506,True,比例外推,365535173.3520692,397000000.0,365535173.3520692
27,002394,390800472.9999999,393072658.90000015,2019-12-31,年度报告,307599183.59000003,2019,12,-0.2553785720678752,True,0.056205468552768284,True,0.0,True,比例外推,393072658.90000015,,393072658.90000015
28,002394,112036719.47,113327475.53,2020-03-31,一季度报告,16163306.59,2020,3,2.9979678383547776,False,0.4435191602564642,True,0.03696045212622805,True,前期平均,362116203.57500005,258000000.0,258000000.0
