,SECURITYCODE_x,NETPROFIT_x,PARENTNETPROFIT_x,REPORTDATE_x,REPORTTIMETYPE_x,KCFJCXSYJLR,Year,Month,managesituationChangeRate,managesituationGreatChange,historyprofitextroplaterate,ifhistoryprofitextroplate,IfprofitdisStableChangeRage,IfprofitdisStable,predicttype,predict,analyst_prediction,adj_prediction
0,002382,46974236.46000001,46974236.46000001,2013-12-31,年度报告,21560601.390000004,2013,12,未知,未知,未知,未知,未知,未知,未知,未知,未知,未知
1,002382,6761167.81,6761167.81,2014-03-31,一季度报告,7804931.889999999,2014,3,未知,未知,未知,未知,未知,未知,未知,未知,未知,未知
2,002382,15666489.680000005,15666489.680000005,2014-06-30,半年度报告,14937806.95,2014,6,未知,未知,未知,未知,未知,未知,未知,未知,未知,未知
3,002382,31519562.879999995,31519562.879999995,2014-09-30,三季度报告,28117185.92,2014,9,未知,未知,未知,未知,未知,未知,未知,未知,未知,未知
4,002382,61673575.86,61701864.09,2014-12-31,年度报告,56074437.68000002,2014,12,0.0,True,未知,未知,未知,未知,未知,未知,未知,未知
5,002382,40414177.89,40716306.1,2015-03-31,一季度报告,39943102.23,2015,3,5.947651320016565,False,未知,未知,未知,未知,未知,未知,145848000.0,未知
6,002382,80893346.52,82102825.53999999,2015-06-30,半年度报告,80921949.99000001,2015,6,1.998389391592156,False,未知,未知,未知,未知,未知,未知,,未知
7,002382,138697346.42000002,140326482.28000003,2015-09-30,三季度报告,138917229.42000002,2015,9,0.4903200478648267,True,未知,未知,未知,未知,未知,未知,未知,未知
8,002382,168163527.78000006,170211819.24,2015-12-31,年度报告,166468323.01999998,2015,12,-0.23834096199266483,True,未知,未知,未知,未知,未知,未知,180860000.0,未知
9,002382,44244743.06999999,44603424.3,2016-03-31,一季度报告,43618635.17,2016,3,0.16232072288728197,True,未知,未知,未知,未知,未知,未知,,未知
10,002382,98260908.53,98947172.25999998,2016-06-30,半年度报告,83574484.07,2016,6,-0.41930655015754426,True,未知,未知,未知,未知,未知,未知,未知,未知
11,002382,147010180.54000002,147850228.57999998,2016-09-30,三季度报告,126040790.70000003,2016,9,-0.6613184197644724,True,未知,未知,未知,未知,未知,未知,197742000.0,未知
12,002382,180320697.54,181069380.03,2016-12-31,年度报告,160824059.8,2016,12,-0.7206633502512265,True,2.0955713546207195,False,0.0,True,比例外推,181069380.03,214180000.0,214180000.0
13,002382,52078743.04000001,52091827.29000001,2017-03-31,一季度报告,55988442.89999999,2017,3,0.06169079534899005,True,0.8757570257720438,True,0.07759540453237834,True,比例外推,254371514.75246602,234000000.0,254371514.75246602
14,002382,104013488.51,103373254.5,2017-06-30,半年度报告,104924973.72999996,2017,6,-0.5219438008182234,True,1.0352335380204383,True,0.1576631194631199,False,平均增速,227855727.07522544,241030000.0,227855727.07522544
15,002382,159774944.12999997,159239312.95999998,2017-09-30,三季度报告,159589828.89000002,2017,9,-0.6804695002247223,True,0.7273275744996741,True,0.20512093391874298,False,平均增速,215476455.81841224,,215476455.81841224
16,002382,201974096.53,200864341.9,2017-12-31,年度报告,199887711.25,2017,12,-0.7394961471376305,True,0.5691173851759034,True,0.0,True,比例外推,200864341.9,252000000.0,252000000.0
17,002382,58074261.54000001,58400299.32999998,2018-03-31,一季度报告,54885835.05,2018,3,-0.09801516476846207,True,0.2303190839062641,True,0.02381024620235614,True,比例外推,211608939.24936926,458110055.99999994,458110055.99999994
18,002382,149726091.71,147712614.85,2018-06-30,半年度报告,148377585.52,2018,6,-0.5483832228597559,True,0.1611612404178842,True,0.02412108014862796,True,比例外推,290139593.7610165,465561667.0,465561667.0
19,002382,266468568.49000004,260606202.35,2018-09-30,三季度报告,275348684.54,2018,9,-0.7059974784170183,True,0.11845106658578838,True,0.028959019855071766,True,比例外推,327077356.757041,370600000.0,370600000.0
20,002382,355337655.15,346714031.16,2018-12-31,年度报告,387782579.9,2018,12,-0.7674244506249209,True,0.1591577572530563,True,0.0,True,比例外推,346714031.16,377304000.0,346714031.16
21,002382,101248033.48999998,96050438.13,2019-03-31,一季度报告,80837989.31,2019,3,-0.19113501895077212,True,0.20581727022794954,True,0.08941458742355304,True,比例外推,365232826.32249236,589523333.0,589523333.0
22,002382,247832070.20000005,234612227.06,2019-06-30,半年度报告,219202161.42999992,2019,6,-0.6862655271134506,True,0.48042553977201063,True,0.0931073016060815,True,比例外推,476172255.81301355,564785000.0,564785000.0
23,002382,396004314.74,375259091.21000016,2019-09-30,三季度报告,346278365.46000004,2019,9,-0.8237156572492232,True,0.7371674638829553,True,0.053999000941632125,True,比例外推,482189987.4789782,552500000.0,552500000.0
24,002382,519456195.8,490295086.01,2019-12-31,年度报告,473029621.46,2019,12,-0.8678039442789405,True,0.8589719800627783,True,0.0,True,比例外推,490295086.01,507000000.0,490295086.01
25,002382,148694475.93999994,144780780.48000002,2020-03-31,一季度报告,132524393.33000004,2020,3,-0.5360479128254917,True,0.838316328747389,True,0.08258905381907428,True,比例外推,683230570.7218184,934500000.0,934500000.0
