,SECURITYCODE_x,NETPROFIT_x,PARENTNETPROFIT_x,REPORTDATE_x,REPORTTIMETYPE_x,KCFJCXSYJLR,Year,Month,managesituationChangeRate,managesituationGreatChange,historyprofitextroplaterate,ifhistoryprofitextroplate,IfprofitdisStableChangeRage,IfprofitdisStable,predicttype,predict,analyst_prediction,adj_prediction
0,002386,54127402.72999999,56419502.23,2013-12-31,年度报告,31785654.18,2013,12,未知,未知,未知,未知,未知,未知,未知,未知,未知,未知
1,002386,2195807.68,5224909.94,2014-03-31,一季度报告,-13253197.12,2014,3,未知,未知,未知,未知,未知,未知,未知,未知,未知,未知
2,002386,-42823115.78,-37850081.22000001,2014-06-30,半年度报告,-65123122.77,2014,6,未知,未知,未知,未知,未知,未知,未知,未知,未知,未知
3,002386,-86613675.69,-78985055.33,2014-09-30,三季度报告,-104132417.23999998,2014,9,未知,未知,未知,未知,未知,未知,未知,未知,未知,未知
4,002386,38907736.33,60610261.5,2014-12-31,年度报告,-227415985.2,2014,12,0.0,True,未知,未知,未知,未知,未知,未知,未知,未知
5,002386,-64441665.95999998,-58864871.68999999,2015-03-31,一季度报告,-56132425.71000001,2015,3,23.6503385624373,False,未知,未知,未知,未知,未知,未知,未知,未知
6,002386,-98829365.2,-84591991.75999998,2015-06-30,半年度报告,-77592502.75999999,2015,6,-2.263976283465098,False,未知,未知,未知,未知,未知,未知,未知,未知
7,002386,-140622080.57999998,-121378158.45,2015-09-30,三季度报告,-119255957.11999996,2015,9,-1.62492905766669,False,未知,未知,未知,未知,未知,未知,未知,未知
8,002386,-9155207.55,16361611.39,2015-12-31,年度报告,-176594337.92,2015,12,0.39117326875336084,True,未知,未知,未知,未知,未知,未知,未知,未知
9,002386,-64960002.05,-54098987.63000001,2016-03-31,一季度报告,-52390001.85,2016,3,-1.8399441870977975,False,未知,未知,未知,未知,未知,未知,未知,未知
10,002386,-79067128.01999998,-64880378.90000001,2016-06-30,半年度报告,-65502283.89999999,2016,6,-1.5476854234615685,False,未知,未知,未知,未知,未知,未知,未知,未知
11,002386,-64202889.04,-48667350.65,2016-09-30,三季度报告,-57837099.42999999,2016,9,-1.3849139659059935,False,未知,未知,未知,未知,未知,未知,未知,未知
12,002386,30804494.4,55138259.32000001,2016-12-31,年度报告,4596270.449999998,2016,12,-6.912198323674266,False,1.1968118206196403,True,0.0,True,前期平均,55138259.32000001,未知,55138259.32000001
13,002386,2487950.0700000003,11662888.34,2017-03-31,一季度报告,5613624.24,2017,3,-1.8332420108044007,False,-1.0872072084793503,True,7.724294269878349,False,盈利变化,132476427.44000001,未知,132476427.44000001
14,002386,11825080.779999996,26205916.11,2017-06-30,半年度报告,-16496085.409999995,2017,6,-1.6845752980468507,False,-0.1163535925807541,True,9.742702249711623,False,盈利变化,87809058.31333333,132900000.0,132900000.0
15,002386,62386456.22000001,85072286.16999999,2017-09-30,三季度报告,-20270215.64,2017,9,-1.8430680229401712,False,-0.43492265395315194,True,8.766724614513864,False,盈利变化,71834652.11555555,113425000.0,113425000.0
16,002386,63339038.60999999,102653822.64,2017-12-31,年度报告,10494761.889999997,2017,12,0.7571268019253707,False,1.0707143670226207,True,0.0,True,前期平均,102653822.64,135000000.0,135000000.0
17,002386,40085049.72000001,49788957.71,2018-03-31,一季度报告,28530999.53,2018,3,20.755823552359306,False,-1.0384531375562753,True,7.883167733232131,False,前期平均,18051137.75500001,未知,18051137.75500001
18,002386,88559847.74999999,105512107.36,2018-06-30,半年度报告,71309514.71000001,2018,6,3.5773389405970732,False,-1.1329433825924409,True,9.123301873021397,False,前期平均,91060466.955,未知,91060466.955
19,002386,127932550.5,148501753.82000002,2018-09-30,三季度报告,121751031.02,2018,9,-0.13238536038776177,True,-1.6091684655024436,True,7.970273187881819,False,平均增速,304804370.30219394,未知,304804370.30219394
20,002386,123700314.49000002,155183726.0,2018-12-31,年度报告,106677912.35999998,2018,12,-0.14543378115855496,True,4.851374139836851,False,0.0,True,比例外推,155183726.0,,155183726.0
21,002386,36893996.73,46586348.53,2019-03-31,一季度报告,37643578.17999999,2019,3,0.35031397261791825,True,-2.2832954401060164,True,7.866364092379957,False,平均增速,341336531.85549736,,341336531.85549736
22,002386,72425335.52999999,85111860.3,2019-06-30,半年度报告,78021441.74000001,2019,6,-0.38880424814190134,True,-3.6340616142727664,True,9.199659704199881,False,平均增速,214528727.1811837,未知,214528727.1811837
23,002386,49192593.78,78716456.5,2019-09-30,三季度报告,72482894.56000002,2019,9,-0.5769067174972019,True,-141.86130694335398,True,8.125601652524711,False,平均增速,27321390.020343564,未知,27321390.020343564
24,002386,23355228.039999995,78756850.56999998,2019-12-31,年度报告,16850353.57,2019,12,-0.562431163144895,True,1.6279089074946973,True,0.0,True,比例外推,78756850.56999998,231000000.0,231000000.0
25,002386,-28667375.25,-18063477.53,2020-03-31,一季度报告,-15963846.759999998,2020,3,0.4671059664833443,True,0.7332110451218915,True,1.2218796985766127,False,平均增速,-67315711.52826935,未知,-67315711.52826935
