,SECURITYCODE_x,NETPROFIT_x,PARENTNETPROFIT_x,REPORTDATE_x,REPORTTIMETYPE_x,KCFJCXSYJLR,Year,Month,managesituationChangeRate,managesituationGreatChange,historyprofitextroplaterate,ifhistoryprofitextroplate,IfprofitdisStableChangeRage,IfprofitdisStable,predicttype,predict,analyst_prediction,adj_prediction
0,002324,197286016.53,197286016.53,2013-12-31,年度报告,171267369.54,2013,12,未知,未知,未知,未知,未知,未知,未知,未知,未知,未知
1,002324,49114636.70999999,49114636.70999999,2014-03-31,一季度报告,37493155.75,2014,3,未知,未知,未知,未知,未知,未知,未知,未知,未知,未知
2,002324,98690586.83999996,98690586.83999996,2014-06-30,半年度报告,82403088.02000001,2014,6,未知,未知,未知,未知,未知,未知,未知,未知,未知,未知
3,002324,153049614.78,153049614.78,2014-09-30,三季度报告,120436322.16,2014,9,未知,未知,未知,未知,未知,未知,未知,未知,未知,未知
4,002324,196045031.21,196045031.21,2014-12-31,年度报告,177542933.34999996,2014,12,0.0,True,未知,未知,未知,未知,未知,未知,未知,未知
5,002324,85617227.26,85617227.26,2015-03-31,一季度报告,82773284.83999999,2015,3,3.016847720871598,False,未知,未知,未知,未知,未知,未知,417550000.0,未知
6,002324,157550665.58,157550665.58,2015-06-30,半年度报告,153215247.7,2015,6,0.9990358031799508,False,未知,未知,未知,未知,未知,未知,342532500.0,未知
7,002324,200683371.67,200683371.67,2015-09-30,三季度报告,184821363.86,2015,9,0.28903308128927524,True,未知,未知,未知,未知,未知,未知,318680000.0,未知
8,002324,260394318.85,260394318.85,2015-12-31,年度报告,231052678.01,2015,12,0.006330103407061978,True,未知,未知,未知,未知,未知,未知,310832500.0,未知
9,002324,90658445.16,90658445.16,2016-03-31,一季度报告,90322775.5,2016,3,1.3042794405252969,False,未知,未知,未知,未知,未知,未知,315380000.0,未知
10,002324,166020926.76000002,166020926.76000002,2016-06-30,半年度报告,152504928.45999998,2016,6,0.2522068110834063,True,未知,未知,未知,未知,未知,未知,305065000.0,未知
11,002324,226702563.23000005,226702563.23000005,2016-09-30,三季度报告,212089877.0899999,2016,9,-0.016928931937552523,True,未知,未知,未知,未知,未知,未知,305065000.0,未知
12,002324,277942106.94000006,277942106.94000006,2016-12-31,年度报告,256709583.8,2016,12,-0.2423566788964912,True,0.3240466032171762,True,0.0,True,比例外推,277942106.94000006,383805000.0,383805000.0
13,002324,66095130.11,66095130.11,2017-03-31,一季度报告,62575956.07999999,2017,3,1.1761460411307147,False,0.3457610173074784,True,0.09591212133593793,True,前期平均,210259715.495,320000000.0,320000000.0
14,002324,124902495.64,124902495.64,2017-06-30,半年度报告,85167094.51000002,2017,6,0.18832017372844098,True,0.2958173220904994,True,0.1096443295877349,False,平均增速,216845998.5154193,322000000.0,322000000.0
15,002324,159508481.81999996,159508481.81999996,2017-09-30,三季度报告,117800260.07,2017,9,-0.12975833303726533,True,0.2817722514665415,True,0.08979843144224942,True,比例外推,195064255.4472216,249343332.99999997,249343332.99999997
16,002324,174232120.59999996,174232120.59999996,2017-12-31,年度报告,134173590.2,2017,12,-0.29019025327965675,True,0.21787092591146634,True,0.0,True,比例外推,174232120.59999996,249343332.99999997,249343332.99999997
17,002324,46619711.23999999,46619711.23999999,2018-03-31,一季度报告,44876942.7,2018,3,1.984879766507203,False,0.2500935698884229,True,0.07422295021732939,True,前期平均,203952811.975,258333332.99999997,258333332.99999997
18,002324,88004768.85999998,88060040.25000001,2018-06-30,半年度报告,81534705.03000002,2018,6,0.579520213099883,False,0.227976135131443,True,0.036573290372163614,True,前期平均,179081083.07500005,215000000.0,215000000.0
19,002324,95809266.3,95884936.49,2018-09-30,三季度报告,81178045.24000001,2018,9,0.23683715297742433,True,0.2535623248466432,True,0.043280662621069776,True,比例外推,111962401.29538271,157000000.0,157000000.0
20,002324,70834521.64999999,72319435.13,2018-12-31,年度报告,52427847.51000001,2018,12,0.13231714020703966,True,0.35270172236880637,True,0.0,True,比例外推,72319435.13,,72319435.13
21,002324,24599574.70000001,24704167.600000005,2019-03-31,一季度报告,19764874.2,2019,3,3.2318154978344746,False,0.4051847154401432,True,0.2979073159840343,False,前期平均,143696388.81,144000000.0,143696388.81
22,002324,59256841.15000001,59794416.83,2019-06-30,半年度报告,53411846.19,2019,6,1.2417650666618663,False,0.394997019256845,True,0.6271766391865476,False,前期平均,136399992.34500003,127000000.0,136399992.34500003
23,002324,111146382.56,112075462.99,2019-09-30,三季度报告,89211827.52,2019,9,1.059153818298262,False,0.5038502004125943,True,0.46419927580972975,False,前期平均,142571981.41000003,148697500.0,142571981.41000003
24,002324,164046048.03999996,164886342.11999995,2019-12-31,年度报告,137686262.17999998,2019,12,1.7851676263843312,False,0.6866936798438656,True,0.0,True,前期平均,164886342.11999995,151758000.0,164886342.11999995
25,002324,44732672.16,52374509.57999999,2020-03-31,一季度报告,51376937.28,2020,3,7.019895422419637,False,0.56350779710342,True,0.36733998376457144,False,前期平均,91948779.04500002,306822500.0,306822500.0
