,SECURITYCODE_x,NETPROFIT_x,PARENTNETPROFIT_x,REPORTDATE_x,REPORTTIMETYPE_x,KCFJCXSYJLR,Year,Month,managesituationChangeRate,managesituationGreatChange,historyprofitextroplaterate,ifhistoryprofitextroplate,IfprofitdisStableChangeRage,IfprofitdisStable,predicttype,predict,analyst_prediction,adj_prediction
0,002372,315672988.12,315672988.12,2013-12-31,年度报告,307143537.31,2013,12,未知,未知,未知,未知,未知,未知,未知,未知,未知,未知
1,002372,48785752.81,48785752.81,2014-03-31,一季度报告,48744966.64999999,2014,3,未知,未知,未知,未知,未知,未知,未知,未知,未知,未知
2,002372,164201169.76000002,164201169.76000002,2014-06-30,半年度报告,163267098.19000003,2014,6,未知,未知,未知,未知,未知,未知,未知,未知,未知,未知
3,002372,280541198.95000005,280541198.95000005,2014-09-30,三季度报告,271526412.84,2014,9,未知,未知,未知,未知,未知,未知,未知,未知,未知,未知
4,002372,387751586.73,387751586.73,2014-12-31,年度报告,375393336.28,2014,12,0.0,True,未知,未知,未知,未知,未知,未知,未知,未知
5,002372,58194328.49999999,58194328.49999999,2015-03-31,一季度报告,51345232.23,2015,3,5.470597867976202,False,未知,未知,未知,未知,未知,未知,509390000.0,未知
6,002372,190432495.85999995,190432495.85999995,2015-06-30,半年度报告,178971315.55,2015,6,0.9224770967307631,False,未知,未知,未知,未知,未知,未知,488925574.0,未知
7,002372,329557058.94,329557058.94,2015-09-30,三季度报告,316024801.33,2015,9,0.12522862703050394,True,未知,未知,未知,未知,未知,未知,469945873.99999994,未知
8,002372,484410026.06999993,484410026.06999993,2015-12-31,年度报告,467884282.2,2015,12,-0.185888597433877,True,未知,未知,未知,未知,未知,未知,526423333.0,未知
9,002372,70695751.35000001,70695751.35000001,2016-03-31,一季度报告,68082094.23,2016,3,4.424463109321728,False,未知,未知,未知,未知,未知,未知,593325198.0,未知
10,002372,246520722.7800001,246520722.7800001,2016-06-30,半年度报告,239441283.33,2016,6,0.6576634502132082,False,未知,未知,未知,未知,未知,未知,613607778.0,未知
11,002372,443959716.9,443959716.9,2016-09-30,三季度报告,425814922.6800001,2016,9,-0.042129490002906486,True,未知,未知,未知,未知,未知,未知,629911429.0,未知
12,002372,670703528.3799999,670703528.3799999,2016-12-31,年度报告,649552052.72,2016,12,-0.3483351476412598,True,0.3772905962897208,True,0.0,True,比例外推,670703528.3799999,634911429.0,670703528.3799999
13,002372,83237330.35000002,83237330.35000002,2017-03-31,一季度报告,82856943.47,2017,3,3.465232805252588,False,0.32166194836106743,True,0.015049223822815774,True,前期平均,454831040.15000004,798609364.0,798609364.0
14,002372,312072653.10999995,312258812.32,2017-06-30,半年度报告,290379393.35999995,2017,6,0.2805129912007955,True,0.3902838149841872,True,0.03956943830711973,True,比例外推,756360179.6191065,842078125.0,842078125.0
15,002372,544371283.4399999,544756560.8499999,2017-09-30,三季度报告,515312620.31000006,2017,9,-0.28896029053216105,True,0.45537120015853355,True,0.03854605937577393,True,比例外推,781982544.1574262,839394656.0,781982544.1574262
16,002372,820989974.4799997,821285714.9000001,2017-12-31,年度报告,782163685.56,2017,12,-0.5293404988006125,True,0.5380257936984036,True,0.0,True,比例外推,821285714.9000001,839011429.0000001,821285714.9000001
17,002372,107477695.86,107555060.25,2018-03-31,一季度报告,103100580.57999995,2018,3,2.7924448897224865,False,0.2916018121312387,True,0.0029104748592473917,True,前期平均,606559564.48,1005546111.0,1005546111.0
18,002372,386333238.89,385994782.4099999,2018-06-30,半年度报告,360849371.17000014,2018,6,0.011536848788640884,True,0.42840304086242453,True,0.008382386767969152,True,比例外推,989649248.108222,1006337619.0,989649248.108222
19,002372,654811767.07,654035081.3,2018-09-30,三季度报告,624049109.7400001,2018,9,-0.4201145473266075,True,0.4075228888186436,True,0.01216201979599496,True,比例外推,970851004.1203438,978631250.0,970851004.1203438
20,002372,979141590.72,978334272.7499998,2018-12-31,年度报告,937141881.1800002,2018,12,-0.6154971462106567,True,0.42148790708444067,True,0.0,True,比例外推,978334272.7499998,1051100000.0,978334272.7499998
21,002372,130259317.04000004,130150287.36999996,2019-03-31,一季度报告,119772573.63,2019,3,1.9371023038230584,False,0.39642102494203446,True,0.003095014314267147,True,前期平均,770538637.66,1159599500.0,1159599500.0
22,002372,444476057.38,443534050.08,2019-06-30,半年度报告,416002422.95000017,2019,6,-0.18289974472043538,True,0.38323601949077857,True,0.010076495261238494,True,比例外推,1136940683.126519,1131182727.0,1136940683.126519
23,002372,693577004.3200003,692378050.4199997,2019-09-30,三季度报告,651887470.0600001,2019,9,-0.5179179666662065,True,0.3250859617774521,True,0.005810738663248105,True,比例外推,1028055197.0545183,1047409443.9999999,1028055197.0545183
24,002372,984758127.6299998,983249287.9,2019-12-31,年度报告,934388170.33,2019,12,-0.6776023088878559,True,0.3127919225265885,True,0.0,True,比例外推,983249287.9,1042465000.0,983249287.9
25,002372,86560239.61,86106404.31000002,2020-03-31,一季度报告,79593352.3,2020,3,1.4234196470035472,False,0.36601000590870025,True,0.01347226655572932,True,前期平均,852780425.6550002,1044249500.0,1044249500.0
