,SECURITYCODE_x,NETPROFIT_x,PARENTNETPROFIT_x,REPORTDATE_x,REPORTTIMETYPE_x,KCFJCXSYJLR,Year,Month,managesituationChangeRate,managesituationGreatChange,historyprofitextroplaterate,ifhistoryprofitextroplate,IfprofitdisStableChangeRage,IfprofitdisStable,predicttype,predict,analyst_prediction,adj_prediction
0,002356,16518137.470000004,21562872.2,2013-12-31,年度报告,12407034.08,2013,12,未知,未知,未知,未知,未知,未知,未知,未知,未知,未知
1,002356,-569962.4999999999,514930.56,2014-03-31,一季度报告,-540343.35,2014,3,未知,未知,未知,未知,未知,未知,未知,未知,未知,未知
2,002356,909095.12,3615483.85,2014-06-30,半年度报告,-3036798.01,2014,6,未知,未知,未知,未知,未知,未知,未知,未知,未知,未知
3,002356,5386557.180000002,9348889.35,2014-09-30,三季度报告,-3305615.62,2014,9,未知,未知,未知,未知,未知,未知,未知,未知,未知,未知
4,002356,40135230.57,43566191.92000001,2014-12-31,年度报告,6758483.310000001,2014,12,0.0,True,未知,未知,未知,未知,未知,未知,未知,未知
5,002356,-15517.249999999998,1143984.21,2015-03-31,一季度报告,943763.93,2015,3,-29.98109519485932,False,未知,未知,未知,未知,未知,未知,未知,未知
6,002356,55286204.35999999,57622919.48999998,2015-06-30,半年度报告,47549945.59,2015,6,17.16986705417581,False,未知,未知,未知,未知,未知,未知,未知,未知
7,002356,57854309.88999999,61081915.12,2015-09-30,三季度报告,50785238.39,2015,9,2.0665482455715805,False,未知,未知,未知,未知,未知,未知,未知,未知
8,002356,104290246.94999996,105591486.85999995,2015-12-31,年度报告,62425245.75999999,2015,12,-0.5884379574899747,True,未知,未知,未知,未知,未知,未知,未知,未知
9,002356,29726277.56,20251262.910000004,2016-03-31,一季度报告,19861060.630000006,2016,3,-1065.5016011213331,False,未知,未知,未知,未知,未知,未知,204000000.0,未知
10,002356,116814679.07,93586502.81999998,2016-06-30,半年度报告,92785215.02000004,2016,6,-0.7012249681233134,True,未知,未知,未知,未知,未知,未知,204000000.0,未知
11,002356,171234863.65000004,130434267.53999996,2016-09-30,三季度报告,129282950.64000005,2016,9,-0.7144873475907603,True,未知,未知,未知,未知,未知,未知,196000000.0,未知
12,002356,167520246.72000003,139242387.37,2016-12-31,年度报告,136540083.49,2016,12,-0.8416137850558613,True,2.681696271839161,False,0.0,True,比例外推,139242387.37,未知,139242387.37
13,002356,25403780.12,15520193.62,2017-03-31,一季度报告,21195722.5,2017,3,-0.44432539739765503,True,-102.54502375188896,True,0.11858373435959589,False,平均增速,411010551.39997935,,411010551.39997935
14,002356,112818823.11999996,85166369.63999999,2017-06-30,半年度报告,55264424.14,2017,6,-0.858595361460509,True,3.1574537426061604,False,0.7799727924699531,False,未知,未知,152000000.0,未知
15,002356,161985104.30000004,114439328.13,2017-09-30,三季度报告,83061900.40999998,2017,9,-0.9035351965253835,True,4.415323084057774,False,0.9128663066024563,False,未知,未知,160500000.0,未知
16,002356,227387031.56,143990503.51,2017-12-31,年度报告,-67354190.78,2017,12,-0.9013961727407848,True,1.319815722219813,True,0.0,True,比例外推,143990503.51,198875000.0,198875000.0
17,002356,40239973.7,23020448.8,2018-03-31,一季度报告,10076056.37,2018,3,-0.34977639579727227,True,0.7100727046321759,True,0.2633196076118885,False,平均增速,-35527164.287747234,272000000.0,272000000.0
18,002356,-173544962.29000002,-161090856.61,2018-06-30,半年度报告,-183359573.53,2018,6,-0.8535870432504827,True,0.31107779194971646,True,1.0274216748748135,False,平均增速,-9603122.508665353,,-9603122.508665353
19,002356,-283341569.27000004,-249587869.78,2018-09-30,三季度报告,-273533207.55,2018,9,-0.89802681214806,True,0.414166385926716,True,1.4089359369379506,False,平均增速,-65618285.29409352,未知,-65618285.29409352
20,002356,-2046190156.31,-1651918887.1200006,2018-12-31,年度报告,-1951289234.94,2018,12,-0.9273567302555625,True,0.6731291606133967,True,0.0,True,比例外推,-1651918887.1200006,234333332.99999997,234333332.99999997
21,002356,-209445542.81000003,-110233821.6,2019-03-31,一季度报告,-120545017.54999998,2019,3,-0.5895092379247752,True,0.45981975689454796,True,0.2565589076881801,False,平均增速,25088840586.77665,未知,25088840586.77665
22,002356,-473243619.66,-292681890.11999995,2019-06-30,半年度报告,-305890553.98,2019,6,-1.0951807373261437,False,2.5114951488777804,False,0.8048410872653917,False,去年同期,-2060611551.53,未知,-2060611551.53
23,002356,-667859854.8600001,-416535213.62000006,2019-09-30,三季度报告,-432401441.42,2019,9,-1.058297614121914,False,2.700627792584841,False,1.1844839037009631,False,去年同期,-2094291241.0100002,未知,-2094291241.0100002
24,002356,-2448140530.85,-1878513883.4800005,2019-12-31,年度报告,-1862652531.81,2019,12,-1.0080726306981107,False,11.362889057006415,False,0.0,True,去年同期,-1878513883.4800005,未知,-1878513883.4800005
25,002356,-117276261.73000002,-85433716.07,2020-03-31,一季度报告,-92455979.99,2020,3,-1.0788660252607263,False,7.381278663140291,False,0.2296446729579356,False,去年同期,-1827541230.33,未知,-1827541230.33
