,SECURITYCODE_x,NETPROFIT_x,PARENTNETPROFIT_x,REPORTDATE_x,REPORTTIMETYPE_x,KCFJCXSYJLR,Year,Month,managesituationChangeRate,managesituationGreatChange,historyprofitextroplaterate,ifhistoryprofitextroplate,IfprofitdisStableChangeRage,IfprofitdisStable,predicttype,predict,analyst_prediction,adj_prediction
0,002360,146014198.87,113961768.31000002,2013-12-31,年度报告,119864444.09,2013,12,未知,未知,未知,未知,未知,未知,未知,未知,未知,未知
1,002360,20746445.13,17042185.91,2014-03-31,一季度报告,16020598.100000005,2014,3,未知,未知,未知,未知,未知,未知,未知,未知,未知,未知
2,002360,72475258.21,61397428.29,2014-06-30,半年度报告,57828512.25999998,2014,6,未知,未知,未知,未知,未知,未知,未知,未知,未知,未知
3,002360,108139164.10999998,94520537.51,2014-09-30,三季度报告,90945647.36,2014,9,未知,未知,未知,未知,未知,未知,未知,未知,未知,未知
4,002360,137519378.03000003,123904960.37,2014-12-31,年度报告,120578960.35999995,2014,12,0.0,True,未知,未知,未知,未知,未知,未知,未知,未知
5,002360,10471127.68,10569365.2,2015-03-31,一季度报告,9810365.69,2015,3,6.038034610510645,False,未知,未知,未知,未知,未知,未知,未知,未知
6,002360,51087627.34,44721152.73,2015-06-30,半年度报告,42578861.56000001,2015,6,1.0146764906572385,False,未知,未知,未知,未知,未知,未知,未知,未知
7,002360,81168102.24999999,73641335.76,2015-09-30,三季度报告,70649699.02,2015,9,0.35024345778623966,True,未知,未知,未知,未知,未知,未知,未知,未知
8,002360,86217521.72000001,81041957.85000001,2015-12-31,年度报告,75660612.42000002,2015,12,0.06177180962923507,True,未知,未知,未知,未知,未知,未知,未知,未知
9,002360,4471135.800000002,4099717.150000001,2016-03-31,一季度报告,3120290.83,2016,3,12.944457878103155,False,未知,未知,未知,未知,未知,未知,未知,未知
10,002360,34676516.46,30731363.809999995,2016-06-30,半年度报告,28793848.75,2016,6,1.8581127461301277,False,未知,未知,未知,未知,未知,未知,未知,未知
11,002360,60080293.09,52163040.70000001,2016-09-30,三季度报告,49231388.03999999,2016,9,0.798911084803637,False,未知,未知,未知,未知,未知,未知,未知,未知
12,002360,92737822.55,82739144.00999998,2016-12-31,年度报告,74146061.91000001,2016,12,0.6935559728125293,False,0.3918355443989745,True,0.0,True,前期平均,82739144.00999998,未知,82739144.00999998
13,002360,13785832.499999998,10938796.94,2017-03-31,一季度报告,9679342.569999997,2017,3,31.657070910259524,False,0.7135500682764322,True,0.05945356240515683,True,前期平均,96143101.43499999,未知,96143101.43499999
14,002360,35499118.32999999,33865126.49,2017-06-30,半年度报告,31361342.44,2017,6,3.2107516491291754,False,0.4387227798112877,True,0.08855751720970795,True,前期平均,81781225.97,未知,81781225.97
15,002360,65193782.95,66736059.96999999,2017-09-30,三季度报告,63991166.11000001,2017,9,1.430317685888639,False,0.36526162735087925,True,0.14977415404474304,False,前期平均,84058173.16999999,未知,84058173.16999999
16,002360,100886126.25,96129240.26,2017-12-31,年度报告,91759184.11,2017,12,0.5744837958781684,False,0.17101003318072505,True,0.0,True,前期平均,96129240.26,未知,96129240.26
17,002360,20932030.73,20532494.78,2018-03-31,一季度报告,20685206.270000003,2018,3,9.591612720523045,False,0.84521341340984,True,0.05032769679915488,True,前期平均,88970503.68500002,未知,88970503.68500002
18,002360,88624933.02,86213851.96000001,2018-06-30,半年度报告,83959752.35999998,2018,6,3.1131781784733707,False,0.17216876990498248,True,0.13180139295773707,False,前期平均,125430833.97000001,未知,125430833.97000001
19,002360,114059904.40000002,115869484.16000004,2018-09-30,三季度报告,116121404.39000002,2018,9,1.2396951405931569,False,0.07689170141619514,True,0.1687274322390312,False,前期平均,130832277.79500006,未知,130832277.79500006
20,002360,141551162.1,143677398.32,2018-12-31,年度报告,144478482.48999998,2018,12,0.4473169334321626,True,0.127500569055791,True,0.0,True,比例外推,143677398.32,未知,143677398.32
21,002360,7952637.9,7700888.199999997,2019-03-31,一季度报告,6198124.409999997,2019,3,5.975634650714083,False,1.2930456345262975,True,0.05483061396643011,True,前期平均,84253694.51,未知,84253694.51
22,002360,72161408.36999999,71388566.01,2019-06-30,半年度报告,30201244.76,2019,6,0.6475521492021773,False,1.525803529535839,True,0.14404247550237853,False,前期平均,124263593.42500001,未知,124263593.42500001
23,002360,126068307.17000002,126957319.97,2019-09-30,三季度报告,84770546.05,2019,9,0.28015361434933816,True,0.8209658056241532,True,0.0820319937836872,True,比例外推,159646955.48346335,未知,159646955.48346335
24,002360,147522374.56000003,152230992.35999995,2019-12-31,年度报告,113755565.0,2019,12,0.031529495793521364,True,0.46212452516617597,True,0.0,True,比例外推,152230992.35999995,未知,152230992.35999995
25,002360,1530556.9,1503248.33,2020-03-31,一季度报告,-1765958.29,2020,3,17.360473682575186,False,0.5418705438572003,True,0.04656173946593763,True,前期平均,104439807.21,未知,104439807.21
