,SECURITYCODE_x,NETPROFIT_x,PARENTNETPROFIT_x,REPORTDATE_x,REPORTTIMETYPE_x,KCFJCXSYJLR,Year,Month,managesituationChangeRate,managesituationGreatChange,historyprofitextroplaterate,ifhistoryprofitextroplate,IfprofitdisStableChangeRage,IfprofitdisStable,predicttype,predict,analyst_prediction,adj_prediction
0,002490,-177608273.33,-175722248.47000003,2013-12-31,年度报告,-196511294.56,2013,12,未知,未知,未知,未知,未知,未知,未知,未知,未知,未知
1,002490,5180207.91,4446742.329999999,2014-03-31,一季度报告,2080304.52,2014,3,未知,未知,未知,未知,未知,未知,未知,未知,未知,未知
2,002490,7946235.440000001,9237809.230000002,2014-06-30,半年度报告,6113057.42,2014,6,未知,未知,未知,未知,未知,未知,未知,未知,未知,未知
3,002490,9831067.94,10074624.78,2014-09-30,三季度报告,6825688.750000001,2014,9,未知,未知,未知,未知,未知,未知,未知,未知,未知,未知
4,002490,14256665.619999995,20233190.77,2014-12-31,年度报告,15047953.2,2014,12,-0.0,False,未知,未知,未知,未知,未知,未知,未知,未知
5,002490,3689788.95,4592299.529999998,2015-03-31,一季度报告,-49844431.08000001,2015,3,-35.28593531683171,False,未知,未知,未知,未知,未知,未知,未知,未知
6,002490,3689788.95,4592299.529999998,2015-03-31,一季度报告,-49844431.08000001,2015,3,-35.28593531683171,False,未知,未知,未知,未知,未知,未知,未知,未知
7,002490,-20357907.790000007,-19455397.21,2015-03-31,一季度报告,-49844431.08000001,2015,3,-35.28593531683171,False,未知,未知,未知,未知,未知,未知,未知,未知
8,002490,-20357907.790000007,-19455397.21,2015-03-31,一季度报告,-49844431.08000001,2015,3,-35.28593531683171,False,未知,未知,未知,未知,未知,未知,未知,未知
9,002490,-991662.96,10313286.910000002,2015-06-30,半年度报告,-91968438.58,2015,6,-23.35124728823791,False,未知,未知,未知,未知,未知,未知,未知,未知
10,002490,-991662.96,10313286.910000002,2015-06-30,半年度报告,-91968438.58,2015,6,-23.35124728823791,False,未知,未知,未知,未知,未知,未知,未知,未知
11,002490,-83132123.88,-71827174.00999999,2015-06-30,半年度报告,-91968438.58,2015,6,-23.35124728823791,False,未知,未知,未知,未知,未知,未知,未知,未知
12,002490,-83132123.88,-71827174.00999999,2015-06-30,半年度报告,-91968438.58,2015,6,-23.35124728823791,False,未知,未知,未知,未知,未知,未知,未知,未知
13,002490,-10748141.87,12718324.75,2015-09-30,三季度报告,-112963833.73999998,2015,9,-19.066020336138582,False,未知,未知,未知,未知,未知,未知,未知,未知
14,002490,-10748141.87,12718324.75,2015-09-30,三季度报告,-112963833.73999998,2015,9,-19.066020336138582,False,未知,未知,未知,未知,未知,未知,未知,未知
15,002490,-115938829.27,-92472362.65,2015-09-30,三季度报告,-112963833.73999998,2015,9,-19.066020336138582,False,未知,未知,未知,未知,未知,未知,未知,未知
16,002490,-115938829.27,-92472362.65,2015-09-30,三季度报告,-112963833.73999998,2015,9,-19.066020336138582,False,未知,未知,未知,未知,未知,未知,未知,未知
17,002490,-286498946.9,-259565004.32,2015-12-31,年度报告,-281474328.22,2015,12,-13.457911131817657,False,未知,未知,未知,未知,未知,未知,未知,未知
18,002490,-69035695.07000001,-58287789.22000001,2016-03-31,一季度报告,-65932487.26999999,2016,3,-49.135076487233775,False,未知,未知,未知,未知,未知,未知,17000000.0,未知
19,002490,-168503351.51000002,-146276860.01,2016-06-30,半年度报告,-154281645.64999995,2016,6,178.10144927667764,False,未知,未知,未知,未知,未知,未知,,未知
20,002490,-249198121.45,-218972128.58,2016-09-30,三季度报告,-227419433.31,2016,9,15.524556102644747,False,未知,未知,未知,未知,未知,未知,未知,未知
21,002490,-650705699.7299999,-612476376.1799997,2016-12-31,年度报告,-621542167.2900003,2016,12,-0.3800735561098147,False,-2.5077579084330144,True,0.0,True,前期平均,-612476376.1799997,未知,-612476376.1799997
22,002490,-53656706.88999999,-54788681.90000001,2017-03-31,一季度报告,-106454092.41999996,2017,3,1.5727020369666858,False,16.56611488360775,False,0.03661430684348174,True,去年同期,-610398361.9200003,未知,-610398361.9200003
23,002490,5354419.91,7020723.65,2017-06-30,半年度报告,-166395975.54000002,2017,6,0.054034069580269746,False,49.458291863254836,False,0.07917156962183913,True,盈利变化,-620552596.1066664,未知,-620552596.1066664
24,002490,16596012.47,10166619.44,2017-09-30,三季度报告,-165430611.19,2017,9,-0.2872808498853954,False,-542.4635383212782,True,0.046655715660614716,True,盈利变化,-584925788.5711108,未知,-584925788.5711108
25,002490,35081480.83,38038484.17999999,2017-12-31,年度报告,-178210786.99000004,2017,12,-0.7270528390888603,False,-3.7803426908603663,True,0.0,True,盈利变化,-464699249.41333294,未知,-464699249.41333294
26,002490,7795790.549999998,10667578.430000003,2018-03-31,一季度报告,8650090.709999999,2018,3,2.310085236764705,False,-0.6422362187912986,True,0.3038454584900923,False,盈利变化,191510728.35333323,未知,191510728.35333323
27,002490,20685020.19,32575294.800000004,2018-06-30,半年度报告,23983016.25,2018,6,-34.17040432303338,False,-1.063180854336547,True,0.4308147013252158,False,前期平均,-295807910.84000015,未知,-295807910.84000015
28,002490,70318991.59,79550863.19000001,2018-09-30,三季度报告,69748017.69,2018,9,-11.701864297285624,False,-1.127688024886666,True,0.3631159540354565,False,前期平均,-201765751.04000014,未知,-201765751.04000014
29,002490,102406466.63,92476375.01,2018-12-31,年度报告,76871118.68,2018,12,-6.062735925848317,False,-1.0748640778855418,True,0.0,True,前期平均,92476375.01,未知,92476375.01
30,002490,5141100.590000002,7433709.060000001,2019-03-31,一季度报告,-4290090.72,2019,3,-23.782586601175435,False,-1.127078619791657,True,0.3253641963463742,False,前期平均,-306249478.2350002,未知,-306249478.2350002
31,002490,18616185.93,18012923.36,2019-06-30,半年度报告,14993661.579999994,2019,6,-9.586323421422776,False,-1.253572242087548,True,0.4357308131386616,False,前期平均,-221524743.18500018,未知,-221524743.18500018
32,002490,-40267808.21000001,-33175165.35,2019-09-30,三季度报告,-41750952.91,2019,9,-3.5257511422455825,False,-1.6046290113048483,True,0.36794414567380734,False,盈利变化,42921276.96555556,未知,42921276.96555556
33,002490,-224907837.56000003,-196309267.90000004,2019-12-31,年度报告,-195511134.59,2019,12,-2.7343462690858007,False,-1.3326914812187873,True,0.0,True,盈利变化,1682290.5866666734,未知,1682290.5866666734
34,002490,-80067228.80000001,-74046605.73,2020-03-31,一季度报告,-73949340.08,2020,3,-35.54674154313716,False,-1.2242040063868467,True,0.35340950170339847,False,盈利变化,-289188267.0466667,未知,-289188267.0466667
