,SECURITYCODE_x,NETPROFIT_x,PARENTNETPROFIT_x,REPORTDATE_x,REPORTTIMETYPE_x,KCFJCXSYJLR,Year,Month,managesituationChangeRate,managesituationGreatChange,historyprofitextroplaterate,ifhistoryprofitextroplate,IfprofitdisStableChangeRage,IfprofitdisStable,predicttype,predict,analyst_prediction,adj_prediction
0,002488,44606426.66,45064602.29,2013-12-31,年度报告,37712230.790000014,2013,12,未知,未知,未知,未知,未知,未知,未知,未知,未知,未知
1,002488,9125223.320000002,9524253.29,2014-03-31,一季度报告,9051188.27,2014,3,未知,未知,未知,未知,未知,未知,未知,未知,未知,未知
2,002488,36307088.65000001,37210057.24,2014-06-30,半年度报告,35906233.65,2014,6,未知,未知,未知,未知,未知,未知,未知,未知,未知,未知
3,002488,60534381.60999999,61665194.99,2014-09-30,三季度报告,60645796.74000001,2014,9,未知,未知,未知,未知,未知,未知,未知,未知,未知,未知
4,002488,62202144.99000001,63569525.20999999,2014-12-31,年度报告,59490313.84999999,2014,12,0.0,True,未知,未知,未知,未知,未知,未知,未知,未知
5,002488,9940725.16,10062829.57,2015-03-31,一季度报告,9960177.34,2015,3,3.88825589202128,False,未知,未知,未知,未知,未知,未知,136757263.0,未知
6,002488,40267004.97999999,41138343.52,2015-06-30,半年度报告,44343173.3,2015,6,0.2285872626694341,True,未知,未知,未知,未知,未知,未知,113121279.0,未知
7,002488,62160506.22,63530257.31999999,2015-09-30,三季度报告,55987609.13999999,2015,9,-0.2631224525034014,True,未知,未知,未知,未知,未知,未知,69422000.0,未知
8,002488,43559201.72,46951239.39,2015-12-31,年度报告,35894303.73,2015,12,-0.2828796070108001,True,未知,未知,未知,未知,未知,未知,70563752.0,未知
9,002488,-19668650.59,-19415089.14,2016-03-31,一季度报告,-20553895.33,2016,3,3.487240713533619,False,未知,未知,未知,未知,未知,未知,82395000.0,未知
10,002488,-45506354.40000001,-45222472.25999999,2016-06-30,半年度报告,-48398885.49,2016,6,0.10776618926973416,True,未知,未知,未知,未知,未知,未知,25000000.0,未知
11,002488,-57048993.92,-56141453.00999999,2016-09-30,三季度报告,-61656867.27000001,2016,9,-0.2823992375138029,True,未知,未知,未知,未知,未知,未知,,未知
12,002488,-139930197.89000002,-138164259.72,2016-12-31,年度报告,-160379031.0,2016,12,0.024041417166723908,True,0.18435007514680127,True,0.0,True,比例外推,-138164259.72,97979203.0,97979203.0
13,002488,-27995944.01,-28324084.600000005,2017-03-31,一季度报告,-31806470.91,2017,3,-3.2678946100490975,False,3.063222882473665,False,0.09155625456446748,True,去年同期,-168149220.27,141480000.0,141480000.0
14,002488,-64391937.79999998,-65050744.60999999,2017-06-30,半年度报告,-74854615.24999999,2017,6,-1.9802241301931225,False,2.1885574413686992,False,0.5218071008319376,False,去年同期,-177030890.11999997,98095000.0,98095000.0
15,002488,3465804.5100000007,2868550.27,2017-09-30,三季度报告,-8937014.03,2017,9,-1.7818968152628905,False,1.9299326961208731,True,0.6034415267016565,False,前期平均,-7755843.88000001,123495000.0,123495000.0
16,002488,54155284.92,53983060.16999999,2017-12-31,年度报告,-33156184.83,2017,12,-1.3187762708308708,False,3.646150077375466,False,0.0,True,前期平均,53983060.16999999,49870000.0,53983060.16999999
17,002488,36247004.8,36577132.35,2018-03-31,一季度报告,33477066.89,2018,3,-2.593317469275793,False,-4.755789188856889,True,0.5043133149828671,False,盈利变化,141027777.23666665,301330000.0,301330000.0
18,002488,83323452.16000001,84216529.79,2018-06-30,半年度报告,70809363.39999999,2018,6,-1.6927330995775687,False,-23.580127278474084,True,0.9927043626728236,False,盈利变化,151092379.26999998,293010000.0,293010000.0
19,002488,125110168.91,126487717.60999995,2018-09-30,三季度报告,110241510.9,2018,9,11.870439325500211,False,0.3560779302047274,True,0.8218647528665498,False,前期平均,67079983.03999996,,67079983.03999996
20,002488,162226118.22,164218107.50000003,2018-12-31,年度报告,-140557194.69,2018,12,-0.17632366396199187,True,-2.1238917739206347,True,0.0,True,比例外推,164218107.50000003,201000000.0,201000000.0
21,002488,27782627.82,28706053.07,2019-03-31,一季度报告,30205224.97000001,2019,3,0.23062379653504503,True,-2.5209194625144256,True,0.6762000741690588,False,平均增速,-30402543.943514682,277370000.0,277370000.0
22,002488,49772265.9,50967391.9,2019-06-30,半年度报告,40477009.78,2019,6,-0.46465940256117216,True,-2.5163739215958447,True,1.5724237165296824,False,平均增速,14121676.002435394,301670000.0,301670000.0
23,002488,70572175.16000001,73003768.46,2019-09-30,三季度报告,1104609.24,2019,9,-0.6434628212188863,True,-5.669754461710009,True,0.7408744013266486,False,平均增速,99710176.52529442,,99710176.52529442
24,002488,20095929.38,23097059.92,2019-12-31,年度报告,-69901082.5,2019,12,-0.7250354804180927,True,-4.7826005903786575,True,0.0,True,比例外推,23097059.92,311000000.0,311000000.0
25,002488,-42782230.51,-41343750.78000001,2020-03-31,一季度报告,-41734663.73000001,2020,3,0.6055510281100542,False,5.734316599308443,False,0.862957435216742,False,前期平均盈利变化,-200975627.23,145810000.0,145810000.0
