,SECURITYCODE_x,NETPROFIT_x,PARENTNETPROFIT_x,REPORTDATE_x,REPORTTIMETYPE_x,KCFJCXSYJLR,Year,Month,managesituationChangeRate,managesituationGreatChange,historyprofitextroplaterate,ifhistoryprofitextroplate,IfprofitdisStableChangeRage,IfprofitdisStable,predicttype,predict,analyst_prediction,adj_prediction
0,002472,67295686.27000001,67295686.27000001,2013-12-31,年度报告,62004214.95999999,2013,12,未知,未知,未知,未知,未知,未知,未知,未知,未知,未知
1,002472,24830775.78,24830775.78,2014-03-31,一季度报告,24098202.85,2014,3,未知,未知,未知,未知,未知,未知,未知,未知,未知,未知
2,002472,50500327.08,50500327.08,2014-06-30,半年度报告,48836091.15000001,2014,6,未知,未知,未知,未知,未知,未知,未知,未知,未知,未知
3,002472,86600092.6,86600092.6,2014-09-30,三季度报告,82301084.24,2014,9,未知,未知,未知,未知,未知,未知,未知,未知,未知,未知
4,002472,122297224.24,122297224.24,2014-12-31,年度报告,114036320.89999998,2014,12,0.0,True,未知,未知,未知,未知,未知,未知,未知,未知
5,002472,27123425.14,27123425.14,2015-03-31,一季度报告,26071231.03,2015,3,1.710172524057966,False,未知,未知,未知,未知,未知,未知,167578590.0,未知
6,002472,61537486.72000001,61537486.72000001,2015-06-30,半年度报告,59284456.07,2015,6,0.33257921603940654,True,未知,未知,未知,未知,未知,未知,156600570.0,未知
7,002472,99405657.90000002,99405657.90000002,2015-09-30,三季度报告,95102236.10999998,2015,9,-0.2229143843894687,True,未知,未知,未知,未知,未知,未知,145325000.0,未知
8,002472,136741446.4,136741446.4,2015-12-31,年度报告,130536695.14,2015,12,-0.4497366012335914,True,未知,未知,未知,未知,未知,未知,143030000.0,未知
9,002472,33983642.87,33983642.87,2016-03-31,一季度报告,31517928.64,2016,3,1.4810910098059986,False,未知,未知,未知,未知,未知,未知,172454286.0,未知
10,002472,82639026.76,82639026.76,2016-06-30,半年度报告,74529908.18,2016,6,0.09357222494640086,True,未知,未知,未知,未知,未知,未知,180750000.0,未知
11,002472,133953941.84999998,133953941.84999998,2016-09-30,三季度报告,122475958.44999996,2016,9,-0.3230195575215845,True,未知,未知,未知,未知,未知,未知,183147143.0,未知
12,002472,185749084.06,185749084.06,2016-12-31,年度报告,160689223.24,2016,12,-0.507861822134419,True,0.4424742574199539,True,0.0,True,比例外推,185749084.06,179100000.0,185749084.06
13,002472,45998171.54000001,45998171.54000001,2017-03-31,一季度报告,42263866.53000001,2017,3,0.9802375668621195,False,0.3082154000339111,True,0.00892510066819327,True,前期平均,143199962.62,235797520.0,235797520.0
14,002472,114425298.65,114425298.65,2017-06-30,半年度报告,101641003.93999998,2017,6,-0.18566700373372105,True,0.4751988450527941,True,0.02049088370883473,True,比例外推,239286792.44642907,250681250.0,239286792.44642907
15,002472,181116088.22,181179056.59,2017-09-30,三季度报告,164737330.14000002,2017,9,-0.49762070947223846,True,0.4403204362222122,True,0.02470855875290079,True,比例外推,239819547.4316756,249398750.0,239819547.4316756
16,002472,240368923.15000007,242601119.44,2017-12-31,年度报告,215026030.92,2017,12,-0.6377064973937508,True,0.43414173336417033,True,0.0,True,比例外推,242601119.44,245573750.0,242601119.44
17,002472,55602720.49999999,55545741.82000001,2018-03-31,一季度报告,51036501.44999998,2018,3,0.4630078548117872,True,0.5054943082025318,True,0.002250769014114029,True,比例外推,262957736.550546,317954886.0,317954886.0
18,002472,129516249.21999998,128246473.66,2018-06-30,半年度报告,105194240.53,2018,6,-0.4118810519704944,True,0.5872945723004036,True,0.009395658177990096,True,比例外推,249981608.4510993,296607000.0,296607000.0
19,002472,191831058.2,190225270.93,2018-09-30,三季度报告,143776345.56,2018,9,-0.6284389369747397,True,0.552248876103928,True,0.02374101886485025,True,比例外推,237567444.46685565,264866667.00000003,264866667.00000003
20,002472,195000345.66,195202097.22,2018-12-31,年度报告,123015462.49,2018,12,-0.7200316688692542,True,0.4907037599345207,True,0.0,True,比例外推,195202097.22,264866667.00000003,264866667.00000003
21,002472,38625450.05,39560228.61000001,2019-03-31,一季度报告,23977791.619999994,2019,3,0.21029485005144702,True,0.3903840744340022,True,0.14568767768728774,False,平均增速,90843027.606431,219785000.0,219785000.0
22,002472,73589012.16,73571790.48,2019-06-30,半年度报告,51806515.82,2019,6,-0.4804073876808334,True,0.31445657604983923,True,0.2579182839404984,False,平均增速,86470847.84998083,,86470847.84998083
23,002472,99743222.56,100224485.36000004,2019-09-30,三季度报告,68666503.13000001,2019,9,-0.6491929570662192,True,0.2177042555103089,True,0.2697380103218251,False,平均增速,85352275.82088757,未知,85352275.82088757
24,002472,75014750.29999998,78317060.28999999,2019-12-31,年度报告,45747247.46,2019,12,-0.6548945283033709,True,0.08475895240024593,True,0.0,True,比例外推,78317060.28999999,,78317060.28999999
25,002472,-18435650.89,-21387910.700000007,2020-03-31,一季度报告,-29317846.98,2020,3,0.7422628392131839,False,0.2396631707762317,True,0.1819701228506973,False,盈利变化,7256208.823333338,未知,7256208.823333338
