,SECURITYCODE_x,NETPROFIT_x,PARENTNETPROFIT_x,REPORTDATE_x,REPORTTIMETYPE_x,KCFJCXSYJLR,Year,Month,managesituationChangeRate,managesituationGreatChange,historyprofitextroplaterate,ifhistoryprofitextroplate,IfprofitdisStableChangeRage,IfprofitdisStable,predicttype,predict,analyst_prediction,adj_prediction
0,002442,18882366.110000007,19510469.53,2013-12-31,年度报告,4671883.57,2013,12,未知,未知,未知,未知,未知,未知,未知,未知,未知,未知
1,002442,-17432432.92,-17432432.92,2014-03-31,一季度报告,-18222436.84,2014,3,未知,未知,未知,未知,未知,未知,未知,未知,未知,未知
2,002442,-2713339.33,-2713339.33,2014-06-30,半年度报告,-4050443.63,2014,6,未知,未知,未知,未知,未知,未知,未知,未知,未知,未知
3,002442,3090744.84,3090744.84,2014-09-30,三季度报告,-4967657.3100000005,2014,9,未知,未知,未知,未知,未知,未知,未知,未知,未知,未知
4,002442,15002939.440000005,15002939.440000005,2014-12-31,年度报告,4158884.21,2014,12,0.0,True,未知,未知,未知,未知,未知,未知,未知,未知
5,002442,-8653708.93,-8653708.93,2015-03-31,一季度报告,-9989605.609999998,2015,3,-2.08317445973571,False,未知,未知,未知,未知,未知,未知,未知,未知
6,002442,-18367931.89,-18367931.89,2015-06-30,半年度报告,-20304756.710000005,2015,6,-7.95908760884692,False,未知,未知,未知,未知,未知,未知,未知,未知
7,002442,-31644106.3,-31644106.3,2015-09-30,三季度报告,-35399998.47000001,2015,9,5.109325449848525,False,未知,未知,未知,未知,未知,未知,未知,未知
8,002442,-82431971.01999998,-82431971.01999998,2015-12-31,年度报告,-85594747.03999999,2015,12,0.25857777307671387,True,未知,未知,未知,未知,未知,未知,未知,未知
9,002442,-22812148.08000001,-22812148.08000001,2016-03-31,一季度报告,-23878040.66,2016,3,-3.1819969059208937,False,未知,未知,未知,未知,未知,未知,未知,未知
10,002442,-9586935.97,-9583098.57,2016-06-30,半年度报告,-11522457.150000002,2016,6,-2.0280071933563777,False,未知,未知,未知,未知,未知,未知,未知,未知
11,002442,14675982.89,14683712.63,2016-09-30,三季度报告,9835962.98,2016,9,-1.5967103615120901,False,未知,未知,未知,未知,未知,未知,未知,未知
12,002442,30807073.28,30818695.35,2016-12-31,年度报告,22186341.57,2016,12,-1.2290660513918648,False,5.865352085927993,False,0.0,True,前期平均,30818695.35,未知,30818695.35
13,002442,17361441.319999997,17361441.319999997,2017-03-31,一季度报告,16158442.28,2017,3,-1.8277329273762979,False,-0.7489859720286699,True,2.601198656094444,False,盈利变化,84200672.60333332,未知,84200672.60333332
14,002442,40297207.64000001,40637759.97000001,2017-06-30,半年度报告,33114737.01,2017,6,-2.9695934310073424,False,-0.09047838055375095,True,0.6559046684807286,False,盈利变化,60576824.79000001,未知,60576824.79000001
15,002442,69302757.56,69643309.89,2017-09-30,三季度报告,61114605.44,2017,9,0.2866167977659727,True,-2.0279688372634777,True,1.0819494865421841,False,平均增速,51441283.60728288,未知,51441283.60728288
16,002442,49618444.62,49958996.95000001,2017-12-31,年度报告,51042473.82000001,2017,12,-0.38707692423809476,True,-1.9137628869383803,True,0.0,True,比例外推,49958996.95000001,未知,49958996.95000001
17,002442,31897215.37,31897215.37,2018-03-31,一季度报告,31146160.98,2018,3,0.08760360168069332,True,-2.103509833816536,True,0.8619252889047013,False,平均增速,105283821.88702175,未知,105283821.88702175
18,002442,63231891.01,63231891.01,2018-06-30,半年度报告,59596253.15,2018,6,-0.5314224678124619,True,-3.883019003474553,True,0.6415620589627632,False,平均增速,99800922.80873759,未知,99800922.80873759
19,002442,98024209.92,98024209.92,2018-09-30,三季度报告,94003865.04,2018,9,-0.7275380262660935,True,-9.168582451393192,True,0.5125819858182886,False,平均增速,78796152.22834346,未知,78796152.22834346
20,002442,132720900.8,132720900.8,2018-12-31,年度报告,110060033.35999998,2018,12,-0.6194486494969861,True,-2.92226800602666,True,0.0,True,比例外推,132720900.8,未知,132720900.8
21,002442,1585978.4899999998,1585978.4899999998,2019-03-31,一季度报告,561261.8200000001,2019,3,-0.4080246224954399,True,-12.703882367724338,True,0.9173533924294424,False,平均增速,90224221.92308165,未知,90224221.92308165
22,002442,8762558.590000002,8762558.590000002,2019-06-30,半年度报告,6360751.46,2019,6,-0.7013790698270624,True,3.117963637017867,False,0.7429850385799327,False,未知,未知,未知,未知
23,002442,23954066.99,23954066.99,2019-09-30,三季度报告,21112356.3,2019,9,-0.8073703820167449,True,1.334500598478552,True,0.3882581935170279,False,平均增速,43647160.89732675,未知,43647160.89732675
24,002442,19221241.82,19221241.82,2019-12-31,年度报告,7951425.740000001,2019,12,-0.8577287676908233,True,2.3004674204280127,False,0.0,True,比例外推,19221241.82,未知,19221241.82
25,002442,1252739.3199999998,1252739.3199999998,2020-03-31,一季度报告,1050121.22,2020,3,10.905814756667986,False,0.935606100670546,True,0.1527961350392869,False,前期平均,58151691.279999994,未知,58151691.279999994
