,SECURITYCODE_x,NETPROFIT_x,PARENTNETPROFIT_x,REPORTDATE_x,REPORTTIMETYPE_x,KCFJCXSYJLR,Year,Month,managesituationChangeRate,managesituationGreatChange,historyprofitextroplaterate,ifhistoryprofitextroplate,IfprofitdisStableChangeRage,IfprofitdisStable,predicttype,predict,analyst_prediction,adj_prediction
0,002444,427175736.96999985,427608984.37,2013-12-31,年度报告,337639217.1800001,2013,12,未知,未知,未知,未知,未知,未知,未知,未知,未知,未知
1,002444,91712663.55,91495813.81,2014-03-31,一季度报告,88852188.44,2014,3,未知,未知,未知,未知,未知,未知,未知,未知,未知,未知
2,002444,219367934.22000003,219224347.31,2014-06-30,半年度报告,205186680.70999992,2014,6,未知,未知,未知,未知,未知,未知,未知,未知,未知,未知
3,002444,417904488.2,416432209.17,2014-09-30,三季度报告,384187028.63000005,2014,9,未知,未知,未知,未知,未知,未知,未知,未知,未知,未知
4,002444,485550157.39,485829105.17,2014-12-31,年度报告,458109734.0799999,2014,12,0.0,True,未知,未知,未知,未知,未知,未知,未知,未知
5,002444,86202046.87,86842840.46,2015-03-31,一季度报告,84320335.38,2015,3,3.6577617575909978,False,未知,未知,未知,未知,未知,未知,621300000.0,未知
6,002444,201448501.28,202879765.59,2015-06-30,半年度报告,177351629.59000003,2015,6,0.9473025466957866,False,未知,未知,未知,未知,未知,未知,647192000.0,未知
7,002444,418066290.53,418815535.11,2015-09-30,三季度报告,399181857.4599999,2015,9,0.02218509021028471,True,未知,未知,未知,未知,未知,未知,564778000.0,未知
8,002444,481203621.5299999,479870336.0300001,2015-12-31,年度报告,471630274.0,2015,12,-0.12022325506757701,True,未知,未知,未知,未知,未知,未知,560906000.0,未知
9,002444,108593248.81,106524622.65,2016-03-31,一季度报告,105773914.23,2016,3,3.955517327961099,False,未知,未知,未知,未知,未知,未知,615716667.0,未知
10,002444,245424551.49000004,240342041.64,2016-06-30,半年度报告,269907347.8899999,2016,6,1.1205207993890907,False,未知,未知,未知,未知,未知,未知,606840936.0,未知
11,002444,469332003.00999993,460935357.9500001,2016-09-30,三季度报告,500422683.7799999,2016,9,0.021789478478285,True,未知,未知,未知,未知,未知,未知,582397500.0,未知
12,002444,631840201.2800001,621638358.26,2016-12-31,年度报告,684205606.86,2016,12,-0.11227655433726152,True,0.05443183874479239,True,0.0,True,比例外推,621638358.26,580695455.0,621638358.26
13,002444,108671901.85,105884971.37999998,2017-03-31,一季度报告,100146968.32,2017,3,2.9337227834246598,False,0.22073378366123741,True,0.02118375137028672,True,前期平均,484168713.51,742863789.0,742863789.0
14,002444,254098666.23000005,249375564.64999992,2017-06-30,半年度报告,236698363.8,2017,6,0.7405582871663325,False,0.166420941702977,True,0.04175824525902222,True,前期平均,522976413.5399999,739299866.0,739299866.0
15,002444,427855943.8,422013776.0700002,2017-09-30,三季度报告,451339472.67,2017,9,-0.08982184417349837,True,0.12284308244124341,True,0.07407937445330015,True,比例外推,531016163.31204396,705935000.0,705935000.0
16,002444,555034614.3699999,548640766.01,2017-12-31,年度报告,551840093.13,2017,12,-0.32391807912093135,True,0.3071377946634036,True,0.0,True,比例外推,548640766.01,703904000.0,703904000.0
17,002444,116158492.70999998,116228210.35000002,2018-03-31,一季度报告,113040833.55,2018,3,2.9308756881758753,False,0.11575488997969204,True,0.017025183966294766,True,前期平均,599099025.975,714050000.0,714050000.0
18,002444,321125272.67,320250181.2,2018-06-30,半年度报告,314273874.63000005,2018,6,0.6811412012030684,False,0.13722975531836978,True,0.029109644161124104,True,前期平均,674538632.89,749985714.0,749985714.0
19,002444,571928812.4200001,566105773.08,2018-09-30,三季度报告,618984720.8,2018,9,-0.0015898033902694193,True,0.035707084598502956,True,0.06716121651039098,True,比例外推,722253514.3001201,744074000.0,722253514.3001201
20,002444,735466548.2099999,716999484.04,2018-12-31,年度报告,765521260.9799997,2018,12,-0.23036198840522426,True,0.002672486032482069,True,0.0,True,比例外推,716999484.04,732628570.9999999,716999484.04
21,002444,156935118.38000005,152643511.83,2019-03-31,一季度报告,139354841.09000003,2019,3,2.6775247939595954,False,0.06927864277485854,True,0.020232514753929565,True,前期平均,667705920.5500001,869901111.0,869901111.0
22,002444,451630342.2700001,444136473.5100001,2019-06-30,半年度报告,395483376.77,2019,6,0.33024639704699027,True,0.28572711449020877,True,0.017610893402140393,True,比例外推,1010163429.9996885,891320000.0,891320000.0
23,002444,739137382.56,727813607.11,2019-09-30,三季度报告,690293340.9900001,2019,9,-0.2530963160214068,True,0.2749364599770288,True,0.05455859453998635,True,比例外推,915810987.1042967,881920000.0,915810987.1042967
24,002444,903653041.09,895030139.7800002,2019-12-31,年度报告,820214354.4799999,2019,12,-0.41917720389911317,True,0.23933297515832222,True,0.0,True,比例外推,895030139.7800002,881920000.0,895030139.7800002
25,002444,181505045.41,181631940.63000005,2020-03-31,一季度报告,176132014.32000002,2020,3,1.7219894525815675,False,0.39603116106367137,True,0.018682799031466052,True,前期平均,733718716.75,948982856.9999999,948982856.9999999
