,SECURITYCODE_x,NETPROFIT_x,PARENTNETPROFIT_x,REPORTDATE_x,REPORTTIMETYPE_x,KCFJCXSYJLR,Year,Month,managesituationChangeRate,managesituationGreatChange,historyprofitextroplaterate,ifhistoryprofitextroplate,IfprofitdisStableChangeRage,IfprofitdisStable,predicttype,predict,analyst_prediction,adj_prediction
0,002405,128292343.26000002,105326522.08,2013-12-31,年度报告,77457417.72000001,2013,12,未知,未知,未知,未知,未知,未知,未知,未知,未知,未知
1,002405,26122487.81,29316800.14,2014-03-31,一季度报告,24397774.37,2014,3,未知,未知,未知,未知,未知,未知,未知,未知,未知,未知
2,002405,59726475.00000001,58658281.12,2014-06-30,半年度报告,43588814.56000001,2014,6,未知,未知,未知,未知,未知,未知,未知,未知,未知,未知
3,002405,71941038.63999999,71781432.44,2014-09-30,三季度报告,50936487.23,2014,9,未知,未知,未知,未知,未知,未知,未知,未知,未知,未知
4,002405,129418387.39000002,117501997.72,2014-12-31,年度报告,77590563.65999998,2014,12,0.0,True,未知,未知,未知,未知,未知,未知,未知,未知
5,002405,30621564.57,30514999.340000004,2015-03-31,一季度报告,26376279.25,2015,3,3.9111839650620177,False,未知,未知,未知,未知,未知,未知,159766811.0,未知
6,002405,69505495.76,71185249.43,2015-06-30,半年度报告,61496418.75000002,2015,6,1.1479979064560568,False,未知,未知,未知,未知,未知,未知,155750000.0,未知
7,002405,93030876.68,91364986.79,2015-09-30,三季度报告,62501425.19999999,2015,9,0.7832984578105341,False,未知,未知,未知,未知,未知,未知,156922857.0,未知
8,002405,145946658.04999998,130160648.82,2015-12-31,年度报告,101943066.93,2015,12,-0.008700804829275776,True,未知,未知,未知,未知,未知,未知,157944286.0,未知
9,002405,17566135.0,33110586.219999995,2016-03-31,一季度报告,30680064.09,2016,3,3.1896077180095577,False,未知,未知,未知,未知,未知,未知,213744977.0,未知
10,002405,62850792.71,78357061.79,2016-06-30,半年度报告,70659548.85,2016,6,0.8457870396750913,False,未知,未知,未知,未知,未知,未知,214182805.0,未知
11,002405,80057362.61,100688870.60999998,2016-09-30,三季度报告,89971623.87,2016,9,0.3790297139872122,True,未知,未知,未知,未知,未知,未知,185098750.0,未知
12,002405,116258904.8,156569086.39000002,2016-12-31,年度报告,144653472.69,2016,12,-0.12096415927490273,True,0.13263935639693522,True,0.0,True,比例外推,156569086.39000002,177939058.0,177939058.0
13,002405,29097600.54000001,50125679.25999999,2017-03-31,一季度报告,49107367.54000001,2017,3,6.303390487435057,False,0.3808642751714589,True,0.05268539392118454,True,前期平均,114505467.74499997,402396500.0,402396500.0
14,002405,92234906.24,121336834.76999998,2017-06-30,半年度报告,114154983.38,2017,6,1.0412207663307294,False,0.02731820399579286,True,0.06269113183471459,True,前期平均,158561033.40999997,383817727.0,383817727.0
15,002405,118866430.1,158410254.83,2017-09-30,三季度报告,149682487.82000002,2017,9,0.6025052422096024,False,0.029442527175479447,True,0.025958014615246272,True,前期平均,191458113.91000003,258324033.00000003,258324033.00000003
16,002405,212321708.19000003,265199610.3,2017-12-31,年度报告,219571124.27,2017,12,0.10350552055088708,True,0.15560157888426002,True,0.0,True,比例外推,265199610.3,258213364.0,265199610.3
17,002405,53294531.90999999,73318809.75,2018-03-31,一季度报告,55962061.34,2018,3,3.409035139637668,False,0.20767751105160343,True,0.027241987150768365,True,前期平均,168088907.89,384691667.0,384691667.0
18,002405,128777128.83,163242653.43,2018-06-30,半年度报告,134875432.5,2018,6,0.390930489224727,True,0.3937366679922586,True,0.06603704761416995,True,比例外推,279435713.357583,370939412.0,370939412.0
19,002405,155064674.88,219213005.99,2018-09-30,三季度报告,172851065.44000003,2018,9,0.07929836163221349,True,0.37347783520803735,True,0.04277536234308854,True,比例外推,316894652.8725126,361854478.0,361854478.0
20,002405,377418225.23000014,479070711.85,2018-12-31,年度报告,-1057466402.08,2018,12,-0.39576435987791114,True,0.6195057487126082,True,0.0,True,比例外推,479070711.85,362187811.0,362187811.0
21,002405,38699107.84,42026469.19,2019-03-31,一季度报告,35217035.28,2019,3,1.4072327622025274,False,1.2841948375228591,True,0.18052886550400965,False,前期平均,184245051.85500002,439242143.0,439242143.0
22,002405,61235718.39000001,85600315.07000002,2019-06-30,半年度报告,61548556.36999999,2019,6,-0.003764531593493968,True,0.6607221646080734,True,0.42115535839336704,False,平均增速,796674310.1399642,415381765.0,415381765.0
23,002405,-10833006.74,24184783.849999994,2019-09-30,三季度报告,-5248320.710000001,2019,9,-0.1726526795398004,True,0.559035978225694,True,0.5435332501444918,False,平均增速,1057303698.1165026,401206154.0,401206154.0
24,002405,306475244.64000005,339184565.86,2019-12-31,年度报告,-158012256.08999997,2019,12,-0.6600790987721429,True,1.297264113032052,True,0.0,True,比例外推,339184565.86,376650000.0,339184565.86
25,002405,-86888007.96,-72593034.97999999,2020-03-31,一季度报告,-72629735.39999999,2020,3,2.315124053774569,False,0.060611573235230615,True,0.2410329431915296,False,盈利变化,195388871.62000003,317852857.0,317852857.0
