,SECURITYCODE_x,NETPROFIT_x,PARENTNETPROFIT_x,REPORTDATE_x,REPORTTIMETYPE_x,KCFJCXSYJLR,Year,Month,managesituationChangeRate,managesituationGreatChange,historyprofitextroplaterate,ifhistoryprofitextroplate,IfprofitdisStableChangeRage,IfprofitdisStable,predicttype,predict,analyst_prediction,adj_prediction
0,002467,138206068.82,137791122.40999997,2013-12-31,年度报告,123011431.26,2013,12,未知,未知,未知,未知,未知,未知,未知,未知,未知,未知
1,002467,36929778.33,36929778.33,2014-03-31,一季度报告,33629691.90000001,2014,3,未知,未知,未知,未知,未知,未知,未知,未知,未知,未知
2,002467,70345359.46,70345359.46,2014-06-30,半年度报告,63022746.74,2014,6,未知,未知,未知,未知,未知,未知,未知,未知,未知,未知
3,002467,116259317.96,116259317.96,2014-09-30,三季度报告,104601616.17999998,2014,9,未知,未知,未知,未知,未知,未知,未知,未知,未知,未知
4,002467,147862351.01,147862351.01,2014-12-31,年度报告,132130042.31000002,2014,12,0.0,True,未知,未知,未知,未知,未知,未知,未知,未知
5,002467,33651659.66,33651659.66,2015-03-31,一季度报告,31628281.85,2015,3,2.7424017979476454,False,未知,未知,未知,未知,未知,未知,169320000.0,未知
6,002467,59736354.99000002,59736354.99000002,2015-06-30,半年度报告,59895209.62000001,2015,6,0.9646792607348489,False,未知,未知,未知,未知,未知,未知,148910000.0,未知
7,002467,83484661.20999998,83484661.20999998,2015-09-30,三季度报告,80895788.50999999,2015,9,0.18877412361520102,True,未知,未知,未知,未知,未知,未知,145695000.0,未知
8,002467,58918497.1,58918497.1,2015-12-31,年度报告,55897131.66,2015,12,-0.06530588837551311,True,未知,未知,未知,未知,未知,未知,90953010.0,未知
9,002467,86501954.79,86501954.79,2016-03-31,一季度报告,15467341.150000002,2016,3,3.106961446073296,False,未知,未知,未知,未知,未知,未知,152219543.0,未知
10,002467,85620765.83000001,85620765.83000001,2016-06-30,半年度报告,15352009.82,2016,6,1.3136006347078921,False,未知,未知,未知,未知,未知,未知,161500000.0,未知
11,002467,95256467.18,95256467.18,2016-09-30,三季度报告,16359542.329999998,2016,9,0.6554666068818563,False,未知,未知,未知,未知,未知,未知,155000000.0,未知
12,002467,-378714298.29,-378266158.07000005,2016-12-31,年度报告,-320492159.73,2016,12,1.34571612689693,False,0.5880810811971968,True,0.0,True,盈利变化,-66544600.029999994,,-66544600.029999994
13,002467,28280060.95000001,29399925.46,2017-03-31,一季度报告,11792183.18,2017,3,0.5977219145569783,False,1.4511247504550882,True,0.3084672825636398,False,前期平均,90784525.57,未知,90784525.57
14,002467,46651833.2,49633662.83000001,2017-06-30,半年度报告,27898313.08,2017,6,0.614165296003169,False,0.31641508865429935,True,0.5713258276432787,False,前期平均,82188271.635,未知,82188271.635
15,002467,57594374.83000001,63454384.36,2017-09-30,三季度报告,41955310.93000001,2017,9,0.4508838392971355,True,0.04621438327381823,True,0.7803242691564559,False,平均增速,78731079.88035637,未知,78731079.88035637
16,002467,21565162.250000004,30986896.11,2017-12-31,年度报告,11010772.430000003,2017,12,-1.3649349112088947,False,4.662953332008172,False,0.0,True,前期平均,30986896.11,未知,30986896.11
17,002467,10695378.009999998,13889636.769999998,2018-03-31,一季度报告,11262293.72,2018,3,3.8870498923022985,False,0.5292682441647513,True,0.57777347078066,False,前期平均,-141955688.76500002,未知,-141955688.76500002
18,002467,33854324.12,40082077.31,2018-06-30,半年度报告,35240326.26,2018,6,1.9625002779097647,False,0.3581073574266742,True,1.3479445532615735,False,前期平均,-129839046.445,未知,-129839046.445
19,002467,60421418.26,69188240.11000001,2018-09-30,三季度报告,62486679.51000001,2018,9,1.3996452644540314,False,0.35555542981318405,True,2.074864728810091,False,前期平均,-111736939.34499997,未知,-111736939.34499997
20,002467,74350355.72,86042223.02000001,2018-12-31,年度报告,79138319.07000001,2018,12,5.408765545921176,False,-1.1348683264117498,True,0.0,True,前期平均,86042223.02000001,未知,86042223.02000001
21,002467,36987553.09,36924947.38,2019-03-31,一季度报告,34687985.10000001,2019,3,11.9220368546843,False,0.8136401780183617,True,0.6826284624929404,False,前期平均,-131445508.435,162895000.0,162895000.0
22,002467,63537961.44999999,64218171.07000002,2019-06-30,半年度报告,61850307.25,2019,6,3.082375661381244,False,0.4881128159835782,True,1.5566862942678128,False,前期平均,-112147684.02999997,167000000.0,167000000.0
23,002467,90520931.67000002,91595695.06,2019-09-30,三季度报告,86444030.7,2019,9,1.287368830458168,False,0.20940679860897302,True,2.2940773803604158,False,前期平均,-92302425.22,167500000.0,167500000.0
24,002467,182710111.95,174612994.48999995,2019-12-31,年度报告,36671967.01,2019,12,0.8588487907237143,False,-1.4163546721371483,True,0.0,True,前期平均,174612994.48999995,167000000.0,174612994.48999995
25,002467,36301854.24,35647633.96,2020-03-31,一季度报告,29110429.26,2020,3,2.7365561458934557,False,0.8979928938303865,True,0.5774146811264886,False,前期平均,69194941.26,220000000.0,220000000.0
