,SECURITYCODE_x,NETPROFIT_x,PARENTNETPROFIT_x,REPORTDATE_x,REPORTTIMETYPE_x,KCFJCXSYJLR,Year,Month,managesituationChangeRate,managesituationGreatChange,historyprofitextroplaterate,ifhistoryprofitextroplate,IfprofitdisStableChangeRage,IfprofitdisStable,predicttype,predict,analyst_prediction,adj_prediction
0,002482,528169936.97,522926652.3699999,2013-12-31,年度报告,520137068.92000014,2013,12,未知,未知,未知,未知,未知,未知,未知,未知,未知,未知
1,002482,83177147.3,80181120.14,2014-03-31,一季度报告,79096936.25,2014,3,未知,未知,未知,未知,未知,未知,未知,未知,未知,未知
2,002482,211842339.59,205418171.36,2014-06-30,半年度报告,203645344.48,2014,6,未知,未知,未知,未知,未知,未知,未知,未知,未知,未知
3,002482,331354177.09,321457746.46,2014-09-30,三季度报告,319624996.75000006,2014,9,未知,未知,未知,未知,未知,未知,未知,未知,未知,未知
4,002482,549670415.13,536543757.0200001,2014-12-31,年度报告,530457454.6200001,2014,12,0.0,True,未知,未知,未知,未知,未知,未知,未知,未知
5,002482,79636156.58000003,69051772.82000001,2015-03-31,一季度报告,69423912.25,2015,3,5.349940507877938,False,未知,未知,未知,未知,未知,未知,626607692.0,未知
6,002482,180214854.38,165828762.41000003,2015-06-30,半年度报告,134134827.61000004,2015,6,1.4932217893373956,False,未知,未知,未知,未知,未知,未知,576507500.0,未知
7,002482,279139240.70000005,258885931.91000003,2015-09-30,三季度报告,221324595.04,2015,9,0.5939739815820774,False,未知,未知,未知,未知,未知,未知,446600000.0,未知
8,002482,310855283.94,278921239.04,2015-12-31,年度报告,243611247.3,2015,12,-0.03911521808011986,True,未知,未知,未知,未知,未知,未知,447454545.0,未知
9,002482,43681168.85999999,45707543.79000001,2016-03-31,一季度报告,45530276.73,2016,3,5.632288142125704,False,未知,未知,未知,未知,未知,未知,372571429.0,未知
10,002482,161487954.04999995,163297217.88000005,2016-06-30,半年度报告,160659970.25000003,2016,6,1.930779145742914,False,未知,未知,未知,未知,未知,未知,333014286.0,未知
11,002482,296744494.53000003,297840987.31000006,2016-09-30,三季度报告,293676244.29,2016,9,0.8921379009468658,False,未知,未知,未知,未知,未知,未知,379555556.0,未知
12,002482,400440538.91,402721898.9699999,2016-12-31,年度报告,312340503.83000016,2016,12,0.6990862444916497,False,0.42318863209315166,True,0.0,True,前期平均,402721898.9699999,378111111.0,402721898.9699999
13,002482,45856509.03,56534619.88999999,2017-03-31,一季度报告,53684106.97000001,2017,3,11.09147902298144,False,0.46342015278806975,True,0.09169148555265247,True,前期平均,369308546.6,518614545.0,518614545.0
14,002482,224692135.3100001,215388109.25,2017-06-30,半年度报告,207692745.69000003,2017,6,2.270646037205152,False,0.17620206166982408,True,0.09905810335325921,True,前期平均,433532374.165,542310000.0,542310000.0
15,002482,396010091.39,383131513.0,2017-09-30,三季度报告,376036195.93,2017,9,0.7798811661410741,False,0.02785358242117715,True,0.21455581746517682,False,前期平均,499691068.06500006,529992500.0,499691068.06500006
16,002482,662064363.95,646707712.1899999,2017-12-31,年度报告,491101600.6799998,2017,12,0.31897219599114435,True,0.06931184195249473,True,0.0,True,比例外推,646707712.1899999,529992500.0,529992500.0
17,002482,68185525.56,72405785.99000001,2018-03-31,一季度报告,59327823.92,2018,3,10.517883679816611,False,0.25628440502771915,True,0.10495720377063739,False,前期平均,292904567.0650001,795612856.9999999,795612856.9999999
18,002482,277186374.7699999,280623606.39,2018-06-30,半年度报告,258058448.52,2018,6,1.3506382911057477,False,0.3151319202928339,True,0.07305355102743077,True,前期平均,411202083.02500004,805420000.0,805420000.0
19,002482,458120018.4200001,461717786.64,2018-09-30,三季度报告,421871998.3999999,2018,9,0.33372847928222604,True,0.3753126444241007,True,0.10578686496967415,False,平均增速,608375502.5991415,709129538.0,709129538.0
20,002482,318206958.38,348388026.53000003,2018-12-31,年度报告,290096923.88,2018,12,-0.20223777969434992,True,0.8615724785146615,True,0.0,True,比例外推,348388026.53000003,709129538.0,709129538.0
21,002482,51585240.21999998,52410858.51,2019-03-31,一季度报告,50313935.68999999,2019,3,6.746071217200427,False,0.5230577152954131,True,0.05131192367216533,True,前期平均,404524718.91499996,485066250.0,485066250.0
22,002482,179378166.85,175062261.96,2019-06-30,半年度报告,105556268.18,2019,6,0.905468612619426,False,0.435529082969395,True,0.2806108049052958,False,前期平均,392606956.245,305413333.0,305413333.0
23,002482,317133402.85,324181543.48,2019-09-30,三季度报告,259880699.38,2019,9,0.15290735120371635,True,0.32260407287409626,True,0.4008489070711667,False,平均增速,212335144.99267128,385155000.0,385155000.0
24,002482,132599656.70000003,143877091.34,2019-12-31,年度报告,103418872.07999995,2019,12,0.6598315123557545,False,0.40102495993483767,True,0.0,True,前期平均,143877091.34,,143877091.34
25,002482,-96491415.87,-90682128.86,2020-03-31,一季度报告,-90460294.64000005,2020,3,9.238780215376892,False,0.09532935981969357,True,0.21972955240266323,False,盈利变化,-43821882.4333334,248000000.0,248000000.0
