,SECURITYCODE_x,NETPROFIT_x,PARENTNETPROFIT_x,REPORTDATE_x,REPORTTIMETYPE_x,KCFJCXSYJLR,Year,Month,managesituationChangeRate,managesituationGreatChange,historyprofitextroplaterate,ifhistoryprofitextroplate,IfprofitdisStableChangeRage,IfprofitdisStable,predicttype,predict,analyst_prediction,adj_prediction
0,002438,65894561.23,65894561.23,2013-12-31,年度报告,62620736.08,2013,12,未知,未知,未知,未知,未知,未知,未知,未知,未知,未知
1,002438,12895373.170000002,12895373.170000002,2014-03-31,一季度报告,11804994.04,2014,3,未知,未知,未知,未知,未知,未知,未知,未知,未知,未知
2,002438,29484394.87,29484394.87,2014-06-30,半年度报告,26480552.49,2014,6,未知,未知,未知,未知,未知,未知,未知,未知,未知,未知
3,002438,40933799.05,40933799.05,2014-09-30,三季度报告,36644210.85,2014,9,未知,未知,未知,未知,未知,未知,未知,未知,未知,未知
4,002438,53816510.82000001,53816510.82000001,2014-12-31,年度报告,47624207.92,2014,12,0.0,True,未知,未知,未知,未知,未知,未知,未知,未知
5,002438,10097550.26,10097550.26,2015-03-31,一季度报告,7866056.61,2015,3,4.109938298125264,False,未知,未知,未知,未知,未知,未知,83750000.0,未知
6,002438,17169027.13,17169027.13,2015-06-30,半年度报告,13342445.249999998,2015,6,1.23489617204411,False,未知,未知,未知,未知,未知,未知,,未知
7,002438,21004280.35,21004280.35,2015-09-30,三季度报告,15666891.46,2015,9,0.6097836692243204,False,未知,未知,未知,未知,未知,未知,25000000.0,未知
8,002438,16576339.599999998,16576339.599999998,2015-12-31,年度报告,10544984.679999998,2015,12,0.22443020229233038,True,未知,未知,未知,未知,未知,未知,44500000.0,未知
9,002438,14587449.33,14587449.33,2016-03-31,一季度报告,13175324.940000005,2016,3,5.525796805491711,False,未知,未知,未知,未知,未知,未知,65480361.99999999,未知
10,002438,24348322.910000004,24348322.910000004,2016-06-30,半年度报告,21539473.56,2016,6,2.8379903957901194,False,未知,未知,未知,未知,未知,未知,64457272.99999999,未知
11,002438,32203237.219999995,32203237.219999995,2016-09-30,三季度报告,26846518.629999995,2016,9,2.1371968061738422,False,未知,未知,未知,未知,未知,未知,54488932.00000001,未知
12,002438,51588889.99,51588889.99,2016-12-31,年度报告,40883861.4,2016,12,2.975217859918845,False,0.723060877893124,True,0.0,True,前期平均,51588889.99,77235720.0,77235720.0
13,002438,15017016.32,15017016.32,2017-03-31,一季度报告,13936426.86,2017,3,3.517209262518823,False,0.26886425507484935,True,0.3072548461528706,False,前期平均,34266087.295,82866667.0,82866667.0
14,002438,25854374.95,25854374.95,2017-06-30,半年度报告,22600640.24,2017,6,1.7063285415414258,False,0.043795797444397704,True,0.4825665927984928,False,前期平均,35027472.38,77187500.0,77187500.0
15,002438,38058318.10999999,38058318.10999999,2017-09-30,三季度报告,30005956.410000004,2017,9,1.0462092298309633,False,0.03985262481354873,True,0.5151137153210242,False,前期平均,40987363.254999995,67170000.0,67170000.0
16,002438,62399567.82,62399567.82,2017-12-31,年度报告,45550805.95,2017,12,0.2773013965365994,True,0.4657423213350252,True,0.0,True,比例外推,62399567.82,81148000.0,81148000.0
17,002438,22419931.27,22419931.27,2018-03-31,一季度报告,19361877.79,2018,3,3.3879929158923625,False,0.2166916402205215,True,0.2878963626182653,False,前期平均,37613663.535,82133333.0,82133333.0
18,002438,40235438.62,40235438.62,2018-06-30,半年度报告,28939438.510000005,2018,6,1.5486812718324874,False,0.2454732744305949,True,0.5025225935937919,False,前期平均,48508902.254999995,84467500.0,84467500.0
19,002438,61518848.49999999,61518848.49999999,2018-09-30,三季度报告,44351655.41,2018,9,0.7314102278388889,False,0.43056168933009653,True,0.5520167254932568,False,前期平均,65976566.49499999,93500000.0,93500000.0
20,002438,103344154.91,103344154.91,2018-12-31,年度报告,73736982.32000001,2018,12,0.0560098976980382,True,0.8308327631351267,True,0.0,True,比例外推,103344154.91,90000000.0,90000000.0
21,002438,50575418.81000001,50575418.81000001,2019-03-31,一季度报告,44107750.48,2019,3,1.9391062994993737,False,0.5146317136786424,True,0.03435171316877761,True,前期平均,80236876.58500001,140740000.0,140740000.0
22,002438,91780227.52999996,91780227.52999996,2019-06-30,半年度报告,79572098.35000001,2019,6,0.6377244411906451,False,0.6029193782455419,True,0.07935728133909531,True,前期平均,112927504.30499995,159646102.0,159646102.0
23,002438,130988791.82000002,130988791.82000002,2019-09-30,三季度报告,110902910.23,2019,9,0.07112800120112789,True,0.7511382493900739,True,0.03747337552203356,True,比例外推,193654290.89509666,181166667.00000003,193654290.89509666
24,002438,172032390.11999995,172032390.11999995,2019-12-31,年度报告,140996549.88,2019,12,-0.36237747275222265,True,0.8132389348096576,True,0.0,True,比例外推,172032390.11999995,,172032390.11999995
25,002438,41105118.74,41105118.74,2020-03-31,一季度报告,39018340.29,2020,3,0.3028969958222277,True,1.7018986357482573,True,0.031207158314831174,True,比例外推,134898242.1617486,249180000.0,249180000.0
