,SECURITYCODE_x,NETPROFIT_x,PARENTNETPROFIT_x,REPORTDATE_x,REPORTTIMETYPE_x,KCFJCXSYJLR,Year,Month,managesituationChangeRate,managesituationGreatChange,historyprofitextroplaterate,ifhistoryprofitextroplate,IfprofitdisStableChangeRage,IfprofitdisStable,predicttype,predict,analyst_prediction,adj_prediction
0,002421,107193188.29,82294209.87,2013-12-31,年度报告,76919640.57,2013,12,未知,未知,未知,未知,未知,未知,未知,未知,未知,未知
1,002421,16764028.099999996,12351763.77,2014-03-31,一季度报告,9976260.24,2014,3,未知,未知,未知,未知,未知,未知,未知,未知,未知,未知
2,002421,39284300.11,31903332.62,2014-06-30,半年度报告,27860532.36,2014,6,未知,未知,未知,未知,未知,未知,未知,未知,未知,未知
3,002421,95216079.68999998,73964562.40999998,2014-09-30,三季度报告,67453918.95000002,2014,9,未知,未知,未知,未知,未知,未知,未知,未知,未知,未知
4,002421,147739773.55,112167858.11,2014-12-31,年度报告,104887886.96999995,2014,12,0.0,True,未知,未知,未知,未知,未知,未知,未知,未知
5,002421,21380073.78,17448523.25,2015-03-31,一季度报告,15952954.4,2015,3,5.394238165826031,False,未知,未知,未知,未知,未知,未知,198296667.00000003,未知
6,002421,49452908.11000001,43994528.05,2015-06-30,半年度报告,39906680.07999999,2015,6,1.7286521075811019,False,未知,未知,未知,未知,未知,未知,205600000.0,未知
7,002421,103598266.13,97272600.43000002,2015-09-30,三季度报告,87360264.52,2015,9,0.12578871802950226,True,未知,未知,未知,未知,未知,未知,161299000.0,未知
8,002421,159926431.3,152633303.67,2015-12-31,年度报告,142092394.07,2015,12,-0.2744459686495844,True,未知,未知,未知,未知,未知,未知,162126667.0,未知
9,002421,38015012.99,32802560.97000001,2016-03-31,一季度报告,20863194.380000006,2016,3,4.013695901754741,False,未知,未知,未知,未知,未知,未知,283112000.0,未知
10,002421,89124693.50999999,79457203.39,2016-06-30,半年度报告,68816097.03999999,2016,6,1.1675810864664637,False,未知,未知,未知,未知,未知,未知,284212000.0,未知
11,002421,182131757.03,169101257.87999997,2016-09-30,三季度报告,154739232.20000002,2016,9,0.034700601605522366,True,未知,未知,未知,未知,未知,未知,280018000.0,未知
12,002421,295570478.31,275495429.54,2016-12-31,年度报告,257377655.51,2016,12,-0.32973438212398853,True,0.2546547935246787,True,0.0,True,比例外推,275495429.54,279510000.0,275495429.54
13,002421,40740227.4,40285574.29000001,2017-03-31,一季度报告,38799364.32,2017,3,1.819759349239144,False,0.9932315150370506,True,0.016123069843197724,True,前期平均,150811107.48999995,393437143.0,393437143.0
14,002421,106377015.93,103559830.2,2017-06-30,半年度报告,93622621.53,2017,6,0.2027327564158489,True,1.0087333216307488,True,0.009568135013063361,True,比例外推,355048909.16365784,384717778.00000006,355048909.16365784
15,002421,218633075.09,207426653.08,2017-09-30,三季度报告,194475458.67,2017,9,-0.4114525108746215,True,0.832179225083648,True,0.023394029946191552,True,比例外推,326767610.1616947,336000000.0,326767610.1616947
16,002421,333278796.41,311825825.86,2017-12-31,年度报告,301781901.48,2017,12,-0.6373345913877984,True,0.9213711070678225,True,0.0,True,比例外推,311825825.86,380647500.0,380647500.0
17,002421,36719830.63,35772575.55,2018-03-31,一季度报告,31021966.67,2018,3,1.6311386835803476,False,0.3718382989408333,True,0.02623933588935709,True,前期平均,217099525.95,405170000.0,405170000.0
18,002421,100781694.39000002,96665491.59,2018-06-30,半年度报告,91066195.47,2018,6,0.007672450226814699,True,0.5352699813884974,True,0.024080404969719027,True,比例外推,323843074.778969,340685000.0,323843074.778969
19,002421,160826709.16000003,155837942.11999995,2018-09-30,三季度报告,163311722.59999996,2018,9,-0.5097119306130874,True,0.530347232482267,True,0.024273307394653276,True,比例外推,255868276.02675483,332100000.0,332100000.0
20,002421,213812595.89,216769784.07,2018-12-31,年度报告,220049335.02,2018,12,-0.6783678126401692,True,0.4633635898665302,True,0.0,True,比例外推,216769784.07,319000000.0,319000000.0
21,002421,19507693.57,19647297.17,2019-03-31,一季度报告,12054132.49,2019,3,1.919217938941784,False,0.06749492609859324,True,0.03580787819444685,True,前期平均,269395796.315,258000000.0,269395796.315
22,002421,94507123.25,93192717.94,2019-06-30,半年度报告,76107024.89,2019,6,0.06361764345010026,True,0.0310057613171939,True,0.08336071856556654,True,比例外推,247375472.03450227,246000000.0,247375472.03450227
23,002421,128917996.27000004,128801866.04999998,2019-09-30,三季度报告,109156240.14,2019,9,-0.3334864037828579,True,0.19740108776887844,True,0.07956019779335832,True,比例外推,184385048.65214676,,184385048.65214676
24,002421,-343277809.92,-342885845.54,2019-12-31,年度报告,-369329500.0,2019,12,-0.49865821588384057,True,0.3199877793126129,True,0.0,True,比例外推,-342885845.54,,-342885845.54
25,002421,22667227.049999993,22497785.68,2020-03-31,一季度报告,21766923.61,2020,3,4.494918602517294,False,0.49631606104801157,True,0.11160688456732239,False,前期平均,248502738.43500003,未知,248502738.43500003
