,SECURITYCODE_x,NETPROFIT_x,PARENTNETPROFIT_x,REPORTDATE_x,REPORTTIMETYPE_x,KCFJCXSYJLR,Year,Month,managesituationChangeRate,managesituationGreatChange,historyprofitextroplaterate,ifhistoryprofitextroplate,IfprofitdisStableChangeRage,IfprofitdisStable,predicttype,predict,analyst_prediction,adj_prediction
0,002430,267428936.42,233253950.27,2013-12-31,年度报告,198767667.76,2013,12,未知,未知,未知,未知,未知,未知,未知,未知,未知,未知
1,002430,28613931.13000001,24390187.26,2014-03-31,一季度报告,1085797.35,2014,3,未知,未知,未知,未知,未知,未知,未知,未知,未知,未知
2,002430,57275973.37,45966145.1,2014-06-30,半年度报告,3933736.01,2014,6,未知,未知,未知,未知,未知,未知,未知,未知,未知,未知
3,002430,98939604.70000003,82580711.18000002,2014-09-30,三季度报告,30028003.24,2014,9,未知,未知,未知,未知,未知,未知,未知,未知,未知,未知
4,002430,162947318.41999996,135444947.91999996,2014-12-31,年度报告,66134080.47000001,2014,12,0.0,True,未知,未知,未知,未知,未知,未知,未知,未知
5,002430,33681018.44,31175647.77,2015-03-31,一季度报告,25687835.13,2015,3,8.346109599726288,False,未知,未知,未知,未知,未知,未知,166000000.0,未知
6,002430,69645945.02000001,61399164.24999999,2015-06-30,半年度报告,48232970.28,2015,6,3.669129491565723,False,未知,未知,未知,未知,未知,未知,,未知
7,002430,108669983.26,100201763.89000002,2015-09-30,三季度报告,80474513.96000001,2015,9,1.702951333097452,False,未知,未知,未知,未知,未知,未知,未知,未知
8,002430,161828307.61999995,144105387.62,2015-12-31,年度报告,106173739.81,2015,12,0.6411987568319264,False,未知,未知,未知,未知,未知,未知,,未知
9,002430,-31630823.710000005,-33498076.26,2016-03-31,一季度报告,-42510920.74999999,2016,3,6.940048989207465,False,未知,未知,未知,未知,未知,未知,,未知
10,002430,-55723340.92,-56116586.24,2016-06-30,半年度报告,-76505566.64000002,2016,6,2.8398349874239375,False,未知,未知,未知,未知,未知,未知,未知,未知
11,002430,-137664720.70000002,-138594193.76000002,2016-09-30,三季度报告,-167976517.83,2016,9,1.460927372926513,False,未知,未知,未知,未知,未知,未知,未知,未知
12,002430,-280847149.48999995,-282618656.09000003,2016-12-31,年度报告,-360722510.59,2016,12,0.6525473222396174,False,0.24796823337680413,True,0.0,True,盈利变化,-11526695.846666664,216261760.0,216261760.0
13,002430,37548420.79000001,38703007.16,2017-03-31,一季度报告,29622807.87,2017,3,-9.45469403110906,False,2.0155180774151478,False,0.11653851071424298,False,前期平均,111470101.06000002,176696000.0,176696000.0
14,002430,98885078.24,98337958.62000003,2017-06-30,半年度报告,72988861.18,2017,6,-5.799226536038787,False,1.8780727809167808,True,0.2123319415417369,False,前期平均,158408515.61500004,305784000.0,305784000.0
15,002430,219453220.79,207244011.27,2017-09-30,三季度报告,155452331.64999998,2017,9,-2.9426105327506757,False,2.3261884680058587,False,0.19872940424243057,False,前期平均,238146662.81,317494000.0,317494000.0
16,002430,381992910.52,360703991.38000005,2017-12-31,年度报告,301248232.95000005,2017,12,-1.9522223633233717,False,2.7294841544261104,False,0.0,True,前期平均,360703991.38000005,310846667.0,310846667.0
17,002430,162844891.83,156596467.03,2018-03-31,一季度报告,147361562.82,2018,3,6.1222419157298456,False,35.62912623914523,False,0.08923336812785018,True,去年同期,428221892.11,714622000.0,714622000.0
18,002430,357376248.27000004,338076437.66,2018-06-30,半年度报告,317923263.72,2018,6,1.7044417740251365,False,13.20496877304727,False,0.1513963168803263,False,去年同期,566335809.4300001,743083750.0,743083750.0
19,002430,574490059.61,539568993.2099999,2018-09-30,三季度报告,503136428.1400001,2018,9,0.21861477109925445,True,-16.13745183891549,True,0.1780693957345698,False,平均增速,755013167.3636937,756830000.0,755013167.3636937
20,002430,794702383.5600001,740863070.52,2018-12-31,年度报告,703395041.6600001,2018,12,-0.2999112573687458,True,-7.419032558512661,True,0.0,True,比例外推,740863070.52,750317143.0000001,740863070.52
21,002430,184468862.28,173850711.82,2019-03-31,一季度报告,165648634.38000005,2019,3,0.6422310421574614,False,54.03750580801624,False,0.06760597939546986,True,去年同期,729884190.6600001,882760833.0,882760833.0
22,002430,419842399.11,399030010.71000016,2019-06-30,半年度报告,368689112.14000016,2019,6,-0.2516879962935989,True,15.559863919305279,False,0.1498633275043903,False,未知,未知,854522000.0,未知
23,002430,568402464.1,531623508.1,2019-09-30,三季度报告,490005763.3200001,2019,9,-0.5344933616404999,True,13.048186700522246,False,0.14963332112740158,False,未知,未知,759545000.0,未知
24,002430,684576249.2399999,635303002.6199999,2019-12-31,年度报告,572997081.97,2019,12,-0.6634854230309364,True,14.714002751421086,False,0.0,True,比例外推,635303002.6199999,723226667.0,723226667.0
25,002430,138267941.20999998,130904846.49,2020-03-31,一季度报告,123317146.99,2020,3,0.44972399739787666,True,0.8410680463155268,True,0.10064163845826891,False,平均增速,603271358.4203875,704182856.9999999,704182856.9999999
