,SECURITYCODE_x,NETPROFIT_x,PARENTNETPROFIT_x,REPORTDATE_x,REPORTTIMETYPE_x,KCFJCXSYJLR,Year,Month,managesituationChangeRate,managesituationGreatChange,historyprofitextroplaterate,ifhistoryprofitextroplate,IfprofitdisStableChangeRage,IfprofitdisStable,predicttype,predict,analyst_prediction,adj_prediction
0,002479,180820948.14000005,142977476.2,2013-12-31,年度报告,135502299.21999997,2013,12,未知,未知,未知,未知,未知,未知,未知,未知,未知,未知
1,002479,48166650.17000001,41196425.18000001,2014-03-31,一季度报告,40366432.61,2014,3,未知,未知,未知,未知,未知,未知,未知,未知,未知,未知
2,002479,117844377.97,98905970.74,2014-06-30,半年度报告,95826092.08,2014,6,未知,未知,未知,未知,未知,未知,未知,未知,未知,未知
3,002479,160326958.8,136230245.45999998,2014-09-30,三季度报告,129144888.65,2014,9,未知,未知,未知,未知,未知,未知,未知,未知,未知,未知
4,002479,218721730.5,172761205.49,2014-12-31,年度报告,154423249.07999995,2014,12,0.0,True,未知,未知,未知,未知,未知,未知,未知,未知
5,002479,52912327.38,44087944.56,2015-03-31,一季度报告,28737990.04000001,2015,3,2.754069413210348,False,未知,未知,未知,未知,未知,未知,200600000.0,未知
6,002479,120980032.09000002,99160084.73,2015-06-30,半年度报告,96158387.77,2015,6,0.5344045363456557,False,未知,未知,未知,未知,未知,未知,225366667.00000003,未知
7,002479,182935542.31,148754583.71000004,2015-09-30,三季度报告,144488381.23000002,2015,9,0.12782622145016345,True,未知,未知,未知,未知,未知,未知,199366667.00000003,未知
8,002479,233079422.42999995,181392100.44,2015-12-31,年度报告,169744364.12,2015,12,-0.17328311308326977,True,未知,未知,未知,未知,未知,未知,198000000.0,未知
9,002479,52912327.38,44087944.56,2016-03-31,一季度报告,42435096.22,2016,3,2.4173690157569485,False,未知,未知,未知,未知,未知,未知,278632500.0,未知
10,002479,148372142.05,122948439.38,2016-06-30,半年度报告,116732823.99000002,2016,6,0.494634651819921,True,未知,未知,未知,未知,未知,未知,285433333.0,未知
11,002479,227009712.4100001,180890216.71000004,2016-09-30,三季度报告,169283106.48000002,2016,9,-0.011559230881534193,True,未知,未知,未知,未知,未知,未知,265453000.0,未知
12,002479,308175760.96999985,244927959.16000003,2016-12-31,年度报告,228546179.07999992,2016,12,-0.22420887157335623,True,0.16673103971459083,True,0.0,True,比例外推,244927959.16000003,265283000.0,244927959.16000003
13,002479,98369205.06,80977011.93,2017-03-31,一季度报告,79497445.92999998,2017,3,2.4173690157569485,False,0.046950190089254544,True,0.05594229560204886,True,前期平均,208508607.20499998,439048333.0,439048333.0
14,002479,232767780.36999995,198521467.12,2017-06-30,半年度报告,193124013.05000004,2017,6,0.21869877755802092,True,0.24252074578745436,True,0.05516874868746702,True,比例外推,346647392.54570913,407896667.0,407896667.0
15,002479,291973860.42999995,248358934.69000003,2017-09-30,三季度报告,242573264.36,2017,9,-0.20346602698028599,True,0.32265954874723585,True,0.06870850922661464,True,比例外推,305479380.39155066,386587500.0,386587500.0
16,002479,409422170.37,344441772.16,2017-12-31,年度报告,306044137.04,2017,12,-0.41325382771553365,True,0.3642097147005166,True,0.0,True,比例外推,344441772.16,386587500.0,386587500.0
17,002479,53482015.71999999,46795178.71000001,2018-03-31,一季度报告,45365030.16,2018,3,0.8381865343906038,False,0.8590980576897088,True,0.05484685763913669,True,前期平均,210353907.17999995,,210353907.17999995
18,002479,140955723.54999998,121244774.1,2018-06-30,半年度报告,117822551.3,2018,6,-0.22317020056395664,True,0.7283527123045624,True,0.0616048190609676,True,比例外推,210335952.3417865,未知,210335952.3417865
19,002479,208032987.82999995,175618557.83000004,2018-09-30,三季度报告,170831082.84,2018,9,-0.38069473796832765,True,0.42445293398711637,True,0.0563730457430639,True,比例外推,219712971.43403864,未知,219712971.43403864
20,002479,144137999.5,94801213.43,2018-12-31,年度报告,68790958.55000001,2018,12,-0.5583508631772679,True,0.5128618918645172,True,0.0,True,比例外推,94801213.43,598000000.0,598000000.0
21,002479,33700903.49,28161295.27,2019-03-31,一季度报告,28957579.64,2019,3,2.3809673346395717,False,0.2929471977524874,True,0.291164013517411,False,前期平均,234490182.25499997,未知,234490182.25499997
22,002479,148095117.29999998,133609316.99,2019-06-30,半年度报告,128658518.35,2019,6,0.2828208999676343,True,0.2603465800432589,True,0.7612428674970415,False,平均增速,87669132.81323877,318500000.0,318500000.0
23,002479,259928163.18000004,230816156.02,2019-09-30,三季度报告,222323833.48,2019,9,-0.13080636861417863,True,0.1983060785851291,True,1.1444561260525297,False,平均增速,124523112.67547576,326486667.0,326486667.0
24,002479,339810932.80999994,300410198.61,2019-12-31,年度报告,268081272.99,2019,12,0.2544988050843598,True,0.5982764352989557,True,0.0,True,比例外推,300410198.61,326153333.0,300410198.61
25,002479,37613216.78000001,24258999.53,2020-03-31,一季度报告,18614715.17,2020,3,4.365462922786467,False,0.5561325971975501,True,0.3170493947394218,False,前期平均,149245309.28000003,,149245309.28000003
