,SECURITYCODE_x,NETPROFIT_x,PARENTNETPROFIT_x,REPORTDATE_x,REPORTTIMETYPE_x,KCFJCXSYJLR,Year,Month,managesituationChangeRate,managesituationGreatChange,historyprofitextroplaterate,ifhistoryprofitextroplate,IfprofitdisStableChangeRage,IfprofitdisStable,predicttype,predict,analyst_prediction,adj_prediction
0,002428,124261825.45999998,123110596.94,2013-12-31,年度报告,103870360.68,2013,12,未知,未知,未知,未知,未知,未知,未知,未知,未知,未知
1,002428,31047667.329999994,32142482.899999995,2014-03-31,一季度报告,30282015.869999994,2014,3,未知,未知,未知,未知,未知,未知,未知,未知,未知,未知
2,002428,69060570.54,70121931.71000001,2014-06-30,半年度报告,58411669.21999998,2014,6,未知,未知,未知,未知,未知,未知,未知,未知,未知,未知
3,002428,105231022.04999998,105608290.05,2014-09-30,三季度报告,83060173.28,2014,9,未知,未知,未知,未知,未知,未知,未知,未知,未知,未知
4,002428,125284689.59000002,125264152.90000002,2014-12-31,年度报告,100564461.91,2014,12,0.0,True,未知,未知,未知,未知,未知,未知,未知,未知
5,002428,29156892.390000004,28691095.12,2015-03-31,一季度报告,21964319.55,2015,3,3.0022918353009804,False,未知,未知,未知,未知,未知,未知,152569600.0,未知
6,002428,56930308.32999999,56131540.50000001,2015-06-30,半年度报告,38875287.56,2015,6,0.7993165200977786,False,未知,未知,未知,未知,未知,未知,136676667.0,未知
7,002428,70333365.47999999,68868161.67,2015-09-30,三季度报告,16785037.03,2015,9,0.1808478435280958,True,未知,未知,未知,未知,未知,未知,68750000.0,未知
8,002428,63019255.28,61069124.33999999,2015-12-31,年度报告,3692444.93,2015,12,-0.008164318667727162,True,未知,未知,未知,未知,未知,未知,81916667.0,未知
9,002428,-9645477.07,-10361548.86,2016-03-31,一季度报告,-11051577.310000002,2016,3,3.2618336617594506,False,未知,未知,未知,未知,未知,未知,88000000.0,未知
10,002428,-36479129.24,-36498955.84,2016-06-30,半年度报告,-39362289.37,2016,6,1.182700728401272,False,未知,未知,未知,未知,未知,未知,53500000.0,未知
11,002428,-58892691.49,-57737538.48,2016-09-30,三季度报告,-68530898.89999999,2016,9,0.7667550047115987,False,未知,未知,未知,未知,未知,未知,,未知
12,002428,-107040039.74000004,-103213404.59000003,2016-12-31,年度报告,-114107423.14,2016,12,0.9718072660156637,False,0.4949297908057482,True,0.0,True,盈利变化,21802501.649999984,151752500.0,151752500.0
13,002428,165049.68,1421569.66,2017-03-31,一季度报告,-1226449.9500000002,2017,3,-13.882911291810263,False,1.3204234733999978,True,3.8329749072163537,False,前期平均,27426855.37,39000000.0,39000000.0
14,002428,659502.26,2600171.26,2017-06-30,半年度报告,-5126940.550000002,2017,6,-4.406381348701293,False,1.5790757167054914,True,6.710289505732646,False,前期平均,6085146.290000008,22000000.0,22000000.0
15,002428,1122463.51,4006621.27,2017-09-30,三季度报告,-13999377.13,2017,9,-3.109970224082893,False,1.6708956448236016,True,2.5550117391439144,False,前期平均,6212469.535,,6212469.535
16,002428,6432862.510000003,8464373.99,2017-12-31,年度报告,-13213866.599999998,2017,12,-2.1608910624643975,False,2.1368857918924387,False,0.0,True,前期平均,8464373.99,未知,8464373.99
17,002428,2261770.88,1689088.57,2018-03-31,一季度报告,793301.4899999999,2018,3,751.8752885797778,False,0.9830817316639437,True,3.9024099325543378,False,前期平均,-58974771.654999994,50333333.0,50333333.0
18,002428,7289551.21,7616960.32,2018-06-30,半年度报告,1433565.79,2018,6,187.417588531084,False,0.9355047200850658,True,6.774569867795675,False,前期平均,-47347027.88,11000000.0,11000000.0
19,002428,9114799.73,9087198.840000002,2018-09-30,三季度报告,-357517.4200000001,2018,9,109.70455685459207,False,0.8037766811673652,True,2.477176303382341,False,前期平均,-20247359.330000006,,-20247359.330000006
20,002428,7610788.11,8620721.27,2018-12-31,年度报告,-1649018.19,2018,12,18.316723350892808,False,-1.292264783052437,True,0.0,True,前期平均,8620721.27,11000000.0,11000000.0
21,002428,873106.7299999999,893252.7000000002,2019-03-31,一季度报告,-3174399.78,2019,3,53.94005894177928,False,-1.4771453410182174,True,0.3839392820580347,False,前期平均,-56628378.53999999,,-56628378.53999999
22,002428,-9066133.52,-8244775.559999998,2019-06-30,半年度报告,-12681198.96,2019,6,16.046567323586988,False,-1.4070143563510666,True,0.8238817554270161,False,盈利变化,-789121.8966666665,2750000.0,2750000.0
23,002428,-7544554.840000003,-10750671.95,2019-09-30,三季度报告,-16856305.039999995,2019,9,12.632973750483048,False,-1.3155535315926234,True,0.4338344389788774,False,盈利变化,1287926.7722222237,9000000.0,9000000.0
24,002428,-57067241.86000001,-59145273.6,2019-12-31,年度报告,-60986345.87000002,2019,12,15.327064117936661,False,-1.151297120534469,True,0.0,True,盈利变化,-11158387.956666674,24000000.0,24000000.0
25,002428,1887089.09,1229640.5499999998,2020-03-31,一季度报告,108978.41,2020,3,141.3214610429128,False,0.2804521731924013,True,0.36900548067569633,False,前期平均,-5985227.614999999,30946000.0,30946000.0
