,SECURITYCODE_x,NETPROFIT_x,PARENTNETPROFIT_x,REPORTDATE_x,REPORTTIMETYPE_x,KCFJCXSYJLR,Year,Month,managesituationChangeRate,managesituationGreatChange,historyprofitextroplaterate,ifhistoryprofitextroplate,IfprofitdisStableChangeRage,IfprofitdisStable,predicttype,predict,analyst_prediction,adj_prediction
0,002412,111115830.84000002,110832646.34,2013-12-31,年度报告,108937176.36,2013,12,未知,未知,未知,未知,未知,未知,未知,未知,未知,未知
1,002412,32970084.66,32157600.579999994,2014-03-31,一季度报告,31581536.12,2014,3,未知,未知,未知,未知,未知,未知,未知,未知,未知,未知
2,002412,56565367.91,56080750.31,2014-06-30,半年度报告,55196608.51000001,2014,6,未知,未知,未知,未知,未知,未知,未知,未知,未知,未知
3,002412,81166084.71,80155790.79000002,2014-09-30,三季度报告,78791704.63999999,2014,9,未知,未知,未知,未知,未知,未知,未知,未知,未知,未知
4,002412,119532532.84,117587941.48,2014-12-31,年度报告,115723923.77,2014,12,0.0,True,未知,未知,未知,未知,未知,未知,未知,未知
5,002412,29119062.46,28622839.74000001,2015-03-31,一季度报告,28319850.47000001,2015,3,2.3702015625943504,False,未知,未知,未知,未知,未知,未知,151223333.0,未知
6,002412,55068337.89000001,53987004.18,2015-06-30,半年度报告,53113724.57,2015,6,0.9643791766155247,False,未知,未知,未知,未知,未知,未知,131590000.0,未知
7,002412,70448368.16999999,68939862.32,2015-09-30,三季度报告,67834336.79000002,2015,9,0.3689933577184128,True,未知,未知,未知,未知,未知,未知,111315000.0,未知
8,002412,100299045.57,98077411.90999998,2015-12-31,年度报告,94555088.44999996,2015,12,-0.07041348325870533,True,未知,未知,未知,未知,未知,未知,113210000.0,未知
9,002412,28434469.489999995,28437521.33000001,2016-03-31,一季度报告,25742996.47,2016,3,2.81591375040445,False,未知,未知,未知,未知,未知,未知,113613333.0,未知
10,002412,50621758.77,50624810.60999999,2016-06-30,半年度报告,45914180.56,2016,6,1.017780726593853,False,未知,未知,未知,未知,未知,未知,,未知
11,002412,60792988.0,60795538.83000001,2016-09-30,三季度报告,56267849.38,2016,9,0.5772662124957214,False,未知,未知,未知,未知,未知,未知,未知,未知
12,002412,85021332.16999999,84939164.83999999,2016-12-31,年度报告,79668289.33000001,2016,12,0.10784534597042454,True,0.1302860859732418,True,0.0,True,比例外推,84939164.83999999,121000000.0,121000000.0
13,002412,29536043.79000001,29536060.33999999,2017-03-31,一季度报告,28926152.12,2017,3,2.9077863182598818,False,0.08407601621441012,True,0.025608459068205636,True,前期平均,104724873.15499996,未知,104724873.15499996
14,002412,53291122.83000001,53291227.56,2017-06-30,半年度报告,48404976.48,2017,6,1.195021143869277,False,0.09307393484378984,True,0.06136780944806536,True,前期平均,104275567.12999997,未知,104275567.12999997
15,002412,66262980.03,66263058.88,2017-09-30,三季度报告,60193280.78000002,2017,9,0.8277738024655084,False,0.1980581422786057,True,0.020654519842383312,True,前期平均,98089544.27499998,未知,98089544.27499998
16,002412,108806334.33,108806776.42,2017-12-31,年度报告,106016574.10999998,2017,12,0.3069170760324495,True,0.2264866332221866,True,0.0,True,比例外推,108806776.42,未知,108806776.42
17,002412,36393214.40000001,36393214.40000001,2018-03-31,一季度报告,36158369.81999999,2018,3,2.7620417829154356,False,0.026385098855779696,True,0.025647498487025466,True,前期平均,96473479.82,未知,96473479.82
18,002412,60681186.67000001,60681186.67000001,2018-06-30,半年度报告,57865429.26000001,2018,6,1.085072052140133,False,0.008441178768811383,True,0.07496025567570258,True,前期平均,98278922.995,未知,98278922.995
19,002412,86361859.83000001,86361859.83000001,2018-09-30,三季度报告,82416979.16999999,2018,9,0.6768915432069803,False,0.009788102831976515,True,0.09604578196883917,True,前期平均,111422455.63499999,未知,111422455.63499999
20,002412,147536835.11,147536835.11,2018-12-31,年度报告,139819750.12,2018,12,0.02122575421937772,True,0.1742511606862,True,0.0,True,比例外推,147536835.11,未知,147536835.11
21,002412,40221685.17,40221685.17,2019-03-31,一季度报告,38655881.83000001,2019,3,2.0532018858988166,False,0.2555767524161557,True,0.03826731292716096,True,前期平均,105729542.595,未知,105729542.595
22,002412,71900694.7,71900694.7,2019-06-30,半年度报告,66248160.65999999,2019,6,0.8311413625490987,False,0.1679242406843233,True,0.09406570295481659,True,前期平均,117583547.9,193250000.0,193250000.0
23,002412,103306502.64000005,103306502.64000005,2019-09-30,三季度报告,95762073.23,2019,9,0.286630823591887,True,0.35943019708619367,True,0.0851097440193922,True,比例外推,161709241.38558787,,161709241.38558787
24,002412,162377707.21,162377707.21,2019-12-31,年度报告,154338124.68000004,2019,12,-0.2468604145049292,True,0.5223506300634333,True,0.0,True,比例外推,162377707.21,未知,162377707.21
25,002412,36943574.88,36943574.88,2020-03-31,一季度报告,36938606.0,2020,3,1.7625851669406822,False,0.2201467534819228,True,0.012207267893158014,True,前期平均,127319476.025,未知,127319476.025
