,SECURITYCODE_x,NETPROFIT_x,PARENTNETPROFIT_x,REPORTDATE_x,REPORTTIMETYPE_x,KCFJCXSYJLR,Year,Month,managesituationChangeRate,managesituationGreatChange,historyprofitextroplaterate,ifhistoryprofitextroplate,IfprofitdisStableChangeRage,IfprofitdisStable,predicttype,predict,analyst_prediction,adj_prediction
0,002427,15661615.08,17129577.59,2013-12-31,年度报告,14627074.35,2013,12,未知,未知,未知,未知,未知,未知,未知,未知,未知,未知
1,002427,10456546.63,10254001.590000002,2014-03-31,一季度报告,10693286.27,2014,3,未知,未知,未知,未知,未知,未知,未知,未知,未知,未知
2,002427,46437077.69000001,45356715.27,2014-06-30,半年度报告,45183504.11,2014,6,未知,未知,未知,未知,未知,未知,未知,未知,未知,未知
3,002427,70353596.48999998,66645716.27000002,2014-09-30,三季度报告,65234655.79999999,2014,9,未知,未知,未知,未知,未知,未知,未知,未知,未知,未知
4,002427,102678988.47,94913543.74,2014-12-31,年度报告,92903856.92999998,2014,12,0.0,True,未知,未知,未知,未知,未知,未知,未知,未知
5,002427,28019426.67,26247488.800000004,2015-03-31,一季度报告,25474214.3,2015,3,0.4977808290039633,True,未知,未知,未知,未知,未知,未知,178266943.0,未知
6,002427,68127144.42999999,65087221.81,2015-06-30,半年度报告,63230565.31,2015,6,-0.662734696947292,True,未知,未知,未知,未知,未知,未知,,未知
7,002427,100120023.01,95043243.57,2015-09-30,三季度报告,91529083.94,2015,9,-0.7773871434955549,True,未知,未知,未知,未知,未知,未知,123427944.0,未知
8,002427,104145791.59,100044409.77,2015-12-31,年度报告,88648099.04,2015,12,-0.8474701074351166,True,未知,未知,未知,未知,未知,未知,,未知
9,002427,21668985.48,21233022.77,2016-03-31,一季度报告,21373983.36,2016,3,-0.4410444130618609,True,未知,未知,未知,未知,未知,未知,191200000.0,未知
10,002427,68708255.77,66721121.82000001,2016-06-30,半年度报告,55850621.68999999,2016,6,-0.7701119691565502,True,未知,未知,未知,未知,未知,未知,,未知
11,002427,119432755.40999998,115056363.03000002,2016-09-30,三季度报告,98465938.79999998,2016,9,-0.843571599275045,True,未知,未知,未知,未知,未知,未知,未知,未知
12,002427,188002524.81,168616157.87000003,2016-12-31,年度报告,145810496.44,2016,12,-0.8496183586403907,True,0.7601024241184886,True,0.0,True,比例外推,168616157.87000003,,168616157.87000003
13,002427,61765635.88,41396481.32,2017-03-31,一季度报告,37431764.7,2017,3,-0.2772335790960159,True,0.12636451382504718,True,0.10434623835567666,False,平均增速,231210988.2962007,307330000.0,307330000.0
14,002427,168432055.11999995,122835862.33999996,2017-06-30,半年度报告,111080967.26000002,2017,6,-0.7720562848746,True,0.19947143180585133,True,0.18572316628454988,False,平均增速,270747968.5217476,495000000.0,495000000.0
15,002427,310713177.95999986,214532358.80000004,2017-09-30,三季度报告,201734286.28,2017,9,-0.8688666687272236,True,0.40118753576414773,True,0.22917455273624554,False,平均增速,293793777.68334955,328000000.0,328000000.0
16,002427,428895572.54,323881605.55000013,2017-12-31,年度报告,294416114.58,2017,12,-0.9166946555859926,True,0.8179883934164982,True,0.0,True,比例外推,323881605.55000013,369306667.0,369306667.0
17,002427,17306127.37,16434848.2,2018-03-31,一季度报告,12600301.05,2018,3,-0.7464348119004584,True,1.4861183204462691,True,0.1003334325828251,False,平均增速,295085186.6641363,,295085186.6641363
18,002427,24736683.84,23147251.289999995,2018-06-30,半年度报告,15064446.99,2018,6,-0.9070152349038202,True,1.4618198927151596,True,0.2220746655027353,False,平均增速,203513602.39558375,未知,203513602.39558375
19,002427,17023853.34,15042772.92,2018-09-30,三季度报告,-2215427.77,2018,9,-0.9495946223368221,True,1.8304190017182282,True,0.23483207885202273,False,平均增速,99430260.08016497,未知,99430260.08016497
20,002427,-1044142380.0500004,-1046943160.99,2018-12-31,年度报告,-1073984409.5900002,2018,12,-0.9634838499561817,True,1.9361495409254397,True,0.0,True,比例外推,-1046943160.99,573815000.0,573815000.0
21,002427,5650193.0,5044803.28,2019-03-31,一季度报告,1845366.79,2019,3,-0.09502485766115108,True,0.5851571664638282,True,0.09906366045172214,True,比例外推,24330066.514653277,未知,24330066.514653277
22,002427,16777722.35,15539031.79,2019-06-30,半年度报告,-31051889.539999995,2019,6,-0.36686682898559453,True,0.7913751251555508,True,0.2627938235984543,False,平均增速,1581377625.4676511,未知,1581377625.4676511
23,002427,-37229163.28,-38189529.12,2019-09-30,三季度报告,-96360088.78,2019,9,-0.08001938414255629,True,0.9208461500187819,True,0.452125457592838,False,平均增速,22634742442.137096,未知,22634742442.137096
24,002427,61938749.76,61158392.05999999,2019-12-31,年度报告,-436150693.76,2019,12,-1.0149995013891209,False,4.385137300748072,False,0.0,True,前期平均,61158392.05999999,未知,61158392.05999999
25,002427,-80865590.83000001,-80896881.33,2020-03-31,一季度报告,-83479959.88999997,2020,3,1.771872585591324,False,0.8570869608121455,True,0.09008042860104254,True,盈利变化,-52608710.17999998,未知,-52608710.17999998
