,SECURITYCODE_x,NETPROFIT_x,PARENTNETPROFIT_x,REPORTDATE_x,REPORTTIMETYPE_x,KCFJCXSYJLR,Year,Month,managesituationChangeRate,managesituationGreatChange,historyprofitextroplaterate,ifhistoryprofitextroplate,IfprofitdisStableChangeRage,IfprofitdisStable,predicttype,predict,analyst_prediction,adj_prediction
0,002491,219827323.34,218495675.16,2013-12-31,年度报告,216010666.22000003,2013,12,未知,未知,未知,未知,未知,未知,未知,未知,未知,未知
1,002491,25016544.11,24119452.0,2014-03-31,一季度报告,23605611.4,2014,3,未知,未知,未知,未知,未知,未知,未知,未知,未知,未知
2,002491,106318426.48999998,104480333.59000002,2014-06-30,半年度报告,101221016.43,2014,6,未知,未知,未知,未知,未知,未知,未知,未知,未知,未知
3,002491,131374393.71,128315211.05,2014-09-30,三季度报告,124950935.14000002,2014,9,未知,未知,未知,未知,未知,未知,未知,未知,未知,未知
4,002491,185699385.09,178720706.41,2014-12-31,年度报告,176569115.29,2014,12,0.0,True,未知,未知,未知,未知,未知,未知,未知,未知
5,002491,30162000.870000005,25493650.419999994,2015-03-31,一季度报告,23868823.85,2015,3,7.78727782596187,False,未知,未知,未知,未知,未知,未知,269694286.0,未知
6,002491,121635583.84999998,109741246.46,2015-06-30,半年度报告,71211168.69,2015,6,1.067631459544563,False,未知,未知,未知,未知,未知,未知,229333332.99999997,未知
7,002491,157905901.76,139511261.92999998,2015-09-30,三季度报告,131199132.28000002,2015,9,0.6732889654680638,False,未知,未知,未知,未知,未知,未知,235933332.99999997,未知
8,002491,291499182.27,255973381.25,2015-12-31,年度报告,170405191.25,2015,12,0.18378056682018493,True,未知,未知,未知,未知,未知,未知,235933332.99999997,未知
9,002491,96005812.17999998,86509036.92,2016-03-31,一季度报告,22171022.090000004,2016,3,6.288220840768114,False,未知,未知,未知,未知,未知,未知,428000000.0,未知
10,002491,273661948.85999995,259526284.68,2016-06-30,半年度报告,192965124.96,2016,6,0.8072616283988844,False,未知,未知,未知,未知,未知,未知,456696973.0,未知
11,002491,411185844.99,392594405.28,2016-09-30,三季度报告,321634256.08000004,2016,9,0.39214127458081915,True,未知,未知,未知,未知,未知,未知,543823636.0,未知
12,002491,564987249.21,538963416.16,2016-12-31,年度报告,463778230.79,2016,12,-0.2458732761164805,True,0.4376324725862889,True,0.0,True,比例外推,538963416.16,543823636.0,538963416.16
13,002491,93117197.57000002,87747220.36999997,2017-03-31,一季度报告,86126030.82,2017,3,1.2897293231356532,False,2.479823986471488,False,0.059383677257176117,True,去年同期,529354429.07000005,855468750.0,855468750.0
14,002491,291863338.39999986,281199197.14,2017-06-30,半年度报告,220473080.06000003,2017,6,-0.19671944069776642,True,1.401027720037259,True,0.10418874122120592,False,平均增速,685510906.7467802,676726667.0,685510906.7467802
15,002491,437320720.11,424902355.13000005,2017-09-30,三季度报告,359488486.99000007,2017,9,-0.4653820747517557,True,1.8428195866015515,True,0.04622668990080192,True,比例外推,562152258.3863139,640695000.0,640695000.0
16,002491,618110515.39,595035280.79,2017-12-31,年度报告,521041861.44,2017,12,-0.6109163106824514,True,1.3679335515849191,True,0.0,True,比例外推,595035280.79,601130000.0,595035280.79
17,002491,152219860.79,153747206.85999998,2018-03-31,一季度报告,130288194.53,2018,3,1.3607596563969484,False,0.47608483208150587,True,0.06991878053854791,True,前期平均,447818994.90999997,876001429.0000001,876001429.0000001
18,002491,348695100.27000004,350436727.64000005,2018-06-30,半年度报告,285228991.60999995,2018,6,-0.24681419548924027,True,0.4766767523141514,True,0.004104211777954281,True,比例外推,745888834.0013275,806485000.0,745888834.0013275
19,002491,470102513.33,469582006.21,2018-09-30,三季度报告,360761454.7,2018,9,-0.49733156186904093,True,0.5369076167682096,True,0.05213286922030025,True,比例外推,611419686.7362235,744985000.0,744985000.0
20,002491,566307718.4200001,564528924.11,2018-12-31,年度报告,436745248.1,2018,12,-0.6443559559874193,True,0.44336324002684124,True,0.0,True,比例外推,564528924.11,689653333.0,689653333.0
21,002491,28942456.74,23273212.34,2019-03-31,一季度报告,5697343.92,2019,3,0.44414350531610425,True,0.6097444831405555,True,0.1278438103395072,False,平均增速,180266935.55680752,,180266935.55680752
22,002491,49980926.89,36907088.46,2019-06-30,半年度报告,-18554514.89,2019,6,-0.369571516290925,True,0.23317244383340113,True,0.15564879972968831,False,平均增速,106285802.76202962,未知,106285802.76202962
23,002491,107678034.12,84179662.3,2019-09-30,三季度报告,14095942.54,2019,9,-0.5323842840514941,True,0.10807042082130844,True,0.08953161440617452,True,比例外推,89223047.20188299,220000000.0,220000000.0
24,002491,-2097676643.8000004,-2123100631.68,2019-12-31,年度报告,-2201195899.8900003,2019,12,-0.611823543649875,True,0.042669616383788536,True,0.0,True,比例外推,-2123100631.68,199500000.0,199500000.0
25,002491,-50043916.16,-52490608.68,2020-03-31,一季度报告,-45624468.11,2020,3,6.595323552343332,False,0.7640596415929083,True,0.1562628718525027,False,盈利变化,-2191529714.386667,120000000.0,120000000.0
