,SECURITYCODE_x,NETPROFIT_x,PARENTNETPROFIT_x,REPORTDATE_x,REPORTTIMETYPE_x,KCFJCXSYJLR,Year,Month,managesituationChangeRate,managesituationGreatChange,historyprofitextroplaterate,ifhistoryprofitextroplate,IfprofitdisStableChangeRage,IfprofitdisStable,predicttype,predict,analyst_prediction,adj_prediction
0,002498,435669784.7199999,433830145.73999983,2013-12-31,年度报告,249743753.59,2013,12,未知,未知,未知,未知,未知,未知,未知,未知,未知,未知
1,002498,27143365.92000001,26976061.23,2014-03-31,一季度报告,57102103.64,2014,3,未知,未知,未知,未知,未知,未知,未知,未知,未知,未知
2,002498,105611287.81,105284885.81,2014-06-30,半年度报告,106862209.42,2014,6,未知,未知,未知,未知,未知,未知,未知,未知,未知,未知
3,002498,206308131.71,205998738.16,2014-09-30,三季度报告,207243149.79999995,2014,9,未知,未知,未知,未知,未知,未知,未知,未知,未知,未知
4,002498,249472836.0,249287443.51000005,2014-12-31,年度报告,258435350.92,2014,12,0.0,True,未知,未知,未知,未知,未知,未知,未知,未知
5,002498,52158268.26000001,52162424.51000001,2015-03-31,一季度报告,59030868.24,2015,3,15.050691207717387,False,未知,未知,未知,未知,未知,未知,未知,未知
6,002498,179192857.53,179197022.68,2015-06-30,半年度报告,174715388.92999998,2015,6,3.1252198865692433,False,未知,未知,未知,未知,未知,未知,未知,未知
7,002498,244288923.83000004,244293088.98,2015-09-30,三季度报告,278326562.52000004,2015,9,1.1117431538394493,False,未知,未知,未知,未知,未知,未知,未知,未知
8,002498,349432668.30000013,349437171.62,2015-12-31,年度报告,337835619.99999994,2015,12,0.7463616147771692,False,未知,未知,未知,未知,未知,未知,未知,未知
9,002498,55973742.80999999,55973742.80999999,2016-03-31,一季度报告,36770972.29,2016,3,7.352842209949549,False,未知,未知,未知,未知,未知,未知,430180000.0,未知
10,002498,189418766.06000003,189418813.05,2016-06-30,半年度报告,132852305.46,2016,6,1.4312899003078916,False,未知,未知,未知,未知,未知,未知,414090000.0,未知
11,002498,319514409.18,319514456.17,2016-09-30,三季度报告,241883794.27,2016,9,0.7834201317419583,False,未知,未知,未知,未知,未知,未知,414090000.0,未知
12,002498,416774294.42,416774294.42,2016-12-31,年度报告,232469866.84000003,2016,12,0.24679179780054852,True,0.020028991723766185,True,0.0,True,比例外推,416774294.42,未知,416774294.42
13,002498,73415412.52,73415412.52,2017-03-31,一季度报告,18610072.48,2017,3,6.783467083822833,False,0.41166681844033526,True,0.03633285122726937,True,前期平均,313484412.03999996,467070000.0,467070000.0
14,002498,157192782.07999998,157192782.07999998,2017-06-30,半年度报告,92715666.09999998,2017,6,1.300034963705749,False,0.33016860294551786,True,0.08721634435217446,True,前期平均,314539468.36499995,,314539468.36499995
15,002498,224431996.66,224611999.99,2017-09-30,三季度报告,105008605.92999996,2017,9,0.36353720584339344,True,0.41818241043359994,True,0.1517412060685729,False,平均增速,217872553.99774358,290990000.0,290990000.0
16,002498,250726675.62,250137824.68,2017-12-31,年度报告,110444826.8,2017,12,0.04533746575300576,True,0.39178648861183923,True,0.0,True,比例外推,250137824.68,,250137824.68
17,002498,39719056.62000001,40200679.63,2018-03-31,一季度报告,34390974.29000001,2018,3,4.934309564784012,False,0.3578849000130781,True,0.00896105212436979,True,前期平均,277452502.78499997,未知,277452502.78499997
18,002498,77536209.67999999,78238139.64000002,2018-06-30,半年度报告,103978223.01,2018,6,1.771563547353433,False,0.14710892429782604,True,0.1967690443535005,False,前期平均,209607035.865,未知,209607035.865
19,002498,142122657.77999997,142835473.54999995,2018-09-30,三季度报告,184886821.28,2018,9,0.9412106615974706,False,0.2038642430089383,True,0.11452334885033733,False,前期平均,167883038.5749999,未知,167883038.5749999
20,002498,221068457.25,221373378.05,2018-12-31,年度报告,286736543.24999994,2018,12,0.7376283701870585,False,0.34553798694302745,True,0.0,True,前期平均,221373378.05,,221373378.05
21,002498,58004439.34000002,58446486.68999999,2019-03-31,一季度报告,56915711.25000001,2019,3,9.968784804939805,False,0.38605277206271693,True,0.02893258018852031,True,前期平均,202213311.125,未知,202213311.125
22,002498,195752408.42,196179153.88,2019-06-30,半年度报告,193796084.62,2019,6,4.61892032790943,False,0.5526045794141728,True,0.24828058003144038,False,前期平均,254852514.92000002,未知,254852514.92000002
23,002498,363111632.78,363277034.02,2019-09-30,三季度报告,342175705.07,2019,9,2.0654491797810226,False,0.4774387467069509,True,0.2338934678882476,False,前期平均,361288180.74,未知,361288180.74
24,002498,435650752.51999986,435485210.81000006,2019-12-31,年度报告,392583209.71,2019,12,0.9707460310690702,False,0.3376235625942162,True,0.0,True,前期平均,435485210.81000006,未知,435485210.81000006
25,002498,84945489.36,85116929.92999999,2020-03-31,一季度报告,83490589.62,2020,3,6.510973119941198,False,0.0254070184078297,True,0.024533322386051257,True,前期平均,257207091.56999993,未知,257207091.56999993
