,SECURITYCODE_x,NETPROFIT_x,PARENTNETPROFIT_x,REPORTDATE_x,REPORTTIMETYPE_x,KCFJCXSYJLR,Year,Month,managesituationChangeRate,managesituationGreatChange,historyprofitextroplaterate,ifhistoryprofitextroplate,IfprofitdisStableChangeRage,IfprofitdisStable,predicttype,predict,analyst_prediction,adj_prediction
0,002401,48540944.97,46989926.88,2013-12-31,年度报告,51235452.34,2013,12,未知,未知,未知,未知,未知,未知,未知,未知,未知,未知
1,002401,15956212.85,15501212.46,2014-03-31,一季度报告,15501212.46,2014,3,未知,未知,未知,未知,未知,未知,未知,未知,未知,未知
2,002401,31273026.31,30287822.0,2014-06-30,半年度报告,30282614.16,2014,6,未知,未知,未知,未知,未知,未知,未知,未知,未知,未知
3,002401,46334121.36,44662055.25999999,2014-09-30,三季度报告,42594003.44,2014,9,未知,未知,未知,未知,未知,未知,未知,未知,未知,未知
4,002401,53847863.88,51801391.18,2014-12-31,年度报告,47673347.87000001,2014,12,0.0,True,未知,未知,未知,未知,未知,未知,未知,未知
5,002401,17049775.349999998,16517128.510000005,2015-03-31,一季度报告,16516137.66,2015,3,2.0421344604963703,False,未知,未知,未知,未知,未知,未知,64000000.0,未知
6,002401,32358654.22000001,30902725.57000001,2015-06-30,半年度报告,30898650.08,2015,6,0.5521665376682248,False,未知,未知,未知,未知,未知,未知,58000000.0,未知
7,002401,50437645.98,48268448.75000001,2015-09-30,三季度报告,48325828.39,2015,9,0.04762847649259922,True,未知,未知,未知,未知,未知,未知,,未知
8,002401,57763651.55999999,54842444.53,2015-12-31,年度报告,52946386.28999999,2015,12,-0.0985539356180679,True,未知,未知,未知,未知,未知,未知,129500000.0,未知
9,002401,17570972.240000002,16778890.86,2016-03-31,一季度报告,16778890.86,2016,3,1.8470137566944544,False,未知,未知,未知,未知,未知,未知,未知,未知
10,002401,33250506.62000001,31686770.969999995,2016-06-30,半年度报告,28345077.29,2016,6,0.5000915872452493,False,未知,未知,未知,未知,未知,未知,未知,未知
11,002401,50787950.8,48615736.13999999,2016-09-30,三季度报告,44796261.04,2016,9,-0.03760486781544276,True,未知,未知,未知,未知,未知,未知,未知,未知
12,002401,63152991.71,59977304.3,2016-12-31,年度报告,53363816.32,2016,12,-0.15966280421902038,True,0.1283196319750914,True,0.0,True,比例外推,59977304.3,未知,59977304.3
13,002401,18562123.01,17664137.229999997,2017-03-31,一季度报告,14346397.94,2017,3,1.7625645471966207,False,0.06471420479996441,True,0.007981362646184986,True,前期平均,51965329.24999999,未知,51965329.24999999
14,002401,39894626.15,38210780.06,2017-06-30,半年度报告,29458553.020000003,2017,6,0.45985580083771926,True,0.045092832471196845,True,0.052153695666512956,True,比例外推,59253731.699927546,未知,59253731.699927546
15,002401,70110009.61,66715590.18,2017-09-30,三季度报告,49146728.31000001,2017,9,-0.044242892154648585,True,0.04964396530158473,True,0.04242881336958537,True,比例外推,73298426.85558513,未知,73298426.85558513
16,002401,80527208.92999998,75950988.59,2017-12-31,年度报告,50419302.95999999,2017,12,-0.2313753686776845,True,0.13165727498700114,True,0.0,True,比例外推,75950988.59,未知,75950988.59
17,002401,25630775.35,24216307.06,2018-03-31,一季度报告,21381056.25,2018,3,1.615053512135948,False,0.07231208463918672,True,0.019093911637060812,True,前期平均,60723894.105000004,未知,60723894.105000004
18,002401,50736832.88,47557362.61,2018-06-30,半年度报告,36623157.49,2018,6,0.21672890948998152,True,0.21612974893217632,True,0.03517395001997792,True,比例外推,75600521.15388729,未知,75600521.15388729
19,002401,75526884.87,70385078.74000001,2018-09-30,三季度报告,51283621.23,2018,9,-0.3076460088934796,True,0.38522294439764126,True,0.06953044977393774,True,比例外推,75520289.73208681,未知,75520289.73208681
20,002401,90052255.36999999,83190054.62,2018-12-31,年度报告,55471909.91,2018,12,-0.39721063706311655,True,0.33194582238256987,True,0.0,True,比例外推,83190054.62,未知,83190054.62
21,002401,27579504.43,25843946.95,2019-03-31,一季度报告,22532457.68,2019,3,0.8938539434391319,False,0.4186869501582487,True,0.057304136516341364,True,前期平均,62172862.19,未知,62172862.19
22,002401,53026778.05,49577567.97,2019-06-30,半年度报告,44331523.11,2019,6,-0.043279956303019514,True,0.3872921125056561,True,0.06832793031454909,True,比例外推,80145185.7106837,未知,80145185.7106837
23,002401,78458083.64999998,73385663.63000003,2019-09-30,三季度报告,64586313.34,2019,9,-0.35730243537052164,True,0.24943191123930405,True,0.07345236373158281,True,比例外推,79547667.64215913,未知,79547667.64215913
24,002401,102880891.34,96640953.7,2019-12-31,年度报告,78210035.34,2019,12,-0.4609691365245814,True,0.25350959935853273,True,0.0,True,比例外推,96640953.7,未知,96640953.7
25,002401,82386177.09,82386177.09,2020-03-31,一季度报告,21141808.95,2020,3,0.7600368814893894,False,0.24814191661902124,True,0.06607834294209075,True,前期平均,117468056.43,未知,117468056.43
