,SECURITYCODE_x,NETPROFIT_x,PARENTNETPROFIT_x,REPORTDATE_x,REPORTTIMETYPE_x,KCFJCXSYJLR,Year,Month,managesituationChangeRate,managesituationGreatChange,historyprofitextroplaterate,ifhistoryprofitextroplate,IfprofitdisStableChangeRage,IfprofitdisStable,predicttype,predict,analyst_prediction,adj_prediction
0,002441,189416891.09,182692741.33,2013-12-31,年度报告,182398457.45,2013,12,未知,未知,未知,未知,未知,未知,未知,未知,未知,未知
1,002441,57347644.40000001,58617666.60999999,2014-03-31,一季度报告,59661779.09,2014,3,未知,未知,未知,未知,未知,未知,未知,未知,未知,未知
2,002441,123825463.17,120022481.86999996,2014-06-30,半年度报告,119744520.96999995,2014,6,未知,未知,未知,未知,未知,未知,未知,未知,未知,未知
3,002441,177310819.83,175052225.34000003,2014-09-30,三季度报告,174621564.42,2014,9,未知,未知,未知,未知,未知,未知,未知,未知,未知,未知
4,002441,216685912.07,211686702.62,2014-12-31,年度报告,203418948.33,2014,12,0.0,True,未知,未知,未知,未知,未知,未知,未知,未知
5,002441,56282822.24,59974446.32000001,2015-03-31,一季度报告,59682894.24,2015,3,2.3029585272730047,False,未知,未知,未知,未知,未知,未知,257500000.0,未知
6,002441,115800536.43,115266872.1,2015-06-30,半年度报告,114776220.06,2015,6,0.5297087225908416,False,未知,未知,未知,未知,未知,未知,,未知
7,002441,151032519.52,154267326.94000003,2015-09-30,三季度报告,153049827.20999998,2015,9,0.06827598717104183,True,未知,未知,未知,未知,未知,未知,239000000.0,未知
8,002441,179516371.17,181376728.52,2015-12-31,年度报告,166502561.88000005,2015,12,-0.1258458416585513,True,未知,未知,未知,未知,未知,未知,228700000.0,未知
9,002441,30633102.45,34395687.82,2016-03-31,一季度报告,33143720.34,2016,3,2.365447636621571,False,未知,未知,未知,未知,未知,未知,259333332.99999997,未知
10,002441,83549234.61,85073602.67,2016-06-30,半年度报告,83752665.38,2016,6,0.6357168708324609,False,未知,未知,未知,未知,未知,未知,275985000.0,未知
11,002441,109101716.09999996,114608304.77999996,2016-09-30,三季度报告,112740318.23000003,2016,9,0.25414640298652413,True,未知,未知,未知,未知,未知,未知,,未知
12,002441,141625756.66,143383554.97,2016-12-31,年度报告,139369736.52999997,2016,12,0.05515106981872052,True,0.11590676167151429,True,0.0,True,比例外推,143383554.97,306586026.0,306586026.0
13,002441,80983901.55000001,83455167.1,2017-03-31,一季度报告,40912304.8,2017,3,5.183405399409684,False,0.46082941739470806,True,0.06193135383358678,True,前期平均,208743585.54000002,未知,208743585.54000002
14,002441,124915069.5,129272544.89,2017-06-30,半年度报告,87743614.60999998,2017,6,1.2671289805846853,False,0.30266970404325033,True,0.06302460701633439,True,前期平均,196972929.48000008,未知,196972929.48000008
15,002441,181052202.37,189460582.23,2017-09-30,三季度报告,148325885.10999998,2017,9,0.7361495113091082,False,0.3354412712255315,True,0.057015084352892265,True,前期平均,210585641.52000004,未知,210585641.52000004
16,002441,193626720.0,200623044.4,2017-12-31,年度报告,155857180.75,2017,12,0.3374466308747205,True,0.285083591634882,True,0.0,True,比例外推,200623044.4,未知,200623044.4
17,002441,58143376.48,62294457.17,2018-03-31,一季度报告,60587532.2,2018,3,1.3389449935682924,False,0.8634997404409485,True,0.07219682312707215,True,前期平均,168817299.08500004,281000000.0,281000000.0
18,002441,123103789.55,125349384.36999996,2018-06-30,半年度报告,122850712.40999998,2018,6,0.5163654141024194,False,0.2532251113038448,True,0.07158632203560367,True,前期平均,179021090.85499996,266500000.0,266500000.0
19,002441,183088888.89,186873686.93,2018-09-30,三季度报告,183884336.46,2018,9,0.04620042512880258,True,0.39199057700715895,True,0.08434095872637548,True,比例外推,208844469.56264254,246500000.0,246500000.0
20,002441,195196628.73999995,205998715.59,2018-12-31,年度报告,196514796.02,2018,12,-0.02174198328619106,True,0.20586309437731803,True,0.0,True,比例外推,205998715.59,未知,205998715.59
21,002441,86554483.46999998,90147708.45,2019-03-31,一季度报告,90124997.53000002,2019,3,2.2577552690830593,False,0.0418372541158691,True,0.03877014059744627,True,前期平均,200733154.51999998,311000000.0,311000000.0
22,002441,148533867.82,152354192.82,2019-06-30,半年度报告,150588131.31000003,2019,6,0.538676362298873,False,0.18105389865731664,True,0.033379040256713566,True,前期平均,214219511.46499997,,214219511.46499997
23,002441,210039963.86,216026152.41,2019-09-30,三季度报告,213979295.75,2019,9,0.03456245891470721,True,0.26201217516164743,True,0.08984884329998177,True,比例外推,240124744.62727982,未知,240124744.62727982
24,002441,215250885.83,225121148.04,2019-12-31,年度报告,222254363.44,2019,12,-0.029609823116865927,True,0.16447538693628078,True,0.0,True,比例外推,225121148.04,291000000.0,291000000.0
25,002441,91765301.05,87174234.49000001,2020-03-31,一季度报告,85936014.02000001,2020,3,1.1884122404318016,False,0.24424893084354385,True,0.0800662371409902,True,前期平均,212610304.375,,212610304.375
