,SECURITYCODE_x,NETPROFIT_x,PARENTNETPROFIT_x,REPORTDATE_x,REPORTTIMETYPE_x,KCFJCXSYJLR,Year,Month,managesituationChangeRate,managesituationGreatChange,historyprofitextroplaterate,ifhistoryprofitextroplate,IfprofitdisStableChangeRage,IfprofitdisStable,predicttype,predict,analyst_prediction,adj_prediction
0,002471,208109248.2,165008263.73000002,2013-12-31,年度报告,137194921.42000002,2013,12,未知,未知,未知,未知,未知,未知,未知,未知,未知,未知
1,002471,24243287.230000004,19429678.35,2014-03-31,一季度报告,18877824.32,2014,3,未知,未知,未知,未知,未知,未知,未知,未知,未知,未知
2,002471,74549832.2,59497803.39000001,2014-06-30,半年度报告,52011894.47,2014,6,未知,未知,未知,未知,未知,未知,未知,未知,未知,未知
3,002471,111068515.04999998,81511521.22000001,2014-09-30,三季度报告,71214376.8,2014,9,未知,未知,未知,未知,未知,未知,未知,未知,未知,未知
4,002471,150106303.67,103829967.85999998,2014-12-31,年度报告,90288524.54,2014,12,0.0,True,未知,未知,未知,未知,未知,未知,未知,未知
5,002471,20089419.809999995,21472245.2,2015-03-31,一季度报告,19679011.500000004,2015,3,7.584200905827404,False,未知,未知,未知,未知,未知,未知,未知,未知
6,002471,62163658.42,61474024.83000002,2015-06-30,半年度报告,54413428.53,2015,6,1.791545494585298,False,未知,未知,未知,未知,未知,未知,未知,未知
7,002471,84040750.56999998,81891856.37,2015-09-30,三季度报告,72796193.15000002,2015,9,0.8737015445494607,False,未知,未知,未知,未知,未知,未知,未知,未知
8,002471,114784386.59,111331809.4,2015-12-31,年度报告,90599947.74,2015,12,0.38641244978969114,True,未知,未知,未知,未知,未知,未知,未知,未知
9,002471,12773946.8,12352301.67,2016-03-31,一季度报告,12121736.039999995,2016,3,9.359146763233479,False,未知,未知,未知,未知,未知,未知,238700000.0,未知
10,002471,56361172.67000001,53948221.37000001,2016-06-30,半年度报告,40742030.38000001,2016,6,2.3477638461034442,False,未知,未知,未知,未知,未知,未知,,未知
11,002471,99972614.29,88295403.56,2016-09-30,三季度报告,73539468.24,2016,9,1.476289737877338,False,未知,未知,未知,未知,未知,未知,未知,未知
12,002471,139077364.44,111946646.26,2016-12-31,年度报告,95157891.55,2016,12,0.8130449130102372,False,0.35913231019262726,True,0.0,True,前期平均,111946646.26,未知,111946646.26
13,002471,9469007.02,10808263.960000005,2017-03-31,一季度报告,9028741.35,2017,3,15.291695233927229,False,0.4237235822989797,True,0.05717335557338432,True,前期平均,81974082.19000001,未知,81974082.19000001
14,002471,47915504.08,42326399.21999999,2017-06-30,半年度报告,38583004.85000001,2017,6,2.6924222534988633,False,0.17548484184844804,True,0.10678315990847781,False,前期平均,79557973.85999998,未知,79557973.85999998
15,002471,88545738.44000001,75253341.80000001,2017-09-30,三季度报告,69527944.63000001,2017,9,1.0816625600718797,False,0.024785921594409153,True,0.015534088948380487,True,前期平均,93692292.965,未知,93692292.965
16,002471,113952983.71,83718393.33,2017-12-31,年度报告,74066410.05,2017,12,0.4963559960886471,True,0.05007363077570171,True,0.0,True,比例外推,83718393.33,未知,83718393.33
17,002471,3310072.6,6189969.92,2018-03-31,一季度报告,5329255.45,2018,3,20.977937893639876,False,0.42373481497670573,True,0.06170979673460375,True,前期平均,83168515.795,未知,83168515.795
18,002471,86886462.96000001,80886819.95000003,2018-06-30,半年度报告,23289388.52,2018,6,3.3432549066485793,False,0.1914689328919423,True,0.08840358777988772,True,前期平均,126188010.14000002,未知,126188010.14000002
19,002471,130732064.6,120261004.35999998,2018-09-30,三季度报告,60470189.06000001,2018,9,1.3503022490576222,False,0.03761622415451308,True,0.10038102191122555,False,前期平均,139972093.30999997,未知,139972093.30999997
20,002471,104596838.09999998,85440156.98,2018-12-31,年度报告,19065068.950000007,2018,12,0.8262729190981005,False,0.10224377443505737,True,0.0,True,前期平均,85440156.98,未知,85440156.98
21,002471,11644764.21,8643377.35,2019-03-31,一季度报告,7093025.69,2019,3,61.87150565821426,False,0.7023711304904378,True,0.10325784377012098,False,前期平均,82680289.455,未知,82680289.455
22,002471,47154538.56,42553063.84,2019-06-30,半年度报告,30751179.169999994,2019,6,1.3951860981590125,False,0.6664601456048993,True,0.4980237445675325,False,前期平均,87502697.02499999,未知,87502697.02499999
23,002471,-24577744.83,-28022638.579999994,2019-09-30,三季度报告,25338381.27,2019,9,0.5918760928066916,False,0.38694257303677193,True,1.544006260078151,False,盈利变化,69826020.18444444,未知,69826020.18444444
24,002471,-458135805.51,-462882994.87,2019-12-31,年度报告,-148154323.97,2019,12,0.9896323061031425,False,0.1732466965741715,True,0.0,True,盈利变化,29700359.339999996,未知,29700359.339999996
25,002471,-96454373.60999998,-94193148.23,2020-03-31,一季度报告,-48662342.05,2020,3,16.87148665674871,False,0.8224730663349606,True,0.16572743470362405,False,盈利变化,-537223485.19,未知,-537223485.19
