,SECURITYCODE_x,NETPROFIT_x,PARENTNETPROFIT_x,REPORTDATE_x,REPORTTIMETYPE_x,KCFJCXSYJLR,Year,Month,managesituationChangeRate,managesituationGreatChange,historyprofitextroplaterate,ifhistoryprofitextroplate,IfprofitdisStableChangeRage,IfprofitdisStable,predicttype,predict,analyst_prediction,adj_prediction
0,002432,-9362061.36,-9168312.71,2013-12-31,年度报告,-11841910.61,2013,12,未知,未知,未知,未知,未知,未知,未知,未知,未知,未知
1,002432,301638.44999999995,344867.93000000005,2014-03-31,一季度报告,282033.48000000004,2014,3,未知,未知,未知,未知,未知,未知,未知,未知,未知,未知
2,002432,-7896100.129999999,-7606751.189999999,2014-06-30,半年度报告,-7537312.93,2014,6,未知,未知,未知,未知,未知,未知,未知,未知,未知,未知
3,002432,-30312590.45,-29559058.95000001,2014-09-30,三季度报告,-30117696.93,2014,9,未知,未知,未知,未知,未知,未知,未知,未知,未知,未知
4,002432,8392960.129999999,10197500.53,2014-12-31,年度报告,-81542530.41,2014,12,-0.0,False,未知,未知,未知,未知,未知,未知,未知,未知
5,002432,-16867877.16,-16867877.16,2015-03-31,一季度报告,-19496539.19,2015,3,-32.037360654783896,False,未知,未知,未知,未知,未知,未知,-27966667.000000004,未知
6,002432,-39960327.47,-39960327.47,2015-06-30,半年度报告,-35429176.86,2015,6,0.1856563627442248,False,未知,未知,未知,未知,未知,未知,-74000000.0,未知
7,002432,-66419138.74,-66419138.74,2015-09-30,三季度报告,-68597587.26,2015,9,-0.6911494128011748,False,未知,未知,未知,未知,未知,未知,未知,未知
8,002432,-150761293.66000003,-150761293.66000003,2015-12-31,年度报告,-154908466.81999996,2015,12,-2.1154659637350144,False,未知,未知,未知,未知,未知,未知,17000000.0,未知
9,002432,-14406786.7,-14406786.7,2016-03-31,一季度报告,-18214050.28,2016,3,-0.4449769066257535,False,未知,未知,未知,未知,未知,未知,未知,未知
10,002432,-43660069.08000001,-43660069.08000001,2016-06-30,半年度报告,-48244163.90000001,2016,6,-0.7657161001238412,False,未知,未知,未知,未知,未知,未知,未知,未知
11,002432,-98545325.11,-98545325.11,2016-09-30,三季度报告,-104282234.78,2016,9,-0.8590457278187826,False,未知,未知,未知,未知,未知,未知,未知,未知
12,002432,14497917.750000002,14497917.750000002,2016-12-31,年度报告,-145669748.31000003,2016,12,-0.9379014259381886,False,-310.13631681181533,True,0.0,True,盈利变化,-147681720.82333338,,-147681720.82333338
13,002432,-15977512.45,-15977512.45,2017-03-31,一季度报告,-18266410.98,2017,3,-0.35016311722030286,False,-0.7392948335705828,True,0.08593750218339524,True,前期平均,-124595758.20999998,未知,-124595758.20999998
14,002432,-47887102.99,-47872688.72,2017-06-30,半年度报告,-47945566.01,2017,6,-0.7855692499513564,False,-0.8246271721293303,True,0.12501025379481034,False,前期平均,-144614942.43999997,未知,-144614942.43999997
15,002432,-87453070.51000002,-87432105.63,2017-09-30,三季度报告,-89045003.02000001,2017,9,-0.9049974075426742,False,-1.0374974361605331,True,0.20652875766743106,False,前期平均,-156299962.14999998,未知,-156299962.14999998
16,002432,-165871844.35000005,-165861214.15,2017-12-31,年度报告,-181994491.14,2017,12,-1.6457521363714451,False,-1.2036677313069057,True,0.0,True,盈利变化,2389670.1400000174,未知,2389670.1400000174
17,002432,-25199685.12,-25196502.54,2018-03-31,一季度报告,-26055162.599999994,2018,3,-0.41404762541743473,False,-0.021754383773575085,True,0.016719727481825,True,前期平均,-156630315.37,未知,-156630315.37
18,002432,-58565289.12000001,-45764629.28,2018-06-30,半年度报告,-54734170.85,2018,6,-0.804497228367416,False,-0.14534503460208706,True,0.05674056902193381,True,前期平均,-154217066.465,未知,-154217066.465
19,002432,-77995790.26,-60979189.80000001,2018-09-30,三季度报告,-79018365.96,2018,9,-0.8929475968607703,False,-0.060265568341069393,True,0.16655425177286798,False,前期平均,-124828386.345,未知,-124828386.345
20,002432,-2859246.19,12686755.29,2018-12-31,年度报告,-138626058.89999998,2018,12,-0.943558465894637,False,-1.4345770570010827,True,0.0,True,盈利变化,-151405070.07,未知,-151405070.07
21,002432,-39516282.83,-35317618.39,2019-03-31,一季度报告,-34985258.34,2019,3,-0.6284849864028778,False,-0.658730714544061,True,0.050167053760709096,True,前期平均,-180909507.485,未知,-180909507.485
22,002432,-56339404.3,-49722782.4,2019-06-30,半年度报告,-52058694.43000002,2019,6,-0.8401431718228664,False,-0.2794559961987474,True,0.06637717659542802,True,前期平均,-165460037.17000002,未知,-165460037.17000002
23,002432,-90985882.99,-79610574.07,2019-09-30,三季度报告,-81489450.93,2019,9,-0.8799670940086453,False,-0.16132835447303948,True,0.12415947663634264,False,前期平均,-146779074.89499998,未知,-146779074.89499998
24,002432,27059605.77,66449143.59999999,2019-12-31,年度报告,-241711616.43000007,2019,12,2.2743110379033156,False,-0.9622227386945514,True,0.0,True,前期平均,66449143.59999999,未知,66449143.59999999
25,002432,49571188.27,45956809.95,2020-03-31,一季度报告,46213011.12,2020,3,-0.7630834509339905,False,-0.9193284226214522,True,0.043985548669218916,True,盈利变化,174713502.88,未知,174713502.88
