,SECURITYCODE_x,NETPROFIT_x,PARENTNETPROFIT_x,REPORTDATE_x,REPORTTIMETYPE_x,KCFJCXSYJLR,Year,Month,managesituationChangeRate,managesituationGreatChange,historyprofitextroplaterate,ifhistoryprofitextroplate,IfprofitdisStableChangeRage,IfprofitdisStable,predicttype,predict,analyst_prediction,adj_prediction
0,002448,162841482.47000003,162404590.44,2013-12-31,年度报告,151814830.93,2013,12,未知,未知,未知,未知,未知,未知,未知,未知,未知,未知
1,002448,45994578.08,45981469.63,2014-03-31,一季度报告,44226881.33000001,2014,3,未知,未知,未知,未知,未知,未知,未知,未知,未知,未知
2,002448,94171122.29,94100324.57,2014-06-30,半年度报告,90617313.91,2014,6,未知,未知,未知,未知,未知,未知,未知,未知,未知,未知
3,002448,145980624.85999998,145887148.14000002,2014-09-30,三季度报告,140837839.57,2014,9,未知,未知,未知,未知,未知,未知,未知,未知,未知,未知
4,002448,180979617.01,181199620.06000003,2014-12-31,年度报告,157874247.05,2014,12,0.0,True,未知,未知,未知,未知,未知,未知,未知,未知
5,002448,51230251.94,51403347.52999999,2015-03-31,一季度报告,46207581.6,2015,3,2.540449532698486,False,未知,未知,未知,未知,未知,未知,225000000.0,未知
6,002448,100250580.61,100235068.04,2015-06-30,半年度报告,91704689.51,2015,6,0.7292082594973183,False,未知,未知,未知,未知,未知,未知,203130000.0,未知
7,002448,155009102.82999998,154933972.32999998,2015-09-30,三季度报告,139331030.28999996,2015,9,0.11550065377628119,True,未知,未知,未知,未知,未知,未知,207260000.0,未知
8,002448,193032909.45,193016413.64,2015-12-31,年度报告,175267037.96,2015,12,-0.1002219743839868,True,未知,未知,未知,未知,未知,未知,220000000.0,未知
9,002448,55947754.81,56113758.56999999,2016-03-31,一季度报告,50325083.66,2016,3,2.178619591032213,False,未知,未知,未知,未知,未知,未知,213087500.0,未知
10,002448,105572409.7,105966472.28000005,2016-06-30,半年度报告,91510364.81,2016,6,0.6243445322625552,False,未知,未知,未知,未知,未知,未知,214070000.0,未知
11,002448,164644780.99,164822884.34,2016-09-30,三季度报告,148809980.29999998,2016,9,0.050528514113070466,True,未知,未知,未知,未知,未知,未知,214783332.99999997,未知
12,002448,213885102.16000003,214547476.1,2016-12-31,年度报告,192230684.13,2016,12,-0.15640559460054265,True,0.12286831577204389,True,0.0,True,比例外推,214547476.1,214253332.99999997,214547476.1
13,002448,60652805.69999999,59946323.03000001,2017-03-31,一季度报告,56385664.21999999,2017,3,1.910599058407506,False,0.15089437129365124,True,0.011614525313914381,True,前期平均,181299734.07000002,261750000.0,261750000.0
14,002448,132878195.67000002,131947936.92999996,2017-06-30,半年度报告,120766725.41,2017,6,0.5424624950092432,False,0.086014659117565,True,0.04956512256516399,True,前期平均,207357577.72499996,295000000.0,295000000.0
15,002448,211364113.0,210700182.85,2017-09-30,三季度报告,194489891.78,2017,9,-0.010952661293949593,True,0.09402259175817153,True,0.07169711806179702,True,比例外推,253279861.7673209,284975000.0,284975000.0
16,002448,277854195.5,279229708.28,2017-12-31,年度报告,258620750.67000008,2017,12,-0.23864971975381452,True,0.14373229252189063,True,0.0,True,比例外推,279229708.28,269643556.0,279229708.28
17,002448,49579578.09,49570417.05,2018-03-31,一季度报告,45217541.10999999,2018,3,1.684813679938306,False,0.1318143999725016,True,0.02979575353080749,True,前期平均,185052945.46499997,317000000.0,317000000.0
18,002448,128852934.89,129482265.09,2018-06-30,半年度报告,116708791.18,2018,6,0.22549438340066835,True,0.2911890500654539,True,0.034482562153190455,True,比例外推,251565879.53921416,308000000.0,308000000.0
19,002448,194776635.38,196446929.29,2018-09-30,三季度报告,191347945.42000005,2018,9,-0.22956891707534086,True,0.3224560920337264,True,0.0216771119366721,True,比例外推,252412966.72388938,278500000.0,252412966.72388938
20,002448,279907529.40000004,281382657.29,2018-12-31,年度报告,245984267.35,2018,12,-0.4139318926713848,True,0.3656519867510909,True,0.0,True,比例外推,281382657.29,352500000.0,352500000.0
21,002448,47696829.74000001,49171651.9,2019-03-31,一季度报告,42964250.77,2019,3,2.2844467166380444,False,0.1495825084691952,True,0.040581040730868906,True,前期平均,221241995.36000004,262000000.0,262000000.0
22,002448,92110821.86,94107347.42000002,2019-06-30,半年度报告,73535313.8,2019,6,0.2637778301985561,True,0.08075158534457025,True,0.005523908789868359,True,比例外推,176206125.10963,170000000.0,176206125.10963
23,002448,121356857.98000002,124150741.19,2019-09-30,三季度报告,90154191.57,2019,9,-0.1639578219825802,True,0.036021426584553595,True,0.015984668668002078,True,比例外推,151382974.6039003,170000000.0,170000000.0
24,002448,84533216.08999999,88118426.19,2019-12-31,年度报告,91585009.48999998,2019,12,-0.41823114648233534,True,0.13843872447035788,True,0.0,True,比例外推,88118426.19,170000000.0,170000000.0
25,002448,37157505.78,39435302.88999999,2020-03-31,一季度报告,30316226.92,2020,3,2.4140944661870516,False,0.13461311276973495,True,0.17879673549593,False,前期平均,240936209.23500004,165000000.0,165000000.0
