,SECURITYCODE_x,NETPROFIT_x,PARENTNETPROFIT_x,REPORTDATE_x,REPORTTIMETYPE_x,KCFJCXSYJLR,Year,Month,managesituationChangeRate,managesituationGreatChange,historyprofitextroplaterate,ifhistoryprofitextroplate,IfprofitdisStableChangeRage,IfprofitdisStable,predicttype,predict,analyst_prediction,adj_prediction
0,002456,571335455.78,571335455.78,2013-12-31,年度报告,517833503.94,2013,12,未知,未知,未知,未知,未知,未知,未知,未知,未知,未知
1,002456,146246941.42000002,146246941.42000002,2014-03-31,一季度报告,118528135.58000004,2014,3,未知,未知,未知,未知,未知,未知,未知,未知,未知,未知
2,002456,315154052.46000004,315154052.46000004,2014-06-30,半年度报告,265986488.75000003,2014,6,未知,未知,未知,未知,未知,未知,未知,未知,未知,未知
3,002456,524130140.60000014,524130140.60000014,2014-09-30,三季度报告,453349634.1199999,2014,9,未知,未知,未知,未知,未知,未知,未知,未知,未知,未知
4,002456,721740562.4,721740562.4,2014-12-31,年度报告,594011698.96,2014,12,0.0,True,未知,未知,未知,未知,未知,未知,未知,未知
5,002456,96258197.23,96258197.23,2015-03-31,一季度报告,83322737.28000002,2015,3,2.906648920193191,False,未知,未知,未知,未知,未知,未知,953647143.0000001,未知
6,002456,282379477.33,282379477.33,2015-06-30,半年度报告,207543145.77000004,2015,6,0.8128767544644376,False,未知,未知,未知,未知,未知,未知,821772000.0,未知
7,002456,353511597.1,353511597.1,2015-09-30,三季度报告,268577390.08000004,2015,9,0.09006411103540306,True,未知,未知,未知,未知,未知,未知,590592020.0,未知
8,002456,478450610.4199999,478450610.4199999,2015-12-31,年度报告,399393136.67,2015,12,-0.20839220414584808,True,未知,未知,未知,未知,未知,未知,590078874.0,未知
9,002456,125221830.96,124685833.66,2016-03-31,一季度报告,75191720.24000001,2016,3,4.935447288866704,False,未知,未知,未知,未知,未知,未知,903752222.0,未知
10,002456,367669170.9,367573848.7799999,2016-06-30,半年度报告,310162408.31000006,2016,6,1.0232895859932287,False,未知,未知,未知,未知,未知,未知,875620816.0,未知
11,002456,565284246.24,566756218.08,2016-09-30,三季度报告,501763118.12,2016,9,0.6161717478772917,False,未知,未知,未知,未知,未知,未知,861044266.0000001,未知
12,002456,716936763.96,718825886.71,2016-12-31,年度报告,594192705.36,2016,12,0.1941367475285749,True,0.25998069147795727,True,0.0,True,比例外推,718825886.71,856865191.0,856865191.0
13,002456,190557033.38,190558863.98999995,2017-03-31,一季度报告,148383402.17999998,2017,3,3.5625866624047644,False,0.032735484757943085,True,0.051691025153002446,True,前期平均,586335845.375,1425292308.0,1425292308.0
14,002456,620055587.0199999,620059512.7600001,2017-06-30,半年度报告,412421225.53,2017,6,0.553938978297949,False,0.23062272682577456,True,0.04869202596560973,True,前期平均,879997113.315,1503534706.0,1503534706.0
15,002456,1020756166.77,1021887426.24,2017-09-30,三季度报告,790444388.23,2017,9,0.010704719935589411,True,0.28818906840373687,True,0.08757250733481392,True,比例外推,1271451883.8025064,1495851429.0,1495851429.0
16,002456,820872331.1200002,822521428.6700001,2017-12-31,年度报告,687779678.44,2017,12,-0.20308807624227732,True,0.19470427744517907,True,0.0,True,比例外推,822521428.6700001,1479397333.0,1479397333.0
17,002456,295132969.21,295383687.01000005,2018-03-31,一季度报告,299112111.85999995,2018,3,1.9982386146863933,False,0.7207604219422237,True,0.05709244253540638,True,前期平均,712919379.2650001,2035222353.0,2035222353.0
18,002456,742422561.9600003,743623053.5399997,2018-06-30,半年度报告,684851637.93,2018,6,-0.07857381218698449,True,0.9077205643249395,True,0.052549040248391465,True,比例外推,1310573827.6315713,2010887083.0,2010887083.0
19,002456,-530038371.39,-519008316.35,2018-12-31,年度报告,-870858434.9599999,2018,12,-0.3039898725780312,True,0.37339970073843926,True,0.0,True,比例外推,-519008316.35,1953062143.0,1953062143.0
20,002456,-259610352.31,-256566591.07,2019-03-31,一季度报告,-254285980.37,2019,3,0.9358577840670518,False,0.8692382710720594,True,0.3430744058872909,False,盈利变化,-1256872439.3233333,1618800000.0,1618800000.0
21,002456,36508776.61,21001586.48,2019-06-30,半年度报告,628953.89,2019,6,-0.23044437891048092,True,0.5032984766392428,True,0.8981502480312603,False,平均增速,62557946.215900466,876493333.0,876493333.0
22,002456,184299618.63000005,180549723.61,2019-09-30,三季度报告,152351853.23999998,2019,9,未知,未知,未知,未知,未知,未知,未知,未知,494302000.0,未知
23,002456,516009133.38,509851902.3399999,2019-12-31,年度报告,321127912.77,2019,12,-2.0779133863114487,False,1.689342224708882,True,0.0,True,前期平均,509851902.3399999,478096667.0,509851902.3399999
24,002456,143227730.42000002,140828088.88000005,2020-03-31,一季度报告,119282196.2,2020,3,-3.200742191889828,False,2.0690372497914176,False,0.5222686742533282,False,前期平均,-174459046.39999986,1459536667.0,1459536667.0
