,SECURITYCODE_x,NETPROFIT_x,PARENTNETPROFIT_x,REPORTDATE_x,REPORTTIMETYPE_x,KCFJCXSYJLR,Year,Month,managesituationChangeRate,managesituationGreatChange,historyprofitextroplaterate,ifhistoryprofitextroplate,IfprofitdisStableChangeRage,IfprofitdisStable,predicttype,predict,analyst_prediction,adj_prediction
0,002422,1091499045.0000002,1079521586.0,2013-12-31,年度报告,1084550265.9999998,2013,12,未知,未知,未知,未知,未知,未知,未知,未知,未知,未知
1,002422,228991881.0,227925878.00000003,2014-03-31,一季度报告,214690729.0,2014,3,未知,未知,未知,未知,未知,未知,未知,未知,未知,未知
2,002422,541410987.0,536876748.0,2014-06-30,半年度报告,509111794.0,2014,6,未知,未知,未知,未知,未知,未知,未知,未知,未知,未知
3,002422,832704414.0,825747070.0,2014-09-30,三季度报告,775239176.0,2014,9,未知,未知,未知,未知,未知,未知,未知,未知,未知,未知
4,002422,984682168.0,1001902612.9999998,2014-12-31,年度报告,918477595.0,2014,12,0.0,True,未知,未知,未知,未知,未知,未知,未知,未知
5,002422,203199297.0,205906729.0,2015-03-31,一季度报告,193191271.0000001,2015,3,3.7665403691757975,False,未知,未知,未知,未知,未知,未知,1249361429.0,未知
6,002422,405198654.0,409252174.0000001,2015-06-30,半年度报告,370498990.0,2015,6,1.0160267730215091,False,未知,未知,未知,未知,未知,未知,968520000.0,未知
7,002422,494959091.0,550605134.0,2015-09-30,三季度报告,517727881.0,2015,9,0.310788109981125,True,未知,未知,未知,未知,未知,未知,833000000.0,未知
8,002422,541889386.0,645271323.0,2015-12-31,年度报告,627300960.9999999,2015,12,0.10847853294323112,True,未知,未知,未知,未知,未知,未知,1267836000.0,未知
9,002422,216916064.0,208211808.0,2016-03-31,一季度报告,190805113.0,2016,3,4.371569002032523,False,未知,未知,未知,未知,未知,未知,829000000.0,未知
10,002422,410312145.0,386066543.00000006,2016-06-30,半年度报告,353435420.00000006,2016,6,1.6937380818644088,False,未知,未知,未知,未知,未知,未知,705000000.0,未知
11,002422,574811534.0000001,537481308.9999999,2016-09-30,三季度报告,479083965.00000006,2016,9,1.205230825834049,False,未知,未知,未知,未知,未知,未知,690472000.0,未知
12,002422,624324806.0,584638829.0,2016-12-31,年度报告,537571814.0,2016,12,1.0142469537131702,False,0.47799413403130536,True,0.0,True,前期平均,584638829.0,,584638829.0
13,002422,224461322.0,192648351.0,2017-03-31,一季度报告,181843824.0,2017,3,4.031895862724119,False,0.003796815121478486,True,0.06513949311476094,True,前期平均,761596628.9999999,715073333.0,761596628.9999999
14,002422,300665511.0,256150187.0,2017-06-30,半年度报告,264685696.0,2017,6,1.6601675292843214,False,0.1330911344478901,True,0.05666974730674512,True,前期平均,589234073.0,665057500.0,665057500.0
15,002422,441246755.00000006,386469325.0000001,2017-09-30,三季度报告,402756369.00000006,2017,9,0.8988815993382624,False,0.1341005731719648,True,0.03767524274544842,True,前期平均,512875074.50000006,739106667.0,739106667.0
16,002422,811082647.0000001,748544187.0,2017-12-31,年度报告,139305259.0,2017,12,0.7482871648063272,False,0.18205628244006963,True,0.0,True,前期平均,748544187.0,750290000.0,748544187.0
17,002422,414731376.9999999,383198652.9999999,2018-03-31,一季度报告,323972382.0,2018,3,3.8627488926577747,False,0.06856993500887486,True,0.6492711366868653,False,前期平均,773636848.4999998,1233668889.0,1233668889.0
18,002422,813486702.0000001,774021351.0,2018-06-30,半年度报告,719748253.0,2018,6,2.630276852738192,False,0.26263266809297026,True,0.8506638278970975,False,前期平均,994490533.4999999,1274105000.0,1274105000.0
19,002422,1072611747.0,1023378524.9999998,2018-09-30,三季度报告,949106711.0,2018,9,1.473670418267439,False,0.1750628692015169,True,1.3552769716771749,False,前期平均,1107408989.4999995,1250472500.0,1250472500.0
20,002422,1267484044.0000005,1212944249.0,2018-12-31,年度报告,1112990088.9999998,2018,12,0.34573097949659387,True,0.39096686108584094,True,0.0,True,比例外推,1212944249.0,1239972500.0,1212944249.0
21,002422,361764447.0,335687672.0,2019-03-31,一季度报告,317356926.0,2019,3,1.6318217176994558,False,0.8792597453101046,True,0.6549009110143206,False,前期平均,487801740.0,1578796429.0,1578796429.0
22,002422,772693124.0,728264368.0000001,2019-06-30,半年度报告,643784918.9999999,2019,6,0.3417540106267159,True,1.2883608089084593,True,0.8319785410039593,False,平均增速,1715068562.9724705,1405285789.0,1405285789.0
23,002422,976867170.0,914270190.9999998,2019-09-30,三季度报告,809878260.9999999,2019,9,0.017608699562377848,True,1.1113193182167913,True,1.3461343635910816,False,平均增速,1322148325.8262277,1237996364.0,1322148325.8262277
24,002422,1021541280.9999998,937855128.0,2019-12-31,年度报告,789648162.0,2019,12,-0.13884592854093566,True,0.7660268397672872,True,0.0,True,比例外推,937855128.0,1573385000.0,1573385000.0
25,002422,31107324.000000004,21889227.000000004,2020-03-31,一季度报告,-16563691.000000002,2020,3,2.017153990812149,False,0.13194173702537884,True,0.6392483163200009,False,前期平均,395128797.9999999,948667778.0,948667778.0
