,SECURITYCODE_x,NETPROFIT_x,PARENTNETPROFIT_x,REPORTDATE_x,REPORTTIMETYPE_x,KCFJCXSYJLR,Year,Month,managesituationChangeRate,managesituationGreatChange,historyprofitextroplaterate,ifhistoryprofitextroplate,IfprofitdisStableChangeRage,IfprofitdisStable,predicttype,predict,analyst_prediction,adj_prediction
0,002431,422107077.05,398757939.88,2013-12-31,年度报告,378623904.38000005,2013,12,未知,未知,未知,未知,未知,未知,未知,未知,未知,未知
1,002431,5077371.660000001,1839491.22,2014-03-31,一季度报告,1485505.52,2014,3,未知,未知,未知,未知,未知,未知,未知,未知,未知,未知
2,002431,165733351.55,156158205.23999998,2014-06-30,半年度报告,147899133.90000004,2014,6,未知,未知,未知,未知,未知,未知,未知,未知,未知,未知
3,002431,256687427.1900001,241027567.7,2014-09-30,三季度报告,232323572.23000005,2014,9,未知,未知,未知,未知,未知,未知,未知,未知,未知,未知
4,002431,448195266.15,428134264.02,2014-12-31,年度报告,417759164.6,2014,12,0.0,True,未知,未知,未知,未知,未知,未知,未知,未知
5,002431,-30687097.91,-36900200.38999999,2015-03-31,一季度报告,-36641638.60999999,2015,3,82.13495747719203,False,未知,未知,未知,未知,未知,未知,477562221.99999994,未知
6,002431,138585881.7,128033227.35,2015-06-30,半年度报告,125209193.25,2015,6,1.5469048510894003,False,未知,未知,未知,未知,未知,未知,489500000.0,未知
7,002431,51452852.92,38048214.23,2015-09-30,三季度报告,35425084.4,2015,9,0.6444400166805064,False,未知,未知,未知,未知,未知,未知,94250000.0,未知
8,002431,-202827465.16,-211460990.35,2015-12-31,年度报告,45532645.13999999,2015,12,-0.05820719465445868,True,未知,未知,未知,未知,未知,未知,123800000.0,未知
9,002431,-81836374.13000001,-78060128.60999998,2016-03-31,一季度报告,-80986694.89999999,2016,3,-14.755196998033759,False,未知,未知,未知,未知,未知,未知,285250000.0,未知
10,002431,45373753.64,52392490.32,2016-06-30,半年度报告,48426354.56,2016,6,2.0458158643009887,False,未知,未知,未知,未知,未知,未知,224400000.0,未知
11,002431,82669182.52,84903865.10000001,2016-09-30,三季度报告,60874707.45,2016,9,7.203764283125391,False,未知,未知,未知,未知,未知,未知,182025000.0,未知
12,002431,126332283.09,120826085.04,2016-12-31,年度报告,3167530.39,2016,12,-3.081113998624505,False,1.4661080525515469,True,0.0,True,前期平均,120826085.04,269200000.0,269200000.0
13,002431,-56623829.70999999,-53598721.01,2017-03-31,一季度报告,-56203242.49,2017,3,-6.157939626937378,False,-5.3910385711366215,True,16.778122193841533,False,前期平均,195625250.40500003,509479367.0,509479367.0
14,002431,91992002.91,84305998.21000001,2017-06-30,半年度报告,79546059.73,2017,6,8.302890838590097,False,0.701801603826169,True,9.1576063341783,False,前期平均,179397739.505,493558000.0,493558000.0
15,002431,186467230.46000004,180112915.75,2017-09-30,三季度报告,172758286.07,2017,9,4.105978602702168,False,0.46343150924320115,True,12.367522116806459,False,前期平均,277884492.305,411864000.0,411864000.0
16,002431,317961699.36,304273550.42,2017-12-31,年度报告,271836479.75000006,2017,12,2.3412447454091208,False,0.02973807141996357,True,0.0,True,前期平均,304273550.42,317864000.0,304273550.42
17,002431,51666174.68000002,5167291.459999999,2018-03-31,一季度报告,5669754.72,2018,3,-8.454583683439099,False,-0.006435878371603617,True,16.708018942691922,False,盈利变化,386770880.03333336,554158571.0,554158571.0
18,002431,147935716.92999998,107247306.0,2018-06-30,半年度报告,102500770.89,2018,6,3.58851925925525,False,0.00013247732283757133,True,9.178074663849223,False,前期平均,44779619.86,418000000.0,418000000.0
19,002431,38705431.59,14924877.48,2018-09-30,三季度报告,8904638.42,2018,9,1.2637064754417973,False,1.7805607012789015,True,12.34105398814561,False,前期平均,-8874930.680000003,,-8874930.680000003
20,002431,50723376.28999999,50199328.31000001,2018-12-31,年度报告,-288393384.14,2018,12,0.32754063744037726,True,-9.313247730269767,True,0.0,True,比例外推,50199328.31000001,556500000.0,556500000.0
21,002431,-172276705.86,-165725939.49,2019-03-31,一季度报告,-163187030.44,2019,3,7.169892190865016,False,-1.7462963833233083,True,16.96971013183972,False,盈利变化,-174943051.90333334,未知,-174943051.90333334
22,002431,-203400675.47,-189677100.09,2019-06-30,半年度报告,-214024878.6800001,2019,6,1.8533141678674667,False,1.1538951285308516,True,10.213173800968796,False,盈利变化,-160817771.4033334,未知,-160817771.4033334
23,002431,-205062935.37,-185029780.33,2019-09-30,三季度报告,-235908445.97,2019,9,9.90562899598454,False,0.7123731333011689,True,12.610684583164375,False,盈利变化,-58606486.97444443,未知,-58606486.97444443
24,002431,-1054090256.4499998,-981450344.87,2019-12-31,年度报告,-1085582800.8,2019,12,7.321746459397607,False,0.7716675071298842,True,0.0,True,盈利变化,-215530477.2433333,未知,-215530477.2433333
25,002431,-239227256.14,-225253581.89,2020-03-31,一季度报告,-223123718.28,2020,3,-3.450169191144296,False,-68.49927125526563,True,0.18138999375877793,False,前期平均,-208265290.19999996,未知,-208265290.19999996
