,SECURITYCODE_x,NETPROFIT_x,PARENTNETPROFIT_x,REPORTDATE_x,REPORTTIMETYPE_x,KCFJCXSYJLR,Year,Month,managesituationChangeRate,managesituationGreatChange,historyprofitextroplaterate,ifhistoryprofitextroplate,IfprofitdisStableChangeRage,IfprofitdisStable,predicttype,predict,analyst_prediction,adj_prediction
0,002449,103382980.28,112977176.43,2013-12-31,年度报告,89608018.77999999,2013,12,未知,未知,未知,未知,未知,未知,未知,未知,未知,未知
1,002449,20819827.470000006,24860631.23,2014-03-31,一季度报告,19277669.55,2014,3,未知,未知,未知,未知,未知,未知,未知,未知,未知,未知
2,002449,56892492.40999999,64449521.31000002,2014-06-30,半年度报告,54703322.28999999,2014,6,未知,未知,未知,未知,未知,未知,未知,未知,未知,未知
3,002449,90700176.82,100444025.71,2014-09-30,三季度报告,87076018.03999999,2014,9,未知,未知,未知,未知,未知,未知,未知,未知,未知,未知
4,002449,133974160.17,144759557.02999997,2014-12-31,年度报告,115872444.39000002,2014,12,0.0,True,未知,未知,未知,未知,未知,未知,未知,未知
5,002449,34729007.120000005,34537759.35,2015-03-31,一季度报告,30009401.41,2015,3,3.9656021611595027,False,未知,未知,未知,未知,未知,未知,213126667.00000003,未知
6,002449,84504624.00999999,83565716.99999999,2015-06-30,半年度报告,74043558.81,2015,6,0.8171638453622816,False,未知,未知,未知,未知,未知,未知,198560000.0,未知
7,002449,122807371.23,122803365.26,2015-09-30,三季度报告,108104380.07,2015,9,0.1398321800978382,True,未知,未知,未知,未知,未知,未知,,未知
8,002449,154121292.84000003,160242488.85999995,2015-12-31,年度报告,131486458.35000002,2015,12,-0.22833641838980598,True,未知,未知,未知,未知,未知,未知,189000000.0,未知
9,002449,35193918.85,37427146.19,2016-03-31,一季度报告,34640247.63999999,2016,3,1.9768481408863263,False,未知,未知,未知,未知,未知,未知,191730000.0,未知
10,002449,88489237.65999998,94621949.58,2016-06-30,半年度报告,75729625.58,2016,6,0.22340027532417647,True,未知,未知,未知,未知,未知,未知,206920000.0,未知
11,002449,116206933.92,130897846.44999996,2016-09-30,三季度报告,117328166.44,2016,9,-0.15816958506196666,True,未知,未知,未知,未知,未知,未知,195740000.0,未知
12,002449,175500047.73000002,192320200.9,2016-12-31,年度报告,168273945.79,2016,12,-0.3292102708525399,True,0.2986446714668452,True,0.0,True,比例外推,192320200.9,203330000.0,192320200.9
13,002449,49362012.19000001,51757601.33,2017-03-31,一季度报告,47998124.22000001,2017,3,1.9375239717017192,False,0.26713437319657707,True,0.03378288483685593,True,前期平均,150793517.22000003,289622500.0,289622500.0
14,002449,148811832.95,153703179.93999997,2017-06-30,半年度报告,136273307.29999998,2017,6,0.16831134512906396,True,0.2516413332950201,True,0.06803884233980556,True,比例外推,292680529.98264897,332294000.0,332294000.0
15,002449,247284182.45,258407090.73,2017-09-30,三季度报告,236080628.25,2017,9,-0.11035446171248574,True,0.08855106043170163,True,0.06520524921640158,True,比例外推,334203933.3882259,356704000.0,334203933.3882259
16,002449,346645556.16,359133943.32,2017-12-31,年度报告,322273369.35,2017,12,-0.4109233494964589,True,0.21834652991838963,True,0.0,True,比例外推,359133943.32,356704000.0,359133943.32
17,002449,79305012.16,80390036.13,2018-03-31,一季度报告,66408508.96999998,2018,3,1.094383427524533,False,0.41189778617612427,True,0.04540534794145737,True,前期平均,197945413.675,491126667.0,491126667.0
18,002449,222254717.28,225152397.15,2018-06-30,半年度报告,202195323.8,2018,6,-0.305277152827382,True,0.7204290546894758,True,0.08445532660496391,True,比例外推,445366391.6940533,491778333.0,445366391.6940533
19,002449,374668741.25999993,383475199.72,2018-09-30,三季度报告,335760369.04,2018,9,-0.5819264327555456,True,1.0691998522415636,True,0.0715165594160233,True,比例外推,495004900.0167708,494136000.0,495004900.0167708
20,002449,434736626.37,446544226.49000007,2018-12-31,年度报告,390409628.3299999,2018,12,-0.7017617031493637,True,1.1032955909988154,True,0.0,True,比例外推,446544226.49000007,477500000.0,446544226.49000007
21,002449,104318605.45,105927112.65999998,2019-03-31,一季度报告,95990023.1,2019,3,0.30361218621872293,True,0.8758001049620984,True,0.03089230909499699,True,比例外推,558564475.0236875,581160000.0,558564475.0236875
22,002449,194013063.89,197257936.68,2019-06-30,半年度报告,173836356.92,2019,6,-0.534844607371116,True,0.8731876489952431,True,0.05430779245768641,True,比例外推,398393943.1788027,541233333.0,541233333.0
23,002449,308374351.9,312956465.64999986,2019-09-30,三季度报告,282235453.31,2019,9,-0.7240683064930207,True,1.0615015024390426,True,0.09674956752443109,True,比例外推,400491903.0301428,441700000.0,400491903.0301428
24,002449,393682053.42,407804642.18,2019-12-31,年度报告,362486526.39000016,2019,12,-0.7621939951477386,True,0.6651930922378716,True,0.0,True,比例外推,407804642.18,448330000.0,407804642.18
25,002449,38589768.07000001,40826770.98999999,2020-03-31,一季度报告,23572009.01,2020,3,-0.008968919455585013,True,0.6215282194796479,True,0.07019473006185836,True,比例外推,138375886.55901414,486917143.0,486917143.0
