,SECURITYCODE_x,NETPROFIT_x,PARENTNETPROFIT_x,REPORTDATE_x,REPORTTIMETYPE_x,KCFJCXSYJLR,Year,Month,managesituationChangeRate,managesituationGreatChange,historyprofitextroplaterate,ifhistoryprofitextroplate,IfprofitdisStableChangeRage,IfprofitdisStable,predicttype,predict,analyst_prediction,adj_prediction
0,002417,-139794493.10000002,-132024989.32,2013-12-31,年度报告,-135039713.31,2013,12,未知,未知,未知,未知,未知,未知,未知,未知,未知,未知
1,002417,-37049461.08,-36449280.54,2014-03-31,一季度报告,-37062672.81,2014,3,未知,未知,未知,未知,未知,未知,未知,未知,未知,未知
2,002417,-46451409.96999999,-47432478.82,2014-06-30,半年度报告,-48874490.78999999,2014,6,未知,未知,未知,未知,未知,未知,未知,未知,未知,未知
3,002417,-95335527.33,-95601980.88,2014-09-30,三季度报告,-111752143.55000004,2014,9,未知,未知,未知,未知,未知,未知,未知,未知,未知,未知
4,002417,-331727349.90000004,-326480748.67999995,2014-12-31,年度报告,-335395755.58000004,2014,12,-0.0,False,未知,未知,未知,未知,未知,未知,未知,未知
5,002417,-44411632.47000001,-44150577.72,2015-03-31,一季度报告,-44482456.79,2015,3,2.7731856017593666,False,未知,未知,未知,未知,未知,未知,未知,未知
6,002417,-65902087.13000001,-65513301.91,2015-06-30,半年度报告,-66486488.16000001,2015,6,2.0094779295243,False,未知,未知,未知,未知,未知,未知,未知,未知
7,002417,16766353.039999995,17235621.869999994,2015-09-30,三季度报告,-83964686.13000001,2015,9,0.4663420554239675,False,未知,未知,未知,未知,未知,未知,未知,未知
8,002417,28836339.22,29376743.70000001,2015-12-31,年度报告,-113270278.16,2015,12,-0.5785861698104139,False,未知,未知,未知,未知,未知,未知,13500000.0,未知
9,002417,-28891410.93,-28650992.66,2016-03-31,一季度报告,-29457964.29,2016,3,2.1476999453787466,False,未知,未知,未知,未知,未知,未知,81220000.0,未知
10,002417,-59052552.66,-58667951.15,2016-06-30,半年度报告,-60060388.77,2016,6,1.1212453078191305,False,未知,未知,未知,未知,未知,未知,,未知
11,002417,-73501020.48999998,-72748289.38,2016-09-30,三季度报告,-74422510.50000001,2016,9,-9.337799685267754,False,未知,未知,未知,未知,未知,未知,未知,未知
12,002417,-106347872.31,-105435800.75000004,2016-12-31,年度报告,-110986268.77,2016,12,-5.847858531329901,False,-1.1223117853312259,True,0.0,True,盈利变化,30138080.163333345,,30138080.163333345
13,002417,4102360.16,4150614.3500000006,2017-03-31,一季度报告,-26162735.10999999,2017,3,3.8386177275558904,False,-0.29066970081203886,True,0.14570735320851758,False,盈利变化,-101042161.84333336,未知,-101042161.84333336
14,002417,16419603.72,16545164.82,2017-06-30,半年度报告,-38808557.57000001,2017,6,1.36728958873088,False,-0.05119207117229998,True,0.2788932928890451,False,盈利变化,-91267913.28333338,未知,-91267913.28333338
15,002417,8589745.9,8740431.84,2017-09-30,三季度报告,-46612313.84,2017,9,0.9019394855751622,False,-0.8709887472841856,True,0.24848119657409606,False,盈利变化,-93075713.3455556,未知,-93075713.3455556
16,002417,7514861.76,7671844.16,2017-12-31,年度报告,-56148058.38000001,2017,12,0.31450202118293813,False,-0.2977812575470919,True,0.0,True,盈利变化,-87156397.28666672,未知,-87156397.28666672
17,002417,-13572856.910000002,-13572856.910000002,2018-03-31,一季度报告,-5088150.569999998,2018,3,-35.076601675070876,False,-1.1119287813908145,True,0.10927690225621672,False,盈利变化,35771290.21333332,153310000.0,153310000.0
18,002417,-23816995.75,-23888173.58000001,2018-06-30,半年度报告,-23604615.33,2018,6,-9.513877404344568,False,-1.2628090281016369,True,0.08474716507020763,True,盈利变化,17807805.65333334,,17807805.65333334
19,002417,-30957113.59,-33967425.47,2018-09-30,三季度报告,-33277547.760000005,2018,9,-17.274578401673097,False,-1.3028041332072706,True,0.08283413774179416,True,盈利变化,13598406.86222222,未知,13598406.86222222
20,002417,-42222693.54,-49067835.55999999,2018-12-31,年度报告,-34841560.81,2018,12,-19.60240381853678,False,-1.1939030608844843,True,0.0,True,盈利变化,14774010.01666667,143170000.0,143170000.0
21,002417,2109131.1100000003,-975013.87,2019-03-31,一季度报告,-975976.13,2019,3,9.299562872205952,False,-0.09506870883705099,True,0.17348759359664812,False,前期平均,-56731827.74500001,未知,-56731827.74500001
22,002417,456011.3400000001,-6014666.1400000015,2019-06-30,半年度报告,-5742938.22,2019,6,4.869526726518395,False,-0.11730463607005653,True,0.09545464223748779,True,前期平均,-40147356.545,未知,-40147356.545
23,002417,10897968.6,454540.73,2019-09-30,三季度报告,-2040656.47,2019,9,3.515747008957498,False,-0.04617144600734272,True,0.14805551199871736,False,盈利变化,-35184772.764444426,未知,-35184772.764444426
24,002417,19117965.27,8374345.42,2019-12-31,年度报告,4890933.21,2019,12,2.310885246285025,False,-0.14557508053163315,True,0.0,True,盈利变化,-35823670.886666656,未知,-35823670.886666656
25,002417,8258086.36,6121613.28,2020-03-31,一季度报告,6122441.1099999985,2020,3,-67.28060836862817,False,-1.4454108724550272,True,0.3370308800636278,False,盈利变化,17838901.74,未知,17838901.74
