,SECURITYCODE_x,NETPROFIT_x,PARENTNETPROFIT_x,REPORTDATE_x,REPORTTIMETYPE_x,KCFJCXSYJLR,Year,Month,managesituationChangeRate,managesituationGreatChange,historyprofitextroplaterate,ifhistoryprofitextroplate,IfprofitdisStableChangeRage,IfprofitdisStable,predicttype,predict,analyst_prediction,adj_prediction
0,002481,113041882.57,113041882.57,2013-12-31,年度报告,103786297.91000004,2013,12,未知,未知,未知,未知,未知,未知,未知,未知,未知,未知
1,002481,28583636.2,28583636.2,2014-03-31,一季度报告,27856508.43,2014,3,未知,未知,未知,未知,未知,未知,未知,未知,未知,未知
2,002481,60752932.65,60752932.65,2014-06-30,半年度报告,57837850.35000001,2014,6,未知,未知,未知,未知,未知,未知,未知,未知,未知,未知
3,002481,111769169.08000004,111769169.08000004,2014-09-30,三季度报告,106878734.07999998,2014,9,未知,未知,未知,未知,未知,未知,未知,未知,未知,未知
4,002481,148789907.80000004,148789907.80000004,2014-12-31,年度报告,140455268.96,2014,12,0.0,True,未知,未知,未知,未知,未知,未知,未知,未知
5,002481,46000240.13000001,46000240.13000001,2015-03-31,一季度报告,44537327.61,2015,3,2.9547761446110203,False,未知,未知,未知,未知,未知,未知,278021296.0,未知
6,002481,108016966.88,108016966.88,2015-06-30,半年度报告,84838615.67,2015,6,0.8606819068511254,False,未知,未知,未知,未知,未知,未知,230193332.99999997,未知
7,002481,167432564.93,167432564.93,2015-09-30,三季度报告,136837720.5,2015,9,0.011386981763181857,True,未知,未知,未知,未知,未知,未知,228000000.0,未知
8,002481,185289350.78,190577211.6,2015-12-31,年度报告,153396557.68,2015,12,-0.24025840030798137,True,未知,未知,未知,未知,未知,未知,288493587.0,未知
9,002481,48649450.36,51205167.29,2016-03-31,一季度报告,49685010.81,2016,3,1.4574194015191104,False,未知,未知,未知,未知,未知,未知,267636699.99999997,未知
10,002481,61965914.85,65668005.76999999,2016-06-30,半年度报告,42272176.89999999,2016,6,0.046519688852051926,True,未知,未知,未知,未知,未知,未知,177620000.0,未知
11,002481,97595145.46,101743138.04,2016-09-30,三季度报告,67738534.69,2016,9,-0.3248512759912601,True,未知,未知,未知,未知,未知,未知,189000000.0,未知
12,002481,50505213.80999999,56925400.64000001,2016-12-31,年度报告,25033358.72000001,2016,12,-0.38991700227705883,True,0.41533119808075025,True,0.0,True,比例外推,56925400.64000001,144920000.0,144920000.0
13,002481,28715404.26,29143131.34,2017-03-31,一季度报告,26543033.8,2017,3,1.3236004052153487,False,0.30455676893885547,True,1.160277646744197,False,前期平均,139872126.64000002,262890000.0,262890000.0
14,002481,42811641.51,43403272.64000001,2017-06-30,半年度报告,25627632.12,2017,6,0.8242590760362185,False,0.2656757511550792,True,0.8041373426440785,False,前期平均,118990952.95000002,,118990952.95000002
15,002481,67220684.71,67812490.77,2017-09-30,三季度报告,31215545.8,2017,9,0.15827362147158175,True,0.3008987153603819,True,1.2529547914225976,False,平均增速,44570412.351889916,未知,44570412.351889916
16,002481,35804727.07,36899230.13,2017-12-31,年度报告,8725057.639999999,2017,12,1.2382220377338111,False,0.6976453191097717,True,0.0,True,前期平均,36899230.13,302445000.0,302445000.0
17,002481,58679979.95,58872113.9,2018-03-31,一季度报告,56500237.85999999,2018,3,2.9366286313254215,False,0.3932277197877607,True,1.482077092515534,False,前期平均,100975902.89000002,214150000.0,214150000.0
18,002481,67102720.29000001,67191793.85,2018-06-30,半年度报告,61859306.17000001,2018,6,1.6404472844984357,False,0.4962829071458877,True,1.2109296409131292,False,前期平均,92851355.76500002,,92851355.76500002
19,002481,49788536.34,50129200.96999998,2018-09-30,三季度报告,41339922.87,2018,9,0.6816532449450559,False,0.4927271219218414,True,1.4998386314753418,False,前期平均,37056031.57499999,未知,37056031.57499999
20,002481,91784282.36,91885821.91,2018-12-31,年度报告,79386497.15999998,2018,12,2.157177608112961,False,0.6963057470620044,True,0.0,True,前期平均,91885821.91,未知,91885821.91
21,002481,37040145.56,37169791.38999999,2019-03-31,一季度报告,35861884.35,2019,3,0.9264131082921405,False,0.5169673681473015,True,1.2011638814362602,False,前期平均,15934977.264999993,未知,15934977.264999993
22,002481,92796797.92999998,93126986.45,2019-06-30,半年度报告,90377921.0,2019,6,0.6846095371612837,False,0.28086057016724275,True,1.1355464065477665,False,前期平均,76056290.12,未知,76056290.12
23,002481,147028399.71000004,147531981.59000003,2019-09-30,三季度报告,142696625.83,2019,9,1.2704399622846994,False,0.39582822489022557,True,1.7473783619178815,False,前期平均,114934149.52500004,未知,114934149.52500004
24,002481,186857971.79,187044052.14,2019-12-31,年度报告,178974040.12,2019,12,0.23160392676626898,True,1.1268530930315708,True,0.0,True,比例外推,187044052.14,未知,187044052.14
25,002481,70478745.92,70615169.67999999,2020-03-31,一季度报告,74837251.76,2020,3,2.0518746851814473,False,0.1523546490510932,True,1.7240790465568652,False,前期平均,73149311.24999999,360760000.0,360760000.0
