,SECURITYCODE_x,NETPROFIT_x,PARENTNETPROFIT_x,REPORTDATE_x,REPORTTIMETYPE_x,KCFJCXSYJLR,Year,Month,managesituationChangeRate,managesituationGreatChange,historyprofitextroplaterate,ifhistoryprofitextroplate,IfprofitdisStableChangeRage,IfprofitdisStable,predicttype,predict,analyst_prediction,adj_prediction
0,002453,47250905.90000001,47025259.84999998,2013-12-31,年度报告,36958020.87000001,2013,12,未知,未知,未知,未知,未知,未知,未知,未知,未知,未知
1,002453,12980103.69,12890508.510000002,2014-03-31,一季度报告,12520193.51,2014,3,未知,未知,未知,未知,未知,未知,未知,未知,未知,未知
2,002453,29538052.43999999,29853487.95999999,2014-06-30,半年度报告,26884544.87,2014,6,未知,未知,未知,未知,未知,未知,未知,未知,未知,未知
3,002453,40182012.93,40398036.37,2014-09-30,三季度报告,37340811.63,2014,9,未知,未知,未知,未知,未知,未知,未知,未知,未知,未知
4,002453,35425304.04,36228495.76,2014-12-31,年度报告,27400793.550000004,2014,12,0.0,True,未知,未知,未知,未知,未知,未知,未知,未知
5,002453,10700669.94,10652232.470000004,2015-03-31,一季度报告,10102356.54,2015,3,2.640256428490828,False,未知,未知,未知,未知,未知,未知,70000000.0,未知
6,002453,28020576.83,27373946.22000001,2015-06-30,半年度报告,26249197.08000001,2015,6,0.5996621983111365,False,未知,未知,未知,未知,未知,未知,,未知
7,002453,25792667.58000001,25468623.070000004,2015-09-30,三季度报告,19059361.46,2015,9,0.17592182308821963,True,未知,未知,未知,未知,未知,未知,未知,未知
8,002453,27151915.72,25286111.79000001,2015-12-31,年度报告,13169599.609999998,2015,12,0.3338179355256146,True,未知,未知,未知,未知,未知,未知,34278000.0,未知
9,002453,5180049.049999999,5676548.46,2016-03-31,一季度报告,5590135.44,2016,3,3.415696041924644,False,未知,未知,未知,未知,未知,未知,34000000.0,未知
10,002453,9365041.14,12620288.480000002,2016-06-30,半年度报告,12759583.78,2016,6,0.6862931190414047,False,未知,未知,未知,未知,未知,未知,,未知
11,002453,-329022444.0,-307246277.32,2016-12-31,年度报告,-289000200.78000003,2016,12,0.7402420656895002,False,0.343174638999423,True,0.0,True,未知,未知,68556000.0,未知
12,002453,-8316203.6,-7343815.59,2017-03-31,一季度报告,-8365401.94,2017,3,8.121710131296927,False,0.5625101501381989,True,0.4209036258822634,False,盈利变化,-325853660.49333334,-7110000.0,-7110000.0
13,002453,1408901.7500000002,2696046.5200000005,2017-06-30,半年度报告,1414136.09,2017,6,4.045456308588092,False,0.6745912382287695,True,1.020875608740645,False,前期平均,-3585627.8750000037,,-3585627.8750000037
14,002453,2763713.17,5058863.53,2017-09-30,三季度报告,2821766.58,2017,9,未知,未知,未知,未知,未知,未知,未知,未知,未知,未知
15,002453,13429100.83,15665862.689999996,2017-12-31,年度报告,9096069.569999997,2017,12,-1.1436099778652182,False,11.515725858767363,False,0.0,True,前期平均,15665862.689999996,未知,15665862.689999996
16,002453,4948817.219999999,4572832.590000002,2018-03-31,一季度报告,4129286.840000001,2018,3,-6.681788009615351,False,2.0473333865093473,False,0.8623660042696373,False,前期平均,-141188713.985,未知,-141188713.985
17,002453,16306891.750000006,13209508.55,2018-06-30,半年度报告,12527116.3,2018,6,32.537403087191855,False,0.9246286766675587,True,1.2916719643241565,False,前期平均,-144210182.46499997,未知,-144210182.46499997
18,002453,24654492.32999999,22612835.2,2018-09-30,三季度报告,-5289347.8900000015,2018,9,16.09689211344606,False,未知,未知,未知,未知,未知,未知,未知,未知
19,002453,32528837.219999995,24471337.26,2018-12-31,年度报告,-8587968.62,2018,12,2.518545768488359,False,-1.088972586403293,True,0.0,True,前期平均,24471337.26,未知,24471337.26
20,002453,9051371.160000002,4680858.99,2019-03-31,一季度报告,4117458.9,2019,3,8.547918987397967,False,-4.15597789656125,True,0.4539361431081636,False,前期平均,-133883573.36500002,未知,-133883573.36500002
21,002453,22049120.34,14993700.489999995,2019-06-30,半年度报告,11139790.61,2019,6,1.8976034565262871,False,2.027098234414347,False,1.0095600622681267,False,去年同期,-6121384.430000007,未知,-6121384.430000007
22,002453,32733292.24,19682788.289999995,2019-09-30,三季度报告,10963804.840000002,2019,9,0.9165231742575505,False,未知,未知,未知,未知,未知,未知,未知,未知
23,002453,-306176112.46000004,-314002793.15000004,2019-12-31,年度报告,-233106962.72,2019,12,0.45258515022935764,True,-1.2061440009682192,True,0.0,True,比例外推,-314002793.15000004,未知,-314002793.15000004
24,002453,-10000568.670000002,-11164862.7,2020-03-31,一季度报告,-16532584.640000002,2020,3,4.220303649552252,False,-6.375902933954373,True,0.4550558944601797,False,盈利变化,-341536184.5366667,未知,-341536184.5366667
