,SECURITYCODE_x,NETPROFIT_x,PARENTNETPROFIT_x,REPORTDATE_x,REPORTTIMETYPE_x,KCFJCXSYJLR,Year,Month,managesituationChangeRate,managesituationGreatChange,historyprofitextroplaterate,ifhistoryprofitextroplate,IfprofitdisStableChangeRage,IfprofitdisStable,predicttype,predict,analyst_prediction,adj_prediction
0,002414,61508780.57999999,61508780.57999999,2013-12-31,年度报告,57439115.17,2013,12,未知,未知,未知,未知,未知,未知,未知,未知,未知,未知
1,002414,15054540.600000005,15054540.600000005,2014-03-31,一季度报告,14963678.819999995,2014,3,未知,未知,未知,未知,未知,未知,未知,未知,未知,未知
2,002414,41988951.36,41988951.36,2014-06-30,半年度报告,41031017.38999999,2014,6,未知,未知,未知,未知,未知,未知,未知,未知,未知,未知
3,002414,48374103.77,48374103.77,2014-09-30,三季度报告,43734101.65000001,2014,9,未知,未知,未知,未知,未知,未知,未知,未知,未知,未知
4,002414,67959228.94000001,67959228.94000001,2014-12-31,年度报告,52397706.49999999,2014,12,0.0,True,未知,未知,未知,未知,未知,未知,未知,未知
5,002414,-8918239.57,-8918239.57,2015-03-31,一季度报告,-9022783.18,2015,3,3.0857294961229154,False,未知,未知,未知,未知,未知,未知,115467500.0,未知
6,002414,36546480.51000001,36546480.51000001,2015-06-30,半年度报告,34784686.62,2015,6,0.4648801312669884,True,未知,未知,未知,未知,未知,未知,99000000.0,未知
7,002414,39548764.27,39548764.27,2015-09-30,三季度报告,37319292.71,2015,9,0.2715228973016276,True,未知,未知,未知,未知,未知,未知,90220000.0,未知
8,002414,63395544.98000001,63395544.98000001,2015-12-31,年度报告,50706930.67000001,2015,12,-0.09491644417706692,True,未知,未知,未知,未知,未知,未知,88620000.0,未知
9,002414,-11819221.84,-11819221.84,2016-03-31,一季度报告,-13411761.86,2016,3,-7.896964372532548,False,未知,未知,未知,未知,未知,未知,136470000.0,未知
10,002414,38410941.33,38410941.33,2016-06-30,半年度报告,33477157.379999995,2016,6,0.6830288367485805,False,未知,未知,未知,未知,未知,未知,119433750.0,未知
11,002414,41894071.97000001,41894071.97000001,2016-09-30,三季度报告,32336526.47000001,2016,9,0.5552642848731917,False,未知,未知,未知,未知,未知,未知,98616667.0,未知
12,002414,70857479.58999999,70857479.58999999,2016-12-31,年度报告,55904691.43000001,2016,12,-0.02976178216616414,True,0.02067630119536565,True,0.0,True,比例外推,70857479.58999999,100340000.0,100340000.0
13,002414,1241598.96,1241598.96,2017-03-31,一季度报告,-1141702.32,2017,3,-6.2041311528509215,False,4.8522301243751045,False,0.32966722297337575,False,盈利变化,87217558.97666666,140077500.0,140077500.0
14,002414,46304062.22000001,46304062.22000001,2017-06-30,半年度报告,38105177.49,2017,6,0.6013348918361432,False,0.02181880419065439,True,0.09377254999380513,True,前期平均,59948528.80000003,119750000.0,119750000.0
15,002414,44808029.55,44808029.55,2017-09-30,三季度报告,33265153.09,2017,9,0.4681977112190456,True,0.04702672003509838,True,0.1379306947131731,False,平均增速,69128448.77695228,92102500.0,92102500.0
16,002414,58444755.21999999,58444755.21999999,2017-12-31,年度报告,41957204.26,2017,12,-0.13193665741561836,True,0.07887178326925294,True,0.0,True,比例外推,58444755.21999999,76363333.0,76363333.0
17,002414,1647809.4100000004,1647809.4100000004,2018-03-31,一季度报告,-1543575.0300000003,2018,3,48.53997430861249,False,-1.1197445468808709,True,0.12114055333692701,False,前期平均,66170892.98000001,118251429.0,118251429.0
18,002414,102736152.26999998,102736152.26999998,2018-06-30,半年度报告,94838264.93,2018,6,0.3283668350253865,True,0.23547638334835266,True,0.17718759785166283,False,平均增速,109314190.22367886,159203333.0,159203333.0
19,002414,96812460.76,96812460.76,2018-09-30,三季度报告,84163478.85,2018,9,0.37271781860802655,True,0.10035533187860383,True,0.1239902008412549,False,平均增速,111834884.68242022,135204286.0,135204286.0
20,002414,131853994.37,131853994.37,2018-12-31,年度报告,88056254.99,2018,12,0.05242601065683786,True,0.12933424915836153,True,0.0,True,比例外推,131853994.37,133603333.0,131853994.37
21,002414,5970951.630000001,5970951.630000001,2019-03-31,一季度报告,2490144.05,2019,3,36.32760609735805,False,-1.3115651651971167,True,0.14502252143343305,False,前期平均,62178631.565000005,240545455.0,240545455.0
22,002414,149458179.38,149458179.38,2019-06-30,半年度报告,147631973.04000005,2019,6,-0.40129370994594676,True,1.4254535316017223,True,0.26251983203699036,False,平均增速,139348625.4006371,272731000.0,272731000.0
23,002414,234568449.3,234568449.3,2019-09-30,三季度报告,212806068.12,2019,9,-0.364660498275305,True,1.2332206270148547,True,0.19726088483539927,False,平均增速,242262714.5055274,252257778.0,242262714.5055274
24,002414,220642558.1,220642558.1,2019-12-31,年度报告,183414263.59,2019,12,-0.5335084016689089,True,1.0394696899670706,True,0.0,True,比例外推,220642558.1,244813332.99999997,220642558.1
25,002414,158890651.41,158890651.41,2020-03-31,一季度报告,159109661.58,2020,3,9.30133626790073,False,3.1329925475366434,False,0.023964585352271695,True,去年同期,339814770.95,679747143.0000001,679747143.0000001
