,SECURITYCODE_x,NETPROFIT_x,PARENTNETPROFIT_x,REPORTDATE_x,REPORTTIMETYPE_x,KCFJCXSYJLR,Year,Month,managesituationChangeRate,managesituationGreatChange,historyprofitextroplaterate,ifhistoryprofitextroplate,IfprofitdisStableChangeRage,IfprofitdisStable,predicttype,predict,analyst_prediction,adj_prediction
0,002476,46978365.35,46932205.23,2013-12-31,年度报告,42323829.43,2013,12,未知,未知,未知,未知,未知,未知,未知,未知,未知,未知
1,002476,12933028.8,12946699.72,2014-03-31,一季度报告,11938384.87,2014,3,未知,未知,未知,未知,未知,未知,未知,未知,未知,未知
2,002476,31369473.35,30823612.24,2014-06-30,半年度报告,28300920.899999995,2014,6,未知,未知,未知,未知,未知,未知,未知,未知,未知,未知
3,002476,39291114.66,38967107.28,2014-09-30,三季度报告,35837495.67,2014,9,未知,未知,未知,未知,未知,未知,未知,未知,未知,未知
4,002476,48331884.25999999,47909790.59,2014-12-31,年度报告,32320733.820000004,2014,12,0.0,True,未知,未知,未知,未知,未知,未知,未知,未知
5,002476,10877413.12,11623423.750000002,2015-03-31,一季度报告,11115133.209999997,2015,3,2.6324333670392814,False,未知,未知,未知,未知,未知,未知,未知,未知
6,002476,17591860.16,19114171.72,2015-06-30,半年度报告,17305569.189999998,2015,6,0.49758221395195973,True,未知,未知,未知,未知,未知,未知,未知,未知
7,002476,19605162.94,28120883.45,2015-09-30,三季度报告,25875822.92,2015,9,0.19564857745881026,True,未知,未知,未知,未知,未知,未知,未知,未知
8,002476,-9878638.499999998,24138430.85,2015-12-31,年度报告,9121485.029999996,2015,12,-0.02800467912069748,True,未知,未知,未知,未知,未知,未知,未知,未知
9,002476,9322761.26,16980863.17,2016-03-31,一季度报告,16707338.15,2016,3,3.318891342245904,False,未知,未知,未知,未知,未知,未知,未知,未知
10,002476,9831004.87,15350441.689999998,2016-06-30,半年度报告,11623973.3,2016,6,1.6704603676203849,False,未知,未知,未知,未知,未知,未知,未知,未知
11,002476,562880.51,18979803.580000006,2016-09-30,三季度报告,12045040.12,2016,9,1.3962241728759637,False,未知,未知,未知,未知,未知,未知,未知,未知
12,002476,-5406799.840000002,14829671.540000005,2016-12-31,年度报告,6621277.69,2016,12,-5.755550610542132,False,1.2072943579609203,True,0.0,True,前期平均,14829671.540000005,未知,14829671.540000005
13,002476,-32795097.280000005,-30828324.53,2017-03-31,一季度报告,-31165698.21,2017,3,4.039104192398895,False,0.21691825029344108,True,1.1528738857839025,False,盈利变化,-49001043.60666666,未知,-49001043.60666666
14,002476,-51687428.87,-47209281.40000001,2017-06-30,半年度报告,-48008759.54,2017,6,3.778592419718739,False,0.5984176015960805,True,0.6338416931125014,False,盈利变化,-24925483.68666666,未知,-24925483.68666666
15,002476,-76058477.78,-68728246.97,2017-09-30,三季度报告,-76817714.75999999,2017,9,82.46063598826686,False,0.9808857016797271,True,0.915216377447218,False,盈利变化,-24664886.184444435,未知,-24664886.184444435
16,002476,388840.99,8270361.599999999,2017-12-31,年度报告,-56610204.03999998,2017,12,-9.688756147851034,False,1.281214224346403,True,0.0,True,前期平均,8270361.599999999,未知,8270361.599999999
17,002476,-12629958.92,-12629958.92,2018-03-31,一季度报告,-12629958.92,2018,3,-2.4324813538104557,False,4.247011304265781,False,1.0924875106864607,False,去年同期,-38074464.74999998,未知,-38074464.74999998
18,002476,-19062032.440000005,-19062032.440000005,2018-06-30,半年度报告,-19436937.86,2018,6,-1.9088934461831357,False,4.769659283481511,False,0.6522210368849712,False,去年同期,-27663476.939999983,未知,-27663476.939999983
19,002476,-25588209.63000001,-25588209.63000001,2018-09-30,三季度报告,-25666781.3,2018,9,-1.617661130240937,False,8.542474605289486,False,0.8324995196069875,False,去年同期,-5380698.909999996,未知,-5380698.909999996
20,002476,-264086122.80000004,-264086122.80000004,2018-12-31,年度报告,-143474189.55,2018,12,119.81639168236867,False,-1.050877309678775,True,0.0,True,盈利变化,-20684300.23666668,未知,-20684300.23666668
21,002476,3510480.4999999995,3510480.4999999995,2019-03-31,一季度报告,3367680.47,2019,3,-4.719597636664364,False,-0.07615696275295553,True,1.4693330774122348,False,盈利变化,-242755936.94666672,未知,-242755936.94666672
22,002476,4230861.859999999,4230861.859999999,2019-06-30,半年度报告,406957.2400000001,2019,6,-3.4644992866248625,False,-0.08917052063501626,True,0.8425216445889192,False,盈利变化,-250856859.40000004,未知,-250856859.40000004
23,002476,620174.64,620174.64,2019-09-30,三季度报告,-3262283.4300000006,2019,9,-2.8359379585089006,False,-0.322127102631239,True,0.939436879433081,False,盈利变化,-254128568.19111115,未知,-254128568.19111115
24,002476,91245926.27,91245926.27,2019-12-31,年度报告,-29747189.13,2019,12,-1.1778903217325738,False,-104.25639236758586,True,0.0,True,前期平均,91245926.27,未知,91245926.27
25,002476,5181202.6,5181202.6,2020-03-31,一季度报告,5105536.23,2020,3,12.382317705510687,False,-1.1545614158205488,True,0.37541449104064806,False,前期平均,-72963165.63,未知,-72963165.63
