,SECURITYCODE_x,NETPROFIT_x,PARENTNETPROFIT_x,REPORTDATE_x,REPORTTIMETYPE_x,KCFJCXSYJLR,Year,Month,managesituationChangeRate,managesituationGreatChange,historyprofitextroplaterate,ifhistoryprofitextroplate,IfprofitdisStableChangeRage,IfprofitdisStable,predicttype,predict,analyst_prediction,adj_prediction
0,002460,69541432.12,74123526.67,2013-12-31,年度报告,64337127.47,2013,12,未知,未知,未知,未知,未知,未知,未知,未知,未知,未知
1,002460,19581128.51,19653001.51,2014-03-31,一季度报告,19122479.110000007,2014,3,未知,未知,未知,未知,未知,未知,未知,未知,未知,未知
2,002460,38070370.41,39132283.46,2014-06-30,半年度报告,35634980.5,2014,6,未知,未知,未知,未知,未知,未知,未知,未知,未知,未知
3,002460,58796740.87000001,59807782.7,2014-09-30,三季度报告,53019505.40000001,2014,9,未知,未知,未知,未知,未知,未知,未知,未知,未知,未知
4,002460,84399576.03000002,85727369.95,2014-12-31,年度报告,73608307.35,2014,12,0.0,True,未知,未知,未知,未知,未知,未知,未知,未知
5,002460,24090243.61,24160540.36,2015-03-31,一季度报告,21380744.579999994,2015,3,2.5514516992463165,False,未知,未知,未知,未知,未知,未知,125812078.0,未知
6,002460,50858864.38000001,51018471.19000001,2015-06-30,半年度报告,45165519.70999999,2015,6,0.8266549910355866,False,未知,未知,未知,未知,未知,未知,119105000.0,未知
7,002460,84260644.82,84582709.40000002,2015-09-30,三季度报告,73199832.87,2015,9,0.1827429733521553,True,未知,未知,未知,未知,未知,未知,115679429.0,未知
8,002460,124797397.45,125154019.34,2015-12-31,年度报告,106496170.40999998,2015,12,-0.17604524345855305,True,未知,未知,未知,未知,未知,未知,124161143.0,未知
9,002460,107326564.6,107417530.67,2016-03-31,一季度报告,123231710.11,2016,3,1.8867052258090473,False,未知,未知,未知,未知,未知,未知,450731987.0,未知
10,002460,278099174.93999994,278154962.66,2016-06-30,半年度报告,313660110.79000014,2016,6,0.36734142548701537,True,未知,未知,未知,未知,未知,未知,663650924.0,未知
11,002460,485719691.21,485803836.5,2016-09-30,三季度报告,501066825.16,2016,9,-0.17468668476776544,True,未知,未知,未知,未知,未知,未知,683651764.0,未知
12,002460,465418701.69,464365096.17,2016-12-31,年度报告,474162941.6900001,2016,12,-0.4427653657772652,True,0.6213665085056151,True,0.0,True,比例外推,464365096.17,341533835.00000006,341533835.00000006
13,002460,136329833.34999996,136451697.76,2017-03-31,一季度报告,130821496.65,2017,3,-0.3520575974906402,True,3.9151908625672913,False,0.03938312375595887,True,比例外推,550382686.5745049,1126909231.0,1126909231.0
14,002460,607146142.8499999,607378846.3399999,2017-06-30,半年度报告,408926967.06999993,2017,6,-0.749940171037891,True,5.25439262120519,False,0.13826155444518584,False,未知,未知,1338660179.0,未知
15,002460,1003182190.04,1003530247.33,2017-09-30,三季度报告,802897003.9299997,2017,9,-0.8568280566374363,True,5.790557353851502,False,0.2352799938545863,False,未知,未知,1448778659.0,未知
16,002460,1468579965.67,1469078129.3000002,2017-12-31,年度报告,1194144448.1,2017,12,-0.8505830731178498,True,3.449573948874511,False,0.0,True,比例外推,1469078129.3000002,1433898133.0,1469078129.3000002
17,002460,237772364.83,237919926.58000004,2018-03-31,一季度报告,260734567.71000004,2018,3,-0.4899030504829703,True,1.0747701181746725,True,0.080517858763515,True,比例外推,1348964653.3404493,2300679531.0,2300679531.0
18,002460,725252878.4399999,725526739.6099999,2018-06-30,半年度报告,694027051.01,2018,6,-0.8854617904783746,True,2.691328803546202,False,0.18548582741616054,False,未知,未知,1930565333.0,未知
19,002460,972108444.59,972364084.38,2018-09-30,三季度报告,975920059.0500002,2018,9,-0.9306791599667184,True,2.5200589445850605,False,0.2512568949975551,False,未知,未知,1596841538.0,未知
20,002460,1341937004.9199998,1341340787.55,2018-12-31,年度报告,1256112615.7599998,2018,12,-0.9526471600146925,True,3.97641446178733,False,0.0,True,比例外推,1341340787.55,1568495000.0,1568495000.0
21,002460,252624931.74,252728978.02,2019-03-31,一季度报告,149639557.83999997,2019,3,-0.7075293751243127,True,0.9517022071285205,True,0.08278693229559708,True,比例外推,881086758.1359997,1061874167.0,1061874167.0
22,002460,295607121.80999994,295788787.75,2019-06-30,半年度报告,380156767.41,2019,6,-0.9041142280337007,True,0.6385353615889924,True,0.17637854148597548,False,平均增速,951437662.0298549,861960000.0,861960000.0
23,002460,328240267.08,329165317.99,2019-09-30,三季度报告,583879202.5299999,2019,9,-0.9284632979920979,True,0.30580591888818265,True,0.22139367361083162,False,平均增速,663077196.9562862,497152500.0,497152500.0
24,002460,353392083.13999987,358070976.45000005,2019-12-31,年度报告,694423298.55,2019,12,-0.9481783184567998,True,0.38773312264150367,True,0.0,True,比例外推,358070976.45000005,488944167.0,488944167.0
25,002460,5579711.820000001,7746065.51,2020-03-31,一季度报告,71858319.41,2020,3,-0.7247245881828813,True,0.35056641190036025,True,0.0679850505281743,True,比例外推,340637747.452814,699801880.0,699801880.0
