,SECURITYCODE_x,NETPROFIT_x,PARENTNETPROFIT_x,REPORTDATE_x,REPORTTIMETYPE_x,KCFJCXSYJLR,Year,Month,managesituationChangeRate,managesituationGreatChange,historyprofitextroplaterate,ifhistoryprofitextroplate,IfprofitdisStableChangeRage,IfprofitdisStable,predicttype,predict,analyst_prediction,adj_prediction
0,002459,-446501959.7000001,-429195777.82,2013-12-31,年度报告,-427770045.8099999,2013,12,未知,未知,未知,未知,未知,未知,未知,未知,未知,未知
1,002459,-26101486.37,-23192964.73,2014-03-31,一季度报告,-25338160.81,2014,3,未知,未知,未知,未知,未知,未知,未知,未知,未知,未知
2,002459,-53153029.18000001,-45909261.76,2014-06-30,半年度报告,-46168120.29999999,2014,6,未知,未知,未知,未知,未知,未知,未知,未知,未知,未知
3,002459,-51390351.20999999,-43378282.94000001,2014-09-30,三季度报告,-54932453.08000001,2014,9,未知,未知,未知,未知,未知,未知,未知,未知,未知,未知
4,002459,11046233.3,26299646.35,2014-12-31,年度报告,-59438567.67000001,2014,12,-0.0,False,未知,未知,未知,未知,未知,未知,未知,未知
5,002459,-8552146.95,-8537080.120000001,2015-03-31,一季度报告,-8822321.51,2015,3,16.10638058578884,False,未知,未知,未知,未知,未知,未知,未知,未知
6,002459,-19746903.939999994,-19554721.17,2015-06-30,半年度报告,-17769590.2,2015,6,7.400310698905685,False,未知,未知,未知,未知,未知,未知,未知,未知
7,002459,-62054866.8,-61738502.06,2015-09-30,三季度报告,-59772316.51999999,2015,9,7.6884395453035115,False,未知,未知,未知,未知,未知,未知,未知,未知
8,002459,-323144599.81000006,-321891912.89999986,2015-12-31,年度报告,-311800823.52000004,2015,12,-41.42119585687187,False,未知,未知,未知,未知,未知,未知,未知,未知
9,002459,1111539.2899999998,1111539.2899999998,2016-03-31,一季度报告,-2240508.16,2016,3,51.20934138649245,False,未知,未知,未知,未知,未知,未知,未知,未知
10,002459,3500973.4499999993,3500973.4499999993,2016-06-30,半年度报告,-7234601.550000003,2016,6,21.611238757056526,False,未知,未知,未知,未知,未知,未知,未知,未知
11,002459,10839797.74,10839797.74,2016-09-30,三季度报告,-7616121.56,2016,9,6.195277062459187,False,未知,未知,未知,未知,未知,未知,未知,未知
12,002459,20112127.42000001,20112127.42000001,2016-12-31,年度报告,-10545054.86,2016,12,0.3817404343520848,False,-0.4841674145911518,True,0.0,True,盈利变化,-221473323.3466665,未知,-221473323.3466665
13,002459,2391431.15,2391431.15,2017-03-31,一季度报告,-4223513.66,2017,3,-402.6969653857222,False,-1.0641513852089204,True,0.20393946269920307,False,前期平均,-166148023.28500003,未知,-166148023.28500003
14,002459,3280492.42,3280492.42,2017-06-30,半年度报告,-14051222.88,2017,6,-128.53651693645384,False,-1.096048742438133,True,0.44960738966925917,False,前期平均,-150370347.92500004,未知,-150370347.92500004
15,002459,5339497.859999999,5339497.859999999,2017-09-30,三季度报告,-17095826.089999996,2017,9,-42.19098625358669,False,-1.1911018891786957,True,0.42101129110942254,False,前期平均,-122927812.93500003,未知,-122927812.93500003
16,002459,22167962.73,22167962.73,2017-12-31,年度报告,467711647.48,2017,12,-23.200632999967336,False,-1.1288832597549376,True,0.0,True,前期平均,22167962.73,未知,22167962.73
17,002459,3155255.7100000004,3155255.7100000004,2018-03-31,一季度报告,-1700469.7099999997,2018,3,-187.70910082441642,False,-1.6428053350685607,True,0.1352251661040575,False,前期平均,-152486268.645,未知,-152486268.645
18,002459,8490603.82,8490603.82,2018-06-30,半年度报告,-3533004.31,2018,6,-137.10821258962096,False,-1.4038540509599338,True,0.44839463469578833,False,前期平均,-140180239.49500003,未知,-140180239.49500003
19,002459,13441548.750000006,13441548.750000006,2018-09-30,三季度报告,-7831203.239999997,2018,9,-84.62246252496863,False,-1.2085127661838986,True,0.42978111440241323,False,前期平均,-114037171.40000004,未知,-114037171.40000004
20,002459,746424902.5600001,719138789.1000001,2018-12-31,年度报告,688795151.21,2018,12,-21.14176788089539,False,-1.1463075066190929,True,0.0,True,前期平均,719138789.1000001,未知,719138789.1000001
21,002459,89888210.34,86495939.16000001,2019-03-31,一季度报告,76703905.11,2019,3,-142.51054644632907,False,0.8014743567176666,True,0.14547966416134825,False,前期平均,318311246.38000005,,318311246.38000005
22,002459,-41129303.59,-41129303.59,2019-06-30,半年度报告,-48866550.52000001,2019,6,-53.587774575966506,False,1.504061506100303,True,0.4691011177228259,False,盈利变化,688916424.9600002,未知,688916424.9600002
23,002459,-39515988.85000001,-39515988.85000001,2019-09-30,三季度报告,-50060198.85,2019,9,-34.21804414093278,False,0.6615740366348218,True,0.4974710274389008,False,盈利变化,700370346.6066668,未知,700370346.6066668
24,002459,1284101260.5699995,1251958039.0100002,2019-12-31,年度报告,1282622849.9800005,2019,12,-1.5981873838461718,False,34.308576680506434,False,0.0,True,去年同期,1251958039.0100002,815600000.0,815600000.0
25,002459,308360396.23000014,285745686.19000006,2020-03-31,一季度报告,342826788.81,2020,3,-5.967302808801255,False,31.411496307184716,False,0.04370123159322735,True,去年同期,1491664631.0600007,1387756250.0,1491664631.0600007
