,SECURITYCODE_x,NETPROFIT_x,PARENTNETPROFIT_x,REPORTDATE_x,REPORTTIMETYPE_x,KCFJCXSYJLR,Year,Month,managesituationChangeRate,managesituationGreatChange,historyprofitextroplaterate,ifhistoryprofitextroplate,IfprofitdisStableChangeRage,IfprofitdisStable,predicttype,predict,analyst_prediction,adj_prediction
0,002513,21101734.200000007,21101734.200000007,2013-12-31,年度报告,17456089.099999998,2013,12,未知,未知,未知,未知,未知,未知,未知,未知,未知,未知
1,002513,2401968.14,2401968.14,2014-03-31,一季度报告,1590028.4699999997,2014,3,未知,未知,未知,未知,未知,未知,未知,未知,未知,未知
2,002513,2557314.4799999995,2557314.4799999995,2014-06-30,半年度报告,1671329.9900000002,2014,6,未知,未知,未知,未知,未知,未知,未知,未知,未知,未知
3,002513,-13705849.6,-13705849.6,2014-09-30,三季度报告,-18858557.43,2014,9,未知,未知,未知,未知,未知,未知,未知,未知,未知,未知
4,002513,-37464394.96,-37464394.96,2014-12-31,年度报告,-52047700.76000001,2014,12,0.0,True,未知,未知,未知,未知,未知,未知,未知,未知
5,002513,-5060041.88,-5060041.88,2015-03-31,一季度报告,-5964002.7,2015,3,7.7851848859244255,False,未知,未知,未知,未知,未知,未知,未知,未知
6,002513,-9099131.12,-9099131.12,2015-06-30,半年度报告,-12822587.29,2015,6,7.2515210252905655,False,未知,未知,未知,未知,未知,未知,未知,未知
7,002513,-39370558.92000001,-39370558.92000001,2015-09-30,三季度报告,-42170568.43,2015,9,-2.5396151873722594,False,未知,未知,未知,未知,未知,未知,-35860000.0,未知
8,002513,-68769614.74,-68769614.74,2015-12-31,年度报告,-66511447.34,2015,12,-1.5632476975146647,False,未知,未知,未知,未知,未知,未知,-35396400.0,未知
9,002513,31711410.82,31711410.82,2016-03-31,一季度报告,26364366.04000001,2016,3,-5.170268685602263,False,未知,未知,未知,未知,未知,未知,147685000.0,未知
10,002513,64057714.40999999,64057714.40999999,2016-06-30,半年度报告,54725131.83000001,2016,6,-3.319093320198249,False,未知,未知,未知,未知,未知,未知,140625000.0,未知
11,002513,87664968.51000002,87664968.51000002,2016-09-30,三季度报告,75431005.04999998,2016,9,-1.5359775115938334,False,未知,未知,未知,未知,未知,未知,108130000.0,未知
12,002513,107283134.02,107283134.02,2016-12-31,年度报告,93659958.66,2016,12,-1.3068467706236273,False,-7.405676283176822,True,0.0,True,盈利变化,-15379146.07333333,152650000.0,152650000.0
13,002513,20588356.08,20588356.08,2017-03-31,一季度报告,21127701.01,2017,3,-0.33456968156423367,True,-24.86044475951973,True,0.1679537165977424,False,平均增速,117040281.09288163,未知,117040281.09288163
14,002513,60755677.37,60755677.37,2017-06-30,半年度报告,58449380.64000001,2017,6,-0.6705824677892998,True,-20.584075169064963,True,0.3359718907703879,False,平均增速,121750893.49580348,未知,121750893.49580348
15,002513,93111377.36,93111377.36,2017-09-30,三季度报告,90152112.25,2017,9,-0.7592911449276012,True,-4.30334967849102,True,0.2382470868056094,False,平均增速,122827323.2541465,118870000.0,122827323.2541465
16,002513,35446784.19,35446784.19,2017-12-31,年度报告,49025172.92,2017,12,-0.8033079999688846,True,-3.0197511949885483,True,0.0,True,比例外推,35446784.19,,35446784.19
17,002513,26903808.399999995,26903808.399999995,2018-03-31,一季度报告,25151587.92,2018,3,0.024935362396355472,True,0.5450130255110263,True,0.17770293446800825,False,平均增速,70929694.14994185,未知,70929694.14994185
18,002513,30783765.61,30783765.61,2018-06-30,半年度报告,24128617.219999995,2018,6,-0.6526788093976605,True,1.2109622822484516,True,0.5357934771693312,False,平均增速,19575460.351209603,未知,19575460.351209603
19,002513,-35225919.97,-35225919.97,2018-09-30,三季度报告,-43714504.93,2018,9,-0.7733710444598668,True,2.855989881664479,False,0.7461276692871674,False,未知,未知,未知,未知
20,002513,-874951321.7700001,-874951321.7700001,2018-12-31,年度报告,-875531440.6700001,2018,12,-0.404692564298877,True,0.840745008644663,True,0.0,True,比例外推,-874951321.7700001,,-874951321.7700001
21,002513,12811362.32,12811362.32,2019-03-31,一季度报告,9632410.45,2019,3,-0.21565995838715493,True,0.028830910525530298,True,0.2566336275461422,False,平均增速,3743761902.161009,未知,3743761902.161009
22,002513,21864800.6,21864800.6,2019-06-30,半年度报告,18008609.72,2019,6,-0.31451744834149914,True,0.5067233544256143,True,0.6105485279624768,False,平均增速,3585116473.6352744,未知,3585116473.6352744
23,002513,27565115.000000004,27565115.000000004,2019-09-30,三季度报告,16691815.510000005,2019,9,-1.5990399744838801,False,1.3897182432853432,True,0.9408295472588323,False,前期平均,16116122.140000012,未知,16116122.140000012
24,002513,-516555019.9399998,-516555019.9399998,2019-12-31,年度报告,-522094470.52,2019,12,-1.0241176093743272,False,13.260237135183884,False,0.0,True,去年同期,-516555019.9399998,未知,-516555019.9399998
25,002513,-15414150.339999994,-15414150.339999994,2020-03-31,一季度报告,-16577647.380000005,2020,3,0.6471108749346499,False,0.4604852206559189,True,0.3030297097111674,False,盈利变化,-551501763.7133331,未知,-551501763.7133331
