,SECURITYCODE_x,NETPROFIT_x,PARENTNETPROFIT_x,REPORTDATE_x,REPORTTIMETYPE_x,KCFJCXSYJLR,Year,Month,managesituationChangeRate,managesituationGreatChange,historyprofitextroplaterate,ifhistoryprofitextroplate,IfprofitdisStableChangeRage,IfprofitdisStable,predicttype,predict,analyst_prediction,adj_prediction
0,002552,12144549.32,12144549.32,2013-12-31,年度报告,5902715.1800000025,2013,12,未知,未知,未知,未知,未知,未知,未知,未知,未知,未知
1,002552,2924271.21,2924271.21,2014-03-31,一季度报告,1427523.64,2014,3,未知,未知,未知,未知,未知,未知,未知,未知,未知,未知
2,002552,6077880.289999999,6077880.289999999,2014-06-30,半年度报告,3997145.33,2014,6,未知,未知,未知,未知,未知,未知,未知,未知,未知,未知
3,002552,10206828.04,10206828.04,2014-09-30,三季度报告,7494991.090000003,2014,9,未知,未知,未知,未知,未知,未知,未知,未知,未知,未知
4,002552,14253273.209999995,14253273.209999995,2014-12-31,年度报告,9298194.18,2014,12,0.0,True,未知,未知,未知,未知,未知,未知,未知,未知
5,002552,1452133.31,1452133.31,2015-03-31,一季度报告,761265.7,2015,3,3.15301743506889,False,未知,未知,未知,未知,未知,未知,未知,未知
6,002552,5627308.14,5627308.14,2015-06-30,半年度报告,3336788.74,2015,6,0.9981553996681304,False,未知,未知,未知,未知,未知,未知,29000000.0,未知
7,002552,7862340.960000003,7865487.78,2015-09-30,三季度报告,4046981.4700000007,2015,9,0.18984558889462796,True,未知,未知,未知,未知,未知,未知,,未知
8,002552,4244047.590000002,4292974.65,2015-12-31,年度报告,-3812624.1400000006,2015,12,-0.14794664067201976,True,未知,未知,未知,未知,未知,未知,,未知
9,002552,-12863440.99,-12832167.05,2016-03-31,一季度报告,-13726087.100000005,2016,3,7.36324684267452,False,未知,未知,未知,未知,未知,未知,36000000.0,未知
10,002552,-25270212.070000004,-25226084.39,2016-06-30,半年度报告,-28322666.82,2016,6,1.1581454254609205,False,未知,未知,未知,未知,未知,未知,,未知
11,002552,-45691998.7,-45623876.88,2016-09-30,三季度报告,-45864119.60000001,2016,9,0.5446480102791161,False,未知,未知,未知,未知,未知,未知,未知,未知
12,002552,-166920801.31000003,-166843304.92999998,2016-12-31,年度报告,-168889708.76,2016,12,1.861548807467542,False,0.6784547221516606,True,0.0,True,盈利变化,-50732720.22333334,未知,-50732720.22333334
13,002552,-9868410.96,-9861243.239999998,2017-03-31,一季度报告,-13331780.7,2017,3,-1.944113579674454,False,6.878542959735359,False,0.21137965383955346,False,去年同期,-165024864.9,未知,-165024864.9
14,002552,-8263289.3900000015,-8243441.290000001,2017-06-30,半年度报告,-13865719.379999995,2017,6,-1.4805875505262427,False,5.317779627576658,False,0.782657596489967,False,去年同期,-148810483.23,未知,-148810483.23
15,002552,-12664857.77,-12644871.289999995,2017-08-31,其他报告,,2017,8,未知,未知,未知,未知,未知,未知,未知,未知,未知,未知
16,002552,-3461131.0,-3441259.95,2017-09-30,三季度报告,-10319660.53,2017,9,-1.2657915973371503,False,6.057454352217305,False,1.0668565444136902,False,去年同期,-126466849.10999998,未知,-126466849.10999998
17,002552,-135078568.39000002,-135058581.91,2017-12-31,年度报告,-253512366.45,2017,12,-1.0727563564558111,False,19.04810578946115,False,0.0,True,去年同期,-135058581.91,未知,-135058581.91
18,002552,5048785.43,5051815.680000002,2018-03-31,一季度报告,4231302.83,2018,3,-2.230648923035933,False,-0.729584590431445,True,0.17773342347734813,False,盈利变化,-111641137.20333333,未知,-111641137.20333333
19,002552,22555185.529999994,22558444.640000004,2018-06-30,半年度报告,5841344.66,2018,6,-2.4696991412036216,False,-0.1586489024792578,True,0.6575943978943287,False,盈利变化,-121920539.21666667,未知,-121920539.21666667
20,002552,-3030648.6999999993,-3027152.29,2018-08-31,其他报告,,2018,8,-1.9589171501607792,False,未知,未知,未知,未知,未知,未知,未知,未知
21,002552,25185756.21,25189355.49,2018-09-30,三季度报告,7032141.8,2018,9,-4.508838388376517,False,-0.817014945057761,True,0.8117356097192492,False,盈利变化,-127346669.76333334,未知,-127346669.76333334
22,002552,28687042.800000004,28690673.58,2018-12-31,年度报告,13526472.070000002,2018,12,-1.0899072996164436,False,-0.6606990894654545,True,0.0,True,前期平均,28690673.58,未知,28690673.58
23,002552,14858712.58,14858712.58,2019-03-31,一季度报告,4621296.19,2019,3,1.4054397811871362,False,-1.444203617118842,True,0.16392403454167365,False,前期平均,-182813391.12499997,未知,-182813391.12499997
24,002552,50690788.01999998,50690788.01999998,2019-06-30,半年度报告,10084698.84,2019,6,-0.4615628719237583,True,-2.3452329490199317,True,0.21376571713159492,False,平均增速,62228416.86333931,未知,62228416.86333931
25,002552,56010981.52,56010981.52,2019-09-30,三季度报告,14746914.849999996,2019,9,-0.5178008863923645,True,-2.024787490184984,True,0.24249688136868103,False,平均增速,66964399.36302363,未知,66964399.36302363
26,002552,56067572.38,56067572.38,2019-12-31,年度报告,18114333.97,2019,12,-0.5766538431768925,True,-1.1899808124003513,True,0.0,True,比例外推,56067572.38,未知,56067572.38
27,002552,1337656.5699999998,1337656.5699999998,2020-03-31,一季度报告,36435.97,2020,3,-0.18266476623642988,True,-7.165919940257265,True,0.15425268787054086,False,平均增速,12834741.854922678,未知,12834741.854922678
