,SECURITYCODE_x,NETPROFIT_x,PARENTNETPROFIT_x,REPORTDATE_x,REPORTTIMETYPE_x,KCFJCXSYJLR,Year,Month,managesituationChangeRate,managesituationGreatChange,historyprofitextroplaterate,ifhistoryprofitextroplate,IfprofitdisStableChangeRage,IfprofitdisStable,predicttype,predict,analyst_prediction,adj_prediction
0,002575,24470802.6,24470802.6,2013-12-31,年度报告,23587550.98,2013,12,未知,未知,未知,未知,未知,未知,未知,未知,未知,未知
1,002575,5551360.67,5551360.67,2014-03-31,一季度报告,4781927.92,2014,3,未知,未知,未知,未知,未知,未知,未知,未知,未知,未知
2,002575,15065019.58,15065019.58,2014-06-30,半年度报告,15056985.48,2014,6,未知,未知,未知,未知,未知,未知,未知,未知,未知,未知
3,002575,21651016.8,21651016.8,2014-09-30,三季度报告,21349082.610000007,2014,9,未知,未知,未知,未知,未知,未知,未知,未知,未知,未知
4,002575,14865866.87,14865866.87,2014-12-31,年度报告,14670929.55,2014,12,0.0,True,未知,未知,未知,未知,未知,未知,未知,未知
5,002575,4226946.1,4226946.1,2015-03-31,一季度报告,2185822.43,2015,3,3.408072913050342,False,未知,未知,未知,未知,未知,未知,未知,未知
6,002575,12838121.46,12838121.46,2015-06-30,半年度报告,10360950.01,2015,6,0.624345887507967,False,未知,未知,未知,未知,未知,未知,未知,未知
7,002575,22434470.0,22434470.0,2015-09-30,三季度报告,20642722.85,2015,9,0.13023803113025162,True,未知,未知,未知,未知,未知,未知,未知,未知
8,002575,18186393.35,18186393.35,2015-12-31,年度报告,15304732.18,2015,12,0.6461066693246933,False,未知,未知,未知,未知,未知,未知,16000000.0,未知
9,002575,2863699.4800000004,2863699.4800000004,2016-03-31,一季度报告,3207121.0499999993,2016,3,4.789239328128646,False,未知,未知,未知,未知,未知,未知,,未知
10,002575,11201892.12,11201892.12,2016-06-30,半年度报告,10654603.38,2016,6,0.9061046178947741,False,未知,未知,未知,未知,未知,未知,25360000.0,未知
11,002575,19957122.59,19957122.59,2016-09-30,三季度报告,8545433.08,2016,9,0.09076802794984688,True,未知,未知,未知,未知,未知,未知,,未知
12,002575,12764280.639999995,12764280.639999995,2016-12-31,年度报告,876147.5399999998,2016,12,0.3455555551370497,True,0.0753465611078333,True,0.0,True,比例外推,12764280.639999995,104858000.0,104858000.0
13,002575,-13889930.689999996,-13889930.689999996,2017-03-31,一季度报告,-14024783.57,2017,3,7.545171297094344,False,0.41427497677085034,True,2.284065102108681,False,盈利变化,-10211592.186666673,未知,-10211592.186666673
14,002575,-12701840.29,-12701840.29,2017-06-30,半年度报告,-14316171.4,2017,6,1.1845240373552182,False,0.19708737421770925,True,7.539396972612431,False,盈利变化,-3882902.5466666725,未知,-3882902.5466666725
15,002575,-15204384.779999996,-15204384.779999996,2017-09-30,三季度报告,-16322838.95,2017,9,0.22616887728402743,True,0.09461711603465832,True,5.567619678956041,False,平均增速,-9989653.308074757,未知,-9989653.308074757
16,002575,-21412779.470000006,-21412779.470000006,2017-12-31,年度报告,-28107203.43,2017,12,0.9171313519474616,False,0.2276303916864179,True,0.0,True,盈利变化,3103163.649999995,未知,3103163.649999995
17,002575,244715.16,244715.16,2018-03-31,一季度报告,-1305344.1,2018,3,-2.76176563772328,False,4.917818351879886,False,2.226388801245173,False,前期平均,5638683.28,未知,5638683.28
18,002575,3682947.44,3682947.44,2018-06-30,半年度报告,962937.52,2018,6,-2.9265556833733424,False,2.0567248847618997,False,7.711721180871541,False,前期平均,1265610.604999999,未知,1265610.604999999
19,002575,5936436.659999997,5936436.659999997,2018-09-30,三季度报告,930232.82,2018,9,-2.609456939828907,False,1.7173301992710057,True,5.8591067580681475,False,前期平均,-567201.4450000031,未知,-567201.4450000031
20,002575,6921812.73,6921812.73,2018-12-31,年度报告,-1670391.5499999996,2018,12,-2.14281299325407,False,2.3836712878639323,False,0.0,True,前期平均,6921812.73,未知,6921812.73
21,002575,2870503.289999998,2870503.289999998,2019-03-31,一季度报告,1227512.99,2019,3,98.99708477398785,False,-1.0443878158074649,True,2.0135088299751978,False,前期平均,-5336193.395000001,未知,-5336193.395000001
22,002575,-39285103.29999999,-39285103.29999999,2019-06-30,半年度报告,2454083.5500000003,2019,6,5.644352926198697,False,-5.910766270010517,True,8.129538188786482,False,盈利变化,7915910.083333334,未知,7915910.083333334
23,002575,-39980221.53999999,-40178245.83,2019-09-30,三季度报告,-231141.64,2019,9,3.1221365612953433,False,1.4981124132324026,True,6.494331916172724,False,盈利变化,6405646.303333334,未知,6405646.303333334
24,002575,-198616484.84,-189300218.46,2019-12-31,年度报告,-141208412.42,2019,12,2.5353170555944815,False,-2.6006969223351315,True,0.0,True,盈利变化,-39590860.89333333,未知,-39590860.89333333
25,002575,-21256418.590000004,-21120689.39,2020-03-31,一季度报告,-21120689.39,2020,3,7.524917106087001,False,-1.4207340343857506,True,0.4326068305050756,False,盈利变化,-219097821.63333333,未知,-219097821.63333333
