,SECURITYCODE_x,NETPROFIT_x,PARENTNETPROFIT_x,REPORTDATE_x,REPORTTIMETYPE_x,KCFJCXSYJLR,Year,Month,managesituationChangeRate,managesituationGreatChange,historyprofitextroplaterate,ifhistoryprofitextroplate,IfprofitdisStableChangeRage,IfprofitdisStable,predicttype,predict,analyst_prediction,adj_prediction
0,002595,332604123.32000005,333502696.06,2013-12-31,年度报告,332570582.57,2013,12,未知,未知,未知,未知,未知,未知,未知,未知,未知,未知
1,002595,93343452.76,93503425.06,2014-03-31,一季度报告,92453628.48,2014,3,未知,未知,未知,未知,未知,未知,未知,未知,未知,未知
2,002595,229551042.61000004,230100036.88,2014-06-30,半年度报告,230967796.8499999,2014,6,未知,未知,未知,未知,未知,未知,未知,未知,未知,未知
3,002595,381130706.73,381724457.6499999,2014-09-30,三季度报告,372506328.06,2014,9,未知,未知,未知,未知,未知,未知,未知,未知,未知,未知
4,002595,501642628.67,502236167.00999993,2014-12-31,年度报告,492171006.2300001,2014,12,0.0,True,未知,未知,未知,未知,未知,未知,未知,未知
5,002595,130672251.13999996,130672251.13999996,2015-03-31,一季度报告,127412592.44000004,2015,3,2.563229273028662,False,未知,未知,未知,未知,未知,未知,665968889.0,未知
6,002595,315159435.35,315159435.35,2015-06-30,半年度报告,309792350.46000016,2015,6,0.44893318513514197,True,未知,未知,未知,未知,未知,未知,687927143.0000001,未知
7,002595,508155921.8,508207557.19,2015-09-30,三季度报告,501168169.32000005,2015,9,-0.12732268104647126,True,未知,未知,未知,未知,未知,未知,684060000.0,未知
8,002595,643408097.62,644456609.54,2015-12-31,年度报告,633827212.64,2015,12,-0.3369699776077046,True,未知,未知,未知,未知,未知,未知,670092000.0,未知
9,002595,143748879.19000003,143964922.20000002,2016-03-31,一季度报告,139559617.85,2016,3,1.5453309361270116,False,未知,未知,未知,未知,未知,未知,788571429.0000001,未知
10,002595,364922051.6,366208269.98000014,2016-06-30,半年度报告,358654949.73,2016,6,0.05535194575604835,True,未知,未知,未知,未知,未知,未知,775746923.0,未知
11,002595,563974136.77,565749913.55,2016-09-30,三季度报告,551323193.7200001,2016,9,-0.34546837092472893,True,未知,未知,未知,未知,未知,未知,734800000.0,未知
12,002595,715438647.1500001,717665672.1500001,2016-12-31,年度报告,698900430.2299999,2016,12,-0.4830588477976575,True,0.542488708730897,True,0.0,True,比例外推,717665672.1500001,735800000.0,717665672.1500001
13,002595,155869039.03000003,156156105.75999996,2017-03-31,一季度报告,149612371.07000002,2017,3,1.313785854847471,False,0.28338216194137134,True,0.008336131252080659,True,前期平均,609222104.735,871864545.0000001,871864545.0000001
14,002595,370697514.05,370989862.87000006,2017-06-30,半年度报告,359456827.98,2017,6,-0.08856118214369912,True,0.3398752782089773,True,0.022764104602537194,True,比例外推,744510767.9787614,789100000.0,744510767.9787614
15,002595,538449199.5699999,538491533.3500001,2017-09-30,三季度报告,520109736.06,2017,9,-0.41024933301925026,True,0.2683742646670738,True,0.021939340088145687,True,比例外推,686214053.4307699,728337000.0,686214053.4307699
16,002595,675424506.95,675827863.48,2017-12-31,年度报告,650935524.5200001,2017,12,-0.5351046177824585,True,0.24961913166597188,True,0.0,True,比例外推,675827863.48,902750000.0,902750000.0
17,002595,108933004.81,109080849.32999998,2018-03-31,一季度报告,102407401.90000002,2018,3,1.133869082595575,False,0.1359842359264583,True,0.019659526285558726,True,前期平均,641958565.6199999,787402856.9999999,787402856.9999999
18,002595,352112311.64000005,352221549.2400001,2018-06-30,半年度报告,335633163.22,2018,6,-0.10276138707761037,True,0.09015616852765142,True,0.034165484534742885,True,比例外推,664466027.2270174,728015000.0,664466027.2270174
19,002595,576927039.19,576701016.25,2018-09-30,三季度报告,554007509.24,2018,9,-0.3822924732999616,True,0.0044475392998121095,True,0.006164129834904997,True,比例外推,721443876.592412,753002222.0,721443876.592412
20,002595,738863749.8599999,739102307.8900001,2018-12-31,年度报告,711538358.79,2018,12,-0.5075628439632235,True,0.005885675408784668,True,0.0,True,比例外推,739102307.8900001,749995000.0,739102307.8900001
21,002595,157060562.48999998,156478488.61,2019-03-31,一季度报告,150037815.68,2019,3,2.0532906340013777,False,0.2728538703081575,True,0.04722625003363892,True,前期平均,686810471.5249999,919718333.0,919718333.0
22,002595,375343915.52,374556809.25,2019-06-30,半年度报告,363800895.36,2019,6,-0.05540331216803684,True,0.04267823184156222,True,0.04066152233633019,True,比例外推,720802162.8969274,848827778.0,848827778.0
23,002595,651774524.61,650430070.47,2019-09-30,三季度报告,631788785.85,2019,9,-0.4234901456742728,True,0.046652443162848986,True,0.010217330039307027,True,比例外推,819567618.8603009,861820000.0,819567618.8603009
24,002595,862776339.8899999,862763843.4200001,2019-12-31,年度报告,833168538.5499997,2019,12,-0.5498437656698925,True,0.062453552935053364,True,0.0,True,比例外推,862763843.4200001,886096667.0,862763843.4200001
25,002595,190918688.31,191212184.86,2020-03-31,一季度报告,184225940.1,2020,3,1.1176807089378462,False,0.186248868871268,True,0.045226406918420614,True,前期平均,746439240.0300001,917852856.9999999,917852856.9999999
