,SECURITYCODE_x,NETPROFIT_x,PARENTNETPROFIT_x,REPORTDATE_x,REPORTTIMETYPE_x,KCFJCXSYJLR,Year,Month,managesituationChangeRate,managesituationGreatChange,historyprofitextroplaterate,ifhistoryprofitextroplate,IfprofitdisStableChangeRage,IfprofitdisStable,predicttype,predict,analyst_prediction,adj_prediction
0,002545,167156905.91,168805522.90999997,2013-12-31,年度报告,141850851.0,2013,12,未知,未知,未知,未知,未知,未知,未知,未知,未知,未知
1,002545,11535866.080000002,11845986.09,2014-03-31,一季度报告,11747009.56,2014,3,未知,未知,未知,未知,未知,未知,未知,未知,未知,未知
2,002545,27070048.230000004,27488266.73,2014-06-30,半年度报告,23949157.96,2014,6,未知,未知,未知,未知,未知,未知,未知,未知,未知,未知
3,002545,44179902.81,44773610.33,2014-09-30,三季度报告,40906741.84,2014,9,未知,未知,未知,未知,未知,未知,未知,未知,未知,未知
4,002545,53594269.72000001,53579669.90000001,2014-12-31,年度报告,49753307.74,2014,12,0.0,True,未知,未知,未知,未知,未知,未知,未知,未知
5,002545,13713411.55,13745561.13,2015-03-31,一季度报告,13211565.569999995,2015,3,13.490191265292493,False,未知,未知,未知,未知,未知,未知,未知,未知
6,002545,34723670.25000001,34929801.730000004,2015-06-30,半年度报告,34348188.01,2015,6,5.174976287066629,False,未知,未知,未知,未知,未知,未知,未知,未知
7,002545,46190201.22,48254905.56999999,2015-09-30,三季度报告,48870348.22000001,2015,9,2.783550783913551,False,未知,未知,未知,未知,未知,未知,未知,未知
8,002545,60342132.53,60465879.73,2015-12-31,年度报告,58713210.95,2015,12,2.118932430338188,False,未知,未知,未知,未知,未知,未知,未知,未知
9,002545,17113446.939999998,17178848.98,2016-03-31,一季度报告,16474423.53,2016,3,11.189301349305744,False,未知,未知,未知,未知,未知,未知,未知,未知
10,002545,58777159.95000001,58111577.06000001,2016-06-30,半年度报告,57409909.26,2016,6,3.8139181344172557,False,未知,未知,未知,未知,未知,未知,264627500.0,未知
11,002545,81959778.28999999,80415911.72,2016-09-30,三季度报告,79905591.99000001,2016,9,2.6188823926928975,False,未知,未知,未知,未知,未知,未知,119000000.0,未知
12,002545,136941230.51000002,136494972.52,2016-12-31,年度报告,135293570.28,2016,12,1.7701524440969238,False,0.45330182403069813,True,0.0,True,前期平均,136494972.52,未知,136494972.52
13,002545,20533974.27,21257595.61,2017-03-31,一季度报告,21092791.630000006,2017,3,8.76757671882553,False,0.35555933051063654,True,0.0725292577017142,True,前期平均,63011567.39,未知,63011567.39
14,002545,73117101.23,73830460.77,2017-06-30,半年度报告,73639896.69999999,2017,6,1.8439091996312074,False,0.9023668229004107,True,0.0881129178626221,True,前期平均,98915047.13,未知,98915047.13
15,002545,134715980.05,135381648.5,2017-09-30,三季度报告,135324119.14,2017,9,1.0394992445995306,False,0.8138692916142257,True,0.15777681915345632,False,前期平均,144726362.815,未知,144726362.815
16,002545,249987391.43,251261519.20000008,2017-12-31,年度报告,22884061.44,2017,12,0.22064702710403572,True,1.4038187586355881,True,0.0,True,比例外推,251261519.20000008,,251261519.20000008
17,002545,26184448.81,26651270.62,2018-03-31,一季度报告,26518073.5,2018,3,7.140504303359098,False,0.33221322417015453,True,0.49888722403291813,False,前期平均,108811666.685,未知,108811666.685
18,002545,160640543.26,161220839.00999996,2018-06-30,半年度报告,159947111.47000003,2018,6,1.286153349873441,False,0.5639882784698523,True,1.8088530976476342,False,前期平均,212345180.98999998,539000000.0,539000000.0
19,002545,217301798.93,217940891.57,2018-09-30,三季度报告,217182807.62,2018,9,0.24080978253626253,True,1.1024736884875999,True,3.4679887054858205,False,平均增速,58184015.002075166,,58184015.002075166
20,002545,443135431.2700001,446473039.1899999,2018-12-31,年度报告,351690762.71000004,2018,12,-0.3313386529063955,True,1.53429774896238,True,0.0,True,比例外推,446473039.1899999,未知,446473039.1899999
21,002545,21550492.64,22584426.78,2019-03-31,一季度报告,22406755.55,2019,3,5.383823739156265,False,0.39103545307612336,True,0.5487595374114886,False,前期平均,82889635.06,614120000.0,614120000.0
22,002545,226548642.47,228127115.86,2019-06-30,半年度报告,227009107.87,2019,6,0.04056486935214817,True,1.4358989060300218,True,1.8522602966022894,False,平均增速,1109000690.6000881,614120000.0,614120000.0
23,002545,255383741.88,257015177.62,2019-09-30,三季度报告,255988534.76,2019,9,-0.2307615181600651,True,1.0057785937365236,True,3.539594639985166,False,平均增速,858765800.2119535,,858765800.2119535
24,002545,301699877.63,304730042.43999994,2019-12-31,年度报告,161420353.76999998,2019,12,-0.6227859608721918,True,1.2905280516503939,True,0.0,True,比例外推,304730042.43999994,599760000.0,599760000.0
25,002545,45111778.14,45418561.26,2020-03-31,一季度报告,45490267.98,2020,3,6.75652365365138,False,0.07743064858600954,True,0.5430788688055759,False,前期平均,208900540.77,未知,208900540.77
