,SECURITYCODE_x,NETPROFIT_x,PARENTNETPROFIT_x,REPORTDATE_x,REPORTTIMETYPE_x,KCFJCXSYJLR,Year,Month,managesituationChangeRate,managesituationGreatChange,historyprofitextroplaterate,ifhistoryprofitextroplate,IfprofitdisStableChangeRage,IfprofitdisStable,predicttype,predict,analyst_prediction,adj_prediction
0,002511,115956890.63,115935221.88999996,2013-12-31,年度报告,92726527.1,2013,12,未知,未知,未知,未知,未知,未知,未知,未知,未知,未知
1,002511,21239867.14,21239867.14,2014-03-31,一季度报告,14716827.42,2014,3,未知,未知,未知,未知,未知,未知,未知,未知,未知,未知
2,002511,36155916.98,36155916.98,2014-06-30,半年度报告,27717368.91,2014,6,未知,未知,未知,未知,未知,未知,未知,未知,未知,未知
3,002511,50956409.42,50956409.42,2014-09-30,三季度报告,46367095.43,2014,9,未知,未知,未知,未知,未知,未知,未知,未知,未知,未知
4,002511,67502192.42,67502192.42,2014-12-31,年度报告,65289464.86000002,2014,12,0.0,True,未知,未知,未知,未知,未知,未知,未知,未知
5,002511,22243466.470000006,22243466.470000006,2015-03-31,一季度报告,18586402.390000004,2015,3,4.4593981151428235,False,未知,未知,未知,未知,未知,未知,,未知
6,002511,45791535.76,45791535.76,2015-06-30,半年度报告,42883034.72000001,2015,6,2.2071345526692823,False,未知,未知,未知,未知,未知,未知,未知,未知
7,002511,66131141.98,66131141.98,2015-09-30,三季度报告,52417061.02,2015,9,1.2756095248831996,False,未知,未知,未知,未知,未知,未知,94686400.0,未知
8,002511,88196116.47,88196116.47,2015-12-31,年度报告,70138064.61999999,2015,12,0.7178240657505446,False,未知,未知,未知,未知,未知,未知,54000000.0,未知
9,002511,45560448.89999999,45560448.89999999,2016-03-31,一季度报告,43473952.63,2016,3,4.213076423424931,False,未知,未知,未知,未知,未知,未知,191965200.0,未知
10,002511,105815020.3,105815020.3,2016-06-30,半年度报告,101577611.43,2016,6,1.532277826141204,False,未知,未知,未知,未知,未知,未知,216488700.0,未知
11,002511,181132307.71,181132307.71,2016-09-30,三季度报告,174675934.18,2016,9,0.7534385035278655,False,未知,未知,未知,未知,未知,未知,250814286.0,未知
12,002511,260416579.23000005,260416579.23000005,2016-12-31,年度报告,250679634.48,2016,12,0.3147618656139225,True,0.03852003396350789,True,0.0,True,比例外推,260416579.23000005,250814286.0,260416579.23000005
13,002511,75278079.39000002,75278079.39000002,2017-03-31,一季度报告,70858566.03000002,2017,3,1.5451217762255196,False,1.0955361568471054,True,0.04785252706867027,True,前期平均,126340229.22500002,381828810.0,381828810.0
14,002511,156410452.48,156410452.48,2017-06-30,半年度报告,145521814.79,2017,6,0.09584528076681754,True,1.5825090777556243,True,0.13102612352793402,False,平均增速,436483149.7902223,360452384.0,360452384.0
15,002511,246604038.59,246604038.59,2017-09-30,三季度报告,230702184.6899999,2017,9,-0.3598221537835671,True,2.0939635434207227,False,0.02923184954604996,True,比例外推,337165188.6683601,352610769.0,337165188.6683601
16,002511,349065603.85,349065603.85,2017-12-31,年度报告,326378536.83999985,2017,12,-0.5547253904768221,True,2.345143323476724,False,0.0,True,比例外推,349065603.85,352768824.0,349065603.85
17,002511,98560444.43,98560444.43,2018-03-31,一季度报告,91445247.7,2018,3,0.5403805672199944,False,1.2204640832085922,True,0.046488303739646075,True,前期平均,227939116.46999997,439573043.00000006,439573043.00000006
18,002511,199785218.49,199785218.49,2018-06-30,半年度报告,189970783.51,2018,6,-0.2586372023645462,True,1.0633732015929283,True,0.12391355143914667,False,平均增速,538301696.9787893,442520870.0,442520870.0
19,002511,312809121.22,312809121.22,2018-09-30,三季度报告,286805077.22,2018,9,-0.5297851110103347,True,0.9946663277502056,True,0.030339399058291527,True,比例外推,426010155.1450811,440427647.0,426010155.1450811
20,002511,406993183.92000014,406993183.92000014,2018-12-31,年度报告,392524980.16000015,2018,12,-0.6678077434411761,True,1.0025983457033345,True,0.0,True,比例外推,406993183.92000014,436157143.0,406993183.92000014
21,002511,123378242.24,123378242.24,2019-03-31,一季度报告,121740362.25,2019,3,0.17650535466441977,True,0.6312751541207967,True,0.0344078224791379,True,比例外推,587400713.9461092,526288462.0,526288462.0
22,002511,274874634.42999995,274874634.42999995,2019-06-30,半年度报告,269657245.92,2019,6,-0.41959224257722516,True,0.5237666758455184,True,0.03980722226823141,True,比例外推,611166815.0140111,585450000.0,611166815.0140111
23,002511,437807689.13,437807689.13,2019-09-30,三季度报告,426128313.23,2019,9,-0.6293046373527995,True,0.46262586252422955,True,0.019223353932039666,True,比例外推,610642165.9383206,606048929.0,610642165.9383206
24,002511,603832650.83,603832650.83,2019-12-31,年度报告,588728468.5900003,2019,12,-0.7150888633732184,True,0.33553759311969455,True,0.0,True,比例外推,603832650.83,605525172.0,603832650.83
25,002511,183429517.35,183429517.35,2020-03-31,一季度报告,186893864.62000003,2020,3,-0.060151218523309055,True,0.4194580065319837,True,0.014014224298608963,True,比例外推,850117543.0043108,799280690.0,850117543.0043108
