,SECURITYCODE_x,NETPROFIT_x,PARENTNETPROFIT_x,REPORTDATE_x,REPORTTIMETYPE_x,KCFJCXSYJLR,Year,Month,managesituationChangeRate,managesituationGreatChange,historyprofitextroplaterate,ifhistoryprofitextroplate,IfprofitdisStableChangeRage,IfprofitdisStable,predicttype,predict,analyst_prediction,adj_prediction
0,002520,7309554.1800000025,8223459.12,2013-12-31,年度报告,6164361.53,2013,12,未知,未知,未知,未知,未知,未知,未知,未知,未知,未知
1,002520,14603944.589999998,14755756.53,2014-03-31,一季度报告,14747435.660000002,2014,3,未知,未知,未知,未知,未知,未知,未知,未知,未知,未知
2,002520,27008103.75,27438710.070000004,2014-06-30,半年度报告,27065506.97000001,2014,6,未知,未知,未知,未知,未知,未知,未知,未知,未知,未知
3,002520,39735122.37000001,39450331.03999999,2014-09-30,三季度报告,35587176.96,2014,9,未知,未知,未知,未知,未知,未知,未知,未知,未知,未知
4,002520,50626946.53999999,48558015.18,2014-12-31,年度报告,43994605.46,2014,12,0.0,True,未知,未知,未知,未知,未知,未知,未知,未知
5,002520,13220584.29,11782729.91,2015-03-31,一季度报告,11760797.21,2015,3,-0.4994808330753874,True,未知,未知,未知,未知,未知,未知,122600000.0,未知
6,002520,26071439.92000001,23938347.779999994,2015-06-30,半年度报告,20072446.09,2015,6,-0.7293570015999363,True,未知,未知,未知,未知,未知,未知,122440000.0,未知
7,002520,36725954.66,33096211.91,2015-09-30,三季度报告,29197147.0,2015,9,-0.8160429930997593,True,未知,未知,未知,未知,未知,未知,59644000.0,未知
8,002520,45466342.35,39577995.78,2015-12-31,年度报告,33228301.669999994,2015,12,-0.8556192960556139,True,未知,未知,未知,未知,未知,未知,51758666.99999999,未知
9,002520,19022609.24,12867507.31,2016-03-31,一季度报告,13117390.44,2016,3,-0.4471080839045123,True,未知,未知,未知,未知,未知,未知,121530181.0,未知
10,002520,38953925.90000001,26700936.12999999,2016-06-30,半年度报告,25168111.97,2016,6,-0.7196336603413809,True,未知,未知,未知,未知,未知,未知,90560000.0,未知
11,002520,47512153.23000001,33638092.27,2016-09-30,三季度报告,32438181.25000001,2016,9,-0.8009703424275805,True,未知,未知,未知,未知,未知,未知,63230000.0,未知
12,002520,52771820.36999998,41124696.75,2016-12-31,年度报告,27168245.43,2016,12,-0.8392315325536628,True,0.5695232464843972,True,0.0,True,比例外推,41124696.75,78845000.0,78845000.0
13,002520,13651205.64,14520385.400000004,2017-03-31,一季度报告,12757630.31,2017,3,-0.6157438715278996,True,0.36732660035608133,True,0.09216402915891608,True,比例外推,34419643.5229222,74731667.0,74731667.0
14,002520,42883593.78999999,38989440.33000001,2017-06-30,半年度报告,29622481.47000001,2017,6,-0.8123538510915532,True,0.46775662361303816,True,0.21116069508966562,False,平均增速,40953008.464766964,83333333.0,83333333.0
15,002520,50438430.71,46694317.05,2017-09-30,三季度报告,37011684.60000001,2017,9,-0.8461540114880625,True,0.24278011965116078,True,0.23345548122390236,False,平均增速,41615564.42022362,81030000.0,81030000.0
16,002520,75265822.08000001,59247650.60999999,2017-12-31,年度报告,44074759.21999999,2017,12,-0.8614875490602675,True,0.09834559685867342,True,0.0,True,比例外推,59247650.60999999,81000000.0,81000000.0
17,002520,41155247.44,36130647.10999999,2018-03-31,一季度报告,18848105.6,2018,3,-0.4645488191473759,True,0.1532348911221511,True,0.10741594608975996,False,平均增速,78367357.52706161,170000000.0,170000000.0
18,002520,96723185.78,84474439.05,2018-06-30,半年度报告,35365179.760000005,2018,6,-0.8295489362250112,True,0.31898047013555353,True,0.19219546491847306,False,平均增速,101917033.34343487,115958492.0,115958492.0
19,002520,120488264.18,104665165.63,2018-09-30,三季度报告,45485381.13,2018,9,-0.8550796668907703,True,0.19752050404227073,True,0.2231724122156007,False,平均增速,113313558.29441339,85710000.0,85710000.0
20,002520,187677871.66,150910130.8,2018-12-31,年度报告,59897847.88999999,2018,12,-0.9028834871127737,True,0.5323133087194207,True,0.0,True,比例外推,150910130.8,,150910130.8
21,002520,43431775.72,42207581.92999999,2019-03-31,一季度报告,38871575.74999999,2019,3,-0.8223907123713311,True,1.5191577776362795,True,0.12050538921431331,False,平均增速,115132601.19903925,未知,115132601.19903925
22,002520,94086534.40999998,92582040.9,2019-06-30,半年度报告,88365643.43,2019,6,-0.924428107686343,True,1.3637858563257248,True,0.1967461037972753,False,平均增速,141516249.35451597,202860000.0,202860000.0
23,002520,116152306.72,114856644.07,2019-09-30,三季度报告,113700271.36,2019,9,-0.939333890900112,True,1.4601847040300555,True,0.2629392573488333,False,平均增速,143612093.57682005,202860000.0,202860000.0
24,002520,176873462.6,176297041.48999998,2019-12-31,年度报告,144002834.25000003,2019,12,-0.9610526583909578,True,1.931604613593071,True,0.0,True,比例外推,176297041.48999998,,176297041.48999998
25,002520,31849167.71,31879502.57,2020-03-31,一季度报告,30785859.440000005,2020,3,-0.8317003148311524,True,0.5849146689570811,True,0.023317046124920304,True,比例外推,106758511.70700419,260980000.0,260980000.0
