,SECURITYCODE_x,NETPROFIT_x,PARENTNETPROFIT_x,REPORTDATE_x,REPORTTIMETYPE_x,KCFJCXSYJLR,Year,Month,managesituationChangeRate,managesituationGreatChange,historyprofitextroplaterate,ifhistoryprofitextroplate,IfprofitdisStableChangeRage,IfprofitdisStable,predicttype,predict,analyst_prediction,adj_prediction
0,002598,81412366.53,81412366.53,2013-12-31,年度报告,71068885.57,2013,12,未知,未知,未知,未知,未知,未知,未知,未知,未知,未知
1,002598,16341508.340000005,16341508.340000005,2014-03-31,一季度报告,15189530.900000002,2014,3,未知,未知,未知,未知,未知,未知,未知,未知,未知,未知
2,002598,37194939.05,37194939.05,2014-06-30,半年度报告,35392667.74,2014,6,未知,未知,未知,未知,未知,未知,未知,未知,未知,未知
3,002598,59208987.19000001,59208987.19000001,2014-09-30,三季度报告,55904587.51000001,2014,9,未知,未知,未知,未知,未知,未知,未知,未知,未知,未知
4,002598,76047388.58000003,76047388.58000003,2014-12-31,年度报告,72224537.50000001,2014,12,0.0,True,未知,未知,未知,未知,未知,未知,未知,未知
5,002598,11957703.27,11957703.27,2015-03-31,一季度报告,11337939.680000005,2015,3,3.9819370914937204,False,未知,未知,未知,未知,未知,未知,53040000.0,未知
6,002598,27330556.98,27330556.98,2015-06-30,半年度报告,26113266.98,2015,6,1.188802256687661,False,未知,未知,未知,未知,未知,未知,89460000.0,未知
7,002598,42890931.37,42890931.37,2015-09-30,三季度报告,40409754.01999999,2015,9,0.3750001544317918,True,未知,未知,未知,未知,未知,未知,,未知
8,002598,54681336.37,54724653.9,2015-12-31,年度报告,50207029.43000002,2015,12,0.07054782616705037,True,未知,未知,未知,未知,未知,未知,,未知
9,002598,10245564.409999998,10290309.47,2016-03-31,一季度报告,9675005.03,2016,3,5.8083614964966435,False,未知,未知,未知,未知,未知,未知,未知,未知
10,002598,25345865.83,25476443.2,2016-06-30,半年度报告,24310659.48,2016,6,1.9788037832370584,False,未知,未知,未知,未知,未知,未知,未知,未知
11,002598,42108599.82000001,42319014.29,2016-09-30,三季度报告,40397097.45999999,2016,9,0.898125406223838,False,未知,未知,未知,未知,未知,未知,未知,未知
12,002598,55550099.29,55861895.66,2016-12-31,年度报告,51708433.45999999,2016,12,0.48885107670238903,True,0.3054563519192559,True,0.0,True,比例外推,55861895.66,未知,55861895.66
13,002598,12204280.950000005,12290321.1,2017-03-31,一季度报告,11518267.72,2017,3,6.94610850823786,False,0.27591167194357075,True,0.020639925597126046,True,前期平均,60242369.27500001,未知,60242369.27500001
14,002598,31312105.750000004,31464402.97,2017-06-30,半年度报告,29984185.67,2017,6,2.212057030367386,False,0.2143922204576039,True,0.02667936619691952,True,前期平均,61927219.07500002,未知,61927219.07500002
15,002598,51071776.65000001,51356785.19000001,2017-09-30,三季度报告,49346049.96999999,2017,9,0.9333904921562406,False,0.17514919866944884,True,0.018146164460303593,True,前期平均,64415397.89000003,未知,64415397.89000003
16,002598,69108893.7,69510445.19999999,2017-12-31,年度报告,66531211.33000001,2017,12,0.4655665349036679,True,0.1501470038624439,True,0.0,True,比例外推,69510445.19999999,未知,69510445.19999999
17,002598,12988266.73,13136597.08,2018-03-31,一季度报告,12432859.590000005,2018,3,5.670804028810888,False,0.09932295785392296,True,0.030471605382009714,True,前期平均,53587856.17,86000000.0,86000000.0
18,002598,38091571.37,38424203.13,2018-06-30,半年度报告,36785133.11,2018,6,1.600028473971285,False,0.18884708109130627,True,0.039798741519525394,True,前期平均,64169971.345000006,,64169971.345000006
19,002598,62016499.97000001,62600417.4,2018-09-30,三季度报告,59245107.19000001,2018,9,0.5940774312185589,False,0.20169549019838576,True,0.03423824083328708,True,前期平均,73154723.10500002,未知,73154723.10500002
20,002598,83168287.63,84017439.32000001,2018-12-31,年度报告,79845476.59000002,2018,12,0.17803023853064512,True,0.25388721078006876,True,0.0,True,比例外推,84017439.32000001,未知,84017439.32000001
21,002598,15299491.81,15766204.15,2019-03-31,一季度报告,14867113.98,2019,3,5.268147107108263,False,0.15709186604392705,True,0.01626988932679707,True,前期平均,64289390.17,未知,64289390.17
22,002598,42799439.91,43328949.51000001,2019-06-30,半年度报告,41964698.79000001,2019,6,1.1372803379310945,False,0.34461472261552495,True,0.009831962942641381,True,前期平均,75301349.33000001,未知,75301349.33000001
23,002598,69366721.8,69555485.8,2019-09-30,三季度报告,67833358.46,2019,9,0.31275332483101403,True,0.33110644793255567,True,0.0262669047339521,True,比例外推,91569914.34214735,未知,91569914.34214735
24,002598,74453287.89,75149711.48,2019-12-31,年度报告,72620876.14,2019,12,-0.021112868258292818,True,0.33433273661486507,True,0.0,True,比例外推,75149711.48,未知,75149711.48
25,002598,11829028.34,11959349.5,2020-03-31,一季度报告,10400294.4,2020,3,4.321246453217977,False,0.2146045730933392,True,0.02686911549531673,True,前期平均,73172129.805,未知,73172129.805
