,SECURITYCODE_x,NETPROFIT_x,PARENTNETPROFIT_x,REPORTDATE_x,REPORTTIMETYPE_x,KCFJCXSYJLR,Year,Month,managesituationChangeRate,managesituationGreatChange,historyprofitextroplaterate,ifhistoryprofitextroplate,IfprofitdisStableChangeRage,IfprofitdisStable,predicttype,predict,analyst_prediction,adj_prediction
0,002582,102027825.07999998,102027825.07999998,2013-12-31,年度报告,62739274.27,2013,12,未知,未知,未知,未知,未知,未知,未知,未知,未知,未知
1,002582,31492444.869999994,31492444.869999994,2014-03-31,一季度报告,30130702.47000001,2014,3,未知,未知,未知,未知,未知,未知,未知,未知,未知,未知
2,002582,38862152.17,38862152.17,2014-06-30,半年度报告,36169827.8,2014,6,未知,未知,未知,未知,未知,未知,未知,未知,未知,未知
3,002582,43736878.81,43736878.81,2014-09-30,三季度报告,38233321.82,2014,9,未知,未知,未知,未知,未知,未知,未知,未知,未知,未知
4,002582,53700787.67000002,53700787.67000002,2014-12-31,年度报告,40974654.00000001,2014,12,0.0,True,未知,未知,未知,未知,未知,未知,未知,未知
5,002582,34909721.559999995,34909721.559999995,2015-03-31,一季度报告,27123253.42,2015,3,2.2397556144392166,False,未知,未知,未知,未知,未知,未知,67193333.0,未知
6,002582,35371775.78,35371775.78,2015-06-30,半年度报告,18110901.99,2015,6,1.6253776330679213,False,未知,未知,未知,未知,未知,未知,52931455.0,未知
7,002582,25351323.41,25351323.41,2015-09-30,三季度报告,1752156.7499999998,2015,9,1.3327641993665158,False,未知,未知,未知,未知,未知,未知,44694286.0,未知
8,002582,-3233122.39,-3233122.39,2015-12-31,年度报告,-28624592.129999995,2015,12,0.8999316305559127,False,未知,未知,未知,未知,未知,未知,40310000.0,未知
9,002582,18001366.55,18001366.55,2016-03-31,一季度报告,2479213.45,2016,3,1.9226192739647847,False,未知,未知,未知,未知,未知,未知,53286429.0,未知
10,002582,14528140.88,14560753.870000005,2016-06-30,半年度报告,-33624443.09,2016,6,1.8844417004839438,False,未知,未知,未知,未知,未知,未知,43723077.0,未知
11,002582,14744418.270000005,14814021.76,2016-09-30,三季度报告,-44433227.12,2016,9,3.0245561712866804,False,未知,未知,未知,未知,未知,未知,45825000.0,未知
12,002582,39091616.39,39272402.55999999,2016-12-31,年度报告,-38156564.88,2016,12,-32.557056236278136,False,1.0415225221994409,True,0.0,True,前期平均,39272402.55999999,44218182.0,44218182.0
13,002582,58188628.12,59519193.63000001,2017-03-31,一季度报告,58820275.52999998,2017,3,4.667782209567861,False,0.45780785423690273,True,0.8551588315055536,False,前期平均,37067246.62000001,140174340.0,140174340.0
14,002582,65670310.25,68707125.23,2017-06-30,半年度报告,41742740.4,2017,6,6.0227722819273755,False,0.6085848807627321,True,1.0097894004972978,False,前期平均,47741791.27000001,120527857.0,120527857.0
15,002582,82081195.55999999,88113811.96000001,2017-09-30,三季度报告,60475730.98,2017,9,5.919759275114483,False,0.5731711697158125,True,0.740005876002486,False,前期平均,74296103.61000001,118804167.0,118804167.0
16,002582,97366052.73,106895659.21999998,2017-12-31,年度报告,63369020.62000001,2017,12,1.6099669060013504,False,0.5491747507286309,True,0.0,True,前期平均,106895659.21999998,117470833.0,106895659.21999998
17,002582,117188328.41,120249811.25000004,2018-03-31,一季度报告,106103333.36000004,2018,3,0.7533980156671202,False,1.1994871093570485,True,0.9563206025431055,False,前期平均,72057999.31000003,194061817.99999997,194061817.99999997
18,002582,93934874.65,103263013.98000002,2018-06-30,半年度报告,86272644.92,2018,6,0.5536370194017772,False,1.632080959070684,True,0.9351187655412523,False,前期平均,77629206.02500002,195392727.0,195392727.0
19,002582,95392233.6,107701224.08,2018-09-30,三季度报告,83377935.71999998,2018,9,0.2430109525563543,True,3.09425999474366,False,0.7470876514859438,False,未知,未知,160188000.0,未知
20,002582,108990932.65,129571542.33,2018-12-31,年度报告,91448778.07,2018,12,0.04787882654468146,True,4.430571218635117,False,0.0,True,比例外推,129571542.33,157038889.0,157038889.0
21,002582,131972907.14,132785595.39000002,2019-03-31,一季度报告,102195740.54,2019,3,-0.1293687138957972,True,2.0762130622944692,False,0.7394721495395625,False,未知,未知,169285714.0,未知
22,002582,125775543.02,126751111.7,2019-06-30,半年度报告,83406055.96,2019,6,0.08615490743085776,True,1.342560818231603,True,0.16905737519691766,False,平均增速,135857772.57645974,163400000.0,163400000.0
23,002582,129426770.88,130580585.26000002,2019-09-30,三季度报告,73415983.83000001,2019,9,0.06956112913577893,True,0.970392540293798,True,0.15430275602497767,False,平均增速,144432005.41950524,165857143.0,165857143.0
24,002582,191088110.75,192622682.74,2019-12-31,年度报告,38895472.78000001,2019,12,-0.06388703537715826,True,0.5974321319258953,True,0.0,True,比例外推,192622682.74,165400000.0,165400000.0
25,002582,28477587.919999994,29174234.79000001,2020-03-31,一季度报告,30707753.939999994,2020,3,-0.22690325392494054,True,0.5050199268046336,True,1.0554747832652083,False,平均增速,-9904180.791230205,148870000.0,148870000.0
