,SECURITYCODE_x,NETPROFIT_x,PARENTNETPROFIT_x,REPORTDATE_x,REPORTTIMETYPE_x,KCFJCXSYJLR,Year,Month,managesituationChangeRate,managesituationGreatChange,historyprofitextroplaterate,ifhistoryprofitextroplate,IfprofitdisStableChangeRage,IfprofitdisStable,predicttype,predict,analyst_prediction,adj_prediction
0,002557,256483841.00000003,255181899.36999995,2013-12-31,年度报告,182165916.28,2013,12,未知,未知,未知,未知,未知,未知,未知,未知,未知,未知
1,002557,57817734.14000002,58259884.51,2014-03-31,一季度报告,41222431.65000001,2014,3,未知,未知,未知,未知,未知,未知,未知,未知,未知,未知
2,002557,111357108.82,112205447.09,2014-06-30,半年度报告,72907120.19999999,2014,6,未知,未知,未知,未知,未知,未知,未知,未知,未知,未知
3,002557,205738705.53,206524212.24,2014-09-30,三季度报告,150725440.08,2014,9,未知,未知,未知,未知,未知,未知,未知,未知,未知,未知
4,002557,292262042.31999993,293452510.80999994,2014-12-31,年度报告,213931654.68000004,2014,12,0.0,True,未知,未知,未知,未知,未知,未知,未知,未知
5,002557,68011894.72999999,67420612.60000001,2015-03-31,一季度报告,52703614.1,2015,3,3.4360756230769844,False,未知,未知,未知,未知,未知,未知,361475556.0,未知
6,002557,142857173.19999996,144136588.36999995,2015-06-30,半年度报告,115230458.73,2015,6,1.3032552094593797,False,未知,未知,未知,未知,未知,未知,366725000.0,未知
7,002557,264906118.98,264602526.44,2015-09-30,三季度报告,208833847.50000003,2015,9,0.24664846286106615,True,未知,未知,未知,未知,未知,未知,369644000.0,未知
8,002557,365153637.76999986,363941844.17,2015-12-31,年度报告,278664305.09000003,2015,12,-0.122418227957314,True,未知,未知,未知,未知,未知,未知,368140000.0,未知
9,002557,95872076.31000005,93237103.05,2016-03-31,一季度报告,77795744.34,2016,3,2.77116153017371,False,未知,未知,未知,未知,未知,未知,418875000.0,未知
10,002557,175814621.11999995,173012363.11,2016-06-30,半年度报告,135273145.98000002,2016,6,0.795386505659907,False,未知,未知,未知,未知,未知,未知,423085333.0,未知
11,002557,276458110.70000005,272096548.9,2016-09-30,三季度报告,210483107.68000007,2016,9,-0.031793444456584365,True,未知,未知,未知,未知,未知,未知,383850000.0,未知
12,002557,359035717.18000007,353709615.29999995,2016-12-31,年度报告,284765676.81,2016,12,-0.29760020311901675,True,0.33086606704277116,True,0.0,True,比例外推,353709615.29999995,390243750.0,353709615.29999995
13,002557,77339582.32,77064958.84,2017-03-31,一季度报告,60134016.46,2017,3,1.6752715792934925,False,0.5238394513433654,True,0.05485504951429271,True,前期平均,276399915.85,396583333.0,396583333.0
14,002557,148689875.95000005,148516488.86,2017-06-30,半年度报告,102002121.66,2017,6,0.4588311220426905,True,0.38320018625993624,True,0.06898349424780514,True,比例外推,295433710.3030921,331963750.0,331963750.0
15,002557,238509880.92999992,236323081.22,2017-09-30,三季度报告,157255388.39000002,2017,9,-0.07225061926895392,True,0.1748056976418574,True,0.026485349108503975,True,比例外推,294181088.3708144,327945000.0,327945000.0
16,002557,321687034.60999995,319222143.28,2017-12-31,年度报告,225489668.7,2017,12,-0.28563140454515384,True,0.09226392997151604,True,0.0,True,比例外推,319222143.28,327082857.0,319222143.28
17,002557,86122252.81,83861797.10000001,2018-03-31,一季度报告,62259422.36000001,2018,3,2.3163334130610296,False,0.056166605810115316,True,0.05387174795525623,True,前期平均,300327108.83000004,372322941.0,372322941.0
18,002557,177022740.22000003,172043668.21,2018-06-30,半年度报告,122047946.59000002,2018,6,0.7249583360083498,False,0.06681495758177787,True,0.03345720208267777,True,前期平均,328506856.805,389085625.0,389085625.0
19,002557,307633138.36000013,302765073.0,2018-09-30,三季度报告,228062386.31,2018,9,0.07535939391657856,True,0.11885614950591433,True,0.03125495321525684,True,比例外推,387695717.58405703,400958333.0,387695717.58405703
20,002557,441570411.6499999,432808513.09000015,2018-12-31,年度报告,329483960.22,2018,12,-0.20269139441398246,True,0.11159413650257222,True,0.0,True,比例外推,432808513.09000015,399884615.0,432808513.09000015
21,002557,115475924.62,113841829.55,2019-03-31,一季度报告,86248548.12,2019,3,1.9781366909414921,False,0.0055836484544380454,True,0.05398441475654825,True,前期平均,300004621.905,519001364.00000006,519001364.00000006
22,002557,221997175.31,220360139.89,2019-06-30,半年度报告,172472393.80999997,2019,6,0.448875103171759,True,0.09103412629633813,True,0.06218281779667961,True,比例外推,446571675.23470044,518622609.0,518622609.0
23,002557,402088269.35000014,400482115.45,2019-09-30,三季度报告,317047217.32,2019,9,-0.16626718965543918,True,0.19476605676506534,True,0.02957141165337196,True,比例外推,530248662.85213757,550915789.0,530248662.85213757
24,002557,603477063.34,603525540.2199999,2019-12-31,年度报告,482262062.9500001,2019,12,-0.41915528252537054,True,0.2973575820372241,True,0.0,True,比例外推,603525540.2199999,551270000.0,603525540.2199999
25,002557,148681432.25999996,148878571.30999997,2020-03-31,一季度报告,128059989.74,2020,3,1.2211022933483224,False,0.4128793369799483,True,0.05518725445353326,True,前期平均,365168666.36,736030938.0,736030938.0
