,SECURITYCODE_x,NETPROFIT_x,PARENTNETPROFIT_x,REPORTDATE_x,REPORTTIMETYPE_x,KCFJCXSYJLR,Year,Month,managesituationChangeRate,managesituationGreatChange,historyprofitextroplaterate,ifhistoryprofitextroplate,IfprofitdisStableChangeRage,IfprofitdisStable,predicttype,predict,analyst_prediction,adj_prediction
0,002576,10760953.68,10178331.15,2013-12-31,年度报告,7269927.750000001,2013,12,未知,未知,未知,未知,未知,未知,未知,未知,未知,未知
1,002576,543410.6,637618.7299999999,2014-03-31,一季度报告,544451.7299999999,2014,3,未知,未知,未知,未知,未知,未知,未知,未知,未知,未知
2,002576,6364169.21,5963284.19,2014-06-30,半年度报告,5580276.979999999,2014,6,未知,未知,未知,未知,未知,未知,未知,未知,未知,未知
3,002576,8052269.34,7590848.619999999,2014-09-30,三季度报告,6970664.64,2014,9,未知,未知,未知,未知,未知,未知,未知,未知,未知,未知
4,002576,-16561528.72,-16594800.78,2014-12-31,年度报告,-19511003.98,2014,12,0.0,True,未知,未知,未知,未知,未知,未知,未知,未知
5,002576,1254407.61,1170709.1800000002,2015-03-31,一季度报告,1114051.43,2015,3,18.802620118194234,False,未知,未知,未知,未知,未知,未知,57400000.0,未知
6,002576,2158181.25,3063720.3900000006,2015-06-30,半年度报告,3010643.98,2015,6,0.6908654256224592,False,未知,未知,未知,未知,未知,未知,,未知
7,002576,233693.84,3376203.4099999988,2015-09-30,三季度报告,2568405.72,2015,9,0.33638769713582384,True,未知,未知,未知,未知,未知,未知,未知,未知
8,002576,8628307.120000001,9457959.81,2015-12-31,年度报告,6893566.31,2015,12,-1.6497560618908855,False,未知,未知,未知,未知,未知,未知,48900000.0,未知
9,002576,-2951805.66,-1961763.93,2016-03-31,一季度报告,-4500860.620000001,2016,3,7.578514347501447,False,未知,未知,未知,未知,未知,未知,未知,未知
10,002576,-11409100.92,-6335961.45,2016-06-30,半年度报告,-7648696.869999999,2016,6,3.986121383456556,False,未知,未知,未知,未知,未知,未知,未知,未知
11,002576,223733.87,3141087.5500000007,2016-09-30,三季度报告,-3102621.1599999988,2016,9,45.04722863041662,False,未知,未知,未知,未知,未知,未知,未知,未知
12,002576,-5602406.23,4844653.49,2016-12-31,年度报告,-10470660.62,2016,12,0.247168596381627,True,-3.9749833630287794,True,0.0,True,比例外推,4844653.49,未知,4844653.49
13,002576,14361348.81,15509782.270000005,2017-03-31,一季度报告,2641631.51,2017,3,-4.645549510871254,False,4.283764335661057,False,0.24200214881760923,False,前期平均,8371811.855000004,未知,8371811.855000004
14,002576,15411443.769999998,17817080.23,2017-06-30,半年度报告,4626001.21,2017,6,-1.9431903316006431,False,3.677454060015269,False,0.5797447376493701,False,前期平均,7212900.915000001,未知,7212900.915000001
15,002576,-2273011.01,530843.92,2017-09-30,三季度报告,6097577.869999999,2017,9,47.097115023308724,False,0.9459968949560309,True,0.46114418725046896,False,前期平均,-10547410.095,未知,-10547410.095
16,002576,-1152604.05,3920731.1600000006,2017-12-31,年度报告,11781206.99,2017,12,-2.9207735459054707,False,-0.4123912106526813,True,0.0,True,前期平均,3920731.1600000006,未知,3920731.1600000006
17,002576,3008104.9000000013,4485390.380000001,2018-03-31,一季度报告,3943789.78,2018,3,-0.2507003469961677,True,-17.921603992652166,True,0.1579591363289965,False,平均增速,14977930.68414555,未知,14977930.68414555
18,002576,6180674.249999997,9347307.939999998,2018-06-30,半年度报告,7901790.549999998,2018,6,-0.3017556407695344,True,-4.331872790978412,True,0.21052838315648104,False,平均增速,18331583.483835153,未知,18331583.483835153
19,002576,12616265.71,16317459.94,2018-09-30,三季度报告,14696092.81,2018,9,-5.734228577273807,False,10.938230502039328,False,0.12208018172374685,False,去年同期,22001089.060000002,未知,22001089.060000002
20,002576,15309433.34,19367235.19,2018-12-31,年度报告,14360974.76,2018,12,-10.336210192910567,False,1.7618253815312501,True,0.0,True,前期平均,19367235.19,未知,19367235.19
21,002576,6220853.96,6414043.3500000015,2019-03-31,一季度报告,6074035.74,2019,3,2.5773199531705147,False,0.47270370768526326,True,0.12028876454288295,False,前期平均,7998931.090000003,28600000.0,28600000.0
22,002576,14111620.41,15050042.58,2019-06-30,半年度报告,13553502.959999995,2019,6,0.7410646872386139,False,2.088528135464457,False,0.17269698837933967,False,去年同期,21509226.790000003,,21509226.790000003
23,002576,25437602.78,27027475.94999999,2019-09-30,三季度报告,24857306.64,2019,9,-0.14705714611966594,True,-13.312893618673757,True,0.4109289238319238,False,平均增速,26380113.128785286,未知,26380113.128785286
24,002576,31319165.37,34221908.099999994,2019-12-31,年度报告,25096998.24,2019,12,-0.2971030709618675,True,-5.532763890923346,True,0.0,True,比例外推,34221908.099999994,未知,34221908.099999994
25,002576,5742030.300000003,5990920.620000001,2020-03-31,一季度报告,4195420.99,2020,3,0.7298193703296645,False,0.2837018292154452,True,0.027663492578007015,True,前期平均,15769300.850000001,未知,15769300.850000001
