,SECURITYCODE_x,NETPROFIT_x,PARENTNETPROFIT_x,REPORTDATE_x,REPORTTIMETYPE_x,KCFJCXSYJLR,Year,Month,managesituationChangeRate,managesituationGreatChange,historyprofitextroplaterate,ifhistoryprofitextroplate,IfprofitdisStableChangeRage,IfprofitdisStable,predicttype,predict,analyst_prediction,adj_prediction
0,002542,70703158.74000001,70703158.74000001,2013-12-31,年度报告,70816999.11,2013,12,未知,未知,未知,未知,未知,未知,未知,未知,未知,未知
1,002542,17499714.439999998,17499714.439999998,2014-03-31,一季度报告,16978021.289999995,2014,3,未知,未知,未知,未知,未知,未知,未知,未知,未知,未知
2,002542,37242209.59,37242209.59,2014-06-30,半年度报告,33832691.059999995,2014,6,未知,未知,未知,未知,未知,未知,未知,未知,未知,未知
3,002542,75675194.68,75617401.72999999,2014-09-30,三季度报告,71358156.08,2014,9,未知,未知,未知,未知,未知,未知,未知,未知,未知,未知
4,002542,130122160.57,130279725.72,2014-12-31,年度报告,127935489.3,2014,12,0.0,True,未知,未知,未知,未知,未知,未知,未知,未知
5,002542,30864933.85,31539931.17,2015-03-31,一季度报告,31431255.94,2015,3,3.0402464270154126,False,未知,未知,未知,未知,未知,未知,235000000.0,未知
6,002542,73610591.95,75355278.91999999,2015-06-30,半年度报告,71539704.1,2015,6,0.8984684184523972,False,未知,未知,未知,未知,未知,未知,249033332.99999997,未知
7,002542,130301619.13,132855357.78,2015-09-30,三季度报告,127717050.38000004,2015,9,-0.06570232109774861,True,未知,未知,未知,未知,未知,未知,,未知
8,002542,225226877.12000003,227060150.6,2015-12-31,年度报告,214736567.5,2015,12,-0.45664014161550276,True,未知,未知,未知,未知,未知,未知,251000000.0,未知
9,002542,34660755.17,34929318.15000001,2016-03-31,一季度报告,34289953.45999999,2016,3,1.2907276938809964,False,未知,未知,未知,未知,未知,未知,351440000.0,未知
10,002542,77729142.65,78811990.09,2016-06-30,半年度报告,71451331.10000001,2016,6,-0.039497484437767696,True,未知,未知,未知,未知,未知,未知,362110000.0,未知
11,002542,144536345.79,146185128.17,2016-09-30,三季度报告,138405241.98999998,2016,9,-0.45738848671204524,True,未知,未知,未知,未知,未知,未知,347275000.0,未知
12,002542,247590522.89999995,248547994.37,2016-12-31,年度报告,239058962.98,2016,12,-0.68608027761123,True,1.2430127624727743,True,0.0,True,比例外推,248547994.37,353608333.0,353608333.0
13,002542,38270092.26,38467234.42,2017-03-31,一季度报告,38087473.43999999,2017,3,1.0398620397398572,False,0.433309509961496,True,0.008131034783249724,True,前期平均,185598624.20499998,630000000.0,630000000.0
14,002542,87415028.97999999,87386760.24000002,2017-06-30,半年度报告,76416746.4,2017,6,-0.09039060087973318,True,0.40238481247498836,True,0.03437815224793883,True,比例外推,266690380.79200912,,266690380.79200912
15,002542,138634785.81,137796573.04999998,2017-09-30,三季度报告,126773978.31,2017,9,-0.5108278242849299,True,0.40342345447993205,True,0.019395575305515833,True,比例外推,230673086.54614556,未知,230673086.54614556
16,002542,238700266.98,236558035.1,2017-12-31,年度报告,221350241.65,2017,12,-0.7144351168539819,True,0.39350608353690464,True,0.0,True,比例外推,236558035.1,437000000.0,437000000.0
17,002542,43016076.11,43691272.34,2018-03-31,一季度报告,41526660.13000001,2018,3,0.8474781367041317,False,0.16809431025804408,True,0.018109724425129675,True,前期平均,237728432.88,未知,237728432.88
18,002542,98171483.29,98900886.01999998,2018-06-30,半年度报告,94245322.99,2018,6,-0.19117845563860136,True,0.15521583556417806,True,0.026869801930056725,True,比例外推,293968533.7698846,未知,293968533.7698846
19,002542,161492370.73000002,162680731.48999998,2018-09-30,三季度报告,155385116.63000005,2018,9,-0.4900041982471902,True,0.00884741924467328,True,0.01261140841480668,True,比例外推,274211500.800351,未知,274211500.800351
20,002542,221197363.78,222999792.45,2018-12-31,年度报告,215158351.17,2018,12,-0.7037994149125772,True,0.00969324297245857,True,0.0,True,比例外推,222999792.45,未知,222999792.45
21,002542,40737229.55,41150582.33,2019-03-31,一季度报告,40405776.24999999,2019,3,0.6436450074897362,False,0.17964010088563412,True,0.026066491676138448,True,前期平均,235166471.195,未知,235166471.195
22,002542,101115006.75,102462372.04,2019-06-30,半年度报告,94886647.31,2019,6,-0.2797994247357775,True,0.1889185348902284,True,0.07731321029343974,True,比例外推,270627649.5866088,未知,270627649.5866088
23,002542,166596107.48999998,168004787.55999997,2019-09-30,三季度报告,158914945.87,2019,9,-0.5621888611802659,True,0.1405991127522125,True,0.09756343064448503,True,比例外推,263505941.86399272,未知,263505941.86399272
24,002542,247071020.2499999,251512180.24,2019-12-31,年度报告,214578179.74,2019,12,-0.6803616574277058,True,0.09026710608858537,True,0.0,True,比例外推,251512180.24,未知,251512180.24
25,002542,37295028.17,38050815.64,2020-03-31,一季度报告,37095900.2,2020,3,0.7355907488313724,False,0.0023163932287092654,True,0.012390254493805708,True,前期平均,216498045.265,未知,216498045.265
