,SECURITYCODE_x,NETPROFIT_x,PARENTNETPROFIT_x,REPORTDATE_x,REPORTTIMETYPE_x,KCFJCXSYJLR,Year,Month,managesituationChangeRate,managesituationGreatChange,historyprofitextroplaterate,ifhistoryprofitextroplate,IfprofitdisStableChangeRage,IfprofitdisStable,predicttype,predict,analyst_prediction,adj_prediction
0,002567,125156683.44,127197682.6,2013-12-31,年度报告,74149109.86000001,2013,12,未知,未知,未知,未知,未知,未知,未知,未知,未知,未知
1,002567,18395603.68,13817593.330000002,2014-03-31,一季度报告,12239733.5,2014,3,未知,未知,未知,未知,未知,未知,未知,未知,未知,未知
2,002567,32367885.28,20080469.66,2014-06-30,半年度报告,18056727.88,2014,6,未知,未知,未知,未知,未知,未知,未知,未知,未知,未知
3,002567,96410720.25,57528617.62,2014-09-30,三季度报告,53969847.10999999,2014,9,未知,未知,未知,未知,未知,未知,未知,未知,未知,未知
4,002567,136045814.05,81274260.38,2014-12-31,年度报告,78951832.46999998,2014,12,0.0,True,未知,未知,未知,未知,未知,未知,未知,未知
5,002567,25932615.99000001,15649371.740000002,2015-03-31,一季度报告,4115045.0,2015,3,5.803619256924543,False,未知,未知,未知,未知,未知,未知,168934305.0,未知
6,002567,51576023.56,22603673.19,2015-06-30,半年度报告,7907156.4300000025,2015,6,2.8666932472518942,False,未知,未知,未知,未知,未知,未知,224048740.0,未知
7,002567,124068293.66000004,66561959.68999999,2015-09-30,三季度报告,38730863.58,2015,9,0.2981614815806751,True,未知,未知,未知,未知,未知,未知,115364912.0,未知
8,002567,151794829.61000004,81798123.67000002,2015-12-31,年度报告,70138213.5,2015,12,-0.08004017386376919,True,未知,未知,未知,未知,未知,未知,165500000.0,未知
9,002567,39565758.32,23806696.24,2016-03-31,一季度报告,21276247.500000004,2016,3,3.826226690290799,False,未知,未知,未知,未知,未知,未知,262460000.0,未知
10,002567,98178476.51,66645528.10000001,2016-06-30,半年度报告,61834072.86,2016,6,1.4266446848970686,False,未知,未知,未知,未知,未知,未知,231871817.99999997,未知
11,002567,186909623.53000003,134869755.77,2016-09-30,三季度报告,128307297.84999998,2016,9,0.008772505431424792,True,未知,未知,未知,未知,未知,未知,224941110.99999997,未知
12,002567,255689196.97,201020352.55000004,2016-12-31,年度报告,192580749.53,2016,12,-0.175487836037896,True,0.16227701548536244,True,0.0,True,比例外推,201020352.55000004,225718889.00000003,225718889.00000003
13,002567,65411300.56999999,55342417.07000001,2017-03-31,一季度报告,55198379.37999999,2017,3,2.163257542740811,False,0.7851273348916786,True,0.0493888162203299,True,前期平均,121710050.80499999,349407778.00000006,349407778.00000006
14,002567,169441160.41000003,137739586.95999998,2017-06-30,半年度报告,134552804.85999998,2017,6,0.27478738608509695,True,1.3391447424048737,True,0.10810444500041216,False,平均增速,398780542.08727753,352523000.0,352523000.0
15,002567,269305184.09,213379992.06,2017-09-30,三季度报告,211758539.66,2017,9,-0.33038930218640317,True,0.6954867514628572,True,0.08180529744810994,True,比例外推,335618595.8151741,332177143.0,335618595.8151741
16,002567,385581635.49,310305494.73,2017-12-31,年度报告,296960685.37,2017,12,-0.5105124310172376,True,0.7766024541831024,True,0.0,True,比例外推,310305494.73,328530000.0,310305494.73
17,002567,55388678.32,44393935.08,2018-03-31,一季度报告,48861350.74,2018,3,0.9133801399662341,False,0.997341193856571,True,0.06753511263870889,True,前期平均,163057770.345,384000000.0,384000000.0
18,002567,100919666.51,70295502.65,2018-06-30,半年度报告,80327755.64,2018,6,-0.2613560770172019,True,1.262919115362782,True,0.1829024796232994,False,平均增速,292864713.00756055,238397500.0,238397500.0
19,002567,178181337.87999997,126893106.88,2018-09-30,三季度报告,143414668.78,2018,9,-0.5352607716672343,True,0.7319891169343767,True,0.09164086356697021,True,比例外推,206224391.84877095,211536667.00000003,206224391.84877095
20,002567,195007713.91,136933156.56,2018-12-31,年度报告,141179096.01999998,2018,12,-0.6754080798455301,True,0.8924993881412919,True,0.0,True,比例外推,136933156.56,203922821.0,203922821.0
21,002567,11781247.29,5393806.12,2019-03-31,一季度报告,-751914.39,2019,3,1.2596076894437802,False,0.05525300300209254,True,0.13194408157118004,False,前期平均,211927210.13,492775000.0,492775000.0
22,002567,70721058.53,45015488.07,2019-06-30,半年度报告,58632865.28999999,2019,6,0.2401614845566139,True,0.2457977473441675,True,0.12663828672856375,False,平均增速,97914474.6966097,455810176.99999994,455810176.99999994
23,002567,182275847.24,129674137.37999998,2019-09-30,三季度报告,142514261.93,2019,9,-0.2975881485170493,True,0.2188708700204466,True,0.21744399226901157,False,平均增速,127435846.83115295,502000000.0,502000000.0
24,002567,288182272.0,202356036.97,2019-12-31,年度报告,202841340.16000003,2019,12,-0.35819624295599745,True,0.391808564996089,True,0.0,True,比例外推,202356036.97,474000000.0,474000000.0
25,002567,247437896.57,212784065.32999995,2020-03-31,一季度报告,207152495.02000004,2020,3,9.623381409388955,False,0.8049462028345558,True,0.17979545015997478,False,前期平均,379824090.9649999,1931500000.0,1931500000.0
