,SECURITYCODE_x,NETPROFIT_x,PARENTNETPROFIT_x,REPORTDATE_x,REPORTTIMETYPE_x,KCFJCXSYJLR,Year,Month,managesituationChangeRate,managesituationGreatChange,historyprofitextroplaterate,ifhistoryprofitextroplate,IfprofitdisStableChangeRage,IfprofitdisStable,predicttype,predict,analyst_prediction,adj_prediction
0,002592,90033956.5,90033956.5,2013-12-31,年度报告,81895614.08,2013,12,未知,未知,未知,未知,未知,未知,未知,未知,未知,未知
1,002592,23526681.05,23526681.05,2014-03-31,一季度报告,22735732.28,2014,3,未知,未知,未知,未知,未知,未知,未知,未知,未知,未知
2,002592,51120907.78,51120907.78,2014-06-30,半年度报告,48175449.7,2014,6,未知,未知,未知,未知,未知,未知,未知,未知,未知,未知
3,002592,68306272.31,68306272.31,2014-09-30,三季度报告,64507857.68000001,2014,9,未知,未知,未知,未知,未知,未知,未知,未知,未知,未知
4,002592,94603119.17000002,94603119.17000002,2014-12-31,年度报告,88737684.26,2014,12,0.0,True,未知,未知,未知,未知,未知,未知,未知,未知
5,002592,34963340.95999999,34963340.95999999,2015-03-31,一季度报告,33928029.309999995,2015,3,2.8268872820886055,False,未知,未知,未知,未知,未知,未知,未知,未知
6,002592,77225930.41999999,77226295.94,2015-06-30,半年度报告,73574557.37,2015,6,0.7611963560479637,False,未知,未知,未知,未知,未知,未知,167055501.0,未知
7,002592,125192955.76,125302295.73,2015-12-31,年度报告,117185652.42999996,2015,12,-0.048298224308960865,True,未知,未知,未知,未知,未知,未知,132090000.0,未知
8,002592,29950199.15,30068568.43,2016-03-31,一季度报告,28631389.73,2016,3,1.575095915547769,False,未知,未知,未知,未知,未知,未知,未知,未知
9,002592,62900967.70999999,63554781.31,2016-06-30,半年度报告,60409023.15999999,2016,6,0.165851366378397,True,未知,未知,未知,未知,未知,未知,未知,未知
10,002592,90771791.67,90739449.51,2016-09-30,三季度报告,86013472.16999999,2016,9,未知,未知,未知,未知,未知,未知,未知,未知,未知,未知
11,002592,128527234.04,128413447.54000002,2016-12-31,年度报告,121970058.40999998,2016,12,-0.28083847886299,True,0.35609768845945233,True,0.0,True,比例外推,128413447.54000002,,128413447.54000002
12,002592,39286313.97,39286203.76,2017-03-31,一季度报告,37596006.39,2017,3,2.00612213124466,False,0.02411310923697166,True,0.029364514465230862,True,前期平均,113915991.31,未知,113915991.31
13,002592,78710833.31,78710549.02,2017-06-30,半年度报告,75549514.13,2017,6,0.43136043494743254,True,0.01982832468404353,True,0.07250581908792852,True,比例外推,139202870.5105425,未知,139202870.5105425
14,002592,102935559.29,102935167.21999995,2017-09-30,三季度报告,92987446.72,2017,9,-0.008128463219965897,True,未知,未知,未知,未知,未知,未知,未知,未知
15,002592,135042885.0,135042320.45,2017-12-31,年度报告,127425011.37,2017,12,-0.29949510566780113,True,0.16951345997359574,True,0.0,True,比例外推,135042320.45,未知,135042320.45
16,002592,6427700.71,6427743.1800000025,2018-03-31,一季度报告,3837700.08,2018,3,1.2917384555026505,False,0.21041970299037518,True,0.03836188301747351,True,前期平均,94725889.07999998,未知,94725889.07999998
17,002592,10709009.32,10708943.730000002,2018-06-30,半年度报告,6623077.809999999,2018,6,0.14385723938919887,True,0.1234221888930641,True,0.07672835955512497,True,比例外推,15664555.073947648,未知,15664555.073947648
18,002592,13275512.53,13275272.46,2018-09-30,三季度报告,7930536.199999997,2018,9,-0.1253366949088251,True,未知,未知,未知,未知,未知,未知,未知,未知
19,002592,7207274.25,7274361.3900000015,2018-12-31,年度报告,-838958.8499999999,2018,12,-0.33329359410530957,True,0.0645024750016957,True,0.0,True,比例外推,7274361.3900000015,未知,7274361.3900000015
20,002592,-6929788.01,-6929832.04,2019-03-31,一季度报告,-8601302.330000002,2019,3,13.007179326182412,False,0.8143262732235063,True,3.226168652007802,False,盈利变化,-9310975.156666666,60840000.0,60840000.0
21,002592,-4039008.45,-12805065.630000005,2019-06-30,半年度报告,-15494305.92,2019,6,7.407309566147618,False,0.8487554110199114,True,5.625657978297154,False,盈利变化,-7470561.096666663,,-7470561.096666663
22,002592,6116623.6400000015,-9614288.22,2019-09-30,三季度报告,-14352382.97,2019,9,5.781957103090467,False,0.8629322793976842,True,6.780201992070964,False,盈利变化,-2629158.241111108,未知,-2629158.241111108
23,002592,-406084160.78,-406482396.56,2019-12-31,年度报告,-386731145.9400001,2019,12,11.492095260562618,False,0.9453103843770226,True,0.0,True,盈利变化,-121356367.64000003,261000000.0,261000000.0
24,002592,-10666956.24,-7865024.63,2020-03-31,一季度报告,-11015881.98,2020,3,-13.992310352073815,False,1.3031800229539587,True,3.1553352871220204,False,前期平均,34711148.394999996,未知,34711148.394999996
