,SECURITYCODE_x,NETPROFIT_x,PARENTNETPROFIT_x,REPORTDATE_x,REPORTTIMETYPE_x,KCFJCXSYJLR,Year,Month,managesituationChangeRate,managesituationGreatChange,historyprofitextroplaterate,ifhistoryprofitextroplate,IfprofitdisStableChangeRage,IfprofitdisStable,predicttype,predict,analyst_prediction,adj_prediction
0,002581,88037326.84,88037326.84,2013-12-31,年度报告,88460310.79999998,2013,12,未知,未知,未知,未知,未知,未知,未知,未知,未知,未知
1,002581,26520405.7,26520405.7,2014-03-31,一季度报告,26518833.20000001,2014,3,未知,未知,未知,未知,未知,未知,未知,未知,未知,未知
2,002581,51167335.04,51167335.04,2014-06-30,半年度报告,49852207.42,2014,6,未知,未知,未知,未知,未知,未知,未知,未知,未知,未知
3,002581,160622404.99,166063899.51,2014-09-30,三季度报告,164728822.96999997,2014,9,未知,未知,未知,未知,未知,未知,未知,未知,未知,未知
4,002581,221757146.85,225009313.39000008,2014-12-31,年度报告,164421980.52,2014,12,0.0,True,未知,未知,未知,未知,未知,未知,未知,未知
5,002581,39652027.44000001,41962184.27,2015-03-31,一季度报告,41607701.11,2015,3,2.3196070918326863,False,未知,未知,未知,未知,未知,未知,未知,未知
6,002581,81985977.54000002,87305088.10000001,2015-06-30,半年度报告,86402427.76,2015,6,0.7205767463006806,False,未知,未知,未知,未知,未知,未知,未知,未知
7,002581,137490218.19,146053464.8,2015-09-30,三季度报告,142417204.46,2015,9,-0.45189883786461166,True,未知,未知,未知,未知,未知,未知,未知,未知
8,002581,240302990.63000008,250253848.66,2015-12-31,年度报告,245274080.32,2015,12,-0.6030011745256182,True,未知,未知,未知,未知,未知,未知,未知,未知
9,002581,73884106.38,78319672.78000002,2016-03-31,一季度报告,77595982.58,2016,3,1.2202478038030928,False,未知,未知,未知,未知,未知,未知,未知,未知
10,002581,146623054.52999997,152943020.55999997,2016-06-30,半年度报告,147121320.54000002,2016,6,0.0738095645325153,True,未知,未知,未知,未知,未知,未知,423290948.0,未知
11,002581,258469155.16,269904326.75000006,2016-09-30,三季度报告,266454887.34000003,2016,9,-0.3596829796404878,True,未知,未知,未知,未知,未知,未知,,未知
12,002581,416514706.15,417695144.79,2016-12-31,年度报告,410986157.20999986,2016,12,-0.6336403196265125,True,0.5513704151511915,True,0.0,True,比例外推,417695144.79,未知,417695144.79
13,002581,78140223.36999999,77249472.83000001,2017-03-31,一季度报告,76295951.04,2017,3,0.1915597434068879,True,1.2330781225373566,True,0.015561984828440623,True,比例外推,441353547.8506725,549000000.0,549000000.0
14,002581,177254552.63000005,176792824.64,2017-06-30,半年度报告,175553985.03999996,2017,6,-0.3995669567640399,True,1.2023192917849068,True,0.034615631976831984,True,比例外推,520917818.0715837,,520917818.0715837
15,002581,274972224.82,272312433.58000004,2017-09-30,三季度报告,269016040.89,2017,9,-0.6593894277810352,True,0.7340369716846017,True,0.25825222192022623,False,平均增速,459718155.90765154,未知,459718155.90765154
16,002581,392204798.16,388411585.68,2017-12-31,年度报告,379924743.70000017,2017,12,-0.7886333290515436,True,0.8028592919597116,True,0.0,True,比例外推,388411585.68,520980000.0,520980000.0
17,002581,82202345.01000002,82372632.77,2018-03-31,一季度报告,80990969.97999999,2018,3,0.12665824390002656,True,0.37648201926416425,True,0.016782600661332997,True,比例外推,435835541.3652674,未知,435835541.3652674
18,002581,3828507.08,5594035.760000002,2018-06-30,半年度报告,-254369.66,2018,6,-0.5033282613408044,True,0.5507222179719022,True,0.0713036669553323,True,比例外推,5197464.077655775,未知,5197464.077655775
19,002581,11941532.11,12592914.259999998,2018-09-30,三季度报告,6736344.550000003,2018,9,-0.679831928851613,True,0.3888911000823513,True,0.06503914988141202,True,比例外推,16289446.242616797,未知,16289446.242616797
20,002581,-98597931.20999998,-103752534.62,2018-12-31,年度报告,-112019144.22,2018,12,-0.7755322544420145,True,0.19425770676629112,True,0.0,True,比例外推,-103752534.62,未知,-103752534.62
21,002581,-9779289.94,-12926715.180000005,2019-03-31,一季度报告,-13313788.94,2019,3,0.07098315539891412,True,0.08143670352212186,True,0.6118810371701239,False,平均增速,-27441290.199521333,未知,-27441290.199521333
22,002581,31533829.73,25655258.83,2019-06-30,半年度报告,23238560.77,2019,6,21.995210665772102,False,0.9763583094640521,True,0.2718352056718718,False,前期平均,259773056.49500006,未知,259773056.49500006
23,002581,57539925.32999999,49319311.29,2019-09-30,三季度报告,46154852.32,2019,9,6.3723644528222945,False,0.9552283247675771,True,0.4922263509578122,False,前期平均,177039297.63,未知,177039297.63
24,002581,73084430.69999999,63383506.75999999,2019-12-31,年度报告,24661070.92,2019,12,-1.8928922317091283,False,1.2438371541295368,True,0.0,True,前期平均,63383506.75999999,未知,63383506.75999999
25,002581,-48667600.62000001,-62820716.49,2020-03-31,一季度报告,-64718477.22000001,2020,3,-10.002425266061802,False,1.121979958769574,True,0.5548393089636562,False,前期平均,-7511377.259999916,未知,-7511377.259999916
