,SECURITYCODE_x,NETPROFIT_x,PARENTNETPROFIT_x,REPORTDATE_x,REPORTTIMETYPE_x,KCFJCXSYJLR,Year,Month,managesituationChangeRate,managesituationGreatChange,historyprofitextroplaterate,ifhistoryprofitextroplate,IfprofitdisStableChangeRage,IfprofitdisStable,predicttype,predict,analyst_prediction,adj_prediction
0,002578,45964225.19000001,46101405.38,2013-12-31,年度报告,39649918.62,2013,12,未知,未知,未知,未知,未知,未知,未知,未知,未知,未知
1,002578,10331264.52,10379027.08,2014-03-31,一季度报告,8379492.08,2014,3,未知,未知,未知,未知,未知,未知,未知,未知,未知,未知
2,002578,17758249.03,17832511.5,2014-06-30,半年度报告,18695265.33,2014,6,未知,未知,未知,未知,未知,未知,未知,未知,未知,未知
3,002578,28307780.07,28361480.38000001,2014-09-30,三季度报告,29993374.12999999,2014,9,未知,未知,未知,未知,未知,未知,未知,未知,未知,未知
4,002578,34993555.13999999,35278294.52,2014-12-31,年度报告,37529803.52,2014,12,0.0,True,未知,未知,未知,未知,未知,未知,未知,未知
5,002578,9647797.21,9885899.21,2015-03-31,一季度报告,7734911.38,2015,3,3.4490415574026962,False,未知,未知,未知,未知,未知,未知,43000000.0,未知
6,002578,14767171.96,15130315.099999998,2015-06-30,半年度报告,8954376.6,2015,6,1.5883309279169406,False,未知,未知,未知,未知,未知,未知,,未知
7,002578,19358237.37,19900628.380000006,2015-09-30,三季度报告,15028071.590000002,2015,9,0.6237311818990691,False,未知,未知,未知,未知,未知,未知,40460000.0,未知
8,002578,18352938.71,19073366.320000004,2015-12-31,年度报告,15858969.639999995,2015,12,0.3135054442484983,True,未知,未知,未知,未知,未知,未知,未知,未知
9,002578,4592035.04,4775706.5200000005,2016-03-31,一季度报告,5175144.02,2016,3,3.764219664811965,False,未知,未知,未知,未知,未知,未知,未知,未知
10,002578,6499210.039999999,6857509.27,2016-06-30,半年度报告,5685416.179999999,2016,6,2.1125949717727814,False,未知,未知,未知,未知,未知,未知,14860000.0,未知
11,002578,10364508.500000002,10908857.2,2016-09-30,三季度报告,10953391.56,2016,9,1.3744013626587746,False,未知,未知,未知,未知,未知,未知,,未知
12,002578,16707076.29,17672625.03,2016-12-31,年度报告,15621153.889999995,2016,12,1.5044613244937932,False,0.5466046960479951,True,0.0,True,前期平均,17672625.03,,17672625.03
13,002578,6716450.719999999,6740984.8999999985,2017-03-31,一季度报告,5603633.62,2017,3,9.009554541639563,False,0.5403152458251101,True,0.14029853210452686,False,前期平均,25378169.75,36870000.0,36870000.0
14,002578,12649325.17,12931097.12,2017-06-30,半年度报告,12099909.55,2017,6,6.072278770359608,False,0.600361204117961,True,0.11161914190410083,False,前期平均,25800662.735,,25800662.735
15,002578,22198852.94,22714417.42,2017-09-30,三季度报告,21082703.89,2017,9,3.4347713343088104,False,0.56511959435057,True,0.13161210466881013,False,前期平均,26898081.14,未知,26898081.14
16,002578,37552055.01000001,38330384.8,2017-12-31,年度报告,35281025.47,2017,12,1.7511830551412424,False,0.3736391997203392,True,0.0,True,前期平均,38330384.8,未知,38330384.8
17,002578,3902423.1,4029789.37,2018-03-31,一季度报告,2908683.51,2018,3,5.843528986690759,False,0.05666715701654437,True,0.167121569790871,False,前期平均,13314823.434999995,未知,13314823.434999995
18,002578,10459472.239999998,11153377.26,2018-06-30,半年度报告,9656592.75,2018,6,2.6337294339631567,False,0.18960763236548653,True,0.140778842345107,False,前期平均,19573542.634999998,未知,19573542.634999998
19,002578,21468934.26,22676669.12,2018-09-30,三季度报告,20942791.65,2018,9,1.0705675790651916,False,0.49372827376665235,True,0.19881984010722675,False,前期平均,25425999.309999995,未知,25425999.309999995
20,002578,33821852.989999995,35806342.32,2018-12-31,年度报告,37108259.97,2018,12,0.22401357735974398,True,1.1421585250320065,True,0.0,True,比例外推,35806342.32,未知,35806342.32
21,002578,3548710.22,4270434.96,2019-03-31,一季度报告,2531618.1699999995,2019,3,10.778380768092525,False,0.3098239352604533,True,0.14178975747859032,False,前期平均,24332135.82,未知,24332135.82
22,002578,15544607.2,16928839.650000002,2019-06-30,半年度报告,15388455.209999995,2019,6,3.39450711616402,False,0.09245664227493648,True,0.06215301654324923,True,前期平均,33487266.465,未知,33487266.465
23,002578,34798619.15000001,36533463.61,2019-09-30,三季度报告,33382853.49,2019,9,1.1409644574504374,False,0.31859447616044384,True,0.0801480987104417,True,前期平均,45966505.565,未知,45966505.565
24,002578,49447491.0,50435818.95,2019-12-31,年度报告,38753814.44,2019,12,0.3590096676131292,True,0.24667874990471833,True,0.0,True,比例外推,50435818.95,未知,50435818.95
25,002578,4364485.590000002,4416143.61,2020-03-31,一季度报告,3591806.62,2020,3,11.952374902563898,False,0.33162211357738863,True,0.05798256635668432,True,前期平均,36354627.76500001,未知,36354627.76500001
