,SECURITYCODE_x,NETPROFIT_x,PARENTNETPROFIT_x,REPORTDATE_x,REPORTTIMETYPE_x,KCFJCXSYJLR,Year,Month,managesituationChangeRate,managesituationGreatChange,historyprofitextroplaterate,ifhistoryprofitextroplate,IfprofitdisStableChangeRage,IfprofitdisStable,predicttype,predict,analyst_prediction,adj_prediction
0,002597,155296517.15000004,146074231.12,2013-12-31,年度报告,140427545.82,2013,12,未知,未知,未知,未知,未知,未知,未知,未知,未知,未知
1,002597,26451279.1,35682814.39000001,2014-03-31,一季度报告,32003115.779999994,2014,3,未知,未知,未知,未知,未知,未知,未知,未知,未知,未知
2,002597,74951181.99000001,89048430.85,2014-06-30,半年度报告,83554253.83999999,2014,6,未知,未知,未知,未知,未知,未知,未知,未知,未知,未知
3,002597,113184677.51999998,131890042.78000002,2014-09-30,三季度报告,125923387.77,2014,9,未知,未知,未知,未知,未知,未知,未知,未知,未知,未知
4,002597,137946415.30999997,166403976.14000002,2014-12-31,年度报告,152679371.78000003,2014,12,0.0,True,未知,未知,未知,未知,未知,未知,未知,未知
5,002597,31301347.31,39381395.81999999,2015-03-31,一季度报告,32071060.66,2015,3,4.871039981200759,False,未知,未知,未知,未知,未知,未知,未知,未知
6,002597,109476193.31,117955971.1,2015-06-30,半年度报告,102248081.56,2015,6,1.071968887304802,False,未知,未知,未知,未知,未知,未知,215000000.0,未知
7,002597,153912253.16,163837027.84,2015-09-30,三季度报告,150628159.29999998,2015,9,0.3720630791438956,True,未知,未知,未知,未知,未知,未知,208908260.0,未知
8,002597,183821671.91000003,214449837.26999995,2015-12-31,年度报告,192368609.51,2015,12,0.12577421313203435,True,未知,未知,未知,未知,未知,未知,,未知
9,002597,137026693.3,142250268.47000003,2016-03-31,一季度报告,64216835.23999999,2016,3,3.9613365077223586,False,未知,未知,未知,未知,未知,未知,385958571.0,未知
10,002597,235275617.62,236386524.4,2016-06-30,半年度报告,154462257.09,2016,6,0.4185414422499345,True,未知,未知,未知,未知,未知,未知,435658750.0,未知
11,002597,353848560.95999986,354959467.74000007,2016-09-30,三季度报告,266321536.74,2016,9,0.00899385176670127,True,未知,未知,未知,未知,未知,未知,444747778.00000006,未知
12,002597,563040129.4499999,551463631.2199999,2016-12-31,年度报告,450209699.6199999,2016,12,-0.15517840994268642,True,0.253715957400435,True,0.0,True,比例外推,551463631.2199999,448525556.0,448525556.0
13,002597,214360547.42999995,200859598.22,2017-03-31,一季度报告,193170655.21000004,2017,3,0.13333040015787948,True,3.745297376684276,False,0.0366218632959979,True,比例外推,1124359210.4935815,779873765.0,779873765.0
14,002597,506259387.97,484306463.8,2017-06-30,半年度报告,409825639.38000005,2017,6,-0.33993790465434615,True,1.5514175131244736,True,0.13086518521486845,False,平均增速,1142846053.4849474,845534000.0,845534000.0
15,002597,721570187.9399999,699617263.7699999,2017-09-30,三季度报告,623732555.72,2017,9,-0.5611215240534629,True,1.6495891215158451,True,0.14155849599604986,False,平均增速,1080466064.5357742,928659333.0,928659333.0
16,002597,1044221433.5800002,1022268509.41,2017-12-31,年度报告,936719634.8300002,2017,12,-0.7241821514539295,True,2.4996642104226874,False,0.0,True,比例外推,1022268509.41,934726000.0,1022268509.41
17,002597,291608604.85,291608604.85,2018-03-31,一季度报告,272106959.03000003,2018,3,-0.27553591828406504,True,1.5469380698923818,True,0.03436213170818889,True,比例外推,1602823959.5743976,1187985000.0,1187985000.0
18,002597,542862726.6200001,542862726.6200001,2018-06-30,半年度报告,513144707.92,2018,6,-0.6932471360724621,True,1.9369498399693292,True,0.09428467382655953,True,比例外推,1202957418.4963007,1166660769.0,1202957418.4963007
19,002597,754004990.9799999,754004990.9799999,2018-09-30,三季度报告,712691086.0999997,2018,9,-0.7847797487402387,True,1.8421657121790818,True,0.10287260674320764,False,平均增速,1278745391.9052474,1076641818.0,1076641818.0
20,002597,911579114.1,911579114.1,2018-12-31,年度报告,847343691.37,2018,12,-0.8512800904520962,True,1.796290911326627,True,0.0,True,比例外推,911579114.1,1074289485.0,1074289485.0
21,002597,180337693.48,180648176.14,2019-03-31,一季度报告,161435518.68999997,2019,3,-0.4674487838591639,True,0.6597563659066789,True,0.097800269136568,True,比例外推,742071912.0885572,903410769.0,903410769.0
22,002597,401124562.69,401322499.43000007,2019-06-30,半年度报告,383155060.61,2019,6,-0.7139304108850589,True,0.46415940590174315,True,0.14352774598520596,False,平均增速,775506429.3959601,864751538.0,864751538.0
23,002597,610609754.05,610913181.5099999,2019-09-30,三季度报告,565129482.3299999,2019,9,-0.794037812736283,True,0.4022537578989386,True,0.14158605274968472,False,平均增速,764791448.8071482,833462778.0,764791448.8071482
24,002597,808356014.1999999,808761301.8000001,2019-12-31,年度报告,743468567.6899999,2019,12,-0.8296401104984465,True,0.1343257812766907,True,0.0,True,比例外推,808761301.8000001,825296842.0,808761301.8000001
25,002597,151826927.73000002,151946864.75000006,2020-03-31,一季度报告,132978339.01999998,2020,3,-0.1388571398844973,True,0.2871593350410331,True,0.07296669759190119,True,比例外推,554819987.0010576,884402274.9999999,884402274.9999999
