,SECURITYCODE_x,NETPROFIT_x,PARENTNETPROFIT_x,REPORTDATE_x,REPORTTIMETYPE_x,KCFJCXSYJLR,Year,Month,managesituationChangeRate,managesituationGreatChange,historyprofitextroplaterate,ifhistoryprofitextroplate,IfprofitdisStableChangeRage,IfprofitdisStable,predicttype,predict,analyst_prediction,adj_prediction
0,002532,123007648.01999998,121169201.48,2013-12-31,年度报告,75444475.84,2013,12,未知,未知,未知,未知,未知,未知,未知,未知,未知,未知
1,002532,10169981.580000002,11194815.52,2014-03-31,一季度报告,19309909.07,2014,3,未知,未知,未知,未知,未知,未知,未知,未知,未知,未知
2,002532,52060688.01,47325939.74,2014-06-30,半年度报告,49388789.47000001,2014,6,未知,未知,未知,未知,未知,未知,未知,未知,未知,未知
3,002532,83630474.37999998,78526757.36000001,2014-09-30,三季度报告,73097353.72000001,2014,9,未知,未知,未知,未知,未知,未知,未知,未知,未知,未知
4,002532,93386170.25999998,87702586.1,2014-12-31,年度报告,80841260.22999999,2014,12,0.0,True,未知,未知,未知,未知,未知,未知,未知,未知
5,002532,21453672.17,22949371.820000004,2015-03-31,一季度报告,22068469.270000003,2015,3,11.095169204819737,False,未知,未知,未知,未知,未知,未知,118896833.0,未知
6,002532,67478681.16,68180860.4,2015-06-30,半年度报告,56210895.32000001,2015,6,1.3627741530494613,False,未知,未知,未知,未知,未知,未知,126000000.0,未知
7,002532,106639385.97,106350726.46000004,2015-09-30,三季度报告,91602487.51,2015,9,0.4708471873671083,True,未知,未知,未知,未知,未知,未知,118500000.0,未知
8,002532,115518001.77,117822356.54999998,2015-12-31,年度报告,95943046.54,2015,12,0.3171934096615133,True,未知,未知,未知,未知,未知,未知,116555000.0,未知
9,002532,26709373.97,27551044.58,2016-03-31,一季度报告,26063451.07,2016,3,4.733640704737215,False,未知,未知,未知,未知,未知,未知,138492686.0,未知
10,002532,67463954.27,70283992.69999999,2016-06-30,半年度报告,67379075.80999999,2016,6,0.8229112647939011,False,未知,未知,未知,未知,未知,未知,139650166.0,未知
11,002532,89943380.25,94215196.74,2016-09-30,三季度报告,89489701.63,2016,9,0.15349171322690036,True,未知,未知,未知,未知,未知,未知,121500000.0,未知
12,002532,107450659.32,116648231.78,2016-12-31,年度报告,112421147.46,2016,12,0.06483531687911386,True,0.06766452653954262,True,0.0,True,比例外推,116648231.78,121500000.0,116648231.78
13,002532,50179289.63,49480892.36,2017-03-31,一季度报告,27036558.780000005,2017,3,3.6054111248793146,False,0.6892022775831206,True,0.005290043665796135,True,前期平均,117183856.575,168970000.0,168970000.0
14,002532,101091793.89,98676981.69,2017-06-30,半年度报告,67723427.16000001,2017,6,0.823309193050062,False,0.1287319773966313,True,0.012841715920804742,True,前期平均,134269292.67999998,174805000.0,174805000.0
15,002532,135085852.19,129549167.66000004,2017-09-30,三季度报告,94307577.8,2017,9,0.3676120207857096,True,0.054570386665025825,True,0.0889745270685296,True,比例外推,141804248.20684233,159536667.0,159536667.0
16,002532,133432213.51000002,129709702.71999998,2017-12-31,年度报告,99980605.71,2017,12,0.14478262672795286,True,0.028707644044269186,True,0.0,True,比例外推,129709702.71999998,159536667.0,159536667.0
17,002532,25265188.099999994,25337754.31,2018-03-31,一季度报告,23024519.99,2018,3,1.4513628815195323,False,1.0837257462553012,True,0.026327366573879768,True,前期平均,105453891.14,,105453891.14
18,002532,68019381.75000001,68371725.64999999,2018-06-30,半年度报告,68123672.75000001,2018,6,0.21679162359950857,True,0.4982928644881883,True,0.05650277900404732,True,比例外推,109972239.7147314,147910000.0,147910000.0
19,002532,111177383.73000002,111662929.4,2018-09-30,三季度报告,109487385.03,2018,9,-0.08941131861101091,True,0.37434073990822286,True,0.10199126968296568,False,平均增速,117879163.7487826,,117879163.7487826
20,002532,131710357.9,130838330.69,2018-12-31,年度报告,124615992.97,2018,12,-0.07812630260547071,True,0.1968696664159534,True,0.0,True,比例外推,130838330.69,186265000.0,186265000.0
21,002532,25085812.93,27384319.91,2019-03-31,一季度报告,26442761.960000005,2019,3,3.868661477331333,False,0.3428111006991154,True,0.044242707510995266,True,前期平均,107035191.57,,107035191.57
22,002532,68400270.27000001,71092267.61000001,2019-06-30,半年度报告,64270962.49999999,2019,6,0.8084205538960217,False,0.19291531149168237,True,0.06957243274692282,True,前期平均,109741892.71000001,未知,109741892.71000001
23,002532,106421207.51000004,106746955.82000002,2019-09-30,三季度报告,95263448.71999998,2019,9,0.10640891063537136,True,0.011884966904080151,True,0.07660432959732189,True,比例外推,120652174.55508369,未知,120652174.55508369
24,002532,134996572.32999998,131746639.25,2019-12-31,年度报告,117868492.03000002,2019,12,-0.06607460505579588,True,0.09356349293420206,True,0.0,True,比例外推,131746639.25,155000000.0,155000000.0
25,002532,46620241.77,48550486.31,2020-03-31,一季度报告,21705979.59,2020,3,3.903474659690846,False,0.33498610674258017,True,0.043910358911050856,True,前期平均,135818246.265,未知,135818246.265
