,SECURITYCODE_x,NETPROFIT_x,PARENTNETPROFIT_x,REPORTDATE_x,REPORTTIMETYPE_x,KCFJCXSYJLR,Year,Month,managesituationChangeRate,managesituationGreatChange,historyprofitextroplaterate,ifhistoryprofitextroplate,IfprofitdisStableChangeRage,IfprofitdisStable,predicttype,predict,analyst_prediction,adj_prediction
0,002586,102589736.74,96387576.31000002,2013-12-31,年度报告,87735368.91,2013,12,未知,未知,未知,未知,未知,未知,未知,未知,未知,未知
1,002586,15156340.990000002,14497100.709999995,2014-03-31,一季度报告,14379654.35,2014,3,未知,未知,未知,未知,未知,未知,未知,未知,未知,未知
2,002586,32214520.56,29872635.16,2014-06-30,半年度报告,29585769.1,2014,6,未知,未知,未知,未知,未知,未知,未知,未知,未知,未知
3,002586,57100751.28000001,51291937.73,2014-09-30,三季度报告,47404319.39000001,2014,9,未知,未知,未知,未知,未知,未知,未知,未知,未知,未知
4,002586,110787036.08,102019178.75,2014-12-31,年度报告,97110623.97,2014,12,0.0,True,未知,未知,未知,未知,未知,未知,未知,未知
5,002586,8026660.620000003,7347879.910000001,2015-03-31,一季度报告,7286659.910000001,2015,3,5.768766736489213,False,未知,未知,未知,未知,未知,未知,145250000.0,未知
6,002586,15627747.750000002,15228870.35,2015-06-30,半年度报告,12912064.84,2015,6,2.1845805852961604,False,未知,未知,未知,未知,未知,未知,112750000.0,未知
7,002586,20722186.390000004,19844840.05,2015-09-30,三季度报告,12909884.560000002,2015,9,0.7966442549405276,False,未知,未知,未知,未知,未知,未知,53900000.0,未知
8,002586,64315487.67000001,63276609.00999999,2015-12-31,年度报告,55781808.39000002,2015,12,-0.07399150324845484,True,未知,未知,未知,未知,未知,未知,210000000.0,未知
9,002586,2859400.1,3876482.5,2016-03-31,一季度报告,2205905.57,2016,3,11.78112300953369,False,未知,未知,未知,未知,未知,未知,146429575.0,未知
10,002586,13305073.55,13661265.4,2016-06-30,半年度报告,10774773.910000002,2016,6,5.564588729044464,False,未知,未知,未知,未知,未知,未知,133785714.0,未知
11,002586,26350909.47,28104482.72999999,2016-09-30,三季度报告,20734662.790000007,2016,9,3.9507197169844575,False,未知,未知,未知,未知,未知,未知,110072857.0,未知
12,002586,90754809.95999998,93062078.65999998,2016-12-31,年度报告,76930284.68999998,2016,12,0.5951015914919825,False,0.3971650539090761,True,0.0,True,前期平均,93062078.65999998,105501429.0,105501429.0
13,002586,-1577241.35,-1267345.8,2017-03-31,一季度报告,-4310309.85,2017,3,34.87806293355029,False,0.7533192510527545,True,0.07378490168846888,True,盈利变化,84373791.43333331,238830000.0,238830000.0
14,002586,21164414.65,23066765.23,2017-06-30,半年度报告,14636227.37,2017,6,6.710572689017566,False,0.44379420040086304,True,0.08533902632806287,True,前期平均,78264064.44000003,,78264064.44000003
15,002586,62867162.35,62711504.02,2017-09-30,三季度报告,44309385.79,2017,9,2.893214268630706,False,0.3227983867240206,True,0.15844482565760737,False,前期平均,109000618.225,166912500.0,166912500.0
16,002586,218287058.96,213324034.43,2017-12-31,年度报告,174896889.70000002,2017,12,0.13040550451503605,True,0.03659054154552103,True,0.0,True,比例外推,213324034.43,180000000.0,180000000.0
17,002586,38879554.37,37492294.15000001,2018-03-31,一季度报告,14163571.22,2018,3,-66.04377832853544,False,1.2897726534084588,True,0.08574218548156609,True,前期平均,99102057.95000002,未知,99102057.95000002
18,002586,101263701.25,99770333.31,2018-06-30,半年度报告,49937022.35,2018,6,3.847274939399281,False,0.4630038619842438,True,0.07973504053073074,True,前期平均,154282960.475,未知,154282960.475
19,002586,193016888.2,185724242.71,2018-09-30,三季度报告,123687564.00999998,2018,9,0.631849329684275,False,1.6710443067935494,True,0.0200001147241263,True,前期平均,235258015.575,309000000.0,309000000.0
20,002586,261497697.8700001,252908342.75,2018-12-31,年度报告,174502902.21,2018,12,-0.5300237346694976,True,1.8153303668873602,True,0.0,True,比例外推,252908342.75,,252908342.75
21,002586,34383697.40000001,29407325.13,2019-03-31,一季度报告,19284926.72,2019,3,1.6386551595652974,False,59.64702108065791,False,0.05304301951816259,True,去年同期,189746656.12,379000000.0,379000000.0
22,002586,53457414.07000002,41640444.58000001,2019-06-30,半年度报告,13541322.080000002,2019,6,0.013094874803423152,True,4.8755558343335075,False,0.11619691581696609,False,未知,未知,,未知
23,002586,107231799.46,89669350.06,2019-09-30,三季度报告,34866499.13,2019,9,-0.4684934686456105,True,3.3268563030462497,False,0.29824260325697927,False,未知,未知,未知,未知
24,002586,-1424529265.07,-1421657799.16,2019-12-31,年度报告,-125618346.99,2019,12,-0.6076839774283557,True,0.6923124286288381,True,0.0,True,比例外推,-1421657799.16,449000000.0,449000000.0
25,002586,-23825651.379999995,-22384517.77,2020-03-31,一季度报告,-30073669.39,2020,3,1.983673790125897,False,0.8435155686761227,True,0.12118678471328237,False,盈利变化,-1487469260.64,未知,-1487469260.64
