,SECURITYCODE_x,NETPROFIT_x,PARENTNETPROFIT_x,REPORTDATE_x,REPORTTIMETYPE_x,KCFJCXSYJLR,Year,Month,managesituationChangeRate,managesituationGreatChange,historyprofitextroplaterate,ifhistoryprofitextroplate,IfprofitdisStableChangeRage,IfprofitdisStable,predicttype,predict,analyst_prediction,adj_prediction
0,002553,47194915.85,47194915.85,2013-12-31,年度报告,44989269.56,2013,12,未知,未知,未知,未知,未知,未知,未知,未知,未知,未知
1,002553,17237435.51,17237435.51,2014-03-31,一季度报告,13051206.79,2014,3,未知,未知,未知,未知,未知,未知,未知,未知,未知,未知
2,002553,34463663.42000001,34463663.42000001,2014-06-30,半年度报告,27482671.51,2014,6,未知,未知,未知,未知,未知,未知,未知,未知,未知,未知
3,002553,50531381.58000001,50531381.58000001,2014-09-30,三季度报告,42229961.27,2014,9,未知,未知,未知,未知,未知,未知,未知,未知,未知,未知
4,002553,65268188.31,65268188.31,2014-12-31,年度报告,52238669.4,2014,12,0.0,True,未知,未知,未知,未知,未知,未知,未知,未知
5,002553,18669366.83,18669366.83,2015-03-31,一季度报告,12499137.680000005,2015,3,1.7379313948771953,False,未知,未知,未知,未知,未知,未知,81000000.0,未知
6,002553,39470404.28,39470404.28,2015-06-30,半年度报告,28666257.7,2015,6,0.36941088574500675,True,未知,未知,未知,未知,未知,未知,,未知
7,002553,56231782.23000002,56231782.23000002,2015-09-30,三季度报告,43534035.11000001,2015,9,-0.06602759761709272,True,未知,未知,未知,未知,未知,未知,未知,未知
8,002553,65222165.03000001,65222165.03000001,2015-12-31,年度报告,52283635.99999999,2015,12,-0.27690783102724675,True,未知,未知,未知,未知,未知,未知,84313333.0,未知
9,002553,15775887.36,15775887.36,2016-03-31,一季度报告,12556105.23,2016,3,1.5279333937646993,False,未知,未知,未知,未知,未知,未知,72000000.0,未知
10,002553,39950152.2,39950152.2,2016-06-30,半年度报告,30362104.67,2016,6,0.19570388778394343,True,未知,未知,未知,未知,未知,未知,72255000.0,未知
11,002553,60460771.02,60460771.02,2016-09-30,三季度报告,45158955.34,2016,9,-0.16070745086892854,True,未知,未知,未知,未知,未知,未知,72588333.0,未知
12,002553,72279960.63999999,72279960.63999999,2016-12-31,年度报告,54497203.43,2016,12,-0.27639758925064933,True,0.15988555566115562,True,0.0,True,比例外推,72279960.63999999,72557500.0,72279960.63999999
13,002553,22850310.18,22850310.18,2017-03-31,一季度报告,21008856.67,2017,3,1.9915854983640047,False,0.12128698007587618,True,0.010070985955233203,True,前期平均,62336290.64499999,83885000.0,83885000.0
14,002553,44126237.25,44126237.25,2017-06-30,半年度报告,40234045.48,2017,6,0.1813450825851922,True,0.08069671919322771,True,0.017739506317867915,True,比例外推,77873901.3711868,,77873901.3711868
15,002553,64127749.39000002,64127749.39000002,2017-09-30,三季度报告,56672127.65,2017,9,-0.219412603349232,True,0.13261482448381529,True,0.01483000063542872,True,比例外推,76296451.72140789,未知,76296451.72140789
16,002553,78545754.4,78545754.4,2017-12-31,年度报告,69418778.01,2017,12,-0.34705393539074275,True,0.1078207513419855,True,0.0,True,比例外推,78545754.4,,78545754.4
17,002553,22542137.4,22542137.4,2018-03-31,一季度报告,20875983.980000004,2018,3,1.0653949761832073,False,0.32676101351772324,True,0.045271886134946315,True,前期平均,63404935.65999999,未知,63404935.65999999
18,002553,83179754.24999999,83179754.24999999,2018-06-30,半年度报告,32379765.23,2018,6,0.06954317411235877,True,0.11120443385742436,True,0.0179179852633774,True,比例外推,108449441.60479264,未知,108449441.60479264
19,002553,95316274.69,95316274.69,2018-09-30,三季度报告,43794899.45,2018,9,-0.26404846109632063,True,0.09908897532842365,True,0.009512573682887937,True,比例外推,104548707.42078027,未知,104548707.42078027
20,002553,90160928.46,90160928.46,2018-12-31,年度报告,28291070.3,2018,12,-0.39914109667014674,True,0.14246603850338882,True,0.0,True,比例外推,90160928.46,未知,90160928.46
21,002553,13469825.97,13469825.97,2019-03-31,一季度报告,10517085.769999998,2019,3,1.0936309193998615,False,0.16719422752685478,True,0.31425392054004825,False,前期平均,58645335.74,未知,58645335.74
22,002553,27759268.640000004,27759268.640000004,2019-06-30,半年度报告,22542617.33,2019,6,-0.43261534882450065,True,0.9786709394667038,True,0.38410967203884727,False,平均增速,24617376.823943235,未知,24617376.823943235
23,002553,43427930.66999999,43427930.66999999,2019-09-30,三季度报告,36053317.73,2019,9,-0.5048598363344198,True,0.5300972252713179,True,0.48366507743041187,False,平均增速,30529487.467967868,未知,30529487.467967868
24,002553,42209716.95,42209716.95,2019-12-31,年度报告,15039971.84,2019,12,-0.4765480274425292,True,0.1955644093726154,True,0.0,True,比例外推,42209716.95,未知,42209716.95
25,002553,18759162.29,18759162.29,2020-03-31,一季度报告,15841985.780000005,2020,3,2.503750973109269,False,0.4065168684169024,True,0.2772989870984369,False,前期平均,46671666.12,未知,46671666.12
