,SECURITYCODE_x,NETPROFIT_x,PARENTNETPROFIT_x,REPORTDATE_x,REPORTTIMETYPE_x,KCFJCXSYJLR,Year,Month,managesituationChangeRate,managesituationGreatChange,historyprofitextroplaterate,ifhistoryprofitextroplate,IfprofitdisStableChangeRage,IfprofitdisStable,predicttype,predict,analyst_prediction,adj_prediction
0,002527,175406725.45,166109014.13,2013-12-31,年度报告,152624708.67000002,2013,12,未知,未知,未知,未知,未知,未知,未知,未知,未知,未知
1,002527,15277953.51,15203337.62,2014-03-31,一季度报告,12115354.52,2014,3,未知,未知,未知,未知,未知,未知,未知,未知,未知,未知
2,002527,78982899.12,78884297.9,2014-06-30,半年度报告,68972794.08999999,2014,6,未知,未知,未知,未知,未知,未知,未知,未知,未知,未知
3,002527,149088047.49,148879301.38,2014-09-30,三季度报告,137093426.71,2014,9,未知,未知,未知,未知,未知,未知,未知,未知,未知,未知
4,002527,203234940.34,203275115.8,2014-12-31,年度报告,188679738.44,2014,12,0.0,True,未知,未知,未知,未知,未知,未知,未知,未知
5,002527,17243566.389999993,17216157.439999998,2015-03-31,一季度报告,14858972.43,2015,3,10.481035423703158,False,未知,未知,未知,未知,未知,未知,252135904.0,未知
6,002527,84520965.36000001,84016295.05999999,2015-06-30,半年度报告,71512283.84,2015,6,1.2208190305030675,False,未知,未知,未知,未知,未知,未知,244269600.0,未知
7,002527,155740270.92000002,154266840.99000004,2015-09-30,三季度报告,134050018.12999998,2015,9,0.17653110630324198,True,未知,未知,未知,未知,未知,未知,213596400.0,未知
8,002527,191562047.6,189641840.44000003,2015-12-31,年度报告,164000461.85,2015,12,-0.13692633187701417,True,未知,未知,未知,未知,未知,未知,213596400.0,未知
9,002527,17440727.220000006,18084444.0,2016-03-31,一季度报告,10907681.06,2016,3,9.17229971357451,False,未知,未知,未知,未知,未知,未知,269603680.0,未知
10,002527,89620247.14,90490308.67,2016-06-30,半年度报告,70765820.28,2016,6,1.0753043307407861,False,未知,未知,未知,未知,未知,未知,224476913.0,未知
11,002527,157329139.0,158517663.89000002,2016-09-30,三季度报告,139217131.31,2016,9,0.12627725901480003,True,未知,未知,未知,未知,未知,未知,205162980.0,未知
12,002527,169609487.19000003,171143699.79999998,2016-12-31,年度报告,147166132.26,2016,12,-0.08433467042351664,True,0.01183818320851685,True,0.0,True,比例外推,171143699.79999998,204453725.0,204453725.0
13,002527,21480760.81,21595717.17,2017-03-31,一季度报告,10992267.96,2017,3,9.057305709641156,False,0.07256532127823528,True,0.01429237072653576,True,前期平均,184448653.84000003,211790800.00000003,211790800.00000003
14,002527,100400159.0,99194605.83,2017-06-30,半年度报告,85915062.84999998,2017,6,0.9572220680890212,False,0.0962462254335579,True,0.06193209129416044,True,前期平均,205292167.01,203967985.0,205292167.01
15,002527,161696237.78000003,159842105.14,2017-09-30,三季度报告,137074026.78,2017,9,0.11490297706389907,True,0.032247527530491725,True,0.11600109827616056,False,平均增速,167266003.37641165,199350273.00000003,199350273.00000003
16,002527,137683400.64000002,137669481.09,2017-12-31,年度报告,100133053.59,2017,12,0.034179917385787364,True,0.140776184362497,True,0.0,True,比例外推,137669481.09,242044975.0,242044975.0
17,002527,-6028608.150000001,-12285835.250000002,2018-03-31,一季度报告,-21473927.500000004,2018,3,7.165759444066916,False,0.2386448489645339,True,0.018277284407111724,True,盈利变化,94381220.47666666,248068486.0,248068486.0
18,002527,42890188.91,23481465.180000003,2018-06-30,半年度报告,13108215.47,2018,6,0.7470761719610423,False,0.15308900815193302,True,0.2663706843632885,False,前期平均,107925710.175,163436434.0,163436434.0
19,002527,77604806.38,52012417.08,2018-09-30,三季度报告,33257127.340000004,2018,9,0.08479163064173524,True,0.0329737282305478,True,0.32482522645112044,False,平均增速,32960077.645736005,75000000.0,75000000.0
20,002527,-295707427.23,-260687920.25,2018-12-31,年度报告,-303927644.64,2018,12,0.2739860043741579,True,0.23757335571833033,True,0.0,True,比例外推,-260687920.25,75000000.0,75000000.0
21,002527,-4683659.88,-10453398.680000003,2019-03-31,一季度报告,-28471019.04,2019,3,-30.095725097010984,False,1.3097830250145244,True,0.024926784159700885,True,前期平均,102246219.73499998,未知,102246219.73499998
22,002527,44615709.37,31214203.41,2019-06-30,半年度报告,10677352.470000004,2019,6,3.0896701531921513,False,0.5485728108759004,True,0.47504150133110384,False,前期平均,76523354.77,未知,76523354.77
23,002527,70035040.99000001,56002957.07,2019-09-30,三季度报告,32201837.41,2019,9,1.2602559510438405,False,0.5134881922981551,True,0.8445846861124662,False,前期平均,41506970.949999996,62000000.0,62000000.0
24,002527,60558652.44000001,53590455.47000001,2019-12-31,年度报告,-10448132.5,2019,12,-1.593176597196422,False,2.924596623880151,False,0.0,True,前期平均,53590455.47000001,62000000.0,62000000.0
25,002527,-13750036.89,-15182780.07,2020-03-31,一季度报告,-25831905.57,2020,3,-38.45078206874407,False,1.606214549267856,True,1.7565138199723198,False,前期平均,-111839245.82499999,142647473.0,142647473.0
