,SECURITYCODE_x,NETPROFIT_x,PARENTNETPROFIT_x,REPORTDATE_x,REPORTTIMETYPE_x,KCFJCXSYJLR,Year,Month,managesituationChangeRate,managesituationGreatChange,historyprofitextroplaterate,ifhistoryprofitextroplate,IfprofitdisStableChangeRage,IfprofitdisStable,predicttype,predict,analyst_prediction,adj_prediction
0,002563,901821408.95,902003762.02,2013-12-31,年度报告,856594332.8599997,2013,12,未知,未知,未知,未知,未知,未知,未知,未知,未知,未知
1,002563,160683518.35000002,160924622.73,2014-03-31,一季度报告,154680201.87,2014,3,未知,未知,未知,未知,未知,未知,未知,未知,未知,未知
2,002563,342631784.47000015,343755795.12999994,2014-06-30,半年度报告,333032832.12999994,2014,6,未知,未知,未知,未知,未知,未知,未知,未知,未知,未知
3,002563,669206201.56,671323298.1999999,2014-09-30,三季度报告,642540080.37,2014,9,未知,未知,未知,未知,未知,未知,未知,未知,未知,未知
4,002563,1088040570.9,1092260134.0500002,2014-12-31,年度报告,1011862851.3,2014,12,0.0,True,未知,未知,未知,未知,未知,未知,未知,未知
5,002563,197466099.31000003,196297233.55,2015-03-31,一季度报告,187762669.15,2015,3,4.612407658299199,False,未知,未知,未知,未知,未知,未知,1347746316.0,未知
6,002563,422397267.42,422620075.31000006,2015-06-30,半年度报告,405482707.75000006,2015,6,1.6320424719060498,False,未知,未知,未知,未知,未知,未知,1363316250.0,未知
7,002563,826378218.6899997,828813105.0800003,2015-09-30,三季度报告,798228251.1100001,2015,9,0.3475987025340562,True,未知,未知,未知,未知,未知,未知,1366579286.0000002,未知
8,002563,1342563664.4,1349240776.47,2015-12-31,年度报告,1267377663.24,2015,12,-0.17115093584788313,True,未知,未知,未知,未知,未知,未知,1359809091.0,未知
9,002563,243708755.94,244452782.28,2016-03-31,一季度报告,231568710.43,2016,3,3.5669682649386805,False,未知,未知,未知,未知,未知,未知,1679387616.0,未知
10,002563,506961204.69,512576739.4499999,2016-06-30,半年度报告,486985339.54,2016,6,1.1350076776261357,False,未知,未知,未知,未知,未知,未知,1658584737.0,未知
11,002563,992345186.18,1001967698.21,2016-09-30,三季度报告,958203149.67,2016,9,0.09129377874890655,True,未知,未知,未知,未知,未知,未知,1647038462.0,未知
12,002563,1402275560.4300005,1426509947.62,2016-12-31,年度报告,1330581626.2799995,2016,12,-0.3282840636439915,True,0.349403805887286,True,0.0,True,比例外推,1426509947.62,1638713333.0,1638713333.0
13,002563,251310023.64000005,252179465.94000003,2017-03-31,一季度报告,234041362.97,2017,3,2.700406271705824,False,0.3609326601116659,True,0.015684705020490686,True,前期平均,1220578287.7,1633382857.0,1633382857.0
14,002563,528690846.95,533909221.1700001,2017-06-30,半年度报告,492566051.9299999,2017,6,0.7788765700552014,False,0.3253384389456978,True,0.02764063367063757,True,前期平均,1304271708.5,1556404000.0,1556404000.0
15,002563,1003018063.52,1012077430.68,2017-09-30,三季度报告,959340999.36,2017,9,-0.09122206515503763,True,0.3270333292374376,True,0.05848112868211475,True,比例外推,1502642288.0304458,1374118889.0,1502642288.0304458
16,002563,1130474438.59,1137929297.2700002,2017-12-31,年度报告,1025225804.4899998,2017,12,-0.3568871665470222,True,0.15384935158472893,True,0.0,True,比例外推,1137929297.2700002,1327417500.0,1327417500.0
17,002563,307879469.61,312391139.25999993,2018-03-31,一季度报告,282356067.03000003,2018,3,2.5884816526134795,False,0.13927627855214236,True,0.04479308747661309,True,前期平均,1401705094.2299995,1558904215.0,1558904215.0
18,002563,657987915.4000001,667392704.3699999,2018-06-30,半年度报告,619270301.1,2018,6,0.7057632341331005,False,0.13775440331365157,True,0.09165337718656391,True,前期平均,1520138325.4849997,1566343636.0,1520138325.4849997
19,002563,1263577373.84,1271825365.2099998,2018-09-30,三季度报告,1206933764.8300002,2018,9,-0.1008921556356219,True,0.10299131889347915,True,0.17383578618273043,False,平均增速,1343253585.7673774,1565876818.0,1565876818.0
20,002563,1681553122.26,1693628451.6899998,2018-12-31,年度报告,1334235053.0899994,2018,12,-0.20226289231730932,True,0.1762909620617107,True,0.0,True,比例外推,1693628451.6899998,1566422273.0,1693628451.6899998
21,002563,344419667.05,346945740.4,2019-03-31,一季度报告,312524151.06,2019,3,1.929137854149105,False,0.24391026082372527,True,0.030611756543442142,True,前期平均,1292044419.0849996,1930889565.0,1930889565.0
22,002563,712453935.79,722106491.81,2019-06-30,半年度报告,668920660.1299999,2019,6,0.3705744252183874,True,0.27067370620865894,True,0.07086552173507166,True,比例外推,1584387766.211733,1907540417.0,1907540417.0
23,002563,1295138349.35,1307306806.4899995,2019-09-30,三季度报告,1249543442.75,2019,9,-0.28629506382393255,True,0.26651362756127445,True,0.13334923931770426,False,平均增速,1439143957.4302151,1841679444.0,1841679444.0
24,002563,1533900628.8499994,1549401524.9900002,2019-12-31,年度报告,1484079310.0099998,2019,12,-0.4636973420512841,True,0.3278476935431014,True,0.0,True,比例外推,1549401524.9900002,1838538421.0,1838538421.0
25,002563,15394759.63,17482482.669999998,2020-03-31,一季度报告,-25913062.9,2020,3,1.6183795387592692,False,0.23185314176143995,True,0.0114523427058848,True,前期平均,939014196.4599996,1252141923.0,1252141923.0
