,SECURITYCODE_x,NETPROFIT_x,PARENTNETPROFIT_x,REPORTDATE_x,REPORTTIMETYPE_x,KCFJCXSYJLR,Year,Month,managesituationChangeRate,managesituationGreatChange,historyprofitextroplaterate,ifhistoryprofitextroplate,IfprofitdisStableChangeRage,IfprofitdisStable,predicttype,predict,analyst_prediction,adj_prediction
0,002530,44224955.2,43053161.40000001,2013-12-31,年度报告,40528514.58000001,2013,12,未知,未知,未知,未知,未知,未知,未知,未知,未知,未知
1,002530,9962716.150000002,9426768.18,2014-06-30,半年度报告,7479920.909999997,2014,6,未知,未知,未知,未知,未知,未知,未知,未知,未知,未知
2,002530,18159235.5,17081631.19,2014-09-30,三季度报告,14136712.37,2014,9,未知,未知,未知,未知,未知,未知,未知,未知,未知,未知
3,002530,34897598.71,32733440.799999993,2014-12-31,年度报告,25063432.66,2014,12,0.0,True,未知,未知,未知,未知,未知,未知,未知,未知
4,002530,1615052.3199999996,1849764.62,2015-03-31,一季度报告,-1308191.09,2015,3,未知,未知,未知,未知,未知,未知,未知,未知,未知,未知
5,002530,16157989.490000002,15047632.23,2015-06-30,半年度报告,10214844.47,2015,6,3.439045992492719,False,未知,未知,未知,未知,未知,未知,未知,未知
6,002530,24098924.93,22508631.87,2015-09-30,三季度报告,17408800.5,2015,9,1.4353974152711442,False,未知,未知,未知,未知,未知,未知,未知,未知
7,002530,35638376.17999999,33841036.15,2015-12-31,年度报告,26793739.85,2015,12,0.26727788830144417,True,未知,未知,未知,未知,未知,未知,未知,未知
8,002530,2370810.92,2471779.07,2016-03-31,一季度报告,121715.1,2016,3,26.382986081837903,False,未知,未知,未知,未知,未知,未知,141342732.0,未知
9,002530,9198549.02,7496157.25,2016-06-30,半年度报告,3071727.5699999994,2016,6,1.7370332941094144,False,未知,未知,未知,未知,未知,未知,107883333.0,未知
10,002530,11395825.6,10209636.04,2016-09-30,三季度报告,4363602.75,2016,9,0.8351422450777353,False,未知,未知,未知,未知,未知,未知,90358333.0,未知
11,002530,44929009.05,46556799.86,2016-12-31,年度报告,38531604.63999999,2016,12,0.2409363147364368,True,0.09916011506560345,True,0.0,True,比例外推,46556799.86,91230000.0,91230000.0
12,002530,30262866.95000001,30052311.12,2017-03-31,一季度报告,28217878.77,2017,3,17.65393601274622,False,未知,未知,未知,未知,未知,未知,244936364.0,未知
13,002530,81287670.35000001,79058681.32,2017-06-30,半年度报告,81323779.81,2017,6,3.8078186139839705,False,0.2956890869047749,True,0.17341339669121825,False,前期平均,96139884.88499999,260545000.0,260545000.0
14,002530,152162917.29999998,147032457.11,2017-09-30,三季度报告,145057572.59,2017,9,2.880803089861256,False,0.46065680644679213,True,0.3290921681235994,False,前期平均,157188286.93,247914286.0,247914286.0
15,002530,238165902.81,227912897.73,2017-12-31,年度报告,211393947.62,2017,12,-0.015670362309047947,True,0.27393175241616075,True,0.0,True,比例外推,227912897.73,249566667.00000003,227912897.73
16,002530,25448610.45,22269751.0,2018-03-31,一季度报告,22649796.16,2018,3,0.461360395003818,True,14.185100505355027,False,0.10421175554358877,False,未知,未知,307566667.0,未知
17,002530,90567791.98,82335550.13999999,2018-06-30,半年度报告,72545311.64000002,2018,6,-0.4559451020114024,True,5.411574696439117,False,0.20216769495202402,False,未知,未知,299000000.0,未知
18,002530,189266918.32,175831704.84,2018-09-30,三季度报告,161510325.97000003,2018,9,-0.7093578646838943,True,7.573826553388089,False,0.36981154366954166,False,未知,未知,304000000.0,未知
19,002530,314833138.96999985,291043046.39000005,2018-12-31,年度报告,271559818.27000004,2018,12,-0.8143102993408715,True,4.912216267912758,False,0.0,True,比例外推,291043046.39000005,,291043046.39000005
20,002530,37536883.37,33120999.54000001,2019-03-31,一季度报告,26455577.94,2019,3,0.7378141445832853,False,0.5596532239717171,True,0.07019113689352076,True,前期平均,143913978.735,357000000.0,357000000.0
21,002530,90891610.37,82805844.04999997,2019-06-30,半年度报告,71098461.88,2019,6,-0.5116922447467179,True,1.0018029841575422,True,0.16413538166967162,False,平均增速,517203513.3279528,367000000.0,367000000.0
22,002530,193958761.81,180945274.44,2019-09-30,三季度报告,152434686.0,2019,9,-0.7663355244933646,True,1.3143601493161148,True,0.3514837365953571,False,平均增速,419160565.2460797,356310000.0,356310000.0
23,002530,-655583268.21,-679068948.1,2019-12-31,年度报告,-744720060.5799997,2019,12,-0.8595289068212919,True,1.2242232253591012,True,0.0,True,比例外推,-679068948.1,356310000.0,356310000.0
24,002530,14747729.52,12328398.87,2020-03-31,一季度报告,8135274.67,2020,3,0.17817333858210527,True,0.34754578847338174,True,0.09597982318500306,True,比例外推,138759159.22624928,258500000.0,258500000.0
