,SECURITYCODE_x,NETPROFIT_x,PARENTNETPROFIT_x,REPORTDATE_x,REPORTTIMETYPE_x,KCFJCXSYJLR,Year,Month,managesituationChangeRate,managesituationGreatChange,historyprofitextroplaterate,ifhistoryprofitextroplate,IfprofitdisStableChangeRage,IfprofitdisStable,predicttype,predict,analyst_prediction,adj_prediction
0,002506,-4931753090.940002,-4605859539.740001,2013-12-31,年度报告,-4438349436.4800005,2013,12,未知,未知,未知,未知,未知,未知,未知,未知,未知,未知
1,002506,-795780149.2299997,-772293364.3699999,2014-06-30,半年度报告,-691471009.8400003,2014,6,未知,未知,未知,未知,未知,未知,未知,未知,未知,未知
2,002506,-742321939.6099997,-730593873.3000001,2014-09-30,三季度报告,-652277306.3800001,2014,9,未知,未知,未知,未知,未知,未知,未知,未知,未知,未知
3,002506,2682250505.2900004,2694316249.9300003,2014-12-31,年度报告,145941609.48999998,2014,12,-0.0,False,未知,未知,未知,未知,未知,未知,未知,未知
4,002506,70887577.17,70887577.17,2015-03-31,一季度报告,70322859.33,2015,3,未知,未知,未知,未知,未知,未知,未知,未知,未知,未知
5,002506,187907088.44000003,187907088.44000003,2015-06-30,半年度报告,188314571.10000005,2015,6,5.197381394486892,False,未知,未知,未知,未知,未知,未知,630478000.0,未知
6,002506,376592772.89,376623523.76000017,2015-09-30,三季度报告,375895984.4,2015,9,5.643684940163619,False,未知,未知,未知,未知,未知,未知,658617500.0,未知
7,002506,638897803.84,638502181.5800003,2015-12-31,年度报告,635427074.2700001,2015,12,-2.838662377437707,False,未知,未知,未知,未知,未知,未知,663094000.0,未知
8,002506,100711113.93,101985303.96,2016-03-31,一季度报告,101299123.07,2016,3,-70.57147201000892,False,未知,未知,未知,未知,未知,未知,901548333.0,未知
9,002506,190317828.8,193103130.17,2016-06-30,半年度报告,191582751.29999995,2016,6,-27.24570010574531,False,未知,未知,未知,未知,未知,未知,834544000.0,未知
10,002506,206745617.06,209242251.82000005,2016-09-30,三季度报告,207311809.01999995,2016,9,-14.095718893098706,False,未知,未知,未知,未知,未知,未知,681988333.0,未知
11,002506,-33344285.14,-26911627.850000005,2016-12-31,年度报告,-76193663.47000001,2016,12,-8.719157995689507,False,-1.5680347361373563,True,0.0,True,未知,未知,619232500.0,未知
12,002506,-120122159.48000002,-125503881.26000002,2017-03-31,一季度报告,-128798212.94,2017,3,-49.96930337169991,False,未知,未知,未知,未知,未知,未知,307000000.0,未知
13,002506,31332507.039999995,24012674.01,2017-06-30,半年度报告,-2794166.5,2017,6,-26.913247970701956,False,-1.6261762235446346,True,2.615044748460188,False,前期平均,666275235.2600002,291357000.0,291357000.0
14,002506,60117968.88999999,48403396.07,2017-09-30,三季度报告,9818139.89,2017,9,-24.854208669917053,False,-2.1305940891407404,True,2.7911408595372773,False,前期平均,577278398.9400002,191507599.99999997,191507599.99999997
15,002506,37072910.9,23853117.76,2017-12-31,年度报告,-170361587.60999998,2017,12,146.90399824837877,False,1.0200799735731976,True,0.0,True,前期平均,23853117.76,1269000000.0,1269000000.0
16,002506,-138051684.97,-146732654.92999998,2018-03-31,一季度报告,-152320430.37,2018,3,40.056147444311684,False,2.40003584770933,False,1.1752298199614184,False,去年同期,-188296029.59999996,未知,-188296029.59999996
17,002506,38518144.18,25581034.64,2018-06-30,半年度报告,21706858.76,2018,6,-158.40052606208567,False,0.8343181233608775,True,1.7805324330454657,False,前期平均,115249078.84000003,未知,115249078.84000003
18,002506,-80331884.48000002,-96830369.64,2018-09-30,三季度报告,-103577161.35999998,2018,9,-83.03459268498922,False,0.7938830362419559,True,1.9918801597165743,False,盈利变化,-26544793.906666655,未知,-26544793.906666655
19,002506,56486951.61999999,45120733.10999999,2018-12-31,年度报告,34970304.809999995,2018,12,-134.02848282517795,False,0.8775569466441613,True,0.0,True,前期平均,45120733.10999999,,45120733.10999999
20,002506,32585782.36,31693298.54000001,2019-03-31,一季度报告,-131463131.67,2019,3,34.72396158737013,False,-13.224033900121357,True,2.712649588364105,False,盈利变化,72930464.71,152395000.0,152395000.0
21,002506,20752947.7,18158287.47,2019-06-30,半年度报告,-154081185.00000003,2019,6,-129.03714186990206,False,0.6524422664732201,True,1.888653614938764,False,前期平均,-199513630.46999997,,-199513630.46999997
22,002506,-31048966.54000001,-36261391.49,2019-09-30,三季度报告,-198806960.96,2019,9,60.39222455521812,False,1.6020445554160478,True,1.8558172385389144,False,前期平均,-268103991.485,64500000.0,64500000.0
23,002506,69627263.75999999,55556438.69,2019-12-31,年度报告,-259905529.32999992,2019,12,-88.307828613535,False,29.299072771518922,False,0.0,True,去年同期,55556438.69,,55556438.69
24,002506,-126175816.35,-139272322.29000002,2020-03-31,一季度报告,-144395100.89,2020,3,-152.34677561076063,False,-1.2524328708000536,True,3.324418451303684,False,盈利变化,38313813.06333335,-268000000.0,-268000000.0
