,SECURITYCODE_x,NETPROFIT_x,PARENTNETPROFIT_x,REPORTDATE_x,REPORTTIMETYPE_x,KCFJCXSYJLR,Year,Month,managesituationChangeRate,managesituationGreatChange,historyprofitextroplaterate,ifhistoryprofitextroplate,IfprofitdisStableChangeRage,IfprofitdisStable,predicttype,predict,analyst_prediction,adj_prediction
0,002565,252824972.64999995,229269128.32,2013-12-31,年度报告,194036096.12,2013,12,未知,未知,未知,未知,未知,未知,未知,未知,未知,未知
1,002565,58366478.19000001,52740358.88,2014-03-31,一季度报告,50197853.82000001,2014,3,未知,未知,未知,未知,未知,未知,未知,未知,未知,未知
2,002565,123789254.09,112996792.62000002,2014-06-30,半年度报告,109602844.42,2014,6,未知,未知,未知,未知,未知,未知,未知,未知,未知,未知
3,002565,158735263.98000002,146417044.81,2014-09-30,三季度报告,140373825.23,2014,9,未知,未知,未知,未知,未知,未知,未知,未知,未知,未知
4,002565,-47918829.37000001,-51054535.49999999,2014-12-31,年度报告,79931376.85999998,2014,12,0.0,True,未知,未知,未知,未知,未知,未知,未知,未知
5,002565,7447391.87,7453254.410000001,2015-03-31,一季度报告,7130751.099999999,2015,3,3.3316811377068265,False,未知,未知,未知,未知,未知,未知,,未知
6,002565,53688859.32999998,51653554.64999999,2015-06-30,半年度报告,50428847.86,2015,6,1.0423822286398587,False,未知,未知,未知,未知,未知,未知,156500000.0,未知
7,002565,86790720.43999998,85067731.12,2015-09-30,三季度报告,82572190.23000002,2015,9,0.5927461000843193,False,未知,未知,未知,未知,未知,未知,141200000.0,未知
8,002565,145970595.67000005,143475832.18000004,2015-12-31,年度报告,138931070.17999998,2015,12,-6.276109119816754,False,未知,未知,未知,未知,未知,未知,142025000.0,未知
9,002565,20028012.72,22363548.56,2016-03-31,一季度报告,21992718.75,2016,3,32.948122653306804,False,未知,未知,未知,未知,未知,未知,214261667.00000003,未知
10,002565,48318694.64,44449817.63,2016-06-30,半年度报告,41256891.90000001,2016,6,3.709077000425817,False,未知,未知,未知,未知,未知,未知,165085000.0,未知
11,002565,63544945.36000001,57790244.77,2016-09-30,三季度报告,53060747.89,2016,9,1.9130415252720767,False,未知,未知,未知,未知,未知,未知,116060100.0,未知
12,002565,105609092.9,98407615.69999996,2016-12-31,年度报告,100943747.10000002,2016,12,0.7320267242148458,False,0.42475567919439383,True,0.0,True,前期平均,98407615.69999996,203402000.0,203402000.0
13,002565,21181448.18,19462659.82,2017-03-31,一季度报告,26692873.53,2017,3,11.623567609258037,False,0.3913741069552294,True,0.3289422977521141,False,前期平均,100229580.87999997,146000000.0,146000000.0
14,002565,19821797.450000007,16812700.85,2017-06-30,半年度报告,44286813.63,2017,6,4.232446251573652,False,0.45549686427357555,True,0.6569114504867433,False,前期平均,46228078.229999974,,46228078.229999974
15,002565,44164055.34000001,37536540.50999999,2017-09-30,三季度报告,72820531.91,2017,9,2.978679519160419,False,0.4823770240847569,True,0.7974575083514662,False,前期平均,35494756.29999997,未知,35494756.29999997
16,002565,113020955.6,103190747.07,2017-12-31,年度报告,93544655.62999998,2017,12,1.3939697397969029,False,1.1541497289682168,True,0.0,True,前期平均,103190747.07,,103190747.07
17,002565,51208372.20999999,49856299.02,2018-03-31,一季度报告,17175473.830000002,2018,3,10.936151414270293,False,0.5418479542761121,True,0.13352279718245347,False,前期平均,155231972.735,151500000.0,155231972.735
18,002565,50036079.49,45390624.99,2018-06-30,半年度报告,18459234.13,2018,6,11.754896385544482,False,0.6113660865580697,True,0.05839004024228994,True,前期平均,119485163.75,,119485163.75
19,002565,74112109.60000001,63775616.90000001,2018-09-30,三季度报告,47597656.83000001,2018,9,4.724677471387298,False,0.41246070777703614,True,0.14564296149664957,False,前期平均,115896556.47999999,未知,115896556.47999999
20,002565,113942791.10999998,101377367.94999996,2018-12-31,年度报告,-22256364.04,2018,12,1.2369742965613357,False,0.10150969466239076,True,0.0,True,前期平均,101377367.94999996,未知,101377367.94999996
21,002565,43036846.56,39494364.99,2019-03-31,一季度报告,26977031.42,2019,3,3.9371804206779326,False,1.4852726093293782,True,0.68221379725103,False,前期平均,112395770.215,120750000.0,112395770.215
22,002565,63099155.69999999,59055239.88999999,2019-06-30,半年度报告,38672878.85,2019,6,4.052853365550521,False,0.46861514953288913,True,0.8469746376764747,False,前期平均,113527588.48999998,,113527588.48999998
23,002565,78147658.41,73347907.32000001,2019-09-30,三季度报告,55445541.32,2019,9,2.4113854539366657,False,0.3761544368315729,True,1.8604406018205297,False,前期平均,107651468.78500001,未知,107651468.78500001
24,002565,-193249197.83,-198378903.2800001,2019-12-31,年度报告,-222880644.47,2019,12,1.218876421992538,False,0.042334225251749735,True,0.0,True,盈利变化,34502607.80666662,131560000.0,131560000.0
25,002565,-6573885.4300000025,-7935943.960000003,2020-03-31,一季度报告,-7992555.1499999985,2020,3,4.874616586917513,False,0.1890303450993273,True,0.5692441126677505,False,盈利变化,-245005018.70666677,未知,-245005018.70666677
