,SECURITYCODE_x,NETPROFIT_x,PARENTNETPROFIT_x,REPORTDATE_x,REPORTTIMETYPE_x,KCFJCXSYJLR,Year,Month,managesituationChangeRate,managesituationGreatChange,historyprofitextroplaterate,ifhistoryprofitextroplate,IfprofitdisStableChangeRage,IfprofitdisStable,predicttype,predict,analyst_prediction,adj_prediction
0,002528,61987588.77,61987588.77,2013-12-31,年度报告,61198452.00999999,2013,12,未知,未知,未知,未知,未知,未知,未知,未知,未知,未知
1,002528,-6554072.210000001,-6554072.210000001,2014-03-31,一季度报告,-6406559.539999999,2014,3,未知,未知,未知,未知,未知,未知,未知,未知,未知,未知
2,002528,-9005664.09,-9005664.09,2014-06-30,半年度报告,-8423521.879999999,2014,6,未知,未知,未知,未知,未知,未知,未知,未知,未知,未知
3,002528,10734027.769999998,10734027.769999998,2014-09-30,三季度报告,13712803.659999998,2014,9,未知,未知,未知,未知,未知,未知,未知,未知,未知,未知
4,002528,33720797.65,33590011.27,2014-12-31,年度报告,42617702.32,2014,12,0.0,True,未知,未知,未知,未知,未知,未知,未知,未知
5,002528,-14567209.1,-14601629.71,2015-03-31,一季度报告,-15052750.89,2015,3,-10.457873942160914,False,未知,未知,未知,未知,未知,未知,未知,未知
6,002528,-9630089.51,-9910141.19,2015-06-30,半年度报告,-9577444.46,2015,6,-7.883177981158744,False,未知,未知,未知,未知,未知,未知,未知,未知
7,002528,-634371.67,-1002007.64,2015-09-30,三季度报告,1529486.78,2015,9,4.774867561200656,False,未知,未知,未知,未知,未知,未知,41870000.0,未知
8,002528,69013203.93999998,68366651.61,2015-12-31,年度报告,67044378.10999999,2015,12,0.8382598600837073,False,未知,未知,未知,未知,未知,未知,未知,未知
9,002528,-38838557.58000001,-38932965.27,2016-03-31,一季度报告,-38990886.44,2016,3,-5.255282418510764,False,未知,未知,未知,未知,未知,未知,未知,未知
10,002528,-36638952.45,-36759647.38,2016-06-30,半年度报告,-36931238.15000001,2016,6,-7.43686527582442,False,未知,未知,未知,未知,未知,未知,未知,未知
11,002528,-30434080.08999999,-30569446.05,2016-09-30,三季度报告,-30748359.24,2016,9,-98.71493857851502,False,未知,未知,未知,未知,未知,未知,未知,未知
12,002528,-421981197.09,-420831055.53,2016-12-31,年度报告,-428543780.59,2016,12,-0.10180102891771324,True,0.4421558344353912,True,0.0,True,比例外推,-420831055.53,,-420831055.53
13,002528,-20674989.79,-20459501.2,2017-03-31,一季度报告,-23930878.20000001,2017,3,-2.596032206971575,False,-2.6776705929873352,True,0.18560489145759435,False,前期平均,45101194.22999999,未知,45101194.22999999
14,002528,26131999.390000004,26397889.04000001,2017-06-30,半年度报告,-38644864.47,2017,6,-2.6918493740942093,False,-2.9321138534478157,True,0.1709541102904334,False,盈利变化,-421973473.07666665,未知,-421973473.07666665
15,002528,72255453.64,72488911.44000001,2017-09-30,三季度报告,7122785.1800000025,2017,9,-3.036782074131685,False,7.026755720920041,False,0.18298744420861504,False,盈利变化,-403999435.7877777,未知,-403999435.7877777
16,002528,127038470.71000002,127251782.34,2017-12-31,年度报告,73972906.71000001,2017,12,-1.146896566002156,False,9.215025026944444,False,0.0,True,前期平均,127251782.34,未知,127251782.34
17,002528,-904316.35,-737633.4099999998,2018-03-31,一季度报告,-3909005.56,2018,3,-3.998191989433626,False,-0.2257394257110216,True,0.2433323704011325,False,前期平均,-154465515.98499998,未知,-154465515.98499998
18,002528,46149950.02,46671850.1,2018-06-30,半年度报告,8904435.370000001,2018,6,1.3720951407078688,False,-2.1295673427857595,True,0.3293881581475321,False,前期平均,-110823509.83499998,未知,-110823509.83499998
19,002528,65609451.19000002,65826512.13000001,2018-09-30,三季度报告,25914334.75,2018,9,-0.1421050502451734,True,-5.651371378153285,True,0.04080460237874639,True,比例外推,447257208.1853524,未知,447257208.1853524
20,002528,139650941.43,138801724.51999998,2018-12-31,年度报告,90334050.08,2018,12,-0.5120565571707519,True,-1.7198299742493242,True,0.0,True,比例外推,138801724.51999998,未知,138801724.51999998
21,002528,7917613.720000002,8445558.52,2019-03-31,一季度报告,8329746.800000003,2019,3,-69.5463541270707,False,-0.9696097312305112,True,0.2315764017226279,False,盈利变化,155120061.0,181166667.00000003,181166667.00000003
22,002528,-4506950.86,-3913868.0,2019-06-30,半年度报告,-6468141.06,2019,6,0.34317780936136316,True,-9.78464950903664,True,0.40986303006773905,False,平均增速,35599878.143679015,,35599878.143679015
23,002528,20108224.18,20904808.899999995,2019-09-30,三季度报告,17435192.29,2019,9,-0.05520336406276859,True,2.1376038432386686,False,0.13523488282337065,False,未知,未知,未知,未知
24,002528,73143909.05999999,75093950.34000002,2019-12-31,年度报告,47734304.85,2019,12,-0.5561248056385552,True,-1.9469698957761432,True,0.0,True,比例外推,75093950.34000002,未知,75093950.34000002
25,002528,-52852606.65000002,-52262874.14,2020-03-31,一季度报告,-53904662.77,2020,3,6.829074638160043,False,-1.73381541265812,True,0.2594156392050945,False,盈利变化,-7885262.419999987,未知,-7885262.419999987
