,SECURITYCODE_x,NETPROFIT_x,PARENTNETPROFIT_x,REPORTDATE_x,REPORTTIMETYPE_x,KCFJCXSYJLR,Year,Month,managesituationChangeRate,managesituationGreatChange,historyprofitextroplaterate,ifhistoryprofitextroplate,IfprofitdisStableChangeRage,IfprofitdisStable,predicttype,predict,analyst_prediction,adj_prediction
0,002543,248153477.32999995,247717089.17,2013-12-31,年度报告,241230836.42,2013,12,未知,未知,未知,未知,未知,未知,未知,未知,未知,未知
1,002543,83466004.57000001,82257873.46,2014-03-31,一季度报告,80541501.01999998,2014,3,未知,未知,未知,未知,未知,未知,未知,未知,未知,未知
2,002543,168637059.91,166854919.54,2014-06-30,半年度报告,161718020.06000006,2014,6,未知,未知,未知,未知,未知,未知,未知,未知,未知,未知
3,002543,226100935.29,226593938.18,2014-09-30,三季度报告,218721686.12,2014,9,未知,未知,未知,未知,未知,未知,未知,未知,未知,未知
4,002543,266886355.22,266886355.22,2014-12-31,年度报告,256684834.58,2014,12,0.0,True,未知,未知,未知,未知,未知,未知,未知,未知
5,002543,103167104.93,103167104.93,2015-03-31,一季度报告,102309988.53,2015,3,1.9731083763795394,False,未知,未知,未知,未知,未知,未知,333600000.0,未知
6,002543,200871779.77,200871779.77,2015-06-30,半年度报告,198388667.51,2015,6,0.4715239785515539,True,未知,未知,未知,未知,未知,未知,321000000.0,未知
7,002543,256171098.76,256171098.76,2015-09-30,三季度报告,251571498.6,2015,9,0.09753405934263423,True,未知,未知,未知,未知,未知,未知,305000000.0,未知
8,002543,319028975.36,319098684.92,2015-12-31,年度报告,308537062.0,2015,12,-0.07019046692948444,True,未知,未知,未知,未知,未知,未知,308000000.0,未知
9,002543,106568752.07,106564322.76999998,2016-03-31,一季度报告,105604635.68,2016,3,1.4053546670556933,False,未知,未知,未知,未知,未知,未知,367902933.0,未知
10,002543,229961868.00000003,230308569.22,2016-06-30,半年度报告,228731730.48,2016,6,0.23538247938131435,True,未知,未知,未知,未知,未知,未知,373272000.0,未知
11,002543,293232115.25,293682709.83,2016-09-30,三季度报告,277005428.99999994,2016,9,-0.03129791560722288,True,未知,未知,未知,未知,未知,未知,373932500.0,未知
12,002543,430312933.8299999,431167704.75,2016-12-31,年度报告,406830591.46,2016,12,-0.22216006539851885,True,0.23885165844538345,True,0.0,True,比例外推,431167704.75,365952500.0,365952500.0
13,002543,124958506.84000002,125964669.70999996,2017-03-31,一季度报告,97858875.42999998,2017,3,1.3285763651149787,False,0.14201335824606184,True,0.04207171105149571,True,前期平均,317149873.22499996,534210886.0,534210886.0
14,002543,213294919.19000003,213728715.0,2017-06-30,半年度报告,181982716.23,2017,6,0.07910706887282687,True,0.2446894001190896,True,0.049522191295495066,True,比例外推,329224588.374673,476532500.0,476532500.0
15,002543,281838020.41,275037567.51,2017-09-30,三季度报告,239660804.16000003,2017,9,-0.15373022113068172,True,0.21604445021416654,True,0.10189935109145232,False,平均增速,413007821.00857854,460630000.0,460630000.0
16,002543,420314173.23000014,413400528.25000006,2017-12-31,年度报告,363707381.25000006,2017,12,-0.4233185716234227,True,0.46885705620309115,True,0.0,True,比例外推,413400528.25000006,450230000.0,413400528.25000006
17,002543,146964729.21,146246915.73,2018-03-31,一季度报告,119845488.59,2018,3,0.9858870244643835,False,0.19157981498604712,True,0.04485196725337126,True,前期平均,399973430.355,538456667.0,538456667.0
18,002543,281768666.58,276504690.8,2018-06-30,半年度报告,243670320.92,2018,6,0.16342891932155415,True,0.009850227371900947,True,0.07447083489448691,True,比例外推,461433740.6180928,524506000.0,524506000.0
19,002543,375915346.0099999,368587152.5299999,2018-09-30,三季度报告,315845601.36,2018,9,-0.1195173845991323,True,0.025978782879381324,True,0.09697089271177894,True,比例外推,492394272.3134151,547395000.0,547395000.0
20,002543,494776680.36,488921998.8600001,2018-12-31,年度报告,435823650.84000015,2018,12,-0.40960002508835724,True,0.12182214307041266,True,0.0,True,比例外推,488921998.8600001,568682500.0,568682500.0
21,002543,181818502.33,177601042.48000002,2019-03-31,一季度报告,172176311.69000003,2019,3,0.6885240333781713,False,0.2695242011838319,True,0.008295922250203813,True,前期平均,461138273.2800001,574556667.0,574556667.0
22,002543,336259521.80999994,329758566.32999986,2019-06-30,半年度报告,316764811.22,2019,6,-0.11930066482554041,True,0.2713563547047102,True,0.04020732182183828,True,比例外推,598985312.9146798,571666667.0,598985312.9146798
23,002543,453694316.59,445715926.09,2019-09-30,三季度报告,385205289.53000015,2019,9,-0.3398687232007849,True,0.3073721714954542,True,0.03653144316107493,True,比例外推,620257067.0198401,574000000.0,620257067.0198401
24,002543,608679033.37,598082302.1799997,2019-12-31,年度报告,473461147.28,2019,12,-0.4984535707110464,True,0.16332215668528022,True,0.0,True,比例外推,598082302.1799997,591000000.0,598082302.1799997
25,002543,120963775.33,127998119.61,2020-03-31,一季度报告,122946168.22,2020,3,0.36484171935154414,True,0.33727815960948665,True,0.06108786308116526,True,比例外推,411395953.8677223,647000000.0,647000000.0
