,SECURITYCODE_x,NETPROFIT_x,PARENTNETPROFIT_x,REPORTDATE_x,REPORTTIMETYPE_x,KCFJCXSYJLR,Year,Month,managesituationChangeRate,managesituationGreatChange,historyprofitextroplaterate,ifhistoryprofitextroplate,IfprofitdisStableChangeRage,IfprofitdisStable,predicttype,predict,analyst_prediction,adj_prediction
0,002536,25582816.47000001,25304046.37,2013-12-31,年度报告,15735468.38,2013,12,未知,未知,未知,未知,未知,未知,未知,未知,未知,未知
1,002536,13838456.62,13327812.310000002,2014-03-31,一季度报告,12498840.27,2014,3,未知,未知,未知,未知,未知,未知,未知,未知,未知,未知
2,002536,27816510.95000001,27136870.74,2014-06-30,半年度报告,22409863.75,2014,6,未知,未知,未知,未知,未知,未知,未知,未知,未知,未知
3,002536,35056163.63,34515770.190000005,2014-09-30,三季度报告,28458632.52,2014,9,未知,未知,未知,未知,未知,未知,未知,未知,未知,未知
4,002536,41142361.16,40422924.28,2014-12-31,年度报告,29517262.82,2014,12,0.0,True,未知,未知,未知,未知,未知,未知,未知,未知
5,002536,15470395.890000002,15331566.04,2015-03-31,一季度报告,14426472.950000005,2015,3,0.848675554832213,False,未知,未知,未知,未知,未知,未知,80065000.0,未知
6,002536,32624512.54,32135750.36,2015-06-30,半年度报告,29256343.82,2015,6,-0.08030102998952857,True,未知,未知,未知,未知,未知,未知,,未知
7,002536,53555052.79000002,53012541.43,2015-09-30,三季度报告,46677612.74,2015,9,-0.27023342485465207,True,未知,未知,未知,未知,未知,未知,未知,未知
8,002536,58080463.56,57143411.28,2015-12-31,年度报告,47246529.21999999,2015,12,-0.37818793699005065,True,未知,未知,未知,未知,未知,未知,,未知
9,002536,30778063.09,29953321.73,2016-03-31,一季度报告,22078735.78,2016,3,0.6536626891711693,False,未知,未知,未知,未知,未知,未知,85000000.0,未知
10,002536,52735901.08000001,51824745.90000001,2016-06-30,半年度报告,43094040.22,2016,6,-0.21584065237346806,True,未知,未知,未知,未知,未知,未知,91000000.0,未知
11,002536,79331047.88999999,78569988.19999999,2016-09-30,三季度报告,64974623.62000001,2016,9,-0.5223080710924644,True,未知,未知,未知,未知,未知,未知,101333333.0,未知
12,002536,108773948.17,107857248.16,2016-12-31,年度报告,92776589.08,2016,12,-0.5595280253992516,True,0.7408859930523948,True,0.0,True,比例外推,107857248.16,101333333.0,107857248.16
13,002536,51777456.07,51320212.67999999,2017-03-31,一季度报告,48477130.64999999,2017,3,-0.16879706188164778,True,1.10025712057466,True,0.10118712234402039,False,平均增速,191931286.37061983,171432000.0,171432000.0
14,002536,95420256.86,94629630.25,2017-06-30,半年度报告,96488998.0,2017,6,-0.5148880374454767,True,0.7450366666515893,True,0.14981808776209665,False,平均增速,194521082.98629588,216812000.0,216812000.0
15,002536,179356397.51,178296889.96,2017-09-30,三季度报告,180023115.93999997,2017,9,-0.6775182333974333,True,0.7905418996616901,True,0.18380841823178862,False,平均增速,241585608.748651,225267143.0,241585608.748651
16,002536,243065910.64,241552073.66,2017-12-31,年度报告,235172294.31000003,2017,12,-0.7648075030795307,True,1.1925186765636357,True,0.0,True,比例外推,241552073.66,137312906.0,137312906.0
17,002536,75012026.71000001,74629305.29,2018-03-31,一季度报告,77555824.77,2018,3,-0.5059081999815985,True,1.2390997327020559,True,0.055525746111601465,True,比例外推,307521715.47150606,312051709.0,307521715.47150606
18,002536,129916880.19,129340179.17000002,2018-06-30,半年度报告,133616282.08,2018,6,-0.7318932340798981,True,1.2357027763427557,True,0.12122381655055281,False,平均增速,381329765.10358334,292116822.0,292116822.0
19,002536,187831730.34,187698799.42999995,2018-09-30,三季度报告,189986824.1,2018,9,-0.8573632341797363,True,1.699400412717415,True,0.17002942525496623,False,平均增速,278821611.24957824,252461460.0,252461460.0
20,002536,242288446.64,245392087.34,2018-12-31,年度报告,219894422.92999995,2018,12,-0.8947494677363862,True,1.913508946150296,True,0.0,True,比例外推,245392087.34,326000000.0,326000000.0
21,002536,27137390.74,27813139.91,2019-03-31,一季度报告,27935755.95,2019,3,-0.6589504697839405,True,0.8172504388136661,True,0.08709316297339009,True,比例外推,105056170.08075322,,105056170.08075322
22,002536,39764697.56,40853077.76000001,2019-06-30,半年度报告,32846093.72,2019,6,-0.803083198791521,True,0.7537830623633409,True,0.11349779938645344,False,平均增速,126300945.85883287,未知,126300945.85883287
23,002536,63997808.57,65483788.73,2019-09-30,三季度报告,53521502.99000001,2019,9,-0.8637992823486652,True,0.45219053865997955,True,0.08738445445057708,True,比例外推,80879418.21039,未知,80879418.21039
24,002536,70863081.41,66341534.44,2019-12-31,年度报告,35381500.96,2019,12,-0.894411735991639,True,0.3772654835610323,True,0.0,True,比例外推,66341534.44,280103300.0,280103300.0
25,002536,24426351.52,24936151.67,2020-03-31,一季度报告,17652338.81,2020,3,-0.057285325803581234,True,0.5719299401656571,True,0.3400954112060081,False,平均增速,29328617.47915943,未知,29328617.47915943
