,SECURITYCODE_x,NETPROFIT_x,PARENTNETPROFIT_x,REPORTDATE_x,REPORTTIMETYPE_x,KCFJCXSYJLR,Year,Month,managesituationChangeRate,managesituationGreatChange,historyprofitextroplaterate,ifhistoryprofitextroplate,IfprofitdisStableChangeRage,IfprofitdisStable,predicttype,predict,analyst_prediction,adj_prediction
0,002537,92276986.22000004,59033393.87000001,2013-12-31,年度报告,51184736.86000001,2013,12,未知,未知,未知,未知,未知,未知,未知,未知,未知,未知
1,002537,24717656.399999995,16790501.83,2014-03-31,一季度报告,15356849.889999995,2014,3,未知,未知,未知,未知,未知,未知,未知,未知,未知,未知
2,002537,39719870.38999999,26922948.09,2014-06-30,半年度报告,24217112.64,2014,6,未知,未知,未知,未知,未知,未知,未知,未知,未知,未知
3,002537,39327749.78000001,24487484.73,2014-09-30,三季度报告,20288621.26,2014,9,未知,未知,未知,未知,未知,未知,未知,未知,未知,未知
4,002537,51030812.17,30101633.32,2014-12-31,年度报告,23942317.49,2014,12,0.0,True,未知,未知,未知,未知,未知,未知,未知,未知
5,002537,83543313.64,58092580.49,2015-03-31,一季度报告,14355545.699999996,2015,3,2.733241725133782,False,未知,未知,未知,未知,未知,未知,147980000.0,未知
6,002537,113039232.32000002,82283899.55000001,2015-06-30,半年度报告,31342928.629999995,2015,6,1.3231945450464513,False,未知,未知,未知,未知,未知,未知,,未知
7,002537,87987579.67999999,69613721.89,2015-09-30,三季度报告,17952113.51,2015,9,1.3463581500644917,False,未知,未知,未知,未知,未知,未知,未知,未知
8,002537,90732883.45,73177703.67000002,2015-12-31,年度报告,6020079.539999999,2015,12,0.8082601921481439,False,未知,未知,未知,未知,未知,未知,98511400.0,未知
9,002537,43912327.16,33150593.99000001,2016-03-31,一季度报告,17565625.849999998,2016,3,0.10454065321893596,True,未知,未知,未知,未知,未知,未知,264174425.99999997,未知
10,002537,74642516.55,56178431.10000002,2016-06-30,半年度报告,36198694.11000001,2016,6,-0.18367292199246932,True,未知,未知,未知,未知,未知,未知,246726250.0,未知
11,002537,120267415.60999998,98551235.09,2016-09-30,三季度报告,76906943.30000001,2016,9,0.04875013673066239,True,未知,未知,未知,未知,未知,未知,237634000.0,未知
12,002537,260781192.06000003,232922577.79999995,2016-12-31,年度报告,211704671.38,2016,12,0.017018116379503647,True,0.26626582041373825,True,0.0,True,比例外推,232922577.79999995,271393750.0,271393750.0
13,002537,93947458.29000002,93599423.63,2017-03-31,一季度报告,90287255.13,2017,3,1.10139139025307,False,0.18876900615659772,True,1.3482795417904085,False,前期平均,93724424.35,443367143.0,443367143.0
14,002537,180693379.18,177885229.31000003,2017-06-30,半年度报告,152794665.20999995,2017,6,0.2362523463177642,True,0.022742144647152296,True,3.076777128122935,False,平均增速,2102302303.4351003,448031250.0,448031250.0
15,002537,286525103.26,283834773.19000006,2017-09-30,三季度报告,257369744.16,2017,9,-0.23273493695721018,True,0.8892841281581203,True,1.5844693216324652,False,平均增速,1702947591.4327965,453462500.0,453462500.0
16,002537,444521550.64,413945815.86,2017-12-31,年度报告,385608392.87000006,2017,12,-0.6461516818330627,True,2.6790969778190385,False,0.0,True,比例外推,413945815.86,445216000.0,413945815.86
17,002537,95354597.85999995,94529563.07000002,2018-03-31,一季度报告,93431001.32,2018,3,-0.01778091818986216,True,0.4741985164457315,True,1.4840355370377765,False,平均增速,2978156484.065107,581540000.0,581540000.0
18,002537,196720533.03,194786955.22,2018-06-30,半年度报告,183567805.6,2018,6,-0.4893172808059716,True,0.9255295761886727,True,3.2818552222861657,False,平均增速,2487459311.967313,,2487459311.967313
19,002537,290470621.38,288389728.75000006,2018-09-30,三季度报告,249015101.69,2018,9,-0.6779444971135196,True,1.751675683562904,True,1.644455239575984,False,平均增速,1536246225.8740792,555000000.0,555000000.0
20,002537,138752478.60999998,133239222.45,2018-12-31,年度报告,66830172.17,2018,12,-0.7924127950891374,True,1.5291820817989068,True,0.0,True,比例外推,133239222.45,,133239222.45
21,002537,129575624.79999998,128375395.23,2019-03-31,一季度报告,125254350.0,2019,3,-0.032275440398988144,True,0.38335624923170725,True,0.8263192601505457,False,平均增速,97279212.61812033,681340000.0,681340000.0
22,002537,104526632.89,103329900.24,2019-06-30,半年度报告,95616364.39,2019,6,-0.5309234638667447,True,0.5408764401697621,True,1.6421103014331413,False,平均增速,14711118.747299418,,14711118.747299418
23,002537,-25304631.73,-24915162.259999994,2019-09-30,三季度报告,-34956510.4,2019,9,-0.6823190387323843,True,0.4281020810651959,True,2.1404877271709077,False,平均增速,-102981301.08643395,未知,-102981301.08643395
24,002537,-2456925493.4300003,-2455867198.03,2019-12-31,年度报告,-2483632160.99,2019,12,-0.3349525201681725,True,0.6065449055852651,True,0.0,True,比例外推,-2455867198.03,未知,-2455867198.03
25,002537,-34608337.08,-32017319.92,2020-03-31,一季度报告,-35102879.36,2020,3,-0.28785227651859985,True,0.36898275100959593,True,0.8707873387257216,False,平均增速,24459251019.682354,未知,24459251019.682354
