,SECURITYCODE_x,NETPROFIT_x,PARENTNETPROFIT_x,REPORTDATE_x,REPORTTIMETYPE_x,KCFJCXSYJLR,Year,Month,managesituationChangeRate,managesituationGreatChange,historyprofitextroplaterate,ifhistoryprofitextroplate,IfprofitdisStableChangeRage,IfprofitdisStable,predicttype,predict,analyst_prediction,adj_prediction
0,002518,129711666.48999998,126682894.10999998,2013-12-31,年度报告,120665840.21,2013,12,未知,未知,未知,未知,未知,未知,未知,未知,未知,未知
1,002518,23817607.32,24435991.219999995,2014-03-31,一季度报告,23115467.430000003,2014,3,未知,未知,未知,未知,未知,未知,未知,未知,未知,未知
2,002518,60619956.47000001,61108984.38,2014-06-30,半年度报告,59601389.21000002,2014,6,未知,未知,未知,未知,未知,未知,未知,未知,未知,未知
3,002518,92874146.86,93017424.81,2014-09-30,三季度报告,91118800.1,2014,9,未知,未知,未知,未知,未知,未知,未知,未知,未知,未知
4,002518,151367830.78000003,152558460.09999996,2014-12-31,年度报告,146975350.85999998,2014,12,0.0,True,未知,未知,未知,未知,未知,未知,未知,未知
5,002518,33073641.15,34091082.55,2015-03-31,一季度报告,33406522.219999995,2015,3,4.4460410211347785,False,未知,未知,未知,未知,未知,未知,211000000.0,未知
6,002518,79401489.99,79937985.72999999,2015-06-30,半年度报告,78362954.87000002,2015,6,1.1397518910161624,False,未知,未知,未知,未知,未知,未知,211970613.0,未知
7,002518,136508393.94,139242704.09,2015-09-30,三季度报告,134973489.51,2015,9,0.39663911729417506,True,未知,未知,未知,未知,未知,未知,200500000.0,未知
8,002518,230520114.05,233415925.35,2015-12-31,年度报告,226215613.19,2015,12,-0.14306979348521814,True,未知,未知,未知,未知,未知,未知,,未知
9,002518,49353620.05999999,48842262.76999998,2016-03-31,一季度报告,48280191.1,2016,3,2.921904634016989,False,未知,未知,未知,未知,未知,未知,308162857.0,未知
10,002518,115261486.01999998,113730428.27000004,2016-06-30,半年度报告,112702970.51000002,2016,6,0.6336175367280408,False,未知,未知,未知,未知,未知,未知,313442222.0,未知
11,002518,187342807.73,185005254.14,2016-09-30,三季度报告,180713037.35,2016,9,-0.049789813313512475,True,未知,未知,未知,未知,未知,未知,308041667.0,未知
12,002518,300145241.34,295858452.28,2016-12-31,年度报告,278402830.71,2016,12,-0.43730868334610745,True,0.6402485153768899,True,0.0,True,比例外推,295858452.28,309743750.0,295858452.28
13,002518,50505305.28999998,50823823.13,2017-03-31,一季度报告,49853922.18,2017,3,1.628209771285418,False,0.7350162419453752,True,0.01396229850844577,True,前期平均,209158310.32999998,377277022.0,377277022.0
14,002518,147417658.01999998,148729391.52999997,2017-06-30,半年度报告,143851313.23,2017,6,0.1253686809789406,True,0.6463404561804292,True,0.03917429863443356,True,比例外推,377953346.9785626,376727269.0,377953346.9785626
15,002518,245895181.57,246491420.7200001,2017-09-30,三季度报告,237152528.62,2017,9,-0.3076239858807843,True,0.6334530699382678,True,0.027198103786491235,True,比例外推,390669322.93847525,390292061.00000006,390669322.93847525
16,002518,371462956.7699999,371439401.32000005,2017-12-31,年度报告,358220643.24999994,2017,12,-0.5678370048084002,True,0.5719021529920858,True,0.0,True,比例外推,371439401.32000005,391424070.99999994,371439401.32000005
17,002518,42525589.94,42358860.85,2018-03-31,一季度报告,37141733.50000001,2018,3,1.5682780402019036,False,0.22545149623078178,True,0.019996784506895904,True,前期平均,253824726.14,485227117.0,485227117.0
18,002518,154340426.22000003,153852269.48999998,2018-06-30,半年度报告,142558638.78,2018,6,-0.12010767073506112,True,0.5145936946163508,True,0.037858361260502016,True,比例外推,382282507.45264554,400156000.0,382282507.45264554
19,002518,223086102.34000003,221925739.06,2018-09-30,三季度报告,201299391.48,2018,9,-0.472492036396108,True,0.5185689001738761,True,0.0392727809833896,True,比例外推,337168980.439764,308333333.0,337168980.439764
20,002518,231556802.39,230089633.48,2018-12-31,年度报告,219756143.25,2018,12,-0.65080860924091,True,0.3999894773496264,True,0.0,True,比例外推,230089633.48,308333333.0,308333333.0
21,002518,44221519.70999999,43804556.18999999,2019-03-31,一季度报告,34846726.57,2019,3,2.05020263500194,False,0.14828664957188,True,0.02136329414949889,True,前期平均,313049236.53,342577778.00000006,313049236.53
22,002518,123662722.36,123177061.28000005,2019-06-30,半年度报告,112290115.35,2019,6,-0.1595742627721768,True,0.17512508870135154,True,0.16367805272564012,False,平均增速,190252395.0270565,307838000.0,307838000.0
23,002518,230742936.43000007,230069887.01000005,2019-09-30,三季度报告,225701251.57,2019,9,-0.4185578342647736,True,0.029854758122431616,True,0.17362987611298963,False,平均增速,249184660.4488265,318530000.0,318530000.0
24,002518,321695174.69000006,320695097.88,2019-12-31,年度报告,297273894.51000017,2019,12,-0.4398278731128233,True,0.3104408104557584,True,0.0,True,比例外推,320695097.88,335493333.0,320695097.88
25,002518,20458892.370000005,20589461.220000006,2020-03-31,一季度报告,12961206.95,2020,3,1.9332249850442782,False,0.04931539999327585,True,0.02721162308424019,True,前期平均,266080026.63,387818182.0,387818182.0
