,SECURITYCODE_x,NETPROFIT_x,PARENTNETPROFIT_x,REPORTDATE_x,REPORTTIMETYPE_x,KCFJCXSYJLR,Year,Month,managesituationChangeRate,managesituationGreatChange,historyprofitextroplaterate,ifhistoryprofitextroplate,IfprofitdisStableChangeRage,IfprofitdisStable,predicttype,predict,analyst_prediction,adj_prediction
0,002533,112890986.05,113581964.93,2013-12-31,年度报告,104284159.73,2013,12,未知,未知,未知,未知,未知,未知,未知,未知,未知,未知
1,002533,13874942.89,12750409.47,2014-03-31,一季度报告,11042052.760000004,2014,3,未知,未知,未知,未知,未知,未知,未知,未知,未知,未知
2,002533,42339727.18,39824308.66,2014-06-30,半年度报告,36879063.74,2014,6,未知,未知,未知,未知,未知,未知,未知,未知,未知,未知
3,002533,94627675.07000002,87756682.11999999,2014-09-30,三季度报告,82213227.9,2014,9,未知,未知,未知,未知,未知,未知,未知,未知,未知,未知
4,002533,132956362.20000002,127904685.08,2014-12-31,年度报告,115990516.12,2014,12,0.0,True,未知,未知,未知,未知,未知,未知,未知,未知
5,002533,16214560.480000002,16277840.64,2015-03-31,一季度报告,15105201.99,2015,3,7.136320772272382,False,未知,未知,未知,未知,未知,未知,未知,未知
6,002533,54149918.55000001,50196056.18,2015-06-30,半年度报告,47753999.54000001,2015,6,1.666313497251968,False,未知,未知,未知,未知,未知,未知,未知,未知
7,002533,111433288.01999997,105191700.12,2015-09-30,三季度报告,101271679.42,2015,9,0.1930017932543502,True,未知,未知,未知,未知,未知,未知,未知,未知
8,002533,152532098.46999997,146061620.60000002,2015-12-31,年度报告,133107911.96,2015,12,-0.15091700628674404,True,未知,未知,未知,未知,未知,未知,,未知
9,002533,24884725.93,25510081.31,2016-03-31,一季度报告,23299731.01,2016,3,5.962321685453418,False,未知,未知,未知,未知,未知,未知,209000000.0,未知
10,002533,74193192.80999999,70724703.1,2016-06-30,半年度报告,66463281.58000001,2016,6,1.08478588838062,False,未知,未知,未知,未知,未知,未知,208338750.0,未知
11,002533,132291738.81,129226213.90000002,2016-09-30,三季度报告,123084823.56,2016,9,0.01308135168495077,True,未知,未知,未知,未知,未知,未知,196100000.0,未知
12,002533,172711164.02,168970501.34000003,2016-12-31,年度报告,153093694.76000002,2016,12,-0.25988701930693353,True,0.24086836450146637,True,0.0,True,比例外推,168970501.34000003,196090726.0,196090726.0
13,002533,24970030.12,22959641.41,2017-03-31,一季度报告,21239483.59,2017,3,3.536557339130799,False,0.6540469694033368,True,0.03190216027928973,True,前期平均,134435228.07500002,227180000.0,227180000.0
14,002533,67526026.52999999,63937490.18,2017-06-30,半年度报告,59751108.94000001,2017,6,0.5215814520760751,False,0.5378477607350621,True,0.06385295121403695,True,前期平均,146170172.57999998,171000000.0,171000000.0
15,002533,114139810.32,108023451.99000002,2017-09-30,三季度报告,101613097.73,2017,9,-0.14665127947153034,True,0.2840058284326251,True,0.04907405657321062,True,比例外推,140488146.35471982,171000000.0,171000000.0
16,002533,133781160.03999998,124209997.49,2017-12-31,年度报告,108258880.28,2017,12,-0.3463596479673591,True,0.20993446540481525,True,0.0,True,比例外推,124209997.49,269933333.0,269933333.0
17,002533,27700872.82,25445223.36000001,2018-03-31,一季度报告,23589751.24,2018,3,3.5210592661471725,False,0.21510772089339536,True,0.04223657209514306,True,前期平均,149343560.22,未知,149343560.22
18,002533,80475322.23,72639381.01,2018-06-30,半年度报告,67611585.52000001,2018,6,0.6718144373539525,False,0.05227348494911829,True,0.10365327142074277,False,前期平均,158631543.81,156610000.0,158631543.81
19,002533,119472041.37999998,110576671.05999996,2018-09-30,三季度报告,105154459.08,2018,9,-0.01094118052674889,True,0.0633722617282684,True,0.10413891216200599,False,平均增速,117101153.80607495,,117101153.80607495
20,002533,139283363.28999996,132582280.68999998,2018-12-31,年度报告,121764990.23000002,2018,12,-0.1561518377008684,True,0.1773470785171869,True,0.0,True,比例外推,132582280.68999998,,132582280.68999998
21,002533,38576888.03,37570609.05,2019-03-31,一季度报告,32439158.11000001,2019,3,3.0753584474960234,False,0.11126299734446307,True,0.028512721224222826,True,前期平均,145977289.27,未知,145977289.27
22,002533,89590757.10000001,87858086.00999999,2019-06-30,半年度报告,81747832.84,2019,6,0.40280253525864,True,0.13570089653021397,True,0.07964053184103381,True,比例外推,165222315.38002643,未知,165222315.38002643
23,002533,144082151.77,141460548.76000002,2019-09-30,三季度报告,127282303.54999998,2019,9,-0.05508448046909889,True,0.030383554364015998,True,0.0698850994816681,True,比例外推,160694123.8802757,未知,160694123.8802757
24,002533,211900969.44000003,197598574.18000004,2019-12-31,年度报告,170694880.99,2019,12,-0.1894869323700115,True,0.09111352972915976,True,0.0,True,比例外推,197598574.18000004,未知,197598574.18000004
25,002533,-20733296.56,-12491497.180000005,2020-03-31,一季度报告,-17401458.82,2020,3,1.9263891364748842,False,0.4648272908457568,True,0.0032799536188198586,True,盈利变化,131144418.27333337,未知,131144418.27333337
