,SECURITYCODE_x,NETPROFIT_x,PARENTNETPROFIT_x,REPORTDATE_x,REPORTTIMETYPE_x,KCFJCXSYJLR,Year,Month,managesituationChangeRate,managesituationGreatChange,historyprofitextroplaterate,ifhistoryprofitextroplate,IfprofitdisStableChangeRage,IfprofitdisStable,predicttype,predict,analyst_prediction,adj_prediction
0,002568,41875766.82999999,41875766.82999999,2013-12-31,年度报告,38851938.54,2013,12,未知,未知,未知,未知,未知,未知,未知,未知,未知,未知
1,002568,13365645.07,13365645.07,2014-03-31,一季度报告,13354794.0,2014,3,未知,未知,未知,未知,未知,未知,未知,未知,未知,未知
2,002568,142693403.45,142693403.45,2014-06-30,半年度报告,32383832.81,2014,6,未知,未知,未知,未知,未知,未知,未知,未知,未知,未知
3,002568,223711956.25,223711956.25,2014-09-30,三季度报告,222220947.67,2014,9,未知,未知,未知,未知,未知,未知,未知,未知,未知,未知
4,002568,286880245.15000004,286880245.15000004,2014-12-31,年度报告,55077977.54,2014,12,0.0,True,未知,未知,未知,未知,未知,未知,未知,未知
5,002568,315025099.11,315025099.11,2015-03-31,一季度报告,13277187.44,2015,3,2.133089844200089,False,未知,未知,未知,未知,未知,未知,974124286.0,未知
6,002568,612861876.08,612861876.08,2015-06-30,半年度报告,43508619.59,2015,6,-0.7065332677086693,True,未知,未知,未知,未知,未知,未知,1298571538.0,未知
7,002568,701025731.51,701025731.51,2015-09-30,三季度报告,118794537.28,2015,9,-0.8128139079736827,True,未知,未知,未知,未知,未知,未知,874263333.0,未知
8,002568,500197668.2200001,500197668.2200001,2015-12-31,年度报告,-88393710.64999999,2015,12,-0.8540304969130776,True,未知,未知,未知,未知,未知,未知,611920000.0,未知
9,002568,-63574374.82,-63574374.82,2016-03-31,一季度报告,-85128659.78000002,2016,3,-0.8670716493755379,True,未知,未知,未知,未知,未知,未知,419025556.0,未知
10,002568,-144862502.13000005,-144862502.13000005,2016-06-30,半年度报告,-166992712.51000002,2016,6,-0.9316717706478225,True,未知,未知,未知,未知,未知,未知,155123333.0,未知
11,002568,-104441378.2,-104441378.2,2016-09-30,三季度报告,-151495263.74,2016,9,-0.9402650074772574,True,未知,未知,未知,未知,未知,未知,-22658332.999999996,未知
12,002568,-147021918.01999998,-147021918.01999998,2016-12-31,年度报告,-195886240.29000005,2016,12,-0.9162815632887319,True,2.042971991340677,False,0.0,True,比例外推,-147021918.01999998,-50070000.0,-50070000.0
13,002568,20522551.8,20522551.8,2017-03-31,一季度报告,19705096.070000004,2017,3,-1.6586894003844173,False,1.3871873732540594,True,0.32582100944680914,False,前期平均,-9451305.474999994,255052000.0,255052000.0
14,002568,61299753.43000002,61299753.43000002,2017-06-30,半年度报告,59592761.05,2017,6,-1.2890725081665408,False,1.3834597045503092,True,0.8082965800835002,False,前期平均,6695660.675000027,206300000.0,206300000.0
15,002568,116948813.87,116948813.87,2017-09-30,三季度报告,114621450.28000002,2017,9,-1.4009499640057412,False,1.225883252261491,True,2.879954196837594,False,前期平均,-70216795.16,211430000.0,211430000.0
16,002568,182645282.37,182645282.37,2017-12-31,年度报告,164613833.47,2017,12,-1.2848266938287627,False,1.3735892356336161,True,0.0,True,前期平均,182645282.37,,182645282.37
17,002568,25673695.34000001,25673695.34000001,2018-03-31,一季度报告,25115642.84,2018,3,1.0404756308131229,False,0.8367668110088148,True,0.2998881314832073,False,前期平均,-80540543.96000001,237070000.0,237070000.0
18,002568,78713574.75,78713574.75,2018-06-30,半年度报告,52386379.29,2018,6,-0.3168689189293534,True,0.7380348913178283,True,0.732980629989138,False,平均增速,193775570.57254905,218153332.99999997,218153332.99999997
19,002568,130374795.13,130426462.73999996,2018-09-30,三季度报告,101190998.18,2018,9,-0.6419308119144417,True,0.6079387157201204,True,1.385846477597003,False,平均增速,185292408.4384346,221500000.0,221500000.0
20,002568,123704490.0,123760929.1,2018-12-31,年度报告,86621154.9,2018,12,-0.770726260833999,True,0.03430250953849294,True,0.0,True,比例外推,123760929.1,262735000.0,262735000.0
21,002568,42457817.46,42528747.49,2019-03-31,一季度报告,38258829.03,2019,3,0.631076721735375,False,-2.192687953217365,True,0.16170676902953313,False,前期平均,59604325.93499999,247290000.0,247290000.0
22,002568,136631739.92,136737916.94000003,2019-06-30,半年度报告,117366511.55,2019,6,-0.4679981570777283,True,-2.883939338390863,True,0.24606851301455068,False,平均增速,203901112.37049586,272233333.0,272233333.0
23,002568,228431207.88,228544968.66,2019-09-30,三季度报告,200677757.63,2019,9,-0.6788047353152532,True,19.84756597113083,False,0.28890494103706266,False,未知,未知,300235000.0,未知
24,002568,300208872.46000004,300330286.74,2019-12-31,年度报告,278580629.87,2019,12,-0.6614854737285608,True,5.945132345423737,False,0.0,True,比例外推,300330286.74,299323333.0,300330286.74
25,002568,61727136.87,61734861.45999999,2020-03-31,一季度报告,56081101.19999999,2020,3,-0.013708915455872567,True,0.8381500701271029,True,0.10761881649467353,False,平均增速,462709230.24264854,390178889.0,390178889.0
