,SECURITYCODE_x,NETPROFIT_x,PARENTNETPROFIT_x,REPORTDATE_x,REPORTTIMETYPE_x,KCFJCXSYJLR,Year,Month,managesituationChangeRate,managesituationGreatChange,historyprofitextroplaterate,ifhistoryprofitextroplate,IfprofitdisStableChangeRage,IfprofitdisStable,predicttype,predict,analyst_prediction,adj_prediction
0,002507,140647110.23999998,140647110.23999998,2013-12-31,年度报告,131624004.51,2013,12,未知,未知,未知,未知,未知,未知,未知,未知,未知,未知
1,002507,36475638.02,36475638.02,2014-03-31,一季度报告,30257155.809999995,2014,3,未知,未知,未知,未知,未知,未知,未知,未知,未知,未知
2,002507,86972191.66,86972191.66,2014-06-30,半年度报告,79914188.48999998,2014,6,未知,未知,未知,未知,未知,未知,未知,未知,未知,未知
3,002507,135213658.66,135213658.66,2014-09-30,三季度报告,128993736.65999997,2014,9,未知,未知,未知,未知,未知,未知,未知,未知,未知,未知
4,002507,131992980.45,131992980.45,2014-12-31,年度报告,122051316.72,2014,12,0.0,True,未知,未知,未知,未知,未知,未知,未知,未知
5,002507,40675553.13,40675553.13,2015-03-31,一季度报告,39450946.4,2015,3,2.855919125057705,False,未知,未知,未知,未知,未知,未知,161012857.0,未知
6,002507,90978705.37000002,90978705.37000002,2015-06-30,半年度报告,88790801.96,2015,6,0.6171503506526673,False,未知,未知,未知,未知,未知,未知,162150000.0,未知
7,002507,142629446.47,142629446.47,2015-09-30,三季度报告,139185384.79000002,2015,9,0.04018419169961674,True,未知,未知,未知,未知,未知,未知,161000000.0,未知
8,002507,157369576.68000004,157369576.68000004,2015-12-31,年度报告,149244512.48999998,2015,12,0.06556507596461336,True,未知,未知,未知,未知,未知,未知,160000000.0,未知
9,002507,50713088.76999999,50713088.76999999,2016-03-31,一季度报告,48771007.34,2016,3,2.4577799050571874,False,未知,未知,未知,未知,未知,未知,185700000.0,未知
10,002507,115884621.88,115884621.88,2016-06-30,半年度报告,110069140.55,2016,6,0.5459343993520706,False,未知,未知,未知,未知,未知,未知,205134000.0,未知
11,002507,197344744.6,197344744.6,2016-09-30,三季度报告,189222291.92,2016,9,-0.013898506087359557,True,未知,未知,未知,未知,未知,未知,218075000.0,未知
12,002507,257228870.01999992,257228870.01999992,2016-12-31,年度报告,231587285.0,2016,12,-0.10626238433623048,True,0.15441259047213265,True,0.0,True,比例外推,257228870.01999992,183550000.0,183550000.0
13,002507,63701183.06,63701183.06,2017-03-31,一季度报告,61946324.68999999,2017,3,1.7733887572472549,False,0.3146417576729788,True,0.030351291919104684,True,前期平均,164495046.56,316322208.0,316322208.0
14,002507,171951578.20999998,171951578.20999998,2017-06-30,半年度报告,167213851.53000003,2017,6,0.21368226394734116,True,0.30243369169938455,True,0.0997103806826139,True,比例外推,295548556.83531326,361910000.0,361910000.0
15,002507,303867995.54,303867995.54,2017-09-30,三季度报告,297055857.3,2017,9,-0.2873024790952554,True,0.42054807879910766,True,0.12136526217600563,False,平均增速,366507681.67030495,398951841.0,366507681.67030495
16,002507,414142244.09,414142244.09,2017-12-31,年度报告,393341767.14000016,2017,12,-0.4532219100093063,True,0.7779001718210304,True,0.0,True,比例外推,414142244.09,323300000.0,323300000.0
17,002507,114870381.7,114870381.7,2018-03-31,一季度报告,113710047.34000002,2018,3,1.207919907979178,False,0.39407221150531196,True,0.05353118729672851,True,前期平均,261175303.575,574532667.0,574532667.0
18,002507,305246085.3099999,305246085.3099999,2018-06-30,半年度报告,304151834.0300001,2018,6,-0.18205397296074055,True,0.6624655563254263,True,0.09649264803746088,True,比例外推,611298740.4393358,630462381.0,611298740.4393358
19,002507,523149709.51,523149709.51,2018-09-30,三季度报告,501057645.38000005,2018,9,-0.5371440483883215,True,0.7875944911208523,True,0.09764065219903706,True,比例外推,622190545.4832413,647039000.0,622190545.4832413
20,002507,661719638.12,661719638.12,2018-12-31,年度报告,638251520.17,2018,12,-0.660389365617493,True,0.9977993038149028,True,0.0,True,比例外推,661719638.12,645744286.0,661719638.12
21,002507,155248579.64,155248579.64,2019-03-31,一季度报告,153817274.16,2019,3,0.22439838850121951,True,1.0079729541202294,True,0.02851434415387205,True,比例外推,846209132.275843,809551818.0,846209132.275843
22,002507,314822842.20000005,314822842.20000005,2019-06-30,半年度报告,312004712.45000005,2019,6,-0.5392336969787427,True,1.1209707827893518,True,0.033866300840993235,True,比例外推,682600803.824061,730292143.0000001,682600803.824061
23,002507,517962784.7,517962784.7,2019-09-30,三季度报告,511150164.6,2019,9,-0.7311532288305485,True,1.0875355617012947,True,0.031291934685190204,True,比例外推,657317184.383369,679901971.0,657317184.383369
24,002507,605141874.3299999,605141874.3299999,2019-12-31,年度报告,563230018.77,2019,12,-0.7874521139502675,True,0.971248462177899,True,0.0,True,比例外推,605141874.3299999,673756910.0000001,673756910.0000001
25,002507,165596376.32,165596376.32,2020-03-31,一季度报告,157309119.35999998,2020,3,-0.09405219315924691,True,0.7387827658748909,True,0.07018368184073445,True,比例外推,783534326.5294993,720376400.0,783534326.5294993
