,SECURITYCODE_x,NETPROFIT_x,PARENTNETPROFIT_x,REPORTDATE_x,REPORTTIMETYPE_x,KCFJCXSYJLR,Year,Month,managesituationChangeRate,managesituationGreatChange,historyprofitextroplaterate,ifhistoryprofitextroplate,IfprofitdisStableChangeRage,IfprofitdisStable,predicttype,predict,analyst_prediction,adj_prediction
0,002550,181689127.45,187021741.19,2013-12-31,年度报告,151019780.01,2013,12,未知,未知,未知,未知,未知,未知,未知,未知,未知,未知
1,002550,44989035.78999999,46685248.95000001,2014-03-31,一季度报告,35937876.529999994,2014,3,未知,未知,未知,未知,未知,未知,未知,未知,未知,未知
2,002550,105138662.93,108397424.45,2014-06-30,半年度报告,77667323.75999999,2014,6,未知,未知,未知,未知,未知,未知,未知,未知,未知,未知
3,002550,176777077.92,178631434.48999998,2014-09-30,三季度报告,174175314.69,2014,9,未知,未知,未知,未知,未知,未知,未知,未知,未知,未知
4,002550,242155883.82,245036732.81,2014-12-31,年度报告,170426104.55000004,2014,12,0.0,True,未知,未知,未知,未知,未知,未知,未知,未知
5,002550,58504813.67,60704275.85000001,2015-03-31,一季度报告,39394500.6,2015,3,3.0385201473996744,False,未知,未知,未知,未知,未知,未知,317931429.0,未知
6,002550,131169570.86000004,133143671.56999998,2015-06-30,半年度报告,94296433.99,2015,6,0.7280905271828149,False,未知,未知,未知,未知,未知,未知,305000000.0,未知
7,002550,198456787.07999995,201330711.77,2015-09-30,三季度报告,148865492.48999998,2015,9,0.02778668811475058,True,未知,未知,未知,未知,未知,未知,,未知
8,002550,262291986.07000008,267151247.02,2015-12-31,年度报告,175465243.61999995,2015,12,-0.24970178471874888,True,未知,未知,未知,未知,未知,未知,316388000.0,未知
9,002550,67983485.53999999,70245573.36,2016-03-31,一季度报告,41843469.95999999,2016,3,2.1055415110768267,False,未知,未知,未知,未知,未知,未知,未知,未知
10,002550,140152173.97,142851942.06000003,2016-06-30,半年度报告,95428731.50000004,2016,6,0.38514692286308155,True,未知,未知,未知,未知,未知,未知,290160000.0,未知
11,002550,181715183.36,184075081.07999995,2016-09-30,三季度报告,108896221.96,2016,9,-0.08449023022448081,True,未知,未知,未知,未知,未知,未知,,未知
12,002550,224683467.54,224461503.80000004,2016-12-31,年度报告,124778672.54999998,2016,12,-0.3073020256077855,True,0.23767876981292796,True,0.0,True,比例外推,224461503.80000004,未知,224461503.80000004
13,002550,67959500.19000001,70416381.36,2017-03-31,一季度报告,46326348.24999999,2017,3,1.672547987306389,False,0.3137686132019926,True,0.07843258830139788,True,前期平均,205695866.88,255793332.99999997,255793332.99999997
14,002550,141623057.82999998,143998185.99,2017-06-30,半年度报告,97065051.1,2017,6,0.2963703830159003,True,0.1861810460193188,True,0.17881186699461837,False,平均增速,171697136.86685282,254126000.0,254126000.0
15,002550,169184538.57999995,171376761.25000003,2017-09-30,三季度报告,100573063.07999995,2017,9,-0.0001433887335017365,True,0.03145637795778351,True,0.10762620244310839,False,平均增速,185622661.30573767,224683332.99999997,224683332.99999997
16,002550,174909054.77,183004861.16000003,2017-12-31,年度报告,86885606.40999998,2017,12,-0.19135515648184395,True,0.10919053899863046,True,0.0,True,比例外推,183004861.16000003,未知,183004861.16000003
17,002550,81348067.08,84075310.3,2018-03-31,一季度报告,55657921.82,2018,3,1.6734912255392789,False,0.07455789372535458,True,0.1688398643244738,False,前期平均,193578283.10499996,268866667.0,268866667.0
18,002550,158765665.01000002,163452114.59999996,2018-06-30,半年度报告,105525748.23999998,2018,6,0.28290640121677146,True,0.04394918968795252,True,0.3107087598406866,False,平均增速,154336985.21421948,264756667.00000003,264756667.00000003
19,002550,205990803.22,210743817.45000005,2018-09-30,三季度报告,126281310.04999997,2018,9,0.07391094348782447,True,0.10995785205210837,True,0.19798299460283142,False,平均增速,197334615.0540009,251970000.0,251970000.0
20,002550,211044885.64,221349044.2,2018-12-31,年度报告,108397272.85,2018,12,0.038763417302297834,True,0.2816514529700384,True,0.0,True,比例外推,221349044.2,,221349044.2
21,002550,86679216.33,89366258.69999999,2019-03-31,一季度报告,58918033.69000001,2019,3,1.2334781141305022,False,0.19679682836402546,True,0.12532239024796943,False,前期平均,151113489.075,295140000.0,295140000.0
22,002550,169999587.1,174839469.70000002,2019-06-30,半年度报告,116967575.33,2019,6,0.1443855158390582,True,0.12689581689486198,True,0.18703347578818086,False,平均增速,177826399.15522233,263805000.0,263805000.0
23,002550,211591736.14,221085066.8100001,2019-09-30,三季度报告,145225163.68,2019,9,-0.11797456677736047,True,0.17407219407955074,True,0.1923634082474842,False,平均增速,202110415.9219671,267500000.0,267500000.0
24,002550,256913489.51,262561171.11,2019-12-31,年度报告,195394677.75,2019,12,-0.13909722617052658,True,0.056300475394148695,True,0.0,True,比例外推,262561171.11,287980000.0,262561171.11
25,002550,-27333471.34,-25354444.81,2020-03-31,一季度报告,-31312327.41,2020,3,1.0961094844037798,False,0.16108269547053605,True,0.14786109670599046,False,盈利变化,142254022.9766667,291000000.0,291000000.0
