,SECURITYCODE_x,NETPROFIT_x,PARENTNETPROFIT_x,REPORTDATE_x,REPORTTIMETYPE_x,KCFJCXSYJLR,Year,Month,managesituationChangeRate,managesituationGreatChange,historyprofitextroplaterate,ifhistoryprofitextroplate,IfprofitdisStableChangeRage,IfprofitdisStable,predicttype,predict,analyst_prediction,adj_prediction
0,002588,397177797.0,397177797.0,2013-12-31,年度报告,392295499.6,2013,12,未知,未知,未知,未知,未知,未知,未知,未知,未知,未知
1,002588,102709741.2,102739414.78000002,2014-03-31,一季度报告,98203013.45999996,2014,3,未知,未知,未知,未知,未知,未知,未知,未知,未知,未知
2,002588,261343249.34,261383193.58,2014-06-30,半年度报告,255118038.21,2014,6,未知,未知,未知,未知,未知,未知,未知,未知,未知,未知
3,002588,413148468.44,413195291.23,2014-09-30,三季度报告,405565085.29,2014,9,未知,未知,未知,未知,未知,未知,未知,未知,未知,未知
4,002588,495130383.53,495218857.08,2014-12-31,年度报告,480514364.9499999,2014,12,0.0,True,未知,未知,未知,未知,未知,未知,未知,未知
5,002588,127931762.67000002,127946374.46,2015-03-31,一季度报告,125226407.51,2015,3,2.866992481527156,False,未知,未知,未知,未知,未知,未知,618626933.0,未知
6,002588,326201770.78,327065058.67999995,2015-06-30,半年度报告,320094160.35,2015,6,0.5197553332754472,False,未知,未知,未知,未知,未知,未知,632916756.0,未知
7,002588,538567795.28,540068496.0099999,2015-09-30,三季度报告,526932393.44,2015,9,-0.038656010272295996,True,未知,未知,未知,未知,未知,未知,627043564.0,未知
8,002588,622038207.5599997,620186688.1599997,2015-12-31,年度报告,571510857.5200001,2015,12,-0.19783190405657064,True,未知,未知,未知,未知,未知,未知,625861745.0,未知
9,002588,150595858.95,151373266.93000004,2016-03-31,一季度报告,142776278.66,2016,3,2.10460661770541,False,未知,未知,未知,未知,未知,未知,759357500.0,未知
10,002588,380346183.17,377630838.6499999,2016-06-30,半年度报告,363529662.18,2016,6,0.21758320333542377,True,未知,未知,未知,未知,未知,未知,750237273.0,未知
11,002588,464139988.47,462589641.1100001,2016-09-30,三季度报告,439790996.13,2016,9,-0.2625296193332386,True,未知,未知,未知,未知,未知,未知,611818465.0,未知
12,002588,504174671.87,512534683.78,2016-12-31,年度报告,467266726.12000006,2016,12,-0.3614897088750138,True,0.39422280582596625,True,0.0,True,比例外推,512534683.78,574790000.0,574790000.0
13,002588,80558031.45,79595591.17,2017-03-31,一季度报告,73423321.62,2017,3,1.6373752888641433,False,0.3058868973979864,True,0.0625424245053425,True,前期平均,493893491.9200001,543700000.0,493893491.9200001
14,002588,204688219.3,204357061.7200001,2017-06-30,半年度报告,189523605.56,2017,6,0.04425340538379191,True,0.2946963046076647,True,0.15499080497428164,False,平均增速,283447701.2748234,341000000.0,341000000.0
15,002588,240396137.53,239278717.39000005,2017-09-30,三季度报告,224694489.19,2017,9,-0.14427154120190222,True,0.024625287675965418,True,0.058384113814801464,True,比例外推,263578870.05948368,,263578870.05948368
16,002588,265451354.9,271125404.72,2017-12-31,年度报告,214945087.35,2017,12,-0.21222183667645414,True,0.09740628963066966,True,0.0,True,比例外推,271125404.72,647750000.0,647750000.0
17,002588,76569790.11000001,74636785.85,2018-03-31,一季度报告,65688675.62,2018,3,3.9303314623138053,False,0.4215436804331981,True,0.06963933902018155,True,前期平均,460024234.58500004,,460024234.58500004
18,002588,173581173.87000003,168397177.1,2018-06-30,半年度报告,155523731.99,2018,6,0.9404037924521628,False,0.42059638512664893,True,0.17985128186235244,False,前期平均,345974057.6550001,未知,345974057.6550001
19,002588,197995824.01999995,196529910.54,2018-09-30,三季度报告,171144960.05,2018,9,0.6521804430008139,False,0.5205060907556758,True,0.07583910499853563,True,前期平均,232557007.5750001,未知,232557007.5750001
20,002588,190081015.39,191865831.93,2018-12-31,年度报告,162560392.85,2018,12,0.4962357119993739,True,0.5285947093157902,True,0.0,True,比例外推,191865831.93,461000000.0,461000000.0
21,002588,39423765.61,40140929.11000001,2019-03-31,一季度报告,34121217.91,2019,3,4.187134461638397,False,0.3374994469917862,True,0.0536761041612811,True,前期平均,273147035.70500004,未知,273147035.70500004
22,002588,98846809.05,101516059.36,2019-06-30,半年度报告,90517009.38,2019,6,1.2881386739408616,False,0.40659498608237454,True,0.09415346126107493,True,前期平均,166095332.22500002,276000000.0,276000000.0
23,002588,113656658.9,117738914.70000002,2019-09-30,三季度报告,99726548.86,2019,9,1.0059907776634738,False,0.43793989629993807,True,0.07192267683736142,True,前期平均,126602078.77500007,,126602078.77500007
24,002588,103858966.86,108305321.89000002,2019-12-31,年度报告,83981934.87000002,2019,12,1.0895184939173848,False,0.5060431721943182,True,0.0,True,前期平均,108305321.89000002,未知,108305321.89000002
25,002588,61438791.68,62824730.19000001,2020-03-31,一季度报告,49289061.33,2020,3,9.074577880994052,False,0.49819496994749785,True,0.04239934837006587,True,前期平均,182021471.67000002,220500000.0,220500000.0
