,SECURITYCODE_x,NETPROFIT_x,PARENTNETPROFIT_x,REPORTDATE_x,REPORTTIMETYPE_x,KCFJCXSYJLR,Year,Month,managesituationChangeRate,managesituationGreatChange,historyprofitextroplaterate,ifhistoryprofitextroplate,IfprofitdisStableChangeRage,IfprofitdisStable,predicttype,predict,analyst_prediction,adj_prediction
0,002574,83443387.83000001,83443387.83000001,2013-12-31,年度报告,63837906.88999999,2013,12,未知,未知,未知,未知,未知,未知,未知,未知,未知,未知
1,002574,90454001.40999998,90454001.40999998,2014-03-31,一季度报告,86063379.14000002,2014,3,未知,未知,未知,未知,未知,未知,未知,未知,未知,未知
2,002574,149635693.44,149635693.44,2014-06-30,半年度报告,136359793.05,2014,6,未知,未知,未知,未知,未知,未知,未知,未知,未知,未知
3,002574,190029093.34000003,190029093.34000003,2014-09-30,三季度报告,174514361.97,2014,9,未知,未知,未知,未知,未知,未知,未知,未知,未知,未知
4,002574,199412036.33,199643811.36,2014-12-31,年度报告,159856088.12,2014,12,0.0,True,未知,未知,未知,未知,未知,未知,未知,未知
5,002574,47867093.79999999,48802010.83,2015-03-31,一季度报告,44883767.3,2015,3,-0.07750473689077643,True,未知,未知,未知,未知,未知,未知,189000000.0,未知
6,002574,63804341.15000001,66461292.37999999,2015-06-30,半年度报告,41704617.06,2015,6,-0.44235639297211776,True,未知,未知,未知,未知,未知,未知,,未知
7,002574,70720626.60999998,74312990.32000001,2015-09-30,三季度报告,31921747.04000001,2015,9,-0.5608915121186043,True,未知,未知,未知,未知,未知,未知,106860000.0,未知
8,002574,56787542.17,61298635.91,2015-12-31,年度报告,6106401.389999999,2015,12,-0.5815529023939535,True,未知,未知,未知,未知,未知,未知,101366667.0,未知
9,002574,27898968.88000001,28108158.520000003,2016-03-31,一季度报告,18436207.89,2016,3,0.7432307083159503,False,未知,未知,未知,未知,未知,未知,,未知
10,002574,41144169.43,41726251.36,2016-06-30,半年度报告,23134986.24,2016,6,0.3078011045334647,True,未知,未知,未知,未知,未知,未知,53890000.0,未知
11,002574,50288052.19999999,51418453.19,2016-09-30,三季度报告,18983123.17,2016,9,0.1799017037866717,True,未知,未知,未知,未知,未知,未知,149260000.0,未知
12,002574,42422214.83,43713826.38,2016-12-31,年度报告,9943.33,2016,12,0.46939600907894,True,0.5984694842699743,True,0.0,True,比例外推,43713826.38,149260000.0,149260000.0
13,002574,21059247.180000003,21123575.65,2017-03-31,一季度报告,8375057.01,2017,3,1.990912968465234,False,0.5966057261527085,True,1233.455868233816,False,前期平均,38631247.184999995,53480000.0,53480000.0
14,002574,55718334.24999999,55830462.48999999,2017-06-30,半年度报告,45028163.46,2017,6,1.0280732114902729,False,0.6144662409839426,True,1548.561737491279,False,前期平均,49779502.18999998,79200000.0,79200000.0
15,002574,82132732.25,82258623.62,2017-09-30,三季度报告,28072039.22000001,2017,9,0.6593084078527908,False,0.6142810645423284,True,1270.6478149281143,False,前期平均,62021813.870000005,96060000.0,96060000.0
16,002574,86956592.51000002,87253658.80000001,2017-12-31,年度报告,32523476.300000004,2017,12,0.9669738641507892,False,0.6688346243317492,True,0.0,True,前期平均,87253658.80000001,74980000.0,74980000.0
17,002574,36695753.57,36462266.31,2018-03-31,一季度报告,30766870.70000001,2018,3,2.962315799647687,False,0.44409815067349356,True,1233.5494923384636,False,前期平均,7860451.075000003,119000000.0,119000000.0
18,002574,60779568.57000001,60181462.66,2018-06-30,半年度报告,16610943.48,2018,6,0.4975930087141832,True,0.061822296325531816,True,1548.3845821832097,False,平均增速,-10167474563.984917,119000000.0,119000000.0
19,002574,85592011.78000002,85000304.32,2018-09-30,三季度报告,25408761.3,2018,9,0.01595777400915593,True,0.35746845693538265,True,1270.7240033001995,False,平均增速,3727049952.330052,,3727049952.330052
20,002574,92079609.3,91433465.45,2018-12-31,年度报告,4116541.99,2018,12,-0.04040182093837207,True,0.752984688995862,True,0.0,True,比例外推,91433465.45,,91433465.45
21,002574,42366029.2,42219865.68,2019-03-31,一季度报告,37542987.97,2019,3,1.2739249017144523,False,0.49906416218385335,True,1233.5082660270123,False,前期平均,45080943.045,108150000.0,108150000.0
22,002574,72788774.32,72617263.59,2019-06-30,半年度报告,63484059.58000001,2019,6,0.3728854908520454,True,0.2549658796926116,True,1549.3160775715046,False,平均增速,-10168587411.960497,100000000.0,100000000.0
23,002574,90816942.07,90891306.56,2019-09-30,三季度报告,58035415.63,2019,9,-0.025103089707982123,True,0.29272775622799935,True,1270.4090805470028,False,平均增速,-17345192329.597466,,-17345192329.597466
24,002574,55442721.00000001,57787877.95999999,2019-12-31,年度报告,-98985481.42000002,2019,12,-0.09379081357592146,True,0.42341100823444927,True,0.0,True,比例外推,57787877.95999999,未知,57787877.95999999
25,002574,7637866.2200000025,8069552.6000000015,2020-03-31,一季度报告,6865531.1800000025,2020,3,0.969582455700144,False,0.4670947502325157,True,5.023229975965567,False,前期平均,6818597.89,未知,6818597.89
