,SECURITYCODE_x,NETPROFIT_x,PARENTNETPROFIT_x,REPORTDATE_x,REPORTTIMETYPE_x,KCFJCXSYJLR,Year,Month,managesituationChangeRate,managesituationGreatChange,historyprofitextroplaterate,ifhistoryprofitextroplate,IfprofitdisStableChangeRage,IfprofitdisStable,predicttype,predict,analyst_prediction,adj_prediction
0,002577,33330721.44,33330721.44,2013-12-31,年度报告,31116507.29,2013,12,未知,未知,未知,未知,未知,未知,未知,未知,未知,未知
1,002577,51611643.94000001,41175782.37000001,2014-03-31,一季度报告,39806634.7,2014,3,未知,未知,未知,未知,未知,未知,未知,未知,未知,未知
2,002577,83895384.31000002,63144381.53000001,2014-06-30,半年度报告,59602551.35000002,2014,6,未知,未知,未知,未知,未知,未知,未知,未知,未知,未知
3,002577,91591994.08,65218088.08,2014-09-30,三季度报告,61284521.35,2014,9,未知,未知,未知,未知,未知,未知,未知,未知,未知,未知
4,002577,65825964.44000001,36503754.19000001,2014-12-31,年度报告,32231622.07,2014,12,0.0,True,未知,未知,未知,未知,未知,未知,未知,未知
5,002577,-4200949.369999999,-4758583.83,2015-03-31,一季度报告,-7070927.02,2015,3,-0.3542015154807333,True,未知,未知,未知,未知,未知,未知,未知,未知
6,002577,-1086504.56,-5441482.17,2015-06-30,半年度报告,-8617705.6,2015,6,-0.6027109034170417,True,未知,未知,未知,未知,未知,未知,未知,未知
7,002577,-18787312.66,-22907754.05,2015-09-30,三季度报告,-26374532.52,2015,9,-0.636095689641961,True,未知,未知,未知,未知,未知,未知,未知,未知
8,002577,-256305448.48,-259456393.31000003,2015-12-31,年度报告,-533932066.83,2015,12,-0.49365388378956815,True,未知,未知,未知,未知,未知,未知,未知,未知
9,002577,5862871.8999999985,10902226.45,2016-03-31,一季度报告,10717365.95,2016,3,-8.934092631066394,False,未知,未知,未知,未知,未知,未知,247000000.0,未知
10,002577,6138376.5699999975,13553507.770000005,2016-06-30,半年度报告,13275038.19,2016,6,-31.677019376706525,False,未知,未知,未知,未知,未知,未知,337500000.0,未知
11,002577,7496749.93,17831662.84,2016-09-30,三季度报告,16359440.6,2016,9,-2.7741079867672784,False,未知,未知,未知,未知,未知,未知,130000000.0,未知
12,002577,1152807.4599999995,17935300.45,2016-12-31,年度报告,14370529.77,2016,12,-1.130042968800177,False,6.169705828816875,False,0.0,True,前期平均,17935300.45,24000000.0,24000000.0
13,002577,9883137.8,11355205.27,2017-03-31,一季度报告,10639425.37,2017,3,4.685050263506526,False,0.7526772407291481,True,0.6514398696761672,False,前期平均,-255862870.95,33786667.0,33786667.0
14,002577,14158705.28,16273053.579999998,2017-06-30,半年度报告,15200190.12,2017,6,4.429891936395165,False,0.8517459338048828,True,0.9194938498495425,False,前期平均,-260069591.675,29000000.0,29000000.0
15,002577,11992912.569999995,16179297.999999994,2017-09-30,三季度报告,10867702.179999998,2017,9,3.446022843395018,False,0.7940585747020222,True,0.9803290722804121,False,前期平均,-252125918.79500002,,-252125918.79500002
16,002577,11447441.529999996,18875729.01,2017-12-31,年度报告,7968447.989999997,2017,12,27.91265245629137,False,-1.0121042690325421,True,0.0,True,前期平均,18875729.01,,18875729.01
17,002577,9266314.13,9308680.29,2018-03-31,一季度报告,1036534.4,2018,3,2.3724837308248397,False,10.893620336201836,False,0.6848319160837265,False,去年同期,6637702.909999997,未知,6637702.909999997
18,002577,17558560.01,17715195.290000007,2018-06-30,半年度报告,5586472.68,2018,6,1.3540797538233669,False,4.605330163540705,False,0.9583953345766928,False,去年同期,10483453.160000004,未知,10483453.160000004
19,002577,18237981.86,18369662.97,2018-09-30,三季度报告,1527742.49,2018,9,1.779201569715105,False,-3.12441361104771,True,0.8011500769532418,False,前期平均,-236403559.6,未知,-236403559.6
20,002577,7815400.499999999,8068197.6499999985,2018-12-31,年度报告,-25329394.590000004,2018,12,1.9116306340286686,False,-1.0897301433701616,True,0.0,True,前期平均,8068197.6499999985,未知,8068197.6499999985
21,002577,3986660.93,4207468.879999999,2019-03-31,一季度报告,-678150.4700000001,2019,3,2.5969772848613757,False,0.17697299907036146,True,0.7209421261681812,False,前期平均,4698562.099999998,未知,4698562.099999998
22,002577,2676452.47,2783365.58,2019-06-30,半年度报告,-5513401.26,2019,6,0.8982605305342461,False,0.7301561022182116,True,1.0908070719670706,False,前期平均,-284759.69500000076,未知,-284759.69500000076
23,002577,-2582565.35,-2565278.22,2019-09-30,三季度报告,-17433547.66,2019,9,0.8275443903747803,False,0.8715544058292447,True,0.8742912746645586,False,盈利变化,-359042.4166666679,未知,-359042.4166666679
24,002577,-173866140.00000003,-173866140.00000003,2019-12-31,年度报告,-92924018.57,2019,12,3.264748996548546,False,0.24051524794511261,True,0.0,True,盈利变化,-14463343.676666666,未知,-14463343.676666666
25,002577,12049063.86,12049063.86,2020-03-31,一季度报告,7192097.650000001,2020,3,7.3605608867268275,False,0.5836266286290523,True,0.9013375495296712,False,前期平均,-2469389.325000003,未知,-2469389.325000003
