,SECURITYCODE_x,NETPROFIT_x,PARENTNETPROFIT_x,REPORTDATE_x,REPORTTIMETYPE_x,KCFJCXSYJLR,Year,Month,managesituationChangeRate,managesituationGreatChange,historyprofitextroplaterate,ifhistoryprofitextroplate,IfprofitdisStableChangeRage,IfprofitdisStable,predicttype,predict,analyst_prediction,adj_prediction
0,002599,19105861.92,19105861.92,2013-12-31,年度报告,16826338.059999995,2013,12,未知,未知,未知,未知,未知,未知,未知,未知,未知,未知
1,002599,2458773.2099999995,2458773.2099999995,2014-03-31,一季度报告,2110717.1500000004,2014,3,未知,未知,未知,未知,未知,未知,未知,未知,未知,未知
2,002599,10760442.79,10760442.79,2014-06-30,半年度报告,9039987.130000005,2014,6,未知,未知,未知,未知,未知,未知,未知,未知,未知,未知
3,002599,13241204.47,13241204.47,2014-09-30,三季度报告,11354394.270000005,2014,9,未知,未知,未知,未知,未知,未知,未知,未知,未知,未知
4,002599,11401630.680000005,11401630.680000005,2014-12-31,年度报告,9047240.05,2014,12,0.0,True,未知,未知,未知,未知,未知,未知,未知,未知
5,002599,842241.0599999998,851505.9000000001,2015-03-31,一季度报告,-1002067.63,2015,3,6.770485639869163,False,未知,未知,未知,未知,未知,未知,未知,未知
6,002599,12396011.5,12411826.63,2015-06-30,半年度报告,5613414.41,2015,6,0.775564657781151,False,未知,未知,未知,未知,未知,未知,30900000.0,未知
7,002599,15358756.85,15459981.240000002,2015-09-30,三季度报告,7007060.050000003,2015,9,0.4429096660569883,True,未知,未知,未知,未知,未知,未知,45000000.0,未知
8,002599,19433374.96,19519741.21,2015-12-31,年度报告,9057634.75,2015,12,0.675713102470005,False,未知,未知,未知,未知,未知,未知,28666667.000000004,未知
9,002599,1815405.8,1823867.36,2016-03-31,一季度报告,133464.19,2016,3,21.68455294734741,False,未知,未知,未知,未知,未知,未知,50990977.99999999,未知
10,002599,14222331.339999994,14152300.86,2016-06-30,半年度报告,3830950.96,2016,6,0.541291077375977,False,未知,未知,未知,未知,未知,未知,38687500.0,未知
11,002599,19967724.52,19862026.94,2016-09-30,三季度报告,8423502.74,2016,9,0.24397189867616156,True,未知,未知,未知,未知,未知,未知,35220000.0,未知
12,002599,36628808.96,36498958.87000001,2016-12-31,年度报告,21472453.41,2016,12,-0.016853122047720687,True,0.2740066982758193,True,0.0,True,比例外推,36498958.87000001,34043000.0,36498958.87000001
13,002599,2529239.24,2608196.3100000005,2017-03-31,一季度报告,-1092332.45,2017,3,9.524292651262876,False,0.09990787770814472,True,0.19033863300650286,False,前期平均,11106308.950000001,81933000.0,81933000.0
14,002599,30158425.93999999,30197724.820000004,2017-06-30,半年度报告,20065056.56,2017,6,0.34337060944890135,True,0.2283686579893916,True,0.42070585926434756,False,平均增速,91268333.5368802,82371196.0,82371196.0
15,002599,51173795.24999999,51199926.13,2017-09-30,三季度报告,40621137.75,2017,9,-0.04316278498016848,True,0.3963462605130544,True,0.4480407605846245,False,平均增速,93662874.96605036,84675714.0,84675714.0
16,002599,92603024.53,92544369.35,2017-12-31,年度报告,74789964.58,2017,12,-0.4783924877037552,True,1.375793887482486,True,0.0,True,比例外推,92544369.35,84675714.0,92544369.35
17,002599,9727271.38,10162539.02,2018-03-31,一季度报告,7401931.8999999985,2018,3,6.5539955326645964,False,0.903367432345771,True,0.07095833758229325,True,前期平均,25861884.82,135940000.0,135940000.0
18,002599,50319355.6,50438934.62,2018-06-30,半年度报告,37617866.34,2018,6,-0.36648345115852526,True,1.2659882413626613,True,0.264263382870115,False,平均增速,181823894.23094454,138200000.0,138200000.0
19,002599,73157604.69999999,72289504.41000001,2018-09-30,三季度报告,58320051.52999999,2018,9,-0.62664754828791,True,1.897191753348969,True,0.20392888116602081,False,平均增速,146821338.39174673,135350000.0,146821338.39174673
20,002599,125546197.8,124154213.58,2018-12-31,年度报告,89525027.95000002,2018,12,-0.7936799362982966,True,2.303582488407633,False,0.0,True,比例外推,124154213.58,129487500.0,124154213.58
21,002599,11769038.209999995,11703309.249999994,2019-03-31,一季度报告,5522033.37,2019,3,0.9641543012034275,False,3.4778209913323557,False,0.05791659731391692,True,去年同期,93826405.30000001,152233333.0,152233333.0
22,002599,48936574.17999999,47481549.22,2019-06-30,半年度报告,38511300.77000001,2019,6,-0.6203078975836487,True,1.2676204140696905,True,0.13122997884111431,False,平均增速,134784015.27532488,152527500.0,152527500.0
23,002599,81040364.71,78647004.47,2019-09-30,三季度报告,64440101.64999999,2019,9,-0.7388397009668634,True,1.0566781518448856,True,0.13666261136046115,False,平均增速,132397287.47747724,139770000.0,132397287.47747724
24,002599,148575148.43,141314343.04999998,2019-12-31,年度报告,126508839.94,2019,12,-0.8478180760962878,True,0.9429608697723041,True,0.0,True,比例外推,141314343.04999998,128540000.0,141314343.04999998
25,002599,-27874597.760000005,-26231041.89,2020-03-31,一季度报告,-28009863.559999995,2020,3,0.6234004494747927,False,0.9204549442963718,True,0.051846695123003106,True,盈利变化,96605147.14333332,,96605147.14333332
