,SECURITYCODE_x,NETPROFIT_x,PARENTNETPROFIT_x,REPORTDATE_x,REPORTTIMETYPE_x,KCFJCXSYJLR,Year,Month,managesituationChangeRate,managesituationGreatChange,historyprofitextroplaterate,ifhistoryprofitextroplate,IfprofitdisStableChangeRage,IfprofitdisStable,predicttype,predict,analyst_prediction,adj_prediction
0,002556,82418689.44,90276171.64,2013-12-31,年度报告,-36735106.03,2013,12,未知,未知,未知,未知,未知,未知,未知,未知,未知,未知
1,002556,28325515.430000003,25059324.03,2014-03-31,一季度报告,7050121.53,2014,3,未知,未知,未知,未知,未知,未知,未知,未知,未知,未知
2,002556,64010607.19000001,56343198.87,2014-06-30,半年度报告,15542243.009999998,2014,6,未知,未知,未知,未知,未知,未知,未知,未知,未知,未知
3,002556,92918252.24,86995726.33,2014-09-30,三季度报告,24979743.780000005,2014,9,未知,未知,未知,未知,未知,未知,未知,未知,未知,未知
4,002556,135751123.24,140320831.93,2014-12-31,年度报告,62254429.92,2014,12,0.0,True,未知,未知,未知,未知,未知,未知,未知,未知
5,002556,36434852.34,33676944.66,2015-03-31,一季度报告,8351974.730000001,2015,3,1.9096977826821484,False,未知,未知,未知,未知,未知,未知,214758857.0,未知
6,002556,111591316.55,96855704.95000002,2015-06-30,半年度报告,9690951.329999998,2015,6,0.2875786226392142,True,未知,未知,未知,未知,未知,未知,206788571.0,未知
7,002556,170393460.06000003,148288821.19000003,2015-09-30,三季度报告,47363072.19,2015,9,-0.11299785076542888,True,未知,未知,未知,未知,未知,未知,216674500.0,未知
8,002556,194599020.7800001,170393431.48,2015-12-31,年度报告,75478020.55000001,2015,12,-0.3928691897871917,True,未知,未知,未知,未知,未知,未知,283700000.0,未知
9,002556,28857448.06000001,26754621.05,2016-03-31,一季度报告,20841205.820000004,2016,3,1.2620838056619934,False,未知,未知,未知,未知,未知,未知,210000000.0,未知
10,002556,91867697.74,86652698.77,2016-06-30,半年度报告,68501360.42,2016,6,-0.2614238097722309,True,未知,未知,未知,未知,未知,未知,184690000.0,未知
11,002556,109338724.17999996,101617284.17,2016-09-30,三季度报告,73061637.87,2016,9,-0.5163036808397564,True,未知,未知,未知,未知,未知,未知,140840000.0,未知
12,002556,110482373.93,102602246.86000004,2016-12-31,年度报告,43136630.54000001,2016,12,-0.5764691460951556,True,0.7839225178730633,True,0.0,True,比例外推,102602246.86000004,,102602246.86000004
13,002556,46987524.02,41582100.86000001,2017-03-31,一季度报告,30610533.25,2017,3,1.856062991732193,False,0.1087929530453312,True,0.24746225773874098,False,前期平均,102747277.965,未知,102747277.965
14,002556,101256580.88999996,91238043.75,2017-06-30,半年度报告,61431702.12,2017,6,-0.10285452376026853,True,0.04631766877475997,True,0.932655654934751,False,平均增速,68552366.83155534,未知,68552366.83155534
15,002556,131378622.95,121257564.73,2017-09-30,三季度报告,88058753.12,2017,9,-0.24620769029353762,True,0.1695111225783483,True,0.7862305436574515,False,平均增速,89877769.9653212,175480000.0,175480000.0
16,002556,148257054.06000003,136619719.92000002,2017-12-31,年度报告,100665592.33999996,2017,12,-0.254010513095788,True,0.3311195655279559,True,0.0,True,比例外推,136619719.92000002,177230000.0,177230000.0
17,002556,57605880.92,49276252.75000001,2018-03-31,一季度报告,40147416.62000001,2018,3,0.754054744508753,False,0.4392975506190005,True,0.1886388787400854,False,前期平均,93986988.02000001,未知,93986988.02000001
18,002556,122367472.12,104697070.52,2018-06-30,半年度报告,89606002.50000001,2018,6,-0.18604115687517134,True,0.0046488601810087925,True,0.8124561918720378,False,平均增速,161806056.17422992,165580000.0,161806056.17422992
19,002556,158978960.93000004,139347455.95,2018-09-30,三季度报告,126695943.7,2018,9,-0.37266286105490043,True,0.060682821986032635,True,0.6283929799259433,False,平均增速,157572816.08433083,,157572816.08433083
20,002556,217880567.95,196948732.61,2018-12-31,年度报告,117784221.84,2018,12,-0.44408250951320716,True,0.02808197005308633,True,0.0,True,比例外推,196948732.61,,196948732.61
21,002556,66151540.88999999,57862954.27999999,2019-03-31,一季度报告,35192024.97000001,2019,3,0.4307339480574685,True,0.5190428406839751,True,0.10711701376367405,False,平均增速,159894017.34736812,未知,159894017.34736812
22,002556,102395702.46,84951470.61999997,2019-06-30,半年度报告,76512238.10000001,2019,6,-0.32646570193771857,True,0.26724069068953854,True,0.6016662891633934,False,平均增速,121663799.80531105,174000000.0,174000000.0
23,002556,113510193.11,90425934.4,2019-09-30,三季度报告,65609955.40000001,2019,9,-0.48157486400801336,True,0.32087664495690105,True,0.47900855175332824,False,平均增速,80312451.38994467,,80312451.38994467
24,002556,217923612.12,193450387.11,2019-12-31,年度报告,20157972.57,2019,12,-0.6217253781947469,True,0.6841698201359617,True,0.0,True,比例外推,193450387.11,未知,193450387.11
25,002556,66220977.52,64234321.59000001,2020-03-31,一季度报告,60077263.13,2020,3,0.24590732628662137,True,0.26492757221065366,True,0.94889547593094,False,平均增速,46360892.71194522,,46360892.71194522
