,SECURITYCODE_x,NETPROFIT_x,PARENTNETPROFIT_x,REPORTDATE_x,REPORTTIMETYPE_x,KCFJCXSYJLR,Year,Month,managesituationChangeRate,managesituationGreatChange,historyprofitextroplaterate,ifhistoryprofitextroplate,IfprofitdisStableChangeRage,IfprofitdisStable,predicttype,predict,analyst_prediction,adj_prediction
0,002637,59575843.00999999,56854763.00999999,2013-12-31,年度报告,49440458.20999999,2013,12,未知,未知,未知,未知,未知,未知,未知,未知,未知,未知
1,002637,14346526.279999996,13818166.689999998,2014-03-31,一季度报告,12474982.94,2014,3,未知,未知,未知,未知,未知,未知,未知,未知,未知,未知
2,002637,33573605.72999999,32793390.01,2014-06-30,半年度报告,30145556.47,2014,6,未知,未知,未知,未知,未知,未知,未知,未知,未知,未知
3,002637,40289989.32,39785921.26000001,2014-09-30,三季度报告,35639340.32,2014,9,未知,未知,未知,未知,未知,未知,未知,未知,未知,未知
4,002637,65685057.28,62066680.53,2014-12-31,年度报告,49177739.43,2014,12,0.0,True,未知,未知,未知,未知,未知,未知,未知,未知
5,002637,10429830.97,10019738.46,2015-03-31,一季度报告,9072073.28,2015,3,3.152631922687281,False,未知,未知,未知,未知,未知,未知,102000000.0,未知
6,002637,13737049.08,12103370.51,2015-06-30,半年度报告,10942999.45,2015,6,0.7744845009830289,False,未知,未知,未知,未知,未知,未知,51000000.0,未知
7,002637,23245029.31,20132903.44,2015-09-30,三季度报告,16189837.54,2015,9,0.478676068559454,True,未知,未知,未知,未知,未知,未知,32650000.0,未知
8,002637,18041642.37,15668653.510000002,2015-12-31,年度报告,5553061.880000001,2015,12,-0.09300767210962248,True,未知,未知,未知,未知,未知,未知,,未知
9,002637,13829288.429999998,13306813.159999998,2016-03-31,一季度报告,12392445.47,2016,3,4.71206217831927,False,未知,未知,未知,未知,未知,未知,121840000.0,未知
10,002637,40765891.84,37844273.58,2016-06-30,半年度报告,35941430.62,2016,6,3.3368734189599323,False,未知,未知,未知,未知,未知,未知,107930000.0,未知
11,002637,85774604.99999999,75542034.7,2016-09-30,三季度报告,73045194.79,2016,9,1.5629497909202674,False,未知,未知,未知,未知,未知,未知,116000000.0,未知
12,002637,193174442.62000003,151792807.60000002,2016-12-31,年度报告,127248267.51999998,2016,12,2.3021296946371064,False,0.7119349720745967,True,0.0,True,前期平均,151792807.60000002,116820000.0,116820000.0
13,002637,40494477.83,18871086.92,2017-03-31,一季度报告,17611190.990000002,2017,3,3.3079471016572035,False,0.1163294337790516,True,0.9721179095554103,False,前期平均,35462959.465,215333332.99999997,215333332.99999997
14,002637,24581451.01,44550226.65,2017-06-30,半年度报告,42985354.63999999,2017,6,0.4614139497751262,True,0.7233281595326122,True,1.015268576299769,False,平均增速,624801952.4837999,,624801952.4837999
15,002637,54501361.91000001,82466451.32000001,2017-09-30,三季度报告,81281340.93,2017,9,-0.30543727936724396,True,1.7000733406411215,True,1.5107390759904622,False,平均增速,424669423.6904063,198495000.0,198495000.0
16,002637,157806419.15,159426074.80999997,2017-12-31,年度报告,46746886.6,2017,12,-0.6915956262019938,True,3.6144048058151306,False,0.0,True,比例外推,159426074.80999997,195420000.0,195420000.0
17,002637,53398593.2,40637762.63,2018-03-31,一季度报告,48693210.61,2018,3,0.47120906855758293,True,2.3384952819021123,False,0.9310966697307244,False,未知,未知,264060000.0,未知
18,002637,103447412.70000003,81558556.81,2018-06-30,半年度报告,92618549.43000002,2018,6,1.4236096960168823,False,0.09797707811470513,True,0.9130878584397286,False,前期平均,124517006.475,,124517006.475
19,002637,187084625.67,150694965.4,2018-09-30,三季度报告,156967593.84999996,2018,9,0.09310741827662299,True,0.00015511416917689746,True,1.1727226175775562,False,平均增速,-83661619.60155696,306160000.0,306160000.0
20,002637,208493785.52,178075369.20000002,2018-12-31,年度报告,24250984.620000005,2018,12,-0.6224751608274486,True,0.4942651660025921,True,0.0,True,比例外推,178075369.20000002,,178075369.20000002
21,002637,51788577.10000001,43843542.83,2019-03-31,一季度报告,40779842.95,2019,3,0.11568188298263983,True,0.9659385523613364,True,1.1805496186359319,False,平均增速,28193734.596504945,未知,28193734.596504945
22,002637,198479248.06000003,186605210.15000004,2019-06-30,半年度报告,109429827.85,2019,6,-0.42409537894609933,True,2.1660786250316533,False,2.145449270542563,False,未知,未知,368020000.0,未知
23,002637,251458576.83,235501198.33,2019-09-30,三季度报告,133734912.82,2019,9,-0.6815567137243748,True,1.667379591687749,True,3.5441547887270985,False,平均增速,149563181.34062564,,149563181.34062564
24,002637,389465618.51000017,354196262.59000003,2019-12-31,年度报告,273500737.14,2019,12,-0.7142560251308541,True,0.1880635569048622,True,0.0,True,比例外推,354196262.59000003,,354196262.59000003
25,002637,98583439.19,103714126.07999998,2020-03-31,一季度报告,104470789.63,2020,3,0.15036647743697096,True,0.10313948690533119,True,1.1633111860097176,False,平均增速,1088143501.4183333,413720000.0,413720000.0
