,SECURITYCODE_x,NETPROFIT_x,PARENTNETPROFIT_x,REPORTDATE_x,REPORTTIMETYPE_x,KCFJCXSYJLR,Year,Month,managesituationChangeRate,managesituationGreatChange,historyprofitextroplaterate,ifhistoryprofitextroplate,IfprofitdisStableChangeRage,IfprofitdisStable,predicttype,predict,analyst_prediction,adj_prediction
0,002672,243638211.39,208282106.18,2013-12-31,年度报告,177256440.28,2013,12,未知,未知,未知,未知,未知,未知,未知,未知,未知,未知
1,002672,64214040.78,56373850.00000001,2014-03-31,一季度报告,55430436.87000001,2014,3,未知,未知,未知,未知,未知,未知,未知,未知,未知,未知
2,002672,156711714.66000003,136164196.39000002,2014-06-30,半年度报告,134779229.16,2014,6,未知,未知,未知,未知,未知,未知,未知,未知,未知,未知
3,002672,229581629.12000003,196682102.63,2014-09-30,三季度报告,192673414.26,2014,9,未知,未知,未知,未知,未知,未知,未知,未知,未知,未知
4,002672,282467528.54,251610695.08,2014-12-31,年度报告,238784094.96,2014,12,0.0,True,未知,未知,未知,未知,未知,未知,未知,未知
5,002672,77529044.07000001,72539793.79,2015-03-31,一季度报告,69910546.38000001,2015,3,2.794157919834304,False,未知,未知,未知,未知,未知,未知,381438877.0,未知
6,002672,198384016.51,173643031.97,2015-06-30,半年度报告,164117047.81,2015,6,0.5546904832136813,False,未知,未知,未知,未知,未知,未知,372901500.0,未知
7,002672,300522511.1,264462102.95000008,2015-09-30,三季度报告,247482507.29,2015,9,0.06122694713806005,True,未知,未知,未知,未知,未知,未知,352919718.0,未知
8,002672,385174067.27999985,332534009.32999986,2015-12-31,年度报告,297685602.55000013,2015,12,-0.1374647109021646,True,未知,未知,未知,未知,未知,未知,352919718.0,未知
9,002672,91229268.84,84627682.02,2016-03-31,一季度报告,71252014.01,2016,3,2.142541151030085,False,未知,未知,未知,未知,未知,未知,460411657.0,未知
10,002672,221671499.07,206072065.4,2016-06-30,半年度报告,193927543.27,2016,6,0.22811411763970843,True,未知,未知,未知,未知,未知,未知,438253889.0,未知
11,002672,406975121.68000007,380430147.26,2016-09-30,三季度报告,273658218.33,2016,9,-0.18928465458972413,True,未知,未知,未知,未知,未知,未知,459904118.0,未知
12,002672,577135850.9899999,533813817.4599999,2016-12-31,年度报告,379234585.42,2016,12,-0.36745946291111875,True,0.46424582758305755,True,0.0,True,比例外推,533813817.4599999,459904118.0,459904118.0
13,002672,116175311.26,103975561.54,2017-03-31,一季度报告,96876660.8,2017,3,1.67061453509288,False,0.2872482482872954,True,0.0304052158703145,True,前期平均,309539918.6700001,536120832.0,536120832.0
14,002672,250208698.56,220147143.4,2017-06-30,半年度报告,214864755.41,2017,6,0.09909578999627412,True,0.2485168342611027,True,0.031006134835706245,True,比例外推,401440075.9258683,513602105.0,513602105.0
15,002672,380017440.27000016,326229233.62999994,2017-09-30,三季度报告,320704179.03000003,2017,9,-0.401343722475572,True,0.5354534733914742,True,0.06501191511514681,True,比例外推,413224760.91494876,499779412.0,499779412.0
16,002672,553356049.4300001,473375978.1299998,2017-12-31,年度报告,463523482.67,2017,12,-0.5778494595820534,True,0.7288792507937121,True,0.0,True,比例外推,473375978.1299998,496679474.0,473375978.1299998
17,002672,142255532.96,121442550.07999998,2018-03-31,一季度报告,114604161.90000004,2018,3,1.0971599623670332,False,0.3768247531836503,True,0.02426984876338581,True,前期平均,389321363.87000006,588670000.0,588670000.0
18,002672,313271550.70000005,265935797.7,2018-06-30,半年度报告,255332352.14,2018,6,-0.026260026960750988,True,0.19131252550996447,True,0.04519412049179378,True,比例外推,512494328.51688606,565543182.0,512494328.51688606
19,002672,432817853.05000013,372595040.86,2018-09-30,三季度报告,357756305.75,2018,9,-0.35887623679351016,True,0.07425784246593649,True,0.08307352549632085,True,比例外推,492942454.47638935,545839533.0,492942454.47638935
20,002672,474117157.49,407917006.14000016,2018-12-31,年度报告,323431535.09,2018,12,-0.5597080548031121,True,0.15005787413019764,True,0.0,True,比例外推,407917006.14000016,543886667.0,543886667.0
21,002672,125892657.83000004,108028970.63,2019-03-31,一季度报告,101104090.6,2019,3,0.7126800365544107,False,0.3717684815968053,True,0.1039307319516754,False,前期平均,445343667.27,519933201.0,519933201.0
22,002672,291021261.31999993,252435142.23,2019-06-30,半年度报告,235431182.01,2019,6,-0.22227789007461907,True,0.32775883486272267,True,0.20132784457214647,False,平均增速,316518915.6032898,510500000.0,510500000.0
23,002672,384328074.31999993,332055138.77,2019-09-30,三季度报告,299538043.87,2019,9,-0.43708835096999954,True,0.09992870066667336,True,0.2662545514888217,False,平均增速,301209486.90869737,469454545.0,469454545.0
24,002672,466717942.68,423929691.1200001,2019-12-31,年度报告,361422588.12000006,2019,12,-0.4861223485776535,True,0.1612197180468854,True,0.0,True,比例外推,423929691.1200001,469142857.0,423929691.1200001
25,002672,46779584.13999999,55561985.79000001,2020-03-31,一季度报告,54747060.40000001,2020,3,0.93528531043485,False,0.02571492029156806,True,0.07331222383616481,True,前期平均,343299083.32,508132727.0,508132727.0
