,SECURITYCODE_x,NETPROFIT_x,PARENTNETPROFIT_x,REPORTDATE_x,REPORTTIMETYPE_x,KCFJCXSYJLR,Year,Month,managesituationChangeRate,managesituationGreatChange,historyprofitextroplaterate,ifhistoryprofitextroplate,IfprofitdisStableChangeRage,IfprofitdisStable,predicttype,predict,analyst_prediction,adj_prediction
0,002665,157266435.99,159549139.50000006,2013-12-31,年度报告,149594764.4,2013,12,未知,未知,未知,未知,未知,未知,未知,未知,未知,未知
1,002665,-11111298.089999998,-8147976.42,2014-03-31,一季度报告,-24923342.14000001,2014,3,未知,未知,未知,未知,未知,未知,未知,未知,未知,未知
2,002665,73062342.1,79899373.3,2014-06-30,半年度报告,46541105.16,2014,6,未知,未知,未知,未知,未知,未知,未知,未知,未知,未知
3,002665,95879708.92,102479973.11,2014-09-30,三季度报告,69162937.29999998,2014,9,未知,未知,未知,未知,未知,未知,未知,未知,未知,未知
4,002665,191465038.72000003,203227124.48,2014-12-31,年度报告,152167362.2,2014,12,0.0,True,未知,未知,未知,未知,未知,未知,未知,未知
5,002665,6037070.82,7630846.629999999,2015-03-31,一季度报告,3975487.74,2015,3,-15.153741058530096,False,未知,未知,未知,未知,未知,未知,535000000.0,未知
6,002665,92230316.87,95425309.73,2015-06-30,半年度报告,73395592.64999998,2015,6,1.1524965046254658,False,未知,未知,未知,未知,未知,未知,385987500.0,未知
7,002665,78559340.79000002,83739039.96,2015-09-30,三季度报告,61782842.54,2015,9,0.6402473240841792,False,未知,未知,未知,未知,未知,未知,233600000.0,未知
8,002665,162411306.99000004,169286519.91,2015-12-31,年度报告,147194304.01999998,2015,12,-0.17861539087568004,True,未知,未知,未知,未知,未知,未知,229408114.0,未知
9,002665,9712022.209999997,11621343.110000005,2016-03-31,一季度报告,5391320.55,2016,3,25.05012276301241,False,未知,未知,未知,未知,未知,未知,523055693.0,未知
10,002665,82799827.86,87266071.83000001,2016-06-30,半年度报告,48614821.55999999,2016,6,0.7051490369665473,False,未知,未知,未知,未知,未知,未知,300742500.0,未知
11,002665,100049516.93,105857185.99,2016-09-30,三季度报告,67031004.28,2016,9,1.001880800023449,False,未知,未知,未知,未知,未知,未知,249332000.0,未知
12,002665,148541851.88,155035905.38,2016-12-31,年度报告,17116398.34,2016,12,-0.03167803458608217,True,0.06855951488142048,True,0.0,True,比例外推,155035905.38,243758000.0,243758000.0
13,002665,-37677582.38,-36473481.29000001,2017-03-31,一季度报告,-37267383.32000001,2017,3,15.192965027208277,False,-4.827980771543172,True,0.25558009171497986,False,盈利变化,98157633.55333331,628740000.0,628740000.0
14,002665,91419919.8,92974319.72,2017-06-30,半年度报告,85845147.32999998,2017,6,0.8993570404024269,False,0.001857292101857462,True,1.6253370864102372,False,前期平均,182686803.925,321596667.0,321596667.0
15,002665,113363936.29,111454212.32,2017-09-30,三季度报告,104268281.48999998,2017,9,0.5718860102046471,False,0.14709999964262,True,2.3193723481859116,False,前期平均,195662155.51,169000000.0,169000000.0
16,002665,93300083.02,93894583.88,2017-12-31,年度报告,86266817.12,2017,12,0.05873485485456447,True,0.1604872510934691,True,0.0,True,比例外推,93894583.88,717775000.0,717775000.0
17,002665,-20401451.29,-17577039.609999996,2018-03-31,一季度报告,-17918832.74,2018,3,-5.174005497589466,False,5.7847304359976865,False,0.4019970086688852,False,去年同期,105957160.83000001,未知,105957160.83000001
18,002665,19335524.120000005,21193832.31,2018-06-30,半年度报告,4768931.93,2018,6,0.7202644274251487,False,0.04461914193150639,True,1.395584648673459,False,前期平均,42343976.385000005,未知,42343976.385000005
19,002665,-20952494.6,-16342062.670000002,2018-09-30,三季度报告,-33653492.98,2018,9,0.38727042423519575,True,0.26941001400633097,True,2.0679879899444913,False,平均增速,-36642210.17231259,未知,-36642210.17231259
20,002665,-748389201.21,-639969687.63,2018-12-31,年度报告,-644626383.8299999,2018,12,0.6855980284207042,False,0.39990908367645234,True,0.0,True,盈利变化,-149736483.10333332,,-149736483.10333332
21,002665,24650385.14,25980985.03,2019-03-31,一季度报告,18876975.53,2019,3,-8.708590617133494,False,-0.4590411324487333,True,0.4022599429802386,False,盈利变化,-590908609.9366667,168000000.0,168000000.0
22,002665,9084888.38,11736378.21,2019-06-30,半年度报告,16261394.859999998,2019,6,7.133549161324724,False,0.7780329224476389,True,1.564260860698407,False,前期平均,-3801998.504999982,,-3801998.504999982
23,002665,12287570.77,15604213.45,2019-09-30,三季度报告,18682065.53,2019,9,-8.50585736888819,False,1.196355893069223,True,2.1904981369690386,False,前期平均,-18353821.704999987,未知,-18353821.704999987
24,002665,72472009.05,74198831.07999998,2019-12-31,年度报告,8940993.03,2019,12,-1.2101399054605955,False,7.18907718811838,False,0.0,True,前期平均,74198831.07999998,未知,74198831.07999998
25,002665,3952987.72,4529533.75,2020-03-31,一季度报告,-54762781.2,2020,3,5.379877437890611,False,-1.848856586700851,True,1.5422573781328084,False,前期平均,-247057141.57499996,未知,-247057141.57499996
