,SECURITYCODE_x,NETPROFIT_x,PARENTNETPROFIT_x,REPORTDATE_x,REPORTTIMETYPE_x,KCFJCXSYJLR,Year,Month,managesituationChangeRate,managesituationGreatChange,historyprofitextroplaterate,ifhistoryprofitextroplate,IfprofitdisStableChangeRage,IfprofitdisStable,predicttype,predict,analyst_prediction,adj_prediction
0,002628,314942841.04,314942841.04,2013-12-31,年度报告,312550408.24,2013,12,未知,未知,未知,未知,未知,未知,未知,未知,未知,未知
1,002628,11766047.37,11766047.37,2014-03-31,一季度报告,12280142.05,2014,3,未知,未知,未知,未知,未知,未知,未知,未知,未知,未知
2,002628,32982626.770000003,32982626.770000003,2014-06-30,半年度报告,33898590.95,2014,6,未知,未知,未知,未知,未知,未知,未知,未知,未知,未知
3,002628,110337800.01,110337800.01,2014-09-30,三季度报告,110807603.56000002,2014,9,未知,未知,未知,未知,未知,未知,未知,未知,未知,未知
4,002628,137900525.15,137900525.15,2014-12-31,年度报告,138048970.52,2014,12,0.0,True,未知,未知,未知,未知,未知,未知,未知,未知
5,002628,7412343.979999999,7412343.979999999,2015-03-31,一季度报告,7269239.07,2015,3,25.767089332226618,False,未知,未知,未知,未知,未知,未知,未知,未知
6,002628,11137621.07,11137621.07,2015-06-30,半年度报告,5184772.8100000005,2015,6,8.548749504889722,False,未知,未知,未知,未知,未知,未知,37000000.0,未知
7,002628,26923730.35,26923730.35,2015-09-30,三季度报告,20832934.25,2015,9,1.854351283163671,False,未知,未知,未知,未知,未知,未知,,未知
8,002628,18744361.79,18744361.79,2015-12-31,年度报告,10774399.510000002,2015,12,1.2838407663598372,False,未知,未知,未知,未知,未知,未知,未知,未知
9,002628,9009251.77,9009251.77,2016-03-31,一季度报告,8650269.02,2016,3,41.48896730774764,False,未知,未知,未知,未知,未知,未知,未知,未知
10,002628,14301574.819999995,14301574.819999995,2016-06-30,半年度报告,13690263.9,2016,6,27.27738877634486,False,未知,未知,未知,未知,未知,未知,未知,未知
11,002628,16404485.4,16404485.4,2016-09-30,三季度报告,14869884.74,2016,9,10.697593050659862,False,未知,未知,未知,未知,未知,未知,30100000.0,未知
12,002628,43920548.68,43920548.68,2016-12-31,年度报告,47923885.53,2016,12,15.80200396089346,False,0.9172148111709981,True,0.0,True,前期平均,43920548.68,未知,43920548.68
13,002628,7299039.8999999985,7299039.8999999985,2017-03-31,一季度报告,4404804.3900000015,2017,3,33.957713368465456,False,0.060478889435114105,True,0.35996626088656825,False,前期平均,71936034.355,未知,71936034.355
14,002628,14584548.35,14584548.35,2017-06-30,半年度报告,10632798.14,2017,6,21.0215497246897,False,0.3517001594431663,True,0.14373427154785678,False,前期平均,69454551.485,未知,69454551.485
15,002628,16998152.25,17000622.16,2017-09-30,三季度报告,17343500.39,2017,9,18.198580958839468,False,0.7609747558988239,True,0.9180557880699327,False,前期平均,25592038.27,未知,25592038.27
16,002628,22351469.85,22426138.7,2017-12-31,年度报告,17779167.96,2017,12,6.170740132019681,False,0.43923418710981643,True,0.0,True,前期平均,22426138.7,,22426138.7
17,002628,6386832.48,6475261.8599999985,2018-03-31,一季度报告,6134356.169999999,2018,3,42.14852985527591,False,0.11104377295367299,True,0.3070342931398999,False,前期平均,27864650.335000005,未知,27864650.335000005
18,002628,11022662.41,11177178.9,2018-06-30,半年度报告,9235566.26,2018,6,20.594281391648305,False,0.14662023226395335,True,0.16930890742629778,False,前期平均,31088803.064999998,未知,31088803.064999998
19,002628,16284930.49,16536412.66,2018-09-30,三季度报告,13456685.91,2018,9,17.528063309940055,False,0.21537723371403772,True,0.8604468545650175,False,前期平均,28034145.685,未知,28034145.685
20,002628,20959913.65,21325238.33,2018-12-31,年度报告,16967991.64,2018,12,13.09047562212111,False,0.28663522592279217,True,0.0,True,前期平均,21325238.33,未知,21325238.33
21,002628,8918638.049999999,9041373.34,2019-03-31,一季度报告,8453648.129999999,2019,3,48.31127315867849,False,0.21673801165220377,True,0.09826643967869952,True,前期平均,35365363.379999995,32000000.0,32000000.0
22,002628,24922417.65,25135607.120000005,2019-06-30,半年度报告,24743652.48,2019,6,27.572302164881414,False,0.23681953821704194,True,0.19033597209141428,False,前期平均,45825602.845000006,,45825602.845000006
23,002628,31767286.750000004,32163291.71,2019-09-30,三季度报告,31665383.48,2019,9,18.339526271444342,False,0.024931464356977153,True,0.382665340354461,False,前期平均,48908125.89,未知,48908125.89
24,002628,42255143.10999999,43258564.72000001,2019-12-31,年度报告,43337492.24,2019,12,14.02596080781087,False,0.3674581183758008,True,0.0,True,前期平均,43258564.72000001,未知,43258564.72000001
25,002628,15373288.16,12534879.73,2020-03-31,一季度报告,12285291.74,2020,3,34.31288513720994,False,0.303334972351978,True,0.09341133769207671,True,前期平均,24638879.25,未知,24638879.25
