,SECURITYCODE_x,NETPROFIT_x,PARENTNETPROFIT_x,REPORTDATE_x,REPORTTIMETYPE_x,KCFJCXSYJLR,Year,Month,managesituationChangeRate,managesituationGreatChange,historyprofitextroplaterate,ifhistoryprofitextroplate,IfprofitdisStableChangeRage,IfprofitdisStable,predicttype,predict,analyst_prediction,adj_prediction
0,002605,118695336.96,116982829.84999998,2013-12-31,年度报告,106821165.04000002,2013,12,未知,未知,未知,未知,未知,未知,未知,未知,未知,未知
1,002605,38736994.87000001,36747453.5,2014-03-31,一季度报告,33493402.17,2014,3,未知,未知,未知,未知,未知,未知,未知,未知,未知,未知
2,002605,64574874.18,63922067.01,2014-06-30,半年度报告,56382766.17999999,2014,6,未知,未知,未知,未知,未知,未知,未知,未知,未知,未知
3,002605,95232468.6,93814313.58000004,2014-09-30,三季度报告,80490830.55000001,2014,9,未知,未知,未知,未知,未知,未知,未知,未知,未知,未知
4,002605,123196001.01,122307390.68,2014-12-31,年度报告,106953393.58,2014,12,0.0,True,未知,未知,未知,未知,未知,未知,未知,未知
5,002605,35782792.89000001,33146731.79000001,2015-03-31,一季度报告,31117190.71,2015,3,2.0641338430701026,False,未知,未知,未知,未知,未知,未知,146500000.0,未知
6,002605,67943991.21,62331763.61000001,2015-06-30,半年度报告,58354134.84,2015,6,0.8381040376345337,False,未知,未知,未知,未知,未知,未知,,未知
7,002605,85136447.54,80379112.10000001,2015-09-30,三季度报告,75833547.76,2015,9,0.2463746735217993,True,未知,未知,未知,未知,未知,未知,未知,未知
8,002605,89927579.48999998,95041903.47,2015-12-31,年度报告,87192610.74,2015,12,-0.03653254986446099,True,未知,未知,未知,未知,未知,未知,118333333.0,未知
9,002605,28908852.969999995,27850290.24,2016-03-31,一季度报告,26844666.58,2016,3,2.3171065580286507,False,未知,未知,未知,未知,未知,未知,142470000.0,未知
10,002605,49985643.9,48399894.86000002,2016-06-30,半年度报告,46234325.32,2016,6,0.7469585587508203,False,未知,未知,未知,未知,未知,未知,102000000.0,未知
11,002605,71521697.58,69760665.58,2016-09-30,三季度报告,65560098.79000001,2016,9,0.39417770402309626,True,未知,未知,未知,未知,未知,未知,,未知
12,002605,100397215.69,97464050.12,2016-12-31,年度报告,84655550.21,2016,12,0.31989916367313115,True,0.25646300322541493,True,0.0,True,比例外推,97464050.12,152000000.0,152000000.0
13,002605,25300889.28,25308511.09,2017-03-31,一季度报告,22086777.38,2017,3,3.105847336218266,False,0.22412948724157808,True,0.02783134597916531,True,前期平均,90076216.80999999,99160303.0,90076216.80999999
14,002605,37622241.33000001,35714371.50000001,2017-06-30,半年度报告,26840633.28,2017,6,1.3745885358095788,False,0.24560712540220755,True,0.0883977448534582,True,前期平均,75418923.15,,75418923.15
15,002605,53642019.18,51328263.13999999,2017-09-30,三季度报告,40384308.16,2017,9,0.6595710249639183,False,0.2069398751114544,True,0.07081228037954646,True,前期平均,70239076.14499998,未知,70239076.14499998
16,002605,80740032.72,76829393.63,2017-12-31,年度报告,64022342.14000001,2017,12,0.18225725827397193,True,0.05784976533837843,True,0.0,True,比例外推,76829393.63,未知,76829393.63
17,002605,14677785.06,14264392.27,2018-03-31,一季度报告,10408404.91,2018,3,3.6913503966766497,False,0.2178004147628591,True,0.02255165689195271,True,前期平均,71207544.1,121000000.0,121000000.0
18,002605,64476352.27,44423937.08000001,2018-06-30,半年度报告,37070876.73,2018,6,2.154924660624943,False,0.36195441807468476,True,0.12564161363758503,False,前期平均,78053787.47500001,,78053787.47500001
19,002605,117841525.87,76837268.8,2018-09-30,三季度报告,67645512.44000001,2018,9,1.2127305939343649,False,0.3151710159863024,True,0.12752960386530665,False,前期平均,92064525.99999999,129000000.0,129000000.0
20,002605,214433376.62000003,137126391.93,2018-12-31,年度报告,97884657.95999998,2018,12,0.47009275276895124,True,0.15155529111548513,True,0.0,True,比例外推,137126391.93,未知,137126391.93
21,002605,104685972.25,56205838.83000001,2019-03-31,一季度报告,51284310.8,2019,3,7.08673355515127,False,0.4584816510541516,True,0.14980778752115298,False,前期平均,106079063.025,264000000.0,264000000.0
22,002605,207078556.17,141094771.14,2019-06-30,半年度报告,138945797.20000002,2019,6,0.8409127188671213,False,0.4719303428162431,True,0.0981114334954471,True,前期平均,178896238.015,425000000.0,425000000.0
23,002605,332098397.45000005,264533394.76999995,2019-09-30,三季度报告,261462357.48,2019,9,0.00724541780748743,True,0.8829981870218795,True,0.07566960154796598,True,比例外推,377249407.23711085,427372540.0,427372540.0
24,002605,442893487.0899999,344842563.11000013,2019-12-31,年度报告,317933506.38,2019,12,-0.4464698600985917,True,1.3676342497445364,True,0.0,True,比例外推,344842563.11000013,389186270.0,389186270.0
25,002605,674467145.15,663428466.2,2020-03-31,一季度报告,144493827.59,2020,3,0.13382275016316708,True,4.237090722903645,False,0.14077747240436975,False,未知,未知,1017242856.9999999,未知
