,SECURITYCODE_x,NETPROFIT_x,PARENTNETPROFIT_x,REPORTDATE_x,REPORTTIMETYPE_x,KCFJCXSYJLR,Year,Month,managesituationChangeRate,managesituationGreatChange,historyprofitextroplaterate,ifhistoryprofitextroplate,IfprofitdisStableChangeRage,IfprofitdisStable,predicttype,predict,analyst_prediction,adj_prediction
0,002601,23571235.16,23575840.31,2013-12-31,年度报告,17628936.240000002,2013,12,未知,未知,未知,未知,未知,未知,未知,未知,未知,未知
1,002601,1352503.72,1344348.13,2014-03-31,一季度报告,385384.03,2014,3,未知,未知,未知,未知,未知,未知,未知,未知,未知,未知
2,002601,11846076.87,11606742.77,2014-06-30,半年度报告,6424750.119999999,2014,6,未知,未知,未知,未知,未知,未知,未知,未知,未知,未知
3,002601,26307440.85,25832254.84,2014-09-30,三季度报告,15485342.110000005,2014,9,未知,未知,未知,未知,未知,未知,未知,未知,未知,未知
4,002601,64333422.39000002,63140783.54,2014-12-31,年度报告,53729110.6,2014,12,0.0,True,未知,未知,未知,未知,未知,未知,未知,未知
5,002601,15039731.430000005,14409407.449999996,2015-03-31,一季度报告,14439407.459999995,2015,3,16.42785236849478,False,未知,未知,未知,未知,未知,未知,149583582.0,未知
6,002601,51639113.28999999,46631679.13999999,2015-06-30,半年度报告,46410168.85,2015,6,0.9897925210745321,False,未知,未知,未知,未知,未知,未知,393548312.0,未知
7,002601,64197680.85,58669915.41,2015-09-30,三季度报告,55819713.55,2015,9,-0.10400881277663317,True,未知,未知,未知,未知,未知,未知,123500000.0,未知
8,002601,118958219.46,111435586.31,2015-12-31,年度报告,102268700.99000002,2015,12,-0.6336082508232314,True,未知,未知,未知,未知,未知,未知,165108328.0,未知
9,002601,19526640.28,16527094.28,2016-03-31,一季度报告,16440187.48,2016,3,0.5672643670339791,False,未知,未知,未知,未知,未知,未知,530663333.0,未知
10,002601,76347180.54,71109744.91000003,2016-06-30,半年度报告,70100297.27000001,2016,6,-0.5435391187368701,True,未知,未知,未知,未知,未知,未知,389618182.0,未知
11,002601,125873649.44,119483208.96999998,2016-09-30,三季度报告,115444120.57999995,2016,9,-0.6328335409019685,True,未知,未知,未知,未知,未知,未知,394617500.0,未知
12,002601,459312586.99,442105136.2200001,2016-12-31,年度报告,449914781.86,2016,12,-0.8018528247396484,True,1.7065282494806773,True,0.0,True,比例外推,442105136.2200001,421420000.0,442105136.2200001
13,002601,605894111.7599999,585196818.0999999,2017-03-31,一季度报告,571146372.3599999,2017,3,0.20713214470093155,True,1.3824255937421681,True,0.07955611958714323,True,比例外推,9280678683.238585,2155296057.0,2155296057.0
14,002601,1352507234.7299998,1309932521.25,2017-06-30,半年度报告,1279292681.3400002,2017,6,-0.6912625326399513,True,1.4051965615156634,True,0.21074257162770244,False,平均增速,5374106681.533682,2690844276.0,2690844276.0
15,002601,1990894390.4,1920736173.08,2017-09-30,三季度报告,1881410243.4,2017,9,-0.8127389230004357,True,1.7815806901456275,True,0.18227533480737307,False,平均增速,5173217085.123251,2628437143.0,2628437143.0
16,002601,2588874607.0000005,2502413958.3299994,2017-12-31,年度报告,2448921663.51,2017,12,-0.9486814952874061,True,4.011822496149461,False,0.0,True,比例外推,2502413958.3299994,2628437143.0,2502413958.3299994
17,002601,619402974.1699997,597876164.36,2018-03-31,一季度报告,587088131.1000003,2018,3,-0.9610967746632654,True,34.056853339612466,False,0.1004443849820618,False,未知,未知,2954674545.0,未知
18,002601,1370465924.77,1340505321.2599998,2018-06-30,半年度报告,1294532885.94,2018,6,-0.9825721929208714,True,20.135188687102556,False,0.2215268320239285,False,未知,未知,2888271537.9999995,未知
19,002601,2008360344.6100004,1970484017.7200007,2018-09-30,三季度报告,1892024594.8,2018,9,-0.9881604793937542,True,19.94891835988528,False,0.26696425579735145,False,未知,未知,2710547778.0,未知
20,002601,2320237451.87,2285728663.61,2018-12-31,年度报告,2155550097.61,2018,12,-0.9908951808263459,True,7.953848536442922,False,0.0,True,比例外推,2285728663.61,2721465348.0,2721465348.0
21,002601,629626340.9500003,622936264.0399997,2019-03-31,一季度报告,611073504.44,2019,3,-0.9619452341319713,True,0.9807560658952511,True,0.14416781398748957,False,平均增速,3918663956.3230286,2997593571.0,2997593571.0
22,002601,1280622721.15,1269574270.03,2019-06-30,半年度报告,1222487771.11,2019,6,-0.9828005682345178,True,0.9182723027958499,True,0.2704441090177806,False,平均增速,3037237430.476509,2644871429.0,2644871429.0
23,002601,2084886636.29,2065905535.63,2019-09-30,三季度报告,1994877285.53,2019,9,-0.9882634432494846,True,0.8975724376127732,True,0.3776080387393636,False,平均增速,2621417628.5826535,2609770909.0,2621417628.5826535
24,002601,2604547680.5699987,2593975280.3,2019-12-31,年度报告,2491632401.41,2019,12,-0.989841024615389,True,0.5223720225875413,True,0.0,True,比例外推,2593975280.3,2606004167.0,2593975280.3
25,002601,910087885.57,901257471.3900002,2020-03-31,一季度报告,862642824.87,2020,3,-0.9625631368528278,True,0.02771213313074087,True,0.022082814274230644,True,比例外推,3485348372.730287,3073855385.0000005,3073855385.0000005
