,SECURITYCODE_x,NETPROFIT_x,PARENTNETPROFIT_x,REPORTDATE_x,REPORTTIMETYPE_x,KCFJCXSYJLR,Year,Month,managesituationChangeRate,managesituationGreatChange,historyprofitextroplaterate,ifhistoryprofitextroplate,IfprofitdisStableChangeRage,IfprofitdisStable,predicttype,predict,analyst_prediction,adj_prediction
0,002674,177476066.64999998,177476066.64999998,2013-12-31,年度报告,173943128.97999993,2013,12,未知,未知,未知,未知,未知,未知,未知,未知,未知,未知
1,002674,28109728.1,28109728.1,2014-03-31,一季度报告,24274417.299999993,2014,3,未知,未知,未知,未知,未知,未知,未知,未知,未知,未知
2,002674,59388877.7,59388877.7,2014-06-30,半年度报告,50873590.82000001,2014,6,未知,未知,未知,未知,未知,未知,未知,未知,未知,未知
3,002674,89615391.78,89615391.78,2014-09-30,三季度报告,75628909.82,2014,9,未知,未知,未知,未知,未知,未知,未知,未知,未知,未知
4,002674,119952386.97999996,119952386.97999996,2014-12-31,年度报告,106190245.64,2014,12,0.0,True,未知,未知,未知,未知,未知,未知,未知,未知
5,002674,3181567.4,3181567.4,2015-03-31,一季度报告,1902708.88,2015,3,5.313688486015629,False,未知,未知,未知,未知,未知,未知,165050000.0,未知
6,002674,14201871.679999998,14201871.679999998,2015-06-30,半年度报告,3960438.67,2015,6,1.9883721249374606,False,未知,未知,未知,未知,未知,未知,129350000.0,未知
7,002674,358505.12,358505.12,2015-09-30,三季度报告,-12115766.27,2015,9,0.9804194695225152,False,未知,未知,未知,未知,未知,未知,64250000.0,未知
8,002674,13299906.0,13299906.0,2015-12-31,年度报告,-6442598.629999999,2015,12,0.4795542724763878,True,未知,未知,未知,未知,未知,未知,,未知
9,002674,772272.35,772272.35,2016-03-31,一季度报告,576857.7999999999,2016,3,54.782589000000435,False,未知,未知,未知,未知,未知,未知,,未知
10,002674,9605890.56,9605890.56,2016-06-30,半年度报告,7479742.540000003,2016,6,11.496667386449728,False,未知,未知,未知,未知,未知,未知,73058333.0,未知
11,002674,32639981.74000001,32639981.74000001,2016-09-30,三季度报告,28839136.34,2016,9,494.04471972394697,False,未知,未知,未知,未知,未知,未知,66260000.0,未知
12,002674,63119198.43000001,63119198.43000001,2016-12-31,年度报告,58277002.49,2016,12,12.344159473758685,False,0.9105673593922857,True,0.0,True,前期平均,63119198.43000001,116096000.0,116096000.0
13,002674,11292041.78,11292041.78,2017-03-31,一季度报告,10148056.830000002,2017,3,228.8102044570157,False,0.9506397969364995,True,0.2763857501965698,False,前期平均,48077302.195,125650000.0,125650000.0
14,002674,24169143.57,24169143.57,2017-06-30,半年度报告,19635173.87,2017,6,17.475753553661136,False,0.7389375528601254,True,0.6122938645827901,False,前期平均,46625952.33,81500000.0,81500000.0
15,002674,34573938.47,34573938.47,2017-09-30,三季度报告,29752013.779999994,2017,9,4.437382534822458,False,0.27445663987907126,True,0.8513591822445756,False,前期平均,52691190.2,64000000.0,64000000.0
16,002674,45136922.93,45136922.93,2017-12-31,年度报告,39722744.13,2017,12,1.8117604637648115,False,0.052636213329947515,True,0.0,True,前期平均,45136922.93,156000000.0,156000000.0
17,002674,9405513.310000002,9405513.310000002,2018-03-31,一季度报告,10509832.18,2018,3,14.716915515167354,False,4.711936999975783,False,0.2853452622721567,False,去年同期,38980200.61,79000000.0,79000000.0
18,002674,33708273.11000001,33708273.11000001,2018-06-30,半年度报告,26359512.79000001,2018,6,6.34308462920848,False,1.0303582778051132,True,0.6173691568251513,False,前期平均,53905384.43500001,62500000.0,62500000.0
19,002674,55155694.39000001,55155694.39000001,2018-09-30,三季度报告,45215752.07000001,2018,9,4.133232559084843,False,1.0954862940645749,True,0.8390958948358673,False,前期平均,72711211.28500001,73000000.0,72711211.28500001
20,002674,115740216.04,115740216.04,2018-12-31,年度报告,104918268.51,2018,12,2.931948726882344,False,0.18129944774072762,True,0.0,True,前期平均,115740216.04,,115740216.04
21,002674,22024256.76,22024256.76,2019-03-31,一季度报告,20767503.51,2019,3,17.869365318031743,False,0.5592288477654226,True,0.13362474578024286,False,前期平均,65661672.75500001,124000000.0,124000000.0
22,002674,69322110.66999999,69336174.88,2019-06-30,半年度报告,68007946.8,2019,6,4.265059591479023,False,0.9960467237579668,True,0.2030081692842629,False,前期平均,104778589.98499998,148000000.0,148000000.0
23,002674,94114173.22,94167618.91,2019-09-30,三季度报告,92271446.92999998,2019,9,2.2177288059340836,False,0.6411985558251669,True,0.1907196902778857,False,前期平均,113871917.16,142000000.0,142000000.0
24,002674,117806765.0,118024529.84,2019-12-31,年度报告,114525937.03,2019,12,0.5334001673943995,False,1.1382664478641726,True,0.0,True,前期平均,118024529.84,152000000.0,152000000.0
25,002674,-5126436.220000002,-5085678.079999999,2020-03-31,一季度报告,-3812944.22,2020,3,7.058209118426568,False,1.1281988780057401,True,0.07882115798432988,True,盈利变化,85250599.53333333,81500000.0,85250599.53333333
