,SECURITYCODE_x,NETPROFIT_x,PARENTNETPROFIT_x,REPORTDATE_x,REPORTTIMETYPE_x,KCFJCXSYJLR,Year,Month,managesituationChangeRate,managesituationGreatChange,historyprofitextroplaterate,ifhistoryprofitextroplate,IfprofitdisStableChangeRage,IfprofitdisStable,predicttype,predict,analyst_prediction,adj_prediction
0,002640,28614704.210000005,31490685.689999994,2013-12-31,年度报告,31157975.590000004,2013,12,未知,未知,未知,未知,未知,未知,未知,未知,未知,未知
1,002640,1128783.69,2164585.64,2014-03-31,一季度报告,2148399.62,2014,3,未知,未知,未知,未知,未知,未知,未知,未知,未知,未知
2,002640,9896545.02,11395952.96,2014-06-30,半年度报告,11321371.329999994,2014,6,未知,未知,未知,未知,未知,未知,未知,未知,未知,未知
3,002640,13614123.04,15710948.569999995,2014-09-30,三季度报告,15591216.95,2014,9,未知,未知,未知,未知,未知,未知,未知,未知,未知,未知
4,002640,28659064.83000001,33450804.05,2014-12-31,年度报告,31172612.93,2014,12,0.0,True,未知,未知,未知,未知,未知,未知,未知,未知
5,002640,26643970.01,27809330.30000001,2015-03-31,一季度报告,27596843.51,2015,3,24.35003337087552,False,未知,未知,未知,未知,未知,未知,138900000.0,未知
6,002640,73973646.56,75926494.59000002,2015-06-30,半年度报告,75613955.96999998,2015,6,1.8913832203230867,False,未知,未知,未知,未知,未知,未知,177666667.00000003,未知
7,002640,121623012.02,123769985.87,2015-09-30,三季度报告,123322783.09,2015,9,1.1018396944060531,False,未知,未知,未知,未知,未知,未知,176600000.0,未知
8,002640,166367577.18,168386725.93999997,2015-12-31,年度报告,167503768.39999998,2015,12,-0.0015478739541273704,True,未知,未知,未知,未知,未知,未知,176386667.00000003,未知
9,002640,96241138.75,87546400.54,2016-03-31,一季度报告,86983110.84000002,2016,3,0.07396548634682999,True,未知,未知,未知,未知,未知,未知,318022081.0,未知
10,002640,176257228.09,158343492.42,2016-06-30,半年度报告,158023665.69,2016,6,-0.6131770496565878,True,未知,未知,未知,未知,未知,未知,363216498.99999994,未知
11,002640,300901896.14,272818064.26000005,2016-09-30,三季度报告,272176846.35,2016,9,-0.7647262328506177,True,未知,未知,未知,未知,未知,未知,404412143.0,未知
12,002640,428039712.29,393768154.41,2016-12-31,年度报告,360641939.51000017,2016,12,-0.8280031199886949,True,4.809555751911799,False,0.0,True,比例外推,393768154.41,417178000.0,393768154.41
13,002640,163560669.74999997,159378785.51,2017-03-31,一季度报告,158992107.99000004,2017,3,-0.7026769988213589,True,5.930615508249007,False,0.08936810709164203,True,比例外推,1004837702.1679937,763852980.0,763852980.0
14,002640,322060967.83000004,314897926.4,2017-06-30,半年度报告,306471738.98,2017,6,-0.8376537262041314,True,3.203095873982264,False,0.05440773639550134,True,比例外推,742330266.4113907,790412000.0,742330266.4113907
15,002640,506968583.3799999,495282033.31,2017-09-30,三季度报告,493138330.56999993,2017,9,-0.9049035430581451,True,3.449989213487853,False,0.16354161502559905,False,未知,未知,777983131.0,未知
16,002640,766522845.4900001,750993707.0599997,2017-12-31,年度报告,737370565.38,2017,12,-0.9331494172423579,True,3.3895511698145553,False,0.0,True,比例外推,750993707.0599997,772060054.0,750993707.0599997
17,002640,262070228.11000004,263048535.20999995,2018-03-31,一季度报告,252555239.03,2018,3,-0.8250514365480579,True,1.662009602309766,True,0.04243429893185954,True,比例外推,1229460616.4090946,1236252204.0,1229460616.4090946
18,002640,505898826.5200001,506991067.21,2018-06-30,半年度报告,474386605.49,2018,6,-0.9111512816880553,True,1.5741105551460777,True,0.01944468286296752,True,比例外推,1122966585.7812862,1218444286.0,1122966585.7812862
19,002640,829607917.4900002,828251209.6099997,2018-09-30,三季度报告,787899173.6700001,2018,9,-0.9435572436871266,True,1.3997098092405154,True,0.05112695409712176,True,比例外推,1134798613.7872858,1226769167.0,1134798613.7872858
20,002640,612867046.4200001,622765683.68,2018-12-31,年度报告,573062389.62,2018,12,-0.9626694698294243,True,1.579116572320188,True,0.0,True,比例外推,622765683.68,1222345556.0,1222345556.0
21,002640,219850440.41000003,222835795.71,2019-03-31,一季度报告,210203234.02,2019,3,-0.8908128389235064,True,1.017462692989684,True,0.141537718163952,False,平均增速,582315637.6718647,1062000000.0,1062000000.0
22,002640,448600358.37,460092288.5500001,2019-06-30,半年度报告,443333426.1100001,2019,6,-0.9434378917088302,True,1.0304248597063752,True,0.2672727552970007,False,平均增速,575810775.7170815,877000000.0,877000000.0
23,002640,689270215.2199997,703113941.6800001,2019-09-30,三季度报告,676256860.2300001,2019,9,-0.9655081592078164,True,1.0538141658126086,True,0.4421014722952762,False,平均增速,459361014.85018766,928000000.0,928000000.0
24,002640,-2723597391.9500003,-2707893320.57,2019-12-31,年度报告,-2686258017.11,2019,12,-0.9533100949428593,True,0.026094518748293744,True,0.0,True,比例外推,-2707893320.57,1694666667.0,1694666667.0
25,002640,131107723.28,131287959.43999998,2020-03-31,一季度报告,122476017.27999996,2020,3,-0.8698446809720448,True,0.033056770621544454,True,0.27094486471203094,False,平均增速,2119033975.5309699,237000000.0,237000000.0
