,SECURITYCODE_x,NETPROFIT_x,PARENTNETPROFIT_x,REPORTDATE_x,REPORTTIMETYPE_x,KCFJCXSYJLR,Year,Month,managesituationChangeRate,managesituationGreatChange,historyprofitextroplaterate,ifhistoryprofitextroplate,IfprofitdisStableChangeRage,IfprofitdisStable,predicttype,predict,analyst_prediction,adj_prediction
0,002686,91296007.49,87896114.39000002,2013-12-31,年度报告,84070534.02,2013,12,未知,未知,未知,未知,未知,未知,未知,未知,未知,未知
1,002686,10540585.319999997,10017862.430000003,2014-03-31,一季度报告,9796075.19,2014,3,未知,未知,未知,未知,未知,未知,未知,未知,未知,未知
2,002686,39467441.05,37893843.51,2014-06-30,半年度报告,37656038.81,2014,6,未知,未知,未知,未知,未知,未知,未知,未知,未知,未知
3,002686,70246530.16999999,66047059.78,2014-09-30,三季度报告,65680531.42,2014,9,未知,未知,未知,未知,未知,未知,未知,未知,未知,未知
4,002686,91098899.43,82432938.67000002,2014-12-31,年度报告,80833978.14,2014,12,0.0,True,未知,未知,未知,未知,未知,未知,未知,未知
5,002686,15070779.220000004,13501531.900000002,2015-03-31,一季度报告,12421329.45,2015,3,7.661379299000829,False,未知,未知,未知,未知,未知,未知,102067832.99999999,未知
6,002686,50138198.27999998,44828635.55,2015-06-30,半年度报告,42801317.05,2015,6,1.313198045303725,False,未知,未知,未知,未知,未知,未知,112000000.0,未知
7,002686,86503470.0,74818817.17999999,2015-09-30,三季度报告,72503562.23,2015,9,0.2996514883946475,True,未知,未知,未知,未知,未知,未知,111616780.0,未知
8,002686,113272544.62000003,96196028.48999998,2015-12-31,年度报告,90841614.77,2015,12,0.002163671144583305,True,未知,未知,未知,未知,未知,未知,110097057.0,未知
9,002686,30131590.64,25991287.000000004,2016-03-31,一季度报告,13667584.65,2016,3,5.057815999908197,False,未知,未知,未知,未知,未知,未知,123954681.0,未知
10,002686,71829940.95,60655770.50000001,2016-06-30,半年度报告,47224504.34,2016,6,0.8208872799966125,False,未知,未知,未知,未知,未知,未知,160668182.0,未知
11,002686,111911218.0,93612820.41999996,2016-09-30,三季度报告,79778029.36,2016,9,0.05540283516950239,True,未知,未知,未知,未知,未知,未知,130997204.0,未知
12,002686,147436012.51999998,119850155.13000004,2016-12-31,年度报告,103195360.22000004,2016,12,-0.19401468558621698,True,0.24205819704913528,True,0.0,True,比例外推,119850155.13000004,130997204.0,119850155.13000004
13,002686,20196527.250000004,16522003.809999995,2017-03-31,一季度报告,16444520.390000002,2017,3,2.029909989843138,False,1.3529859639411468,True,0.008934906752598226,True,前期平均,91251097.945,198677052.0,198677052.0
14,002686,76940427.18,64528840.59000002,2017-06-30,半年度报告,62805307.95000001,2017,6,0.2710021236624724,True,0.6032459895847498,True,0.007254556335656748,True,比例外推,136824471.55724144,231229518.0,231229518.0
15,002686,122707262.65,105543762.62,2017-09-30,三季度报告,103667071.21999998,2017,9,-0.18421040248172443,True,0.4278943270000509,True,0.021504136273813423,True,比例外推,132344151.74607484,175259275.00000003,175259275.00000003
16,002686,167675906.59000003,140528574.85999998,2017-12-31,年度报告,129855545.46,2017,12,-0.38077538906842373,True,0.4428240031804967,True,0.0,True,比例外推,140528574.85999998,175017399.0,175017399.0
17,002686,22478721.72,19554116.44,2018-03-31,一季度报告,18444457.25,2018,3,3.520381467561458,False,0.10639520394384912,True,0.005301949421537083,True,前期平均,103528146.88500002,199386909.0,199386909.0
18,002686,75714633.21,72673879.28,2018-06-30,半年度报告,70950808.66,2018,6,0.18658046018402658,True,0.2616479625865325,True,0.013191555969719881,True,比例外推,152421268.3005849,,152421268.3005849
19,002686,78438461.71,76859357.52999999,2018-09-30,三季度报告,74658484.63999999,2018,9,-0.25598529770478917,True,0.23687680470510333,True,0.016767444684469224,True,比例外推,96723814.90319659,未知,96723814.90319659
20,002686,3911568.37,25734386.34000001,2018-12-31,年度报告,21213516.12,2018,12,-0.45552101463666833,True,0.28630919084070094,True,0.0,True,比例外推,25734386.34000001,199386909.0,199386909.0
21,002686,-18509667.95,-12812285.180000005,2019-03-31,一季度报告,-13467648.64,2019,3,3.061441243287921,False,0.10671319880744308,True,0.4932845518501321,False,盈利变化,-16815088.179999992,未知,-16815088.179999992
22,002686,11984181.92,19125003.05,2019-06-30,半年度报告,-2205667.2700000005,2019,6,0.2057907912831584,True,0.017872499231006585,True,1.9159767485097599,False,平均增速,2220110.3474948555,未知,2220110.3474948555
23,002686,12644237.46,23007535.20000001,2019-09-30,三季度报告,-3910133.21,2019,9,0.16391889259042944,True,0.33135308443998324,True,1.8224539685075227,False,平均增速,5411287.392098837,未知,5411287.392098837
24,002686,-496047533.67000014,-444514213.28,2019-12-31,年度报告,-509723343.14,2019,12,22.340000443351574,False,0.9751734661065959,True,0.0,True,盈利变化,-151244566.74666667,未知,-151244566.74666667
25,002686,-12420764.209999995,-8911926.88,2020-03-31,一季度报告,-11324429.089999998,2020,3,-5.932341721991831,False,1.8674661962962182,True,0.5286253196493333,False,前期平均,49178115.089999996,未知,49178115.089999996
