,SECURITYCODE_x,NETPROFIT_x,PARENTNETPROFIT_x,REPORTDATE_x,REPORTTIMETYPE_x,KCFJCXSYJLR,Year,Month,managesituationChangeRate,managesituationGreatChange,historyprofitextroplaterate,ifhistoryprofitextroplate,IfprofitdisStableChangeRage,IfprofitdisStable,predicttype,predict,analyst_prediction,adj_prediction
0,002649,127954511.92000002,127907426.64999998,2013-12-31,年度报告,104849291.84,2013,12,未知,未知,未知,未知,未知,未知,未知,未知,未知,未知
1,002649,24229669.87,24280540.95,2014-03-31,一季度报告,24370487.69999999,2014,3,未知,未知,未知,未知,未知,未知,未知,未知,未知,未知
2,002649,73082122.27000001,73343453.02999999,2014-06-30,半年度报告,72602769.5,2014,6,未知,未知,未知,未知,未知,未知,未知,未知,未知,未知
3,002649,103921202.19,104249363.66,2014-09-30,三季度报告,101546965.73,2014,9,未知,未知,未知,未知,未知,未知,未知,未知,未知,未知
4,002649,169880352.04999998,170448823.99999997,2014-12-31,年度报告,152329443.87000003,2014,12,0.0,True,未知,未知,未知,未知,未知,未知,未知,未知
5,002649,75886924.69999999,75855815.73000002,2015-03-31,一季度报告,27388125.16,2015,3,4.2809019935689285,False,未知,未知,未知,未知,未知,未知,251538000.0,未知
6,002649,128465939.39999998,128572258.99000002,2015-06-30,半年度报告,77685809.58,2015,6,0.7508319127251858,False,未知,未知,未知,未知,未知,未知,240000000.0,未知
7,002649,133053345.64,133267281.62999998,2015-09-30,三季度报告,85859195.23999998,2015,9,0.2312647392787058,True,未知,未知,未知,未知,未知,未知,194000000.0,未知
8,002649,180696517.42,180921355.7,2015-12-31,年度报告,127059785.06000002,2015,12,-0.24679628705772963,True,未知,未知,未知,未知,未知,未知,194000000.0,未知
9,002649,23970482.680000003,24188009.89,2016-03-31,一季度报告,21536344.17,2016,3,0.68612066473686,False,未知,未知,未知,未知,未知,未知,215217792.99999997,未知
10,002649,81783615.82000002,82116715.6,2016-06-30,半年度报告,90206100.04,2016,6,-0.0039810356144872406,True,未知,未知,未知,未知,未知,未知,200500000.0,未知
11,002649,116208512.35,117100760.68,2016-09-30,三季度报告,121434225.1,2016,9,-0.03832172498537395,True,未知,未知,未知,未知,未知,未知,117560000.0,未知
12,002649,115455510.2,117179840.83,2016-12-31,年度报告,116319334.88,2016,12,-0.29188169342195824,True,0.21340070810649608,True,0.0,True,比例外推,117179840.83,117560000.0,117179840.83
13,002649,29847144.81,29923383.38,2017-03-31,一季度报告,26598689.39,2017,3,4.338003144457331,False,0.5211486610595767,True,0.02865742129371543,True,前期平均,143738691.41500002,202500000.0,202500000.0
14,002649,77993408.39,77159885.9,2017-06-30,半年度报告,65127844.33999999,2017,6,0.5645494594127372,False,0.18844552368946602,True,0.15432652923426038,False,前期平均,141710210.82500005,202000000.0,202000000.0
15,002649,130917948.0,129343081.85999998,2017-09-30,三季度报告,110155579.74000004,2017,9,0.10107692915492368,True,0.019232120798346058,True,0.24852660213754774,False,平均增速,124785939.94165666,207255000.0,207255000.0
16,002649,219010536.14,217644511.93000004,2017-12-31,年度报告,176902581.67,2017,12,0.10825816540369862,True,0.34133983012316266,True,0.0,True,比例外推,217644511.93000004,207255000.0,217644511.93000004
17,002649,31782086.59,31388772.72000001,2018-03-31,一季度报告,30660012.47,2018,3,3.286993370204378,False,0.4022046918078117,True,0.033328610631624955,True,前期平均,128616098.02500002,未知,128616098.02500002
18,002649,79407139.76000002,77506203.61,2018-06-30,半年度报告,66608105.75000002,2018,6,0.640581102446163,False,0.2580872924236191,True,0.2168674279212976,False,前期平均,115249808.77000001,未知,115249808.77000001
19,002649,169215015.20999998,167464428.27000004,2018-09-30,三季度报告,111847352.82,2018,9,-0.022635827442085966,True,0.05044509461413242,True,0.2631721590253442,False,平均增速,242004492.31671053,未知,242004492.31671053
20,002649,225382080.78,221709832.54999992,2018-12-31,年度报告,162878057.98,2018,12,-0.4157609301581429,True,0.47904127417299214,True,0.0,True,比例外推,221709832.54999992,,221709832.54999992
21,002649,35156878.03,35808380.31999999,2019-03-31,一季度报告,36910582.34,2019,3,3.0259946922509475,False,0.18110322109258772,True,0.024223944664815117,True,前期平均,158351821.81499997,未知,158351821.81499997
22,002649,109826918.64000002,109535758.52000004,2019-06-30,半年度报告,100982604.02,2019,6,0.6113728854449295,False,0.006025551513180215,True,0.2579688884404199,False,前期平均,178479744.60500002,291000000.0,291000000.0
23,002649,204496272.09000003,202612445.75,2019-09-30,三季度报告,178626253.55,2019,9,-0.24383476394689127,True,0.369460922722272,True,0.25952040935570886,False,平均增速,274510437.8189342,287000000.0,274510437.8189342
24,002649,250570192.1,246427162.42,2019-12-31,年度报告,210458699.68,2019,12,-0.4322773510778836,True,0.34771276933078493,True,0.0,True,比例外推,246427162.42,287000000.0,287000000.0
25,002649,6170026.6099999985,6472858.48,2020-03-31,一季度报告,1812279.5,2020,3,2.639529989290122,False,0.140915673661963,True,0.02096832729861528,True,前期平均,147733827.37499997,未知,147733827.37499997
