,SECURITYCODE_x,NETPROFIT_x,PARENTNETPROFIT_x,REPORTDATE_x,REPORTTIMETYPE_x,KCFJCXSYJLR,Year,Month,managesituationChangeRate,managesituationGreatChange,historyprofitextroplaterate,ifhistoryprofitextroplate,IfprofitdisStableChangeRage,IfprofitdisStable,predicttype,predict,analyst_prediction,adj_prediction
0,002653,519218912.9100001,519218912.9100001,2013-12-31,年度报告,404827336.83,2013,12,未知,未知,未知,未知,未知,未知,未知,未知,未知,未知
1,002653,81269286.17,81269286.17,2014-03-31,一季度报告,68181607.99000002,2014,3,未知,未知,未知,未知,未知,未知,未知,未知,未知,未知
2,002653,231644274.6,231644274.6,2014-06-30,半年度报告,172217372.55,2014,6,未知,未知,未知,未知,未知,未知,未知,未知,未知,未知
3,002653,356556125.16,356556125.16,2014-09-30,三季度报告,273083888.36,2014,9,未知,未知,未知,未知,未知,未知,未知,未知,未知,未知
4,002653,450541060.6600001,450541060.6600001,2014-12-31,年度报告,350359428.60999995,2014,12,0.0,True,未知,未知,未知,未知,未知,未知,未知,未知
5,002653,99527544.11000004,99527544.11000004,2015-03-31,一季度报告,80705626.06,2015,3,5.388870105538913,False,未知,未知,未知,未知,未知,未知,729005714.0,未知
6,002653,214742322.16000003,214742322.16000003,2015-06-30,半年度报告,178720272.62,2015,6,1.241449368030269,False,未知,未知,未知,未知,未知,未知,577458571.0,未知
7,002653,277596543.04,277596543.04,2015-09-30,三季度报告,222812110.91,2015,9,0.45620528234371854,True,未知,未知,未知,未知,未知,未知,577415000.0,未知
8,002653,372157949.35000014,372157949.35000014,2015-12-31,年度报告,299733234.35,2015,12,0.1524341691507394,True,未知,未知,未知,未知,未知,未知,494830000.0,未知
9,002653,42042741.38999999,42059854.59,2016-03-31,一季度报告,20480490.28,2016,3,4.216836379848255,False,未知,未知,未知,未知,未知,未知,450926000.0,未知
10,002653,237611387.19,237645680.22000003,2016-06-30,半年度报告,135042053.47,2016,6,1.417869508382893,False,未知,未知,未知,未知,未知,未知,447700000.0,未知
11,002653,311567160.35000014,311629510.12,2016-09-30,三季度报告,188925065.67,2016,9,0.8704084252057264,False,未知,未知,未知,未知,未知,未知,441125000.0,未知
12,002653,436162582.4599999,442778890.98,2016-12-31,年度报告,245661931.00000003,2016,12,0.3951573889980106,True,0.2324740977296344,True,0.0,True,比例外推,442778890.98,543475600.0,543475600.0
13,002653,42349881.82,43163569.46,2017-03-31,一季度报告,21224596.84,2017,3,11.34978728179457,False,0.5349172734401548,True,0.09904191268012702,True,前期平均,293766283.91499996,未知,293766283.91499996
14,002653,134276402.57,135958903.24,2017-06-30,半年度报告,99201064.1,2017,6,1.1851600592475802,False,0.06459911168771895,True,0.054293877447357364,True,前期平均,285536412.135,未知,285536412.135
15,002653,197421188.14999995,203748221.05,2017-09-30,三季度报告,112700026.29,2017,9,0.666475094251697,False,0.01737491309667529,True,0.020582693621151726,True,前期平均,280846552.895,未知,280846552.895
16,002653,229103686.1,237553210.5300001,2017-12-31,年度报告,98625690.34,2017,12,0.19042516206125312,True,0.06032115549694947,True,0.0,True,比例外推,237553210.5300001,,237553210.5300001
17,002653,55384357.86000001,59765073.63,2018-03-31,一季度报告,-20714272.82,2018,3,11.260221058392556,False,0.40171227782118174,True,0.1059081740949801,False,前期平均,281869598.13500005,未知,281869598.13500005
18,002653,137388407.63000005,145364033.49,2018-06-30,半年度报告,52963430.99,2018,6,2.8667919528103583,False,0.40632120486888196,True,0.2885654987535805,False,前期平均,261180453.12000003,309500000.0,309500000.0
19,002653,292560454.17999995,303161093.96,2018-09-30,三季度报告,125861259.39000005,2018,9,1.6300060179736093,False,0.32982569355832864,True,0.2576653760468718,False,前期平均,369990088.345,,369990088.345
20,002653,317541586.31000006,333228517.17,2018-12-31,年度报告,131578464.76,2018,12,1.2663053648266904,False,0.4331365415474761,True,0.0,True,前期平均,333228517.17,322000000.0,333228517.17
21,002653,47172687.53,49822905.88,2019-03-31,一季度报告,34605052.23,2019,3,8.374829518155218,False,0.3125402613018269,True,0.20447674301178187,False,前期平均,201114172.99,479000000.0,479000000.0
22,002653,230431881.18,234834699.72,2019-06-30,半年度报告,108820077.84999996,2019,6,2.779204678667691,False,0.26112977401777837,True,0.35314579866597173,False,前期平均,289856951.605,489770000.0,489770000.0
23,002653,374143693.12,383193767.3,2019-09-30,三季度报告,241698307.01999995,2019,9,0.7747405894801724,False,0.14957623309917428,True,0.187054585444152,False,前期平均,404525031.99,479000000.0,479000000.0
24,002653,474850425.28999984,493891812.7900001,2019-12-31,年度报告,254651075.85,2019,12,0.6351209898004114,False,0.04536994789369458,True,0.0,True,前期平均,493891812.7900001,403000000.0,403000000.0
25,002653,118357625.38,128379959.11,2020-03-31,一季度报告,34848381.82,2020,3,10.006769808902598,False,0.0346742823302844,True,0.2219845551162482,False,前期平均,243226874.65,574000000.0,574000000.0
