,SECURITYCODE_x,NETPROFIT_x,PARENTNETPROFIT_x,REPORTDATE_x,REPORTTIMETYPE_x,KCFJCXSYJLR,Year,Month,managesituationChangeRate,managesituationGreatChange,historyprofitextroplaterate,ifhistoryprofitextroplate,IfprofitdisStableChangeRage,IfprofitdisStable,predicttype,predict,analyst_prediction,adj_prediction
0,002654,43784456.16,44449235.52,2013-12-31,年度报告,34986021.129999995,2013,12,未知,未知,未知,未知,未知,未知,未知,未知,未知,未知
1,002654,9073708.099999998,9458510.35,2014-03-31,一季度报告,8342767.17,2014,3,未知,未知,未知,未知,未知,未知,未知,未知,未知,未知
2,002654,24970047.69,25165828.29,2014-06-30,半年度报告,23398251.239999995,2014,6,未知,未知,未知,未知,未知,未知,未知,未知,未知,未知
3,002654,33563226.940000005,34113775.08,2014-09-30,三季度报告,31524100.91,2014,9,未知,未知,未知,未知,未知,未知,未知,未知,未知,未知
4,002654,39152637.6,40404898.47000001,2014-12-31,年度报告,36840872.4,2014,12,0.0,True,未知,未知,未知,未知,未知,未知,未知,未知
5,002654,2296969.85,2187421.2,2015-03-31,一季度报告,1358521.9399999995,2015,3,3.825420398965668,False,未知,未知,未知,未知,未知,未知,,未知
6,002654,20855436.67,20734688.6,2015-06-30,半年度报告,19346852.379999995,2015,6,0.7534790763549396,False,未知,未知,未知,未知,未知,未知,未知,未知
7,002654,33278526.250000004,33142354.64,2015-09-30,三季度报告,30871025.789999995,2015,9,0.3045365464492488,True,未知,未知,未知,未知,未知,未知,100000000.0,未知
8,002654,56662300.91000001,56480116.03,2015-12-31,年度报告,51355856.6,2015,12,0.11830157159067094,True,未知,未知,未知,未知,未知,未知,101220000.0,未知
9,002654,7955445.749999999,8295345.980000001,2016-03-31,一季度报告,7353369.5299999975,2016,3,18.061833206038813,False,未知,未知,未知,未知,未知,未知,177345000.0,未知
10,002654,62784581.98,63343813.85999999,2016-06-30,半年度报告,60405083.33,2016,6,1.0994264878175766,False,未知,未知,未知,未知,未知,未知,144990000.0,未知
11,002654,118664282.72,117351530.34,2016-09-30,三季度报告,112109752.82000002,2016,9,0.31569697020462234,True,未知,未知,未知,未知,未知,未知,155586667.0,未知
12,002654,145741258.04000002,143307100.75,2016-12-31,年度报告,137000365.39000002,2016,12,-0.22727359360952595,True,0.3663922460067648,True,0.0,True,比例外推,143307100.75,162980000.0,162980000.0
13,002654,26744252.88,26365685.39,2017-03-31,一季度报告,21837033.19,2017,3,4.503708721789725,False,0.3992913676708258,True,0.12426034579694684,False,前期平均,65613405.335,265000000.0,265000000.0
14,002654,78325407.66,76093728.93,2017-06-30,半年度报告,70564070.03,2017,6,-0.30262407140104053,True,1.740160103350842,True,0.15086666812827382,False,平均增速,198608286.89480424,,198608286.89480424
15,002654,135484287.43,131525686.7,2017-09-30,三季度报告,123031546.38000004,2017,9,-0.6310224512685615,True,2.550603539158904,False,0.15725341494619383,False,未知,未知,未知,未知
16,002654,141013308.65,136129590.14999998,2017-12-31,年度报告,-3504341.7799999993,2017,12,-0.6995740482219321,True,2.042140616200245,False,0.0,True,比例外推,136129590.14999998,,136129590.14999998
17,002654,55747727.02,55205534.22,2018-03-31,一季度报告,40889232.77,2018,3,0.6371538347494117,False,4.217161286360651,False,4.180990536031153,False,去年同期,29864159.25,352610000.0,352610000.0
18,002654,110144608.25999998,100727474.37,2018-06-30,半年度报告,95111423.62000002,2018,6,-0.440992936161119,True,0.872917030010729,True,13.696666932637132,False,平均增速,1886229.0705208331,,1886229.0705208331
19,002654,156275423.20000002,140347828.48999998,2018-09-30,三季度报告,148202395.25,2018,9,-0.6768300074455358,True,0.7833589934058728,True,23.87869116643227,False,平均增速,-19443775.464708686,未知,-19443775.464708686
20,002654,-1114923459.48,-1134077330.7199998,2018-12-31,年度报告,-990034265.03,2018,12,-0.6895012493560125,True,0.3933876398372487,True,0.0,True,比例外推,-1134077330.7199998,307380000.0,307380000.0
21,002654,29943626.52,33302794.86,2019-03-31,一季度报告,19070766.899999995,2019,3,-0.21459656742073224,True,2.213153382940491,False,4.158405891939196,False,未知,未知,未知,未知
22,002654,108672404.19,108254234.73000002,2019-06-30,半年度报告,63341313.26,2019,6,-0.6024820746863492,True,0.5611170908735953,True,13.539070178458715,False,平均增速,75854165657.38821,未知,75854165657.38821
23,002654,147705836.17000002,147770364.39000002,2019-09-30,三季度报告,95246194.48,2019,9,-0.7198250674134153,True,0.22979580886695786,True,23.628419807425786,False,平均增速,79612822294.83212,未知,79612822294.83212
24,002654,83655926.01,65651557.17999999,2019-12-31,年度报告,-70405469.63000001,2019,12,-1.0392712663705372,False,8.77615137815959,False,0.0,True,前期平均,65651557.17999999,未知,65651557.17999999
25,002654,-1925525.39,-3407281.8,2020-03-31,一季度报告,15630104.6,2020,3,0.4622295709825063,True,0.27402332793324075,True,4.050224352816469,False,平均增速,6191668167.091325,未知,6191668167.091325
