,SECURITYCODE_x,NETPROFIT_x,PARENTNETPROFIT_x,REPORTDATE_x,REPORTTIMETYPE_x,KCFJCXSYJLR,Year,Month,managesituationChangeRate,managesituationGreatChange,historyprofitextroplaterate,ifhistoryprofitextroplate,IfprofitdisStableChangeRage,IfprofitdisStable,predicttype,predict,analyst_prediction,adj_prediction
0,002668,195703234.9400001,195703234.9400001,2013-12-31,年度报告,158152180.01,2013,12,未知,未知,未知,未知,未知,未知,未知,未知,未知,未知
1,002668,38884931.93,38884931.93,2014-03-31,一季度报告,47963252.85,2014,3,未知,未知,未知,未知,未知,未知,未知,未知,未知,未知
2,002668,116941844.41,116941844.41,2014-06-30,半年度报告,122869665.8,2014,6,未知,未知,未知,未知,未知,未知,未知,未知,未知,未知
3,002668,170452515.57000002,170452515.57000002,2014-09-30,三季度报告,153988173.45999995,2014,9,未知,未知,未知,未知,未知,未知,未知,未知,未知,未知
4,002668,203148039.71000007,203148039.71000007,2014-12-31,年度报告,184013751.85,2014,12,0.0,True,未知,未知,未知,未知,未知,未知,未知,未知
5,002668,28697376.759999994,28697376.759999994,2015-03-31,一季度报告,13617962.489999995,2015,3,4.03288099596784,False,未知,未知,未知,未知,未知,未知,未知,未知
6,002668,131370256.03999998,131370256.03999998,2015-06-30,半年度报告,98295039.62,2015,6,0.6735090499672759,False,未知,未知,未知,未知,未知,未知,未知,未知
7,002668,201754282.88000005,201754282.88000005,2015-09-30,三季度报告,186681599.04,2015,9,0.1481393177775092,True,未知,未知,未知,未知,未知,未知,263850000.0,未知
8,002668,267033845.0300001,267033845.0300001,2015-12-31,年度报告,241781974.91000003,2015,12,-0.03664718980615153,True,未知,未知,未知,未知,未知,未知,269058333.0,未知
9,002668,59854379.98000001,41810762.89999999,2016-03-31,一季度报告,41227341.62000001,2016,3,5.819551367941831,False,未知,未知,未知,未知,未知,未知,388055000.0,未知
10,002668,207297921.48,170861468.00000003,2016-06-30,半年度报告,169365666.75,2016,6,0.4897073419755826,True,未知,未知,未知,未知,未知,未知,330822000.0,未知
11,002668,332979998.11000013,271681350.04,2016-09-30,三季度报告,267936243.86,2016,9,-0.029992165983405795,True,未知,未知,未知,未知,未知,未知,340067500.0,未知
12,002668,392490906.5,304836370.47,2016-12-31,年度报告,284207020.29999995,2016,12,-0.2671219825411506,True,0.33901462526014264,True,0.0,True,比例外推,304836370.47,344375714.0,344375714.0
13,002668,56070573.65000001,48195875.45,2017-03-31,一季度报告,46230921.90000001,2017,3,2.269656038628972,False,0.7713032046464116,True,0.10663882455967164,False,前期平均,230303131.15999997,492627273.0,492627273.0
14,002668,206531736.2800001,187761198.91000003,2017-06-30,半年度报告,190884445.71,2017,6,-0.05593247851796986,True,0.6696562197680045,True,0.15018512323235977,False,平均增速,323949054.99391127,472921667.0,472921667.0
15,002668,319317592.06,300232672.19,2017-09-30,三季度报告,307416523.02000004,2017,9,-0.4122672951804468,True,0.7892203984271426,True,0.09218788212827289,True,比例外推,354243516.5337217,417107500.0,417107500.0
16,002668,398893744.3999999,381492002.29,2017-12-31,年度报告,369797671.25,2017,12,-0.5013814799299049,True,0.6695279815684032,True,0.0,True,比例外推,381492002.29,421097143.0,381492002.29
17,002668,85876861.68999998,87744436.61999999,2018-03-31,一季度报告,51955676.09,2018,3,2.4903019926567143,False,0.2663909946954714,True,0.05247704140065355,True,前期平均,323316282.16999996,757683333.0,757683333.0
18,002668,264581176.2,266558509.51000005,2018-06-30,半年度报告,267965497.89,2018,6,-0.05243020532844183,True,0.21967016678325735,True,0.09967384228430554,True,比例外推,527941077.41765,430000000.0,430000000.0
19,002668,266871682.39,271976861.44000006,2018-09-30,三季度报告,524739451.6099999,2018,9,-0.3871204098794929,True,0.1943038006421414,True,0.09402776453359285,True,比例外推,365507163.4649148,,365507163.4649148
20,002668,-1914549528.6,-1902545615.66,2018-12-31,年度报告,-1837631175.55,2018,12,-0.5093850488069972,True,0.2096399520249249,True,0.0,True,比例外推,-1902545615.66,,-1902545615.66
21,002668,91135030.12,91294470.39,2019-03-31,一季度报告,79097513.39000003,2019,3,1.278882007198325,False,0.48159406583150105,True,0.10887470483352335,False,前期平均,374567684.4049999,未知,374567684.4049999
22,002668,297466825.77,297340369.56,2019-06-30,半年度报告,279047244.02,2019,6,-0.2603281996446121,True,0.27869605881869125,True,0.4679173563514469,False,平均增速,1131905124.0817213,未知,1131905124.0817213
23,002668,298857032.17,298971803.29,2019-09-30,三季度报告,272170631.8899999,2019,9,-0.2666766545354033,True,0.18174867909461817,True,0.7817215111620968,False,平均增速,1852689259.1225839,未知,1852689259.1225839
24,002668,42195437.07,53288549.27000001,2019-12-31,年度报告,17367899.419999998,2019,12,-1.1022189460322327,False,5.838480317814312,False,0.0,True,前期平均,53288549.27000001,未知,53288549.27000001
25,002668,46146529.59000001,6406654.210000001,2020-03-31,一季度报告,2132745.17,2020,3,1.1473985873742758,False,0.28406730141631037,True,3.003909482782685,False,前期平均,-776603396.935,未知,-776603396.935
