,SECURITYCODE_x,NETPROFIT_x,PARENTNETPROFIT_x,REPORTDATE_x,REPORTTIMETYPE_x,KCFJCXSYJLR,Year,Month,managesituationChangeRate,managesituationGreatChange,historyprofitextroplaterate,ifhistoryprofitextroplate,IfprofitdisStableChangeRage,IfprofitdisStable,predicttype,predict,analyst_prediction,adj_prediction
0,002609,72239336.63000003,72262852.19000001,2013-12-31,年度报告,67902901.92999999,2013,12,未知,未知,未知,未知,未知,未知,未知,未知,未知,未知
1,002609,-3277427.4800000004,-2147124.97,2014-03-31,一季度报告,-2241011.06,2014,3,未知,未知,未知,未知,未知,未知,未知,未知,未知,未知
2,002609,23726101.9,25712168.14,2014-06-30,半年度报告,25075025.799999993,2014,6,未知,未知,未知,未知,未知,未知,未知,未知,未知,未知
3,002609,54740811.38,58210607.88999999,2014-09-30,三季度报告,57066890.53,2014,9,未知,未知,未知,未知,未知,未知,未知,未知,未知,未知
4,002609,97975824.93,99634831.19,2014-12-31,年度报告,97861161.71000002,2014,12,0.0,True,未知,未知,未知,未知,未知,未知,未知,未知
5,002609,831061.9000000001,2155917.8300000005,2015-03-31,一季度报告,1860877.66,2015,3,-23.041475233496246,False,未知,未知,未知,未知,未知,未知,137393333.0,未知
6,002609,29378544.5,31878822.26,2015-06-30,半年度报告,31182970.2,2015,6,2.044719985376107,False,未知,未知,未知,未知,未知,未知,136392112.0,未知
7,002609,77310088.05000001,79766467.99000002,2015-09-30,三季度报告,77783135.44,2015,9,0.3196614154753514,True,未知,未知,未知,未知,未知,未知,137336667.0,未知
8,002609,144765413.14,144295053.44,2015-12-31,年度报告,142283027.32999998,2015,12,-0.26268202710605115,True,未知,未知,未知,未知,未知,未知,129126000.0,未知
9,002609,4383947.41,6234742.38,2016-03-31,一季度报告,5784600.590000003,2016,3,85.92413480873087,False,未知,未知,未知,未知,未知,未知,192893344.0,未知
10,002609,47459047.78,46768312.48,2016-06-30,半年度报告,45852792.66999999,2016,6,1.4589147576729005,False,未知,未知,未知,未知,未知,未知,194780684.0,未知
11,002609,110696773.13,108701821.49000002,2016-09-30,三季度报告,107624910.54,2016,9,-0.06558977680533098,True,未知,未知,未知,未知,未知,未知,198026405.0,未知
12,002609,183226085.39,182122975.18,2016-12-31,年度报告,171909740.08999997,2016,12,-0.5009903604520599,True,0.700969664667279,True,0.0,True,比例外推,182122975.18,198026405.0,182122975.18
13,002609,7384738.499999999,8863582.81,2017-03-31,一季度报告,8574463.75,2017,3,15.478148543757285,False,-4.5840492899675285,True,0.030842522029076273,True,前期平均,129125744.03,234126250.0,234126250.0
14,002609,57041650.69,56681639.03999999,2017-06-30,半年度报告,55073283.00000001,2017,6,0.5221404560173841,False,0.7873783556536402,True,0.02821115661250559,True,前期平均,148624735.56,233763636.0,233763636.0
15,002609,122561906.40999998,121861796.25,2017-09-30,三季度报告,119660526.91000004,2017,9,-0.3474124440360728,True,0.6765773441578139,True,0.04076307056879225,True,比例外推,206647239.9653576,220863332.99999997,206647239.9653576
16,002609,211196796.15,208883993.65,2017-12-31,年度报告,199687011.34,2017,12,-0.6057366150881993,True,0.5096411870253587,True,0.0,True,比例外推,208883993.65,218795000.0,208883993.65
17,002609,-26186770.9,-25070839.54000001,2018-03-31,一季度报告,-31391487.15,2018,3,8.782247080245297,False,1.8321094214882614,True,0.016810388162573776,True,盈利变化,155596059.11666667,257380000.0,257380000.0
18,002609,39762628.65,38786821.33000001,2018-06-30,半年度报告,33695652.379999995,2018,6,0.26643138401786015,True,0.48473290214866155,True,0.03473362552299464,True,比例外推,137805983.29222745,174805000.0,174805000.0
19,002609,51105948.76,49712126.89,2018-09-30,三季度报告,38144554.08000001,2018,9,-0.41058899338313554,True,0.3038024850875815,True,0.043979092117963914,True,比例外推,76147332.343869,,76147332.343869
20,002609,96570519.64000002,94596496.72,2018-12-31,年度报告,74889470.2,2018,12,-0.6579524976378293,True,0.28781872150069,True,0.0,True,比例外推,94596496.72,270320000.0,270320000.0
21,002609,-15438379.28,-16895435.640000004,2019-03-31,一季度报告,-20523042.08,2019,3,-3.7586194917220603,False,5.450245524480991,False,0.3049767957967548,False,去年同期,89385521.71,178000000.0,178000000.0
22,002609,51145585.15000001,51326509.09,2019-06-30,半年度报告,44663614.81999999,2019,6,0.8167646124673407,False,0.2389978395902295,True,0.11911763673183479,False,前期平均,186661846.97,157520000.0,157520000.0
23,002609,70983960.55000001,70003725.11000001,2019-09-30,三季度报告,60338685.93999999,2019,9,0.41352109456464825,True,0.561808813624565,True,0.0688685953766881,True,比例外推,114018722.02583855,158260000.0,158260000.0
24,002609,142590222.67000002,142328015.08,2019-12-31,年度报告,129056231.35,2019,12,-0.2519524913058652,True,0.5103198918736847,True,0.0,True,比例外推,142328015.08,156008000.0,142328015.08
25,002609,-18664531.76,-19155183.8,2020-03-31,一季度报告,-22290021.19,2020,3,-5.679204683329948,False,-0.6422032418154966,True,0.24075243337505003,False,前期平均,129541568.67,194326667.00000003,194326667.00000003
