,SECURITYCODE_x,NETPROFIT_x,PARENTNETPROFIT_x,REPORTDATE_x,REPORTTIMETYPE_x,KCFJCXSYJLR,Year,Month,managesituationChangeRate,managesituationGreatChange,historyprofitextroplaterate,ifhistoryprofitextroplate,IfprofitdisStableChangeRage,IfprofitdisStable,predicttype,predict,analyst_prediction,adj_prediction
0,002669,40236259.62000001,40236259.62000001,2013-12-31,年度报告,36954685.15,2013,12,未知,未知,未知,未知,未知,未知,未知,未知,未知,未知
1,002669,8315926.810000001,8315926.810000001,2014-03-31,一季度报告,8215376.069999997,2014,3,未知,未知,未知,未知,未知,未知,未知,未知,未知,未知
2,002669,23214597.190000005,23214597.190000005,2014-06-30,半年度报告,22826550.21,2014,6,未知,未知,未知,未知,未知,未知,未知,未知,未知,未知
3,002669,45602090.95,45602090.95,2014-09-30,三季度报告,45380284.45,2014,9,未知,未知,未知,未知,未知,未知,未知,未知,未知,未知
4,002669,69908258.63000001,69908258.63000001,2014-12-31,年度报告,70137777.24000001,2014,12,0.0,True,未知,未知,未知,未知,未知,未知,未知,未知
5,002669,30199899.960000005,30199899.960000005,2015-03-31,一季度报告,29801922.85,2015,3,3.8384576415000944,False,未知,未知,未知,未知,未知,未知,未知,未知
6,002669,59069294.69,59069294.69,2015-06-30,半年度报告,58549175.28,2015,6,0.7332310050734937,False,未知,未知,未知,未知,未知,未知,110350000.0,未知
7,002669,88249419.34,88249419.34,2015-09-30,三季度报告,86295934.11000001,2015,9,-0.11766634420082421,True,未知,未知,未知,未知,未知,未知,113766667.0,未知
8,002669,112544189.0,112544189.0,2015-12-31,年度报告,110713440.05999996,2015,12,-0.4244419699687203,True,未知,未知,未知,未知,未知,未知,116160000.0,未知
9,002669,29408445.51,29408445.51,2016-03-31,一季度报告,29241624.81,2016,3,0.33233089093981244,True,未知,未知,未知,未知,未知,未知,,未知
10,002669,48954295.76999999,48954295.76999999,2016-06-30,半年度报告,47476397.22000001,2016,6,-0.318829523339277,True,未知,未知,未知,未知,未知,未知,121638000.0,未知
11,002669,67219155.14,67219155.14,2016-09-30,三季度报告,64902959.56999999,2016,9,-0.5440620468562959,True,未知,未知,未知,未知,未知,未知,99263333.0,未知
12,002669,82625109.26,82625109.26,2016-12-31,年度报告,78978575.89999999,2016,12,-0.6424847877307996,True,1.0435731307944591,True,0.0,True,比例外推,82625109.26,99263333.0,99263333.0
13,002669,23659193.01,23659193.01,2017-03-31,一季度报告,23064430.93,2017,3,0.36818723064835707,True,0.5270836939637632,True,0.1350547766530607,False,平均增速,71771993.81443942,122270000.0,122270000.0
14,002669,38080046.16,38080046.16,2017-06-30,半年度报告,37018095.62,2017,6,-0.17808521219383028,True,0.18988770831095966,True,0.15968645632144746,False,平均增速,68411174.95197755,70000000.0,68411174.95197755
15,002669,48976919.98000001,48993007.95,2017-09-30,三季度报告,41728673.08000001,2017,9,-0.4014167607998292,True,0.004383962412741145,True,0.1023999430068323,False,平均增速,61582777.2182639,70000000.0,70000000.0
16,002669,43436876.13999999,43778289.46,2017-12-31,年度报告,29157559.25,2017,12,-0.51302624613316,True,0.09428335620295336,True,0.0,True,比例外推,43778289.46,69080000.0,69080000.0
17,002669,9725910.489999996,9921019.26,2018-03-31,一季度报告,8736595.99,2018,3,0.7006606946819108,False,0.206178503246418,True,0.31420890336911894,False,前期平均,75245253.40999998,,75245253.40999998
18,002669,39039781.39,39552964.21,2018-06-30,半年度报告,36373337.79,2018,6,0.05662318398828369,True,0.2949679602789977,True,0.4697370646430218,False,平均增速,33563807.86573019,136190000.0,136190000.0
19,002669,59769411.10000001,60267872.28000001,2018-09-30,三季度报告,56349992.74,2018,9,-0.178464884348981,True,0.36994443869039834,True,0.4203520258063298,False,平均增速,48377723.2721588,138000000.0,138000000.0
20,002669,79748142.46,80442802.80999999,2018-12-31,年度报告,76267983.83000001,2018,12,-0.07368431628656207,True,0.5548800295204792,True,0.0,True,比例外推,80442802.80999999,120345000.0,120345000.0
21,002669,26036725.539999995,26218330.469999995,2019-03-31,一季度报告,26004611.279999994,2019,3,3.1370172655167043,False,0.6334522974360534,True,0.3657520444710066,False,前期平均,54133370.175,135500000.0,135500000.0
22,002669,58051730.53,58665966.87000002,2019-06-30,半年度报告,51747796.59,2019,6,0.03064766726143831,True,0.10288788254643357,True,0.48704386501829233,False,平均增速,116815125.4952415,100670000.0,100670000.0
23,002669,89305307.67000002,90168991.65,2019-09-30,三季度报告,83139523.57999998,2019,9,-0.32680849820185015,True,0.028768158275121032,True,0.433889046023362,False,平均增速,119725939.1743507,137103333.0,137103333.0
24,002669,138579957.66000003,139961738.71,2019-12-31,年度报告,128552955.71000002,2019,12,-0.4954583470056161,True,0.2652211085991668,True,0.0,True,比例外推,139961738.71,,139961738.71
25,002669,22018675.610000007,22081838.270000003,2020-03-31,一季度报告,19807905.39,2020,3,0.5453655859368873,False,0.5597810286854432,True,0.42173884628501146,False,前期平均,58894096.35000002,159165000.0,159165000.0
