,SECURITYCODE_x,NETPROFIT_x,PARENTNETPROFIT_x,REPORTDATE_x,REPORTTIMETYPE_x,KCFJCXSYJLR,Year,Month,managesituationChangeRate,managesituationGreatChange,historyprofitextroplaterate,ifhistoryprofitextroplate,IfprofitdisStableChangeRage,IfprofitdisStable,predicttype,predict,analyst_prediction,adj_prediction
0,002682,92374045.52,72302161.53999999,2013-12-31,年度报告,33222970.95,2013,12,未知,未知,未知,未知,未知,未知,未知,未知,未知,未知
1,002682,13892749.53,10818709.6,2014-03-31,一季度报告,9008594.49,2014,3,未知,未知,未知,未知,未知,未知,未知,未知,未知,未知
2,002682,30583279.840000004,22368926.75,2014-06-30,半年度报告,18693029.55,2014,6,未知,未知,未知,未知,未知,未知,未知,未知,未知,未知
3,002682,51270321.22,37971272.67999999,2014-09-30,三季度报告,29767824.28,2014,9,未知,未知,未知,未知,未知,未知,未知,未知,未知,未知
4,002682,34105694.64,20595814.140000004,2014-12-31,年度报告,7732482.499999999,2014,12,0.0,True,未知,未知,未知,未知,未知,未知,未知,未知
5,002682,16679667.47,10842164.329999998,2015-03-31,一季度报告,7806343.01,2015,3,5.649083057355026,False,未知,未知,未知,未知,未知,未知,36770000.0,未知
6,002682,35702884.15000001,22656215.56,2015-06-30,半年度报告,15892688.66,2015,6,2.0204100411488106,False,未知,未知,未知,未知,未知,未知,,未知
7,002682,48023650.24999999,33619354.95,2015-09-30,三季度报告,25058177.59,2015,9,0.8017060030426701,False,未知,未知,未知,未知,未知,未知,未知,未知
8,002682,56719866.00999999,44782025.24000001,2015-12-31,年度报告,11598928.05,2015,12,1.7084639821896908,False,未知,未知,未知,未知,未知,未知,未知,未知
9,002682,12569332.21,10929038.67,2016-03-31,一季度报告,9421165.7,2016,3,4.538122728534227,False,未知,未知,未知,未知,未知,未知,未知,未知
10,002682,30166329.92,22212511.219999995,2016-06-30,半年度报告,4940414.93,2016,6,1.587299253805521,False,未知,未知,未知,未知,未知,未知,145900000.0,未知
11,002682,39757221.56,29331704.03,2016-09-30,三季度报告,7185045.59,2016,9,0.9235115414826263,False,未知,未知,未知,未知,未知,未知,,未知
12,002682,68528011.25,50312477.26000001,2016-12-31,年度报告,26802459.24,2016,12,0.6286012647440669,False,0.10309958040318618,True,0.0,True,前期平均,50312477.26000001,未知,50312477.26000001
13,002682,16927145.439999998,12825972.0,2017-03-31,一季度报告,7621451.11,2017,3,6.349160955942304,False,0.17773382392370216,True,0.43517956685833037,False,前期平均,14084208.524999999,177026021.0,177026021.0
14,002682,63335561.93999999,54730202.74,2017-06-30,半年度报告,49559630.24,2017,6,2.06215723838374,False,0.0898151860303481,True,1.139666734438451,False,前期平均,47103048.910000004,194500000.0,194500000.0
15,002682,127391804.86,107047927.34000003,2017-09-30,三季度报告,100065560.15999998,2017,9,1.3234532468671836,False,0.19920170436506354,True,1.8246501011594198,False,前期平均,89300631.68000004,181470000.0,181470000.0
16,002682,201482921.39,167197736.63,2017-12-31,年度报告,154375497.9,2017,12,0.34797499351040917,True,0.5090027688147281,True,0.0,True,比例外推,167197736.63,182205000.0,167197736.63
17,002682,38975423.11,19089258.99,2018-03-31,一季度报告,-5389096.96,2018,3,4.45715435880369,False,0.15745123766229244,True,0.3150574175957757,False,前期平均,29676198.279999997,258000000.0,258000000.0
18,002682,105069103.32,72115582.92999999,2018-06-30,半年度报告,43995208.35,2018,6,0.45848623886070805,True,0.9230702182871809,True,0.7450040126256395,False,平均增速,330118976.2716149,,330118976.2716149
19,002682,118949505.16,91334296.99,2018-09-30,三季度报告,55049209.99999999,2018,9,-0.27488235509720216,True,1.9024957768871809,True,1.1348349134391362,False,平均增速,215850480.4719893,未知,215850480.4719893
20,002682,249937019.00000003,167339588.18,2018-12-31,年度报告,132335202.25999998,2018,12,-0.5415291535246485,True,2.217346685592841,False,0.0,True,比例外推,167339588.18,,167339588.18
21,002682,10671181.98,10173173.66,2019-03-31,一季度报告,9869014.77,2019,3,1.370058825514056,False,1.6427171116819774,True,0.2314536907417199,False,前期平均,92240843.825,未知,92240843.825
22,002682,48795316.78,51053493.06,2019-06-30,半年度报告,45692135.48,2019,6,-0.12082579368109524,True,1.2474219768156039,True,0.0949439841965855,True,比例外推,168973584.11869875,未知,168973584.11869875
23,002682,64929389.40000001,58089485.47000001,2019-09-30,三季度报告,53558630.88999999,2019,9,-0.22341799240150786,True,0.4232748788032095,True,0.2041115018286293,False,平均增速,223536114.03894943,未知,223536114.03894943
24,002682,177590376.18,121987647.00000004,2019-12-31,年度报告,81805603.88000003,2019,12,-0.6304107095075819,True,0.8513103640380066,True,0.0,True,比例外推,121987647.00000004,未知,121987647.00000004
25,002682,-14699070.58,-15200008.340000002,2020-03-31,一季度报告,-23506666.21,2020,3,7.656402420381176,False,0.618222122639837,True,0.083818520387869,True,盈利变化,77486739.0266667,未知,77486739.0266667
