,SECURITYCODE_x,NETPROFIT_x,PARENTNETPROFIT_x,REPORTDATE_x,REPORTTIMETYPE_x,KCFJCXSYJLR,Year,Month,managesituationChangeRate,managesituationGreatChange,historyprofitextroplaterate,ifhistoryprofitextroplate,IfprofitdisStableChangeRage,IfprofitdisStable,predicttype,predict,analyst_prediction,adj_prediction
0,002667,58618539.84999999,58618579.97999999,2013-12-31,年度报告,50080694.99,2013,12,未知,未知,未知,未知,未知,未知,未知,未知,未知,未知
1,002667,13300788.22,13300788.22,2014-03-31,一季度报告,11281228.64,2014,3,未知,未知,未知,未知,未知,未知,未知,未知,未知,未知
2,002667,23773543.29,23773543.29,2014-06-30,半年度报告,19627890.040000007,2014,6,未知,未知,未知,未知,未知,未知,未知,未知,未知,未知
3,002667,34413277.6,34413277.6,2014-09-30,三季度报告,28405997.24,2014,9,未知,未知,未知,未知,未知,未知,未知,未知,未知,未知
4,002667,46823666.88,46825550.44,2014-12-31,年度报告,38407941.38999999,2014,12,0.0,True,未知,未知,未知,未知,未知,未知,未知,未知
5,002667,9930624.69,9950061.99,2015-03-31,一季度报告,8604160.93,2015,3,3.4071478231535957,False,未知,未知,未知,未知,未知,未知,未知,未知
6,002667,12219651.659999998,12266333.19,2015-06-30,半年度报告,9075667.45,2015,6,1.4657048019702237,False,未知,未知,未知,未知,未知,未知,未知,未知
7,002667,19110935.89,19217136.540000007,2015-09-30,三季度报告,14913559.42,2015,9,0.703369860068196,False,未知,未知,未知,未知,未知,未知,150000000.0,未知
8,002667,6039883.36,6228780.98,2015-12-31,年度报告,-1239778.36,2015,12,0.2518998138319231,True,未知,未知,未知,未知,未知,未知,未知,未知
9,002667,939706.74,1016160.84,2016-03-31,一季度报告,335181.52,2016,3,4.902804876819888,False,未知,未知,未知,未知,未知,未知,307000000.0,未知
10,002667,-8176470.4300000025,-7985270.369999999,2016-06-30,半年度报告,-9378683.9,2016,6,3.797071265286788,False,未知,未知,未知,未知,未知,未知,,未知
11,002667,-11031088.319999997,-10712135.98,2016-09-30,三季度报告,-12682325.37,2016,9,2.067277300672269,False,未知,未知,未知,未知,未知,未知,未知,未知
12,002667,-23623234.17,-23222157.49,2016-12-31,年度报告,-26817887.96,2016,12,8.705243687023781,False,0.8854370835491713,True,0.0,True,盈利变化,-2297255.5533333328,355000000.0,355000000.0
13,002667,8588733.829999998,8646769.230000002,2017-03-31,一季度报告,6995213.260000003,2017,3,61.37960988765494,False,0.9191003368034062,True,4.720460902431377,False,前期平均,17288155.96,446000000.0,446000000.0
14,002667,14633782.42,14746013.06,2017-06-30,半年度报告,13638521.1,2017,6,-8.169174077230775,False,1.4543342396449306,True,5.167181660758027,False,前期平均,18978315.829999994,,18978315.829999994
15,002667,24387093.01999999,24494652.129999995,2017-09-30,三季度报告,21835109.270000003,2017,9,-6.313939853397893,False,1.4121905807008617,True,8.423640118812818,False,前期平均,21418955.31499999,未知,21418955.31499999
16,002667,22951636.270000003,23161478.97,2017-12-31,年度报告,17692812.69,2017,12,-3.4813935055701126,False,1.8937437634343797,True,0.0,True,前期平均,23161478.97,未知,23161478.97
17,002667,9167433.1,9288464.27,2018-03-31,一季度报告,6442848.049999999,2018,3,5.825050235606149,False,0.5802156328549034,True,4.7543439296438335,False,前期平均,-9210040.114999998,未知,-9210040.114999998
18,002667,13876083.21,14164361.080000006,2018-06-30,半年度报告,8257390.2799999975,2018,6,3.005699836693348,False,6.238746713315156,False,5.2537862092196175,False,去年同期,18218652.67000001,未知,18218652.67000001
19,002667,18309868.950000007,18785618.6,2018-09-30,三季度报告,9884078.46,2018,9,1.4036706548798825,False,5.036523042971211,False,8.588485640239597,False,去年同期,14643322.02,未知,14643322.02
20,002667,11334030.2,12601108.34,2018-12-31,年度报告,5744721.38,2018,12,1.5540026497640196,False,-3.6106100615301324,True,0.0,True,前期平均,12601108.34,未知,12601108.34
21,002667,11604544.88,11772731.070000002,2019-03-31,一季度报告,8769611.1,2019,3,5.394215175674419,False,0.9242252775051943,True,0.6200592965580767,False,前期平均,3544996.045000002,未知,3544996.045000002
22,002667,16074327.209999995,16258269.869999995,2019-06-30,半年度报告,10916966.35,2019,6,3.2244298310171335,False,3.2977893065996975,False,0.5847354849502907,False,去年同期,13745600.969999999,未知,13745600.969999999
23,002667,22080223.470000006,22266712.76,2019-09-30,三季度报告,13045645.409999995,2019,9,2.2014723868354045,False,1.7418182849246853,True,0.6696206305925562,False,前期平均,13127783.175,未知,13127783.175
24,002667,10735525.16,10952154.9,2019-12-31,年度报告,4140692.8700000006,2019,12,4.171906093032996,False,-34.752428945951216,True,0.0,True,前期平均,10952154.9,未知,10952154.9
25,002667,-1772433.46,-1809308.66,2020-03-31,一季度报告,-3945672.0400000005,2020,3,4.051343284563176,False,0.30710022334758497,True,0.9063076550569407,False,盈利变化,-6001555.953333335,未知,-6001555.953333335
