,SECURITYCODE_x,NETPROFIT_x,PARENTNETPROFIT_x,REPORTDATE_x,REPORTTIMETYPE_x,KCFJCXSYJLR,Year,Month,managesituationChangeRate,managesituationGreatChange,historyprofitextroplaterate,ifhistoryprofitextroplate,IfprofitdisStableChangeRage,IfprofitdisStable,predicttype,predict,analyst_prediction,adj_prediction
0,002648,500135991.9500001,500135991.9500001,2013-12-31,年度报告,482074244.3399999,2013,12,未知,未知,未知,未知,未知,未知,未知,未知,未知,未知
1,002648,90796628.08,90796628.08,2014-03-31,一季度报告,86906966.6,2014,3,未知,未知,未知,未知,未知,未知,未知,未知,未知,未知
2,002648,183252596.81000003,183252596.81000003,2014-06-30,半年度报告,177126214.43000004,2014,6,未知,未知,未知,未知,未知,未知,未知,未知,未知,未知
3,002648,226534783.15000004,226534783.15000004,2014-09-30,三季度报告,214755489.32,2014,9,未知,未知,未知,未知,未知,未知,未知,未知,未知,未知
4,002648,32555111.590000004,32555111.590000004,2014-12-31,年度报告,17838111.35,2014,12,0.0,True,未知,未知,未知,未知,未知,未知,未知,未知
5,002648,-148427094.9,-148427094.9,2015-03-31,一季度报告,-160289758.39,2015,3,4.508310193076062,False,未知,未知,未知,未知,未知,未知,437905000.0,未知
6,002648,-114563308.17999996,-114563308.17999996,2015-06-30,半年度报告,-127956199.90999998,2015,6,1.7292163966906902,False,未知,未知,未知,未知,未知,未知,138395341.0,未知
7,002648,-225335908.06,-225335908.06,2015-09-30,三季度报告,-244319394.15000004,2015,9,1.2077668823989602,False,未知,未知,未知,未知,未知,未知,136864790.0,未知
8,002648,-436738489.03,-436515975.07000005,2015-12-31,年度报告,-454949993.91,2015,12,14.362748506247712,False,未知,未知,未知,未知,未知,未知,733580000.0,未知
9,002648,2362099.85,2825677.06,2016-03-31,一季度报告,3163690.23,2016,3,-4.369573407651464,False,未知,未知,未知,未知,未知,未知,244045000.0,未知
10,002648,13728778.550000004,15222745.03,2016-06-30,半年度报告,13898863.3,2016,6,-5.365586154025815,False,未知,未知,未知,未知,未知,未知,203400000.0,未知
11,002648,96258116.87,99094269.34,2016-09-30,三季度报告,93458612.86,2016,9,-3.2195130649875354,False,未知,未知,未知,未知,未知,未知,172282500.0,未知
12,002648,307022435.95000017,311564619.78000003,2016-12-31,年度报告,300311159.79,2016,12,-2.145161245258705,False,2.6397438820646832,False,0.0,True,前期平均,311564619.78000003,167899091.0,167899091.0
13,002648,290002850.92,291694500.56999993,2017-03-31,一季度报告,293200869.74,2017,3,210.733636895155,False,-1.0819739967534068,True,3.1270354726107525,False,前期平均,109829955.18499994,750167967.0000001,750167967.0000001
14,002648,480332499.6700001,484178861.49,2017-06-30,半年度报告,483038653.22,2017,6,35.42975157101649,False,0.600264354928726,True,6.510588827763652,False,前期平均,241037912.95,980317778.0,980317778.0
15,002648,690603991.9699999,695522761.52,2017-09-30,三季度报告,716279606.3399999,2017,9,4.195779932257053,False,159.5807271714976,False,7.743348641513271,False,去年同期,902375308.45,1011533636.0,1011533636.0
16,002648,935104064.34,942456845.41,2017-12-31,年度报告,1016437093.68,2017,12,0.6289884170922585,False,-2.519223466806608,True,0.0,True,前期平均,942456845.41,1007030909.0,942456845.41
17,002648,111478531.67000002,113141367.19,2018-03-31,一季度报告,115866158.56000002,2018,3,0.7245899147659319,False,-4.970874073158024,True,0.20657130828995435,False,前期平均,114384984.20999998,1102399286.0,1102399286.0
18,002648,323121182.11,326659936.27000016,2018-06-30,半年度报告,324479187.34000003,2018,6,0.04122871613643779,True,-10.527143160830358,True,0.22130584780520407,False,平均增速,1311873766.3563015,904924545.0000001,904924545.0000001
19,002648,618265374.3000001,622824466.37,2018-09-30,三季度报告,623138542.0600001,2018,9,-0.2757991587576485,True,-11.700585834374007,True,0.2064364377515348,False,平均增速,1206979051.2722313,928016500.0,928016500.0
20,002648,935394651.3,940627801.89,2018-12-31,年度报告,888614589.36,2018,12,-0.46515472339113617,True,-15.417707633507675,True,0.0,True,比例外推,940627801.89,925366500.0,940627801.89
21,002648,217317372.33000004,219609533.81000003,2019-03-31,一季度报告,229110685.59,2019,3,3.486388405531822,False,0.23740153273229508,True,0.14533149917606672,False,前期平均,729801380.5600001,1353206957.0,1353206957.0
22,002648,553599522.4700001,556715147.7299999,2019-06-30,半年度报告,553820483.5500001,2019,6,0.5478279346593223,False,0.30802067012471956,True,0.24927199404740474,False,前期平均,966620516.2049999,1354037778.0,1354037778.0
23,002648,917688866.28,922058570.25,2019-09-30,三季度报告,916276726.24,2019,9,-0.19106582263926072,True,0.5714706995141834,True,0.26117728217191166,False,平均增速,1399895678.3445632,1346086667.0,1399895678.3445632
24,002648,1267268211.2899995,1272746060.2300005,2019-12-31,年度报告,1275936260.17,2019,12,-0.4653208768567179,True,0.5061181789159359,True,0.0,True,比例外推,1272746060.2300005,1327252727.0,1272746060.2300005
25,002648,38461302.52000001,40227720.49,2020-03-31,一季度报告,8478281.799999999,2020,3,1.3014082426440132,False,0.08257758269169073,True,0.08898880217734917,True,前期平均,788220047.86,1393034782.9999998,1393034782.9999998
