,SECURITYCODE_x,NETPROFIT_x,PARENTNETPROFIT_x,REPORTDATE_x,REPORTTIMETYPE_x,KCFJCXSYJLR,Year,Month,managesituationChangeRate,managesituationGreatChange,historyprofitextroplaterate,ifhistoryprofitextroplate,IfprofitdisStableChangeRage,IfprofitdisStable,predicttype,predict,analyst_prediction,adj_prediction
0,002623,61597939.42,61597939.42,2013-12-31,年度报告,47725330.92999999,2013,12,未知,未知,未知,未知,未知,未知,未知,未知,未知,未知
1,002623,15989838.88,15989838.88,2014-03-31,一季度报告,13158627.8,2014,3,未知,未知,未知,未知,未知,未知,未知,未知,未知,未知
2,002623,19031189.68,19031189.68,2014-06-30,半年度报告,11631756.73,2014,6,未知,未知,未知,未知,未知,未知,未知,未知,未知,未知
3,002623,23473409.21,23473409.21,2014-09-30,三季度报告,12109037.7,2014,9,未知,未知,未知,未知,未知,未知,未知,未知,未知,未知
4,002623,37823936.53,37823936.53,2014-12-31,年度报告,21346069.33,2014,12,0.0,True,未知,未知,未知,未知,未知,未知,未知,未知
5,002623,19647435.89,19647435.89,2015-03-31,一季度报告,18223177.91,2015,3,2.8523177051550124,False,未知,未知,未知,未知,未知,未知,113500000.0,未知
6,002623,46701636.99000001,46701636.99000001,2015-06-30,半年度报告,36282088.74,2015,6,2.236683594443582,False,未知,未知,未知,未知,未知,未知,104225000.0,未知
7,002623,65472662.00999999,65472662.00999999,2015-09-30,三季度报告,51955575.47000001,2015,9,1.6241582068001617,False,未知,未知,未知,未知,未知,未知,86800000.0,未知
8,002623,54552735.71000001,54563509.68000001,2015-12-31,年度报告,42118248.32,2015,12,0.6285438553214493,False,未知,未知,未知,未知,未知,未知,80200000.0,未知
9,002623,10715692.09,10715692.09,2016-03-31,一季度报告,9028509.420000002,2016,3,2.135164291405152,False,未知,未知,未知,未知,未知,未知,118392000.0,未知
10,002623,30146826.009999994,30019046.410000004,2016-06-30,半年度报告,26657400.099999994,2016,6,0.3189674578899593,True,未知,未知,未知,未知,未知,未知,87800000.0,未知
11,002623,45682871.36,45484696.20999999,2016-09-30,三季度报告,40059159.23,2016,9,-0.05918077058495318,True,未知,未知,未知,未知,未知,未知,67500000.0,未知
12,002623,20725892.85,19195465.23,2016-12-31,年度报告,9113370.94,2016,12,0.12914482872961666,True,0.09739904198619191,True,0.0,True,比例外推,19195465.23,176550000.0,176550000.0
13,002623,7945490.730000001,6992301.449999997,2017-03-31,一季度报告,4948617.430000002,2017,3,4.7483864693614946,False,0.3986244930815736,True,0.3107555922725336,False,前期平均,23033557.419999994,,23033557.419999994
14,002623,9692229.52,7613862.759999998,2017-06-30,半年度报告,3674798.32,2017,6,1.043264501528863,False,0.08274670245517406,True,1.4812753889001307,False,前期平均,15389098.849999996,未知,15389098.849999996
15,002623,11915063.539999995,9032020.43,2017-09-30,三季度报告,2403380.39,2017,9,0.34838151775930754,True,0.027203804134475634,True,2.330152167702393,False,平均增速,-8835167.34245377,未知,-8835167.34245377
16,002623,-19064515.44,-22991580.68,2017-12-31,年度报告,-35118564.58,2017,12,1.9720282675301004,False,0.5512743131479576,True,0.0,True,盈利变化,4451486.723333335,145400000.0,145400000.0
17,002623,8154442.18,7460336.709999999,2018-03-31,一季度报告,7573741.619999999,2018,3,6.752565765060051,False,0.4766355603919566,True,0.5683929091336153,False,前期平均,19450302.674999997,,19450302.674999997
18,002623,20702458.02,18901885.37,2018-06-30,半年度报告,11640979.489999998,2018,6,5.355394214808071,False,0.7477573619136664,True,1.6977930715227132,False,前期平均,13047950.580000002,未知,13047950.580000002
19,002623,67113061.17,64241028.36999999,2018-09-30,三季度报告,51519369.3,2018,9,4.169753330581067,False,0.7856145676466021,True,2.5420550544100236,False,前期平均,43849470.64999998,未知,43849470.64999998
20,002623,82435092.8,79231880.35000001,2018-12-31,年度报告,-87981494.72,2018,12,-4.231025703950438,False,1.5065053868457456,True,0.0,True,前期平均,79231880.35000001,67000000.0,67000000.0
21,002623,-20572171.070000004,-21202007.67,2019-03-31,一季度报告,-24418652.35,2019,3,6.553912096044809,False,0.12605302046979253,True,0.7361238503877661,False,盈利变化,36575355.05666668,82890000.0,82890000.0
22,002623,-6022600.620000001,-7794333.24,2019-06-30,半年度报告,-10392126.249999998,2019,6,1.9753925529273941,False,0.03930465943955087,True,2.0290416130953175,False,盈利变化,64543143.19000001,,64543143.19000001
23,002623,4530523.660000001,1733487.2699999998,2019-09-30,三季度报告,-4942873.290000001,2019,9,-0.08217657865478646,True,1.330398174397048,True,3.148433389583558,False,平均增速,160439265.31941095,未知,160439265.31941095
24,002623,-93896010.59,-97053678.13,2019-12-31,年度报告,-113460788.42999998,2019,12,-0.25277042424825164,True,98.2370454826396,False,0.0,True,比例外推,-97053678.13,未知,-97053678.13
25,002623,13970774.22,13351422.87,2020-03-31,一季度报告,8763731.0,2020,3,-3.994236204356043,False,3.555559850466483,False,0.21914279932232336,False,前期平均,-54459786.305,82030000.0,82030000.0
