,SECURITYCODE_x,NETPROFIT_x,PARENTNETPROFIT_x,REPORTDATE_x,REPORTTIMETYPE_x,KCFJCXSYJLR,Year,Month,managesituationChangeRate,managesituationGreatChange,historyprofitextroplaterate,ifhistoryprofitextroplate,IfprofitdisStableChangeRage,IfprofitdisStable,predicttype,predict,analyst_prediction,adj_prediction
0,002695,121602350.65,121602350.65,2013-12-31,年度报告,119959000.77,2013,12,未知,未知,未知,未知,未知,未知,未知,未知,未知,未知
1,002695,35746159.29999999,35746159.29999999,2014-03-31,一季度报告,33495462.51,2014,3,未知,未知,未知,未知,未知,未知,未知,未知,未知,未知
2,002695,56646608.59,56646608.59,2014-06-30,半年度报告,53699622.82,2014,6,未知,未知,未知,未知,未知,未知,未知,未知,未知,未知
3,002695,84891566.23,84891566.23,2014-09-30,三季度报告,81560565.06000002,2014,9,未知,未知,未知,未知,未知,未知,未知,未知,未知,未知
4,002695,98629108.77,98629108.77,2014-12-31,年度报告,95538027.36,2014,12,0.0,True,未知,未知,未知,未知,未知,未知,未知,未知
5,002695,21522109.500000004,21522109.500000004,2015-03-31,一季度报告,20109133.910000004,2015,3,2.401829819798292,False,未知,未知,未知,未知,未知,未知,134688369.0,未知
6,002695,37962333.7,37230507.26000001,2015-06-30,半年度报告,35845029.2,2015,6,1.1466836881646403,False,未知,未知,未知,未知,未知,未知,111203333.0,未知
7,002695,63235266.01999999,59779442.58,2015-09-30,三季度报告,58202611.42000001,2015,9,0.43244324554618363,True,未知,未知,未知,未知,未知,未知,79000000.0,未知
8,002695,64834630.33000001,60880585.42,2015-12-31,年度报告,58401408.16,2015,12,0.23292557508121556,True,未知,未知,未知,未知,未知,未知,142063740.0,未知
9,002695,18907478.06,18974650.750000004,2016-03-31,一季度报告,17204948.61,2016,3,4.6501129989139764,False,未知,未知,未知,未知,未知,未知,58380000.0,未知
10,002695,49383833.28999999,47643451.66,2016-06-30,半年度报告,47483894.79000001,2016,6,2.203236966698915,False,未知,未知,未知,未知,未知,未知,76790000.0,未知
11,002695,85310621.02,81770653.65,2016-09-30,三季度报告,80854252.14000002,2016,9,0.9230147717183594,False,未知,未知,未知,未知,未知,未知,,未知
12,002695,93178041.18,88200078.27000001,2016-12-31,年度报告,84754827.28999998,2016,12,0.8755771418925276,False,0.4112137248624876,True,0.0,True,前期平均,88200078.27000001,,88200078.27000001
13,002695,34832338.69,35269959.90000001,2017-03-31,一季度报告,33845978.44,2017,3,5.431442113227025,False,0.33968745847613263,True,0.09631034758786533,True,前期平均,85437379.45,129350000.0,129350000.0
14,002695,83104848.51,80038235.42999999,2017-06-30,半年度报告,75899322.69999999,2017,6,1.4623918912067109,False,0.04395698957559899,True,0.035071320045114596,True,前期平均,112235627.17999999,129350000.0,129350000.0
15,002695,126319108.54,121990083.91,2017-09-30,三季度报告,117504861.01,2017,9,0.4254069328775824,True,0.1518591159232732,True,0.08105979152164422,True,比例外推,130191516.18291035,132715000.0,130191516.18291035
16,002695,146814785.32000002,140904123.71000004,2017-12-31,年度报告,133617390.91,2017,12,0.3050537348718281,True,0.1400453910209129,True,0.0,True,比例外推,140904123.71000004,未知,140904123.71000004
17,002695,49733814.99,50405998.04999999,2018-03-31,一季度报告,49071576.98,2018,3,2.4910762591117885,False,0.7231112555034928,True,0.07745016499384855,True,前期平均,103327074.51499999,未知,103327074.51499999
18,002695,120189494.09999996,113968882.66,2018-06-30,半年度报告,110170840.3,2018,6,0.4632401457944731,True,0.9028848402589763,True,0.03308503344730129,True,比例外推,193523722.67260134,未知,193523722.67260134
19,002695,175816354.29000002,168793552.45999998,2018-09-30,三季度报告,161846423.61999995,2018,9,-0.0373400188183437,True,0.7007419196464885,True,0.06391610252056024,True,比例外推,178516558.31228608,未知,178516558.31228608
20,002695,179941676.55999997,172911807.36000004,2018-12-31,年度报告,160352852.23000002,2018,12,-0.17172953401829769,True,0.8582659721781702,True,0.0,True,比例外推,172911807.36000004,,172911807.36000004
21,002695,63319411.23,63866548.67000001,2019-03-31,一季度报告,60855285.11000001,2019,3,1.4450637996391515,False,0.850911223659876,True,0.05191436126889731,True,前期平均,147527194.245,244540000.0,244540000.0
22,002695,149430859.41,140351286.14,2019-06-30,半年度报告,133766545.39000005,2019,6,0.011755241675487194,True,0.8143360242867171,True,0.08194011978806226,True,比例外推,227645378.10766852,233500000.0,227645378.10766852
23,002695,219864633.05,211548098.15,2019-09-30,三季度报告,204691976.25,2019,9,-0.30835586290554523,True,0.6615468408483092,True,0.06815551980344592,True,比例外推,222874264.61346117,241236667.00000003,222874264.61346117
24,002695,226265958.32,220382668.42,2019-12-31,年度报告,191453577.32,2019,12,-0.3242124171858943,True,0.4995587925208252,True,0.0,True,比例外推,220382668.42,240977500.0,220382668.42
25,002695,64129725.60999999,65196359.95000002,2020-03-31,一季度报告,59904681.26000001,2020,3,0.9204592760392919,False,0.4975119116709954,True,0.039090440267416815,True,前期平均,170722703.81000003,283458000.0,283458000.0
