,SECURITYCODE_x,NETPROFIT_x,PARENTNETPROFIT_x,REPORTDATE_x,REPORTTIMETYPE_x,KCFJCXSYJLR,Year,Month,managesituationChangeRate,managesituationGreatChange,historyprofitextroplaterate,ifhistoryprofitextroplate,IfprofitdisStableChangeRage,IfprofitdisStable,predicttype,predict,analyst_prediction,adj_prediction
0,002617,38662244.83,38109921.14,2013-12-31,年度报告,34788812.18,2013,12,未知,未知,未知,未知,未知,未知,未知,未知,未知,未知
1,002617,-6648017.870000001,-5548529.0200000005,2014-03-31,一季度报告,-9108102.12,2014,3,未知,未知,未知,未知,未知,未知,未知,未知,未知,未知
2,002617,3287149.8800000013,4616241.069999998,2014-06-30,半年度报告,90400.97,2014,6,未知,未知,未知,未知,未知,未知,未知,未知,未知,未知
3,002617,3706936.28,5440952.449999998,2014-09-30,三季度报告,-4180419.08,2014,9,未知,未知,未知,未知,未知,未知,未知,未知,未知,未知
4,002617,-55967774.03,-53117420.6,2014-12-31,年度报告,-45741588.8,2014,12,0.0,True,未知,未知,未知,未知,未知,未知,未知,未知
5,002617,8439807.35,8695234.19,2015-03-31,一季度报告,10602760.7,2015,3,-6.815604829293275,False,未知,未知,未知,未知,未知,未知,未知,未知
6,002617,27177461.97000001,28255289.26,2015-06-30,半年度报告,28922420.730000004,2015,6,10.761631273716056,False,未知,未知,未知,未知,未知,未知,未知,未知
7,002617,47487935.04999999,48834101.24999999,2015-09-30,三季度报告,20384230.08,2015,9,9.429703105120543,False,未知,未知,未知,未知,未知,未知,未知,未知
8,002617,86962098.20999998,83203870.97,2015-12-31,年度报告,41344995.84,2015,12,-1.690794756448169,False,未知,未知,未知,未知,未知,未知,未知,未知
9,002617,5011833.1000000015,5099910.99,2016-03-31,一季度报告,4604964.79,2016,3,3.5809392592355795,False,未知,未知,未知,未知,未知,未知,未知,未知
10,002617,37542256.69000001,38237705.45999999,2016-06-30,半年度报告,32818354.41,2016,6,0.42258481946097576,True,未知,未知,未知,未知,未知,未知,未知,未知
11,002617,47564076.99,48390582.46,2016-09-30,三季度报告,40915414.91,2016,9,-0.1858512106434494,True,未知,未知,未知,未知,未知,未知,未知,未知
12,002617,60424613.95,64763511.24,2016-12-31,年度报告,59419776.58,2016,12,-0.5554126955787488,True,-11.050209641667584,True,0.0,True,比例外推,64763511.24,未知,64763511.24
13,002617,49980916.27000001,50015910.44,2017-03-31,一季度报告,50012504.66,2017,3,6.714192403972907,False,4.594220923766117,False,0.10018971303965996,False,去年同期,104830722.22999999,未知,104830722.22999999
14,002617,160151464.39000002,160075744.85999998,2017-06-30,半年度报告,159585230.73,2017,6,0.029832733531394574,True,1.4646469730091112,True,0.4186016497580327,False,平均增速,253622414.09737998,406000000.0,406000000.0
15,002617,233775718.94,233519812.49,2017-09-30,三季度报告,227091867.10999995,2017,9,-0.187154523399488,True,0.8581578878635697,True,0.33294200739238644,False,平均增速,304954072.1562568,349000000.0,349000000.0
16,002617,315949953.53000003,308389409.55000013,2017-12-31,年度报告,293958021.44999987,2017,12,-0.3601573547165377,True,2.899076075934626,False,0.0,True,比例外推,308389409.55000013,未知,308389409.55000013
17,002617,72813014.07000001,72813014.07000001,2018-03-31,一季度报告,72360585.05999999,2018,3,-0.22645986277754188,True,6.431200150759309,False,0.09052772792540772,True,比例外推,431102048.7337474,559500000.0,559500000.0
18,002617,98076707.29,98076707.29,2018-06-30,半年度报告,90338941.23,2018,6,-0.7585895016492019,True,3.94907789174249,False,0.10129304201242306,False,未知,未知,,未知
19,002617,129482325.32999995,129482325.32999995,2018-09-30,三季度报告,121993293.72,2018,9,-0.8346182186699942,True,3.918901008463072,False,0.1583528580513644,False,未知,未知,未知,未知
20,002617,-990957832.68,-990682469.4499998,2018-12-31,年度报告,-1169751472.54,2018,12,-0.8776317438947528,True,3.287360086939334,False,0.0,True,比例外推,-990682469.4499998,609000000.0,609000000.0
21,002617,80135968.67,80543117.96,2019-03-31,一季度报告,12233569.72,2019,3,-0.4690201288353288,True,1.6480950635911076,True,0.12378443263165978,False,平均增速,-324992323.83723664,未知,-324992323.83723664
22,002617,150424835.36,151215067.01999998,2019-06-30,半年度报告,62424568.60999999,2019,6,-0.6057958520601554,True,0.007791377953661559,True,0.41655214494686454,False,平均增速,-589035892.7176437,未知,-589035892.7176437
23,002617,220803758.20000008,221966910.19000003,2019-09-30,三季度报告,132769725.12999998,2019,9,-0.7014090940098194,True,0.0795306799595719,True,0.5565646384932936,False,平均增速,-793505613.6786597,未知,-793505613.6786597
24,002617,34613029.10999999,36169888.13,2019-12-31,年度报告,-160418188.45000002,2019,12,-1.039015025215997,False,6.265806557095057,False,0.0,True,前期平均,36169888.13,未知,36169888.13
25,002617,80372757.68,80673019.57,2020-03-31,一季度报告,20135729.0,2020,3,-0.5175419294023741,True,0.3052105824467739,True,0.15946332987099252,False,平均增速,29938100.31485895,295000000.0,295000000.0
