,SECURITYCODE_x,NETPROFIT_x,PARENTNETPROFIT_x,REPORTDATE_x,REPORTTIMETYPE_x,KCFJCXSYJLR,Year,Month,managesituationChangeRate,managesituationGreatChange,historyprofitextroplaterate,ifhistoryprofitextroplate,IfprofitdisStableChangeRage,IfprofitdisStable,predicttype,predict,analyst_prediction,adj_prediction
0,002619,32249406.19,29450209.44,2013-12-31,年度报告,29286382.59000001,2013,12,未知,未知,未知,未知,未知,未知,未知,未知,未知,未知
1,002619,2296948.09,2320962.01,2014-03-31,一季度报告,2210112.1,2014,3,未知,未知,未知,未知,未知,未知,未知,未知,未知,未知
2,002619,9323596.420000002,9891906.21,2014-06-30,半年度报告,7590695.14,2014,6,未知,未知,未知,未知,未知,未知,未知,未知,未知,未知
3,002619,10648937.750000002,10305021.69,2014-09-30,三季度报告,8789491.8,2014,9,未知,未知,未知,未知,未知,未知,未知,未知,未知,未知
4,002619,7110368.060000001,6965669.07,2014-12-31,年度报告,3900779.69,2014,12,0.0,True,未知,未知,未知,未知,未知,未知,未知,未知
5,002619,10897372.910000002,10901802.99,2015-03-31,一季度报告,11044385.560000002,2015,3,13.040111019661747,False,未知,未知,未知,未知,未知,未知,未知,未知
6,002619,61168367.34,61275466.72999997,2015-06-30,半年度报告,60818794.36000001,2015,6,2.458901987737474,False,未知,未知,未知,未知,未知,未知,未知,未知
7,002619,109464305.52,109699790.70000002,2015-09-30,三季度报告,108459172.49,2015,9,2.0284153168235015,False,未知,未知,未知,未知,未知,未知,150000000.0,未知
8,002619,158919879.19000003,158749821.39,2015-12-31,年度报告,153065341.98,2015,12,3.53554667182728,False,未知,未知,未知,未知,未知,未知,未知,未知
9,002619,28632055.74000001,28632055.74000001,2016-03-31,一季度报告,27180992.61,2016,3,1.959374379159426,False,未知,未知,未知,未知,未知,未知,未知,未知
10,002619,64890462.34,64890462.34,2016-06-30,半年度报告,62263260.88999999,2016,6,-0.47277641054658237,True,未知,未知,未知,未知,未知,未知,282225000.0,未知
11,002619,123219186.59999998,123219186.59999998,2016-09-30,三季度报告,120920278.59,2016,9,-0.7053888385186186,True,未知,未知,未知,未知,未知,未知,,未知
12,002619,214161541.55,214161541.55,2016-12-31,年度报告,209215916.73000005,2016,12,-0.7970712892913571,True,7.075243429019414,False,0.0,True,比例外推,214161541.55,,214161541.55
13,002619,55188167.42999999,55188167.42999999,2017-03-31,一季度报告,55194307.57000001,2017,3,0.12633918021284177,True,3.340057474727196,False,0.31036372938748197,False,未知,未知,354530000.0,未知
14,002619,118597964.63,118597964.63,2017-06-30,半年度报告,117335175.26,2017,6,-0.5030177775429301,True,0.8410740424519562,True,1.0656481504941406,False,平均增速,1748873140.2031417,366390000.0,366390000.0
15,002619,235733236.38,235733236.38,2017-09-30,三季度报告,232999807.84000003,2017,9,-0.7382760990405693,True,1.051716917226491,True,1.0733270163395987,False,平均增速,1217145763.7332177,362000000.0,362000000.0
16,002619,413970919.87,413970919.87,2017-12-31,年度报告,372827757.4499999,2017,12,-0.849415511503167,True,1.5797894672472093,True,0.0,True,比例外推,413970919.87,,413970919.87
17,002619,122823848.69,122823848.69,2018-03-31,一季度报告,122801972.71000002,2018,3,-0.41564636602755906,True,1.79225727842641,True,0.04455044435633139,True,比例外推,1052263073.2392306,未知,1052263073.2392306
18,002619,263700426.86,263700426.86,2018-06-30,半年度报告,222651395.27,2018,6,-0.7280779118713279,True,0.8816288383933216,True,0.06078593462584719,True,比例外推,702613497.5190803,未知,702613497.5190803
19,002619,350272511.58,350272511.58,2018-09-30,三季度报告,304063002.73999995,2018,9,-0.8631953360279913,True,1.0262136710448475,True,0.07141331611972168,True,比例外推,523419942.83249265,未知,523419942.83249265
20,002619,669695738.5899999,669695738.5899999,2018-12-31,年度报告,381957060.91000015,2018,12,-0.9220974115763316,True,1.2191987960638535,True,0.0,True,比例外推,669695738.5899999,未知,669695738.5899999
21,002619,104210752.3,104210752.3,2019-03-31,一季度报告,103729877.84,2019,3,-0.7374336781173861,True,1.9306495269260922,True,0.12168459617524999,False,平均增速,395494273.3636405,未知,395494273.3636405
22,002619,179721492.85999998,179721492.85999998,2019-06-30,半年度报告,179926826.54999998,2019,6,-0.8777043838191382,True,1.8743003710322779,True,0.18450847594084302,False,平均增速,355863002.9502212,未知,355863002.9502212
23,002619,241286790.66,241289358.26,2019-09-30,三季度报告,241469274.08999988,2019,9,-0.9079305251658766,True,0.9516375383236592,True,0.12973669218632478,False,平均增速,326871462.6233471,未知,326871462.6233471
24,002619,-2555989894.17,-2555118592.99,2019-12-31,年度报告,-3000263317.1200004,2019,12,-0.9518446895632051,True,1.1323392109875645,True,0.0,True,比例外推,-2555118592.99,未知,-2555118592.99
25,002619,62316824.38,62318674.36000001,2020-03-31,一季度报告,62319812.89999999,2020,3,-0.6905366722892374,True,0.17082829093683538,True,0.17956561072158533,False,平均增速,4430343190.200133,未知,4430343190.200133
