,SECURITYCODE_x,NETPROFIT_x,PARENTNETPROFIT_x,REPORTDATE_x,REPORTTIMETYPE_x,KCFJCXSYJLR,Year,Month,managesituationChangeRate,managesituationGreatChange,historyprofitextroplaterate,ifhistoryprofitextroplate,IfprofitdisStableChangeRage,IfprofitdisStable,predicttype,predict,analyst_prediction,adj_prediction
0,002600,12194062.32,17213451.93,2013-12-31,年度报告,3417350.7700000005,2013,12,未知,未知,未知,未知,未知,未知,未知,未知,未知,未知
1,002600,-1939840.53,418143.88,2014-03-31,一季度报告,644537.97,2014,3,未知,未知,未知,未知,未知,未知,未知,未知,未知,未知
2,002600,-11862263.590000002,-8879377.340000002,2014-06-30,半年度报告,-8701255.879999999,2014,6,未知,未知,未知,未知,未知,未知,未知,未知,未知,未知
3,002600,-22974522.07,-18125043.29,2014-09-30,三季度报告,-13939935.79,2014,9,未知,未知,未知,未知,未知,未知,未知,未知,未知,未知
4,002600,-3502353.359999999,3555296.31,2014-12-31,年度报告,-24795701.939999994,2014,12,0.0,True,未知,未知,未知,未知,未知,未知,未知,未知
5,002600,-4531494.05,-4319162.71,2015-03-31,一季度报告,-4693644.89,2015,3,-7.286115859224778,False,未知,未知,未知,未知,未知,未知,100956973.99999999,未知
6,002600,4027938.25,4064800.55,2015-06-30,半年度报告,-184762.42,2015,6,-2.027970945636355,False,未知,未知,未知,未知,未知,未知,194780000.0,未知
7,002600,22232122.19,17649056.089999996,2015-09-30,三季度报告,13008704.840000002,2015,9,-1.530764569676204,False,未知,未知,未知,未知,未知,未知,166340000.0,未知
8,002600,59961414.98,46048212.08000001,2015-12-31,年度报告,42664235.42999999,2015,12,-4.481676766047388,False,未知,未知,未知,未知,未知,未知,98705000.0,未知
9,002600,10100168.94,7430239.34,2016-03-31,一季度报告,13198911.7,2016,3,-3.6909584753840736,False,未知,未知,未知,未知,未知,未知,未知,未知
10,002600,61300620.6,51559647.22,2016-06-30,半年度报告,51970650.85,2016,6,2.0273707199955213,False,未知,未知,未知,未知,未知,未知,260000000.0,未知
11,002600,182773879.72,166657489.79,2016-09-30,三季度报告,152517703.60999998,2016,9,-0.45151154641076574,True,未知,未知,未知,未知,未知,未知,289000000.0,未知
12,002600,251567738.87,234068261.7,2016-12-31,年度报告,815252738.6999997,2016,12,-0.79663484719186,True,12.79738213875951,False,0.0,True,比例外推,234068261.7,,234068261.7
13,002600,302027190.1,303706739.56,2017-03-31,一季度报告,259446696.93,2017,3,0.20731270857336778,True,-4.121510351578824,True,0.07007438853512382,True,比例外推,-6451784229.48904,487700000.0,487700000.0
14,002600,527880402.69000006,528822813.04,2017-06-30,半年度报告,476665242.0,2017,6,-0.801077669350708,True,-16.649240474355892,True,0.2141395110877589,False,平均增速,8385445058.566212,814000000.0,814000000.0
15,002600,1036613569.4199996,1037547200.28,2017-09-30,三季度报告,1031027605.6,2017,9,-0.9332833425723596,True,-493.38660900645687,True,0.21079802343927329,False,平均增速,7060037371.000238,330870000.0,330870000.0
16,002600,1685821546.88,1682500604.11,2017-12-31,年度报告,1608390437.0300002,2017,12,-0.9515277182409252,True,7.911509743579759,False,0.0,True,比例外推,1682500604.11,297000000.0,297000000.0
17,002600,406998468.16,407196427.99,2018-03-31,一季度报告,252060610.99000007,2018,3,-0.9596259452138644,True,107.4736301062819,False,0.13881339010892738,False,未知,未知,2185677500.0,未知
18,002600,-607568606.3600001,-581203755.86,2018-06-30,半年度报告,-335869631.59000003,2018,6,-0.9768999526069525,True,15.16078517519601,False,0.17776867094249893,False,未知,未知,,未知
19,002600,-375026616.40999985,-351868052.11000013,2018-09-30,三季度报告,237204177.35,2018,9,-0.9882366364094358,True,9.113007031619347,False,0.26335739406292413,False,未知,未知,未知,未知
20,002600,-745658273.58,-679896383.51,2018-12-31,年度报告,-3850682.35,2018,12,-0.9927666944686003,True,9.822881428886852,False,0.0,True,比例外推,-679896383.51,394000000.0,394000000.0
21,002600,600082688.29,602034276.45,2019-03-31,一季度报告,225360238.73999995,2019,3,-0.970039046153839,True,1.6078999893619834,True,43.69829080087551,False,平均增速,361565789.44688857,未知,361565789.44688857
22,002600,1114065628.94,1114309083.39,2019-06-30,半年度报告,672659776.3199999,2019,6,-1.0200702639872323,False,3.062417431462145,False,58.02890109352897,False,前期平均,2061812724.8300002,2189680000.0,2061812724.8300002
23,002600,2096965308.63,2099319005.93,2019-09-30,三季度报告,1260636973.1599998,2019,9,-1.032515191686205,False,1.615106571212449,True,41.34307494017159,False,前期平均,2719367939.19,2345167778.0,2345167778.0
24,002600,1890961624.48,1894179510.1500008,2019-12-31,年度报告,906772872.82,2019,12,-1.0163534191895367,False,1.7697557523049288,True,0.0,True,前期平均,1894179510.1500008,2345167778.0,2345167778.0
25,002600,64483613.30000001,64876078.75000002,2020-03-31,一季度报告,307289351.77000004,2020,3,-0.9796793632645056,True,0.6926966783195014,True,43.77573747128477,False,平均增速,40985133403.11838,2702810000.0,2702810000.0
