,SECURITYCODE_x,NETPROFIT_x,PARENTNETPROFIT_x,REPORTDATE_x,REPORTTIMETYPE_x,KCFJCXSYJLR,Year,Month,managesituationChangeRate,managesituationGreatChange,historyprofitextroplaterate,ifhistoryprofitextroplate,IfprofitdisStableChangeRage,IfprofitdisStable,predicttype,predict,analyst_prediction,adj_prediction
0,002645,36014314.08000001,36018663.54,2013-12-31,年度报告,28560955.510000005,2013,12,未知,未知,未知,未知,未知,未知,未知,未知,未知,未知
1,002645,4510961.89,4522493.8,2014-03-31,一季度报告,431380.4700000001,2014,3,未知,未知,未知,未知,未知,未知,未知,未知,未知,未知
2,002645,9188949.25,9213403.000000002,2014-06-30,半年度报告,3126460.75,2014,6,未知,未知,未知,未知,未知,未知,未知,未知,未知,未知
3,002645,9433076.37,9478817.91,2014-09-30,三季度报告,-732189.6499999998,2014,9,未知,未知,未知,未知,未知,未知,未知,未知,未知,未知
4,002645,10041897.39,10141509.180000003,2014-12-31,年度报告,-1026831.43,2014,12,0.0,True,未知,未知,未知,未知,未知,未知,未知,未知
5,002645,2079123.46,2533302.7800000003,2015-03-31,一季度报告,778682.1400000001,2015,3,6.983732728896988,False,未知,未知,未知,未知,未知,未知,未知,未知
6,002645,317141.52,1205835.99,2015-06-30,半年度报告,-5033895.580000001,2015,6,2.919307104672497,False,未知,未知,未知,未知,未知,未知,未知,未知
7,002645,-6837225.630000001,-5491818.41,2015-09-30,三季度报告,-13424537.06,2015,9,2.8178758092679383,False,未知,未知,未知,未知,未知,未知,未知,未知
8,002645,-12051948.38,-8745036.67,2015-12-31,年度报告,-17378020.13,2015,12,2.5864053058203984,False,未知,未知,未知,未知,未知,未知,未知,未知
9,002645,15181738.53,14792186.670000006,2016-03-31,一季度报告,13006646.24,2016,3,16.321873747699435,False,未知,未知,未知,未知,未知,未知,未知,未知
10,002645,32634336.25,32834443.13000001,2016-06-30,半年度报告,26962129.33,2016,6,112.5591267898319,False,未知,未知,未知,未知,未知,未知,未知,未知
11,002645,48585218.13,48974794.87000001,2016-09-30,三季度报告,40993744.06,2016,9,-6.267387099524462,False,未知,未知,未知,未知,未知,未知,未知,未知
12,002645,61926911.03,63026121.01,2016-12-31,年度报告,53379534.40000001,2016,12,-3.9882565826256893,False,1.5233582179398482,True,0.0,True,前期平均,63026121.01,未知,63026121.01
13,002645,11483673.62,12298603.619999995,2017-03-31,一季度报告,10700785.75,2017,3,1.3722127745009987,False,3.607448226751722,False,0.34635727090929525,False,去年同期,52671491.78000001,未知,52671491.78000001
14,002645,37669493.70999999,39542050.81,2017-06-30,半年度报告,36116074.4,2017,6,0.103571214199278,True,5.865984564967499,False,2.294767770648593,False,未知,未知,110132500.0,未知
15,002645,86417733.89999999,87528422.42,2017-09-30,三季度报告,71494790.88000001,2017,9,-0.2587392736688736,True,36.43298286094834,False,0.038117926073081954,True,比例外推,111210879.30221696,127180000.0,127180000.0
16,002645,122837227.77,123897941.51999998,2017-12-31,年度报告,105542308.92,2017,12,-0.418438390015075,True,-62.61725382896878,True,0.0,True,比例外推,123897941.51999998,124612500.0,123897941.51999998
17,002645,29498772.54000001,29741842.66,2018-03-31,一季度报告,26199041.87,2018,3,2.136131805180999,False,0.3306025651155792,True,0.14488967552981566,False,前期平均,40849935.605000004,211050000.0,211050000.0
18,002645,81009495.38,80412366.88,2018-06-30,半年度报告,75842474.9,2018,6,-0.04393952418746168,True,1.2863614174108706,True,0.12611308470496263,False,平均增速,275652893.7429662,194050000.0,194050000.0
19,002645,123778386.33999996,122035935.23,2018-09-30,三季度报告,110840442.76,2018,9,-0.5832531998388815,True,3.139970749491727,False,0.061886740039347354,True,比例外推,161123557.94080946,165980000.0,161123557.94080946
20,002645,160094134.02999994,157072277.49000004,2018-12-31,年度报告,142394425.7,2018,12,-0.7068127087055962,True,3.9258073086496834,False,0.0,True,比例外推,157072277.49000004,205000000.0,205000000.0
21,002645,38315967.03,37821024.15000001,2019-03-31,一季度报告,35319103.3,2019,3,0.22087500526216813,True,1.2125120267454792,True,0.07495853303583884,True,比例外推,202783632.0084637,197116667.00000003,202783632.0084637
22,002645,107638124.34000002,105721481.78,2019-06-30,半年度报告,95949260.88,2019,6,-0.5554309539756571,True,1.3045542590237569,True,0.1177781381370504,False,平均增速,203163513.51387906,209000000.0,203163513.51387906
23,002645,152861521.07000002,149530690.85999998,2019-09-30,三季度报告,132799356.56,2019,9,-0.7090419810363798,True,0.833713774088351,True,0.0638545456005033,True,比例外推,195885210.72806358,206000000.0,195885210.72806358
24,002645,182066818.64,179004724.77,2019-12-31,年度报告,157972346.42,2019,12,-0.7750428877472093,True,0.7329567855512872,True,0.0,True,比例外推,179004724.77,,179004724.77
25,002645,14914350.820000002,15528424.359999998,2020-03-31,一季度报告,10776901.63,2020,3,-0.060070334338629065,True,0.8698721340551621,True,0.06826327339197198,True,比例外推,68275149.86165902,294800000.0,294800000.0
