,SECURITYCODE_x,NETPROFIT_x,PARENTNETPROFIT_x,REPORTDATE_x,REPORTTIMETYPE_x,KCFJCXSYJLR,Year,Month,managesituationChangeRate,managesituationGreatChange,historyprofitextroplaterate,ifhistoryprofitextroplate,IfprofitdisStableChangeRage,IfprofitdisStable,predicttype,predict,analyst_prediction,adj_prediction
0,002611,56104571.62000001,56129992.28,2013-12-31,年度报告,63911979.13999999,2013,12,未知,未知,未知,未知,未知,未知,未知,未知,未知,未知
1,002611,15908195.089999998,15908195.089999998,2014-03-31,一季度报告,16611583.160000002,2014,3,未知,未知,未知,未知,未知,未知,未知,未知,未知,未知
2,002611,61229044.01,50248730.40999999,2014-06-30,半年度报告,51187597.61,2014,6,未知,未知,未知,未知,未知,未知,未知,未知,未知,未知
3,002611,72297904.14000002,60537800.62,2014-09-30,三季度报告,61272663.44,2014,9,未知,未知,未知,未知,未知,未知,未知,未知,未知,未知
4,002611,109542887.5,84106447.11999999,2014-12-31,年度报告,82978933.03,2014,12,0.0,True,未知,未知,未知,未知,未知,未知,未知,未知
5,002611,6859607.58,7960207.44,2015-03-31,一季度报告,2881440.63,2015,3,2.526771660932656,False,未知,未知,未知,未知,未知,未知,124250000.0,未知
6,002611,27001428.08000001,25996659.57,2015-06-30,半年度报告,20108009.9,2015,6,-0.08369349012150265,True,未知,未知,未知,未知,未知,未知,114872000.0,未知
7,002611,43647156.94,36537797.86,2015-09-30,三季度报告,27960161.83,2015,9,-0.22398066323807544,True,未知,未知,未知,未知,未知,未知,74666667.0,未知
8,002611,84327151.53,64838185.14,2015-12-31,年度报告,53691482.96000001,2015,12,-0.4878300828066084,True,未知,未知,未知,未知,未知,未知,75500000.0,未知
9,002611,16396776.54,11230093.66,2016-03-31,一季度报告,9336652.55,2016,3,7.1789768533668825,False,未知,未知,未知,未知,未知,未知,111000000.0,未知
10,002611,55811010.91,44731368.8,2016-06-30,半年度报告,16705446.63,2016,6,1.0778371963798736,False,未知,未知,未知,未知,未知,未知,197980000.0,未知
11,002611,95295006.58,72406957.07000001,2016-09-30,三季度报告,43529904.51,2016,9,0.2854118241223529,True,未知,未知,未知,未知,未知,未知,117600000.0,未知
12,002611,128417118.87,95657928.46000002,2016-12-31,年度报告,48824307.95,2016,12,-0.3346796304385972,True,0.01815206798808637,True,0.0,True,比例外推,95657928.46000002,117000000.0,117000000.0
13,002611,9709673.02,6717325.78,2017-03-31,一季度报告,5877895.209999999,2017,3,2.421683004774304,False,0.4403477382211518,True,0.09469557114102523,True,前期平均,65306021.88000001,610215714.0,610215714.0
14,002611,152067926.59,134431126.09000003,2017-06-30,半年度报告,43446693.3,2017,6,0.005259906696071272,True,0.26511871891764677,True,0.1723615688746653,False,平均增速,188695132.43690687,588660000.0,588660000.0
15,002611,233909484.09,204637369.8400001,2017-09-30,三季度报告,117574078.45,2017,9,-0.4112538145123027,True,0.6437958752593722,True,0.1961541423211507,False,平均增速,213847500.68271822,489483333.0,489483333.0
16,002611,520806288.2600001,490498337.12000006,2017-12-31,年度报告,353115982.47,2017,12,-0.56310675621997,True,0.32477529289740714,True,0.0,True,比例外推,490498337.12000006,489483333.0,490498337.12000006
17,002611,12793752.26,11917705.39,2018-03-31,一季度报告,9772889.86,2018,3,4.7782143131324535,False,0.16498859238828217,True,0.10404892347465844,False,前期平均,57066554.25500001,666500000.0,666500000.0
18,002611,212201825.50000003,206814702.42,2018-06-30,半年度报告,190620207.37,2018,6,-0.631055851959716,True,2.672586593141229,False,0.15686282600191312,False,未知,未知,645000000.0,未知
19,002611,349554000.52000004,346030254.32,2018-09-30,三季度报告,314064191.08,2018,9,-0.7601440923258461,True,2.3670050640363027,False,0.309802212465791,False,未知,未知,600000000.0,未知
20,002611,-3869036633.680001,-3875995219.91,2018-12-31,年度报告,-3905407016.4499993,2018,12,-0.892273628631782,True,3.8960781625825645,False,0.0,True,比例外推,-3875995219.91,630040000.0,630040000.0
21,002611,27322931.31,26225836.51,2019-03-31,一季度报告,23381604.22000001,2019,3,3.3853101482520045,False,0.01987803967013273,True,0.12277193143081279,False,前期平均,219588707.84,未知,219588707.84
22,002611,183849312.89,182391136.39000005,2019-06-30,半年度报告,166155556.81000003,2019,6,-0.7356074977781,True,1.0415904377036758,True,0.203359956413408,False,平均增速,2316571005.2483974,未知,2316571005.2483974
23,002611,396655628.58,395182302.4099999,2019-09-30,三季度报告,364787086.83,2019,9,-0.8394966971153576,True,1.1236283855580738,True,0.5101934744891311,False,平均增速,1982179944.850369,未知,1982179944.850369
24,002611,1839345953.81,1838018805.5,2019-12-31,年度报告,438715870.86,2019,12,-1.0145009150680067,False,12.91896838958324,False,0.0,True,前期平均,1838018805.5,,1838018805.5
25,002611,45878613.68,47491377.76999999,2020-03-31,一季度报告,25666651.19,2020,3,1.05338771976732,False,1.4283353285140419,True,0.030815903492073065,True,前期平均,-1736479531.7549996,未知,-1736479531.7549996
