,SECURITYCODE_x,NETPROFIT_x,PARENTNETPROFIT_x,REPORTDATE_x,REPORTTIMETYPE_x,KCFJCXSYJLR,Year,Month,managesituationChangeRate,managesituationGreatChange,historyprofitextroplaterate,ifhistoryprofitextroplate,IfprofitdisStableChangeRage,IfprofitdisStable,predicttype,predict,analyst_prediction,adj_prediction
0,002612,233737256.67,233737256.67,2013-12-31,年度报告,203660450.96,2013,12,未知,未知,未知,未知,未知,未知,未知,未知,未知,未知
1,002612,61802622.74000001,61802622.74000001,2014-03-31,一季度报告,31593377.74,2014,3,未知,未知,未知,未知,未知,未知,未知,未知,未知,未知
2,002612,97180570.23,97180570.23,2014-06-30,半年度报告,52196588.62,2014,6,未知,未知,未知,未知,未知,未知,未知,未知,未知,未知
3,002612,88064146.59000002,88064146.59000002,2014-09-30,三季度报告,29099747.45,2014,9,未知,未知,未知,未知,未知,未知,未知,未知,未知,未知
4,002612,121224940.47,121224940.47,2014-12-31,年度报告,51854325.87000001,2014,12,0.0,True,未知,未知,未知,未知,未知,未知,未知,未知
5,002612,36116658.79000001,36116658.79000001,2015-03-31,一季度报告,28336748.11,2015,3,2.781995752078659,False,未知,未知,未知,未知,未知,未知,151720000.0,未知
6,002612,43266451.33000001,43266451.33000001,2015-06-30,半年度报告,29178123.0,2015,6,1.4051850706042106,False,未知,未知,未知,未知,未知,未知,130308750.0,未知
7,002612,48013032.18000001,48013032.18000001,2015-09-30,三季度报告,14405747.79,2015,9,1.6541704623359361,False,未知,未知,未知,未知,未知,未知,100643333.0,未知
8,002612,74456433.33,74456433.33,2015-12-31,年度报告,33213155.340000004,2015,12,0.9281284508268647,False,未知,未知,未知,未知,未知,未知,100616250.0,未知
9,002612,27064604.74,27064604.74,2016-03-31,一季度报告,21621636.29,2016,3,5.471729791757959,False,未知,未知,未知,未知,未知,未知,107350000.0,未知
10,002612,38400022.95,38400022.95,2016-06-30,半年度报告,28841561.33,2016,6,4.402274729842049,False,未知,未知,未知,未知,未知,未知,113522857.0,未知
11,002612,92213767.79000002,82438011.58,2016-09-30,三季度报告,45205868.51000001,2016,9,3.868204444862452,False,未知,未知,未知,未知,未知,未知,148470000.0,未知
12,002612,183844442.21,164015756.95999998,2016-12-31,年度报告,101897146.04,2016,12,2.139248634621644,False,0.5804824630345987,True,0.0,True,前期平均,164015756.95999998,152528889.0,164015756.95999998
13,002612,30466209.82,35128112.68999999,2017-03-31,一季度报告,31140715.049999993,2017,3,7.636270838441219,False,0.4472058144808164,True,0.3460228800911074,False,前期平均,47696790.37,197159231.0,197159231.0
14,002612,43981558.76,54279236.97999999,2017-06-30,半年度报告,43416663.68,2017,6,5.086904087904977,False,0.4531742642389147,True,0.4396732819946434,False,前期平均,56125621.775,192912000.0,192912000.0
15,002612,98589454.84,102254450.23000002,2017-09-30,三季度报告,79415775.8,2017,9,1.534732744055029,False,0.3553156910441434,True,0.0816623109271103,True,前期平均,123035443.21500003,203704000.0,203704000.0
16,002612,192980443.14,187571319.95,2017-12-31,年度报告,146700426.79000002,2017,12,0.27138603626107394,True,0.8790183106328947,True,0.0,True,比例外推,187571319.95,212333332.99999997,212333332.99999997
17,002612,63490564.56000001,60332100.89999999,2018-03-31,一季度报告,60431309.74000001,2018,3,6.6720162452422835,False,0.03559352511100375,True,0.4272972980006828,False,前期平均,102908059.38999999,266643332.99999997,266643332.99999997
18,002612,127388799.23999998,111662433.65,2018-06-30,半年度报告,107554247.05,2018,6,4.314437761186798,False,0.07710193559246156,True,0.392673879159578,False,前期平均,150207742.175,270900000.0,270900000.0
19,002612,232680880.96,184654872.43,2018-09-30,三季度报告,169122851.03,2018,9,1.3708139683836391,False,0.4061428323414943,True,0.0684382780972097,True,前期平均,222404214.97000003,237566667.00000003,222404214.97000003
20,002612,204338685.22,210453089.65,2018-12-31,年度报告,189569930.8,2018,12,0.2111966003748498,True,0.49422988006957314,True,0.0,True,比例外推,210453089.65,250852000.0,250852000.0
21,002612,58248471.28000001,52767437.94,2019-03-31,一季度报告,50507597.25,2019,3,2.681448704856184,False,1.2071846208186212,True,0.07103239900501482,True,前期平均,150685048.685,236920000.0,236920000.0
22,002612,110454021.26,89125335.60999998,2019-06-30,半年度报告,77938013.41,2019,6,0.8348336593521063,False,2.092652425354846,False,0.18523934172605122,False,去年同期,171141019.36,,171141019.36
23,002612,183460105.46,157113033.90000004,2019-09-30,三季度报告,125484521.07000004,2019,9,0.00454001938466779,True,1.4389617507793135,True,0.2664301856797412,False,平均增速,178663546.59439528,200000000.0,200000000.0
24,002612,40725009.89999999,58778676.12000001,2019-12-31,年度报告,25303716.63,2019,12,0.14387178530755543,True,0.08452861349752673,True,0.0,True,比例外推,58778676.12000001,,58778676.12000001
25,002612,-21957125.49,-3174066.09,2020-03-31,一季度报告,-9763092.44,2020,3,3.012762078277155,False,0.2398993401884813,True,1.1536845653956225,False,盈利变化,-21582243.466666646,146000000.0,146000000.0
