,SECURITYCODE_x,NETPROFIT_x,PARENTNETPROFIT_x,REPORTDATE_x,REPORTTIMETYPE_x,KCFJCXSYJLR,Year,Month,managesituationChangeRate,managesituationGreatChange,historyprofitextroplaterate,ifhistoryprofitextroplate,IfprofitdisStableChangeRage,IfprofitdisStable,predicttype,predict,analyst_prediction,adj_prediction
0,002687,65469420.93999999,65469420.93999999,2013-12-31,年度报告,61672536.32999999,2013,12,未知,未知,未知,未知,未知,未知,未知,未知,未知,未知
1,002687,9772752.760000002,9772752.760000002,2014-03-31,一季度报告,7363742.659999997,2014,3,未知,未知,未知,未知,未知,未知,未知,未知,未知,未知
2,002687,38032896.44000001,38032896.44000001,2014-06-30,半年度报告,35532212.15,2014,6,未知,未知,未知,未知,未知,未知,未知,未知,未知,未知
3,002687,49855578.3,49855578.3,2014-09-30,三季度报告,49276979.06,2014,9,未知,未知,未知,未知,未知,未知,未知,未知,未知,未知
4,002687,80644712.39,81676160.60999998,2014-12-31,年度报告,79611967.13,2014,12,0.0,True,未知,未知,未知,未知,未知,未知,未知,未知
5,002687,7597259.09,9099390.019999998,2015-03-31,一季度报告,8277776.75,2015,3,5.699179089843257,False,未知,未知,未知,未知,未知,未知,103010000.0,未知
6,002687,32586587.25,34768692.12,2015-06-30,半年度报告,34331449.96,2015,6,0.7213892989529033,False,未知,未知,未知,未知,未知,未知,,未知
7,002687,39802502.41,40599518.3,2015-09-30,三季度报告,39909075.6,2015,9,0.3131814567678978,True,未知,未知,未知,未知,未知,未知,103900000.0,未知
8,002687,60568639.86000001,61250289.57,2015-12-31,年度报告,57455969.88,2015,12,-0.1881746614286612,True,未知,未知,未知,未知,未知,未知,,未知
9,002687,9438417.26,9927374.079999998,2016-03-31,一季度报告,9517215.070000002,2016,3,7.617505361397382,False,未知,未知,未知,未知,未知,未知,91720000.0,未知
10,002687,40411392.15000001,37687805.89000001,2016-06-30,半年度报告,36666467.28,2016,6,1.0090910544797842,False,未知,未知,未知,未知,未知,未知,93032000.0,未知
11,002687,49044767.02000001,44298134.42,2016-09-30,三季度报告,42629487.09,2016,9,0.644856905367624,False,未知,未知,未知,未知,未知,未知,74303333.0,未知
12,002687,68322374.03999999,62937370.32,2016-12-31,年度报告,57214791.15000002,2016,12,0.08091284683505823,True,0.17094070943561318,True,0.0,True,比例外推,62937370.32,74303333.0,74303333.0
13,002687,9522759.64,8816943.780000001,2017-03-31,一季度报告,7894048.81,2017,3,5.936483007321504,False,0.08674851134312829,True,0.04180755778190692,True,前期平均,69530152.58,85700000.0,85700000.0
14,002687,37277407.08,35918919.99999999,2017-06-30,半年度报告,33554458.65,2017,6,0.6200733866576277,False,0.14448279818625806,True,0.11524924460294783,False,前期平均,69521057.44999999,,69521057.44999999
15,002687,48529921.96,46570036.86,2017-09-30,三季度报告,43959591.99,2017,9,0.3348910580674622,True,0.09404008275920664,True,0.06725063721021796,True,比例外推,66671395.30993768,未知,66671395.30993768
16,002687,77275255.72,75286266.32000001,2017-12-31,年度报告,74347362.52,2017,12,-0.04175723019123593,True,0.032352494273430274,True,0.0,True,比例外推,75286266.32000001,95500000.0,95500000.0
17,002687,13055613.31,11173298.5,2018-03-31,一季度报告,10234394.7,2018,3,5.87504708876596,False,0.1179784640602191,True,0.03268588933769018,True,前期平均,59611183.10500001,未知,59611183.10500001
18,002687,42290382.71,40366885.79999999,2018-06-30,半年度报告,40387887.67,2018,6,0.7562761487004153,False,0.02132709388391633,True,0.11191416519683839,False,前期平均,62203307.69500001,未知,62203307.69500001
19,002687,62234697.25000001,59016169.67,2018-09-30,三季度报告,56202457.45999999,2018,9,0.3490526729872365,True,0.09243474270720752,True,0.08571158230833786,True,比例外推,85832520.2625109,未知,85832520.2625109
20,002687,116865710.67,112978362.79,2018-12-31,年度报告,109728371.59,2018,12,-0.15277639226167558,True,0.1990790262532025,True,0.0,True,比例外推,112978362.79,未知,112978362.79
21,002687,17606273.94,16086828.84,2019-03-31,一季度报告,12413732.53,2019,3,4.014656867161761,False,0.37708892004483135,True,0.04441184491707072,True,前期平均,73162273.735,未知,73162273.735
22,002687,55357049.78,54466201.02000001,2019-06-30,半年度报告,51298454.64,2019,6,0.5480924206561759,False,0.08871248182889416,True,0.15410709013508478,False,前期平均,85136814.89000002,未知,85136814.89000002
23,002687,79617502.68,78475057.93,2019-09-30,三季度报告,74630901.51999998,2019,9,0.051976209942918655,True,0.2756319881840733,True,0.12889563231274925,False,平均增速,151151457.15835774,未知,151151457.15835774
24,002687,142915430.24999997,143127215.53,2019-12-31,年度报告,137904402.32,2019,12,-0.4397893054801205,True,0.605324356758265,True,0.0,True,比例外推,143127215.53,未知,143127215.53
25,002687,13009548.65,13860139.619999995,2020-03-31,一季度报告,9338106.06,2020,3,2.7185279044908452,False,0.5595697687330476,True,0.009689547724827316,True,前期平均,96833784.91999999,未知,96833784.91999999
