,SECURITYCODE_x,NETPROFIT_x,PARENTNETPROFIT_x,REPORTDATE_x,REPORTTIMETYPE_x,KCFJCXSYJLR,Year,Month,managesituationChangeRate,managesituationGreatChange,historyprofitextroplaterate,ifhistoryprofitextroplate,IfprofitdisStableChangeRage,IfprofitdisStable,predicttype,predict,analyst_prediction,adj_prediction
0,002712,83965062.59000002,84088324.28000002,2013-12-31,年度报告,80768819.52,2013,12,未知,未知,未知,未知,未知,未知,未知,未知,未知,未知
1,002712,2445926.35,2597310.04,2014-03-31,一季度报告,1955981.57,2014,3,未知,未知,未知,未知,未知,未知,未知,未知,未知,未知
2,002712,31962652.09000001,31942574.94,2014-06-30,半年度报告,28769271.18,2014,6,未知,未知,未知,未知,未知,未知,未知,未知,未知,未知
3,002712,39939059.95,39735530.84000001,2014-09-30,三季度报告,36358334.92,2014,9,未知,未知,未知,未知,未知,未知,未知,未知,未知,未知
4,002712,71479499.87,70819286.34000002,2014-12-31,年度报告,64764057.12999999,2014,12,0.0,True,未知,未知,未知,未知,未知,未知,未知,未知
5,002712,15940172.160000002,16074222.84,2015-03-31,一季度报告,15933897.27,2015,3,33.32853266002879,False,未知,未知,未知,未知,未知,未知,101000000.0,未知
6,002712,34641064.3,34711257.879999995,2015-06-30,半年度报告,32943002.39,2015,6,1.6269742058191012,False,未知,未知,未知,未知,未知,未知,115800000.0,未知
7,002712,59158023.23,59195618.27000001,2015-09-30,三季度报告,55014702.81,2015,9,1.1023294663198504,False,未知,未知,未知,未知,未知,未知,116077500.0,未知
8,002712,88800379.36999999,88334018.37,2015-12-31,年度报告,81846317.4,2015,12,0.17467333630911724,True,未知,未知,未知,未知,未知,未知,104480000.0,未知
9,002712,24928346.4,23650665.26,2016-03-31,一季度报告,18459581.22,2016,3,4.267512906836761,False,未知,未知,未知,未知,未知,未知,170750000.0,未知
10,002712,62394906.19000001,59114875.83000001,2016-06-30,半年度报告,49160270.62000001,2016,6,1.423859205445949,False,未知,未知,未知,未知,未知,未知,190181667.00000003,未知
11,002712,106164242.7,100768716.87,2016-09-30,三季度报告,89687120.44999999,2016,9,0.4193351637791029,True,未知,未知,未知,未知,未知,未知,161842350.0,未知
12,002712,149435653.23000002,141554051.32,2016-12-31,年度报告,129029544.71,2016,12,-0.05445153291353525,True,0.14253439251502484,True,0.0,True,比例外推,141554051.32,160652729.0,160652729.0
13,002712,54386045.55,53210522.27,2017-03-31,一季度报告,46093474.42999999,2017,3,2.3682564115042957,False,1.711651565060607,True,0.09244738128191249,True,前期平均,117570770.11500001,328157000.0,328157000.0
14,002712,139204314.1,135297184.6,2017-06-30,半年度报告,129548628.56000002,2017,6,0.3457038036777598,True,0.8736163557193961,True,0.03497828835872857,True,比例外推,322308896.2928072,301673636.0,322308896.2928072
15,002712,197697048.8,189828722.76,2017-09-30,三季度报告,175642102.98999995,2017,9,-0.20910223202675363,True,1.1426310299600484,True,0.08148898752541966,True,比例外推,287395491.89286214,235684286.0,235684286.0
16,002712,240449838.68,231088681.77,2017-12-31,年度报告,215810029.33,2017,12,-0.4381189443407634,True,0.8646838759622216,True,0.0,True,比例外推,231088681.77,235684286.0,231088681.77
17,002712,97052271.38,97204659.38,2018-03-31,一季度报告,91775714.02,2018,3,0.5438714424053216,False,1.661512942787716,True,0.04071157374372872,True,前期平均,185445851.19,296022500.0,296022500.0
18,002712,176628368.79999998,174093216.60999998,2018-06-30,半年度报告,166424244.25,2018,6,-0.39682140504868146,True,1.8691280851227354,True,0.13902728241590523,False,平均增速,299567806.9120459,287000000.0,299567806.9120459
19,002712,204863234.99000007,199905550.66000003,2018-09-30,三季度报告,190540349.29,2018,9,-0.5752841881067068,True,1.3916566554163732,True,0.08682892814407017,True,比例外推,271440332.94097805,273555000.0,271440332.94097805
20,002712,38911823.29000001,31521765.46,2018-12-31,年度报告,21069084.33,2018,12,-0.650800087656769,True,1.018584981086526,True,0.0,True,比例外推,31521765.46,267036667.00000003,267036667.00000003
21,002712,123876029.93999995,124374540.87,2019-03-31,一季度报告,122185974.53,2019,3,-0.13484701186186682,True,1.447280222262361,True,2.7850787071648417,False,平均增速,46015702.98698521,233000000.0,233000000.0
22,002712,179015071.98999998,177676118.89,2019-06-30,半年度报告,162416789.92999998,2019,6,-0.5246230084076957,True,0.7522723405965606,True,4.938888926934563,False,平均增速,42422004.54315454,,42422004.54315454
23,002712,194849629.23,191446493.26,2019-09-30,三季度报告,173567586.16,2019,9,-0.5901408928053948,True,0.34839968578228775,True,5.526078151144468,False,平均增速,39259737.5780364,未知,39259737.5780364
24,002712,56934112.43,46430471.58,2019-12-31,年度报告,-107875916.34,2019,12,1.1578290475938273,False,0.8003935817186946,True,0.0,True,前期平均,46430471.58,301000000.0,301000000.0
25,002712,18518460.81,17803683.8,2020-03-31,一季度报告,13352372.85,2020,3,-0.32218474687420184,True,0.635993220886887,True,3.210317943724978,False,平均增速,294103328.5425376,未知,294103328.5425376
