,SECURITYCODE_x,NETPROFIT_x,PARENTNETPROFIT_x,REPORTDATE_x,REPORTTIMETYPE_x,KCFJCXSYJLR,Year,Month,managesituationChangeRate,managesituationGreatChange,historyprofitextroplaterate,ifhistoryprofitextroplate,IfprofitdisStableChangeRage,IfprofitdisStable,predicttype,predict,analyst_prediction,adj_prediction
0,002740,69597685.44,69597685.44,2013-09-30,三季度报告,,2013,9,未知,未知,未知,未知,未知,未知,未知,未知,未知,未知
1,002740,90980310.03,90980310.03,2013-12-31,年度报告,88906226.93,2013,12,未知,未知,未知,未知,未知,未知,未知,未知,未知,未知
2,002740,10464387.09,10464387.09,2014-03-31,一季度报告,85559545.92999999,2014,3,未知,未知,未知,未知,未知,未知,未知,未知,未知,未知
3,002740,40084319.02,40084319.02,2014-06-30,半年度报告,39876480.54,2014,6,未知,未知,未知,未知,未知,未知,未知,未知,未知,未知
4,002740,61745165.19000001,61745165.19000001,2014-09-30,三季度报告,,2014,9,0.0,True,未知,未知,未知,未知,未知,未知,未知,未知
5,002740,87373694.77000001,87373694.77000001,2014-12-31,年度报告,85559545.92999999,2014,12,-0.2350247496733003,True,未知,未知,未知,未知,未知,未知,未知,未知
6,002740,11574215.06,11574215.06,2015-03-31,一季度报告,11381142.16,2015,3,5.650908920075127,False,未知,未知,未知,未知,未知,未知,,未知
7,002740,35147902.00000001,35147902.00000001,2015-06-30,半年度报告,34477297.33,2015,6,0.7362820958807944,False,未知,未知,未知,未知,未知,未知,未知,未知
8,002740,46600794.42,46600794.42,2015-09-30,三季度报告,45367852.19,2015,9,0.12717627729776884,True,未知,未知,未知,未知,未知,未知,90000000.0,未知
9,002740,67378787.2,67378787.2,2015-12-31,年度报告,64826111.95,2015,12,-0.2034480672563186,True,未知,未知,未知,未知,未知,未知,90000000.0,未知
10,002740,9084427.38,9084427.38,2016-03-31,一季度报告,9083998.36,2016,3,5.0131667745250965,False,未知,未知,未知,未知,未知,未知,73250000.0,未知
11,002740,18128886.130000006,18128886.130000006,2016-06-30,半年度报告,17754323.76,2016,6,0.9801376890148374,False,未知,未知,未知,未知,未知,未知,61000000.0,未知
12,002740,39320508.43,39320508.43,2016-09-30,三季度报告,38948532.49,2016,9,0.493487102660427,True,0.29039465495876915,True,,False,平均增速,56040211.95781469,58333333.0,56040211.95781469
13,002740,57795771.58999999,57795771.58999999,2016-12-31,年度报告,56312604.92999999,2016,12,0.032931703466458274,True,0.24443763092893556,True,0.0,True,比例外推,57795771.58999999,63000000.0,57795771.58999999
14,002740,11668212.08,11668212.08,2017-03-31,一季度报告,10884689.09,2017,3,6.661207749122872,False,0.17558951169686582,True,0.5543740233672552,False,前期平均,38390696.975,170000000.0,170000000.0
15,002740,33075992.06,31218449.13,2017-06-30,半年度报告,30411113.57,2017,6,2.8390491804583897,False,0.5180552724827688,True,0.12244889932933795,False,前期平均,69234389.13499999,,69234389.13499999
16,002740,64870331.05,60882711.64999998,2017-09-30,三季度报告,44577129.65000001,2017,9,0.7700098045247986,False,0.27416751724683913,True,,False,前期平均,,未知,
17,002740,67991928.08999999,60340707.79,2017-12-31,年度报告,39634772.42999999,2017,12,0.20420029917970703,True,0.2530553196399894,True,0.0,True,比例外推,60340707.79,100000000.0,100000000.0
18,002740,12784051.85,9486629.75,2018-03-31,一季度报告,8828065.12,2018,3,4.964725783420968,False,0.1296204108172753,True,0.0707905169773167,True,前期平均,59823417.93,未知,59823417.93
19,002740,31765183.24,23346081.430000003,2018-06-30,半年度报告,23203286.76,2018,6,1.1041752977128994,False,0.24166614471171546,True,0.22914768982302414,False,前期平均,57799629.325,未知,57799629.325
20,002740,52836119.62000001,39498067.61,2018-09-30,三季度报告,38920974.85,2018,9,0.07287390573598747,True,0.5099941201601554,True,0.2859690918432599,False,平均增速,35397471.536374465,未知,35397471.536374465
21,002740,49804592.35,28149016.35999999,2018-12-31,年度报告,20491388.04,2018,12,0.023616882108042147,True,0.08635378861717645,True,0.0,True,比例外推,28149016.35999999,未知,28149016.35999999
22,002740,26017101.680000003,15012267.949999996,2019-03-31,一季度报告,13063232.44,2019,3,4.444102249945114,False,0.23204104949067517,True,0.1418993698186624,False,前期平均,53001612.90499999,未知,53001612.90499999
23,002740,45469397.57,28547001.17,2019-06-30,半年度报告,21700757.24,2019,6,1.1910053190676952,False,0.2407092590722554,True,0.42302132145113974,False,前期平均,52437971.184999995,未知,52437971.184999995
24,002740,67684567.52999999,52405986.24,2019-09-30,三季度报告,48144277.24999999,2019,9,0.31723688152252655,True,0.014218138248942682,True,0.6608060169199965,False,平均增速,35382621.29082921,未知,35382621.29082921
25,002740,-288308652.96,-299697319.04,2019-12-31,年度报告,-295804654.78,2019,12,0.3974150205046301,True,0.20811665247553862,True,0.0,True,比例外推,-299697319.04,未知,-299697319.04
26,002740,11661441.34,11377551.58,2020-03-31,一季度报告,9829530.6,2020,3,1.6750745066081467,False,1.1279912366789184,True,0.26458880709723764,False,前期平均,31584254.709999993,未知,31584254.709999993
