,SECURITYCODE_x,NETPROFIT_x,PARENTNETPROFIT_x,REPORTDATE_x,REPORTTIMETYPE_x,KCFJCXSYJLR,Year,Month,managesituationChangeRate,managesituationGreatChange,historyprofitextroplaterate,ifhistoryprofitextroplate,IfprofitdisStableChangeRage,IfprofitdisStable,predicttype,predict,analyst_prediction,adj_prediction
0,002789,85879267.16000001,87393116.85000001,2014-12-31,年度报告,85787033.14,2014,12,未知,未知,未知,未知,未知,未知,未知,未知,未知,未知
1,002789,23206200.61,23620868.47000001,2015-03-31,一季度报告,23995868.47000001,2015,3,未知,未知,未知,未知,未知,未知,未知,未知,未知,未知
2,002789,38850986.67,39542236.67,2015-06-30,半年度报告,40667236.67,2015,6,未知,未知,未知,未知,未知,未知,未知,未知,未知,未知
3,002789,78218873.13,79565237.02,2015-12-31,年度报告,80465237.02,2015,12,0.0,True,未知,未知,未知,未知,未知,未知,未知,未知
4,002789,20960700.11,21044904.899999995,2016-03-31,一季度报告,20853654.9,2016,3,2.7007034715968534,False,未知,未知,未知,未知,未知,未知,96000000.0,未知
5,002789,39347397.00999999,39592865.17,2016-06-30,半年度报告,39401615.17,2016,6,1.210478407909119,False,未知,未知,未知,未知,未知,未知,,未知
6,002789,56316106.88999999,56743810.3,2016-09-30,三季度报告,57711402.5,2016,9,未知,未知,未知,未知,未知,未知,未知,未知,未知,未知
7,002789,80869477.41,82252349.05,2016-12-31,年度报告,81663948.02,2016,12,0.09793536679144456,True,未知,未知,未知,未知,未知,未知,83860000.0,未知
8,002789,27844872.44999999,28028157.919999994,2017-03-31,一季度报告,28279732.41999999,2017,3,3.0971564265178553,False,未知,未知,未知,未知,未知,未知,96810000.0,未知
9,002789,43979366.01999999,44085195.98,2017-06-30,半年度报告,44336503.74,2017,6,1.1825908112339458,False,未知,未知,未知,未知,未知,未知,,未知
10,002789,71365941.98,71791614.79,2017-09-30,三季度报告,66496318.52,2017,9,0.5249503543940734,False,未知,未知,未知,未知,未知,未知,未知,未知
11,002789,90374208.7,91456549.14,2017-12-31,年度报告,89684994.27000001,2017,12,0.06194908030134648,True,0.014376674018552513,True,0.0,True,比例外推,91456549.14,未知,91456549.14
12,002789,29075152.48,29285498.0,2018-03-31,一季度报告,30432569.34,2018,3,2.084204006113163,False,0.26089320265078325,True,0.03427274931716551,True,前期平均,87925328.83499998,114000000.0,114000000.0
13,002789,45153431.23,45347959.48,2018-06-30,半年度报告,46495030.82,2018,6,0.9527172611116242,False,0.1248152186871388,True,0.011596594082537048,True,前期平均,86378126.07999998,,86378126.07999998
14,002789,78328454.3,78561590.75999999,2018-09-30,三季度报告,78127060.44,2018,9,0.20336486533124307,True,未知,未知,未知,未知,未知,未知,未知,未知
15,002789,91079795.01,92227840.49,2018-12-31,年度报告,89806863.95,2018,12,-0.0497369947096421,True,0.136151181318295,True,0.0,True,比例外推,92227840.49,124000000.0,124000000.0
16,002789,32607946.57,32839221.059999995,2019-03-31,一季度报告,29763921.059999995,2019,3,1.9536996312942467,False,0.19146855389334697,True,0.04782366593668219,True,前期平均,93946998.54499999,未知,93946998.54499999
17,002789,46264820.62000001,47265201.91,2019-06-30,半年度报告,43025316.90999999,2019,6,0.9019433256921949,False,0.08376779771808718,True,0.019534001140023627,True,前期平均,91070613.6,未知,91070613.6
18,002789,80521271.32,81794407.33,2019-09-30,三季度报告,79166381.67999999,2019,9,0.09639935994498508,True,0.22692978368087482,True,0.0972512619445236,True,比例外推,105083041.95344746,未知,105083041.95344746
19,002789,20267567.47,21955318.63,2019-12-31,年度报告,18273171.489999995,2019,12,-0.05709858975230465,True,0.06374485482044612,True,0.0,True,比例外推,21955318.63,未知,21955318.63
20,002789,4526907.94,4802596.98,2020-03-31,一季度报告,5660189.96,2020,3,1.6336913603449887,False,0.14574603964425933,True,0.8678245521423043,False,前期平均,65192375.21000001,未知,65192375.21000001
