,SECURITYCODE_x,NETPROFIT_x,PARENTNETPROFIT_x,REPORTDATE_x,REPORTTIMETYPE_x,KCFJCXSYJLR,Year,Month,managesituationChangeRate,managesituationGreatChange,historyprofitextroplaterate,ifhistoryprofitextroplate,IfprofitdisStableChangeRage,IfprofitdisStable,predicttype,predict,analyst_prediction,adj_prediction
0,002705,192205546.33,192205546.33,2013-12-31,年度报告,153636385.91999996,2013,12,未知,未知,未知,未知,未知,未知,未知,未知,未知,未知
1,002705,22634837.99000001,22634837.99000001,2014-03-31,一季度报告,19992704.76,2014,3,未知,未知,未知,未知,未知,未知,未知,未知,未知,未知
2,002705,80015490.11999999,80015490.11999999,2014-06-30,半年度报告,70351691.32999998,2014,6,未知,未知,未知,未知,未知,未知,未知,未知,未知,未知
3,002705,153915215.42,154196869.95000002,2014-09-30,三季度报告,137607043.47,2014,9,未知,未知,未知,未知,未知,未知,未知,未知,未知,未知
4,002705,212591673.64,213349316.08,2014-12-31,年度报告,187616869.57,2014,12,0.0,True,未知,未知,未知,未知,未知,未知,未知,未知
5,002705,30149563.25,32082846.58,2015-03-31,一季度报告,27547816.289999995,2015,3,7.491580386610929,False,未知,未知,未知,未知,未知,未知,未知,未知
6,002705,99043466.05,100924912.73,2015-06-30,半年度报告,80352166.82000002,2015,6,1.402104218092616,False,未知,未知,未知,未知,未知,未知,未知,未知
7,002705,220252682.89,222061392.39,2015-09-30,三季度报告,210127299.66,2015,9,0.24877547554680887,True,未知,未知,未知,未知,未知,未知,299000000.0,未知
8,002705,281901836.9,283521834.08,2015-12-31,年度报告,272404607.83000004,2015,12,-0.09589334784823972,True,未知,未知,未知,未知,未知,未知,304466947.0,未知
9,002705,43282305.99,42878488.79000001,2016-03-31,一季度报告,42438068.54,2016,3,5.375069009664676,False,未知,未知,未知,未知,未知,未知,365662500.0,未知
10,002705,143303024.56,142332613.54,2016-06-30,半年度报告,138266420.68999997,2016,6,0.9406181345972798,False,未知,未知,未知,未知,未知,未知,381528571.0,未知
11,002705,328423946.68000007,326965239.97,2016-09-30,三季度报告,312410076.65,2016,9,-0.12734072607872593,True,未知,未知,未知,未知,未知,未知,410740000.0,未知
12,002705,432846972.15000015,430989970.3299999,2016-12-31,年度报告,412362398.35000014,2016,12,-0.3181827105362859,True,0.39280520217452103,True,0.0,True,比例外推,430989970.3299999,411812221.99999994,430989970.3299999
13,002705,64334007.01,63865717.38,2017-03-31,一季度报告,59593682.89,2017,3,3.440741821251562,False,0.6399657843310224,True,0.003026625232550914,True,前期平均,270106195.555,587885263.0,587885263.0
14,002705,194310270.79999995,193437395.96,2017-06-30,半年度报告,179121271.47000003,2017,6,0.3412525445303833,True,0.6006239243788172,True,0.04011042577423013,True,比例外推,548872413.8702223,530633750.0,548872413.8702223
15,002705,333035306.63,331586924.75000006,2017-09-30,三季度报告,310163738.3800002,2017,9,-0.4147639102660333,True,0.7554897048271052,True,0.02069857696398192,True,比例外推,432701484.1197122,458581667.0,432701484.1197122
16,002705,409640180.22,408023879.76,2017-12-31,年度报告,382054687.16,2017,12,-0.5559503503621772,True,0.7506679579164541,True,0.0,True,比例外推,408023879.76,540586250.0,540586250.0
17,002705,43480257.40000001,43060823.04,2018-03-31,一季度报告,35998643.03000001,2018,3,1.9876196938910369,False,0.7522094337469433,True,0.035973782892127715,True,前期平均,350451383.7150001,474110000.0,474110000.0
18,002705,138889982.52,138225997.41,2018-06-30,半年度报告,162613692.89,2018,6,-0.01083177158538518,True,0.6035740423631459,True,0.10246556568826104,False,平均增速,354145697.0214282,434060000.0,434060000.0
19,002705,358889241.69,358128560.73999995,2018-09-30,三季度报告,408754421.44000006,2018,9,-0.4228673581941296,True,0.21395841806129423,True,0.0315572005450786,True,比例外推,473234557.6871262,479550000.0,473234557.6871262
20,002705,503584443.08,502708939.47,2018-12-31,年度报告,572935586.83,2018,12,-0.5307942052296366,True,0.14624935371202188,True,0.0,True,比例外推,502708939.47,493341429.0,502708939.47
21,002705,89494886.75,88915767.32999998,2019-03-31,一季度报告,72303924.57,2019,3,3.420524574217446,False,0.19193928526430723,True,0.04873924454800842,True,前期平均,435108434.37000006,603824545.0,603824545.0
22,002705,241129782.57,240425692.24,2019-06-30,半年度报告,242062837.52,2019,6,0.38386903679192713,True,0.17722444922140623,True,0.10618161902926082,False,平均增速,794695779.5808372,616810000.0,616810000.0
23,002705,520095370.0500001,518862876.78,2019-09-30,三季度报告,563879703.8499999,2019,9,-0.4644432766362426,True,0.0851439144409479,True,0.05087076250048439,True,比例外推,695994162.3338159,672623846.0,695994162.3338159
24,002705,688489778.87,687342701.21,2019-12-31,年度报告,682801998.58,2019,12,-0.6183250913105233,True,0.1954709140984925,True,0.0,True,比例外推,687342701.21,606252857.0,606252857.0
25,002705,129201075.13,124411924.66,2020-03-31,一季度报告,136180562.82999998,2020,3,1.147670702873983,False,0.660167831033296,True,0.047746423406409874,True,前期平均,554110898.695,865770000.0,865770000.0
