,SECURITYCODE_x,NETPROFIT_x,PARENTNETPROFIT_x,REPORTDATE_x,REPORTTIMETYPE_x,KCFJCXSYJLR,Year,Month,managesituationChangeRate,managesituationGreatChange,historyprofitextroplaterate,ifhistoryprofitextroplate,IfprofitdisStableChangeRage,IfprofitdisStable,predicttype,predict,analyst_prediction,adj_prediction
0,002702,33753902.77,33753902.77,2013-12-31,年度报告,31504575.52,2013,12,未知,未知,未知,未知,未知,未知,未知,未知,未知,未知
1,002702,10706162.489999998,10706162.489999998,2014-03-31,一季度报告,9984060.8,2014,3,未知,未知,未知,未知,未知,未知,未知,未知,未知,未知
2,002702,-667254.15,-667254.15,2014-06-30,半年度报告,-1637116.15,2014,6,未知,未知,未知,未知,未知,未知,未知,未知,未知,未知
3,002702,6333385.06,6333385.06,2014-09-30,三季度报告,4457693.44,2014,9,未知,未知,未知,未知,未知,未知,未知,未知,未知,未知
4,002702,18393285.86,18393285.86,2014-12-31,年度报告,19275457.55,2014,12,0.0,True,未知,未知,未知,未知,未知,未知,未知,未知
5,002702,-3729047.31,-3729047.31,2015-03-31,一季度报告,-6572044.42,2015,3,2.152754574902777,False,未知,未知,未知,未知,未知,未知,44706500.0,未知
6,002702,-6845467.9700000025,-6845467.9700000025,2015-06-30,半年度报告,-10216220.319999997,2015,6,-51.586276263699524,False,未知,未知,未知,未知,未知,未知,,未知
7,002702,-22899469.36000001,-22899469.36000001,2015-09-30,三季度报告,-26591991.91,2015,9,4.3295200671092635,False,未知,未知,未知,未知,未知,未知,未知,未知
8,002702,-39514111.00000001,-39514111.00000001,2015-12-31,年度报告,-43764679.55,2015,12,0.8351208711111721,False,未知,未知,未知,未知,未知,未知,85283000.0,未知
9,002702,12750714.080000002,12750714.080000002,2016-03-31,一季度报告,11315979.45,2016,3,-10.051615590792814,False,未知,未知,未知,未知,未知,未知,15180000.0,未知
10,002702,9540520.52,9540520.52,2016-06-30,半年度报告,6983384.4300000025,2016,6,-5.930839340411083,False,未知,未知,未知,未知,未知,未知,18915000.0,未知
11,002702,8144520.53,8144520.53,2016-09-30,三季度报告,4752255.63,2016,9,-2.474003708966293,False,未知,未知,未知,未知,未知,未知,,未知
12,002702,13071599.239999995,13071599.239999995,2016-12-31,年度报告,7566153.429999998,2016,12,-1.8542240206289848,False,2.515483846324469,False,0.0,True,前期平均,13071599.239999995,16660000.0,16660000.0
13,002702,-3986597.44,-3986597.44,2017-03-31,一季度报告,-5266121.800000002,2017,3,1.6472166623941737,False,2.6550103448342397,False,0.7743584631186571,False,前期平均盈利变化,-34519317.879999995,未知,-34519317.879999995
14,002702,-17261313.14,-17261313.14,2017-06-30,半年度报告,-18786742.9,2017,6,2.5379519072613457,False,-3.539830534820845,True,0.5658170279752068,False,盈利变化,-4108485.646666672,未知,-4108485.646666672
15,002702,-25176333.65,-25176333.65,2017-09-30,三季度报告,-27665875.39,2017,9,3.144369536017365,False,-1.9832764801275333,True,0.25772726222925135,False,盈利变化,-1336458.9911111165,未知,-1336458.9911111165
16,002702,-27281941.24,-27281941.24,2017-12-31,年度报告,-30632046.600000005,2017,12,1.5822320704807669,False,-2.2377924776474893,True,0.0,True,盈利变化,338865.8966666609,未知,338865.8966666609
17,002702,12318479.7,12318479.7,2018-03-31,一季度报告,11784827.31,2018,3,-9.466845042172103,False,1.8837829065592941,True,0.8897091536274636,False,盈利变化,-4547342.426666662,未知,-4547342.426666662
18,002702,10461760.62,10461760.62,2018-06-30,半年度报告,7179910.729999999,2018,6,-2.95546552549246,False,13.80963010535733,False,0.3564699436643314,False,盈利变化,-9970838.82,未知,-9970838.82
19,002702,26794915.350000005,26794915.350000005,2018-09-30,三季度报告,20785749.66,2018,9,-2.340699691990299,False,-2.412595182819076,True,0.19020944302135223,False,盈利变化,-5747885.6622222215,未知,-5747885.6622222215
20,002702,34894498.02,34894498.02,2018-12-31,年度报告,28213371.89,2018,12,-2.23722511067178,False,-1.063490903407278,True,0.0,True,盈利变化,-7666801.7433333285,未知,-7666801.7433333285
21,002702,13082796.02,13082796.02,2019-03-31,一季度报告,11345820.58,2019,3,1.7401029666022834,False,1.8111172422734885,True,0.8005305407070268,False,前期平均,-1475079.3900000025,未知,-1475079.3900000025
22,002702,7014687.76,7014687.76,2019-06-30,半年度报告,4583774.27,2019,6,2.226407484938229,False,-3.7100224380848603,True,0.34243607102410023,False,前期平均,1383420.4099999946,未知,1383420.4099999946
23,002702,12385226.86,12385226.86,2019-09-30,三季度报告,8752455.610000001,2019,9,0.2597129839411863,True,-4.146454832637338,True,0.14716914554416782,False,平均增速,11855335.783669338,未知,11855335.783669338
24,002702,6839937.670000001,6839937.670000001,2019-12-31,年度报告,1075287.4500000002,2019,12,-0.03268696541633184,True,-5.911141198431395,True,0.0,True,比例外推,6839937.670000001,未知,6839937.670000001
25,002702,21769405.05,21769405.05,2020-03-31,一季度报告,20589681.32,2020,3,1.5800220930143345,False,2.140417881997291,False,6.8377471820417135,False,去年同期,11498871.920000002,未知,11498871.920000002
