,SECURITYCODE_x,NETPROFIT_x,PARENTNETPROFIT_x,REPORTDATE_x,REPORTTIMETYPE_x,KCFJCXSYJLR,Year,Month,managesituationChangeRate,managesituationGreatChange,historyprofitextroplaterate,ifhistoryprofitextroplate,IfprofitdisStableChangeRage,IfprofitdisStable,predicttype,predict,analyst_prediction,adj_prediction
0,002745,111004327.76,107085172.19,2011-12-31,年度报告,103334843.51,2011,12,未知,未知,未知,未知,未知,未知,未知,未知,未知,未知
1,002745,165841693.79000002,161539148.59999996,2012-12-31,年度报告,130941800.29,2012,12,0.0,True,未知,未知,未知,未知,未知,未知,未知,未知
2,002745,436143923.38,432682214.24,2013-12-31,年度报告,418677737.99,2013,12,-0.33066091389200836,True,未知,未知,未知,未知,未知,未知,未知,未知
3,002745,90379268.57,90106980.93,2014-03-31,一季度报告,89031305.99,2014,3,未知,未知,未知,未知,未知,未知,未知,未知,未知,未知
4,002745,252709267.4700001,250708312.37,2014-06-30,半年度报告,248760258.24,2014,6,未知,未知,未知,未知,未知,未知,未知,未知,未知,未知
5,002745,438353070.03,433762332.68,2014-12-31,年度报告,423711438.24,2014,12,-0.7454869326167706,True,2.1508050644045817,False,0.0,True,比例外推,433762332.68,未知,433762332.68
6,002745,91208971.84,92291162.3,2015-03-31,一季度报告,92368249.90000002,2015,3,0.22820564401918808,True,未知,未知,未知,未知,未知,未知,635000000.0,未知
7,002745,232223411.01,231696196.4,2015-06-30,半年度报告,229569965.72,2015,6,-0.5607429483242926,True,未知,未知,未知,未知,未知,未知,,未知
8,002745,251961313.09,248887533.92000008,2015-09-30,三季度报告,245857054.3,2015,9,未知,未知,未知,未知,未知,未知,未知,未知,325000000.0,未知
9,002745,257633872.94000003,255546299.55,2015-12-31,年度报告,226443862.01,2015,12,-0.7467695897455375,True,0.4563572867097572,True,0.0,True,比例外推,255546299.55,550451429.0,550451429.0
10,002745,50040062.49999999,50464327.75,2016-03-31,一季度报告,48441153.53000001,2016,3,0.21703299051243863,True,未知,未知,未知,未知,未知,未知,538995000.0,未知
11,002745,154576877.68999997,152617282.02,2016-06-30,半年度报告,148654260.51000002,2016,6,-0.5219933800937067,True,未知,未知,未知,未知,未知,未知,285297076.0,未知
12,002745,325344586.55999994,314047088.28,2016-09-30,三季度报告,302424354.33,2016,9,-0.5594390011757499,True,未知,未知,未知,未知,未知,未知,,未知
13,002745,485433493.36,473459377.8899999,2016-12-31,年度报告,464584889.2600001,2016,12,-0.569139234320125,True,0.41078385659077793,True,0.0,True,比例外推,473459377.8899999,,473459377.8899999
14,002745,132405454.30000004,132568937.58000004,2017-03-31,一季度报告,133295116.60000002,2017,3,1.2183091350055772,False,0.44886230091754,True,0.16714192751285298,False,前期平均,366946809.76000005,659825000.0,659825000.0
15,002745,309850232.96,306124796.02,2017-06-30,半年度报告,292690691.04,2017,6,-0.28188271480928484,True,0.3624810842836399,True,0.37351329986570014,False,平均增速,821404246.3885887,656912500.0,656912500.0
16,002745,447217663.7000001,439787003.2,2017-09-30,三季度报告,400519885.89000016,2017,9,-0.6588099745758991,True,未知,未知,未知,未知,未知,未知,656886667.0,未知
17,002745,676309061.2300001,668548193.2499999,2017-12-31,年度报告,525166038.48,2017,12,-0.7713294832796413,True,0.3949500008965664,True,0.0,True,比例外推,668548193.2499999,未知,668548193.2499999
18,002745,164909484.61,165630718.49,2018-03-31,一季度报告,-14321440.75,2018,3,-0.16163326996718766,True,0.8747803115069429,True,0.1525776977547887,False,平均增速,456317743.3231883,1016466667.0,1016466667.0
19,002745,485255315.0599999,484013859.77,2018-06-30,半年度报告,90261770.3,2018,6,-0.6417484450485146,True,0.6021199673939128,True,0.3834361228362807,False,平均增速,704797252.9705932,987266667.0,987266667.0
20,002745,607029888.53,601109300.67,2018-09-30,三季度报告,162941368.88,2018,9,-0.7517890352504877,True,0.5493264973426818,True,0.2526171736049333,False,平均增速,725621573.8948476,752000000.0,725621573.8948476
21,002745,727904152.8899999,720364452.9399999,2018-12-31,年度报告,213809453.96,2018,12,-0.8358674545064989,True,0.8203169507970359,True,0.0,True,比例外推,720364452.9399999,1190936667.0,1190936667.0
22,002745,167630890.03,170278367.51000002,2019-03-31,一季度报告,-52500885.41,2019,3,-0.32687723800412166,True,0.8077669158708533,True,0.16401577172295884,False,平均增速,67946693.3473376,911000000.0,911000000.0
23,002745,397169041.93,393794710.12000006,2019-06-30,半年度报告,65299462.42,2019,6,-0.7712455189774176,True,1.0896941799149034,True,0.12417584665177966,False,平均增速,485974149.32659054,801333333.0,801333333.0
24,002745,699055929.9699999,689167245.51,2019-09-30,三季度报告,230280827.62,2019,9,-0.8171353176219855,True,0.5714717832141258,True,0.07427616923526714,True,比例外推,776413431.6203761,860800000.0,776413431.6203761
25,002745,501860724.5799999,491697241.48,2019-12-31,年度报告,-94747754.65,2019,12,-0.847501450130104,True,0.2531247134127584,True,0.0,True,比例外推,491697241.48,898666667.0,898666667.0
26,002745,111909433.64,112093041.85,2020-03-31,一季度报告,22309539.06,2020,3,-0.33780505645389014,True,0.1276318011100235,True,0.31396396539497595,False,平均增速,61250422.63773085,1087170000.0,1087170000.0
