,SECURITYCODE_x,NETPROFIT_x,PARENTNETPROFIT_x,REPORTDATE_x,REPORTTIMETYPE_x,KCFJCXSYJLR,Year,Month,managesituationChangeRate,managesituationGreatChange,historyprofitextroplaterate,ifhistoryprofitextroplate,IfprofitdisStableChangeRage,IfprofitdisStable,predicttype,predict,analyst_prediction,adj_prediction
0,002734,64952300.44000001,64697314.95,2011-12-31,年度报告,53397621.7,2011,12,未知,未知,未知,未知,未知,未知,未知,未知,未知,未知
1,002734,63368180.53,63078848.70999999,2012-12-31,年度报告,59775648.71000001,2012,12,0.0,True,未知,未知,未知,未知,未知,未知,未知,未知
2,002734,37473600.0,37473600.0,2013-09-30,三季度报告,32414400.000000004,2013,9,未知,未知,未知,未知,未知,未知,未知,未知,未知,未知
3,002734,52595606.49000001,52440451.91,2013-12-31,年度报告,46521929.02,2013,12,0.024998664893811355,True,未知,未知,未知,未知,未知,未知,未知,未知
4,002734,13442335.009999998,13189968.489999998,2014-03-31,一季度报告,12987111.820000002,2014,3,未知,未知,未知,未知,未知,未知,未知,未知,未知,未知
5,002734,29780748.48,29410491.770000003,2014-06-30,半年度报告,28221406.88000001,2014,6,未知,未知,未知,未知,未知,未知,未知,未知,未知,未知
6,002734,36551664.38,36089306.46,2014-09-30,三季度报告,32798206.460000005,2014,9,0.7332815752956752,False,未知,未知,未知,未知,未知,未知,未知,未知
7,002734,48646683.15,48366766.85,2014-12-31,年度报告,43767166.25,2014,12,0.23493775953224114,True,0.18024611359902382,True,0.0,True,比例外推,48366766.85,未知,48366766.85
8,002734,14130652.14,14119085.150000002,2015-03-31,一季度报告,13973997.78,2015,3,3.8319209714443816,False,未知,未知,未知,未知,未知,未知,,未知
9,002734,30219714.40000001,30189795.43,2015-06-30,半年度报告,27947582.37,2015,6,1.181016386596876,False,未知,未知,未知,未知,未知,未知,未知,未知
10,002734,36037602.75,35973416.08,2015-09-30,三季度报告,33002115.32,2015,9,0.7769998040236987,False,未知,未知,未知,未知,未知,未知,未知,未知
11,002734,67543329.03000002,67439600.0,2015-12-31,年度报告,63267670.97000001,2015,12,0.33518456417105214,True,0.16100216455314598,True,0.0,True,比例外推,67439600.0,64952500.0,67439600.0
12,002734,29140767.25,29106195.309999995,2016-03-31,一季度报告,19974389.390000004,2016,3,3.59655363365275,False,未知,未知,未知,未知,未知,未知,未知,未知
13,002734,59217684.38000001,58943726.50000001,2016-06-30,半年度报告,48933602.19,2016,6,1.1493353504360053,False,未知,未知,未知,未知,未知,未知,104000000.0,未知
14,002734,69859664.28,69472230.85000001,2016-09-30,三季度报告,62478785.16,2016,9,0.8023479777660852,False,0.026343153196854485,True,0.1342936203933328,False,前期平均,82010475.25500001,105805000.0,105805000.0
15,002734,113216379.34,112992341.65,2016-12-31,年度报告,120910552.79,2016,12,-0.03836098438158376,True,0.33429082392688575,True,0.0,True,比例外推,112992341.65,未知,112992341.65
16,002734,51012746.59999999,50717207.31000002,2017-03-31,一季度报告,49872231.02,2017,3,1.228915247246965,False,1.113718552978762,True,0.06913096638558261,True,前期平均,90754071.12000002,163356667.0,163356667.0
17,002734,80083740.42999999,78971870.28999998,2017-06-30,半年度报告,80218082.22000001,2017,6,0.09683958635060701,True,0.9739075846276205,True,0.14772358095171356,False,平均增速,198368973.52260238,181830000.0,198368973.52260238
18,002734,112426055.32,111362682.27,2017-09-30,三季度报告,90160065.02,2017,9,-0.07024602666756458,True,0.9247932109546841,True,0.15346536199372818,False,平均增速,202556383.82905626,156776667.0,156776667.0
19,002734,141762791.02999997,137323646.52999997,2017-12-31,年度报告,104412748.53,2017,12,-0.4262994381321644,True,0.9488143122768024,True,0.0,True,比例外推,137323646.52999997,130000000.0,137323646.52999997
20,002734,59309252.06000001,58697775.42999999,2018-03-31,一季度报告,55869195.94,2018,3,0.27325628924281503,True,1.357803248385654,True,0.18973976293536526,False,平均增速,127079887.60598618,196276667.00000003,196276667.00000003
21,002734,103556295.07000002,102957447.31,2018-06-30,半年度报告,99587255.23,2018,6,-0.18894522044991327,True,0.7908333990569572,True,0.23003751040994624,False,平均增速,134758686.26332748,194903332.99999997,194903332.99999997
22,002734,150961932.17000002,150216499.57,2018-09-30,三季度报告,143931332.01999998,2018,9,-0.4222664821324088,True,1.1233041885424755,True,0.22954366615411204,False,平均增速,171479524.62194678,194230000.0,194230000.0
23,002734,209147954.42,206113576.77000004,2018-12-31,年度报告,198193103.79000005,2018,12,-0.5418240571585901,True,0.5685220153135387,True,0.0,True,比例外推,206113576.77000004,194341110.99999997,206113576.77000004
24,002734,84357900.52,82549278.88999997,2019-03-31,一季度报告,79867853.65999998,2019,3,0.09514617338777484,True,0.4798915034714979,True,0.169399206053918,False,平均增速,282543717.62832284,297035000.0,282543717.62832284
25,002734,213396066.13,198682889.47,2019-06-30,半年度报告,188506142.8,2019,6,-0.3727826937406868,True,0.4867944848553487,True,0.20979074754601112,False,平均增速,360087636.89623904,377259091.0,360087636.89623904
26,002734,314767828.20999986,286477878.85,2019-09-30,三季度报告,259931906.44,2019,9,-0.5697438453102438,True,0.6563220915084784,True,0.1854144008887666,False,平均增速,372938734.7664629,352836667.0,372938734.7664629
27,002734,346069883.22,321894664.9,2019-12-31,年度报告,292368139.31,2019,12,-0.6894432908984316,True,0.6405101178775163,True,0.0,True,比例外推,321894664.9,343004000.0,321894664.9
28,002734,167104532.32999998,142400624.33,2020-03-31,一季度报告,143971410.74,2020,3,-0.2300389170472445,True,0.5293033401249657,True,0.13340723241042718,False,平均增速,513138088.082181,413416000.0,413416000.0
