,SECURITYCODE_x,NETPROFIT_x,PARENTNETPROFIT_x,REPORTDATE_x,REPORTTIMETYPE_x,KCFJCXSYJLR,Year,Month,managesituationChangeRate,managesituationGreatChange,historyprofitextroplaterate,ifhistoryprofitextroplate,IfprofitdisStableChangeRage,IfprofitdisStable,predicttype,predict,analyst_prediction,adj_prediction
0,002781,120865968.41,120865968.41,2012-12-31,年度报告,119844219.10000002,2012,12,未知,未知,未知,未知,未知,未知,未知,未知,未知,未知
1,002781,126749191.95,126749191.95,2013-12-31,年度报告,124176478.09999996,2013,12,0.0,True,未知,未知,未知,未知,未知,未知,未知,未知
2,002781,148946520.43999997,148946520.43999997,2014-12-31,年度报告,147246326.24999997,2014,12,-0.04641626072315175,True,未知,未知,未知,未知,未知,未知,未知,未知
3,002781,49033538.59000002,49033538.59000002,2015-03-31,一季度报告,48403013.59000002,2015,3,未知,未知,未知,未知,未知,未知,未知,未知,未知,未知
4,002781,74542210.34,74542210.34,2015-06-30,半年度报告,73290196.33,2015,6,未知,未知,未知,未知,未知,未知,未知,未知,170746875.0,未知
5,002781,116385572.09,116385572.09,2015-09-30,三季度报告,115080272.09,2015,9,未知,未知,未知,未知,未知,未知,未知,未知,,未知
6,002781,130347934.28,130347934.28,2015-12-31,年度报告,129046456.37,2015,12,-0.188527747724806,True,0.20304847428122927,True,0.0,True,比例外推,130347934.28,176500000.0,176500000.0
7,002781,39327414.55,39327414.55,2016-03-31,一季度报告,38123512.37,2016,3,1.4649652439044978,False,未知,未知,未知,未知,未知,未知,,未知
8,002781,60383937.1,60383937.1,2016-06-30,半年度报告,58872891.72,2016,6,0.6214433118995166,False,未知,未知,未知,未知,未知,未知,未知,未知
9,002781,95414680.75,95414680.75,2016-09-30,三季度报告,93610846.52,2016,9,0.03849614896024517,True,未知,未知,未知,未知,未知,未知,154730000.0,未知
10,002781,108752435.28,108752435.28,2016-12-31,年度报告,102272465.39,2016,12,-0.07274350700205055,True,0.05440724376874298,True,0.0,True,比例外推,108752435.28,208500000.0,208500000.0
11,002781,40097390.29000001,40097390.29000001,2017-03-31,一季度报告,39933883.70999999,2017,3,2.073326070198022,False,未知,未知,未知,未知,未知,未知,174363332.99999997,未知
12,002781,68483597.76,69709306.64,2017-06-30,半年度报告,68391671.52,2017,6,1.0016245083495887,False,未知,未知,未知,未知,未知,未知,151250000.0,未知
13,002781,127964615.65,130472634.27999996,2017-09-30,三季度报告,132765065.48999998,2017,9,0.26674393772469857,True,未知,未知,未知,未知,未知,未知,159583333.0,未知
14,002781,139785136.35000002,149602991.96,2017-12-31,年度报告,146471228.40999997,2017,12,0.11138631607477871,True,0.22123455412656026,True,0.0,True,比例外推,149602991.96,259000000.0,259000000.0
15,002781,41532943.98,41379417.79000001,2018-03-31,一季度报告,43227717.79,2018,3,2.0143100968878533,False,0.09241833943395149,True,0.06752223534510726,True,前期平均,113775615.69000001,177820000.0,177820000.0
16,002781,89618230.81,89874108.32999998,2018-06-30,半年度报告,88835231.71999998,2018,6,0.7648892926679088,False,0.015127150064872653,True,0.06990865139466357,True,前期平均,139452025.185,197000000.0,197000000.0
17,002781,144344845.55,148623862.00000003,2018-09-30,三季度报告,141757272.39999998,2018,9,-0.05547351667445116,True,0.20835186865114985,True,0.012728211182427618,True,比例外推,163590667.96599728,197000000.0,197000000.0
18,002781,159614558.89000002,168533561.76999995,2018-12-31,年度报告,159258291.95999998,2018,12,-0.135344632727112,True,0.16925905725061835,True,0.0,True,比例外推,168533561.76999995,221000000.0,221000000.0
19,002781,40627795.19000001,43176252.29,2019-03-31,一季度报告,43249949.46,2019,3,1.9101228284756908,False,0.04584314846394515,True,0.0671523623836171,True,前期平均,128519401.14999998,,128519401.14999998
20,002781,48331475.25,54758424.47,2019-06-30,半年度报告,53456518.14000001,2019,6,0.34867612669400333,True,0.3908581537989388,True,0.06653181077602016,True,比例外推,101508916.9655849,未知,101508916.9655849
21,002781,79033456.60999998,88086312.42000002,2019-09-30,三季度报告,59184166.49,2019,9,-0.16265823036865631,True,0.292374431079997,True,0.013838058481620896,True,比例外推,94375175.7969642,未知,94375175.7969642
22,002781,75347059.19,86142160.28,2019-12-31,年度报告,48521574.04000001,2019,12,-0.24276350947850567,True,0.2844300187145914,True,0.0,True,比例外推,86142160.28,209000000.0,209000000.0
23,002781,-32310776.190000005,-28785151.77,2020-03-31,一季度报告,-19726195.05,2020,3,1.9749576083259752,False,0.004590743053439975,True,0.4128795964995256,False,盈利变化,2173967.599999994,未知,2173967.599999994
