,SECURITYCODE_x,NETPROFIT_x,PARENTNETPROFIT_x,REPORTDATE_x,REPORTTIMETYPE_x,KCFJCXSYJLR,Year,Month,managesituationChangeRate,managesituationGreatChange,historyprofitextroplaterate,ifhistoryprofitextroplate,IfprofitdisStableChangeRage,IfprofitdisStable,predicttype,predict,analyst_prediction,adj_prediction
0,002760,38324233.11,45080996.85,2012-12-31,年度报告,35549327.39,2012,12,未知,未知,未知,未知,未知,未知,未知,未知,未知,未知
1,002760,21110783.100000005,21110783.100000005,2014-06-30,半年度报告,18670643.570000004,2014,6,未知,未知,未知,未知,未知,未知,未知,未知,未知,未知
2,002760,25863327.500000004,25863327.500000004,2014-09-30,三季度报告,,2014,9,未知,未知,未知,未知,未知,未知,未知,未知,未知,未知
3,002760,37158876.61000001,37158876.61000001,2014-12-31,年度报告,31827960.92,2014,12,未知,未知,未知,未知,未知,未知,未知,未知,未知,未知
4,002760,10156880.6,10156880.6,2015-03-31,一季度报告,9528455.58,2015,3,未知,未知,未知,未知,未知,未知,未知,未知,未知,未知
5,002760,18951404.38,18951404.38,2015-06-30,半年度报告,14726808.910000002,2015,6,0.8153866168043756,False,未知,未知,未知,未知,未知,未知,40960000.0,未知
6,002760,19773683.76,19773683.76,2015-09-30,三季度报告,11071705.14,2015,9,0.4817982376784269,True,未知,未知,未知,未知,未知,未知,31000000.0,未知
7,002760,28908755.689999994,28908755.689999994,2015-12-31,年度报告,16920574.169999998,2015,12,0.031361456704705054,True,未知,未知,未知,未知,未知,未知,未知,未知
8,002760,9364574.79,9364574.79,2016-03-31,一季度报告,-3260921.5299999993,2016,3,2.7732286731814098,False,未知,未知,未知,未知,未知,未知,未知,未知
9,002760,10995282.569999997,10995282.569999997,2016-06-30,半年度报告,-7461642.250000001,2016,6,1.0222371039923956,False,未知,未知,未知,未知,未知,未知,未知,未知
10,002760,11160672.65,11160672.65,2016-09-30,三季度报告,-13416805.87,2016,9,0.9381433209489134,False,未知,未知,未知,未知,未知,未知,22165000.0,未知
11,002760,10229780.1,10229780.1,2016-12-31,年度报告,-23629970.28,2016,12,0.32569639181173654,True,未知,未知,未知,未知,未知,未知,22165000.0,未知
12,002760,-3909896.1400000006,-3909896.1400000006,2017-03-31,一季度报告,-8999960.09,2017,3,3.092469115727998,False,未知,未知,未知,未知,未知,未知,139000000.0,未知
13,002760,-9679848.24,-9679848.24,2017-06-30,半年度报告,-18658859.46,2017,6,2.4855159806957112,False,0.4510892558980159,True,0.2794389480780727,False,盈利变化,2764968.626666666,-6920000.0,-6920000.0
14,002760,-14562714.36,-14562714.36,2017-09-30,三季度报告,-29807988.47000001,2017,9,2.4338640968920453,False,0.5108937968607895,True,,False,盈利变化,2944810.0555555504,5045000.0,5045000.0
15,002760,-85095692.21,-85095692.21,2017-12-31,年度报告,-107578396.8,2017,12,2.7463398758688857,False,0.6903239984884398,True,0.0,True,盈利变化,-17753028.740000002,,-17753028.740000002
16,002760,1476578.41,1476578.41,2018-03-31,一季度报告,-6416022.54,2018,3,-10.80185450910724,False,1.400574246324162,True,0.30153260889191474,False,前期平均,-5011886.670000001,未知,-5011886.670000001
17,002760,10306401.549999997,10306401.549999997,2018-06-30,半年度报告,-2507222.77,2018,6,-4.959177061437071,False,1.6464720625798641,True,0.4171613035898997,False,前期平均,3319120.1649999944,未知,3319120.1649999944
18,002760,18092736.95,18092736.95,2018-09-30,三季度报告,-2493826.15,2018,9,-3.6316682565213756,False,1.94152366818224,True,0.22265282474826958,False,前期平均,15910589.259999998,未知,15910589.259999998
19,002760,30461959.7,30461959.7,2018-12-31,年度报告,5648916.6000000015,2018,12,-1.4503663124970307,False,5.3484351415998646,False,0.0,True,前期平均,30461959.7,未知,30461959.7
20,002760,18855438.23,18855438.23,2019-03-31,一季度报告,11125436.24,2019,3,24.954756517129358,False,0.45860113684240583,True,0.8310843149034517,False,前期平均,-40618304.5,未知,-40618304.5
21,002760,28446756.25,28446756.25,2019-06-30,半年度报告,15184055.270000005,2019,6,2.718488254515953,False,14.669959822319711,False,0.45896575804249673,False,去年同期,36602895.620000005,未知,36602895.620000005
22,002760,40409669.73,40409669.73,2019-09-30,三季度报告,23100911.07,2019,9,1.1182109271753935,False,-11.636399252142036,True,0.5759362814189986,False,前期平均,-3582116.639999993,未知,-3582116.639999993
23,002760,73893171.25999999,66152543.07000001,2019-12-31,年度报告,42203587.88,2019,12,0.25810136601290296,True,-1.8137738215288806,True,0.0,True,比例外推,66152543.07000001,未知,66152543.07000001
24,002760,16521937.569999995,14214281.140000002,2020-03-31,一季度报告,8301355.499999999,2020,3,1.0325294295745466,False,-16.497719839488447,True,0.8729556899968445,False,前期平均,-29042467.644999996,未知,-29042467.644999996
