,SECURITYCODE_x,NETPROFIT_x,PARENTNETPROFIT_x,REPORTDATE_x,REPORTTIMETYPE_x,KCFJCXSYJLR,Year,Month,managesituationChangeRate,managesituationGreatChange,historyprofitextroplaterate,ifhistoryprofitextroplate,IfprofitdisStableChangeRage,IfprofitdisStable,predicttype,predict,analyst_prediction,adj_prediction
0,002746,86778445.32000001,86778445.32000001,2012-12-31,年度报告,78362686.46,2012,12,未知,未知,未知,未知,未知,未知,未知,未知,未知,未知
1,002746,47616092.52999999,47616092.52999999,2013-12-31,年度报告,9044357.82,2013,12,0.0,True,未知,未知,未知,未知,未知,未知,未知,未知
2,002746,2902566.74,2902566.74,2014-03-31,一季度报告,2920891.51,2014,3,未知,未知,未知,未知,未知,未知,未知,未知,未知,未知
3,002746,13173328.65,13173328.65,2014-06-30,半年度报告,11177995.920000002,2014,6,未知,未知,未知,未知,未知,未知,未知,未知,未知,未知
4,002746,43878773.7,43878773.7,2014-09-30,三季度报告,,2014,9,未知,未知,未知,未知,未知,未知,未知,未知,未知,未知
5,002746,44340870.38999999,44340870.38999999,2014-12-31,年度报告,36713922.18,2014,12,0.8224604479110968,False,未知,未知,未知,未知,未知,未知,未知,未知
6,002746,2441341.75,2441341.75,2015-03-31,一季度报告,1289889.13,2015,3,28.897140390990632,False,未知,未知,未知,未知,未知,未知,,未知
7,002746,8593939.09,8593939.09,2015-06-30,半年度报告,5971711.45,2015,6,5.587434932020769,False,未知,未知,未知,未知,未知,未知,57153700.0,未知
8,002746,14301623.48,14301623.48,2015-09-30,三季度报告,8247665.52,2015,9,0.9776862022923855,False,未知,未知,未知,未知,未知,未知,35800000.0,未知
9,002746,22553282.88,22557355.379999995,2015-12-31,年度报告,6043242.98,2015,12,0.9570758209466899,False,0.3401388017794356,True,0.0,True,前期平均,22557355.379999995,29700000.0,29700000.0
10,002746,20192128.65,20325634.23,2016-03-31,一季度报告,18807191.81,2016,3,34.54539028384699,False,未知,未知,未知,未知,未知,未知,316666667.0,未知
11,002746,75911431.1,76382573.74000001,2016-06-30,半年度报告,78148988.48,2016,6,9.097633275173703,False,未知,未知,未知,未知,未知,未知,315332500.0,未知
12,002746,177994603.61,178463762.38000005,2016-09-30,三季度报告,178011606.44,2016,9,5.067733879398705,False,未知,未知,未知,未知,未知,未知,222425000.0,未知
13,002746,245196516.89,245516007.12,2016-12-31,年度报告,242141219.76,2016,12,2.847707927121961,False,0.50948178008835,True,0.0,True,前期平均,245516007.12,274586875.0,274586875.0
14,002746,15903055.2,15764538.47,2017-03-31,一季度报告,7014771.750000001,2017,3,3.297637303336021,False,6.557063781232525,False,0.08988597177975975,True,去年同期,239098566.42,206000000.0,206000000.0
15,002746,37129393.05,37051937.67,2017-06-30,半年度报告,22410807.180000003,2017,6,0.1431538578911077,True,5.974824034575869,False,0.44970778602781913,False,未知,未知,120966667.0,未知
16,002746,65265059.12,65265059.12,2017-09-30,三季度报告,41895010.07,2017,9,-0.512465863795858,True,5.118713939312436,False,,False,未知,未知,89500000.0,未知
17,002746,101904429.07999998,101969302.09999998,2017-12-31,年度报告,66577976.11000001,2017,12,-0.6460861417581616,True,6.3308803506438345,False,0.0,True,比例外推,101969302.09999998,317000000.0,317000000.0
18,002746,31556682.33000001,30823028.20000001,2018-03-31,一季度报告,18115219.700000007,2018,3,4.4567153436026565,False,0.4052688270023319,True,0.08128477142573837,True,前期平均,144866719.1,238500000.0,238500000.0
19,002746,91000285.54,88857058.88,2018-06-30,半年度报告,66636146.68000001,2018,6,1.337189977846945,False,0.12125364419991075,True,0.4389918287007768,False,前期平均,170888940.28499997,262632500.0,262632500.0
20,002746,227789927.7199999,219712883.07,2018-09-30,三季度报告,186313571.62,2018,9,0.3296309922962652,True,0.32120291585903943,True,0.4550436957011662,False,平均增速,523543881.4473662,315250000.0,315250000.0
21,002746,422241551.95000017,401958666.17000014,2018-12-31,年度报告,355170451.88999987,2018,12,-0.14843303570373115,True,0.23880855061302,True,0.0,True,比例外推,401958666.17000014,,401958666.17000014
22,002746,168787378.09,156497328.55,2019-03-31,一季度报告,148543699.94,2019,3,1.7499229612455898,False,0.74852592307824,True,0.027349615996862475,True,前期平均,297945944.70500004,816146667.0,816146667.0
23,002746,424714518.74,402689699.53,2019-06-30,半年度报告,382633573.57,2019,6,-0.046393702997165324,True,0.6100428535313366,True,0.09470551467525856,True,比例外推,1375360963.330311,830987500.0,830987500.0
24,002746,684271695.2600001,646603839.82,2019-09-30,三季度报告,609949261.71,2019,9,-0.6190417803430346,True,0.8728129864492137,True,0.10549163713908583,False,平均增速,1159809071.0721712,945000000.0,945000000.0
25,002746,1062759830.78,1000665278.7,2019-12-31,年度报告,936418792.5,2019,12,-0.7944815120178511,True,1.4329611132001618,True,0.0,True,比例外推,1000665278.7,943000000.0,1000665278.7
26,002746,164602032.70000002,162388178.36,2020-03-31,一季度报告,144906829.77999997,2020,3,-0.48587124048026614,True,6.112866057605437,False,0.05399423574188903,True,比例外推,1397565661.253913,906666667.0,906666667.0
