,SECURITYCODE_x,NETPROFIT_x,PARENTNETPROFIT_x,REPORTDATE_x,REPORTTIMETYPE_x,KCFJCXSYJLR,Year,Month,managesituationChangeRate,managesituationGreatChange,historyprofitextroplaterate,ifhistoryprofitextroplate,IfprofitdisStableChangeRage,IfprofitdisStable,predicttype,predict,analyst_prediction,adj_prediction
0,002738,-402402.5500000001,147435.43,2014-03-31,一季度报告,45972.02,2014,3,未知,未知,未知,未知,未知,未知,未知,未知,未知,未知
1,002738,40209582.96999999,44859798.34,2014-12-31,年度报告,44372207.87,2014,12,未知,未知,未知,未知,未知,未知,未知,未知,未知,未知
2,002738,-587510.5100000001,207973.28000000003,2015-03-31,一季度报告,673985.63,2015,3,-0.0,False,未知,未知,未知,未知,未知,未知,,未知
3,002738,15631569.249999994,17858867.169999998,2015-06-30,半年度报告,18496489.6,2015,6,未知,未知,未知,未知,未知,未知,未知,未知,未知,未知
4,002738,23188291.15,26843875.85,2015-09-30,三季度报告,28111566.500000004,2015,9,未知,未知,未知,未知,未知,未知,未知,未知,未知,未知
5,002738,44970774.06,48971942.76,2015-12-31,年度报告,49182508.80000001,2015,12,-1.010007628039819,False,未知,未知,未知,未知,未知,未知,56800000.0,未知
6,002738,-1861742.92,-1250682.14,2016-03-31,一季度报告,-896471.3400000002,2016,3,-0.31507174229104423,False,未知,未知,未知,未知,未知,未知,62810000.0,未知
7,002738,15442217.759999998,16717361.22,2016-06-30,半年度报告,17234334.979999997,2016,6,-1.0257429400442313,False,未知,未知,未知,未知,未知,未知,73000000.0,未知
8,002738,28345731.35,29909609.90000001,2016-09-30,三季度报告,34608665.11000001,2016,9,-1.0173536957681335,False,未知,未知,未知,未知,未知,未知,67213333.0,未知
9,002738,52590111.54,53406706.07000001,2016-12-31,年度报告,53865968.21999999,2016,12,-1.0089480903633794,False,未知,未知,未知,未知,未知,未知,67213333.0,未知
10,002738,70076.4,387172.48999999993,2017-03-31,一季度报告,318496.47,2017,3,-0.7838570805468673,False,-2.7614271297723847,True,0.01600835990392556,True,未知,未知,126810000.0,未知
11,002738,18121174.63,18906987.19,2017-06-30,半年度报告,18753097.630000006,2017,6,-1.0260585983343886,False,未知,未知,未知,未知,未知,未知,,未知
12,002738,29445594.54000001,30880272.81,2017-09-30,三季度报告,30578533.12,2017,9,-1.0141962309961707,False,未知,未知,未知,未知,未知,未知,140210000.0,未知
13,002738,54881567.87999999,54791609.98,2017-12-31,年度报告,53592718.5,2017,12,-1.0076516770589834,False,0.23479434399360602,True,0.0,True,前期平均,54791609.98,,54791609.98
14,002738,238327.73,670363.34,2018-03-31,一季度报告,512862.68000000005,2018,3,-6.742340502651394,False,-1.0572226615193512,True,0.017643976998943156,True,前期平均,52305844.70500001,141333333.0,141333333.0
15,002738,20014095.33,21065419.7,2018-06-30,半年度报告,20863488.719999995,2018,6,-1.022206206728664,False,0.16633190696507927,True,0.028700133191178534,True,前期平均,54724245.92,,54724245.92
16,002738,60208863.77999999,62722569.13999999,2018-09-30,三季度报告,63151488.66,2018,9,-1.0136659679074695,False,0.14276328963065169,True,0.04761427113554739,True,前期平均,82886691.845,127885000.0,127885000.0
17,002738,110062334.38000004,110860874.37999998,2018-12-31,年度报告,112006952.95,2018,12,-1.0073321985056962,False,0.12507317953251526,True,0.0,True,前期平均,110860874.37999998,114000000.0,110860874.37999998
18,002738,26846746.82,28472855.7,2019-03-31,一季度报告,28355918.72000001,2019,3,-2.6884420037903274,False,-1.266040278522367,True,0.014602337012983233,True,前期平均,82491186.495,250620000.0,250620000.0
19,002738,104047783.98000002,104911824.0,2019-06-30,半年度报告,94216543.84,2019,6,-1.0201059574947073,False,0.19261456633704707,True,0.09910935838648652,True,前期平均,140647451.055,251000000.0,251000000.0
20,002738,125692035.42000005,126407701.34999998,2019-09-30,三季度报告,114380865.21999998,2019,9,-1.006683443678166,False,1.0836643857108075,True,0.05020058103118652,True,前期平均,147543445.59499997,,147543445.59499997
21,002738,138859209.03,140040237.20999998,2019-12-31,年度报告,122078087.63,2019,12,-1.0036561331564227,False,1.0482109328519145,True,0.0,True,前期平均,140040237.20999998,251000000.0,251000000.0
22,002738,19957773.44,22862548.300000004,2020-03-31,一季度报告,22730833.95000001,2020,3,-1.014988875661472,False,173.1010849627727,False,0.15134401020251675,False,去年同期,116584717.20999998,,116584717.20999998
