,SECURITYCODE_x,NETPROFIT_x,PARENTNETPROFIT_x,REPORTDATE_x,REPORTTIMETYPE_x,KCFJCXSYJLR,Year,Month,managesituationChangeRate,managesituationGreatChange,historyprofitextroplaterate,ifhistoryprofitextroplate,IfprofitdisStableChangeRage,IfprofitdisStable,predicttype,predict,analyst_prediction,adj_prediction
0,002791,215779182.20000005,215287093.15,2014-12-31,年度报告,213314724.65000007,2014,12,未知,未知,未知,未知,未知,未知,未知,未知,未知,未知
1,002791,-8051543.8500000015,-6907573.669999999,2015-03-31,一季度报告,-9305005.66,2015,3,未知,未知,未知,未知,未知,未知,未知,未知,未知,未知
2,002791,80174711.63,79756443.80999999,2015-06-30,半年度报告,76803628.35000001,2015,6,未知,未知,未知,未知,未知,未知,未知,未知,未知,未知
3,002791,211326940.47,210747699.62,2015-12-31,年度报告,206704652.57000005,2015,12,0.0,True,未知,未知,未知,未知,未知,未知,未知,未知
4,002791,-1843511.43,-1294445.6899999995,2016-03-31,一季度报告,-564728.88,2016,3,-27.799727632359602,False,未知,未知,未知,未知,未知,未知,307000000.0,未知
5,002791,95240294.09999998,95912250.54000002,2016-06-30,半年度报告,92034960.92000002,2016,6,1.6913621242045003,False,未知,未知,未知,未知,未知,未知,,未知
6,002791,183128852.83,184488218.69,2016-09-30,三季度报告,176908891.00999996,2016,9,未知,未知,未知,未知,未知,未知,未知,未知,未知,未知
7,002791,252138553.39,253179075.55,2016-12-31,年度报告,241598372.93,2016,12,0.02106802720040368,True,未知,未知,未知,未知,未知,未知,未知,未知
8,002791,2903633.7299999995,2794286.84,2017-03-31,一季度报告,-2055007.31,2017,3,-118.0479220733663,False,未知,未知,未知,未知,未知,未知,未知,未知
9,002791,104986946.51999998,101690897.98000002,2017-06-30,半年度报告,93434885.37,2017,6,1.2656291041419632,False,未知,未知,未知,未知,未知,未知,未知,未知
10,002791,192235642.39,185896947.48,2017-09-30,三季度报告,175863086.01999998,2017,9,0.17829156282822128,True,未知,未知,未知,未知,未知,未知,287090000.0,未知
11,002791,192902574.38000005,191097239.03,2017-12-31,年度报告,173640188.66,2017,12,-0.1442039335165075,True,0.18068339462701966,True,0.0,True,比例外推,191097239.03,287090000.0,287090000.0
12,002791,-29606848.36,-29278901.6,2018-03-31,一季度报告,-33294602.5,2018,3,73.31349896875598,False,-1.5868858026228225,True,0.02528652137368458,True,盈利变化,149444445.44333333,未知,149444445.44333333
13,002791,29195509.030000005,31447265.36,2018-06-30,半年度报告,26641545.760000005,2018,6,1.055295342444255,False,0.19701214936647604,True,0.10789516438880453,False,前期平均,171179483.47500002,未知,171179483.47500002
14,002791,115157554.06000002,117146970.99,2018-09-30,三季度报告,108670847.28,2018,9,0.12247229242866352,True,未知,未知,未知,未知,未知,未知,未知,未知
15,002791,169217955.12,172125959.51,2018-12-31,年度报告,156856661.19000003,2018,12,0.11859151125134915,True,0.16756445976851714,True,0.0,True,比例外推,172125959.51,,172125959.51
16,002791,7019045.070000001,6740098.959999999,2019-03-31,一季度报告,4958569.96,2019,3,-8.288151024258498,False,56.85553357381504,False,0.13678343910323992,False,盈利变化,223130189.45666665,251000000.0,251000000.0
17,002791,118752341.0,120658986.04000002,2019-06-30,半年度报告,118627339.8,2019,6,6.39083473346106,False,0.7083762535048014,True,0.19311463529180234,False,前期平均,235543343.69000003,287285714.0,287285714.0
18,002791,264531263.26,269362375.83000004,2019-09-30,三季度报告,258226954.78,2019,9,0.8737735788272613,False,0.3864227675954993,True,0.2001854163252237,False,前期平均,300595668.1100001,321750000.0,300595668.1100001
19,002791,439493334.36,439319617.56,2019-12-31,年度报告,429626378.92,2019,12,0.2751553583482403,True,0.23954014781549415,True,0.0,True,比例外推,439319617.56,324857143.0,324857143.0
20,002791,9273928.62,8275371.23,2020-03-31,一季度报告,5302786.26,2020,3,29.74195706795768,False,-1.525707872048812,True,0.1414097911323583,False,前期平均,191198601.06,597500000.0,597500000.0
