,SECURITYCODE_x,NETPROFIT_x,PARENTNETPROFIT_x,REPORTDATE_x,REPORTTIMETYPE_x,KCFJCXSYJLR,Year,Month,managesituationChangeRate,managesituationGreatChange,historyprofitextroplaterate,ifhistoryprofitextroplate,IfprofitdisStableChangeRage,IfprofitdisStable,predicttype,predict,analyst_prediction,adj_prediction
0,002708,53388802.4,53388802.4,2013-12-31,年度报告,51992574.63,2013,12,未知,未知,未知,未知,未知,未知,未知,未知,未知,未知
1,002708,16368344.06,16368344.06,2014-03-31,一季度报告,11922651.99,2014,3,未知,未知,未知,未知,未知,未知,未知,未知,未知,未知
2,002708,33281011.390000004,33281011.390000004,2014-06-30,半年度报告,28886657.0,2014,6,未知,未知,未知,未知,未知,未知,未知,未知,未知,未知
3,002708,62981704.88,62981704.88,2014-12-31,年度报告,57384236.46000001,2014,12,0.0,True,未知,未知,未知,未知,未知,未知,未知,未知
4,002708,18149858.44,18149858.44,2015-03-31,一季度报告,16151321.54,2015,3,2.261710665678663,False,未知,未知,未知,未知,未知,未知,117991119.99999999,未知
5,002708,30722983.05,30722983.05,2015-06-30,半年度报告,28339316.67,2015,6,0.6041820897318587,False,未知,未知,未知,未知,未知,未知,69000000.0,未知
6,002708,38095122.88,38095122.88,2015-09-30,三季度报告,33198101.09,2015,9,未知,未知,未知,未知,未知,未知,未知,未知,,未知
7,002708,36503846.3,36503846.3,2015-12-31,年度报告,43490524.09000001,2015,12,-0.1523125246970927,True,未知,未知,未知,未知,未知,未知,未知,未知
8,002708,14215880.569999995,14215880.569999995,2016-03-31,一季度报告,13969044.079999994,2016,3,1.9415547551785748,False,未知,未知,未知,未知,未知,未知,未知,未知
9,002708,31709800.85,31790621.47,2016-06-30,半年度报告,27662932.35,2016,6,0.7377480016544161,False,未知,未知,未知,未知,未知,未知,未知,未知
10,002708,49705776.45,49991466.34,2016-09-30,三季度报告,37419336.23,2016,9,0.40146030157653595,True,未知,未知,未知,未知,未知,未知,未知,未知
11,002708,64364854.44,64509427.23000002,2016-12-31,年度报告,51311049.11000002,2016,12,0.462552794059951,True,0.37262718616207796,True,0.0,True,比例外推,64509427.23000002,未知,64509427.23000002
12,002708,16170365.82,16170365.82,2017-03-31,一季度报告,14438863.28,2017,3,2.7555747698575397,False,0.1763255592466036,True,0.08758003697846306,True,前期平均,52570759.33000001,未知,52570759.33000001
13,002708,12343902.12,12343902.12,2017-06-30,半年度报告,11979833.13,2017,6,0.6836688017231743,False,0.009130566695299557,True,0.08690951474160058,True,前期平均,34168295.56000001,未知,34168295.56000001
14,002708,18780853.52,18780853.52,2017-09-30,三季度报告,15988336.880000005,2017,9,0.07409653792864139,True,未知,未知,未知,未知,未知,未知,未知,未知
15,002708,12057034.04,12057034.04,2017-12-31,年度报告,1305409.6900000002,2017,12,-0.1705286547370618,True,0.29395381895294825,True,0.0,True,比例外推,12057034.04,,12057034.04
16,002708,13204542.77,13204542.77,2018-03-31,一季度报告,9437476.9,2018,3,2.3016446872195746,False,0.0007726494362532808,True,7.159321071265616,False,前期平均,45545146.56000002,未知,45545146.56000002
17,002708,18639327.97,18639327.97,2018-06-30,半年度报告,15980940.310000004,2018,6,3.325115500834837,False,0.6045698638147707,True,5.721130874229816,False,前期平均,38038990.06000001,未知,38038990.06000001
18,002708,22254501.680000003,22254501.680000003,2018-09-30,三季度报告,14606164.84,2018,9,1.8427250307418401,False,0.5721945068145124,True,7.667634161923986,False,前期平均,34346569.62000002,未知,34346569.62000002
19,002708,-90403562.64,-90403562.64,2018-12-31,年度报告,-100496753.88999996,2018,12,3.428021205122185,False,0.760936069334762,True,0.0,True,盈利变化,-21877020.48666665,未知,-21877020.48666665
20,002708,-6605814.34,-6605814.34,2019-03-31,一季度报告,-8195428.760000003,2019,3,3.0432147731231134,False,0.13088687556054518,True,7.314415712396668,False,盈利变化,-113914103.52000001,未知,-113914103.52000001
21,002708,4485243.8500000015,4485243.8500000015,2019-06-30,半年度报告,1097807.68,2019,6,1.8643094046056428,False,0.15379063672839763,True,5.99134419386537,False,前期平均,10972090.51000001,未知,10972090.51000001
22,002708,4237736.26,4237736.26,2019-09-30,三季度报告,-4237122.4,2019,9,1.3990113626305196,False,0.3501066795154498,True,7.970527725115258,False,前期平均,3842129.1050000098,未知,3842129.1050000098
23,002708,11529790.58,11529790.58,2019-12-31,年度报告,1071216.14,2019,12,-1.5905608234998645,False,3.3659075806183223,False,0.0,True,前期平均,11529790.58,未知,11529790.58
24,002708,1872614.02,1872614.02,2020-03-31,一季度报告,-989899.19,2020,3,-9.082092479759277,False,1.4497589716584713,True,9.955357757997886,False,前期平均,-59661228.16999998,未知,-59661228.16999998
