,SECURITYCODE_x,NETPROFIT_x,PARENTNETPROFIT_x,REPORTDATE_x,REPORTTIMETYPE_x,KCFJCXSYJLR,Year,Month,managesituationChangeRate,managesituationGreatChange,historyprofitextroplaterate,ifhistoryprofitextroplate,IfprofitdisStableChangeRage,IfprofitdisStable,predicttype,predict,analyst_prediction,adj_prediction
0,002792,53121649.42,53121649.42,2012-12-31,年度报告,44868349.42,2012,12,未知,未知,未知,未知,未知,未知,未知,未知,未知,未知
1,002792,354119793.04,354119793.04,2014-12-31,年度报告,353425759.98,2014,12,未知,未知,未知,未知,未知,未知,未知,未知,未知,未知
2,002792,60368712.64999999,60368712.64999999,2015-03-31,一季度报告,58427568.48,2015,3,未知,未知,未知,未知,未知,未知,未知,未知,未知,未知
3,002792,144640974.72,144640974.72,2015-06-30,半年度报告,142323947.39000002,2015,6,未知,未知,未知,未知,未知,未知,未知,未知,未知,未知
4,002792,247438456.77,247438456.77,2015-12-31,年度报告,222269728.19,2015,12,-0.8499896067261069,True,未知,未知,未知,未知,未知,未知,未知,未知
5,002792,51217840.96999998,51217840.96999998,2016-03-31,一季度报告,49173737.85,2016,3,-0.12004667503871295,True,未知,未知,未知,未知,未知,未知,266170000.0,未知
6,002792,117143567.96,117143567.96,2016-06-30,半年度报告,112140387.12,2016,6,-0.6327344341889678,True,未知,未知,未知,未知,未知,未知,257620000.0,未知
7,002792,156337777.89,156337777.89,2016-09-30,三季度报告,143974039.79,2016,9,未知,未知,未知,未知,未知,未知,未知,未知,271420000.0,未知
8,002792,209060655.75,209060655.75,2016-12-31,年度报告,182263051.6,2016,12,-0.785313689256566,True,未知,未知,未知,未知,未知,未知,267220000.0,未知
9,002792,24919674.8,24919674.8,2017-03-31,一季度报告,17995556.12,2017,3,0.03717080638200174,True,未知,未知,未知,未知,未知,未知,240230000.0,未知
10,002792,94403538.57999995,93905105.7,2017-06-30,半年度报告,74042005.72,2017,6,-0.5465252566138417,True,未知,未知,未知,未知,未知,未知,220612000.0,未知
11,002792,125670351.3,122950183.57,2017-09-30,三季度报告,101051654.48,2017,9,-0.660212329118707,True,未知,未知,未知,未知,未知,未知,168490000.0,未知
12,002792,113052981.42000002,110543912.01999998,2017-12-31,年度报告,84650000.6,2017,12,-0.745903172314143,True,0.30493628566799297,True,0.0,True,比例外推,110543912.01999998,168490000.0,168490000.0
13,002792,-10467012.14,-9981714.61,2018-03-31,一季度报告,-10131045.16,2018,3,1.131715194774532,False,0.5533570310834732,True,0.0358292401246563,True,盈利变化,73041776.97999999,116865000.0,116865000.0
14,002792,40566908.13,40134611.94,2018-06-30,半年度报告,37418983.65000001,2018,6,-0.4372917560184106,True,0.2787691923018016,True,0.16459350884763913,False,平均增速,46221471.95291062,108680000.0,108680000.0
15,002792,64795432.99000001,60408786.87000001,2018-09-30,三季度报告,46986511.32,2018,9,-0.5772936983904173,True,未知,未知,未知,未知,未知,未知,105745000.0,未知
16,002792,50824180.66,44424493.27,2018-12-31,年度报告,16308291.009999994,2018,12,-0.5301172180267478,True,0.504695723082936,True,0.0,True,比例外推,44424493.27,92142500.0,92142500.0
17,002792,-18002877.82,-18150126.74,2019-03-31,一季度报告,-20126604.57,2019,3,-6.0751493080813415,False,1.2749501880681076,True,0.5749414229941276,False,前期平均,81721752.375,112928333.0,112928333.0
18,002792,53104018.57,51070873.59,2019-06-30,半年度报告,38345812.02,2019,6,0.30948233101145634,True,0.6164739967991054,True,1.0330004679478704,False,平均增速,36786154.3949878,118072000.0,118072000.0
19,002792,94432138.25,91044334.16,2019-09-30,三季度报告,73226059.56,2019,9,-0.18016367869324437,True,0.540471168855244,True,1.259534071756398,False,平均增速,62099500.64838092,124410000.0,124410000.0
20,002792,30735544.800000004,25214174.44,2019-12-31,年度报告,2776333.95,2019,12,0.04520424589565839,True,0.6844332260718485,True,0.0,True,比例外推,25214174.44,124930000.0,124930000.0
21,002792,-26369348.73,-26895039.939999994,2020-03-31,一季度报告,-30479522.44,2020,3,-3.95073098596411,False,3.491288732535877,False,4.696686215877274,False,去年同期,-3992101.4199999943,未知,-3992101.4199999943
