,SECURITYCODE_x,NETPROFIT_x,PARENTNETPROFIT_x,REPORTDATE_x,REPORTTIMETYPE_x,KCFJCXSYJLR,Year,Month,managesituationChangeRate,managesituationGreatChange,historyprofitextroplaterate,ifhistoryprofitextroplate,IfprofitdisStableChangeRage,IfprofitdisStable,predicttype,predict,analyst_prediction,adj_prediction
0,002715,25852238.25,25852238.25,2013-12-31,年度报告,25813424.12,2013,12,未知,未知,未知,未知,未知,未知,未知,未知,未知,未知
1,002715,7478690.070000001,7478690.070000001,2014-03-31,一季度报告,7177797.52,2014,3,未知,未知,未知,未知,未知,未知,未知,未知,未知,未知
2,002715,12032272.17,12032272.17,2014-06-30,半年度报告,11390529.62,2014,6,未知,未知,未知,未知,未知,未知,未知,未知,未知,未知
3,002715,15230033.59,15230033.59,2014-09-30,三季度报告,14604088.58,2014,9,未知,未知,未知,未知,未知,未知,未知,未知,未知,未知
4,002715,18624487.31,18624487.31,2014-12-31,年度报告,15147412.64,2014,12,0.0,True,未知,未知,未知,未知,未知,未知,未知,未知
5,002715,18624487.31,18624487.31,2014-12-31,年度报告,15147412.64,2014,12,0.0,True,未知,未知,未知,未知,未知,未知,未知,未知
6,002715,14520022.569999995,14520022.569999995,2014-12-31,年度报告,15147412.64,2014,12,0.0,True,未知,未知,未知,未知,未知,未知,未知,未知
7,002715,14520022.569999995,14520022.569999995,2014-12-31,年度报告,15147412.64,2014,12,0.0,True,未知,未知,未知,未知,未知,未知,未知,未知
8,002715,437170.27,437170.27,2015-03-31,一季度报告,229740.53,2015,3,2.4567869517288337,False,未知,未知,未知,未知,未知,未知,未知,未知
9,002715,437170.27,437170.27,2015-03-31,一季度报告,229740.53,2015,3,2.4567869517288337,False,未知,未知,未知,未知,未知,未知,未知,未知
10,002715,-3775215.2600000007,-3775215.2600000007,2015-03-31,一季度报告,229740.53,2015,3,2.4567869517288337,False,未知,未知,未知,未知,未知,未知,未知,未知
11,002715,-3775215.2600000007,-3775215.2600000007,2015-03-31,一季度报告,229740.53,2015,3,2.4567869517288337,False,未知,未知,未知,未知,未知,未知,未知,未知
12,002715,-13552328.47,-13552328.47,2015-06-30,半年度报告,-14032168.339999998,2015,6,1.1485749229025295,False,未知,未知,未知,未知,未知,未知,未知,未知
13,002715,-19869057.64,-19869057.64,2015-09-30,三季度报告,-20025153.19,2015,9,0.6974511643214307,False,未知,未知,未知,未知,未知,未知,未知,未知
14,002715,-32168015.74000001,-32168015.74000001,2015-12-31,年度报告,-32666847.20000001,2015,12,0.388077847174844,True,未知,未知,未知,未知,未知,未知,未知,未知
15,002715,-32168015.74000001,-32168015.74000001,2015-12-31,年度报告,-32666847.20000001,2015,12,0.388077847174844,True,未知,未知,未知,未知,未知,未知,未知,未知
16,002715,-48414329.78,-48414329.78,2015-12-31,年度报告,-32666847.20000001,2015,12,0.388077847174844,True,未知,未知,未知,未知,未知,未知,未知,未知
17,002715,-48414329.78,-48414329.78,2015-12-31,年度报告,-32666847.20000001,2015,12,0.388077847174844,True,未知,未知,未知,未知,未知,未知,未知,未知
18,002715,437170.27,437170.27,2016-03-31,一季度报告,-6166554.61,2016,3,58.13539877723158,False,未知,未知,未知,未知,未知,未知,未知,未知
19,002715,437170.27,437170.27,2016-03-31,一季度报告,-6166554.61,2016,3,58.13539877723158,False,未知,未知,未知,未知,未知,未知,未知,未知
20,002715,-5261149.710000001,-5261149.710000001,2016-03-31,一季度报告,-6166554.61,2016,3,58.13539877723158,False,未知,未知,未知,未知,未知,未知,未知,未知
21,002715,-5261149.710000001,-5261149.710000001,2016-03-31,一季度报告,-6166554.61,2016,3,58.13539877723158,False,未知,未知,未知,未知,未知,未知,未知,未知
22,002715,-5505569.16,-5505569.16,2016-06-30,半年度报告,-6784059.840000003,2016,6,-2.907586456986162,False,未知,未知,未知,未知,未知,未知,未知,未知
23,002715,-4276326.790000001,-4276326.790000001,2016-09-30,三季度报告,-11390322.46,2016,9,-2.301130567861194,False,未知,未知,未知,未知,未知,未知,未知,未知
24,002715,11859966.07,11859966.07,2016-12-31,年度报告,145826.58,2016,12,-1.803662820204775,False,2.4465100717275017,False,0.0,True,盈利变化,-21230457.81333334,未知,-21230457.81333334
25,002715,6016296.44,6016296.44,2017-03-31,一季度报告,2236055.2,2017,3,58.13539877723158,False,0.889545734456452,True,28.34687946473575,False,盈利变化,23063445.81666667,未知,23063445.81666667
26,002715,2648630.58,2648630.58,2017-06-30,半年度报告,1183716.59,2017,6,-5.695652256596119,False,-6.2439016370643605,True,31.40812533148017,False,盈利变化,17171817.023333333,未知,17171817.023333333
27,002715,6440096.32,6440096.32,2017-09-30,三季度报告,2844674.72,2017,9,-7.04543093162438,False,-0.843632084640734,True,52.598171067740054,False,盈利变化,18186631.483333334,未知,18186631.483333334
28,002715,8956601.79,8956601.79,2017-12-31,年度报告,432345.6,2017,12,1.1797902369546998,False,-2.751384970511704,True,0.0,True,前期平均,8956601.79,未知,8956601.79
29,002715,2165497.97,2165497.97,2018-03-31,一季度报告,1403094.04,2018,3,3.2970353119767477,False,12.761906636514874,False,29.91289720759822,False,去年同期,361788.3700000001,未知,361788.3700000001
30,002715,5371130.68,5371130.68,2018-06-30,半年度报告,3037544.43,2018,6,8.760605516379714,False,-1.2779562186157047,True,32.07009727101336,False,前期平均,-481265.5400000056,未知,-481265.5400000056
31,002715,8595269.07,8595269.07,2018-09-30,三季度报告,6206770.68,2018,9,3.014262670220435,False,-1.533443262307172,True,54.47000459443515,False,前期平均,8042496.584999995,未知,8042496.584999995
32,002715,10266156.24,10266156.24,2018-12-31,年度报告,7254366.670000001,2018,12,1.8863891525091463,False,-1.8820740480294478,True,0.0,True,前期平均,10266156.24,未知,10266156.24
33,002715,-4138022.48,-4138022.48,2019-03-31,一季度报告,-4823007.470000002,2019,3,10.938241738457966,False,0.3288884665215853,True,29.97971272558626,False,盈利变化,1964687.5599999977,未知,1964687.5599999977
34,002715,-570432.82,-570432.82,2019-06-30,半年度报告,-3265141.2200000007,2019,6,3.813183627474132,False,-4.760060309031915,True,32.066485821463154,False,盈利变化,6064365.806666667,未知,6064365.806666667
35,002715,3805238.51,3805238.51,2019-09-30,三季度报告,-289711.08,2019,9,2.007728791205835,False,6.944717726014011,False,54.550864418798014,False,去年同期,4852834.500000001,未知,4852834.500000001
36,002715,3730364.449999999,3730364.449999999,2019-12-31,年度报告,-1974380.21,2019,12,1.5182003512933093,False,0.013655247200774575,True,0.0,True,前期平均,3730364.449999999,未知,3730364.449999999
37,002715,1960042.77,1960042.77,2020-03-31,一季度报告,1192977.99,2020,3,-7.247486178470447,False,2.011519545136065,False,2.5692076435860236,False,前期平均,3983824.285,未知,3983824.285
