,SECURITYCODE_x,NETPROFIT_x,PARENTNETPROFIT_x,REPORTDATE_x,REPORTTIMETYPE_x,KCFJCXSYJLR,Year,Month,managesituationChangeRate,managesituationGreatChange,historyprofitextroplaterate,ifhistoryprofitextroplate,IfprofitdisStableChangeRage,IfprofitdisStable,predicttype,predict,analyst_prediction,adj_prediction
0,002767,60428039.41,60428039.41,2012-12-31,年度报告,60314794.96,2012,12,未知,未知,未知,未知,未知,未知,未知,未知,未知,未知
1,002767,29080215.219999995,29080215.219999995,2014-06-30,半年度报告,29064916.88,2014,6,未知,未知,未知,未知,未知,未知,未知,未知,未知,未知
2,002767,49488389.24000001,49488389.24000001,2014-09-30,三季度报告,,2014,9,未知,未知,未知,未知,未知,未知,未知,未知,未知,未知
3,002767,66624294.25000001,66624294.25000001,2014-12-31,年度报告,66299829.79000002,2014,12,未知,未知,未知,未知,未知,未知,未知,未知,未知,未知
4,002767,10692441.61,10692441.61,2015-03-31,一季度报告,10692439.4,2015,3,未知,未知,未知,未知,未知,未知,未知,未知,未知,未知
5,002767,22049449.15,22049449.15,2015-06-30,半年度报告,22017144.13,2015,6,1.077977723096095,False,未知,未知,未知,未知,未知,未知,74273150.0,未知
6,002767,40078811.48,40078811.48,2015-09-30,三季度报告,38213856.21000001,2015,9,0.22105488454972363,True,未知,未知,未知,未知,未知,未知,,未知
7,002767,52639352.55,52639352.55,2015-12-31,年度报告,49907017.82,2015,12,-0.09300293398605135,True,未知,未知,未知,未知,未知,未知,未知,未知
8,002767,10756389.11,10756389.11,2016-03-31,一季度报告,10288029.76,2016,3,4.651472471309572,False,未知,未知,未知,未知,未知,未知,52400000.0,未知
9,002767,19233732.27,19233732.27,2016-06-30,半年度报告,18766182.47,2016,6,1.7405691180271503,False,未知,未知,未知,未知,未知,未知,52660000.0,未知
10,002767,32606895.08,32606895.08,2016-09-30,三季度报告,31960606.08,2016,9,0.5077303237935239,False,未知,未知,未知,未知,未知,未知,,未知
11,002767,45314270.45,45314270.45,2016-12-31,年度报告,40275690.77,2016,12,0.1479631964052339,True,未知,未知,未知,未知,未知,未知,未知,未知
12,002767,7415328.8500000015,7415328.8500000015,2017-03-31,一季度报告,7415328.8500000015,2017,3,4.617874064617211,False,未知,未知,未知,未知,未知,未知,未知,未知
13,002767,16404439.97,16404439.97,2017-06-30,半年度报告,16161019.29,2017,6,2.141773970944434,False,0.2476487961737816,True,0.017445675866401444,True,前期平均,48966833.27000001,未知,48966833.27000001
14,002767,28908432.230000004,28908432.230000004,2017-09-30,三季度报告,28073055.31,2017,9,0.8532288726584267,False,0.2719009901418297,True,,False,前期平均,,未知,
15,002767,45902281.43,45902281.43,2017-12-31,年度报告,35613162.4,2017,12,0.333532214243118,True,0.2400991976039425,True,0.0,True,比例外推,45902281.43,未知,45902281.43
16,002767,6932136.750000001,6932136.750000001,2018-03-31,一季度报告,6237102.19,2018,3,7.1490707468759105,False,0.30855635472141935,True,0.029471460703498847,True,前期平均,41533256.465,未知,41533256.465
17,002767,12652906.7,12652906.7,2018-06-30,半年度报告,11620251.64,2018,6,2.683639278177687,False,0.2052724908428339,True,0.012470004233541665,True,前期平均,37352597.69500001,未知,37352597.69500001
18,002767,20136738.45,20136738.45,2018-09-30,三季度报告,18993326.200000007,2018,9,1.0903257198185317,False,0.20456349403064802,True,0.016807076425946255,True,前期平均,30140861.599999998,未知,30140861.599999998
19,002767,25820499.289999995,25820499.289999995,2018-12-31,年度报告,16635156.16,2018,12,0.3164495865450929,True,0.06277521904422055,True,0.0,True,比例外推,25820499.289999995,未知,25820499.289999995
20,002767,3664834.93,3664834.93,2019-03-31,一季度报告,3490184.5800000005,2019,3,7.71708703813438,False,0.23704112453658172,True,0.09540367962973068,True,前期平均,32757582.209999997,未知,32757582.209999997
21,002767,9458394.630000005,9589780.400000002,2019-06-30,半年度报告,7122829.790000001,2019,6,3.7758227293338056,False,0.28992392680573686,True,0.15911165061827437,False,前期平均,30070606.105000004,未知,30070606.105000004
22,002767,17101612.0,17330294.599999998,2019-09-30,三季度报告,14487276.05,2019,9,2.0008851512892343,False,0.34530988192510037,True,0.23389769658964854,False,前期平均,25257890.49,未知,25257890.49
23,002767,26986878.27,27518094.77000001,2019-12-31,年度报告,6721785.42,2019,12,1.3403125838625103,False,0.43386372850470883,True,0.0,True,前期平均,27518094.77000001,未知,27518094.77000001
24,002767,-3038016.37,-2868028.97,2020-03-31,一季度报告,-4613103.609999999,2020,3,15.488611510259753,False,0.4891313863822751,True,0.15924406907940347,False,盈利变化,16713710.516666679,未知,16713710.516666679
