,SECURITYCODE_x,NETPROFIT_x,PARENTNETPROFIT_x,REPORTDATE_x,REPORTTIMETYPE_x,KCFJCXSYJLR,Year,Month,managesituationChangeRate,managesituationGreatChange,historyprofitextroplaterate,ifhistoryprofitextroplate,IfprofitdisStableChangeRage,IfprofitdisStable,predicttype,predict,analyst_prediction,adj_prediction
0,002717,96630043.11,96630043.11,2013-12-31,年度报告,95862226.71,2013,12,未知,未知,未知,未知,未知,未知,未知,未知,未知,未知
1,002717,22697197.15,22697197.15,2014-03-31,一季度报告,22371222.15,2014,3,未知,未知,未知,未知,未知,未知,未知,未知,未知,未知
2,002717,57663317.43,57663317.43,2014-06-30,半年度报告,57428861.9,2014,6,未知,未知,未知,未知,未知,未知,未知,未知,未知,未知
3,002717,87354333.07,87354333.07,2014-09-30,三季度报告,86738981.74,2014,9,未知,未知,未知,未知,未知,未知,未知,未知,未知,未知
4,002717,117011557.6,117011557.6,2014-12-31,年度报告,117369388.81999996,2014,12,0.0,True,未知,未知,未知,未知,未知,未知,未知,未知
5,002717,23559365.01,23559365.01,2015-03-31,一季度报告,22673761.41,2015,3,3.257355763859152,False,未知,未知,未知,未知,未知,未知,139000000.0,未知
6,002717,70090319.91999999,70090319.91999999,2015-06-30,半年度报告,69205949.72999999,2015,6,0.67576281450167,False,未知,未知,未知,未知,未知,未知,185028571.0,未知
7,002717,117165460.35999998,117184190.23000002,2015-09-30,三季度报告,115447273.67000002,2015,9,0.10618488761819136,True,未知,未知,未知,未知,未知,未知,166516667.00000003,未知
8,002717,168542486.73,167951055.82,2015-12-31,年度报告,165041427.89000002,2015,12,-0.17418377216781872,True,未知,未知,未知,未知,未知,未知,166516667.00000003,未知
9,002717,28549800.9,28450292.32999999,2016-03-31,一季度报告,28822452.730000004,2016,3,3.1015554990121523,False,未知,未知,未知,未知,未知,未知,246541182.0,未知
10,002717,103448481.03000002,103239356.36,2016-06-30,半年度报告,98099906.67000002,2016,6,0.3786503360277431,True,未知,未知,未知,未知,未知,未知,251487500.0,未知
11,002717,173324593.58,172958035.35,2016-09-30,三季度报告,165408997.63000005,2016,9,-0.17526852356405478,True,未知,未知,未知,未知,未知,未知,252935714.0,未知
12,002717,261226382.16,260804059.47000003,2016-12-31,年度报告,250257217.64,2016,12,-0.42667249674084595,True,0.5778058783484015,True,0.0,True,比例外推,260804059.47000003,252364286.0,260804059.47000003
13,002717,46111435.3,47830707.35000001,2017-03-31,一季度报告,47655919.20999999,2017,3,2.384613554695578,False,0.23441084104984428,True,0.04288565033586747,True,前期平均,166513623.925,475400000.0,475400000.0
14,002717,199216704.92,200394920.42,2017-06-30,半年度报告,198774470.16,2017,6,-0.06591143583850857,True,0.6194995802207587,True,0.05575977054767689,True,比例外推,460111678.34524107,501628076.0,460111678.34524107
15,002717,304508292.91,304715739.23999995,2017-09-30,三季度报告,301880999.38,2017,9,-0.44249087152540034,True,0.694941997282263,True,0.03919680336564091,True,比例外推,434198818.391536,503552143.0,503552143.0
16,002717,517670127.76,509281995.3400001,2017-12-31,年度报告,507262749.7999999,2017,12,-0.6300907959180995,True,0.8296108029071668,True,0.0,True,比例外推,509281995.3400001,499027857.0,509281995.3400001
17,002717,87068723.46,87764435.5,2018-03-31,一季度报告,87801261.82000001,2018,3,1.0955765631958112,False,0.7698013197770641,True,0.021881987152370205,True,前期平均,269665651.19499993,960595556.0000001,960595556.0000001
18,002717,393892811.09,386890431.5,2018-06-30,半年度报告,386570218.55,2018,6,-0.5149500984427787,True,1.2959327116406472,True,0.018265365225541286,True,比例外推,964193062.8638272,958573333.0,964193062.8638272
19,002717,585382934.16,572177307.4,2018-09-30,三季度报告,570610034.5899999,2018,9,-0.682668599312795,True,1.0965144161038674,True,0.0567418441514872,True,比例外推,876924719.7573451,900851538.0,876924719.7573451
20,002717,799405900.33,778700340.57,2018-12-31,年度报告,769192285.9000003,2018,12,-0.8133366444609699,True,1.4090629416552667,True,0.0,True,比例外推,778700340.57,900851538.0,900851538.0
21,002717,30932722.0,31435852.1,2019-03-31,一季度报告,30200137.83,2019,3,0.10981348146665486,True,1.3323675816661606,True,0.013808082981713835,True,比例外推,281501652.72518224,1022032143.0000001,1022032143.0000001
22,002717,215610470.92,209072435.2800001,2019-06-30,半年度报告,207991994.5900001,2019,6,-0.7546793432390896,True,1.6028286659640512,True,0.07375983960690774,True,比例外推,486128947.0867488,511663333.0,486128947.0867488
23,002717,315386875.0,304893158.39000005,2019-09-30,三季度报告,302083526.09000003,2019,9,-0.8349284930066161,True,1.4501575789813317,True,0.07586224818182596,True,比例外推,456410356.7003609,516425000.0,516425000.0
24,002717,351314860.84,327673190.45,2019-12-31,年度报告,324486990.97,2019,12,-0.8791226796423313,True,1.052662684063398,True,0.0,True,比例外推,327673190.45,517668460.0,517668460.0
25,002717,-176340848.27,-170878651.29000002,2020-03-31,一季度报告,-175857783.34000006,2020,3,2.123877785795896,False,0.5354755199572492,True,0.013759027328178797,True,盈利变化,52929295.55666655,380947500.0,380947500.0
