,SECURITYCODE_x,NETPROFIT_x,PARENTNETPROFIT_x,REPORTDATE_x,REPORTTIMETYPE_x,KCFJCXSYJLR,Year,Month,managesituationChangeRate,managesituationGreatChange,historyprofitextroplaterate,ifhistoryprofitextroplate,IfprofitdisStableChangeRage,IfprofitdisStable,predicttype,predict,analyst_prediction,adj_prediction
0,002753,33483309.76,33483309.76,2014-06-30,半年度报告,32922188.29000001,2014,6,未知,未知,未知,未知,未知,未知,未知,未知,未知,未知
1,002753,59611232.12999997,59611232.12999997,2014-12-31,年度报告,58209643.99,2014,12,未知,未知,未知,未知,未知,未知,未知,未知,未知,未知
2,002753,9041846.37,9041846.37,2015-03-31,一季度报告,8943263.03,2015,3,未知,未知,未知,未知,未知,未知,未知,未知,57839000.0,未知
3,002753,30200426.44,30200426.44,2015-06-30,半年度报告,29967759.77,2015,6,0.0,True,未知,未知,未知,未知,未知,未知,,未知
4,002753,42485359.48000001,42485359.48000001,2015-09-30,三季度报告,42283565.60999999,2015,9,未知,未知,未知,未知,未知,未知,未知,未知,未知,未知
5,002753,52530392.54000001,52530392.54000001,2015-12-31,年度报告,55314706.21,2015,12,-0.4383053568330929,True,未知,未知,未知,未知,未知,未知,未知,未知
6,002753,10467138.079999998,10467138.079999998,2016-03-31,一季度报告,10339600.26,2016,3,2.7031495990790653,False,未知,未知,未知,未知,未知,未知,未知,未知
7,002753,22118211.28,22118211.28,2016-06-30,半年度报告,24574527.500000004,2016,6,0.10870321074843738,True,未知,未知,未知,未知,未知,未知,75000000.0,未知
8,002753,49441642.58,49441642.58,2016-09-30,三季度报告,52398979.92999999,2016,9,-0.2118859256501696,True,未知,未知,未知,未知,未知,未知,,未知
9,002753,79209001.27000003,79209001.27000003,2016-12-31,年度报告,87054489.85000001,2016,12,-0.3625916704409992,True,未知,未知,未知,未知,未知,未知,未知,未知
10,002753,39116638.33,39116638.33,2017-03-31,一季度报告,38976241.04,2017,3,2.1988982570104785,False,未知,未知,未知,未知,未知,未知,未知,未知
11,002753,95299800.34,95299800.34,2017-06-30,半年度报告,96097833.03,2017,6,0.5138344297432718,False,0.3053733150788348,True,0.1809233190954831,False,前期平均,120617001.41,未知,120617001.41
12,002753,140215562.14000002,140215562.14000002,2017-09-30,三季度报告,140870712.15,2017,9,-0.32277108905065827,True,未知,未知,未知,未知,未知,未知,209220000.0,未知
13,002753,237002014.41000003,237002014.41000003,2017-12-31,年度报告,234133055.73,2017,12,-0.5772789806316921,True,0.41266013405974733,True,0.0,True,比例外推,237002014.41000003,未知,237002014.41000003
14,002753,80481659.44000001,80481659.44000001,2018-03-31,一季度报告,84552788.36999999,2018,3,-0.14401361697995374,True,3.0101152810135137,False,0.030202318572514597,True,比例外推,563496632.6555389,276440000.0,276440000.0
15,002753,167914781.04999998,167914781.04999998,2018-06-30,半年度报告,171861060.39999998,2018,6,-0.648652886569101,True,2.6430535844617173,False,0.1302688828414137,False,未知,未知,,未知
16,002753,228775349.94,228775349.94,2018-09-30,三季度报告,237003533.82,2018,9,-0.76120118730781,True,2.0505848988414193,False,0.10841889941006744,False,未知,未知,未知,未知
17,002753,277883148.41,277883148.41,2018-12-31,年度报告,282835163.42,2018,12,-0.8587214127974635,True,2.5980431905101073,False,0.0,True,比例外推,277883148.41,,277883148.41
18,002753,22122768.3,22122768.3,2019-03-31,一季度报告,21960598.36,2019,3,-0.5839634769836948,True,2.24629002738761,False,0.10421746396034906,False,未知,未知,未知,未知
19,002753,53475699.45999999,53475699.45999999,2019-06-30,半年度报告,52381991.01,2019,6,-0.8005934346540364,True,1.8601196483112439,True,0.17418116679433104,False,平均增速,178518427.3952174,未知,178518427.3952174
20,002753,68066756.47000001,68066756.47000001,2019-09-30,三季度报告,66011844.09,2019,9,-0.8536410947736217,True,1.4125142019018149,True,0.15744439317873138,False,平均增速,119106739.63830319,未知,119106739.63830319
21,002753,91035991.73,91035991.73,2019-12-31,年度报告,87631047.43999998,2019,12,-0.8795057924469843,True,0.7575804423664534,True,0.0,True,比例外推,91035991.73,未知,91035991.73
22,002753,17777709.14,17777709.14,2020-03-31,一季度报告,16706949.620000005,2020,3,0.513522598344982,False,0.6300487764040859,True,0.07220307378857493,True,前期平均,214497304.01,未知,214497304.01
