,SECURITYCODE_x,NETPROFIT_x,PARENTNETPROFIT_x,REPORTDATE_x,REPORTTIMETYPE_x,KCFJCXSYJLR,Year,Month,managesituationChangeRate,managesituationGreatChange,historyprofitextroplaterate,ifhistoryprofitextroplate,IfprofitdisStableChangeRage,IfprofitdisStable,predicttype,predict,analyst_prediction,adj_prediction
0,002777,48148994.89999999,44997765.38999999,2012-12-31,年度报告,44113600.0,2012,12,未知,未知,未知,未知,未知,未知,未知,未知,未知,未知
1,002777,53532089.56999999,54095834.53,2013-12-31,年度报告,43035860.1,2013,12,0.0,True,未知,未知,未知,未知,未知,未知,未知,未知
2,002777,31716550.25,30005653.83,2014-09-30,三季度报告,27487939.45,2014,9,未知,未知,未知,未知,未知,未知,未知,未知,未知,未知
3,002777,59078171.91000001,55768580.55,2014-12-31,年度报告,51745437.07999999,2014,12,-0.10055827660082133,True,未知,未知,未知,未知,未知,未知,未知,未知
4,002777,5031727.24,5050115.98,2015-03-31,一季度报告,5050126.960000001,2015,3,未知,未知,未知,未知,未知,未知,未知,未知,未知,未知
5,002777,25242747.02,24445705.58000001,2015-06-30,半年度报告,21799307.71,2015,6,未知,未知,未知,未知,未知,未知,未知,未知,74605000.0,未知
6,002777,31335917.85,30996430.35999999,2015-09-30,三季度报告,28338120.70000001,2015,9,0.5181031518394719,False,未知,未知,未知,未知,未知,未知,,未知
7,002777,63175771.48000002,57222712.48999999,2015-12-31,年度报告,54277158.46999999,2015,12,-0.18499517938113563,True,0.1620287532914827,True,0.0,True,比例外推,57222712.48999999,60000000.0,57222712.48999999
8,002777,6220419.040000001,5538100.1,2016-03-31,一季度报告,5115935.549999999,2016,3,8.569078887511395,False,未知,未知,未知,未知,未知,未知,78386000.0,未知
9,002777,28736886.23,27397637.04000001,2016-06-30,半年度报告,26072513.15,2016,6,0.9074387926896869,False,未知,未知,未知,未知,未知,未知,77085714.0,未知
10,002777,36825226.8,35535868.879999995,2016-09-30,三季度报告,29997968.919999994,2016,9,0.536543308879015,False,未知,未知,未知,未知,未知,未知,77350000.0,未知
11,002777,84341124.25,77266341.24000001,2016-12-31,年度报告,69455253.38000001,2016,12,-0.23785663756804548,True,0.12202512719003442,True,0.0,True,比例外推,77266341.24000001,71550000.0,77266341.24000001
12,002777,7849833.27,6879726.76,2017-03-31,一季度报告,5115935.549999999,2017,3,6.74047449060602,False,未知,未知,未知,未知,未知,未知,96930000.0,未知
13,002777,38956448.89999999,34956908.17,2017-06-30,半年度报告,32990317.41,2017,6,0.6755119018334921,False,未知,未知,未知,未知,未知,未知,98620000.0,未知
14,002777,55092674.56999999,46164184.18,2017-09-30,三季度报告,43777481.93999999,2017,9,0.3075002948793786,True,0.16808200883099123,True,0.06316933189652191,True,比例外推,90813044.20625234,97333333.0,90813044.20625234
15,002777,105792984.45,90795508.19,2017-12-31,年度报告,86212128.0,2017,12,-0.4291160412175797,True,0.3797693867582651,True,0.0,True,比例外推,90795508.19,99616667.0,90795508.19
16,002777,8278336.54,8331977.119999999,2018-03-31,一季度报告,6035110.8,2018,3,5.133760201508076,False,0.3952597263959492,True,0.017695793072258062,True,前期平均,65115151.79,121000000.0,121000000.0
17,002777,49711300.28,43449318.46,2018-06-30,半年度报告,39066610.09,2018,6,0.2359698139734703,True,0.4433758273079779,True,0.01506958918544321,True,比例外推,105444948.84045157,119333333.0,119333333.0
18,002777,66964415.62,59450085.28,2018-09-30,三季度报告,52288159.24999999,2018,9,-0.12603635100665622,True,0.6165419419786692,True,0.0553604068808386,True,比例外推,114471652.00962773,119333333.0,114471652.00962773
19,002777,132467783.67,118696797.76,2018-12-31,年度报告,98828121.65,2018,12,-0.5448753511367644,True,0.43431684793086706,True,0.0,True,比例外推,118696797.76,,118696797.76
20,002777,14164963.64,14024418.08,2019-03-31,一季度报告,13385182.81,2019,3,4.816264495572198,False,0.17671472516756875,True,0.008969342391140153,True,前期平均,86742173.22,155275000.0,155275000.0
21,002777,64369211.62,61913186.07000002,2019-06-30,半年度报告,60155176.82000001,2019,6,-0.03142757021442389,True,0.4687206704923952,True,0.010848938737156755,True,比例外推,158228922.37307316,159148333.0,158228922.37307316
22,002777,90919309.76,84234721.81999998,2019-09-30,三季度报告,79530158.24000001,2019,9,-0.2809764043454219,True,0.45704840127813734,True,0.05768756947924436,True,比例外推,167146566.24984014,156268333.0,167146566.24984014
23,002777,181333250.19,161493339.26,2019-12-31,年度报告,145789629.46999997,2019,12,-0.6365229826751884,True,0.39341420196217547,True,0.0,True,比例外推,161493339.26,156076250.0,161493339.26
24,002777,9096610.86,10249017.29,2020-03-31,一季度报告,8891230.08,2020,3,2.399161206742073,False,0.756549417183995,True,0.021071754384226177,True,前期平均,97193618.94,223802143.0,223802143.0
