,SECURITYCODE_x,NETPROFIT_x,PARENTNETPROFIT_x,REPORTDATE_x,REPORTTIMETYPE_x,KCFJCXSYJLR,Year,Month,managesituationChangeRate,managesituationGreatChange,historyprofitextroplaterate,ifhistoryprofitextroplate,IfprofitdisStableChangeRage,IfprofitdisStable,predicttype,predict,analyst_prediction,adj_prediction
0,002724,32255733.93,32255733.93,2014-03-31,一季度报告,27265715.890000004,2014,3,未知,未知,未知,未知,未知,未知,未知,未知,未知,未知
1,002724,171628819.27,171628819.27,2014-12-31,年度报告,153139079.03,2014,12,未知,未知,未知,未知,未知,未知,未知,未知,未知,未知
2,002724,20007486.049999993,20007486.049999993,2015-03-31,一季度报告,17768704.790000007,2015,3,0.0,True,未知,未知,未知,未知,未知,未知,未知,未知
3,002724,-15561251.85,-15561251.85,2015-06-30,半年度报告,-2766254.94,2015,6,未知,未知,未知,未知,未知,未知,未知,未知,未知,未知
4,002724,-7426932.28,-7426932.28,2015-09-30,三季度报告,677562.2799999999,2015,9,未知,未知,未知,未知,未知,未知,未知,未知,未知,未知
5,002724,67225886.21,67225886.21,2015-12-31,年度报告,68062927.39999999,2015,12,-0.8120610858526243,True,未知,未知,未知,未知,未知,未知,,未知
6,002724,21099363.51,21099363.51,2016-03-31,一季度报告,20751632.61,2016,3,0.6121832522782147,False,未知,未知,未知,未知,未知,未知,未知,未知
7,002724,1574084.33,1574084.33,2016-06-30,半年度报告,-7099726.2200000025,2016,6,-3.0728238473950285,False,未知,未知,未知,未知,未知,未知,未知,未知
8,002724,19972512.59,19972512.59,2016-09-30,三季度报告,2214264.85,2016,9,-5.343076348879809,False,未知,未知,未知,未知,未知,未知,未知,未知
9,002724,111239057.96,111239057.96,2016-12-31,年度报告,85279582.95,2016,12,-0.5201887881516407,True,未知,未知,未知,未知,未知,未知,未知,未知
10,002724,12873176.150000002,12873176.150000002,2017-03-31,一季度报告,8691876.66,2017,3,0.5287538846710925,False,0.19257315113480286,True,0.049436155862810444,True,前期平均,100956969.02499999,未知,100956969.02499999
11,002724,16460801.400000002,16460801.400000002,2017-06-30,半年度报告,11508765.01,2017,6,19.491744511553584,False,未知,未知,未知,未知,未知,未知,未知,未知
12,002724,66748380.64,66748380.64,2017-09-30,三季度报告,59163182.34,2017,9,0.6150063135346358,False,未知,未知,未知,未知,未知,未知,未知,未知
13,002724,151958657.07000002,151958657.07000002,2017-12-31,年度报告,138390795.33,2017,12,-0.7100322987129332,True,0.06856297650527672,True,0.0,True,比例外推,151958657.07000002,未知,151958657.07000002
14,002724,17875309.45,17875309.45,2018-03-31,一季度报告,8830285.73,2018,3,1.5056546693800965,False,0.37367245177910424,True,0.1262619515738529,False,前期平均,75286395.925,未知,75286395.925
15,002724,33483987.0,33483987.0,2018-06-30,半年度报告,18250571.14,2018,6,0.9595482106964729,False,-3.3537004724456185,True,0.09673921999884355,True,前期平均,115088232.755,未知,115088232.755
16,002724,79791224.54,79791224.54,2018-09-30,三季度报告,54263595.3,2018,9,-0.5167563074830575,True,9.640939516651184,False,0.2730321458722227,False,未知,未知,未知,未知
17,002724,189950598.6,189950598.6,2018-12-31,年度报告,155281592.28999996,2018,12,-0.7877334891480297,True,0.702952451269635,True,0.0,True,比例外推,189950598.6,未知,189950598.6
18,002724,21043072.25,21043072.25,2019-03-31,一季度报告,10726055.990000002,2019,3,0.8044853444481209,False,0.05233871997192907,True,0.1223333030806316,False,前期平均,118156506.755,235500000.0,235500000.0
19,002724,39613936.12,39613936.12,2019-06-30,半年度报告,21648148.860000007,2019,6,-0.036681804648890835,True,2.7132463716475117,False,0.12239938557617167,False,未知,未知,238500000.0,未知
20,002724,103910260.85999998,103910260.85999998,2019-09-30,三季度报告,80041180.44,2019,9,-0.5957483530807335,True,0.8401845637908452,True,0.2416771278892196,False,平均增速,247732825.30351794,259250000.0,247732825.30351794
21,002724,257302068.34,257302068.34,2019-12-31,年度报告,221800656.54,2019,12,-0.8301888271596107,True,0.4434061373089723,True,0.0,True,比例外推,257302068.34,265666667.00000003,257302068.34
22,002724,13429022.969999995,13429022.969999995,2020-03-31,一季度报告,3569253.8800000013,2020,3,0.5328433769931099,False,0.36872251360567815,True,0.0076516822768321335,True,前期平均,151504135.58499998,296500000.0,296500000.0
