,SECURITYCODE_x,NETPROFIT_x,PARENTNETPROFIT_x,REPORTDATE_x,REPORTTIMETYPE_x,KCFJCXSYJLR,Year,Month,managesituationChangeRate,managesituationGreatChange,historyprofitextroplaterate,ifhistoryprofitextroplate,IfprofitdisStableChangeRage,IfprofitdisStable,predicttype,predict,analyst_prediction,adj_prediction
0,002714,303829476.61,303829476.61,2013-12-31,年度报告,275227624.34,2013,12,未知,未知,未知,未知,未知,未知,未知,未知,未知,未知
1,002714,-55720259.48,-55720259.48,2014-03-31,一季度报告,-63556827.84999999,2014,3,未知,未知,未知,未知,未知,未知,未知,未知,未知,未知
2,002714,-80458465.01,-80458465.01,2014-06-30,半年度报告,-89332160.24000002,2014,6,未知,未知,未知,未知,未知,未知,未知,未知,未知,未知
3,002714,2699383.24,2699383.24,2014-09-30,三季度报告,-7927521.01,2014,9,未知,未知,未知,未知,未知,未知,未知,未知,未知,未知
4,002714,80198054.82000001,80198054.82000001,2014-12-31,年度报告,49014353.55,2014,12,0.0,True,未知,未知,未知,未知,未知,未知,未知,未知
5,002714,-20194850.1,-20194850.1,2015-03-31,一季度报告,-26719580.69999999,2015,3,-6.452764926894416,False,未知,未知,未知,未知,未知,未知,654013636.0,未知
6,002714,46832480.71,46832480.71,2015-06-30,半年度报告,38136292.73,2015,6,-4.776227604792581,False,未知,未知,未知,未知,未知,未知,597293077.0,未知
7,002714,278997065.12,278997065.12,2015-09-30,三季度报告,269684848.17,2015,9,111.55514671195779,False,未知,未知,未知,未知,未知,未知,597772286.0,未知
8,002714,595850841.5600001,595850841.5600001,2015-12-31,年度报告,569746413.6399999,2015,12,2.7884893504203823,False,未知,未知,未知,未知,未知,未知,597587467.0,未知
9,002714,367957213.87000006,367957213.87000006,2016-03-31,一季度报告,364780014.06,2016,3,-16.044898828439436,False,未知,未知,未知,未知,未知,未知,2056954615.0,未知
10,002714,1072428895.89,1072428895.89,2016-06-30,半年度报告,1062108175.4399998,2016,6,5.487580243536495,False,未知,未知,未知,未知,未知,未知,2301962010.0,未知
11,002714,1761932747.31,1761932747.31,2016-09-30,三季度报告,1748996391.58,2016,9,0.08900599538321054,True,未知,未知,未知,未知,未知,未知,2226520007.0,未知
12,002714,2321898712.22,2321898712.22,2016-12-31,年度报告,2302735192.56,2016,12,-0.49009138626951915,True,2.1031673137664657,False,0.0,True,比例外推,2321898712.22,1564043054.9999998,1564043054.9999998
13,002714,680036371.42,680036371.42,2017-03-31,一季度报告,676081397.0799999,2017,3,-0.1742804185995834,True,-10.693912474228693,True,0.9016369518371614,False,平均增速,10065818259.379702,3105834245.0,3105834245.0
14,002714,1200268269.1,1200268269.1,2017-06-30,半年度报告,1195463274.8499994,2017,6,-0.7166903299842043,True,-64.78572512983656,True,1.3911053534299067,False,平均增速,6757306876.162933,2754060000.0,2754060000.0
15,002714,1812211858.89,1812211858.89,2017-09-30,三季度报告,1814855292.07,2017,9,-0.8275589819907335,True,11.509442398494851,False,0.5187831322647849,False,未知,未知,2648958824.0,未知
16,002714,2365529363.99,2365529363.99,2017-12-31,年度报告,2370435471.13,2017,12,-0.8691461108915021,True,5.869025967361049,False,0.0,True,比例外推,2365529363.99,2643393750.0,2643393750.0
17,002714,136037497.74,136037497.74,2018-03-31,一季度报告,139334744.89000002,2018,3,-0.5532158434767739,True,2.9109256335153986,False,0.17914008993944364,False,未知,未知,2343703000.0,未知
18,002714,-78655727.56,-78655727.56,2018-06-30,半年度报告,-101903669.67,2018,6,-0.746865359660119,True,1.1447506260710543,True,0.2772295866435968,False,平均增速,1360861564.4661787,1207018000.0,1207018000.0
19,002714,350190782.34000003,350190782.34000003,2018-09-30,三季度报告,318136621.19000006,2018,9,-0.8323432908136366,True,0.7758688690350597,True,0.19282240840683845,False,平均增速,1103234721.9699316,951436250.0,951436250.0
20,002714,528078999.4800001,520208830.16,2018-12-31,年度报告,461507304.68999976,2018,12,-0.8715596258346491,True,0.6214752639926973,True,0.0,True,比例外推,520208830.16,898552500.0,898552500.0
21,002714,-556841708.79,-540937526.9799999,2019-03-31,一季度报告,-559749705.5699999,2019,3,1.2334244723516625,False,0.7403848656146959,True,0.09010103097735628,True,盈利变化,-411903770.4533332,4389843362.0,4389843362.0
22,002714,-149560395.11,-155701871.63000005,2019-06-30,半年度报告,-202095040.26,2019,6,-4.862776253366081,False,1.069217957211071,True,0.46905741711520266,False,前期平均,1052097735.0700002,4600469091.0,4600469091.0
23,002714,1454430895.5900002,1386912668.52,2019-09-30,三季度报告,1349454330.02,2019,9,-0.13238870943492698,True,0.8040421857959911,True,0.04882197453375403,True,比例外推,1865579698.1730533,4935657500.0,4935657500.0
24,002714,6336458087.53,6114363662.849999,2019-12-31,年度报告,5937528173.28,2019,12,-0.4246514689863047,True,0.7746828363468027,True,0.0,True,比例外推,6114363662.849999,4934145385.0,4934145385.0
25,002714,4544901139.1,4131391734.249999,2020-03-31,一季度报告,4188743361.16,2020,3,-1.5456298833473021,False,2.364684570437643,False,0.25855756969042815,False,前期平均,5139655051.174999,35736461000.0,35736461000.0
