,SECURITYCODE_x,NETPROFIT_x,PARENTNETPROFIT_x,REPORTDATE_x,REPORTTIMETYPE_x,KCFJCXSYJLR,Year,Month,managesituationChangeRate,managesituationGreatChange,historyprofitextroplaterate,ifhistoryprofitextroplate,IfprofitdisStableChangeRage,IfprofitdisStable,predicttype,predict,analyst_prediction,adj_prediction
0,002725,102828055.83,102828055.83,2013-12-31,年度报告,99040963.61,2013,12,未知,未知,未知,未知,未知,未知,未知,未知,未知,未知
1,002725,26202969.039999995,26202969.039999995,2014-03-31,一季度报告,26054531.190000005,2014,3,未知,未知,未知,未知,未知,未知,未知,未知,未知,未知
2,002725,54528149.31999999,54528149.31999999,2014-06-30,半年度报告,50963129.11000001,2014,6,未知,未知,未知,未知,未知,未知,未知,未知,未知,未知
3,002725,78063148.63000001,78063148.63000001,2014-09-30,三季度报告,73282675.77,2014,9,未知,未知,未知,未知,未知,未知,未知,未知,未知,未知
4,002725,93933718.39,93933718.39,2014-12-31,年度报告,89448049.26,2014,12,0.0,True,未知,未知,未知,未知,未知,未知,未知,未知
5,002725,17754921.23,17754921.23,2015-03-31,一季度报告,17642382.470000006,2015,3,2.924290246384996,False,未知,未知,未知,未知,未知,未知,未知,未知
6,002725,32961495.54,32961495.54,2015-06-30,半年度报告,32318929.12,2015,6,0.8857793105456528,False,未知,未知,未知,未知,未知,未知,未知,未知
7,002725,46685683.52,46685683.52,2015-09-30,三季度报告,45765550.63,2015,9,0.3172419718474272,True,未知,未知,未知,未知,未知,未知,未知,未知
8,002725,55617109.82000001,55617109.82000001,2015-12-31,年度报告,53711946.16000002,2015,12,0.09468737735976682,True,未知,未知,未知,未知,未知,未知,未知,未知
9,002725,12589280.099999996,12589280.099999996,2016-03-31,一季度报告,12025734.44,2016,3,4.79152419196624,False,未知,未知,未知,未知,未知,未知,未知,未知
10,002725,28519612.5,28519612.5,2016-06-30,半年度报告,27796205.24,2016,6,2.119641695420474,False,未知,未知,未知,未知,未知,未知,未知,未知
11,002725,37045876.35,37045876.35,2016-09-30,三季度报告,35244740.06,2016,9,1.2025607868833874,False,未知,未知,未知,未知,未知,未知,未知,未知
12,002725,45306286.92,45306286.92,2016-12-31,年度报告,42796886.91999999,2016,12,0.8488565148889282,False,0.4346756625825672,True,0.0,True,前期平均,45306286.92,未知,45306286.92
13,002725,8110113.639999998,8110113.639999998,2017-03-31,一季度报告,7735928.83,2017,3,7.167905949602315,False,0.4272118146401662,True,0.02821637809755173,True,前期平均,57841654.52000001,未知,57841654.52000001
14,002725,18221689.4,18221689.4,2017-06-30,半年度报告,18196312.41,2017,6,2.605520791350163,False,0.3480459877134766,True,0.04250767556660118,True,前期平均,48160657.995000005,未知,48160657.995000005
15,002725,20396519.67,20396519.67,2017-09-30,三季度报告,18577953.94,2017,9,1.7756950560031763,False,0.40607257460405816,True,0.02043304931391865,True,前期平均,32452404.180000015,未知,32452404.180000015
16,002725,15929419.28,15929419.28,2017-12-31,年度报告,12751981.329999998,2017,12,1.269620020099409,False,0.394101825282028,True,0.0,True,前期平均,15929419.28,未知,15929419.28
17,002725,4246000.03,4246000.03,2018-03-31,一季度报告,3641219.47,2018,3,11.678990750862035,False,0.4654587509619586,True,0.20127734347791632,False,前期平均,37666358.115,未知,37666358.115
18,002725,13062021.740000002,13062021.740000002,2018-06-30,半年度报告,12137810.69,2018,6,4.643168071452256,False,0.4072426479970123,True,0.5342267797583801,False,前期平均,31258871.1,未知,31258871.1
19,002725,26695077.97000001,26695077.97000001,2018-09-30,三季度报告,40963865.3,2018,9,4.041451065852353,False,0.5128116638059236,True,0.41271519549470037,False,前期平均,34444349.16500001,未知,34444349.16500001
20,002725,46694510.62,46694510.62,2018-12-31,年度报告,59565864.92999999,2018,12,5.455229410597823,False,0.6843265329042075,True,0.0,True,前期平均,46694510.62,未知,46694510.62
21,002725,22755495.9,22755495.9,2019-03-31,一季度报告,16305810.349999998,2019,3,23.217629558047836,False,0.5897464357330495,True,0.2903885497538148,False,前期平均,40649098.38999999,未知,40649098.38999999
22,002725,31594346.26,31594346.26,2019-06-30,半年度报告,28265781.2,2019,6,6.87229250393209,False,0.44109294311290875,True,0.666872496381582,False,前期平均,36372521.559999995,未知,36372521.559999995
23,002725,38098309.52,38098309.52,2019-09-30,三季度报告,37802769.29,2019,9,2.851948136115519,False,0.0705444125030769,True,0.4674979590702776,False,前期平均,38961396.644999996,未知,38961396.644999996
24,002725,33253956.879999995,33253956.879999995,2019-12-31,年度报告,30532015.12,2019,12,1.202144416220889,False,0.5250746179848905,True,0.0,True,前期平均,33253956.879999995,未知,33253956.879999995
25,002725,2111486.470000001,2111486.470000001,2020-03-31,一季度报告,1838262.15,2020,3,3.518822893681698,False,2.6832772031304892,False,0.3394809321548715,False,去年同期,16337691.240000004,未知,16337691.240000004
