,SECURITYCODE_x,NETPROFIT_x,PARENTNETPROFIT_x,REPORTDATE_x,REPORTTIMETYPE_x,KCFJCXSYJLR,Year,Month,managesituationChangeRate,managesituationGreatChange,historyprofitextroplaterate,ifhistoryprofitextroplate,IfprofitdisStableChangeRage,IfprofitdisStable,predicttype,predict,analyst_prediction,adj_prediction
0,002769,46462604.68999999,46604567.07000001,2012-12-31,年度报告,46588727.12000001,2012,12,未知,未知,未知,未知,未知,未知,未知,未知,未知,未知
1,002769,50470153.57,50972858.44,2013-12-31,年度报告,47638398.56,2013,12,0.0,True,未知,未知,未知,未知,未知,未知,未知,未知
2,002769,40604264.86,40457045.22000001,2014-06-30,半年度报告,40083820.39,2014,6,未知,未知,未知,未知,未知,未知,未知,未知,未知,未知
3,002769,73245895.64,73080283.96000001,2014-09-30,三季度报告,,2014,9,未知,未知,未知,未知,未知,未知,未知,未知,未知,未知
4,002769,107971144.57999995,107743342.21,2014-12-31,年度报告,107319879.47,2014,12,-0.07940433298744984,True,未知,未知,未知,未知,未知,未知,未知,未知
5,002769,43210065.85,43210065.85,2015-03-31,一季度报告,42788344.55,2015,3,未知,未知,未知,未知,未知,未知,未知,未知,未知,未知
6,002769,79321088.43000004,79321088.43000004,2015-06-30,半年度报告,53023320.83,2015,6,0.1442789285854341,True,未知,未知,未知,未知,未知,未知,136878000.0,未知
7,002769,128943758.36,128943758.36,2015-09-30,三季度报告,105775637.47,2015,9,-0.3656626861611274,True,未知,未知,未知,未知,未知,未知,,未知
8,002769,170939575.67999998,170939575.67999998,2015-12-31,年度报告,143940590.48999998,2015,12,-0.5696757233542702,True,1.2277534760827091,True,0.0,True,比例外推,170939575.67999998,未知,170939575.67999998
9,002769,61022046.99,61022046.99,2016-03-31,一季度报告,60846820.95000002,2016,3,0.0752727119484357,True,未知,未知,未知,未知,未知,未知,232901429.0,未知
10,002769,113706951.77,113706951.77,2016-06-30,半年度报告,108429158.53999998,2016,6,-0.4142465060725596,True,未知,未知,未知,未知,未知,未知,235320000.0,未知
11,002769,156588002.86,156588002.86,2016-09-30,三季度报告,151025415.83,2016,9,-0.63966767154188,True,未知,未知,未知,未知,未知,未知,227580000.0,未知
12,002769,190908388.17,190908388.17,2016-12-31,年度报告,184322797.26,2016,12,-0.728192816056954,True,1.1577654017725558,True,0.0,True,比例外推,190908388.17,未知,190908388.17
13,002769,40354679.42000001,40354679.42000001,2017-03-31,一季度报告,38603313.65,2017,3,-0.23859314818439215,True,未知,未知,未知,未知,未知,未知,245473332.99999997,未知
14,002769,94009224.20999998,94009224.20999998,2017-06-30,半年度报告,89759735.09000002,2017,6,-0.5913829016894067,True,0.8962954646468645,True,0.14488192375415826,False,平均增速,175166382.3664049,221903332.99999997,221903332.99999997
15,002769,149823626.01,149823626.01,2017-09-30,三季度报告,145320846.93,2017,9,-0.703281197528647,True,0.5489220122014751,True,,False,平均增速,187668037.64587042,194617500.0,187668037.64587042
16,002769,68247002.58,68247002.58,2017-12-31,年度报告,63054039.81,2017,12,-0.7566235557516414,True,0.36895697656967524,True,0.0,True,比例外推,68247002.58,194617500.0,194617500.0
17,002769,41097459.22,41097459.22,2018-03-31,一季度报告,39675976.76000001,2018,3,0.15135605976274608,True,0.22567664953801952,True,0.19902589100741447,False,平均增速,63581162.559916444,277334000.0,277334000.0
18,002769,73977532.27000001,73977821.39,2018-06-30,半年度报告,57317746.43000002,2018,6,-0.5057654705647741,True,0.025952663534321525,True,0.6301489543183931,False,平均增速,54617729.48611124,210300000.0,210300000.0
19,002769,99750747.02999996,99762989.84999998,2018-09-30,三季度报告,78903206.55,2018,9,-0.689884660201063,True,0.049435799154841045,True,1.0183990957187448,False,平均增速,44057052.93687139,110275000.0,110275000.0
20,002769,102164190.89000002,102112535.47,2018-12-31,年度报告,72878950.66,2018,12,-0.3191993357431934,True,0.6227863113896585,True,0.0,True,比例外推,102112535.47,110275000.0,102112535.47
21,002769,30221355.18000001,30187784.59,2019-03-31,一季度报告,27543708.14,2019,3,0.1305468895602445,True,0.18921313253322689,True,0.16547163063169074,False,平均增速,54146508.47619897,183005000.0,183005000.0
22,002769,50289456.7,50250084.43000002,2019-06-30,半年度报告,46101762.78,2019,6,-0.37193627221272024,True,0.287705621182599,True,0.49077919659433766,False,平均增速,62335462.36608639,,62335462.36608639
23,002769,61158064.87000001,61118207.41,2019-09-30,三季度报告,56343946.27,2019,9,-0.5342129650815908,True,0.34891017421325876,True,0.902464126354203,False,平均增速,56711342.159846045,未知,56711342.159846045
24,002769,62983331.56,62942762.72000001,2019-12-31,年度报告,57771958.16000001,2019,12,-0.5452163396465775,True,0.21156036465739608,True,0.0,True,比例外推,62942762.72000001,149000000.0,149000000.0
25,002769,18541045.630000006,18499413.78,2020-03-31,一季度报告,15586116.1,2020,3,0.5374097029489984,False,0.2579358704484962,True,0.06775879785313099,True,前期平均,47326263.80999999,未知,47326263.80999999
