,SECURITYCODE_x,NETPROFIT_x,PARENTNETPROFIT_x,REPORTDATE_x,REPORTTIMETYPE_x,KCFJCXSYJLR,Year,Month,managesituationChangeRate,managesituationGreatChange,historyprofitextroplaterate,ifhistoryprofitextroplate,IfprofitdisStableChangeRage,IfprofitdisStable,predicttype,predict,analyst_prediction,adj_prediction
0,002885,8047106.03,8047106.03,2013-12-31,年度报告,2243706.0300000003,2013,12,未知,未知,未知,未知,未知,未知,未知,未知,未知,未知
1,002885,23211309.44,23211326.02,2014-12-31,年度报告,19072928.85,2014,12,0.0,True,未知,未知,未知,未知,未知,未知,未知,未知
2,002885,46487094.82,46480637.40999999,2015-12-31,年度报告,41315754.99,2015,12,-0.6533109839924653,True,未知,未知,未知,未知,未知,未知,未知,未知
3,002885,8763327.76,8765279.930000003,2016-03-31,一季度报告,7794509.8199999975,2016,3,未知,未知,未知,未知,未知,未知,未知,未知,未知,未知
4,002885,24567328.37,24567826.930000003,2016-06-30,半年度报告,22931443.23,2016,6,未知,未知,未知,未知,未知,未知,未知,未知,未知,未知
5,002885,54784732.34000001,54797836.33999999,2016-09-30,三季度报告,,2016,9,未知,未知,未知,未知,未知,未知,未知,未知,未知,未知
6,002885,60025784.11000001,60022817.47,2016-12-31,年度报告,54943551.67000002,2016,12,-0.8268959146369818,True,1.974373084561218,True,0.0,True,比例外推,60022817.47,未知,60022817.47
7,002885,15192941.7,15199736.02,2017-03-31,一季度报告,14014467.1,2017,3,-0.08172942398311021,True,未知,未知,未知,未知,未知,未知,未知,未知
8,002885,34915151.559999995,34926381.29000001,2017-06-30,半年度报告,33186205.8,2017,6,-0.672446840421338,True,未知,未知,未知,未知,未知,未知,未知,未知
9,002885,53278387.15000001,53299600.39000001,2017-09-30,三季度报告,49998102.06,2017,9,-0.8531140760155806,True,未知,未知,未知,未知,未知,未知,未知,未知
10,002885,57512084.51000001,58235404.4,2017-12-31,年度报告,53323741.3,2017,12,-0.8659391768168607,True,0.7224435694706105,True,0.0,True,比例外推,58235404.4,未知,58235404.4
11,002885,6560561.3599999985,7309592.96,2018-03-31,一季度报告,5107208.75,2018,3,-0.4703391753290279,True,未知,未知,未知,未知,未知,未知,未知,未知
12,002885,30511940.840000004,31794545.100000005,2018-06-30,半年度报告,25106529.97000001,2018,6,-0.7695239553472526,True,未知,未知,未知,未知,未知,未知,未知,未知
13,002885,62593364.77,64324271.89,2018-09-30,三季度报告,54459362.95000001,2018,9,-0.8489611555367813,True,未知,未知,未知,未知,未知,未知,未知,未知
14,002885,77465606.38000001,79735470.46,2018-12-31,年度报告,62897144.65999999,2018,12,-0.8600797363100133,True,0.07990855355241705,True,0.0,True,比例外推,79735470.46,未知,79735470.46
15,002885,7043345.329999999,7665505.989999997,2019-03-31,一季度报告,5030782.81,2019,3,0.22658802935119596,True,0.45228856513287874,True,0.10085790623283822,False,平均增速,67190925.59385799,未知,67190925.59385799
16,002885,34456786.93,35445971.50000001,2019-06-30,半年度报告,30109607.17,2019,6,-0.7362637115679462,True,0.02591354213566689,True,0.14272495094468413,False,平均增速,78419570.23362568,未知,78419570.23362568
17,002885,47104325.27,48503144.63000001,2019-09-30,三季度报告,41183676.14,2019,9,-0.871438353576786,True,0.15845933497768933,True,,False,平均增速,56229004.43386287,未知,56229004.43386287
18,002885,50201125.86000001,52064135.2,2019-12-31,年度报告,51413079.98,2019,12,-0.896120273163219,True,0.3181386950353226,True,0.0,True,比例外推,52064135.2,未知,52064135.2
19,002885,5583049.62,6187240.49,2020-03-31,一季度报告,5945947.039999999,2020,3,0.14251192479866684,True,0.3524403577140463,True,0.1155291423983936,False,平均增速,56752925.69786562,未知,56752925.69786562
