,SECURITYCODE_x,NETPROFIT_x,PARENTNETPROFIT_x,REPORTDATE_x,REPORTTIMETYPE_x,KCFJCXSYJLR,Year,Month,managesituationChangeRate,managesituationGreatChange,historyprofitextroplaterate,ifhistoryprofitextroplate,IfprofitdisStableChangeRage,IfprofitdisStable,predicttype,predict,analyst_prediction,adj_prediction
0,002857,37019554.64,37019554.64,2014-12-31,年度报告,35624131.31,2014,12,未知,未知,未知,未知,未知,未知,未知,未知,未知,未知
1,002857,38537948.74,38537948.74,2015-12-31,年度报告,37021946.23,2015,12,0.0,True,未知,未知,未知,未知,未知,未知,未知,未知
2,002857,-6666611.32,-6666611.32,2016-03-31,一季度报告,-7215008.48,2016,3,未知,未知,未知,未知,未知,未知,未知,未知,未知,未知
3,002857,-514476.52,-514476.52,2016-06-30,半年度报告,-3628395.52,2016,6,未知,未知,未知,未知,未知,未知,未知,未知,未知,未知
4,002857,40078055.64,40078055.64,2016-12-31,年度报告,35723582.01,2016,12,-0.039399971966437394,True,未知,未知,未知,未知,未知,未知,未知,未知
5,002857,-4154879.22,-4154879.22,2017-03-31,一季度报告,-4155589.69,2017,3,-6.552979296834122,False,未知,未知,未知,未知,未知,未知,未知,未知
6,002857,498815.33,498815.33,2017-06-30,半年度报告,491010.4,2017,6,-72.95577096501897,False,未知,未知,未知,未知,未知,未知,未知,未知
7,002857,15949991.580000002,15949991.580000002,2017-09-30,三季度报告,15939037.649999995,2017,9,未知,未知,未知,未知,未知,未知,未知,未知,未知,未知
8,002857,33253997.0,33253997.0,2017-12-31,年度报告,30551191.2,2017,12,-0.07631360731351088,True,0.060862359054828875,True,0.0,True,比例外推,33253997.0,未知,33253997.0
9,002857,-1877029.34,-1877029.34,2018-03-31,一季度报告,-1861738.68,2018,3,-9.909899104118843,False,未知,未知,未知,未知,未知,未知,未知,未知
10,002857,2392856.12,2392856.12,2018-06-30,半年度报告,628954.4099999999,2018,6,73.21494972899089,False,未知,未知,未知,未知,未知,未知,未知,未知
11,002857,15769638.66,15769638.66,2018-09-30,三季度报告,13998330.599999998,2018,9,1.3209764377819186,False,未知,未知,未知,未知,未知,未知,未知,未知
12,002857,36771720.72,36771720.72,2018-12-31,年度报告,33482547.63,2018,12,0.11323624164638015,True,0.15401457343818262,True,0.0,True,比例外推,36771720.72,未知,36771720.72
13,002857,-419167.17,-419167.17,2019-03-31,一季度报告,-1470495.94,2019,3,-20.72241661390333,False,-0.6530922735529185,True,0.07559389955569139,True,前期平均,38403518.52,未知,38403518.52
14,002857,2449113.91,2449113.91,2019-06-30,半年度报告,-1677029.2699999998,2019,6,14.47086526874002,False,-306.5778162451257,True,0.07933118157267408,True,前期平均,37155193.075,未知,37155193.075
15,002857,12638449.630000005,12638449.630000005,2019-09-30,三季度报告,8191588.999999997,2019,9,1.3475207922107202,False,未知,未知,未知,未知,未知,未知,未知,未知
16,002857,31863536.71,31863536.71,2019-12-31,年度报告,26898317.760000005,2019,12,0.006739796646644438,True,0.002882624887615542,True,0.0,True,比例外推,31863536.71,未知,31863536.71
17,002857,-1283130.47,-1283130.47,2020-03-31,一季度报告,-3569708.69,2020,3,-89.31692291168702,False,-0.8610167359698835,True,0.05392304635391497,True,前期平均,33742403.13,未知,33742403.13
