,SECURITYCODE_x,NETPROFIT_x,PARENTNETPROFIT_x,REPORTDATE_x,REPORTTIMETYPE_x,KCFJCXSYJLR,Year,Month,managesituationChangeRate,managesituationGreatChange,historyprofitextroplaterate,ifhistoryprofitextroplate,IfprofitdisStableChangeRage,IfprofitdisStable,predicttype,predict,analyst_prediction,adj_prediction
0,002893,23925672.82,23925672.82,2012-12-31,年度报告,19357307.05,2012,12,未知,未知,未知,未知,未知,未知,未知,未知,未知,未知
1,002893,36731992.05,36731992.05,2013-12-31,年度报告,36330317.72000001,2013,12,0.0,True,未知,未知,未知,未知,未知,未知,未知,未知
2,002893,45798726.62,44724613.92,2014-12-31,年度报告,35080343.379999995,2014,12,-0.3486421104678421,True,未知,未知,未知,未知,未知,未知,未知,未知
3,002893,100325972.34,101117678.97,2015-03-31,一季度报告,99048227.72,2015,3,未知,未知,未知,未知,未知,未知,未知,未知,未知,未知
4,002893,48122515.64000001,49579015.65999999,2015-12-31,年度报告,41486492.29,2015,12,-0.47759087237259956,True,0.5100721967505571,True,0.0,True,比例外推,49579015.65999999,未知,49579015.65999999
5,002893,47534737.79000001,51912018.38000001,2016-06-30,半年度报告,51764395.61000001,2016,6,未知,未知,未知,未知,未知,未知,未知,未知,未知,未知
6,002893,25344708.73,26653293.88000001,2016-09-30,三季度报告,,2016,9,未知,未知,未知,未知,未知,未知,未知,未知,未知,未知
7,002893,49617221.19000001,49478175.31,2016-12-31,年度报告,44715009.85999999,2016,12,-0.5028174960971347,True,0.16617221842980506,True,0.0,True,比例外推,49478175.31,未知,49478175.31
8,002893,111015131.98000002,112737952.75,2017-03-31,一季度报告,111696295.54,2017,3,未知,未知,未知,未知,未知,未知,未知,未知,未知,未知
9,002893,76191209.99999999,77177181.61999999,2017-06-30,半年度报告,75104187.39999999,2017,6,-0.49666972129520615,True,未知,未知,未知,未知,未知,未知,未知,未知
10,002893,32035442.840000004,34775380.35,2017-09-30,三季度报告,32589503.27,2017,9,-0.05598943452525525,True,未知,未知,未知,未知,未知,未知,72010000.0,未知
11,002893,52581713.08000001,52213113.76999999,2017-12-31,年度报告,49878065.06,2017,12,-0.5177949863741655,True,0.05657080328315516,True,0.0,True,比例外推,52213113.76999999,,52213113.76999999
12,002893,83296761.00999999,85670492.86999999,2018-03-31,一季度报告,85538726.6,2018,3,-0.7844827782188257,True,未知,未知,未知,未知,未知,未知,未知,未知
13,002893,48655634.49000001,50659834.09,2018-06-30,半年度报告,49753087.45,2018,6,-0.6859785686564106,True,未知,未知,未知,未知,未知,未知,未知,未知
14,002893,14143871.36,18228767.2,2018-09-30,三季度报告,16596464.7,2018,9,-0.2531499271136657,True,未知,未知,未知,未知,未知,未知,未知,未知
15,002893,38252237.26000001,42732482.97000001,2018-12-31,年度报告,34649227.68,2018,12,-0.544981108097439,True,0.07595364557725515,True,0.0,True,比例外推,42732482.97000001,未知,42732482.97000001
16,002893,109730202.59000002,112715689.1,2019-03-31,一季度报告,112156298.86,2019,3,-0.7127658683255683,True,未知,未知,未知,未知,未知,未知,未知,未知
17,002893,69274414.97,70498858.19,2019-06-30,半年度报告,67304027.05,2019,6,-0.5082651152166694,True,0.21349344484176916,True,0.20878683177357882,False,平均增速,53447861.26387374,58000000.0,53447861.26387374
18,002893,30226364.05,31450807.270000003,2019-09-30,三季度报告,26009280.22000001,2019,9,0.6915929317388815,False,0.5070117114366487,True,,False,前期平均,,58000000.0,
19,002893,46036099.39,47260542.60999999,2019-12-31,年度报告,37134781.41,2019,12,-0.3745287979529804,True,0.25141612222802284,True,0.0,True,比例外推,47260542.60999999,,47260542.60999999
20,002893,123528356.46000002,123528356.46000002,2020-03-31,一季度报告,122629254.44,2020,3,-0.7819590937109925,True,0.12942343262177092,True,0.444135474962589,False,平均增速,49385156.09885068,未知,49385156.09885068
