,SECURITYCODE_x,NETPROFIT_x,PARENTNETPROFIT_x,REPORTDATE_x,REPORTTIMETYPE_x,KCFJCXSYJLR,Year,Month,managesituationChangeRate,managesituationGreatChange,historyprofitextroplaterate,ifhistoryprofitextroplate,IfprofitdisStableChangeRage,IfprofitdisStable,predicttype,predict,analyst_prediction,adj_prediction
0,002884,68559798.28,68559798.28,2012-12-31,年度报告,59083898.27999999,2012,12,未知,未知,未知,未知,未知,未知,未知,未知,未知,未知
1,002884,78115907.22,78115907.22,2013-12-31,年度报告,71842707.22,2013,12,0.0,True,未知,未知,未知,未知,未知,未知,未知,未知
2,002884,115078376.09999998,115078376.09999998,2014-12-31,年度报告,107101731.21,2014,12,-0.12233243240825281,True,未知,未知,未知,未知,未知,未知,未知,未知
3,002884,57513438.57,57513438.57,2015-06-30,半年度报告,54006238.56999999,2015,6,未知,未知,未知,未知,未知,未知,未知,未知,未知,未知
4,002884,113863348.11,113863348.11,2015-12-31,年度报告,103260466.09999998,2015,12,-0.4042338743082071,True,0.5691538787246533,True,0.0,True,比例外推,113863348.11,未知,113863348.11
5,002884,73847714.96,73847714.96,2016-06-30,半年度报告,66118785.7,2016,6,0.19206571515551796,True,未知,未知,未知,未知,未知,未知,未知,未知
6,002884,112982700.15000002,112982700.15000002,2016-09-30,三季度报告,,2016,9,未知,未知,未知,未知,未知,未知,未知,未知,未知,未知
7,002884,150091754.93,150091754.93,2016-12-31,年度报告,137193897.48000002,2016,12,-0.3978764947806873,True,0.178744486154395,True,0.0,True,比例外推,150091754.93,未知,150091754.93
8,002884,37858516.81,37858516.81,2017-03-31,一季度报告,33738903.01,2017,3,未知,未知,未知,未知,未知,未知,未知,未知,未知,未知
9,002884,76403004.87,76403004.87,2017-06-30,半年度报告,67180114.43999998,2017,6,-0.07160569129138553,True,未知,未知,未知,未知,未知,未知,未知,未知
10,002884,130998498.88,130998498.88,2017-09-30,三季度报告,116656524.76,2017,9,-0.3931832201834664,True,未知,未知,未知,未知,未知,未知,未知,未知
11,002884,188365903.26999995,188365903.26999995,2017-12-31,年度报告,161864686.60999998,2017,12,-0.543214093858953,True,0.3111786892312059,True,0.0,True,比例外推,188365903.26999995,未知,188365903.26999995
12,002884,39928521.23,39928521.23,2018-03-31,一季度报告,30338456.0,2018,3,0.8109478145718196,False,未知,未知,未知,未知,未知,未知,未知,未知
13,002884,94681038.11,94681038.11,2018-06-30,半年度报告,76527111.80000001,2018,6,-0.10265573459244501,True,0.16325112587491455,True,0.058289715136646325,True,比例外推,179832591.74689007,未知,179832591.74689007
14,002884,159170197.32000005,159170197.32000005,2018-09-30,三季度报告,133741606.51000004,2018,9,-0.47663676403800936,True,未知,未知,未知,未知,未知,未知,未知,未知
15,002884,223171460.33,223171460.33,2018-12-31,年度报告,191675203.47,2018,12,-0.6360286172294795,True,0.4272571441170796,True,0.0,True,比例外推,223171460.33,未知,223171460.33
16,002884,58515072.23,58515072.23,2019-03-31,一季度报告,46529742.01000001,2019,3,0.7170632963108112,False,未知,未知,未知,未知,未知,未知,未知,未知
17,002884,120471274.72,120471274.72,2019-06-30,半年度报告,100561970.75,2019,6,-0.2758867071107993,True,0.2603072812845906,True,0.049860243196352017,True,比例外推,252650407.256753,未知,252650407.256753
18,002884,198637219.53000003,198637219.53000003,2019-09-30,三季度报告,172772104.43999997,2019,9,-0.5692673664142947,True,0.3047742855008137,True,,False,平均增速,270296210.4443891,未知,270296210.4443891
19,002884,272382548.16,272382548.16,2019-12-31,年度报告,240546164.42,2019,12,-0.6927931637019279,True,0.31875556615784717,True,0.0,True,比例外推,272382548.16,未知,272382548.16
20,002884,64062849.3,64062849.3,2020-03-31,一季度报告,57189374.27000001,2020,3,0.17166049134346262,True,0.5044941600658485,True,0.028437191019520414,True,比例外推,313161324.0528078,未知,313161324.0528078
