,SECURITYCODE_x,NETPROFIT_x,PARENTNETPROFIT_x,REPORTDATE_x,REPORTTIMETYPE_x,KCFJCXSYJLR,Year,Month,managesituationChangeRate,managesituationGreatChange,historyprofitextroplaterate,ifhistoryprofitextroplate,IfprofitdisStableChangeRage,IfprofitdisStable,predicttype,predict,analyst_prediction,adj_prediction
0,002883,17722330.66,15176941.53,2012-12-31,年度报告,14526041.53,2012,12,未知,未知,未知,未知,未知,未知,未知,未知,未知,未知
1,002883,17986365.05,14562452.760000002,2013-12-31,年度报告,13919052.76,2013,12,0.0,True,未知,未知,未知,未知,未知,未知,未知,未知
2,002883,31895354.260000005,29269869.329999994,2014-12-31,年度报告,29038243.750000004,2014,12,-0.01467969705196218,True,未知,未知,未知,未知,未知,未知,未知,未知
3,002883,13719554.830000002,12687259.79,2015-06-30,半年度报告,12520659.79,2015,6,未知,未知,未知,未知,未知,未知,未知,未知,未知,未知
4,002883,26205821.38000001,24127520.39,2015-12-31,年度报告,22959531.05,2015,12,-0.44436012481524334,True,0.786419449146551,True,0.0,True,比例外推,24127520.39,未知,24127520.39
5,002883,12637350.88,13256113.29,2016-06-30,半年度报告,11865167.849999998,2016,6,0.29175697605342765,True,未知,未知,未知,未知,未知,未知,未知,未知
6,002883,24071979.12,24582926.88000001,2016-09-30,三季度报告,,2016,9,未知,未知,未知,未知,未知,未知,未知,未知,未知,未知
7,002883,41920762.74,40513880.94,2016-12-31,年度报告,36602997.01,2016,12,-0.32372542714782127,True,0.05071844926349267,True,0.0,True,比例外推,40513880.94,未知,40513880.94
8,002883,9390088.83,9174469.1,2017-03-31,一季度报告,9165876.68,2017,3,未知,未知,未知,未知,未知,未知,未知,未知,未知,未知
9,002883,21908484.009999994,20968601.180000003,2017-06-30,半年度报告,20707987.18,2017,6,0.4023770352097717,True,未知,未知,未知,未知,未知,未知,53000000.0,未知
10,002883,35414837.86,34347412.64999999,2017-09-30,三季度报告,33166058.969999995,2017,9,-0.26377758257211387,True,未知,未知,未知,未知,未知,未知,,未知
11,002883,52204779.0,49087195.23999999,2017-12-31,年度报告,46584442.11999999,2017,12,-0.5772421706657144,True,0.4430263167046646,True,0.0,True,比例外推,49087195.23999999,未知,49087195.23999999
12,002883,12188548.54,11853471.51,2018-03-31,一季度报告,10863221.82,2018,3,0.8873443032167779,False,未知,未知,未知,未知,未知,未知,未知,未知
13,002883,26041928.15,25404211.53,2018-06-30,半年度报告,23142501.21,2018,6,-0.19107453295669613,True,0.662447348793888,True,0.11384837288390875,False,平均增速,58410034.25588146,未知,58410034.25588146
14,002883,40753275.35,39716148.40000001,2018-09-30,三季度报告,35850717.96,2018,9,-0.49957894117547713,True,未知,未知,未知,未知,未知,未知,57800000.0,未知
15,002883,59294441.81999999,56832819.22,2018-12-31,年度报告,51099201.91,2018,12,-0.6605228295286913,True,0.5325817278037922,True,0.0,True,比例外推,56832819.22,57490000.0,56832819.22
16,002883,14071130.849999998,13500410.150000002,2019-03-31,一季度报告,13488093.99,2019,3,0.45401485680098885,True,未知,未知,未知,未知,未知,未知,,未知
17,002883,29311174.840000004,29006212.63000001,2019-06-30,半年度报告,28309142.99000001,2019,6,-0.31946933583717757,True,0.507673977654445,True,0.08303422357787665,True,比例外推,70219805.15250741,未知,70219805.15250741
18,002883,45469949.31999999,45740149.11,2019-09-30,三季度报告,44793779.24,2019,9,-0.5651311334415235,True,0.370161572561585,True,,False,平均增速,64299520.84344955,67000000.0,64299520.84344955
19,002883,64894238.26,65240162.53,2019-12-31,年度报告,63290454.75000001,2019,12,-0.7011131209599774,True,0.25990120691761104,True,0.0,True,比例外推,65240162.53,70460000.0,65240162.53
20,002883,9925468.190000003,10015879.72,2020-03-31,一季度报告,9933884.79,2020,3,0.25948161870728415,True,0.30417232642896946,True,0.010729458855035068,True,比例外推,47958957.763303466,未知,47958957.763303466
