,SECURITYCODE_x,NETPROFIT_x,PARENTNETPROFIT_x,REPORTDATE_x,REPORTTIMETYPE_x,KCFJCXSYJLR,Year,Month,managesituationChangeRate,managesituationGreatChange,historyprofitextroplaterate,ifhistoryprofitextroplate,IfprofitdisStableChangeRage,IfprofitdisStable,predicttype,predict,analyst_prediction,adj_prediction
0,002888,26504472.75,26504472.75,2012-12-31,年度报告,26716472.75,2012,12,未知,未知,未知,未知,未知,未知,未知,未知,未知,未知
1,002888,31603347.22,31603347.22,2013-12-31,年度报告,30869447.22,2013,12,0.0,True,未知,未知,未知,未知,未知,未知,未知,未知
2,002888,34092757.71,34092757.71,2014-12-31,年度报告,32188176.4,2014,12,-0.16133969716895066,True,未知,未知,未知,未知,未知,未知,未知,未知
3,002888,21276470.360000007,21276470.360000007,2015-09-30,三季度报告,20657470.360000007,2015,9,未知,未知,未知,未知,未知,未知,未知,未知,未知,未知
4,002888,33405861.11,33405861.11,2015-12-31,年度报告,31933757.26,2015,12,-0.22257762263022285,True,0.17343096772866254,True,0.0,True,比例外推,33405861.11,未知,33405861.11
5,002888,3740142.0,3740142.0,2016-03-31,一季度报告,3495728.68,2016,3,未知,未知,未知,未知,未知,未知,未知,未知,未知,未知
6,002888,13248623.139999995,13248623.139999995,2016-06-30,半年度报告,11653904.2,2016,6,未知,未知,未知,未知,未知,未知,未知,未知,未知,未知
7,002888,20631019.21,20631019.21,2016-09-30,三季度报告,,2016,9,0.24571756036324022,True,未知,未知,未知,未知,未知,未知,未知,未知
8,002888,37044594.97,37044594.97,2016-12-31,年度报告,32459241.34000001,2016,12,-0.20659214074065818,True,0.016981483014688662,True,0.0,True,比例外推,37044594.97,未知,37044594.97
9,002888,6269506.22,6269506.22,2017-03-31,一季度报告,5163004.96,2017,3,6.086488360602352,False,未知,未知,未知,未知,未知,未知,未知,未知
10,002888,15816911.05,15816911.05,2017-06-30,半年度报告,13809733.59,2017,6,1.0005454506422025,False,未知,未知,未知,未知,未知,未知,未知,未知
11,002888,22116432.380000006,22116432.380000006,2017-09-30,三季度报告,19656757.230000004,2017,9,0.284690420779265,True,未知,未知,未知,未知,未知,未知,未知,未知
12,002888,33611727.9,33611727.9,2017-12-31,年度报告,30789465.91000001,2017,12,-0.28452523852766526,True,0.09764008857092649,True,0.0,True,比例外推,33611727.9,未知,33611727.9
13,002888,5967113.440000001,5967113.440000001,2018-03-31,一季度报告,5476327.64,2018,3,3.2275215654862213,False,未知,未知,未知,未知,未知,未知,未知,未知
14,002888,16287314.14,16287314.14,2018-06-30,半年度报告,9777217.86,2018,6,0.6757047356601275,False,未知,未知,未知,未知,未知,未知,未知,未知
15,002888,20536361.6,20536361.6,2018-09-30,三季度报告,10086845.33,2018,9,0.19840633853623332,True,0.05548829609838175,True,,False,平均增速,28861710.704888932,未知,28861710.704888932
16,002888,28226111.48,28226111.48,2018-12-31,年度报告,14643198.37,2018,12,-0.21145164482900622,True,0.04580524328097439,True,0.0,True,比例外推,28226111.48,未知,28226111.48
17,002888,3688013.6800000006,3688013.6800000006,2019-03-31,一季度报告,1495640.36,2019,3,3.4417578141433816,False,0.19227235739958942,True,0.1575284852878168,False,前期平均,30983000.48500001,未知,30983000.48500001
18,002888,13718331.089999998,13718331.089999998,2019-06-30,半年度报告,8166802.02,2019,6,0.6273077637096524,False,0.12073041792596084,True,0.17594681667246342,False,前期平均,32610865.820000008,未知,32610865.820000008
19,002888,16294888.16,16294888.16,2019-09-30,三季度报告,9484282.24,2019,9,0.29061190420410193,True,0.03917726853199766,True,,False,平均增速,20059203.431378365,未知,20059203.431378365
20,002888,26160244.6,26160244.6,2019-12-31,年度报告,17347160.220000006,2019,12,-0.06099454156906775,True,0.20103083960559356,True,0.0,True,比例外推,26160244.6,未知,26160244.6
21,002888,9102699.01,9102699.01,2020-03-31,一季度报告,3278523.89,2020,3,6.186652504499386,False,0.3972169140705317,True,0.1646877446618403,False,前期平均,26499364.85000001,未知,26499364.85000001
