,SECURITYCODE_x,NETPROFIT_x,PARENTNETPROFIT_x,REPORTDATE_x,REPORTTIMETYPE_x,KCFJCXSYJLR,Year,Month,managesituationChangeRate,managesituationGreatChange,historyprofitextroplaterate,ifhistoryprofitextroplate,IfprofitdisStableChangeRage,IfprofitdisStable,predicttype,predict,analyst_prediction,adj_prediction
0,002841,225889633.78,225882245.44000003,2014-12-31,年度报告,218198428.04,2014,12,未知,未知,未知,未知,未知,未知,未知,未知,未知,未知
1,002841,329391804.47,329320649.99000007,2015-09-30,三季度报告,317527412.87000006,2015,9,未知,未知,未知,未知,未知,未知,未知,未知,未知,未知
2,002841,354631870.6,354463544.6,2015-12-31,年度报告,334465711.52,2015,12,0.0,True,未知,未知,未知,未知,未知,未知,未知,未知
3,002841,94162503.78,94162503.78,2016-03-31,一季度报告,88856306.57,2016,3,未知,未知,未知,未知,未知,未知,未知,未知,未知,未知
4,002841,323607398.65,324030130.52999985,2016-06-30,半年度报告,265258180.36999992,2016,6,未知,未知,未知,未知,未知,未知,未知,未知,未知,未知
5,002841,594473037.73,594642274.62,2016-09-30,三季度报告,528402561.1000001,2016,9,-0.3142220580033487,True,未知,未知,未知,未知,未知,未知,未知,未知
6,002841,742074807.09,741956223.8200003,2016-12-31,年度报告,604143674.9100001,2016,12,-0.36303064527782464,True,未知,未知,未知,未知,未知,未知,未知,未知
7,002841,112287699.07999995,112205990.32999998,2017-03-31,一季度报告,115641087.91,2017,3,1.398934020571134,False,未知,未知,未知,未知,未知,未知,987000000.0,未知
8,002841,309313999.84000003,309817303.28,2017-06-30,半年度报告,291767984.77,2017,6,-0.3019639392598912,True,未知,未知,未知,未知,未知,未知,894284286.0,未知
9,002841,595659582.5500001,596303342.93,2017-09-30,三季度报告,606604172.3200003,2017,9,-0.6200170244178587,True,未知,未知,未知,未知,未知,未知,820130000.0,未知
10,002841,689941281.02,691081647.23,2017-12-31,年度报告,691241380.29,2017,12,-0.6955972206281843,True,1.5565799078624651,True,0.0,True,比例外推,691081647.23,837000000.0,837000000.0
11,002841,126491798.80999996,127848927.68999998,2018-03-31,一季度报告,131006387.48,2018,3,1.011704181586834,False,未知,未知,未知,未知,未知,未知,977427500.0,未知
12,002841,396029583.13,385286540.63,2018-06-30,半年度报告,366978540.68,2018,6,-0.2697076954265027,True,未知,未知,未知,未知,未知,未知,971127000.0,未知
13,002841,890137858.9699998,849896067.7700003,2018-09-30,三季度报告,820221587.7,2018,9,-0.6207739447202821,True,0.28949507620953613,True,0.04884199881423068,True,比例外推,940510451.5672734,951565714.0,940510451.5672734
14,002841,1061043079.8799998,1004274077.27,2018-12-31,年度报告,940973004.37,2018,12,-0.6725958570763475,True,0.2582056716810141,True,0.0,True,比例外推,1004274077.27,951565714.0,1004274077.27
15,002841,191569912.68,188437748.72,2019-03-31,一季度报告,172513811.87000003,2019,3,0.7858045810487915,False,0.22539767031159394,True,0.016095703077989104,True,前期平均,733881579.08,1377016667.0,1377016667.0
16,002841,567554650.16,564290783.51,2019-06-30,半年度报告,534782646.3000001,2019,6,-0.4296142424646851,True,0.2514336980068376,True,0.02705315808169384,True,比例外推,1311800105.683278,1577989286.0000002,1577989286.0000002
17,002841,1421603873.7299998,1413529887.1799998,2019-09-30,三季度报告,1343268811.4600005,2019,9,-0.7462307310000471,True,0.49586330767167575,True,0.0029468456949112154,True,比例外推,1606091150.6911004,1626491667.0,1606091150.6911004
18,002841,1612290660.4099994,1610908565.49,2019-12-31,年度报告,1516210403.83,2019,12,-0.7871060675448284,True,0.4818870942719407,True,0.0,True,比例外推,1610908565.49,1626491667.0,1610908565.49
19,002841,162696559.20000002,161630319.03,2020-03-31,一季度报告,119436394.68,2020,3,0.1791498498896742,True,0.6045758900812476,True,0.02719520489461802,True,比例外推,894704563.4958851,1704750000.0,1704750000.0
