,SECURITYCODE_x,NETPROFIT_x,PARENTNETPROFIT_x,REPORTDATE_x,REPORTTIMETYPE_x,KCFJCXSYJLR,Year,Month,managesituationChangeRate,managesituationGreatChange,historyprofitextroplaterate,ifhistoryprofitextroplate,IfprofitdisStableChangeRage,IfprofitdisStable,predicttype,predict,analyst_prediction,adj_prediction
0,002813,88406459.42999999,88647233.37,2014-12-31,年度报告,72049792.11000001,2014,12,未知,未知,未知,未知,未知,未知,未知,未知,未知,未知
1,002813,33375600.23,33470403.660000004,2015-06-30,半年度报告,31938114.46000001,2015,6,未知,未知,未知,未知,未知,未知,未知,未知,未知,未知
2,002813,16906806.99,16979335.38,2015-09-30,三季度报告,,2015,9,未知,未知,未知,未知,未知,未知,未知,未知,未知,未知
3,002813,46192802.53,46315063.80000001,2015-12-31,年度报告,36063473.1,2015,12,0.0,True,未知,未知,未知,未知,未知,未知,未知,未知
4,002813,16113070.65,16146878.980000002,2016-03-31,一季度报告,15700369.490000002,2016,3,未知,未知,未知,未知,未知,未知,未知,未知,未知,未知
5,002813,26733030.54,26762302.38000001,2016-06-30,半年度报告,25835013.87,2016,6,1.6488350417900481,False,未知,未知,未知,未知,未知,未知,未知,未知
6,002813,38476528.66,38548540.11,2016-09-30,三季度报告,22527917.74,2016,9,4.2290452882256515,False,未知,未知,未知,未知,未知,未知,50110000.0,未知
7,002813,40688474.42,40792718.16,2016-12-31,年度报告,20779478.700000007,2016,12,0.91385788668233,False,未知,未知,未知,未知,未知,未知,49110000.0,未知
8,002813,11829987.96,11863313.27,2017-03-31,一季度报告,10253375.73,2017,3,4.486630161954884,False,未知,未知,未知,未知,未知,未知,57030000.0,未知
9,002813,17107827.78,17189672.26,2017-06-30,半年度报告,17327455.92,2017,6,2.3070122483015725,False,未知,未知,未知,未知,未知,未知,49200000.0,未知
10,002813,12095079.74,12225178.7,2017-09-30,三季度报告,12427669.72,2017,9,1.2976724384678417,False,未知,未知,未知,未知,未知,未知,28000000.0,未知
11,002813,24342927.95,24531799.24,2017-12-31,年度报告,15668579.710000005,2017,12,1.1727641719234552,False,0.3954131125608735,True,0.0,True,前期平均,24531799.24,69865714.0,69865714.0
12,002813,6955622.170000001,7636954.729999999,2018-03-31,一季度报告,3617072.6,2018,3,6.473081099399529,False,未知,未知,未知,未知,未知,未知,未知,未知
13,002813,-12015312.75,-10546608.499999998,2018-06-30,半年度报告,-16582017.030000005,2018,6,4.167602840458334,False,0.43076967281249545,True,0.19265020385570164,False,盈利变化,1925483.9399999976,未知,1925483.9399999976
14,002813,-29546884.3,-27021217.09,2018-09-30,三季度报告,-33694294.940000005,2018,9,6.309291160572373,False,0.5632231393054419,True,,False,盈利变化,4033148.2799999975,未知,4033148.2799999975
15,002813,11629005.819999995,16953434.630000006,2018-12-31,年度报告,-181663509.84,2018,12,2.631710187516699,False,0.4396277586019067,True,0.0,True,前期平均,16953434.630000006,,16953434.630000006
16,002813,-12579680.13,-11591046.09,2019-03-31,一季度报告,-12321880.510000002,2019,3,11.710072121413113,False,0.5021574218428051,True,0.48326115404230907,False,盈利变化,-4298502.849999994,未知,-4298502.849999994
17,002813,-46246887.45,-43960558.21,2019-06-30,半年度报告,-46099933.35000001,2019,6,-8.357815919523192,False,1.5481330982299069,True,0.7222033031466472,False,前期平均,-47317763.9,未知,-47317763.9
18,002813,-72260877.95,-68772112.42999999,2019-09-30,三季度报告,-88101075.78000002,2019,9,-3.992073835345136,False,2.1685166928564605,False,0.5021161447098748,False,去年同期,-216741327.32999998,未知,-216741327.32999998
19,002813,-356215145.54000014,-352160972.47,2019-12-31,年度报告,-383265937.33,2019,12,6.6022370956213035,False,0.6423572183224321,True,0.0,True,盈利变化,-50247374.53333332,未知,-50247374.53333332
20,002813,-8915163.620000001,-8627393.47,2020-03-31,一季度报告,-16018038.88,2020,3,-8.027719188118974,False,2.339288960320822,False,0.4321809723869513,False,去年同期,-379571450.29,未知,-379571450.29
