,SECURITYCODE_x,NETPROFIT_x,PARENTNETPROFIT_x,REPORTDATE_x,REPORTTIMETYPE_x,KCFJCXSYJLR,Year,Month,managesituationChangeRate,managesituationGreatChange,historyprofitextroplaterate,ifhistoryprofitextroplate,IfprofitdisStableChangeRage,IfprofitdisStable,predicttype,predict,analyst_prediction,adj_prediction
0,002880,71445254.15,71445254.15,2012-12-31,年度报告,64655573.88999999,2012,12,未知,未知,未知,未知,未知,未知,未知,未知,未知,未知
1,002880,88880568.96999998,88880568.96999998,2013-12-31,年度报告,79467847.26,2013,12,0.0,True,未知,未知,未知,未知,未知,未知,未知,未知
2,002880,100541513.76,100541513.76,2014-12-31,年度报告,94810474.59,2014,12,-0.19616565265108676,True,未知,未知,未知,未知,未知,未知,未知,未知
3,002880,67622211.57,67622211.57,2015-06-30,半年度报告,65187110.83000001,2015,6,未知,未知,未知,未知,未知,未知,未知,未知,未知,未知
4,002880,124855119.29,124855119.29,2015-12-31,年度报告,119317177.8,2015,12,-0.2893954797563016,True,0.2542148457862226,True,0.0,True,比例外推,124855119.29,未知,124855119.29
5,002880,74989537.39000003,74989537.39000003,2016-06-30,半年度报告,70163226.83000001,2016,6,0.05653530831422959,True,未知,未知,未知,未知,未知,未知,未知,未知
6,002880,115778770.63,115778770.63,2016-09-30,三季度报告,,2016,9,未知,未知,未知,未知,未知,未知,未知,未知,未知,未知
7,002880,153226959.23,153226959.23,2016-12-31,年度报告,143946712.08999997,2016,12,-0.42777473157464474,True,0.31827416836047595,True,0.0,True,比例外推,153226959.23,未知,153226959.23
8,002880,34682040.44,34682040.44,2017-03-31,一季度报告,33416820.36,2017,3,未知,未知,未知,未知,未知,未知,未知,未知,未知,未知
9,002880,75781977.56,75781977.56,2017-06-30,半年度报告,73110538.29,2017,6,-0.04726370322258662,True,未知,未知,未知,未知,未知,未知,190910000.0,未知
10,002880,106957624.38,106957624.38,2017-09-30,三季度报告,103005337.65,2017,9,-0.3829157645979747,True,未知,未知,未知,未知,未知,未知,,未知
11,002880,154749234.61000004,154749234.61000004,2017-12-31,年度报告,144234555.59,2017,12,-0.533729217697535,True,0.3596206576520552,True,0.0,True,比例外推,154749234.61000004,未知,154749234.61000004
12,002880,24743545.960000005,24743545.960000005,2018-03-31,一季度报告,23468577.49,2018,3,1.0600072326655765,False,未知,未知,未知,未知,未知,未知,未知,未知
13,002880,69164923.20999998,69164923.20999998,2018-06-30,半年度报告,64985892.39000001,2018,6,-0.05722631619855021,True,0.06277327236559517,True,0.03278596924567578,True,比例外推,130721834.7079925,未知,130721834.7079925
14,002880,156636847.60000002,156636847.60000002,2018-12-31,年度报告,147664423.56000003,2018,12,-0.5383159449540622,True,0.11297524409772637,True,0.0,True,比例外推,156636847.60000002,未知,156636847.60000002
15,002880,26979739.000000004,26979739.000000004,2019-03-31,一季度报告,25649010.64,2019,3,1.887429888403917,False,未知,未知,未知,未知,未知,未知,未知,未知
16,002880,70533135.66000001,70533135.66000001,2019-06-30,半年度报告,65918068.7,2019,6,0.03296947114473675,True,0.08252002066919661,True,0.03804265324351791,True,比例外推,142480215.9535528,未知,142480215.9535528
17,002880,109360102.11,109404006.55999996,2019-09-30,三季度报告,103025160.32999995,2019,9,未知,未知,未知,未知,未知,未知,未知,未知,未知,未知
18,002880,171151781.0,171344660.73999998,2019-12-31,年度报告,163317914.67999998,2019,12,-0.5438796474476546,True,0.017201009253176806,True,0.0,True,比例外推,171344660.73999998,未知,171344660.73999998
19,002880,31460821.75,31681563.25,2020-03-31,一季度报告,31445935.46,2020,3,1.6481076836955317,False,0.09198240574703018,True,0.0491287757450217,True,前期平均,149188353.9,222170000.0,222170000.0
