,SECURITYCODE_x,NETPROFIT_x,PARENTNETPROFIT_x,REPORTDATE_x,REPORTTIMETYPE_x,KCFJCXSYJLR,Year,Month,managesituationChangeRate,managesituationGreatChange,historyprofitextroplaterate,ifhistoryprofitextroplate,IfprofitdisStableChangeRage,IfprofitdisStable,predicttype,predict,analyst_prediction,adj_prediction
0,002836,51889475.55000001,51889475.55000001,2014-12-31,年度报告,51864175.55000001,2014,12,未知,未知,未知,未知,未知,未知,未知,未知,未知,未知
1,002836,51889475.55000001,51889475.55000001,2014-12-31,年度报告,51864218.9,2014,12,未知,未知,未知,未知,未知,未知,未知,未知,未知,未知
2,002836,36540703.87,36540703.87,2015-12-31,年度报告,36477003.87000001,2015,12,0.0,True,未知,未知,未知,未知,未知,未知,未知,未知
3,002836,36540703.87,36540703.87,2015-12-31,年度报告,36476959.65,2015,12,0.0,True,未知,未知,未知,未知,未知,未知,未知,未知
4,002836,11916767.06,11916767.06,2016-03-31,一季度报告,12171190.84,2016,3,未知,未知,未知,未知,未知,未知,未知,未知,未知,未知
5,002836,16112308.81,16112308.81,2016-06-30,半年度报告,16689087.26,2016,6,未知,未知,未知,未知,未知,未知,未知,未知,未知,未知
6,002836,50310682.43999999,50310682.43999999,2016-12-31,年度报告,48311116.03,2016,12,0.42004586815311434,True,未知,未知,未知,未知,未知,未知,未知,未知
7,002836,10940169.689999998,10940169.689999998,2017-03-31,一季度报告,10907201.46,2017,3,3.3543249011028338,False,未知,未知,未知,未知,未知,未知,未知,未知
8,002836,18242568.2,18242568.2,2017-06-30,半年度报告,15097106.56,2017,6,2.220486657864647,False,未知,未知,0.0,True,未知,未知,未知,未知
9,002836,28697120.75,28697120.75,2017-09-30,三季度报告,24662783.5,2017,9,未知,未知,未知,未知,未知,未知,未知,未知,未知,未知
10,002836,47592741.20999999,47592741.20999999,2017-12-31,年度报告,42114257.86,2017,12,0.031380872479376015,True,0.13786227213333818,True,未知,未知,未知,未知,未知,未知
11,002836,7758142.51,7758142.51,2018-03-31,一季度报告,7062593.969999999,2018,3,3.7430229164937225,False,未知,未知,未知,未知,未知,未知,未知,未知
12,002836,13142609.820000002,13142609.820000002,2018-06-30,半年度报告,11094564.82,2018,6,1.8444172432914359,False,未知,未知,0.0,True,未知,未知,未知,未知
13,002836,25000293.849999994,25000293.849999994,2018-09-30,三季度报告,22678748.9,2018,9,0.8081770642443288,False,未知,未知,0.0653515990975082,True,未知,未知,未知,未知
14,002836,49531753.19,49531753.19,2018-12-31,年度报告,44860457.49,2018,12,0.09028129565054778,True,0.09595812414845034,True,0.06976812588225567,True,比例外推,49531753.19,未知,49531753.19
15,002836,16792732.09,14017897.96,2019-03-31,一季度报告,13812286.750000002,2019,3,5.688389067758955,False,0.32115640911505783,True,未知,未知,前期平均,47691388.755,未知,47691388.755
16,002836,24715325.820000004,21374831.63,2019-06-30,半年度报告,21235153.77,2019,6,2.948186567255179,False,0.23489117331583176,True,0.0,True,前期平均,50694421.665,未知,50694421.665
17,002836,30070353.1,26566767.92000001,2019-09-30,三季度报告,25587356.46,2019,9,1.0755546259309279,False,未知,未知,0.2442749949518382,False,未知,未知,未知,未知
18,002836,27767687.74,26278327.14,2019-12-31,年度报告,24037035.77,2019,12,0.047600220225518214,True,0.011849255998924602,True,未知,未知,True,True,未知,True
19,002836,5633793.89,5269901.8500000015,2020-03-31,一季度报告,4947618.67,2020,3,2.0899960335161882,False,0.7961762441852911,True,未知,未知,前期平均,39772361.809999995,未知,39772361.809999995
