,SECURITYCODE_x,NETPROFIT_x,PARENTNETPROFIT_x,REPORTDATE_x,REPORTTIMETYPE_x,KCFJCXSYJLR,Year,Month,managesituationChangeRate,managesituationGreatChange,historyprofitextroplaterate,ifhistoryprofitextroplate,IfprofitdisStableChangeRage,IfprofitdisStable,predicttype,predict,analyst_prediction,adj_prediction
0,002851,76342117.47,74071852.02,2012-12-31,年度报告,72735822.44,2012,12,未知,未知,未知,未知,未知,未知,未知,未知,未知,未知
1,002851,27507033.71,23646475.15000001,2013-12-31,年度报告,20710876.57,2013,12,0.0,True,未知,未知,未知,未知,未知,未知,未知,未知
2,002851,27507033.71,23646475.15000001,2013-12-31,年度报告,14526131.55,2013,12,0.0,True,未知,未知,未知,未知,未知,未知,未知,未知
3,002851,40361393.32,37686868.21000001,2014-12-31,年度报告,22250809.219999995,2014,12,1.7753671397234783,False,未知,未知,0.0,True,未知,未知,未知,未知
4,002851,65085844.69000001,56579391.37,2015-12-31,年度报告,47829406.66,2015,12,0.8914638765002872,False,0.22269189759592223,True,未知,未知,前期平均,56579391.37,未知,56579391.37
5,002851,15874717.59,12816570.47,2016-03-31,一季度报告,9488223.449999996,2016,3,未知,未知,未知,未知,未知,未知,未知,未知,未知,未知
6,002851,55722522.63999999,43170891.24,2016-06-30,半年度报告,37044488.99999999,2016,6,未知,未知,未知,未知,未知,未知,未知,未知,未知,未知
7,002851,106372666.98,78597683.39,2016-09-30,三季度报告,,2016,9,未知,未知,未知,未知,0.0,True,未知,未知,未知,未知
8,002851,150805970.22999996,109676875.44000004,2016-12-31,年度报告,94094832.96,2016,12,0.17294502105047482,True,0.9180006827395603,True,未知,未知,未知,未知,未知,未知
9,002851,20964912.11,15156788.340000002,2017-03-31,一季度报告,12020362.76,2017,3,3.8090378324645204,False,未知,未知,未知,未知,未知,未知,159510000.0,未知
10,002851,65413025.85,46414026.86,2017-06-30,半年度报告,42009912.12000001,2017,6,0.3700405841855836,True,未知,未知,未知,未知,未知,未知,157950000.0,未知
11,002851,113021179.96,84282542.04999998,2017-09-30,三季度报告,75126314.57,2017,9,-0.2823145302509553,True,未知,未知,0.0,True,未知,未知,138126667.0,未知
12,002851,155988999.97,117053348.35,2017-12-31,年度报告,101203204.12,2017,12,-0.493772578409411,True,1.860311433016356,True,未知,未知,True,True,146126667.0,146126667.0
13,002851,36977961.11000001,24339278.300000004,2018-03-31,一季度报告,14921166.05,2018,3,2.641423206042718,False,未知,未知,未知,未知,未知,未知,200950000.0,未知
14,002851,101459288.63000004,65156047.11999999,2018-06-30,半年度报告,51251206.58,2018,6,0.16707821535517603,True,未知,未知,未知,未知,未知,未知,197091765.0,未知
15,002851,176683913.26999998,122566868.14000005,2018-09-30,三季度报告,103172410.86,2018,9,-0.324532645146523,True,未知,未知,0.0,True,未知,未知,190944706.0,未知
16,002851,257574729.45,202099731.7,2018-12-31,年度报告,173635346.89000002,2018,12,-0.5105929425492681,True,0.4450663637044571,True,0.016926105987781312,True,比例外推,202099731.7,191297647.0,202099731.7
17,002851,58478111.34,58089343.11000001,2019-03-31,一季度报告,53037075.68000001,2019,3,1.0645302006484798,False,1.0075099240207621,True,0.07282206735502855,True,前期平均,144984068.54500002,338340526.0,338340526.0
18,002851,163471565.27000007,161633856.65,2019-06-30,半年度报告,141263412.15,2019,6,-0.24755910966019978,True,0.6751364879216397,True,,False,平均增速,415698542.77622235,345878667.0,345878667.0
19,002851,276491618.9299999,275895337.94,2019-09-30,三季度报告,251912792.86,2019,9,-0.5679169877036989,True,0.6106551367260508,True,0.0,True,比例外推,,363911538.0,
20,002851,364838833.23,361091180.98,2019-12-31,年度报告,314654869.06,2019,12,-0.7036117726571488,True,0.6791326747116276,True,0.044134749540832616,True,比例外推,361091180.98,362917857.0,361091180.98
21,002851,54660213.37,56705047.06000001,2020-03-31,一季度报告,40475150.78999999,2020,3,0.30548192683816583,True,1.0184746834340708,True,未知,未知,True,True,440392000.0,440392000.0
