,SECURITYCODE_x,NETPROFIT_x,PARENTNETPROFIT_x,REPORTDATE_x,REPORTTIMETYPE_x,KCFJCXSYJLR,Year,Month,managesituationChangeRate,managesituationGreatChange,historyprofitextroplaterate,ifhistoryprofitextroplate,IfprofitdisStableChangeRage,IfprofitdisStable,predicttype,predict,analyst_prediction,adj_prediction
0,002859,31270153.09,31270153.09,2012-12-31,年度报告,28258053.090000004,2012,12,未知,未知,未知,未知,未知,未知,未知,未知,未知,未知
1,002859,41820471.70999999,41820471.70999999,2013-12-31,年度报告,36419471.70999999,2013,12,0.0,True,未知,未知,未知,未知,未知,未知,未知,未知
2,002859,55568869.06,55568869.06,2014-12-31,年度报告,51248569.06,2014,12,-0.2522764136464111,True,未知,未知,未知,未知,未知,未知,未知,未知
3,002859,55568869.06,55568869.06,2014-12-31,年度报告,51248578.78,2014,12,-0.2522764136464111,True,未知,未知,0.0,True,未知,未知,未知,未知
4,002859,89299873.32,89299873.32,2015-12-31,年度报告,81008173.32,2015,12,-0.43727209822758273,True,0.5205471074314857,True,未知,未知,未知,未知,未知,未知
5,002859,89299873.32,89299873.32,2015-12-31,年度报告,81008172.14999999,2015,12,-0.43727209822758273,True,0.5205471074314857,True,未知,未知,未知,未知,未知,未知
6,002859,17911514.240000002,17911514.240000002,2016-03-31,一季度报告,17421244.8,2016,3,未知,未知,未知,未知,未知,未知,未知,未知,未知,未知
7,002859,53597735.86000001,53597735.86000001,2016-06-30,半年度报告,50421072.70999999,2016,6,未知,未知,未知,未知,0.0,True,未知,未知,未知,未知
8,002859,90379562.16,90379562.16,2016-09-30,三季度报告,,2016,9,未知,未知,未知,未知,未知,未知,未知,未知,未知,未知
9,002859,138116721.4,138116721.4,2016-12-31,年度报告,132728237.83,2016,12,-0.6498298157944128,True,0.8338736583276699,True,未知,未知,未知,未知,未知,未知
10,002859,25488499.06,25488499.06,2017-03-31,一季度报告,25110336.15,2017,3,0.7458129263112484,False,未知,未知,未知,未知,未知,未知,184062500.0,未知
11,002859,80488982.91000003,80488982.91000003,2017-06-30,半年度报告,77539952.49999999,2017,6,-0.4165769768394841,True,未知,未知,0.0,True,未知,未知,201058000.0,未知
12,002859,131352267.20999998,131352267.20999998,2017-09-30,三季度报告,126147229.5,2017,9,-0.654013005344703,True,未知,未知,未知,未知,未知,未知,196363332.99999997,未知
13,002859,196220306.60999995,196220306.60999995,2017-12-31,年度报告,187568485.54,2017,12,-0.7735961817437117,True,0.9067842949545457,True,未知,未知,True,True,未知,True
14,002859,29428702.17,29428702.17,2018-03-31,一季度报告,28516682.710000005,2018,3,0.22683383656252065,True,未知,未知,未知,未知,未知,未知,280371167.0,未知
15,002859,105410773.58,105410773.58,2018-06-30,半年度报告,103296557.98,2018,6,-0.6114977235460262,True,未知,未知,0.0,True,未知,未知,275308750.0,未知
16,002859,204215340.18,204215340.18,2018-09-30,三季度报告,200521787.64,2018,9,-0.7619367084086435,True,未知,未知,0.01776119238177573,True,未知,未知,296546364.0,未知
17,002859,275298293.20000005,275298293.20000005,2018-12-31,年度报告,269223013.11,2018,12,-0.8406375281425312,True,0.7256463351022422,True,0.021074940350156668,True,比例外推,275298293.20000005,296546364.0,275298293.20000005
18,002859,17675445.749999996,17675445.749999996,2019-03-31,一季度报告,16527071.070000002,2019,3,0.06257329695895311,True,0.35616097472486274,True,,False,平均增速,258840605.33266765,345703333.0,345703333.0
19,002859,54136747.19000002,54136747.19000002,2019-06-30,半年度报告,52007691.07999999,2019,6,-0.7033495531055185,True,0.5722776207360536,True,0.0,True,比例外推,134693360.1194153,277004000.0,277004000.0
20,002859,95747763.39,95747763.39,2019-09-30,三季度报告,92563230.09999998,2019,9,-0.8468765712583698,True,0.8420029344477151,True,0.024487697814942366,True,比例外推,,188445000.0,
21,002859,117951468.10999998,117951468.10999998,2019-12-31,年度报告,109136751.12,2019,12,-0.8864135599007048,True,0.6468310126377381,True,未知,未知,True,True,181956000.0,181956000.0
22,002859,47180575.26,47180575.26,2020-03-31,一季度报告,45860987.48,2020,3,0.7691295332679238,False,0.3562874525971179,True,未知,未知,前期平均,248762815.155,289750000.0,289750000.0
