,SECURITYCODE_x,NETPROFIT_x,PARENTNETPROFIT_x,REPORTDATE_x,REPORTTIMETYPE_x,KCFJCXSYJLR,Year,Month,managesituationChangeRate,managesituationGreatChange,historyprofitextroplaterate,ifhistoryprofitextroplate,IfprofitdisStableChangeRage,IfprofitdisStable,predicttype,predict,analyst_prediction,adj_prediction
0,002832,107504629.68999998,107504629.68999998,2014-12-31,年度报告,106481801.93999998,2014,12,未知,未知,未知,未知,未知,未知,未知,未知,未知,未知
1,002832,123190162.21,123190162.21,2015-12-31,年度报告,121439813.43,2015,12,0.0,True,未知,未知,未知,未知,未知,未知,未知,未知
2,002832,49852450.49000002,49852450.49000002,2016-03-31,一季度报告,49852739.47,2016,3,未知,未知,未知,未知,未知,未知,未知,未知,未知,未知
3,002832,69162269.37999998,69162269.37999998,2016-06-30,半年度报告,68728502.19999999,2016,6,未知,未知,未知,未知,未知,未知,未知,未知,未知,未知
4,002832,132596382.33,132596382.33,2016-12-31,年度报告,128770205.82,2016,12,-0.12732780149490486,True,未知,未知,未知,未知,未知,未知,未知,未知
5,002832,60007538.99,60007538.99,2017-03-31,一季度报告,59534194.78000001,2017,3,1.1564562751346499,False,未知,未知,未知,未知,未知,未知,166000000.0,未知
6,002832,83958866.17,83958866.17,2017-06-30,半年度报告,82766514.1,2017,6,0.5543826229780665,False,未知,未知,未知,未知,未知,未知,163000000.0,未知
7,002832,137284073.67000002,137284073.67000002,2017-09-30,三季度报告,132257947.32,2017,9,未知,未知,未知,未知,未知,未知,未知,未知,179000000.0,未知
8,002832,180223954.57,180223954.57,2017-12-31,年度报告,171828196.11999995,2017,12,-0.18923406656414482,True,0.14953945200008664,True,0.0,True,比例外推,180223954.57,166500000.0,180223954.57
9,002832,84943138.59000002,84943138.59000002,2018-03-31,一季度报告,84940691.99000002,2018,3,0.7915187241375649,False,未知,未知,未知,未知,未知,未知,247355000.0,未知
10,002832,122446907.78,122446907.78,2018-06-30,半年度报告,114269905.89,2018,6,0.2804440387787574,True,未知,未知,未知,未知,未知,未知,252597143.0,未知
11,002832,206016135.15,206016135.15,2018-09-30,三季度报告,195165120.21,2018,9,-0.21691841729276704,True,未知,未知,未知,未知,未知,未知,260175455.0,未知
12,002832,292258769.03000003,292257417.5,2018-12-31,年度报告,272324256.99,2018,12,-0.4034942250240959,True,0.40917462952642925,True,0.0,True,比例外推,292257417.5,261493000.0,261493000.0
13,002832,129886107.4,129882308.85000002,2019-03-31,一季度报告,125842451.17,2019,3,0.26560698691508,True,0.5463889809576924,True,0.03863491015031145,True,比例外推,365126839.25364906,407779743.0,407779743.0
14,002832,173887524.10999998,173882432.54,2019-06-30,半年度报告,165269691.24,2019,6,-0.12203066913577569,True,0.599346913673016,True,0.05873073255378808,True,比例外推,354119146.8604468,408949444.0,408949444.0
15,002832,311284799.72999984,311275253.97,2019-09-30,三季度报告,299538508.51,2019,9,-0.4781737381311127,True,未知,未知,未知,未知,未知,未知,410372667.0,未知
16,002832,406603890.15000015,406606998.01000017,2019-12-31,年度报告,388974096.92,2019,12,-0.6321594385454872,True,0.8685407216566428,True,0.0,True,比例外推,406606998.01000017,410327857.0,406606998.01000017
17,002832,97063358.24,97063358.24,2020-03-31,一季度报告,89255453.03999999,2020,3,-0.17231617882791384,True,0.7921421212855567,True,0.0191720431764264,True,比例外推,280507612.300651,467025714.0,467025714.0
