,SECURITYCODE_x,NETPROFIT_x,PARENTNETPROFIT_x,REPORTDATE_x,REPORTTIMETYPE_x,KCFJCXSYJLR,Year,Month,managesituationChangeRate,managesituationGreatChange,historyprofitextroplaterate,ifhistoryprofitextroplate,IfprofitdisStableChangeRage,IfprofitdisStable,predicttype,predict,analyst_prediction,adj_prediction
0,002838,49240549.63999999,47183853.91,2014-12-31,年度报告,42871347.28,2014,12,未知,未知,未知,未知,未知,未知,未知,未知,未知,未知
1,002838,43616099.09,41439949.13999999,2015-09-30,三季度报告,38986218.23,2015,9,未知,未知,未知,未知,未知,未知,未知,未知,未知,未知
2,002838,62713426.41999999,59892026.15,2015-12-31,年度报告,55835271.92000001,2015,12,0.0,True,未知,未知,未知,未知,未知,未知,未知,未知
3,002838,20913108.08,20072178.04,2016-03-31,一季度报告,18778960.86,2016,3,未知,未知,未知,未知,未知,未知,未知,未知,未知,未知
4,002838,43684601.12,42320235.95,2016-06-30,半年度报告,39984841.63999999,2016,6,未知,未知,未知,未知,未知,未知,未知,未知,未知,未知
5,002838,63204763.01999999,61447587.45,2016-09-30,三季度报告,58120631.18000001,2016,9,0.12895354392868033,True,未知,未知,未知,未知,未知,未知,未知,未知
6,002838,81527071.97999999,79320964.31,2016-12-31,年度报告,74613604.53,2016,12,-0.214832413872117,True,未知,未知,未知,未知,未知,未知,未知,未知
7,002838,23112455.37,22137075.36,2017-03-31,一季度报告,20782293.41,2017,3,1.3545304433773098,False,未知,未知,未知,未知,未知,未知,113927500.0,未知
8,002838,48631466.3,46960409.54,2017-06-30,半年度报告,43791972.13,2017,6,0.1271832265273067,True,未知,未知,未知,未知,未知,未知,104370000.0,未知
9,002838,68281726.87,66191375.60000001,2017-09-30,三季度报告,65333282.5,2017,9,-0.22093609267360556,True,未知,未知,未知,未知,未知,未知,92054000.0,未知
10,002838,95738823.78,93797768.07000002,2017-12-31,年度报告,82823988.68,2017,12,-0.3960221010748484,True,0.4564390627146076,True,0.0,True,比例外推,93797768.07000002,92054000.0,93797768.07000002
11,002838,24975951.26,24975951.26,2018-03-31,一季度报告,20460426.95,2018,3,1.1304767862922211,False,未知,未知,未知,未知,未知,未知,144486667.0,未知
12,002838,55921966.41999999,55921966.41999999,2018-06-30,半年度报告,50504153.61,2018,6,0.012524469984981641,True,未知,未知,未知,未知,未知,未知,136550000.0,未知
13,002838,87702200.25,87702200.25,2018-09-30,三季度报告,80310137.41999999,2018,9,-0.27886197527271195,True,0.2784342968452385,True,0.05710096136105025,True,比例外推,113715599.15512556,131720000.0,131720000.0
14,002838,124429755.53000005,122424544.56,2018-12-31,年度报告,112071423.29,2018,12,-0.4856783518340401,True,0.32748880989723506,True,0.0,True,比例外推,122424544.56,135898571.0,122424544.56
15,002838,39022465.95,36220394.19,2019-03-31,一季度报告,34668403.42,2019,3,0.9715184870199811,False,0.1346113168257475,True,0.04582402174420902,True,前期平均,95158563.66,217525000.0,217525000.0
16,002838,84445797.63999999,78998462.69,2019-06-30,半年度报告,74588152.77,2019,6,-0.11947750066260984,True,0.21153268294192237,True,0.05444744812511482,True,比例外推,152083300.6554163,196105714.0,196105714.0
17,002838,134777176.80999997,126924831.0,2019-09-30,三季度报告,122272215.57,2019,9,-0.4385482975382936,True,0.33401082230380635,True,0.044860003568404694,True,比例外推,165229093.94700453,181328332.99999997,165229093.94700453
18,002838,177702847.01000005,166190478.66,2019-12-31,年度报告,152923424.25,2019,12,-0.6042703015025366,True,0.40387698374271935,True,0.0,True,比例外推,166190478.66,178138571.0,166190478.66
19,002838,71705121.86,69398863.52999999,2020-03-31,一季度报告,68860280.66,2020,3,0.26185130645235377,True,0.6229469298180405,True,0.03749786742903077,True,比例外推,313449075.9412502,321578333.0,313449075.9412502
