,SECURITYCODE_x,NETPROFIT_x,PARENTNETPROFIT_x,REPORTDATE_x,REPORTTIMETYPE_x,KCFJCXSYJLR,Year,Month,managesituationChangeRate,managesituationGreatChange,historyprofitextroplaterate,ifhistoryprofitextroplate,IfprofitdisStableChangeRage,IfprofitdisStable,predicttype,predict,analyst_prediction,adj_prediction
0,002865,57325529.19,56210925.80999999,2014-12-31,年度报告,49050308.24999999,2014,12,未知,未知,未知,未知,未知,未知,未知,未知,未知,未知
1,002865,46084934.45,46084934.45,2015-12-31,年度报告,40261313.69,2015,12,0.0,True,未知,未知,未知,未知,未知,未知,未知,未知
2,002865,10835544.769999996,10835544.769999996,2016-03-31,一季度报告,10835544.769999996,2016,3,未知,未知,未知,未知,未知,未知,未知,未知,未知,未知
3,002865,20081357.390000004,20691089.53999999,2016-06-30,半年度报告,18874393.270000003,2016,6,未知,未知,未知,未知,未知,未知,未知,未知,未知,未知
4,002865,34794575.72,36005888.86,2016-09-30,三季度报告,,2016,9,未知,未知,未知,未知,未知,未知,未知,未知,未知,未知
5,002865,53603697.31000001,55753654.06,2016-12-31,年度报告,49124001.97,2016,12,0.24391039879194173,True,未知,未知,未知,未知,未知,未知,未知,未知
6,002865,12758768.73,12829933.459999995,2017-03-31,一季度报告,12841018.22,2017,3,4.290507344745161,False,未知,未知,未知,未知,未知,未知,67885000.0,未知
7,002865,21456923.16,21456923.16,2017-06-30,半年度报告,21793064.739999995,2017,6,1.854664058643099,False,未知,未知,未知,未知,未知,未知,,未知
8,002865,38520868.37,38520868.37,2017-09-30,三季度报告,37865169.01,2017,9,0.6475421241319852,False,未知,未知,未知,未知,未知,未知,未知,未知
9,002865,67442620.82,67442620.82,2017-12-31,年度报告,63535332.08000001,2017,12,0.06943237251855877,True,0.03671708690155544,True,0.0,True,比例外推,67442620.82,未知,67442620.82
10,002865,14469575.239999998,14469575.239999998,2018-03-31,一季度报告,14193427.66,2018,3,3.4930298842402476,False,未知,未知,未知,未知,未知,未知,未知,未知
11,002865,25505197.789999995,25505197.789999995,2018-06-30,半年度报告,25271860.26,2018,6,1.6716565447214846,False,未知,未知,未知,未知,未知,未知,未知,未知
12,002865,39013184.75,39013184.75,2018-09-30,三季度报告,38523224.71,2018,9,0.48816814406616665,True,未知,未知,未知,未知,未知,未知,未知,未知
13,002865,41831683.06,41831683.06,2018-12-31,年度报告,38882207.61999999,2018,12,-0.15001035705599075,True,0.35306543242298344,True,0.0,True,比例外推,41831683.06,未知,41831683.06
14,002865,-32418686.780000005,-32418686.780000005,2019-03-31,一季度报告,-32555460.789999995,2019,3,2.9617976505300656,False,0.2265307265668061,True,0.10246315548955137,False,盈利变化,-20500168.206666656,未知,-20500168.206666656
15,002865,-44655223.2,-44655223.2,2019-06-30,半年度报告,-45992798.32000001,2019,6,1.2476018285369277,False,0.22803339244142076,True,0.1908975370134019,False,盈利变化,-5678089.3266666755,未知,-5678089.3266666755
16,002865,-28410694.12,-28410694.12,2019-09-30,三季度报告,-33641096.1,2019,9,0.46938860688629114,True,0.06425556672911911,True,,False,平均增速,-28396441.7571882,未知,-28396441.7571882
17,002865,17227122.44,17227122.44,2019-12-31,年度报告,10786131.81,2019,12,0.3703854350726665,True,0.30883179750954387,True,0.0,True,比例外推,17227122.44,未知,17227122.44
18,002865,-18843317.31,-18843317.31,2020-03-31,一季度报告,-19179794.49,2020,3,-2.7682865928229305,False,3.3812455737828704,False,2.2012284598561003,False,去年同期,24498275.289999995,未知,24498275.289999995
