,SECURITYCODE_x,NETPROFIT_x,PARENTNETPROFIT_x,REPORTDATE_x,REPORTTIMETYPE_x,KCFJCXSYJLR,Year,Month,managesituationChangeRate,managesituationGreatChange,historyprofitextroplaterate,ifhistoryprofitextroplate,IfprofitdisStableChangeRage,IfprofitdisStable,predicttype,predict,analyst_prediction,adj_prediction
0,002815,136640893.61999995,136640893.61999995,2012-12-31,年度报告,129551952.03999998,2012,12,未知,未知,未知,未知,未知,未知,未知,未知,未知,未知
1,002815,273538913.1100001,273538913.1100001,2014-12-31,年度报告,264845365.98,2014,12,未知,未知,未知,未知,未知,未知,未知,未知,未知,未知
2,002815,152715593.26000002,152715593.26000002,2015-06-30,半年度报告,150624846.19,2015,6,未知,未知,未知,未知,未知,未知,未知,未知,未知,未知
3,002815,244459801.34,244459801.34,2015-09-30,三季度报告,,2015,9,未知,未知,未知,未知,未知,未知,未知,未知,未知,未知
4,002815,300882339.66,300882339.66,2015-12-31,年度报告,290983866.79000014,2015,12,-0.5004699987052607,True,未知,未知,未知,未知,未知,未知,未知,未知
5,002815,85105824.30000001,85105824.30000001,2016-03-31,一季度报告,82525072.16,2016,3,未知,未知,未知,未知,未知,未知,未知,未知,未知,未知
6,002815,183493911.33000004,183493911.33000004,2016-06-30,半年度报告,181534075.93,2016,6,-0.10525905899231075,True,未知,未知,未知,未知,未知,未知,未知,未知
7,002815,287414694.6,287414694.6,2016-09-30,三季度报告,284043702.42,2016,9,-0.44104964140931774,True,未知,未知,未知,未知,未知,未知,未知,未知
8,002815,375753398.13,375753398.13,2016-12-31,年度报告,373356978.22,2016,12,-0.5458660226638576,True,未知,未知,未知,未知,未知,未知,未知,未知
9,002815,95566421.68000002,95566421.68000002,2017-03-31,一季度报告,93477970.65,2017,3,0.6055410395690148,False,未知,未知,未知,未知,未知,未知,471790000.0,未知
10,002815,203021351.45000005,203021351.45000005,2017-06-30,半年度报告,202701235.42999995,2017,6,-0.25533826910331897,True,未知,未知,未知,未知,未知,未知,493730000.0,未知
11,002815,325087847.99999994,325087847.99999994,2017-09-30,三季度报告,323951508.07000005,2017,9,-0.5245862644212905,True,未知,未知,未知,未知,未知,未知,,未知
12,002815,443903084.29,443903084.29,2017-12-31,年度报告,434562126.65,2017,12,-0.6363548691774543,True,0.3082851524661561,True,0.0,True,比例外推,443903084.29,未知,443903084.29
13,002815,128003587.06,128003587.06,2018-03-31,一季度报告,119020537.76000002,2018,3,0.4298002501080975,True,未知,未知,未知,未知,未知,未知,601000000.0,未知
14,002815,280467108.62,280467108.62,2018-06-30,半年度报告,262265548.62,2018,6,-0.32696293939481647,True,0.20770738886504736,True,0.02753637685053273,True,比例外推,553324367.9165494,596050000.0,553324367.9165494
15,002815,560569557.2999998,560569557.2999998,2018-12-31,年度报告,535785303.31000006,2018,12,-0.6921830497335922,True,0.3120887931218595,True,0.0,True,比例外推,560569557.2999998,588916667.0,560569557.2999998
16,002815,123625608.92,123625608.92,2019-03-31,一季度报告,117769250.5,2019,3,0.06747706652901311,True,0.41697012029362485,True,0.00432023050459962,True,比例外推,542564999.060579,703842500.0,703842500.0
17,002815,264875486.54999995,264875486.54999995,2019-06-30,半年度报告,256466686.98,2019,6,-0.5128095615477952,True,0.45126019915875126,True,0.014273299022177333,True,比例外推,541911164.0061655,639566667.0,639566667.0
18,002815,525895898.11,526048757.3800001,2019-12-31,年度报告,497366341.5800001,2019,12,-0.7562463179803504,True,0.3678158333963092,True,0.0,True,比例外推,526048757.3800001,558915000.0,526048757.3800001
19,002815,124763757.25999998,125611393.36999996,2020-03-31,一季度报告,104524906.17000002,2020,3,0.10527984301717236,True,0.10592301370592143,True,0.012106938367899972,True,比例外推,486305776.7682868,694925000.0,694925000.0
