,SECURITYCODE_x,NETPROFIT_x,PARENTNETPROFIT_x,REPORTDATE_x,REPORTTIMETYPE_x,KCFJCXSYJLR,Year,Month,managesituationChangeRate,managesituationGreatChange,historyprofitextroplaterate,ifhistoryprofitextroplate,IfprofitdisStableChangeRage,IfprofitdisStable,predicttype,predict,analyst_prediction,adj_prediction
0,002840,80016018.07000001,81687076.67999999,2014-12-31,年度报告,57211706.21,2014,12,未知,未知,未知,未知,未知,未知,未知,未知,未知,未知
1,002840,39720519.38,42642114.40000001,2015-09-30,三季度报告,29625214.4,2015,9,未知,未知,未知,未知,未知,未知,未知,未知,未知,未知
2,002840,75343700.96999998,75183905.30000001,2015-12-31,年度报告,50934780.19000001,2015,12,0.0,True,未知,未知,未知,未知,未知,未知,未知,未知
3,002840,14109746.550000004,15348690.750000002,2016-03-31,一季度报告,15010525.230000002,2016,3,未知,未知,未知,未知,未知,未知,未知,未知,未知,未知
4,002840,34736338.800000004,38336040.10999999,2016-06-30,半年度报告,34838177.26,2016,6,未知,未知,未知,未知,未知,未知,未知,未知,未知,未知
5,002840,58199602.77,64183278.8,2016-09-30,三季度报告,50550184.67999999,2016,9,1.0144756241603807,False,未知,未知,未知,未知,未知,未知,未知,未知
6,002840,85302295.63,92185413.26,2016-12-31,年度报告,73515745.98,2016,12,0.062013373909790094,True,未知,未知,未知,未知,未知,未知,未知,未知
7,002840,34603304.89,34774155.93,2017-03-31,一季度报告,34166472.86000001,2017,3,4.67097486736925,False,未知,未知,未知,未知,未知,未知,119000000.0,未知
8,002840,61161276.20999999,60411892.63,2017-06-30,半年度报告,54164704.45,2017,6,1.3035248052681936,False,未知,未知,未知,未知,未知,未知,135440000.0,未知
9,002840,86505691.74,86715860.65,2017-09-30,三季度报告,68627220.63999999,2017,9,0.37485505504593675,True,未知,未知,未知,未知,未知,未知,125310000.0,未知
10,002840,118949721.48,118454500.07000002,2017-12-31,年度报告,82579883.71000001,2017,12,-0.061971105477973264,True,0.09812628597812377,True,0.0,True,比例外推,118454500.07000002,未知,118454500.07000002
11,002840,50775406.38000001,46760715.66,2018-03-31,一季度报告,35467732.75000001,2018,3,1.3123808065259055,False,未知,未知,未知,未知,未知,未知,未知,未知
12,002840,77049527.3,73006307.09,2018-06-30,半年度报告,48812411.53,2018,6,0.3082790783380878,True,未知,未知,未知,未知,未知,未知,未知,未知
13,002840,101408646.92999998,98828897.01999998,2018-09-30,三季度报告,67098644.66,2018,9,-0.07502019276957217,True,0.7668624148055148,True,0.13094672030135113,False,平均增速,114602657.98589033,未知,114602657.98589033
14,002840,173054426.23,150208674.18,2018-12-31,年度报告,111535331.85999998,2018,12,-0.32731227047510353,True,0.48089244671535164,True,0.0,True,比例外推,150208674.18,,150208674.18
15,002840,59638548.78000001,47460097.13,2019-03-31,一季度报告,40199409.11000001,2019,3,0.5758813916951262,False,1.0846736091882978,True,0.10779058571629416,False,前期平均,100919412.93,179030000.0,179030000.0
16,002840,94432697.83,74321975.99000002,2019-06-30,半年度报告,55254828.26,2019,6,0.03850108980486907,True,0.6069122739280939,True,0.13342848327480406,False,平均增速,148615662.16840047,,148615662.16840047
17,002840,111049474.81999998,89663188.95000002,2019-09-30,三季度报告,61226327.19,2019,9,-0.2109546819490334,True,0.40158861876324836,True,0.12429319415391782,False,平均增速,137420357.03616485,100000000.0,100000000.0
18,002840,162374371.84,131652028.31,2019-12-31,年度报告,90466753.13,2019,12,-0.537625128619052,True,0.6945186508175482,True,0.0,True,比例外推,131652028.31,未知,131652028.31
19,002840,62228329.81999999,44170677.38999999,2020-03-31,一季度报告,38318637.99,2020,3,0.34168284954703076,True,0.3970355816545461,True,0.07403435703445271,True,比例外推,103596224.10182396,200000000.0,200000000.0
