,SECURITYCODE_x,NETPROFIT_x,PARENTNETPROFIT_x,REPORTDATE_x,REPORTTIMETYPE_x,KCFJCXSYJLR,Year,Month,managesituationChangeRate,managesituationGreatChange,historyprofitextroplaterate,ifhistoryprofitextroplate,IfprofitdisStableChangeRage,IfprofitdisStable,predicttype,predict,analyst_prediction,adj_prediction
0,002871,36710733.97,36325052.45,2012-12-31,年度报告,36272438.53000001,2012,12,未知,未知,未知,未知,未知,未知,未知,未知,未知,未知
1,002871,37696710.35,37739859.79,2013-12-31,年度报告,36839231.61999999,2013,12,0.0,True,未知,未知,未知,未知,未知,未知,未知,未知
2,002871,50536296.34,50833303.5,2014-12-31,年度报告,49348937.52,2014,12,-0.026155501921668416,True,未知,未知,未知,未知,未知,未知,未知,未知
3,002871,39861284.92,39862791.37,2015-12-31,年度报告,38777740.47,2015,12,-0.27357688179172973,True,0.3583666742446183,True,0.0,True,比例外推,39862791.37,未知,39862791.37
4,002871,8778802.87,8778802.87,2016-03-31,一季度报告,8071102.87,2016,3,未知,未知,未知,未知,未知,未知,未知,未知,未知,未知
5,002871,21187755.71,21187755.71,2016-06-30,半年度报告,20156541.99,2016,6,未知,未知,未知,未知,未知,未知,未知,未知,未知,未知
6,002871,39403405.28,39403405.28,2016-09-30,三季度报告,,2016,9,未知,未知,未知,未知,未知,未知,未知,未知,未知,未知
7,002871,52440515.13000001,52440515.13000001,2016-12-31,年度报告,49098898.88,2016,12,-0.07903786735232023,True,0.09645411812725334,True,0.0,True,比例外推,52440515.13000001,未知,52440515.13000001
8,002871,10959991.99,10959991.99,2017-03-31,一季度报告,10554092.0,2017,3,3.1817471600202367,False,未知,未知,未知,未知,未知,未知,未知,未知
9,002871,28903926.399999995,28903926.399999995,2017-06-30,半年度报告,27397750.96,2017,6,0.7326390993206329,False,未知,未知,未知,未知,未知,未知,未知,未知
10,002871,43617353.27,43617353.27,2017-09-30,三季度报告,41526882.62000001,2017,9,-0.06833600524792009,True,未知,未知,未知,未知,未知,未知,未知,未知
11,002871,60722959.13,60722959.13,2017-12-31,年度报告,52035976.28,2017,12,-0.29995474150103013,True,0.16021943063214228,True,0.0,True,比例外推,60722959.13,未知,60722959.13
12,002871,13191699.97,13191699.97,2018-03-31,一季度报告,6567948.88,2018,3,2.3495219707729,False,未知,未知,未知,未知,未知,未知,未知,未知
13,002871,30452190.910000004,30452190.910000004,2018-06-30,半年度报告,21170193.43,2018,6,0.27009505428300584,True,未知,未知,未知,未知,未知,未知,未知,未知
14,002871,52038144.84999998,52038144.84999998,2018-09-30,三季度报告,40422314.75000001,2018,9,-0.15834567625519758,True,未知,未知,未知,未知,未知,未知,未知,未知
15,002871,77680421.96,77680421.96,2018-12-31,年度报告,62400470.01,2018,12,-0.3954389822899265,True,0.31574810235783685,True,0.0,True,比例外推,77680421.96,未知,77680421.96
16,002871,13831445.68,13831445.68,2019-03-31,一季度报告,11603659.19,2019,3,1.7828660486128385,False,0.3366266850194117,True,0.052232662733277424,True,前期平均,55086285.824999996,未知,55086285.824999996
17,002871,26593150.74,26593150.74,2019-06-30,半年度报告,21507616.93,2019,6,0.20552028845795758,True,0.21585818751815136,True,0.10107944538033004,False,平均增速,70821654.14394985,未知,70821654.14394985
18,002871,42704120.01,42704120.01,2019-09-30,三季度报告,34642055.52,2019,9,-0.29454183895642827,True,0.25361766765018245,True,,False,平均增速,64533953.06932348,未知,64533953.06932348
19,002871,52983867.54,52983867.54,2019-12-31,年度报告,42611653.26000001,2019,12,-0.5274133038450348,True,0.3728886015203892,True,0.0,True,比例外推,52983867.54,未知,52983867.54
20,002871,10090368.769999998,10090368.769999998,2020-03-31,一季度报告,5095211.090000002,2020,3,1.6541501748499798,False,0.14538109403743812,True,0.08820842090247324,True,前期平均,58747571.474999994,未知,58747571.474999994
