,SECURITYCODE_x,NETPROFIT_x,PARENTNETPROFIT_x,REPORTDATE_x,REPORTTIMETYPE_x,KCFJCXSYJLR,Year,Month,managesituationChangeRate,managesituationGreatChange,historyprofitextroplaterate,ifhistoryprofitextroplate,IfprofitdisStableChangeRage,IfprofitdisStable,predicttype,predict,analyst_prediction,adj_prediction
0,002866,17527199.999999996,17527199.999999996,2012-12-31,年度报告,16011400.0,2012,12,未知,未知,未知,未知,未知,未知,未知,未知,未知,未知
1,002866,28137700.0,28137700.0,2013-12-31,年度报告,27041400.0,2013,12,0.0,True,未知,未知,未知,未知,未知,未知,未知,未知
2,002866,42521542.15000001,42521542.15000001,2014-12-31,年度报告,45771024.39,2014,12,-0.37709194425983655,True,未知,未知,未知,未知,未知,未知,未知,未知
3,002866,12199000.0,12199000.0,2015-03-31,一季度报告,11478199.999999998,2015,3,未知,未知,未知,未知,未知,未知,未知,未知,未知,未知
4,002866,60664961.21999999,60664961.21999999,2015-12-31,年度报告,61030630.95999999,2015,12,-0.5878042254871513,True,0.8623293667565247,True,0.0,True,比例外推,60664961.21999999,未知,60664961.21999999
5,002866,10975929.77,10975929.77,2016-03-31,一季度报告,10806630.169999998,2016,3,0.4367735060250837,True,未知,未知,未知,未知,未知,未知,未知,未知
6,002866,33853307.88999999,33853307.88999999,2016-06-30,半年度报告,31430194.46,2016,6,未知,未知,未知,未知,未知,未知,未知,未知,未知,未知
7,002866,62566603.7,62566603.7,2016-09-30,三季度报告,,2016,9,未知,未知,未知,未知,未知,未知,未知,未知,未知,未知
8,002866,90009238.91000003,90009238.91000003,2016-12-31,年度报告,83720257.28999999,2016,12,-0.711081987896802,True,0.7171132713599303,True,0.0,True,比例外推,90009238.91000003,未知,90009238.91000003
9,002866,22158179.57,22158179.57,2017-03-31,一季度报告,20828807.88,2017,3,0.5968761068339086,False,未知,未知,未知,未知,未知,未知,未知,未知
10,002866,40020052.32,40020052.32,2017-06-30,半年度报告,37868360.38,2017,6,-0.4822603434514771,True,未知,未知,未知,未知,未知,未知,106400000.0,未知
11,002866,60025977.45,60025977.45,2017-09-30,三季度报告,57052814.23000001,2017,9,-0.7198633302194091,True,未知,未知,未知,未知,未知,未知,,未知
12,002866,77766282.58,77766282.58,2017-12-31,年度报告,70744690.18,2017,12,-0.8052733229138245,True,0.7445932553262372,True,0.0,True,比例外推,77766282.58,未知,77766282.58
13,002866,26017333.03,26017333.03,2018-03-31,一季度报告,24159398.899999995,2018,3,-0.20899639139443998,True,0.9122543015154088,True,0.09056380386934323,True,比例外推,120368618.12594603,未知,120368618.12594603
14,002866,49548627.03000001,49548627.03000001,2018-06-30,半年度报告,47206602.96,2018,6,-0.5620395530757268,True,未知,未知,未知,未知,未知,未知,未知,未知
15,002866,91249756.07,91249756.07,2018-09-30,三季度报告,88147961.24,2018,9,-0.7080064208100622,True,未知,未知,未知,未知,未知,未知,未知,未知
16,002866,96301421.78,96301421.78,2018-12-31,年度报告,89387127.95,2018,12,-0.7746169751399733,True,0.032244173360855596,True,0.0,True,比例外推,96301421.78,未知,96301421.78
17,002866,25637381.84,25637381.84,2019-03-31,一季度报告,24505990.65,2019,3,-0.32632603119659587,True,0.5704259778361679,True,0.10218000737150362,False,平均增速,93102781.21133332,未知,93102781.21133332
18,002866,42645680.12000001,42645680.12000001,2019-06-30,半年度报告,40765279.16,2019,6,-0.6462626504385707,True,0.3414477665331047,True,0.10418588709928,False,平均增速,83092908.9739238,未知,83092908.9739238
19,002866,72163624.92999999,72338861.77999999,2019-09-30,三季度报告,69713579.57000001,2019,9,-0.8079205824226594,True,0.48866685429112505,True,,False,平均增速,73482076.70681491,未知,73482076.70681491
20,002866,74288816.1,74288816.1,2019-12-31,年度报告,68580679.40999998,2019,12,-0.8179964565835718,True,0.14797940634909476,True,0.0,True,比例外推,74288816.1,未知,74288816.1
21,002866,26292858.06,26292858.06,2020-03-31,一季度报告,25137779.85,2020,3,-0.3163420465714764,True,0.0643324982493284,True,0.049987054141156284,True,比例外推,82945510.8000601,未知,82945510.8000601
