,SECURITYCODE_x,NETPROFIT_x,PARENTNETPROFIT_x,REPORTDATE_x,REPORTTIMETYPE_x,KCFJCXSYJLR,Year,Month,managesituationChangeRate,managesituationGreatChange,historyprofitextroplaterate,ifhistoryprofitextroplate,IfprofitdisStableChangeRage,IfprofitdisStable,predicttype,predict,analyst_prediction,adj_prediction
0,002895,1075568900.0,1076279300.0,2013-12-31,年度报告,12350100.0,2013,12,未知,未知,未知,未知,未知,未知,未知,未知,未知,未知
1,002895,51848361.81,51848361.81,2014-12-31,年度报告,53424469.29,2014,12,0.0,True,未知,未知,未知,未知,未知,未知,未知,未知
2,002895,117340768.63,117340768.63,2015-12-31,年度报告,115448570.12,2015,12,19.744510770493715,False,未知,未知,未知,未知,未知,未知,未知,未知
3,002895,68946398.33999999,68946398.33999999,2016-06-30,半年度报告,75883979.91,2016,6,未知,未知,未知,未知,未知,未知,未知,未知,未知,未知
4,002895,119158751.55000004,119158751.55000004,2016-09-30,三季度报告,,2016,9,未知,未知,未知,未知,未知,未知,未知,未知,未知,未知
5,002895,122334208.09000003,122334208.09000003,2016-12-31,年度报告,126151193.06,2016,12,8.166199544776239,False,0.7918414546152743,True,0.0,True,前期平均,122334208.09000003,未知,122334208.09000003
6,002895,31537843.35,31537843.35,2017-03-31,一季度报告,25441449.58000001,2017,3,未知,未知,未知,未知,未知,未知,未知,未知,未知,未知
7,002895,89975559.00999999,89975559.00999999,2017-06-30,半年度报告,77436956.74000001,2017,6,14.600073765941696,False,未知,未知,未知,未知,未知,未知,未知,未知
8,002895,128296327.14,128296327.14,2017-09-30,三季度报告,114905698.7,2017,9,8.026352542378577,False,未知,未知,未知,未知,未知,未知,未知,未知
9,002895,133413773.96000002,133413773.96000002,2017-12-31,年度报告,119021341.63999996,2017,12,7.792053480321014,False,0.4461237287744528,True,0.0,True,前期平均,133413773.96000002,未知,133413773.96000002
10,002895,4016244.1,4016244.1,2018-03-31,一季度报告,2291045.27,2018,3,33.10407262359618,False,未知,未知,未知,未知,未知,未知,未知,未知
11,002895,29642619.500000004,29642619.500000004,2018-06-30,半年度报告,24869227.67,2018,6,10.95401186538291,False,未知,未知,未知,未知,未知,未知,未知,未知
12,002895,66403941.13999999,66403941.13999999,2018-09-30,三季度报告,60639757.52,2018,9,7.383473821712087,False,未知,未知,未知,未知,未知,未知,未知,未知
13,002895,76651456.75000001,77215137.89,2018-12-31,年度报告,71782675.76,2018,12,7.061902966049637,False,0.11328913669498746,True,0.0,True,前期平均,77215137.89,未知,77215137.89
14,002895,4900194.590000002,5105058.590000002,2019-03-31,一季度报告,2822178.41,2019,3,266.8046635661413,False,未知,未知,未知,未知,未知,未知,未知,未知
15,002895,56280074.98,56696541.38,2019-06-30,半年度报告,62823293.84,2019,6,35.28454293656469,False,0.6269537577527199,True,0.186414238860662,False,前期平均,102622340.40499997,未知,102622340.40499997
16,002895,141887905.65,142518507.52999997,2019-09-30,三季度报告,150360435.45,2019,9,15.197365420410348,False,0.4633050855813092,True,,False,前期平均,,未知,
17,002895,179450781.04999998,180401348.21,2019-12-31,年度报告,186009249.82,2019,12,13.031943365512095,False,0.4005703885865715,True,0.0,True,前期平均,180401348.21,未知,180401348.21
18,002895,25336682.940000005,25221629.41,2020-03-31,一季度报告,25532026.09,2020,3,218.49514049808369,False,0.7243526727051462,True,0.1268073534529409,False,前期平均,106757390.68499997,未知,106757390.68499997
