,SECURITYCODE_x,NETPROFIT_x,PARENTNETPROFIT_x,REPORTDATE_x,REPORTTIMETYPE_x,KCFJCXSYJLR,Year,Month,managesituationChangeRate,managesituationGreatChange,historyprofitextroplaterate,ifhistoryprofitextroplate,IfprofitdisStableChangeRage,IfprofitdisStable,predicttype,predict,analyst_prediction,adj_prediction
0,002891,13982848.29,16043316.92,2013-12-31,年度报告,12424247.969999995,2013,12,未知,未知,未知,未知,未知,未知,未知,未知,未知,未知
1,002891,6094957.820000001,9062770.74,2014-12-31,年度报告,18102090.74,2014,12,0.0,True,未知,未知,未知,未知,未知,未知,未知,未知
2,002891,52650560.64000001,55685594.56,2015-12-31,年度报告,54732355.78999999,2015,12,1.2941665394494881,False,未知,未知,未知,未知,未知,未知,未知,未知
3,002891,35916835.97,32519761.76,2016-06-30,半年度报告,39799244.43,2016,6,未知,未知,未知,未知,未知,未知,未知,未知,未知,未知
4,002891,61798897.03,55016714.6,2016-09-30,三季度报告,,2016,9,未知,未知,未知,未知,未知,未知,未知,未知,未知,未知
5,002891,78421678.77999999,67275036.55000001,2016-12-31,年度报告,72972277.85,2016,12,-0.7344216638905672,True,4.244652762512409,False,0.0,True,比例外推,67275036.55000001,未知,67275036.55000001
6,002891,25132351.51,22124467.06,2017-03-31,一季度报告,21438836.51,2017,3,未知,未知,未知,未知,未知,未知,未知,未知,未知,未知
7,002891,48709955.69000001,42961523.90999999,2017-06-30,半年度报告,42886152.47,2017,6,-0.6106881936460284,True,未知,未知,未知,未知,未知,未知,72120000.0,未知
8,002891,67355311.21,59374113.06,2017-09-30,三季度报告,59216363.97000001,2017,9,-0.7737362807104455,True,未知,未知,未知,未知,未知,未知,81808571.0,未知
9,002891,84806637.74000001,73673765.76,2017-12-31,年度报告,74235386.94,2017,12,-0.821696646800603,True,1.6698778336052147,True,0.0,True,比例外推,73673765.76,81962222.0,81962222.0
10,002891,16233534.279999996,12615559.3,2018-03-31,一季度报告,9363366.569999997,2018,3,-0.4436315167549557,True,未知,未知,未知,未知,未知,未知,92980000.0,未知
11,002891,33591439.660000004,26363817.64,2018-06-30,半年度报告,25927168.539999995,2018,6,-0.7129365426035353,True,未知,未知,未知,未知,未知,未知,65818182.0,未知
12,002891,49623112.69,41994669.40000001,2018-09-30,三季度报告,44291024.78000001,2018,9,-0.792401697226157,True,未知,未知,未知,未知,未知,未知,62737857.0,未知
13,002891,61537991.43,56444665.01,2018-12-31,年度报告,58214116.92,2018,12,-0.8351208270646387,True,0.29404423263496293,True,0.0,True,比例外推,56444665.01,62666429.0,56444665.01
14,002891,10385895.14,6844198.210000001,2019-03-31,一季度报告,5499364.19,2019,3,-0.13864423798167488,True,未知,未知,未知,未知,未知,未知,82331818.0,未知
15,002891,22695695.260000005,16106898.200000005,2019-06-30,半年度报告,15879463.240000002,2019,6,-0.5837377489167133,True,0.2061275394922611,True,0.07745176460783948,True,比例外推,30599701.61649984,62223000.0,62223000.0
16,002891,56398825.76999999,46211226.92,2019-09-30,三季度报告,41834869.06,2019,9,-0.7182190408459038,True,0.23156800903013303,True,,False,平均增速,59057306.69307481,68641429.0,68641429.0
17,002891,89308181.44000001,79007772.38000001,2019-12-31,年度报告,67559252.46,2019,12,-0.7727769794712002,True,0.24598877520788626,True,0.0,True,比例外推,79007772.38000001,67686250.0,67686250.0
18,002891,11940093.86,8271218.869999999,2020-03-31,一季度报告,7049741.19,2020,3,0.34633058600281597,True,0.49785215804513294,True,0.11178219071542364,False,平均增速,78221275.3732141,111436667.0,111436667.0
