,SECURITYCODE_x,NETPROFIT_x,PARENTNETPROFIT_x,REPORTDATE_x,REPORTTIMETYPE_x,KCFJCXSYJLR,Year,Month,managesituationChangeRate,managesituationGreatChange,historyprofitextroplaterate,ifhistoryprofitextroplate,IfprofitdisStableChangeRage,IfprofitdisStable,predicttype,predict,analyst_prediction,adj_prediction
0,002852,19016736.700000007,21111036.05,2012-12-31,年度报告,12820029.43,2012,12,未知,未知,未知,未知,未知,未知,未知,未知,未知,未知
1,002852,51658916.74,51658916.74,2013-12-31,年度报告,59754785.06000001,2013,12,0.0,True,未知,未知,未知,未知,未知,未知,未知,未知
2,002852,144541099.77,144541099.77,2014-12-31,年度报告,144391870.88000005,2014,12,-0.6318789107462031,True,未知,未知,未知,未知,未知,未知,未知,未知
3,002852,182948308.09,182948308.09,2015-12-31,年度报告,162311616.11,2015,12,-0.8684337068815704,True,3.0902656780586533,False,0.0,True,比例外推,182948308.09,未知,182948308.09
4,002852,52512182.88000001,52512182.88000001,2016-03-31,一季度报告,52578674.14000001,2016,3,未知,未知,未知,未知,未知,未知,未知,未知,未知,未知
5,002852,129116720.65999998,129116720.65999998,2016-06-30,半年度报告,128498510.35,2016,6,未知,未知,未知,未知,未知,未知,未知,未知,未知,未知
6,002852,205418566.04,205418566.04,2016-09-30,三季度报告,196137798.82,2016,9,未知,未知,未知,未知,未知,未知,未知,未知,未知,未知
7,002852,205733617.83,205733617.83,2016-12-31,年度报告,210514838.03,2016,12,-0.8960540444536668,True,0.8649163373610155,True,0.0,True,比例外推,205733617.83,未知,205733617.83
8,002852,51244266.56999999,51244266.56999999,2017-03-31,一季度报告,43922276.39,2017,3,-0.6378604800440929,True,未知,未知,未知,未知,未知,未知,265276667.00000003,未知
9,002852,94550793.24,94550793.24,2017-06-30,半年度报告,72290428.74,2017,6,-0.8527167000308479,True,未知,未知,未知,未知,未知,未知,,未知
10,002852,151864334.34,151864334.34,2017-09-30,三季度报告,122676359.36999996,2017,9,-0.9074244501526848,True,未知,未知,未知,未知,未知,未知,未知,未知
11,002852,191353000.35999995,191353000.35999995,2017-12-31,年度报告,142540272.88000005,2017,12,-0.9075662164473588,True,0.25642914178128196,True,0.0,True,比例外推,191353000.35999995,未知,191353000.35999995
12,002852,53761004.44000002,53761004.44000002,2018-03-31,一季度报告,43728355.27,2018,3,-0.6289002073232325,True,未知,未知,未知,未知,未知,未知,未知,未知
13,002852,147859394.05999997,147859394.05999997,2018-06-30,半年度报告,73007908.75000001,2018,6,-0.7988727957921044,True,未知,未知,未知,未知,未知,未知,未知,未知
14,002852,213665468.82,212743833.32,2018-09-30,三季度报告,127978142.91,2018,9,-0.8747781249452253,True,未知,未知,未知,未知,未知,未知,未知,未知
15,002852,221505151.57,219556698.96,2018-12-31,年度报告,93159167.32999998,2018,12,-0.9006196053146641,True,0.015374847147459321,True,0.0,True,比例外推,219556698.96,未知,219556698.96
16,002852,44292544.70999999,44463064.27,2019-03-31,一季度报告,15407641.739999998,2019,3,-0.6462726673713166,True,0.03629229267154763,True,0.12696209616977228,False,平均增速,69615500.74703349,未知,69615500.74703349
17,002852,129956491.21,131681703.98000003,2019-06-30,半年度报告,17372255.04,2019,6,-0.8713863476791797,True,0.3221356242740443,True,0.14994029785738983,False,平均增速,140782857.096907,210520000.0,210520000.0
18,002852,125670032.06,127069600.57,2019-09-30,三季度报告,7593989.2799999975,2019,9,-0.9109976132080545,True,0.19605762600308632,True,0.31838899243933083,False,平均增速,114453437.51349533,,114453437.51349533
19,002852,124248504.63,128835318.91000004,2019-12-31,年度报告,13852910.910000006,2019,12,-0.9141476549632735,True,0.11565155521817726,True,0.0,True,比例外推,128835318.91000004,未知,128835318.91000004
20,002852,40930971.67000001,41795410.59,2020-03-31,一季度报告,26636988.780000005,2020,3,-0.5706560364840232,True,0.15637483177807598,True,0.4823097545637861,False,平均增速,40139661.58187398,未知,40139661.58187398
