,SECURITYCODE_x,NETPROFIT_x,PARENTNETPROFIT_x,REPORTDATE_x,REPORTTIMETYPE_x,KCFJCXSYJLR,Year,Month,managesituationChangeRate,managesituationGreatChange,historyprofitextroplaterate,ifhistoryprofitextroplate,IfprofitdisStableChangeRage,IfprofitdisStable,predicttype,predict,analyst_prediction,adj_prediction
0,002862,31802044.61000001,31802044.61000001,2012-12-31,年度报告,31782509.370000005,2012,12,未知,未知,未知,未知,未知,未知,未知,未知,未知,未知
1,002862,32390904.83,32390904.83,2013-12-31,年度报告,32266945.750000004,2013,12,0.0,True,未知,未知,未知,未知,未知,未知,未知,未知
2,002862,32390904.83,32390904.83,2013-12-31,年度报告,35211582.84,2013,12,0.0,True,未知,未知,未知,未知,未知,未知,未知,未知
3,002862,32851596.33999999,32851596.33999999,2014-12-31,年度报告,32366783.299999993,2014,12,-0.018179801493368397,True,未知,未知,0.0,True,未知,未知,未知,未知
4,002862,42770297.88000001,42770297.88000001,2015-12-31,年度报告,39519136.73,2015,12,-0.03194827183244205,True,0.023526621742338882,True,未知,未知,未知,未知,未知,未知
5,002862,1717212.7600000002,1717212.7600000002,2016-03-31,一季度报告,1184071.3,2016,3,未知,未知,未知,未知,未知,未知,未知,未知,未知,未知
6,002862,11832672.209999995,11832672.209999995,2016-06-30,半年度报告,11291652.62,2016,6,未知,未知,未知,未知,未知,未知,未知,未知,未知,未知
7,002862,28098120.3,28098120.3,2016-09-30,三季度报告,,2016,9,未知,未知,未知,未知,0.0,True,未知,未知,未知,未知
8,002862,40076656.65,40076656.65,2016-12-31,年度报告,38886462.95000001,2016,12,-0.2564455665184625,True,0.31111766449771805,True,未知,未知,未知,未知,未知,未知
9,002862,5153642.13,5153642.13,2017-03-31,一季度报告,4954148.129999999,2017,3,17.519571570153023,False,未知,未知,未知,未知,未知,未知,未知,未知
10,002862,17261127.169999998,17261127.169999998,2017-06-30,半年度报告,15677670.910000002,2017,6,1.6876468853014919,False,未知,未知,未知,未知,未知,未知,未知,未知
11,002862,33499070.02,33499070.02,2017-09-30,三季度报告,30277759.21,2017,9,0.13182107096324197,True,未知,未知,0.0,True,未知,未知,42000000.0,未知
12,002862,43398811.34,43398811.34,2017-12-31,年度报告,36135209.97,2017,12,-0.20646961926650606,True,0.05992205202923305,True,未知,未知,True,True,,True
13,002862,4672929.529999998,4672929.529999998,2018-03-31,一季度报告,3718443.619999999,2018,3,5.170790250428198,False,未知,未知,未知,未知,未知,未知,未知,未知
14,002862,14056584.38,14056584.38,2018-06-30,半年度报告,11250315.009999998,2018,6,0.8424083373461418,False,未知,未知,未知,未知,未知,未知,未知,未知
15,002862,26089870.230000004,26089870.230000004,2018-09-30,三季度报告,22446342.03,2018,9,-0.05065888124616031,True,未知,未知,0.0,True,未知,未知,未知,未知
16,002862,31968364.63000001,31968364.63000001,2018-12-31,年度报告,27112274.28,2018,12,-0.2672139252650783,True,0.0476863413074456,True,0.07111707624707261,True,比例外推,31968364.63000001,未知,31968364.63000001
17,002862,-1115222.89,-1115222.89,2019-03-31,一季度报告,-1777901.7500000002,2019,3,5.805590455801293,False,0.36021779088977324,True,0.08935479646676492,True,盈利变化,24639904.136666678,未知,24639904.136666678
18,002862,7867338.4300000025,7867338.4300000025,2019-06-30,半年度报告,6826770.69,2019,6,1.2624304560963344,False,0.03370582876412183,True,,False,前期平均,31893513.125000007,未知,31893513.125000007
19,002862,20123807.94,20123807.94,2019-09-30,三季度报告,18590218.37,2019,9,0.21894223043822345,True,0.1528876530094302,True,0.0,True,比例外推,,未知,
20,002862,8280422.309999999,8280422.309999999,2019-12-31,年度报告,2835673.53,2019,12,-0.005202643986484069,True,0.23406563868968838,True,0.5094012961280254,False,平均增速,8280422.309999999,未知,8280422.309999999
21,002862,-4736622.87,-4736622.87,2020-03-31,一季度报告,-5103365.0,2020,3,-29.516312653876764,False,1.2269810730714195,True,未知,未知,前期平均,22550823.38,未知,22550823.38
