,SECURITYCODE_x,NETPROFIT_x,PARENTNETPROFIT_x,REPORTDATE_x,REPORTTIMETYPE_x,KCFJCXSYJLR,Year,Month,managesituationChangeRate,managesituationGreatChange,historyprofitextroplaterate,ifhistoryprofitextroplate,IfprofitdisStableChangeRage,IfprofitdisStable,predicttype,predict,analyst_prediction,adj_prediction
0,002829,80226523.92999999,80226523.92999999,2014-12-31,年度报告,72498479.84999998,2014,12,未知,未知,未知,未知,未知,未知,未知,未知,未知,未知
1,002829,29189300.79,29189300.79,2015-09-30,三季度报告,24891621.13000001,2015,9,未知,未知,未知,未知,未知,未知,未知,未知,未知,未知
2,002829,66721055.48,66721055.48,2015-12-31,年度报告,58356655.51000001,2015,12,0.0,True,未知,未知,未知,未知,未知,未知,未知,未知
3,002829,3166151.04,3166151.04,2016-03-31,一季度报告,1863259.3200000003,2016,3,未知,未知,未知,未知,未知,未知,未知,未知,未知,未知
4,002829,17862050.169999998,17939795.7,2016-06-30,半年度报告,15769538.78,2016,6,未知,未知,未知,未知,未知,未知,未知,未知,未知,未知
5,002829,72674699.54,73326114.7,2016-12-31,年度报告,69746719.58999999,2016,12,0.20241688853450968,True,未知,未知,未知,未知,未知,未知,84000000.0,未知
6,002829,4175356.94,3540089.07,2017-03-31,一季度报告,2480955.17,2017,3,24.338817673714008,False,未知,未知,未知,未知,未知,未知,91088889.0,未知
7,002829,19871534.83,19318453.270000003,2017-06-30,半年度报告,17707896.35,2017,6,3.4914510465737876,False,未知,未知,未知,未知,未知,未知,84986000.0,未知
8,002829,39248138.25,37957006.08,2017-09-30,三季度报告,38472488.18,2017,9,未知,未知,未知,未知,未知,未知,未知,未知,82935714.0,未知
9,002829,84281513.67,62743467.93999999,2017-12-31,年度报告,46352500.6,2017,12,0.10391270191414383,True,0.01087585339218745,True,0.0,True,比例外推,62743467.93999999,84258333.0,84258333.0
10,002829,7675201.38,3745974.7,2018-03-31,一季度报告,1048800.67,2018,3,18.21429115710524,False,未知,未知,未知,未知,未知,未知,128530000.0,未知
11,002829,21649758.47,11716735.57,2018-06-30,半年度报告,7941099.5699999975,2018,6,3.0372585518096087,False,未知,未知,未知,未知,未知,未知,90000000.0,未知
12,002829,28874726.74,19919142.07,2018-09-30,三季度报告,12962539.04,2018,9,1.0440848281510522,False,未知,未知,未知,未知,未知,未知,,未知
13,002829,43654091.78999999,18513070.630000006,2018-12-31,年度报告,2947904.54,2018,12,-0.04811244558180477,True,0.2092407499483408,True,0.0,True,比例外推,18513070.630000006,153750000.0,153750000.0
14,002829,2582576.95,4066470.73,2019-03-31,一季度报告,2955881.28,2019,3,9.452693024974414,False,1.0909059558088225,True,0.21043947786290423,False,前期平均,59943973.57999999,未知,59943973.57999999
15,002829,-2477815.72,1712338.7400000002,2019-06-30,半年度报告,-775603.29,2019,6,2.7056544552757775,False,0.14750604640401907,True,1.5931664325571886,False,前期平均,43023231.269999996,未知,43023231.269999996
16,002829,-2338863.0500000003,5294424.609999999,2019-09-30,三季度报告,-468682.46,2019,9,1.7784340490004582,False,未知,未知,未知,未知,未知,未知,未知,未知
17,002829,14452224.359999998,12015931.87,2019-12-31,年度报告,-136065096.60999998,2019,12,0.8377778723683764,False,0.44374178126235914,True,0.0,True,前期平均,12015931.87,未知,12015931.87
18,002829,17168136.49,10214358.81,2020-03-31,一季度报告,8407350.67,2020,3,30.064524110307723,False,0.5641425694447787,True,0.22658570273759926,False,前期平均,33099683.46,132553333.0,132553333.0
