,SECURITYCODE_x,NETPROFIT_x,PARENTNETPROFIT_x,REPORTDATE_x,REPORTTIMETYPE_x,KCFJCXSYJLR,Year,Month,managesituationChangeRate,managesituationGreatChange,historyprofitextroplaterate,ifhistoryprofitextroplate,IfprofitdisStableChangeRage,IfprofitdisStable,predicttype,predict,analyst_prediction,adj_prediction
0,002860,24357044.63000001,24357044.63000001,2012-12-31,年度报告,23949844.63000001,2012,12,未知,未知,未知,未知,未知,未知,未知,未知,未知,未知
1,002860,38092558.42999999,36024021.84,2013-12-31,年度报告,41623021.84,2013,12,0.0,True,未知,未知,未知,未知,未知,未知,未知,未知
2,002860,56826792.88000001,53931090.54000001,2014-12-31,年度报告,51585274.31000001,2014,12,-0.36058260106736506,True,未知,未知,未知,未知,未知,未知,未知,未知
3,002860,58387911.78,58387911.78,2015-12-31,年度报告,57386828.24,2015,12,-0.5713809737347963,True,0.8199248704720272,True,0.0,True,比例外推,58387911.78,未知,58387911.78
4,002860,20934667.42000001,20934667.42000001,2016-03-31,一季度报告,20751321.57,2016,3,未知,未知,未知,未知,未知,未知,未知,未知,未知,未知
5,002860,39488788.91,39488788.91,2016-06-30,半年度报告,38615896.67,2016,6,未知,未知,未知,未知,未知,未知,未知,未知,未知,未知
6,002860,61385852.22000001,61385852.22000001,2016-09-30,三季度报告,,2016,9,未知,未知,未知,未知,未知,未知,未知,未知,未知,未知
7,002860,73737127.84,73737127.84,2016-12-31,年度报告,72563386.99,2016,12,-0.5828409702033017,True,0.23026360745574714,True,0.0,True,比例外推,73737127.84,未知,73737127.84
8,002860,21890938.2,21890938.2,2017-03-31,一季度报告,21857689.6,2017,3,0.1634789386111967,True,未知,未知,未知,未知,未知,未知,未知,未知
9,002860,43474310.52,43474310.52,2017-06-30,半年度报告,39504827.9,2017,6,-0.3831908928503016,True,未知,未知,未知,未知,未知,未知,未知,未知
10,002860,67737973.41,66320601.50000001,2017-09-30,三季度报告,61956820.72,2017,9,-0.603214034681687,True,未知,未知,未知,未知,未知,未知,未知,未知
11,002860,91424343.22,89403854.67000002,2017-12-31,年度报告,84806532.38999999,2017,12,-0.6696773342887502,True,0.27999508496071157,True,0.0,True,比例外推,89403854.67000002,未知,89403854.67000002
12,002860,25480251.28,24194784.59,2018-03-31,一季度报告,23819689.02,2018,3,0.11265421369651535,True,未知,未知,未知,未知,未知,未知,未知,未知
13,002860,52585885.67999999,49158823.44,2018-06-30,半年度报告,46957082.81,2018,6,-0.43973706911821525,True,未知,未知,未知,未知,未知,未知,未知,未知
14,002860,81285305.57000001,76132706.71999998,2018-09-30,三季度报告,75315799.71999998,2018,9,-0.6404225960145976,True,未知,未知,未知,未知,未知,未知,97330000.0,未知
15,002860,101111952.54,95412383.96999998,2018-12-31,年度报告,93787075.75,2018,12,-0.7335825036075112,True,0.38390638871999144,True,0.0,True,比例外推,95412383.96999998,99180000.0,95412383.96999998
16,002860,28516897.99,24466416.18,2019-03-31,一季度报告,26949671.3,2019,3,-0.04408145891722898,True,0.18995404319982145,True,0.020079343703542918,True,比例外推,98871020.2080011,125000000.0,125000000.0
17,002860,59607533.23000001,50672203.99000001,2019-06-30,半年度报告,49538211.99999999,2019,6,-0.536814026900307,True,0.2676933731090714,True,0.03373315146189981,True,比例外推,100298456.71157402,125000000.0,125000000.0
18,002860,165995397.83,113674284.53,2019-09-30,三季度报告,75888334.51000002,2019,9,-0.70035119559187,True,0.25902876829130395,True,,False,平均增速,133483903.8349962,,133483903.8349962
19,002860,193591032.41,131396533.59,2019-12-31,年度报告,128184657.34,2019,12,-0.7591081566705545,True,0.2244012104162958,True,0.0,True,比例外推,131396533.59,107820000.0,107820000.0
20,002860,25590103.32,25210079.82,2020-03-31,一季度报告,22995109.35,2020,3,-0.14587327701136082,True,0.2039764381276413,True,0.03041004978383796,True,比例外推,97768714.39494368,未知,97768714.39494368
