,SECURITYCODE_x,NETPROFIT_x,PARENTNETPROFIT_x,REPORTDATE_x,REPORTTIMETYPE_x,KCFJCXSYJLR,Year,Month,managesituationChangeRate,managesituationGreatChange,historyprofitextroplaterate,ifhistoryprofitextroplate,IfprofitdisStableChangeRage,IfprofitdisStable,predicttype,predict,analyst_prediction,adj_prediction
0,002875,39440505.43000001,39440505.43000001,2012-12-31,年度报告,39481100.58,2012,12,未知,未知,未知,未知,未知,未知,未知,未知,未知,未知
1,002875,56115145.76000001,56115145.76000001,2013-12-31,年度报告,55512012.12000001,2013,12,0.0,True,未知,未知,未知,未知,未知,未知,未知,未知
2,002875,78968857.65,78968857.65,2014-12-31,年度报告,78140424.74,2014,12,-0.2971504413677567,True,未知,未知,未知,未知,未知,未知,未知,未知
3,002875,70908600.08,70908600.08,2015-12-31,年度报告,69174928.77999999,2015,12,-0.5005562116042589,True,0.6528349012656649,True,0.0,True,比例外推,70908600.08,未知,70908600.08
4,002875,40214888.93999999,40214888.93999999,2016-06-30,半年度报告,39822291.12,2016,6,未知,未知,未知,未知,未知,未知,未知,未知,未知,未知
5,002875,43237033.45999999,43237033.45999999,2016-09-30,三季度报告,,2016,9,未知,未知,未知,未知,未知,未知,未知,未知,未知,未知
6,002875,79117387.24999999,79117387.24999999,2016-12-31,年度报告,74250546.15000002,2016,12,-0.4437838938365344,True,0.049844515857023555,True,0.0,True,比例外推,79117387.24999999,未知,79117387.24999999
7,002875,33953464.41,33953464.41,2017-03-31,一季度报告,32834116.98,2017,3,未知,未知,未知,未知,未知,未知,未知,未知,88773333.0,未知
8,002875,44453417.47000001,44453417.47000001,2017-06-30,半年度报告,42513436.13000001,2017,6,-0.01925613946504618,True,未知,未知,未知,未知,未知,未知,88000000.0,未知
9,002875,45654672.84,45654672.84,2017-09-30,三季度报告,40231536.26,2017,9,-0.08780731993355372,True,未知,未知,未知,未知,未知,未知,87540000.0,未知
10,002875,68869761.1,68869761.1,2017-12-31,年度报告,54112934.69,2017,12,-0.5014938333924821,True,0.055760998995962555,True,0.0,True,比例外推,68869761.1,85000000.0,85000000.0
11,002875,36097245.85,36097245.85,2018-03-31,一季度报告,35052980.17,2018,3,0.16160474683060513,True,未知,未知,未知,未知,未知,未知,82333333.0,未知
12,002875,55399623.12,55399623.12,2018-06-30,半年度报告,50146730.33,2018,6,-0.11276775387141016,True,未知,未知,未知,未知,未知,未知,83333333.0,未知
13,002875,57356198.03,57356198.03,2018-09-30,三季度报告,49630058.23,2018,9,-0.1361124069770028,True,未知,未知,未知,未知,未知,未知,85333333.0,未知
14,002875,83386699.37,83386699.37,2018-12-31,年度报告,69196076.74,2018,12,-0.4273175222325548,True,0.08189557921704894,True,0.0,True,比例外推,83386699.37,84500000.0,83386699.37
15,002875,46928804.76000001,46928804.76000001,2019-03-31,一季度报告,44055077.6,2019,3,0.09261813474337421,True,未知,未知,未知,未知,未知,未知,101134286.0,未知
16,002875,56297854.18,56297854.18,2019-06-30,半年度报告,49064140.37,2019,6,-0.2880726761521693,True,0.3086271704014352,True,0.1459003925748974,False,平均增速,75177404.17443314,93333333.0,93333333.0
17,002875,33099535.47000001,33099535.47000001,2019-09-30,三季度报告,24987599.36,2019,9,-0.3123584410289755,True,0.2904735529865738,True,,False,平均增速,47844864.35238951,51000000.0,47844864.35238951
18,002875,42117286.49,42117286.49,2019-12-31,年度报告,24967773.52,2019,12,-0.527016829686516,True,0.12694514759869044,True,0.0,True,比例外推,42117286.49,99180000.0,99180000.0
19,002875,-929440.43,-929440.43,2020-03-31,一季度报告,-1210299.05,2020,3,-0.15956722887565833,True,0.3398523608345786,True,0.8052034498900887,False,平均增速,-8490952.872977296,30000000.0,30000000.0
