,SECURITYCODE_x,NETPROFIT_x,PARENTNETPROFIT_x,REPORTDATE_x,REPORTTIMETYPE_x,KCFJCXSYJLR,Year,Month,managesituationChangeRate,managesituationGreatChange,historyprofitextroplaterate,ifhistoryprofitextroplate,IfprofitdisStableChangeRage,IfprofitdisStable,predicttype,predict,analyst_prediction,adj_prediction
0,002822,127110774.25999998,127260605.04,2014-12-31,年度报告,128409988.8,2014,12,未知,未知,未知,未知,未知,未知,未知,未知,未知,未知
1,002822,88065065.31000002,88144195.04999998,2015-09-30,三季度报告,80047895.05,2015,9,未知,未知,未知,未知,未知,未知,未知,未知,未知,未知
2,002822,153616580.86,153811235.88,2015-12-31,年度报告,143744269.58,2015,12,0.0,True,未知,未知,未知,未知,未知,未知,未知,未知
3,002822,21778578.46,22077839.5,2016-03-31,一季度报告,21771750.870000005,2016,3,未知,未知,未知,未知,未知,未知,未知,未知,未知,未知
4,002822,62961802.52,63214884.26,2016-06-30,半年度报告,61680828.92,2016,6,未知,未知,未知,未知,未知,未知,未知,未知,未知,未知
5,002822,115269068.64999998,115610610.25999998,2016-09-30,三季度报告,113094010.25999998,2016,9,0.44337341728589186,True,未知,未知,未知,未知,未知,未知,175800000.0,未知
6,002822,155718886.73999998,156183203.24,2016-12-31,年度报告,156875746.52,2016,12,-0.17254521908775178,True,未知,未知,未知,未知,未知,未知,未知,未知
7,002822,21998759.75,22066552.29,2017-03-31,一季度报告,22056185.720000006,2017,3,4.836504641175739,False,未知,未知,未知,未知,未知,未知,195380000.0,未知
8,002822,66367181.00000001,66487050.57999999,2017-06-30,半年度报告,64361219.95,2017,6,1.0188553880683906,False,未知,未知,未知,未知,未知,未知,,未知
9,002822,114378425.47,114686887.24,2017-09-30,三季度报告,112148031.03,2017,9,0.10273099061775062,True,未知,未知,未知,未知,未知,未知,未知,未知
10,002822,160217855.42,160749979.45999998,2017-12-31,年度报告,159769782.43999997,2017,12,-0.18371639483761704,True,0.10939588821642425,True,0.0,True,比例外推,160749979.45999998,,160749979.45999998
11,002822,29998335.5,30248490.81,2018-03-31,一季度报告,30050150.65,2018,3,4.778088206086253,False,未知,未知,未知,未知,未知,未知,未知,未知
12,002822,80479372.88000001,81123117.06,2018-06-30,半年度报告,78360283.72999997,2018,6,0.9152655325227684,False,未知,未知,未知,未知,未知,未知,未知,未知
13,002822,131792591.76,132861932.84999998,2018-09-30,三季度报告,127567045.09000002,2018,9,0.1113177484099876,True,0.12502926333559516,True,0.10303183355093648,False,平均增速,185064624.06059068,未知,185064624.06059068
14,002822,165078274.06,167090740.33,2018-12-31,年度报告,166050116.54999998,2018,12,-0.20663789983464761,True,0.035884159440629074,True,0.0,True,比例外推,167090740.33,未知,167090740.33
15,002822,31184632.98,31754070.01,2019-03-31,一季度报告,30582246.960000005,2019,3,3.237260906025935,False,0.370496093485534,True,0.028369177169709853,True,前期平均,168162866.195,未知,168162866.195
16,002822,112780474.27,113718649.07,2019-06-30,半年度报告,109134127.17999996,2019,6,0.5794205361109166,False,0.2445682427799229,True,0.0492649709842109,True,前期平均,209020389.11499998,245000000.0,245000000.0
17,002822,202749615.02000004,205317820.45,2019-09-30,三季度报告,200758721.67,2019,9,-0.03552413255917921,True,0.14778166654963037,True,0.0378795768912914,True,比例外推,279433736.9430984,250425000.0,250425000.0
18,002822,243127295.95000005,247609110.28,2019-12-31,年度报告,246886011.20999995,2019,12,-0.2299969515443335,True,0.04500839586678619,True,0.0,True,比例外推,247609110.28,250425000.0,247609110.28
19,002822,15668752.71,16618113.58,2020-03-31,一季度报告,12565212.19,2020,3,3.0760708757265602,False,0.19947596418859573,True,0.03333966977114894,True,前期平均,153474894.88999996,303460000.0,303460000.0
