,SECURITYCODE_x,NETPROFIT_x,PARENTNETPROFIT_x,REPORTDATE_x,REPORTTIMETYPE_x,KCFJCXSYJLR,Year,Month,managesituationChangeRate,managesituationGreatChange,historyprofitextroplaterate,ifhistoryprofitextroplate,IfprofitdisStableChangeRage,IfprofitdisStable,predicttype,predict,analyst_prediction,adj_prediction
0,002847,27116729.97,27116729.97,2012-12-31,年度报告,21434829.970000006,2012,12,未知,未知,未知,未知,未知,未知,未知,未知,未知,未知
1,002847,45911467.35999999,45911467.35999999,2013-12-31,年度报告,40805467.36,2013,12,0.0,True,未知,未知,未知,未知,未知,未知,未知,未知
2,002847,48348927.75999999,48348927.75999999,2014-12-31,年度报告,40603678.54,2014,12,-0.4093691286890726,True,未知,未知,未知,未知,未知,未知,未知,未知
3,002847,46557083.09,46557083.09,2015-09-30,三季度报告,37879483.09,2015,9,未知,未知,未知,未知,未知,未知,未知,未知,未知,未知
4,002847,65443911.99000002,65443911.99000002,2015-12-31,年度报告,49296827.63,2015,12,-0.4391451635782873,True,0.32411669814388944,True,0.0,True,比例外推,65443911.99000002,未知,65443911.99000002
5,002847,24617980.68,24617980.68,2016-03-31,一季度报告,23084423.81,2016,3,未知,未知,未知,未知,未知,未知,未知,未知,未知,未知
6,002847,46848092.77,46848092.77,2016-06-30,半年度报告,38493547.98,2016,6,未知,未知,未知,未知,未知,未知,未知,未知,未知,未知
7,002847,62037658.25999999,62037658.25999999,2016-09-30,三季度报告,53150667.38,2016,9,-0.41755951682839854,True,未知,未知,未知,未知,未知,未知,未知,未知
8,002847,85656473.16,85656473.16,2016-12-31,年度报告,67024324.63999999,2016,12,-0.5856493118237874,True,0.38857707750291964,True,0.0,True,比例外推,85656473.16,未知,85656473.16
9,002847,25368639.06,25368639.06,2017-03-31,一季度报告,19970558.18,2017,3,0.1015009850921696,True,未知,未知,未知,未知,未知,未知,108055714.0,未知
10,002847,41450909.62,41620169.40000001,2017-06-30,半年度报告,29813884.43000001,2017,6,-0.42117750442629176,True,未知,未知,未知,未知,未知,未知,90730000.0,未知
11,002847,53399487.20999999,53676330.78000001,2017-09-30,三季度报告,35051546.65,2017,9,-0.5628988789945341,True,未知,未知,未知,未知,未知,未知,74660000.0,未知
12,002847,65319387.87000001,65737337.88999999,2017-12-31,年度报告,32108962.45000001,2017,12,-0.6834246266555016,True,0.5054808957784181,True,0.0,True,比例外推,65737337.88999999,108578333.0,108578333.0
13,002847,27089661.92999999,26989772.020000003,2018-03-31,一季度报告,13648471.54,2018,3,0.06890755573704789,True,未知,未知,未知,未知,未知,未知,未知,未知
14,002847,39431947.99,39179277.63,2018-06-30,半年度报告,15520097.98,2018,6,-0.3458109793345471,True,未知,未知,未知,未知,未知,未知,73810000.0,未知
15,002847,55633082.39,55099623.17,2018-09-30,三季度报告,24667369.11000001,2018,9,-0.49219119158653807,True,0.0165364078193461,True,0.2072952693537461,False,平均增速,52711596.455262266,,52711596.455262266
16,002847,71220345.61,70513331.56,2018-12-31,年度报告,38180336.93,2018,12,-0.5848593984994429,True,0.13541732133698656,True,0.0,True,比例外推,70513331.56,,70513331.56
17,002847,28440284.8,28486534.16,2019-03-31,一季度报告,17379878.630000006,2019,3,0.0009992018383232107,True,0.0838765281951026,True,0.18067726524252342,False,平均增速,54336609.87627588,95110000.0,95110000.0
18,002847,66060176.81,66159533.94000001,2019-06-30,半年度报告,41621267.81,2019,6,-0.3123157400979318,True,0.10685405445836087,True,0.2920759384375362,False,平均增速,105994435.33490576,107320000.0,105994435.33490576
19,002847,89580071.25999999,89767561.52000001,2019-09-30,三季度报告,63950585.94000001,2019,9,-0.5125790482018266,True,0.03613204980959915,True,0.24806885278440227,False,平均增速,112919281.66834909,110216000.0,112919281.66834909
20,002847,127613273.61,128036503.17,2019-12-31,年度报告,101281444.51999998,2019,12,-0.6192558497470622,True,0.05653334083853313,True,0.0,True,比例外推,128036503.17,112346667.0,112346667.0
21,002847,57349858.08999999,57201819.51000001,2020-03-31,一季度报告,40274623.10000001,2020,3,-0.04653803009736393,True,0.08430064501789758,True,0.23828352077816173,False,平均增速,234998158.00947964,192214444.0,192214444.0
