,SECURITYCODE_x,NETPROFIT_x,PARENTNETPROFIT_x,REPORTDATE_x,REPORTTIMETYPE_x,KCFJCXSYJLR,Year,Month,managesituationChangeRate,managesituationGreatChange,historyprofitextroplaterate,ifhistoryprofitextroplate,IfprofitdisStableChangeRage,IfprofitdisStable,predicttype,predict,analyst_prediction,adj_prediction
0,002863,54186699.38000001,54257219.32000001,2012-12-31,年度报告,44042065.77,2012,12,未知,未知,未知,未知,未知,未知,未知,未知,未知,未知
1,002863,60690828.35,61254284.25000001,2013-12-31,年度报告,41909044.17999999,2013,12,0.0,True,未知,未知,未知,未知,未知,未知,未知,未知
2,002863,57315566.44999999,58178074.65,2014-12-31,年度报告,45168051.19,2014,12,-0.10716823524785506,True,未知,未知,未知,未知,未知,未知,未知,未知
3,002863,59208066.68999998,57484788.91,2015-12-31,年度报告,36159664.27,2015,12,-0.054590179663137194,True,0.002144847951282098,True,0.0,True,比例外推,57484788.91,未知,57484788.91
4,002863,14601528.910000006,13770028.310000002,2016-03-31,一季度报告,12554820.48,2016,3,未知,未知,未知,未知,未知,未知,未知,未知,未知,未知
5,002863,32838285.419999994,30989031.76,2016-06-30,半年度报告,23834585.72,2016,6,未知,未知,未知,未知,未知,未知,未知,未知,未知,未知
6,002863,44568652.07,42306599.46,2016-09-30,三季度报告,,2016,9,未知,未知,未知,未知,未知,未知,未知,未知,未知,未知
7,002863,75982183.47000001,73112501.02,2016-12-31,年度报告,56001326.81999999,2016,12,-0.08480883755740098,True,0.0034721726792384254,True,0.0,True,比例外推,73112501.02,未知,73112501.02
8,002863,14099681.77,14262186.329999994,2017-03-31,一季度报告,12886180.88,2017,3,2.71102914728948,False,未知,未知,未知,未知,未知,未知,84000000.0,未知
9,002863,33802835.25,34120583.54,2017-06-30,半年度报告,26504888.9,2017,6,0.6501074488803203,False,未知,未知,未知,未知,未知,未知,,未知
10,002863,40386780.08,40103129.38,2017-09-30,三季度报告,14146824.99,2017,9,0.21580296605995178,True,未知,未知,未知,未知,未知,未知,未知,未知
11,002863,63403325.46000001,60876451.18,2017-12-31,年度报告,30610771.33000001,2017,12,-0.28684993105792356,True,0.3041506074344505,True,0.0,True,比例外推,60876451.18,未知,60876451.18
12,002863,14290215.54,14338534.739999998,2018-03-31,一季度报告,10399005.2,2018,3,2.8431150620217167,False,未知,未知,未知,未知,未知,未知,未知,未知
13,002863,35186869.92999999,35189848.70000001,2018-06-30,半年度报告,20377592.2,2018,6,0.603022319851114,False,未知,未知,未知,未知,未知,未知,未知,未知
14,002863,56651990.00999999,55859700.41000001,2018-09-30,三季度报告,32983535.17,2018,9,0.34169397195479545,True,未知,未知,未知,未知,未知,未知,未知,未知
15,002863,65711548.4,64675615.63000002,2018-12-31,年度报告,39583895.02,2018,12,-0.14536502641039858,True,0.062013342160975704,True,0.0,True,比例外推,64675615.63000002,未知,64675615.63000002
16,002863,9539788.31,8774485.889999999,2019-03-31,一季度报告,725353.29,2019,3,2.791874183305706,False,0.004208170914691495,True,0.11834726172822424,False,前期平均,39360034.285000004,未知,39360034.285000004
17,002863,20559924.13,19394137.05,2019-06-30,半年度报告,958177.21,2019,6,0.5399692978601925,False,0.05601075060672431,True,0.2637778529361785,False,前期平均,37530448.815,未知,37530448.815
18,002863,47581363.23000001,46805676.59,2019-09-30,三季度报告,18704952.32,2019,9,-0.043516399504497844,True,0.33368728935363284,True,,False,平均增速,51712950.87811578,未知,51712950.87811578
19,002863,59440714.51000001,57163588.89,2019-12-31,年度报告,26322572.2,2019,12,-0.17538544290336627,True,0.057125107130030044,True,0.0,True,比例外推,57163588.89,未知,57163588.89
20,002863,13216606.93,12969020.999999994,2020-03-31,一季度报告,1881372.21,2020,3,4.680073563393359,False,0.32794485264730244,True,0.20952139226297567,False,前期平均,36423761.135,未知,36423761.135
