,SECURITYCODE_x,NETPROFIT_x,PARENTNETPROFIT_x,REPORTDATE_x,REPORTTIMETYPE_x,KCFJCXSYJLR,Year,Month,managesituationChangeRate,managesituationGreatChange,historyprofitextroplaterate,ifhistoryprofitextroplate,IfprofitdisStableChangeRage,IfprofitdisStable,predicttype,predict,analyst_prediction,adj_prediction
0,002807,1027157000.0,999721999.9999998,2013-12-31,年度报告,977684000.0,2013,12,未知,未知,未知,未知,未知,未知,未知,未知,未知,未知
1,002807,851363000.0,817924000.0,2014-12-31,年度报告,747433000.0,2014,12,0.0,True,未知,未知,未知,未知,未知,未知,未知,未知
2,002807,205524000.0,198838000.0,2015-03-31,一季度报告,196143000.0,2015,3,未知,未知,未知,未知,未知,未知,未知,未知,未知,未知
3,002807,388460000.0,372166000.0,2015-06-30,半年度报告,372162808.0,2015,6,未知,未知,未知,未知,未知,未知,未知,未知,未知,未知
4,002807,554908000.0,545779000.0,2015-09-30,三季度报告,,2015,9,未知,未知,未知,未知,未知,未知,未知,未知,未知,未知
5,002807,814924999.9999999,814499000.0,2015-12-31,年度报告,806275000.0000001,2015,12,0.20648536523198682,True,未知,未知,未知,未知,未知,未知,未知,未知
6,002807,177078000.00000003,176790000.00000003,2016-03-31,一季度报告,166056999.99999997,2016,3,3.997747221735661,False,未知,未知,未知,未知,未知,未知,未知,未知
7,002807,361359000.0,361748000.0,2016-06-30,半年度报告,350738000.0,2016,6,1.6441770066416104,False,未知,未知,未知,未知,未知,未知,802000000.0,未知
8,002807,517181000.0,510235000.0000001,2016-09-30,三季度报告,499476000.0,2016,9,0.8510401724249785,False,未知,未知,未知,未知,未知,未知,800500000.0,未知
9,002807,767391999.9999999,777926000.0000001,2016-12-31,年度报告,766598000.0000002,2016,12,0.2604313280363225,True,0.13237548708557814,True,0.0,True,比例外推,777926000.0000001,799000000.0,777926000.0000001
10,002807,178519000.00000003,174733000.0,2017-03-31,一季度报告,174458000.0,2017,3,4.800590700143439,False,未知,未知,未知,未知,未知,未知,783846000.0,未知
11,002807,340593000.0,352437000.0,2017-06-30,半年度报告,352328999.99999994,2017,6,1.8424835136249547,False,未知,未知,未知,未知,未知,未知,772826333.0,未知
12,002807,500683000.0,512299000.00000006,2017-09-30,三季度报告,495335000.00000006,2017,9,0.986068707087074,False,未知,未知,未知,未知,未知,未知,,未知
13,002807,758021000.0000001,808449999.9999999,2017-12-31,年度报告,840658000.0,2017,12,0.3385036591468248,True,0.07892033069913498,True,0.0,True,比例外推,808449999.9999999,806000000.0,808449999.9999999
14,002807,186752000.0,183018000.0,2018-03-31,一季度报告,182974000.0,2018,3,4.753768506433488,False,0.0668161692829623,True,0.02080005692707343,True,前期平均,788354500.0000002,867000000.0,788354500.0000002
15,002807,326380000.00000006,367500000.00000006,2018-06-30,半年度报告,401985000.0,2018,6,2.0157901072541127,False,0.09153275657191935,True,0.026962110182748744,True,前期平均,792486096.0000002,,792486096.0000002
16,002807,467667000.0,539883000.0,2018-09-30,三季度报告,575149000.0,2018,9,1.0515116351064446,False,0.06596747098421867,True,,False,前期平均,,846000000.0,
17,002807,780124000.0,857350999.9999999,2018-12-31,年度报告,898345999.9999998,2018,12,0.355050849514723,True,0.041884780356906695,True,0.0,True,比例外推,857350999.9999999,,857350999.9999999
18,002807,194346000.0,193862000.00000003,2019-03-31,一季度报告,193869000.0,2019,3,4.500112448594928,False,0.05035756769601526,True,0.00734222734158041,True,前期平均,827232500.0000001,930500000.0,930500000.0
19,002807,388378000.0,401636000.00000006,2019-06-30,半年度报告,405449000.0,2019,6,2.147119921563821,False,0.07007886579139297,True,0.022258572235951457,True,前期平均,853730500.0000002,915500000.0,853730500.0000002
20,002807,638698000.0,636748000.0000001,2019-09-30,三季度报告,644752000.0,2019,9,1.1963426968334305,False,0.08108155902949707,True,0.03777796869580108,True,前期平均,942970500.0000002,,942970500.0000002
21,002807,1011777000.0,1012687000.0,2019-12-31,年度报告,1026424000.0,2019,12,0.31665863375565934,True,0.02283643839406115,True,0.0,True,比例外推,1012687000.0,809000000.0,809000000.0
22,002807,210590000.00000003,210072000.0,2020-03-31,一季度报告,210979000.0,2020,3,4.285197534294506,False,0.0641195167423639,True,0.011149374458591127,True,前期平均,900857999.9999999,1166000000.0,1166000000.0
