,SECURITYCODE_x,NETPROFIT_x,PARENTNETPROFIT_x,REPORTDATE_x,REPORTTIMETYPE_x,KCFJCXSYJLR,Year,Month,managesituationChangeRate,managesituationGreatChange,historyprofitextroplaterate,ifhistoryprofitextroplate,IfprofitdisStableChangeRage,IfprofitdisStable,predicttype,predict,analyst_prediction,adj_prediction
0,002867,324446217.71,324446217.71,2014-12-31,年度报告,318311984.11,2014,12,未知,未知,未知,未知,未知,未知,未知,未知,未知,未知
1,002867,353076099.87999994,353076099.87999994,2015-12-31,年度报告,334355820.05999994,2015,12,0.0,True,未知,未知,未知,未知,未知,未知,未知,未知
2,002867,103637923.12000002,103637923.12000002,2016-03-31,一季度报告,101540623.11999996,2016,3,未知,未知,未知,未知,未知,未知,未知,未知,未知,未知
3,002867,213477601.52,213477601.52,2016-06-30,半年度报告,210008529.81,2016,6,未知,未知,未知,未知,未知,未知,未知,未知,未知,未知
4,002867,330524209.58,330524209.58,2016-09-30,三季度报告,,2016,9,未知,未知,未知,未知,未知,未知,未知,未知,未知,未知
5,002867,426671266.5299999,426671266.5299999,2016-12-31,年度报告,413989692.47,2016,12,-0.08108700130008914,True,未知,未知,未知,未知,未知,未知,未知,未知
6,002867,124696616.59,124696616.59,2017-03-31,一季度报告,124220612.92000005,2017,3,2.1305742911726533,False,未知,未知,未知,未知,未知,未知,525160000.0,未知
7,002867,263531911.84,263531911.84,2017-06-30,半年度报告,261653427.7,2017,6,0.5198138605637448,False,未知,未知,未知,未知,未知,未知,,未知
8,002867,415926768.15,415926768.15,2017-09-30,三季度报告,409595095.8700001,2017,9,-0.01838894608574471,True,未知,未知,未知,未知,未知,未知,525612500.0,未知
9,002867,592074754.2199999,592074754.2199999,2017-12-31,年度报告,567042733.39,2017,12,-0.2395873751972289,True,0.2595046847982901,True,0.0,True,比例外推,592074754.2199999,未知,592074754.2199999
10,002867,160533858.58,160533858.58,2018-03-31,一季度报告,149902431.47000003,2018,3,1.6018846908795665,False,未知,未知,未知,未知,未知,未知,731417500.0,未知
11,002867,352916615.24999994,352916615.24999994,2018-06-30,半年度报告,334973289.84,2018,6,0.2311458428115655,True,未知,未知,未知,未知,未知,未知,740115714.0,未知
12,002867,594723347.11,594723347.11,2018-09-30,三季度报告,565571288.18,2018,9,-0.21994388783125499,True,未知,未知,未知,未知,未知,未知,803359167.0,未知
13,002867,806112919.8399997,806116447.1299999,2018-12-31,年度报告,751511650.47,2018,12,-0.4520181524418722,True,0.518632264052253,True,0.0,True,比例外推,806116447.1299999,811220000.0,806116447.1299999
14,002867,193936670.07,193936714.5300001,2019-03-31,一季度报告,184622675.83,2019,3,1.0210454079898437,False,0.4061285584203654,True,0.024003762456249106,True,前期平均,571572309.44,1004954500.0,1004954500.0
15,002867,475110578.99,475118309.71,2019-06-30,半年度报告,442606247.09,2019,6,-0.08067174031982606,True,0.4797047243946813,True,0.035797147879941205,True,比例外推,971266486.1493757,1011770870.0,971266486.1493757
16,002867,727369158.39,727376907.5199999,2019-09-30,三季度报告,688758589.99,2019,9,-0.45445858265592787,True,0.5934692695254754,True,,False,平均增速,965875209.9687946,986230000.0,965875209.9687946
17,002867,991326276.3300002,991420924.96,2019-12-31,年度报告,913785000.79,2019,12,-0.5975176557467938,True,0.5825591529604998,True,0.0,True,比例外推,991420924.96,986528000.0,991420924.96
18,002867,100327186.33999996,100560022.2,2020-03-31,一季度报告,88851117.97999999,2020,3,0.6729493065591646,False,0.35985939058168265,True,0.012208450131164755,True,前期平均,622775691.935,1054953453.0,1054953453.0
