,SECURITYCODE_x,NETPROFIT_x,PARENTNETPROFIT_x,REPORTDATE_x,REPORTTIMETYPE_x,KCFJCXSYJLR,Year,Month,managesituationChangeRate,managesituationGreatChange,historyprofitextroplaterate,ifhistoryprofitextroplate,IfprofitdisStableChangeRage,IfprofitdisStable,predicttype,predict,analyst_prediction,adj_prediction
0,002803,17177916.97,19083933.16,2014-12-31,年度报告,14728203.710000005,2014,12,未知,未知,未知,未知,未知,未知,未知,未知,未知,未知
1,002803,3479069.0499999993,4535215.88,2015-03-31,一季度报告,4367800.000000001,2015,3,未知,未知,未知,未知,未知,未知,未知,未知,未知,未知
2,002803,14707133.609999998,16768480.77,2015-06-30,半年度报告,16497754.81,2015,6,未知,未知,未知,未知,未知,未知,未知,未知,未知,未知
3,002803,22650420.63000001,26065452.009999994,2015-09-30,三季度报告,,2015,9,未知,未知,未知,未知,未知,未知,未知,未知,未知,未知
4,002803,32858240.73,37384431.31,2015-12-31,年度报告,32349477.050000004,2015,12,0.0,True,未知,未知,未知,未知,未知,未知,未知,未知
5,002803,6002893.46,6396159.09,2016-03-31,一季度报告,6218558.6000000015,2016,3,3.9375038905882027,False,未知,未知,未知,未知,未知,未知,未知,未知
6,002803,17019033.669999998,18109029.180000003,2016-06-30,半年度报告,17507999.89,2016,6,0.16799897420664023,True,未知,未知,未知,未知,未知,未知,46000000.0,未知
7,002803,28460117.44,29740400.480000004,2016-09-30,三季度报告,27208274.05,2016,9,-0.24160715376525035,True,未知,未知,未知,未知,未知,未知,,未知
8,002803,41948210.84,42996128.95,2016-12-31,年度报告,34403832.56999999,2016,12,-0.47721129955943326,True,未知,未知,未知,未知,未知,未知,未知,未知
9,002803,8884033.52,9030529.48,2017-03-31,一季度报告,9231548.27,2017,3,1.861606171167995,False,未知,未知,未知,未知,未知,未知,53000000.0,未知
10,002803,19501899.68,19686415.31,2017-06-30,半年度报告,19813938.29,2017,6,0.009335624047801814,True,未知,未知,未知,未知,未知,未知,,未知
11,002803,43505152.15000001,38387583.42000001,2017-09-30,三季度报告,37653146.74,2017,9,-0.3964214305786084,True,未知,未知,未知,未知,未知,未知,未知,未知
12,002803,82064710.44000001,80034333.83000001,2017-12-31,年度报告,76885839.21,2017,12,-0.5904970289312106,True,0.6767159097829768,True,0.0,True,比例外推,80034333.83000001,未知,80034333.83000001
13,002803,21881486.69,18918223.550000004,2018-03-31,一季度报告,18888819.16,2018,3,0.9335718321332943,False,0.8738807521397803,True,0.035472131083982145,True,前期平均,47001699.06,225000000.0,225000000.0
14,002803,86580096.11000003,81133071.09,2018-06-30,半年度报告,80179220.58000001,2018,6,-0.11916699132563689,True,0.22938894622130376,True,0.16782336514827423,False,平均增速,243667045.6751469,,243667045.6751469
15,002803,142659772.46,131350729.04999997,2018-09-30,三季度报告,129285813.98,2018,9,-0.6051521228848296,True,0.7023946056062331,True,,False,平均增速,231055790.4964961,207000000.0,207000000.0
16,002803,228352034.95,213169745.48,2018-12-31,年度报告,201623384.73,2018,12,-0.7906783941855338,True,1.1940543554109928,True,0.0,True,比例外推,213169745.48,207000000.0,213169745.48
17,002803,76452756.07,72814265.75999999,2019-03-31,一季度报告,71493564.06,2019,3,-0.21495658803428416,True,1.9396915453937427,True,0.0492506349504615,True,比例外推,544992705.1582019,306473333.0,306473333.0
18,002803,156755968.71,148028338.70000002,2019-06-30,半年度报告,142531795.69,2019,6,-0.8015950808350287,True,3.7413955870325557,False,0.13038438219198661,False,未知,未知,307672500.0,未知
19,002803,247257538.43000004,231552078.64,2019-09-30,三季度报告,234752941.82,2019,9,-0.8795882211657357,True,2.964683889124856,False,0.1508728099554888,False,未知,未知,324672500.0,未知
20,002803,346301077.79999995,326257025.14,2019-12-31,年度报告,314348015.51000005,2019,12,-0.9247744081905761,True,2.6827135848920136,False,0.0,True,比例外推,326257025.14,327922500.0,326257025.14
21,002803,79213578.16,74084893.06,2020-03-31,一季度报告,70254725.32999998,2020,3,-0.7753133065043211,True,3.9700284960661802,False,0.08037231695504252,True,比例外推,481551589.87682503,408000000.0,408000000.0
