,SECURITYCODE_x,NETPROFIT_x,PARENTNETPROFIT_x,REPORTDATE_x,REPORTTIMETYPE_x,KCFJCXSYJLR,Year,Month,managesituationChangeRate,managesituationGreatChange,historyprofitextroplaterate,ifhistoryprofitextroplate,IfprofitdisStableChangeRage,IfprofitdisStable,predicttype,predict,analyst_prediction,adj_prediction
0,002869,42864599.53999999,44978003.68,2012-12-31,年度报告,41776075.51,2012,12,未知,未知,未知,未知,未知,未知,未知,未知,未知,未知
1,002869,44356126.2,48377154.84,2013-12-31,年度报告,48782551.92000001,2013,12,0.0,True,未知,未知,未知,未知,未知,未知,未知,未知
2,002869,55108493.12999999,57792501.98,2014-12-31,年度报告,53147006.95999999,2014,12,-0.03362617044768015,True,未知,未知,未知,未知,未知,未知,未知,未知
3,002869,138589240.66,139698090.88000005,2015-12-31,年度报告,132356988.45,2015,12,-0.22217797828579455,True,0.26365591807330885,True,0.0,True,比例外推,139698090.88000005,未知,139698090.88000005
4,002869,41456767.29000001,41763406.55,2016-03-31,一季度报告,40679306.55,2016,3,未知,未知,未知,未知,未知,未知,未知,未知,未知,未知
5,002869,53593718.28,54367860.25,2016-06-30,半年度报告,50157752.7,2016,6,未知,未知,未知,未知,未知,未知,未知,未知,未知,未知
6,002869,56851110.27999999,57659873.52000001,2016-09-30,三季度报告,,2016,9,未知,未知,未知,未知,未知,未知,未知,未知,未知,未知
7,002869,119967773.26,121642814.86,2016-12-31,年度报告,111724065.49,2016,12,-0.6907075950783264,True,1.7867042892949465,True,0.0,True,比例外推,121642814.86,未知,121642814.86
8,002869,42010556.06,42613828.83,2017-03-31,一季度报告,41624033.94000001,2017,3,0.03395904557998605,True,未知,未知,未知,未知,未知,未知,125000000.0,未知
9,002869,55347821.75000001,56331388.23,2017-06-30,半年度报告,54415623.61,2017,6,-0.20019358768775483,True,未知,未知,未知,未知,未知,未知,140000000.0,未知
10,002869,55968893.26000001,57229971.94,2017-09-30,三季度报告,52233342.09,2017,9,-0.24602001035889,True,未知,未知,未知,未知,未知,未知,130050000.0,未知
11,002869,87793690.86000001,89417850.55000003,2017-12-31,年度报告,75697841.08999999,2017,12,-0.6426990484594414,True,0.23871117036469497,True,0.0,True,比例外推,89417850.55000003,,89417850.55000003
12,002869,5388686.69,6917280.000000001,2018-03-31,一季度报告,4206990.550000002,2018,3,0.020329259121927207,True,未知,未知,未知,未知,未知,未知,未知,未知
13,002869,-6574515.92,-3869875.42,2018-06-30,半年度报告,-11377015.48,2018,6,-0.22554134589768232,True,未知,未知,未知,未知,未知,未知,未知,未知
14,002869,-6294522.300000003,-2462587.14,2018-09-30,三季度报告,-11844050.86,2018,9,-0.23413530189215712,True,未知,未知,未知,未知,未知,未知,未知,未知
15,002869,16609853.089999998,21649120.59,2018-12-31,年度报告,3258441.42,2018,12,-0.5117576317829727,True,0.3208949196236911,True,0.0,True,比例外推,21649120.59,未知,21649120.59
16,002869,7772136.86,9397130.46,2019-03-31,一季度报告,5292373.5600000005,2019,3,6.954554051091063,False,0.8708791303297496,True,0.5560781238288443,False,前期平均,61956413.504999995,未知,61956413.504999995
17,002869,42888338.0,45033081.15,2019-06-30,半年度报告,34927323.980000004,2019,6,-7.519810745244951,False,1.1206980536201256,True,2.7169662829144374,False,前期平均,86457346.285,374150000.0,374150000.0
18,002869,385490872.36,387878478.71000016,2019-09-30,三季度报告,372691661.1999999,2019,9,-7.809825670170392,False,1.111585217204293,True,,False,前期平均,,704693333.0,
19,002869,872682323.8900001,875264934.6399997,2019-12-31,年度报告,856209544.1600001,2019,12,1.5806730082282743,False,0.840106507139299,True,0.0,True,前期平均,875264934.6399997,810450000.0,875264934.6399997
20,002869,108672263.96,109164017.93999998,2020-03-31,一季度报告,106197744.03000002,2020,3,4.515162729648586,False,0.6720564967253617,True,0.6753861151994717,False,前期平均,125726646.94999997,,125726646.94999997
