,SECURITYCODE_x,NETPROFIT_x,PARENTNETPROFIT_x,REPORTDATE_x,REPORTTIMETYPE_x,KCFJCXSYJLR,Year,Month,managesituationChangeRate,managesituationGreatChange,historyprofitextroplaterate,ifhistoryprofitextroplate,IfprofitdisStableChangeRage,IfprofitdisStable,predicttype,predict,analyst_prediction,adj_prediction
0,002899,60875953.5,60875953.5,2013-12-31,年度报告,60588254.40000002,2013,12,未知,未知,未知,未知,未知,未知,未知,未知,未知,未知
1,002899,74319934.77000001,74319934.77000001,2014-12-31,年度报告,74269384.7,2014,12,0.0,True,未知,未知,未知,未知,未知,未知,未知,未知
2,002899,76177358.28000002,76177358.28000002,2015-12-31,年度报告,76390299.14,2015,12,-0.18089334054995443,True,未知,未知,未知,未知,未知,未知,未知,未知
3,002899,60134511.02,60134511.02,2016-09-30,三季度报告,,2016,9,未知,未知,未知,未知,未知,未知,未知,未知,未知,未知
4,002899,85189627.97,85189627.97,2016-12-31,年度报告,83772205.75000001,2016,12,-0.2008655212715262,True,0.12691827029333974,True,0.0,True,比例外推,85189627.97,未知,85189627.97
5,002899,15464069.88,15464069.88,2017-03-31,一季度报告,15261830.840000002,2017,3,未知,未知,未知,未知,未知,未知,未知,未知,未知,未知
6,002899,41045977.91,41045977.91,2017-06-30,半年度报告,40196152.56999999,2017,6,未知,未知,未知,未知,未知,未知,未知,未知,未知,未知
7,002899,60617531.66,60617531.66,2017-09-30,三季度报告,59315748.66,2017,9,0.012329733250070031,True,未知,未知,未知,未知,未知,未知,104080000.0,未知
8,002899,83169963.53999999,83169963.53999999,2017-12-31,年度报告,80129794.11999999,2017,12,-0.285406510738164,True,0.13210844186675544,True,0.0,True,比例外推,83169963.53999999,,83169963.53999999
9,002899,5989815.6800000025,5989815.6800000025,2018-03-31,一季度报告,1521031.3200000003,2018,3,2.936606208610847,False,未知,未知,未知,未知,未知,未知,未知,未知
10,002899,18169638.5,18169638.5,2018-06-30,半年度报告,9506284.11,2018,6,0.4831161687383953,True,未知,未知,未知,未知,未知,未知,未知,未知
11,002899,45787993.93999999,45787993.93999999,2018-09-30,三季度报告,35627212.349999994,2018,9,0.004263153462755227,True,未知,未知,未知,未知,未知,未知,未知,未知
12,002899,62686634.91,62686634.91,2018-12-31,年度报告,49379154.31000001,2018,12,-0.26805362285962586,True,0.030817585093245697,True,0.0,True,比例外推,62686634.91,未知,62686634.91
13,002899,2327460.0300000003,2327460.0300000003,2019-03-31,一季度报告,2248847.16,2019,3,9.163243203503715,False,未知,未知,未知,未知,未知,未知,未知,未知
14,002899,14600110.179999998,14600110.179999998,2019-06-30,半年度报告,10233489.689999998,2019,6,2.350421831452508,False,未知,未知,未知,未知,未知,未知,未知,未知
15,002899,41375685.95,41375685.95,2019-09-30,三季度报告,30897242.12,2019,9,0.3295178115855235,True,0.24161955485356287,True,,False,平均增速,52745908.36024442,未知,52745908.36024442
16,002899,50557693.12999999,50557693.12999999,2019-12-31,年度报告,35496023.63,2019,12,-0.028884648419868365,True,0.2553244594172513,True,0.0,True,比例外推,50557693.12999999,未知,50557693.12999999
17,002899,2721587.2,2721587.2,2020-03-31,一季度报告,1195423.2399999998,2020,3,25.15553122946648,False,0.7830267134136796,True,0.09558991136321093,True,前期平均,59084630.335,未知,59084630.335
