,SECURITYCODE_x,NETPROFIT_x,PARENTNETPROFIT_x,REPORTDATE_x,REPORTTIMETYPE_x,KCFJCXSYJLR,Year,Month,managesituationChangeRate,managesituationGreatChange,historyprofitextroplaterate,ifhistoryprofitextroplate,IfprofitdisStableChangeRage,IfprofitdisStable,predicttype,predict,analyst_prediction,adj_prediction
0,002856,40675402.46,40675402.46,2014-12-31,年度报告,31738354.79000001,2014,12,未知,未知,未知,未知,未知,未知,未知,未知,未知,未知
1,002856,46654368.96,46654368.96,2015-12-31,年度报告,44812387.18,2015,12,0.0,True,未知,未知,未知,未知,未知,未知,未知,未知
2,002856,8553670.18,8553670.18,2016-03-31,一季度报告,8778040.179999998,2016,3,未知,未知,未知,未知,未知,未知,未知,未知,未知,未知
3,002856,26313804.27,26313804.27,2016-06-30,半年度报告,26062493.65,2016,6,未知,未知,未知,未知,未知,未知,未知,未知,未知,未知
4,002856,37281775.44,37281775.44,2016-09-30,三季度报告,,2016,9,未知,未知,未知,未知,未知,未知,未知,未知,未知,未知
5,002856,52117835.81,52117835.81,2016-12-31,年度报告,51191023.57999999,2016,12,-0.1281544822763797,True,未知,未知,未知,未知,未知,未知,未知,未知
6,002856,9153511.54,9153511.54,2017-03-31,一季度报告,9153511.54,2017,3,3.7553157421367866,False,未知,未知,未知,未知,未知,未知,,未知
7,002856,23585033.9,23585033.9,2017-06-30,半年度报告,23720207.590000004,2017,6,0.5457819037733537,False,未知,未知,未知,未知,未知,未知,50000000.0,未知
8,002856,35864550.919999994,35864550.919999994,2017-09-30,三季度报告,33430843.67,2017,9,0.0910264326188432,True,未知,未知,未知,未知,未知,未知,,未知
9,002856,42457298.63,42457298.63,2017-12-31,年度报告,40322318.09,2017,12,-0.2195492804366314,True,0.1935869054173233,True,0.0,True,比例外推,42457298.63,未知,42457298.63
10,002856,5652258.77,5652258.77,2018-03-31,一季度报告,5883728.780000001,2018,3,3.4436937979760285,False,未知,未知,未知,未知,未知,未知,未知,未知
11,002856,19148173.36,19148173.36,2018-06-30,半年度报告,19159143.37,2018,6,0.7246276868824006,False,未知,未知,未知,未知,未知,未知,未知,未知
12,002856,28920348.739999995,28920348.739999995,2018-09-30,三季度报告,28935065.59,2018,9,0.13413946129511461,True,未知,未知,未知,未知,未知,未知,未知,未知
13,002856,26522710.53,26522710.53,2018-12-31,年度报告,25916291.38,2018,12,-0.0419691366972869,True,0.14029865529749685,True,0.0,True,比例外推,26522710.53,未知,26522710.53
14,002856,3776989.16,3776989.16,2019-03-31,一季度报告,3780173.38,2019,3,6.196309319008762,False,0.36158572726275723,True,0.03702814511150687,True,前期平均,40567884.135000005,未知,40567884.135000005
15,002856,11568607.430000005,11568607.430000005,2019-06-30,半年度报告,11313483.670000002,2019,6,1.124244526894131,False,0.23252027252561586,True,0.12705106503519703,False,前期平均,32433927.644999996,未知,32433927.644999996
16,002856,20235427.520000003,20235427.520000003,2019-09-30,三季度报告,20100761.32,2019,9,0.40646306950446576,True,0.20924672012468787,True,,False,平均增速,18107356.26389099,未知,18107356.26389099
17,002856,-17833663.14,-17833663.14,2019-12-31,年度报告,-18647736.42,2019,12,0.5336065450019447,False,0.4391187348123425,True,0.0,True,盈利变化,11668034.59666667,未知,11668034.59666667
18,002856,-11642225.52,-11642225.52,2020-03-31,一季度报告,-11731440.57,2020,3,9.769266401601215,False,0.4897949811569108,True,0.2864888291599994,False,盈利变化,-38515815.07333334,未知,-38515815.07333334
