,SECURITYCODE_x,NETPROFIT_x,PARENTNETPROFIT_x,REPORTDATE_x,REPORTTIMETYPE_x,KCFJCXSYJLR,Year,Month,managesituationChangeRate,managesituationGreatChange,historyprofitextroplaterate,ifhistoryprofitextroplate,IfprofitdisStableChangeRage,IfprofitdisStable,predicttype,predict,analyst_prediction,adj_prediction
0,002846,33639820.94,33639820.94,2012-12-31,年度报告,32428715.33,2012,12,未知,未知,未知,未知,未知,未知,未知,未知,未知,未知
1,002846,41706192.59,41706192.59,2013-12-31,年度报告,40407399.32,2013,12,0.0,True,未知,未知,未知,未知,未知,未知,未知,未知
2,002846,44068890.11999999,44068890.11999999,2014-12-31,年度报告,42508786.86,2014,12,-0.19340944711251584,True,未知,未知,未知,未知,未知,未知,未知,未知
3,002846,31437219.83,31437219.83,2015-09-30,三季度报告,31343429.75,2015,9,未知,未知,未知,未知,未知,未知,未知,未知,未知,未知
4,002846,45146592.42,45146592.42,2015-12-31,年度报告,43535767.74000001,2015,12,-0.23665377438827123,True,0.16977363646328508,True,0.0,True,比例外推,45146592.42,未知,45146592.42
5,002846,10412178.13,10412178.13,2016-03-31,一季度报告,10313571.830000002,2016,3,未知,未知,未知,未知,未知,未知,未知,未知,未知,未知
6,002846,24125350.21,24125350.21,2016-06-30,半年度报告,23859601.32,2016,6,未知,未知,未知,未知,未知,未知,未知,未知,未知,未知
7,002846,55419923.03000001,55419923.03000001,2016-12-31,年度报告,54604616.88999999,2016,12,-0.25487574727572326,True,0.05267383005942904,True,0.0,True,比例外推,55419923.03000001,未知,55419923.03000001
8,002846,11750165.11,11750165.11,2017-03-31,一季度报告,10131126.919999998,2017,3,2.2308149668584276,False,未知,未知,未知,未知,未知,未知,未知,未知
9,002846,24185578.5,24185578.5,2017-06-30,半年度报告,21554316.41,2017,6,0.3943764814678724,True,未知,未知,未知,未知,未知,未知,未知,未知
10,002846,35733798.83,35713437.75,2017-09-30,三季度报告,31095759.02000001,2017,9,未知,未知,未知,未知,未知,未知,未知,未知,未知,未知
11,002846,-727691.8999999998,-727691.8999999998,2017-12-31,年度报告,37891443.86,2017,12,-0.39300130529250227,True,0.24238352922997067,True,0.0,True,比例外推,-727691.8999999998,未知,-727691.8999999998
12,002846,8377360.13,7639088.549999999,2018-03-31,一季度报告,4335753.45,2018,3,1.862923254701397,False,未知,未知,未知,未知,未知,未知,未知,未知
13,002846,8377360.13,7639088.549999999,2018-03-31,一季度报告,4335753.45,2018,3,1.862923254701397,False,未知,未知,未知,未知,未知,未知,未知,未知
14,002846,-192799.89,-192799.89,2018-03-31,一季度报告,4335753.45,2018,3,1.862923254701397,False,未知,未知,未知,未知,未知,未知,未知,未知
15,002846,-192799.89,-192799.89,2018-03-31,一季度报告,4335753.45,2018,3,1.862923254701397,False,未知,未知,未知,未知,未知,未知,未知,未知
16,002846,14357483.500000002,14021522.700000005,2018-06-30,半年度报告,10232921.85,2018,6,0.3909041266058613,True,未知,未知,未知,未知,未知,未知,未知,未知
17,002846,25415069.50000001,24756074.81,2018-09-30,三季度报告,20489832.84,2018,9,-0.058599364147145186,True,未知,未知,未知,未知,未知,未知,未知,未知
18,002846,44242367.72,42123147.26,2018-12-31,年度报告,37415756.62000001,2018,12,-47.228109643655515,False,1.0144718527184486,True,0.0,True,前期平均,42123147.26,未知,42123147.26
19,002846,24837478.430000003,21990225.539999995,2019-03-31,一季度报告,21460591.840000004,2019,3,3.015563425467779,False,0.24400050669010404,True,0.07666237718248434,True,盈利变化,64956265.11333334,未知,64956265.11333334
20,002846,46374779.45999999,43156636.88,2019-06-30,半年度报告,42343772.34,2019,6,1.3430165140012171,False,0.4056217140355611,True,0.15293711730355575,False,前期平均,66697708.39,未知,66697708.39
21,002846,67444280.64999999,64986046.17999999,2019-09-30,三季度报告,64290354.12,2019,9,0.3236171138544391,True,未知,未知,未知,未知,未知,未知,未知,未知
22,002846,82230812.14,79749268.64999998,2019-12-31,年度报告,78144726.23,2019,12,-0.23964691146507205,True,0.6178666258773997,True,0.0,True,比例外推,79749268.64999998,未知,79749268.64999998
23,002846,14826087.65,15442671.22,2020-03-31,一季度报告,12166349.470000004,2020,3,0.3543975905125725,True,1.4680111572424992,True,0.10341260598333776,False,平均增速,75100299.54919812,122000000.0,122000000.0
