,SECURITYCODE_x,NETPROFIT_x,PARENTNETPROFIT_x,REPORTDATE_x,REPORTTIMETYPE_x,KCFJCXSYJLR,Year,Month,managesituationChangeRate,managesituationGreatChange,historyprofitextroplaterate,ifhistoryprofitextroplate,IfprofitdisStableChangeRage,IfprofitdisStable,predicttype,predict,analyst_prediction,adj_prediction
0,002920,98303900.0,100718500.0,2013-12-31,年度报告,89446400.0,2013,12,未知,未知,未知,未知,未知,未知,未知,未知,未知,未知
1,002920,163643986.35000002,165525116.85000002,2014-12-31,年度报告,155937405.81,2014,12,0.0,True,未知,未知,未知,未知,未知,未知,未知,未知
2,002920,357566857.30999994,358874470.33,2015-12-31,年度报告,346042965.79,2015,12,-0.3992819278445793,True,未知,未知,未知,未知,未知,未知,未知,未知
3,002920,463162480.9100001,463694634.5799999,2016-09-30,三季度报告,444634540.33,2016,9,未知,未知,未知,未知,未知,未知,未知,未知,未知,未知
4,002920,590327571.2899997,590280713.3799999,2016-12-31,年度报告,567837620.9300001,2016,12,-0.7250754705300514,True,1.7300610231474762,True,0.0,True,比例外推,590280713.3799999,未知,590280713.3799999
5,002920,215367395.47,215286953.84,2017-03-31,一季度报告,214414073.04999995,2017,3,未知,未知,未知,未知,未知,未知,未知,未知,未知,未知
6,002920,357692750.43,357534189.38000005,2017-06-30,半年度报告,354714459.89,2017,6,未知,未知,未知,未知,未知,未知,未知,未知,未知,未知
7,002920,615890183.1899999,616444982.7999997,2017-12-31,年度报告,615885150.4,2017,12,-0.8334756755724899,True,1.2652160002837027,True,0.0,True,比例外推,616444982.7999997,613133333.0,616444982.7999997
8,002920,160216829.33999997,160216829.33999997,2018-03-31,一季度报告,156128051.29,2018,3,-0.543552542921041,True,未知,未知,未知,未知,未知,未知,685995833.0,未知
9,002920,286815828.7,286904597.85,2018-06-30,半年度报告,263168357.24,2018,6,-0.7251722326442902,True,未知,未知,未知,未知,未知,未知,594909091.0,未知
10,002920,337957484.7,338182253.84999985,2018-09-30,三季度报告,292446931.04999995,2018,9,未知,未知,未知,未知,未知,未知,未知,未知,489908889.0,未知
11,002920,416151199.64000016,416121317.24,2018-12-31,年度报告,358171809.99,2018,12,-0.840387291950595,True,0.29949109227204535,True,0.0,True,比例外推,416121317.24,436697143.0,416121317.24
12,002920,43468689.82000001,43540446.9,2019-03-31,一季度报告,16629644.83,2019,3,-0.38643212198771615,True,未知,未知,未知,未知,未知,未知,418590000.0,未知
13,002920,102209354.12999998,102236918.85000002,2019-06-30,半年度报告,46415998.18000001,2019,6,-0.6572577585917593,True,未知,未知,未知,未知,未知,未知,290950000.0,未知
14,002920,142846188.65,142736583.36999995,2019-09-30,三季度报告,58103673.36,2019,9,-0.7091234712932517,True,未知,未知,未知,未知,未知,未知,225656000.0,未知
15,002920,292216640.45000005,292146872.91000015,2019-12-31,年度报告,212455773.85000008,2019,12,-0.7637784053367148,True,0.3099899282789069,True,0.0,True,比例外推,292146872.91000015,227713332.99999997,227713332.99999997
16,002920,55247741.06,55424775.24,2020-03-31,一季度报告,43263554.74,2020,3,1.2614875306126718,False,0.768527606067641,True,0.20916516519758985,False,前期平均,357182193.26500005,393747391.0,357182193.26500005
