,SECURITYCODE_x,NETPROFIT_x,PARENTNETPROFIT_x,REPORTDATE_x,REPORTTIMETYPE_x,KCFJCXSYJLR,Year,Month,managesituationChangeRate,managesituationGreatChange,historyprofitextroplaterate,ifhistoryprofitextroplate,IfprofitdisStableChangeRage,IfprofitdisStable,predicttype,predict,analyst_prediction,adj_prediction
0,002942,42974163.67,43034046.87,2013-12-31,年度报告,35357078.870000005,2013,12,未知,未知,未知,未知,未知,未知,未知,未知,未知,未知
1,002942,144319357.21,144319357.21,2014-06-30,半年度报告,29220719.94,2014,6,未知,未知,未知,未知,未知,未知,未知,未知,未知,未知
2,002942,147123246.32000002,147123246.32000002,2014-12-31,年度报告,30463575.44,2014,12,0.0,True,未知,未知,未知,未知,未知,未知,未知,未知
3,002942,34561711.40000001,34561711.40000001,2015-06-30,半年度报告,33558163.11,2015,6,-0.7022286926661679,True,未知,未知,未知,未知,未知,未知,未知,未知
4,002942,37586608.67,37586608.67,2015-12-31,年度报告,35320624.88,2015,12,-0.7079036471467659,True,未知,未知,未知,未知,未知,未知,未知,未知
5,002942,29653704.300000004,29653704.300000004,2016-06-30,半年度报告,28176910.32,2016,6,0.2434038110161404,True,未知,未知,未知,未知,未知,未知,未知,未知
6,002942,38869348.92,38869348.92,2016-12-31,年度报告,34542615.32,2016,12,0.14333708708070042,True,0.604554226467607,True,0.0,True,比例外推,38869348.92,未知,38869348.92
7,002942,42155232.15999999,42155232.15999999,2017-06-30,半年度报告,40400792.78,2017,6,0.4492005192754281,True,0.6684534083967086,True,0.0926246944892023,True,比例外推,46232092.02980258,未知,46232092.02980258
8,002942,58924638.42,58924638.42,2017-09-30,三季度报告,54514917.87000001,2017,9,未知,未知,未知,未知,未知,未知,未知,未知,未知,未知
9,002942,76017015.24000001,76017015.24000001,2017-12-31,年度报告,74834933.47,2017,12,0.10560544140959076,True,0.579130751609281,True,0.0,True,比例外推,76017015.24000001,未知,76017015.24000001
10,002942,38456587.91,38456587.91,2018-03-31,一季度报告,36966103.71999999,2018,3,未知,未知,未知,未知,未知,未知,未知,未知,未知,未知
11,002942,87438363.47,87438363.47,2018-06-30,半年度报告,87826812.00000001,2018,6,0.019426568614110868,True,0.3129318466749403,True,0.2286948884826745,False,平均增速,151935248.3207417,未知,151935248.3207417
12,002942,128102328.53,128102328.53,2018-12-31,年度报告,129686545.09999998,2018,12,-0.4346770452072804,True,0.9885177724840267,True,0.0,True,比例外推,128102328.53,未知,128102328.53
13,002942,47575760.89,47575760.89,2019-03-31,一季度报告,42148450.52,2019,3,0.11747209010254613,True,未知,未知,未知,未知,未知,未知,176700000.0,未知
14,002942,103713860.65999998,103713860.65999998,2019-06-30,半年度报告,94813206.42,2019,6,-0.5085204941564994,True,1.435305904264607,True,0.13811323146046006,False,平均增速,167115818.44687048,222670000.0,222670000.0
15,002942,140104054.43,140104054.43,2019-09-30,三季度报告,128321153.66,2019,9,未知,未知,未知,未知,未知,未知,未知,未知,,未知
16,002942,154525130.42,154525130.42,2019-12-31,年度报告,140636682.38,2019,12,-0.6645325329903276,True,1.2300701996556243,True,0.0,True,比例外推,154525130.42,,154525130.42
17,002942,49106145.11000001,49106145.11000001,2020-03-31,一季度报告,47248774.0,2020,3,-0.09672146349144808,True,未知,未知,未知,未知,未知,未知,未知,未知
