,SECURITYCODE_x,NETPROFIT_x,PARENTNETPROFIT_x,REPORTDATE_x,REPORTTIMETYPE_x,KCFJCXSYJLR,Year,Month,managesituationChangeRate,managesituationGreatChange,historyprofitextroplaterate,ifhistoryprofitextroplate,IfprofitdisStableChangeRage,IfprofitdisStable,predicttype,predict,analyst_prediction,adj_prediction
0,002955,55504107.43,54488503.82,2015-12-31,年度报告,55524851.88,2015,12,未知,未知,未知,未知,未知,未知,未知,未知,未知,未知
1,002955,67754563.21,61762718.72,2016-12-31,年度报告,133795083.91,2016,12,0.0,True,未知,未知,未知,未知,未知,未知,未知,未知
2,002955,205003562.66,204334595.73,2017-12-31,年度报告,217128521.19,2017,12,-0.180806357529465,True,未知,未知,未知,未知,未知,未知,未知,未知
3,002955,19943199.180000003,19919827.77,2018-03-31,一季度报告,186205.31,2018,3,未知,未知,未知,未知,未知,未知,未知,未知,未知,未知
4,002955,105807106.04000002,105671005.61,2018-06-30,半年度报告,87419604.42999998,2018,6,未知,未知,未知,未知,未知,未知,未知,未知,未知,未知
5,002955,292430957.99,290269161.80999994,2018-09-30,三季度报告,,2018,9,未知,未知,未知,未知,未知,未知,未知,未知,未知,未知
6,002955,337900721.17,336231607.34000003,2018-12-31,年度报告,312824486.63000005,2018,12,-0.7292529617055777,True,2.326395808028001,False,0.0,True,比例外推,336231607.34000003,未知,336231607.34000003
7,002955,16244895.090000002,17895096.35,2019-03-31,一季度报告,5831958.51,2019,3,1.7831095166347326,False,未知,未知,未知,未知,未知,未知,未知,未知
8,002955,112556207.59,112622867.29,2019-06-30,半年度报告,93298997.3,2019,6,-0.4754217414375093,True,未知,未知,未知,未知,未知,未知,401310000.0,未知
9,002955,246586304.73,244719126.6700001,2019-09-30,三季度报告,214340208.88,2019,9,-0.8101975665931442,True,未知,未知,未知,未知,未知,未知,383335000.0,未知
10,002955,316653937.64000005,314123648.06000006,2019-12-31,年度报告,276063012.97,2019,12,-0.835738416781669,True,1.4776583289111453,True,0.0,True,比例外推,314123648.06000006,358150000.0,358150000.0
11,002955,-48127649.49999999,-47812391.82,2020-03-31,一季度报告,-72772353.48999998,2020,3,2.4167107342027156,False,未知,未知,未知,未知,未知,未知,308972500.0,未知
