,SECURITYCODE_x,NETPROFIT_x,PARENTNETPROFIT_x,REPORTDATE_x,REPORTTIMETYPE_x,KCFJCXSYJLR,Year,Month,managesituationChangeRate,managesituationGreatChange,historyprofitextroplaterate,ifhistoryprofitextroplate,IfprofitdisStableChangeRage,IfprofitdisStable,predicttype,predict,analyst_prediction,adj_prediction
0,002922,41481543.79,41207387.84,2013-12-31,年度报告,39988799.99999999,2013,12,未知,未知,未知,未知,未知,未知,未知,未知,未知,未知
1,002922,26974865.73,26091626.61000001,2014-12-31,年度报告,36015493.07,2014,12,0.0,True,未知,未知,未知,未知,未知,未知,未知,未知
2,002922,126861848.32999998,126688121.33,2015-12-31,年度报告,38841001.5,2015,12,0.5377849960478747,False,未知,未知,未知,未知,未知,未知,未知,未知
3,002922,12582356.830000002,12378060.6,2016-03-31,一季度报告,12284460.599999998,2016,3,未知,未知,未知,未知,未知,未知,未知,未知,未知,未知
4,002922,71198673.92,71629389.19,2016-12-31,年度报告,74253587.15999998,2016,12,-0.6730179771455329,True,2.7063541374584204,False,0.0,True,比例外推,71629389.19,未知,71629389.19
5,002922,17822308.2,17571105.07,2017-03-31,一季度报告,17781554.590000004,2017,3,2.2968023678279352,False,未知,未知,未知,未知,未知,未知,未知,未知
6,002922,38942807.93999999,38360100.58000001,2017-06-30,半年度报告,38155805.43999999,2017,6,未知,未知,未知,未知,未知,未知,未知,未知,未知,未知
7,002922,56496640.43,56220755.59,2017-09-30,三季度报告,54962600.0,2017,9,未知,未知,未知,未知,未知,未知,未知,未知,未知,未知
8,002922,77853793.33000001,77755536.89,2017-12-31,年度报告,74642032.8,2017,12,-0.41738319681895564,True,0.07436044308342639,True,0.0,True,比例外推,77755536.89,76555868.0,77755536.89
9,002922,1189778.24,1335056.56,2018-03-31,一季度报告,-1106399.6,2018,3,1.3275068147458027,False,未知,未知,未知,未知,未知,未知,,未知
10,002922,17246714.42,17743248.150000002,2018-06-30,半年度报告,9923029.94,2018,6,0.06519139179464134,True,未知,未知,未知,未知,未知,未知,未知,未知
11,002922,32672456.56,33837710.31,2018-09-30,三季度报告,23745019.13000001,2018,9,-0.2657697258760701,True,未知,未知,未知,未知,未知,未知,未知,未知
12,002922,39844472.11,41586140.47,2018-12-31,年度报告,28338855.27,2018,12,-0.46718660689824615,True,0.21383835157488065,True,0.0,True,比例外推,41586140.47,80515654.0,80515654.0
13,002922,1648706.9300000004,1935553.38,2019-03-31,一季度报告,-1204917.7199999995,2019,3,33.86493734328172,False,0.9217371256137138,True,0.16058242681585244,False,前期平均,61350355.76499999,未知,61350355.76499999
14,002922,18225851.32,18760309.9,2019-06-30,半年度报告,10461059.649999997,2019,6,1.4051852880393432,False,未知,未知,未知,未知,未知,未知,未知,未知
15,002922,34339755.85,34709347.49,2019-09-30,三季度报告,25102413.89,2019,9,0.26961814805149137,True,未知,未知,未知,未知,未知,未知,未知,未知
16,002922,56539820.24,57376997.1,2019-12-31,年度报告,44298964.13000001,2019,12,0.04108654458968561,True,0.46536313225636994,True,0.0,True,比例外推,57376997.1,未知,57376997.1
17,002922,-3507595.28,-3227361.79,2020-03-31,一季度报告,-5710606.310000001,2020,3,24.160046964805314,False,0.8265622307995355,True,0.1808967667033828,False,盈利变化,51369412.31333333,未知,51369412.31333333
