,SECURITYCODE_x,NETPROFIT_x,PARENTNETPROFIT_x,REPORTDATE_x,REPORTTIMETYPE_x,KCFJCXSYJLR,Year,Month,managesituationChangeRate,managesituationGreatChange,historyprofitextroplaterate,ifhistoryprofitextroplate,IfprofitdisStableChangeRage,IfprofitdisStable,predicttype,predict,analyst_prediction,adj_prediction
0,002968,31059172.03,31413859.21,2014-12-31,年度报告,24029804.21,2014,12,未知,未知,未知,未知,未知,未知,未知,未知,未知,未知
1,002968,46734809.08,49574786.63,2015-12-31,年度报告,45437947.73,2015,12,0.0,True,未知,未知,未知,未知,未知,未知,未知,未知
2,002968,29263802.24,28926101.379999995,2016-06-30,半年度报告,26405709.910000004,2016,6,未知,未知,未知,未知,未知,未知,未知,未知,未知,未知
3,002968,27657867.99,27128463.16,2016-12-31,年度报告,64259122.18,2016,12,-0.33541673451937415,True,未知,未知,未知,未知,未知,未知,未知,未知
4,002968,71337824.39,70656922.71000001,2017-12-31,年度报告,78104190.1,2017,12,0.12297781019237568,True,0.2889458131499398,True,0.0,True,比例外推,70656922.71000001,未知,70656922.71000001
5,002968,61891394.1,61192370.97,2018-09-30,三季度报告,58075470.97,2018,9,未知,未知,未知,未知,未知,未知,未知,未知,未知,未知
6,002968,88543234.91,88077934.68,2018-12-31,年度报告,83408818.21,2018,12,-0.5646184573810213,True,0.9178722207529776,True,0.0,True,比例外推,88077934.68,未知,88077934.68
7,002968,23752990.03,23513121.01,2019-03-31,一季度报告,23496121.01,2019,3,未知,未知,未知,未知,未知,未知,未知,未知,未知,未知
8,002968,47819331.50000001,47509822.65,2019-06-30,半年度报告,44101045.63,2019,6,未知,未知,未知,未知,未知,未知,未知,未知,未知,未知
9,002968,78203152.71,77667869.06,2019-09-30,三季度报告,66439969.06,2019,9,-0.4981665467121866,True,未知,未知,未知,未知,未知,未知,未知,未知
10,002968,105098798.87000002,104459561.93,2019-12-31,年度报告,84501748.3,2019,12,-0.6492202700571063,True,0.7888300547486913,True,0.0,True,比例外推,104459561.93,107538571.0,104459561.93
11,002968,24933739.11,24738432.03,2020-03-31,一季度报告,23757508.67,2020,3,0.30758999143991134,True,未知,未知,未知,未知,未知,未知,134505714.0,未知
