,SECURITYCODE_x,NETPROFIT_x,PARENTNETPROFIT_x,REPORTDATE_x,REPORTTIMETYPE_x,KCFJCXSYJLR,Year,Month,managesituationChangeRate,managesituationGreatChange,historyprofitextroplaterate,ifhistoryprofitextroplate,IfprofitdisStableChangeRage,IfprofitdisStable,predicttype,predict,analyst_prediction,adj_prediction
0,002925,62044922.39999998,62011021.63000001,2013-12-31,年度报告,56739021.63000001,2013,12,未知,未知,未知,未知,未知,未知,未知,未知,未知,未知
1,002925,117967874.71,117973920.65999997,2014-12-31,年度报告,112222666.00999998,2014,12,0.0,True,未知,未知,未知,未知,未知,未知,未知,未知
2,002925,164837766.10999998,164787695.77999997,2015-12-31,年度报告,210302291.31000003,2015,12,-0.4740523845790662,True,未知,未知,未知,未知,未知,未知,未知,未知
3,002925,43308453.17000001,43316740.93000001,2016-03-31,一季度报告,42767540.93000001,2016,3,未知,未知,未知,未知,未知,未知,未知,未知,未知,未知
4,002925,290042309.84999985,290212141.75,2016-09-30,三季度报告,286108942.22,2016,9,未知,未知,未知,未知,未知,未知,未知,未知,未知,未知
5,002925,445683429.43000007,445475709.31,2016-12-31,年度报告,464522356.57,2016,12,-0.6236000774325224,True,0.8314005310330572,True,0.0,True,比例外推,445475709.31,未知,445475709.31
6,002925,186481255.39,186905059.79,2017-03-31,一季度报告,186087890.66000003,2017,3,0.4326284560765339,True,未知,未知,未知,未知,未知,未知,未知,未知
7,002925,439451238.28,440185616.68,2017-06-30,半年度报告,431204196.58,2017,6,未知,未知,未知,未知,未知,未知,未知,未知,未知,未知
8,002925,744692137.1899999,745734071.35,2017-09-30,三季度报告,735300645.54,2017,9,-0.7860832013367721,True,未知,未知,未知,未知,未知,未知,未知,未知
9,002925,981960896.0100002,983862490.9099996,2017-12-31,年度报告,963233928.7399998,2017,12,-0.8607870109073802,True,2.151870861823923,False,0.0,True,比例外推,983862490.9099996,未知,983862490.9099996
10,002925,169625065.92999998,170540037.96000007,2018-03-31,一季度报告,166814029.51999995,2018,3,-0.6672860107561935,True,未知,未知,未知,未知,未知,未知,1434697500.0,未知
11,002925,395430826.6999999,397288270.24,2018-06-30,半年度报告,364825588.15,2018,6,-0.8588127259742353,True,未知,未知,未知,未知,未知,未知,1052820000.0,未知
12,002925,603161937.5600001,605631513.23,2018-09-30,三季度报告,557021742.22,2018,9,-0.9166837954888063,True,未知,未知,未知,未知,未知,未知,883860000.0,未知
13,002925,811952175.84,813674898.69,2018-12-31,年度报告,727324481.3100003,2018,12,-0.9368152818996083,True,2.216795430473025,False,0.0,True,比例外推,813674898.69,887992500.0,813674898.69
14,002925,155200450.35999998,154025328.90999994,2019-03-31,一季度报告,134552471.37999997,2019,3,-0.6342231493922934,True,0.47635041615198764,True,0.07946939011265126,True,比例外推,803865379.0899982,1009471000.0,1009471000.0
15,002925,418451752.12,417456976.73,2019-06-30,半年度报告,379043659.9,2019,6,-0.8430953830337781,True,未知,未知,未知,未知,未知,未知,971963421.0,未知
16,002925,653368459.9,649929987.6499999,2019-09-30,三季度报告,610624386.2500001,2019,9,-0.897133889696367,True,0.16582943437406145,True,0.09912520100606081,True,比例外推,893270881.3384999,956446667.0,893270881.3384999
17,002925,980424524.3100002,973168767.12,2019-12-31,年度报告,890793385.7600002,2019,12,-0.9235854964785188,True,0.13747123337566056,True,0.0,True,比例外推,973168767.12,956446667.0,973168767.12
18,002925,168450530.10000005,167959280.62,2020-03-31,一季度报告,158449967.38000005,2020,3,-0.6002271755263483,True,0.12834768119414738,True,0.04014930754729537,True,比例外推,838234629.7029709,1076190000.0,1076190000.0
