,SECURITYCODE_x,NETPROFIT_x,PARENTNETPROFIT_x,REPORTDATE_x,REPORTTIMETYPE_x,KCFJCXSYJLR,Year,Month,managesituationChangeRate,managesituationGreatChange,historyprofitextroplaterate,ifhistoryprofitextroplate,IfprofitdisStableChangeRage,IfprofitdisStable,predicttype,predict,analyst_prediction,adj_prediction
0,002929,68733400.0,68733400.0,2013-12-31,年度报告,94363736.34,2013,12,未知,未知,未知,未知,未知,未知,未知,未知,未知,未知
1,002929,106476800.0,106476800.0,2014-12-31,年度报告,102342247.5,2014,12,0.0,True,未知,未知,未知,未知,未知,未知,未知,未知
2,002929,31976678.83,31976678.83,2015-04-30,其他报告,,2015,4,未知,未知,未知,未知,未知,未知,未知,未知,未知,未知
3,002929,59707290.46999999,59707290.46999999,2015-06-30,半年度报告,59720110.84000002,2015,6,未知,未知,未知,未知,未知,未知,未知,未知,未知,未知
4,002929,145109728.19999996,145109728.19999996,2015-12-31,年度报告,144009641.5,2015,12,-0.35447534110717077,True,未知,未知,未知,未知,未知,未知,未知,未知
5,002929,75854266.07000001,75854266.07000001,2016-06-30,半年度报告,75479827.25999998,2016,6,0.15117265343894962,True,未知,未知,未知,未知,未知,未知,未知,未知
6,002929,178815158.75,178815158.75,2016-12-31,年度报告,171506300.63,2016,12,-0.5263349959193155,True,0.6564073119030737,True,0.0,True,比例外推,178815158.75,未知,178815158.75
7,002929,31788606.97,31788606.97,2017-03-31,一季度报告,30887327.48,2017,3,未知,未知,未知,未知,未知,未知,未知,未知,未知,未知
8,002929,239400030.68000007,239400030.68000007,2017-06-30,半年度报告,100705204.23999996,2017,6,-0.09387561753519194,True,未知,未知,未知,未知,未知,未知,未知,未知
9,002929,239400030.68000007,239400030.68000007,2017-06-30,半年度报告,100705204.23999996,2017,6,-0.09387561753519194,True,未知,未知,未知,未知,未知,未知,未知,未知
10,002929,101747972.32,101747972.32,2017-06-30,半年度报告,100705204.23999996,2017,6,-0.09387561753519194,True,未知,未知,未知,未知,未知,未知,未知,未知
11,002929,101747972.32,101747972.32,2017-06-30,半年度报告,100705204.23999996,2017,6,-0.09387561753519194,True,未知,未知,未知,未知,未知,未知,未知,未知
12,002929,146071174.69,146071174.69,2017-09-30,三季度报告,,2017,9,未知,未知,未知,未知,未知,未知,未知,未知,未知,未知
13,002929,239400030.68000007,239400030.68000007,2017-12-31,年度报告,229986346.41,2017,12,-0.6156175993104946,True,0.4215002689480257,True,0.0,True,比例外推,239400030.68000007,未知,239400030.68000007
14,002929,39146540.03,39146540.03,2018-03-31,一季度报告,38875363.04000001,2018,3,1.162202328175817,False,未知,未知,未知,未知,未知,未知,,未知
15,002929,102697159.35,102697159.35,2018-06-30,半年度报告,101557546.01,2018,6,-0.7128931027921455,True,2.5319752412161276,False,0.01619456599258684,True,比例外推,236832237.9453715,未知,236832237.9453715
16,002929,139772241.92,139772241.92,2018-09-30,三季度报告,126389327.61999996,2018,9,-0.529452678491361,True,未知,未知,未知,未知,未知,未知,未知,未知
17,002929,205877713.64000005,205877713.64000005,2018-12-31,年度报告,178122049.05999997,2018,12,-0.7128931027921455,True,0.4781206404616459,True,0.0,True,比例外推,205877713.64000005,353000000.0,353000000.0
18,002929,48061905.76999998,48061905.76999998,2019-03-31,一季度报告,45776558.22000001,2019,3,0.7557975736125356,False,未知,未知,未知,未知,未知,未知,287000000.0,未知
19,002929,87703672.26999998,87703672.26999998,2019-06-30,半年度报告,83478745.44,2019,6,-0.3307176124925601,True,0.34848050980608897,True,0.0874466648406102,True,比例外推,177162456.5461384,,177162456.5461384
20,002929,146554153.15,145652596.02,2019-09-30,三季度报告,128336391.26999998,2019,9,-0.5082471379450275,True,未知,未知,未知,未知,未知,未知,未知,未知
21,002929,245672897.56,230046221.21000004,2019-12-31,年度报告,197384519.59,2019,12,-0.66614453412773,True,0.015446024709920769,True,0.0,True,比例外推,230046221.21000004,未知,230046221.21000004
22,002929,36864343.67,40722889.11000001,2020-03-31,一季度报告,40022061.57,2020,3,0.4301014264586876,True,0.3550942742107796,True,0.06052183721275514,True,比例外推,206129121.379533,未知,206129121.379533
