,SECURITYCODE_x,NETPROFIT_x,PARENTNETPROFIT_x,REPORTDATE_x,REPORTTIMETYPE_x,KCFJCXSYJLR,Year,Month,managesituationChangeRate,managesituationGreatChange,historyprofitextroplaterate,ifhistoryprofitextroplate,IfprofitdisStableChangeRage,IfprofitdisStable,predicttype,predict,analyst_prediction,adj_prediction
0,002950,192466491.42,198425429.67,2014-12-31,年度报告,180406129.67,2014,12,未知,未知,未知,未知,未知,未知,未知,未知,未知,未知
1,002950,152599335.37,156979958.71,2015-12-31,年度报告,191159163.03,2015,12,0.0,True,未知,未知,未知,未知,未知,未知,未知,未知
2,002950,248117742.36,248134445.91,2016-12-31,年度报告,230603387.73,2016,12,0.261253798735991,True,未知,未知,未知,未知,未知,未知,未知,未知
3,002950,129181860.39,130453375.47999996,2017-06-30,半年度报告,115878975.48000002,2017,6,未知,未知,未知,未知,未知,未知,未知,未知,未知,未知
4,002950,233307588.81,233733422.76,2017-12-31,年度报告,211345805.2800001,2017,12,-0.2242937180173689,True,0.43808933308831777,True,0.0,True,比例外推,233733422.76,未知,233733422.76
5,002950,40488084.32,41094799.27,2018-03-31,一季度报告,38778377.85,2018,3,未知,未知,未知,未知,未知,未知,未知,未知,未知,未知
6,002950,86208215.64000002,86436095.74999999,2018-06-30,半年度报告,79464259.12,2018,6,0.48988790561572426,True,未知,未知,未知,未知,未知,未知,未知,未知
7,002950,226310122.15,227781022.17,2018-12-31,年度报告,205727746.29,2018,12,-0.17505258872337842,True,0.16445044035383388,True,0.0,True,比例外推,227781022.17,未知,227781022.17
8,002950,54824401.22,55397775.01000001,2019-03-31,一季度报告,45743005.72000001,2019,3,3.7536576415626275,False,未知,未知,未知,未知,未知,未知,未知,未知
9,002950,110776335.91,111814518.43999995,2019-06-30,半年度报告,101720640.64,2019,6,1.232577138862585,False,未知,未知,未知,未知,未知,未知,未知,未知
10,002950,216695663.94,217946563.1600001,2019-09-30,三季度报告,195075195.73,2019,9,未知,未知,未知,未知,未知,未知,未知,未知,未知,未知
11,002950,324197983.59999985,325812460.03,2019-12-31,年度报告,275971419.49,2019,12,-0.14954536902051696,True,0.059832927361747834,True,0.0,True,比例外推,325812460.03,未知,325812460.03
12,002950,90487384.95,91195258.97,2020-03-31,一季度报告,88093169.4,2020,3,2.5105990605837754,False,未知,未知,未知,未知,未知,未知,429470000.0,未知
