,SECURITYCODE_x,NETPROFIT_x,PARENTNETPROFIT_x,REPORTDATE_x,REPORTTIMETYPE_x,KCFJCXSYJLR,Year,Month,managesituationChangeRate,managesituationGreatChange,historyprofitextroplaterate,ifhistoryprofitextroplate,IfprofitdisStableChangeRage,IfprofitdisStable,predicttype,predict,analyst_prediction,adj_prediction
0,002948,514531000.0,514531000.0,2010-12-31,年度报告,,2010,12,未知,未知,未知,未知,未知,未知,未知,未知,未知,未知
1,002948,920028000.0,920028000.0,2012-12-31,年度报告,,2012,12,未知,未知,未知,未知,未知,未知,未知,未知,未知,未知
2,002948,1141913999.9999998,1141913999.9999998,2013-12-31,年度报告,1117125000.0,2013,12,-0.4407441947418992,True,未知,未知,未知,未知,未知,未知,未知,未知
3,002948,909684000.0,909684000.0,2014-06-30,半年度报告,,2014,6,未知,未知,未知,未知,未知,未知,未知,未知,未知,未知
4,002948,1389846583.83,1389846583.83,2014-09-30,三季度报告,,2014,9,未知,未知,未知,未知,未知,未知,未知,未知,未知,未知
5,002948,1495352000.0,1495352000.0,2014-12-31,年度报告,1467961000.0,2014,12,-0.5494135285144064,True,未知,未知,未知,未知,未知,未知,未知,未知
6,002948,1073744.0,1073744.0,2015-06-30,半年度报告,,2015,6,-0.4343849072864863,True,未知,未知,未知,未知,未知,未知,未知,未知
7,002948,1073744.0,1073744.0,2015-06-30,半年度报告,,2015,6,-0.4343849072864863,True,未知,未知,未知,未知,未知,未知,未知,未知
8,002948,1073743999.9999998,1073743999.9999998,2015-06-30,半年度报告,,2015,6,-0.4343849072864863,True,未知,未知,未知,未知,未知,未知,未知,未知
9,002948,1073743999.9999998,1073743999.9999998,2015-06-30,半年度报告,,2015,6,-0.4343849072864863,True,未知,未知,未知,未知,未知,未知,未知,未知
10,002948,1813775999.9999995,1813775999.9999995,2015-12-31,年度报告,1801502000.0,2015,12,-0.6559131227965055,True,0.45043071046615296,True,,False,平均增速,,未知,
11,002948,1261528000.0000002,1261528000.0000002,2016-06-30,半年度报告,1261551000.0,2016,6,478.19336452636753,False,未知,未知,未知,未知,未知,未知,未知,未知
12,002948,2088605000.0,2088605000.0,2016-12-31,年度报告,2091107000.0,2016,12,-0.7163205379275058,True,0.37549720050992164,True,0.0,True,比例外推,2088605000.0,未知,2088605000.0
13,002948,1278760000.0,1275799000.0,2017-06-30,半年度报告,1275902000.0,2017,6,-0.5921366786944088,True,1.7702822365461002,True,,False,平均增速,2190534366.8542237,未知,2190534366.8542237
14,002948,1903607000.0,1900252000.0,2017-12-31,年度报告,1884779000.0,2017,12,-0.7536484878663031,True,0.2623295321305192,True,0.0,True,比例外推,1900252000.0,未知,1900252000.0
15,002948,465416000.0,461455000.0,2018-03-31,一季度报告,461119000.00000006,2018,3,未知,未知,未知,未知,未知,未知,未知,未知,未知,未知
16,002948,1330876000.0000002,1321443999.9999998,2018-06-30,半年度报告,1318854000.0,2018,6,-0.5976328630861146,True,1.0255951745303462,True,,False,平均增速,1950020653.491546,未知,1950020653.491546
17,002948,1761680000.0,1754077000.0,2018-09-30,三季度报告,1246867000.0000002,2018,9,未知,未知,未知,未知,未知,未知,未知,未知,未知,未知
18,002948,2043388999.9999995,2023352000.0,2018-12-31,年度报告,2020853000.0,2018,12,-0.7297073398028059,True,0.024386906352813716,True,0.0,True,比例外推,2023352000.0,未知,2023352000.0
19,002948,525241000.0,507074000.0,2019-03-31,一季度报告,504341000.0,2019,3,0.10552924695326332,True,未知,未知,未知,未知,未知,未知,未知,未知
20,002948,1466129000.0,1438462000.0,2019-06-30,半年度报告,1434329000.0000002,2019,6,-0.6133892263441524,True,0.047815050891867564,True,0.04099537862862923,True,比例外推,2230353761.121051,未知,2230353761.121051
21,002948,1985115000.0,1946641000.0,2019-09-30,三季度报告,1940208999.9999995,2019,9,-0.7079316334408065,True,未知,未知,未知,未知,未知,未知,未知,未知
22,002948,2335521999.9999995,2284815000.0000005,2019-12-31,年度报告,2277396000.0,2019,12,-0.7481972350834813,True,0.023687619795742073,True,0.0,True,比例外推,2284815000.0000005,未知,2284815000.0000005
23,002948,574527000.0,554768000.0,2020-03-31,一季度报告,545055000.0000001,2020,3,-0.020390639725383203,True,未知,未知,未知,未知,未知,未知,,未知
