,SECURITYCODE_x,NETPROFIT_x,PARENTNETPROFIT_x,REPORTDATE_x,REPORTTIMETYPE_x,KCFJCXSYJLR,Year,Month,managesituationChangeRate,managesituationGreatChange,historyprofitextroplaterate,ifhistoryprofitextroplate,IfprofitdisStableChangeRage,IfprofitdisStable,predicttype,predict,analyst_prediction,adj_prediction
0,002965,42720394.47,42720394.47,2012-12-31,年度报告,42389694.47,2012,12,未知,未知,未知,未知,未知,未知,未知,未知,未知,未知
1,002965,57483115.26999999,57483115.26999999,2013-12-31,年度报告,55158415.27,2013,12,0.0,True,未知,未知,未知,未知,未知,未知,未知,未知
2,002965,70768276.97999999,70768276.97999999,2014-12-31,年度报告,70486576.97999999,2014,12,-0.2568183845057636,True,未知,未知,未知,未知,未知,未知,未知,未知
3,002965,14298640.390000002,14298640.390000002,2015-03-31,一季度报告,13844140.39,2015,3,未知,未知,未知,未知,未知,未知,未知,未知,未知,未知
4,002965,82974688.24000001,82974688.24000001,2015-12-31,年度报告,79093888.24000002,2015,12,-0.39633411617364483,True,0.4124909828732313,True,0.0,True,比例外推,82974688.24000001,未知,82974688.24000001
5,002965,116589468.75,116589468.75,2016-12-31,年度报告,110976511.66000004,2016,12,-0.48513943979598384,True,0.2939382065850444,True,0.0,True,比例外推,116589468.75,未知,116589468.75
6,002965,139068345.86,139068345.86,2017-12-31,年度报告,135511639.21,2017,12,-0.6335827332603744,True,0.5166803708145626,True,0.0,True,比例外推,139068345.86,未知,139068345.86
7,002965,73626146.71,73626146.71,2018-06-30,半年度报告,81450246.71000002,2018,6,未知,未知,未知,未知,未知,未知,未知,未知,未知,未知
8,002965,104984286.87,104984286.87,2018-09-30,三季度报告,113638403.03,2018,9,未知,未知,未知,未知,未知,未知,未知,未知,未知,未知
9,002965,140872708.49999997,140872708.49999997,2018-12-31,年度报告,147681463.62,2018,12,-0.6928100769027152,True,0.3937206756719205,True,0.0,True,比例外推,140872708.49999997,未知,140872708.49999997
10,002965,36940125.86,36940125.86,2019-03-31,一季度报告,36711184.24999999,2019,3,未知,未知,未知,未知,未知,未知,未知,未知,未知,未知
11,002965,82762765.46000001,82762765.46000001,2019-06-30,半年度报告,81492091.34,2019,6,-0.41976598832113454,True,未知,未知,未知,未知,未知,未知,未知,未知
12,002965,117079285.49999996,117079285.49999996,2019-09-30,三季度报告,114573795.90999998,2019,9,-0.5930782049041317,True,未知,未知,未知,未知,未知,未知,未知,未知
13,002965,151247296.62,151247296.62,2019-12-31,年度报告,145992482.42000002,2019,12,-0.6967447071552543,True,0.10204109125236774,True,0.0,True,比例外推,151247296.62,未知,151247296.62
14,002965,40020557.7,40020557.7,2020-03-31,一季度报告,35248093.1,2020,3,0.15647668965467892,True,未知,未知,未知,未知,未知,未知,未知,未知
