,SECURITYCODE_x,NETPROFIT_x,PARENTNETPROFIT_x,REPORTDATE_x,REPORTTIMETYPE_x,KCFJCXSYJLR,Year,Month,managesituationChangeRate,managesituationGreatChange,historyprofitextroplaterate,ifhistoryprofitextroplate,IfprofitdisStableChangeRage,IfprofitdisStable,predicttype,predict,analyst_prediction,adj_prediction
0,002956,60409938.11,60409938.11,2014-12-31,年度报告,52813638.10999999,2014,12,未知,未知,未知,未知,未知,未知,未知,未知,未知,未知
1,002956,66319951.6,66319951.6,2015-12-31,年度报告,57561051.6,2015,12,0.0,True,未知,未知,未知,未知,未知,未知,未知,未知
2,002956,94471761.72,94471761.72,2016-12-31,年度报告,82300300.90000002,2016,12,-0.08911365806847184,True,未知,未知,未知,未知,未知,未知,未知,未知
3,002956,36772980.78000001,36772980.78000001,2017-06-30,半年度报告,54198780.78,2017,6,未知,未知,未知,未知,未知,未知,未知,未知,未知,未知
4,002956,101246869.60999998,101246869.60999998,2017-12-31,年度报告,113896437.99,2017,12,-0.3605503167280196,True,0.49091523611647897,True,0.0,True,比例外推,101246869.60999998,未知,101246869.60999998
5,002956,39767380.98,39767380.98,2018-03-31,一季度报告,39714237.47,2018,3,未知,未知,未知,未知,未知,未知,未知,未知,未知,未知
6,002956,67944614.41,67944614.41,2018-06-30,半年度报告,64283925.26000001,2018,6,0.6427805641161294,False,未知,未知,未知,未知,未知,未知,未知,未知
7,002956,110043857.07000004,110043857.07000004,2018-09-30,三季度报告,,2018,9,未知,未知,未知,未知,未知,未知,未知,未知,未知,未知
8,002956,136851444.45,136851444.45,2018-12-31,年度报告,127564589.27,2018,12,-0.40334018876141714,True,0.259354322675862,True,0.0,True,比例外推,136851444.45,未知,136851444.45
9,002956,47962700.44000001,47962700.44000001,2019-03-31,一季度报告,45065769.66,2019,3,0.5190826406290536,False,未知,未知,未知,未知,未知,未知,未知,未知
10,002956,74959697.52999999,74959697.52999999,2019-06-30,半年度报告,68815991.17999999,2019,6,-0.11089438604409908,True,未知,未知,未知,未知,未知,未知,未知,未知
11,002956,121866020.77,121866020.77,2019-09-30,三季度报告,108709375.58,2019,9,-0.45103761610634374,True,未知,未知,未知,未知,未知,未知,150770000.0,未知
12,002956,157408244.17999998,157408244.17999998,2019-12-31,年度报告,135554992.97,2019,12,-0.5585728864405859,True,0.3984508630581583,True,0.0,True,比例外推,157408244.17999998,150770000.0,157408244.17999998
13,002956,34956511.690000005,34956511.690000005,2020-03-31,一季度报告,26227614.300000004,2020,3,0.25951911705995645,True,未知,未知,未知,未知,未知,未知,183432500.0,未知
