,SECURITYCODE_x,NETPROFIT_x,PARENTNETPROFIT_x,REPORTDATE_x,REPORTTIMETYPE_x,KCFJCXSYJLR,Year,Month,managesituationChangeRate,managesituationGreatChange,historyprofitextroplaterate,ifhistoryprofitextroplate,IfprofitdisStableChangeRage,IfprofitdisStable,predicttype,predict,analyst_prediction,adj_prediction
0,002977,18896000.0,18896000.0,2015-12-31,年度报告,17166200.0,2015,12,未知,未知,未知,未知,未知,未知,未知,未知,未知,未知
1,002977,55980500.00000001,55980500.00000001,2016-12-31,年度报告,49274899.99999999,2016,12,0.0,True,未知,未知,未知,未知,未知,未知,未知,未知
2,002977,32890039.44,32890039.44,2017-12-31,年度报告,60511241.04999999,2017,12,-0.6624538901939069,True,未知,未知,未知,未知,未知,未知,未知,未知
3,002977,39213000.0,39213000.0,2018-06-30,半年度报告,38036400.0,2018,6,未知,未知,未知,未知,未知,未知,未知,未知,未知,未知
4,002977,99554996.92,99554996.92,2018-12-31,年度报告,93244110.44,2018,12,-0.42547955789255815,True,0.1214856613223107,True,0.0,True,比例外推,99554996.92,未知,99554996.92
5,002977,12603526.609999998,12603526.609999998,2019-03-31,一季度报告,12288271.85,2019,3,未知,未知,未知,未知,未知,未知,未知,未知,未知,未知
6,002977,96076478.16,96076478.16,2019-12-31,年度报告,93292973.62,2019,12,-0.8101953635216887,True,1.240449929691571,True,0.0,True,比例外推,96076478.16,未知,96076478.16
7,002977,-2449846.86,-2449846.86,2020-03-31,一季度报告,-2496860.98,2020,3,0.4992629114622073,True,未知,未知,未知,未知,未知,未知,未知,未知
