,SECURITYCODE_x,NETPROFIT_x,PARENTNETPROFIT_x,REPORTDATE_x,REPORTTIMETYPE_x,KCFJCXSYJLR,Year,Month,managesituationChangeRate,managesituationGreatChange,historyprofitextroplaterate,ifhistoryprofitextroplate,IfprofitdisStableChangeRage,IfprofitdisStable,predicttype,predict,analyst_prediction,adj_prediction
0,002966,1627097999.9999998,1598227999.9999998,2013-12-31,年度报告,1590813000.0,2013,12,未知,未知,未知,未知,未知,未知,未知,未知,未知,未知
1,002966,1800371000.0000005,1759952999.9999995,2014-12-31,年度报告,1718105999.9999998,2014,12,0.0,True,未知,未知,未知,未知,未知,未知,未知,未知
2,002966,1840926115.0,1815012745.0,2015-12-31,年度报告,1805616745.0,2015,12,-0.09624294103826415,True,未知,未知,未知,未知,未知,未知,未知,未知
3,002966,1072292000.0,1054045000.0,2016-06-30,半年度报告,1049354000.0,2016,6,未知,未知,未知,未知,未知,未知,未知,未知,未知,未知
4,002966,1987433276.0,1949533510.0000005,2016-12-31,年度报告,1907576000.0000005,2016,12,-0.11615246981272806,True,0.07421897324235463,True,0.0,True,比例外推,1949533510.0000005,未知,1949533510.0000005
5,002966,1987433276.0,1949533510.0000005,2016-12-31,年度报告,1907575144.0,2016,12,-0.11615246981272806,True,0.07421897324235463,True,未知,未知,未知,未知,未知,未知
6,002966,1092840999.9999998,1073437000.0000002,2017-06-30,半年度报告,1073451999.9999998,2017,6,0.5174019763273434,False,未知,未知,0.0,True,未知,未知,未知,未知
7,002966,2150188084.0,2109800286.0,2017-12-31,年度报告,2041413000.0,2017,12,-0.18130685460053667,True,0.09160731092936356,True,未知,未知,未知,未知,未知,未知
8,002966,657074694.9999999,646748543.0,2018-03-31,一季度报告,613336543.0,2018,3,未知,未知,未知,未知,未知,未知,未知,未知,未知,未知
9,002966,1327487135.0,1294684259.0000002,2018-06-30,半年度报告,1257628000.0000002,2018,6,0.48886983559365005,True,未知,未知,未知,未知,未知,未知,未知,未知
10,002966,1931988686.0,1872482649.0,2018-09-30,三季度报告,,2018,9,未知,未知,未知,未知,0.0,True,未知,未知,未知,未知
11,002966,2314438371.0000005,2241963873.0,2018-12-31,年度报告,2181823000.0,2018,12,-0.2432764314398462,True,0.12329479257084722,True,未知,未知,未知,未知,未知,未知
12,002966,737385980.0,704513264.0000001,2019-03-31,一季度报告,702808000.0,2019,3,1.4762755473333211,False,未知,未知,0.02562908167129896,True,未知,未知,未知,未知
13,002966,1510174651.0,1429856328.9999998,2019-06-30,半年度报告,1421868329.0,2019,6,0.22569775412550402,True,0.2262407297842673,True,未知,未知,True,True,2377000000.0,2377000000.0
14,002966,2170924448.9999995,2057543222.0,2019-09-30,三季度报告,2045222222.0,2019,9,-0.1578118382417899,True,未知,未知,0.0,True,未知,未知,,未知
15,002966,2610550708.9999995,2473006420.0,2019-12-31,年度报告,2450067420.0000005,2019,12,-0.29697933615878536,True,0.11872893608611905,True,未知,未知,True,True,未知,True
16,002966,824088218.9999999,775389404.9999998,2020-03-31,一季度报告,781248405.0000001,2020,3,1.2065757203574712,False,未知,未知,未知,未知,未知,未知,2673000000.0,未知
