,SECURITYCODE_x,NETPROFIT_x,PARENTNETPROFIT_x,REPORTDATE_x,REPORTTIMETYPE_x,KCFJCXSYJLR,Year,Month,managesituationChangeRate,managesituationGreatChange,historyprofitextroplaterate,ifhistoryprofitextroplate,IfprofitdisStableChangeRage,IfprofitdisStable,predicttype,predict,analyst_prediction,adj_prediction
0,002981,30835242.140000004,30835242.140000004,2014-12-31,年度报告,30862542.14000001,2014,12,未知,未知,未知,未知,未知,未知,未知,未知,未知,未知
1,002981,34614948.71,34614948.71,2015-12-31,年度报告,35033548.71,2015,12,0.0,True,未知,未知,未知,未知,未知,未知,未知,未知
2,002981,36563017.62,36563017.62,2016-12-31,年度报告,34170617.62,2016,12,-0.10919289818008794,True,未知,未知,未知,未知,未知,未知,未知,未知
3,002981,39508541.65000001,39508541.65000001,2017-06-30,半年度报告,38875941.65,2017,6,未知,未知,未知,未知,未知,未知,未知,未知,未知,未知
4,002981,80542643.68999997,80542643.68999997,2017-12-31,年度报告,79779738.27000001,2017,12,-0.1566548893619463,True,0.11727764717434716,True,0.0,True,比例外推,80542643.68999997,未知,80542643.68999997
5,002981,51230075.58000001,51230075.58000001,2018-09-30,三季度报告,50297675.58000001,2018,9,未知,未知,未知,未知,未知,未知,未知,未知,未知,未知
6,002981,76920239.1,76920239.1,2018-12-31,年度报告,72325117.56,2018,12,-0.6171563195928662,True,1.2631341647661816,True,0.0,True,比例外推,76920239.1,未知,76920239.1
7,002981,4523912.11,4523912.11,2019-03-31,一季度报告,4589469.18,2019,3,未知,未知,未知,未知,未知,未知,未知,未知,未知,未知
8,002981,23238897.44,23238897.44,2019-06-30,半年度报告,23267197.44,2019,6,未知,未知,未知,未知,未知,未知,未知,未知,未知,未知
9,002981,83138239.72,83138239.72,2019-12-31,年度报告,82499365.30000001,2019,12,-0.599127063295881,True,0.3136895046666982,True,0.0,True,比例外推,83138239.72,未知,83138239.72
10,002981,3959406.98,3959406.98,2020-03-31,一季度报告,3908016.68,2020,3,5.816056853058536,False,未知,未知,未知,未知,未知,未知,未知,未知
