,SECURITYCODE_x,NETPROFIT_x,PARENTNETPROFIT_x,REPORTDATE_x,REPORTTIMETYPE_x,KCFJCXSYJLR,Year,Month,managesituationChangeRate,managesituationGreatChange,historyprofitextroplaterate,ifhistoryprofitextroplate,IfprofitdisStableChangeRage,IfprofitdisStable,predicttype,predict,analyst_prediction,adj_prediction
0,002951,201873400.0,201873400.0,2014-12-31,年度报告,201007900.0,2014,12,未知,未知,未知,未知,未知,未知,未知,未知,未知,未知
1,002951,263584100.0,263584100.0,2015-12-31,年度报告,223932700.00000003,2015,12,0.0,True,未知,未知,未知,未知,未知,未知,未知,未知
2,002951,277555075.1999999,277555075.1999999,2016-12-31,年度报告,245447346.91,2016,12,-0.23412148153094212,True,未知,未知,未知,未知,未知,未知,未知,未知
3,002951,88882200.0,88882200.0,2017-06-30,半年度报告,72548400.0,2017,6,未知,未知,未知,未知,未知,未知,未知,未知,未知,未知
4,002951,180670314.68,180670314.68,2017-12-31,年度报告,161135834.53000003,2017,12,-0.272672640359631,True,0.19261189345966034,True,0.0,True,比例外推,180670314.68,未知,180670314.68
5,002951,38711654.12000001,38711654.12000001,2018-03-31,一季度报告,36874350.27,2018,3,未知,未知,未知,未知,未知,未知,未知,未知,未知,未知
6,002951,84913419.57000001,84913419.57000001,2018-06-30,半年度报告,81390493.04,2018,6,1.2712466613112636,False,未知,未知,未知,未知,未知,未知,未知,未知
7,002951,123169439.89,123169439.89,2018-09-30,三季度报告,,2018,9,未知,未知,未知,未知,未知,未知,未知,未知,未知,未知
8,002951,195416991.39999992,195416991.39999992,2018-12-31,年度报告,175136919.63000005,2018,12,0.11735788116356864,True,0.332259341182512,True,0.0,True,比例外推,195416991.39999992,未知,195416991.39999992
9,002951,40482918.00999999,40482918.00999999,2019-03-31,一季度报告,39038302.99,2019,3,4.214796540964754,False,未知,未知,未知,未知,未知,未知,未知,未知
10,002951,58899963.98,58899963.98,2019-06-30,半年度报告,57183036.49,2019,6,1.3774027830027713,False,未知,未知,未知,未知,未知,未知,未知,未知
11,002951,112409478.51000002,112409478.51000002,2019-09-30,三季度报告,104257827.29999998,2019,9,0.638989348171826,False,未知,未知,未知,未知,未知,未知,未知,未知
12,002951,180409502.72,180409502.72,2019-12-31,年度报告,167145693.73000002,2019,12,0.033039136227332615,True,0.14707043426303498,True,0.0,True,比例外推,180409502.72,未知,180409502.72
13,002951,35298024.49,35298024.49,2020-03-31,一季度报告,38727564.64000001,2020,3,3.986631644243968,False,未知,未知,未知,未知,未知,未知,未知,未知
