,SECURITYCODE_x,NETPROFIT_x,PARENTNETPROFIT_x,REPORTDATE_x,REPORTTIMETYPE_x,KCFJCXSYJLR,Year,Month,managesituationChangeRate,managesituationGreatChange,historyprofitextroplaterate,ifhistoryprofitextroplate,IfprofitdisStableChangeRage,IfprofitdisStable,predicttype,predict,analyst_prediction,adj_prediction
0,002957,387568441.19000006,319695859.92,2014-12-31,年度报告,312306859.92,2014,12,未知,未知,未知,未知,未知,未知,未知,未知,未知,未知
1,002957,318593010.30000013,248711645.76,2015-12-31,年度报告,242765445.76,2015,12,0.0,True,未知,未知,未知,未知,未知,未知,未知,未知
2,002957,277756920.40000004,212663867.3,2016-12-31,年度报告,265817667.3,2016,12,0.21650013860960055,True,未知,未知,未知,未知,未知,未知,未知,未知
3,002957,25489320.97,23074371.719999995,2017-06-30,半年度报告,16795571.72,2017,6,未知,未知,未知,未知,未知,未知,未知,未知,未知,未知
4,002957,309454160.60999995,237530695.34000003,2017-12-31,年度报告,221795522.35,2017,12,0.3953511604026267,True,0.21333309878659307,True,0.0,True,比例外推,237530695.34000003,未知,237530695.34000003
5,002957,76484666.71000001,66030376.68999998,2018-06-30,半年度报告,54470926.16,2018,6,14.205130087465019,False,未知,未知,未知,未知,未知,未知,未知,未知
6,002957,288190054.48,243170796.65,2018-09-30,三季度报告,,2018,9,未知,未知,未知,未知,未知,未知,未知,未知,未知,未知
7,002957,345234001.35,296173720.91000015,2018-12-31,年度报告,269333847.70000005,2018,12,0.2524260149743026,True,0.03782743882190198,True,0.0,True,比例外推,296173720.91000015,未知,296173720.91000015
8,002957,52450051.99000001,42630645.43,2019-03-31,一季度报告,34479255.33,2019,3,未知,未知,未知,未知,未知,未知,未知,未知,未知,未知
9,002957,105204360.07,84734520.79,2019-06-30,半年度报告,69795354.66,2019,6,4.067269792251409,False,未知,未知,未知,未知,未知,未知,未知,未知
10,002957,249709221.44,211251157.01,2019-09-30,三季度报告,191239436.15000004,2019,9,0.34483628135368827,True,未知,未知,未知,未知,未知,未知,313150000.0,未知
11,002957,301655311.0,261699335.74,2019-12-31,年度报告,242959675.5900001,2019,12,0.12262534881980283,True,0.17584293796431547,True,0.0,True,比例外推,261699335.74,294995000.0,294995000.0
12,002957,4275988.34,1145707.13,2020-03-31,一季度报告,-9769367.2,2020,3,6.389286120515054,False,未知,未知,未知,未知,未知,未知,315923333.0,未知
