,SECURITYCODE_x,NETPROFIT_x,PARENTNETPROFIT_x,REPORTDATE_x,REPORTTIMETYPE_x,KCFJCXSYJLR,Year,Month,managesituationChangeRate,managesituationGreatChange,historyprofitextroplaterate,ifhistoryprofitextroplate,IfprofitdisStableChangeRage,IfprofitdisStable,predicttype,predict,analyst_prediction,adj_prediction
0,002982,3890785.98,4077050.81,2013-12-31,年度报告,691665.56,2013,12,未知,未知,未知,未知,未知,未知,未知,未知,未知,未知
1,002982,6228349.530000001,6059816.75,2014-06-30,半年度报告,4751014.009999999,2014,6,未知,未知,未知,未知,未知,未知,未知,未知,未知,未知
2,002982,61655999.16,61131076.44999999,2014-12-31,年度报告,56835216.42,2014,12,0.0,True,未知,未知,未知,未知,未知,未知,未知,未知
3,002982,24184943.29,23941068.260000005,2015-03-31,一季度报告,22002489.48,2015,3,未知,未知,未知,未知,未知,未知,未知,未知,未知,未知
4,002982,30733165.0,30691911.31,2015-06-30,半年度报告,27389296.08,2015,6,-0.3753102710020837,True,未知,未知,未知,未知,未知,未知,未知,未知
5,002982,84392544.69,84025549.25,2015-12-31,年度报告,79311295.78000002,2015,12,-0.9368952570227069,True,未知,未知,未知,未知,未知,未知,未知,未知
6,002982,38621765.55,38416943.93000001,2016-06-30,半年度报告,33399399.66,2016,6,-0.8734010642899942,True,未知,未知,未知,未知,未知,未知,未知,未知
7,002982,51930831.75,52195482.03999999,2016-12-31,年度报告,43460926.45,2016,12,-0.9538965675902763,True,1.5750323073739696,True,0.0,True,比例外推,52195482.03999999,未知,52195482.03999999
8,002982,-50561250.94000001,-49002364.79000001,2017-06-30,半年度报告,-59482601.66,2017,6,-0.8992592408815967,True,1.0898367418711938,True,0.3693510750381916,False,平均增速,-53073401.9036214,未知,-53073401.9036214
9,002982,60070762.36000001,59472655.40000001,2017-12-31,年度报告,45748642.83,2017,12,-0.9250775339256915,True,0.28885519319746367,True,0.0,True,比例外推,59472655.40000001,未知,59472655.40000001
10,002982,39347953.22,38779624.08,2018-06-30,半年度报告,35619667.77,2018,6,-1.076951932708649,False,2.458043445189493,False,1.2380803984618018,False,去年同期,144010868.57,未知,144010868.57
11,002982,115248454.15999998,114070707.34,2018-12-31,年度报告,110117184.74,2018,12,-0.9352299550206674,True,0.11870195811297339,True,0.0,True,比例外推,114070707.34,未知,114070707.34
12,002982,32504802.02,32796990.59,2019-03-31,一季度报告,31397515.54000001,2019,3,未知,未知,未知,未知,未知,未知,未知,未知,未知,未知
13,002982,65020679.58999999,65216374.20000001,2019-06-30,半年度报告,65044087.15,2019,6,-0.9011184658514241,True,-7.591231017872195,True,1.230790866977573,False,平均增速,197668999.5018887,未知,197668999.5018887
14,002982,229381350.42,227104319.88,2019-12-31,年度报告,227536556.92,2019,12,-0.9662400158999234,True,1.057978818530228,True,0.0,True,比例外推,227104319.88,未知,227104319.88
15,002982,107603222.45,108470338.35,2020-03-31,一季度报告,108404027.46,2020,3,-0.8803011943402693,True,未知,未知,未知,未知,未知,未知,273500000.0,未知
