,SECURITYCODE_x,NETPROFIT_x,PARENTNETPROFIT_x,REPORTDATE_x,REPORTTIMETYPE_x,KCFJCXSYJLR,Year,Month,managesituationChangeRate,managesituationGreatChange,historyprofitextroplaterate,ifhistoryprofitextroplate,IfprofitdisStableChangeRage,IfprofitdisStable,predicttype,predict,analyst_prediction,adj_prediction
0,002938,1414133632.6,1414133632.6,2014-12-31,年度报告,1071934257.5500002,2014,12,未知,未知,未知,未知,未知,未知,未知,未知,未知,未知
1,002938,1526023799.7099998,1526023799.7099998,2015-12-31,年度报告,1435655849.32,2015,12,0.0,True,未知,未知,未知,未知,未知,未知,未知,未知
2,002938,1003982479.1800002,1003982479.1800002,2016-12-31,年度报告,939744678.15,2016,12,-0.07332137751145369,True,未知,未知,未知,未知,未知,未知,未知,未知
3,002938,281755113.77,281755113.77,2017-06-30,半年度报告,178528780.76999998,2017,6,未知,未知,未知,未知,未知,未知,未知,未知,未知,未知
4,002938,844126741.96,844126741.96,2017-09-30,三季度报告,,2017,9,未知,未知,未知,未知,未知,未知,未知,未知,未知,未知
5,002938,1827321272.27,1827321272.27,2017-12-31,年度报告,1615956405.87,2017,12,0.408524214242254,True,0.31705529224589907,True,0.0,True,比例外推,1827321272.27,未知,1827321272.27
6,002938,179016082.03,179016082.03,2018-03-31,一季度报告,146275520.29000002,2018,3,未知,未知,未知,未知,未知,未知,未知,未知,未知,未知
7,002938,430314949.29,430314949.29,2018-06-30,半年度报告,359299822.35,2018,6,4.019016740027561,False,未知,未知,未知,未知,未知,未知,未知,未知
8,002938,1562118829.8499994,1562118829.8499994,2018-09-30,三季度报告,1439040224.2499995,2018,9,0.6752622115921667,False,未知,未知,未知,未知,未知,未知,2721465000.0,未知
9,002938,2771221516.470001,2771221516.470001,2018-12-31,年度报告,2608925889.1000004,2018,12,-0.22611658165436635,True,0.44451915990636054,True,0.0,True,比例外推,2771221516.470001,2721465000.0,2771221516.470001
10,002938,184925706.58,184925706.58,2019-03-31,一季度报告,156519022.73999998,2019,3,6.899478172933176,False,未知,未知,未知,未知,未知,未知,3144171429.0,未知
11,002938,609314448.49,609314448.49,2019-06-30,半年度报告,524980457.1399999,2019,6,2.2862758659285616,False,未知,未知,未知,未知,未知,未知,3079626667.0,未知
12,002938,1702283563.3100002,1702283563.3100002,2019-09-30,三季度报告,1595671285.4099998,2019,9,-0.09473363640601504,True,未知,未知,未知,未知,未知,未知,3029440588.0,未知
13,002938,2924614398.3,2924614398.3,2019-12-31,年度报告,2779672665.51,2019,12,-0.489707472248075,True,0.9575586088569769,True,0.0,True,比例外推,2924614398.3,3006528824.0,2924614398.3
14,002938,307587697.95000005,307589520.95000005,2020-03-31,一季度报告,272588613.48,2020,3,6.64703652484484,False,未知,未知,未知,未知,未知,未知,3187073158.0,未知
