,SECURITYCODE_x,NETPROFIT_x,PARENTNETPROFIT_x,REPORTDATE_x,REPORTTIMETYPE_x,KCFJCXSYJLR,Year,Month,managesituationChangeRate,managesituationGreatChange,historyprofitextroplaterate,ifhistoryprofitextroplate,IfprofitdisStableChangeRage,IfprofitdisStable,predicttype,predict,analyst_prediction,adj_prediction
0,002940,41506013.55,50127700.43,2014-12-31,年度报告,43828355.9,2014,12,未知,未知,未知,未知,未知,未知,未知,未知,未知,未知
1,002940,58097811.48999999,64027334.37,2015-12-31,年度报告,56558999.99999999,2015,12,0.0,True,未知,未知,未知,未知,未知,未知,未知,未知
2,002940,80931970.78,82187653.79,2016-12-31,年度报告,71744260.13,2016,12,-0.2855838716550594,True,未知,未知,未知,未知,未知,未知,未知,未知
3,002940,78929363.04,78254078.93,2017-09-30,三季度报告,70663346.10000001,2017,9,未知,未知,未知,未知,未知,未知,未知,未知,未知,未知
4,002940,105433449.73999998,101085352.47,2017-12-31,年度报告,90322193.27,2017,12,-0.4871493533398916,True,0.625077565997058,True,0.0,True,比例外推,101085352.47,未知,101085352.47
5,002940,36177549.34,33541472.92,2018-03-31,一季度报告,30729818.02,2018,3,未知,未知,未知,未知,未知,未知,未知,未知,未知,未知
6,002940,92249274.12999998,84494143.11,2018-06-30,半年度报告,65503793.50999999,2018,6,未知,未知,未知,未知,未知,未知,未知,未知,未知,未知
7,002940,121669140.71000002,108697464.69,2018-12-31,年度报告,86265739.19,2018,12,-0.6063297402071708,True,0.5167030835917599,True,0.0,True,比例外推,108697464.69,未知,108697464.69
8,002940,35714800.96,33607604.94,2019-03-31,一季度报告,28068738.86,2019,3,0.1472864886430694,True,未知,未知,未知,未知,未知,未知,未知,未知
9,002940,69102747.52,65207423.90000001,2019-06-30,半年度报告,58979501.03,2019,6,-0.550066773517278,True,未知,未知,未知,未知,未知,未知,未知,未知
10,002940,99340202.90999998,90404235.62,2019-09-30,三季度报告,83758145.0,2019,9,未知,未知,未知,未知,未知,未知,未知,未知,未知,未知
11,002940,126458095.36,112269989.6,2019-12-31,年度报告,103964289.04999997,2019,12,-0.6588616200641203,True,0.30570510742300483,True,0.0,True,比例外推,112269989.6,未知,112269989.6
12,002940,44118468.41,41793775.20999999,2020-03-31,一季度报告,28162927.11,2020,3,0.16215161317813476,True,未知,未知,未知,未知,未知,未知,未知,未知
