,SECURITYCODE_x,NETPROFIT_x,PARENTNETPROFIT_x,REPORTDATE_x,REPORTTIMETYPE_x,KCFJCXSYJLR,Year,Month,managesituationChangeRate,managesituationGreatChange,historyprofitextroplaterate,ifhistoryprofitextroplate,IfprofitdisStableChangeRage,IfprofitdisStable,predicttype,predict,analyst_prediction,adj_prediction
0,002976,39295276.50999999,35690586.41,2015-12-31,年度报告,31367286.41,2015,12,未知,未知,未知,未知,未知,未知,未知,未知,未知,未知
1,002976,81031713.05999999,72495608.41,2016-12-31,年度报告,62502897.08,2016,12,0.0,True,未知,未知,未知,未知,未知,未知,未知,未知
2,002976,60329909.3,51434539.38,2017-12-31,年度报告,57086143.52,2017,12,-0.515062991684456,True,未知,未知,未知,未知,未知,未知,未知,未知
3,002976,47835744.67000001,42642847.24,2018-06-30,半年度报告,42443247.23999999,2018,6,未知,未知,未知,未知,未知,未知,未知,未知,未知,未知
4,002976,95767854.94,84996031.24,2018-12-31,年度报告,84308205.63999999,2018,12,-0.34866010962161365,True,0.0027660380367647568,True,0.0,True,比例外推,84996031.24,未知,84996031.24
5,002976,23633577.04,21437411.649999995,2019-03-31,一季度报告,21231064.89,2019,3,未知,未知,未知,未知,未知,未知,未知,未知,未知,未知
6,002976,67487621.87,60556854.37,2019-09-30,三季度报告,59288061.72999999,2019,9,未知,未知,未知,未知,未知,未知,未知,未知,未知,未知
7,002976,96851999.93999995,85785034.78,2019-12-31,年度报告,84606390.46,2019,12,-0.5896819811342848,True,0.3549342932144884,True,0.0,True,比例外推,85785034.78,未知,85785034.78
8,002976,17562354.840000004,15546783.85,2020-03-31,一季度报告,11254652.71,2020,3,0.6626884894949441,False,未知,未知,未知,未知,未知,未知,未知,未知
