,SECURITYCODE_x,NETPROFIT_x,PARENTNETPROFIT_x,REPORTDATE_x,REPORTTIMETYPE_x,KCFJCXSYJLR,Year,Month,managesituationChangeRate,managesituationGreatChange,historyprofitextroplaterate,ifhistoryprofitextroplate,IfprofitdisStableChangeRage,IfprofitdisStable,predicttype,predict,analyst_prediction,adj_prediction
0,002958,565357728.7700001,565357728.7700001,2011-12-31,年度报告,,2011,12,未知,未知,未知,未知,未知,未知,未知,未知,未知,未知
1,002958,1188251006.9199994,1188251006.9199994,2012-12-31,年度报告,,2012,12,0.0,True,未知,未知,未知,未知,未知,未知,未知,未知
2,002958,1650117999.9999998,1650117999.9999998,2013-12-31,年度报告,1634308000.0000002,2013,12,-0.5242101833050973,True,未知,未知,未知,未知,未知,未知,未知,未知
3,002958,1731247000.0000002,1731247000.0000002,2014-12-31,年度报告,1680095000.0,2014,12,-0.6573834545347664,True,0.8819682708192271,True,,False,平均增速,,未知,
4,002958,1863544000.0,1863544000.0,2015-06-30,半年度报告,,2015,6,未知,未知,未知,未知,未知,未知,未知,未知,未知,未知
5,002958,1863544000.0,1863544000.0,2015-12-31,年度报告,1831253000.0,2015,12,-0.673439013167965,True,0.2198886020663178,True,,False,平均增速,,未知,
6,002958,1013517000.0,1016400999.9999998,2016-06-30,半年度报告,1000446000.0,2016,6,-0.6966222805740031,True,未知,未知,未知,未知,未知,未知,未知,未知
7,002958,1013517000.0,1016400999.9999998,2016-06-30,半年度报告,1000446000.0,2016,6,-0.6966222805740031,True,未知,未知,未知,未知,未知,未知,未知,未知
8,002958,1903766000.0,1926556000.0,2016-06-30,半年度报告,1000446000.0,2016,6,-0.6966222805740031,True,未知,未知,未知,未知,未知,未知,未知,未知
9,002958,1903766000.0,1926556000.0,2016-06-30,半年度报告,1000446000.0,2016,6,-0.6966222805740031,True,未知,未知,未知,未知,未知,未知,未知,未知
10,002958,1903766000.0,1926556000.0,2016-12-31,年度报告,1837119000.0000005,2016,12,-0.6966222805740031,True,0.10224362054968925,True,0.0,True,比例外推,1926556000.0,未知,1926556000.0
11,002958,725973605.9599999,725973605.9599999,2017-03-31,一季度报告,,2017,3,未知,未知,未知,未知,未知,未知,未知,未知,未知,未知
12,002958,1112452999.9999998,1118216999.9999998,2017-06-30,半年度报告,1101396000.0000002,2017,6,-0.44218229317317803,True,未知,未知,未知,未知,未知,未知,未知,未知
13,002958,1112452999.9999998,1118216999.9999998,2017-06-30,半年度报告,1101396000.0000002,2017,6,-0.44218229317317803,True,未知,未知,未知,未知,未知,未知,未知,未知
14,002958,2140284999.9999995,2136450000.0,2017-06-30,半年度报告,1101396000.0000002,2017,6,-0.44218229317317803,True,未知,未知,未知,未知,未知,未知,未知,未知
15,002958,2140284999.9999995,2136450000.0,2017-06-30,半年度报告,1101396000.0000002,2017,6,-0.44218229317317803,True,未知,未知,未知,未知,未知,未知,未知,未知
16,002958,1939045378.1800003,1939045378.1800003,2017-09-30,三季度报告,,2017,9,未知,未知,未知,未知,未知,未知,未知,未知,未知,未知
17,002958,2140284999.9999995,2136450000.0,2017-12-31,年度报告,2047838000.0,2017,12,-0.7030319226365005,True,0.05918035290507849,True,0.0,True,比例外推,2136450000.0,未知,2136450000.0
18,002958,683927000.0000001,682023000.0000001,2018-03-31,一季度报告,675969000.0,2018,3,-0.22124203396844916,True,未知,未知,未知,未知,未知,未知,未知,未知
19,002958,1261878999.9999998,1254435999.9999998,2018-06-30,半年度报告,1242956000.0000002,2018,6,-0.491791807141515,True,0.22667402602864536,True,,False,平均增速,2289597390.7705355,未知,2289597390.7705355
20,002958,2444092999.9999995,2444092999.9999995,2018-12-31,年度报告,2403253000.0,2018,12,-0.7358493243796971,True,0.1362404474280054,True,0.0,True,比例外推,2444092999.9999995,未知,2444092999.9999995
21,002958,2444092999.9999995,2444092999.9999995,2018-12-31,年度报告,2403253000.0,2018,12,-0.7358493243796971,True,0.1362404474280054,True,0.0,True,比例外推,2444092999.9999995,未知,2444092999.9999995
22,002958,2444092999.9999995,2419005999.9999995,2018-12-31,年度报告,2403253000.0,2018,12,-0.7358493243796971,True,0.1362404474280054,True,0.0,True,比例外推,2419005999.9999995,未知,2419005999.9999995
23,002958,2444092999.9999995,2419005999.9999995,2018-12-31,年度报告,2403253000.0,2018,12,-0.7358493243796971,True,0.1362404474280054,True,0.0,True,比例外推,2419005999.9999995,未知,2419005999.9999995
24,002958,759114000.0,760405000.0000001,2019-03-31,一季度报告,755088000.0,2019,3,-0.17336539020977385,True,未知,未知,未知,未知,未知,未知,,未知
25,002958,1422967000.0,1415964000.0000002,2019-06-30,半年度报告,1405076000.0,2019,6,-0.5519715212235086,True,0.1871089432118044,True,0.016004083976934536,True,比例外推,2646057377.7476654,未知,2646057377.7476654
26,002958,2370766000.0,2357490000.0,2019-09-30,三季度报告,2332247000.0000005,2019,9,未知,未知,未知,未知,未知,未知,未知,未知,未知,未知
27,002958,2847246999.9999995,2824798000.0,2019-12-31,年度报告,2808611000.0000005,2019,12,-0.7686840358488813,True,0.2087350035892227,True,0.0,True,比例外推,2824798000.0,2751000000.0,2824798000.0
28,002958,856322000.0,853550000.0000002,2020-03-31,一季度报告,852887000.0000002,2020,3,-0.2552400182713004,True,0.07683335518977236,True,,False,平均增速,3215751781.617937,,3215751781.617937
