,SECURITYCODE_x,NETPROFIT_x,PARENTNETPROFIT_x,REPORTDATE_x,REPORTTIMETYPE_x,KCFJCXSYJLR,Year,Month,managesituationChangeRate,managesituationGreatChange,historyprofitextroplaterate,ifhistoryprofitextroplate,IfprofitdisStableChangeRage,IfprofitdisStable,predicttype,predict,analyst_prediction,adj_prediction
0,002987,46271107.61,46271107.61,2016-12-31,年度报告,37482690.21000001,2016,12,未知,未知,未知,未知,未知,未知,未知,未知,未知,未知
1,002987,48414962.4,48414962.4,2017-12-31,年度报告,45246115.42,2017,12,0.0,True,未知,未知,未知,未知,未知,未知,未知,未知
2,002987,78029155.52000001,78029155.52000001,2018-12-31,年度报告,73176298.97,2018,12,-0.04428083145635158,True,未知,未知,未知,未知,未知,未知,未知,未知
3,002987,23052550.07,23052550.07,2019-03-31,一季度报告,22803926.33,2019,3,未知,未知,未知,未知,未知,未知,未知,未知,未知,未知
4,002987,52425695.8,52425695.8,2019-06-30,半年度报告,51151170.40999998,2019,6,未知,未知,未知,未知,未知,未知,未知,未知,未知,未知
5,002987,174698349.66,174698349.66,2019-12-31,年度报告,168822017.04,2019,12,-0.4070023275064147,True,0.6481654695724343,True,0.0,True,比例外推,174698349.66,未知,174698349.66
6,002987,24171062.510000005,24171062.510000005,2020-03-31,一季度报告,20539172.739999995,2020,3,1.0072012627451588,False,未知,未知,未知,未知,未知,未知,未知,未知
