,SECURITYCODE_x,NETPROFIT_x,PARENTNETPROFIT_x,REPORTDATE_x,REPORTTIMETYPE_x,KCFJCXSYJLR,Year,Month,managesituationChangeRate,managesituationGreatChange,historyprofitextroplaterate,ifhistoryprofitextroplate,IfprofitdisStableChangeRage,IfprofitdisStable,predicttype,predict,analyst_prediction,adj_prediction
0,002972,2938670.2099999995,2938670.2099999995,2012-12-31,年度报告,2707581.26,2012,12,未知,未知,未知,未知,未知,未知,未知,未知,未知,未知
1,002972,20832962.160000004,20832962.160000004,2013-12-31,年度报告,20535541.33,2013,12,0.0,True,未知,未知,未知,未知,未知,未知,未知,未知
2,002972,6031911.699999997,6031911.699999997,2014-06-30,半年度报告,6031911.699999997,2014,6,未知,未知,未知,未知,未知,未知,未知,未知,未知,未知
3,002972,24995010.79000001,24995010.79000001,2014-10-31,其他报告,,2014,10,未知,未知,未知,未知,未知,未知,未知,未知,未知,未知
4,002972,26698275.65,26698275.65,2014-12-31,年度报告,24579768.01,2014,12,-0.8589413167733608,True,未知,未知,未知,未知,未知,未知,未知,未知
5,002972,12148883.590000005,12148883.590000005,2015-06-30,半年度报告,12146197.660000002,2015,6,-0.5128127936620822,True,未知,未知,未知,未知,未知,未知,未知,未知
6,002972,42497542.58,42497542.58,2015-12-31,年度报告,41834028.49,2015,12,-0.8899303367556624,True,1.2462298957385394,True,0.0,True,比例外推,42497542.58,未知,42497542.58
7,002972,42497542.58,42497542.58,2015-12-31,年度报告,41834028.49,2015,12,-0.8899303367556624,True,1.2462298957385394,True,0.0,True,比例外推,42497542.58,未知,42497542.58
8,002972,42382271.67,42382271.67,2015-12-31,年度报告,41834028.49,2015,12,-0.8899303367556624,True,1.2462298957385394,True,0.0,True,比例外推,42382271.67,未知,42382271.67
9,002972,42382271.67,42382271.67,2015-12-31,年度报告,41834028.49,2015,12,-0.8899303367556624,True,1.2462298957385394,True,0.0,True,比例外推,42382271.67,未知,42382271.67
10,002972,21151370.35,21151370.35,2016-06-30,半年度报告,21107138.24,2016,6,-0.7581119130634457,True,未知,未知,未知,未知,未知,未知,61050000.0,未知
11,002972,55503248.27000001,55550895.10000001,2016-12-31,年度报告,54213723.88999999,2016,12,-0.9308508202687704,True,0.7881942292299834,True,0.0,True,比例外推,55550895.10000001,未知,55550895.10000001
12,002972,7214917.699999997,7249704.369999999,2017-03-31,一季度报告,7249704.369999999,2017,3,未知,未知,未知,未知,未知,未知,未知,未知,未知,未知
13,002972,28826130.99000001,28974055.35,2017-06-30,半年度报告,28487372.15,2017,6,-0.861064783918362,True,1.3267816410246813,True,0.08097333516385546,True,比例外推,92870566.71612947,未知,92870566.71612947
14,002972,40799792.13,41014423.59,2017-09-30,三季度报告,,2017,9,未知,未知,未知,未知,未知,未知,未知,未知,72480000.0,未知
15,002972,77878330.54000002,78196985.82000001,2017-12-31,年度报告,76992290.44999997,2017,12,-0.9470540859932268,True,0.6042370677809679,True,0.0,True,比例外推,78196985.82000001,,78196985.82000001
16,002972,14756465.36,14793208.32,2018-03-31,一季度报告,14791508.32,2018,3,-0.5926952555536427,True,未知,未知,未知,未知,未知,未知,未知,未知
17,002972,36730928.61,36844201.58,2018-06-30,半年度报告,35392149.6,2018,6,-0.8980553369781242,True,0.7312859560734032,True,0.05954995718782613,True,比例外推,102603551.15386721,未知,102603551.15386721
18,002972,95107637.12999998,95145313.81,2018-12-31,年度报告,93211809.58000004,2018,12,-0.9622658807703816,True,0.5893408586712444,True,0.0,True,比例外推,95145313.81,未知,95145313.81
19,002972,16274207.830000006,16324313.500000002,2019-03-31,一季度报告,16136806.71,2019,3,-0.800855412301798,True,未知,未知,未知,未知,未知,未知,未知,未知
20,002972,50703141.75000001,50828809.27000001,2019-06-30,半年度报告,48505028.9,2019,6,-0.9199946660428305,True,0.46989855935842956,True,0.009674052837238434,True,比例外推,130077193.38280338,未知,130077193.38280338
21,002972,86638051.7,86822219.39,2019-09-30,三季度报告,83652244.4,2019,9,未知,未知,未知,未知,未知,未知,未知,未知,未知,未知
22,002972,123828203.20000002,123899827.73,2019-12-31,年度报告,120404153.71,2019,12,-0.969101637905448,True,0.4260985359227052,True,0.0,True,比例外推,123899827.73,未知,123899827.73
23,002972,19160931.81,19185549.720000006,2020-03-31,一季度报告,19158004.73,2020,3,-0.8194277570559945,True,0.48140040028959463,True,0.034795402704831835,True,比例外推,148588919.6601705,161000000.0,148588919.6601705
