,SECURITYCODE_x,NETPROFIT_x,PARENTNETPROFIT_x,REPORTDATE_x,REPORTTIMETYPE_x,KCFJCXSYJLR,Year,Month,managesituationChangeRate,managesituationGreatChange,historyprofitextroplaterate,ifhistoryprofitextroplate,IfprofitdisStableChangeRage,IfprofitdisStable,predicttype,predict,analyst_prediction,adj_prediction
0,002901,96603324.83,96812045.26999998,2013-12-31,年度报告,94010297.45,2013,12,未知,未知,未知,未知,未知,未知,未知,未知,未知,未知
1,002901,138215345.46,139289565.05,2014-12-31,年度报告,134522234.33999997,2014,12,0.0,True,未知,未知,未知,未知,未知,未知,未知,未知
2,002901,188702655.45,188507182.24,2015-12-31,年度报告,178209627.52,2015,12,-0.3010665747099888,True,未知,未知,未知,未知,未知,未知,未知,未知
3,002901,171009513.20000005,168692924.3,2016-09-30,三季度报告,,2016,9,未知,未知,未知,未知,未知,未知,未知,未知,未知,未知
4,002901,221928351.38,219328243.5,2016-12-31,年度报告,201286983.65,2016,12,-0.4880658960541405,True,0.6072202028650706,True,0.0,True,比例外推,219328243.5,未知,219328243.5
5,002901,57586053.59000002,56465196.03999999,2017-03-31,一季度报告,53869495.69,2017,3,未知,未知,未知,未知,未知,未知,未知,未知,未知,未知
6,002901,133597084.28000005,131675908.51999998,2017-06-30,半年度报告,125498134.78000005,2017,6,未知,未知,未知,未知,未知,未知,未知,未知,未知,未知
7,002901,214631132.9,210448996.06000003,2017-09-30,三季度报告,200482186.39,2017,9,-0.43509970280413635,True,未知,未知,未知,未知,未知,未知,259033332.99999997,未知
8,002901,300595976.31,295556287.56999993,2017-12-31,年度报告,261674513.79,2017,12,-0.5647094017988284,True,0.35770040659888,True,0.0,True,比例外推,295556287.56999993,,295556287.56999993
9,002901,69988028.05,68587021.71999998,2018-03-31,一季度报告,61204298.71000002,2018,3,0.6775472324912961,False,未知,未知,未知,未知,未知,未知,383500000.0,未知
10,002901,178450769.76999998,175283424.06000003,2018-06-30,半年度报告,153259300.36,2018,6,-0.27690544033480935,True,未知,未知,未知,未知,未知,未知,372146667.0,未知
11,002901,289069387.79000014,283334316.63,2018-09-30,三季度报告,247997122.48,2018,9,-0.549910008279139,True,未知,未知,未知,未知,未知,未知,379145000.0,未知
12,002901,378084961.12,371453093.03,2018-12-31,年度报告,324695816.45000005,2018,12,-0.6786273521826038,True,0.46406857402488283,True,0.0,True,比例外推,371453093.03,379145000.0,371453093.03
13,002901,85915896.51000002,82700447.72,2019-03-31,一季度报告,73832663.91,2019,3,0.3802835645117165,True,未知,未知,未知,未知,未知,未知,464450000.0,未知
14,002901,214335299.54,207634426.46000004,2019-06-30,半年度报告,191425280.92,2019,6,-0.45865560034003094,True,未知,未知,未知,未知,未知,未知,464535000.0,未知
15,002901,353508495.33,342603281.1,2019-09-30,三季度报告,315376534.04,2019,9,-0.6658126771272672,True,0.49916452383000054,True,,False,平均增速,440091813.87051904,460500000.0,440091813.87051904
16,002901,478705286.37000006,465490905.6499999,2019-12-31,年度报告,422846292.59000015,2019,12,-0.7444930775775047,True,0.44714778273178474,True,0.0,True,比例外推,465490905.6499999,460500000.0,465490905.6499999
17,002901,89492535.97,89190527.51,2020-03-31,一季度报告,68943151.81,2020,3,0.12439407320571967,True,0.346917734472825,True,0.016207641596113126,True,比例外推,383762560.83840674,582723750.0,582723750.0
