,SECURITYCODE_x,NETPROFIT_x,PARENTNETPROFIT_x,REPORTDATE_x,REPORTTIMETYPE_x,KCFJCXSYJLR,Year,Month,managesituationChangeRate,managesituationGreatChange,historyprofitextroplaterate,ifhistoryprofitextroplate,IfprofitdisStableChangeRage,IfprofitdisStable,predicttype,predict,analyst_prediction,adj_prediction
0,003816,5242999762.790001,4574103845.25,2011-12-31,年度报告,,2011,12,未知,未知,未知,未知,未知,未知,未知,未知,未知,未知
1,003816,5150227719.2300005,4317519615.21,2012-12-31,年度报告,,2012,12,0.0,True,未知,未知,未知,未知,未知,未知,未知,未知
2,003816,5168949863.129999,4292099946.250001,2013-12-31,年度报告,,2013,12,0.018013192545565843,True,未知,未知,未知,未知,未知,未知,未知,未知
3,003816,1595762710.0099995,1370085371.4700005,2014-03-31,一季度报告,,2014,3,未知,未知,未知,未知,未知,未知,未知,未知,未知,未知
4,003816,5403229776.499999,4541752925.85,2014-09-30,三季度报告,,2014,9,未知,未知,未知,未知,未知,未知,未知,未知,未知,未知
5,003816,6763565567.899998,5628045246.59,2014-12-31,年度报告,,2014,12,0.014325907896340414,True,0.005323443161012077,True,,False,平均增速,,未知,
6,003816,1622076222.1599998,1429462639.68,2015-03-31,一季度报告,,2015,3,2.285576063346628,False,未知,未知,未知,未知,未知,未知,未知,未知
7,003816,3479782586.01,3043866347.96,2015-06-30,半年度报告,,2015,6,未知,未知,未知,未知,未知,未知,未知,未知,未知,未知
8,003816,6416065669.91,5420877751.7300005,2015-09-30,三季度报告,,2015,9,-0.029654488211269234,True,未知,未知,未知,未知,未知,未知,未知,未知
9,003816,8044356987.580002,6713620392.57,2015-12-31,年度报告,6433020174.570001,2015,12,-0.2248171899636235,True,0.310872986518208,True,,False,平均增速,,未知,
10,003816,2556805837.9100003,1959165296.53,2016-03-31,一季度报告,,2016,3,2.2322770602039177,False,未知,未知,未知,未知,未知,未知,未知,未知
11,003816,4825995225.88,3907386973.58,2016-06-30,半年度报告,,2016,6,0.5067032589532401,False,未知,未知,未知,未知,未知,未知,未知,未知
12,003816,8025981192.72,6510766491.6,2016-09-30,三季度报告,,2016,9,-0.18283259048008682,True,未知,未知,未知,未知,未知,未知,未知,未知
13,003816,9119329157.26,7364426999.049998,2016-12-31,年度报告,7245670199.999998,2016,12,-0.3482388000824834,True,0.34830866703276914,True,,False,平均增速,,未知,
14,003816,4477381082.120001,3387563833.8899994,2017-03-31,一季度报告,,2017,3,1.0506053627739544,False,0.5891446972989285,True,,False,前期平均,,未知,
15,003816,8112584051.25,6238638381.9000025,2017-06-30,半年度报告,,2017,6,0.08640798786409114,True,未知,未知,未知,未知,未知,未知,未知,未知
16,003816,11846420121.84,8811755186.270002,2017-09-30,三季度报告,,2017,9,-0.3467465675666315,True,0.35811499578984074,True,,False,平均增速,,未知,
17,003816,12724187560.67,9564092697.56,2017-12-31,年度报告,7974020391.16,2017,12,-0.4250673846314682,True,0.23168244878282276,True,,False,平均增速,,未知,
18,003816,3670693873.29,2485298070.62,2018-03-31,一季度报告,2477898565.65,2018,3,0.17099698833486077,True,1.1428607066479406,True,,False,平均增速,,未知,
19,003816,7022824387.049997,4566356980.23,2018-06-30,半年度报告,4538234351.02,2018,6,-0.3537201303964116,True,0.9534796704136639,True,,False,平均增速,,8677340000.0,
20,003816,13681677330.13,8702632650.82,2018-12-31,年度报告,8609512933.649998,2018,12,-0.5879501353001175,True,0.48268704674436513,True,0.0,True,比例外推,8702632650.82,未知,8702632650.82
21,003816,3938896658.88,2518133739.760001,2019-03-31,一季度报告,2351475846.38,2019,3,0.42834023859656856,True,0.043672542405041606,True,,False,平均增速,8769586269.392223,未知,8769586269.392223
22,003816,7425559314.79,5022584904.83,2019-06-30,半年度报告,4814095068.39,2019,6,-0.25343430593850125,True,0.08556345123044766,True,,False,平均增速,9401030595.069366,9799990000.0,9401030595.069366
23,003816,12763629677.059998,8298333285.159999,2019-09-30,三季度报告,8017696073.880002,2019,9,未知,未知,未知,未知,未知,未知,未知,未知,9746750000.0,未知
24,003816,14785240122.64,9465700355.79,2019-12-31,年度报告,9086300827.55,2019,12,-0.6167867699054862,True,0.2526991424324593,True,0.0,True,比例外推,9465700355.79,未知,9465700355.79
25,003816,2432112320.91,1532816802.6699998,2020-03-31,一季度报告,1504386148.4899998,2020,3,0.33108335070684847,True,0.03317122622571657,True,,False,平均增速,7281999540.804391,10397416667.0,10397416667.0
