,SECURITYCODE_x,NETPROFIT_x,PARENTNETPROFIT_x,REPORTDATE_x,REPORTTIMETYPE_x,KCFJCXSYJLR,Year,Month,managesituationChangeRate,managesituationGreatChange,historyprofitextroplaterate,ifhistoryprofitextroplate,IfprofitdisStableChangeRage,IfprofitdisStable,predicttype,predict,analyst_prediction,adj_prediction
0,300013,6618651.7,4912463.51,2013-12-31,年度报告,770880.5799999998,2013,12,未知,未知,未知,未知,未知,未知,未知,未知,未知,未知
1,300013,1189201.98,587231.9500000001,2014-03-31,一季度报告,492580.97,2014,3,未知,未知,未知,未知,未知,未知,未知,未知,未知,未知
2,300013,3927382.14,2638100.160000001,2014-06-30,半年度报告,2624176.69,2014,6,未知,未知,未知,未知,未知,未知,未知,未知,未知,未知
3,300013,11480663.710000005,9501462.249999998,2014-09-30,三季度报告,9848898.42,2014,9,未知,未知,未知,未知,未知,未知,未知,未知,未知,未知
4,300013,8641569.620000001,6437946.69,2014-12-31,年度报告,5783733.43,2014,12,0.0,True,未知,未知,未知,未知,未知,未知,未知,未知
5,300013,1632481.44,1122436.9200000002,2015-03-31,一季度报告,502272.08,2015,3,4.56562452073953,False,未知,未知,未知,未知,未知,未知,51000000.0,未知
6,300013,2223631.48,1301331.7799999998,2015-06-30,半年度报告,822162.32,2015,6,0.6852578802021033,False,未知,未知,未知,未知,未知,未知,63000000.0,未知
7,300013,2237570.43,969391.78,2015-09-30,三季度报告,358127.46,2015,9,-0.4234957257536466,True,未知,未知,未知,未知,未知,未知,,未知
8,300013,-108223910.21,-109745682.87,2015-12-31,年度报告,-108182839.36999996,2015,12,-0.23409149135571053,True,未知,未知,未知,未知,未知,未知,未知,未知
9,300013,5719869.68,5875674.1,2016-03-31,一季度报告,5896735.800000003,2016,3,3.054350351450244,False,未知,未知,未知,未知,未知,未知,,未知
10,300013,4928347.51,4690608.1,2016-06-30,半年度报告,-7432475.939999999,2016,6,1.9765056663076206,False,未知,未知,未知,未知,未知,未知,68650000.0,未知
11,300013,24226471.79,24439925.64,2016-09-30,三季度报告,11031191.95,2016,9,1.9579635175997563,False,未知,未知,未知,未知,未知,未知,50980000.0,未知
12,300013,60413016.04999999,60983629.40000001,2016-12-31,年度报告,33908333.47000001,2016,12,-1.0611570186953792,False,15.183793005434602,False,0.0,True,前期平均,60983629.40000001,78760000.0,78760000.0
13,300013,12183456.56,12083377.179999998,2017-03-31,一季度报告,11511774.550000004,2017,3,0.15713330377834772,True,3.0542249633376657,False,0.08945149469628438,True,比例外推,136309755.26493028,未知,136309755.26493028
14,300013,34998545.52,34809461.52,2017-06-30,半年度报告,36398570.52,2017,6,0.3429758527722004,True,0.6024505274953366,True,0.37807547575106903,False,平均增速,7971318.730704784,72370000.0,72370000.0
15,300013,71970885.91000003,71132238.08,2017-09-30,三季度报告,71286214.85,2017,9,-0.7268008417663198,True,2.5320102489517637,False,1.027903322529717,False,未知,未知,157000000.0,未知
16,300013,144429380.57,144013302.30000004,2017-12-31,年度报告,67324699.98,2017,12,-0.8904432830414861,True,-2.213327899144934,True,0.0,True,比例外推,144013302.30000004,,144013302.30000004
17,300013,6466527.510000003,6859402.11,2018-03-31,一季度报告,6161309.31,2018,3,-0.4567509091196694,True,2.3141661384637464,False,0.1180589155383537,False,未知,未知,,未知
18,300013,29813754.04000001,30016912.04000001,2018-06-30,半年度报告,27213524.01999999,2018,6,-0.8108878068599236,True,8.787094052970644,False,0.436025747322659,False,未知,未知,未知,未知
19,300013,38432116.13,37584461.83000001,2018-09-30,三季度报告,32061385.47,2018,9,-0.9080370956072895,True,4.439145336278868,False,0.5985567729376995,False,未知,未知,未知,未知
20,300013,65442388.64000001,64583671.0,2018-12-31,年度报告,57465030.08999997,2018,12,-0.954173786013074,True,-7.041693346569279,True,0.0,True,比例外推,64583671.0,250000000.0,250000000.0
21,300013,9302853.609999998,9149227.6,2019-03-31,一季度报告,7288905.449999997,2019,3,0.023524865511628752,True,0.27761719545138536,True,0.04348476887255667,True,比例外推,50226291.43897871,未知,50226291.43897871
22,300013,30713911.88,29496972.54000001,2019-06-30,半年度报告,24817492.08,2019,6,-0.7780000569160127,True,0.4934171821282839,True,0.48419840926123237,False,平均增速,64762291.25096145,未知,64762291.25096145
23,300013,22938781.86,20689534.720000006,2019-09-30,三季度报告,1319270.92,2019,9,-0.8277833133722892,True,0.20097356000454894,True,0.4114770996254734,False,平均增速,39242694.79206586,未知,39242694.79206586
24,300013,-579049294.28,-582072056.3199999,2019-12-31,年度报告,-497668838.59,2019,12,-0.8988629260400419,True,0.3610464462451961,True,0.0,True,比例外推,-582072056.3199999,未知,-582072056.3199999
25,300013,-5288528.29,-5014145.68,2020-03-31,一季度报告,-8450446.74,2020,3,-0.28853532717258334,True,0.0023740958616276678,True,0.10249982558389527,False,平均增速,1273228519.0426326,未知,1273228519.0426326
