,SECURITYCODE_x,NETPROFIT_x,PARENTNETPROFIT_x,REPORTDATE_x,REPORTTIMETYPE_x,KCFJCXSYJLR,Year,Month,managesituationChangeRate,managesituationGreatChange,historyprofitextroplaterate,ifhistoryprofitextroplate,IfprofitdisStableChangeRage,IfprofitdisStable,predicttype,predict,analyst_prediction,adj_prediction
0,300089,3599658.06,3599658.06,2013-12-31,年度报告,-3975989.99,2013,12,未知,未知,未知,未知,未知,未知,未知,未知,未知,未知
1,300089,4989962.87,4989962.87,2014-03-31,一季度报告,1590669.3300000003,2014,3,未知,未知,未知,未知,未知,未知,未知,未知,未知,未知
2,300089,8274389.22,8274389.22,2014-06-30,半年度报告,4790561.87,2014,6,未知,未知,未知,未知,未知,未知,未知,未知,未知,未知
3,300089,10291231.569999997,10291231.569999997,2014-09-30,三季度报告,6222951.770000001,2014,9,未知,未知,未知,未知,未知,未知,未知,未知,未知,未知
4,300089,8402619.450000001,8402619.450000001,2014-12-31,年度报告,4050569.24,2014,12,0.0,True,未知,未知,未知,未知,未知,未知,未知,未知
5,300089,5158505.950000001,5158505.950000001,2015-03-31,一季度报告,4254168.15,2015,3,-0.2786202715772913,True,未知,未知,未知,未知,未知,未知,未知,未知
6,300089,9206513.29,9206513.29,2015-06-30,半年度报告,9771307.53,2015,6,-0.564963894700617,True,未知,未知,未知,未知,未知,未知,未知,未知
7,300089,10353439.56,10353439.56,2015-09-30,三季度报告,9516898.510000002,2015,9,-0.6502208666168415,True,未知,未知,未知,未知,未知,未知,15100000.0,未知
8,300089,12390096.669999998,12390096.669999998,2015-12-31,年度报告,7818984.69,2015,12,-0.5716028696265663,True,未知,未知,未知,未知,未知,未知,,未知
9,300089,4760338.81,4760338.81,2016-03-31,一季度报告,4703758.69,2016,3,-0.3021898016808531,True,未知,未知,未知,未知,未知,未知,54750000.0,未知
10,300089,10913247.390000002,10913247.390000002,2016-06-30,半年度报告,10377489.48,2016,6,-0.6090096275742192,True,未知,未知,未知,未知,未知,未知,56308000.0,未知
11,300089,109453045.27,109471123.04,2016-09-30,三季度报告,110081470.88,2016,9,-0.6523224925263387,True,未知,未知,未知,未知,未知,未知,78199000.0,未知
12,300089,136760633.61,136797245.91000003,2016-12-31,年度报告,41053756.68999999,2016,12,-0.709472964104,True,1.0646242614665218,True,0.0,True,比例外推,136797245.91000003,78199000.0,78199000.0
13,300089,7305299.639999999,7312637.6400000015,2017-03-31,一季度报告,6554039.659999997,2017,3,-0.24382313871478398,True,0.06186068175750685,True,0.23587779418845567,False,平均增速,97893100.80979949,142611429.0,142611429.0
14,300089,17938159.25,17952828.14,2017-06-30,半年度报告,14581758.019999998,2017,6,-0.6701570182218696,True,0.2485908417779974,True,0.6422741593754336,False,平均增速,94575485.96611159,107950000.0,107950000.0
15,300089,49914293.63,49936158.43,2017-09-30,三季度报告,46274610.11000001,2017,9,-0.967112307829167,True,9.603515510687625,False,0.8697761288532064,False,未知,未知,118411429.0,未知
16,300089,73373245.08000001,73461776.76000002,2017-12-31,年度报告,69848237.66999999,2017,12,-0.9736791358376918,True,12.154667511518936,False,0.0,True,比例外推,73461776.76000002,123610000.0,123610000.0
17,300089,7738282.449999997,7688972.629999997,2018-03-31,一季度报告,7465228.340000003,2018,3,-0.5072538790482795,True,0.4730142101750159,True,0.2932518864051095,False,平均增速,153739726.52819037,236890000.0,236890000.0
18,300089,53116457.98000001,49494789.68,2018-06-30,半年度报告,46664924.96999999,2018,6,-0.7993295739082035,True,0.783138431445796,True,0.6792795446920269,False,平均增速,233979273.24934578,209685000.0,209685000.0
19,300089,139039709.88999996,136729588.19,2018-09-30,三季度报告,134288172.15999997,2018,9,-0.9278832214538943,True,0.1667513874424054,True,1.1610471894744239,False,平均增速,211905151.29642266,249000000.0,249000000.0
20,300089,-1671125841.7799995,-1669855929.2200005,2018-12-31,年度报告,-1671705861.1300006,2018,12,-0.9509404544384641,True,0.016119533008564595,True,0.0,True,比例外推,-1669855929.2200005,231896000.0,231896000.0
21,300089,-5197893.539999999,-5246526.69,2019-03-31,一季度报告,-7027990.249999999,2019,3,-0.5348246741755981,True,0.28269755174041333,True,0.07244647916585813,True,比例外推,-101600457.40166533,未知,-101600457.40166533
22,300089,-31265587.88000001,-31334856.78,2019-06-30,半年度报告,-35288720.300000004,2019,6,-0.9322308339657102,True,2.682070593144571,False,0.1724568723437349,False,未知,未知,未知,未知
23,300089,-34578704.5,-34832721.2,2019-09-30,三季度报告,-39225717.48,2019,9,-0.9741105755841418,True,0.7448959222095658,True,1.5935414386651734,False,平均增速,10266655685.17694,未知,10266655685.17694
24,300089,-172156580.54,-172461018.88,2019-12-31,年度报告,-279926746.64,2019,12,-1.0021540317132345,False,16.905344270976197,False,0.0,True,去年同期,-172461018.88,,-172461018.88
25,300089,-5896848.7,-5657115.16,2020-03-31,一季度报告,-6344489.09,2020,3,-1.6925224674763157,False,1.6910446606271021,True,0.05567474727472465,True,前期平均,-813595560.8900002,未知,-813595560.8900002
