,SECURITYCODE_x,NETPROFIT_x,PARENTNETPROFIT_x,REPORTDATE_x,REPORTTIMETYPE_x,KCFJCXSYJLR,Year,Month,managesituationChangeRate,managesituationGreatChange,historyprofitextroplaterate,ifhistoryprofitextroplate,IfprofitdisStableChangeRage,IfprofitdisStable,predicttype,predict,analyst_prediction,adj_prediction
0,300085,14446722.9,14446722.9,2013-12-31,年度报告,12277076.89,2013,12,未知,未知,未知,未知,未知,未知,未知,未知,未知,未知
1,300085,1462568.4499999997,1462568.4499999997,2014-03-31,一季度报告,,2014,3,未知,未知,未知,未知,未知,未知,未知,未知,未知,未知
2,300085,2708300.98,2708300.98,2014-06-30,半年度报告,2660171.7299999995,2014,6,未知,未知,未知,未知,未知,未知,未知,未知,未知,未知
3,300085,3376933.42,3376933.42,2014-09-30,三季度报告,3328345.17,2014,9,未知,未知,未知,未知,未知,未知,未知,未知,未知,未知
4,300085,28207788.77,27686672.11000001,2014-12-31,年度报告,27358587.410000004,2014,12,0.0,True,未知,未知,未知,未知,未知,未知,未知,未知
5,300085,5538639.56,5034367.34,2015-03-31,一季度报告,5110264.5600000005,2015,3,8.877638820938605,False,未知,未知,未知,未知,未知,未知,未知,未知
6,300085,13007367.230000002,10387765.61,2015-06-30,半年度报告,12200507.53,2015,6,4.334238331221222,False,未知,未知,未知,未知,未知,未知,97180000.0,未知
7,300085,45395814.50000001,40963648.33000001,2015-09-30,三季度报告,42835788.75,2015,9,3.278059737405187,False,未知,未知,未知,未知,未知,未知,74746667.0,未知
8,300085,78234837.49999999,72960653.41,2015-12-31,年度报告,74794234.04,2015,12,-0.487846317277992,True,未知,未知,未知,未知,未知,未知,75460000.0,未知
9,300085,8727241.4,6043074.739999997,2016-03-31,一季度报告,6031289.14,2016,3,1.608352239480267,False,未知,未知,未知,未知,未知,未知,124432000.0,未知
10,300085,20115144.96,15262948.28,2016-06-30,半年度报告,15250711.39,2016,6,0.11065695651924773,True,未知,未知,未知,未知,未知,未知,138536667.0,未知
11,300085,58590899.41999999,50367860.21,2016-09-30,三季度报告,46865879.20999999,2016,9,-0.6817609055125556,True,未知,未知,未知,未知,未知,未知,113794000.0,未知
12,300085,93753366.68,80796778.02,2016-12-31,年度报告,78200858.75000001,2016,12,-0.8153415618713339,True,2.668303044014194,False,0.0,True,比例外推,80796778.02,113794000.0,113794000.0
13,300085,12482715.65,6863940.05,2017-03-31,一季度报告,6836956.020000001,2017,3,0.6553596076762583,False,1.4930673071089058,True,,False,前期平均,,150300000.0,
14,300085,16397923.43,10098741.3,2017-06-30,半年度报告,10139029.81,2017,6,-0.2817987178949965,True,1.5598841476177994,True,0.05455788957067065,True,比例外推,66755519.64808497,105600000.0,105600000.0
15,300085,39666506.71000001,26865690.74,2017-09-30,三季度报告,26895347.26,2017,9,-0.7534306002636885,True,1.402608092375861,True,0.30956793658006876,False,平均增速,65463752.686418936,,65463752.686418936
16,300085,24807589.27,22238457.43,2017-12-31,年度报告,16246828.649999995,2017,12,-0.8459071560671553,True,0.7615756011541338,True,0.0,True,比例外推,22238457.43,96000000.0,96000000.0
17,300085,-14628464.739999998,-15964291.670000006,2018-03-31,一季度报告,-17713364.19,2018,3,0.15733813899702184,True,0.7500097869875958,True,0.232061946483065,False,平均增速,-25205605.082784474,,-25205605.082784474
18,300085,3195346.6199999987,1281561.04,2018-06-30,半年度报告,-2207197.3,2018,6,-0.11899070869121624,True,0.009862335565797723,True,0.29666115637009943,False,平均增速,2530480.7006792007,56000000.0,56000000.0
19,300085,4383535.67,3637002.8499999987,2018-09-30,三季度报告,-39991.859999999986,2018,9,-0.6357954330181047,True,0.23708510030393673,True,0.7129420908250915,False,平均增速,308461.1877983045,,308461.1877983045
20,300085,21673803.750000007,35750737.69,2018-12-31,年度报告,1200754.63,2018,12,-0.41764906123020473,True,0.7115198755835977,True,0.0,True,比例外推,35750737.69,138000000.0,138000000.0
21,300085,-28723231.4,-26021350.11000001,2019-03-31,一季度报告,-26855078.55,2019,3,-1.9875761507970797,False,2.3793959794935087,False,10.000554494784653,False,去年同期,-7107231.29000001,41860000.0,41860000.0
22,300085,-25289896.61,-22623049.65,2019-06-30,半年度报告,-34265268.050000004,2019,6,3.5211755149117456,False,0.8249751795236621,True,1.4984773647686789,False,盈利变化,14378690.52333333,,14378690.52333333
23,300085,1188117.37,1150928.1,2019-09-30,三季度报告,-18701231.969999995,2019,9,2.2956781893826816,False,0.910774447593287,True,0.9149489994405543,False,前期平均,11494158.56500001,未知,11494158.56500001
24,300085,7401599.02,4917894.1000000015,2019-12-31,年度报告,-18185297.38,2019,12,-0.3334477387246807,True,0.634385475786137,True,0.0,True,比例外推,4917894.1000000015,未知,4917894.1000000015
25,300085,-15969107.91,-15271142.68,2020-03-31,一季度报告,-18455344.69,2020,3,-1.5029630092385775,False,-25.772218181390468,True,10.467094869254694,False,前期平均,-1109146.955000002,未知,-1109146.955000002
