,SECURITYCODE_x,NETPROFIT_x,PARENTNETPROFIT_x,REPORTDATE_x,REPORTTIMETYPE_x,KCFJCXSYJLR,Year,Month,managesituationChangeRate,managesituationGreatChange,historyprofitextroplaterate,ifhistoryprofitextroplate,IfprofitdisStableChangeRage,IfprofitdisStable,predicttype,predict,analyst_prediction,adj_prediction
0,300020,141276133.53,145655555.52999997,2013-12-31,年度报告,132800630.06,2013,12,未知,未知,未知,未知,未知,未知,未知,未知,未知,未知
1,300020,27942286.259999994,29256604.050000004,2014-03-31,一季度报告,23596647.26,2014,3,未知,未知,未知,未知,未知,未知,未知,未知,未知,未知
2,300020,90036260.47999999,89864267.64999998,2014-06-30,半年度报告,83042720.88999999,2014,6,未知,未知,未知,未知,未知,未知,未知,未知,未知,未知
3,300020,131246773.76000002,132268337.07999998,2014-09-30,三季度报告,125454536.54000002,2014,9,未知,未知,未知,未知,未知,未知,未知,未知,未知,未知
4,300020,176404081.79,175291268.94,2014-12-31,年度报告,146844383.4,2014,12,0.0,True,未知,未知,未知,未知,未知,未知,未知,未知
5,300020,41878509.3,43330414.15,2015-03-31,一季度报告,41654198.42,2015,3,4.055997645126124,False,未知,未知,未知,未知,未知,未知,261949248.0,未知
6,300020,108507769.43,109044872.08,2015-06-30,半年度报告,102048832.87999998,2015,6,0.5691026346144403,False,未知,未知,未知,未知,未知,未知,246194675.0,未知
7,300020,138001300.44,139243578.42000002,2015-09-30,三季度报告,113926779.11,2015,9,0.07641604804960639,True,未知,未知,未知,未知,未知,未知,221925000.0,未知
8,300020,108618180.25999998,111209966.75,2015-12-31,年度报告,79401310.57000001,2015,12,-0.19913342085710925,True,未知,未知,未知,未知,未知,未知,222082000.0,未知
9,300020,36059282.51000001,37091068.03999999,2016-03-31,一季度报告,35652898.690000005,2016,3,2.373475701294841,False,未知,未知,未知,未知,未知,未知,219333332.99999997,未知
10,300020,200710180.88,202165551.18,2016-06-30,半年度报告,79654175.60000001,2016,6,0.301990947488229,True,未知,未知,未知,未知,未知,未知,332175000.0,未知
11,300020,233996278.46,236898105.54,2016-09-30,三季度报告,111741564.45000002,2016,9,0.023730450941828848,True,未知,未知,未知,未知,未知,未知,310645000.0,未知
12,300020,150863773.26,153377346.60000002,2016-12-31,年度报告,5283393.29,2016,12,0.3006674682988289,True,0.31617913220948535,True,0.0,True,比例外推,153377346.60000002,287482864.0,287482864.0
13,300020,32566828.61,33571951.95,2017-03-31,一季度报告,33404870.58,2017,3,2.9178853181790596,False,0.03290952848031453,True,4.270305781262895,False,前期平均,114069376.09500001,163666667.0,163666667.0
14,300020,82171306.57999998,84393035.94000001,2017-06-30,半年度报告,82232074.46000001,2017,6,-0.2961187473869811,True,1.0218203586477208,True,9.43397144802696,False,平均增速,34713631.57998543,169476000.0,169476000.0
15,300020,120639292.01,122887663.48999998,2017-09-30,三季度报告,120214949.37,2017,9,-0.39624623750522536,True,0.7381463481605839,True,13.336668929640094,False,平均增速,49460318.16390036,174960000.0,174960000.0
16,300020,135705643.34,138654236.34,2017-12-31,年度报告,79889151.95999998,2017,12,-0.06355163683647608,True,0.05861045502147306,True,0.0,True,比例外推,138654236.34,,138654236.34
17,300020,53019202.41999999,53603110.69000001,2018-03-31,一季度报告,52076383.77,2018,3,3.338037799806507,False,0.16428659694663222,True,4.184489535595965,False,前期平均,57291914.06500001,215000000.0,215000000.0
18,300020,90546716.48,92322525.83,2018-06-30,半年度报告,90014950.69,2018,6,0.7192879048656358,False,0.4685217562717762,True,9.27936743642831,False,前期平均,43813373.52000001,,43813373.52000001
19,300020,9727242.05,12361116.15,2018-09-30,三季度报告,-87695016.38,2018,9,0.17106235602153047,True,0.3513974345385181,True,13.1198571817327,False,平均增速,-126040787.84582114,未知,-126040787.84582114
20,300020,23071614.2,26444095.70000001,2018-12-31,年度报告,123141898.92,2018,12,0.041048331173992265,True,0.04597365249556962,True,0.0,True,比例外推,26444095.70000001,252860000.0,252860000.0
21,300020,59615231.58000001,60141193.91000001,2019-03-31,一季度报告,57272426.28999999,2019,3,1.664622006397961,False,0.5451612091872818,True,4.218391553346379,False,前期平均,68198581.9,168500000.0,168500000.0
22,300020,123827582.31,125547788.89000005,2019-06-30,半年度报告,120056676.54,2019,6,0.5602568378192392,False,0.35982578928708797,True,9.464115104570084,False,前期平均,87190936.48500003,229000000.0,229000000.0
23,300020,133756664.64,135774128.79000002,2019-09-30,三季度报告,129097200.67,2019,9,13.523760466102516,False,0.9451423215268088,True,13.835513330792523,False,前期平均,62382144.504999995,,62382144.504999995
24,300020,144901562.92,148813913.73,2019-12-31,年度报告,131459353.14999998,2019,12,5.123374476762879,False,0.8389806248431326,True,0.0,True,前期平均,148813913.73,未知,148813913.73
25,300020,56409437.13999999,55621880.44000001,2020-03-31,一季度报告,52291758.22,2020,3,1.3697992909818026,False,0.39310658205667753,True,0.010098410653062828,True,前期平均,114396778.70500001,202000000.0,202000000.0
