,SECURITYCODE_x,NETPROFIT_x,PARENTNETPROFIT_x,REPORTDATE_x,REPORTTIMETYPE_x,KCFJCXSYJLR,Year,Month,managesituationChangeRate,managesituationGreatChange,historyprofitextroplaterate,ifhistoryprofitextroplate,IfprofitdisStableChangeRage,IfprofitdisStable,predicttype,predict,analyst_prediction,adj_prediction
0,300046,40172351.86000001,40172351.86000001,2013-12-31,年度报告,37198096.70999999,2013,12,未知,未知,未知,未知,未知,未知,未知,未知,未知,未知
1,300046,7685656.12,7685656.12,2014-03-31,一季度报告,7637106.12,2014,3,未知,未知,未知,未知,未知,未知,未知,未知,未知,未知
2,300046,23454684.750000004,23454684.750000004,2014-06-30,半年度报告,21126960.27,2014,6,未知,未知,未知,未知,未知,未知,未知,未知,未知,未知
3,300046,34097875.66,34097875.66,2014-09-30,三季度报告,31448629.14,2014,9,未知,未知,未知,未知,未知,未知,未知,未知,未知,未知
4,300046,43902563.78,43902563.78,2014-12-31,年度报告,39202365.6,2014,12,0.0,True,未知,未知,未知,未知,未知,未知,未知,未知
5,300046,6245703.18,6245703.18,2015-03-31,一季度报告,6084780.95,2015,3,4.226925487267313,False,未知,未知,未知,未知,未知,未知,未知,未知
6,300046,15708918.310000002,15708918.310000002,2015-06-30,半年度报告,13900888.529999996,2015,6,0.7127645196766075,False,未知,未知,未知,未知,未知,未知,未知,未知
7,300046,18211408.96,18211408.96,2015-09-30,三季度报告,15864653.43,2015,9,0.17814823012936082,True,未知,未知,未知,未知,未知,未知,30000000.0,未知
8,300046,28735996.2,28735996.2,2015-12-31,年度报告,23958240.14,2015,12,-0.08496569673453348,True,未知,未知,未知,未知,未知,未知,,未知
9,300046,5727707.3199999975,5727707.3199999975,2016-03-31,一季度报告,5046239.06,2016,3,5.431998239788271,False,未知,未知,未知,未知,未知,未知,未知,未知
10,300046,10259342.2,10259342.2,2016-06-30,半年度报告,7943844.19,2016,6,1.5572958664141148,False,未知,未知,未知,未知,未知,未知,未知,未知
11,300046,28055057.67,28055057.67,2016-09-30,三季度报告,25594504.41,2016,9,1.2058892833737125,False,未知,未知,未知,未知,未知,未知,未知,未知
12,300046,38543465.71000001,38543465.71000001,2016-12-31,年度报告,34622441.12,2016,12,0.3979801354511596,True,0.3164192677148907,True,0.0,True,比例外推,38543465.71000001,,38543465.71000001
13,300046,12702887.159999998,12702887.159999998,2017-03-31,一季度报告,12338698.569999995,2017,3,6.01368795848319,False,0.17772455699997672,True,0.05579533343997886,True,前期平均,37422246.495000005,未知,37422246.495000005
14,300046,26997991.800000004,26997991.800000004,2017-06-30,半年度报告,26512298.53,2017,6,2.9156849510293172,False,0.47607771510285557,True,0.22008322788527385,False,前期平均,41064370.27000001,未知,41064370.27000001
15,300046,53288252.64999999,53288252.64999999,2017-09-30,三季度报告,51991044.21999999,2017,9,0.4319112201632485,True,0.07266072835082879,True,0.07236660086897051,True,比例外推,72077041.31633902,69619200.0,72077041.31633902
16,300046,53387828.67,53387828.67,2017-12-31,年度报告,8159964.73,2017,12,0.042261019345164595,True,0.0612398076341933,True,0.0,True,比例外推,53387828.67,未知,53387828.67
17,300046,23188976.37,23188976.37,2018-03-31,一季度报告,23110380.96,2018,3,2.1624583729672375,False,1.1218494362988727,True,0.8748263054195804,False,前期平均,46913806.995000005,未知,46913806.995000005
18,300046,47134231.29,47134231.29,2018-06-30,半年度报告,46025699.26000001,2018,6,0.48797555601894804,True,1.0793069131144513,True,1.8961617186563096,False,平均增速,23492631.907500625,未知,23492631.907500625
19,300046,74787872.56000002,74787872.56000002,2018-09-30,三季度报告,71527141.86999999,2018,9,-0.24613118535047304,True,1.3035367310909771,True,3.7805108547003448,False,平均增速,26219548.86063187,未知,26219548.86063187
20,300046,85771178.12999998,85771733.25,2018-12-31,年度报告,58738839.87,2018,12,-0.24753725969428894,True,0.587046838793601,True,0.0,True,比例外推,85771733.25,,85771733.25
21,300046,23021123.45,23020569.93,2019-03-31,一季度报告,20688413.24,2019,3,0.7323900468487995,False,1.5163568538349181,True,0.8283368150242182,False,前期平均,35719304.04,129670000.0,129670000.0
22,300046,43543470.97,43542977.12000001,2019-06-30,半年度报告,38962871.64000001,2019,6,-0.14770325598748069,True,1.5301988215259845,True,1.828377803014076,False,平均增速,72551804.27526164,119050000.0,119050000.0
23,300046,72801359.04,72800469.11000001,2019-09-30,三季度报告,66142399.34,2019,9,-0.462849383397409,True,0.8388204823676033,True,3.595332465383259,False,平均增速,43120298.46813668,,43120298.46813668
24,300046,-221456627.21,-220028922.1,2019-12-31,年度报告,-268444990.47,2019,12,-0.5316334375270867,True,0.8659843464286044,True,0.0,True,比例外推,-220028922.1,未知,-220028922.1
25,300046,-308153.08,-70123.45999999999,2020-03-31,一季度报告,-1390800.92,2020,3,0.7450213473400235,False,0.28280457941438064,True,0.9026095268220745,False,盈利变化,-249467874.31333333,,-249467874.31333333
