,SECURITYCODE_x,NETPROFIT_x,PARENTNETPROFIT_x,REPORTDATE_x,REPORTTIMETYPE_x,KCFJCXSYJLR,Year,Month,managesituationChangeRate,managesituationGreatChange,historyprofitextroplaterate,ifhistoryprofitextroplate,IfprofitdisStableChangeRage,IfprofitdisStable,predicttype,predict,analyst_prediction,adj_prediction
0,300056,49527669.45999999,49537526.88000001,2013-12-31,年度报告,41413955.71999999,2013,12,未知,未知,未知,未知,未知,未知,未知,未知,未知,未知
1,300056,3423560.53,3681253.139999999,2014-03-31,一季度报告,3096425.350000001,2014,3,未知,未知,未知,未知,未知,未知,未知,未知,未知,未知
2,300056,14734581.11,14899376.309999995,2014-06-30,半年度报告,13472391.52,2014,6,未知,未知,未知,未知,未知,未知,未知,未知,未知,未知
3,300056,31304282.06,31351751.31,2014-09-30,三季度报告,28248128.06,2014,9,未知,未知,未知,未知,未知,未知,未知,未知,未知,未知
4,300056,61107241.88999999,58652541.28,2014-12-31,年度报告,50923138.63999999,2014,12,0.0,True,未知,未知,未知,未知,未知,未知,未知,未知
5,300056,14414650.2,14528951.510000002,2015-03-31,一季度报告,14010381.28,2015,3,13.466713535805367,False,未知,未知,未知,未知,未知,未知,127333333.0,未知
6,300056,31983344.64,31321174.86,2015-06-30,半年度报告,29392752.48999999,2015,6,2.361321851653236,False,未知,未知,未知,未知,未知,未知,,未知
7,300056,52697852.07000001,50679376.06,2015-09-30,三季度报告,45339877.21,2015,9,0.5821372093783133,False,未知,未知,未知,未知,未知,未知,156666667.0,未知
8,300056,71103084.38,68873239.97,2015-12-31,年度报告,60015510.55000002,2015,12,-0.18949591033489208,True,未知,未知,未知,未知,未知,未知,112500000.0,未知
9,300056,115235772.04,114467817.59,2016-03-31,一季度报告,9287804.339999998,2016,3,2.4359258652006686,False,未知,未知,未知,未知,未知,未知,183952000.0,未知
10,300056,177625532.09999996,176066812.61999995,2016-06-30,半年度报告,55815409.48999999,2016,6,0.5485456576689033,False,未知,未知,未知,未知,未知,未知,180590000.0,未知
11,300056,190670207.38,187526767.5,2016-09-30,三季度报告,170870515.8,2016,9,-0.06015771963132337,True,未知,未知,未知,未知,未知,未知,177108750.0,未知
12,300056,-113938950.70000002,-112992489.85999995,2016-12-31,年度报告,-234953552.87,2016,12,-0.3034385232107986,True,0.2853643305242274,True,0.0,True,比例外推,-112992489.85999995,161970000.0,161970000.0
13,300056,-18772435.0,-18315377.039999995,2017-03-31,一季度报告,-19004067.88,2017,3,-0.5702057739257544,True,11.920104351744028,False,0.14853884534073347,False,未知,未知,未知,未知
14,300056,-61724428.81,-60188990.96,2017-06-30,半年度报告,-60415888.77999999,2017,6,-0.7211680726613289,True,6.604170315716551,False,0.4098115097514853,False,未知,未知,-114980000.0,未知
15,300056,-61724428.81,-60188990.96,2017-06-30,半年度报告,-60415888.77999999,2017,6,-0.7211680726613289,True,6.604170315716551,False,0.4098115097514853,False,未知,未知,-114980000.0,未知
16,300056,-188712359.2,-187176921.35,2017-06-30,半年度报告,-60415888.77999999,2017,6,-0.7211680726613289,True,6.604170315716551,False,0.4098115097514853,False,未知,未知,-114980000.0,未知
17,300056,-188712359.2,-187176921.35,2017-06-30,半年度报告,-60415888.77999999,2017,6,-0.7211680726613289,True,6.604170315716551,False,0.4098115097514853,False,未知,未知,-114980000.0,未知
18,300056,-67955398.67000002,-64561034.49000001,2017-09-30,三季度报告,-65193947.92,2017,9,-0.7402443195475588,True,3.5396515065896454,False,0.9215649449579807,False,未知,未知,,未知
19,300056,-67955398.67000002,-64561034.49000001,2017-09-30,三季度报告,-65193947.92,2017,9,-0.7402443195475588,True,3.5396515065896454,False,0.9215649449579807,False,未知,未知,,未知
20,300056,-194943329.06,-191548964.88,2017-09-30,三季度报告,-65193947.92,2017,9,-0.7402443195475588,True,3.5396515065896454,False,0.9215649449579807,False,未知,未知,,未知
21,300056,-194943329.06,-191548964.88,2017-09-30,三季度报告,-65193947.92,2017,9,-0.7402443195475588,True,3.5396515065896454,False,0.9215649449579807,False,未知,未知,,未知
22,300056,33603375.120000005,42108591.29000001,2017-12-31,年度报告,31610746.70000001,2017,12,-1.4346860240130332,False,2.7236013844684694,False,0.0,True,盈利变化,-24137723.336666614,,-24137723.336666614
23,300056,-42070191.81,-38765661.53999999,2018-03-31,一季度报告,-39517147.59,2018,3,-3.6383188680637324,False,1.2895854047470783,True,0.46543193877540157,False,前期平均,-137883775.51,未知,-137883775.51
24,300056,-36417640.94,-33027487.11000001,2018-06-30,半年度报告,-37402088.18,2018,6,-1.8023998020695493,False,1.5889486148677123,True,1.3582279081997253,False,前期平均,-163100589.26,未知,-163100589.26
25,300056,-43074539.20999999,-39210515.35,2018-09-30,三季度报告,-44880403.81,2018,9,-1.7288261187387421,False,1.5584578257605037,True,1.4335297307745232,False,前期平均,-234784733.015,未知,-234784733.015
26,300056,-432651067.03999984,-429359100.51000017,2018-12-31,年度报告,-441125607.78,2018,12,0.473889729324308,True,-2.568936408054417,True,0.0,True,比例外推,-429359100.51000017,未知,-429359100.51000017
27,300056,-23284833.219999995,-21098649.31,2019-03-31,一季度报告,-22126897.77,2019,3,-2.1772627442175665,False,1.8722524660857411,True,0.417477446226421,False,前期平均,-117911920.625,未知,-117911920.625
28,300056,-41330984.2,-38036780.23999999,2019-06-30,半年度报告,-42551793.19000001,2019,6,-2.359991152134194,False,1.6284261306620735,True,1.2232396545397368,False,前期平均,-137407943.67999998,未知,-137407943.67999998
29,300056,23752757.260000005,27918419.930000003,2019-09-30,三季度报告,-22099757.61,2019,9,-2.149813099997176,False,1.7020267506881566,True,1.1664282599077045,False,盈利变化,-419234368.8655557,未知,-419234368.8655557
30,300056,-10076190.8,-20125698.37,2019-12-31,年度报告,3616157.97,2019,12,-1.1144748579931758,False,-9.771095219431295,True,0.0,True,前期平均,-20125698.37,未知,-20125698.37
31,300056,1082762.96,1867097.86,2020-03-31,一季度报告,-38594.18,2020,3,-3.1270356112089,False,-0.23458816816985506,True,3.908728739818319,False,盈利变化,9325373.083333332,未知,9325373.083333332
