,SECURITYCODE_x,NETPROFIT_x,PARENTNETPROFIT_x,REPORTDATE_x,REPORTTIMETYPE_x,KCFJCXSYJLR,Year,Month,managesituationChangeRate,managesituationGreatChange,historyprofitextroplaterate,ifhistoryprofitextroplate,IfprofitdisStableChangeRage,IfprofitdisStable,predicttype,predict,analyst_prediction,adj_prediction
0,300040,9075162.069999997,9075162.069999997,2013-12-31,年度报告,-4050347.430000001,2013,12,未知,未知,未知,未知,未知,未知,未知,未知,未知,未知
1,300040,2795202.7,2795202.7,2014-03-31,一季度报告,2850801.2,2014,3,未知,未知,未知,未知,未知,未知,未知,未知,未知,未知
2,300040,6128248.739999997,6128248.739999997,2014-06-30,半年度报告,4361295.859999999,2014,6,未知,未知,未知,未知,未知,未知,未知,未知,未知,未知
3,300040,4689657.89,4689657.89,2014-09-30,三季度报告,2932911.92,2014,9,未知,未知,未知,未知,未知,未知,未知,未知,未知,未知
4,300040,-55723243.67000002,-55723243.67000002,2014-12-31,年度报告,-71014468.17,2014,12,0.0,True,未知,未知,未知,未知,未知,未知,未知,未知
5,300040,-6025367.560000001,-6025367.560000001,2015-03-31,一季度报告,-9162575.41,2015,3,2.246691937582915,False,未知,未知,未知,未知,未知,未知,未知,未知
6,300040,-16962715.98,-16962715.98,2015-06-30,半年度报告,-22453549.14,2015,6,0.48087364841525676,True,未知,未知,未知,未知,未知,未知,未知,未知
7,300040,-27473445.78,-27473445.78,2015-09-30,三季度报告,-38539022.05,2015,9,0.9351437317744296,False,未知,未知,未知,未知,未知,未知,未知,未知
8,300040,20104030.610000007,20098885.6,2015-12-31,年度报告,12029834.470000004,2015,12,-1.1628613388650566,False,未知,未知,未知,未知,未知,未知,未知,未知
9,300040,10185138.439999998,10182815.649999997,2016-03-31,一季度报告,6236394.749999999,2016,3,-2.506159081521658,False,未知,未知,未知,未知,未知,未知,111070000.0,未知
10,300040,23466100.79,23463778.0,2016-06-30,半年度报告,16703223.55,2016,6,-1.5350064270780768,False,未知,未知,未知,未知,未知,未知,80886733.0,未知
11,300040,41475198.1,41473382.86000001,2016-09-30,三季度报告,31434740.49,2016,9,-1.3303248577798161,False,未知,未知,未知,未知,未知,未知,122360000.0,未知
12,300040,130516231.05999996,130514415.81999998,2016-12-31,年度报告,119626255.87,2016,12,-0.5485899198001672,True,-1.8619445825184802,True,0.0,True,比例外推,130514415.81999998,116143333.0,116143333.0
13,300040,22714821.65,22714821.65,2017-03-31,一季度报告,20257587.6,2017,3,-0.10897999831212911,True,-7.306265396002106,True,0.5117656726128298,False,平均增速,550264021.885533,221490000.0,221490000.0
14,300040,76596899.83,76596899.83,2017-06-30,半年度报告,71530686.69,2017,6,-0.6132650178564243,True,-5.331749825845612,True,1.270397153273438,False,平均增速,608668510.5493175,,608668510.5493175
15,300040,98924333.83,98924333.83,2017-09-30,三季度报告,91158850.02,2017,9,-0.7811906275138443,True,-4.640764064363839,True,2.20957167045164,False,平均增速,493877039.2625641,未知,493877039.2625641
16,300040,100105551.60999995,100105551.60999995,2017-12-31,年度报告,92211049.64,2017,12,-0.9304671764094381,True,-8.328417438091483,True,0.0,True,比例外推,100105551.60999995,205390000.0,205390000.0
17,300040,23955393.74,23955393.74,2018-03-31,一季度报告,21029430.67,2018,3,-0.6004739896339887,True,9.921188837208275,False,0.5983760567352105,False,未知,未知,未知,未知
18,300040,50108962.79,50108962.79,2018-06-30,半年度报告,41920454.04,2018,6,-0.8815205042222138,True,22.556010313958343,False,1.549444525864584,False,未知,未知,未知,未知
19,300040,54910271.77,54719052.05,2018-09-30,三季度报告,43745237.03,2018,9,-0.9082615801528113,True,13.130279063527958,False,2.552868146015098,False,未知,未知,未知,未知
20,300040,45389315.87,45122291.52,2018-12-31,年度报告,28123404.91,2018,12,-0.9093440680956856,True,0.32924416011605756,True,0.0,True,比例外推,45122291.52,未知,45122291.52
21,300040,26468025.44,25885611.88000001,2019-03-31,一季度报告,21020996.43,2019,3,-0.6211641449730562,True,0.4562567051430123,True,0.4078971568270121,False,平均增速,31339128.6502584,未知,31339128.6502584
22,300040,36867437.64,33908659.8,2019-06-30,半年度报告,22638406.780000005,2019,6,-0.8188914404787663,True,0.0015482741776687032,True,0.6886076010679537,False,平均增速,26472461.913324844,未知,26472461.913324844
23,300040,46277355.27,42337690.84,2019-09-30,三季度报告,27327203.27,2019,9,-0.8347274238959754,True,0.21779978871472294,True,0.67283815492894,False,平均增速,33256738.16054851,未知,33256738.16054851
24,300040,55598927.3,50328181.37000001,2019-12-31,年度报告,30845689.100000005,2019,12,-0.8000595096874281,True,0.6063744253078795,True,0.0,True,比例外推,50328181.37000001,未知,50328181.37000001
25,300040,17788523.279999994,15873772.510000005,2020-03-31,一季度报告,12524059.119999995,2020,3,-0.657127348219747,True,0.13425769385548153,True,0.32995668249473864,False,平均增速,22243522.378313594,未知,22243522.378313594
