,SECURITYCODE_x,NETPROFIT_x,PARENTNETPROFIT_x,REPORTDATE_x,REPORTTIMETYPE_x,KCFJCXSYJLR,Year,Month,managesituationChangeRate,managesituationGreatChange,historyprofitextroplaterate,ifhistoryprofitextroplate,IfprofitdisStableChangeRage,IfprofitdisStable,predicttype,predict,analyst_prediction,adj_prediction
0,300088,263529876.0600001,263529876.0600001,2013-12-31,年度报告,248882126.71,2013,12,未知,未知,未知,未知,未知,未知,未知,未知,未知,未知
1,300088,47450583.22,47450583.22,2014-03-31,一季度报告,44505473.1,2014,3,未知,未知,未知,未知,未知,未知,未知,未知,未知,未知
2,300088,115025417.40999998,115025417.40999998,2014-06-30,半年度报告,104382496.95000003,2014,6,未知,未知,未知,未知,未知,未知,未知,未知,未知,未知
3,300088,167954641.45,167951063.79000002,2014-09-30,三季度报告,151589005.95000002,2014,9,未知,未知,未知,未知,未知,未知,未知,未知,未知,未知
4,300088,164888883.35999998,165692295.85,2014-12-31,年度报告,143660381.53,2014,12,0.0,True,未知,未知,未知,未知,未知,未知,未知,未知
5,300088,43323905.79999999,42367208.49999999,2015-03-31,一季度报告,39916243.99,2015,3,4.553775278971168,False,未知,未知,未知,未知,未知,未知,360250000.0,未知
6,300088,103879588.87000002,102895354.63999996,2015-06-30,半年度报告,91625877.17,2015,6,1.2910577678728732,False,未知,未知,未知,未知,未知,未知,234420269.99999997,未知
7,300088,174278818.1,171246986.92,2015-09-30,三季度报告,158033869.26,2015,9,0.5690538456387513,False,未知,未知,未知,未知,未知,未知,218353783.0,未知
8,300088,240543673.94000003,237714531.06,2015-12-31,年度报告,202084720.58,2015,12,0.5982270647357006,False,未知,未知,未知,未知,未知,未知,224761429.0,未知
9,300088,44396618.19,44010981.12000001,2016-03-31,一季度报告,42151278.26000001,2016,3,5.0827820390099765,False,未知,未知,未知,未知,未知,未知,396718000.0,未知
10,300088,138429940.12999997,136533513.67,2016-06-30,半年度报告,124099965.8,2016,6,1.536878311963616,False,未知,未知,未知,未知,未知,未知,340005000.0,未知
11,300088,234609184.32,230226314.03,2016-09-30,三季度报告,216154291.9,2016,9,0.5121164977650264,False,未知,未知,未知,未知,未知,未知,307970000.0,未知
12,300088,390849027.6300002,383571875.68000007,2016-12-31,年度报告,346226095.33,2016,12,0.09555937075166493,True,0.12293716673682432,True,0.0,True,比例外推,383571875.68000007,391000000.0,383571875.68000007
13,300088,109959199.42999998,105077462.67999998,2017-03-31,一季度报告,102724590.46,2017,3,4.935809681093192,False,0.0218260952101142,True,0.10010852743244131,False,前期平均,235739155.19,948000000.0,948000000.0
14,300088,302833922.32999986,299583051.35,2017-06-30,半年度报告,275036821.35,2017,6,0.9037057721221176,False,0.2647489656123726,True,0.2137815638675825,False,前期平均,374451415.345,693209763.0,693209763.0
15,300088,459949657.92,457457337.3299999,2017-09-30,三季度报告,426428499.05,2017,9,0.12327177993404184,True,0.3710476154405577,True,0.23468226116621893,False,平均增速,687214524.4704963,681702500.0,687214524.4704963
16,300088,547974366.0200001,544401919.1299999,2017-12-31,年度报告,509739028.7900001,2017,12,-0.32575020677940025,True,0.928059405159173,True,0.0,True,比例外推,544401919.1299999,690694000.0,690694000.0
17,300088,142987138.79,141770542.38,2018-03-31,一季度报告,134404573.91,2018,3,1.3966150847411654,False,1.5070347149895087,True,0.05185210501509033,True,前期平均,374892189.21,884500000.0,884500000.0
18,300088,369694670.74000007,364152308.34,2018-06-30,半年度报告,341768405.15999985,2018,6,-0.1297874622750153,True,1.4995626344517377,True,0.09203162507270846,True,比例外推,781080499.1811874,885863333.0,885863333.0
19,300088,618664857.0499997,608098884.39,2018-09-30,三季度报告,582087251.5,2018,9,-0.4270462614283836,True,1.2497586390297202,True,0.12331647989724848,False,平均增速,731306869.6859895,842000000.0,842000000.0
20,300088,725782795.1600003,712021433.45,2018-12-31,年度报告,411146120.5000001,2018,12,-0.5190835695946009,True,0.7357640170924535,True,0.0,True,比例外推,712021433.45,844000000.0,844000000.0
21,300088,173644444.23000002,170392703.05,2019-03-31,一季度报告,165250206.55,2019,3,0.8430320257476921,False,0.8526951687951548,True,0.11017852558590702,False,前期平均,525937330.75000006,961000000.0,961000000.0
22,300088,449036576.59,441170521.55,2019-06-30,半年度报告,429781703.81,2019,6,-0.2871688533337389,True,0.6756172539441186,True,0.2548384486074353,False,平均增速,524317981.6004585,928708000.0,928708000.0
23,300088,720617718.15,712006669.4999999,2019-09-30,三季度报告,695888092.4200001,2019,9,-0.5740345147183592,True,0.7814613231465402,True,0.4568856258242191,False,平均增速,512438741.59920764,920354286.0,920354286.0
24,300088,859586315.3699999,845436642.8100003,2019-12-31,年度报告,727114273.5899999,2019,12,-0.636902558427409,True,0.5461540478625462,True,0.0,True,比例外推,845436642.8100003,922913333.0,845436642.8100003
25,300088,197533084.76,192854351.6,2020-03-31,一季度报告,184260026.17,2020,3,0.5176407009656048,False,0.37297456410673824,True,0.07500399190567714,True,前期平均,534732344.06000006,1144264286.0,1144264286.0
26,300088,501148395.8800001,491352266.47,2020-06-30,半年度报告,458540179.02,2020,6,-0.4131215811833069,True,0.33536798648280564,True,0.17729097403125493,False,平均增速,841380762.5195923,1132407143.0,1132407143.0
