,SECURITYCODE_x,NETPROFIT_x,PARENTNETPROFIT_x,REPORTDATE_x,REPORTTIMETYPE_x,KCFJCXSYJLR,Year,Month,managesituationChangeRate,managesituationGreatChange,historyprofitextroplaterate,ifhistoryprofitextroplate,IfprofitdisStableChangeRage,IfprofitdisStable,predicttype,predict,analyst_prediction,adj_prediction
0,300045,12221553.510000002,14347252.830000002,2013-12-31,年度报告,-30300854.70000001,2013,12,未知,未知,未知,未知,未知,未知,未知,未知,未知,未知
1,300045,-3600024.3200000008,-1667978.9799999997,2014-03-31,一季度报告,-2432978.9800000004,2014,3,未知,未知,未知,未知,未知,未知,未知,未知,未知,未知
2,300045,2541870.48,7006536.270000001,2014-06-30,半年度报告,-7546122.069999997,2014,6,未知,未知,未知,未知,未知,未知,未知,未知,未知,未知
3,300045,19718173.86,26725953.58000001,2014-09-30,三季度报告,7589127.010000003,2014,9,未知,未知,未知,未知,未知,未知,未知,未知,未知,未知
4,300045,42333841.5,47021126.45,2014-12-31,年度报告,23601470.5,2014,12,0.0,True,未知,未知,未知,未知,未知,未知,未知,未知
5,300045,3988514.5,4749581.180000002,2015-03-31,一季度报告,3431211.0699999994,2015,3,-4.394853040881679,False,未知,未知,未知,未知,未知,未知,94884200.0,未知
6,300045,9503189.409999998,10339825.61,2015-06-30,半年度报告,8229739.11,2015,6,3.808094513926611,False,未知,未知,未知,未知,未知,未知,64260000.0,未知
7,300045,18748591.63,20600641.510000005,2015-09-30,三季度报告,15949354.140000002,2015,9,-0.380188368518625,True,未知,未知,未知,未知,未知,未知,43593333.0,未知
8,300045,28790290.14,31311981.809999995,2015-12-31,年度报告,27436238.77,2015,12,-0.7113053510629315,True,未知,未知,未知,未知,未知,未知,46193333.0,未知
9,300045,6230632.02,7700594.200000001,2016-03-31,一季度报告,5400139.99,2016,3,2.064186806892642,False,未知,未知,未知,未知,未知,未知,65898333.0,未知
10,300045,12138951.14,14261810.919999998,2016-06-30,半年度报告,9148388.8,2016,6,0.2860475554806398,True,未知,未知,未知,未知,未知,未知,57723750.0,未知
11,300045,21739374.28,23637782.5,2016-09-30,三季度报告,17873991.72,2016,9,-0.34813484920947085,True,未知,未知,未知,未知,未知,未知,58550000.0,未知
12,300045,49271524.7,51026371.42,2016-12-31,年度报告,30168399.68,2016,12,-0.5754973829520427,True,0.055451624343394075,True,0.0,True,比例外推,51026371.42,78554000.0,78554000.0
13,300045,8398026.319999997,8401030.37,2017-03-31,一季度报告,6768967.72,2017,3,0.9615270923992078,False,31.07613649333433,False,0.1700776575398869,False,去年同期,33169290.059999995,91194000.0,91194000.0
14,300045,19896183.5,20103132.3,2017-06-30,半年度报告,17381105.19,2017,6,0.006804737003002801,True,1.0155900013544892,True,0.414221611344625,False,平均增速,51958328.338571176,99540000.0,99540000.0
15,300045,27810541.9,28005803.87,2017-09-30,三季度报告,22195595.08,2017,9,-0.43781484450342695,True,0.13029385252843645,True,0.17689735276259594,False,平均增速,42591968.06512606,90690000.0,90690000.0
16,300045,81500235.73,81317102.86,2017-12-31,年度报告,75677163.83000003,2017,12,-0.7519550372266032,True,0.3855079440376561,True,0.0,True,比例外推,81317102.86,90000000.0,81317102.86
17,300045,-8883588.290000001,-8919410.209999999,2018-03-31,一季度报告,-9235059.52,2018,3,0.455288783853205,True,0.64358663486508,True,0.04783105749253411,True,比例外推,-70090253.44919744,159406000.0,159406000.0
18,300045,6449186.6099999985,6456529.3500000015,2018-06-30,半年度报告,5217003.740000001,2018,6,-0.3857337760279502,True,0.8386520921101774,True,0.0479513537214325,True,比例外推,20031025.203499276,121327143.0,121327143.0
19,300045,49015578.03,48343178.39000002,2018-09-30,三季度报告,46674101.06,2018,9,-0.5605424175499435,True,0.37376829262401445,True,0.19573733624630357,False,平均增速,152816505.77490503,124147500.0,124147500.0
20,300045,119404966.76,118070393.02,2018-12-31,年度报告,113848015.34000003,2018,12,-0.8500427219561859,True,1.088094823238419,True,0.0,True,比例外推,118070393.02,147170000.0,147170000.0
21,300045,10137663.62,10206910.92,2019-03-31,一季度报告,10126374.599999998,2019,3,-2.3757451506118823,False,2.2145458706502272,False,0.14356002538640822,False,前期平均,57045138.820000015,155265000.0,155265000.0
22,300045,20232215.23,20127056.97,2019-06-30,半年度报告,19761340.63,2019,6,0.8950534771391899,False,0.5973679097981778,True,0.14708996425223236,False,前期平均,59785091.73000001,154333333.0,154333333.0
23,300045,41349132.28,41304664.72,2019-09-30,三季度报告,41588252.44,2019,9,-0.750659810590833,True,0.9784323288031848,True,0.16056209225224571,False,平均增速,138622059.45090234,111000000.0,111000000.0
24,300045,-147164172.56,-147549739.89000002,2019-12-31,年度报告,-149582628.64,2019,12,-0.8976461880805602,True,0.8261582832161312,True,0.0,True,比例外推,-147549739.89000002,161550000.0,161550000.0
25,300045,21056209.87,20730810.130000006,2020-03-31,一季度报告,17894294.41,2020,3,0.20555918682178592,True,-42.756415231612586,True,0.10923519982086309,False,平均增速,-127986470.92969342,142553333.0,142553333.0
