,SECURITYCODE_x,NETPROFIT_x,PARENTNETPROFIT_x,REPORTDATE_x,REPORTTIMETYPE_x,KCFJCXSYJLR,Year,Month,managesituationChangeRate,managesituationGreatChange,historyprofitextroplaterate,ifhistoryprofitextroplate,IfprofitdisStableChangeRage,IfprofitdisStable,predicttype,predict,analyst_prediction,adj_prediction
0,300002,514463034.2699999,517544171.71,2013-12-31,年度报告,504629185.09,2013,12,未知,未知,未知,未知,未知,未知,未知,未知,未知,未知
1,300002,66614972.77,67608454.66000001,2014-03-31,一季度报告,-178671952.33999997,2014,3,未知,未知,未知,未知,未知,未知,未知,未知,未知,未知
2,300002,217949596.1,219912946.57999995,2014-06-30,半年度报告,213185201.84,2014,6,未知,未知,未知,未知,未知,未知,未知,未知,未知,未知
3,300002,369142280.81,373124443.24,2014-09-30,三季度报告,363423141.97,2014,9,未知,未知,未知,未知,未知,未知,未知,未知,未知,未知
4,300002,624271781.09,633118638.7599999,2014-12-31,年度报告,607486640.3999999,2014,12,0.0,True,未知,未知,未知,未知,未知,未知,未知,未知
5,300002,30639704.35,38448439.93999999,2015-03-31,一季度报告,36511774.15,2015,3,6.72293394228764,False,未知,未知,未知,未知,未知,未知,919050000.0,未知
6,300002,89785145.38,109734636.63000004,2015-06-30,半年度报告,104066421.28,2015,6,1.3604679406423545,False,未知,未知,未知,未知,未知,未知,1100926500.0,未知
7,300002,158078297.78,179112735.60999998,2015-09-30,三季度报告,170165827.40000007,2015,9,0.3936713863855587,True,未知,未知,未知,未知,未知,未知,,未知
8,300002,293776460.87,351341166.79,2015-12-31,年度报告,255414502.32,2015,12,-0.17589894361117886,True,未知,未知,未知,未知,未知,未知,967064286.0,未知
9,300002,3116009.53,14989967.69,2016-03-31,一季度报告,8232574.48,2016,3,15.790731019896407,False,未知,未知,未知,未知,未知,未知,472750000.0,未知
10,300002,223949287.83,244609193.82000005,2016-06-30,半年度报告,84779834.24,2016,6,4.729934858295598,False,未知,未知,未知,未知,未知,未知,592257665.0,未知
11,300002,325583150.14000005,350289590.54,2016-09-30,三季度报告,183052337.96,2016,9,2.25448237673957,False,未知,未知,未知,未知,未知,未知,603038999.0,未知
12,300002,469059073.7600001,507331705.2899999,2016-12-31,年度报告,326075880.02000004,2016,12,0.7512057730781114,False,0.484030071080025,True,0.0,True,前期平均,507331705.2899999,608659125.0,608659125.0
13,300002,16953108.990000002,18732778.08,2017-03-31,一季度报告,7165065.590000003,2017,3,164.10316458178482,False,0.9359206236188469,True,0.2521439452210085,False,前期平均,521263438.5349999,604020000.0,604020000.0
14,300002,7089132.48,15318240.06,2017-06-30,半年度报告,-54614193.45,2017,6,1.2972300526382072,False,0.45546964735247286,True,0.07945684362813643,True,前期平均,288142999.8599999,529600000.0,529600000.0
15,300002,-53981980.94,-36651212.74,2017-09-30,三季度报告,-112956312.13000004,2017,9,0.5801279459602929,False,0.23509272346971127,True,0.05761596414237258,True,盈利变化,375772305.2499999,531000000.0,531000000.0
16,300002,97057891.6,119550096.2,2017-12-31,年度报告,54576722.16,2017,12,0.09679795797582483,True,0.021861493375502417,True,0.0,True,比例外推,119550096.2,691750000.0,691750000.0
17,300002,-49419194.75,-46202801.23,2018-03-31,一季度报告,-46703497.76999999,2018,3,29.346235287784808,False,0.0044586258947162715,True,0.07458016699221057,True,盈利变化,47725345.05333334,未知,47725345.05333334
18,300002,-143144056.07000002,-135949869.38,2018-06-30,半年度报告,-147349762.73,2018,6,71.57066160371711,False,0.9548080686747263,True,0.8896049335945642,False,盈利变化,57726383.34666668,未知,57726383.34666668
19,300002,-164891910.92999998,-153502511.51999998,2018-09-30,三季度报告,-165509780.97999996,2018,9,-10.530273348838687,False,1.2232221781254267,True,1.7889907265899938,False,前期平均,-39366403.030000016,未知,-39366403.030000016
20,300002,78843063.99000001,80247586.31999998,2018-12-31,年度报告,62547641.32999998,2018,12,4.300579126427263,False,0.745533900312926,True,0.0,True,前期平均,80247586.31999998,,80247586.31999998
21,300002,-108707443.5,-105702992.32,2019-03-31,一季度报告,-119469764.59,2019,3,-11.410186504910625,False,5.9248993871605276,False,0.5499684285294372,False,去年同期,3548146.7799999714,未知,3548146.7799999714
22,300002,-220870859.45000005,-217485190.68000007,2019-06-30,半年度报告,-228597939.35,2019,6,-4.5940230310256,False,2.2391363815415106,False,1.3236382265562097,False,去年同期,-7587786.620000094,未知,-7587786.620000094
23,300002,-298485640.61999995,-296566903.64000005,2019-09-30,三季度报告,-307998406.22,2019,9,-4.12000165058673,False,2.2142209211815125,False,1.9461926300854473,False,去年同期,-68509481.3300001,未知,-68509481.3300001
24,300002,-1469479358.4,-1474177938.3699994,2019-12-31,年度报告,-1479650812.5400002,2019,12,5.525152730432335,False,0.7214601617181254,True,0.0,True,盈利变化,-433818564.97,未知,-433818564.97
25,300002,6750748.849999999,14481926.649999995,2020-03-31,一季度报告,12364679.350000005,2020,3,-5.732546527690166,False,-5.696676914094372,True,0.5684665767301191,False,盈利变化,-1298398679.7833328,未知,-1298398679.7833328
