,SECURITYCODE_x,NETPROFIT_x,PARENTNETPROFIT_x,REPORTDATE_x,REPORTTIMETYPE_x,KCFJCXSYJLR,Year,Month,managesituationChangeRate,managesituationGreatChange,historyprofitextroplaterate,ifhistoryprofitextroplate,IfprofitdisStableChangeRage,IfprofitdisStable,predicttype,predict,analyst_prediction,adj_prediction
0,300086,14426930.47,14852935.990000002,2013-12-31,年度报告,11516758.35,2013,12,未知,未知,未知,未知,未知,未知,未知,未知,未知,未知
1,300086,8985076.52,10061405.99,2014-03-31,一季度报告,9406550.52,2014,3,未知,未知,未知,未知,未知,未知,未知,未知,未知,未知
2,300086,21734855.619999994,22459254.63,2014-06-30,半年度报告,19822964.66,2014,6,未知,未知,未知,未知,未知,未知,未知,未知,未知,未知
3,300086,35381557.61,36177205.69,2014-09-30,三季度报告,33829074.06,2014,9,未知,未知,未知,未知,未知,未知,未知,未知,未知,未知
4,300086,61653706.6,62092446.78999999,2014-12-31,年度报告,51248079.63,2014,12,0.0,True,未知,未知,未知,未知,未知,未知,未知,未知
5,300086,-8857102.51,-6786307.370000001,2015-03-31,一季度报告,-10374943.169999998,2015,3,0.6056547140012561,False,未知,未知,未知,未知,未知,未知,88673333.0,未知
6,300086,17635282.54,18748648.470000006,2015-06-30,半年度报告,5897763.58,2015,6,-0.3362306737973167,True,未知,未知,未知,未知,未知,未知,74060000.0,未知
7,300086,29472563.71,31020528.93,2015-09-30,三季度报告,11490280.11,2015,9,-0.592247163648825,True,未知,未知,未知,未知,未知,未知,,未知
8,300086,66874929.92999999,68197183.18,2015-12-31,年度报告,35907451.349999994,2015,12,-0.7660005980889396,True,未知,未知,未知,未知,未知,未知,50350000.0,未知
9,300086,17000931.080000002,18347917.680000003,2016-03-31,一季度报告,12596788.85,2016,3,-2.6288544085056547,False,未知,未知,未知,未知,未知,未知,,未知
10,300086,20436226.32,24043177.32,2016-06-30,半年度报告,11087598.420000002,2016,6,-0.18192802200491417,True,未知,未知,未知,未知,未知,未知,未知,未知
11,300086,26493792.95,32844732.25,2016-09-30,三季度报告,12582977.66,2016,9,-0.5104962495982336,True,未知,未知,未知,未知,未知,未知,未知,未知
12,300086,38677709.24,46156625.12999999,2016-12-31,年度报告,1403759.54,2016,12,-0.7842699725427585,True,0.7580013129614027,True,0.0,True,比例外推,46156625.12999999,60190000.0,60190000.0
13,300086,14963144.27,15028611.27,2017-03-31,一季度报告,6669799.520000001,2017,3,-0.15140350830714625,True,264.69349635914404,False,6.017534591691112,False,未知,未知,,未知
14,300086,30902791.72000001,31840887.879999995,2017-06-30,半年度报告,14489846.64,2017,6,-0.29405114994831394,True,0.038158730200402335,True,5.08198406569767,False,平均增速,23722304.438561134,未知,23722304.438561134
15,300086,40062250.51000001,41224197.41,2017-09-30,三季度报告,17284717.559999995,2017,9,-0.45545998275041244,True,0.18297272676702733,True,5.649146229504579,False,平均增速,31478516.127145536,未知,31478516.127145536
16,300086,53374990.99000002,55537644.57,2017-12-31,年度报告,28379455.510000005,2017,12,-0.6269962530490341,True,0.39814643204478095,True,0.0,True,比例外推,55537644.57,55050000.0,55537644.57
17,300086,25454732.63000001,25500429.50000001,2018-03-31,一季度报告,16881966.520000003,2018,3,-0.03583563656971937,True,2.674719854767276,False,6.0003769972546195,False,未知,未知,64220000.0,未知
18,300086,43375629.62000001,43476978.66000001,2018-06-30,半年度报告,29917996.25,2018,6,-0.5331512246298764,True,0.6234077737049275,True,5.0407270095895615,False,平均增速,128152741.13470808,,128152741.13470808
19,300086,48330827.42,45463381.14000001,2018-09-30,三季度报告,29061568.78,2018,9,-0.6398871684355609,True,0.43165476192711005,True,5.666161836924031,False,平均增速,110973740.1878048,未知,110973740.1878048
20,300086,21019886.83,13366218.52,2018-12-31,年度报告,-7212171.709999999,2018,12,-0.7297061750754593,True,0.0113435610839786,True,0.0,True,比例外推,13366218.52,未知,13366218.52
21,300086,30376417.69,27121214.97,2019-03-31,一季度报告,25650484.48,2019,3,-0.4332318991637354,True,0.5927088364844572,True,6.684318604068768,False,平均增速,-111428628.68993288,未知,-111428628.68993288
22,300086,8484931.43,6366283.379999999,2019-06-30,半年度报告,1752919.73,2019,6,-0.6673954799875019,True,0.6897724684256547,True,6.4782315326367526,False,平均增速,-180025284.31058338,未知,-180025284.31058338
23,300086,6860711.64,1657285.91,2019-09-30,三季度报告,-4696350.07,2019,9,-0.7014963070127386,True,0.45233475151048275,True,7.115999880859581,False,平均增速,-176441486.58503228,未知,-176441486.58503228
24,300086,-29957067.67,-26462980.18,2019-12-31,年度报告,-39195076.00999999,2019,12,-0.31365327574411106,True,0.5433075449719484,True,0.0,True,比例外推,-26462980.18,未知,-26462980.18
25,300086,-14455278.79,-11466339.15,2020-03-31,一季度报告,-11570940.689999998,2020,3,-0.5250614928583437,True,0.5031179279978457,True,1.4207039245433863,False,平均增速,62958652.24942876,未知,62958652.24942876
