,SECURITYCODE_x,NETPROFIT_x,PARENTNETPROFIT_x,REPORTDATE_x,REPORTTIMETYPE_x,KCFJCXSYJLR,Year,Month,managesituationChangeRate,managesituationGreatChange,historyprofitextroplaterate,ifhistoryprofitextroplate,IfprofitdisStableChangeRage,IfprofitdisStable,predicttype,predict,analyst_prediction,adj_prediction
0,300094,56486784.22,56486784.22,2013-12-31,年度报告,41250347.63,2013,12,未知,未知,未知,未知,未知,未知,未知,未知,未知,未知
1,300094,16056811.879999995,16056811.879999995,2014-03-31,一季度报告,13939539.54,2014,3,未知,未知,未知,未知,未知,未知,未知,未知,未知,未知
2,300094,19801163.92,19801163.92,2014-06-30,半年度报告,16664930.45,2014,6,未知,未知,未知,未知,未知,未知,未知,未知,未知,未知
3,300094,29671807.219999995,29671807.219999995,2014-09-30,三季度报告,23866488.76,2014,9,未知,未知,未知,未知,未知,未知,未知,未知,未知,未知
4,300094,225010196.03,225010196.03,2014-12-31,年度报告,17467260.329999994,2014,12,0.0,True,未知,未知,未知,未知,未知,未知,未知,未知
5,300094,-22007515.219999995,-22007515.219999995,2015-03-31,一季度报告,-25080554.12,2015,3,2.517932740456321,False,未知,未知,未知,未知,未知,未知,148330000.0,未知
6,300094,-40159642.93000001,-40159642.93000001,2015-06-30,半年度报告,-44182550.83,2015,6,1.852700197231638,False,未知,未知,未知,未知,未知,未知,,未知
7,300094,3010199.1299999994,3010199.1299999994,2015-09-30,三季度报告,-2344300.72,2015,9,0.903719035419104,False,未知,未知,未知,未知,未知,未知,未知,未知
8,300094,22765728.300000004,22765728.300000004,2015-12-31,年度报告,18895874.42,2015,12,-0.7489590017846623,True,未知,未知,未知,未知,未知,未知,未知,未知
9,300094,-2947036.15,-2947036.15,2016-03-31,一季度报告,-3833278.79,2016,3,-3.566704312382614,False,未知,未知,未知,未知,未知,未知,未知,未知
10,300094,8796155.97,8796155.97,2016-06-30,半年度报告,1240792.29,2016,6,-2.4065559377223273,False,未知,未知,未知,未知,未知,未知,66000000.0,未知
11,300094,62892603.44,62892603.44,2016-09-30,三季度报告,53570150.35,2016,9,17.765132066196568,False,未知,未知,未知,未知,未知,未知,100000000.0,未知
12,300094,93944585.43,93944585.43,2016-12-31,年度报告,98534946.33,2016,12,1.481220169002895,False,0.8382524154981588,True,0.0,True,前期平均,93944585.43,未知,93944585.43
13,300094,18338605.88,18338605.88,2017-03-31,一季度报告,18218159.06,2017,3,-20.16731975615569,False,-0.009516696895194247,True,1.1379139112812608,False,盈利变化,123346502.56333333,213190000.0,213190000.0
14,300094,70856648.05,70856648.05,2017-06-30,半年度报告,70188927.67000002,2017,6,5.4217579147814945,False,-1.8641270269433547,True,1.8810273494885357,False,前期平均,102797025.615,196000000.0,196000000.0
15,300094,112239719.82,112239719.82,2017-09-30,三季度报告,112089253.79999997,2017,9,-0.10185330022331159,True,2.8487602484662027,False,0.7710362743008107,False,未知,未知,186666667.00000003,未知
16,300094,144132610.64000002,144132610.64000002,2017-12-31,年度报告,138786917.33,2017,12,-0.39872230037047285,True,0.24169722555545756,True,0.0,True,比例外推,144132610.64000002,170000000.0,170000000.0
17,300094,96065906.22,96065906.22,2018-03-31,一季度报告,19950802.16,2018,3,2.080211472432822,False,-2.4697604142903096,True,0.9156569126450576,False,前期平均,169238233.05,316000000.0,316000000.0
18,300094,167629634.33999997,167629634.33999997,2018-06-30,半年度报告,93451663.14,2018,6,-0.20280191380009824,True,-5.518416472018453,True,1.7315823296661392,False,平均增速,326879739.8078257,316135000.0,326879739.8078257
19,300094,226752989.95,226752989.95,2018-09-30,三季度报告,150594951.55,2018,9,-0.4967308871530645,True,2.406219931262629,False,0.5331434706909306,False,未知,未知,298363333.0,未知
20,300094,230814855.8899999,231300292.67,2018-12-31,年度报告,144128825.52,2018,12,-0.6080915764365982,True,1.469920712807598,True,0.0,True,比例外推,231300292.67,249825000.0,231300292.67
21,300094,8070733.69,8938423.77,2019-03-31,一季度报告,6071618.09,2019,3,-0.4119996735299626,True,11.48292512137422,False,0.11583199641116147,False,未知,未知,261400000.0,未知
22,300094,9135885.93,9704026.99,2019-06-30,半年度报告,12662891.51,2019,6,-0.6630262635696685,True,3.209007740591528,False,0.37631219579669606,False,未知,未知,146322000.0,未知
23,300094,13087290.169999998,16175941.96,2019-09-30,三季度报告,16572539.42,2019,9,-0.7508884701698726,True,1.589504732525753,True,0.25505536245326677,False,平均增速,11864508.975986712,,11864508.975986712
24,300094,-498936812.53,-490664693.9,2019-12-31,年度报告,-490215151.65,2019,12,-0.7552723198764985,True,0.9389917194936651,True,0.0,True,比例外推,-490664693.9,204000000.0,204000000.0
25,300094,-35727914.19,-32680547.230000004,2020-03-31,一季度报告,-33023489.6,2020,3,5.998965198168991,False,0.8589088220061558,True,0.09815391984937169,True,盈利变化,-542791504.1533333,150500000.0,150500000.0
