,SECURITYCODE_x,NETPROFIT_x,PARENTNETPROFIT_x,REPORTDATE_x,REPORTTIMETYPE_x,KCFJCXSYJLR,Year,Month,managesituationChangeRate,managesituationGreatChange,historyprofitextroplaterate,ifhistoryprofitextroplate,IfprofitdisStableChangeRage,IfprofitdisStable,predicttype,predict,analyst_prediction,adj_prediction
0,300095,67457157.53000002,66110551.9,2013-12-31,年度报告,28307754.32000001,2013,12,未知,未知,未知,未知,未知,未知,未知,未知,未知,未知
1,300095,9576658.329999998,8693119.229999999,2014-03-31,一季度报告,8243730.6099999985,2014,3,未知,未知,未知,未知,未知,未知,未知,未知,未知,未知
2,300095,21418622.31,18425701.43,2014-06-30,半年度报告,17572514.03,2014,6,未知,未知,未知,未知,未知,未知,未知,未知,未知,未知
3,300095,36040422.67,32051668.16,2014-09-30,三季度报告,30930495.619999994,2014,9,未知,未知,未知,未知,未知,未知,未知,未知,未知,未知
4,300095,46432716.52,41084708.62000001,2014-12-31,年度报告,39968146.25000001,2014,12,0.0,True,未知,未知,未知,未知,未知,未知,未知,未知
5,300095,9891780.0,9264802.659999998,2015-03-31,一季度报告,8177797.629999999,2015,3,6.0439139839293015,False,未知,未知,未知,未知,未知,未知,60080000.0,未知
6,300095,33971949.6,31309203.61,2015-06-30,半年度报告,25504359.92,2015,6,2.1494629558179095,False,未知,未知,未知,未知,未知,未知,60125000.0,未知
7,300095,52908493.42000001,48139845.96999999,2015-09-30,三季度报告,38839126.48,2015,9,0.8717082801071382,False,未知,未知,未知,未知,未知,未知,60562500.0,未知
8,300095,57274597.5,52100327.73,2015-12-31,年度报告,46090925.25,2015,12,0.45279368914252816,True,未知,未知,未知,未知,未知,未知,58916000.0,未知
9,300095,12565817.61,10433286.56,2016-03-31,一季度报告,8995946.549999999,2016,3,5.819516561225585,False,未知,未知,未知,未知,未知,未知,71600000.0,未知
10,300095,28163751.22000001,23047311.27,2016-06-30,半年度报告,13294452.78,2016,6,0.9856722479654219,False,未知,未知,未知,未知,未知,未知,64400000.0,未知
11,300095,42517938.87000001,35738091.32,2016-09-30,三季度报告,24914379.390000004,2016,9,0.27497785647588385,True,未知,未知,未知,未知,未知,未知,57206667.0,未知
12,300095,55775394.86000002,46427722.63999999,2016-12-31,年度报告,26513154.75,2016,12,0.17778492515813868,True,0.005789109484048885,True,0.0,True,比例外推,46427722.63999999,57206667.0,57206667.0
13,300095,12423577.21,10758171.87,2017-03-31,一季度报告,8012930.2799999975,2017,3,4.368306275296958,False,0.2908911744232338,True,0.09830582773992494,True,前期平均,45576943.5,77000000.0,77000000.0
14,300095,27251373.42,23782764.58,2017-06-30,半年度报告,20062298.18,2017,6,1.3951765872046356,False,0.016914982057278122,True,0.05848381399936475,True,前期平均,45273863.355000004,85800000.0,85800000.0
15,300095,45505890.08,40139411.73,2017-09-30,三季度报告,34492661.480000004,2017,9,0.5865575642378263,False,0.04399197339336548,True,0.08761857141650353,True,前期平均,48284136.43000001,,48284136.43000001
16,300095,58181612.00999999,51769738.75999999,2017-12-31,年度报告,39309703.56,2017,12,0.20944293983614104,True,0.0756308826828493,True,0.0,True,比例外推,51769738.75999999,78805000.0,78805000.0
17,300095,21749708.67,19576042.55,2018-03-31,一季度报告,15658910.8,2018,3,4.4297692516212095,False,0.10640304682171221,True,0.09911132500041803,True,前期平均,47291210.46000001,90700000.0,90700000.0
18,300095,28828928.510000005,24508850.52,2018-06-30,半年度报告,20040044.700000007,2018,6,1.4753672591228986,False,0.12284329104312826,True,0.03163469684001019,True,前期平均,41411484.17,,41411484.17
19,300095,49309047.52,41497111.97,2018-09-30,三季度报告,36628786.87000001,2018,9,0.4823829928699203,True,0.04626236173834875,True,0.05309172231420611,True,比例外推,46181764.02832849,未知,46181764.02832849
20,300095,-89783981.28,-99421102.68000002,2018-12-31,年度报告,-118714582.65,2018,12,0.15942400355641206,True,0.029307668146046448,True,0.0,True,比例外推,-99421102.68000002,未知,-99421102.68000002
21,300095,21350865.9,18593038.81,2019-03-31,一季度报告,17859202.81,2019,3,2.101520050383278,False,0.7407151174859865,True,0.26898332681105575,False,前期平均,43000029.55,未知,43000029.55
22,300095,37568437.63999999,32721807.72000001,2019-06-30,半年度报告,30834626.35,2019,6,1.339912061129878,False,0.04047148489820657,True,0.44980360739647957,False,前期平均,48954861.39500001,未知,48954861.39500001
23,300095,61274281.18,55403221.94,2019-09-30,三季度报告,52013226.24,2019,9,0.36804827760339615,True,0.12035679674895564,True,0.8114159771632166,False,平均增速,4812295.756964974,未知,4812295.756964974
24,300095,96346908.54000002,78206262.35,2019-12-31,年度报告,73416843.25,2019,12,-1.7513273143861638,False,2.5757518338898433,False,0.0,True,前期平均,78206262.35,未知,78206262.35
25,300095,24403563.52,24592541.55,2020-03-31,一季度报告,23359315.090000004,2020,3,2.159457693469941,False,0.2495647023803259,True,0.23696876644203924,False,前期平均,-26945818.535000008,130000000.0,130000000.0
