,SECURITYCODE_x,NETPROFIT_x,PARENTNETPROFIT_x,REPORTDATE_x,REPORTTIMETYPE_x,KCFJCXSYJLR,Year,Month,managesituationChangeRate,managesituationGreatChange,historyprofitextroplaterate,ifhistoryprofitextroplate,IfprofitdisStableChangeRage,IfprofitdisStable,predicttype,predict,analyst_prediction,adj_prediction
0,300055,140478104.48000002,140546000.22000003,2013-12-31,年度报告,140366567.17,2013,12,未知,未知,未知,未知,未知,未知,未知,未知,未知,未知
1,300055,20275660.89,20296928.83,2014-03-31,一季度报告,20029337.99,2014,3,未知,未知,未知,未知,未知,未知,未知,未知,未知,未知
2,300055,59033334.69,59103067.93999999,2014-06-30,半年度报告,57937255.11,2014,6,未知,未知,未知,未知,未知,未知,未知,未知,未知,未知
3,300055,111389349.29999998,111347311.91,2014-09-30,三季度报告,110078934.28999998,2014,9,未知,未知,未知,未知,未知,未知,未知,未知,未知,未知
4,300055,192304062.72000003,191857765.83,2014-12-31,年度报告,189964206.11999995,2014,12,0.0,True,未知,未知,未知,未知,未知,未知,未知,未知
5,300055,96570585.40999998,96656212.75,2015-03-31,一季度报告,95793208.67999998,2015,3,5.928410631945622,False,未知,未知,未知,未知,未知,未知,323194107.0,未知
6,300055,168638150.54,168532171.41,2015-06-30,半年度报告,167317400.56,2015,6,1.3796403374074755,False,未知,未知,未知,未知,未知,未知,352800000.0,未知
7,300055,239769647.79,239461823.34,2015-09-30,三季度报告,237726943.5,2015,9,0.26114485238311774,True,未知,未知,未知,未知,未知,未知,367000000.0,未知
8,300055,290055164.79,290016924.1,2015-12-31,年度报告,284819302.3,2015,12,-0.26950006935350096,True,未知,未知,未知,未知,未知,未知,341685000.0,未知
9,300055,70426887.75999999,70097003.75000001,2016-03-31,一季度报告,66648807.25999999,2016,3,0.45466762869445515,True,未知,未知,未知,未知,未知,未知,,未知
10,300055,142158464.48,141222161.60999998,2016-06-30,半年度报告,139759530.38,2016,6,-0.1669850266373775,True,未知,未知,未知,未知,未知,未知,237500000.0,未知
11,300055,200363587.67,199003880.45,2016-09-30,三季度报告,197013101.19,2016,9,-0.41411222907147754,True,未知,未知,未知,未知,未知,未知,253000000.0,未知
12,300055,264018170.98000005,262248321.84000003,2016-12-31,年度报告,254252629.68000004,2016,12,-0.5156848712495563,True,0.7432133892900495,True,0.0,True,比例外推,262248321.84000003,455355000.0,455355000.0
13,300055,102028402.46999998,101814468.34999998,2017-03-31,一季度报告,100055241.26000002,2017,3,0.9946658009185332,False,0.20546256281405254,True,0.1291970192222433,False,前期平均,281294949.22499996,396270000.0,396270000.0
14,300055,206115472.27,205686594.07999995,2017-06-30,半年度报告,200687416.82,2017,6,-0.011820330264163601,True,0.24880341810383153,True,0.17571931697850146,False,平均增速,356356875.7445458,404000000.0,404000000.0
15,300055,297241037.43000007,295951643.83,2017-09-30,三季度报告,290268132.63,2017,9,-0.29888406314939675,True,0.14115593979013435,True,0.15019543532501822,False,平均增速,372347818.96626323,404134000.0,372347818.96626323
16,300055,305078500.09,304137252.23,2017-12-31,年度报告,291403069.03,2017,12,-0.46792259048472257,True,0.09469522265758477,True,0.0,True,比例外推,304137252.23,402106000.0,402106000.0
17,300055,88266503.09,88671878.75999999,2018-03-31,一季度报告,86432662.57,2018,3,0.37685292603993903,True,0.22191552402876408,True,0.051804768189987305,True,比例外推,277554269.51872885,648000000.0,648000000.0
18,300055,156109199.19,156778907.11,2018-06-30,半年度报告,154408664.11,2018,6,-0.3184494937091313,True,0.32636883613894146,True,0.08008280365392806,True,比例外推,256077004.93477985,355000000.0,355000000.0
19,300055,239065750.53,239552057.46,2018-09-30,三季度报告,236521050.24,2018,9,-0.5273933044555382,True,0.3506866261501118,True,0.12756009231736143,False,平均增速,240592927.37662396,,240592927.37662396
20,300055,-91703669.80000004,-90352507.38,2018-12-31,年度报告,-87498337.80999999,2018,12,-0.5395345642562221,True,0.10122065219409979,True,0.0,True,比例外推,-90352507.38,643000000.0,643000000.0
21,300055,32530140.379999995,32545284.51,2019-03-31,一季度报告,31744959.60999999,2019,3,0.5915222599989376,False,0.02364506153775674,True,0.8603780859664735,False,前期平均,222021109.605,未知,222021109.605
22,300055,81159636.41,80857243.13,2019-06-30,半年度报告,77957065.48999998,2019,6,-0.10012923511942064,True,0.10352637554926081,True,1.5892630496741873,False,平均增速,-31363442.88674085,未知,-31363442.88674085
23,300055,132655218.08,132671689.74,2019-09-30,三季度报告,127323034.46,2019,9,-0.412387160567479,True,0.039133727979491044,True,2.3924249479232396,False,平均增速,-23058695.675980404,未知,-23058695.675980404
24,300055,71006511.14,74617232.42,2019-12-31,年度报告,73059847.69,2019,12,-2.5318700416937943,False,1.3222780046405167,True,0.0,True,前期平均,74617232.42,未知,74617232.42
25,300055,36021081.24,35687626.910000004,2020-03-31,一季度报告,35011037.910000004,2020,3,3.3183983480860726,False,0.6581081318570219,True,0.9178347798106702,False,前期平均,44396040.60499998,未知,44396040.60499998
