,SECURITYCODE_x,NETPROFIT_x,PARENTNETPROFIT_x,REPORTDATE_x,REPORTTIMETYPE_x,KCFJCXSYJLR,Year,Month,managesituationChangeRate,managesituationGreatChange,historyprofitextroplaterate,ifhistoryprofitextroplate,IfprofitdisStableChangeRage,IfprofitdisStable,predicttype,predict,analyst_prediction,adj_prediction
0,300077,4678244.98,4685101.16,2013-12-31,年度报告,-33220190.76,2013,12,未知,未知,未知,未知,未知,未知,未知,未知,未知,未知
1,300077,2134128.23,2134128.23,2014-03-31,一季度报告,-2280087.24,2014,3,未知,未知,未知,未知,未知,未知,未知,未知,未知,未知
2,300077,5207519.63,5210006.989999998,2014-06-30,半年度报告,-1840546.7700000003,2014,6,未知,未知,未知,未知,未知,未知,未知,未知,未知,未知
3,300077,5235484.6,5237971.96,2014-09-30,三季度报告,-9334387.249999998,2014,9,未知,未知,未知,未知,未知,未知,未知,未知,未知,未知
4,300077,10137725.86,10149592.48,2014-12-31,年度报告,-30845202.690000005,2014,12,0.0,True,未知,未知,未知,未知,未知,未知,未知,未知
5,300077,10177428.95,10177428.95,2015-03-31,一季度报告,5601490.419999999,2015,3,1.1921105368631015,False,未知,未知,未知,未知,未知,未知,58465714.0,未知
6,300077,29416826.82,29419055.39,2015-06-30,半年度报告,18171145.91,2015,6,-0.10163661159353123,True,未知,未知,未知,未知,未知,未知,71000000.0,未知
7,300077,64928574.67,64930803.24,2015-09-30,三季度报告,52296831.29,2015,9,-0.10643515597390912,True,未知,未知,未知,未知,未知,未知,81533333.0,未知
8,300077,85982178.58,86006337.14999999,2015-12-31,年度报告,45413951.57000001,2015,12,-0.538531121811179,True,未知,未知,未知,未知,未知,未知,87955000.0,未知
9,300077,26126662.33999999,26126662.33999999,2016-03-31,一季度报告,22615217.120000005,2016,3,-0.5403313545116912,True,未知,未知,未知,未知,未知,未知,134900000.0,未知
10,300077,45467790.58,45468372.24,2016-06-30,半年度报告,36246909.74000001,2016,6,-0.840967042141359,True,未知,未知,未知,未知,未知,未知,117477500.0,未知
11,300077,47018546.14,47019127.8,2016-09-30,三季度报告,32743645.37,2016,9,-0.9279478256872691,True,未知,未知,未知,未知,未知,未知,100895000.0,未知
12,300077,101244154.01999998,101207345.09,2016-12-31,年度报告,76972115.43,2016,12,-0.9455905275109161,True,10.60668841867132,False,0.0,True,比例外推,101207345.09,142304640.0,142304640.0
13,300077,21582248.78,21582248.78,2017-03-31,一季度报告,21308178.9,2017,3,-0.8209398154605614,True,3.2442498471992622,False,0.1301192580774615,False,未知,未知,181100000.0,未知
14,300077,44961277.19000001,44966592.1,2017-06-30,半年度报告,39453615.86,2017,6,-0.8971085922512841,True,1.6263479454064897,True,0.2505637633708115,False,平均增速,119739649.28071812,147050000.0,147050000.0
15,300077,50390085.33,51264921.73,2017-09-30,三季度报告,40385966.67,2017,9,-0.9005021344966664,True,0.34024589310224507,True,0.5250336074872184,False,平均增速,135675128.87870026,,135675128.87870026
16,300077,-487450980.74,-486579859.28,2017-12-31,年度报告,-502648272.1500001,2017,12,-0.9537924433733146,True,1.10662202818145,True,0.0,True,比例外推,-486579859.28,,-486579859.28
17,300077,20874791.03,14707021.61,2018-03-31,一季度报告,10473656.54,2018,3,-0.7832364445573776,True,0.18897060981911198,True,0.16888997380266896,False,平均增速,519316360.85537356,未知,519316360.85537356
18,300077,22002479.44,12398523.660000002,2018-06-30,半年度报告,4973095.98,2018,6,-0.8959494642416317,True,0.20081476679882213,True,0.3426717210502854,False,平均增速,633547802.3427469,未知,633547802.3427469
19,300077,-16976381.790000007,-24477395.439999994,2018-09-30,三季度报告,-34616716.54000001,2018,9,-0.907159415401609,True,0.09975200853046401,True,0.6526891956976526,False,平均增速,864694823.9443822,未知,864694823.9443822
20,300077,-1785861063.7800004,-1614259415.6799994,2018-12-31,年度报告,-1664175566.96,2018,12,-1.0095973649963694,False,6.207077166665605,False,0.0,True,去年同期,-1614259415.6799994,未知,-1614259415.6799994
21,300077,-20351041.37,-15305486.67,2019-03-31,一季度报告,-24626395.94,2019,3,-0.7758902125881545,True,0.12491018805712766,True,0.21210215489529405,False,平均增速,5236235401.775246,未知,5236235401.775246
22,300077,-49012374.68,-38480797.42,2019-06-30,半年度报告,-60821335.92,2019,6,-0.7873764639681899,True,0.51337595349403,True,0.34109968835216986,False,平均增速,13440407661.885061,未知,13440407661.885061
23,300077,-92910573.64,-77676698.6,2019-09-30,三季度报告,-103368025.6,2019,9,-1.2755737375531773,False,1.3485601128731268,True,0.30344588454831284,False,前期平均,-327079582.98,未知,-327079582.98
24,300077,42911652.35999999,103920641.64000005,2019-12-31,年度报告,-589381056.4099997,2019,12,-1.0026196018687468,False,-8.24821075249791,True,0.0,True,盈利变化,-1255994578.8299992,未知,-1255994578.8299992
25,300077,-14341672.320000002,-11756861.260000002,2020-03-31,一季度报告,-17961679.33,2020,3,-1.2298774246951472,False,1.9586651100064059,True,0.044084134369549326,True,前期平均,-1111059698.535,未知,-1111059698.535
