,SECURITYCODE_x,NETPROFIT_x,PARENTNETPROFIT_x,REPORTDATE_x,REPORTTIMETYPE_x,KCFJCXSYJLR,Year,Month,managesituationChangeRate,managesituationGreatChange,historyprofitextroplaterate,ifhistoryprofitextroplate,IfprofitdisStableChangeRage,IfprofitdisStable,predicttype,predict,analyst_prediction,adj_prediction
0,300078,84745184.22,85795616.15000002,2013-12-31,年度报告,81486082.53999999,2013,12,未知,未知,未知,未知,未知,未知,未知,未知,未知,未知
1,300078,20104741.41,19755877.28999999,2014-03-31,一季度报告,19528471.649999995,2014,3,未知,未知,未知,未知,未知,未知,未知,未知,未知,未知
2,300078,43635555.33,42077201.50000001,2014-06-30,半年度报告,40498787.76000001,2014,6,未知,未知,未知,未知,未知,未知,未知,未知,未知,未知
3,300078,58638410.27,56423818.71000001,2014-09-30,三季度报告,54598945.12000001,2014,9,未知,未知,未知,未知,未知,未知,未知,未知,未知,未知
4,300078,81162906.86,77968136.51,2014-12-31,年度报告,67055143.40999999,2014,12,0.0,True,未知,未知,未知,未知,未知,未知,未知,未知
5,300078,21123701.89,21150265.23,2015-03-31,一季度报告,20263116.590000004,2015,3,3.2151839952464227,False,未知,未知,未知,未知,未知,未知,124294000.0,未知
6,300078,43281985.39,43903043.71,2015-06-30,半年度报告,26759462.730000004,2015,6,0.9421131134714037,False,未知,未知,未知,未知,未知,未知,142583182.0,未知
7,300078,73721402.27,75182699.99000001,2015-09-30,三季度报告,54645694.87000001,2015,9,0.4452162640458976,True,未知,未知,未知,未知,未知,未知,130706667.0,未知
8,300078,140315455.46,140968241.51,2015-12-31,年度报告,110200205.31999998,2015,12,0.04413687851494972,True,未知,未知,未知,未知,未知,未知,129466000.0,未知
9,300078,25835970.17,27123231.74,2016-03-31,一季度报告,25165580.0,2016,3,3.0118528779332245,False,未知,未知,未知,未知,未知,未知,227620909.0,未知
10,300078,62876094.02,63458225.44999999,2016-06-30,半年度报告,60594996.24,2016,6,0.9579782086331876,False,未知,未知,未知,未知,未知,未知,224443750.0,未知
11,300078,100140650.35000002,100519248.53,2016-09-30,三季度报告,96164122.61,2016,9,0.14953299327685188,True,未知,未知,未知,未知,未知,未知,211934167.00000003,未知
12,300078,188639168.02,187978918.78,2016-12-31,年度报告,176497197.31,2016,12,-0.3960381346290219,True,0.6914841771320321,True,0.0,True,比例外推,187978918.78,212783571.0,212783571.0
13,300078,33237530.12,34052438.06999999,2017-03-31,一季度报告,32393887.74,2017,3,2.2801239381520775,False,0.2533080612335418,True,0.08533370806489576,True,前期平均,102784318.31499997,275982215.0,275982215.0
14,300078,70647367.51000002,72597330.81,2017-06-30,半年度报告,65580682.56,2017,6,0.34781248009845755,True,0.4467987358858168,True,0.20725970196588867,False,平均增速,229343156.11546293,251258000.0,229343156.11546293
15,300078,104989761.71000004,108334885.58,2017-09-30,三季度报告,93836416.64,2017,9,-0.15373842766340715,True,0.5131579356043114,True,0.19591818738937739,False,平均增速,212700010.30913895,235805385.0,212700010.30913895
16,300078,131174808.48000002,130262340.03000002,2017-12-31,年度报告,108591186.01,2017,12,-0.5507550997520563,True,0.7034546042691726,True,0.0,True,比例外推,130262340.03000002,234103332.99999997,234103332.99999997
17,300078,20169417.32,22544913.35,2018-03-31,一季度报告,22137368.710000005,2018,3,1.549683562949412,False,0.41557760784754505,True,0.09005399920212143,True,前期平均,143179266.37,224639091.0,224639091.0
18,300078,70481974.00000001,72954669.99,2018-06-30,半年度报告,70185028.37,2018,6,0.19955190415275495,True,0.3309842812273995,True,0.20723321319634214,False,平均增速,119806871.66804662,216267500.0,216267500.0
19,300078,105013108.71000004,108897112.99,2018-09-30,三季度报告,97401481.75,2018,9,-0.1928243017249537,True,0.20773636486933633,True,0.22917555679288037,False,平均增速,124732104.62894756,213480000.0,213480000.0
20,300078,140964669.43000004,143472605.91,2018-12-31,年度报告,130481298.93,2018,12,-0.3539522931118215,True,0.20247475416331842,True,0.0,True,比例外推,143472605.91,212518889.00000003,212518889.00000003
21,300078,26202306.509999994,28796852.22000001,2019-03-31,一季度报告,26682959.320000004,2019,3,3.2016674490624304,False,0.31714162116734124,True,0.09479272138120667,True,前期平均,142561310.01000002,204783077.0,204783077.0
22,300078,85712790.07999998,89340923.46000001,2019-06-30,半年度报告,77875501.21,2019,6,0.2023667813276623,True,0.05572418797971525,True,0.15172544604449623,False,平均增速,150179688.44168517,204534286.0,204534286.0
23,300078,117449209.48999998,121261563.11,2019-09-30,三季度报告,107815697.26000004,2019,9,-0.19300375675927395,True,0.02386679435211199,True,0.17363608935809172,False,平均增速,154595111.32212046,206433332.99999997,206433332.99999997
24,300078,146241388.71000004,147607911.1,2019-12-31,年度报告,119728829.88,2019,12,-0.3988196860768535,True,0.11845835524327038,True,0.0,True,比例外推,147607911.1,202731110.99999997,202731110.99999997
25,300078,22025430.47,22131834.99,2020-03-31,一季度报告,14281279.87,2020,3,2.234264288438019,False,0.018767865756156184,True,0.06803333733167874,True,前期平均,114402449.235,253905556.0,253905556.0
