,SECURITYCODE_x,NETPROFIT_x,PARENTNETPROFIT_x,REPORTDATE_x,REPORTTIMETYPE_x,KCFJCXSYJLR,Year,Month,managesituationChangeRate,managesituationGreatChange,historyprofitextroplaterate,ifhistoryprofitextroplate,IfprofitdisStableChangeRage,IfprofitdisStable,predicttype,predict,analyst_prediction,adj_prediction
0,300069,21773546.940000005,23575749.9,2013-12-31,年度报告,20425006.94,2013,12,未知,未知,未知,未知,未知,未知,未知,未知,未知,未知
1,300069,14509946.79,14726452.15,2014-03-31,一季度报告,15246259.120000005,2014,3,未知,未知,未知,未知,未知,未知,未知,未知,未知,未知
2,300069,15875658.51,16273294.05,2014-06-30,半年度报告,15166988.909999998,2014,6,未知,未知,未知,未知,未知,未知,未知,未知,未知,未知
3,300069,17402450.080000002,17817913.830000002,2014-09-30,三季度报告,15338462.54,2014,9,未知,未知,未知,未知,未知,未知,未知,未知,未知,未知
4,300069,15288257.049999995,15698207.190000005,2014-12-31,年度报告,11501913.82,2014,12,0.0,True,未知,未知,未知,未知,未知,未知,未知,未知
5,300069,3194050.28,3194050.28,2015-03-31,一季度报告,2472108.66,2015,3,0.5005945407743295,False,未知,未知,未知,未知,未知,未知,未知,未知
6,300069,7046979.27,7046979.27,2015-06-30,半年度报告,5326510.27,2015,6,0.37150512064018976,True,未知,未知,未知,未知,未知,未知,未知,未知
7,300069,8316639.27,8316639.27,2015-09-30,三季度报告,6186653.610000001,2015,9,0.25117709517371606,True,未知,未知,未知,未知,未知,未知,未知,未知
8,300069,10547389.080000002,10547389.080000002,2015-12-31,年度报告,5860770.460000001,2015,12,0.42420073581899986,True,未知,未知,未知,未知,未知,未知,未知,未知
9,300069,9293543.14,9293543.14,2016-03-31,一季度报告,8566060.440000001,2016,3,5.8169080106027655,False,未知,未知,未知,未知,未知,未知,未知,未知
10,300069,19720155.07,19720155.07,2016-06-30,半年度报告,18221037.01,2016,6,2.0897702555608633,False,未知,未知,未知,未知,未知,未知,29600000.0,未知
11,300069,22019848.91,22019848.91,2016-09-30,三季度报告,19368590.17,2016,9,1.6180703807296437,False,未知,未知,未知,未知,未知,未知,29630000.0,未知
12,300069,23885928.05,23885928.05,2016-12-31,年度报告,20277517.13,2016,12,1.064354199399649,False,0.4308216036733725,True,0.0,True,前期平均,23885928.05,未知,23885928.05
13,300069,6702619.94,6702619.94,2017-03-31,一季度报告,6357910.060000001,2017,3,1.342868227111926,False,0.04988078152681263,True,0.6022782530614553,False,前期平均,6524778.189999999,未知,6524778.189999999
14,300069,12119239.559999995,10768531.680000003,2017-06-30,半年度报告,9947260.510000002,2017,6,0.10412655796626069,True,0.7205834039925225,True,0.2766245873198345,False,平均增速,13370628.460587343,未知,13370628.460587343
15,300069,23243519.44,20360578.24,2017-09-30,三季度报告,18440747.72,2017,9,-0.011185452316529773,True,0.712335037243455,True,0.2187783555990801,False,平均增速,21695249.01777974,未知,21695249.01777974
16,300069,22630855.399999995,17924411.68,2017-12-31,年度报告,14108938.019999998,2017,12,-0.08843621673724315,True,0.8490675967468057,True,0.0,True,比例外推,17924411.68,,17924411.68
17,300069,7204458.67,5656815.740000001,2018-03-31,一季度报告,3156315.4899999993,2018,3,2.248512840487865,False,0.07348465225736033,True,0.019004176121473426,True,前期平均,13206874.985,未知,13206874.985
18,300069,-4842752.179999999,-8124165.059999999,2018-06-30,半年度报告,-11596670.18,2018,6,0.796609996213328,False,0.09446865652036811,True,0.13245314952127163,False,盈利变化,3561791.219999999,未知,3561791.219999999
19,300069,-7923989.080000001,-12197043.74,2018-09-30,三季度报告,-17887919.16,2018,9,-0.06324225140665686,True,0.5323803666453262,True,0.20109068885004633,False,平均增速,-14596456.665117597,未知,-14596456.665117597
20,300069,-172710319.06999996,-178480569.38,2018-12-31,年度报告,-190606198.1,2018,12,-0.03788228261137623,True,0.31447431071245113,True,0.0,True,比例外推,-178480569.38,未知,-178480569.38
21,300069,-539170.57,-1443771.89,2019-03-31,一季度报告,-1515147.0399999996,2019,3,2.0222321949971023,False,0.09922665404584022,True,0.30206331564193917,False,盈利变化,-184709186.08666667,未知,-184709186.08666667
22,300069,2612237.3,-212148.47,2019-06-30,半年度报告,-1761426.3,2019,6,-5.496110090027364,False,1.3041987598242222,True,0.49397793384243127,False,前期平均,2896930.3449999955,未知,2896930.3449999955
23,300069,6420489.539999999,1205193.87,2019-09-30,三季度报告,-2615835.38,2019,9,-3.747801229933043,False,1.350128122093238,True,0.691502169486264,False,前期平均,-506247.50000000186,未知,-506247.50000000186
24,300069,24362892.739999995,17331965.990000002,2019-12-31,年度报告,7240507.489999997,2019,12,-1.126069751114148,False,8.425720622133857,False,0.0,True,前期平均,17331965.990000002,未知,17331965.990000002
25,300069,-3977244.44,-3417483.29,2020-03-31,一季度报告,-3677254.5400000005,2020,3,-41.3834113942829,False,1.0775390123432977,True,0.3756930141416869,False,前期平均,-96423226.105,未知,-96423226.105
