,SECURITYCODE_x,NETPROFIT_x,PARENTNETPROFIT_x,REPORTDATE_x,REPORTTIMETYPE_x,KCFJCXSYJLR,Year,Month,managesituationChangeRate,managesituationGreatChange,historyprofitextroplaterate,ifhistoryprofitextroplate,IfprofitdisStableChangeRage,IfprofitdisStable,predicttype,predict,analyst_prediction,adj_prediction
0,300062,44865457.45,39939687.02,2013-12-31,年度报告,35937843.660000004,2013,12,未知,未知,未知,未知,未知,未知,未知,未知,未知,未知
1,300062,7051248.5699999975,5773977.1,2014-03-31,一季度报告,4828356.08,2014,3,未知,未知,未知,未知,未知,未知,未知,未知,未知,未知
2,300062,20691424.880000006,17509041.82,2014-06-30,半年度报告,14747174.059999995,2014,6,未知,未知,未知,未知,未知,未知,未知,未知,未知,未知
3,300062,31855306.34,27479784.31,2014-09-30,三季度报告,23374641.45,2014,9,未知,未知,未知,未知,未知,未知,未知,未知,未知,未知
4,300062,33522174.86,30360222.93,2014-12-31,年度报告,25293083.54,2014,12,0.0,True,未知,未知,未知,未知,未知,未知,未知,未知
5,300062,6230195.84,5189699.48,2015-03-31,一季度报告,3549247.5299999993,2015,3,5.362767814041197,False,未知,未知,未知,未知,未知,未知,未知,未知
6,300062,17977982.489999995,17077234.409999996,2015-06-30,半年度报告,14075014.929999998,2015,6,1.1683116416678594,False,未知,未知,未知,未知,未知,未知,未知,未知
7,300062,23070465.12,22282298.46,2015-09-30,三季度报告,19301439.54,2015,9,0.40841393804659304,True,未知,未知,未知,未知,未知,未知,未知,未知
8,300062,25155395.62,20356231.58,2015-12-31,年度报告,15415834.029999996,2015,12,0.3383814635349111,True,未知,未知,未知,未知,未知,未知,未知,未知
9,300062,17374363.06,11991292.019999998,2016-03-31,一季度报告,11318306.64,2016,3,6.201291677213152,False,未知,未知,未知,未知,未知,未知,未知,未知
10,300062,34547454.17,29301445.85,2016-06-30,半年度报告,27567503.96,2016,6,1.4955779924113173,False,未知,未知,未知,未知,未知,未知,未知,未知
11,300062,68514437.17,58191578.69,2016-09-30,三季度报告,38428241.73,2016,9,0.9447140409451789,False,未知,未知,未知,未知,未知,未知,68243333.0,未知
12,300062,87967080.83999999,78435778.59,2016-12-31,年度报告,52111177.53999999,2016,12,0.78353217447828,False,0.35817947605515577,True,0.0,True,前期平均,78435778.59,64365000.0,64365000.0
13,300062,5019634.6,3996539.65,2017-03-31,一季度报告,1497940.8299999996,2017,3,1.5822792637095962,False,1.6163363748175343,True,0.021878889233202164,True,前期平均,20162196.629999995,93000000.0,93000000.0
14,300062,11529410.76,9409764.329999998,2017-06-30,半年度报告,7000236.2200000025,2017,6,0.29866175461808275,True,0.7868106350552534,True,0.23799386528472855,False,平均增速,37007386.530502275,,37007386.530502275
15,300062,15470667.039999995,11278666.510000002,2017-09-30,三季度报告,8393573.370000001,2017,9,-0.3451678317275156,True,1.4948010869504498,True,0.2808420863270801,False,平均增速,26421226.69336236,未知,26421226.69336236
16,300062,-66220214.47,-69979259.18000002,2017-12-31,年度报告,-76572107.6,2017,12,-0.48997446520245347,True,1.9983204867005593,True,0.0,True,比例外推,-69979259.18000002,,-69979259.18000002
17,300062,2452025.92,1953371.0200000003,2018-03-31,一季度报告,1377307.3299999998,2018,3,7.937992707676372,False,0.5746893961233904,True,0.16218474741461766,False,前期平均,28283099.71999999,未知,28283099.71999999
18,300062,16612611.829999994,14819661.739999998,2018-06-30,半年度报告,6767875.080000003,2018,6,2.8913920567090634,False,0.5609970523565372,True,0.5416256276893626,False,前期平均,27761908.07999999,未知,27761908.07999999
19,300062,21987268.73,18647730.4,2018-09-30,三季度报告,7501588.700000001,2018,9,1.9000338081091568,False,0.6621568260014574,True,0.7362380254495781,False,前期平均,23546395.549999993,未知,23546395.549999993
20,300062,20098872.84,16720850.840000002,2018-12-31,年度报告,-33352643.18,2018,12,-1.6775190598382248,False,2.170770240225697,False,0.0,True,前期平均,16720850.840000002,未知,16720850.840000002
21,300062,2328465.09,2468135.69,2019-03-31,一季度报告,1835834.73,2019,3,17.297301461641972,False,0.7810104334895246,True,0.16508284340446952,False,前期平均,-16170453.075000001,未知,-16170453.075000001
22,300062,9164802.89,9452798.54,2019-06-30,半年度报告,7019547.95,2019,6,1.7006865572443834,False,0.2789174413129937,True,0.45078846968071756,False,前期平均,-20061536.580000002,未知,-20061536.580000002
23,300062,39790963.27,40220036.91,2019-09-30,三季度报告,7754442.759999999,2019,9,1.040519811757447,False,0.47640075137557536,True,0.6031299898260705,False,前期平均,4578664.329999998,未知,4578664.329999998
24,300062,25760951.489999995,26211893.89,2019-12-31,年度报告,7503538.239999997,2019,12,1.2322374894929682,False,0.8484385288472263,True,0.0,True,前期平均,26211893.89,未知,26211893.89
25,300062,-35639955.02,-35636489.559999995,2020-03-31,一季度报告,-33874686.35,2020,3,18.268254285916736,False,0.3767208550851023,True,0.18339428857625364,False,盈利变化,-21402134.21666666,未知,-21402134.21666666
