,SECURITYCODE_x,NETPROFIT_x,PARENTNETPROFIT_x,REPORTDATE_x,REPORTTIMETYPE_x,KCFJCXSYJLR,Year,Month,managesituationChangeRate,managesituationGreatChange,historyprofitextroplaterate,ifhistoryprofitextroplate,IfprofitdisStableChangeRage,IfprofitdisStable,predicttype,predict,analyst_prediction,adj_prediction
0,300034,87860003.2,86656683.59999998,2013-12-31,年度报告,83176744.8,2013,12,未知,未知,未知,未知,未知,未知,未知,未知,未知,未知
1,300034,18908137.459999993,19198267.44,2014-03-31,一季度报告,18625104.94,2014,3,未知,未知,未知,未知,未知,未知,未知,未知,未知,未知
2,300034,38926518.7,40030819.76000001,2014-06-30,半年度报告,39263138.35999999,2014,6,未知,未知,未知,未知,未知,未知,未知,未知,未知,未知
3,300034,76696963.59999998,77544725.59000002,2014-09-30,三季度报告,65004389.46,2014,9,未知,未知,未知,未知,未知,未知,未知,未知,未知,未知
4,300034,109583849.44,110188737.37,2014-12-31,年度报告,98406847.37,2014,12,0.0,True,未知,未知,未知,未知,未知,未知,未知,未知
5,300034,21302540.65,20378461.78,2015-03-31,一季度报告,19930250.259999994,2015,3,3.64667677532317,False,未知,未知,未知,未知,未知,未知,136542057.0,未知
6,300034,41988236.23,42233018.31,2015-06-30,半年度报告,41227005.92,2015,6,1.2570732275629877,False,未知,未知,未知,未知,未知,未知,131839707.0,未知
7,300034,67051414.43999999,67085782.98,2015-09-30,三季度报告,65811037.53999999,2015,9,0.14554734732679855,True,未知,未知,未知,未知,未知,未知,114958000.0,未知
8,300034,126039125.27,124287968.71999998,2015-12-31,年度报告,122274640.3,2015,12,-0.19823948830976562,True,未知,未知,未知,未知,未知,未知,108958000.0,未知
9,300034,126039125.27,124287968.71999998,2015-12-31,年度报告,122274640.3,2015,12,-0.19823948830976562,True,未知,未知,未知,未知,未知,未知,108958000.0,未知
10,300034,-8436414.840000002,-8857832.0,2015-12-31,年度报告,122274640.3,2015,12,-0.19823948830976562,True,未知,未知,未知,未知,未知,未知,108958000.0,未知
11,300034,-8436414.840000002,-8857832.0,2015-12-31,年度报告,122274640.3,2015,12,-0.19823948830976562,True,未知,未知,未知,未知,未知,未知,108958000.0,未知
12,300034,19411780.68,20940997.96,2016-03-31,一季度报告,19950636.19,2016,3,3.1243908247160186,False,未知,未知,未知,未知,未知,未知,142047598.0,未知
13,300034,46252686.7,46472493.03999999,2016-06-30,半年度报告,44206789.48,2016,6,1.0924909233797557,False,未知,未知,未知,未知,未知,未知,158093869.0,未知
14,300034,67169919.27,67764970.7,2016-09-30,三季度报告,63966185.36000001,2016,9,0.3103378047098512,True,未知,未知,未知,未知,未知,未知,131406133.00000001,未知
15,300034,93404331.48,95967887.67,2016-12-31,年度报告,93022513.07,2016,12,-0.3029148448008742,True,0.2767085283714306,True,0.0,True,比例外推,95967887.67,131406133.00000001,131406133.00000001
16,300034,93404331.48,95967887.67,2016-12-31,年度报告,93022513.07,2016,12,-0.3029148448008742,True,0.2767085283714306,True,0.0,True,比例外推,95967887.67,131406133.00000001,131406133.00000001
17,300034,10717452.58,10813140.0,2016-12-31,年度报告,93022513.07,2016,12,-0.3029148448008742,True,0.2767085283714306,True,0.0,True,比例外推,10813140.0,131406133.00000001,131406133.00000001
18,300034,10717452.58,10813140.0,2016-12-31,年度报告,93022513.07,2016,12,-0.3029148448008742,True,0.2767085283714306,True,0.0,True,比例外推,10813140.0,131406133.00000001,131406133.00000001
19,300034,19889513.94,19283555.059999995,2017-03-31,一季度报告,15513328.240000002,2017,3,3.526117652386335,False,0.03449622874315642,True,0.02591528151221592,True,前期平均,110346621.29500002,134004545.0,134004545.0
20,300034,38770516.08999999,38489380.32999999,2017-06-30,半年度报告,32944729.5,2017,6,0.8995653975707317,False,0.1432448072051523,True,0.07143280981129047,True,前期平均,108585052.025,112647500.0,108585052.025
21,300034,19100102.65,19312321.23,2017-08-31,其他报告,,2017,8,未知,未知,未知,未知,未知,未知,未知,未知,未知,未知
22,300034,40646743.18,42890981.57,2017-09-30,三季度报告,34396566.1,2017,9,0.30802603538695617,True,0.06545144806699603,True,0.09058783472773357,True,比例外推,63195381.19862835,,63195381.19862835
23,300034,48965379.66,58192096.28999998,2017-12-31,年度报告,48875792.75000002,2017,12,-0.05935836370915163,True,0.20717127355717177,True,0.0,True,比例外推,58192096.28999998,128185000.0,128185000.0
24,300034,21022398.89,20377895.320000004,2018-03-31,一季度报告,18644396.85,2018,3,3.4174032339374505,False,0.022972099729213283,True,0.08577979125275667,True,前期平均,108086028.78000002,76337500.0,76337500.0
25,300034,48733347.77,46345426.81999999,2018-06-30,半年度报告,42803609.26,2018,6,1.2661551111686538,False,0.12125769308292557,True,0.17856867061869497,False,前期平均,111277105.80499998,69700000.0,69700000.0
26,300034,70811077.4,67494846.02,2018-09-30,三季度报告,62150630.27000001,2018,9,1.1615508728687276,False,0.39433259890232086,True,0.10498346686536175,False,前期平均,110254811.255,91500000.0,91500000.0
27,300034,120343874.53000002,106778677.27,2018-12-31,年度报告,92608434.01,2018,12,0.794329050649089,False,0.5537312400635067,True,0.0,True,前期平均,106778677.27,91500000.0,91500000.0
28,300034,37942463.81,31536067.26999999,2019-03-31,一季度报告,29227690.9,2019,3,3.1793519217159143,False,0.06980694113327904,True,0.07300337034625501,True,前期平均,84753237.965,157268333.0,157268333.0
29,300034,105495277.31,86292199.83999999,2019-06-30,半年度报告,80310679.88999997,2019,6,0.8028723086019173,False,0.14635408149389964,True,0.1368911241106271,False,前期平均,118665593.26,169045714.0,169045714.0
30,300034,155240014.59,127052570.43999998,2019-09-30,三季度报告,118788042.68,2019,9,0.24076636630867018,True,0.31354608445310883,True,0.01639088339941408,True,比例外推,181046413.6136378,173821536.0,181046413.6136378
31,300034,194619270.22000003,155725272.76999998,2019-12-31,年度报告,143351596.39,2019,12,-0.26992542376473216,True,0.6905825483014326,True,0.0,True,比例外推,155725272.76999998,172662857.0,155725272.76999998
32,300034,30878749.500000004,28255023.020000003,2020-03-31,一季度报告,35883516.989999995,2020,3,1.3156114384128077,False,0.8548369501891121,True,0.07653100623864584,True,前期平均,81918273.85500002,184471000.0,184471000.0
