,SECURITYCODE_x,NETPROFIT_x,PARENTNETPROFIT_x,REPORTDATE_x,REPORTTIMETYPE_x,KCFJCXSYJLR,Year,Month,managesituationChangeRate,managesituationGreatChange,historyprofitextroplaterate,ifhistoryprofitextroplate,IfprofitdisStableChangeRage,IfprofitdisStable,predicttype,predict,analyst_prediction,adj_prediction
0,300035,71025950.36,71627808.23,2013-12-31,年度报告,36254113.05,2013,12,未知,未知,未知,未知,未知,未知,未知,未知,未知,未知
1,300035,9844858.0,10619729.9,2014-03-31,一季度报告,10483181.33,2014,3,未知,未知,未知,未知,未知,未知,未知,未知,未知,未知
2,300035,14581409.26,15504366.32,2014-06-30,半年度报告,15216169.0,2014,6,未知,未知,未知,未知,未知,未知,未知,未知,未知,未知
3,300035,17159229.869999994,18567176.84,2014-09-30,三季度报告,17866293.679999996,2014,9,未知,未知,未知,未知,未知,未知,未知,未知,未知,未知
4,300035,50269109.85,53290263.63,2014-12-31,年度报告,23982875.520000003,2014,12,0.0,True,未知,未知,未知,未知,未知,未知,未知,未知
5,300035,7121758.1000000015,7421745.55,2015-03-31,一季度报告,7397210.5299999975,2015,3,6.214522582245473,False,未知,未知,未知,未知,未知,未知,未知,未知
6,300035,16183605.78,16480052.359999998,2015-06-30,半年度报告,16096827.8,2015,6,3.8709935434594613,False,未知,未知,未知,未知,未知,未知,未知,未知
7,300035,16168924.9,16860197.889999993,2015-09-30,三季度报告,15685474.710000005,2015,9,3.1392271621803287,False,未知,未知,未知,未知,未知,未知,未知,未知
8,300035,14308301.129999995,15326421.98,2015-12-31,年度报告,15161416.48,2015,12,0.41291442342896384,True,未知,未知,未知,未知,未知,未知,未知,未知
9,300035,5556274.329999999,5556274.329999999,2016-03-31,一季度报告,5276612.27,2016,3,8.973092228448476,False,未知,未知,未知,未知,未知,未知,未知,未知
10,300035,15574042.369999995,15574042.369999995,2016-06-30,半年度报告,13543553.56,2016,6,3.3887592991034907,False,未知,未知,未知,未知,未知,未知,未知,未知
11,300035,21084409.46,21084409.46,2016-09-30,三季度报告,18776595.980000004,2016,9,3.3927441557972724,False,未知,未知,未知,未知,未知,未知,28125000.0,未知
12,300035,22717151.13000001,22717151.13000001,2016-12-31,年度报告,19081122.32,2016,12,3.9639680989856285,False,0.7640744626330568,True,0.0,True,前期平均,22717151.13000001,,22717151.13000001
13,300035,10836236.05,10835857.750000002,2017-03-31,一季度报告,11055187.98,2017,3,11.783017205703738,False,0.34503447272553084,True,0.1239788969984692,False,前期平均,21467807.820000008,76485000.0,76485000.0
14,300035,28592704.620000005,28591493.31,2017-06-30,半年度报告,27815016.82,2017,6,3.5605340394357756,False,0.012451471241016232,True,0.2597152721620263,False,前期平均,32507140.91,,32507140.91
15,300035,40637854.03,40635706.27,2017-09-30,三季度报告,38997142.71,2017,9,2.36864783880933,False,0.26526113464756956,True,0.1762282663193484,False,前期平均,43431968.075,70290000.0,70290000.0
16,300035,47484851.56999999,47481831.09,2017-12-31,年度报告,41652354.68000001,2017,12,2.1265342187297396,False,0.29643660886201695,True,0.0,True,前期平均,47481831.09,未知,47481831.09
17,300035,28308032.41,28307467.12,2018-03-31,一季度报告,10839520.34,2018,3,5.554485342721931,False,0.7094507542602967,True,0.14461423418464509,False,前期平均,39091825.120000005,未知,39091825.120000005
18,300035,50626566.08,50625123.42,2018-06-30,半年度报告,32631360.16,2018,6,1.4840584793898377,False,0.8006814915858314,True,0.2486052588749097,False,前期平均,52926202.14,未知,52926202.14
19,300035,72507689.75999999,72504695.99000001,2018-09-30,三季度报告,57252276.51000001,2018,9,0.7477780767549058,False,1.1817029121363192,True,0.049612351745486505,True,前期平均,72394930.045,106290000.0,106290000.0
20,300035,130361891.8,130357047.62999998,2018-12-31,年度报告,92131382.86,2018,12,0.4957601848096081,True,1.5649842835977819,True,0.0,True,比例外推,130357047.62999998,,130357047.62999998
21,300035,46425442.45999999,46423201.24999999,2019-03-31,一季度报告,45565714.67,2019,3,1.5090387537817576,False,2.4537763592985447,False,0.10221523518376732,False,去年同期,127715063.76999998,未知,127715063.76999998
22,300035,82983730.53999999,82979632.39999999,2019-06-30,半年度报告,81731848.99000001,2019,6,0.40293833572999865,True,1.2925195777476024,True,0.2230706952576474,False,平均增速,222867562.16349238,未知,222867562.16349238
23,300035,122018630.5,122012327.73,2019-09-30,三季度报告,119969723.96999998,2019,9,-0.020435617310447202,True,1.3494825257582266,True,0.22581787213664417,False,平均增速,196878039.86135665,未知,196878039.86135665
24,300035,151202484.04999998,151195427.16,2019-12-31,年度报告,144674833.02,2019,12,-0.4551632430360296,True,2.713908059206977,False,0.0,True,比例外推,151195427.16,158000000.0,151195427.16
25,300035,25851823.55,25850799.58,2020-03-31,一季度报告,24266474.620000005,2020,3,0.5298928043862096,False,1.3720173750310516,True,0.11502085504001722,False,前期平均,81795314.19,203473332.99999997,203473332.99999997
