,SECURITYCODE_x,NETPROFIT_x,PARENTNETPROFIT_x,REPORTDATE_x,REPORTTIMETYPE_x,KCFJCXSYJLR,Year,Month,managesituationChangeRate,managesituationGreatChange,historyprofitextroplaterate,ifhistoryprofitextroplate,IfprofitdisStableChangeRage,IfprofitdisStable,predicttype,predict,analyst_prediction,adj_prediction
0,300049,1827506.98,4905385.6,2013-12-31,年度报告,7207431.19,2013,12,未知,未知,未知,未知,未知,未知,未知,未知,未知,未知
1,300049,5012865.06,5518599.83,2014-03-31,一季度报告,5741572.659999997,2014,3,未知,未知,未知,未知,未知,未知,未知,未知,未知,未知
2,300049,14400864.969999995,15496836.190000005,2014-06-30,半年度报告,17071766.56,2014,6,未知,未知,未知,未知,未知,未知,未知,未知,未知,未知
3,300049,40643018.74999999,42481749.31999999,2014-09-30,三季度报告,30958406.28,2014,9,未知,未知,未知,未知,未知,未知,未知,未知,未知,未知
4,300049,84805074.91999999,87235295.20999998,2014-12-31,年度报告,73966382.06,2014,12,0.0,True,未知,未知,未知,未知,未知,未知,未知,未知
5,300049,7570060.09,7975496.29,2015-03-31,一季度报告,7809856.530000001,2015,3,-0.635436629925961,True,未知,未知,未知,未知,未知,未知,113283640.0,未知
6,300049,39199857.74000001,35845737.74,2015-06-30,半年度报告,37701783.25,2015,6,-0.873097415758909,True,未知,未知,未知,未知,未知,未知,85666667.0,未知
7,300049,54029376.23,45048842.32,2015-09-30,三季度报告,47209728.88999999,2015,9,-0.9550351564375371,True,未知,未知,未知,未知,未知,未知,95000000.0,未知
8,300049,95057262.85,91685239.43,2015-12-31,年度报告,94491230.73999998,2015,12,-0.9784504997876133,True,未知,未知,未知,未知,未知,未知,97333333.0,未知
9,300049,11742903.82,8037499.7,2016-03-31,一季度报告,7885677.050000003,2016,3,-0.7585875200100294,True,未知,未知,未知,未知,未知,未知,149666667.0,未知
10,300049,50236633.27000001,43576341.39,2016-06-30,半年度报告,42898637.65000001,2016,6,-0.9533797547909163,True,未知,未知,未知,未知,未知,未知,135552500.0,未知
11,300049,69095625.86,53373672.88,2016-09-30,三季度报告,51701553.88,2016,9,-0.9661756787229895,True,未知,未知,未知,未知,未知,未知,129733333.0,未知
12,300049,148131832.77,121047929.98999998,2016-12-31,年度报告,119889414.84999998,2016,12,-0.9807746728108109,True,1.1944922052473195,True,0.0,True,比例外推,121047929.98999998,138697617.0,138697617.0
13,300049,14214539.649999995,8483748.91,2017-03-31,一季度报告,8761738.8,2017,3,-0.844373503520699,True,0.8664823449259732,True,0.009575519750500125,True,比例外推,116002382.95075299,156610000.0,156610000.0
14,300049,51767413.69000001,39621101.35,2017-06-30,半年度报告,40999689.13999999,2017,6,-0.9636220251827398,True,0.8744759671170487,True,0.09840242782565173,True,比例外推,123162234.14398694,,123162234.14398694
15,300049,67082186.78000001,49064757.32000001,2017-09-30,三季度报告,50111464.89000001,2017,9,-0.9735510467232346,True,0.45967841786609054,True,0.04981658311412912,True,比例外推,110360718.89015672,未知,110360718.89015672
16,300049,70588824.88,61114101.72999999,2017-12-31,年度报告,62593988.80000001,2017,12,-0.9876629692225741,True,0.6471689916476506,True,0.0,True,比例外推,61114101.72999999,173070000.0,173070000.0
17,300049,16864501.86,10116444.7,2018-03-31,一季度报告,10048083.410000002,2018,3,-0.871433966558319,True,0.47202052634084735,True,0.04384279874833448,True,比例外推,104589435.29892342,未知,104589435.29892342
18,300049,66717215.19000001,48221200.83000001,2018-06-30,半年度报告,50764191.15000001,2018,6,-0.9646977345450615,True,0.15763516894265955,True,0.1844013100597009,False,平均增速,71258039.04717936,155000000.0,155000000.0
19,300049,77254780.62,58571010.2,2018-09-30,三季度报告,61676263.97,2018,9,-0.9727571943056446,True,0.08965986828516458,True,0.22343170489740272,False,平均增速,71841335.85943711,,71841335.85943711
20,300049,45174913.51,35416101.05,2018-12-31,年度报告,39538967.36,2018,12,-0.9741105340242349,True,0.4194737662884361,True,0.0,True,比例外推,35416101.05,未知,35416101.05
21,300049,13051991.990000002,6665206.2,2019-03-31,一季度报告,6595707.16,2019,3,-0.8916358754518231,True,0.2993962120723442,True,0.10083679960910852,False,平均增速,24850761.00920152,未知,24850761.00920152
22,300049,30249197.64,16271846.159999995,2019-06-30,半年度报告,26352666.08,2019,6,-0.972608164552499,True,0.3081287885795859,True,0.5183257372868909,False,平均增速,10120396.430711687,未知,10120396.430711687
23,300049,42135721.13999999,24060216.79000001,2019-09-30,三季度报告,34117601.989999995,2019,9,-0.9763444156421967,True,0.1346162656354442,True,0.6293159680696542,False,平均增速,11552002.769223815,未知,11552002.769223815
24,300049,100126441.52,43385849.43,2019-12-31,年度报告,31332525.26,2019,12,-0.9595459772248273,True,0.5869168098215071,True,0.0,True,比例外推,43385849.43,未知,43385849.43
25,300049,20631838.44,10561335.31,2020-03-31,一季度报告,10778547.15,2020,3,-0.8599825236331607,True,0.16007757280414248,True,0.061561078467575026,True,比例外推,53264145.71886501,未知,53264145.71886501
