,SECURITYCODE_x,NETPROFIT_x,PARENTNETPROFIT_x,REPORTDATE_x,REPORTTIMETYPE_x,KCFJCXSYJLR,Year,Month,managesituationChangeRate,managesituationGreatChange,historyprofitextroplaterate,ifhistoryprofitextroplate,IfprofitdisStableChangeRage,IfprofitdisStable,predicttype,predict,analyst_prediction,adj_prediction
0,300005,241436835.62,248803837.35000005,2013-12-31,年度报告,236094966.4,2013,12,未知,未知,未知,未知,未知,未知,未知,未知,未知,未知
1,300005,76327821.81,77699448.95999998,2014-03-31,一季度报告,74173937.43,2014,3,未知,未知,未知,未知,未知,未知,未知,未知,未知,未知
2,300005,114448032.13,122642688.33,2014-06-30,半年度报告,117707692.76,2014,6,未知,未知,未知,未知,未知,未知,未知,未知,未知,未知
3,300005,167233710.77,178408743.07,2014-09-30,三季度报告,173070363.79,2014,9,未知,未知,未知,未知,未知,未知,未知,未知,未知,未知
4,300005,282040368.57,294289340.17999995,2014-12-31,年度报告,287654107.98,2014,12,0.0,True,未知,未知,未知,未知,未知,未知,未知,未知
5,300005,92480302.21,94343577.72,2015-03-31,一季度报告,96177105.3,2015,3,2.163156368080301,False,未知,未知,未知,未知,未知,未知,346534444.0,未知
6,300005,118995978.43999998,124071612.21,2015-06-30,半年度报告,119136616.64,2015,6,1.1095761205029293,False,未知,未知,未知,未知,未知,未知,335770000.0,未知
7,300005,135063727.82999998,146513398.20999998,2015-09-30,三季度报告,136864258.71,2015,9,0.4437091332144934,True,未知,未知,未知,未知,未知,未知,316269167.0,未知
8,300005,252862829.85,263396208.91,2015-12-31,年度报告,248897981.6,2015,12,-0.1439635508770176,True,未知,未知,未知,未知,未知,未知,314940769.0,未知
9,300005,62129730.55,71792808.72,2016-03-31,一季度报告,69966644.78,2016,3,1.6106838953851645,False,未知,未知,未知,未知,未知,未知,238962266.00000003,未知
10,300005,75470906.84,94397800.21,2016-06-30,半年度报告,77942668.16999999,2016,6,1.0289495391790657,False,未知,未知,未知,未知,未知,未知,216574444.0,未知
11,300005,75394170.86,100348644.08,2016-09-30,三季度报告,82734004.76000002,2016,9,0.7875771644914773,False,未知,未知,未知,未知,未知,未知,202065000.0,未知
12,300005,112248434.80999996,165605053.31,2016-12-31,年度报告,131371443.0,2016,12,-0.04518653151504303,True,0.03391082619818714,True,0.0,True,比例外推,165605053.31,208839333.0,208839333.0
13,300005,51123905.72,50210581.60999999,2017-03-31,一季度报告,46085685.58,2017,3,2.886011310248633,False,0.26390117880062436,True,0.14030099196253237,False,前期平均,233311105.035,172666667.00000003,172666667.00000003
14,300005,73795384.15,79012586.23,2017-06-30,半年度报告,57839296.86,2017,6,2.199071612215439,False,0.3534132089684137,True,0.09958157479217372,True,前期平均,228866476.32,169310000.0,169310000.0
15,300005,73171285.56,81226825.69000001,2017-09-30,三季度报告,55701663.59,2017,9,2.202327618514777,False,0.501192129121798,True,0.04389035756185833,True,前期平均,194535559.23000002,139000000.0,139000000.0
16,300005,-117922419.67000002,-84853865.97,2017-12-31,年度报告,-185426579.74,2017,12,1.1509149417421627,False,0.5803037441482497,True,0.0,True,盈利变化,60005712.39666666,276405000.0,276405000.0
17,300005,17309344.410000004,22185267.46,2018-03-31,一季度报告,19087429.87,2018,3,3.7225819745135076,False,0.33867285573428135,True,0.47202520267336123,False,前期平均,129248104.72,88000000.0,88000000.0
18,300005,20709352.44,24120765.31,2018-06-30,半年度报告,6350562.9300000025,2018,6,2.271706467836037,False,0.24104935353135393,True,0.5652691826775681,False,前期平均,115715835.20500001,62000000.0,62000000.0
19,300005,20209233.86,25301552.809999995,2018-09-30,三季度报告,5500457.029999998,2018,9,2.2996117776559126,False,0.3046468104503909,True,0.5934824566006389,False,前期平均,105637133.37499997,,105637133.37499997
20,300005,-226755870.9,-181922653.46,2018-12-31,年度报告,-212955614.52,2018,12,-3.047420976398287,False,1.6459533357855287,True,0.0,True,前期平均,-181922653.46,148000000.0,148000000.0
21,300005,40862184.17999999,40477936.77,2019-03-31,一季度报告,29297289.539999995,2019,3,12.948352398633679,False,0.6943260281950856,True,0.46778085406496095,False,前期平均,-44575796.779999994,121018000.0,121018000.0
22,300005,82050407.21,81855876.78000002,2019-06-30,半年度报告,30890873.430000003,2019,6,10.658347904382856,False,0.722518027310166,True,0.5094488418907062,False,前期平均,-13062674.10499999,131750000.0,131750000.0
23,300005,99567598.64000002,99489506.09,2019-09-30,三季度报告,31217334.65,2019,9,10.94685742629137,False,0.7279416851402152,True,0.5285899147521312,False,前期平均,3244103.544999987,130500000.0,130500000.0
24,300005,105590441.68,113080064.96000002,2019-12-31,年度报告,18948273.930000003,2019,12,-2.0647434823263047,False,-78.92826082373355,True,0.0,True,盈利变化,-104621357.31,未知,-104621357.31
25,300005,-6581237.250000001,-6311919.28,2020-03-31,一季度报告,-8568163.909999998,2020,3,4.908564127567398,False,0.1942201810487061,True,1.1435045456270572,False,盈利变化,62592793.693333365,77800000.0,77800000.0
