,SECURITYCODE_x,NETPROFIT_x,PARENTNETPROFIT_x,REPORTDATE_x,REPORTTIMETYPE_x,KCFJCXSYJLR,Year,Month,managesituationChangeRate,managesituationGreatChange,historyprofitextroplaterate,ifhistoryprofitextroplate,IfprofitdisStableChangeRage,IfprofitdisStable,predicttype,predict,analyst_prediction,adj_prediction
0,300058,482221015.4099998,437298545.31,2013-12-31,年度报告,373492777.81,2013,12,未知,未知,未知,未知,未知,未知,未知,未知,未知,未知
1,300058,126467047.19,122234155.82000002,2014-03-31,一季度报告,121453868.76,2014,3,未知,未知,未知,未知,未知,未知,未知,未知,未知,未知
2,300058,315622008.42,301665520.94,2014-06-30,半年度报告,294801603.18000007,2014,6,未知,未知,未知,未知,未知,未知,未知,未知,未知,未知
3,300058,527187253.63000005,507661781.3299999,2014-09-30,三季度报告,440548890.2099999,2014,9,未知,未知,未知,未知,未知,未知,未知,未知,未知,未知
4,300058,742115005.91,711883881.49,2014-12-31,年度报告,609382752.6999999,2014,12,0.0,True,未知,未知,未知,未知,未知,未知,未知,未知
5,300058,-103960287.71,-101453602.83,2015-03-31,一季度报告,27028937.39,2015,3,2.8130171149289707,False,未知,未知,未知,未知,未知,未知,939115024.0,未知
6,300058,87555948.21999997,86130145.87,2015-06-30,半年度报告,153218678.17999998,2015,6,0.5278434410324945,False,未知,未知,未知,未知,未知,未知,849511736.0,未知
7,300058,209226822.72000003,197563216.85,2015-09-30,三季度报告,169484843.50999996,2015,9,-0.08529462332478788,True,未知,未知,未知,未知,未知,未知,481160084.0,未知
8,300058,77519308.96999998,67702211.39,2015-12-31,年度报告,232958220.94,2015,12,-0.35020716254256534,True,未知,未知,未知,未知,未知,未知,478670063.0,未知
9,300058,114723207.81,108357060.03,2016-03-31,一季度报告,69042883.55000001,2016,3,-5.638511743591632,False,未知,未知,未知,未知,未知,未知,717879167.0,未知
10,300058,357744248.99999994,350644598.78000003,2016-06-30,半年度报告,162758218.56,2016,6,4.507575729730358,False,未知,未知,未知,未知,未知,未知,746592027.0,未知
11,300058,503055613.37000006,480871006.9500001,2016-09-30,三季度报告,300342795.51999986,2016,9,1.304776266928916,False,未知,未知,未知,未知,未知,未知,747146331.0000001,未知
12,300058,689447683.8599999,639675474.26,2016-12-31,年度报告,348956893.29,2016,12,5.22065678625463,False,0.8733692260619373,True,0.0,True,前期平均,639675474.26,750945540.0,750945540.0
13,300058,89040184.32999998,80746750.42,2017-03-31,一季度报告,55986151.95,2017,3,3.203343199822611,False,9.194555809950831,False,0.05503725740286168,True,去年同期,360660760.16,842812000.0,842812000.0
14,300058,319512645.29999995,300371653.11999995,2017-06-30,半年度报告,188613414.46,2017,6,0.3479490355413089,True,0.7746220650621132,True,0.12174442742475933,False,平均增速,495784190.1588203,802220000.0,802220000.0
15,300058,290579881.06,279039933.04,2017-09-30,三季度报告,225514409.82,2017,9,-0.0414160927862986,True,0.3662303031016742,True,0.09029957491855312,True,比例外推,346253948.10017943,665750000.0,665750000.0
16,300058,247970158.1,222278512.4100001,2017-12-31,年度报告,171432248.17,2017,12,-0.30056909799131304,True,0.6823299643352284,True,0.0,True,比例外推,222278512.4100001,630333333.0,630333333.0
17,300058,160569130.58999997,153166214.69000003,2018-03-31,一季度报告,112089303.90000004,2018,3,4.415768386359089,False,15.545729876783142,False,0.11309262888059834,False,去年同期,268612310.91,580475000.0,580475000.0
18,300058,329274922.87000006,314923179.43,2018-06-30,半年度报告,265726584.4400001,2018,6,0.5092392194907595,False,0.4350438077266119,True,0.35877342603931617,False,前期平均,447892288.175,593064894.0,593064894.0
19,300058,435330090.50000006,412819296.45000017,2018-09-30,三季度报告,351918782.41,2018,9,0.6595127427642832,False,0.18408803492303466,True,0.3475748070885053,False,前期平均,468863034.05000025,586000000.0,586000000.0
20,300058,412320177.54,388954178.6399999,2018-12-31,年度报告,325900861.97,2018,12,0.9446735813086526,False,0.3533746291088092,True,0.0,True,前期平均,388954178.6399999,586000000.0,586000000.0
21,300058,226308455.94,221104105.51999995,2019-03-31,一季度报告,126860553.76,2019,3,2.0031987695151154,False,0.5760351150777616,True,0.09160186512719276,True,前期平均,418784158.49999994,655600000.0,655600000.0
22,300058,469372132.78,467799150.1499999,2019-06-30,半年度报告,219563629.40000004,2019,6,0.4644935946135924,True,0.027621791254461986,True,0.3275848083487509,False,平均增速,528648449.59501123,797333333.0,797333333.0
23,300058,640641229.87,627998166.5899999,2019-09-30,三季度报告,365856984.62,2019,9,0.1077134935840134,True,0.0970529759701842,True,0.23014126227843068,False,平均增速,598913183.729798,828125000.0,828125000.0
24,300058,723307149.8,710446746.5200001,2019-12-31,年度报告,453578614.87,2019,12,0.16953048062562628,True,0.12030652909720503,True,0.0,True,比例外推,710446746.5200001,551000000.0,551000000.0
25,300058,208163575.46,203523545.17,2020-03-31,一季度报告,146215545.56,2020,3,1.1308130684160056,False,0.8133013666780191,True,0.03704647965888547,True,前期平均,368152372.315,662000000.0,662000000.0
