,SECURITYCODE_x,NETPROFIT_x,PARENTNETPROFIT_x,REPORTDATE_x,REPORTTIMETYPE_x,KCFJCXSYJLR,Year,Month,managesituationChangeRate,managesituationGreatChange,historyprofitextroplaterate,ifhistoryprofitextroplate,IfprofitdisStableChangeRage,IfprofitdisStable,predicttype,predict,analyst_prediction,adj_prediction
0,300009,89870067.82,89870067.82,2013-12-31,年度报告,85775121.61999999,2013,12,未知,未知,未知,未知,未知,未知,未知,未知,未知,未知
1,300009,17691598.360000007,17691598.360000007,2014-03-31,一季度报告,17591831.740000002,2014,3,未知,未知,未知,未知,未知,未知,未知,未知,未知,未知
2,300009,44099696.38,44291789.58,2014-06-30,半年度报告,44080806.33,2014,6,未知,未知,未知,未知,未知,未知,未知,未知,未知,未知
3,300009,81405586.06,82088942.46000001,2014-09-30,三季度报告,79364184.09,2014,9,未知,未知,未知,未知,未知,未知,未知,未知,未知,未知
4,300009,108771231.47,109851477.35999998,2014-12-31,年度报告,106381678.31000002,2014,12,0.0,True,未知,未知,未知,未知,未知,未知,未知,未知
5,300009,21457346.8,23314575.28,2015-03-31,一季度报告,23069094.02,2015,3,4.079816192481093,False,未知,未知,未知,未知,未知,未知,146509943.0,未知
6,300009,58366706.83000001,61167372.6,2015-06-30,半年度报告,59021869.29999999,2015,6,1.0378840490329921,False,未知,未知,未知,未知,未知,未知,149589695.0,未知
7,300009,105324330.86000004,108918606.28999998,2015-09-30,三季度报告,105353843.35999998,2015,9,0.10397912685944233,True,未知,未知,未知,未知,未知,未知,158241931.0,未知
8,300009,132431008.50999998,136254700.54,2015-12-31,年度报告,130788288.81000002,2015,12,-0.17376987825326867,True,未知,未知,未知,未知,未知,未知,148649494.0,未知
9,300009,34796704.52,35201547.52,2016-03-31,一季度报告,33010701.89,2016,3,3.1883122204092817,False,未知,未知,未知,未知,未知,未知,208329040.0,未知
10,300009,84558664.96999998,85111297.03,2016-06-30,半年度报告,77952624.12000002,2016,6,0.5397488174509704,False,未知,未知,未知,未知,未知,未知,205159698.0,未知
11,300009,139879203.04999998,141387004.70000002,2016-09-30,三季度报告,129040725.67,2016,9,-0.1467302276103921,True,未知,未知,未知,未知,未知,未知,202500714.99999997,未知
12,300009,197872875.59,197302805.32,2016-12-31,年度报告,182432850.37,2016,12,-0.3213819872615874,True,0.3333683275667823,True,0.0,True,比例外推,197302805.32,202500714.99999997,197302805.32
13,300009,46580954.3,47189508.00999999,2017-03-31,一季度报告,44324822.16,2017,3,1.5827177906558831,False,0.7776573227088193,True,0.00886722334229853,True,前期平均,145444028.69,260622857.0,260622857.0
14,300009,115008574.61,115738521.21,2017-06-30,半年度报告,97322966.32,2017,6,0.06281322974865328,True,0.6504661493133712,True,0.02029878162490062,True,比例外推,244233822.10993224,267769091.0,244233822.10993224
15,300009,192323090.12,192758402.19,2017-09-30,三季度报告,171887618.75,2017,9,-0.3575165867375164,True,0.49819809655812003,True,0.05256470162940752,True,比例外推,249151822.45494503,279253750.0,279253750.0
16,300009,281782567.36,277742623.46,2017-12-31,年度报告,249539856.09,2017,12,-0.5458191651986999,True,0.6407217081102335,True,0.0,True,比例外推,277742623.46,279404000.0,277742623.46
17,300009,59201928.66,59547879.35000002,2018-03-31,一季度报告,57830373.43000002,2018,3,0.9293307569699146,False,0.6560924309264483,True,0.0026276790025596686,True,前期平均,188118550.985,372801429.0,372801429.0
18,300009,130493814.37,130106844.83,2018-06-30,半年度报告,121898764.54000004,2018,6,-0.21857941353717303,True,0.6093514141203024,True,0.03285113648040627,True,比例外推,296479662.3785931,363975000.0,363975000.0
19,300009,232766180.65,231578329.15,2018-09-30,三季度报告,221332133.62,2018,9,-0.5327130623581102,True,0.568681226189755,True,0.07163608585722314,True,比例外推,311832347.9150827,359669286.0,359669286.0
20,300009,264751920.8499999,263171602.71,2018-12-31,年度报告,269143111.57,2018,12,-0.6810659060211354,True,0.7062019608264125,True,0.0,True,比例外推,263171602.71,359824667.0,359824667.0
21,300009,63628753.34,66343680.99999999,2019-03-31,一季度报告,64620102.66,2019,3,0.5180260145936941,False,0.4549921813540814,True,0.023721205410146856,True,前期平均,243662272.205,361986667.0,361986667.0
22,300009,144424763.75,147214708.60999998,2019-06-30,半年度报告,142240288.78,2019,6,-0.3113078328357857,True,0.3077678946166843,True,0.033396591149504995,True,比例外推,340917199.10423005,361992941.0,340917199.10423005
23,300009,254135106.85,256927180.17999995,2019-09-30,三季度报告,247512838.44,2019,9,-0.6139041008060636,True,0.40135204022137866,True,0.08285534512195192,True,比例外推,344115859.548773,350708182.0,344115859.548773
24,300009,110397606.61,124465864.06000002,2019-12-31,年度报告,104536105.63,2019,12,-0.6605498931548166,True,0.10392543122917512,True,0.0,True,比例外推,124465864.06000002,404066364.00000006,404066364.00000006
25,300009,81748330.63999999,81391603.64999999,2020-03-31,一季度报告,73019797.85999998,2020,3,0.41241283386112604,True,0.20300660295031173,True,0.28127550192307693,False,平均增速,118582667.01979566,420797500.0,420797500.0
