,SECURITYCODE_x,NETPROFIT_x,PARENTNETPROFIT_x,REPORTDATE_x,REPORTTIMETYPE_x,KCFJCXSYJLR,Year,Month,managesituationChangeRate,managesituationGreatChange,historyprofitextroplaterate,ifhistoryprofitextroplate,IfprofitdisStableChangeRage,IfprofitdisStable,predicttype,predict,analyst_prediction,adj_prediction
0,300032,9949675.4,21161283.870000005,2013-12-31,年度报告,3285922.87,2013,12,未知,未知,未知,未知,未知,未知,未知,未知,未知,未知
1,300032,-3042599.85,1838202.62,2014-03-31,一季度报告,1234922.7200000002,2014,3,未知,未知,未知,未知,未知,未知,未知,未知,未知,未知
2,300032,-11484050.01,4429939.55,2014-06-30,半年度报告,4146498.28,2014,6,未知,未知,未知,未知,未知,未知,未知,未知,未知,未知
3,300032,-9088704.6,18242427.220000006,2014-09-30,三季度报告,17828947.779999994,2014,9,未知,未知,未知,未知,未知,未知,未知,未知,未知,未知
4,300032,76294809.88999999,116564563.66,2014-12-31,年度报告,112459235.97999996,2014,12,0.0,True,未知,未知,未知,未知,未知,未知,未知,未知
5,300032,96764953.26,106020130.7,2015-03-31,一季度报告,105820952.78,2015,3,-4.270122885202929,False,未知,未知,未知,未知,未知,未知,551145505.0,未知
6,300032,180520142.07999995,203027253.14,2015-06-30,半年度报告,166973856.53,2015,6,-1.8663908108494907,False,未知,未知,未知,未知,未知,未知,707998141.9999999,未知
7,300032,292902276.23000014,320319470.95000005,2015-09-30,三季度报告,284011347.24999994,2015,9,-2.0947297593982754,False,未知,未知,未知,未知,未知,未知,658248141.9999999,未知
8,300032,287843012.15000004,327036862.84000003,2015-12-31,年度报告,281528859.31,2015,12,-0.8695890924383297,True,未知,未知,未知,未知,未知,未知,378933333.0,未知
9,300032,75609612.23999998,85168397.42,2016-03-31,一季度报告,83615786.04999998,2016,3,-0.8971768696744369,True,未知,未知,未知,未知,未知,未知,409000000.0,未知
10,300032,99915771.07,123659381.10000004,2016-06-30,半年度报告,119098335.71999995,2016,6,-0.9448832950973932,True,未知,未知,未知,未知,未知,未知,,未知
11,300032,108080423.63,141602309.76,2016-09-30,三季度报告,131082592.57,2016,9,-0.9660307337721505,True,未知,未知,未知,未知,未知,未知,207320000.0,未知
12,300032,92642450.98,136345769.37,2016-12-31,年度报告,-78657153.99999999,2016,12,-0.9654336739819307,True,5.675047365222674,False,0.0,True,比例外推,136345769.37,476000000.0,476000000.0
13,300032,12300102.6,16505828.449999996,2017-03-31,一季度报告,30830482.02,2017,3,-0.86840726853065,True,0.6134808717240889,True,0.8376476082245394,False,平均增速,-103633959.86551833,未知,-103633959.86551833
14,300032,231157282.0300001,230046801.12,2017-06-30,半年度报告,78520417.97,2017,6,-0.9004193703011173,True,0.18218269064838083,True,1.219419290713773,False,平均增速,54905924.191770166,未知,54905924.191770166
15,300032,313673032.09,307238051.3,2017-09-30,三季度报告,144478974.68,2017,9,-0.9079419281880177,True,0.23837029350448788,True,1.5001220626308611,False,平均增速,75035753.0298737,未知,75035753.0298737
16,300032,-430391447.9,-418562856.91,2017-12-31,年度报告,-427876190.98,2017,12,-0.8926013367009474,True,0.4911682040553131,True,0.0,True,比例外推,-418562856.91,,-418562856.91
17,300032,-21965545.48,-20971310.56,2018-03-31,一季度报告,-18717330.68,2018,3,-0.19109004830577586,True,0.8572863396137176,True,0.8099690249582596,False,平均增速,544770458.1379663,未知,544770458.1379663
18,300032,-471572907.9399999,-450459128.4,2018-06-30,半年度报告,-452772140.17,2018,6,-0.9569571189251623,True,0.6485569157924388,True,1.145958247960991,False,平均增速,1480399626.417986,未知,1480399626.417986
19,300032,-1664226182.1900005,-1554446035.1699994,2018-09-30,三季度报告,-1590139229.27,2018,9,-0.9682801057722259,True,0.5645215227465742,True,1.3406022667009911,False,平均增速,2127401002.2294443,未知,2127401002.2294443
20,300032,-2546204427.04,-2400111494.97,2018-12-31,年度报告,-2307909933.87,2018,12,-1.0231177349098064,False,3.262327944723337,False,0.0,True,去年同期,-2400111494.97,未知,-2400111494.97
21,300032,-9231599.550000004,-7640671.31,2019-03-31,一季度报告,-30398044.7,2019,3,-1.452967371516421,False,1.4997296492197338,True,0.6873791871095412,False,前期平均,-318130477.835,未知,-318130477.835
22,300032,-31980921.90000001,-28983735.750000004,2019-06-30,半年度报告,-70072416.95000002,2019,6,-1.0210989122412986,False,3.848754397402207,False,1.0136535785873484,False,去年同期,-1884121529.4499998,未知,-1884121529.4499998
23,300032,-43603383.34,-40168840.5,2019-09-30,三季度报告,-83129317.50999999,2019,9,-1.0059785595891222,False,8.891938570361695,False,1.2281137691897464,False,去年同期,-757939545.0999999,未知,-757939545.0999999
24,300032,36299617.36,47003448.48,2019-12-31,年度报告,-96813450.89999996,2019,12,-1.0039076498706614,False,-14.077495123653025,True,0.0,True,盈利变化,-1663079333.98,未知,-1663079333.98
25,300032,-29011328.42,-28835517.68000001,2020-03-31,一季度报告,-31837375.6,2020,3,-2.077784553598839,False,-0.9102279460162727,True,0.23063870539011672,False,前期平均,-1402785155.775,未知,-1402785155.775
