,SECURITYCODE_x,NETPROFIT_x,PARENTNETPROFIT_x,REPORTDATE_x,REPORTTIMETYPE_x,KCFJCXSYJLR,Year,Month,managesituationChangeRate,managesituationGreatChange,historyprofitextroplaterate,ifhistoryprofitextroplate,IfprofitdisStableChangeRage,IfprofitdisStable,predicttype,predict,analyst_prediction,adj_prediction
0,300059,4997731.23,5001337.41,2013-12-31,年度报告,-2615754.67,2013,12,未知,未知,未知,未知,未知,未知,未知,未知,未知,未知
1,300059,17831208.459999993,17877889.34,2014-03-31,一季度报告,18232379.63,2014,3,未知,未知,未知,未知,未知,未知,未知,未知,未知,未知
2,300059,32809580.66,32864020.24,2014-06-30,半年度报告,31719324.969999995,2014,6,未知,未知,未知,未知,未知,未知,未知,未知,未知,未知
3,300059,62590887.52,62645847.24999999,2014-09-30,三季度报告,61501151.98,2014,9,未知,未知,未知,未知,未知,未知,未知,未知,未知,未知
4,300059,165668861.84,165723821.56999996,2014-12-31,年度报告,162870669.95,2014,12,0.0,True,未知,未知,未知,未知,未知,未知,未知,未知
5,300059,198756467.93,198756467.93,2015-03-31,一季度报告,198981929.0,2015,3,-0.7197199931114483,True,未知,未知,未知,未知,未知,未知,727819333.0,未知
6,300059,1041890078.07,1041890078.07,2015-06-30,半年度报告,1033054888.09,2015,6,-0.847674638643187,True,未知,未知,未知,未知,未知,未知,1815265786.0,未知
7,300059,1475409774.9799998,1475409774.9799998,2015-09-30,三季度报告,1466800791.2600002,2015,9,-0.9201524147040886,True,未知,未知,未知,未知,未知,未知,1795153992.0000002,未知
8,300059,1848513821.56,1848571186.42,2015-12-31,年度报告,1795670723.88,2015,12,-0.9698330079986502,True,未知,未知,未知,未知,未知,未知,1811200908.0,未知
9,300059,116856318.11999996,117045628.74,2016-03-31,一季度报告,111194009.83,2016,3,-0.9748550007853826,True,未知,未知,未知,未知,未知,未知,1952714286.0000002,未知
10,300059,336498120.93,336799304.21000004,2016-06-30,半年度报告,277179146.54,2016,6,-0.9952032068111659,True,未知,未知,未知,未知,未知,未知,1023800000.0,未知
11,300059,574414275.49,575032005.58,2016-09-30,三季度报告,485423096.72,2016,9,-0.9966126486927553,True,未知,未知,未知,未知,未知,未知,904500000.0,未知
12,300059,712434076.3000003,713768803.87,2016-12-31,年度报告,595123299.84,2016,12,-0.9972963517114617,True,20.662280687841704,False,0.0,True,比例外推,713768803.87,2771052701.0,2771052701.0
13,300059,100048135.96,100524335.72,2017-03-31,一季度报告,98424718.83,2017,3,-0.9572318269957143,True,0.07906710176420087,True,0.050309331397459134,True,比例外推,722987455.3024341,859666667.0,859666667.0
14,300059,259220434.60999995,260101015.71000004,2017-06-30,半年度报告,256127078.01,2017,6,-0.9851478183111766,True,0.37378202701274066,True,0.2171835487738558,False,平均增速,1309686448.1554422,780530000.0,780530000.0
15,300059,456204126.0100001,457586195.5300001,2017-09-30,三季度报告,450962493.08,2017,9,-0.9912994306665921,True,0.25303767482609896,True,0.29243584025145447,False,平均增速,819996503.5818832,631400000.0,631400000.0
16,300059,634844279.53,636901644.02,2017-12-31,年度报告,615551716.4799999,2017,12,-0.9929849913188381,True,0.29258246317817554,True,0.0,True,比例外推,636901644.02,664920000.0,636901644.02
17,300059,300862516.19,301046829.12,2018-03-31,一季度报告,291639883.24,2018,3,-0.9500467331845329,True,0.3660070796742044,True,0.04170488263241845,True,比例外推,1921587481.3066864,1269974118.0,1269974118.0
18,300059,558257892.12,558611949.16,2018-06-30,半年度报告,550443867.6400001,2018,6,-0.9807201494838972,True,0.6238789119087634,True,0.08958728121876575,True,比例外推,1141431350.590949,1198220000.0,1141431350.590949
19,300059,800396532.8700001,800873209.01,2018-09-30,三季度报告,791369087.3799998,2018,9,-0.9890449670551852,True,0.5548846000656514,True,0.05576395395805478,True,比例外推,1013296733.657399,1092230000.0,1013296733.657399
20,300059,958218736.74,958695412.88,2018-12-31,年度报告,947158427.47,2018,12,-0.9921276265831677,True,0.5042114835210091,True,0.0,True,比例外推,958695412.88,1092738333.0,1092738333.0
21,300059,385763451.08,385763451.08,2019-03-31,一季度报告,375260038.37,2019,3,-0.9833886544150157,True,1.7741478842941063,True,0.08969399356385252,True,比例外推,1730173028.2025766,1641901960.0,1730173028.2025766
22,300059,870774679.8499999,870774679.8499999,2019-06-30,半年度报告,836692976.7500002,2019,6,-0.9910476299564329,True,0.8742336861203087,True,0.09348716547268526,True,比例外推,1749791698.9865894,1667198325.0,1749791698.9865894
23,300059,1394525227.39,1394525227.39,2019-09-30,三季度报告,1353021415.56,2019,9,-0.9937559309357831,True,0.553235478243108,True,0.06198570401143333,True,比例外推,1744272521.572244,1771451377.0,1744272521.572244
24,300059,1831288851.32,1831288851.32,2019-12-31,年度报告,1784769602.5700004,2019,12,-0.9947843524256236,True,0.4224510214886998,True,0.0,True,比例外推,1831288851.32,1771451377.0,1831288851.32
25,300059,873689240.0199999,873689240.0199999,2020-03-31,一季度报告,871047402.6700001,2020,3,-0.9870445704070508,True,0.9244360258887175,True,0.08188903291521707,True,比例外推,3856470372.431671,2792382222.0,2792382222.0
