,SECURITYCODE_x,NETPROFIT_x,PARENTNETPROFIT_x,REPORTDATE_x,REPORTTIMETYPE_x,KCFJCXSYJLR,Year,Month,managesituationChangeRate,managesituationGreatChange,historyprofitextroplaterate,ifhistoryprofitextroplate,IfprofitdisStableChangeRage,IfprofitdisStable,predicttype,predict,analyst_prediction,adj_prediction
0,300099,67613135.04999998,67613135.04999998,2013-12-31,年度报告,66939778.31999999,2013,12,未知,未知,未知,未知,未知,未知,未知,未知,未知,未知
1,300099,20424369.25,19556999.74,2014-03-31,一季度报告,19206114.43,2014,3,未知,未知,未知,未知,未知,未知,未知,未知,未知,未知
2,300099,22322199.710000005,23287777.38,2014-06-30,半年度报告,22890107.24,2014,6,未知,未知,未知,未知,未知,未知,未知,未知,未知,未知
3,300099,9643252.65,12775585.94,2014-09-30,三季度报告,12383019.22,2014,9,未知,未知,未知,未知,未知,未知,未知,未知,未知,未知
4,300099,8672499.32,4952185.68,2014-12-31,年度报告,3494280.7,2014,12,0.0,True,未知,未知,未知,未知,未知,未知,未知,未知
5,300099,-5611119.3900000015,-4142930.96,2015-03-31,一季度报告,-3958644.41,2015,3,2.3104148393713544,False,未知,未知,未知,未知,未知,未知,未知,未知
6,300099,-7401087.66,-5930691.3199999975,2015-06-30,半年度报告,-5477048.27,2015,6,2.028963808603071,False,未知,未知,未知,未知,未知,未知,10000000.0,未知
7,300099,-9564568.33,-6509618.620000003,2015-09-30,三季度报告,-6071880.97,2015,9,6.011444945394019,False,未知,未知,未知,未知,未知,未知,10000000.0,未知
8,300099,34504252.809999995,23393455.21,2015-12-31,年度报告,2915645.4200000013,2015,12,6.796268705847529,False,未知,未知,未知,未知,未知,未知,未知,未知
9,300099,-4511284.44,-3575253.61,2016-03-31,一季度报告,-3636945.66,2016,3,-13.049847873580884,False,未知,未知,未知,未知,未知,未知,,未知
10,300099,3076451.3000000007,2499647.9400000004,2016-06-30,半年度报告,3056031.62,2016,6,-10.135567386321158,False,未知,未知,未知,未知,未知,未知,53500000.0,未知
11,300099,-1654664.38,-4675274.56,2016-09-30,三季度报告,-3837167.6400000006,2016,9,-8.06912562252561,False,未知,未知,未知,未知,未知,未知,4000000.0,未知
12,300099,47734513.98,29911896.05,2016-12-31,年度报告,31231617.83,2016,12,0.9595594613312246,False,0.09539317343426042,True,0.0,True,前期平均,29911896.05,30250000.0,29911896.05
13,300099,7480540.239999997,7841172.6000000015,2017-03-31,一季度报告,7544980.91,2017,3,-15.987557523639536,False,1.609087740048422,True,4.155687172722057,False,盈利变化,44821131.47666667,105000000.0,105000000.0
14,300099,6657282.94,6341103.4300000025,2017-06-30,半年度报告,5705811.39,2017,6,20.977638667642804,False,0.5876377994225973,True,4.960707499409365,False,前期平均,839537.0050000036,74735000.0,74735000.0
15,300099,22436974.500000004,23366143.8,2017-09-30,三季度报告,21823242.74,2017,9,-41.86214453350352,False,43.058300306846235,False,3.0976570964562193,False,盈利变化,41316522.88555556,73000000.0,73000000.0
16,300099,108296905.44999996,101644074.39,2017-12-31,年度报告,99198541.29,2017,12,0.4164412583802322,True,1.2111211068529253,True,0.0,True,比例外推,101644074.39,78000000.0,78000000.0
17,300099,-1541132.4700000002,2912076.33,2018-03-31,一季度报告,1724850.33,2018,3,8.03853637314302,False,-2.478016559234625,True,0.8916861497012416,False,前期平均,23783502.989999995,,23783502.989999995
18,300099,17752166.990000002,22111364.65,2018-06-30,半年度报告,18216606.26,2018,6,9.156265800834353,False,-4.078771201007986,True,1.3041251343069677,False,前期平均,40395504.599999994,未知,40395504.599999994
19,300099,15912526.360000005,24287643.660000004,2018-09-30,三季度报告,18538842.35,2018,9,2.013469353900633,False,-4.999734220683618,True,1.4207226134613047,False,前期平均,46315799.59,未知,46315799.59
20,300099,86421058.59,97453208.28,2018-12-31,年度报告,90960989.32,2018,12,-0.37566881741402514,True,1.6337191005439193,True,0.0,True,比例外推,97453208.28,130000000.0,130000000.0
21,300099,-5083252.42,-3674534.72,2019-03-31,一季度报告,-5393489.880000001,2019,3,-44.87237071839773,False,2.038059752211313,False,0.109307814587227,False,前期平均盈利变化,52468187.005,未知,52468187.005
22,300099,-12909837.980000002,-7977074.1400000015,2019-06-30,半年度报告,-12049550.809999995,2019,6,2.8087257227856877,False,2.647555306584988,False,0.08172233404075416,True,前期平均盈利变化,113389398.05499999,未知,113389398.05499999
23,300099,2071301.99,8713830.85,2019-09-30,三季度报告,2565183.01,2019,9,3.2490509376287346,False,0.5313529889717574,True,0.22317659523070776,False,前期平均,64935872.86000001,未知,64935872.86000001
24,300099,56521004.62000001,64087356.05,2019-12-31,年度报告,57268762.1,2019,12,-0.21763125616441284,True,0.10773918362988301,True,0.0,True,比例外推,64087356.05,未知,64087356.05
25,300099,-10564333.82,-8270362.14,2020-03-31,一季度报告,-8791459.139999999,2020,3,-14.301156319520326,False,2.7117034616399143,False,0.0944596845332512,True,去年同期,54391889.84,未知,54391889.84
