,SECURITYCODE_x,NETPROFIT_x,PARENTNETPROFIT_x,REPORTDATE_x,REPORTTIMETYPE_x,KCFJCXSYJLR,Year,Month,managesituationChangeRate,managesituationGreatChange,historyprofitextroplaterate,ifhistoryprofitextroplate,IfprofitdisStableChangeRage,IfprofitdisStable,predicttype,predict,analyst_prediction,adj_prediction
0,300042,5929278.409999997,5929278.409999997,2013-12-31,年度报告,-344863.48000000004,2013,12,未知,未知,未知,未知,未知,未知,未知,未知,未知,未知
1,300042,8563871.69,8563871.69,2014-03-31,一季度报告,-190200.92,2014,3,未知,未知,未知,未知,未知,未知,未知,未知,未知,未知
2,300042,12983599.310000002,12983599.310000002,2014-06-30,半年度报告,5651371.98,2014,6,未知,未知,未知,未知,未知,未知,未知,未知,未知,未知
3,300042,20545180.19,20545180.19,2014-09-30,三季度报告,13541767.19,2014,9,未知,未知,未知,未知,未知,未知,未知,未知,未知,未知
4,300042,20068462.85,20068462.85,2014-12-31,年度报告,11296159.73,2014,12,0.0,True,未知,未知,未知,未知,未知,未知,未知,未知
5,300042,5178273.33,5178273.33,2015-03-31,一季度报告,4378754.630000001,2015,3,-0.30764044294082626,True,未知,未知,未知,未知,未知,未知,未知,未知
6,300042,9920149.22,9920149.22,2015-06-30,半年度报告,8527292.61,2015,6,-0.5433255241146228,True,未知,未知,未知,未知,未知,未知,未知,未知
7,300042,18649005.46,18649005.46,2015-09-30,三季度报告,17229499.54,2015,9,-0.7114029492481178,True,未知,未知,未知,未知,未知,未知,未知,未知
8,300042,24287211.19,24287211.19,2015-12-31,年度报告,21633665.03,2015,12,-0.7045474556612593,True,未知,未知,未知,未知,未知,未知,未知,未知
9,300042,12053664.29,12053664.29,2016-03-31,一季度报告,12059793.95,2016,3,0.14503001910870497,True,未知,未知,未知,未知,未知,未知,未知,未知
10,300042,19764532.68,19764532.68,2016-06-30,半年度报告,18905362.340000004,2016,6,-0.40229947367666746,True,未知,未知,未知,未知,未知,未知,未知,未知
11,300042,33508602.89,33508602.89,2016-09-30,三季度报告,32019762.76,2016,9,-0.6820592699853284,True,未知,未知,未知,未知,未知,未知,未知,未知
12,300042,44438779.37,44438779.37,2016-12-31,年度报告,39542370.41,2016,12,-0.7558682895448567,True,0.8684093319574797,True,0.0,True,比例外推,44438779.37,未知,44438779.37
13,300042,14879388.29,14879388.29,2017-03-31,一季度报告,14762270.750000002,2017,3,-0.5080932845525601,True,0.7542624200890582,True,0.18035469239167734,False,平均增速,57416443.34522845,未知,57416443.34522845
14,300042,22820809.539999995,22820809.539999995,2017-06-30,半年度报告,17741977.560000002,2017,6,-0.7000041181848983,True,0.7258775483071547,True,0.0633533000447461,True,比例外推,43857328.360125855,未知,43857328.360125855
15,300042,36661035.27,36661035.27,2017-09-30,三季度报告,27188564.73,2017,9,-0.8230520553344385,True,0.7098762142542434,True,0.2638029074880518,False,平均增速,46894014.93933594,未知,46894014.93933594
16,300042,56189429.29,56189429.29,2017-12-31,年度报告,42075286.12,2017,12,-0.8665742287691464,True,1.003747224308892,True,0.0,True,比例外推,56189429.29,未知,56189429.29
17,300042,14890341.409999995,14890341.409999995,2018-03-31,一季度报告,10630961.58,2018,3,-0.6015106068584224,True,0.7269547532171257,True,0.08367616441302284,True,比例外推,41420072.35793331,未知,41420072.35793331
18,300042,27137979.94,27137979.94,2018-06-30,半年度报告,17636346.639999993,2018,6,-0.7401810658992075,True,0.5375478583113937,True,0.04678931159087418,True,比例外推,50391383.5052394,未知,50391383.5052394
19,300042,42788131.8,42788131.8,2018-09-30,三季度报告,30882606.0,2018,9,-0.838267567559611,True,0.40577900060097377,True,0.10460070194954729,False,平均增速,62005427.180203915,未知,62005427.180203915
20,300042,64496644.42,64496644.42,2018-12-31,年度报告,45058201.11000001,2018,12,-0.894476977521905,True,0.6351726277686698,True,0.0,True,比例外推,64496644.42,未知,64496644.42
21,300042,15585331.63,15585331.63,2019-03-31,一季度报告,10871850.79,2019,3,-0.601803729898494,True,0.10572994767457551,True,0.061320313009687766,True,比例外推,41287175.50958903,未知,41287175.50958903
22,300042,32840312.28,32840312.28,2019-06-30,半年度报告,21739524.860000007,2019,6,-0.7815136416524304,True,0.27452210198535315,True,0.04770769530536623,True,比例外推,61611278.82404546,未知,61611278.82404546
23,300042,51060912.63000001,51060912.63000001,2019-09-30,三季度报告,36141879.67,2019,9,-0.8614270322033551,True,0.21956256073132355,True,0.09597815428174505,True,比例外推,65553503.16016334,未知,65553503.16016334
24,300042,71852057.57999998,71852057.57999998,2019-12-31,年度报告,50660047.72999999,2019,12,-0.9080684202516222,True,0.2818800071840612,True,0.0,True,比例外推,71852057.57999998,未知,71852057.57999998
25,300042,13714373.56,13714373.56,2020-03-31,一季度报告,9309121.27,2020,3,-0.6195603307800773,True,0.04705899496292727,True,0.08372165635343809,True,比例外推,39253638.00776494,未知,39253638.00776494
