,SECURITYCODE_x,NETPROFIT_x,PARENTNETPROFIT_x,REPORTDATE_x,REPORTTIMETYPE_x,KCFJCXSYJLR,Year,Month,managesituationChangeRate,managesituationGreatChange,historyprofitextroplaterate,ifhistoryprofitextroplate,IfprofitdisStableChangeRage,IfprofitdisStable,predicttype,predict,analyst_prediction,adj_prediction
0,300047,126924642.48000002,122180394.93,2013-12-31,年度报告,121148684.55,2013,12,未知,未知,未知,未知,未知,未知,未知,未知,未知,未知
1,300047,4102573.5800000005,3731387.78,2014-03-31,一季度报告,3597091.64,2014,3,未知,未知,未知,未知,未知,未知,未知,未知,未知,未知
2,300047,4711815.609999999,3397952.280000001,2014-06-30,半年度报告,517518.22,2014,6,未知,未知,未知,未知,未知,未知,未知,未知,未知,未知
3,300047,7371196.97,6033270.97,2014-09-30,三季度报告,2503372.7299999995,2014,9,未知,未知,未知,未知,未知,未知,未知,未知,未知,未知
4,300047,68647852.03999999,61202490.99,2014-12-31,年度报告,56079876.27000001,2014,12,0.0,True,未知,未知,未知,未知,未知,未知,未知,未知
5,300047,-23362703.100000005,-23971266.46,2015-03-31,一季度报告,-23969793.67000001,2015,3,29.937810134291365,False,未知,未知,未知,未知,未知,未知,133889796.0,未知
6,300047,404444.6700000001,-2754883.84,2015-06-30,半年度报告,-10008261.56,2015,6,25.93752323639847,False,未知,未知,未知,未知,未知,未知,122277603.0,未知
7,300047,18686884.140000004,12401829.999999998,2015-09-30,三季度报告,4579722.449999998,2015,9,16.2190002514612,False,未知,未知,未知,未知,未知,未知,112800000.0,未知
8,300047,75063079.00000001,63050115.11000001,2015-12-31,年度报告,52720003.51000002,2015,12,0.8489237275194436,False,未知,未知,未知,未知,未知,未知,112800000.0,未知
9,300047,-8990868.18,-11763015.94,2016-03-31,一季度报告,-12430545.86,2016,3,-6.432789259732534,False,未知,未知,未知,未知,未知,未知,111964286.0,未知
10,300047,11035628.070000002,2780297.76,2016-06-30,半年度报告,754513.12,2016,6,312.8244904550231,False,未知,未知,未知,未知,未知,未知,110978000.0,未知
11,300047,35385161.370000005,24153764.84,2016-09-30,三季度报告,5477881.25,2016,9,5.792177953750613,False,未知,未知,未知,未知,未知,未知,116000000.0,未知
12,300047,134590900.4,114903708.10999998,2016-12-31,年度报告,91174966.90000002,2016,12,0.6909064239158108,False,0.23237591068999972,True,0.0,True,前期平均,114903708.10999998,125025000.0,114903708.10999998
13,300047,3244490.3100000005,1265430.13,2017-03-31,一季度报告,-5744821.94,2017,3,-15.117061883116168,False,-0.06637510711817911,True,0.2790431517799601,False,盈利变化,123818006.66999999,151220901.0,151220901.0
14,300047,20447045.470000006,11211034.23,2017-06-30,半年度报告,7719814.369999999,2017,6,10.501351955222244,False,3.3139431796069627,False,0.1323932446105451,False,去年同期,101631488.01000002,157648750.0,157648750.0
15,300047,46513351.52,33077040.17999999,2017-09-30,三季度报告,12761697.470000004,2017,9,2.586945419093337,False,1.715868541557395,True,0.023005723713936665,True,前期平均,83935432.48,171539883.99999997,171539883.99999997
16,300047,179340089.09,155932941.07999998,2017-12-31,年度报告,133545073.92,2017,12,-0.056959704535864644,True,0.8730781218380448,True,0.0,True,比例外推,155932941.07999998,172904913.00000003,155932941.07999998
17,300047,7310482.099999999,5122172.22,2018-03-31,一季度报告,1517549.2999999996,2018,3,38.120055957263745,False,-1.2005645857096243,True,0.2433231054371625,False,前期平均,95269827.19000003,223678571.0,223678571.0
18,300047,49784633.07000001,38362391.48,2018-06-30,半年度报告,28576240.849999994,2018,6,5.207480815075431,False,2.5746355700182377,False,0.1485861024226665,False,去年同期,164187651.03,223592296.0,223592296.0
19,300047,94049114.4,78227346.05999999,2018-09-30,三季度报告,64705087.44000001,2018,9,1.728778691112474,False,0.7204213778595778,True,0.02075593289242536,True,前期平均,145146029.415,224166000.0,224166000.0
20,300047,244438187.76,215542694.9700001,2018-12-31,年度报告,188993757.06,2018,12,-0.29226843187133594,True,0.7108197955817096,True,0.0,True,比例外推,215542694.9700001,226713332.99999997,215542694.9700001
21,300047,21612945.290000007,12863962.679999998,2019-03-31,一季度报告,3793437.66,2019,3,16.362007148611998,False,-3.544379177765419,True,0.07922877064227848,True,前期平均,134311666.99000004,288195714.0,288195714.0
22,300047,56968537.86,44807137.01000001,2019-06-30,半年度报告,34862700.1,2019,6,1.5494742986563101,False,2.162668698180707,False,0.07877394094031426,True,去年同期,205224653.22000003,280856667.0,280856667.0
23,300047,109694995.48,89026905.99000001,2019-09-30,三季度报告,74900205.04000002,2019,9,0.34955701911425985,True,1.2967233733857848,True,0.17636352797770663,False,平均增速,250448167.4819777,263517500.0,250448167.4819777
24,300047,152722444.39,116717268.15,2019-12-31,年度报告,95924656.30000004,2019,12,-0.4807495357287621,True,0.5572733877410745,True,0.0,True,比例外推,116717268.15,289446000.0,289446000.0
25,300047,12989320.09,4788724.95,2020-03-31,一季度报告,-1193200.61,2020,3,4.87262128215011,False,3.095310617680716,False,0.04453711295481367,True,去年同期,96919943.59000005,216470000.0,216470000.0
