,SECURITYCODE_x,NETPROFIT_x,PARENTNETPROFIT_x,REPORTDATE_x,REPORTTIMETYPE_x,KCFJCXSYJLR,Year,Month,managesituationChangeRate,managesituationGreatChange,historyprofitextroplaterate,ifhistoryprofitextroplate,IfprofitdisStableChangeRage,IfprofitdisStable,predicttype,predict,analyst_prediction,adj_prediction
0,300053,28171819.51,28014491.629999995,2013-12-31,年度报告,25692240.93,2013,12,未知,未知,未知,未知,未知,未知,未知,未知,未知,未知
1,300053,8204413.9700000025,8081926.77,2014-03-31,一季度报告,8168818.989999997,2014,3,未知,未知,未知,未知,未知,未知,未知,未知,未知,未知
2,300053,12462510.36,12264126.349999998,2014-06-30,半年度报告,12120227.579999998,2014,6,未知,未知,未知,未知,未知,未知,未知,未知,未知,未知
3,300053,16239436.71,16017829.53,2014-09-30,三季度报告,15756093.270000005,2014,9,未知,未知,未知,未知,未知,未知,未知,未知,未知,未知
4,300053,25226683.660000004,25064610.28,2014-12-31,年度报告,24622442.91000001,2014,12,0.0,True,未知,未知,未知,未知,未知,未知,未知,未知
5,300053,4920127.32,4208388.92,2015-03-31,一季度报告,4208388.92,2015,3,2.433739400889835,False,未知,未知,未知,未知,未知,未知,78100000.0,未知
6,300053,29350002.689999994,28522334.300000004,2015-06-30,半年度报告,24744710.41,2015,6,1.2605252630658599,False,未知,未知,未知,未知,未知,未知,89000000.0,未知
7,300053,37115790.58,36227608.59,2015-09-30,三季度报告,30508800.460000005,2015,9,0.7347781215004963,False,未知,未知,未知,未知,未知,未知,,未知
8,300053,58697512.11000001,57833661.60999999,2015-12-31,年度报告,53775611.32999999,2015,12,0.11674684987110974,True,未知,未知,未知,未知,未知,未知,98000000.0,未知
9,300053,10184385.439999998,10146269.19,2016-03-31,一季度报告,9533860.679999998,2016,3,4.725831401858926,False,未知,未知,未知,未知,未知,未知,112350000.0,未知
10,300053,19600205.910000004,20214506.04,2016-06-30,半年度报告,18268455.22,2016,6,-0.040142523748436236,True,未知,未知,未知,未知,未知,未知,61500000.0,未知
11,300053,36429266.0,36375284.05,2016-09-30,三季度报告,33236661.000000004,2016,9,-0.24097482312068796,True,未知,未知,未知,未知,未知,未知,76000000.0,未知
12,300053,84471063.96,84589488.63000001,2016-12-31,年度报告,75546642.13,2016,12,-0.5200508761392545,True,1.1984703175341835,True,0.0,True,比例外推,84589488.63000001,,84589488.63000001
13,300053,21731435.01,21715011.17,2017-03-31,一季度报告,20231789.820000004,2017,3,1.7661776624589347,False,0.5519605927499803,True,0.15302320824484042,False,前期平均,54725434.335,未知,54725434.335
14,300053,55098308.37,54962738.82000001,2017-06-30,半年度报告,49864395.78,2017,6,0.43732263014781747,True,0.06247175879805171,True,0.15625224559878476,False,平均增速,184524971.5894119,147825000.0,147825000.0
15,300053,91000901.53,90822259.67999998,2017-09-30,三季度报告,83821985.35000001,2017,9,-0.226670679831979,True,0.3655369061403168,True,0.10911509651575058,False,平均增速,182135712.9284432,138550000.0,138550000.0
16,300053,120410484.79,120873962.05,2017-12-31,年度报告,96277091.89,2017,12,-0.6664914801672163,True,1.0130324320652107,True,0.0,True,比例外推,120873962.05,未知,120873962.05
17,300053,22704370.86,22652345.91,2018-03-31,一季度报告,21755241.53,2018,3,0.2963625962591229,True,1.8774758054492855,True,0.07194195740209997,True,比例外推,158316428.73630995,190500000.0,190500000.0
18,300053,59058471.04999998,59003146.62,2018-06-30,半年度报告,53225316.84,2018,6,-0.4886990119402825,True,1.2511981029637533,True,0.1648131668128558,False,平均增速,114861498.63818982,184250000.0,184250000.0
19,300053,91554635.6,91484755.71,2018-09-30,三季度报告,76346960.13,2018,9,-0.6904226327833392,True,1.4746979813935444,True,0.24466042421251266,False,平均增速,105499555.25332394,170000000.0,170000000.0
20,300053,94847638.04000002,94925258.01999998,2018-12-31,年度报告,59292990.08999998,2018,12,-0.7660351624766513,True,0.6820797984486096,True,0.0,True,比例外推,94925258.01999998,177200000.0,177200000.0
21,300053,23129436.620000005,23139920.61,2019-03-31,一季度报告,14842058.21,2019,3,0.2408104009449748,True,0.42276592234682786,True,0.13249403407528146,False,平均增速,53683653.04106364,178800000.0,178800000.0
22,300053,58014672.88999999,58020603.24999999,2019-06-30,半年度报告,40962830.81,2019,6,-0.522984272888656,True,0.5812488807642181,True,0.34519658630992134,False,平均增速,63222855.26025591,166666667.00000003,166666667.00000003
23,300053,75830346.59,75765964.6,2019-09-30,三季度报告,46006820.09999999,2019,9,-0.6922949960384092,True,0.4369381658145575,True,0.42611898873144194,False,平均增速,62568462.4924539,219000000.0,219000000.0
24,300053,-233734945.06,-233762251.8,2019-12-31,年度报告,-274124161.48999995,2019,12,-0.7029781648529917,True,0.07412220750308028,True,0.0,True,比例外推,-233762251.8,,-233762251.8
25,300053,18602783.59,18601659.15,2020-03-31,一季度报告,11772243.390000002,2020,3,0.21800716432668543,True,0.04102699015594571,True,0.2284464127753295,False,平均增速,193499925.75918338,,193499925.75918338
