,SECURITYCODE_x,NETPROFIT_x,PARENTNETPROFIT_x,REPORTDATE_x,REPORTTIMETYPE_x,KCFJCXSYJLR,Year,Month,managesituationChangeRate,managesituationGreatChange,historyprofitextroplaterate,ifhistoryprofitextroplate,IfprofitdisStableChangeRage,IfprofitdisStable,predicttype,predict,analyst_prediction,adj_prediction
0,300031,102146189.19,102146189.19,2013-12-31,年度报告,98870056.69,2013,12,未知,未知,未知,未知,未知,未知,未知,未知,未知,未知
1,300031,21004001.33,21004001.33,2014-03-31,一季度报告,20648821.26,2014,3,未知,未知,未知,未知,未知,未知,未知,未知,未知,未知
2,300031,40377905.04999999,40377905.04999999,2014-06-30,半年度报告,39335272.07,2014,6,未知,未知,未知,未知,未知,未知,未知,未知,未知,未知
3,300031,53050073.46999999,53050073.46999999,2014-09-30,三季度报告,51290631.63,2014,9,未知,未知,未知,未知,未知,未知,未知,未知,未知,未知
4,300031,73597108.63,73581194.35,2014-12-31,年度报告,70144334.00999999,2014,12,0.0,True,未知,未知,未知,未知,未知,未知,未知,未知
5,300031,22623398.65,22256127.340000004,2015-03-31,一季度报告,20647045.24,2015,3,3.8631776195950187,False,未知,未知,未知,未知,未知,未知,106950000.0,未知
6,300031,40320650.4,39278865.48,2015-06-30,半年度报告,37280812.72,2015,6,1.5297545542175182,False,未知,未知,未知,未知,未知,未知,70000000.0,未知
7,300031,59194668.64999998,56506995.22,2015-09-30,三季度报告,54321466.98,2015,9,0.9254674406391545,False,未知,未知,未知,未知,未知,未知,78000000.0,未知
8,300031,69971751.9,68298235.68,2015-12-31,年度报告,63049812.74000002,2015,12,0.38791035533103396,True,未知,未知,未知,未知,未知,未知,104000000.0,未知
9,300031,27559751.57,20745406.270000003,2016-03-31,一季度报告,20509919.34,2016,3,3.5150682605329946,False,未知,未知,未知,未知,未知,未知,209783332.99999997,未知
10,300031,105367297.95,76884181.21,2016-06-30,半年度报告,76385451.26,2016,6,1.5333467634242328,False,未知,未知,未知,未知,未知,未知,206893750.0,未知
11,300031,158990029.73,114898154.62000002,2016-09-30,三季度报告,112205453.86,2016,9,0.7255977864148417,False,未知,未知,未知,未知,未知,未知,187125778.0,未知
12,300031,195655213.34,140725667.44,2016-12-31,年度报告,128971456.43000002,2016,12,0.4598203763138877,True,0.20370503150946268,True,0.0,True,比例外推,140725667.44,175011429.0,175011429.0
13,300031,40895760.28,36505472.76,2017-03-31,一季度报告,36309001.17,2017,3,2.7063537721142095,False,0.26341480732907074,True,0.10126483783887785,False,前期平均,82454612.88499999,287300000.0,287300000.0
14,300031,115777251.48,106777706.1,2017-06-30,半年度报告,104063620.84,2017,6,-0.03057028909983551,True,1.6113800268775447,True,0.020668456700991822,True,比例外推,181688338.80545777,285648571.0,285648571.0
15,300031,173161693.20999998,160532793.32,2017-09-30,三季度报告,157173968.07999998,2017,9,-0.35753085043466765,True,1.832917190188294,True,0.08971176694400784,True,比例外推,194817867.11481848,268190000.0,268190000.0
16,300031,236626482.91,221005946.43,2017-12-31,年度报告,215517989.61,2017,12,-0.4779275877893661,True,1.7255940127645728,True,0.0,True,比例外推,221005946.43,263778000.0,263778000.0
17,300031,59214939.04999998,53659430.57,2018-03-31,一季度报告,52837334.06,2018,3,1.4977207537074304,False,0.6298602260207012,True,0.10914797092897441,False,前期平均,129091582.86500001,286021667.0,286021667.0
18,300031,159823287.02999997,142335548.43,2018-06-30,半年度报告,140269793.21999997,2018,6,-0.11773523827653407,True,0.5893868064070381,True,0.07261689756974421,True,比例外推,254590079.97948548,276765000.0,254590079.97948548
19,300031,242248603.46,221600012.95,2018-09-30,三季度报告,218885006.61,2018,9,-0.41011093564369744,True,0.587294567361585,True,0.09099905029468636,True,比例外推,269555611.04149544,289416667.0,269555611.04149544
20,300031,289003960.79,271746593.72,2018-12-31,年度报告,266825909.79000005,2018,12,-0.5683230890565579,True,0.7816450426725509,True,0.0,True,比例外推,271746593.72,342500000.0,342500000.0
21,300031,90085971.45,87555851.13,2019-03-31,一季度报告,87045790.66999999,2019,3,0.7250070814689124,False,0.7300269167441771,True,0.02284783752517841,True,前期平均,231391113.895,360256364.00000006,360256364.00000006
22,300031,170970936.72,167019125.49,2019-06-30,半年度报告,164774380.57999998,2019,6,-0.3608804380876835,True,0.44541918344308673,True,0.058660446338670735,True,比例外推,311038904.4586426,361220000.0,361220000.0
23,300031,225933902.11000004,232773580.2,2019-09-30,三季度报告,229749985.40000007,2019,9,-0.5783414734654339,True,0.45866233247725724,True,0.0772539231071584,True,比例外推,287882849.5512452,338110000.0,338110000.0
24,300031,286428426.32999986,305042137.26,2019-12-31,年度报告,298166174.1500001,2019,12,-0.6465578225613909,True,0.3371094048028411,True,0.0,True,比例外推,305042137.26,316000000.0,305042137.26
25,300031,134129574.03,118442473.82999998,2020-03-31,一季度报告,115920654.83000004,2020,3,0.133874537243501,True,0.7997271431107487,True,0.07245980616105882,True,比例外推,530688596.5213553,393820769.0,393820769.0
