,SECURITYCODE_x,NETPROFIT_x,PARENTNETPROFIT_x,REPORTDATE_x,REPORTTIMETYPE_x,KCFJCXSYJLR,Year,Month,managesituationChangeRate,managesituationGreatChange,historyprofitextroplaterate,ifhistoryprofitextroplate,IfprofitdisStableChangeRage,IfprofitdisStable,predicttype,predict,analyst_prediction,adj_prediction
0,300084,28806816.010000005,22503569.31,2013-12-31,年度报告,21888694.96,2013,12,未知,未知,未知,未知,未知,未知,未知,未知,未知,未知
1,300084,4577742.579999999,4592322.03,2014-03-31,一季度报告,4347314.21,2014,3,未知,未知,未知,未知,未知,未知,未知,未知,未知,未知
2,300084,8627394.09,8242729.2799999975,2014-06-30,半年度报告,7461314.590000003,2014,6,未知,未知,未知,未知,未知,未知,未知,未知,未知,未知
3,300084,13883335.04,12434905.12,2014-09-30,三季度报告,9272897.72,2014,9,未知,未知,未知,未知,未知,未知,未知,未知,未知,未知
4,300084,42758696.61000001,40100922.29,2014-12-31,年度报告,34588597.2,2014,12,0.0,True,未知,未知,未知,未知,未知,未知,未知,未知
5,300084,12420785.58,11982884.030000005,2015-03-31,一季度报告,11461541.8,2015,3,5.292799454442021,False,未知,未知,未知,未知,未知,未知,97200000.0,未知
6,300084,10343119.05,9249887.910000002,2015-06-30,半年度报告,7787771.6099999985,2015,6,2.3389938734095783,False,未知,未知,未知,未知,未知,未知,98500000.0,未知
7,300084,-3258073.59,-4112391.3,2015-09-30,三季度报告,-5773023.969999999,2015,9,1.0749204659401497,False,未知,未知,未知,未知,未知,未知,,未知
8,300084,11628198.03,10407949.21,2015-12-31,年度报告,7986358.77,2015,12,-0.32629340242183774,True,未知,未知,未知,未知,未知,未知,97200000.0,未知
9,300084,-7875651.000000001,-7446507.76,2016-03-31,一季度报告,-8048862.53,2016,3,1.3192426778854358,False,未知,未知,未知,未知,未知,未知,46887143.0,未知
10,300084,3435204.12,2912502.9200000013,2016-06-30,半年度报告,2200382.6300000004,2016,6,1.7851188670210658,False,未知,未知,未知,未知,未知,未知,34900000.0,未知
11,300084,2628794.1,2094026.5,2016-09-30,三季度报告,982412.29,2016,9,-9.841671378576812,False,未知,未知,未知,未知,未知,未知,23430000.0,未知
12,300084,7559439.02,7075820.110000001,2016-12-31,年度报告,3818535.86,2016,12,1.4773241679992275,False,0.6750334734065655,True,0.0,True,前期平均,7075820.110000001,23530000.0,23530000.0
13,300084,-3036163.25,-2920567.96,2017-03-31,一季度报告,-2923553.4600000004,2017,3,-4.657706011858576,False,1.9266274027809713,True,1.9255020496249697,False,前期平均,10462482.02,46750000.0,46750000.0
14,300084,1801702.11,1996256.44,2017-06-30,半年度报告,2116126.53,2017,6,7.385765446159282,False,0.6378375118639517,True,0.3861050436838418,False,前期平均,15659191.325000001,34751049.0,34751049.0
15,300084,2338082.8000000003,2415906.08,2017-09-30,三季度报告,1865662.87,2017,9,9.958186496994953,False,0.5051803454681107,True,0.6570289823403693,False,前期平均,21953447.189999998,40000000.0,40000000.0
16,300084,25248383.149999995,12883714.910000002,2017-12-31,年度报告,21872897.7,2017,12,2.8107081668078604,False,0.722012478556176,True,0.0,True,前期平均,12883714.910000002,,12883714.910000002
17,300084,-21085231.75,-18731503.1,2018-03-31,一季度报告,-21891026.82,2018,3,-10.487900892680921,False,2.3360058746599313,False,1.8390529348506208,False,去年同期,6064948.059999999,未知,6064948.059999999
18,300084,-31485883.8,-26967820.92,2018-06-30,半年度报告,-32359494.82,2018,6,14.988667521735879,False,0.7384729494626885,True,0.452626146931538,False,盈利变化,-10100032.656666664,未知,-10100032.656666664
19,300084,-28216519.399999995,-24164145.710000005,2018-09-30,三季度报告,-31516597.910000004,2018,9,11.320699681807676,False,-8.43098364766346,True,0.5960971377550629,False,盈利变化,-1952845.4366666675,未知,-1952845.4366666675
20,300084,64010858.71000001,65935690.28,2018-12-31,年度报告,57752424.94,2018,12,0.14093705877558388,True,1.631734494894461,True,0.0,True,比例外推,65935690.28,未知,65935690.28
21,300084,-18641864.95,-18514356.380000006,2019-03-31,一季度报告,-23547660.190000005,2019,3,-2.366208176014001,False,-2.8646610484594714,True,1.2343231541204869,False,前期平均,-182431.6050000079,未知,-182431.6050000079
22,300084,-29865854.809999995,-29171102.13,2019-06-30,半年度报告,-35568474.06000001,2019,6,-1.9149120981638128,False,13.024612401738572,False,0.5978706191594,False,去年同期,60940817.629999995,未知,60940817.629999995
23,300084,-47725949.39,-46759880.15000001,2019-09-30,三季度报告,-53990144.09,2019,9,-2.0209202489375784,False,12.361875870126756,False,0.4780027747930231,False,去年同期,42509142.69999998,未知,42509142.69999998
24,300084,34844550.440000005,34547122.419999994,2019-12-31,年度报告,-63556498.97999999,2019,12,-0.5499698552630149,True,2.9021705481281583,False,0.0,True,比例外推,34547122.419999994,未知,34547122.419999994
25,300084,-28357010.05,-27925551.35,2020-03-31,一季度报告,-29707513.50000001,2020,3,-2.54527543715523,False,-0.5456705509776694,True,0.417903257665892,False,前期平均,24294400.109999992,未知,24294400.109999992
