,SECURITYCODE_x,NETPROFIT_x,PARENTNETPROFIT_x,REPORTDATE_x,REPORTTIMETYPE_x,KCFJCXSYJLR,Year,Month,managesituationChangeRate,managesituationGreatChange,historyprofitextroplaterate,ifhistoryprofitextroplate,IfprofitdisStableChangeRage,IfprofitdisStable,predicttype,predict,analyst_prediction,adj_prediction
0,300024,255072791.85,249861355.1,2013-12-31,年度报告,221918323.18000004,2013,12,未知,未知,未知,未知,未知,未知,未知,未知,未知,未知
1,300024,45511318.39,46362397.82,2014-03-31,一季度报告,41890160.29,2014,3,未知,未知,未知,未知,未知,未知,未知,未知,未知,未知
2,300024,130642434.36999996,129536821.15,2014-06-30,半年度报告,124858096.64,2014,6,未知,未知,未知,未知,未知,未知,未知,未知,未知,未知
3,300024,195311168.98,191447110.0600001,2014-09-30,三季度报告,186296970.78,2014,9,未知,未知,未知,未知,未知,未知,未知,未知,未知,未知
4,300024,332079747.21,325669994.34,2014-12-31,年度报告,258246446.68,2014,12,0.0,True,未知,未知,未知,未知,未知,未知,未知,未知
5,300024,51015321.18000002,51470866.54,2015-03-31,一季度报告,48044543.71,2015,3,4.6046012480720835,False,未知,未知,未知,未知,未知,未知,463860711.0,未知
6,300024,159159803.15,157433364.16,2015-06-30,半年度报告,151629324.54000002,2015,6,0.9524497769812957,False,未知,未知,未知,未知,未知,未知,452250000.0,未知
7,300024,235089483.2,231798174.71,2015-09-30,三季度报告,216698082.86000004,2015,9,0.3059815943046229,True,未知,未知,未知,未知,未知,未知,407360000.0,未知
8,300024,402507153.41000015,394823483.4699999,2015-12-31,年度报告,234846548.77,2015,12,-0.23189295946826433,True,未知,未知,未知,未知,未知,未知,400060000.0,未知
9,300024,56376342.26,54108572.03000002,2016-03-31,一季度报告,46694073.16,2016,3,3.9999252371657787,False,未知,未知,未知,未知,未知,未知,506813333.0,未知
10,300024,170433495.8,165701310.66000003,2016-06-30,半年度报告,136506532.52,2016,6,0.6026206793533596,False,未知,未知,未知,未知,未知,未知,479266667.0,未知
11,300024,255104312.26,248463633.29,2016-09-30,三季度报告,188914734.06000003,2016,9,0.08500298855563611,True,未知,未知,未知,未知,未知,未知,446511667.0,未知
12,300024,419491312.14,410773622.59,2016-12-31,年度报告,274272340.24,2016,12,-0.3662900405892195,True,0.37104798713599274,True,0.0,True,比例外推,410773622.59,451367500.0,410773622.59
13,300024,58300312.73,57929670.96,2017-03-31,一季度报告,51113308.41,2017,3,3.52446507922843,False,0.16809913845838412,True,0.025566593622783157,True,前期平均,259508816.685,496533333.0,496533333.0
14,300024,179104792.11,176749380.01999998,2017-06-30,半年度报告,138348921.84,2017,6,0.4966118640746673,True,0.1762055204162319,True,0.10337230889687454,False,平均增速,318106110.1940902,471996250.0,471996250.0
15,300024,276837794.27,273713304.92,2017-09-30,三季度报告,234799461.15000004,2017,9,-0.00012355890702416315,True,0.18542716405230528,True,0.14508887830378758,False,平均增速,371085848.6430849,463828333.0,463828333.0
16,300024,443585893.54,432377941.4,2017-12-31,年度报告,293113728.32,2017,12,-0.39194737896056203,True,0.14211487241589607,True,0.0,True,比例外推,432377941.4,581000000.0,581000000.0
17,300024,57355502.54,60866716.24999999,2018-03-31,一季度报告,59287733.11000002,2018,3,3.375153063608618,False,0.08575118146991954,True,0.02150977715310079,True,前期平均,268056852.32000002,524066250.0,524066250.0
18,300024,214283070.95,212844745.33,2018-06-30,半年度报告,204682188.38000005,2018,6,0.42415392042298367,True,0.0868230190394166,True,0.10720126325831925,False,平均增速,413864959.849494,550770569.0,550770569.0
19,300024,331487891.97,329259037.75999993,2018-09-30,三季度报告,309590797.19,2018,9,-0.07862005430794819,True,0.12950346101469604,True,0.11853546994989927,False,平均增速,400309731.4739524,538905967.0,538905967.0
20,300024,454987179.2200001,449350851.81,2018-12-31,年度报告,361042879.11,2018,12,-0.4249754206239225,True,0.07928642723973006,True,0.0,True,比例外推,449350851.81,526655967.0,526655967.0
21,300024,60936074.71000002,67447093.79,2019-03-31,一季度报告,67201549.47,2019,3,3.447224425801361,False,0.0002995386463181976,True,0.005400896557652829,True,前期平均,302236437.285,566180430.0,566180430.0
22,300024,208989531.56,215235096.95,2019-06-30,半年度报告,147978000.01,2019,6,0.1903543789957991,True,0.2260921241633713,True,0.05471230613615141,True,比例外推,356159810.3204918,485118333.0,485118333.0
23,300024,279328860.07000005,287003038.6,2019-09-30,三季度报告,227268323.69,2019,9,-0.23052154232805486,True,0.24633071118353023,True,0.09365745487598931,True,比例外推,350194746.23066103,446997500.0,446997500.0
24,300024,290017943.52000004,292924100.01,2019-12-31,年度报告,133603914.91,2019,12,-0.4393846607122427,True,0.05433714672495706,True,0.0,True,比例外推,292924100.01,508398000.0,508398000.0
25,300024,40993365.13,43318231.71,2020-03-31,一季度报告,7313008.64,2020,3,3.1859078233035714,False,0.05374856539196009,True,0.22246294426764163,False,前期平均,315196014.66499996,320726000.0,315196014.66499996
