,SECURITYCODE_x,NETPROFIT_x,PARENTNETPROFIT_x,REPORTDATE_x,REPORTTIMETYPE_x,KCFJCXSYJLR,Year,Month,managesituationChangeRate,managesituationGreatChange,historyprofitextroplaterate,ifhistoryprofitextroplate,IfprofitdisStableChangeRage,IfprofitdisStable,predicttype,predict,analyst_prediction,adj_prediction
0,300022,-244266399.43,-144133453.43,2013-12-31,年度报告,-130929400.52999996,2013,12,未知,未知,未知,未知,未知,未知,未知,未知,未知,未知
1,300022,-33964553.58,-22859585.49,2014-03-31,一季度报告,-23091207.430000003,2014,3,未知,未知,未知,未知,未知,未知,未知,未知,未知,未知
2,300022,-94981202.89999998,-57885671.32000002,2014-06-30,半年度报告,-46084169.75,2014,6,未知,未知,未知,未知,未知,未知,未知,未知,未知,未知
3,300022,-150706761.26000002,-99058290.99,2014-09-30,三季度报告,-87737137.97000001,2014,9,未知,未知,未知,未知,未知,未知,未知,未知,未知,未知
4,300022,-485885046.5799999,-387084090.29999983,2014-12-31,年度报告,-455675596.08,2014,12,-0.0,False,未知,未知,未知,未知,未知,未知,未知,未知
5,300022,-1565787.9100000004,679838.22,2015-03-31,一季度报告,646020.0800000001,2015,3,6.191803621226929,False,未知,未知,未知,未知,未知,未知,18000000.0,未知
6,300022,16370288.35,1177975.89,2015-06-30,半年度报告,975747.88,2015,6,1.571734111297511,False,未知,未知,未知,未知,未知,未知,18000000.0,未知
7,300022,22272334.700000007,5225982.49,2015-09-30,三季度报告,4874642.670000001,2015,9,0.6208058443283142,False,未知,未知,未知,未知,未知,未知,,未知
8,300022,32175284.53,12691398.15,2015-12-31,年度报告,-12761693.98,2015,12,-0.49727533055540935,False,未知,未知,未知,未知,未知,未知,7000000.0,未知
9,300022,5889053.77,737900.57,2016-03-31,一季度报告,631733.33,2016,3,155.0022260166768,False,未知,未知,未知,未知,未知,未知,未知,未知
10,300022,57019868.80999999,23875074.12,2016-06-30,半年度报告,3810386.29,2016,6,-15.921325404142927,False,未知,未知,未知,未知,未知,未知,15000000.0,未知
11,300022,65289564.24999999,20940766.88,2016-09-30,三季度报告,-2477806.94,2016,9,-11.967256137274191,False,未知,未知,未知,未知,未知,未知,,未知
12,300022,40686003.50000001,11760395.27,2016-12-31,年度报告,7233130.769999999,2016,12,-8.591740150805748,False,-1.0881331803308085,True,0.0,True,前期平均,11760395.27,未知,11760395.27
13,300022,7443889.7200000025,541465.5100000001,2017-03-31,一季度报告,631733.33,2017,3,-42.478038572909824,False,-1.331494352321802,True,0.07975237976620368,True,前期平均,-222454585.845,未知,-222454585.845
14,300022,-6838242.419999999,-17060312.779999994,2017-06-30,半年度报告,-18825653.58,2017,6,-5.283882171738025,False,-2.450685802001015,True,0.3429726433454032,False,盈利变化,-3330297.9766666647,未知,-3330297.9766666647
15,300022,6560615.25,-10170134.54,2017-09-30,三季度报告,-12848071.949999996,2017,9,-4.741277832620855,False,-2.0166988088586826,True,0.3698746964311067,False,盈利变化,7151388.59888889,未知,7151388.59888889
16,300022,-33173701.7,-44691030.27999999,2017-12-31,年度报告,-53442302.7,2017,12,-7.0036960727784425,False,-1.1793481511888488,True,0.0,True,盈利变化,-8464749.219999999,未知,-8464749.219999999
17,300022,3703857.49,468229.43,2018-03-31,一季度报告,315030.43,2018,3,-33.814349569649444,False,2.443641895296258,False,0.07904012074011194,True,去年同期,-53605806.6,未知,-53605806.6
18,300022,10628141.02,2195159.06,2018-06-30,半年度报告,-7209523.5,2018,6,34.72064054289553,False,1.1863531210347937,True,0.3439919261385227,False,前期平均,-2962189.6300000013,未知,-2962189.6300000013
19,300022,14619617.97,2296673.38,2018-09-30,三季度报告,-17891623.64,2018,9,-38.23223967904535,False,0.8501490870190864,True,0.40178614121650114,False,前期平均,-1666026.0900000012,未知,-1666026.0900000012
20,300022,32037840.79000001,10465679.14,2018-12-31,年度报告,-7293829.79,2018,12,6.363254231890559,False,1.9105988268102265,True,0.0,True,前期平均,10465679.14,未知,10465679.14
21,300022,-33586616.71000001,-37901376.53,2019-03-31,一季度报告,-11063632.43,2019,3,-66.94918948406949,False,0.4444051318783472,True,0.07656330331637552,True,盈利变化,-4705871.339999998,未知,-4705871.339999998
22,300022,-35020765.13999999,-38048535.08,2019-06-30,半年度报告,-18014410.19,2019,6,-23.982984415650897,False,0.5764130505695233,True,0.36594176889552166,False,盈利变化,3262421.3466666667,未知,3262421.3466666667
23,300022,-50897008.79000001,-57788172.59,2019-09-30,三季度报告,-33850732.62,2019,9,-17.70812465354729,False,0.5930527085182856,True,1.669371593865273,False,盈利变化,3372741.8155555576,未知,3372741.8155555576
24,300022,-136103449.20000002,-142911349.25000003,2019-12-31,年度报告,-105518951.7,2019,12,-8.624309048512503,False,7.529433892019615,False,0.0,True,前期平均盈利变化,642889626.03,未知,642889626.03
25,300022,-6338069.2799999975,-11676948.670000002,2020-03-31,一季度报告,-12128185.790000005,2020,3,6.272730133525853,False,7.02572270025488,False,0.08823721533917041,True,去年同期,-106132267.94000001,未知,-106132267.94000001
