,SECURITYCODE_x,NETPROFIT_x,PARENTNETPROFIT_x,REPORTDATE_x,REPORTTIMETYPE_x,KCFJCXSYJLR,Year,Month,managesituationChangeRate,managesituationGreatChange,historyprofitextroplaterate,ifhistoryprofitextroplate,IfprofitdisStableChangeRage,IfprofitdisStable,predicttype,predict,analyst_prediction,adj_prediction
0,300167,2779670.26,5394670.16,2013-12-31,年度报告,3293012.53,2013,12,未知,未知,未知,未知,未知,未知,未知,未知,未知,未知
1,300167,-5982818.310000001,-4662851.21,2014-03-31,一季度报告,-6764508.84,2014,3,未知,未知,未知,未知,未知,未知,未知,未知,未知,未知
2,300167,-8259416.1499999985,-5357009.89,2014-06-30,半年度报告,-5357009.89,2014,6,未知,未知,未知,未知,未知,未知,未知,未知,未知,未知
3,300167,-737789.49,1929076.22,2014-09-30,三季度报告,2055585.6,2014,9,未知,未知,未知,未知,未知,未知,未知,未知,未知,未知
4,300167,-5504505.56,-9357955.29,2014-12-31,年度报告,-6878882.810000001,2014,12,0.0,True,未知,未知,未知,未知,未知,未知,未知,未知
5,300167,-22425238.46,-19453165.63,2015-03-31,一季度报告,-19711915.62,2015,3,-1.464608837502872,False,未知,未知,未知,未知,未知,未知,105450000.0,未知
6,300167,-26623099.4,-21944995.1,2015-06-30,半年度报告,-22917171.0,2015,6,-1.3365456116410843,False,未知,未知,未知,未知,未知,未知,132497600.0,未知
7,300167,-20614280.34,-16350316.64,2015-09-30,三季度报告,-18885361.3,2015,9,-4.767565542306654,False,未知,未知,未知,未知,未知,未知,24567333.0,未知
8,300167,16834325.34,10013398.86,2015-12-31,年度报告,3604906.8300000005,2015,12,-1.5049809160334466,False,未知,未知,未知,未知,未知,未知,111600000.0,未知
9,300167,-16140513.489999995,-12864712.48,2016-03-31,一季度报告,-13601154.950000005,2016,3,-1.1239527626409909,False,未知,未知,未知,未知,未知,未知,,未知
10,300167,-17501958.04,-13923333.38,2016-06-30,半年度报告,-15643261.65,2016,6,-1.104408214018838,False,未知,未知,未知,未知,未知,未知,未知,未知
11,300167,-31498378.39,-28909682.120000005,2016-09-30,三季度报告,-31244047.95000001,2016,9,-1.134841974308767,False,未知,未知,未知,未知,未知,未知,-19000000.0,未知
12,300167,30672523.14,29385675.509999994,2016-12-31,年度报告,25676036.350000005,2016,12,-0.8348808043174007,True,-13.356214953615728,True,0.0,True,比例外推,29385675.509999994,186000000.0,186000000.0
13,300167,-5916785.13,-2861386.0300000007,2017-03-31,一季度报告,-3321088.9999999995,2017,3,-1.1722169658184771,False,-0.13633351416313666,True,3.7966031945199727,False,前期平均,8739838.209999999,未知,8739838.209999999
14,300167,-3644137.45,1110367.93,2017-06-30,半年度报告,157474.54000000007,2017,6,-1.1588205304599164,False,-0.00348026878468635,True,4.294646029767518,False,盈利变化,39919499.63666666,未知,39919499.63666666
15,300167,-5785602.36,-775605.0599999998,2017-09-30,三季度报告,-2314333.6899999995,2017,9,-1.088248043298714,False,-1.9503817326172546,True,2.987301499254651,False,前期平均,6002294.800000001,未知,6002294.800000001
16,300167,-10433077.52,-5849871.340000003,2017-12-31,年度报告,-22735419.61,2017,12,-0.9093758851427832,True,4.414476794087187,False,0.0,True,比例外推,-5849871.340000003,,-5849871.340000003
17,300167,-2892811.18,-2078034.4,2018-03-31,一季度报告,-2644842.77,2018,3,-1.469794018022757,False,-0.693158575636174,True,3.517503986783339,False,前期平均,29218972.47500001,未知,29218972.47500001
18,300167,-14288881.499999998,-13591440.030000005,2018-06-30,半年度报告,-15242064.660000002,2018,6,-1.7627786542464252,False,-0.8348268461766789,True,4.032750025630435,False,盈利变化,-16116230.806666672,未知,-16116230.806666672
19,300167,-30064406.04,-30417758.329999994,2018-09-30,三季度报告,-33440861.87,2018,9,-1.480446129381073,False,-0.7779578896568804,True,3.120841397131674,False,前期平均,9287417.88500001,未知,9287417.88500001
20,300167,-184012394.87,-179237179.11,2018-12-31,年度报告,-171279208.61999995,2018,12,-1.2664286021714521,False,1.4392241478359586,True,0.0,True,前期平均,-179237179.11,未知,-179237179.11
21,300167,-3208550.47,-4553083.16,2019-03-31,一季度报告,1727304.43,2019,3,-1.9608889371064997,False,-0.7377003204393303,True,0.4069869200566851,False,前期平均,5378347.185000006,未知,5378347.185000006
22,300167,3505017.8099999987,1338901.5799999998,2019-06-30,半年度报告,-139743.58,2019,6,-1.1945337890862906,False,-0.35144395869745493,True,0.43352460494432565,False,盈利变化,-169168965.05666667,未知,-169168965.05666667
23,300167,7023004.85,2246398.1699999995,2019-09-30,三季度报告,321773.54,2019,9,-1.092457181967996,False,-0.6127251133182714,True,0.9102495679526916,False,盈利变化,-164231563.37222224,未知,-164231563.37222224
24,300167,23368597.34,17814310.249999996,2019-12-31,年度报告,5457524.409999998,2019,12,-1.015105886002754,False,19.183541024282263,False,0.0,True,盈利变化,-120324934.76666671,未知,-120324934.76666671
25,300167,-16371192.320000002,-16941442.41,2020-03-31,一季度报告,-17262927.029999994,2020,3,-1.8663320979333076,False,-0.27157832048265557,True,0.1571606644556843,False,前期平均,-110965790.63999996,未知,-110965790.63999996
