,SECURITYCODE_x,NETPROFIT_x,PARENTNETPROFIT_x,REPORTDATE_x,REPORTTIMETYPE_x,KCFJCXSYJLR,Year,Month,managesituationChangeRate,managesituationGreatChange,historyprofitextroplaterate,ifhistoryprofitextroplate,IfprofitdisStableChangeRage,IfprofitdisStable,predicttype,predict,analyst_prediction,adj_prediction
0,300150,64529021.00999999,64529021.00999999,2013-12-31,年度报告,56407842.41,2013,12,未知,未知,未知,未知,未知,未知,未知,未知,未知,未知
1,300150,4440703.91,4440703.91,2014-03-31,一季度报告,3158330.7,2014,3,未知,未知,未知,未知,未知,未知,未知,未知,未知,未知
2,300150,5228450.739999998,5228450.739999998,2014-06-30,半年度报告,3693730.270000002,2014,6,未知,未知,未知,未知,未知,未知,未知,未知,未知,未知
3,300150,13383956.760000005,13558656.440000005,2014-09-30,三季度报告,11998426.11,2014,9,未知,未知,未知,未知,未知,未知,未知,未知,未知,未知
4,300150,125190453.6,125073335.29,2014-12-31,年度报告,73272314.48,2014,12,0.0,True,未知,未知,未知,未知,未知,未知,未知,未知
5,300150,7185444.5299999975,7397524.229999999,2015-03-31,一季度报告,7337656.250000001,2015,3,13.531259529528054,False,未知,未知,未知,未知,未知,未知,168250000.0,未知
6,300150,18578032.44,16082014.340000002,2015-06-30,半年度报告,16022146.36,2015,6,11.34190092226058,False,未知,未知,未知,未知,未知,未知,170000000.0,未知
7,300150,44797171.59,41545764.87,2015-09-30,三季度报告,41427812.67,2015,9,3.821371001649886,False,未知,未知,未知,未知,未知,未知,156975000.0,未知
8,300150,115463499.20999996,113782600.58999996,2015-12-31,年度报告,71497644.23,2015,12,-0.4845531815374779,True,未知,未知,未知,未知,未知,未知,146100000.0,未知
9,300150,2608944.83,1385255.8,2016-03-31,一季度报告,1385255.8,2016,3,7.980518983979967,False,未知,未知,未知,未知,未知,未知,157800000.0,未知
10,300150,3919281.5000000005,895001.24,2016-06-30,半年度报告,1028512.93,2016,6,2.4734044747959323,False,未知,未知,未知,未知,未知,未知,143250000.0,未知
11,300150,-12388681.04,-17937647.58,2016-09-30,三季度报告,-16113541.140000002,2016,9,0.440470876165867,True,未知,未知,未知,未知,未知,未知,128500000.0,未知
12,300150,100575209.07,90783970.48,2016-12-31,年度报告,57514498.49,2016,12,-0.4411305611599608,True,0.21720239260997787,True,0.0,True,比例外推,90783970.48,194250000.0,194250000.0
13,300150,-21475149.22,-21418798.07,2017-03-31,一季度报告,-21752251.64,2017,3,23.733762196880182,False,0.5511936143832685,True,0.04602218158729489,True,盈利变化,59933960.56,150666667.0,150666667.0
14,300150,-18627186.15,-19039406.33,2017-06-30,半年度报告,-19421919.62,2017,6,15.464502743678906,False,0.6707383051611238,True,0.12663100857921467,False,盈利变化,77150348.78,,77150348.78
15,300150,-22173408.700000007,-21592330.32,2017-09-30,三季度报告,-23627545.52,2017,9,-6.20870791665809,False,1.4258659600231007,True,0.4345033078279126,False,前期平均,24079529.645000003,未知,24079529.645000003
16,300150,50236399.13,46745565.68,2017-12-31,年度报告,43132887.49,2017,12,-0.3584003293983906,True,0.1641507825187838,True,0.0,True,比例外推,46745565.68,,46745565.68
17,300150,26726083.6,29499149.1,2018-03-31,一季度报告,-25482580.739999995,2018,3,-4.004822939712267,False,5.385194100553912,False,0.37844295947426654,False,前期平均,89643764.435,未知,89643764.435
18,300150,89703544.66,91692351.79,2018-06-30,半年度报告,-25028180.37,2018,6,-4.4642388007702385,False,2.655947567756615,False,0.3808460048412725,False,前期平均,147673093.505,未知,147673093.505
19,300150,89218254.22999999,93782559.12,2018-09-30,三季度报告,-23924776.74,2018,9,-3.9101985122386695,False,2.368370345159442,False,0.6622692988099563,False,盈利变化,46613462.91555556,未知,46613462.91555556
20,300150,89873816.83,88239400.46000001,2018-12-31,年度报告,-33481000.99,2018,12,0.2845072920735031,True,0.5349314988044603,True,0.0,True,比例外推,88239400.46000001,60000000.0,60000000.0
21,300150,8481454.110000001,9076986.55,2019-03-31,一季度报告,8261250.529999997,2019,3,1.4144585482775331,False,-3.8332231589906995,True,0.6674779571663455,False,前期平均,69584177.46000001,,69584177.46000001
22,300150,-14185417.77,-11283113.39,2019-06-30,半年度报告,-12264798.560000002,2019,6,-0.28064134751216424,True,-13.19800465051288,True,0.6424886512519383,False,平均增速,-17609288.62620133,未知,-17609288.62620133
23,300150,-1893847.65,-908707.01,2019-09-30,三季度报告,-3123679.3800000013,2019,9,-0.2767284950045363,True,-6.16278123812313,True,0.7523683944194886,False,平均增速,-9778302.093146801,未知,-9778302.093146801
24,300150,106698474.04000004,104569088.04,2019-12-31,年度报告,83379595.96,2019,12,-0.2820042222969202,True,0.19186868839450524,True,0.0,True,比例外推,104569088.04,98000000.0,104569088.04
25,300150,-19831651.11,-19486391.18,2020-03-31,一季度报告,-20067009.4,2020,3,6.608249737968574,False,2.230455189958019,False,0.6424797339033849,False,前期平均盈利变化,-19371291.669999998,未知,-19371291.669999998
