,SECURITYCODE_x,NETPROFIT_x,PARENTNETPROFIT_x,REPORTDATE_x,REPORTTIMETYPE_x,KCFJCXSYJLR,Year,Month,managesituationChangeRate,managesituationGreatChange,historyprofitextroplaterate,ifhistoryprofitextroplate,IfprofitdisStableChangeRage,IfprofitdisStable,predicttype,predict,analyst_prediction,adj_prediction
0,300190,28483511.45,28881580.0,2013-12-31,年度报告,20942216.95,2013,12,未知,未知,未知,未知,未知,未知,未知,未知,未知,未知
1,300190,11023060.339999998,11820096.25,2014-03-31,一季度报告,10951234.24,2014,3,未知,未知,未知,未知,未知,未知,未知,未知,未知,未知
2,300190,41084601.75,41999405.70999999,2014-09-30,三季度报告,41095998.86,2014,9,未知,未知,未知,未知,未知,未知,未知,未知,未知,未知
3,300190,98733375.32000002,96069481.92,2014-12-31,年度报告,95314944.45999998,2014,12,0.0,True,未知,未知,未知,未知,未知,未知,未知,未知
4,300190,12154890.61,12909864.72,2015-03-31,一季度报告,11990234.08,2015,3,1.5839930628557188,False,未知,未知,未知,未知,未知,未知,157147858.0,未知
5,300190,47082639.92,45556037.67,2015-06-30,半年度报告,44575507.88,2015,6,未知,未知,未知,未知,未知,未知,未知,未知,156434000.0,未知
6,300190,78758441.88000001,77447743.95,2015-09-30,三季度报告,74606778.12999998,2015,9,-0.30671078124786744,True,未知,未知,未知,未知,未知,未知,159953187.0,未知
7,300190,127098732.27,120559675.80999996,2015-12-31,年度报告,115296313.16,2015,12,-0.7115108102231544,True,未知,未知,未知,未知,未知,未知,161869999.0,未知
8,300190,21785194.45,20128055.37,2016-03-31,一季度报告,17719737.080000002,2016,3,1.3433786747999372,False,未知,未知,未知,未知,未知,未知,239208750.0,未知
9,300190,47843832.56999999,46392383.32999999,2016-06-30,半年度报告,42229683.44,2016,6,-0.39503155518897254,True,未知,未知,未知,未知,未知,未知,205600000.0,未知
10,300190,73395864.7,72160937.73,2016-09-30,三季度报告,64627506.37,2016,9,-0.6383433855459102,True,未知,未知,未知,未知,未知,未知,142220000.0,未知
11,300190,93983912.13,92753424.45,2016-12-31,年度报告,88628567.22999999,2016,12,-0.7758946061752091,True,0.9981424714438478,True,0.0,True,比例外推,92753424.45,125770000.0,125770000.0
12,300190,25568372.74,33357691.12,2017-03-31,一季度报告,33290809.66000001,2017,3,0.3074710678104597,True,0.8798205671412039,True,0.06032498009769818,True,比例外推,238526767.95026845,236137500.0,238526767.95026845
13,300190,66413124.11,70142133.02000001,2017-06-30,半年度报告,67197834.24999999,2017,6,-0.40465656867421806,True,未知,未知,未知,未知,未知,未知,236250000.0,未知
14,300190,110088736.95000002,111886409.35999998,2017-09-30,三季度报告,109141923.95,2017,9,-0.6119193967340778,True,0.22486649999645034,True,0.17132070306971064,False,平均增速,144023268.95030907,226300000.0,226300000.0
15,300190,144167550.41,138703129.69000003,2017-12-31,年度报告,145936922.75000003,2017,12,-0.6969320514068283,True,0.16766563326213538,True,0.0,True,比例外推,138703129.69000003,227666667.00000003,227666667.00000003
16,300190,45969637.61000001,47512627.7,2018-03-31,一季度报告,45986083.29,2018,3,0.11401346263383678,True,0.5066769982927083,True,0.07335349064739358,True,比例外推,260824476.02397043,未知,260824476.02397043
17,300190,113024559.75,107863280.87,2018-06-30,半年度报告,98349013.75000004,2018,6,-0.5711162239134725,True,0.3992540198309017,True,0.05456785219828664,True,比例外推,232434493.08820403,未知,232434493.08820403
18,300190,161388178.01000002,158224647.78000003,2018-09-30,三季度报告,145192196.73999998,2018,9,-0.7412677060421121,True,0.44706698646242166,True,0.06096364803536258,True,比例外推,218091423.75643003,未知,218091423.75643003
19,300190,247006342.7,232366860.28000003,2018-12-31,年度报告,216834636.73000005,2018,12,-0.8024277212937629,True,0.3041960014659569,True,0.0,True,比例外推,232366860.28000003,,232366860.28000003
20,300190,70177150.53,72884882.33,2019-03-31,一季度报告,65604896.56,2019,3,-0.3803842507602488,True,0.9415490886062647,True,0.014741327488702605,True,比例外推,314740766.1980444,342666667.0,314740766.1980444
21,300190,152950529.95000005,156685474.97,2019-06-30,半年度报告,148034213.77999997,2019,6,-0.7479882999500026,True,0.9784276254888956,True,0.012977919368091784,True,比例外推,328033682.0123491,345320000.0,328033682.0123491
22,300190,221585326.44,227696001.7,2019-09-30,三季度报告,215892030.40000004,2019,9,-0.823509306560019,True,0.7591468336710967,True,0.04595601927346071,True,比例外推,313516777.34588814,336449589.0,313516777.34588814
23,300190,321304631.0,316710725.54,2019-12-31,年度报告,298884197.12,2019,12,-0.8846851010437636,True,1.0743634329645382,True,0.0,True,比例外推,316710725.54,338099646.99999994,316710725.54
24,300190,45401746.94000001,47504998.11,2020-03-31,一季度报告,43699595.04,2020,3,-0.5941198633047433,True,0.9619542166928603,True,0.008219056286163484,True,比例外推,202531391.37430125,406672500.0,406672500.0
