,SECURITYCODE_x,NETPROFIT_x,PARENTNETPROFIT_x,REPORTDATE_x,REPORTTIMETYPE_x,KCFJCXSYJLR,Year,Month,managesituationChangeRate,managesituationGreatChange,historyprofitextroplaterate,ifhistoryprofitextroplate,IfprofitdisStableChangeRage,IfprofitdisStable,predicttype,predict,analyst_prediction,adj_prediction
0,300110,121519386.93000002,121519386.93000002,2013-12-31,年度报告,121094787.72,2013,12,未知,未知,未知,未知,未知,未知,未知,未知,未知,未知
1,300110,28704710.76,28704710.76,2014-03-31,一季度报告,28045082.369999994,2014,3,未知,未知,未知,未知,未知,未知,未知,未知,未知,未知
2,300110,32219932.82,32219932.82,2014-06-30,半年度报告,33809395.3,2014,6,未知,未知,未知,未知,未知,未知,未知,未知,未知,未知
3,300110,57655183.04999999,57655183.04999999,2014-09-30,三季度报告,59282086.05,2014,9,未知,未知,未知,未知,未知,未知,未知,未知,未知,未知
4,300110,56153985.27,56153985.27,2014-12-31,年度报告,57335597.69,2014,12,0.0,True,未知,未知,未知,未知,未知,未知,未知,未知
5,300110,14968480.660000006,14968480.660000006,2015-03-31,一季度报告,16291665.830000002,2015,3,3.233430113475911,False,未知,未知,未知,未知,未知,未知,74000000.0,未知
6,300110,20801987.37,20801987.37,2015-06-30,半年度报告,19783072.12,2015,6,2.7715592893653964,False,未知,未知,未知,未知,未知,未知,,未知
7,300110,30629955.57,30629955.57,2015-09-30,三季度报告,32008696.73,2015,9,1.1076923270647745,False,未知,未知,未知,未知,未知,未知,78400000.0,未知
8,300110,22176647.23,22936498.88000001,2015-12-31,年度报告,20049637.32,2015,12,1.1640385156228825,False,未知,未知,未知,未知,未知,未知,176000000.0,未知
9,300110,2388843.1100000003,2388843.1100000003,2016-03-31,一季度报告,2827233.11,2016,3,7.118351467342576,False,未知,未知,未知,未知,未知,未知,未知,未知
10,300110,1879092.7,3061331.5,2016-06-30,半年度报告,4254975.93,2016,6,4.841720061096259,False,未知,未知,未知,未知,未知,未知,未知,未知
11,300110,12701444.48,14047771.96,2016-09-30,三季度报告,16922203.68,2016,9,2.967338008450138,False,未知,未知,未知,未知,未知,未知,31000000.0,未知
12,300110,22406832.02,23946244.71,2016-12-31,年度报告,28555991.29000001,2016,12,4.479610405923385,False,0.75036611333029,True,0.0,True,前期平均,23946244.71,,23946244.71
13,300110,4412505.24,4150882.620000001,2017-03-31,一季度报告,3705855.97,2017,3,49.86955540165214,False,0.8906036846711397,True,0.3678974666297708,False,前期平均,20675126.025,,20675126.025
14,300110,9174633.319999997,8466013.739999998,2017-06-30,半年度报告,8266478.18,2017,6,63.66918153106551,False,0.9291201565968786,True,0.426123624104725,False,前期平均,20362397.535,未知,20362397.535
15,300110,24554835.06,23159114.6,2017-09-30,三季度报告,25889952.53,2017,9,8.567367484961837,False,0.7122631355959013,True,0.5221329537569694,False,前期平均,16206340.715000004,未知,16206340.715000004
16,300110,39043327.31,37535035.36999999,2017-12-31,年度报告,43505027.09,2017,12,4.4233185138146105,False,0.4278909462399656,True,0.0,True,前期平均,37535035.36999999,39000000.0,37535035.36999999
17,300110,1702745.99,2265926.44,2018-03-31,一季度报告,2231294.57,2018,3,26.53977169894534,False,0.491568481585108,True,0.4803147734458106,False,前期平均,17009291.275000006,未知,17009291.275000006
18,300110,14868004.11,16408853.38,2018-06-30,半年度报告,12200183.680000005,2018,6,12.245149172893601,False,0.19098796956012895,True,0.5447975954243998,False,前期平均,28692643.660000004,未知,28692643.660000004
19,300110,25640163.9,27853415.000000004,2018-09-30,三季度报告,24091075.13000001,2018,9,3.9488985217398573,False,0.13335064325944854,True,0.6684151165026544,False,前期平均,27690779.10000001,未知,27690779.10000001
20,300110,37461176.6,38794837.59,2018-12-31,年度报告,34182091.32,2018,12,2.1124239480193014,False,0.7514706329250875,True,0.0,True,前期平均,38794837.59,未知,38794837.59
21,300110,5426875.24,4907861.21,2019-03-31,一季度报告,4813162.2700000005,2019,3,70.3667144974454,False,0.4992916397231735,True,0.017878491158637794,True,前期平均,37671825.86000001,未知,37671825.86000001
22,300110,14509170.65,12965209.419999998,2019-06-30,半年度报告,13095353.73,2019,6,7.1732145102292435,False,1.690134364303704,True,0.12493938084910405,False,前期平均,42734991.55500001,未知,42734991.55500001
23,300110,28305199.299999993,25504961.049999993,2019-09-30,三季度报告,26769635.0,2019,9,3.739415372067884,False,0.376421060641419,True,0.07395768608920072,True,前期平均,40129392.135,未知,40129392.135
24,300110,45160568.29000001,42066213.53,2019-12-31,年度报告,43857850.5,2019,12,2.243875338661947,False,0.21923773700327695,True,0.0,True,前期平均,42066213.53,未知,42066213.53
25,300110,5821620.85,5865601.69,2020-03-31,一季度报告,1922627.8700000003,2020,3,21.39214677984748,False,0.7748658349069986,True,0.023010080050746035,True,前期平均,41740585.625,未知,41740585.625
