,SECURITYCODE_x,NETPROFIT_x,PARENTNETPROFIT_x,REPORTDATE_x,REPORTTIMETYPE_x,KCFJCXSYJLR,Year,Month,managesituationChangeRate,managesituationGreatChange,historyprofitextroplaterate,ifhistoryprofitextroplate,IfprofitdisStableChangeRage,IfprofitdisStable,predicttype,predict,analyst_prediction,adj_prediction
0,300142,4881799.500000001,47893080.7,2013-12-31,年度报告,66801211.06,2013,12,未知,未知,未知,未知,未知,未知,未知,未知,未知,未知
1,300142,-59564313.3,-51368091.78,2014-03-31,一季度报告,-52953569.60999999,2014,3,未知,未知,未知,未知,未知,未知,未知,未知,未知,未知
2,300142,-82857682.34,-61861081.61999999,2014-06-30,半年度报告,-69865513.7,2014,6,未知,未知,未知,未知,未知,未知,未知,未知,未知,未知
3,300142,-181468131.53,-149946003.25000003,2014-09-30,三季度报告,-161240890.50999996,2014,9,未知,未知,未知,未知,未知,未知,未知,未知,未知,未知
4,300142,96705145.2,143424674.03000003,2014-12-31,年度报告,-443575385.7000001,2014,12,0.0,True,未知,未知,未知,未知,未知,未知,未知,未知
5,300142,-57092702.91,-48259789.63999999,2015-03-31,一季度报告,-53656473.32,2015,3,-1.0819584618631035,False,未知,未知,未知,未知,未知,未知,66000000.0,未知
6,300142,-86585454.91,-67124923.60999998,2015-06-30,半年度报告,-80995548.28999999,2015,6,-1.0589178862132291,False,未知,未知,未知,未知,未知,未知,18956667.0,未知
7,300142,-135943634.52,-111674542.07,2015-09-30,三季度报告,-130724080.94,2015,9,-1.0269016904447101,False,未知,未知,未知,未知,未知,未知,-74000000.0,未知
8,300142,-924652818.2,-840895299.3299999,2015-12-31,年度报告,-413428868.5,2015,12,-0.9495187201270031,True,未知,未知,未知,未知,未知,未知,,未知
9,300142,-50926523.45999999,-42054141.84,2016-03-31,一季度报告,-43592683.7,2016,3,-1.0855065402612938,False,未知,未知,未知,未知,未知,未知,106660000.0,未知
10,300142,-189585485.13,-161901855.50000003,2016-06-30,半年度报告,-166630318.39,2016,6,-1.056381288347729,False,未知,未知,未知,未知,未知,未知,,未知
11,300142,-275315258.55,-233610583.9100001,2016-09-30,三季度报告,-246774555.42,2016,9,-1.035910467726106,False,未知,未知,未知,未知,未知,未知,269260000.0,未知
12,300142,30020405.79,70458701.55000001,2016-12-31,年度报告,-145826665.46,2016,12,-1.0052796026832032,False,19.204166311539833,False,0.0,True,前期平均,70458701.55000001,,70458701.55000001
13,300142,-35323516.64,-29299282.70000001,2017-03-31,一季度报告,-23792126.85,2017,3,-1.0958596654223685,False,-0.1269016624199496,True,0.11623561380615946,False,前期平均,-404496388.33500004,132000000.0,132000000.0
14,300142,-52238156.59,-43016244.90999999,2017-06-30,半年度报告,-40064345.43000001,2017,6,-1.0257498589443834,False,-1.2377475795939914,True,0.6439677355934748,False,前期平均,-396087841.015,-5143333.0,-5143333.0
15,300142,-51937524.12,-39314312.23,2017-09-30,三季度报告,-43937858.24,2017,9,-1.0177316706880357,False,-0.7347514364456875,True,0.9015979541974123,False,前期平均,-321833953.6050001,15257500.0,15257500.0
16,300142,-558242764.0,-537137496.27,2017-12-31,年度报告,-208787546.35,2017,12,-0.8373839602918972,True,-1.072517640350926,True,0.0,True,比例外推,-537137496.27,31795000.0,31795000.0
17,300142,27499528.54,23758262.41,2018-03-31,一季度报告,1721542.88,2018,3,-1.1382025337327795,False,-0.34597723336758973,True,0.11804401340539508,False,盈利变化,-503119269.9633333,131692500.0,131692500.0
18,300142,86377176.17999999,73160218.55000001,2018-06-30,半年度报告,43887081.31999999,2018,6,-1.0934527521389323,False,-0.6216969346417552,True,0.6325060339135246,False,盈利变化,-481169878.43666667,89500000.0,89500000.0
19,300142,108726674.85,91120594.41,2018-09-30,三季度报告,60104295.85,2018,9,-1.093993689200909,False,-0.7474217579476888,True,0.9526179153073047,False,盈利变化,-490896538.89666665,130610000.0,130610000.0
20,300142,1062691149.33,1046204465.83,2018-12-31,年度报告,120851520.33999996,2018,12,-1.008744940041892,False,-0.24798242553314412,True,0.0,True,盈利变化,-427257807.37333333,148620000.0,148620000.0
21,300142,47236767.52,38733154.52,2019-03-31,一季度报告,37262383.2,2019,3,-0.8224769747270729,True,-1.6376699305441833,True,0.15655699459622988,False,平均增速,1421730774.0671587,235000000.0,235000000.0
22,300142,109763474.46,84934873.16,2019-06-30,半年度报告,81131596.99,2019,6,-0.9434827611193621,True,-1.7143815680355472,True,0.5767603395722459,False,平均增速,216627996.92956325,216666667.00000003,216627996.92956325
23,300142,160366687.73,120368431.62000003,2019-09-30,三季度报告,114200407.2,2019,9,-0.9551002593730107,True,-1.664481285463289,True,0.8922361981583596,False,平均增速,225873429.60856605,172000000.0,172000000.0
24,300142,194135648.60999995,141974518.23000002,2019-12-31,年度报告,128190731.83,2019,12,-0.9954061916267225,True,-5.023650770600349,True,0.0,True,比例外推,141974518.23000002,,141974518.23000002
25,300142,-18013309.29,-18117686.18,2020-03-31,一季度报告,-19901148.93,2020,3,-0.8966525493529368,True,-13.07485668849624,True,0.1510531959996421,False,平均增速,40335410.022750914,892951667.0,892951667.0
