,SECURITYCODE_x,NETPROFIT_x,PARENTNETPROFIT_x,REPORTDATE_x,REPORTTIMETYPE_x,KCFJCXSYJLR,Year,Month,managesituationChangeRate,managesituationGreatChange,historyprofitextroplaterate,ifhistoryprofitextroplate,IfprofitdisStableChangeRage,IfprofitdisStable,predicttype,predict,analyst_prediction,adj_prediction
0,300166,89918006.02000001,90236363.71,2013-12-31,年度报告,84980688.3,2013,12,未知,未知,未知,未知,未知,未知,未知,未知,未知,未知
1,300166,21289019.74,21565186.680000003,2014-03-31,一季度报告,21322942.56,2014,3,未知,未知,未知,未知,未知,未知,未知,未知,未知,未知
2,300166,35977849.1,36474256.31,2014-06-30,半年度报告,35236187.07,2014,6,未知,未知,未知,未知,未知,未知,未知,未知,未知,未知
3,300166,50052263.55999999,50847504.03000002,2014-09-30,三季度报告,45439476.34,2014,9,未知,未知,未知,未知,未知,未知,未知,未知,未知,未知
4,300166,134853275.89000002,135628693.07000002,2014-12-31,年度报告,131415106.20000002,2014,12,0.0,True,未知,未知,未知,未知,未知,未知,未知,未知
5,300166,23731919.58,23973024.030000005,2015-03-31,一季度报告,24048283.49,2015,3,3.223679958878183,False,未知,未知,未知,未知,未知,未知,228913865.0,未知
6,300166,54975734.24,55021418.74,2015-06-30,半年度报告,54108940.96999999,2015,6,1.4992601911824686,False,未知,未知,未知,未知,未知,未知,235411110.99999997,未知
7,300166,84362590.5,84459331.8,2015-09-30,三季度报告,82451044.95000002,2015,9,0.7964823091809043,False,未知,未知,未知,未知,未知,未知,225932070.0,未知
8,300166,227977981.2,228515533.05,2015-12-31,年度报告,222864246.13,2015,12,-0.3332160051243676,True,未知,未知,未知,未知,未知,未知,226101130.0,未知
9,300166,33199687.690000005,33306729.90000001,2016-03-31,一季度报告,32930846.32,2016,3,2.788905727448113,False,未知,未知,未知,未知,未知,未知,334741667.0,未知
10,300166,68895831.57,69290482.55,2016-06-30,半年度报告,66989100.05,2016,6,0.6355944538631778,False,未知,未知,未知,未知,未知,未知,320376364.0,未知
11,300166,119559593.98,120157520.52,2016-09-30,三季度报告,110039172.7,2016,9,0.06585164688606866,True,未知,未知,未知,未知,未知,未知,335097043.0,未知
12,300166,333853858.44999987,327901137.88,2016-12-31,年度报告,274442207.55999994,2016,12,-0.6055846904744852,True,1.0285329981904356,True,0.0,True,比例外推,327901137.88,343077442.0,327901137.88
13,300166,47577735.34000001,48833732.4,2017-03-31,一季度报告,40074788.4,2017,3,1.7083991530162492,False,0.4748553980192704,True,0.03220512230087616,True,前期平均,203287795.54000002,454830000.0,454830000.0
14,300166,104791418.08000004,103660786.38,2017-06-30,半年度报告,80938247.59,2017,6,0.3051298456081618,True,0.5149668444058026,True,0.016459056228528612,True,比例外推,344327417.35593677,450044375.0,450044375.0
15,300166,160622957.33,157278947.08999997,2017-09-30,三季度报告,129185209.73999998,2017,9,-0.24792312329998759,True,0.7789640113231991,True,0.028726673830720473,True,比例外推,375152118.1000005,453805833.0,453805833.0
16,300166,439372446.1299999,430788852.86,2017-12-31,年度报告,363273477.22,2017,12,-0.7306665663908548,True,0.8402706598521508,True,0.0,True,比例外推,430788852.86,451587000.0,430788852.86
17,300166,35484856.23,36073980.73,2018-03-31,一季度报告,22832623.11,2018,3,0.889917739409578,False,0.6713996889060606,True,0.007254183548674464,True,前期平均,256237642.66999996,559942727.0,559942727.0
18,300166,108107413.34,106233052.27000004,2018-06-30,半年度报告,82520443.77,2018,6,-0.14193349352945436,True,0.6919366021534598,True,0.013758523786894211,True,比例外推,372546216.47313225,556265714.0,556265714.0
19,300166,187283066.38,182433758.29,2018-09-30,三季度报告,145413212.16,2018,9,-0.4401920652272428,True,0.5753357854574509,True,0.025445461713243134,True,比例外推,424262197.3936214,554368333.0,554368333.0
20,300166,530464847.15000015,518259114.74,2018-12-31,年度报告,482375010.03,2018,12,-0.7953490101347972,True,0.5640710088759384,True,0.0,True,比例外推,518259114.74,582652555.0,582652555.0
21,300166,40824254.89,43410328.58,2019-03-31,一季度报告,36494004.7,2019,3,1.533982537147228,False,0.12141648250350257,True,0.04521338390519166,True,前期平均,325765353.60999995,660900000.0,660900000.0
22,300166,83402689.80999999,86524234.75999999,2019-06-30,半年度报告,64089009.92000001,2019,6,-0.16825309900620727,True,0.24485146212918896,True,0.04158402263745631,True,比例外推,323810505.66990495,673653333.0,673653333.0
23,300166,179962138.09999996,184054324.48,2019-09-30,三季度报告,151733741.83999997,2019,9,-0.5198818144211976,True,0.33686459420369813,True,0.051221560088425044,True,比例外推,462558317.6708509,633026667.0,633026667.0
24,300166,503614462.03,503461121.58,2019-12-31,年度报告,459381275.0899999,2019,12,-0.8304920552170466,True,0.3720817411615026,True,0.0,True,比例外推,503461121.58,630737143.0,630737143.0
25,300166,44761764.89,43625279.03,2020-03-31,一季度报告,28082978.4,2020,3,1.2025633110091531,False,0.017024291721121007,True,0.031696627281507274,True,前期平均,434995816.9,636398333.0,636398333.0
