,SECURITYCODE_x,NETPROFIT_x,PARENTNETPROFIT_x,REPORTDATE_x,REPORTTIMETYPE_x,KCFJCXSYJLR,Year,Month,managesituationChangeRate,managesituationGreatChange,historyprofitextroplaterate,ifhistoryprofitextroplate,IfprofitdisStableChangeRage,IfprofitdisStable,predicttype,predict,analyst_prediction,adj_prediction
0,300184,17107492.16,17107492.16,2013-12-31,年度报告,14515459.03,2013,12,未知,未知,未知,未知,未知,未知,未知,未知,未知,未知
1,300184,3067966.3600000013,3067966.3600000013,2014-03-31,一季度报告,,2014,3,未知,未知,未知,未知,未知,未知,未知,未知,未知,未知
2,300184,7860116.56,7860116.56,2014-06-30,半年度报告,7822616.56,2014,6,未知,未知,未知,未知,未知,未知,未知,未知,未知,未知
3,300184,15041538.729999995,13688242.990000002,2014-09-30,三季度报告,13535966.390000002,2014,9,未知,未知,未知,未知,未知,未知,未知,未知,未知,未知
4,300184,25570418.35,20309869.14,2014-12-31,年度报告,19787523.82,2014,12,0.0,True,未知,未知,未知,未知,未知,未知,未知,未知
5,300184,12336632.929999994,9598328.769999998,2015-03-31,一季度报告,4813791.27,2015,3,4.576166799951481,False,未知,未知,未知,未知,未知,未知,56710000.0,未知
6,300184,21746350.43,16968395.569999997,2015-06-30,半年度报告,12182753.070000006,2015,6,1.1764934437562593,False,未知,未知,未知,未知,未知,未知,,未知
7,300184,31086582.259999994,26308627.4,2015-09-30,三季度报告,21523089.310000006,2015,9,0.1373498727147848,True,未知,未知,未知,未知,未知,未知,未知,未知
8,300184,41800161.1,37022206.24,2015-12-31,年度报告,32010373.99,2015,12,-0.33096549591649527,True,未知,未知,未知,未知,未知,未知,,未知
9,300184,7617404.749999999,7617404.749999999,2016-03-31,一季度报告,7486796.1,2016,3,0.3867229621786281,True,未知,未知,未知,未知,未知,未知,未知,未知
10,300184,22034334.9,22034334.9,2016-06-30,半年度报告,20749626.17,2016,6,-0.21331663374652973,True,未知,未知,未知,未知,未知,未知,未知,未知
11,300184,36247246.44,36247246.44,2016-09-30,三季度报告,34701466.35,2016,9,-0.44968243800758034,True,未知,未知,未知,未知,未知,未知,94154000.0,未知
12,300184,47349039.75,47349039.75,2016-12-31,年度报告,43441066.84,2016,12,-0.5907314299800629,True,0.9588663362610343,True,0.0,True,比例外推,47349039.75,63000000.0,63000000.0
13,300184,40528369.58000001,40528369.58000001,2017-03-31,一季度报告,40328960.94000001,2017,3,1.2458426093217643,False,0.01102201925565292,True,,False,前期平均,,357240000.0,
14,300184,153631317.76000002,153631317.76000002,2017-06-30,半年度报告,138129139.03,2017,6,-0.22359843228124843,True,0.488481209692626,True,0.05979387640119099,True,比例外推,346068435.17552257,370910000.0,346068435.17552257
15,300184,267516324.42,267516324.42,2017-09-30,三季度报告,252376588.51,2017,9,-0.5280333310747342,True,0.5715899829458893,True,0.08039663373831196,True,比例外推,366433450.23694944,,366433450.23694944
16,300184,323818531.87,323818531.87,2017-12-31,年度报告,306978714.64,2017,12,-0.6386939999136941,True,0.40562958301822943,True,0.0,True,比例外推,323818531.87,369000000.0,369000000.0
17,300184,108319784.75,108319784.75,2018-03-31,一季度报告,97528067.17,2018,3,-0.5778884683177035,True,3.0621723011600555,False,0.020977153491538697,True,比例外推,655108715.6728908,未知,655108715.6728908
18,300184,215576968.7,215576968.7,2018-06-30,半年度报告,183095982.95,2018,6,-0.8886458021096649,True,6.018223520348901,False,0.05547931884171875,True,比例外推,452361406.1399837,未知,452361406.1399837
19,300184,307047720.40000004,307047720.40000004,2018-09-30,三季度报告,267108738.63000005,2018,9,-0.9360506608443779,True,6.945970980260032,False,0.09206351158119219,True,比例外推,389355565.46543586,未知,389355565.46543586
20,300184,357399196.0,357399196.0,2018-12-31,年度报告,317480839.78,2018,12,-0.9471695086096308,True,6.2646423923608285,False,0.0,True,比例外推,357399196.0,未知,357399196.0
21,300184,76736251.53,76736251.53,2019-03-31,一季度报告,75180213.14000002,2019,3,-0.8420649357872731,True,3.4996590565791394,False,0.10355651992539366,False,未知,未知,未知,未知
22,300184,165825475.61999995,165825475.61999995,2019-06-30,半年度报告,147359826.79,2019,6,-0.9206432288979486,True,1.454400908039184,True,0.07527228954031151,True,比例外推,312337321.1060971,未知,312337321.1060971
23,300184,238657013.74000004,238657013.74000004,2019-09-30,三季度报告,208469899.04,2019,9,-0.9442839304010673,True,1.0216230638236317,True,0.021944849649400466,True,比例外推,284182689.33468527,未知,284182689.33468527
24,300184,192395782.81000003,192395782.81000003,2019-12-31,年度报告,162753413.05999997,2019,12,-0.952133378162384,True,0.925810460434857,True,0.0,True,比例外推,192395782.81000003,未知,192395782.81000003
25,300184,55106804.15,55106804.15,2020-03-31,一季度报告,52416775.44,2020,3,-0.7770611436067889,True,0.031067558417605196,True,0.16879101829059512,False,平均增速,119501161.11678353,未知,119501161.11678353
