,SECURITYCODE_x,NETPROFIT_x,PARENTNETPROFIT_x,REPORTDATE_x,REPORTTIMETYPE_x,KCFJCXSYJLR,Year,Month,managesituationChangeRate,managesituationGreatChange,historyprofitextroplaterate,ifhistoryprofitextroplate,IfprofitdisStableChangeRage,IfprofitdisStable,predicttype,predict,analyst_prediction,adj_prediction
0,300170,143429630.43,146062378.78,2013-12-31,年度报告,125362582.17000002,2013,12,未知,未知,未知,未知,未知,未知,未知,未知,未知,未知
1,300170,28233619.299999993,31302313.539999995,2014-03-31,一季度报告,26476712.15,2014,3,未知,未知,未知,未知,未知,未知,未知,未知,未知,未知
2,300170,73803315.24000002,80387169.44999999,2014-06-30,半年度报告,71903751.04,2014,6,未知,未知,未知,未知,未知,未知,未知,未知,未知,未知
3,300170,118202929.96,129385817.82,2014-09-30,三季度报告,114095506.72,2014,9,未知,未知,未知,未知,未知,未知,未知,未知,未知,未知
4,300170,176720461.53000003,177302356.33,2014-12-31,年度报告,160644345.43,2014,12,0.0,True,未知,未知,未知,未知,未知,未知,未知,未知
5,300170,26097213.93,31439305.41000001,2015-03-31,一季度报告,31346605.6,2015,3,4.08010074464665,False,未知,未知,未知,未知,未知,未知,262696667.00000003,未知
6,300170,85520473.55,91076569.63,2015-06-30,半年度报告,82945045.51999998,2015,6,0.9434036257528959,False,未知,未知,未知,未知,未知,未知,233203332.99999997,未知
7,300170,137619438.25,147176351.27,2015-09-30,三季度报告,132458644.85,2015,9,0.21341857159155664,True,未知,未知,未知,未知,未知,未知,231127500.0,未知
8,300170,214848129.95000005,214240021.65,2015-12-31,年度报告,191468659.61000007,2015,12,-0.18838130464223907,True,未知,未知,未知,未知,未知,未知,254382222.0,未知
9,300170,32916978.17,41693825.12000001,2016-03-31,一季度报告,36163504.87000001,2016,3,4.495974812281427,False,未知,未知,未知,未知,未知,未知,267044444.0,未知
10,300170,105244753.15,105143932.01999998,2016-06-30,半年度报告,93787417.59,2016,6,0.6771379352353927,False,未知,未知,未知,未知,未知,未知,268671429.0,未知
11,300170,163137799.28,165779835.64999998,2016-09-30,三季度报告,151153852.12,2016,9,0.042219269704074726,True,未知,未知,未知,未知,未知,未知,270386667.0,未知
12,300170,231883123.17,241382013.5999999,2016-12-31,年度报告,220244766.13000005,2016,12,-0.33241387549717427,True,0.34217128369179695,True,0.0,True,比例外推,241382013.5999999,268000000.0,241382013.5999999
13,300170,41911051.49,47146021.50000001,2017-03-31,一季度报告,43067429.11,2017,3,3.357314626186417,False,0.21172366455900968,True,0.0005726324372443969,True,前期平均,194290865.14500004,300053091.0,300053091.0
14,300170,120411901.59999998,129146354.06,2017-06-30,半年度报告,110820498.27,2017,6,0.36281977141014365,True,0.32114298748845355,True,0.012051613577697129,True,比例外推,272767253.98469234,315809000.0,315809000.0
15,300170,185076362.07,197553998.85,2017-09-30,三季度报告,174497754.95000002,2017,9,-0.12080688189359516,True,0.27539902332608474,True,0.014123562025701197,True,比例外推,273730667.6294726,316081818.0,316081818.0
16,300170,304761250.26000005,323750932.99,2017-12-31,年度报告,249676699.45999995,2017,12,-0.38145722522096726,True,0.18438060771707093,True,0.0,True,比例外推,323750932.99,307072500.0,323750932.99
17,300170,58718713.67000001,59698370.92999999,2018-03-31,一季度报告,51599953.97,2018,3,2.4222388923890965,False,0.42037194778440423,True,0.005690680844627871,True,前期平均,231800028.56500006,396650556.0,396650556.0
18,300170,156222214.14,154983663.11999995,2018-06-30,半年度报告,138183399.9,2018,6,0.19115825366219474,True,0.26240933615602163,True,0.009558336543692925,True,比例外推,334976977.38070464,388364444.0,388364444.0
19,300170,249692090.92,247285229.56,2018-09-30,三季度报告,219644650.22000003,2018,9,-0.22502458538842612,True,0.23073588246759297,True,0.006562329428455915,True,比例外推,344893704.6380097,401033333.0,401033333.0
20,300170,388186343.56,386875076.87,2018-12-31,年度报告,270785816.43000007,2018,12,-0.5293705144350329,True,0.364405324819017,True,0.0,True,比例外推,386875076.87,392738000.0,386875076.87
21,300170,62818397.49,65813893.08,2019-03-31,一季度报告,57521544.04,2019,3,1.4426562072881317,False,0.5694309722386992,True,0.014807669340512891,True,前期平均,261159158.885,478659231.0,478659231.0
22,300170,165014671.16,168175750.31,2019-06-30,半年度报告,145800958.29,2019,6,-0.08188709768596536,True,0.38460099315994123,True,0.050307220574739964,True,比例外推,339334815.4983182,446925000.0,446925000.0
23,300170,82553347.91999999,83836742.24000001,2019-09-30,三季度报告,54308723.50000001,2019,9,-0.42557399434828674,True,0.4341294446610821,True,0.07902721625477438,True,比例外推,103709042.85571146,154000000.0,154000000.0
24,300170,86466712.43000002,86114201.71000002,2019-12-31,年度报告,51648839.11,2019,12,-0.6305134562060378,True,0.4467172778832277,True,0.0,True,比例外推,86114201.71000002,154000000.0,154000000.0
25,300170,12625992.870000005,12130733.38,2020-03-31,一季度报告,1074201.89,2020,3,1.2832424283480397,False,0.24850529840986058,True,0.6214532855932644,False,前期平均,225028299.785,287580000.0,287580000.0
