,SECURITYCODE_x,NETPROFIT_x,PARENTNETPROFIT_x,REPORTDATE_x,REPORTTIMETYPE_x,KCFJCXSYJLR,Year,Month,managesituationChangeRate,managesituationGreatChange,historyprofitextroplaterate,ifhistoryprofitextroplate,IfprofitdisStableChangeRage,IfprofitdisStable,predicttype,predict,analyst_prediction,adj_prediction
0,300193,67880553.64,69414626.45,2013-12-31,年度报告,65472934.84,2013,12,未知,未知,未知,未知,未知,未知,未知,未知,未知,未知
1,300193,12732014.86,13229624.1,2014-03-31,一季度报告,11912073.76,2014,3,未知,未知,未知,未知,未知,未知,未知,未知,未知,未知
2,300193,40266699.16,41287557.51000001,2014-06-30,半年度报告,39389336.18999999,2014,6,未知,未知,未知,未知,未知,未知,未知,未知,未知,未知
3,300193,58111856.31000001,59502277.15000001,2014-09-30,三季度报告,57648690.83000001,2014,9,未知,未知,未知,未知,未知,未知,未知,未知,未知,未知
4,300193,49179231.04999998,52433985.93000001,2014-12-31,年度报告,50995597.07,2014,12,0.0,True,未知,未知,未知,未知,未知,未知,未知,未知
5,300193,11550326.169999998,12447700.94,2015-03-31,一季度报告,11527201.59,2015,3,4.3314855807512,False,未知,未知,未知,未知,未知,未知,未知,未知
6,300193,45281244.85,46769310.76,2015-06-30,半年度报告,44319671.29999999,2015,6,0.6857739784002699,False,未知,未知,未知,未知,未知,未知,64000000.0,未知
7,300193,69563061.4,71426333.11000001,2015-09-30,三季度报告,68539963.32000001,2015,9,0.16810162246217855,True,未知,未知,未知,未知,未知,未知,,未知
8,300193,74851618.36,77293126.13,2015-12-31,年度报告,72589779.93999998,2015,12,0.38026870674302715,True,未知,未知,未知,未知,未知,未知,,未知
9,300193,13558197.44,13454011.119999995,2016-03-31,一季度报告,12444457.979999995,2016,3,4.876938247536954,False,未知,未知,未知,未知,未知,未知,,未知
10,300193,53679595.79999999,52461099.18000002,2016-06-30,半年度报告,50945387.06,2016,6,0.4990876214835335,True,未知,未知,未知,未知,未知,未知,未知,未知
11,300193,83903897.77999999,81951605.13,2016-09-30,三季度报告,79871346.08999999,2016,9,-0.024186798656334083,True,未知,未知,未知,未知,未知,未知,88970000.0,未知
12,300193,103236424.33999996,101008777.98,2016-12-31,年度报告,88030386.02,2016,12,-0.09313178355707095,True,0.2788613708494941,True,0.0,True,比例外推,101008777.98,89000000.0,89000000.0
13,300193,19519592.55,18772503.31,2017-03-31,一季度报告,17064353.5,2017,3,4.006606072849755,False,0.11671254622849689,True,0.05567192060073503,True,前期平均,68845554.13999999,120350000.0,120350000.0
14,300193,73467411.36999999,71546725.15,2017-06-30,半年度报告,64429597.58,2017,6,0.26455038694609573,True,0.25495934288555666,True,0.11851281840400629,False,平均增速,119437567.8486216,149930000.0,149930000.0
15,300193,110528501.54,107521045.88,2017-09-30,三季度报告,95248289.66,2017,9,-0.1909725836815586,True,0.31433643012919366,True,0.1364676584112976,False,平均增速,117763099.27230681,,117763099.27230681
16,300193,146970441.94,143770901.65,2017-12-31,年度报告,86808931.12,2017,12,-0.3424747701795497,True,0.664689467678136,True,0.0,True,比例外推,143770901.65,115952721.0,115952721.0
17,300193,24120151.45,23023021.81,2018-03-31,一季度报告,6163565.980000001,2018,3,2.4775599678180784,False,0.5548180253996225,True,0.030994232752128453,True,前期平均,91347275.005,179850000.0,179850000.0
18,300193,89027502.75,86344967.53,2018-06-30,半年度报告,73554099.62,2018,6,-0.07604538700653542,True,0.4847774308998859,True,0.0983751476602488,True,比例外推,127036361.28632243,174000000.0,174000000.0
19,300193,144791740.11,140872012.6,2018-09-30,三季度报告,113943878.57999998,2018,9,-0.38585475516073847,True,0.4404208193160604,True,0.11430335700040162,False,平均增速,131184893.97873165,187000000.0,187000000.0
20,300193,195722844.69000003,190782362.94000003,2018-12-31,年度报告,130919559.34,2018,12,-0.5381346565746062,True,0.6505368885162106,True,0.0,True,比例外推,190782362.94000003,187000000.0,190782362.94000003
21,300193,30198717.820000004,29584430.88,2019-03-31,一季度报告,13707040.75,2019,3,1.8142673059376664,False,0.45838953916159125,True,0.0812603762621013,True,前期平均,102249683.71,230480000.0,230480000.0
22,300193,109282393.71000002,105918567.83000004,2019-06-30,半年度报告,79712983.47000001,2019,6,-0.23753276747954158,True,0.4003869179707411,True,0.11461617226083887,False,平均增速,172774063.13806313,229700000.0,229700000.0
23,300193,176868867.53,172072852.08,2019-09-30,三季度报告,139173472.89999998,2019,9,-0.5311849033071201,True,0.48937873128541115,True,0.13892819646102217,False,平均增速,193025517.95914155,234950000.0,234950000.0
24,300193,214448582.26,207669714.14000005,2019-12-31,年度报告,172438518.19000003,2019,12,-0.6531802215141819,True,0.5644881981054165,True,0.0,True,比例外推,207669714.14000005,,207669714.14000005
25,300193,28569575.90000001,28702752.11,2020-03-31,一季度报告,22818435.64,2020,3,1.2477958847326978,False,0.3840006861635121,True,0.0888596494938294,True,前期平均,125953037.60000001,232966667.00000003,232966667.00000003
