,SECURITYCODE_x,NETPROFIT_x,PARENTNETPROFIT_x,REPORTDATE_x,REPORTTIMETYPE_x,KCFJCXSYJLR,Year,Month,managesituationChangeRate,managesituationGreatChange,historyprofitextroplaterate,ifhistoryprofitextroplate,IfprofitdisStableChangeRage,IfprofitdisStable,predicttype,predict,analyst_prediction,adj_prediction
0,300177,107344851.24000002,107783111.63,2013-12-31,年度报告,103503553.99,2013,12,未知,未知,未知,未知,未知,未知,未知,未知,未知,未知
1,300177,10443383.03,12265764.68,2014-03-31,一季度报告,11919309.74,2014,3,未知,未知,未知,未知,未知,未知,未知,未知,未知,未知
2,300177,46599915.26,44714211.38,2014-06-30,半年度报告,42132835.86000001,2014,6,未知,未知,未知,未知,未知,未知,未知,未知,未知,未知
3,300177,68607663.14,66500053.07000001,2014-09-30,三季度报告,62408086.11000001,2014,9,未知,未知,未知,未知,未知,未知,未知,未知,未知,未知
4,300177,105720768.76000002,99590454.80999996,2014-12-31,年度报告,94566030.41999996,2014,12,0.0,True,未知,未知,未知,未知,未知,未知,未知,未知
5,300177,2236282.45,1152446.26,2015-03-31,一季度报告,-9200507.71,2015,3,9.278743098059099,False,未知,未知,未知,未知,未知,未知,148613333.0,未知
6,300177,11177961.13,10420821.510000004,2015-06-30,半年度报告,5982951.3,2015,6,1.3035417691444109,False,未知,未知,未知,未知,未知,未知,34866333.0,未知
7,300177,14696229.49,14610363.250000002,2015-09-30,三季度报告,3952597.900000001,2015,9,0.5646189700551871,False,未知,未知,未知,未知,未知,未知,,未知
8,300177,159072.05,1552554.9699999997,2015-12-31,年度报告,-20282610.68,2015,12,0.015362000286688077,True,未知,未知,未知,未知,未知,未知,26330000.0,未知
9,300177,-8826265.889999999,-4843595.85,2016-03-31,一季度报告,-8252585.730000001,2016,3,47.001472819321194,False,未知,未知,未知,未知,未知,未知,47000000.0,未知
10,300177,15383781.400000002,17147481.990000002,2016-06-30,半年度报告,6708643.85,2016,6,8.60325858996792,False,未知,未知,未知,未知,未知,未知,49304000.0,未知
11,300177,14779773.99,21491193.710000005,2016-09-30,三季度报告,4737811.650000001,2016,9,6.3042443514537165,False,未知,未知,未知,未知,未知,未知,47260000.0,未知
12,300177,18589331.23,18882921.13,2016-12-31,年度报告,-6344268.3900000015,2016,12,673.81905991656,False,0.9985068257375357,True,0.0,True,前期平均,18882921.13,47260000.0,47260000.0
13,300177,-111725.58,4888158.04,2017-03-31,一季度报告,-1377149.9200000002,2017,3,-13.161977961894374,False,2.3921922315572,False,0.6739766956401313,False,前期平均,40670466.89499998,48160000.0,48160000.0
14,300177,23250543.64,24270111.55,2017-06-30,半年度报告,14224244.7,2017,6,5.977793589812711,False,0.4674853988692954,True,0.7551423526621628,False,前期平均,37353927.839999974,48000000.0,48000000.0
15,300177,46700666.90000001,40178362.45000001,2017-09-30,三季度报告,22325871.6,2017,9,6.262956207086089,False,0.6451600633923461,True,0.7538487096351651,False,前期平均,44139730.31499998,59365000.0,59365000.0
16,300177,87165032.62,67012070.68000001,2017-12-31,年度报告,39971200.29,2017,12,4.7745407788938525,False,0.6488598568379356,True,0.0,True,前期平均,67012070.68000001,59365000.0,59365000.0
17,300177,15725390.5,21317920.44,2018-03-31,一季度报告,19287293.92000001,2018,3,-961.790279540281,False,-0.9660923032607802,True,0.727475277662603,False,前期平均,16731027.625000002,90990000.0,90990000.0
18,300177,61998810.13,52651251.64,2018-06-30,半年度报告,42656572.64999999,2018,6,3.616874895575561,False,0.7506790914594412,True,0.7252501974151079,False,前期平均,32992014.53,107782000.0,107782000.0
19,300177,94340184.78,74115477.27000001,2018-09-30,三季度报告,53665647.52,2018,9,1.2985721268147457,False,2.1687244800121737,False,0.6862534015105657,False,去年同期,91760805.96000001,112570000.0,112570000.0
20,300177,144202927.23999998,95415587.93999998,2018-12-31,年度报告,55430108.99999999,2018,12,0.2315127754035827,True,8.29839531593434,False,0.0,True,比例外推,95415587.93999998,84495000.0,84495000.0
21,300177,28730655.89,22367411.05,2019-03-31,一季度报告,14129295.23,2019,3,5.826212121091684,False,-4.518775007289194,True,0.7626947992636705,False,前期平均,43995744.825,137462857.0,137462857.0
22,300177,55486527.68999998,38270814.62,2019-06-30,半年度报告,25769946.29000001,2019,6,0.7314017965008971,False,2.2095195174658597,False,1.0800953119665062,False,去年同期,51044350.97,94165000.0,94165000.0
23,300177,66623438.81000001,40836147.90000001,2019-09-30,三季度报告,23458980.27,2019,9,0.13784864308170186,True,2.068949520020268,False,1.0067630066144029,False,未知,未知,,未知
24,300177,-160827335.52,-154463592.34,2019-12-31,年度报告,-205095288.51,2019,12,-0.25559866713840196,True,1.727129585773589,True,0.0,True,比例外推,-154463592.34,151250000.0,151250000.0
25,300177,-30577595.83,-23323546.02,2020-03-31,一季度报告,-28118389.2,2020,3,2.736247847977689,False,2.6801937325038994,False,0.26641963492858867,False,前期平均盈利变化,-26825647.80500001,未知,-26825647.80500001
