,SECURITYCODE_x,NETPROFIT_x,PARENTNETPROFIT_x,REPORTDATE_x,REPORTTIMETYPE_x,KCFJCXSYJLR,Year,Month,managesituationChangeRate,managesituationGreatChange,historyprofitextroplaterate,ifhistoryprofitextroplate,IfprofitdisStableChangeRage,IfprofitdisStable,predicttype,predict,analyst_prediction,adj_prediction
0,300189,35065967.20999999,38417311.61999999,2013-12-31,年度报告,34677345.660000004,2013,12,未知,未知,未知,未知,未知,未知,未知,未知,未知,未知
1,300189,19106431.61,18407166.44,2014-03-31,一季度报告,17380573.4,2014,3,未知,未知,未知,未知,未知,未知,未知,未知,未知,未知
2,300189,1381219.79,7315191.45,2014-06-30,半年度报告,5625764.620000001,2014,6,未知,未知,未知,未知,未知,未知,未知,未知,未知,未知
3,300189,-47650014.88,-32406299.71,2014-09-30,三季度报告,-29914769.230000004,2014,9,未知,未知,未知,未知,未知,未知,未知,未知,未知,未知
4,300189,-117480570.84,-90004908.48999998,2014-12-31,年度报告,88169304.47000001,2014,12,0.0,True,未知,未知,未知,未知,未知,未知,未知,未知
5,300189,-11529058.430000005,-10607774.79,2015-03-31,一季度报告,-11553286.169999998,2015,3,0.8352965077815487,False,未知,未知,未知,未知,未知,未知,未知,未知
6,300189,-2794795.74,587843.53,2015-06-30,半年度报告,-1431961.0,2015,6,24.38768084838981,False,未知,未知,未知,未知,未知,未知,未知,未知
7,300189,-4077578.9100000006,4455668.59,2015-09-30,三季度报告,-84941.08,2015,9,-1.7359067420715146,False,未知,未知,未知,未知,未知,未知,未知,未知
8,300189,-27679761.07,-20358985.17,2015-12-31,年度报告,-27765751.7,2015,12,-1.2984831190321444,False,未知,未知,未知,未知,未知,未知,24000000.0,未知
9,300189,-1757498.9999999998,-3949067.18,2016-03-31,一季度报告,-6707797.53,2016,3,-4.041529143330049,False,未知,未知,未知,未知,未知,未知,37083333.0,未知
10,300189,8381703.49,5199377.41,2016-06-30,半年度报告,-18914.83,2016,6,-13.546880155900048,False,未知,未知,未知,未知,未知,未知,48117500.0,未知
11,300189,-24050930.91,-24713813.29000001,2016-09-30,三季度报告,-30671119.82000001,2016,9,-9.599702908018031,False,未知,未知,未知,未知,未知,未知,3135000.0,未知
12,300189,27350729.17,15926047.8,2016-12-31,年度报告,-8821460.88,2016,12,-2.266845010739827,False,-0.3282801869855939,True,0.0,True,盈利变化,-14044221.563333336,72793333.0,72793333.0
13,300189,11966583.56,5192229.27,2017-03-31,一季度报告,3188866.1600000006,2017,3,-20.952197531833587,False,1.463880808890028,True,0.30252164133708875,False,盈利变化,29121599.38666667,未知,29121599.38666667
14,300189,17312573.599999998,6804709.57,2017-06-30,半年度报告,1903190.01,2017,6,3.183632510006625,False,-12.858865439808874,True,0.037030314166423106,True,前期平均,34909584.145,未知,34909584.145
15,300189,1712421.9,-12572227.800000004,2017-09-30,三季度报告,-19765005.62,2017,9,-2.4579879398938402,False,-0.07009280162381985,True,2.429993093583823,False,前期平均,32629403.740000002,未知,32629403.740000002
16,300189,1255476.7899999998,-16345655.259999998,2017-12-31,年度报告,-38525394.51,2017,12,0.28208527794800253,True,-1.376834756577404,True,0.0,True,比例外推,-16345655.259999998,,-16345655.259999998
17,300189,14058187.46,12909489.21,2018-03-31,一季度报告,-8351754.760000003,2018,3,1.9303240172251794,False,-2.8013068656867266,True,0.4473466513160489,False,前期平均,3746424.7699999996,未知,3746424.7699999996
18,300189,-7119743.48,-2884099.6499999994,2018-06-30,半年度报告,-27660623.06,2018,6,1.0254624194059743,False,5.197551266172239,False,0.050839650454296996,True,前期平均盈利变化,38675358.115,未知,38675358.115
19,300189,28989690.300000004,34017385.45,2018-09-30,三季度报告,-35812764.95,2018,9,19.477411092441645,False,-1.1217570295019632,True,2.145884370523789,False,盈利变化,-23477992.74,未知,-23477992.74
20,300189,17027360.03,20415280.36,2018-12-31,年度报告,-79638349.64000002,2018,12,26.930398625688653,False,-8.63133781253432,True,0.0,True,盈利变化,-30049973.63666667,未知,-30049973.63666667
21,300189,-12071609.86,-11907293.78,2019-03-31,一季度报告,-12583008.59,2019,3,1.4943448299984463,False,1.7540544653888144,True,0.49956423641142217,False,盈利变化,14773608.58666667,未知,14773608.58666667
22,300189,-36305627.6,-36378314.5,2019-06-30,半年度报告,-37777823.87,2019,6,-5.925172839232685,False,1.554189048017307,True,0.24730419896127293,False,前期平均,-60993879.785,未知,-60993879.785
23,300189,-92803627.45,-87371787.16999999,2019-09-30,三季度报告,-88984552.36999999,2019,9,0.20960130470935,True,-3.595490172331784,True,1.9970066200156176,False,平均增速,-50078050.918824494,未知,-50078050.918824494
24,300189,-338021069.24000007,-329317069.35,2019-12-31,年度报告,-220567536.31,2019,12,1.0593895441347516,False,0.19046615645635243,True,0.0,True,盈利变化,-26561115.196666665,未知,-26561115.196666665
25,300189,-4359483.22,-4149156.66,2020-03-31,一季度报告,-5443558.550000002,2020,3,-3.9048293986200773,False,1.9277015233465826,True,0.10915517799890341,False,前期平均,-60649584.435,未知,-60649584.435
