,SECURITYCODE_x,NETPROFIT_x,PARENTNETPROFIT_x,REPORTDATE_x,REPORTTIMETYPE_x,KCFJCXSYJLR,Year,Month,managesituationChangeRate,managesituationGreatChange,historyprofitextroplaterate,ifhistoryprofitextroplate,IfprofitdisStableChangeRage,IfprofitdisStable,predicttype,predict,analyst_prediction,adj_prediction
0,300162,17376492.129999995,17430930.15,2013-12-31,年度报告,6904212.499999999,2013,12,未知,未知,未知,未知,未知,未知,未知,未知,未知,未知
1,300162,6039389.299999999,6039389.299999999,2014-03-31,一季度报告,4749095.3900000015,2014,3,未知,未知,未知,未知,未知,未知,未知,未知,未知,未知
2,300162,19025815.17,18832543.06,2014-06-30,半年度报告,17047437.87,2014,6,未知,未知,未知,未知,未知,未知,未知,未知,未知,未知
3,300162,28759863.33,25130569.82,2014-09-30,三季度报告,22831538.1,2014,9,未知,未知,未知,未知,未知,未知,未知,未知,未知,未知
4,300162,32078828.83,25771284.74,2014-12-31,年度报告,16984051.369999994,2014,12,0.0,True,未知,未知,未知,未知,未知,未知,未知,未知
5,300162,5564417.14,7028851.36,2015-03-31,一季度报告,5578173.82,2015,3,1.8771935814768554,False,未知,未知,未知,未知,未知,未知,未知,未知
6,300162,17591507.919999998,19825358.28,2015-06-30,半年度报告,16668037.99,2015,6,-0.08668869245616699,True,未知,未知,未知,未知,未知,未知,未知,未知
7,300162,26268968.06,28948499.0,2015-09-30,三季度报告,25419721.63,2015,9,-0.3958075554596178,True,未知,未知,未知,未知,未知,未知,未知,未知
8,300162,18075831.03,19965935.789999995,2015-12-31,年度报告,7452264.8199999975,2015,12,-0.4583189984246069,True,未知,未知,未知,未知,未知,未知,,未知
9,300162,10492903.920000002,10064008.66,2016-03-31,一季度报告,8646811.68,2016,3,2.1227874713217485,False,未知,未知,未知,未知,未知,未知,76468073.0,未知
10,300162,26431878.300000004,26645480.45,2016-06-30,半年度报告,22988700.89,2016,6,-0.012222703760122166,True,未知,未知,未知,未知,未知,未知,70360000.0,未知
11,300162,41790667.98,41076130.86,2016-09-30,三季度报告,33514518.37,2016,9,-0.3385163783247603,True,未知,未知,未知,未知,未知,未知,72120000.0,未知
12,300162,30516766.820000004,30760169.980000004,2016-12-31,年度报告,22732822.750000004,2016,12,-0.03868917002152381,True,0.2690035903469343,True,0.0,True,比例外推,30760169.980000004,73000000.0,73000000.0
13,300162,9362132.929999998,8673084.760000002,2017-03-31,一季度报告,8592371.03,2017,3,0.6560231812357996,False,0.8085279126734561,True,0.27901783833615856,False,前期平均,15727608.249999996,76450000.0,76450000.0
14,300162,21906290.419999994,21582003.62,2017-06-30,半年度报告,20228461.34,2017,6,-0.3425933665107715,True,0.4436816276839423,True,0.8194310577467852,False,平均增速,21246221.15835452,,21246221.15835452
15,300162,24598330.08,23908120.97000001,2017-09-30,三季度报告,20951464.11,2017,9,-0.5842016179708838,True,0.5188644543011073,True,1.3344802793466188,False,平均增速,11133077.861178678,未知,11133077.861178678
16,300162,21667159.79,20315310.590000004,2017-12-31,年度报告,14998970.450000005,2017,12,-0.4305919682614663,True,0.21690654089504194,True,0.0,True,比例外推,20315310.590000004,,20315310.590000004
17,300162,356283.75,697404.5500000003,2018-03-31,一季度报告,-4086604.52,2018,3,0.8560398853469386,False,0.16608902506430875,True,0.18688367012502188,False,前期平均,8677455.585,未知,8677455.585
18,300162,11520813.680000005,11671332.47,2018-06-30,半年度报告,4851302.569999998,2018,6,-0.2067807101591416,True,0.0047884862592473725,True,0.7044562118538837,False,平均增速,6193567.57313353,未知,6193567.57313353
19,300162,15359805.9,14601855.65,2018-09-30,三季度报告,7623568.52,2018,9,-0.293590578161719,True,0.2771536402121494,True,1.3169578319266835,False,平均增速,7997581.871396365,未知,7997581.871396365
20,300162,-37434055.49,-36478778.29,2018-12-31,年度报告,-43826701.2,2018,12,-0.1980263080895479,True,0.10821150756812253,True,0.0,True,比例外推,-36478778.29,未知,-36478778.29
21,300162,14451726.910000006,12124072.59,2019-03-31,一季度报告,7485227.450000001,2019,3,47.77149780196261,False,0.9641114994959075,True,0.2555805411906727,False,前期平均,22370377.835000005,未知,22370377.835000005
22,300162,21577581.78,18744099.81,2019-06-30,半年度报告,13361214.910000006,2019,6,0.5082695209423773,False,0.5233243631245281,True,0.8604327503410398,False,前期平均,16001415.295000002,未知,16001415.295000002
23,300162,45248272.41,41034376.94,2019-09-30,三季度报告,33877252.28,2019,9,0.13129633558715706,True,0.5372785747988436,True,1.073011668728736,False,平均增速,-44184223.900586665,未知,-44184223.900586665
24,300162,45924192.46,40407138.22000001,2019-12-31,年度报告,30411108.039999995,2019,12,-1.4641894099516386,False,2.4346967705119575,False,0.0,True,前期平均,40407138.22000001,未知,40407138.22000001
25,300162,3500623.02,5005006.23,2020-03-31,一季度报告,1816058.8,2020,3,0.2023817110726173,True,1.9740908186702713,True,0.26878294316110674,False,平均增速,6478865.229141442,未知,6478865.229141442
