,SECURITYCODE_x,NETPROFIT_x,PARENTNETPROFIT_x,REPORTDATE_x,REPORTTIMETYPE_x,KCFJCXSYJLR,Year,Month,managesituationChangeRate,managesituationGreatChange,historyprofitextroplaterate,ifhistoryprofitextroplate,IfprofitdisStableChangeRage,IfprofitdisStable,predicttype,predict,analyst_prediction,adj_prediction
0,300120,33357172.7,33353766.15,2013-12-31,年度报告,31787369.09,2013,12,未知,未知,未知,未知,未知,未知,未知,未知,未知,未知
1,300120,2108193.13,2235874.6700000004,2014-03-31,一季度报告,1800646.0299999998,2014,3,未知,未知,未知,未知,未知,未知,未知,未知,未知,未知
2,300120,3942890.9900000007,4098779.020000002,2014-06-30,半年度报告,3381321.73,2014,6,未知,未知,未知,未知,未知,未知,未知,未知,未知,未知
3,300120,5395320.880000001,5418446.259999999,2014-09-30,三季度报告,3673642.4100000006,2014,9,未知,未知,未知,未知,未知,未知,未知,未知,未知,未知
4,300120,4940403.98,4949927.37,2014-12-31,年度报告,2394396.84,2014,12,0.0,True,未知,未知,未知,未知,未知,未知,未知,未知
5,300120,1432486.9300000004,1609097.7799999998,2015-03-31,一季度报告,1171093.88,2015,3,14.822636088373935,False,未知,未知,未知,未知,未知,未知,51000000.0,未知
6,300120,5738047.95,5937374.949999997,2015-06-30,半年度报告,3969939.82,2015,6,7.460079871495507,False,未知,未知,未知,未知,未知,未知,21000000.0,未知
7,300120,6443116.57,7431144.670000001,2015-09-30,三季度报告,5187236.3,2015,9,5.182611459431862,False,未知,未知,未知,未知,未知,未知,,未知
8,300120,5054833.08,6692436.669999999,2015-12-31,年度报告,4114907.1800000006,2015,12,5.751911955993525,False,未知,未知,未知,未知,未知,未知,,未知
9,300120,-63853.36,825036.31,2016-03-31,一季度报告,346707.68000000005,2016,3,22.286196893956994,False,未知,未知,未知,未知,未知,未知,11000000.0,未知
10,300120,5630829.4700000025,7507216.519999999,2016-06-30,半年度报告,6555133.21,2016,6,4.81333111724868,False,未知,未知,未知,未知,未知,未知,14000000.0,未知
11,300120,7386950.339999999,8776837.95,2016-09-30,三季度报告,6976765.459999999,2016,9,4.177179760384189,False,未知,未知,未知,未知,未知,未知,,未知
12,300120,17356586.53,15679195.87,2016-12-31,年度报告,13391670.449999996,2016,12,5.599065126795442,False,0.7360233456943626,True,0.0,True,前期平均,15679195.87,84708900.0,84708900.0
13,300120,6247768.75,5629621.88,2017-03-31,一季度报告,4839667.48,2017,3,-523.4027788044357,False,1.0360684156252176,True,0.3978540341643172,False,前期平均,7398403.9350000005,133000000.0,133000000.0
14,300120,18016943.61,15651536.809999995,2017-06-30,半年度报告,12499995.79,2017,6,4.924024671271031,False,0.16328168267529672,True,0.46598818821099963,False,前期平均,15230558.044999994,135000000.0,135000000.0
15,300120,18298151.02,17112224.449999996,2017-09-30,三季度报告,13499972.14,2017,9,3.5156893121877957,False,0.24796036152558262,True,0.584302177705789,False,前期平均,15936437.104999995,130000000.0,130000000.0
16,300120,59425914.71000002,55973760.32999998,2017-12-31,年度报告,51903387.77,2017,12,0.9218740183931775,False,2.472971461469269,False,0.0,True,去年同期,55973760.32999998,,55973760.32999998
17,300120,23948289.27,22948695.36,2018-03-31,一季度报告,21644735.75,2018,3,4.339053674161676,False,8.129936437259827,False,0.15002073346902453,False,去年同期,70012415.65,未知,70012415.65
18,300120,57112054.41,52167929.07,2018-06-30,半年度报告,48709211.18000002,2018,6,0.8514334851714619,False,2.1695202515430054,False,0.39973836571768695,False,去年同期,91571321.05000001,未知,91571321.05000001
19,300120,96457538.88,92290214.24,2018-09-30,三季度报告,86748346.27999999,2018,9,0.8229805111751668,False,1.6461406353384012,True,0.58003876609624,False,前期平均,94961502.175,未知,94961502.175
20,300120,136533794.45,134608509.42000002,2018-12-31,年度报告,141256784.07999995,2018,12,-0.4386763272760066,True,4.303181658647283,False,0.0,True,比例外推,134608509.42000002,未知,134608509.42000002
21,300120,17598256.990000002,18387428.500000004,2019-03-31,一季度报告,15796318.41,2019,3,0.39288332138974535,True,6.745348297852439,False,0.0648979582924478,True,比例外推,176582830.69408593,未知,176582830.69408593
22,300120,42219168.09,44122071.05,2019-06-30,半年度报告,41566147.17999999,2019,6,-0.4159346385872726,True,3.8302268646431035,False,0.1311090810361465,False,未知,未知,未知,未知
23,300120,82155129.08000001,86156210.10000001,2019-09-30,三季度报告,81973031.60000001,2019,9,-0.6541776507329439,True,6.5107773590658695,False,0.20496662912805585,False,未知,未知,未知,未知
24,300120,130440215.63,137462172.54000002,2019-12-31,年度报告,128329009.10000002,2019,12,-0.7556855953914345,True,2.5563778789449594,False,0.0,True,比例外推,137462172.54000002,未知,137462172.54000002
25,300120,13086256.67,11927633.44,2020-03-31,一季度报告,8309240.039999997,2020,3,0.8954816217853172,False,0.16559962749733798,True,0.030041101315576593,True,前期平均,95265517.74999999,209640000.0,209640000.0
