,SECURITYCODE_x,NETPROFIT_x,PARENTNETPROFIT_x,REPORTDATE_x,REPORTTIMETYPE_x,KCFJCXSYJLR,Year,Month,managesituationChangeRate,managesituationGreatChange,historyprofitextroplaterate,ifhistoryprofitextroplate,IfprofitdisStableChangeRage,IfprofitdisStable,predicttype,predict,analyst_prediction,adj_prediction
0,300198,91045459.95000002,91756250.64,2013-12-31,年度报告,91022512.7,2013,12,未知,未知,未知,未知,未知,未知,未知,未知,未知,未知
1,300198,20434968.6,20434889.96,2014-03-31,一季度报告,19984830.4,2014,3,未知,未知,未知,未知,未知,未知,未知,未知,未知,未知
2,300198,42766603.19,42766521.32,2014-06-30,半年度报告,41404766.55,2014,6,未知,未知,未知,未知,未知,未知,未知,未知,未知,未知
3,300198,40233225.15,40233151.78999999,2014-09-30,三季度报告,37947462.63,2014,9,未知,未知,未知,未知,未知,未知,未知,未知,未知,未知
4,300198,49714990.88999999,49404105.32,2014-12-31,年度报告,47183621.67,2014,12,0.0,True,未知,未知,未知,未知,未知,未知,未知,未知
5,300198,5753837.16,3033188.6100000013,2015-03-31,一季度报告,2827732.0099999993,2015,3,3.4553755737114282,False,未知,未知,未知,未知,未知,未知,117518000.0,未知
6,300198,30727065.03,23798604.0,2015-06-30,半年度报告,22168282.26,2015,6,1.1288915452440922,False,未知,未知,未知,未知,未知,未知,91186000.0,未知
7,300198,25661052.050000004,13572303.37,2015-09-30,三季度报告,11584979.31,2015,9,1.2629421233460332,False,未知,未知,未知,未知,未知,未知,54878954.0,未知
8,300198,53150376.70000001,26760368.72000001,2015-12-31,年度报告,24702895.55,2015,12,0.8313482175114612,False,未知,未知,未知,未知,未知,未知,41315986.0,未知
9,300198,35858849.91,25802185.980000004,2016-03-31,一季度报告,25576698.27,2016,3,14.82343354847394,False,未知,未知,未知,未知,未知,未知,159633333.0,未知
10,300198,31731953.520000003,22270007.01,2016-06-30,半年度报告,21496167.44,2016,6,1.963037955662504,False,未知,未知,未知,未知,未知,未知,153702500.0,未知
11,300198,42727426.49,32907147.08,2016-09-30,三季度报告,29375919.020000003,2016,9,2.5480018423484707,False,未知,未知,未知,未知,未知,未知,160000000.0,未知
12,300198,84965794.96000001,63868115.96,2016-12-31,年度报告,58816597.06,2016,12,0.7129786391523355,False,0.24481093399714762,True,0.0,True,前期平均,63868115.96,148043639.0,148043639.0
13,300198,-17108583.29,-14167885.81,2017-03-31,一季度报告,-14071646.81,2017,3,1.5389955388560879,False,1.7384868358350063,True,0.20982339944869483,False,盈利变化,11003655.85333334,279000000.0,279000000.0
14,300198,26186417.08,27071244.489999995,2017-06-30,半年度报告,27616520.89999999,2017,6,1.8692043776194214,False,0.13647109231201185,True,0.34798813307710535,False,前期平均,31227978.694999997,99000000.0,99000000.0
15,300198,33348804.27,35119301.36,2017-09-30,三季度报告,35039527.83,2017,9,1.1308435220480328,False,0.296847869210712,True,0.2133598235291002,False,前期平均,46296339.0,107990000.0,107990000.0
16,300198,82540967.79000002,71179485.96,2017-12-31,年度报告,70239440.55000001,2017,12,0.07155426478222418,True,0.6519805829821369,True,0.0,True,比例外推,71179485.96,99000000.0,99000000.0
17,300198,6364908.5699999975,6644531.379999999,2018-03-31,一季度报告,6379369.6,2018,3,-6.3216247310913385,False,1.822277266604788,True,0.31852627709975817,False,前期平均,34202062.545,未知,34202062.545
18,300198,27880659.42,25213264.78,2018-06-30,半年度报告,24243125.1,2018,6,2.476820050328169,False,0.16148483636395544,True,0.3453791527517758,False,前期平均,45140786.235,未知,45140786.235
19,300198,6105004.059999999,5711992.749999999,2018-09-30,三季度报告,-10966363.11,2018,9,1.7300966839132796,False,0.024724486289178487,True,0.02012091054545706,True,前期平均,26991289.89,未知,26991289.89
20,300198,-401677081.3999999,-397141071.3,2018-12-31,年度报告,-414775451.0,2018,12,0.10303358910979876,True,0.1952397289607876,True,0.0,True,比例外推,-397141071.3,,-397141071.3
21,300198,5151919.5200000005,5907767.12,2019-03-31,一季度报告,2000005.98,2019,3,13.304284020532295,False,0.32108607317499593,True,0.36180959547777414,False,前期平均,64683260.19500001,未知,64683260.19500001
22,300198,379409262.99000007,380299084.6100001,2019-06-30,半年度报告,376810636.58,2019,6,2.265541843127612,False,0.03724296346140645,True,0.2918507805520796,False,前期平均,420270759.24500006,未知,420270759.24500006
23,300198,361839420.88000005,363445518.04000014,2019-09-30,三季度报告,361243950.32,2019,9,13.913251335331632,False,0.8395029827579223,True,0.3151430760148817,False,前期平均,395765813.42000014,未知,395765813.42000014
24,300198,232167629.63,237198119.22000003,2019-12-31,年度报告,234944304.42,2019,12,-1.2266633177891837,False,5.795950620805605,False,0.0,True,前期平均,237198119.22000003,未知,237198119.22000003
25,300198,4494527.88,3991686.24,2020-03-31,一季度报告,-3937246.42,2020,3,16.672143284955666,False,-1.9590609645709751,True,0.13126963009613668,False,前期平均,-164430180.38,未知,-164430180.38
