,SECURITYCODE_x,NETPROFIT_x,PARENTNETPROFIT_x,REPORTDATE_x,REPORTTIMETYPE_x,KCFJCXSYJLR,Year,Month,managesituationChangeRate,managesituationGreatChange,historyprofitextroplaterate,ifhistoryprofitextroplate,IfprofitdisStableChangeRage,IfprofitdisStable,predicttype,predict,analyst_prediction,adj_prediction
0,300153,20126365.31,20126365.31,2013-12-31,年度报告,19564371.090000004,2013,12,未知,未知,未知,未知,未知,未知,未知,未知,未知,未知
1,300153,4126738.83,4126738.83,2014-03-31,一季度报告,4110615.21,2014,3,未知,未知,未知,未知,未知,未知,未知,未知,未知,未知
2,300153,12796652.13,12796652.13,2014-06-30,半年度报告,11878666.63,2014,6,未知,未知,未知,未知,未知,未知,未知,未知,未知,未知
3,300153,21376411.69,21376411.69,2014-09-30,三季度报告,19954432.44,2014,9,未知,未知,未知,未知,未知,未知,未知,未知,未知,未知
4,300153,31327232.52,31327232.52,2014-12-31,年度报告,28201851.16,2014,12,0.0,True,未知,未知,未知,未知,未知,未知,未知,未知
5,300153,6024477.21,6024477.21,2015-03-31,一季度报告,5735977.21,2015,3,3.8770630124901793,False,未知,未知,未知,未知,未知,未知,56800000.0,未知
6,300153,15228251.03,15261176.330000006,2015-06-30,半年度报告,14396242.849999998,2015,6,0.5727836550949515,False,未知,未知,未知,未知,未知,未知,,未知
7,300153,22080560.13,18490444.39,2015-09-30,三季度报告,17114281.950000007,2015,9,-0.058477839879215135,True,未知,未知,未知,未知,未知,未知,44000000.0,未知
8,300153,50768635.93,41214903.49,2015-12-31,年度报告,37679469.35,2015,12,-0.35754410169647505,True,未知,未知,未知,未知,未知,未知,49000000.0,未知
9,300153,5037723.57,7805985.84,2016-03-31,一季度报告,5811745.97,2016,3,2.3407654487583325,False,未知,未知,未知,未知,未知,未知,91000000.0,未知
10,300153,5729867.51,14295646.9,2016-06-30,半年度报告,10915828.230000002,2016,6,0.32164654170400814,True,未知,未知,未知,未知,未知,未知,88750000.0,未知
11,300153,945303.59,14506181.659999998,2016-09-30,三季度报告,9903947.1,2016,9,-0.08850295501991871,True,未知,未知,未知,未知,未知,未知,80000000.0,未知
12,300153,32467936.22000001,48456054.25,2016-12-31,年度报告,19059298.85,2016,12,-0.6035669475589158,True,0.9733755488872488,True,0.0,True,比例外推,48456054.25,55833333.0,55833333.0
13,300153,7744541.55,7966128.999999997,2017-03-31,一季度报告,6872749.52,2017,3,2.9951309416526795,False,0.007464022014844097,True,0.10395720008607648,False,前期平均,35983493.044999994,69366667.0,69366667.0
14,300153,14989403.5,16149643.430000005,2017-06-30,半年度报告,14497508.65,2017,6,2.5125358963142936,False,0.5910874355363874,True,0.1140622142222123,False,前期平均,35952848.94500001,69500000.0,69500000.0
15,300153,19308255.05,20517824.89,2017-09-30,三季度报告,18263755.289999995,2017,9,20.290901169644346,False,0.9564947325867309,True,0.14708980320330067,False,前期平均,34924127.949999996,64000000.0,64000000.0
16,300153,27164920.76,28963093.53,2017-12-31,年度报告,23550620.83,2017,12,-0.3801156570708579,True,0.20902386848433396,True,0.0,True,比例外推,28963093.53,74150000.0,74150000.0
17,300153,61136.35999999999,1994918.86,2018-03-31,一季度报告,-360687.39,2018,3,1.598780725761617,False,0.4001809773696765,True,0.09743227043306019,True,前期平均,24590441.37,未知,24590441.37
18,300153,15694985.86,17030665.81,2018-06-30,半年度报告,10370771.87,2018,6,0.3427062197638484,True,0.4304149937306348,True,0.14139215903282326,False,平均增速,24210177.971774865,未知,24210177.971774865
19,300153,15207150.3,17602055.33,2018-09-30,三季度报告,10522599.71,2018,9,0.04237100959571165,True,0.6770927931123881,True,0.19239182031879776,False,平均增速,21426798.784258224,未知,21426798.784258224
20,300153,17512014.05,18046550.110000007,2018-12-31,年度报告,11310664.129999995,2018,12,-0.2591045824202876,True,0.3472840109021717,True,0.0,True,比例外推,18046550.110000007,,18046550.110000007
21,300153,-7037164.63,-7036417.500000003,2019-03-31,一季度报告,-7126988.620000001,2019,3,328.20450792294474,False,0.9904341899614737,True,0.22017892495012464,False,盈利变化,9024815.136666672,未知,9024815.136666672
22,300153,-23128829.56,-21948268.91,2019-06-30,半年度报告,-25306437.72,2019,6,0.282343640798922,True,0.5150133276817447,True,0.215161735533568,False,平均增速,-22691821.93093531,未知,-22691821.93093531
23,300153,-1903092.6,-2284704.13,2019-09-30,三季度报告,-13377726.87,2019,9,0.3234803965868607,True,0.5016768727216622,True,0.22218631136710876,False,平均增速,-2447586.3109057443,未知,-2447586.3109057443
24,300153,5432450.58,3302027.33,2019-12-31,年度报告,-28502857.27,2019,12,0.14928901110606393,True,0.4126723106399791,True,0.0,True,比例外推,3302027.33,未知,3302027.33
25,300153,-20295604.89,-21348716.82,2020-03-31,一季度报告,-21875111.42,2020,3,-3.8600105821312862,False,2.803088651911849,False,0.2018839330100018,False,去年同期,-42724585.47,未知,-42724585.47
