,SECURITYCODE_x,NETPROFIT_x,PARENTNETPROFIT_x,REPORTDATE_x,REPORTTIMETYPE_x,KCFJCXSYJLR,Year,Month,managesituationChangeRate,managesituationGreatChange,historyprofitextroplaterate,ifhistoryprofitextroplate,IfprofitdisStableChangeRage,IfprofitdisStable,predicttype,predict,analyst_prediction,adj_prediction
0,300164,32955823.340000004,32540826.31,2013-12-31,年度报告,19265163.91,2013,12,未知,未知,未知,未知,未知,未知,未知,未知,未知,未知
1,300164,45053.13,-8550656.26,2014-03-31,一季度报告,-8517893.66,2014,3,未知,未知,未知,未知,未知,未知,未知,未知,未知,未知
2,300164,15915803.390000002,676157.45,2014-06-30,半年度报告,342958.72,2014,6,未知,未知,未知,未知,未知,未知,未知,未知,未知,未知
3,300164,60321727.27,25758328.030000005,2014-09-30,三季度报告,23208232.33,2014,9,未知,未知,未知,未知,未知,未知,未知,未知,未知,未知
4,300164,99877323.62,42602383.38,2014-12-31,年度报告,37292412.92,2014,12,0.0,True,未知,未知,未知,未知,未知,未知,未知,未知
5,300164,-8779567.42,-10684320.9,2015-03-31,一季度报告,-10923700.72,2015,3,730.487986295292,False,未知,未知,未知,未知,未知,未知,62000000.0,未知
6,300164,-26299202.57,-27619061.52,2015-06-30,半年度报告,-27917083.680000003,2015,6,1.0706352379739972,False,未知,未知,未知,未知,未知,未知,-6000000.0,未知
7,300164,-16162025.059999995,-18602797.950000007,2015-09-30,三季度报告,-20488316.08,2015,9,-0.4536657879093918,True,未知,未知,未知,未知,未知,未知,,未知
8,300164,-38552720.25999999,-46438132.14,2015-12-31,年度报告,-48333803.59,2015,12,-0.6700369799116169,True,未知,未知,未知,未知,未知,未知,87480000.0,未知
9,300164,-22063272.380000006,-16951362.81,2016-03-31,一季度报告,-17291914.7,2016,3,-4.753695571028488,False,未知,未知,未知,未知,未知,未知,2000000.0,未知
10,300164,-18738736.99,-11692061.17,2016-06-30,半年度报告,-17307331.939999998,2016,6,-2.253111125794869,False,未知,未知,未知,未知,未知,未知,2000000.0,未知
11,300164,-992602.7800000005,8740922.819999997,2016-09-30,三季度报告,1129190.14,2016,9,-3.039089978988067,False,未知,未知,未知,未知,未知,未知,29333332.999999996,未知
12,300164,9201768.149999997,21974364.47,2016-12-31,年度报告,13763689.650000002,2016,12,-1.8548248506913534,False,1.5804683716724615,True,0.0,True,前期平均,21974364.47,24640000.0,24640000.0
13,300164,-18402010.69,-13725393.350000005,2017-03-31,一季度报告,-14765287.15,2017,3,-2.4936960742901366,False,-4.05197464849531,True,0.8367610390829436,False,前期平均,-9525291.495000007,91250000.0,91250000.0
14,300164,-2432421.1100000003,4078463.26,2017-06-30,半年度报告,-4502174.819999998,2017,6,-2.7587003519814064,False,-2.6093646531655352,True,1.033903967301864,False,盈利变化,30511135.883333333,89964000.0,89964000.0
15,300164,4133061.13,10907460.21,2017-09-30,三季度报告,704386.11,2017,9,-34.20142155958901,False,1.0449551392026926,True,0.2940469336310526,False,前期平均,4026806.75,42767500.0,42767500.0
16,300164,53305197.42,44123318.71,2017-12-31,年度报告,31391464.46,2017,12,2.5814663880658646,False,0.6998996276916157,True,0.0,True,前期平均,44123318.71,41517500.0,44123318.71
17,300164,13391608.740000002,3594961.9999999995,2018-03-31,一季度报告,3200690.5000000014,2018,3,-2.7908816539221344,False,-0.19327602836363977,True,0.7561104678148755,False,盈利变化,68077955.57666667,115042500.0,115042500.0
18,300164,89611773.87000002,65720988.83000001,2018-06-30,半年度报告,40807536.15000001,2018,6,-14.548568216463142,False,-0.8919834639966376,True,0.9830316925069904,False,前期平均,71048139.67000002,136000000.0,136000000.0
19,300164,137833884.26999998,103192540.45,2018-09-30,三季度报告,76991152.20999998,2018,9,6.973708179825544,False,-1.4818596087946376,True,0.24776804155766038,False,前期平均,95587046.45,136927500.0,136927500.0
20,300164,145939437.35999998,103612656.75,2018-12-31,年度报告,98211448.05,2018,12,-0.38175215672993557,True,-4.632263595417656,True,0.0,True,比例外推,103612656.75,136927500.0,136927500.0
21,300164,14293214.25,13951761.670000002,2019-03-31,一季度报告,13229113.51,2019,3,1.4609308694602736,False,-1.6618813819655802,True,0.6916385971931683,False,前期平均,52557939.650000006,182972000.0,182972000.0
22,300164,39294091.28,37564564.33,2019-06-30,半年度报告,49453755.51000001,2019,6,-0.6322377973701415,True,-9.465457907094844,True,0.9290042603272195,False,平均增速,149977273.7948898,129000000.0,129000000.0
23,300164,86414694.82000001,81935922.17,2019-09-30,三季度报告,97909632.2,2019,9,-0.7609018746403206,True,86.77946968791991,False,0.4877950367069847,False,未知,未知,,未知
24,300164,50521593.38,45135224.43000001,2019-12-31,年度报告,54255987.24999999,2019,12,-0.7741815102472586,True,3.669541579220192,False,0.0,True,比例外推,45135224.43000001,176210000.0,176210000.0
25,300164,-17743380.179999996,-16340827.300000004,2020-03-31,一季度报告,-16406752.48,2020,3,1.3056971485612485,False,-6.705416209172601,True,0.4057124584424285,False,盈利变化,5620736.443333335,39000000.0,39000000.0
