,SECURITYCODE_x,NETPROFIT_x,PARENTNETPROFIT_x,REPORTDATE_x,REPORTTIMETYPE_x,KCFJCXSYJLR,Year,Month,managesituationChangeRate,managesituationGreatChange,historyprofitextroplaterate,ifhistoryprofitextroplate,IfprofitdisStableChangeRage,IfprofitdisStable,predicttype,predict,analyst_prediction,adj_prediction
0,300191,92208387.14000002,92208387.14000002,2013-12-31,年度报告,89233901.44,2013,12,未知,未知,未知,未知,未知,未知,未知,未知,未知,未知
1,300191,15338230.51,15338230.51,2014-03-31,一季度报告,15257214.889999995,2014,3,未知,未知,未知,未知,未知,未知,未知,未知,未知,未知
2,300191,8861752.75,8861752.75,2014-06-30,半年度报告,8751673.790000001,2014,6,未知,未知,未知,未知,未知,未知,未知,未知,未知,未知
3,300191,19100878.68,19100878.68,2014-09-30,三季度报告,18949614.380000006,2014,9,未知,未知,未知,未知,未知,未知,未知,未知,未知,未知
4,300191,24468438.66,24574160.70000001,2014-12-31,年度报告,24351730.32,2014,12,0.0,True,未知,未知,未知,未知,未知,未知,未知,未知
5,300191,-5534576.68,-5411556.550000002,2015-03-31,一季度报告,-5397017.61,2015,3,5.011670451808851,False,未知,未知,未知,未知,未知,未知,19800000.0,未知
6,300191,-5730050.550000003,-5433797.07,2015-06-30,半年度报告,-5371331.109999999,2015,6,9.405208737063896,False,未知,未知,未知,未知,未知,未知,,未知
7,300191,-17739558.51,-17356146.02,2015-09-30,三季度报告,-17385618.23,2015,9,3.827442165608269,False,未知,未知,未知,未知,未知,未知,未知,未知
8,300191,-48169061.19,-47701442.87000001,2015-12-31,年度报告,-47857789.58000001,2015,12,2.7684622391022646,False,未知,未知,未知,未知,未知,未知,,未知
9,300191,4842235.01,4845155.210000001,2016-03-31,一季度报告,4728442.71,2016,3,-17.660422733541388,False,未知,未知,未知,未知,未知,未知,未知,未知
10,300191,6097988.550000003,6107562.5299999975,2016-06-30,半年度报告,3230266.09,2016,6,-17.092072196466045,False,未知,未知,未知,未知,未知,未知,60000000.0,未知
11,300191,10263998.2,10280506.830000002,2016-09-30,三季度报告,7303228.01,2016,9,-6.197896390038176,False,未知,未知,未知,未知,未知,未知,60000000.0,未知
12,300191,11345813.38,11363467.88,2016-12-31,年度报告,2627154.95,2016,12,-2.9142658142389264,False,1.8256834355876006,True,0.0,True,前期平均,11363467.88,未知,11363467.88
13,300191,-9282291.89,-9226848.22,2017-03-31,一季度报告,-9442937.99,2017,3,18.042526219725964,False,0.012157080621848162,True,0.9534536020957246,False,盈利变化,-7531706.386666665,未知,-7531706.386666665
14,300191,-16675304.88,-15951070.72,2017-06-30,半年度报告,-16262472.990000002,2017,6,14.121115165098168,False,2.8943604216263012,False,0.6625049866459111,False,前期平均盈利变化,9591206.469999997,4000000.0,4000000.0
15,300191,-20674362.780000005,-20283635.94,2017-09-30,三季度报告,-22299148.99,2017,9,7.983671405943935,False,14.07947715194731,False,1.4727867846834999,False,前期平均盈利变化,115193221.35499999,-24840000.0,-24840000.0
16,300191,-16900421.490000002,-16778804.48,2017-12-31,年度报告,-17184567.45,2017,12,7.127084771422533,False,-1.9574274570753227,True,0.0,True,盈利变化,4759560.413333335,,4759560.413333335
17,300191,4420350.11,4158382.4700000007,2018-03-31,一季度报告,4075138.69,2018,3,-10.933795255818012,False,-25.814193893601697,True,0.9791316312341182,False,盈利变化,1245297.759999998,未知,1245297.759999998
18,300191,9898118.750000002,8927719.91,2018-06-30,半年度报告,8749652.73,2018,6,-6.52963725722297,False,91.64192815093848,False,0.650479790543839,False,盈利变化,-104053.99999999814,未知,-104053.99999999814
19,300191,13048247.87,10673951.1,2018-09-30,三季度报告,10433606.13,2018,9,-5.460035267892304,False,-4.5311874756315085,True,1.2996322908707032,False,盈利变化,-2230913.3155555576,未知,-2230913.3155555576
20,300191,70026974.91000001,28998453.63,2018-12-31,年度报告,3439530.9800000014,2018,12,-6.455981508778336,False,-0.08207871412089848,True,0.0,True,盈利变化,-9904105.003333334,,-9904105.003333334
21,300191,4296695.649999999,4220466.819999998,2019-03-31,一季度报告,4073653.2,2019,3,19.859973722760166,False,-2.9911231902957063,True,0.6285422426981987,False,前期平均,-700991.790000001,未知,-700991.790000001
22,300191,6196678.3999999985,5921604.14,2019-06-30,半年度报告,6026809.420000001,2019,6,8.315748726494112,False,-2.871574687035951,True,0.9705970655196714,False,前期平均,5159001.340000002,未知,5159001.340000002
23,300191,9055559.82,8488111.090000002,2019-09-30,三季度报告,7190089.5,2019,9,6.066725590950934,False,-3.5067801938594534,True,1.0726952477675245,False,前期平均,8707365.330000002,19900000.0,19900000.0
24,300191,26996844.31,26178396.51,2019-12-31,年度报告,23946414.69,2019,12,0.31675525407898847,True,-26.214010970073637,True,0.0,True,比例外推,26178396.51,19900000.0,19900000.0
25,300191,12088968.289999995,10398844.990000002,2020-03-31,一季度报告,10395856.58,2020,3,20.4603022068831,False,-2.7674813251260275,True,0.5499911097852171,False,前期平均,6210226.405000004,未知,6210226.405000004
