,SECURITYCODE_x,NETPROFIT_x,PARENTNETPROFIT_x,REPORTDATE_x,REPORTTIMETYPE_x,KCFJCXSYJLR,Year,Month,managesituationChangeRate,managesituationGreatChange,historyprofitextroplaterate,ifhistoryprofitextroplate,IfprofitdisStableChangeRage,IfprofitdisStable,predicttype,predict,analyst_prediction,adj_prediction
0,300134,59832681.54,55313955.54,2013-12-31,年度报告,32400180.24,2013,12,未知,未知,未知,未知,未知,未知,未知,未知,未知,未知
1,300134,287847023.67000014,286610279.98,2014-03-31,一季度报告,69603119.33999999,2014,3,未知,未知,未知,未知,未知,未知,未知,未知,未知,未知
2,300134,376075631.67,374591651.7,2014-06-30,半年度报告,163723662.35000002,2014,6,未知,未知,未知,未知,未知,未知,未知,未知,未知,未知
3,300134,483630774.7299999,482083166.41,2014-09-30,三季度报告,236954792.64,2014,9,未知,未知,未知,未知,未知,未知,未知,未知,未知,未知
4,300134,535381122.82,535502587.5899999,2014-12-31,年度报告,270188437.95,2014,12,0.0,True,未知,未知,未知,未知,未知,未知,未知,未知
5,300134,62587197.47000001,63703161.20999999,2015-03-31,一季度报告,60818080.66000001,2015,3,-0.7921372235253866,True,未知,未知,未知,未知,未知,未知,498000000.0,未知
6,300134,50726595.03,51616230.49,2015-06-30,半年度报告,38312709.41,2015,6,-0.8409025299663601,True,未知,未知,未知,未知,未知,未知,,未知
7,300134,67395962.13,67993141.12,2015-09-30,三季度报告,35666810.74,2015,9,-0.8762843791869878,True,未知,未知,未知,未知,未知,未知,未知,未知
8,300134,97833933.53,96035192.68,2015-12-31,年度报告,27565115.54,2015,12,-0.8882428255504325,True,未知,未知,未知,未知,未知,未知,,未知
9,300134,22243651.51,23894221.73,2016-03-31,一季度报告,21416117.89,2016,3,-0.04401085271984481,True,未知,未知,未知,未知,未知,未知,未知,未知
10,300134,48929202.2,48178849.0,2016-06-30,半年度报告,40627805.78,2016,6,0.17951306419472085,True,未知,未知,未知,未知,未知,未知,344000000.0,未知
11,300134,49655502.13,47822670.11,2016-09-30,三季度报告,36141118.3,2016,9,-0.11222156863657785,True,未知,未知,未知,未知,未知,未知,310000000.0,未知
12,300134,128732239.11,124666938.25999996,2016-12-31,年度报告,-5549639.56,2016,12,-0.3884260871341457,True,0.6712645680817321,True,0.0,True,比例外推,124666938.25999996,211000000.0,211000000.0
13,300134,-25844000.23,-22104154.13,2017-03-31,一季度报告,-32825229.309999995,2017,3,1.6898767728446578,False,0.8730509170158154,True,3.3939910166018796,False,盈利变化,52345141.993333295,190870000.0,190870000.0
14,300134,-91721468.32,-88486344.53999998,2017-06-30,半年度报告,-102858830.47999996,2017,6,0.22284196041929324,True,0.7707172121461663,True,5.545820340095003,False,平均增速,-28885390.81753324,,-28885390.81753324
15,300134,-372764130.22,-366455402.38,2017-09-30,三季度报告,-377999517.73999983,2017,9,0.20495572441007145,True,0.8197709881993764,True,5.065193908253772,False,平均增速,-147398795.82854268,-446000000.0,-446000000.0
16,300134,-524068585.48,-511757840.63000005,2017-12-31,年度报告,-521713396.03,2017,12,-0.5352160270522929,True,0.593401206054566,True,0.0,True,比例外推,-511757840.63000005,350000000.0,350000000.0
17,300134,32456426.9,31742458.36,2018-03-31,一季度报告,-17280760.959999993,2018,3,-3.3151478489210646,False,1.6093066506052076,True,3.3290938785243545,False,前期平均,1633097.0749999955,未知,1633097.0749999955
18,300134,-20888149.79,-18910455.54,2018-06-30,半年度报告,-78824238.33999999,2018,6,-1.6523301756493294,False,2.840765331660776,False,5.409551937761346,False,去年同期,-437765021.09000003,未知,-437765021.09000003
19,300134,-72300893.29,-69586566.79,2018-09-30,三季度报告,-158004537.45000002,2018,9,-1.1605108343034176,False,7.369234807554386,False,5.014372755881463,False,去年同期,-213300445.08000016,未知,-213300445.08000016
20,300134,-2292986.02,24706622.6,2018-12-31,年度报告,-312256030.1,2018,12,-1.1141695632933208,False,5.6261856249186275,False,0.0,True,前期平均,24706622.6,,24706622.6
21,300134,23091844.35,22297601.78,2019-03-31,一季度报告,-7089580.870000001,2019,3,0.8434771555213924,False,-19.02960181034909,True,2.6120936557904315,False,前期平均,-235629360.30499998,213666667.00000003,213666667.00000003
22,300134,42672500.31,41250036.24,2019-06-30,半年度报告,-22567536.85,2019,6,-3.864431849710515,False,-0.023741826084904518,True,5.030397357826198,False,盈利变化,62211090.25999999,221000000.0,221000000.0
23,300134,52398298.95000001,48131257.19,2019-09-30,三季度报告,-29565405.72,2019,9,-1.827551069113492,False,-0.5524669599979793,True,4.751738888933538,False,盈利变化,81790681.14666668,90000000.0,81790681.14666668
24,300134,-355230003.38,-354517352.04999995,2019-12-31,年度报告,-446322467.6300001,2019,12,-27.093783833884867,False,-0.9883998218678635,True,0.0,True,盈利变化,-19982189.910000026,,-19982189.910000026
25,300134,890850.3800000001,-7055946.749999999,2020-03-31,一季度报告,-24750086.8,2020,3,1.591074174636033,False,5.984378202563873,False,0.0288302979480836,True,前期平均盈利变化,-416648170.6100001,未知,-416648170.6100001
