,SECURITYCODE_x,NETPROFIT_x,PARENTNETPROFIT_x,REPORTDATE_x,REPORTTIMETYPE_x,KCFJCXSYJLR,Year,Month,managesituationChangeRate,managesituationGreatChange,historyprofitextroplaterate,ifhistoryprofitextroplate,IfprofitdisStableChangeRage,IfprofitdisStable,predicttype,predict,analyst_prediction,adj_prediction
0,300112,39549842.03,33637712.41,2013-12-31,年度报告,32928110.05,2013,12,未知,未知,未知,未知,未知,未知,未知,未知,未知,未知
1,300112,3453430.41,3525658.44,2014-03-31,一季度报告,3488396.1900000004,2014,3,未知,未知,未知,未知,未知,未知,未知,未知,未知,未知
2,300112,17459765.150000002,16462167.85,2014-06-30,半年度报告,16449792.3,2014,6,未知,未知,未知,未知,未知,未知,未知,未知,未知,未知
3,300112,26413200.57,23817318.03,2014-09-30,三季度报告,23363129.65,2014,9,未知,未知,未知,未知,未知,未知,未知,未知,未知,未知
4,300112,27128357.11,22852577.020000003,2014-12-31,年度报告,21922944.75,2014,12,0.0,True,未知,未知,未知,未知,未知,未知,未知,未知
5,300112,4364672.5600000005,3292265.93,2015-03-31,一季度报告,3053000.9199999995,2015,3,10.452335021860192,False,未知,未知,未知,未知,未知,未知,50000000.0,未知
6,300112,13956239.6,11040880.26,2015-06-30,半年度报告,10889496.68,2015,6,1.2651989697581927,False,未知,未知,未知,未知,未知,未知,57000000.0,未知
7,300112,20592107.550000004,16542477.199999996,2015-09-30,三季度报告,14713943.7,2015,9,0.497351368880322,True,未知,未知,未知,未知,未知,未知,,未知
8,300112,15598078.56,12718476.3,2015-12-31,年度报告,12072706.5,2015,12,0.45787825888731093,True,未知,未知,未知,未知,未知,未知,未知,未知
9,300112,938687.03,957026.88,2016-03-31,一季度报告,692985.3500000001,2016,3,8.061353741046727,False,未知,未知,未知,未知,未知,未知,未知,未知
10,300112,9914885.94,9559968.68,2016-06-30,半年度报告,7885847.07,2016,6,1.8338465921722926,False,未知,未知,未知,未知,未知,未知,未知,未知
11,300112,20620088.129999995,19771559.59,2016-09-30,三季度报告,18029817.53,2016,9,0.9206310929548341,False,未知,未知,未知,未知,未知,未知,未知,未知
12,300112,27824095.74,26705173.980000004,2016-12-31,年度报告,22306548.58,2016,12,1.5355585867750623,False,0.5321385771907335,True,0.0,True,前期平均,26705173.980000004,未知,26705173.980000004
13,300112,3585507.39,3303859.89,2017-03-31,一季度报告,2721059.390000001,2017,3,41.133150630620726,False,0.7598683379837858,True,0.11662414212975275,False,前期平均,17030986.959999997,未知,17030986.959999997
14,300112,11499642.430000005,10923710.14,2017-06-30,半年度报告,9693847.48,2017,6,2.9889356538578604,False,0.3688003284376891,True,0.3150985638779483,False,前期平均,14251891.275,未知,14251891.275
15,300112,45855015.09,44022824.97,2017-09-30,三季度报告,42181451.52,2017,9,0.9180248784901779,False,0.12264852823179438,True,0.22264043805100742,False,前期平均,41982113.92,未知,41982113.92
16,300112,46848509.82,44364950.74999999,2017-12-31,年度报告,40706616.88999999,2017,12,0.4214241641335009,True,0.30242999696492107,True,0.0,True,比例外推,44364950.74999999,未知,44364950.74999999
17,300112,3814694.899999999,4532338.3900000015,2018-03-31,一季度报告,3747252.74,2018,3,10.030472880994397,False,0.352164539911954,True,0.1359523377110255,False,前期平均,19848972.795,未知,19848972.795
18,300112,14851225.12,15100127.4,2018-06-30,半年度报告,14058698.140000002,2018,6,2.4392236341908573,False,0.03652281408093121,True,0.4041083394649189,False,前期平均,22902083.064999998,未知,22902083.064999998
19,300112,46304263.28,45981277.88,2018-09-30,三季度报告,43802327.30999999,2018,9,-0.13750236582901104,True,1.2253128877699244,True,0.21281970210734147,False,平均增速,43861420.77080054,未知,43861420.77080054
20,300112,57406684.40000001,56229239.16,2018-12-31,年度报告,53927544.57999999,2018,12,-0.1557929551664019,True,1.157815013883356,True,0.0,True,比例外推,56229239.16,未知,56229239.16
21,300112,10956777.92,10764544.22,2019-03-31,一季度报告,9232689.81,2019,3,9.367760218517086,False,0.6863532137949099,True,0.024733175412336723,True,前期平均,40564104.58499999,未知,40564104.58499999
22,300112,23836665.070000004,23122147.27,2019-06-30,半年度报告,21446355.83,2019,6,1.6630693232667129,False,0.3870233201871815,True,0.06940260640552215,True,前期平均,45838882.73,未知,45838882.73
23,300112,51819783.58,50988582.63,2019-09-30,三季度报告,48806482.42,2019,9,-0.1458703966232286,True,0.3931309930202167,True,0.15064765784468037,False,平均增速,64602308.713740975,未知,64602308.713740975
24,300112,66011758.81,64150972.42,2019-12-31,年度报告,59027416.93,2019,12,-0.3110585911141736,True,0.5375567510865362,True,0.0,True,比例外推,64150972.42,未知,64150972.42
25,300112,-5012057.889999999,-4529361.61,2020-03-31,一季度报告,-6908841.15,2020,3,2.6096234056006127,False,1.961210380642176,True,0.058831578083183136,True,盈利变化,42628931.14,未知,42628931.14
