,SECURITYCODE_x,NETPROFIT_x,PARENTNETPROFIT_x,REPORTDATE_x,REPORTTIMETYPE_x,KCFJCXSYJLR,Year,Month,managesituationChangeRate,managesituationGreatChange,historyprofitextroplaterate,ifhistoryprofitextroplate,IfprofitdisStableChangeRage,IfprofitdisStable,predicttype,predict,analyst_prediction,adj_prediction
0,300192,38424108.63,38424108.63,2013-12-31,年度报告,33776587.24000001,2013,12,未知,未知,未知,未知,未知,未知,未知,未知,未知,未知
1,300192,7025820.03,7025820.03,2014-03-31,一季度报告,6579857.4300000025,2014,3,未知,未知,未知,未知,未知,未知,未知,未知,未知,未知
2,300192,18688098.4,18688098.4,2014-06-30,半年度报告,15279925.92,2014,6,未知,未知,未知,未知,未知,未知,未知,未知,未知,未知
3,300192,27153876.61,27153876.61,2014-09-30,三季度报告,23210045.28,2014,9,未知,未知,未知,未知,未知,未知,未知,未知,未知,未知
4,300192,39524698.59,39524698.59,2014-12-31,年度报告,33158247.48,2014,12,0.0,True,未知,未知,未知,未知,未知,未知,未知,未知
5,300192,6678092.259999999,6678092.259999999,2015-03-31,一季度报告,6576768.76,2015,3,4.468985608218035,False,未知,未知,未知,未知,未知,未知,未知,未知
6,300192,13596017.099999998,13596017.099999998,2015-06-30,半年度报告,12251102.45,2015,6,1.0560737538710736,False,未知,未知,未知,未知,未知,未知,未知,未知
7,300192,22240428.47,22240428.47,2015-09-30,三季度报告,20207485.61,2015,9,0.4150505720369039,True,未知,未知,未知,未知,未知,未知,36500000.0,未知
8,300192,34722104.86,34722104.86,2015-12-31,年度报告,30894383.55,2015,12,-0.02784562562808403,True,未知,未知,未知,未知,未知,未知,36333333.0,未知
9,300192,8936046.46,8936046.46,2016-03-31,一季度报告,7735526.39,2016,3,4.753755284297316,False,未知,未知,未知,未知,未知,未知,,未知
10,300192,18270382.31,18270382.31,2016-06-30,半年度报告,16780145.24,2016,6,1.826129766341645,False,未知,未知,未知,未知,未知,未知,未知,未知
11,300192,28797166.28,28797166.28,2016-09-30,三季度报告,26181065.79000001,2016,9,0.7276694413432766,False,未知,未知,未知,未知,未知,未知,39900000.0,未知
12,300192,36009242.39,35999979.24,2016-12-31,年度报告,33043333.1,2016,12,0.10661806894848493,True,0.1091049087639907,True,0.0,True,比例外推,35999979.24,39900000.0,35999979.24
13,300192,8674449.02,8664016.949999997,2017-03-31,一季度报告,6228259.3599999985,2017,3,3.299900274914193,False,0.304159902792256,True,0.01896260997862506,True,前期平均,34112019.37,47160000.0,47160000.0
14,300192,9610478.01,9549900.499999998,2017-06-30,半年度报告,6982549.46,2017,6,1.1030818062832317,False,0.1318496435189622,True,0.05851496881816881,True,前期平均,27810701.83,87080000.0,87080000.0
15,300192,15278404.779999996,15175727.13,2017-09-30,三季度报告,12103573.71,2017,9,0.33430172456537977,True,0.16601159722196873,True,0.07686318267560965,True,比例外推,19989296.84913709,41017500.0,41017500.0
16,300192,5876955.0299999975,5764844.77,2017-12-31,年度报告,2462798.5,2017,12,0.06706240064274793,True,0.030012317924240573,True,0.0,True,比例外推,5764844.77,29590000.0,29590000.0
17,300192,22418324.950000007,11607364.950000005,2018-03-31,一季度报告,8508455.34,2018,3,3.4295733990030417,False,0.11110182579446178,True,1.5369633538848424,False,前期平均,36420075.70000001,73013333.0,73013333.0
18,300192,48647144.14,22643073.94,2018-06-30,半年度报告,21305602.61,2018,6,2.9981475000534346,False,0.3968268654171117,True,1.5886828338065127,False,前期平均,40096308.42,115493750.0,115493750.0
19,300192,72784311.75,36265964.9,2018-09-30,三季度报告,34262786.53,2018,9,1.5149293518063223,False,0.4012882129403249,True,2.7942380574054684,False,前期平均,45040547.52499999,114407000.0,114407000.0
20,300192,89417489.78000002,28001577.44,2018-12-31,年度报告,26306284.719999995,2018,12,5.538098119495057,False,0.8338231842459357,True,0.0,True,前期平均,28001577.44,114407000.0,114407000.0
21,300192,34533346.68,16754488.830000002,2019-03-31,一季度报告,16707614.910000006,2019,3,0.7139598393590058,False,1.546018648420221,True,1.5001103484841594,False,前期平均,27525661.755000003,93533333.0,93533333.0
22,300192,74197779.78999999,35628509.74,2019-06-30,半年度报告,35572313.37,2019,6,-0.2101466733705778,True,2.4896444070704344,False,1.4508969883050091,False,未知,未知,110583333.0,未知
23,300192,134768206.58,67636064.28999999,2019-09-30,三季度报告,66916491.96999999,2019,9,-0.4720825449036412,True,2.302705330847278,False,2.5781135617208117,False,未知,未知,126013333.0,未知
24,300192,164821167.99000004,80521303.00999998,2019-12-31,年度报告,77245957.65,2019,12,-0.5702841946856541,True,3.2695443982845087,False,0.0,True,比例外推,80521303.00999998,122614286.0,122614286.0
25,300192,39633304.87000001,21684827.86,2020-03-31,一季度报告,21329620.35,2020,3,0.11266680828977804,True,1.221310116190961,True,1.5060474692115544,False,平均增速,266428463.34966934,178006347.0,178006347.0
