,SECURITYCODE_x,NETPROFIT_x,PARENTNETPROFIT_x,REPORTDATE_x,REPORTTIMETYPE_x,KCFJCXSYJLR,Year,Month,managesituationChangeRate,managesituationGreatChange,historyprofitextroplaterate,ifhistoryprofitextroplate,IfprofitdisStableChangeRage,IfprofitdisStable,predicttype,predict,analyst_prediction,adj_prediction
0,300196,107503943.92,105023456.70999998,2013-12-31,年度报告,102089738.27,2013,12,未知,未知,未知,未知,未知,未知,未知,未知,未知,未知
1,300196,27262351.71,26764055.93,2014-03-31,一季度报告,25309970.79,2014,3,未知,未知,未知,未知,未知,未知,未知,未知,未知,未知
2,300196,64057959.68,63292970.55999999,2014-06-30,半年度报告,58405698.92,2014,6,未知,未知,未知,未知,未知,未知,未知,未知,未知,未知
3,300196,107903594.86000006,106719365.82,2014-09-30,三季度报告,100368037.9,2014,9,未知,未知,未知,未知,未知,未知,未知,未知,未知,未知
4,300196,148752519.02,146880133.29,2014-12-31,年度报告,134511478.82,2014,12,0.0,True,未知,未知,未知,未知,未知,未知,未知,未知
5,300196,38200733.83000001,37813352.25,2015-03-31,一季度报告,35170114.05,2015,3,2.9433114598315044,False,未知,未知,未知,未知,未知,未知,219188889.00000003,未知
6,300196,96457724.07,92627821.39000002,2015-06-30,半年度报告,80965468.28000002,2015,6,0.6782292857442443,False,未知,未知,未知,未知,未知,未知,211672857.0,未知
7,300196,166548212.12,158275526.17999998,2015-09-30,三季度报告,136917468.92,2015,9,-0.0037037778075752334,True,未知,未知,未知,未知,未知,未知,212665556.0,未知
8,300196,224703184.66,213544204.87,2015-12-31,年度报告,191778246.63,2015,12,-0.27729664930550907,True,未知,未知,未知,未知,未知,未知,212693332.99999997,未知
9,300196,51896082.07000002,48490551.62,2016-03-31,一季度报告,47384203.43,2016,3,1.8141853085443715,False,未知,未知,未知,未知,未知,未知,275502727.0,未知
10,300196,134453076.39999998,125479265.41,2016-06-30,半年度报告,121979074.78000002,2016,6,0.11451876930025527,True,未知,未知,未知,未知,未知,未知,279852500.0,未知
11,300196,206817992.01000008,194182468.25000003,2016-09-30,三季度报告,188077061.8,2016,9,-0.3545175745114447,True,未知,未知,未知,未知,未知,未知,278397143.0,未知
12,300196,270900812.44,257627306.12000003,2016-12-31,年度报告,246445448.13,2016,12,-0.5215735634425254,True,0.7537367220479594,True,0.0,True,比例外推,257627306.12000003,275501429.0,257627306.12000003
13,300196,61038851.02,60026844.89999999,2017-03-31,一季度报告,56911736.67,2017,3,1.0715233141298282,False,0.5855067521462879,True,0.0045512491836807445,True,前期平均,192931665.20499998,319846667.0,319846667.0
14,300196,106874425.5,104925300.75,2017-06-30,半年度报告,89414271.38,2017,6,-0.20043522395743396,True,0.6752640397359299,True,0.04450616476913272,True,比例外推,214012017.26785636,251000000.0,251000000.0
15,300196,163968584.80000004,164412078.5,2017-09-30,三季度报告,143419314.70000002,2017,9,-0.48020023366824893,True,0.50713521827948,True,0.0271511019175803,True,比例外推,214518246.8572094,235980000.0,214518246.8572094
16,300196,201523198.16,201940488.27,2017-12-31,年度报告,170688695.78,2017,12,-0.6031612347275247,True,0.45077881939178843,True,0.0,True,比例外推,201940488.27,230485000.0,230485000.0
17,300196,40075232.74999999,40192042.47000001,2018-03-31,一季度报告,36283565.3,2018,3,0.7612380004462279,False,0.3549613359865691,True,0.09706276572588426,True,前期平均,218026731.11,278000000.0,278000000.0
18,300196,107245442.07000002,107960079.58,2018-06-30,半年度报告,95856179.59,2018,6,0.005890262493153723,True,0.07432285295910035,True,0.05814409182864222,True,比例外推,211668385.01432246,273053333.0,273053333.0
19,300196,193995826.01999995,194609509.01,2018-09-30,三季度报告,177749471.28,2018,9,-0.34436255547898115,True,0.12167420089843582,True,0.06779426465355753,True,比例外推,246972875.64913204,266550000.0,246972875.64913204
20,300196,262288427.82,263080308.14,2018-12-31,年度报告,236914375.32,2018,12,-0.4665430833692561,True,0.18675717169674946,True,0.0,True,比例外推,263080308.14,273825000.0,263080308.14
21,300196,54712222.64000001,55037121.83000001,2019-03-31,一季度报告,50877259.55,2019,3,1.6825532016404827,False,0.29029518761810813,True,0.10714241324244808,False,前期平均,211456223.735,326458333.0,326458333.0
22,300196,145650494.26000002,145633254.62,2019-06-30,半年度报告,138002277.85,2019,6,0.0024103760962750544,True,0.11120414187654562,True,0.06986417365232483,True,比例外推,298488580.4629998,321190000.0,298488580.4629998
23,300196,235222130.5,234654304.06,2019-09-30,三季度报告,222372530.68000004,2019,9,-0.4458440363097456,True,0.046401559026275296,True,0.055683450904341125,True,比例外推,295719325.9592587,308292500.0,295719325.9592587
24,300196,290180544.66,289454124.15000004,2019-12-31,年度报告,271330239.04999995,2019,12,-0.5901308158597967,True,0.11039414566114765,True,0.0,True,比例外推,289454124.15000004,308292500.0,289454124.15000004
25,300196,56218233.51999999,56065684.55,2020-03-31,一季度报告,52032649.94,2020,3,0.9648981293880768,False,0.08218797224037805,True,0.10872911005415595,False,前期平均,213269569.11499995,327774000.0,327774000.0
