,SECURITYCODE_x,NETPROFIT_x,PARENTNETPROFIT_x,REPORTDATE_x,REPORTTIMETYPE_x,KCFJCXSYJLR,Year,Month,managesituationChangeRate,managesituationGreatChange,historyprofitextroplaterate,ifhistoryprofitextroplate,IfprofitdisStableChangeRage,IfprofitdisStable,predicttype,predict,analyst_prediction,adj_prediction
0,300108,27161227.04000001,27161227.04000001,2013-12-31,年度报告,22553996.620000005,2013,12,未知,未知,未知,未知,未知,未知,未知,未知,未知,未知
1,300108,6025053.87,6025053.87,2014-03-31,一季度报告,6545240.259999999,2014,3,未知,未知,未知,未知,未知,未知,未知,未知,未知,未知
2,300108,19158466.44,19158466.44,2014-06-30,半年度报告,15362720.04,2014,6,未知,未知,未知,未知,未知,未知,未知,未知,未知,未知
3,300108,35123256.72,34858133.12,2014-09-30,三季度报告,30716423.9,2014,9,未知,未知,未知,未知,未知,未知,未知,未知,未知,未知
4,300108,57488922.8,56701861.71000002,2014-12-31,年度报告,47394353.28,2014,12,0.0,True,未知,未知,未知,未知,未知,未知,未知,未知
5,300108,35023902.96999999,34361722.62,2015-03-31,一季度报告,34838638.63,2015,3,3.508047168713532,False,未知,未知,未知,未知,未知,未知,138736667.0,未知
6,300108,84457126.26,82873952.78,2015-06-30,半年度报告,76177359.19,2015,6,0.4177140495593868,True,未知,未知,未知,未知,未知,未知,,未知
7,300108,126275006.41999996,123698383.76,2015-09-30,三季度报告,112840630.12999998,2015,9,-0.22668825227320744,True,未知,未知,未知,未知,未知,未知,161000000.0,未知
8,300108,138306500.47,135641226.86,2015-12-31,年度报告,119161278.87,2015,12,-0.5275398160704445,True,未知,未知,未知,未知,未知,未知,147908395.0,未知
9,300108,31518442.870000005,30894061.22000001,2016-03-31,一季度报告,31571966.84000001,2016,3,-0.22449456694574615,True,未知,未知,未知,未知,未知,未知,未知,未知
10,300108,62200909.91,61028721.15000001,2016-06-30,半年度报告,60921269.98,2016,6,-0.6784021876805922,True,未知,未知,未知,未知,未知,未知,未知,未知
11,300108,109011725.19,106843678.76,2016-09-30,三季度报告,105832821.61,2016,9,-0.7849041721711756,True,未知,未知,未知,未知,未知,未知,未知,未知
12,300108,189873952.53,186361271.12,2016-12-31,年度报告,135414844.35,2016,12,-0.803615687276452,True,2.2677201571743844,False,0.0,True,比例外推,186361271.12,,186361271.12
13,300108,33913117.010000005,33199448.47000001,2017-03-31,一季度报告,11666238.62,2017,3,-0.13824337223674507,True,0.5356513439721317,True,0.0831040071305176,True,比例外推,74272532.56417136,未知,74272532.56417136
14,300108,75701859.78,74263103.47000003,2017-06-30,半年度报告,44425518.83000001,2017,6,-0.5633307120538873,True,0.2006090645081065,True,0.1681753683629313,False,平均增速,169412014.57347044,未知,169412014.57347044
15,300108,102532640.67,100601099.5,2017-09-30,三季度报告,66702034.86,2017,9,-0.7508412329714089,True,0.3508413668050583,True,0.15475538566750713,False,平均增速,136921664.92600864,未知,136921664.92600864
16,300108,206683713.95000005,202464046.01000005,2017-12-31,年度报告,99239185.54,2017,12,-0.8569512738420054,True,0.9395136960700626,True,0.0,True,比例外推,202464046.01000005,未知,202464046.01000005
17,300108,35535022.45,35535022.45,2018-03-31,一季度报告,11944901.04,2018,3,-0.19909375973930843,True,0.01929430295540081,True,0.09680061669094232,True,比例外推,79314353.44020411,未知,79314353.44020411
18,300108,75291125.06000002,75291125.06000002,2018-06-30,半年度报告,48779471.20999999,2018,6,-0.6412079291191225,True,0.03235883633747136,True,0.12700389324922168,False,平均增速,130999133.27825649,未知,130999133.27825649
19,300108,103242672.20999998,101606034.49000002,2018-09-30,三季度报告,53635782.31,2018,9,-0.7350967763776018,True,0.12844519562664325,True,0.14674504801274757,False,平均增速,129892800.83382706,未知,129892800.83382706
20,300108,219409819.65,216659914.80000004,2018-12-31,年度报告,45166422.57,2018,12,-0.868585547835807,True,0.25957357947823934,True,0.0,True,比例外推,216659914.80000004,未知,216659914.80000004
21,300108,28585467.21,28883003.58000001,2019-03-31,一季度报告,5343040.55,2019,3,-0.23564908174132845,True,0.08617378265688376,True,0.087500200732245,True,比例外推,49596333.5931964,未知,49596333.5931964
22,300108,22092536.99,21003021.950000007,2019-06-30,半年度报告,-2897819.63,2019,6,-0.6392506152836069,True,0.09194507447894637,True,0.4208136660702856,False,平均增速,20037283.95156043,未知,20037283.95156043
23,300108,11541722.08,12162677.740000002,2019-09-30,三季度报告,-26160117.99,2019,9,-0.7369185971402124,True,0.023914706588537157,True,0.3071165949238689,False,平均增速,11712727.386053521,未知,11712727.386053521
24,300108,-1778021412.9700005,-1771791468.0099995,2019-12-31,年度报告,-1576364673.01,2019,12,-0.8762077874029189,True,0.10657207360315005,True,0.0,True,比例外推,-1771791468.0099995,未知,-1771791468.0099995
25,300108,-41680710.04000001,-40737284.11,2020-03-31,一季度报告,-43288421.13,2020,3,-0.04982392484743966,True,0.17678234630131884,True,0.13825368684669637,False,平均增速,19987553668.088623,未知,19987553668.088623
