,SECURITYCODE_x,NETPROFIT_x,PARENTNETPROFIT_x,REPORTDATE_x,REPORTTIMETYPE_x,KCFJCXSYJLR,Year,Month,managesituationChangeRate,managesituationGreatChange,historyprofitextroplaterate,ifhistoryprofitextroplate,IfprofitdisStableChangeRage,IfprofitdisStable,predicttype,predict,analyst_prediction,adj_prediction
0,300178,91234776.6,90990555.46999998,2013-12-31,年度报告,88653466.01,2013,12,未知,未知,未知,未知,未知,未知,未知,未知,未知,未知
1,300178,24029643.93,24698428.869999994,2014-03-31,一季度报告,24053975.459999993,2014,3,未知,未知,未知,未知,未知,未知,未知,未知,未知,未知
2,300178,58713231.76,58424661.31000002,2014-06-30,半年度报告,53145447.62,2014,6,未知,未知,未知,未知,未知,未知,未知,未知,未知,未知
3,300178,95299128.97999996,94369381.07,2014-09-30,三季度报告,89038094.46,2014,9,未知,未知,未知,未知,未知,未知,未知,未知,未知,未知
4,300178,128166366.83000004,124209834.13,2014-12-31,年度报告,123301088.24999996,2014,12,0.0,True,未知,未知,未知,未知,未知,未知,未知,未知
5,300178,33786394.1,34226778.86000001,2015-03-31,一季度报告,33254456.73,2015,3,2.7967594054149596,False,未知,未知,未知,未知,未知,未知,181208113.0,未知
6,300178,69141664.55,65661886.17999999,2015-06-30,半年度报告,64240294.97,2015,6,0.5539048671845754,False,未知,未知,未知,未知,未知,未知,181410800.00000003,未知
7,300178,113819930.13,106377990.66,2015-09-30,三季度报告,104493139.26000002,2015,9,-0.04264836860002083,True,未知,未知,未知,未知,未知,未知,164968427.0,未知
8,300178,156882309.21,145514439.79000002,2015-12-31,年度报告,143618968.84,2015,12,-0.2881535237632673,True,未知,未知,未知,未知,未知,未知,164951441.0,未知
9,300178,40827386.90000001,41899544.61000001,2016-03-31,一季度报告,41871544.35,2016,3,1.7003407445602485,False,未知,未知,未知,未知,未知,未知,213294000.0,未知
10,300178,81669757.70999998,77977603.59,2016-06-30,半年度报告,78342093.29999998,2016,6,0.3195339914621711,True,未知,未知,未知,未知,未知,未知,200781821.00000003,未知
11,300178,134990111.35,123658428.56,2016-09-30,三季度报告,120130509.16,2016,9,-0.19842881210877794,True,未知,未知,未知,未知,未知,未知,184458965.0,未知
12,300178,195383306.98,178288955.64,2016-12-31,年度报告,172419430.90999997,2016,12,-0.4184508306932513,True,0.43009563904167464,True,0.0,True,比例外推,178288955.64,184355632.0,178288955.64
13,300178,52340800.35,48942325.98,2017-03-31,一季度报告,47093952.44,2017,3,1.2346464843185927,False,0.41232046647040066,True,0.028075650763152604,True,前期平均,153748138.42999998,214781429.0,214781429.0
14,300178,175878396.26,162429565.98999998,2017-06-30,半年度报告,88707706.49,2017,6,0.11711824741741379,True,0.27753821037845205,True,0.01320752154365884,True,比例外推,273410888.06756043,268022222.0,273410888.06756043
15,300178,242489165.13,214042895.59,2017-09-30,三季度报告,147659212.63000005,2017,9,-0.3241373335603223,True,0.29103594789026904,True,0.018740980835870613,True,比例外推,272762915.516235,280541101.0,272762915.516235
16,300178,329707431.11,283731341.1,2017-12-31,年度报告,207965240.48,2017,12,-0.5330472290074451,True,0.37087678984751643,True,0.0,True,比例外推,283731341.1,271420000.0,283731341.1
17,300178,70839141.48,60176469.18999999,2018-03-31,一季度报告,55457064.29,2018,3,0.7430909728150534,False,0.40297944021895876,True,0.009232182062667044,True,前期平均,180632668.52499998,345138667.0,345138667.0
18,300178,278499913.52000004,226964773.38000005,2018-06-30,半年度报告,138152161.14000002,2018,6,-0.4812621757982819,True,1.3324280565007118,True,0.016188243953897175,True,比例外推,400852430.8525975,375124375.0,400852430.8525975
19,300178,364398737.35000014,293912192.27999985,2018-09-30,三季度报告,208286465.16,2018,9,-0.623757306636408,True,0.9491911474922681,True,0.016130366537206897,True,比例外推,378392494.8781464,380851667.0,378392494.8781464
20,300178,172238187.05,167749326.79,2018-12-31,年度报告,31028788.06,2018,12,-0.7232856526986757,True,0.8719251380592713,True,0.0,True,比例外推,167749326.79,382444286.0,382444286.0
21,300178,24936269.63000001,20709697.25,2019-03-31,一季度报告,15540201.279999996,2019,3,0.287914769912313,True,0.5206723146800303,True,1.0350858408871226,False,平均增速,9009764.74296285,245135000.0,245135000.0
22,300178,-7967945.6499999985,-33940796.43,2019-06-30,半年度报告,-36073734.49,2019,6,-0.672406445492673,True,1.1627016868654443,True,2.674617779482861,False,平均增速,-56252689.02437633,,-56252689.02437633
23,300178,-146546422.58000004,-134466018.09,2019-09-30,三季度报告,-134736271.78,2019,9,-0.7496292735164715,True,0.9306953258362891,True,4.006205382468005,False,平均增速,-137195852.38897404,未知,-137195852.38897404
24,300178,-1769564939.07,-1575982091.0399995,2019-12-31,年度报告,-1437833256.4700005,2019,12,-0.47029878703080563,True,0.34396791047387104,True,0.0,True,比例外推,-1575982091.0399995,427333333.0,427333333.0
25,300178,-73820842.77,-69810310.87,2020-03-31,一季度报告,-72499776.10999998,2020,3,2.6587179218754686,False,0.5951245103782493,True,1.119637536043907,False,盈利变化,-1693368727.5599995,未知,-1693368727.5599995
