,SECURITYCODE_x,NETPROFIT_x,PARENTNETPROFIT_x,REPORTDATE_x,REPORTTIMETYPE_x,KCFJCXSYJLR,Year,Month,managesituationChangeRate,managesituationGreatChange,historyprofitextroplaterate,ifhistoryprofitextroplate,IfprofitdisStableChangeRage,IfprofitdisStable,predicttype,predict,analyst_prediction,adj_prediction
0,300183,236167258.28,236167258.28,2013-12-31,年度报告,234319864.63000005,2013,12,未知,未知,未知,未知,未知,未知,未知,未知,未知,未知
1,300183,41582505.52,41582505.52,2014-03-31,一季度报告,40676205.52,2014,3,未知,未知,未知,未知,未知,未知,未知,未知,未知,未知
2,300183,99427859.25,99839581.55,2014-06-30,半年度报告,97471359.83000004,2014,6,未知,未知,未知,未知,未知,未知,未知,未知,未知,未知
3,300183,183531727.48,184122122.4,2014-09-30,三季度报告,178436404.78000003,2014,9,未知,未知,未知,未知,未知,未知,未知,未知,未知,未知
4,300183,245861280.16000003,245277369.62,2014-12-31,年度报告,239510907.80000004,2014,12,0.0,True,未知,未知,未知,未知,未知,未知,未知,未知
5,300183,61901137.49,62516604.05,2015-03-31,一季度报告,62153041.99,2015,3,4.679486008037929,False,未知,未知,未知,未知,未知,未知,389748000.0,未知
6,300183,112520974.39,115143495.73000002,2015-06-30,半年度报告,113662760.22,2015,6,1.375262427064676,False,未知,未知,未知,未知,未知,未知,355986593.99999994,未知
7,300183,196145097.09,199932020.89000005,2015-09-30,三季度报告,197427343.82,2015,9,0.2867925427538727,True,未知,未知,未知,未知,未知,未知,309455000.0,未知
8,300183,273144133.1399999,275992146.87,2015-12-31,年度报告,267588360.94,2015,12,-0.03942882699419531,True,未知,未知,未知,未知,未知,未知,308286000.0,未知
9,300183,57373988.66,58201862.38,2016-03-31,一季度报告,57962099.28,2016,3,2.815232931998258,False,未知,未知,未知,未知,未知,未知,336766667.0,未知
10,300183,135323107.42000002,136999074.3,2016-06-30,半年度报告,131818391.18000002,2016,6,1.0988732061761166,False,未知,未知,未知,未知,未知,未知,340670000.0,未知
11,300183,234575109.2,237429452.96000004,2016-09-30,三季度报告,231677578.37,2016,9,0.2040436482163817,True,未知,未知,未知,未知,未知,未知,353400000.0,未知
12,300183,351215192.36999995,356472806.29999995,2016-12-31,年度报告,341424095.31,2016,12,-0.13537495546736653,True,0.13331104429618423,True,0.0,True,比例外推,356472806.29999995,342212500.0,356472806.29999995
13,300183,47434862.95,47657544.56,2017-03-31,一季度报告,44417725.25,2017,3,3.116277494310782,False,0.10885135063240355,True,0.04164873748252715,True,前期平均,249792555.175,435132857.0,435132857.0
14,300183,130154859.85,131711584.19,2017-06-30,半年度报告,123163703.67000002,2017,6,0.7452101328637962,False,0.2769412796094878,True,0.019853048478775837,True,前期平均,279694158.53499997,384666667.0,384666667.0
15,300183,183989318.62,185657396.07,2017-09-30,三季度报告,176367493.17000002,2017,9,0.006787374352845503,True,0.2356567165544865,True,0.04189357934277804,True,比例外推,254089696.94389457,359400000.0,359400000.0
16,300183,236078136.08,238054333.43000007,2017-12-31,年度报告,219170082.27,2017,12,-0.3275710635227837,True,0.35341629728623863,True,0.0,True,比例外推,238054333.43000007,365000000.0,365000000.0
17,300183,25230082.15,25230082.15,2018-03-31,一季度报告,25159848.5,2018,3,3.9787696979105527,False,0.20461433190443956,True,0.031800990797978074,True,前期平均,269678739.64,320122500.0,320122500.0
18,300183,69241801.96,69241801.96,2018-06-30,半年度报告,69250050.36999999,2018,6,0.8145097198228055,False,0.05029629030866382,True,0.10435286052146797,False,前期平均,251007454.385,282895000.0,282895000.0
19,300183,99367547.66,99367547.66,2018-09-30,三季度报告,99370076.81999996,2018,9,0.2835922218276434,True,0.14566664886800465,True,0.06434907070339824,True,比例外推,134216608.87900358,182000000.0,182000000.0
20,300183,178552028.75,178552028.75,2018-12-31,年度报告,159792529.44,2018,12,0.00037751145226674936,True,0.24377477380621285,True,0.0,True,比例外推,178552028.75,355000000.0,355000000.0
21,300183,28302091.39,28302091.39,2019-03-31,一季度报告,26757939.39,2019,3,8.360542580714506,False,0.5185505467823912,True,0.02603587318745279,True,前期平均,257409267.91500002,277899579.0,257409267.91500002
22,300183,58639093.96000001,58639093.96000001,2019-06-30,半年度报告,47190615.36999998,2019,6,2.410761297293078,False,0.4783612163974515,True,0.10148367292955157,False,前期平均,211445135.325,169200000.0,169200000.0
23,300183,94028075.95,94028075.95,2019-09-30,三季度报告,69680234.47000001,2019,9,1.376704103517573,False,0.5251983156928369,True,0.10299343095885838,False,前期平均,170302628.96999997,183100000.0,170302628.96999997
24,300183,197763941.28,197763941.28,2019-12-31,年度报告,150192786.57999998,2019,12,0.32268034103757,True,0.3919494055168676,True,0.0,True,比例外推,197763941.28,,197763941.28
25,300183,24738664.69,24738664.69,2020-03-31,一季度报告,22618902.66,2020,3,7.344516135773809,False,0.22102490131792576,True,0.023238676280231685,True,前期平均,179431183.67000002,210333332.99999997,210333332.99999997
