,SECURITYCODE_x,NETPROFIT_x,PARENTNETPROFIT_x,REPORTDATE_x,REPORTTIMETYPE_x,KCFJCXSYJLR,Year,Month,managesituationChangeRate,managesituationGreatChange,historyprofitextroplaterate,ifhistoryprofitextroplate,IfprofitdisStableChangeRage,IfprofitdisStable,predicttype,predict,analyst_prediction,adj_prediction
0,300116,5481755.08,4827929.459999999,2013-12-31,年度报告,3086967.7500000005,2013,12,未知,未知,未知,未知,未知,未知,未知,未知,未知,未知
1,300116,-1256517.26,-1681157.48,2014-03-31,一季度报告,-2050743.5,2014,3,未知,未知,未知,未知,未知,未知,未知,未知,未知,未知
2,300116,-1357198.06,-2033377.9,2014-06-30,半年度报告,-2876414.61,2014,6,未知,未知,未知,未知,未知,未知,未知,未知,未知,未知
3,300116,-2781525.72,-3903738.96,2014-09-30,三季度报告,-4995941.03,2014,9,未知,未知,未知,未知,未知,未知,未知,未知,未知,未知
4,300116,9877411.53,8552357.14,2014-12-31,年度报告,-2099334.45,2014,12,0.0,True,未知,未知,未知,未知,未知,未知,未知,未知
5,300116,6135648.46,6022389.97,2015-03-31,一季度报告,-3362544.01,2015,3,-5.362658002803718,False,未知,未知,未知,未知,未知,未知,未知,未知
6,300116,10738975.05,9088474.32,2015-06-30,半年度报告,-1851795.42,2015,6,-5.039023663208007,False,未知,未知,未知,未知,未知,未知,未知,未知
7,300116,17233126.49,16352248.77,2015-09-30,三季度报告,4860037.759999999,2015,9,-2.9707727455419684,False,未知,未知,未知,未知,未知,未知,未知,未知
8,300116,37038038.71,35367000.61,2015-12-31,年度报告,24472543.44,2015,12,-0.4450210904597188,True,未知,未知,未知,未知,未知,未知,未知,未知
9,300116,-389083.69,-150923.88,2016-03-31,一季度报告,-9019637.55,2016,3,-0.10657282343714977,True,未知,未知,未知,未知,未知,未知,244000000.0,未知
10,300116,-1118464.48,-1278698.2599999998,2016-06-30,半年度报告,-13141668.65,2016,6,-0.4895457849117547,True,未知,未知,未知,未知,未知,未知,130882099.99999999,未知
11,300116,83562707.21999998,84337349.87000002,2016-09-30,三季度报告,69995044.23,2016,9,-0.6819059453210106,True,未知,未知,未知,未知,未知,未知,250950000.0,未知
12,300116,429377636.53999984,425457155.29,2016-12-31,年度报告,381687777.02,2016,12,-0.8519966156166913,True,3.8229229684747854,False,0.0,True,比例外推,425457155.29,389283333.0,425457155.29
13,300116,254203422.0300001,253597787.38,2017-03-31,一季度报告,250907459.54,2017,3,-15.088884270630826,False,1.159488922945954,True,0.7049132801884823,False,盈利变化,772026618.0766667,1128588687.0,1128588687.0
14,300116,570390397.1899999,558436566.0100001,2017-06-30,半年度报告,550429493.3600001,2017,6,-5.901143646510795,False,1.2384333972534556,True,0.9501365566462847,False,盈利变化,801171263.2966667,1228750000.0,1228750000.0
15,300116,754616238.48,751595086.47,2017-09-30,三季度报告,722469472.5400003,2017,9,-0.9343995035301107,True,10.564491512036142,False,1.4591910273583717,False,未知,未知,,未知
16,300116,-3734381221.189999,-3684135369.6999993,2017-12-31,年度报告,-3706465068.21,2017,12,-0.987233254334872,True,17.304316993377736,False,0.0,True,比例外推,-3684135369.6999993,1061764587.9999999,1061764587.9999999
17,300116,-325666810.51000005,-319165702.90999985,2018-03-31,一季度报告,-431851893.35000014,2018,3,-0.9784355574908308,True,87.47143718176524,False,0.06115862586458605,True,比例外推,5776908139.718153,未知,5776908139.718153
18,300116,-1676796903.89,-1669870008.2400002,2018-06-30,半年度报告,-1984642419.08,2018,6,-0.9903894681484723,True,117.57798877508014,False,0.062303927797828756,True,比例外推,23338115250.773663,未知,23338115250.773663
19,300116,-2928379353.2899995,-2910777310.5400004,2018-09-30,三季度报告,-3204441861.3,2018,9,-0.9927357048517247,True,13.973163288695222,False,0.257272430452153,False,未知,未知,未知,未知
20,300116,-3945191606.680001,-3924895211.55,2018-12-31,年度报告,-5005772285.389999,2018,12,-1.0014679152328891,False,17.013103415481748,False,0.0,True,去年同期,-3924895211.55,未知,-3924895211.55
21,300116,-540427639.86,-540239368.5500002,2019-03-31,一季度报告,-558564025.76,2019,3,-1.016832403251088,False,3.566181348460693,False,0.08795567991448311,True,去年同期,-5114159760.589999,未知,-5114159760.589999
22,300116,-1835087611.21,-1828770402.55,2019-06-30,半年度报告,-1767354024.4399996,2019,6,-1.0032691824915008,False,6.89102257653092,False,0.3252924027541731,False,去年同期,-4849900268.86,未知,-4849900268.86
23,300116,-2616878119.4700003,-2607023851.900001,2019-09-30,三季度报告,-2479632306.61,2019,9,-1.001871941582241,False,7.98748010389209,False,0.43061237968582367,False,去年同期,-4408354275.99,未知,-4408354275.99
24,300116,277898663.4,294722969.63,2019-12-31,年度报告,-4116026751.640001,2019,12,-1.0013894775277121,False,-1.3874053420113297,True,0.0,True,盈利变化,-3628313366.966667,未知,-3628313366.966667
25,300116,-10140337.56,-9524896.08,2020-03-31,一季度报告,-9529805.35,2020,3,-1.0101433655048067,False,-14.124601599635772,True,0.11912151089789827,False,前期平均,-4275171355.9749994,未知,-4275171355.9749994
