,SECURITYCODE_x,NETPROFIT_x,PARENTNETPROFIT_x,REPORTDATE_x,REPORTTIMETYPE_x,KCFJCXSYJLR,Year,Month,managesituationChangeRate,managesituationGreatChange,historyprofitextroplaterate,ifhistoryprofitextroplate,IfprofitdisStableChangeRage,IfprofitdisStable,predicttype,predict,analyst_prediction,adj_prediction
0,300132,28677516.140000004,28677516.140000004,2013-12-31,年度报告,24842345.590000004,2013,12,未知,未知,未知,未知,未知,未知,未知,未知,未知,未知
1,300132,18238590.78,18238590.78,2014-03-31,一季度报告,16830705.41,2014,3,未知,未知,未知,未知,未知,未知,未知,未知,未知,未知
2,300132,37185834.6,37185834.6,2014-06-30,半年度报告,34977098.01,2014,6,未知,未知,未知,未知,未知,未知,未知,未知,未知,未知
3,300132,48530907.96,48530907.96,2014-09-30,三季度报告,45739510.46,2014,9,未知,未知,未知,未知,未知,未知,未知,未知,未知,未知
4,300132,52210436.38000001,52210436.38000001,2014-12-31,年度报告,47584585.34,2014,12,0.0,True,未知,未知,未知,未知,未知,未知,未知,未知
5,300132,5048366.040000001,5048366.040000001,2015-03-31,一季度报告,4407693.409999998,2015,3,0.5723537243593994,False,未知,未知,未知,未知,未知,未知,未知,未知
6,300132,7121549.760000003,7121549.760000003,2015-06-30,半年度报告,5973914.8999999985,2015,6,-0.228805365040805,True,未知,未知,未知,未知,未知,未知,未知,未知
7,300132,519478.07,519478.07,2015-09-30,三季度报告,-2065453.1500000004,2015,9,-0.4090875826259731,True,未知,未知,未知,未知,未知,未知,未知,未知
8,300132,10900388.78,10900388.78,2015-12-31,年度报告,2652624.87,2015,12,-0.45073211165525984,True,未知,未知,未知,未知,未知,未知,未知,未知
9,300132,4015299.4899999993,4015299.4899999993,2016-03-31,一季度报告,3396803.29,2016,3,4.680554047146708,False,未知,未知,未知,未知,未知,未知,未知,未知
10,300132,13432140.81,13432140.81,2016-06-30,半年度报告,12618632.710000005,2016,6,3.02686453180101,False,未知,未知,未知,未知,未知,未知,38166667.0,未知
11,300132,22444328.700000007,22444328.700000007,2016-09-30,三季度报告,23218135.69,2016,9,54.20447887241901,False,未知,未知,未知,未知,未知,未知,,未知
12,300132,32734601.480000004,32734601.480000004,2016-12-31,年度报告,35578466.56,2016,12,1.6308709458709791,False,0.7304817728621622,True,0.0,True,前期平均,32734601.480000004,未知,32734601.480000004
13,300132,11477435.710000005,11477435.710000005,2017-03-31,一季度报告,13227253.22,2017,3,6.1420615601452955,False,0.6551460526992123,True,0.9580316492602633,False,前期平均,25976841.40500001,未知,25976841.40500001
14,300132,41098009.27,41098009.27,2017-06-30,半年度报告,45533914.91,2017,6,1.1349922209459031,False,0.3936838744141114,True,1.1381440175420328,False,前期平均,45741107.92,未知,45741107.92
15,300132,72503917.96,72503917.96,2017-09-30,三季度报告,78852540.72,2017,9,0.2777177042501608,True,0.08484599137414756,True,1.0570349885537953,False,平均增速,135110908.84060252,未知,135110908.84060252
16,300132,94745969.67999998,94745969.67999998,2017-12-31,年度报告,107213315.29,2017,12,-0.12393874238789111,True,0.03736883163896183,True,0.0,True,比例外推,94745969.67999998,未知,94745969.67999998
17,300132,60800103.23999999,60800103.23999999,2018-03-31,一季度报告,60311583.36999999,2018,3,1.4985995883221543,False,1.532625607600064,True,1.034807501813153,False,前期平均,76013400.60499999,378500000.0,378500000.0
18,300132,146360212.52,146360212.52,2018-06-30,半年度报告,152950065.04999998,2018,6,-0.30221641754960843,True,2.999088059638916,False,1.241593052162273,False,未知,未知,406725000.0,未知
19,300132,267424822.33,267424822.33,2018-09-30,三季度报告,272081975.53,2018,9,-0.6044694280408236,True,5.314625330737354,False,0.9817843307240035,False,未知,未知,407209200.0,未知
20,300132,400352718.46,400352718.46,2018-12-31,年度报告,406080695.43,2018,12,-0.6973220471872634,True,3.3426602877852907,False,0.0,True,比例外推,400352718.46,425996457.0,400352718.46
21,300132,81458669.76000002,81458669.76000002,2019-03-31,一季度报告,79418602.45,2019,3,-0.5283311275508944,True,6.848853343856284,False,0.026982422074381965,True,比例外推,650588168.4283578,504750000.0,504750000.0
22,300132,221167235.13,217237250.65,2019-06-30,半年度报告,215015500.67,2019,6,-0.8040620763919618,True,4.368047302465814,False,0.039362630505166085,True,比例外推,560208938.1081954,556770000.0,560208938.1081954
23,300132,346733456.81,335427827.80000013,2019-09-30,三季度报告,331472525.69000006,2019,9,-0.8927641948487033,True,4.633064995662765,False,0.049445917106809456,True,比例外推,487132051.6837555,494000000.0,487132051.6837555
24,300132,474458388.92000014,453164927.98,2019-12-31,年度报告,431418014.97,2019,12,-0.9283693732608806,True,5.280999760465774,False,0.0,True,比例外推,453164927.98,520334286.0,520334286.0
25,300132,86152742.7,83754720.51999998,2020-03-31,一季度报告,82374985.35,2020,3,-0.6479501049490255,True,1.254052114761443,True,0.032093435051267216,True,比例外推,543342097.2298254,557026364.0,543342097.2298254
