,SECURITYCODE_x,NETPROFIT_x,PARENTNETPROFIT_x,REPORTDATE_x,REPORTTIMETYPE_x,KCFJCXSYJLR,Year,Month,managesituationChangeRate,managesituationGreatChange,historyprofitextroplaterate,ifhistoryprofitextroplate,IfprofitdisStableChangeRage,IfprofitdisStable,predicttype,predict,analyst_prediction,adj_prediction
0,300131,-8800591.33,-9050911.000000002,2013-12-31,年度报告,-85543047.75999998,2013,12,未知,未知,未知,未知,未知,未知,未知,未知,未知,未知
1,300131,254129.11,423771.56,2014-03-31,一季度报告,-2013261.74,2014,3,未知,未知,未知,未知,未知,未知,未知,未知,未知,未知
2,300131,3007653.77,2544849.12,2014-06-30,半年度报告,-4501851.07,2014,6,未知,未知,未知,未知,未知,未知,未知,未知,未知,未知
3,300131,19375918.37,17765873.77,2014-09-30,三季度报告,-42566120.47000001,2014,9,未知,未知,未知,未知,未知,未知,未知,未知,未知,未知
4,300131,24239048.28,21524833.53,2014-12-31,年度报告,-77594323.04,2014,12,-0.0,False,未知,未知,未知,未知,未知,未知,未知,未知
5,300131,1428155.06,975631.85,2015-03-31,一季度报告,-3990387.31,2015,3,-35.6303944872746,False,未知,未知,未知,未知,未知,未知,29000000.0,未知
6,300131,4069761.17,3757942.97,2015-06-30,半年度报告,-6423389.33,2015,6,-3.9260652997302943,False,未知,未知,未知,未知,未知,未知,,未知
7,300131,28451438.86000001,27445277.88000001,2015-09-30,三季度报告,16925718.33,2015,9,-1.4542025395619997,False,未知,未知,未知,未知,未知,未知,未知,未知
8,300131,37359425.77,37615641.95,2015-12-31,年度报告,29856572.42,2015,12,-1.3630749536177746,False,未知,未知,未知,未知,未知,未知,29000000.0,未知
9,300131,68106352.45,68958787.63,2016-03-31,一季度报告,10693070.94,2016,3,-7.16220995638947,False,未知,未知,未知,未知,未知,未知,未知,未知
10,300131,100942329.44,100685873.71,2016-06-30,半年度报告,40963389.25,2016,6,-3.162434345010963,False,未知,未知,未知,未知,未知,未知,185180000.0,未知
11,300131,150940449.03000003,146416893.23000002,2016-09-30,三季度报告,86891533.88,2016,9,-1.3093197280216569,False,未知,未知,未知,未知,未知,未知,229000000.0,未知
12,300131,210166557.85000005,201430175.52,2016-12-31,年度报告,138008765.04000002,2016,12,-1.2355654871191024,False,3.83978753718648,False,0.0,True,去年同期,201430175.52,未知,201430175.52
13,300131,35439734.64,33001791.74,2017-03-31,一季度报告,32792239.34,2017,3,-1.1292183623614394,False,79.96890366625755,False,0.12357695709633364,False,去年同期,160317485.84000003,246000000.0,246000000.0
14,300131,81987419.46000001,76159962.79,2017-06-30,半年度报告,74993710.46,2017,6,-1.0871843495075182,False,27.525197489692474,False,0.2617060649834693,False,去年同期,173205338.58000004,291000000.0,291000000.0
15,300131,137664820.84,124341411.89,2017-09-30,三季度报告,122714360.91,2017,9,-1.0583050559777443,False,5.311887495858612,False,0.04791469430769102,True,去年同期,175458643.05,293000000.0,293000000.0
16,300131,177058704.64000002,143003240.55999997,2017-12-31,年度报告,136971243.61999995,2017,12,-1.041874365836458,False,5.823758578155883,False,0.0,True,去年同期,143003240.55999997,276615000.0,276615000.0
17,300131,57425846.11,36931479.38,2018-03-31,一季度报告,36240507.93,2018,3,-1.2483255424849309,False,0.019342364218320984,True,0.19473151401572658,False,前期平均,117512806.29500002,未知,117512806.29500002
18,300131,123281986.94999996,90232329.21,2018-06-30,半年度报告,88096760.39999999,2018,6,-1.1073407528614025,False,0.5614853296177037,True,0.4248715586107352,False,前期平均,156894997.98000002,未知,156894997.98000002
19,300131,212931730.81000003,159926340.57999998,2018-09-30,三季度报告,155873848.84000003,2018,9,-1.0639276706736025,False,0.5347942703453086,True,0.19843896812081396,False,前期平均,191950383.20499998,未知,191950383.20499998
20,300131,198562515.77,140548136.85,2018-12-31,年度报告,137368238.01,2018,12,-1.049704369790198,False,0.4306272178020643,True,0.0,True,前期平均,140548136.85,,140548136.85
21,300131,61774653.43,45309850.08999999,2019-03-31,一季度报告,24432659.15,2019,3,-1.1532514003040084,False,0.1091842815863569,True,0.11608920143945356,False,前期平均,161057199.27999997,未知,161057199.27999997
22,300131,158432649.16,118265191.03,2019-06-30,半年度报告,93209017.32,2019,6,-1.0713858654271147,False,0.3478615445691453,True,0.19839931133886102,False,前期平均,197776645.505,未知,197776645.505
23,300131,207294651.85,156880943.37,2019-09-30,三季度报告,130846877.02,2019,9,-1.0413305771597414,False,0.4755914256583982,True,0.25713701848196824,False,前期平均,189568000.305,245000000.0,245000000.0
24,300131,69736721.58,28565412.049999993,2019-12-31,年度报告,19106749.2,2019,12,-1.0443215140373925,False,0.025565917332822805,True,0.0,True,前期平均,28565412.049999993,245000000.0,245000000.0
25,300131,-43840162.40000001,-39170190.66,2020-03-31,一季度报告,-36489692.56999999,2020,3,-1.1424628199650266,False,0.3304101030994737,True,0.6847533686291024,False,盈利变化,-52664390.243333325,150175000.0,150175000.0
