,SECURITYCODE_x,NETPROFIT_x,PARENTNETPROFIT_x,REPORTDATE_x,REPORTTIMETYPE_x,KCFJCXSYJLR,Year,Month,managesituationChangeRate,managesituationGreatChange,historyprofitextroplaterate,ifhistoryprofitextroplate,IfprofitdisStableChangeRage,IfprofitdisStable,predicttype,predict,analyst_prediction,adj_prediction
0,300163,21884596.41,21884596.41,2013-12-31,年度报告,18441044.79,2013,12,未知,未知,未知,未知,未知,未知,未知,未知,未知,未知
1,300163,6554451.28,6554451.28,2014-03-31,一季度报告,6256685.23,2014,3,未知,未知,未知,未知,未知,未知,未知,未知,未知,未知
2,300163,15828445.21,15828445.21,2014-06-30,半年度报告,14338994.009999998,2014,6,未知,未知,未知,未知,未知,未知,未知,未知,未知,未知
3,300163,21131887.05,21047413.64,2014-09-30,三季度报告,19311611.950000007,2014,9,未知,未知,未知,未知,未知,未知,未知,未知,未知,未知
4,300163,31173485.960000005,30962598.45,2014-12-31,年度报告,27642035.91,2014,12,0.0,True,未知,未知,未知,未知,未知,未知,未知,未知
5,300163,1970155.51,2381562.26,2015-03-31,一季度报告,1583703.96,2015,3,2.3388906981089037,False,未知,未知,未知,未知,未知,未知,40000000.0,未知
6,300163,4891428.220000002,6407864.29,2015-06-30,半年度报告,4897571.61,2015,6,0.38261188130934554,True,未知,未知,未知,未知,未知,未知,,未知
7,300163,12627695.950000005,14849700.390000002,2015-09-30,三季度报告,12144807.489999998,2015,9,0.035619599812312996,True,未知,未知,未知,未知,未知,未知,18960000.0,未知
8,300163,29808996.49,31751857.980000004,2015-12-31,年度报告,26337617.750000004,2015,12,-0.2979740399235095,True,未知,未知,未知,未知,未知,未知,42200000.0,未知
9,300163,3105076.3900000006,3252298.9199999995,2016-03-31,一季度报告,3022601.3800000013,2016,3,10.108055328079152,False,未知,未知,未知,未知,未知,未知,未知,未知
10,300163,33327365.15,32473577.81,2016-06-30,半年度报告,22165378.77,2016,6,3.4740708491884997,False,未知,未知,未知,未知,未知,未知,未知,未知
11,300163,47249305.38,45978893.17,2016-09-30,三季度报告,35317427.90000001,2016,9,0.7330632996433519,False,未知,未知,未知,未知,未知,未知,未知,未知
12,300163,71236719.52999999,67923101.8,2016-12-31,年度报告,47331870.13,2016,12,-0.26583921007399197,True,0.12363640593443467,True,0.0,True,比例外推,67923101.8,,67923101.8
13,300163,-3915754.380000001,-1078080.3,2017-03-31,一季度报告,-1663663.3099999996,2017,3,6.048005801235697,False,0.27150272933585945,True,0.10956763136012491,False,盈利变化,61674748.879999995,未知,61674748.879999995
14,300163,1019245.6,2551438.1,2017-06-30,半年度报告,-206339.82000000007,2017,6,-0.3433445364942088,True,2.216946789042233,False,0.20504295998637864,False,未知,未知,未知,未知
15,300163,-473216.87000000005,2345127.16,2017-09-30,三季度报告,-1903837.22,2017,9,-0.5368271293303826,True,1.7991640406221838,True,0.17418585169849005,False,平均增速,10281020.199206036,未知,10281020.199206036
16,300163,-35258234.45,-27953728.89999999,2017-12-31,年度报告,-33760878.99999999,2017,12,-0.6927905081201315,True,1.336301070997151,True,0.0,True,比例外推,-27953728.89999999,未知,-27953728.89999999
17,300163,-14527757.95,-12168280.9,2018-03-31,一季度报告,-14019896.27,2018,3,-6.588858310872909,False,2.5430839248941512,False,0.008478312091191202,True,去年同期,-44265496.589999996,未知,-44265496.589999996
18,300163,-25084918.430000003,-20517645.01,2018-06-30,半年度报告,-23839524.78,2018,6,20.471367067956926,False,0.9466625965852673,True,0.2481763243225918,False,盈利变化,-43709185.53999999,未知,-43709185.53999999
19,300163,-164656948.14000002,-149453373.76,2018-09-30,三季度报告,-156386442.35000002,2018,9,-47.246441742450976,False,1.0158062982276606,True,0.36483415917377526,False,盈利变化,-96612664.51333334,未知,-96612664.51333334
20,300163,-214918368.35,-201532789.93,2018-12-31,年度报告,-209942359.81,2018,12,-1.6206946193245928,False,1.6978669821691668,True,0.0,True,前期平均,-201532789.93,未知,-201532789.93
21,300163,742135.31,2355202.9199999995,2019-03-31,一季度报告,-1222160.95,2019,3,-2.5063987495744313,False,-34.84100747573027,True,0.010694601046144503,True,盈利变化,-184469142.83666667,未知,-184469142.83666667
22,300163,3939683.17,7785511.53,2019-06-30,半年度报告,-10860174.2,2019,6,-1.872420473324218,False,2.460692503990369,False,0.2723099120964722,False,前期平均,3591487.6200000057,未知,3591487.6200000057
23,300163,28960230.03,33063552.32,2019-09-30,三季度报告,-11961410.03,2019,9,-1.1329102516305145,False,8.040218769245696,False,0.4594280277844181,False,前期平均,23142252.544999998,未知,23142252.544999998
24,300163,44234836.14000001,48506025.14000001,2019-12-31,年度报告,-17288089.71,2019,12,-1.1018274825833425,False,12.94704934752634,False,0.0,True,盈利变化,-137314699.89666668,未知,-137314699.89666668
25,300163,-669041.1699999999,-600905.3,2020-03-31,一季度报告,-3431984.6900000004,2020,3,28.488687730004383,False,-1.080476570484121,True,0.01297262154208769,True,盈利变化,45559593.48666667,未知,45559593.48666667
