,SECURITYCODE_x,NETPROFIT_x,PARENTNETPROFIT_x,REPORTDATE_x,REPORTTIMETYPE_x,KCFJCXSYJLR,Year,Month,managesituationChangeRate,managesituationGreatChange,historyprofitextroplaterate,ifhistoryprofitextroplate,IfprofitdisStableChangeRage,IfprofitdisStable,predicttype,predict,analyst_prediction,adj_prediction
0,300114,88175760.40999998,78609810.7,2013-12-31,年度报告,45592545.74000001,2013,12,未知,未知,未知,未知,未知,未知,未知,未知,未知,未知
1,300114,12646395.969999995,10858135.0,2014-03-31,一季度报告,10702617.9,2014,3,未知,未知,未知,未知,未知,未知,未知,未知,未知,未知
2,300114,56978310.48999999,49236032.38,2014-06-30,半年度报告,25233828.6,2014,6,未知,未知,未知,未知,未知,未知,未知,未知,未知,未知
3,300114,80690757.14,67027644.34,2014-09-30,三季度报告,64020221.74000001,2014,9,未知,未知,未知,未知,未知,未知,未知,未知,未知,未知
4,300114,101929375.56999998,87125077.5,2014-12-31,年度报告,44634152.93000001,2014,12,0.0,True,未知,未知,未知,未知,未知,未知,未知,未知
5,300114,14248238.289999995,11575568.78,2015-03-31,一季度报告,11439078.430000005,2015,3,5.972402304907428,False,未知,未知,未知,未知,未知,未知,未知,未知
6,300114,65095265.19,54307222.69000001,2015-06-30,半年度报告,53003567.33,2015,6,0.5475320284457245,False,未知,未知,未知,未知,未知,未知,未知,未知
7,300114,90797095.35,77006893.49999999,2015-09-30,三季度报告,75860848.91,2015,9,0.09276159420605458,True,未知,未知,未知,未知,未知,未知,116000000.0,未知
8,300114,115059467.48,100323076.71,2015-12-31,年度报告,98010921.44000004,2015,12,-0.13493279128895186,True,未知,未知,未知,未知,未知,未知,,未知
9,300114,16296848.409999998,12409329.68,2016-03-31,一季度报告,11057444.830000004,2016,3,5.188537741671922,False,未知,未知,未知,未知,未知,未知,142492443.0,未知
10,300114,72865406.66,61295653.63,2016-06-30,半年度报告,56717419.08,2016,6,0.3545648850593458,True,未知,未知,未知,未知,未知,未知,137606667.0,未知
11,300114,101550807.82,84934357.55000003,2016-09-30,三季度报告,76549722.42,2016,9,-0.028870251079017722,True,未知,未知,未知,未知,未知,未知,126795000.0,未知
12,300114,122861244.92,103035054.44,2016-12-31,年度报告,97809542.96000002,2016,12,-0.23365054313912093,True,0.210482472100121,True,0.0,True,比例外推,103035054.44,210000000.0,210000000.0
13,300114,18779496.75,16871732.33,2017-03-31,一季度报告,16300200.160000002,2017,3,4.410601988289587,False,0.21190333004364895,True,0.08326924187438628,True,前期平均,77123421.35000002,134072500.0,134072500.0
14,300114,79915937.45999998,70900433.88,2017-06-30,半年度报告,68248618.47,2017,6,0.21011827768203092,True,0.1937949102270453,True,0.021213065640960926,True,比例外推,124089444.28448811,127146667.0,124089444.28448811
15,300114,120122529.71000002,103063593.81,2017-09-30,三季度报告,99914031.97,2017,9,-0.13170793711171103,True,0.1843498690488498,True,0.43734019389460477,False,平均增速,133912938.02193993,120086667.0,120086667.0
16,300114,150313651.40000004,129445459.12000003,2017-12-31,年度报告,123355216.36999996,2017,12,-0.28231428496907357,True,0.13241992715440687,True,0.0,True,比例外推,129445459.12000003,,129445459.12000003
17,300114,27496281.45,23178626.33,2018-03-31,一季度报告,23102809.46,2018,3,3.69532073110532,False,0.2296247140788114,True,0.01150587284214491,True,前期平均,109840596.90000002,163060000.0,163060000.0
18,300114,104185619.53999996,90918648.32,2018-06-30,半年度报告,89332931.86999999,2018,6,0.10335639188533903,True,0.1585321583079835,True,0.021896928707430652,True,比例外推,161686544.47229826,165373332.99999997,161686544.47229826
19,300114,153577179.5,132765964.61,2018-09-30,三季度报告,130999647.21999998,2018,9,-0.2659515194787021,True,0.24901314472696814,True,0.021098483659316436,True,比例外推,167825852.54797506,167502222.0,167825852.54797506
20,300114,177267339.17,156193588.98999998,2018-12-31,年度报告,152619195.58,2018,12,-0.41338820799878484,True,0.2635608718864952,True,0.0,True,比例外推,156193588.98999998,167940000.0,156193588.98999998
21,300114,29804721.34999999,30629886.38000001,2019-03-31,一季度报告,30175961.45,2019,3,2.206824914501302,False,0.5677962640962906,True,0.019186638428453834,True,前期平均,127533443.55,193250000.0,193250000.0
22,300114,126074891.66,124380533.04999998,2019-06-30,半年度报告,123799717.85999998,2019,6,-0.15366668836531053,True,0.3638526371147621,True,0.01955677441156578,True,比例外推,216701878.82805008,193660000.0,193660000.0
23,300114,190367408.43,186109712.51,2019-09-30,三季度报告,184712013.12,2019,9,-0.4258537583703966,True,0.3856170634794157,True,0.04135856322720055,True,比例外推,227487648.96991318,208292000.0,227487648.96991318
24,300114,219537249.99,212416459.45000008,2019-12-31,年度报告,204838845.88000005,2019,12,-0.5025831559109762,True,0.2978303757629844,True,0.0,True,比例外推,212416459.45000008,208792000.0,212416459.45000008
25,300114,33242689.320000004,33770689.42,2020-03-31,一季度报告,33747777.99,2020,3,1.9584494139214628,False,0.28813485193858884,True,0.011470152126617755,True,前期平均,152056390.58499998,254556154.0,254556154.0
