,SECURITYCODE_x,NETPROFIT_x,PARENTNETPROFIT_x,REPORTDATE_x,REPORTTIMETYPE_x,KCFJCXSYJLR,Year,Month,managesituationChangeRate,managesituationGreatChange,historyprofitextroplaterate,ifhistoryprofitextroplate,IfprofitdisStableChangeRage,IfprofitdisStable,predicttype,predict,analyst_prediction,adj_prediction
0,300194,38595443.09,38367911.41,2013-12-31,年度报告,36545403.13,2013,12,未知,未知,未知,未知,未知,未知,未知,未知,未知,未知
1,300194,16314092.83,16421563.819999995,2014-03-31,一季度报告,15963661.06,2014,3,未知,未知,未知,未知,未知,未知,未知,未知,未知,未知
2,300194,33161259.660000004,33133305.82,2014-06-30,半年度报告,32408445.56,2014,6,未知,未知,未知,未知,未知,未知,未知,未知,未知,未知
3,300194,39620737.95999999,39508786.07,2014-09-30,三季度报告,36957642.79,2014,9,未知,未知,未知,未知,未知,未知,未知,未知,未知,未知
4,300194,45867873.49000001,45707273.73,2014-12-31,年度报告,44103887.42,2014,12,0.0,True,未知,未知,未知,未知,未知,未知,未知,未知
5,300194,9327462.42,9144543.510000002,2015-03-31,一季度报告,8536286.670000002,2015,3,1.3657731687677301,False,未知,未知,未知,未知,未知,未知,98925260.99999999,未知
6,300194,27715368.95,27355598.520000003,2015-06-30,半年度报告,23493690.73,2015,6,0.16387144172797685,True,未知,未知,未知,未知,未知,未知,68483333.0,未知
7,300194,50862379.56,50371738.57999999,2015-09-30,三季度报告,46803837.11000002,2015,9,-0.02587773279324326,True,未知,未知,未知,未知,未知,未知,69875000.0,未知
8,300194,65556173.02,64899360.39000001,2015-12-31,年度报告,57378590.56999999,2015,12,-0.15855172360640443,True,未知,未知,未知,未知,未知,未知,70379961.0,未知
9,300194,30699325.69,30542823.8,2016-03-31,一季度报告,27632846.26,2016,3,3.1378288490601074,False,未知,未知,未知,未知,未知,未知,93300000.0,未知
10,300194,84027534.64,83805783.16999999,2016-06-30,半年度报告,79799903.68000002,2016,6,0.3925646510291181,True,未知,未知,未知,未知,未知,未知,213070000.0,未知
11,300194,156369277.42000005,156147525.95000002,2016-09-30,三季度报告,150199456.7,2016,9,-0.24117897306651295,True,未知,未知,未知,未知,未知,未知,229830000.0,未知
12,300194,222126085.07,221958231.96,2016-12-31,年度报告,215269098.63,2016,12,-0.4112614981624197,True,0.5522992862329298,True,0.0,True,比例外推,221958231.96,230855531.0,221958231.96
13,300194,90058375.94000001,90058375.94000001,2017-03-31,一季度报告,88634456.51,2017,3,0.25720817062024537,True,1.3944979460635487,True,0.14892541903700082,False,平均增速,628005477.4111236,317740000.0,317740000.0
14,300194,181489061.6,181489061.6,2017-06-30,半年度报告,178285125.04,2017,6,-0.5406810011104712,True,1.760584367387161,True,0.22983079619262936,False,平均增速,503940408.2805358,,503940408.2805358
15,300194,237285503.97,237285503.97,2017-09-30,三季度报告,227064001.76,2017,9,-0.7531775824074791,True,2.456319404234428,False,0.08607078704893945,True,比例外推,299917996.4575702,305000000.0,299917996.4575702
16,300194,284797607.05000013,284814664.00999993,2017-12-31,年度报告,262613985.54,2017,12,-0.8262453368417438,True,2.9870403566803647,False,0.0,True,比例外推,284814664.00999993,325278318.0,325278318.0
17,300194,88693842.04999998,88716762.66,2018-03-31,一季度报告,82720440.11,2018,3,-0.5714397168819298,True,3.4999051981140847,False,0.13262718116829456,False,未知,未知,未知,未知
18,300194,172758753.61999995,172772793.16000003,2018-06-30,半年度报告,157487732.67000002,2018,6,-0.7873401143311658,True,2.2483326595111253,False,0.1925414782097149,False,未知,未知,未知,未知
19,300194,228963317.17,228985895.24,2018-09-30,三季度报告,211374795.8,2018,9,-0.8373459716490745,True,1.2900507328655915,True,0.09495823784553103,True,比例外推,284267140.5264244,未知,284267140.5264244
20,300194,-359932340.38000005,-359976337.07000005,2018-12-31,年度报告,-382750183.2499999,2018,12,-0.8644811538629815,True,0.9799455756559211,True,0.0,True,比例外推,-359976337.07000005,,-359976337.07000005
21,300194,74049120.96000001,74099232.38,2019-03-31,一季度报告,71217977.83999999,2019,3,-0.5648464177677371,True,0.4689554513343875,True,0.2993717257876692,False,平均增速,-98632955.61697575,未知,-98632955.61697575
22,300194,152861933.78,152814206.19,2019-06-30,半年度报告,142881748.62,2019,6,-0.7765934154925977,True,0.30130286442692716,True,0.6241706726024644,False,平均增速,-60172320.62284136,未知,-60172320.62284136
23,300194,225645853.98,225602817.20000005,2019-09-30,三季度报告,209525274.31,2019,9,-0.8314339451094527,True,0.16326958540438705,True,0.888954788746662,False,平均增速,-33579825.789078444,未知,-33579825.789078444
24,300194,293033692.46000004,292829529.79999995,2019-12-31,年度报告,259220953.55000004,2019,12,-1.1072297172553394,False,2.4200651734178407,False,0.0,True,前期平均,292829529.79999995,未知,292829529.79999995
25,300194,68438288.12,68396960.96999998,2020-03-31,一季度报告,62678233.07,2020,3,-0.4787859384468782,True,0.1714886473280845,True,0.348163160580388,False,平均增速,208458044.3976292,未知,208458044.3976292
