,SECURITYCODE_x,NETPROFIT_x,PARENTNETPROFIT_x,REPORTDATE_x,REPORTTIMETYPE_x,KCFJCXSYJLR,Year,Month,managesituationChangeRate,managesituationGreatChange,historyprofitextroplaterate,ifhistoryprofitextroplate,IfprofitdisStableChangeRage,IfprofitdisStable,predicttype,predict,analyst_prediction,adj_prediction
0,300101,-12209193.98,-15331490.1,2013-12-31,年度报告,-16735536.86,2013,12,未知,未知,未知,未知,未知,未知,未知,未知,未知,未知
1,300101,-12318746.340000002,-11088594.680000003,2014-03-31,一季度报告,-11131527.1,2014,3,未知,未知,未知,未知,未知,未知,未知,未知,未知,未知
2,300101,14830331.160000002,11266675.35,2014-06-30,半年度报告,11071085.46,2014,6,未知,未知,未知,未知,未知,未知,未知,未知,未知,未知
3,300101,34503448.94,27529481.61,2014-09-30,三季度报告,27282320.31,2014,9,未知,未知,未知,未知,未知,未知,未知,未知,未知,未知
4,300101,66228330.96999999,51519255.47000001,2014-12-31,年度报告,44223488.17,2014,12,-0.0,False,未知,未知,未知,未知,未知,未知,未知,未知
5,300101,21735486.34,17848303.65,2015-03-31,一季度报告,17814411.25,2015,3,-0.00889314196236638,False,未知,未知,未知,未知,未知,未知,99385000.0,未知
6,300101,51179140.12000001,41171709.01000001,2015-06-30,半年度报告,40180629.84,2015,6,-1.8232583512990141,False,未知,未知,未知,未知,未知,未知,122867143.0,未知
7,300101,78518158.26,61563851.82000002,2015-09-30,三季度报告,60420337.96,2015,9,-1.3538543060211534,False,未知,未知,未知,未知,未知,未知,121650400.00000001,未知
8,300101,101091292.79000002,78271817.14,2015-12-31,年度报告,61827759.72999998,2015,12,-1.1843500176009343,False,未知,未知,未知,未知,未知,未知,121227636.0,未知
9,300101,30377109.309999995,22042244.0,2016-03-31,一季度报告,16357247.42,2016,3,-1.5617170827933726,False,未知,未知,未知,未知,未知,未知,132418000.0,未知
10,300101,60016140.92000001,44659239.55,2016-06-30,半年度报告,37932102.49,2016,6,-1.2385580131157545,False,未知,未知,未知,未知,未知,未知,122025000.0,未知
11,300101,84427082.95999998,65438338.79,2016-09-30,三季度报告,56010865.03999999,2016,9,-1.1554951650746985,False,未知,未知,未知,未知,未知,未知,117070000.0,未知
12,300101,56408479.09,40007552.3,2016-12-31,年度报告,19268242.0,2016,12,-1.120773942473587,False,2.7427955507217376,False,0.0,True,去年同期,40007552.3,117070000.0,117070000.0
13,300101,17904037.130000006,12381228.63,2017-03-31,一季度报告,10619973.21,2017,3,-1.4019208626931723,False,5.451725185149001,False,0.5538088078208387,False,去年同期,15292223.21,68917143.0,68917143.0
14,300101,33644583.04,24558929.660000004,2017-06-30,半年度报告,19174228.93,2017,6,-1.2034318400490718,False,0.8184099874220351,True,1.0123474885654846,False,前期平均,51958695.95999999,52256000.0,51958695.95999999
15,300101,34909098.29,24122637.65,2017-09-30,三季度报告,16249113.04,2017,9,-1.1446122920743869,False,0.49399898040027124,True,1.406548547679448,False,前期平均,33296932.46499999,44725000.0,44725000.0
16,300101,41955688.24,30539768.86000001,2017-12-31,年度报告,10936131.56,2017,12,-1.2164425309273128,False,0.32573982868965545,True,0.0,True,前期平均,30539768.86000001,44620000.0,44620000.0
17,300101,32493331.169999994,25613477.16,2018-03-31,一季度报告,24710463.09,2018,3,-1.6819240761929763,False,0.3128710283307483,True,0.4145846099795083,False,前期平均,49075648.68999999,93398571.0,93398571.0
18,300101,31267516.49,26325262.32,2018-06-30,半年度报告,21965692.739999995,2018,6,-1.3628873618521147,False,0.39485591968786676,True,0.8073882769224366,False,前期平均,27816897.01999999,62422500.0,62422500.0
19,300101,29908858.37,26581357.320000004,2018-09-30,三季度报告,10820600.1,2018,9,-1.3497424619385663,False,0.5715235617974557,True,1.1169152613953932,False,前期平均,8913756.684999999,56677500.0,56677500.0
20,300101,20085293.87,16169993.94,2018-12-31,年度报告,-12973328.430000005,2018,12,-1.291002114186746,False,0.46722858402656886,True,0.0,True,前期平均,16169993.94,46777500.0,46777500.0
21,300101,3029021.0899999994,3374908.95,2019-03-31,一季度报告,-663910.5399999999,2019,3,-1.3757446079050317,False,0.3460049549726473,True,1.8764794980861808,False,前期平均,4988485.415000001,50490000.0,50490000.0
22,300101,7783854.369999997,7555224.78,2019-06-30,半年度报告,1442944.1,2019,6,-1.3904753351263044,False,0.33232383505057,True,2.3694032836336834,False,前期平均,-5895754.149999999,40000000.0,40000000.0
23,300101,3988094.8,8207464.090000003,2019-09-30,三季度报告,-6102880.929999999,2019,9,-1.408213306872535,False,0.49874617979700087,True,2.0202832913528628,False,前期平均,-12820338.16999999,,-12820338.16999999
24,300101,5151576.34,4586765.52,2019-12-31,年度报告,-19728181.7,2019,12,-1.6078673311440077,False,0.5916136045229511,True,0.0,True,前期平均,4586765.52,57333333.0,57333333.0
25,300101,2978581.82,4605152.08,2020-03-31,一季度报告,2758114.0300000003,2020,3,-5.0307391785113005,False,0.8797944737126283,True,1.604722908753708,False,前期平均,-14078664.505,28440000.0,28440000.0
