,SECURITYCODE_x,NETPROFIT_x,PARENTNETPROFIT_x,REPORTDATE_x,REPORTTIMETYPE_x,KCFJCXSYJLR,Year,Month,managesituationChangeRate,managesituationGreatChange,historyprofitextroplaterate,ifhistoryprofitextroplate,IfprofitdisStableChangeRage,IfprofitdisStable,predicttype,predict,analyst_prediction,adj_prediction
0,300107,36133289.65,36133289.65,2013-12-31,年度报告,39029272.81,2013,12,未知,未知,未知,未知,未知,未知,未知,未知,未知,未知
1,300107,16145561.66,16145561.66,2014-03-31,一季度报告,16191053.659999998,2014,3,未知,未知,未知,未知,未知,未知,未知,未知,未知,未知
2,300107,31516978.30000001,31516978.30000001,2014-06-30,半年度报告,31475540.9,2014,6,未知,未知,未知,未知,未知,未知,未知,未知,未知,未知
3,300107,37455045.85,37455045.85,2014-09-30,三季度报告,37404258.45,2014,9,未知,未知,未知,未知,未知,未知,未知,未知,未知,未知
4,300107,40579161.63,40579161.63,2014-12-31,年度报告,40209956.4,2014,12,0.0,True,未知,未知,未知,未知,未知,未知,未知,未知
5,300107,6001123.449999997,6001123.449999997,2015-03-31,一季度报告,6043623.45,2015,3,1.237970434904028,False,未知,未知,未知,未知,未知,未知,未知,未知
6,300107,10826585.47,10826585.47,2015-06-30,半年度报告,10776324.97,2015,6,0.14647061993249488,True,未知,未知,未知,未知,未知,未知,未知,未知
7,300107,14763600.779999996,14763600.779999996,2015-09-30,三季度报告,15105321.55,2015,9,-0.03528913581612938,True,未知,未知,未知,未知,未知,未知,未知,未知
8,300107,23150722.56,23150722.56,2015-12-31,年度报告,23862244.660000004,2015,12,-0.10956046900469205,True,未知,未知,未知,未知,未知,未知,,未知
9,300107,4612249.84,4612249.84,2016-03-31,一季度报告,3820068.17,2016,3,5.0210875431999344,False,未知,未知,未知,未知,未知,未知,未知,未知
10,300107,12768382.87,12768382.87,2016-06-30,半年度报告,11847568.990000002,2016,6,2.3374594187727773,False,未知,未知,未知,未知,未知,未知,未知,未知
11,300107,16718651.510000002,16718651.510000002,2016-09-30,三季度报告,15378387.420000002,2016,9,1.4474577840758989,False,未知,未知,未知,未知,未知,未知,未知,未知
12,300107,22752799.95,22752799.95,2016-12-31,年度报告,21295041.67,2016,12,0.5607845308652,False,0.3964285543294661,True,0.0,True,前期平均,22752799.95,未知,22752799.95
13,300107,4880692.33,4880692.33,2017-03-31,一季度报告,4801973.83,2017,3,6.834200423539936,False,0.583481697862096,True,0.12422218227729914,False,前期平均,25799454.305,未知,25799454.305
14,300107,19806167.92,19806167.92,2017-06-30,半年度报告,22110698.43,2017,6,1.8299033650453187,False,0.39691505706252006,True,0.18586682908618268,False,前期平均,30716335.515000004,未知,30716335.515000004
15,300107,34336440.800000004,34336440.800000004,2017-09-30,三季度报告,37093171.65000001,2017,9,1.1612562250243348,False,0.35966737596776344,True,0.16842255087067215,False,前期平均,40117751.330000006,未知,40117751.330000006
16,300107,87075651.7,87075651.7,2017-12-31,年度报告,80801115.44000001,2017,12,0.5880810154971718,False,0.2859613589704218,True,0.0,True,前期平均,87075651.7,未知,87075651.7
17,300107,113878834.31999998,113878834.31999998,2018-03-31,一季度报告,112739446.35,2018,3,6.403312318602963,False,0.08027500839933213,True,0.10459998568109716,False,前期平均,131525631.67499998,599410000.0,599410000.0
18,300107,283370530.66,283370530.66,2018-06-30,半年度报告,289174796.66,2018,6,0.8243453148507889,False,0.6788467468653533,True,0.15355737205567416,False,前期平均,294637226.845,721820000.0,721820000.0
19,300107,493575392.24000007,493575392.24000007,2018-09-30,三季度报告,494639650.46,2018,9,0.05233066701543492,True,1.1813204775635833,True,0.14568160318821344,False,平均增速,836211770.9881796,719730000.0,719730000.0
20,300107,656013995.2600001,656013995.2600001,2018-12-31,年度报告,661939640.1100001,2018,12,-0.5850356678984235,True,2.7938548912463412,False,0.0,True,比例外推,656013995.2600001,719730000.0,656013995.2600001
21,300107,108575879.86,108575879.86,2019-03-31,一季度报告,108176132.57,2019,3,-0.6827040787187433,True,22.992316034513458,False,0.07694846414251166,True,比例外推,793607759.8336703,未知,793607759.8336703
22,300107,210612228.44000003,210612228.44000003,2019-06-30,半年度报告,209730042.75,2019,6,-0.8724874828520744,True,16.398277108213655,False,0.1486420711542193,False,未知,未知,未知,未知
23,300107,282120104.80999994,282120104.80999994,2019-09-30,三季度报告,279310921.42999995,2019,9,-0.9267927651619426,True,18.33501125580474,False,0.18376030905897067,False,未知,未知,未知,未知
24,300107,325513745.55,325577386.27000004,2019-12-31,年度报告,322713922.57,2019,12,-0.9449199408685189,True,10.946157583111116,False,0.0,True,比例外推,325577386.27000004,,325577386.27000004
25,300107,27655661.41,27693911.54,2020-03-31,一季度报告,27972159.53,2020,3,-0.6672070288853196,True,0.8284997073116916,True,0.1468895589618947,False,平均增速,520964371.08474416,未知,520964371.08474416
