,SECURITYCODE_x,NETPROFIT_x,PARENTNETPROFIT_x,REPORTDATE_x,REPORTTIMETYPE_x,KCFJCXSYJLR,Year,Month,managesituationChangeRate,managesituationGreatChange,historyprofitextroplaterate,ifhistoryprofitextroplate,IfprofitdisStableChangeRage,IfprofitdisStable,predicttype,predict,analyst_prediction,adj_prediction
0,300180,88178458.30999999,88178458.30999999,2013-12-31,年度报告,82485286.94999999,2013,12,未知,未知,未知,未知,未知,未知,未知,未知,未知,未知
1,300180,21862433.92,21862433.92,2014-03-31,一季度报告,21451120.540000007,2014,3,未知,未知,未知,未知,未知,未知,未知,未知,未知,未知
2,300180,56734249.59,56734249.59,2014-06-30,半年度报告,55947476.55,2014,6,未知,未知,未知,未知,未知,未知,未知,未知,未知,未知
3,300180,81473798.07000001,81473798.07000001,2014-09-30,三季度报告,77589767.74999999,2014,9,未知,未知,未知,未知,未知,未知,未知,未知,未知,未知
4,300180,115493664.07,115493664.07,2014-12-31,年度报告,111201846.68,2014,12,0.0,True,未知,未知,未知,未知,未知,未知,未知,未知
5,300180,33550607.19,33550607.19,2015-03-31,一季度报告,33228990.94,2015,3,3.033332182165378,False,未知,未知,未知,未知,未知,未知,179471429.0,未知
6,300180,84681393.31000002,84681393.31000002,2015-06-30,半年度报告,82043993.39999999,2015,6,0.5542367960665219,False,未知,未知,未知,未知,未知,未知,179635000.0,未知
7,300180,116858110.96,116858110.96,2015-09-30,三季度报告,107875505.69,2015,9,0.08229222644364172,True,未知,未知,未知,未知,未知,未知,169181667.00000003,未知
8,300180,118936497.53000005,118936497.53000005,2015-12-31,年度报告,121226967.66000004,2015,12,-0.23650826198954453,True,未知,未知,未知,未知,未知,未知,160774000.0,未知
9,300180,15283687.41,15283687.41,2016-03-31,一季度报告,10171090.83,2016,3,1.6282224286027889,False,未知,未知,未知,未知,未知,未知,139946667.0,未知
10,300180,43974690.51,43974690.51,2016-06-30,半年度报告,39514948.99,2016,6,0.0412967343038155,True,未知,未知,未知,未知,未知,未知,105990000.0,未知
11,300180,74315349.09,74315349.09,2016-09-30,三季度报告,51701376.5,2016,9,-0.24542286722242945,True,未知,未知,未知,未知,未知,未知,87980000.0,未知
12,300180,100548129.90000004,100548129.90000004,2016-12-31,年度报告,75971680.23000003,2016,12,-0.25860892037990085,True,0.16792122692270095,True,0.0,True,比例外推,100548129.90000004,165000000.0,165000000.0
13,300180,26505495.2,26505495.2,2017-03-31,一季度报告,23376316.66,2017,3,4.769449213696002,False,0.4483721844588724,True,0.0738095390258155,True,前期平均,115379846.63000001,289000000.0,289000000.0
14,300180,86274067.02000001,86274067.02000001,2017-06-30,半年度报告,78159036.54,2017,6,1.0052092985156518,False,0.3780788375569449,True,0.11010543838052611,False,前期平均,133492739.21500003,364833333.0,364833333.0
15,300180,200764094.16,195518795.96000004,2017-09-30,三季度报告,178416152.05,2017,9,0.18654435980931733,True,0.25059614004160125,True,0.13381829263831568,False,平均增速,247813031.09318125,313666667.0,313666667.0
16,300180,255805092.47,249291729.69,2017-12-31,年度报告,235499550.48,2017,12,-0.12302239337819891,True,0.14219118210939266,True,0.0,True,比例外推,249291729.69,355103200.0,355103200.0
17,300180,100747455.87000002,100638502.11999996,2018-03-31,一季度报告,96102569.71,2018,3,2.326799127676739,False,0.08552792323941948,True,0.10502283107718188,False,前期平均,177537785.18,489190000.0,489190000.0
18,300180,209822956.2,207684590.9100001,2018-06-30,半年度报告,192238304.82,2018,6,0.022073739604260244,True,0.3411579842691965,True,0.17771170901830002,False,平均增速,547763543.0563561,,547763543.0563561
19,300180,282234805.79,277311938.06,2018-09-30,三季度报告,246554158.11999995,2018,9,-0.5607857138053496,True,1.1003343676208155,True,0.11386193779119058,False,平均增速,369934501.6777512,未知,369934501.6777512
20,300180,301514689.82,295421303.89,2018-12-31,年度报告,189781131.7,2018,12,-0.6552904500118923,True,1.3309613567499945,True,0.0,True,比例外推,295421303.89,,295421303.89
21,300180,79742710.94,79308236.66,2019-03-31,一季度报告,73425390.92000002,2019,3,-0.12475746857785174,True,3.821700238084653,False,0.25987664601816485,False,未知,未知,378000000.0,未知
22,300180,46820449.9,47272061.16,2019-06-30,半年度报告,90645703.77,2019,6,-0.5797482796594018,True,2.2218803492489636,False,0.3912937722709191,False,未知,未知,334000000.0,未知
23,300180,103426561.65,103803139.52,2019-09-30,三季度报告,136666235.06,2019,9,-0.6875705742132663,True,1.0520239713695874,True,0.3867193218105658,False,平均增速,32633752.955190137,248500000.0,248500000.0
24,300180,158274999.39000002,158368065.45,2019-12-31,年度报告,176384560.07000002,2019,12,-0.7075483839190678,True,0.6922237313568536,True,0.0,True,比例外推,158368065.45,未知,158368065.45
25,300180,28352403.19,28228472.17,2020-03-31,一季度报告,17701860.929999996,2020,3,0.10578706530741366,True,0.25329448581722364,True,0.24138037066281207,False,平均增速,85305158.3329026,未知,85305158.3329026
