,SECURITYCODE_x,NETPROFIT_x,PARENTNETPROFIT_x,REPORTDATE_x,REPORTTIMETYPE_x,KCFJCXSYJLR,Year,Month,managesituationChangeRate,managesituationGreatChange,historyprofitextroplaterate,ifhistoryprofitextroplate,IfprofitdisStableChangeRage,IfprofitdisStable,predicttype,predict,analyst_prediction,adj_prediction
0,300104,232380750.5,255009694.82000005,2013-12-31,年度报告,247183689.76,2013,12,未知,未知,未知,未知,未知,未知,未知,未知,未知,未知
1,300104,41946501.63,85710345.33000001,2014-03-31,一季度报告,86061465.33000001,2014,3,未知,未知,未知,未知,未知,未知,未知,未知,未知,未知
2,300104,66295055.68999998,151892777.05,2014-06-30,半年度报告,142513349.79999998,2014,6,未知,未知,未知,未知,未知,未知,未知,未知,未知,未知
3,300104,73132461.28,218151099.27,2014-09-30,三季度报告,208731235.02,2014,9,未知,未知,未知,未知,未知,未知,未知,未知,未知,未知
4,300104,128796560.88000004,364029509.12000006,2014-12-31,年度报告,345043734.71000004,2014,12,0.0,True,未知,未知,未知,未知,未知,未知,未知,未知
5,300104,20702319.17,95382792.52,2015-03-31,一季度报告,77755743.13,2015,3,4.5399316145545265,False,未知,未知,未知,未知,未知,未知,518366458.0,未知
6,300104,109241235.24000002,254730903.08,2015-06-30,半年度报告,172536696.14000002,2015,6,2.5052500986895248,False,未知,未知,未知,未知,未知,未知,564266667.0,未知
7,300104,150835938.46,377047654.76,2015-09-30,三季度报告,263005362.67000005,2015,9,2.17753219887255,False,未知,未知,未知,未知,未知,未知,594930000.0,未知
8,300104,217116825.56000003,573027173.3299999,2015-12-31,年度报告,554932791.97,2015,12,0.8042465490713647,False,未知,未知,未知,未知,未知,未知,587094000.0,未知
9,300104,79029970.14,114739272.68,2016-03-31,一季度报告,114781313.32,2016,3,10.224865610068747,False,未知,未知,未知,未知,未知,未知,975393457.0,未知
10,300104,80298108.13999999,284383918.86,2016-06-30,半年度报告,266793171.02,2016,6,1.127225584638125,False,未知,未知,未知,未知,未知,未知,800787117.0,未知
11,300104,138915849.73,492989813.5,2016-09-30,三季度报告,470775190.9099999,2016,9,0.5406192507737455,False,未知,未知,未知,未知,未知,未知,810520000.0,未知
12,300104,-221892631.71,554759227.4300001,2016-12-31,年度报告,544545766.25,2016,12,0.0703028192339787,True,0.2022727824759079,True,0.0,True,比例外推,554759227.4300001,949800000.0,949800000.0
13,300104,-348705.07,124792016.84,2017-03-31,一季度报告,102013132.38,2017,3,1.9404129862170287,False,1.5229515617634735,True,0.0599902287053089,True,前期平均,492871675.95000005,777715000.0,777715000.0
14,300104,-830012475.75,-636765560.51,2017-06-30,半年度报告,-653447007.5500001,2017,6,1.8939754109130875,False,0.08511103072103653,True,0.09371258311494957,True,盈利变化,-58734224.94999993,640000000.0,640000000.0
15,300104,-2282291733.3,-1651607901.5100002,2017-09-30,三季度报告,-1629863297.6999998,2017,9,0.6728166796780967,False,0.2404950867288809,True,0.2167247194924682,False,盈利变化,-378857878.6188886,,-378857878.6188886
16,300104,-18184307477.13,-13878044830.009998,2017-12-31,年度报告,-13732850170.7,2017,12,-2.047266638415048,False,2.282937523717303,False,0.0,True,前期平均盈利变化,100341122665.59001,1287475000.0,1287475000.0
17,300104,-445927998.27,-307241753.37,2018-03-31,一季度报告,-311970394.15,2018,3,-667.4105873195363,False,1.0069928219318443,True,0.12191926768575911,False,盈利变化,-14430022865.383331,未知,-14430022865.383331
18,300104,-1308525524.9600005,-1103906448.06,2018-06-30,半年度报告,-1110343672.51,2018,6,-1.279972599556435,False,9.7582077783813,False,0.23522871402751247,False,去年同期,-14183309611.210001,未知,-14183309611.210001
19,300104,-1847988476.24,-1489483659.4,2018-09-30,三季度报告,-1499238166.21,2018,9,-1.101819038779936,False,16.75342638992395,False,0.37881066746547254,False,去年同期,-13592470532.4,未知,-13592470532.4
20,300104,-5733686367.389999,-4095619370.91,2018-12-31,年度报告,-4106796846.359999,2018,12,-1.0127791916624957,False,-7614.178215359554,True,0.0,True,前期平均,-4095619370.91,未知,-4095619370.91
21,300104,-182824454.47000003,-177407549.76,2019-03-31,一季度报告,-178095524.41,2019,3,-1.5211172014350585,False,12.335049020202542,False,0.1176770599705853,False,去年同期,-3972234001.9699993,未知,-3972234001.9699993
22,300104,-10064881599.2,-10046486515.82,2019-06-30,半年度报告,-348119709.97,2019,6,-1.177589772661946,False,-2.490730820942978,True,0.22171296182414194,False,前期平均,-16447311799.78,未知,-16447311799.78
23,300104,-10221026854.66,-10193501131.29,2019-09-30,三季度报告,-499418383.84,2019,9,-1.1257479435006068,False,-0.7243718102883533,True,0.415103424810489,False,前期平均,-16208109280.12,未知,-16208109280.12
24,300104,-11337273676.579998,-11278924509.64,2019-12-31,年度报告,-2305374968.5999994,2019,12,-1.0405290306462613,False,-0.37698315421049183,True,0.0,True,前期平均,-11278924509.64,未知,-11278924509.64
25,300104,-160435553.72,-149873445.81999996,2020-03-31,一季度报告,-149969332.10999998,2020,3,-2.2710594497528325,False,-0.1806677198172563,True,0.05602450510043334,True,前期平均,-8964718323.465,未知,-8964718323.465
