,SECURITYCODE_x,NETPROFIT_x,PARENTNETPROFIT_x,REPORTDATE_x,REPORTTIMETYPE_x,KCFJCXSYJLR,Year,Month,managesituationChangeRate,managesituationGreatChange,historyprofitextroplaterate,ifhistoryprofitextroplate,IfprofitdisStableChangeRage,IfprofitdisStable,predicttype,predict,analyst_prediction,adj_prediction
0,300122,130347838.89,130347838.89,2013-12-31,年度报告,124992654.32,2013,12,未知,未知,未知,未知,未知,未知,未知,未知,未知,未知
1,300122,42594449.55,42594449.55,2014-03-31,一季度报告,42400089.59,2014,3,未知,未知,未知,未知,未知,未知,未知,未知,未知,未知
2,300122,95874588.49,95874588.49,2014-06-30,半年度报告,95030225.37999998,2014,6,未知,未知,未知,未知,未知,未知,未知,未知,未知,未知
3,300122,136906884.12000003,136906884.12000003,2014-09-30,三季度报告,134928592.82,2014,9,未知,未知,未知,未知,未知,未知,未知,未知,未知,未知
4,300122,148003991.54,148003991.54,2014-12-31,年度报告,145305401.44,2014,12,0.0,True,未知,未知,未知,未知,未知,未知,未知,未知
5,300122,47708403.78,47708403.78,2015-03-31,一季度报告,45860757.39,2015,3,2.060207145933173,False,未知,未知,未知,未知,未知,未知,,未知
6,300122,108122083.56,108122083.56,2015-06-30,半年度报告,105086104.67,2015,6,0.35956608464187223,True,未知,未知,未知,未知,未知,未知,未知,未知
7,300122,160495020.14,160495020.14,2015-09-30,三季度报告,155846862.32000005,2015,9,-0.04790880511348849,True,未知,未知,未知,未知,未知,未知,未知,未知
8,300122,197401922.5900001,197401922.5900001,2015-12-31,年度报告,188851971.36,2015,12,-0.1192951113431842,True,未知,未知,未知,未知,未知,未知,248000000.0,未知
9,300122,59198428.28000001,59198428.28000001,2016-03-31,一季度报告,58012273.92,2016,3,1.7321777414955886,False,未知,未知,未知,未知,未知,未知,307700000.0,未知
10,300122,12038859.98,12038859.98,2016-06-30,半年度报告,9728424.18,2016,6,0.20556166324399675,True,未知,未知,未知,未知,未知,未知,123808000.0,未知
11,300122,6761261.829999999,6761261.829999999,2016-09-30,三季度报告,3472874.5000000005,2016,9,-0.187838733087809,True,未知,未知,未知,未知,未知,未知,91000000.0,未知
12,300122,32520311.88,32520311.88,2016-12-31,年度报告,27034550.76,2016,12,-0.33968303256736815,True,0.4183626691805986,True,0.0,True,比例外推,32520311.88,349000000.0,349000000.0
13,300122,60317452.06000002,60317452.06000002,2017-03-31,一季度报告,57930993.48999999,2017,3,1.201880061299492,False,0.3111086991607469,True,1.2523580088858788,False,前期平均,183265714.97000003,434648889.0,434648889.0
14,300122,171790085.51999998,171790085.51999998,2017-06-30,半年度报告,168263577.15,2017,6,9.827257656168868,False,0.8819700355008806,True,0.16358243612725565,False,前期平均,238810606.89499998,431686667.0,431686667.0
15,300122,285234792.76999986,285234792.76999986,2017-09-30,三季度报告,279605233.36999995,2017,9,18.278626115563405,False,0.9545311463500983,True,0.4989659786929499,False,前期平均,306925751.59999985,425881333.0,425881333.0
16,300122,432275400.68,432275400.68,2017-12-31,年度报告,432774401.6799998,2017,12,3.008197687986011,False,0.8116980019759572,True,0.0,True,前期平均,432275400.68,422148000.0,432275400.68
17,300122,259632404.95000005,259632404.95000005,2018-03-31,一季度报告,262506641.27,2018,3,1.1610302563897783,False,0.128411550463822,True,1.3050047593855836,False,前期平均,315639150.3550001,1345222941.0,1345222941.0
18,300122,682378473.92,682378473.92,2018-06-30,半年度报告,684705285.3799999,2018,6,-0.24123770882677179,True,1.85933316531945,True,0.12141344563681306,False,平均增速,2288609441.336022,1531636429.0,1531636429.0
19,300122,1086588213.06,1086588213.06,2018-09-30,三季度报告,1095015399.38,2018,9,-0.5430156411700222,True,2.4107513261733406,False,0.40479596771883586,False,未知,未知,1538006923.0,未知
20,300122,1451366528.14,1451366528.14,2018-12-31,年度报告,1458977375.2899995,2018,12,-0.6984611229670864,True,2.7601878885393543,False,0.0,True,比例外推,1451366528.14,1538006923.0,1451366528.14
21,300122,502066054.29,502066054.29,2019-03-31,一季度报告,532330816.0499999,2019,3,-0.49795234953394063,True,3.3447348454681514,False,1.3259762970778026,False,未知,未知,2541991667.0,未知
22,300122,1146969826.7700002,1146969826.7700002,2019-06-30,半年度报告,1176653893.3400002,2019,6,-0.8089801424403057,True,6.424059057337083,False,0.06331876613343806,True,比例外推,2868576951.682847,2513905556.0,2513905556.0
23,300122,1762940520.6099997,1762940520.6099997,2019-09-30,三季度报告,1797714251.2300005,2019,9,-0.8800393402732389,True,6.442485581173332,False,0.3798970782949176,False,未知,未知,2431985333.0,未知
24,300122,2366438733.29,2366438733.29,2019-12-31,年度报告,2388305638.15,2019,12,-0.9101895790189901,True,5.245180361695547,False,0.0,True,比例外推,2366438733.29,2421672353.0,2366438733.29
25,300122,516363351.00999993,516363351.00999993,2020-03-31,一季度报告,524524508.0300001,2020,3,-0.7403771121823158,True,2.1384046174104583,False,0.045032178990515065,True,比例外推,2923916612.695142,3344774167.0,3344774167.0
