,SECURITYCODE_x,NETPROFIT_x,PARENTNETPROFIT_x,REPORTDATE_x,REPORTTIMETYPE_x,KCFJCXSYJLR,Year,Month,managesituationChangeRate,managesituationGreatChange,historyprofitextroplaterate,ifhistoryprofitextroplate,IfprofitdisStableChangeRage,IfprofitdisStable,predicttype,predict,analyst_prediction,adj_prediction
0,300100,102577238.19000004,102641046.48,2013-12-31,年度报告,103121167.29,2013,12,未知,未知,未知,未知,未知,未知,未知,未知,未知,未知
1,300100,31377086.620000005,31312903.04000001,2014-03-31,一季度报告,30571246.01,2014,3,未知,未知,未知,未知,未知,未知,未知,未知,未知,未知
2,300100,64730445.69,64342199.77,2014-06-30,半年度报告,63017017.51,2014,6,未知,未知,未知,未知,未知,未知,未知,未知,未知,未知
3,300100,88935486.38,88328991.25999998,2014-09-30,三季度报告,84559043.19,2014,9,未知,未知,未知,未知,未知,未知,未知,未知,未知,未知
4,300100,134717316.48999998,132957341.69,2014-12-31,年度报告,134874659.66,2014,12,0.0,True,未知,未知,未知,未知,未知,未知,未知,未知
5,300100,55714043.99000001,55294038.19000002,2015-03-31,一季度报告,54111791.05999999,2015,3,2.2691766266348163,False,未知,未知,未知,未知,未知,未知,290366320.0,未知
6,300100,120406230.92999998,119473179.65,2015-06-30,半年度报告,114313310.48,2015,6,0.5846830204329472,False,未知,未知,未知,未知,未知,未知,270925000.0,未知
7,300100,177629842.14000005,176013184.85,2015-09-30,三季度报告,165906609.71,2015,9,0.1533892978525143,True,未知,未知,未知,未知,未知,未知,266378478.0,未知
8,300100,246045175.28,243347385.99000004,2015-12-31,年度报告,236348975.99,2015,12,-0.23857421701526904,True,未知,未知,未知,未知,未知,未知,262350966.99999997,未知
9,300100,80081370.36,78528127.14,2016-03-31,一季度报告,73947738.14,2016,3,0.841137904267215,False,未知,未知,未知,未知,未知,未知,368503884.00000006,未知
10,300100,173456628.66,164103847.41999996,2016-06-30,半年度报告,156243200.9,2016,6,-0.14807367195444474,True,未知,未知,未知,未知,未知,未知,359450000.0,未知
11,300100,266679693.99,243276295.07,2016-09-30,三季度报告,232665619.63000005,2016,9,-0.42252249422620575,True,未知,未知,未知,未知,未知,未知,356168087.0,未知
12,300100,354359310.48999995,326753130.69,2016-12-31,年度报告,313447577.53,2016,12,-0.5830959169458744,True,1.0737532356088029,True,0.0,True,比例外推,326753130.69,356147500.0,326753130.69
13,300100,89783902.42999999,89828761.39000002,2017-03-31,一季度报告,85926443.97,2017,3,0.28091262335885986,True,0.8390247043320589,True,0.005407327681728857,True,比例外推,376668862.40012634,448929155.0,448929155.0
14,300100,196063297.2400001,172575459.71,2017-06-30,半年度报告,167133323.70000002,2017,6,-0.40862889482842296,True,0.8738224302905283,True,0.015892322996672037,True,比例外推,351388743.23494655,514933134.99999994,514933134.99999994
15,300100,335861660.12,303061422.54,2017-09-30,三季度报告,292803609.88,2017,9,-0.6153541476845759,True,1.0008580671059881,True,0.06344819646883904,True,比例外推,434368964.2905635,475976667.0,434368964.2905635
16,300100,406481554.12,314331966.05,2017-12-31,年度报告,158610980.23000002,2017,12,-0.7105276053050261,True,0.8613141690650091,True,0.0,True,比例外推,314331966.05,541247344.0,541247344.0
17,300100,92188669.15,75279870.24999999,2018-03-31,一季度报告,45489537.05,2018,3,0.14249030632160783,True,0.3223407117208001,True,0.20620686646016267,False,平均增速,127813149.18786475,470000000.0,470000000.0
18,300100,187173345.97,153304934.89999998,2018-06-30,半年度报告,65784196.08000001,2018,6,-0.4768157037345151,True,0.3343863699791755,True,0.37511073644171133,False,平均增速,147724006.68824145,,147724006.68824145
19,300100,187698511.82999995,192889718.71,2018-09-30,三季度报告,66705442.97000001,2018,9,-0.69458485331922,True,0.5118363789596027,True,0.7492874252604973,False,平均增速,116136230.13536532,未知,116136230.13536532
20,300100,-118106054.84999998,-61820210.54,2018-12-31,年度报告,-485111871.11,2018,12,-0.7476460194803389,True,0.3540257068489424,True,0.0,True,比例外推,-61820210.54,,-61820210.54
21,300100,14323593.9,16919273.040000007,2019-03-31,一季度报告,13062043.9,2019,3,0.11268813332251076,True,0.0854327978382074,True,0.3217344046779284,False,平均增速,279327216.9520272,未知,279327216.9520272
22,300100,3634463.18,11169290.61,2019-06-30,半年度报告,37330067.79,2019,6,-0.45196663735208836,True,0.013062261874630618,True,0.6078034504711749,False,平均增速,206400704.0671779,未知,206400704.0671779
23,300100,8911659.2,13708008.63,2019-09-30,三季度报告,52535650.96,2019,9,-0.45349999214215897,True,0.3769771633110723,True,1.0291078908240903,False,平均增速,148534509.70579547,未知,148534509.70579547
24,300100,-959865044.55,-947124646.6200002,2019-12-31,年度报告,-1060199351.63,2019,12,-1.8685180308518285,False,1.3104619121911651,True,0.0,True,前期平均,-947124646.6200002,未知,-947124646.6200002
25,300100,12864891.929999998,15358158.310000002,2020-03-31,一季度报告,6618139.939999999,2020,3,6.161417651613261,False,0.8425741442720341,True,0.3965260995772282,False,前期平均,-213600277.64,未知,-213600277.64
