,SECURITYCODE_x,NETPROFIT_x,PARENTNETPROFIT_x,REPORTDATE_x,REPORTTIMETYPE_x,KCFJCXSYJLR,Year,Month,managesituationChangeRate,managesituationGreatChange,historyprofitextroplaterate,ifhistoryprofitextroplate,IfprofitdisStableChangeRage,IfprofitdisStable,predicttype,predict,analyst_prediction,adj_prediction
0,300212,99346648.80000004,94287560.81,2013-12-31,年度报告,89677490.36999999,2013,12,未知,未知,未知,未知,未知,未知,未知,未知,未知,未知
1,300212,25369986.33,25821387.020000003,2014-03-31,一季度报告,26094830.53,2014,3,未知,未知,未知,未知,未知,未知,未知,未知,未知,未知
2,300212,53282390.73999999,49698576.68,2014-06-30,半年度报告,48315172.77,2014,6,未知,未知,未知,未知,未知,未知,未知,未知,未知,未知
3,300212,60467900.88999999,54935966.17999999,2014-09-30,三季度报告,53794187.06,2014,9,未知,未知,未知,未知,未知,未知,未知,未知,未知,未知
4,300212,155870088.16000003,143671438.67000002,2014-12-31,年度报告,139915775.88,2014,12,0.0,True,未知,未知,未知,未知,未知,未知,未知,未知
5,300212,40580179.69,39664145.66,2015-03-31,一季度报告,38977636.76000001,2015,3,2.915912586934376,False,未知,未知,未知,未知,未知,未知,281949429.0,未知
6,300212,60934886.08000001,57503240.42,2015-06-30,半年度报告,80520638.98,2015,6,0.8645306154669002,False,未知,未知,未知,未知,未知,未知,262349000.0,未知
7,300212,68425003.69,63674385.88999999,2015-09-30,三季度报告,86326297.96,2015,9,0.6429650663866472,False,未知,未知,未知,未知,未知,未知,207935714.0,未知
8,300212,147528856.56000003,124261419.45,2015-12-31,年度报告,143866467.87,2015,12,-0.3626317276601454,True,未知,未知,未知,未知,未知,未知,210905000.0,未知
9,300212,24621301.550000004,20710288.34,2016-03-31,一季度报告,20230173.89,2016,3,1.4481569465420976,False,未知,未知,未知,未知,未知,未知,184636667.00000003,未知
10,300212,92137143.88999996,78083937.22999999,2016-06-30,半年度报告,75941419.55999999,2016,6,0.6303739153556488,False,未知,未知,未知,未知,未知,未知,187543332.99999997,未知
11,300212,105256784.25,82768858.44999999,2016-09-30,三季度报告,72672653.28999999,2016,9,0.45190564037220654,True,未知,未知,未知,未知,未知,未知,191968000.0,未知
12,300212,194435816.16,141105596.14,2016-12-31,年度报告,125572808.52999996,2016,12,-0.32659514134039447,True,0.15610643970518376,True,0.0,True,比例外推,141105596.14,192698182.00000003,192698182.00000003
13,300212,29129874.77,26992047.38,2017-03-31,一季度报告,24757698.350000005,2017,3,3.0349876954413086,False,0.25333617681770904,True,0.06475051547339489,True,前期平均,136346935.60999998,227961110.99999997,227961110.99999997
14,300212,101374262.32000004,79585099.39000002,2017-06-30,半年度报告,72010730.24999999,2017,6,0.07824754062929624,True,0.6133661466155057,True,0.1579393107252436,False,平均增速,126704643.96823332,236690000.0,236690000.0
15,300212,109565926.4,84667476.12,2017-09-30,三季度报告,74159060.95,2017,9,-0.05614968661746816,True,0.6332440422997878,True,0.13660761180981645,False,平均增速,136800393.07524538,242390000.0,242390000.0
16,300212,276425459.8399999,201246864.22000003,2017-12-31,年度报告,187168121.97,2017,12,-0.4890517047628287,True,0.28171715520922713,True,0.0,True,比例外推,201246864.22000003,231633750.0,231633750.0
17,300212,52560797.85,40102957.6,2018-03-31,一季度报告,38291443.18,2018,3,2.410472910865866,False,0.10646585887287126,True,0.08282673561739792,True,前期平均,145218690.47499996,343758612.99999994,343758612.99999994
18,300212,135428464.47000003,108661817.06,2018-06-30,半年度报告,102527306.96,2018,6,-0.02000126534681545,True,0.3245301880411204,True,0.13165790974769848,False,平均增速,258680630.32094014,350302221.99999994,350302221.99999994
19,300212,131931506.82,110546064.67000002,2018-09-30,三季度报告,100658983.97,2018,9,-0.09327058088015185,True,0.2616858416709826,True,0.12878040719885614,False,平均增速,254012070.02064836,331797143.0,331797143.0
20,300212,357758552.46000004,302448242.12999994,2018-12-31,年度报告,251952900.74,2018,12,-0.6406023929289882,True,0.616690154812199,True,0.0,True,比例外推,302448242.12999994,335596667.0,302448242.12999994
21,300212,80001047.83000001,77205766.69,2019-03-31,一季度报告,57522052.94000001,2019,3,0.8901282488808346,False,0.9557078169633626,True,0.01617711444813011,True,前期平均,211082295.82,462920000.0,462920000.0
22,300212,183967300.43000004,180064669.91,2019-06-30,半年度报告,134150837.97,2019,6,-0.2664271193741017,True,0.39969490297674837,True,0.13928381859643885,False,平均增速,383788774.3880339,453707500.0,453707500.0
23,300212,207324831.1,204114321.91,2019-09-30,三季度报告,111669301.13,2019,9,-0.24698314152097814,True,0.22828267477687178,True,0.1205756841502807,False,平均增速,395327552.27602196,456523333.0,456523333.0
24,300212,417863271.9900001,384005313.21000016,2019-12-31,年度报告,305110025.4,2019,12,-0.7223081094305699,True,0.5195921631066562,True,0.0,True,比例外推,384005313.21000016,456533333.0,456533333.0
25,300212,57800454.07000001,61794527.68999998,2020-03-31,一季度报告,58250939.41,2020,3,0.24181684483819374,True,0.9586335933880822,True,0.030934668937788984,True,比例外推,373169712.93183523,565076250.0,565076250.0
