,SECURITYCODE_x,NETPROFIT_x,PARENTNETPROFIT_x,REPORTDATE_x,REPORTTIMETYPE_x,KCFJCXSYJLR,Year,Month,managesituationChangeRate,managesituationGreatChange,historyprofitextroplaterate,ifhistoryprofitextroplate,IfprofitdisStableChangeRage,IfprofitdisStable,predicttype,predict,analyst_prediction,adj_prediction
0,300237,29708076.11000001,32118840.22000001,2013-12-31,年度报告,32099077.62,2013,12,未知,未知,未知,未知,未知,未知,未知,未知,未知,未知
1,300237,9987619.36,10388783.38,2014-03-31,一季度报告,10174735.53,2014,3,未知,未知,未知,未知,未知,未知,未知,未知,未知,未知
2,300237,25174294.840000004,26303303.04,2014-06-30,半年度报告,26660040.0,2014,6,未知,未知,未知,未知,未知,未知,未知,未知,未知,未知
3,300237,35975608.92,37679759.48,2014-09-30,三季度报告,,2014,9,未知,未知,未知,未知,未知,未知,未知,未知,未知,未知
4,300237,100270419.07,103279975.71,2014-12-31,年度报告,99239300.21000002,2014,12,0.0,True,未知,未知,未知,未知,未知,未知,未知,未知
5,300237,19539448.67,20319464.29,2015-03-31,一季度报告,20224042.65,2015,3,1.9744902202600574,False,未知,未知,未知,未知,未知,未知,230500000.0,未知
6,300237,52598627.31,53747175.52,2015-06-30,半年度报告,51323593.90000001,2015,6,0.18009566102309169,True,未知,未知,未知,未知,未知,未知,233000000.0,未知
7,300237,99672654.94000004,100982505.79,2015-09-30,三季度报告,93619612.95000002,2015,9,-0.17421617029296946,True,未知,未知,未知,未知,未知,未知,207000000.0,未知
8,300237,206933226.87000003,209111146.17,2015-12-31,年度报告,200823942.38000005,2015,12,-0.7037204353433444,True,未知,未知,未知,未知,未知,未知,207490000.0,未知
9,300237,41919632.42,42547208.42,2016-03-31,一季度报告,41761035.24999999,2016,3,0.5204152692195694,False,未知,未知,未知,未知,未知,未知,333578000.0,未知
10,300237,153399117.39000002,154452901.04999998,2016-06-30,半年度报告,146500447.69999996,2016,6,-0.43519293887823685,True,未知,未知,未知,未知,未知,未知,398456667.0,未知
11,300237,241546438.20000008,242615224.66,2016-09-30,三季度报告,241080753.45,2016,9,-0.7019435658869186,True,未知,未知,未知,未知,未知,未知,406572000.0,未知
12,300237,445077557.35000014,446649165.50999993,2016-12-31,年度报告,448542724.75,2016,12,-0.8564364140097073,True,2.1841148273555513,False,0.0,True,比例外推,446649165.50999993,406572000.0,446649165.50999993
13,300237,77042934.3,77217370.27000001,2017-03-31,一季度报告,76085277.66,2017,3,-0.2913087640571442,True,1.8394036534483509,True,0.005675000833269092,True,比例外推,771391213.7134233,673955000.0,673955000.0
14,300237,236937356.42,236781505.85,2017-06-30,半年度报告,232067503.87000003,2017,6,-0.806334765052979,True,2.944795004465446,False,0.0430064733985312,True,比例外推,822983172.4792731,685786000.0,685786000.0
15,300237,366765411.22,366928177.5,2017-09-30,三季度报告,362721558.64,2017,9,-0.8770088421448725,True,2.5613642419971625,False,,False,未知,未知,679643333.0,未知
16,300237,618478420.3800001,609484734.1799997,2017-12-31,年度报告,595185951.8099997,2017,12,-0.933251911673816,True,1.8976059576905429,True,0.0,True,比例外推,609484734.1799997,636962000.0,609484734.1799997
17,300237,130053692.65,128724036.68999998,2018-03-31,一季度报告,78959299.35,2018,3,-0.6143958381138657,True,1.5071293919015538,True,0.020619928854050687,True,比例外推,786225503.4727249,881463000.0,881463000.0
18,300237,313171749.52999985,309571966.48999995,2018-06-30,半年度报告,241944347.13,2018,6,-0.874616326615298,True,1.3003878684697072,True,0.06846386255560954,True,比例外推,814302651.5233381,841871667.0,814302651.5233381
19,300237,390049939.0700002,386926889.45000017,2018-09-30,三季度报告,317439687.60999995,2018,9,-0.9189997878720904,True,1.1497355722091345,True,0.07173269971653629,True,比例外推,659860786.1276984,673000000.0,659860786.1276984
20,300237,379100807.17,372065120.86,2018-12-31,年度报告,293894997.55000013,2018,12,-0.9519658647237085,True,0.8971416895194003,True,0.0,True,比例外推,372065120.86,914000000.0,914000000.0
21,300237,89520506.54000002,89033172.16999999,2019-03-31,一季度报告,18669741.9,2019,3,-0.77157068357951,True,1.1864641329756274,True,0.10546390901112157,False,平均增速,212278094.2779147,403000000.0,403000000.0
22,300237,140450974.95000002,138388564.31,2019-06-30,半年度报告,67945229.35999998,2019,6,-0.9051380715068165,True,0.6046245767052719,True,0.3099820443535056,False,平均增速,169330104.30230916,,169330104.30230916
23,300237,130870856.56000002,129443155.84999998,2019-09-30,三季度报告,56695159.74,2019,9,-0.9238351986906259,True,0.2824012533765255,True,0.3377746721894376,False,平均增速,116623530.38721459,未知,116623530.38721459
24,300237,80912644.86,80748587.23,2019-12-31,年度报告,45422995.86000001,2019,12,-0.921635418474121,True,0.28710699745370527,True,0.0,True,比例外推,80748587.23,,80748587.23
25,300237,-52694721.49,-52624344.31999999,2020-03-31,一季度报告,-53595521.8,2020,3,-0.6681422250808456,True,0.13547112902410285,True,0.14184658312084542,False,平均增速,-86688523.04750519,未知,-86688523.04750519
