,SECURITYCODE_x,NETPROFIT_x,PARENTNETPROFIT_x,REPORTDATE_x,REPORTTIMETYPE_x,KCFJCXSYJLR,Year,Month,managesituationChangeRate,managesituationGreatChange,historyprofitextroplaterate,ifhistoryprofitextroplate,IfprofitdisStableChangeRage,IfprofitdisStable,predicttype,predict,analyst_prediction,adj_prediction
0,300218,79015273.58,73784713.02000001,2013-12-31,年度报告,52248071.00999999,2013,12,未知,未知,未知,未知,未知,未知,未知,未知,未知,未知
1,300218,12440779.02,10731091.22,2014-03-31,一季度报告,8952171.09,2014,3,未知,未知,未知,未知,未知,未知,未知,未知,未知,未知
2,300218,35451916.89,31875729.59,2014-06-30,半年度报告,25171898.56,2014,6,未知,未知,未知,未知,未知,未知,未知,未知,未知,未知
3,300218,50360168.86,45660244.60000001,2014-09-30,三季度报告,37298150.48,2014,9,未知,未知,未知,未知,未知,未知,未知,未知,未知,未知
4,300218,58937290.48,53241576.3,2014-12-31,年度报告,40641024.22000001,2014,12,0.0,True,未知,未知,未知,未知,未知,未知,未知,未知
5,300218,11662739.660000002,10036990.83,2015-03-31,一季度报告,9284015.68,2015,3,5.351312361788096,False,未知,未知,未知,未知,未知,未知,75103333.0,未知
6,300218,29510333.43,26086980.64,2015-06-30,半年度报告,24414752.28,2015,6,1.2288011625765716,False,未知,未知,未知,未知,未知,未知,79660000.0,未知
7,300218,48694741.59,44002997.66,2015-09-30,三季度报告,33791517.86,2015,9,0.5690033486515994,False,未知,未知,未知,未知,未知,未知,63000000.0,未知
8,300218,61703557.74,55302306.63,2015-12-31,年度报告,42707316.4,2015,12,0.3406668840131587,True,未知,未知,未知,未知,未知,未知,63000000.0,未知
9,300218,11028270.750000002,9217450.0,2016-03-31,一季度报告,7676440.8900000015,2016,3,5.77501821042964,False,未知,未知,未知,未知,未知,未知,92000000.0,未知
10,300218,36755691.79999999,33479965.230000004,2016-06-30,半年度报告,24587981.38,2016,6,1.6775459439463203,False,未知,未知,未知,未知,未知,未知,81793333.0,未知
11,300218,52734247.51,48187654.95,2016-09-30,三季度报告,33162433.789999995,2016,9,0.6226654254640638,False,未知,未知,未知,未知,未知,未知,67600000.0,未知
12,300218,64838775.91,58379058.3,2016-12-31,年度报告,40571092.04,2016,12,0.28056268510393345,True,0.1054380444402158,True,0.0,True,比例外推,58379058.3,84800000.0,84800000.0
13,300218,1842376.6000000003,1514532.87,2017-03-31,一季度报告,-291017.86,2017,3,6.164792683386014,False,0.08492441320189838,True,0.019747338899634537,True,前期平均,34070609.795,65890000.0,65890000.0
14,300218,3744006.17,3038985.5699999994,2017-06-30,半年度报告,-3341555.6700000013,2017,6,1.1497425217827084,False,0.13160155687168287,True,0.027355423479346386,True,前期平均,19919830.46000001,31030000.0,31030000.0
15,300218,-1537457.27,-2859915.43,2017-09-30,三季度报告,-11585123.260000002,2017,9,0.49836732884102175,True,0.06474777010915962,True,0.0756223544489073,True,比例外推,-5031820.485597618,12100000.0,12100000.0
16,300218,-15056254.87,-16662937.670000002,2017-12-31,年度报告,-30564977.81000001,2017,12,0.21864227803556638,True,0.07490583606906269,True,0.0,True,比例外推,-16662937.670000002,95450000.0,95450000.0
17,300218,-10124108.71,-9130446.16,2018-03-31,一季度报告,-13844935.220000004,2018,3,41.887688423745715,False,0.8376117619523846,True,0.12918468555158094,False,盈利变化,-34734827.48333334,29975000.0,29975000.0
18,300218,-13787893.23,-13047446.750000002,2018-06-30,半年度报告,-12779205.01,2018,6,20.104472052726344,False,0.8870007320642792,True,0.31969011450406715,False,盈利变化,-22954703.89666667,26950000.0,26950000.0
19,300218,2641981.4200000004,3276910.39,2018-09-30,三季度报告,6737108.209999999,2018,9,-52.393476177715165,False,1.0303159340074701,True,0.2835201210621037,False,前期平均,11439138.785000004,26950000.0,26950000.0
20,300218,21658922.64,23041603.84,2018-12-31,年度报告,25168403.44,2018,12,-6.2480031895209285,False,1.2379639198316619,True,0.0,True,前期平均,23041603.84,,23041603.84
21,300218,3027728.79,3174251.08,2019-03-31,一季度报告,-5536272.83,2019,3,-8.804664671562973,False,2.573208935757221,False,0.43297157745125336,False,前期平均,4484596.679999994,69920000.0,69920000.0
22,300218,18222532.53,18107213.270000003,2019-06-30,半年度报告,7684852.33,2019,6,-6.730772081123811,False,1.6808886940447474,True,0.5769563312666057,False,前期平均,12487057.53,69920000.0,69920000.0
23,300218,52566218.24,51114232.63000001,2019-09-30,三季度报告,21755341.680000003,2019,9,28.907581098734596,False,0.8967911305527188,True,0.3293558745845945,False,前期平均,45328634.480000004,未知,45328634.480000004
24,300218,72821271.77,71112717.84,2019-12-31,年度报告,39515408.46,2019,12,2.648162694578053,False,0.1298583443535466,True,0.0,True,前期平均,71112717.84,,71112717.84
25,300218,-8772128.099999998,-7952427.079999999,2020-03-31,一季度报告,-10448733.99,2020,3,25.097209842893488,False,-1.7311824989712208,True,0.32320031995452614,False,盈利变化,64562769.62666667,未知,64562769.62666667
