,SECURITYCODE_x,NETPROFIT_x,PARENTNETPROFIT_x,REPORTDATE_x,REPORTTIMETYPE_x,KCFJCXSYJLR,Year,Month,managesituationChangeRate,managesituationGreatChange,historyprofitextroplaterate,ifhistoryprofitextroplate,IfprofitdisStableChangeRage,IfprofitdisStable,predicttype,predict,analyst_prediction,adj_prediction
0,300281,56205121.91000001,55080130.07,2013-12-31,年度报告,42349333.47999999,2013,12,未知,未知,未知,未知,未知,未知,未知,未知,未知,未知
1,300281,4134797.72,4261072.81,2014-03-31,一季度报告,3552322.81,2014,3,未知,未知,未知,未知,未知,未知,未知,未知,未知,未知
2,300281,25164178.52,25165862.930000003,2014-06-30,半年度报告,23427906.31,2014,6,未知,未知,未知,未知,未知,未知,未知,未知,未知,未知
3,300281,36605454.85,36677055.42,2014-09-30,三季度报告,34187698.800000004,2014,9,未知,未知,未知,未知,未知,未知,未知,未知,未知,未知
4,300281,60292386.99000001,60162242.56999999,2014-12-31,年度报告,54501629.90000001,2014,12,0.0,True,未知,未知,未知,未知,未知,未知,未知,未知
5,300281,4448462.699999998,4565374.13,2015-03-31,一季度报告,3790044.81,2015,3,12.593197470854756,False,未知,未知,未知,未知,未知,未知,83333333.0,未知
6,300281,24874204.529999994,24777186.14,2015-06-30,半年度报告,23796885.72000001,2015,6,1.2335369249319732,False,未知,未知,未知,未知,未知,未知,79975000.0,未知
7,300281,28198811.66000001,28091925.76,2015-09-30,三季度报告,26194633.14,2015,9,0.535430228645281,False,未知,未知,未知,未知,未知,未知,,未知
8,300281,29805789.08,29303345.710000005,2015-12-31,年度报告,25787975.6,2015,12,-0.06779073252943037,True,未知,未知,未知,未知,未知,未知,88280000.0,未知
9,300281,5023768.11,5286981.14,2016-03-31,一季度报告,4416689.340000002,2016,3,11.63472927625088,False,未知,未知,未知,未知,未知,未知,52690000.0,未知
10,300281,25430885.66,25238963.180000003,2016-06-30,半年度报告,22443736.85,2016,6,1.2595746465866993,False,未知,未知,未知,未知,未知,未知,48000000.0,未知
11,300281,29001635.82000001,29254051.250000004,2016-09-30,三季度报告,25673621.43,2016,9,0.9931734211951536,False,未知,未知,未知,未知,未知,未知,55440000.0,未知
12,300281,31842869.65,32667388.83,2016-12-31,年度报告,26222846.33,2016,12,0.8857115897567109,False,0.4883016922604773,True,0.0,True,前期平均,32667388.83,45813333.0,45813333.0
13,300281,5316763.66,6240888.710000001,2017-03-31,一季度报告,6189952.11,2017,3,10.187841611980774,False,0.17059668801240951,True,0.061680648744922406,True,前期平均,42714507.650000006,69230000.0,69230000.0
14,300281,28915305.27,29968917.87,2017-06-30,半年度报告,25893148.599999994,2017,6,1.2101126426125424,False,0.0164551334358116,True,0.3063202890126567,False,前期平均,46501324.605000004,66140000.0,66140000.0
15,300281,31780206.63,32833819.230000004,2017-09-30,三季度报告,28290473.97000001,2017,9,0.9379983342608565,False,0.10494671471901501,True,0.2467559395557607,False,前期平均,42787456.010000005,67300000.0,67300000.0
16,300281,35344838.21,36398104.6,2017-12-31,年度报告,31913130.23,2017,12,0.7650771594324576,False,0.29315173649552445,True,0.0,True,前期平均,36398104.6,,36398104.6
17,300281,9427595.0,9427595.0,2018-03-31,一季度报告,8375838.499999999,2018,3,9.57130342897356,False,0.1226001069118798,True,0.024175527225828136,True,前期平均,31329638.889999997,未知,31329638.889999997
18,300281,31934435.2,31934435.2,2018-06-30,半年度报告,26289816.870000005,2018,6,0.9437844900884912,False,0.14959759184560567,True,0.05944388118925048,True,前期平均,34819534.879999995,未知,34819534.879999995
19,300281,33201548.06,33201548.06,2018-09-30,三季度报告,27259974.63,2018,9,0.7685574724030677,False,0.11118734310992451,True,0.07395236239949055,True,前期平均,33272831.74,未知,33272831.74
20,300281,19863875.870000005,19863875.870000005,2018-12-31,年度报告,1863091.32,2018,12,0.5901932150901197,False,0.14665392364165722,True,0.0,True,前期平均,19863875.870000005,未知,19863875.870000005
21,300281,7397457.210000001,7397457.210000001,2019-03-31,一季度报告,4287520.409999998,2019,3,4.961766697657251,False,0.8234255664397035,True,2.876314250071177,False,前期平均,31162124.765,未知,31162124.765
22,300281,5502320.44,5502320.44,2019-06-30,半年度报告,-2865983.29,2019,6,0.7600161567911498,False,0.1752225741499635,True,8.851489154750944,False,前期平均,10401865.995000001,未知,10401865.995000001
23,300281,6091400.840000003,6091400.840000003,2019-09-30,三季度报告,-8392576.3,2019,9,0.6928464241615852,False,0.0924824494193987,True,9.132541994602178,False,前期平均,8177341.419999997,未知,8177341.419999997
24,300281,24590023.02000001,24590023.02000001,2019-12-31,年度报告,-27642535.510000005,2019,12,1.8295143544913823,False,0.40870505922331357,True,0.0,True,前期平均,24590023.02000001,未知,24590023.02000001
25,300281,7966202.670000001,7966202.670000001,2020-03-31,一季度报告,3592851.01,2020,3,6.59789753619947,False,0.0034288205520362483,True,2.984159237251361,False,前期平均,17571418.14,未知,17571418.14
