,SECURITYCODE_x,NETPROFIT_x,PARENTNETPROFIT_x,REPORTDATE_x,REPORTTIMETYPE_x,KCFJCXSYJLR,Year,Month,managesituationChangeRate,managesituationGreatChange,historyprofitextroplaterate,ifhistoryprofitextroplate,IfprofitdisStableChangeRage,IfprofitdisStable,predicttype,predict,analyst_prediction,adj_prediction
0,300257,356497106.73,350634315.83999985,2013-12-31,年度报告,346473959.89,2013,12,未知,未知,未知,未知,未知,未知,未知,未知,未知,未知
1,300257,93218883.29,91740271.28000002,2014-03-31,一季度报告,90891702.72,2014,3,未知,未知,未知,未知,未知,未知,未知,未知,未知,未知
2,300257,198317509.34000003,195307132.07,2014-06-30,半年度报告,194040325.81,2014,6,未知,未知,未知,未知,未知,未知,未知,未知,未知,未知
3,300257,286739226.64,282630845.35000014,2014-09-30,三季度报告,279747532.67,2014,9,未知,未知,未知,未知,未知,未知,未知,未知,未知,未知
4,300257,333015158.35,328014528.55,2014-12-31,年度报告,314305866.30000013,2014,12,0.0,True,未知,未知,未知,未知,未知,未知,未知,未知
5,300257,66848634.24000001,65770006.48,2015-03-31,一季度报告,65487410.96999999,2015,3,2.8243014092000283,False,未知,未知,未知,未知,未知,未知,477326667.0,未知
6,300257,141918954.95,140029389.77999997,2015-06-30,半年度报告,139322824.76000002,2015,6,0.7976078255340193,False,未知,未知,未知,未知,未知,未知,416565000.0,未知
7,300257,173448588.53000003,171090295.94999996,2015-09-30,三季度报告,168091845.60000002,2015,9,0.24327986410307506,True,未知,未知,未知,未知,未知,未知,213000000.0,未知
8,300257,178499280.87,175962281.14000002,2015-12-31,年度报告,171120867.70000002,2015,12,0.07051315170260325,True,未知,未知,未知,未知,未知,未知,207000000.0,未知
9,300257,18555270.84,17674089.769999996,2016-03-31,一季度报告,17401234.689999998,2016,3,4.332900376843959,False,未知,未知,未知,未知,未知,未知,221367500.0,未知
10,300257,45364345.83000001,44178198.08,2016-06-30,半年度报告,40657082.82,2016,6,1.511976690186303,False,未知,未知,未知,未知,未知,未知,166500000.0,未知
11,300257,77719046.45,75494949.06000002,2016-09-30,三季度报告,68094089.75000003,2016,9,1.055347407271288,False,未知,未知,未知,未知,未知,未知,149623333.0,未知
12,300257,100909796.61,99455722.56999998,2016-12-31,年度报告,82590755.25999999,2016,12,0.9971907169174244,False,0.48224479850466534,True,0.0,True,前期平均,99455722.56999998,149623333.0,149623333.0
13,300257,18917591.29,17981796.419999998,2017-03-31,一季度报告,17659140.999999996,2017,3,18.212713724527884,False,0.7681569486885763,True,0.08850633908892486,True,前期平均,182505606.57500008,351660000.0,351660000.0
14,300257,31658868.88,32193990.01999999,2017-06-30,半年度报告,31744159.49,2017,6,6.858530751571953,False,0.7333363669607512,True,0.17290756915253724,False,前期平均,108225781.73500004,,108225781.73500004
15,300257,65378098.71000002,64338103.88999999,2017-09-30,三季度报告,62318828.76,2017,9,3.5869979498442497,False,0.6622290122075941,True,0.08335773946819947,True,前期平均,83131781.75500003,181190000.0,181190000.0
16,300257,104285936.88000004,104356801.78,2017-12-31,年度报告,96219895.71999998,2017,12,2.532829504233405,False,0.6054469282866161,True,0.0,True,前期平均,104356801.78,181190000.0,181190000.0
17,300257,26366570.57,27080067.759999994,2018-03-31,一季度报告,25673528.69,2018,3,17.84474092208808,False,0.55698533287724,True,0.12372411656147247,False,前期平均,112491556.41,248850000.0,248850000.0
18,300257,51114211.6,53808184.73,2018-06-30,半年度报告,50012895.96000002,2018,6,10.260576241092794,False,0.6619146635268952,True,0.2687238407617437,False,前期平均,90674042.41999999,248850000.0,248850000.0
19,300257,87662617.62,90269012.15000002,2018-09-30,三季度报告,83531545.72999999,2018,9,4.452852159426156,False,0.4794066622858797,True,0.1704776714101467,False,前期平均,99031855.955,,99031855.955
20,300257,120592161.61999996,122781939.98,2018-12-31,年度报告,117983362.26,2018,12,2.4184581104182326,False,0.25352506210207304,True,0.0,True,前期平均,122781939.98,,122781939.98
21,300257,32293416.68000001,32554224.82,2019-03-31,一季度报告,31247155.64,2019,3,12.520799217461523,False,0.40723548036067797,True,0.020412415166165904,True,前期平均,104429362.46499997,未知,104429362.46499997
22,300257,53747686.6,54490787.78,2019-06-30,半年度报告,45002147.51,2019,6,5.974520306012114,False,0.3272417099818553,True,0.08544806392651433,True,前期平均,107695492.115,未知,107695492.115
23,300257,91079086.5,91443986.03000005,2019-09-30,三季度报告,79297284.59000002,2019,9,3.06669474867091,False,0.2252182602522577,True,0.09776221835141852,True,前期平均,115642852.26500002,125000000.0,115642852.26500002
24,300257,152960732.79,152522160.41999996,2019-12-31,年度报告,137007546.91,2019,12,1.9562212165444401,False,0.17538663761619458,True,0.0,True,前期平均,152522160.41999996,,152522160.41999996
25,300257,31970309.6,30171145.45000001,2020-03-31,一季度报告,23444955.6,2020,3,10.039312137906613,False,0.42625656978428667,True,0.026204609335994417,True,前期平均,115606439.595,252000000.0,252000000.0
