,SECURITYCODE_x,NETPROFIT_x,PARENTNETPROFIT_x,REPORTDATE_x,REPORTTIMETYPE_x,KCFJCXSYJLR,Year,Month,managesituationChangeRate,managesituationGreatChange,historyprofitextroplaterate,ifhistoryprofitextroplate,IfprofitdisStableChangeRage,IfprofitdisStable,predicttype,predict,analyst_prediction,adj_prediction
0,300288,55111117.55,56303639.10999999,2013-12-31,年度报告,48338447.88999999,2013,12,未知,未知,未知,未知,未知,未知,未知,未知,未知,未知
1,300288,11369420.85,12679432.4,2014-03-31,一季度报告,10605409.39,2014,3,未知,未知,未知,未知,未知,未知,未知,未知,未知,未知
2,300288,12559361.779999996,15253355.369999995,2014-06-30,半年度报告,11959275.13,2014,6,未知,未知,未知,未知,未知,未知,未知,未知,未知,未知
3,300288,24879316.419999994,29247097.39,2014-09-30,三季度报告,13037918.910000002,2014,9,未知,未知,未知,未知,未知,未知,未知,未知,未知,未知
4,300288,29721134.020000003,34749802.36000001,2014-12-31,年度报告,14091085.56,2014,12,0.0,True,未知,未知,未知,未知,未知,未知,未知,未知
5,300288,11934001.409999998,12861795.99,2015-03-31,一季度报告,12038223.22,2015,3,3.847310894468296,False,未知,未知,未知,未知,未知,未知,77000000.0,未知
6,300288,32903576.99000001,34903170.71,2015-06-30,半年度报告,27585581.989999995,2015,6,3.3880508034859727,False,未知,未知,未知,未知,未知,未知,,未知
7,300288,57906762.27000001,60676962.11000002,2015-09-30,三季度报告,45752805.35,2015,9,1.215137933038114,False,未知,未知,未知,未知,未知,未知,73983847.0,未知
8,300288,94385827.33,98398622.26,2015-12-31,年度报告,73105887.27999999,2015,12,0.8542737135438546,False,未知,未知,未知,未知,未知,未知,未知,未知
9,300288,13134633.97,14981674.96,2016-03-31,一季度报告,13787226.5,2016,3,3.6179915400227864,False,未知,未知,未知,未知,未知,未知,115000000.0,未知
10,300288,35838960.59,39133898.86,2016-06-30,半年度报告,30559388.58,2016,6,0.6749278525781334,False,未知,未知,未知,未知,未知,未知,,未知
11,300288,56313014.56999999,62305429.45,2016-09-30,三季度报告,49570308.71,2016,9,-0.04827838080403892,True,未知,未知,未知,未知,未知,未知,未知,未知
12,300288,73263246.92999999,85145779.32,2016-12-31,年度报告,57429051.82,2016,12,-0.41610812651654067,True,1.2252345206732322,True,0.0,True,比例外推,85145779.32,,85145779.32
13,300288,13569721.409999995,16063458.26,2017-03-31,一季度报告,14066002.829999998,2017,3,3.195862456150348,False,0.12727082086526134,True,0.3668408909022346,False,前期平均,48340128.37499999,未知,48340128.37499999
14,300288,43996384.08,48968125.68000001,2017-06-30,半年度报告,47220142.75999999,2017,6,0.537743189052682,False,0.5766231378623218,True,0.26265422862422927,False,前期平均,72794183.54,未知,72794183.54
15,300288,80345748.39,86294705.09,2017-09-30,三季度报告,77772699.03999999,2017,9,-0.021343148278911185,True,0.3604464775018321,True,0.17891050118575802,False,平均增速,104195996.43433577,未知,104195996.43433577
16,300288,87397865.07000001,97141642.48000003,2017-12-31,年度报告,86498388.23999998,2017,12,-0.24776583267383173,True,0.18064685708300915,True,0.0,True,比例外推,97141642.48000003,未知,97141642.48000003
17,300288,19984841.790000007,21472892.33,2018-03-31,一季度报告,20299681.77,2018,3,3.0613300660238107,False,0.0826055111740187,True,0.05095468548584803,True,前期平均,73827637.02,未知,73827637.02
18,300288,48015054.25999999,50134370.92,2018-06-30,半年度报告,45049662.52,2018,6,0.25262833986060607,True,0.28003374995572833,True,0.10778575862169004,False,平均增速,91374641.82216549,未知,91374641.82216549
19,300288,75402988.42999999,77745250.25999999,2018-09-30,三季度报告,68754279.58,2018,9,-0.3140754967831099,True,0.40686228975125704,True,0.1701981757589366,False,平均增速,86601433.7984439,未知,86601433.7984439
20,300288,100663107.01999998,104398064.59999998,2018-12-31,年度报告,91330554.29999998,2018,12,-0.36942261111458985,True,0.042628662946963686,True,0.0,True,比例外推,104398064.59999998,未知,104398064.59999998
21,300288,18838043.56,18952556.070000004,2019-03-31,一季度报告,18189142.46,2019,3,1.7576459263028261,False,0.4967477406301661,True,0.045702856170780015,True,前期平均,76989661.435,未知,76989661.435
22,300288,44004226.45,44054404.71,2019-06-30,半年度报告,41165592.12000001,2019,6,0.14778830096858891,True,0.20285205652886146,True,0.030504334752488094,True,比例外推,81484527.44066337,未知,81484527.44066337
23,300288,66051150.37,66443492.32999999,2019-09-30,三季度报告,62449553.03000001,2019,9,-0.26911228987744773,True,0.10352218616336294,True,0.08555549401111118,True,比例外推,78483857.80258833,未知,78483857.80258833
24,300288,60006630.8,65909367.29,2019-12-31,年度报告,55645052.24,2019,12,-0.452519208064476,True,0.2531110455652763,True,0.0,True,比例外推,65909367.29,未知,65909367.29
25,300288,4825018.19,6687713.159999997,2020-03-31,一季度报告,5167804.35,2020,3,1.925522354509302,False,0.12283050431721888,True,0.08962471159312627,True,前期平均,78419342.13,未知,78419342.13
