,SECURITYCODE_x,NETPROFIT_x,PARENTNETPROFIT_x,REPORTDATE_x,REPORTTIMETYPE_x,KCFJCXSYJLR,Year,Month,managesituationChangeRate,managesituationGreatChange,historyprofitextroplaterate,ifhistoryprofitextroplate,IfprofitdisStableChangeRage,IfprofitdisStable,predicttype,predict,analyst_prediction,adj_prediction
0,300215,171692009.06,171103022.90000004,2013-12-31,年度报告,166056917.92000002,2013,12,未知,未知,未知,未知,未知,未知,未知,未知,未知,未知
1,300215,11046616.329999998,11333997.73,2014-03-31,一季度报告,10037277.159999998,2014,3,未知,未知,未知,未知,未知,未知,未知,未知,未知,未知
2,300215,37109656.51000001,37627107.07,2014-06-30,半年度报告,36100146.6,2014,6,未知,未知,未知,未知,未知,未知,未知,未知,未知,未知
3,300215,59948103.21999999,59949007.82000001,2014-09-30,三季度报告,56458701.94,2014,9,未知,未知,未知,未知,未知,未知,未知,未知,未知,未知
4,300215,77589706.03,77605052.58,2014-12-31,年度报告,68449948.64,2014,12,0.0,True,未知,未知,未知,未知,未知,未知,未知,未知
5,300215,-9015660.54,-9016128.750000002,2015-03-31,一季度报告,-12145394.06,2015,3,14.542497714320458,False,未知,未知,未知,未知,未知,未知,未知,未知
6,300215,-21230423.52,-21494372.17,2015-06-30,半年度报告,-25893594.81999999,2015,6,3.6266127258206717,False,未知,未知,未知,未知,未知,未知,-33400000.0,未知
7,300215,7697480.06,6833252.01,2015-09-30,三季度报告,602581.4899999999,2015,9,1.8640106998868282,False,未知,未知,未知,未知,未知,未知,36400000.0,未知
8,300215,26758316.83,26205273.48,2015-12-31,年度报告,18602244.91,2015,12,1.2128194298560098,False,未知,未知,未知,未知,未知,未知,未知,未知
9,300215,2434177.8200000003,2591382.34,2016-03-31,一季度报告,2001629.52,2016,3,-20.043752623365744,False,未知,未知,未知,未知,未知,未知,118780000.0,未知
10,300215,14999398.41,14720682.8,2016-06-30,半年度报告,11117118.919999998,2016,6,-9.087074141420615,False,未知,未知,未知,未知,未知,未知,118780000.0,未知
11,300215,49774961.64999999,49520407.42,2016-09-30,三季度报告,45306484.92,2016,9,21.304963146601512,False,未知,未知,未知,未知,未知,未知,80273333.0,未知
12,300215,71240737.99,70670723.84,2016-12-31,年度报告,65695177.13999999,2016,12,5.416397942770006,False,0.7853166501174044,True,0.0,True,前期平均,70670723.84,80273333.0,80273333.0
13,300215,6991394.829999999,6996463.4300000025,2017-03-31,一季度报告,5710889.96,2017,3,69.53388115252812,False,1.3970761273932029,True,0.4943013084446992,False,前期平均,51576618.655,157000000.0,157000000.0
14,300215,51199254.19000001,51043086.59999999,2017-06-30,半年度报告,48421141.87000002,2017,6,10.44659301439277,False,0.8891842470534829,True,1.1601796850134642,False,前期平均,89465907.48499998,95916125.0,89465907.48499998
15,300215,89460667.91999997,89272243.75,2017-09-30,三季度报告,84956976.02000001,2017,9,2.449364969224442,False,0.4716396617934522,True,0.483226153146471,False,前期平均,104267698.81,,104267698.81
16,300215,126407441.67999998,125808714.47,2017-12-31,年度报告,118994690.26000002,2017,12,1.4100256946257388,False,0.3654449032653189,True,0.0,True,前期平均,125808714.47,,125808714.47
17,300215,10351141.590000002,10359629.150000002,2018-03-31,一季度报告,6175553.599999999,2018,3,23.55761879207157,False,-3.1245652772905856,True,0.46142000035097386,False,前期平均,57580222.44499999,未知,57580222.44499999
18,300215,52401794.15,52249358.9,2018-06-30,半年度报告,46539811.56,2018,6,2.3534083997171593,False,-17.433653623970073,True,1.1200209229684934,False,前期平均,101786307.875,未知,101786307.875
19,300215,92103342.15,91830741.79,2018-09-30,三季度报告,85060281.35999998,2018,9,0.9191898859232221,False,2.1131674680330885,False,0.4462723941447532,False,去年同期,125868456.03000002,未知,125868456.03000002
20,300215,128457177.94,127936069.79,2018-12-31,年度报告,107553629.49,2018,12,0.35824289122659214,True,1.579768588833416,True,0.0,True,比例外推,127936069.79,未知,127936069.79
21,300215,16100513.980000002,16104057.409999995,2019-03-31,一季度报告,14168529.7,2019,3,15.586770412441046,False,1.196395269416337,True,0.014824766693865506,True,前期平均,104592731.37,未知,104592731.37
22,300215,67907595.86,67833936.08,2019-06-30,半年度报告,62414552.52,2019,6,2.276452874276252,False,0.5831679978936608,True,0.16706186839056558,False,前期平均,130409739.38499999,175675000.0,175675000.0
23,300215,117310696.19,116949930.56999998,2019-09-30,三季度报告,109453872.44,2019,9,0.8641235491800228,False,0.3229852507499964,True,0.059374900005548015,True,前期平均,144163133.79999998,166783332.99999997,166783332.99999997
24,300215,167358617.70000002,166542721.85,2019-12-31,年度报告,146914712.77999997,2019,12,0.3365699901969994,True,0.29985692916045487,True,0.0,True,比例外推,166542721.85,未知,166542721.85
25,300215,-43257855.43,-43329272.28,2020-03-31,一季度报告,-47069527.78,2020,3,9.663759509371886,False,0.8567657682912336,True,0.02915661316595629,True,盈利变化,84891978.54333332,171725000.0,171725000.0
