,SECURITYCODE_x,NETPROFIT_x,PARENTNETPROFIT_x,REPORTDATE_x,REPORTTIMETYPE_x,KCFJCXSYJLR,Year,Month,managesituationChangeRate,managesituationGreatChange,historyprofitextroplaterate,ifhistoryprofitextroplate,IfprofitdisStableChangeRage,IfprofitdisStable,predicttype,predict,analyst_prediction,adj_prediction
0,300221,12041005.870000005,12041005.870000005,2013-12-31,年度报告,6654879.409999997,2013,12,未知,未知,未知,未知,未知,未知,未知,未知,未知,未知
1,300221,4790580.860000001,4790580.860000001,2014-03-31,一季度报告,1949535.73,2014,3,未知,未知,未知,未知,未知,未知,未知,未知,未知,未知
2,300221,12193603.91,12328512.12,2014-06-30,半年度报告,7821727.81,2014,6,未知,未知,未知,未知,未知,未知,未知,未知,未知,未知
3,300221,19172500.72,19527901.14,2014-09-30,三季度报告,12668885.45,2014,9,未知,未知,未知,未知,未知,未知,未知,未知,未知,未知
4,300221,23325456.77,23758661.439999994,2014-12-31,年度报告,5863689.630000001,2014,12,0.0,True,未知,未知,未知,未知,未知,未知,未知,未知
5,300221,8235146.79,8337074.189999999,2015-03-31,一季度报告,3278818.84,2015,3,1.513475134203246,False,未知,未知,未知,未知,未知,未知,136600000.0,未知
6,300221,25441764.440000005,25716916.98,2015-06-30,半年度报告,18306879.71,2015,6,-0.012514597089286246,True,未知,未知,未知,未知,未知,未知,,未知
7,300221,33797715.779999994,34002916.05,2015-09-30,三季度报告,24414109.56,2015,9,-0.37196477153137875,True,未知,未知,未知,未知,未知,未知,未知,未知
8,300221,39591796.51,40191874.55,2015-12-31,年度报告,29524946.74,2015,12,-0.48378263333790206,True,未知,未知,未知,未知,未知,未知,122350000.0,未知
9,300221,42696475.66,42319069.40000001,2016-03-31,一季度报告,38408665.93,2016,3,0.46214829887689285,True,未知,未知,未知,未知,未知,未知,192665000.0,未知
10,300221,100988539.74,100147958.80999996,2016-06-30,半年度报告,89815951.28,2016,6,-0.526722845878216,True,未知,未知,未知,未知,未知,未知,285935710.0,未知
11,300221,149155895.27000004,148262469.77,2016-09-30,三季度报告,129859636.03000002,2016,9,-0.6437331460984311,True,未知,未知,未知,未知,未知,未知,366300000.0,未知
12,300221,154421968.22000003,152992992.94000003,2016-12-31,年度报告,126167045.64000002,2016,12,-0.6958711922314836,True,1.2389458008854457,True,0.0,True,比例外推,152992992.94000003,319042500.0,319042500.0
13,300221,43857951.84,43227157.84,2017-03-31,一季度报告,36247201.99,2017,3,-0.717985953550715,True,5.555714476342516,False,0.13826601576902411,False,未知,未知,308530876.0,未知
14,300221,103444793.08999996,101743846.57,2017-06-30,半年度报告,91727685.62,2017,6,-0.8807685911589556,True,4.366682680016867,False,0.4453076136913672,False,未知,未知,162000000.0,未知
15,300221,155320723.71,153082482.71000004,2017-09-30,三季度报告,136261016.60000002,2017,9,-0.9192723435556903,True,4.631689093436122,False,0.8216552797749019,False,未知,未知,204000000.0,未知
16,300221,221151941.73,218558175.14,2017-12-31,年度报告,197912100.41000003,2017,12,-0.9220253050210734,True,3.908732030394828,False,0.0,True,比例外推,218558175.14,204000000.0,218558175.14
17,300221,49199740.22000001,50154365.72,2018-03-31,一季度报告,43543913.90000001,2018,3,-0.72545444178681,True,0.7222287345373977,True,0.10488456584257697,False,平均增速,383365724.18550277,217000000.0,217000000.0
18,300221,38821338.08000001,41171434.06000001,2018-06-30,半年度报告,36205805.84,2018,6,-0.8835996910978015,True,0.6363923785665284,True,0.13499176251244394,False,平均增速,217206770.90821332,217000000.0,217206770.90821332
19,300221,28436202.039999995,30589752.80000001,2018-09-30,三季度报告,20319761.73,2018,9,-0.9224765016387522,True,0.697924657716123,True,0.18104822538409615,False,平均增速,125226235.65325831,,125226235.65325831
20,300221,-813369717.1700003,-805175824.8600003,2018-12-31,年度报告,-1336470265.1,2018,12,-0.9455532437300477,True,1.2797551713690718,True,0.0,True,比例外推,-805175824.8600003,351390000.0,351390000.0
21,300221,190788897.15,192190111.22,2019-03-31,一季度报告,3478663.3000000007,2019,3,-0.755262816101105,True,0.13685091892035248,True,0.1842458769763242,False,平均增速,1925632517.1923065,未知,1925632517.1923065
22,300221,60999896.76999999,62483417.21,2019-06-30,半年度报告,-17380988.33,2019,6,-0.6898353723617967,True,0.6202053985757542,True,0.4098464526653158,False,平均增速,2171022981.234387,未知,2171022981.234387
23,300221,36805998.59,37979805.78,2019-09-30,三季度报告,-29965748.25,2019,9,-0.576560686512832,True,0.8132125735285581,True,0.5827227242997187,False,平均增速,2796881943.822437,未知,2796881943.822437
24,300221,10350701.179999998,10083553.21,2019-12-31,年度报告,-107400589.66000004,2019,12,-1.0148038531750296,False,5.331343022619882,False,0.0,True,前期平均,10083553.21,未知,10083553.21
25,300221,-12781151.169999994,-10880557.65,2020-03-31,一季度报告,-1641389.4799999997,2020,3,-0.9368883302442215,True,3.1004433470580097,False,0.14375561939288917,False,未知,未知,未知,未知
