,SECURITYCODE_x,NETPROFIT_x,PARENTNETPROFIT_x,REPORTDATE_x,REPORTTIMETYPE_x,KCFJCXSYJLR,Year,Month,managesituationChangeRate,managesituationGreatChange,historyprofitextroplaterate,ifhistoryprofitextroplate,IfprofitdisStableChangeRage,IfprofitdisStable,predicttype,predict,analyst_prediction,adj_prediction
0,300266,34943030.129999995,28405637.86,2013-12-31,年度报告,19184534.71,2013,12,未知,未知,未知,未知,未知,未知,未知,未知,未知,未知
1,300266,7378191.01,7670515.6499999985,2014-03-31,一季度报告,5933065.6499999985,2014,3,未知,未知,未知,未知,未知,未知,未知,未知,未知,未知
2,300266,22448095.98,20967229.07,2014-06-30,半年度报告,17921802.37,2014,6,未知,未知,未知,未知,未知,未知,未知,未知,未知,未知
3,300266,49882752.45,42893177.12,2014-09-30,三季度报告,38808222.38,2014,9,未知,未知,未知,未知,未知,未知,未知,未知,未知,未知
4,300266,79862657.16999999,63542498.71,2014-12-31,年度报告,41997583.05,2014,12,0.0,True,未知,未知,未知,未知,未知,未知,未知,未知
5,300266,11781741.96,11371886.7,2015-03-31,一季度报告,11238903.31,2015,3,3.7359888192973196,False,未知,未知,未知,未知,未知,未知,187912500.0,未知
6,300266,36313739.15,35304705.489999995,2015-06-30,半年度报告,33524976.34,2015,6,0.5566144300671327,False,未知,未知,未知,未知,未知,未知,168500000.0,未知
7,300266,63864675.59000001,62279485.25000001,2015-09-30,三季度报告,59298795.8,2015,9,-0.29949675160717815,True,未知,未知,未知,未知,未知,未知,160985000.0,未知
8,300266,103495376.68000002,101864963.45999998,2015-12-31,年度报告,93126503.22,2015,12,-0.562460962754866,True,未知,未知,未知,未知,未知,未知,160985000.0,未知
9,300266,40693932.31,40036037.97000001,2016-03-31,一季度报告,39082391.48,2016,3,1.9658627941975393,False,未知,未知,未知,未知,未知,未知,443666667.0,未知
10,300266,121486437.1,120191664.30000004,2016-06-30,半年度报告,114328302.24,2016,6,-0.03774629250758396,True,未知,未知,未知,未知,未知,未知,387123333.0,未知
11,300266,153781270.20999998,152361136.87,2016-09-30,三季度报告,144665614.13,2016,9,-0.4528582536874045,True,未知,未知,未知,未知,未知,未知,349500000.0,未知
12,300266,186974968.37,185781672.68,2016-12-31,年度报告,179606333.9,2016,12,-0.6623711005174537,True,0.8029660222242324,True,0.0,True,比例外推,185781672.68,419278042.0,419278042.0
13,300266,101637237.55,100695767.41,2017-03-31,一季度报告,99387877.77,2017,3,-0.14132087644395078,True,3.2478157281361306,False,0.05774824439134599,True,比例外推,623057041.8248754,335000000.0,335000000.0
14,300266,260901225.92000005,259772175.78,2017-06-30,半年度报告,186657509.61,2017,6,-0.7123709365084343,True,3.1348755303925784,False,0.16212356910636377,False,未知,未知,476240000.0,未知
15,300266,475427655.8400001,445481814.38,2017-09-30,三季度报告,369274163.47,2017,9,-0.7727744732353775,True,1.703907646262064,True,0.15200242211675574,False,平均增速,526293258.7439492,569000000.0,526293258.7439492
16,300266,360876749.28,361615726.22,2017-12-31,年度报告,271008074.83,2017,12,-0.8131138599213339,True,1.03945215209887,True,0.0,True,比例外推,361615726.22,351880000.0,361615726.22
17,300266,36746520.7,31333223.78,2018-03-31,一季度报告,30606350.59,2018,3,-0.6561985452151833,True,2.8736896271995245,False,0.1317278199421735,False,未知,未知,未知,未知
18,300266,137900845.26,127163335.95,2018-06-30,半年度报告,121599803.79,2018,6,-0.866067972633005,True,2.3067292080416806,False,0.20177136524461325,False,未知,未知,未知,未知
19,300266,141443982.17,129620876.02,2018-09-30,三季度报告,121352394.99,2018,9,-0.9265018984470695,True,3.368817016944408,False,0.4276582136293243,False,未知,未知,未知,未知
20,300266,-1271619543.35,-1268399416.73,2018-12-31,年度报告,-1295516434.4400005,2018,12,-0.9031718441276245,True,1.4847751615944174,True,0.0,True,比例外推,-1268399416.73,,-1268399416.73
21,300266,-42649992.60000001,-42882391.05,2019-03-31,一季度报告,-39726618.27,2019,3,-0.049079219900130776,True,0.4836475982577159,True,0.21052798592446184,False,平均增速,1902351696.908099,未知,1902351696.908099
22,300266,21963881.310000006,25782832.57,2019-06-30,半年度报告,7247513.7200000025,2019,6,-0.7466075710840063,True,0.27873800022263084,True,0.5043420092254642,False,平均增速,1142561781.891805,未知,1142561781.891805
23,300266,58184426.62000001,62097465.78,2019-09-30,三季度报告,35488892.18,2019,9,-0.7529549890075751,True,0.5504069433409146,True,0.785132076107094,False,平均增速,1013727045.8004017,97000000.0,97000000.0
24,300266,34499121.76000001,35442382.48,2019-12-31,年度报告,-23327987.680000003,2019,12,-1.0274791546832829,False,5.642203364094901,False,0.0,True,前期平均,35442382.48,未知,35442382.48
25,300266,-37276805.55,-37460132.17999999,2020-03-31,一季度报告,-39338810.04,2020,3,-1.819297448834727,False,1.6164017098444428,True,1.020936606694891,False,前期平均,-614711426.1650002,未知,-614711426.1650002
