,SECURITYCODE_x,NETPROFIT_x,PARENTNETPROFIT_x,REPORTDATE_x,REPORTTIMETYPE_x,KCFJCXSYJLR,Year,Month,managesituationChangeRate,managesituationGreatChange,historyprofitextroplaterate,ifhistoryprofitextroplate,IfprofitdisStableChangeRage,IfprofitdisStable,predicttype,predict,analyst_prediction,adj_prediction
0,300203,159207156.86,159152156.02,2013-12-31,年度报告,94744091.67000005,2013,12,未知,未知,未知,未知,未知,未知,未知,未知,未知,未知
1,300203,9830063.91,10449103.169999998,2014-03-31,一季度报告,4767826.819999998,2014,3,未知,未知,未知,未知,未知,未知,未知,未知,未知,未知
2,300203,60057026.26999999,58939607.39,2014-06-30,半年度报告,47128548.26,2014,6,未知,未知,未知,未知,未知,未知,未知,未知,未知,未知
3,300203,110815684.71999998,109971385.43000002,2014-09-30,三季度报告,,2014,9,未知,未知,未知,未知,未知,未知,未知,未知,未知,未知
4,300203,196628956.36999995,192599084.56,2014-12-31,年度报告,152058353.39,2014,12,0.0,True,未知,未知,未知,未知,未知,未知,未知,未知
5,300203,3325251.51,5014578.880000001,2015-03-31,一季度报告,-7657447.500000003,2015,3,15.195943212336655,False,未知,未知,未知,未知,未知,未知,290251109.0,未知
6,300203,81646927.5,79721515.69,2015-06-30,半年度报告,58117882.44000001,2015,6,1.650933067252583,False,未知,未知,未知,未知,未知,未知,290815494.0,未知
7,300203,158022404.27999994,155097243.76999998,2015-09-30,三季度报告,123067878.51000004,2015,9,0.4366843219195157,True,未知,未知,未知,未知,未知,未知,293150909.0,未知
8,300203,269565360.11,247041019.73,2015-12-31,年度报告,259894214.83000007,2015,12,-0.19031682922418972,True,未知,未知,未知,未知,未知,未知,294696364.0,未知
9,300203,7429421.6800000025,10072765.670000002,2016-03-31,一季度报告,3474982.92,2016,3,46.87823007709875,False,未知,未知,未知,未知,未知,未知,412000977.0,未知
10,300203,84713161.56,85176556.21999998,2016-06-30,半年度报告,67819462.85,2016,6,0.9499467001988533,False,未知,未知,未知,未知,未知,未知,383024201.00000006,未知
11,300203,260596855.56,251945383.96,2016-09-30,三季度报告,219996326.13,2016,9,0.007497370929129829,True,未知,未知,未知,未知,未知,未知,424778367.0,未知
12,300203,449826845.98,402333150.09,2016-12-31,年度报告,307083124.24000007,2016,12,-0.40939311788787236,True,0.5151096254008509,True,0.0,True,比例外推,402333150.09,429434479.0,402333150.09
13,300203,14440989.790000005,14857635.89,2017-03-31,一季度报告,4614338.58,2017,3,20.42927992478682,False,0.1294935078037076,True,0.033866253602791545,True,前期平均,222278730.34000003,558990833.0,558990833.0
14,300203,111017056.42,101491361.08999996,2017-06-30,半年度报告,79182571.91000001,2017,6,0.8793674315559332,False,0.19563582110768954,True,0.058467566529452064,True,前期平均,254844429.84999996,546792000.0,546792000.0
15,300203,339018924.10000014,322026100.99,2017-09-30,三季度报告,282287900.89,2017,9,-0.38906723752334743,True,0.9386899864475682,True,,False,平均增速,440835144.4998718,554228571.0,554228571.0
16,300203,501811434.03,448907030.13,2017-12-31,年度报告,309257520.16999984,2017,12,-0.6460701305784702,True,0.92978262530705,True,0.0,True,比例外推,448907030.13,554228571.0,554228571.0
17,300203,40609903.70999999,35859358.1,2018-03-31,一季度报告,31021955.79,2018,3,10.024670689141175,False,1.6855283344969785,True,0.028388072056869985,True,前期平均,321439259.9250001,577691250.0,577691250.0
18,300203,189933913.65000004,168898739.82000002,2018-06-30,半年度报告,160016014.70000002,2018,6,0.4340783479043716,True,0.334659737768717,True,0.022536660838012784,True,比例外推,694163726.6712149,590654473.0,590654473.0
19,300203,449310440.74,419724112.74,2018-09-30,三季度报告,416448475.05,2018,9,-0.5303885844052799,True,0.6197005566804368,True,0.22737915876771553,False,平均增速,454374500.9613602,605899412.0,605899412.0
20,300203,668196078.4100001,601205846.3000003,2018-12-31,年度报告,546199393.06,2018,12,-0.6827350951702665,True,0.3950983337932369,True,0.0,True,比例外推,601205846.3000003,611855625.0,601205846.3000003
21,300203,44280902.98,45547566.09,2019-03-31,一季度报告,40418276.67999999,2019,3,2.9204022249576527,False,2.7136844696045386,False,0.029118418951102013,True,去年同期,560725003.3599999,773159548.0000001,773159548.0000001
22,300203,186528451.97,181308642.17,2019-06-30,半年度报告,153043757.14,2019,6,-0.16177604199017154,True,0.9407725144352288,True,0.036344625488060334,True,比例外推,624652317.2304616,713184000.0,713184000.0
23,300203,344765888.15,314957491.09,2019-09-30,三季度报告,269172536.64000005,2019,9,-0.6456633489357806,True,0.49866116263575433,True,0.11557685764053316,False,平均增速,446847663.64818394,603957500.0,603957500.0
24,300203,113239861.56,39813392.45,2019-12-31,年度报告,-21263419.000000004,2019,12,-0.7617358706461732,True,0.4043068515549386,True,0.0,True,比例外推,39813392.45,517943333.0,517943333.0
25,300203,-31875034.76,-35767712.8,2020-03-31,一季度报告,-41459528.59,2020,3,2.5953909280465184,False,0.6087260411132108,True,1.2911297125012395,False,盈利变化,-69357014.57666665,556500000.0,556500000.0
