,SECURITYCODE_x,NETPROFIT_x,PARENTNETPROFIT_x,REPORTDATE_x,REPORTTIMETYPE_x,KCFJCXSYJLR,Year,Month,managesituationChangeRate,managesituationGreatChange,historyprofitextroplaterate,ifhistoryprofitextroplate,IfprofitdisStableChangeRage,IfprofitdisStable,predicttype,predict,analyst_prediction,adj_prediction
0,300213,51387552.85,42560666.53000001,2013-12-31,年度报告,37966791.31,2013,12,未知,未知,未知,未知,未知,未知,未知,未知,未知,未知
1,300213,4580579.24,3952917.19,2014-03-31,一季度报告,3032712.5800000005,2014,3,未知,未知,未知,未知,未知,未知,未知,未知,未知,未知
2,300213,27598173.2,23126784.89,2014-06-30,半年度报告,21981536.73,2014,6,未知,未知,未知,未知,未知,未知,未知,未知,未知,未知
3,300213,57604515.64000002,50194268.83000001,2014-09-30,三季度报告,48621999.72000001,2014,9,未知,未知,未知,未知,未知,未知,未知,未知,未知,未知
4,300213,83404557.96,69587409.83,2014-12-31,年度报告,68014994.18,2014,12,0.0,True,未知,未知,未知,未知,未知,未知,未知,未知
5,300213,4941114.129999999,4198454.02,2015-03-31,一季度报告,4172861.93,2015,3,10.218570874455606,False,未知,未知,未知,未知,未知,未知,107295000.0,未知
6,300213,34677790.879999995,31105550.35,2015-06-30,半年度报告,31083781.099999994,2015,6,0.8619910991065163,False,未知,未知,未知,未知,未知,未知,126531893.0,未知
7,300213,65212146.11000002,57449195.15000001,2015-09-30,三季度报告,57365170.64000001,2015,9,-0.10792492083177976,True,未知,未知,未知,未知,未知,未知,98711136.0,未知
8,300213,91501027.02,82928840.49,2015-12-31,年度报告,82221825.05,2015,12,-0.3838759642531171,True,未知,未知,未知,未知,未知,未知,131000000.0,未知
9,300213,5347514.72,5220264.750000001,2016-03-31,一季度报告,1747721.62,2016,3,9.399993098317688,False,未知,未知,未知,未知,未知,未知,127100000.0,未知
10,300213,42421324.51,42582572.95,2016-06-30,半年度报告,39426931.07,2016,6,0.4818577408181201,True,未知,未知,未知,未知,未知,未知,115245808.0,未知
11,300213,73130907.84000002,73291865.35000001,2016-09-30,三季度报告,66688505.99,2016,9,-0.21199414656098972,True,未知,未知,未知,未知,未知,未知,114295620.99999999,未知
12,300213,103122427.83999996,103206747.89,2016-12-31,年度报告,95051319.13,2016,12,-0.4383937041628191,True,0.3576614606025101,True,0.0,True,比例外推,103206747.89,,103206747.89
13,300213,5798742.1099999985,5938629.91,2017-03-31,一季度报告,831824.06,2017,3,8.609614099388585,False,0.12322766806341721,True,0.019521959071799624,True,前期平均,77454252.27,151350000.0,151350000.0
14,300213,32751215.03,32965887.86000001,2017-06-30,半年度报告,18135514.08,2017,6,0.21136134817964938,True,0.362365886636628,True,0.048823602296034496,True,比例外推,63580414.843382746,148000000.0,148000000.0
15,300213,57695408.51999998,58343786.47,2017-09-30,三季度报告,43648677.46,2017,9,-0.29732100465061057,True,0.1908955478510226,True,0.010150136551791533,True,比例外推,76632581.88435635,,76632581.88435635
16,300213,119840954.78,116210791.97,2017-12-31,年度报告,95570011.84,2017,12,-0.5016840281366283,True,0.17917821608488657,True,0.0,True,比例外推,116210791.97,,116210791.97
17,300213,13338640.540000005,12571295.62,2018-03-31,一季度报告,8281032.839999999,2018,3,7.8618448406908055,False,0.12721378028910038,True,0.024803860527964783,True,前期平均,98247575.935,175600000.0,175600000.0
18,300213,50450274.11,49871640.53,2018-06-30,半年度报告,45343475.85,2018,6,0.5690273720510576,False,0.1504126898387749,True,0.13777365186406634,False,前期平均,103252856.535,159720000.0,159720000.0
19,300213,67575510.72999999,67402130.22,2018-09-30,三季度报告,61079888.09,2018,9,-0.10933028869729514,True,0.16590812660746584,True,0.1619514548146841,False,平均增速,131787144.77763227,174110000.0,174110000.0
20,300213,131330426.22000004,130105818.77,2018-12-31,年度报告,117047695.66,2018,12,-0.5712020740794702,True,0.2315160561321466,True,0.0,True,比例外推,130105818.77,未知,130105818.77
21,300213,6737320.99,7207296.689999999,2019-03-31,一季度报告,1609176.29,2019,3,2.852532999588576,False,1.3933847467248799,True,0.038135826227091114,True,前期平均,101228189.335,未知,101228189.335
22,300213,58159453.92999999,58215503.57999999,2019-06-30,半年度报告,50150803.50000002,2019,6,0.01857826853341555,True,0.34225275396356536,True,0.14088876529788355,False,平均增速,137847162.2997536,未知,137847162.2997536
23,300213,85956972.55,86126966.08999999,2019-09-30,三季度报告,78216806.64999999,2019,9,-0.23955361498752806,True,0.03305684376298967,True,0.1415511818972136,False,平均增速,153166895.3406237,未知,153166895.3406237
24,300213,151825143.19000003,153131877.92999998,2019-12-31,年度报告,144163426.69,2019,12,-0.6087155556480308,True,0.1780447953090897,True,0.0,True,比例外推,153131877.92999998,,153131877.92999998
25,300213,-24769633.31,-24750119.79,2020-03-31,一季度报告,-23305687.18,2020,3,6.627297693886483,False,0.2958994327262407,True,0.040544149429971255,True,盈利变化,119912059.96999998,未知,119912059.96999998
