,SECURITYCODE_x,NETPROFIT_x,PARENTNETPROFIT_x,REPORTDATE_x,REPORTTIMETYPE_x,KCFJCXSYJLR,Year,Month,managesituationChangeRate,managesituationGreatChange,historyprofitextroplaterate,ifhistoryprofitextroplate,IfprofitdisStableChangeRage,IfprofitdisStable,predicttype,predict,analyst_prediction,adj_prediction
0,300217,91431689.72,90708255.81,2013-12-31,年度报告,91766879.31000002,2013,12,未知,未知,未知,未知,未知,未知,未知,未知,未知,未知
1,300217,26862289.39,25828351.93,2014-03-31,一季度报告,25883589.96,2014,3,未知,未知,未知,未知,未知,未知,未知,未知,未知,未知
2,300217,46790957.95000001,45776020.58,2014-06-30,半年度报告,46293955.19000001,2014,6,未知,未知,未知,未知,未知,未知,未知,未知,未知,未知
3,300217,74315223.87,72033100.44,2014-09-30,三季度报告,71478652.08999999,2014,9,未知,未知,未知,未知,未知,未知,未知,未知,未知,未知
4,300217,105668009.17,102671090.75,2014-12-31,年度报告,101726757.69,2014,12,0.0,True,未知,未知,未知,未知,未知,未知,未知,未知
5,300217,21400875.19,20943490.800000004,2015-03-31,一季度报告,19245410.74,2015,3,2.4037191838919427,False,未知,未知,未知,未知,未知,未知,159800000.0,未知
6,300217,41539401.38,41582844.55,2015-06-30,半年度报告,38968571.73,2015,6,0.954046117579005,False,未知,未知,未知,未知,未知,未知,130500000.0,未知
7,300217,67480597.61,66448699.36999999,2015-09-30,三季度报告,62841514.8,2015,9,0.230322469053473,True,未知,未知,未知,未知,未知,未知,112000000.0,未知
8,300217,79722715.11000001,75308398.48,2015-12-31,年度报告,66403896.06,2015,12,-0.1347268635211669,True,未知,未知,未知,未知,未知,未知,109666667.0,未知
9,300217,10476109.27,10506717.819999997,2016-03-31,一季度报告,10301633.22,2016,3,3.2723341409291216,False,未知,未知,未知,未知,未知,未知,94000000.0,未知
10,300217,24105798.58,24646934.71,2016-06-30,半年度报告,23858509.05,2016,6,1.2010834697300588,False,未知,未知,未知,未知,未知,未知,110000000.0,未知
11,300217,40999796.06,42037719.03,2016-09-30,三季度报告,39801223.2,2016,9,0.3549330171677476,True,未知,未知,未知,未知,未知,未知,,未知
12,300217,45927843.92,45860878.39999999,2016-12-31,年度报告,32604666.35,2016,12,0.14687124734580534,True,0.19104173614701742,True,0.0,True,比例外推,45860878.39999999,142000000.0,142000000.0
13,300217,14309255.12,11454306.01,2017-03-31,一季度报告,7316984.160000001,2017,3,7.727638034649862,False,0.5658755756624694,True,0.03229823851599761,True,前期平均,72955132.535,129500000.0,129500000.0
14,300217,47306836.34,37754632.52,2017-06-30,半年度报告,25554472.0,2017,6,2.792933447799513,False,0.45418995772582926,True,0.14052656022371146,False,前期平均,79188695.935,121000000.0,121000000.0
15,300217,77254821.72999999,62963400.77,2017-09-30,三季度报告,47824863.59,2017,9,1.2300523052894423,False,0.42170656889514996,True,0.2641457134358781,False,前期平均,79868644.20000002,,79868644.20000002
16,300217,103231836.36,83357516.03,2017-12-31,年度报告,62619986.88000002,2017,12,0.9907681684178654,False,0.5045292141948365,True,0.0,True,前期平均,83357516.03,未知,83357516.03
17,300217,26693904.41,21856285.22,2018-03-31,一季度报告,16441091.47,2018,3,5.389688977744636,False,0.10222027821009273,True,0.12402815426539955,False,前期平均,56587044.445,未知,56587044.445
18,300217,92022736.68,80540019.69999999,2018-06-30,半年度报告,71900347.89999999,2018,6,0.932737354552084,False,0.441288513671244,True,0.16747226441372726,False,前期平均,98630760.51499999,144000000.0,144000000.0
19,300217,149910796.0,132532190.5,2018-09-30,三季度报告,123312067.39999998,2018,9,0.1835078726807129,True,0.42430939115156674,True,0.24378630884527674,False,平均增速,160526070.1565566,184000000.0,184000000.0
20,300217,160975770.05,145172981.91000003,2018-12-31,年度报告,123831043.06,2018,12,-0.11430724334738553,True,0.6431576135742082,True,0.0,True,比例外推,145172981.91000003,未知,145172981.91000003
21,300217,33829694.79,30327680.300000004,2019-03-31,一季度报告,26949701.33,2019,3,2.425189822952543,False,1.1540054033476326,True,0.12743126935727425,False,前期平均,69130698.22500002,190750000.0,190750000.0
22,300217,64030329.47,62077195.45999999,2019-06-30,半年度报告,50832924.96999999,2019,6,-0.006422836152496919,True,1.5772116316136064,True,0.16540260202517826,False,平均增速,131042023.42732616,,131042023.42732616
23,300217,56165451.39000001,68116226.74,2019-09-30,三季度报告,59084180.08000001,2019,9,-0.3900926940578716,True,1.5353901403870076,True,0.22968915313980054,False,平均增速,68746311.32084095,未知,68746311.32084095
24,300217,-116276939.02,-97771757.06999998,2019-12-31,年度报告,-111430626.56,2019,12,-0.43201582640914976,True,1.158435439762529,True,0.0,True,比例外推,-97771757.06999998,219000000.0,219000000.0
25,300217,-3654468.75,-1664620.74,2020-03-31,一季度报告,-5207470.110000001,2020,3,1.7027051319134885,False,0.6501018544801881,True,0.24444048173461758,False,盈利变化,-140647985.65666664,未知,-140647985.65666664
