,SECURITYCODE_x,NETPROFIT_x,PARENTNETPROFIT_x,REPORTDATE_x,REPORTTIMETYPE_x,KCFJCXSYJLR,Year,Month,managesituationChangeRate,managesituationGreatChange,historyprofitextroplaterate,ifhistoryprofitextroplate,IfprofitdisStableChangeRage,IfprofitdisStable,predicttype,predict,analyst_prediction,adj_prediction
0,300268,-187769196.23,-187769196.23,2013-12-31,年度报告,-189884015.82,2013,12,未知,未知,未知,未知,未知,未知,未知,未知,未知,未知
1,300268,-6177436.43,-6177436.43,2014-03-31,一季度报告,-7366236.099999998,2014,3,未知,未知,未知,未知,未知,未知,未知,未知,未知,未知
2,300268,-15546058.93,-15546058.93,2014-06-30,半年度报告,-16895786.840000004,2014,6,未知,未知,未知,未知,未知,未知,未知,未知,未知,未知
3,300268,-27186337.930000003,-27186337.930000003,2014-09-30,三季度报告,-28082225.96,2014,9,未知,未知,未知,未知,未知,未知,未知,未知,未知,未知
4,300268,5107638.8500000015,5107638.8500000015,2014-12-31,年度报告,-41515576.49999999,2014,12,-0.0,False,未知,未知,未知,未知,未知,未知,未知,未知
5,300268,-8682520.450000001,-8682520.450000001,2015-03-31,一季度报告,-8955943.239999998,2015,3,29.395973857071322,False,未知,未知,未知,未知,未知,未知,未知,未知
6,300268,-13627429.12,-13627429.12,2015-06-30,半年度报告,-13388132.47,2015,6,11.078250640594991,False,未知,未知,未知,未知,未知,未知,未知,未知
7,300268,-19372294.65,-19372294.65,2015-09-30,三季度报告,-19410251.8,2015,9,5.906748408464294,False,未知,未知,未知,未知,未知,未知,未知,未知
8,300268,-99443173.16,-99443173.16,2015-12-31,年度报告,-99624307.20999998,2015,12,-37.76242619033253,False,未知,未知,未知,未知,未知,未知,未知,未知
9,300268,-2030378.87,-2030378.87,2016-03-31,一季度报告,-2160379.51,2016,3,20.6261162079958,False,未知,未知,未知,未知,未知,未知,未知,未知
10,300268,-5167081.740000002,-5167081.740000002,2016-06-30,半年度报告,-5427082.380000001,2016,6,12.778768876840065,False,未知,未知,未知,未知,未知,未知,未知,未知
11,300268,-8147958.289999999,-8147958.289999999,2016-09-30,三季度报告,-8463471.930000003,2016,9,8.692666750244788,False,未知,未知,未知,未知,未知,未知,未知,未知
12,300268,5879684.5,5879684.5,2016-12-31,年度报告,-4076631.7900000005,2016,12,0.8882060001030643,False,-0.08882432172767889,True,0.0,True,盈利变化,-67593948.02000001,未知,-67593948.02000001
13,300268,-728584.5,-728584.5,2017-03-31,一季度报告,-908384.5,2017,3,91.47988097413561,False,-0.7267315260204174,True,0.2641847683966079,False,前期平均,-63137436.68499999,未知,-63137436.68499999
14,300268,-5982802.61,-5982802.61,2017-06-30,半年度报告,-6463486.6099999985,2017,6,35.33950567811221,False,-0.6457686697494507,True,0.7070572288708692,False,前期平均,-61410784.80999999,35490000.0,35490000.0
15,300268,-4927448.839999999,-7743834.5299999975,2017-09-30,三季度报告,-8336886.64,2017,9,22.04493832037032,False,-0.6499915122722018,True,1.0936426006416156,False,前期平均,-54567537.50499998,15380000.0,15380000.0
16,300268,16027629.78,2449384.82,2017-12-31,年度报告,649279.1,2017,12,-32.93525030637273,False,-1.1246547134758047,True,0.0,True,前期平均,2449384.82,5060000.0,5060000.0
17,300268,5247502.24,1202821.96,2018-03-31,一季度报告,979537.81,2018,3,256.71780243746605,False,-0.8639799594420159,True,1.139324005303026,False,盈利变化,4966614.566666666,未知,4966614.566666666
18,300268,4738287.6400000015,7080186.3599999985,2018-06-30,半年度报告,-12739635.269999998,2018,6,30.384822209603197,False,-0.3633457497706859,True,7.125128334113253,False,盈利变化,-1734714.2866666662,未知,-1734714.2866666662
19,300268,-3074444.590000001,821514.86,2018-09-30,三季度报告,-19234946.66,2018,9,37.106777427241646,False,-0.6419038116587892,True,9.317123083567477,False,盈利变化,-2394197.4111111113,未知,-2394197.4111111113
20,300268,40637466.33000001,24532325.35,2018-12-31,年度报告,3481190.67,2018,12,-12.715343990806856,False,-1.3426043643635979,True,0.0,True,前期平均,24532325.35,,24532325.35
21,300268,4462318.84,1411508.91,2019-03-31,一季度报告,1401016.42,2019,3,-36.782585245737785,False,-4.803966589088858,True,1.2031516517581473,False,前期平均,1232214.5699999996,未知,1232214.5699999996
22,300268,-36008830.1,-28673810.35,2019-06-30,半年度报告,-29452513.44,2019,6,-40.62807041195159,False,-1.849925881069789,True,5.860478724111783,False,盈利变化,13390406.569999998,未知,13390406.569999998
23,300268,-88983092.88000001,-74090585.5,2019-09-30,三季度报告,-82579350.86000001,2019,9,60.07418453425434,False,-0.5297363119277494,True,7.5059339405278855,False,盈利变化,-3620743.183333341,未知,-3620743.183333341
24,300268,-148471782.46000004,-126415213.87000003,2019-12-31,年度报告,-135057559.75999996,2019,12,-5.620593092719025,False,2.7099450722811294,False,0.0,True,前期平均盈利变化,981894789.5699996,未知,981894789.5699996
25,300268,-33142036.25,-38291237.32,2020-03-31,一季度报告,-37844579.56,2020,3,-43.07883904369326,False,0.9749502410725448,True,1.0230464025009935,False,盈利变化,-178742675.1766667,未知,-178742675.1766667
