,SECURITYCODE_x,NETPROFIT_x,PARENTNETPROFIT_x,REPORTDATE_x,REPORTTIMETYPE_x,KCFJCXSYJLR,Year,Month,managesituationChangeRate,managesituationGreatChange,historyprofitextroplaterate,ifhistoryprofitextroplate,IfprofitdisStableChangeRage,IfprofitdisStable,predicttype,predict,analyst_prediction,adj_prediction
0,300258,122011049.29,122011049.29,2013-12-31,年度报告,113384078.08,2013,12,未知,未知,未知,未知,未知,未知,未知,未知,未知,未知
1,300258,29167064.22000001,29167064.22000001,2014-03-31,一季度报告,27829074.40999999,2014,3,未知,未知,未知,未知,未知,未知,未知,未知,未知,未知
2,300258,62520809.2,62520809.2,2014-06-30,半年度报告,56375295.57,2014,6,未知,未知,未知,未知,未知,未知,未知,未知,未知,未知
3,300258,90593105.11,90593105.11,2014-09-30,三季度报告,84003366.82000001,2014,9,未知,未知,未知,未知,未知,未知,未知,未知,未知,未知
4,300258,125573088.33,125573088.33,2014-12-31,年度报告,117488736.29,2014,12,0.0,True,未知,未知,未知,未知,未知,未知,未知,未知
5,300258,30679553.70000001,30679553.70000001,2015-03-31,一季度报告,30475549.820000004,2015,3,3.1831789572546825,False,未知,未知,未知,未知,未知,未知,153340000.0,未知
6,300258,67220589.92,67220589.92,2015-06-30,半年度报告,61261735.00999999,2015,6,0.9515270331785789,False,未知,未知,未知,未知,未知,未知,149700000.0,未知
7,300258,100895155.98,100895155.98,2015-09-30,三季度报告,92513394.0,2015,9,0.3468028184026996,True,未知,未知,未知,未知,未知,未知,136000000.0,未知
8,300258,139923382.48,139923382.48,2015-12-31,年度报告,130286762.50000004,2015,12,-0.028366261333313117,True,未知,未知,未知,未知,未知,未知,143963333.0,未知
9,300258,42566575.41,42566575.41,2016-03-31,一季度报告,41230866.55,2016,3,2.9769499414197793,False,未知,未知,未知,未知,未知,未知,177485000.0,未知
10,300258,92490880.2,92490880.2,2016-06-30,半年度报告,82698335.01,2016,6,0.8150844768724399,False,未知,未知,未知,未知,未知,未知,189164444.0,未知
11,300258,136751556.75,136751556.75,2016-09-30,三季度报告,125272982.97999996,2016,9,0.20928550141877686,True,未知,未知,未知,未知,未知,未知,187950000.0,未知
12,300258,190685738.86,190685738.86,2016-12-31,年度报告,177658608.13000005,2016,12,-0.12801529574630094,True,0.13030975106134496,True,0.0,True,比例外推,190685738.86,188254286.0,190685738.86
13,300258,57015755.27,57015755.27,2017-03-31,一季度报告,55447975.60000001,2017,3,1.8663581252377761,False,0.42252233758308205,True,0.002580420762360869,True,前期平均,151751192.55,255368571.0,255368571.0
14,300258,124967228.03,124967228.03,2017-06-30,半年度报告,114969238.41,2017,6,0.3191684307270762,True,0.42577281927495836,True,0.007991475344696464,True,比例外推,253657275.655586,258854545.0,253657275.655586
15,300258,182489587.5,182489587.5,2017-09-30,三季度报告,171109498.7,2017,9,-0.10779041796904439,True,0.4283022465353779,True,0.004933190505944873,True,比例外推,252356849.31522587,256184737.0,252356849.31522587
16,300258,250334213.58,250334213.58,2017-12-31,年度报告,232777746.68,2017,12,-0.36014591327367396,True,0.43644650550901243,True,0.0,True,比例外推,250334213.58,256174737.0,250334213.58
17,300258,66138721.28,66138721.28,2018-03-31,一季度报告,64547674.8,2018,3,1.1399532236697143,False,0.5568264415550079,True,0.003470731580451858,True,前期平均,184258198.41000006,316016957.0,316016957.0
18,300258,158667706.52,158667706.52,2018-06-30,半年度报告,144280519.60000002,2018,6,-0.023655631853259366,True,0.564912375249007,True,0.017368529745722006,True,比例外推,317158622.32538927,313013333.0,317158622.32538927
19,300258,229342096.78,229342096.78,2018-09-30,三季度报告,210394505.1,2018,9,-0.3314081588901613,True,0.5358056958047112,True,0.01831501480640274,True,比例外推,312482400.2372831,309083478.0,312482400.2372831
20,300258,258684672.48999995,258684672.48999995,2018-12-31,年度报告,236972325.52,2018,12,-0.512607375775231,True,0.5143817724409067,True,0.0,True,比例外推,258684672.48999995,309486667.0,309486667.0
21,300258,65953018.08999998,65953018.08999998,2019-03-31,一季度报告,62460254.44999999,2019,3,0.8447748448819119,False,0.3283224208224566,True,0.024829725463903635,True,前期平均,222831774.42,320139125.0,320139125.0
22,300258,126183303.41,126183303.41,2019-06-30,半年度报告,112031351.64000002,2019,6,-0.23102783820335518,True,0.4592944619216602,True,0.08610260772288991,True,比例外推,228464689.36076155,266494222.0,266494222.0
23,300258,166275707.39000002,166275707.39000002,2019-09-30,三季度报告,151320732.46,2019,9,-0.467995405104188,True,0.43679535618003285,True,0.11182616615831686,False,平均增速,191303511.7845168,228016214.0,228016214.0
24,300258,173860822.9,173860822.9,2019-12-31,年度报告,157742655.79,2019,12,-0.5283406314121041,True,0.17312004166157774,True,0.0,True,比例外推,173860822.9,226481800.0,226481800.0
25,300258,30743527.56,30744612.7,2020-03-31,一季度报告,28591558.77,2020,3,0.8499691571885735,False,0.07106164449042067,True,0.09377992224226689,True,前期平均,205621823.6,195085000.0,205621823.6
