,SECURITYCODE_x,NETPROFIT_x,PARENTNETPROFIT_x,REPORTDATE_x,REPORTTIMETYPE_x,KCFJCXSYJLR,Year,Month,managesituationChangeRate,managesituationGreatChange,historyprofitextroplaterate,ifhistoryprofitextroplate,IfprofitdisStableChangeRage,IfprofitdisStable,predicttype,predict,analyst_prediction,adj_prediction
0,300274,181031248.75,181031995.32,2013-12-31,年度报告,127835002.57,2013,12,未知,未知,未知,未知,未知,未知,未知,未知,未知,未知
1,300274,41467298.67,41467296.32000001,2014-03-31,一季度报告,32868854.469999995,2014,3,未知,未知,未知,未知,未知,未知,未知,未知,未知,未知
2,300274,95632661.86,95632507.42000002,2014-06-30,半年度报告,80218792.34,2014,6,未知,未知,未知,未知,未知,未知,未知,未知,未知,未知
3,300274,124030102.45999998,124029948.02,2014-09-30,三季度报告,-3069201792.9799995,2014,9,未知,未知,未知,未知,未知,未知,未知,未知,未知,未知
4,300274,283286523.06,283286368.62,2014-12-31,年度报告,244403323.51999995,2014,12,0.0,True,未知,未知,未知,未知,未知,未知,未知,未知
5,300274,68902736.49,68902736.49,2015-03-31,一季度报告,63006411.66,2015,3,3.365638817967401,False,未知,未知,未知,未知,未知,未知,553302188.0,未知
6,300274,166306474.46000004,166306474.46000004,2015-06-30,半年度报告,155048175.10999998,2015,6,0.8929855682049087,False,未知,未知,未知,未知,未知,未知,531700833.0,未知
7,300274,261112008.9,261157779.57999995,2015-09-30,三季度报告,240739919.71,2015,9,0.4595750963632642,True,未知,未知,未知,未知,未知,未知,514000000.0,未知
8,300274,426110848.47000015,425402044.47,2015-12-31,年度报告,389228649.4699999,2015,12,-0.3609606034394455,True,未知,未知,未知,未知,未知,未知,514000000.0,未知
9,300274,122659100.06,121143155.92,2016-03-31,一季度报告,106272756.52,2016,3,1.6273448337755565,False,未知,未知,未知,未知,未知,未知,715405637.0,未知
10,300274,225109730.11,225092152.86,2016-06-30,半年度报告,200727978.78,2016,6,0.08853999423541119,True,未知,未知,未知,未知,未知,未知,697344706.0,未知
11,300274,294549668.89,296935306.28,2016-09-30,三季度报告,259836631.29,2016,9,-0.3066912184060792,True,未知,未知,未知,未知,未知,未知,651837500.0,未知
12,300274,546129904.2300001,553613069.28,2016-12-31,年度报告,503541173.25000006,2016,12,-0.5751545650620878,True,0.8354276934476924,True,0.0,True,比例外推,553613069.28,613833333.0,553613069.28
13,300274,126318250.55,129122292.48999998,2017-03-31,一季度报告,124008701.75,2017,3,0.47588926269185605,True,1.2226884295576228,True,0.04191345859665477,True,比例外推,738297148.1491015,727690885.0,738297148.1491015
14,300274,364892842.52,369137007.04000014,2017-06-30,半年度报告,335876574.29,2017,6,-0.19580886769515043,True,0.7187941693065133,True,0.04684466121192882,True,比例外推,928769718.0960932,755825635.0,755825635.0
15,300274,744840684.6299999,751052163.62,2017-09-30,三季度报告,674198662.78,2017,9,-0.3853965294471053,True,0.5295635569421207,True,8.750133284546022,False,平均增速,1243070986.1682565,979099752.0,979099752.0
16,300274,1014320332.0,1024196698.41,2017-12-31,年度报告,921829838.78,2017,12,-0.6685198020693635,True,0.5397009522381757,True,0.0,True,比例外推,1024196698.41,979099752.0,1024196698.41
17,300274,202374066.42,202746899.7,2018-03-31,一季度报告,183357378.05,2018,3,0.4331361300665195,True,0.3188248016929966,True,0.04190066365317155,True,比例外推,1103381562.8846633,1386545294.0,1386545294.0
18,300274,382116040.07,382973352.75000006,2018-06-30,半年度报告,339056919.02,2018,6,-0.5038783235654244,True,0.8644748902047222,True,0.02275430191242528,True,比例外推,919777118.812077,955448182.0,919777118.812077
19,300274,612817575.3999999,607174042.58,2018-09-30,三季度报告,528561229.5999999,2018,9,-0.7569530605864697,True,1.68091435634867,True,0.10940538817687995,False,平均增速,897667250.3781621,825916667.0,897667250.3781621
20,300274,817291291.6700003,809628201.9300001,2018-12-31,年度报告,699673580.29,2018,12,-0.8215245785391592,True,1.086562056122706,True,0.0,True,比例外推,809628201.9300001,842812500.0,809628201.9300001
21,300274,175918715.91,171195690.04999998,2019-03-31,一季度报告,147884338.56,2019,3,-0.10546221681243415,True,0.6256423801135248,True,0.06802102826929313,True,比例外推,753440211.7510808,1095259444.0,1095259444.0
22,300274,340198920.97,332598755.94,2019-06-30,半年度报告,286413610.72,2019,6,-0.526240121412237,True,0.2953029623809151,True,0.06873158549069813,True,比例外推,734908842.5775623,1064505882.0,1064505882.0
23,300274,573362100.3200003,554394279.78,2019-09-30,三季度报告,463975390.28,2019,9,-0.7045919438067082,True,0.17918657475438668,True,0.15159081156499832,False,平均增速,740278572.9730788,994359412.0,994359412.0
24,300274,911526331.34,892552821.1999998,2019-12-31,年度报告,905373089.13,2019,12,-0.7784984979099772,True,0.0475070241836754,True,0.0,True,比例外推,892552821.1999998,986444375.0,892552821.1999998
25,300274,161100771.42999998,159502929.37,2020-03-31,一季度报告,146860665.18,2020,3,0.029061904036495896,True,0.07041574644445522,True,0.0754191178633766,True,比例外推,799498976.9986838,1135126667.0,1135126667.0
