,SECURITYCODE_x,NETPROFIT_x,PARENTNETPROFIT_x,REPORTDATE_x,REPORTTIMETYPE_x,KCFJCXSYJLR,Year,Month,managesituationChangeRate,managesituationGreatChange,historyprofitextroplaterate,ifhistoryprofitextroplate,IfprofitdisStableChangeRage,IfprofitdisStable,predicttype,predict,analyst_prediction,adj_prediction
0,300239,42641724.32,42641724.32,2013-12-31,年度报告,35731807.34,2013,12,未知,未知,未知,未知,未知,未知,未知,未知,未知,未知
1,300239,3511093.1,3511093.1,2014-03-31,一季度报告,3086836.23,2014,3,未知,未知,未知,未知,未知,未知,未知,未知,未知,未知
2,300239,4382877.33,4382877.33,2014-06-30,半年度报告,3506771.5300000007,2014,6,未知,未知,未知,未知,未知,未知,未知,未知,未知,未知
3,300239,3189407.7,3189407.7,2014-09-30,三季度报告,1687199.4399999997,2014,9,未知,未知,未知,未知,未知,未知,未知,未知,未知,未知
4,300239,4888090.739999998,4888090.739999998,2014-12-31,年度报告,2375401.7100000004,2014,12,0.0,True,未知,未知,未知,未知,未知,未知,未知,未知
5,300239,2630616.05,2630616.05,2015-03-31,一季度报告,1534357.78,2015,3,11.144857201308618,False,未知,未知,未知,未知,未知,未知,,未知
6,300239,4013268.65,4013268.65,2015-06-30,半年度报告,2563992.59,2015,6,8.729162171189492,False,未知,未知,未知,未知,未知,未知,未知,未知
7,300239,5221669.33,5221669.33,2015-09-30,三季度报告,3416875.21,2015,9,12.369794121961892,False,未知,未知,未知,未知,未知,未知,未知,未知
8,300239,5889584.53,5889584.53,2015-12-31,年度报告,2216696.01,2015,12,7.723595077942439,False,未知,未知,未知,未知,未知,未知,34200000.0,未知
9,300239,3251197.08,3251197.08,2016-03-31,一季度报告,1790809.9700000002,2016,3,15.209786418660377,False,未知,未知,未知,未知,未知,未知,,未知
10,300239,8348538.33,8348538.33,2016-06-30,半年度报告,4751105.32,2016,6,9.625185612729913,False,未知,未知,未知,未知,未知,未知,未知,未知
11,300239,13043306.62,13043306.62,2016-09-30,三季度报告,7044954.55,2016,9,7.166301162544125,False,未知,未知,未知,未知,未知,未知,未知,未知
12,300239,19226957.17,19226957.17,2016-12-31,年度报告,12333050.97,2016,12,6.240192258519125,False,0.7521730508496534,True,0.0,True,前期平均,19226957.17,36000000.0,36000000.0
13,300239,5718914.700000001,5718914.700000001,2017-03-31,一季度报告,4679378.609999999,2017,3,12.11569962409046,False,0.05872713949666596,True,0.5872049961169358,False,前期平均,5704366.555000002,未知,5704366.555000002
14,300239,12140956.280000005,12140956.280000005,2017-06-30,半年度报告,10433237.739999998,2017,6,4.107687433951088,False,0.9886596421469079,True,0.620830534920029,False,前期平均,11401623.080000006,未知,11401623.080000006
15,300239,15577187.009999994,15577187.009999994,2017-09-30,三季度报告,13069138.950000005,2017,9,2.269241884923196,False,2.101459319294808,False,0.6004496270241505,False,去年同期,20865283.429999996,未知,20865283.429999996
16,300239,22416637.11,22416637.11,2017-12-31,年度报告,18962735.020000003,2017,12,1.2178092946779053,False,2.5679228940064367,False,0.0,True,去年同期,22416637.11,未知,22416637.11
17,300239,6888130.65,6888130.65,2018-03-31,一季度报告,6022934.61,2018,3,6.456261643489802,False,0.9446094507256136,True,0.33079780945989895,False,前期平均,12500420.265,35200000.0,35200000.0
18,300239,16779947.34,16779947.34,2018-06-30,半年度报告,15207079.870000005,2018,6,2.512221223483393,False,0.964268864518382,True,0.45930522980295996,False,前期平均,20397271.875,,20397271.875
19,300239,22784781.49,22784781.49,2018-09-30,三季度报告,20662102.21,2018,9,1.737447030238871,False,0.7056892987586983,True,0.607475783009589,False,前期平均,24828740.099999998,未知,24828740.099999998
20,300239,33977157.88,33977157.88,2018-12-31,年度报告,30401690.85,2018,12,0.9022355632896267,False,0.7850098455234382,True,0.0,True,前期平均,33977157.88,未知,33977157.88
21,300239,7612512.419999999,7612512.419999999,2019-03-31,一季度报告,5535489.19,2019,3,5.1906091052439605,False,0.5357959452317994,True,0.051490212398443425,True,前期平均,20025311.125,未知,20025311.125
22,300239,19693119.38,19693119.38,2019-06-30,半年度报告,14724828.369999995,2019,6,1.5412311168790593,False,0.637907391996917,True,0.09331160113126075,True,前期平均,27748840.845000003,未知,27748840.845000003
23,300239,25872173.47000001,25872173.47000001,2019-09-30,三季度报告,20225004.21,2019,9,0.8715002528646152,False,0.5922004549996297,True,0.07546218478969735,True,前期平均,31463019.71500001,未知,31463019.71500001
24,300239,35607138.71000001,35607138.71000001,2019-12-31,年度报告,26011731.69,2019,12,0.2550115130465408,True,0.6318071707041903,True,0.0,True,比例外推,35607138.71000001,未知,35607138.71000001
25,300239,3508687.3999999994,3508687.3999999994,2020-03-31,一季度报告,2664780.61,2020,3,4.6015310015086985,False,0.20766003590206775,True,0.027538302524705877,True,前期平均,22839743.725,未知,22839743.725
