,SECURITYCODE_x,NETPROFIT_x,PARENTNETPROFIT_x,REPORTDATE_x,REPORTTIMETYPE_x,KCFJCXSYJLR,Year,Month,managesituationChangeRate,managesituationGreatChange,historyprofitextroplaterate,ifhistoryprofitextroplate,IfprofitdisStableChangeRage,IfprofitdisStable,predicttype,predict,analyst_prediction,adj_prediction
0,300265,42337826.2,42337826.2,2013-12-31,年度报告,30655391.02000001,2013,12,未知,未知,未知,未知,未知,未知,未知,未知,未知,未知
1,300265,10254605.98,10254605.98,2014-03-31,一季度报告,10276508.98,2014,3,未知,未知,未知,未知,未知,未知,未知,未知,未知,未知
2,300265,14301348.13,14301348.13,2014-06-30,半年度报告,14712418.0,2014,6,未知,未知,未知,未知,未知,未知,未知,未知,未知,未知
3,300265,27689562.81999999,27689562.81999999,2014-09-30,三季度报告,27084246.79,2014,9,未知,未知,未知,未知,未知,未知,未知,未知,未知,未知
4,300265,32240064.24000001,32240064.24000001,2014-12-31,年度报告,27741849.84000001,2014,12,0.0,True,未知,未知,未知,未知,未知,未知,未知,未知
5,300265,12033127.38,12033127.38,2015-03-31,一季度报告,12111760.72,2015,3,3.1286643565411767,False,未知,未知,未知,未知,未知,未知,59180000.0,未知
6,300265,21356108.56,21356108.56,2015-06-30,半年度报告,21650105.64,2015,6,1.9604080549013247,False,未知,未知,未知,未知,未知,未知,,未知
7,300265,41598094.48,41598094.48,2015-09-30,三季度报告,44651271.42,2015,9,0.5290175029206192,False,未知,未知,未知,未知,未知,未知,未知,未知
8,300265,108297882.32999998,102174970.01,2015-12-31,年度报告,89829999.92,2015,12,0.31320539204980163,True,未知,未知,未知,未知,未知,未知,66810000.0,未知
9,300265,11936206.37,17555271.939999998,2016-03-31,一季度报告,15334260.6,2016,3,2.518439127501366,False,未知,未知,未知,未知,未知,未知,未知,未知
10,300265,63986944.35,65908007.16000001,2016-06-30,半年度报告,59273043.11,2016,6,0.9824691413724489,False,未知,未知,未知,未知,未知,未知,未知,未知
11,300265,86825668.07000001,87945443.8,2016-09-30,三季度报告,77273295.44,2016,9,0.017782827056072554,True,未知,未知,未知,未知,未知,未知,161460000.0,未知
12,300265,122746456.19,125571380.07999998,2016-12-31,年度报告,116407985.28,2016,12,-0.6090613658447147,True,1.904289238836238,True,0.0,True,比例外推,125571380.07999998,161460000.0,161460000.0
13,300265,12013586.239999998,12048621.769999998,2017-03-31,一季度报告,6456107.8199999975,2017,3,2.5470085626544012,False,0.07110096636583232,True,0.15810283105178832,False,前期平均,59640411.800000004,177056667.00000003,177056667.00000003
14,300265,41942849.1,41992640.99,2017-06-30,半年度报告,34187403.05,2017,6,-0.33833648988740933,True,2.588979713628589,False,0.185830895776852,False,未知,未知,148815000.0,未知
15,300265,72216931.8,70267953.79,2017-09-30,三季度报告,50523580.91000001,2017,9,-0.5123812215776251,True,1.5062376605999068,True,0.2639042456239912,False,平均增速,127420230.22711694,134740000.0,127420230.22711694
16,300265,45435815.83999999,42306242.1,2017-12-31,年度报告,24860101.21,2017,12,-0.6550790343432399,True,0.7468087329547212,True,0.0,True,比例外推,42306242.1,197060000.0,197060000.0
17,300265,4347551.56,2489532.04,2018-03-31,一季度报告,9122466.58,2018,3,2.5241621739088633,False,0.0024130303580088756,True,0.08427891357842435,True,前期平均,91885513.98000002,未知,91885513.98000002
18,300265,26096801.33,23588719.92000001,2018-06-30,半年度报告,25463034.57,2018,6,0.009417030756739924,True,0.017076430480368124,True,0.666729209606923,False,平均增速,16595470.578533936,未知,16595470.578533936
19,300265,33706051.46,30745268.92,2018-09-30,三季度报告,32485724.17,2018,9,-0.41374100027882926,True,0.12466618896768945,True,0.9679178105692006,False,平均增速,12810392.514051579,未知,12810392.514051579
20,300265,41380725.7,37318728.65999999,2018-12-31,年度报告,45281093.09000001,2018,12,-0.06818386734617918,True,0.6066918052954852,True,0.0,True,比例外推,37318728.65999999,,37318728.65999999
21,300265,2481115.47,2409293.6700000004,2019-03-31,一季度报告,6031159.12,2019,3,8.738314914889704,False,0.6369445338591598,True,0.06590113717755161,True,前期平均,62148152.70500001,未知,62148152.70500001
22,300265,28774750.599999994,27824261.29,2019-06-30,半年度报告,27423055.01,2019,6,0.6223377595065597,False,0.5072811816192586,True,0.559622336156011,False,前期平均,51728081.455,未知,51728081.455
23,300265,35440690.98,34190900.620000005,2019-09-30,三季度报告,33312762.69,2019,9,0.25608976329498556,True,0.5761380725975176,True,0.8944646611181493,False,平均增速,47261093.39759974,未知,47261093.39759974
24,300265,33803604.64,27098966.840000004,2019-12-31,年度报告,19108511.38,2019,12,0.023129137631339315,True,0.5079062115105853,True,0.0,True,比例外推,27098966.840000004,未知,27098966.840000004
25,300265,554396.97,1454978.98,2020-03-31,一季度报告,574658.25,2020,3,16.064028946625367,False,0.6967062437430237,True,0.05746611155273304,True,前期平均,28736288.930000007,未知,28736288.930000007
