,SECURITYCODE_x,NETPROFIT_x,PARENTNETPROFIT_x,REPORTDATE_x,REPORTTIMETYPE_x,KCFJCXSYJLR,Year,Month,managesituationChangeRate,managesituationGreatChange,historyprofitextroplaterate,ifhistoryprofitextroplate,IfprofitdisStableChangeRage,IfprofitdisStable,predicttype,predict,analyst_prediction,adj_prediction
0,300230,55315971.93,52102286.73,2013-12-31,年度报告,48942556.62000001,2013,12,未知,未知,未知,未知,未知,未知,未知,未知,未知,未知
1,300230,8286350.31,7031398.35,2014-03-31,一季度报告,6769278.499999999,2014,3,未知,未知,未知,未知,未知,未知,未知,未知,未知,未知
2,300230,23647309.04000001,20610315.96,2014-06-30,半年度报告,20215906.57,2014,6,未知,未知,未知,未知,未知,未知,未知,未知,未知,未知
3,300230,44005203.88,39657445.19,2014-09-30,三季度报告,37826051.03,2014,9,未知,未知,未知,未知,未知,未知,未知,未知,未知,未知
4,300230,60304308.77000001,56567676.70999999,2014-12-31,年度报告,52382736.18000001,2014,12,0.0,True,未知,未知,未知,未知,未知,未知,未知,未知
5,300230,8871041.139999999,8012368.77,2015-03-31,一季度报告,7733003.420000001,2015,3,5.67555315194006,False,未知,未知,未知,未知,未知,未知,117821220.0,未知
6,300230,32292070.06000001,30131272.85,2015-06-30,半年度报告,28596547.329999994,2015,6,1.3392078919606312,False,未知,未知,未知,未知,未知,未知,108187675.99999999,未知
7,300230,69751690.51,65227640.75000002,2015-09-30,三季度报告,62580764.92,2015,9,0.2570325109921976,True,未知,未知,未知,未知,未知,未知,108127369.0,未知
8,300230,97042573.67,93922573.94,2015-12-31,年度报告,89300080.29,2015,12,-0.08271940996829057,True,未知,未知,未知,未知,未知,未知,109903459.0,未知
9,300230,21159519.7,19196274.070000004,2016-03-31,一季度报告,18628372.270000003,2016,3,5.235567061072158,False,未知,未知,未知,未知,未知,未知,196038332.99999997,未知
10,300230,60629276.76000001,53893211.24,2016-06-30,半年度报告,50535316.16999999,2016,6,0.7129893446663723,False,未知,未知,未知,未知,未知,未知,174400000.0,未知
11,300230,103937519.04,93770094.85,2016-09-30,三季度报告,89172098.22000001,2016,9,-0.2069586912439121,True,未知,未知,未知,未知,未知,未知,152475000.0,未知
12,300230,164845642.65,153554342.35,2016-12-31,年度报告,143906978.31,2016,12,-0.42998243102964484,True,0.6786427620219397,True,0.0,True,比例外推,153554342.35,152475000.0,153554342.35
13,300230,72980892.47999999,71042404.51,2017-03-31,一季度报告,68650611.36,2017,3,1.6142357063993285,False,1.466519431192438,True,0.02849439555786641,True,前期平均,134632671.78500003,333552500.0,333552500.0
14,300230,151349782.87,147489360.53,2017-06-30,半年度报告,141792122.07,2017,6,-0.0876359592912949,True,1.167677858977165,True,0.03348581170699183,True,比例外推,408011639.3234178,334232000.0,334232000.0
15,300230,228855452.37,218105132.17,2017-09-30,三季度报告,212249240.49000007,2017,9,-0.46779591776948387,True,0.8273621057843648,True,0.061199662474103134,True,比例外推,317597162.6803324,345046667.0,317597162.6803324
16,300230,310138302.02,291968454.08,2017-12-31,年度报告,276345014.97,2017,12,-0.6644377671089142,True,1.0953150147459636,True,0.0,True,比例外推,291968454.08,337820000.0,337820000.0
17,300230,56939850.91,51323415.64,2018-03-31,一季度报告,47554906.95,2018,3,-0.24204856846387515,True,3.860441526139676,False,0.09360136336393651,True,比例外推,310926714.34213436,400000000.0,400000000.0
18,300230,225714072.98000005,215938758.33000004,2018-06-30,半年度报告,159506574.31,2018,6,-0.6345156835968971,True,2.257589091195223,False,0.11826666513478978,False,未知,未知,371990000.0,未知
19,300230,368431408.07000005,353244758.83000004,2018-09-30,三季度报告,292343449.26000005,2018,9,-0.7582929689585529,True,1.6352293612588438,True,0.07651624964243942,True,比例外推,480834110.78627914,418330000.0,418330000.0
20,300230,405887888.32000005,387852628.88999987,2018-12-31,年度报告,311544523.08999985,2018,12,-0.8216409531821296,True,1.3684784781690478,True,0.0,True,比例外推,387852628.88999987,445000000.0,445000000.0
21,300230,58746403.75,55419457.9,2019-03-31,一季度报告,51583461.41,2019,3,-0.028519199717728885,True,0.2096792353347438,True,0.07158579493879749,True,比例外推,295535354.3586499,未知,295535354.3586499
22,300230,150594281.38,144084322.82,2019-06-30,半年度报告,128047492.63,2019,6,-0.7549290073069507,True,1.1295883977782888,True,0.10758384491517003,False,平均增速,320950955.31448865,未知,320950955.31448865
23,300230,242955253.34,232760206.63,2019-09-30,三季度报告,202087998.89999995,2019,9,-0.8498608676720355,True,1.2141778205771874,True,0.16300880221272518,False,平均增速,254026435.40766537,未知,254026435.40766537
24,300230,278506829.82000005,263628568.1,2019-12-31,年度报告,124196772.31000005,2019,12,-0.8637161306809206,True,0.7090594024267278,True,0.0,True,比例外推,263628568.1,,263628568.1
25,300230,1959379.26,-2252411.37,2020-03-31,一季度报告,-7289205.169999997,2020,3,-0.05839390330340009,True,0.09565782619249211,True,0.14320239109732286,False,平均增速,20319542.664999213,,20319542.664999213
