,SECURITYCODE_x,NETPROFIT_x,PARENTNETPROFIT_x,REPORTDATE_x,REPORTTIMETYPE_x,KCFJCXSYJLR,Year,Month,managesituationChangeRate,managesituationGreatChange,historyprofitextroplaterate,ifhistoryprofitextroplate,IfprofitdisStableChangeRage,IfprofitdisStable,predicttype,predict,analyst_prediction,adj_prediction
0,300250,32019007.92,28014110.11000001,2013-12-31,年度报告,27143792.16,2013,12,未知,未知,未知,未知,未知,未知,未知,未知,未知,未知
1,300250,4924655.67,4670379.16,2014-03-31,一季度报告,4533633.91,2014,3,未知,未知,未知,未知,未知,未知,未知,未知,未知,未知
2,300250,14598755.980000002,13517250.25,2014-06-30,半年度报告,13379349.34,2014,6,未知,未知,未知,未知,未知,未知,未知,未知,未知,未知
3,300250,22354167.08,20460158.44,2014-09-30,三季度报告,19642500.390000004,2014,9,未知,未知,未知,未知,未知,未知,未知,未知,未知,未知
4,300250,36421104.0,31900412.06,2014-12-31,年度报告,30594163.440000005,2014,12,0.0,True,未知,未知,未知,未知,未知,未知,未知,未知
5,300250,-3771336.87,-3542523.38,2015-03-31,一季度报告,-3802725.92,2015,3,5.501775974928212,False,未知,未知,未知,未知,未知,未知,78666667.0,未知
6,300250,9551376.81,9984242.750000004,2015-06-30,半年度报告,9721686.1,2015,6,1.1932696158402392,False,未知,未知,未知,未知,未知,未知,83324601.0,未知
7,300250,22308856.6,23732803.99000001,2015-09-30,三季度报告,23005732.84,2015,9,0.43235074719679534,True,未知,未知,未知,未知,未知,未知,68620259.0,未知
8,300250,68876059.72,71613308.97,2015-12-31,年度报告,67957559.21,2015,12,-0.12086662941353997,True,未知,未知,未知,未知,未知,未知,67000000.0,未知
9,300250,6802030.38,7045927.08,2016-03-31,一季度报告,3406079.8600000013,2016,3,-9.49009489836425,False,未知,未知,未知,未知,未知,未知,120800000.0,未知
10,300250,49120643.1,49844257.05,2016-06-30,半年度报告,45459327.04,2016,6,2.3522924031723966,False,未知,未知,未知,未知,未知,未知,129955714.0,未知
11,300250,74706206.96000001,74348000.09,2016-09-30,三季度报告,68952846.17999999,2016,9,0.4352599281130347,True,未知,未知,未知,未知,未知,未知,122210000.0,未知
12,300250,136213096.51,136352340.44,2016-12-31,年度报告,126011801.76999998,2016,12,-0.5351213752620865,True,1.0127395408268642,True,0.0,True,比例外推,136352340.44,122210000.0,122210000.0
13,300250,-14455775.790000005,-14273609.19,2017-03-31,一季度报告,-15698475.839999998,2017,3,3.7072721130657467,False,10.795577042531521,False,0.10843332921187797,False,前期平均盈利变化,15532242.44,172236667.00000003,172236667.00000003
14,300250,9537897.54,13517204.48,2017-06-30,半年度报告,11351007.73,2017,6,-0.34815576712186813,True,3.067939793717382,False,0.17065368565999392,False,未知,未知,174000000.0,未知
15,300250,50933332.87000001,52682025.42,2017-09-30,三季度报告,46542813.81,2017,9,-0.5714009689028389,True,2.3453268858486744,False,0.1707220067363847,False,未知,未知,,未知
16,300250,77659958.28,77897243.87,2017-12-31,年度报告,25355213.69,2017,12,-0.7649344391957983,True,1.5872130207079427,True,0.0,True,比例外推,77897243.87,178620000.0,178620000.0
17,300250,1641210.16,1252835.62,2018-03-31,一季度报告,1587357.35,2018,3,-3.214962959106603,False,10.539582766981942,False,0.4031187785368304,False,盈利变化,100945021.45666666,未知,100945021.45666666
18,300250,19152769.05,18872586.21,2018-06-30,半年度报告,15975275.57,2018,6,2.3570299728759725,False,0.6748740692878593,True,0.17410781346911622,False,前期平均,88266760.13,107000000.0,107000000.0
19,300250,59282229.93,59052864.38,2018-09-30,三季度报告,53587263.99,2018,9,-0.37135455082580393,True,0.05000875123891969,True,0.9285124536303591,False,平均增速,35967949.42671942,,35967949.42671942
20,300250,-304573690.61,-304790303.95,2018-12-31,年度报告,-498742093.38,2018,12,-0.5877024836331137,True,0.24267123910825206,True,0.0,True,比例外推,-304790303.95,未知,-304790303.95
21,300250,12948865.96,10368945.180000003,2019-03-31,一季度报告,9576490.759999998,2019,3,18.50938929113137,False,-1.4288645812168448,True,0.4207103261352011,False,前期平均,92198650.89999999,96000000.0,92198650.89999999
22,300250,27239217.78,25008720.56,2019-06-30,半年度报告,24108314.42,2019,6,0.6717691231179964,False,0.3469742396918929,True,0.29083207515310067,False,前期平均,72287060.905,,72287060.905
23,300250,46118077.84,43010744.6,2019-09-30,三季度报告,41936679.19,2019,9,-0.4598886047672667,True,0.05631252692880874,True,1.0771710292140448,False,平均增速,2515211044.625515,未知,2515211044.625515
24,300250,46693036.94,47106211.82,2019-12-31,年度报告,37653067.13999999,2019,12,-1.1051272940084627,False,3.8481726312747355,False,0.0,True,前期平均,47106211.82,未知,47106211.82
25,300250,-10402349.45,-10245676.04,2020-03-31,一季度报告,-13339473.579999998,2020,3,1.4727268024017757,False,-3.020960574689412,True,0.4964786917690757,False,盈利变化,16551592.700000007,130260000.0,130260000.0
