,SECURITYCODE_x,NETPROFIT_x,PARENTNETPROFIT_x,REPORTDATE_x,REPORTTIMETYPE_x,KCFJCXSYJLR,Year,Month,managesituationChangeRate,managesituationGreatChange,historyprofitextroplaterate,ifhistoryprofitextroplate,IfprofitdisStableChangeRage,IfprofitdisStable,predicttype,predict,analyst_prediction,adj_prediction
0,300238,40573894.14000001,40573894.14000001,2013-12-31,年度报告,33800702.63,2013,12,未知,未知,未知,未知,未知,未知,未知,未知,未知,未知
1,300238,8407041.35,8407041.35,2014-03-31,一季度报告,7167844.320000001,2014,3,未知,未知,未知,未知,未知,未知,未知,未知,未知,未知
2,300238,16026592.4,16026592.4,2014-06-30,半年度报告,13145639.08,2014,6,未知,未知,未知,未知,未知,未知,未知,未知,未知,未知
3,300238,28417349.73,28417349.73,2014-09-30,三季度报告,23909172.789999995,2014,9,未知,未知,未知,未知,未知,未知,未知,未知,未知,未知
4,300238,50103147.1,50103147.1,2014-12-31,年度报告,43016749.68,2014,12,0.0,True,未知,未知,未知,未知,未知,未知,未知,未知
5,300238,8940185.29,9006850.48,2015-03-31,一季度报告,7558286.06,2015,3,3.8261799188129375,False,未知,未知,未知,未知,未知,未知,67000000.0,未知
6,300238,16630978.35,17056145.820000004,2015-06-30,半年度报告,14398394.409999998,2015,6,1.5316607003744607,False,未知,未知,未知,未知,未知,未知,,未知
7,300238,30409965.87,31061735.28,2015-09-30,三季度报告,25703828.18,2015,9,0.4277860013513656,True,未知,未知,未知,未知,未知,未知,58330000.0,未知
8,300238,62477188.02,63366042.79000001,2015-12-31,年度报告,53362496.46000001,2015,12,-0.19019270268553637,True,未知,未知,未知,未知,未知,未知,63097500.0,未知
9,300238,7338894.8199999975,8341440.3599999985,2016-03-31,一季度报告,7070867.87,2016,3,3.5383728439480713,False,未知,未知,未知,未知,未知,未知,77160919.0,未知
10,300238,14537481.340000002,15439827.339999998,2016-06-30,半年度报告,9438629.2,2016,6,1.43965768496115,False,未知,未知,未知,未知,未知,未知,114410000.0,未知
11,300238,29187473.520000003,30747918.73,2016-09-30,三季度报告,21100874.77,2016,9,0.3342301768259106,True,未知,未知,未知,未知,未知,未知,113265000.0,未知
12,300238,48301748.31000001,56955820.90000001,2016-12-31,年度报告,40621169.79999999,2016,12,-0.35058066110447195,True,0.378015585105785,True,0.0,True,比例外推,56955820.90000001,,56955820.90000001
13,300238,5130846.4,8272090.979999999,2017-03-31,一季度报告,6763112.8900000015,2017,3,4.528610933274013,False,0.15388263815293102,True,0.019138954721893697,True,前期平均,49098648.86,125665000.0,125665000.0
14,300238,11010680.36,16888574.72,2017-06-30,半年度报告,548504.33,2017,6,1.7909851225989606,False,0.1097022218041125,True,0.03690035450625567,True,前期平均,51306181.04500001,90800000.0,90800000.0
15,300238,10029946.31,23780060.03,2017-09-30,三季度报告,15416914.62,2017,9,0.39011326595971857,True,0.007689770566379455,True,0.0372997048417012,True,比例外推,38069150.82880422,,38069150.82880422
16,300238,34679424.07,45523131.70999999,2017-12-31,年度报告,26952951.97000001,2017,12,-0.15999118956114655,True,0.14191500214464794,True,0.0,True,比例外推,45523131.70999999,130890000.0,130890000.0
17,300238,1460248.61,3811964.7500000005,2018-03-31,一季度报告,207369.56,2018,3,6.907836441956245,False,0.36963927134332386,True,0.06204561474383799,True,前期平均,43489220.915,,43489220.915
18,300238,1770363.5599999996,6094868.489999997,2018-06-30,半年度报告,-293654.08,2018,6,2.6849579511360924,False,0.293472922979724,True,0.15382629221391775,False,前期平均,41168189.815,未知,41168189.815
19,300238,19704328.65,25267436.7,2018-09-30,三季度报告,13959086.81,2018,9,3.04527530716164,False,0.6634101594746384,True,0.04761619413664697,True,前期平均,48856918.355,未知,48856918.355
20,300238,35113797.32,45746533.50000001,2018-12-31,年度报告,16905463.3,2018,12,0.16997024108883962,True,0.37389859085316973,True,0.0,True,比例外推,45746533.50000001,73800000.0,73800000.0
21,300238,6968697.84,9839357.62,2019-03-31,一季度报告,-116182.06,2019,3,26.785607096040998,False,0.7657932776250508,True,0.13348619960537966,False,前期平均,36709428.125,未知,36709428.125
22,300238,2376679.870000001,8595700.79,2019-06-30,半年度报告,-3029898.0300000007,2019,6,21.918396569346477,False,0.8614097107425152,True,0.15391157321917293,False,前期平均,37389194.91,未知,37389194.91
23,300238,5707971.449999997,14039687.779999996,2019-09-30,三季度报告,11392364.89,2019,9,1.0591360842938442,False,0.00487633992315071,True,0.1866601346222091,False,前期平均,29567853.969999995,未知,29567853.969999995
24,300238,-490752267.3699999,-465329816.63,2019-12-31,年度报告,-474516398.3,2019,12,0.15549719018541078,True,0.15369242653739437,True,0.0,True,比例外推,-465329816.63,未知,-465329816.63
25,300238,10419474.689999998,11549674.96,2020-03-31,一季度报告,8779539.66,2020,3,4.822306415282889,False,1.1145796956126715,True,0.16311151182843409,False,前期平均,29993641.370000005,未知,29993641.370000005
