,SECURITYCODE_x,NETPROFIT_x,PARENTNETPROFIT_x,REPORTDATE_x,REPORTTIMETYPE_x,KCFJCXSYJLR,Year,Month,managesituationChangeRate,managesituationGreatChange,historyprofitextroplaterate,ifhistoryprofitextroplate,IfprofitdisStableChangeRage,IfprofitdisStable,predicttype,predict,analyst_prediction,adj_prediction
0,300225,75121642.26,75121642.26,2013-12-31,年度报告,71381433.3,2013,12,未知,未知,未知,未知,未知,未知,未知,未知,未知,未知
1,300225,17622933.150000006,17622933.150000006,2014-03-31,一季度报告,15484493.97,2014,3,未知,未知,未知,未知,未知,未知,未知,未知,未知,未知
2,300225,46387164.48999999,46387164.48999999,2014-06-30,半年度报告,42876247.72,2014,6,未知,未知,未知,未知,未知,未知,未知,未知,未知,未知
3,300225,63898542.75000001,63898542.75000001,2014-09-30,三季度报告,60075631.29999999,2014,9,未知,未知,未知,未知,未知,未知,未知,未知,未知,未知
4,300225,87766352.48,87766352.48,2014-12-31,年度报告,80495356.01,2014,12,0.0,True,未知,未知,未知,未知,未知,未知,未知,未知
5,300225,16222734.02,16222734.02,2015-03-31,一季度报告,15824323.07,2015,3,3.262720718542814,False,未知,未知,未知,未知,未知,未知,130666667.0,未知
6,300225,32941301.32,34013373.08,2015-06-30,半年度报告,33167879.82,2015,6,0.6194488946655602,False,未知,未知,未知,未知,未知,未知,70800000.0,未知
7,300225,43656530.88,46245447.12,2015-09-30,三季度报告,44979158.94,2015,9,0.1756393655784896,True,未知,未知,未知,未知,未知,未知,,未知
8,300225,63057622.43000002,69240175.18,2015-12-31,年度报告,65607701.81,2015,12,-0.1440724134329434,True,未知,未知,未知,未知,未知,未知,78000000.0,未知
9,300225,15778886.45,17110936.97,2016-03-31,一季度报告,16814504.279999994,2016,3,3.6306400738240057,False,未知,未知,未知,未知,未知,未知,未知,未知
10,300225,36884646.2,39121625.15,2016-06-30,半年度报告,38388098.23,2016,6,1.2804697826066334,False,未知,未知,未知,未知,未知,未知,未知,未知
11,300225,46886091.28,49712506.63,2016-09-30,三季度报告,48791990.54000001,2016,9,0.7207423665084403,False,未知,未知,未知,未知,未知,未知,未知,未知
12,300225,59824101.05000001,70235519.19,2016-12-31,年度报告,69507799.1,2016,12,0.1913173913810689,True,0.22575481967652813,True,0.0,True,比例外推,70235519.19,,70235519.19
13,300225,10601977.58,10720111.76,2017-03-31,一季度报告,10130447.71,2017,3,3.7608963090041128,False,0.06759784815315854,True,0.032791388942585625,True,前期平均,68117232.15,81000000.0,81000000.0
14,300225,25606621.22,26020559.649999995,2017-06-30,半年度报告,24954663.49,2017,6,1.0366643034249845,False,0.07007791406573759,True,0.024614181783556233,True,前期平均,61050024.78999999,78000000.0,78000000.0
15,300225,36362737.35,36511987.43,2017-09-30,三季度报告,35054793.04,2017,9,0.60221592820309,False,0.12814728868499967,True,0.03503556711021483,True,前期平均,57036121.22000001,70740000.0,70740000.0
16,300225,38887646.65000001,47354949.79000002,2017-12-31,年度报告,47125931.73,2017,12,0.2557086682709124,True,0.2067030313224623,True,0.0,True,比例外推,47354949.79000002,未知,47354949.79000002
17,300225,7776021.260000003,7640207.699999997,2018-03-31,一季度报告,7365987.5299999975,2018,3,6.085625459321148,False,0.3374099546028395,True,0.017724453789835976,True,前期平均,58878544.48,,58878544.48
18,300225,5026455.04,5396494.940000001,2018-06-30,半年度报告,2348975.39,2018,6,1.9336803795623922,False,0.26655857515816506,True,0.023573027595101936,True,前期平均,37176256.370000005,未知,37176256.370000005
19,300225,6855510.729999999,7640084.920000003,2018-09-30,三季度报告,3482267.83,2018,9,1.0658962370444316,False,0.19678188056576154,True,0.0333884945478331,True,前期平均,28312260.634999998,未知,28312260.634999998
20,300225,9397785.5,11074247.1,2018-12-31,年度报告,6085207.54,2018,12,0.931761079196084,False,0.36707192007557926,True,0.0,True,前期平均,11074247.1,87660000.0,87660000.0
21,300225,4375763.23,4792737.82,2019-03-31,一季度报告,4248434.910000001,2019,3,8.660678610335998,False,0.4104801684162274,True,0.6546916779052171,False,前期平均,49637127.24,未知,49637127.24
22,300225,14730903.98,16226358.61,2019-06-30,半年度报告,15342350.410000002,2019,6,13.945252998821212,False,0.8391309618920832,True,0.10326273132288333,False,前期平均,42871843.16499999,未知,42871843.16499999
23,300225,24431673.52,25667885.680000003,2019-09-30,三季度报告,16992133.259999998,2019,9,9.957847667171547,False,0.8353007281226895,True,0.10043842283071935,False,前期平均,42061359.30499999,未知,42061359.30499999
24,300225,29858353.930000003,30080764.63000001,2019-12-31,年度报告,15898225.859999998,2019,12,6.993547230887533,False,0.8095913461372136,True,0.0,True,前期平均,30080764.63000001,未知,30080764.63000001
25,300225,743084.6599999998,391196.61,2020-03-31,一季度报告,-87100.23,2020,3,16.167666144495666,False,0.5238041673529674,True,0.6462520730612296,False,前期平均,18248548.625,未知,18248548.625
