,SECURITYCODE_x,NETPROFIT_x,PARENTNETPROFIT_x,REPORTDATE_x,REPORTTIMETYPE_x,KCFJCXSYJLR,Year,Month,managesituationChangeRate,managesituationGreatChange,historyprofitextroplaterate,ifhistoryprofitextroplate,IfprofitdisStableChangeRage,IfprofitdisStable,predicttype,predict,analyst_prediction,adj_prediction
0,300293,101281920.79,101374944.34,2013-12-31,年度报告,94682886.24,2013,12,未知,未知,未知,未知,未知,未知,未知,未知,未知,未知
1,300293,15078420.799999995,15110578.98,2014-03-31,一季度报告,13524053.98,2014,3,未知,未知,未知,未知,未知,未知,未知,未知,未知,未知
2,300293,43071948.74999999,43070637.45,2014-06-30,半年度报告,40514152.17,2014,6,未知,未知,未知,未知,未知,未知,未知,未知,未知,未知
3,300293,53434324.35000001,53457819.22,2014-09-30,三季度报告,50443537.56000001,2014,9,未知,未知,未知,未知,未知,未知,未知,未知,未知,未知
4,300293,73900713.83,73875998.11999999,2014-12-31,年度报告,61198929.31000002,2014,12,0.0,True,未知,未知,未知,未知,未知,未知,未知,未知
5,300293,10800731.430000003,10815263.390000002,2015-03-31,一季度报告,9213328.27,2015,3,5.71701116008117,False,未知,未知,未知,未知,未知,未知,104000000.0,未知
6,300293,31598354.65,31622987.16,2015-06-30,半年度报告,29340275.17,2015,6,1.351458982686499,False,未知,未知,未知,未知,未知,未知,86990000.0,未知
7,300293,28389550.940000005,28414183.45,2015-09-30,三季度报告,24778128.51,2015,9,0.8954468316394084,False,未知,未知,未知,未知,未知,未知,,未知
8,300293,10834898.94,10859531.45,2015-12-31,年度报告,2065426.53,2015,12,0.3705134299918576,True,未知,未知,未知,未知,未知,未知,113000000.0,未知
9,300293,6175274.99,6175274.99,2016-03-31,一季度报告,5531305.82,2016,3,8.377320549669475,False,未知,未知,未知,未知,未知,未知,,未知
10,300293,4306341.54,4306341.54,2016-06-30,半年度报告,2579529.38,2016,6,2.205290968844798,False,未知,未知,未知,未知,未知,未知,13620000.0,未知
11,300293,1434724.65,1434724.65,2016-09-30,三季度报告,-1204342.42,2016,9,2.5675774162139664,False,未知,未知,未知,未知,未知,未知,,未知
12,300293,15416876.47,15431756.329999998,2016-12-31,年度报告,-41812243.17000001,2016,12,8.347749466872278,False,0.8763016783769387,True,0.0,True,前期平均,15431756.329999998,3000000.0,3000000.0
13,300293,3543199.2299999995,3691569.91,2017-03-31,一季度报告,2823167.18,2017,3,15.401200101050076,False,0.5227606426116687,True,2.944260537195759,False,前期平均,23955056.70500001,156000000.0,156000000.0
14,300293,11697491.78,10900111.97,2017-06-30,半年度报告,9019593.36,2017,6,22.519249425348644,False,0.8846571838088982,True,9.270182901446578,False,前期平均,7605076.220000008,,7605076.220000008
15,300293,24536108.23,21171361.25,2017-09-30,三季度报告,18124055.68,2017,9,69.59328128920069,False,0.9649313933148472,True,7.7133909181158975,False,前期平均,15192706.135000002,未知,15192706.135000002
16,300293,14408770.38,7189531.8199999975,2017-12-31,年度报告,6677793.489999997,2017,12,5.5695487011967995,False,0.6361181334264635,True,0.0,True,前期平均,7189531.8199999975,164000000.0,164000000.0
17,300293,12533330.320000002,9222420.53,2018-03-31,一季度报告,5961462.27,2018,3,27.584878866661985,False,0.5825638678098475,True,2.876999095687583,False,前期平均,-18023304.835,未知,-18023304.835
18,300293,16607648.11,11625419.57,2018-06-30,半年度报告,7353605.79,2018,6,7.658430601607143,False,0.3484143846755106,True,9.040623852359888,False,前期平均,-24207891.025000006,未知,-24207891.025000006
19,300293,19852520.12,13241712.65,2018-09-30,三季度报告,8291730.98,2018,9,3.1278722705569026,False,0.6453783198158811,True,7.083449831075225,False,前期平均,-18418588.715000004,未知,-18418588.715000004
20,300293,22712422.910000004,16161245.71,2018-12-31,年度报告,5388796.22,2018,12,6.029185566770064,False,0.09773683150674195,True,0.0,True,前期平均,16161245.71,未知,16161245.71
21,300293,11230717.02,9667768.37,2019-03-31,一季度报告,6466839.69,2019,3,7.081006261231291,False,1.5792794293176617,True,0.6406863955899054,False,前期平均,-12076692.970000008,未知,-12076692.970000008
22,300293,16286436.170000006,12779115.800000004,2019-06-30,半年度报告,8773787.26,2019,6,5.098510765592083,False,1.0754587701492007,True,0.9462270352898182,False,前期平均,-10587670.410000004,未知,-10587670.410000004
23,300293,18772111.76,13257753.159999998,2019-09-30,三季度报告,7940667.7,2019,9,4.101716063139293,False,0.5288319948559156,True,1.3983898377328507,False,前期平均,-12769328.310000008,未知,-12769328.310000008
24,300293,18494630.05,15396164.56,2019-12-31,年度报告,-5687977.510000003,2019,12,3.4593181974172733,False,0.5230129307321295,True,0.0,True,前期平均,15396164.56,未知,15396164.56
25,300293,-18085924.92,-18145132.4,2020-03-31,一季度报告,-19393317.17,2020,3,8.018295146216765,False,0.39715689074200705,True,1.2676339426443701,False,盈利变化,-19084044.586666666,未知,-19084044.586666666
