,SECURITYCODE_x,NETPROFIT_x,PARENTNETPROFIT_x,REPORTDATE_x,REPORTTIMETYPE_x,KCFJCXSYJLR,Year,Month,managesituationChangeRate,managesituationGreatChange,historyprofitextroplaterate,ifhistoryprofitextroplate,IfprofitdisStableChangeRage,IfprofitdisStable,predicttype,predict,analyst_prediction,adj_prediction
0,300245,63112086.56999999,60842729.05000001,2013-12-31,年度报告,54545725.00999999,2013,12,未知,未知,未知,未知,未知,未知,未知,未知,未知,未知
1,300245,5509133.260000002,6932362.33,2014-03-31,一季度报告,5688807.66,2014,3,未知,未知,未知,未知,未知,未知,未知,未知,未知,未知
2,300245,23322816.76,24187959.3,2014-06-30,半年度报告,21318013.02,2014,6,未知,未知,未知,未知,未知,未知,未知,未知,未知,未知
3,300245,41524660.45,41513271.24,2014-09-30,三季度报告,36657623.29,2014,9,未知,未知,未知,未知,未知,未知,未知,未知,未知,未知
4,300245,75126464.83,72347373.04,2014-12-31,年度报告,67271291.57999998,2014,12,0.0,True,未知,未知,未知,未知,未知,未知,未知,未知
5,300245,5971530.98,8107856.77,2015-03-31,一季度报告,8025356.769999999,2015,3,10.455901244617918,False,未知,未知,未知,未知,未知,未知,98050000.0,未知
6,300245,24822590.02,26318922.49000001,2015-06-30,半年度报告,22129300.57,2015,6,1.7060233426967928,False,未知,未知,未知,未知,未知,未知,88442500.0,未知
7,300245,34639546.87,35849658.07,2015-09-30,三季度报告,28099741.20000001,2015,9,0.5198700214778033,False,未知,未知,未知,未知,未知,未知,91226667.0,未知
8,300245,42898260.34,45302096.37000001,2015-12-31,年度报告,35614528.14,2015,12,-0.1599220499352226,True,未知,未知,未知,未知,未知,未知,91657500.0,未知
9,300245,3779431.63,6483155.44,2016-03-31,一季度报告,4805634.36,2016,3,9.568828459799766,False,未知,未知,未知,未知,未知,未知,68550000.0,未知
10,300245,36581774.72,39103185.98,2016-06-30,半年度报告,23568451.04000001,2016,6,1.5425262440039285,False,未知,未知,未知,未知,未知,未知,66000000.0,未知
11,300245,43646260.54000001,49915252.32,2016-09-30,三季度报告,33317902.55,2016,9,0.8219662863043681,False,未知,未知,未知,未知,未知,未知,64772500.0,未知
12,300245,50278791.03000001,57773537.53000001,2016-12-31,年度报告,47961245.21,2016,12,0.4712038686368788,True,0.3793589428484128,True,0.0,True,比例外推,57773537.53000001,64772500.0,64772500.0
13,300245,3909660.28,6245195.6,2017-03-31,一季度报告,4564327.06,2017,3,15.69883007514545,False,0.34160052920422324,True,0.08863845902132994,True,前期平均,50831023.245,71650000.0,71650000.0
14,300245,38175690.66,42949947.39,2017-06-30,半年度报告,20388861.16,2017,6,0.725233044407092,False,0.5196371644406323,True,0.15965661912285084,False,前期平均,72669200.45499998,74300000.0,72669200.45499998
15,300245,45856538.28,51895224.85,2017-09-30,三季度报告,24856808.5,2017,9,0.4459906940288815,True,0.14610949357412706,True,0.1312786494239585,False,平均增速,64225622.62732844,,64225622.62732844
16,300245,32054509.379999995,54954319.42,2017-12-31,年度报告,26673564.09,2017,12,0.25524272316616964,True,0.1479956262117173,True,0.0,True,比例外推,54954319.42,,54954319.42
17,300245,5377395.540000001,6330893.51,2018-03-31,一季度报告,3775801.45,2018,3,15.142601159709967,False,0.1980975753121055,True,0.0653536171166663,True,前期平均,41703284.620000005,未知,41703284.620000005
18,300245,37174769.27,39006912.73,2018-06-30,半年度报告,15317170.279999996,2018,6,0.6532009108122839,False,0.24341944816608813,True,0.1386690056221931,False,前期平均,57945923.599999994,未知,57945923.599999994
19,300245,48160725.72999999,50060255.28,2018-09-30,三季度报告,19422204.24,2018,9,0.37629417608101207,True,0.17151600774427023,True,0.12669937496081563,False,平均增速,51634270.4352313,未知,51634270.4352313
20,300245,56635019.90000001,58630238.34,2018-12-31,年度报告,26231347.13,2018,12,0.9688988473296671,False,0.31196557717385526,True,0.0,True,前期平均,58630238.34,未知,58630238.34
21,300245,7018742.1000000015,7088124.78,2019-03-31,一季度报告,4961177.74,2019,3,10.73655277922888,False,0.3987075724784777,True,0.038221259869046106,True,前期平均,39720548.720000006,未知,39720548.720000006
22,300245,24779583.489999995,24424434.579999994,2019-06-30,半年度报告,16086928.36,2019,6,0.6977129329739076,False,0.0054566702860571045,True,0.15114561121557935,False,前期平均,39763183.12999999,未知,39763183.12999999
23,300245,29454431.89,29099282.98,2019-09-30,三季度报告,18088064.500000004,2019,9,0.3104471665111681,True,0.07618368062112821,True,0.14289169565303206,False,平均增速,34890776.47652009,未知,34890776.47652009
24,300245,33993254.68,33675031.74,2019-12-31,年度报告,26676007.57,2019,12,0.11436504624588253,True,0.37575002138797453,True,0.0,True,比例外推,33675031.74,未知,33675031.74
25,300245,2859497.6200000006,3649234.03,2020-03-31,一季度报告,916285.72,2020,3,7.991936969731368,False,0.5115106953238925,True,0.023070782379527283,True,前期平均,25931625.384999998,未知,25931625.384999998
