,SECURITYCODE_x,NETPROFIT_x,PARENTNETPROFIT_x,REPORTDATE_x,REPORTTIMETYPE_x,KCFJCXSYJLR,Year,Month,managesituationChangeRate,managesituationGreatChange,historyprofitextroplaterate,ifhistoryprofitextroplate,IfprofitdisStableChangeRage,IfprofitdisStable,predicttype,predict,analyst_prediction,adj_prediction
0,300236,44164193.63999999,44164193.63999999,2013-12-31,年度报告,44767220.28,2013,12,未知,未知,未知,未知,未知,未知,未知,未知,未知,未知
1,300236,8719475.19,8719475.19,2014-03-31,一季度报告,8497848.090000002,2014,3,未知,未知,未知,未知,未知,未知,未知,未知,未知,未知
2,300236,30547841.78,30626892.02,2014-06-30,半年度报告,30041210.37,2014,6,未知,未知,未知,未知,未知,未知,未知,未知,未知,未知
3,300236,47812106.22,48130206.59,2014-09-30,三季度报告,47188428.35,2014,9,未知,未知,未知,未知,未知,未知,未知,未知,未知,未知
4,300236,67468549.74,68214105.99000001,2014-12-31,年度报告,66147189.51000001,2014,12,0.0,True,未知,未知,未知,未知,未知,未知,未知,未知
5,300236,6933445.26,7177444.19,2015-03-31,一季度报告,7062694.190000001,2015,3,4.06500594102843,False,未知,未知,未知,未知,未知,未知,103400000.0,未知
6,300236,23350284.41,23858305.26,2015-06-30,半年度报告,24110014.85,2015,6,0.445738587952055,True,未知,未知,未知,未知,未知,未知,94750000.0,未知
7,300236,37059107.68,37852335.54,2015-09-30,三季度报告,38494389.8,2015,9,-0.07629683919831311,True,未知,未知,未知,未知,未知,未知,84602207.99999999,未知
8,300236,41443788.25,42326336.96,2015-12-31,年度报告,40585148.88999999,2015,12,-0.34541065711070973,True,未知,未知,未知,未知,未知,未知,80257060.0,未知
9,300236,15989790.64,16173013.02,2016-03-31,一季度报告,15924241.4,2016,3,5.369732792842442,False,未知,未知,未知,未知,未知,未知,81348889.0,未知
10,300236,28442540.26,28857578.430000003,2016-06-30,半年度报告,24886703.440000005,2016,6,0.891377118348341,False,未知,未知,未知,未知,未知,未知,71110976.0,未知
11,300236,41667267.13999999,42281752.37000001,2016-09-30,三季度报告,37843126.10999999,2016,9,0.19172307173047382,True,未知,未知,未知,未知,未知,未知,59620000.0,未知
12,300236,53328437.89,54399400.53,2016-12-31,年度报告,48182583.87,2016,12,0.06564084763655728,True,0.2574976302620361,True,0.0,True,比例外推,54399400.53,61568000.0,61568000.0
13,300236,17797505.94,18030164.23,2017-03-31,一季度报告,17434712.98,2017,3,1.7620245089087665,False,1.0430424713491726,True,0.11950177725246239,False,前期平均,63616062.29000001,96773000.0,96773000.0
14,300236,34279562.7,34698917.73,2017-06-30,半年度报告,34326185.11,2017,6,0.552751380020372,False,0.055418518993971835,True,0.07248492241898408,True,前期平均,60989474.32,85375000.0,85375000.0
15,300236,56748937.56000001,57230685.73,2017-09-30,三季度报告,56481617.99999999,2017,9,0.05992537239388531,True,0.018106016744506816,True,0.13272437593031927,False,平均增速,69601317.94359879,84000000.0,84000000.0
16,300236,71717252.08999999,72409549.30999999,2017-12-31,年度报告,67263098.47,2017,12,-0.17184535329729694,True,0.020708968805784732,True,0.0,True,比例外推,72409549.30999999,83682857.0,83682857.0
17,300236,15762248.47,15939468.279999996,2018-03-31,一季度报告,15600609.93,2018,3,1.4814821688437088,False,0.5527917627022285,True,0.08055211413476426,True,前期平均,48829866.86499999,97100000.0,97100000.0
18,300236,-19164287.600000005,-18761880.620000005,2018-06-30,半年度报告,-23422081.36,2018,6,0.28835347249047577,True,0.323718600729486,True,0.05376154640375663,True,比例外推,-38690062.091768384,22666667.000000004,22666667.000000004
19,300236,-3309294.58,-2546873.14,2018-09-30,三季度报告,-8683536.810000002,2018,9,-0.22176175380718466,True,0.4416753645712964,True,0.09061551848679916,True,比例外推,-3985552.7911027013,17500000.0,17500000.0
20,300236,6138390.810000001,6656034.1499999985,2018-12-31,年度报告,1371833.75,2018,12,-0.3841901027582999,True,0.5134656008619529,True,0.0,True,比例外推,6656034.1499999985,114175000.0,114175000.0
21,300236,6258379.69,6312187.3900000015,2019-03-31,一季度报告,6134259.990000001,2019,3,1.8018968057797653,False,0.06697190568775589,True,7.384823419561945,False,前期平均,47355551.36999999,,47355551.36999999
22,300236,276707786.68,276866196.41,2019-06-30,半年度报告,14010167.500000002,2019,6,-3.3045048457736557,False,1.6110856203983377,True,11.724649630840098,False,前期平均,304982593.305,300000000.0,304982593.305
23,300236,289872591.94,289557568.53,2019-09-30,三季度报告,26786000.97000001,2019,9,-14.345500852934038,False,1.0672510099345458,True,4.761624549451108,False,前期平均,300118037.645,300000000.0,300118037.645
24,300236,210885137.51,210318991.39,2019-12-31,年度报告,-53273193.92999998,2019,12,6.194751036061841,False,0.9018216331809311,True,0.0,True,前期平均,210318991.39,88450000.0,88450000.0
25,300236,10402076.93,10064737.8,2020-03-31,一季度报告,9505182.310000002,2020,3,6.056809562156813,False,0.6270306621710465,True,7.533371782110855,False,前期平均,27864542.455000002,85360000.0,85360000.0
