,SECURITYCODE_x,NETPROFIT_x,PARENTNETPROFIT_x,REPORTDATE_x,REPORTTIMETYPE_x,KCFJCXSYJLR,Year,Month,managesituationChangeRate,managesituationGreatChange,historyprofitextroplaterate,ifhistoryprofitextroplate,IfprofitdisStableChangeRage,IfprofitdisStable,predicttype,predict,analyst_prediction,adj_prediction
0,300224,77535341.64999999,77528774.39,2013-12-31,年度报告,75440390.81000002,2013,12,未知,未知,未知,未知,未知,未知,未知,未知,未知,未知
1,300224,11024421.85,10936924.519999998,2014-03-31,一季度报告,10897662.04,2014,3,未知,未知,未知,未知,未知,未知,未知,未知,未知,未知
2,300224,47347500.12,47220175.75,2014-06-30,半年度报告,46976526.07000001,2014,6,未知,未知,未知,未知,未知,未知,未知,未知,未知,未知
3,300224,88232158.36,88128391.79,2014-09-30,三季度报告,87780174.24,2014,9,未知,未知,未知,未知,未知,未知,未知,未知,未知,未知
4,300224,112996820.92,113071824.16,2014-12-31,年度报告,110693513.54,2014,12,0.0,True,未知,未知,未知,未知,未知,未知,未知,未知
5,300224,26600112.259999994,26768970.97000001,2015-03-31,一季度报告,26890607.539999995,2015,3,6.0330528625408135,False,未知,未知,未知,未知,未知,未知,182231000.0,未知
6,300224,97476058.28999998,95689351.91000004,2015-06-30,半年度报告,95779953.83,2015,6,0.637580473171558,False,未知,未知,未知,未知,未知,未知,202775814.0,未知
7,300224,144735899.85999998,141620296.18,2015-09-30,三季度报告,139808189.89000002,2015,9,-0.12123489789692603,True,未知,未知,未知,未知,未知,未知,200130000.0,未知
8,300224,160158626.17,157679507.53000003,2015-12-31,年度报告,143418255.57000002,2015,12,-0.31382722966256005,True,未知,未知,未知,未知,未知,未知,199868750.0,未知
9,300224,32687766.12,31786457.61000001,2016-03-31,一季度报告,31384256.04,2016,3,1.914850166500764,False,未知,未知,未知,未知,未知,未知,254492627.0,未知
10,300224,74280642.1,72893630.14,2016-06-30,半年度报告,65379278.98,2016,6,-0.2045704041568297,True,未知,未知,未知,未知,未知,未知,172211667.00000003,未知
11,300224,114278123.02,112291862.3,2016-09-30,三季度报告,103343363.46,2016,9,-0.4642977884201618,True,未知,未知,未知,未知,未知,未知,168595000.0,未知
12,300224,194822508.22000003,190894034.37,2016-12-31,年度报告,171452170.31000003,2016,12,-0.5158840737825742,True,0.6811715566515862,True,0.0,True,比例外推,190894034.37,264360178.0,264360178.0
13,300224,3303474.29,5198894.8500000015,2017-03-31,一季度报告,1814385.36,2017,3,1.3719987889463028,False,0.7375771896302165,True,0.057883165211469106,True,前期平均,113360644.61500004,262944137.99999997,262944137.99999997
14,300224,-19700492.43,-14969354.800000004,2017-06-30,半年度报告,-18507618.58,2017,6,0.04381625492168433,True,0.025808824413900977,True,0.17665424947098585,False,平均增速,36076681.37584351,152750000.0,152750000.0
15,300224,-2515497.54,3500883.94,2017-09-30,三季度报告,-255343.55,2017,9,-0.32152069354140156,True,0.018937412337590706,True,0.1874412516258911,False,平均增速,45833261.85251538,50000000.0,45833261.85251538
16,300224,95122936.92,101596591.32999995,2017-12-31,年度报告,-27144292.17,2017,12,-0.6020206168250102,True,0.42645889214729366,True,0.0,True,比例外推,101596591.32999995,292798000.0,292798000.0
17,300224,23584209.39,25071490.20000001,2018-03-31,一季度报告,23572152.09,2018,3,22.470847611772992,False,0.8885615616458158,True,0.1680773047548916,False,前期平均,153369271.35000002,180666667.00000003,180666667.00000003
18,300224,30992176.87,34947347.8,2018-06-30,半年度报告,49569461.78,2018,6,-4.935705766010641,False,1.229399987136071,True,0.1956689574020155,False,前期平均,111802944.33500002,113279750.0,111802944.33500002
19,300224,52507843.01000001,57547421.74000001,2018-09-30,三季度报告,71538517.53,2018,9,-31.823063993137517,False,1.0194236397862166,True,0.5195893091538556,False,前期平均,93406858.00500004,115763333.0,115763333.0
20,300224,-87983104.78000002,-81560746.82000001,2018-12-31,年度报告,-71121295.75000001,2018,12,-0.1848933163700725,True,0.46406764920924953,True,0.0,True,比例外推,-81560746.82000001,105145000.0,105145000.0
21,300224,5340206.470000002,6909940.659999997,2019-03-31,一季度报告,6466970.809999999,2019,3,2.2875955419084746,False,0.3105527412412957,True,0.2596930752647403,False,前期平均,62464559.030000016,111110000.0,111110000.0
22,300224,43541647.43,48502908.16999999,2019-06-30,半年度报告,46549309.87000001,2019,6,1.5017713978346945,False,0.13565745265938198,True,0.8190305627924903,False,前期平均,97221017.04,120833333.0,120833333.0
23,300224,80356758.97,83999817.84,2019-09-30,三季度报告,80338848.76,2019,9,0.47664305378595617,True,0.06036847676960966,True,0.8746309635147488,False,平均增速,31658256.086779505,115500000.0,115500000.0
24,300224,87695660.22,93123746.43,2019-12-31,年度报告,84278658.92999999,2019,12,-1.8812526205329483,False,1.606894202028367,True,0.0,True,前期平均,93123746.43,147000000.0,147000000.0
25,300224,13562043.500000002,13549923.340000002,2020-03-31,一季度报告,10673090.68,2020,3,13.519165520205059,False,0.602776755814616,True,0.22425426433547574,False,前期平均,-48276139.345000006,126000000.0,126000000.0
