,SECURITYCODE_x,NETPROFIT_x,PARENTNETPROFIT_x,REPORTDATE_x,REPORTTIMETYPE_x,KCFJCXSYJLR,Year,Month,managesituationChangeRate,managesituationGreatChange,historyprofitextroplaterate,ifhistoryprofitextroplate,IfprofitdisStableChangeRage,IfprofitdisStable,predicttype,predict,analyst_prediction,adj_prediction
0,300202,271985883.04,271985883.04,2013-12-31,年度报告,263337924.8,2013,12,未知,未知,未知,未知,未知,未知,未知,未知,未知,未知
1,300202,19073453.29,19073453.29,2014-03-31,一季度报告,15316303.89,2014,3,未知,未知,未知,未知,未知,未知,未知,未知,未知,未知
2,300202,63147665.92,63147665.92,2014-06-30,半年度报告,56391256.17,2014,6,未知,未知,未知,未知,未知,未知,未知,未知,未知,未知
3,300202,103671864.67000002,103675107.24,2014-09-30,三季度报告,95833346.67000002,2014,9,未知,未知,未知,未知,未知,未知,未知,未知,未知,未知
4,300202,369401914.31,369598797.77,2014-12-31,年度报告,355553909.15000004,2014,12,0.0,True,未知,未知,未知,未知,未知,未知,未知,未知
5,300202,7857989.77,8006918.1499999985,2015-03-31,一季度报告,3802035.88,2015,3,13.25991816503408,False,未知,未知,未知,未知,未知,未知,548160000.0,未知
6,300202,59656626.76,60111548.91,2015-06-30,半年度报告,55387489.49,2015,6,3.307140716563796,False,未知,未知,未知,未知,未知,未知,481455000.0,未知
7,300202,97263608.86,98072725.65,2015-09-30,三季度报告,90860990.62,2015,9,1.623526488172695,False,未知,未知,未知,未知,未知,未知,415050000.0,未知
8,300202,259144965.11000004,259528176.64,2015-12-31,年度报告,242024646.26,2015,12,-0.26371284905754167,True,未知,未知,未知,未知,未知,未知,391247500.0,未知
9,300202,10422472.39,10539356.329999998,2016-03-31,一季度报告,10145050.24,2016,3,33.61265425393905,False,未知,未知,未知,未知,未知,未知,451097500.0,未知
10,300202,13393387.35,13671187.44,2016-06-30,半年度报告,10777485.580000002,2016,6,3.5591897801095187,False,未知,未知,未知,未知,未知,未知,431999178.0,未知
11,300202,119458558.87000002,121843566.74,2016-09-30,三季度报告,118658196.96999998,2016,9,1.7963786890890818,False,未知,未知,未知,未知,未知,未知,449599720.0,未知
12,300202,309284314.67999995,311604517.66,2016-12-31,年度报告,306120654.75000006,2016,12,0.04955109941861828,True,0.19192424246080012,True,0.0,True,比例外推,311604517.66,449599720.0,449599720.0
13,300202,14351037.29,15222632.070000002,2017-03-31,一季度报告,10744919.430000003,2017,3,25.096100125049123,False,0.2259997084612219,True,0.014933137172538823,True,前期平均,304452739.89,436166667.0,436166667.0
14,300202,14621849.4,15948296.63,2017-06-30,半年度报告,11021256.49,2017,6,19.307475318407786,False,0.7818742804878961,True,0.10567948010990204,False,前期平均,258848201.50500003,391980000.0,391980000.0
15,300202,40843722.78,43312754.8,2017-09-30,三季度报告,39188444.24000001,2017,9,1.276822067943971,False,0.18902408590551473,True,0.07465812736179578,True,前期平均,248754863.86,,248754863.86
16,300202,54943861.25999999,58868041.01000001,2017-12-31,年度报告,53113986.63,2017,12,-0.12059593671470417,True,0.01587510874162281,True,0.0,True,比例外推,58868041.01000001,487400000.0,487400000.0
17,300202,5017121.34,5815340.17,2018-03-31,一季度报告,2529889.5500000003,2018,3,17.952350101516604,False,0.5700956753053993,True,0.11858283582901268,False,前期平均,272914447.615,未知,272914447.615
18,300202,14844569.28,16351211.509999998,2018-06-30,半年度报告,11881968.22,2018,6,17.60133254005475,False,0.5996756584336271,True,0.1219797536583722,False,前期平均,257341374.48000002,未知,257341374.48000002
19,300202,34199315.45,36206854.94,2018-09-30,三季度报告,31115479.18,2018,9,5.659184435880651,False,0.6230775724716401,True,0.23753204233126302,False,前期平均,205519911.65000004,未知,205519911.65000004
20,300202,-136001627.97,-132559024.65,2018-12-31,年度报告,-135675821.15,2018,12,3.9502506158592476,False,0.806681804708236,True,0.0,True,盈利变化,-4061894.9166666567,未知,-4061894.9166666567
21,300202,8048705.5699999975,8804686.56,2019-03-31,一季度报告,7623863.539999999,2019,3,53.21154176031948,False,0.5949607944287044,True,0.13003479198227696,False,前期平均,177977022.41500002,未知,177977022.41500002
22,300202,19661205.220000006,20885347.63,2019-06-30,半年度报告,18039257.65,2019,6,17.322248218171275,False,0.059749693530610576,True,0.15579114423295326,False,前期平均,189603297.28500003,未知,189603297.28500003
23,300202,42187551.92,44896291.45,2019-09-30,三季度报告,41465155.320000015,2019,9,6.95296278481504,False,0.5733146765225722,True,0.5280369137575478,False,前期平均,145590291.53500003,未知,145590291.53500003
24,300202,43382609.86000001,37896860.72000001,2019-12-31,年度报告,-42904819.36,2019,12,-2.9998722596173346,False,1.7467935593890123,True,0.0,True,前期平均,37896860.72000001,未知,37896860.72000001
25,300202,8322484.38,9376844.15,2020-03-31,一季度报告,8479105.32,2020,3,32.792500008172134,False,0.1688724030240971,True,0.20031251420165144,False,前期平均,-38541477.60000002,未知,-38541477.60000002
