,SECURITYCODE_x,NETPROFIT_x,PARENTNETPROFIT_x,REPORTDATE_x,REPORTTIMETYPE_x,KCFJCXSYJLR,Year,Month,managesituationChangeRate,managesituationGreatChange,historyprofitextroplaterate,ifhistoryprofitextroplate,IfprofitdisStableChangeRage,IfprofitdisStable,predicttype,predict,analyst_prediction,adj_prediction
0,300385,8293409.0299999975,8293409.0299999975,2014-03-31,一季度报告,8205909.0299999975,2014,3,未知,未知,未知,未知,未知,未知,未知,未知,未知,未知
1,300385,26387807.24,26387807.24,2014-06-30,半年度报告,23841527.3,2014,6,未知,未知,未知,未知,未知,未知,未知,未知,未知,未知
2,300385,33232265.260000005,33232265.260000005,2014-09-30,三季度报告,27665096.92000001,2014,9,未知,未知,未知,未知,未知,未知,未知,未知,未知,未知
3,300385,46016663.89999999,46016663.89999999,2014-12-31,年度报告,41060995.66,2014,12,未知,未知,未知,未知,未知,未知,未知,未知,未知,未知
4,300385,13152417.27,11246465.65,2015-03-31,一季度报告,9480667.7,2015,3,0.0,True,未知,未知,未知,未知,未知,未知,67810000.0,未知
5,300385,37811572.86,30579418.03,2015-06-30,半年度报告,28588103.379999995,2015,6,-0.6857105649374147,True,未知,未知,未知,未知,未知,未知,67810000.0,未知
6,300385,44047300.99,36196135.59,2015-09-30,三季度报告,34243292.12,2015,9,-0.7504410558499497,True,未知,未知,未知,未知,未知,未知,60724000.0,未知
7,300385,70371212.73,56559343.03999999,2015-12-31,年度报告,53574627.54,2015,12,-0.819773787860358,True,未知,未知,未知,未知,未知,未知,61942500.0,未知
8,300385,15167882.420000002,12657996.019999998,2016-03-31,一季度报告,12442085.92,2016,3,-0.3694384188283894,True,未知,未知,未知,未知,未知,未知,91761176.0,未知
9,300385,39481226.93,32796246.66,2016-06-30,半年度报告,30739044.430000003,2016,6,-0.7806647964445456,True,未知,未知,未知,未知,未知,未知,88170625.0,未知
10,300385,49412621.58,40507064.42,2016-09-30,三季度报告,35130949.14000001,2016,9,-0.8117158408438502,True,未知,未知,未知,未知,未知,未知,79770000.0,未知
11,300385,103522680.43,88707252.26000002,2016-12-31,年度报告,58696602.87000001,2016,12,-0.882147703467608,True,未知,未知,未知,未知,未知,未知,79770000.0,未知
12,300385,15351670.01,13859550.65,2017-03-31,一季度报告,13530006.78,2017,3,-0.4532256513892467,True,0.41453000764069453,True,0.019298620949327522,True,比例外推,69268558.9496029,115200000.0,115200000.0
13,300385,42872850.16000001,36296330.21,2017-06-30,半年度报告,35097445.46,2017,6,-0.7899404432211753,True,0.22995664034456942,True,0.034655739189550006,True,比例外推,65482143.95786073,98133750.0,98133750.0
14,300385,49666925.47,44507887.77,2017-09-30,三季度报告,43142635.36999999,2017,9,-0.8321601087978542,True,0.2788017318873085,True,0.03863029747298341,True,比例外推,69077374.48712286,96162222.0,96162222.0
15,300385,76052614.63,60342452.32000001,2017-12-31,年度报告,59093297.11,2017,12,-0.9198879994649304,True,0.7789254934017094,True,0.0,True,比例外推,60342452.32000001,96111818.0,96111818.0
16,300385,18037732.26,20671825.36,2018-03-31,一季度报告,15657697.070000006,2018,3,-0.45977154116798286,True,0.084146013851734,True,0.029003048232828343,True,比例外推,81035303.06542416,100280000.0,100280000.0
17,300385,37695176.06,37212931.42,2018-06-30,半年度报告,37273535.31,2018,6,-0.806558019841245,True,0.10936206933849034,True,0.04351968183188393,True,比例外推,67658598.86632644,73140000.0,67658598.86632644
18,300385,47881311.47000001,49291619.67000001,2018-09-30,三季度报告,48854965.60999999,2018,9,-0.8330194802372171,True,0.06284970293657718,True,0.07415524195686585,True,比例外推,74919612.38165611,,74919612.38165611
19,300385,38113596.88,43320357.14,2018-12-31,年度报告,53450223.09,2018,12,-0.8909516908741681,True,0.12529861459799657,True,0.0,True,比例外推,43320357.14,137262500.0,137262500.0
20,300385,19615131.8,21650973.25,2019-03-31,一季度报告,9997540.430000003,2019,3,-0.5402188639648875,True,0.18204435018315251,True,0.048315546639782075,True,比例外推,52522401.22881043,118930000.0,118930000.0
21,300385,64040935.67,68696393.42,2019-06-30,半年度报告,40271153.08,2019,6,-0.7799875236874011,True,0.08455835115958797,True,0.09235810300829761,True,比例外推,94989975.48060359,126400000.0,126400000.0
22,300385,78614118.71000001,82589917.41999999,2019-09-30,三季度报告,51234343.66,2019,9,-0.8267923585343683,True,0.03347738467482194,True,0.16648682465042686,False,平均增速,87195134.94807778,126400000.0,126400000.0
23,300385,99947295.93,89840477.57000001,2019-12-31,年度报告,62895509.07000001,2019,12,-0.7824028769546035,True,0.5755140275028876,True,0.0,True,比例外推,89840477.57000001,未知,89840477.57000001
24,300385,-28493969.23,-26191503.37,2020-03-31,一季度报告,-27099282.41,2020,3,-0.5771933059353699,True,0.1749315930476523,True,0.0679967884489962,True,比例外推,-118497806.96144404,,-118497806.96144404
