,SECURITYCODE_x,NETPROFIT_x,PARENTNETPROFIT_x,REPORTDATE_x,REPORTTIMETYPE_x,KCFJCXSYJLR,Year,Month,managesituationChangeRate,managesituationGreatChange,historyprofitextroplaterate,ifhistoryprofitextroplate,IfprofitdisStableChangeRage,IfprofitdisStable,predicttype,predict,analyst_prediction,adj_prediction
0,300306,89997774.17999999,89997774.17999999,2013-12-31,年度报告,83168462.12,2013,12,未知,未知,未知,未知,未知,未知,未知,未知,未知,未知
1,300306,12748399.66,12748399.66,2014-03-31,一季度报告,10792034.65,2014,3,未知,未知,未知,未知,未知,未知,未知,未知,未知,未知
2,300306,44114110.75999999,44114110.75999999,2014-06-30,半年度报告,39660903.37999999,2014,6,未知,未知,未知,未知,未知,未知,未知,未知,未知,未知
3,300306,60958130.74,60958130.74,2014-09-30,三季度报告,56008895.63000002,2014,9,未知,未知,未知,未知,未知,未知,未知,未知,未知,未知
4,300306,90351711.67,90351711.67,2014-12-31,年度报告,77825100.11,2014,12,0.0,True,未知,未知,未知,未知,未知,未知,未知,未知
5,300306,9620754.14,9620754.14,2015-03-31,一季度报告,9389062.44,2015,3,6.059535045985529,False,未知,未知,未知,未知,未知,未知,111015000.0,未知
6,300306,27695521.43,27695825.29,2015-06-30,半年度报告,21574238.83,2015,6,1.0401130756013002,False,未知,未知,未知,未知,未知,未知,104283333.0,未知
7,300306,38580459.59,38581586.1,2015-09-30,三季度报告,31935308.53,2015,9,0.4763867114603716,True,未知,未知,未知,未知,未知,未知,93600000.0,未知
8,300306,55830427.67000001,55740588.8,2015-12-31,年度报告,46111746.55,2015,12,-0.003917330213872743,True,未知,未知,未知,未知,未知,未知,,未知
9,300306,12888650.31,12836760.74,2016-03-31,一季度报告,12349353.740000002,2016,3,8.354544651111933,False,未知,未知,未知,未知,未知,未知,101000000.0,未知
10,300306,38799169.67999999,38695929.33000001,2016-06-30,半年度报告,37713462.86000001,2016,6,2.2495425084329237,False,未知,未知,未知,未知,未知,未知,89310000.0,未知
11,300306,60892904.44000001,60712440.06,2016-09-30,三季度报告,59414074.94,2016,9,1.332729447404698,False,未知,未知,未知,未知,未知,未知,118417138.0,未知
12,300306,87378421.72999997,87135499.33999999,2016-12-31,年度报告,84605922.23000002,2016,12,0.6119843235297212,False,0.3808640217978197,True,0.0,True,前期平均,87135499.33999999,120395077.0,120395077.0
13,300306,24599872.98,24520578.96,2017-03-31,一季度报告,22341591.3,2017,3,5.982715180826408,False,0.1523592197752246,True,0.04086574688167871,True,前期平均,76398453.745,186982500.0,186982500.0
14,300306,68451832.88,68128769.98,2017-06-30,半年度报告,60460920.92000002,2017,6,1.3195799013810239,False,0.08061184820838152,True,0.03520288321837112,True,前期平均,99479622.20500001,186425000.0,186425000.0
15,300306,103445129.49,103090787.0,2017-09-30,三季度报告,88838452.03000002,2017,9,0.47796816406873915,True,0.22350345204049876,True,0.0148482387139669,True,比例外推,140295027.86001188,185000000.0,185000000.0
16,300306,133252693.38,128349283.91,2017-12-31,年度报告,18766365.12,2017,12,0.02997710874309264,True,0.19547329276348205,True,0.0,True,比例外推,128349283.91,179105000.0,179105000.0
17,300306,18297768.71,19107348.0,2018-03-31,一季度报告,18779745.740000006,2018,3,2.658464995049742,False,1.1857417893612905,True,0.6771487506475353,False,前期平均,73596974.30000001,未知,73596974.30000001
18,300306,-26976417.21,-28391087.52,2018-06-30,半年度报告,-30943692.71,2018,6,0.314760619160794,True,1.058866106070404,True,1.8433059713109141,False,平均增速,-39158893.124930575,未知,-39158893.124930575
19,300306,826718.48,1176437.9500000002,2018-09-30,三季度报告,-3536155.5799999987,2018,9,-0.12999505512050186,True,1.0798558588769982,True,2.691009892398665,False,平均增速,-33456732.91359205,未知,-33456732.91359205
20,300306,-483725116.94000006,-485110159.74,2018-12-31,年度报告,-644916299.3,2018,12,-0.32460821693599007,True,0.860956134181468,True,0.0,True,比例外推,-485110159.74,,-485110159.74
21,300306,12216727.44,12594860.71,2019-03-31,一季度报告,8309352.549999999,2019,3,3.918510863612288,False,0.0238202466150007,True,0.7547271104246547,False,前期平均,46935531.865,未知,46935531.865
22,300306,73377423.03000002,73571992.38000001,2019-06-30,半年度报告,29614619.87,2019,6,-4.336164824239089,False,1.503052028719423,True,1.983268527196344,False,前期平均,76170944.165,未知,76170944.165
23,300306,127829878.63,127844295.87000002,2019-09-30,三季度报告,52964294.17999999,2019,9,107.8614520628594,False,0.9899388052755682,True,2.920036655346162,False,前期平均,105404176.06000003,未知,105404176.06000003
24,300306,123979999.10000002,123116327.27,2019-12-31,年度报告,73669369.75,2019,12,-1.1860514805377844,False,5.384922015182033,False,0.0,True,前期平均,123116327.27,未知,123116327.27
25,300306,3671081.92,4017912.44,2020-03-31,一季度报告,2502875.94,2020,3,6.366766150919382,False,0.43042428633796537,True,0.7657840199029708,False,前期平均,-329617723.16999996,未知,-329617723.16999996
