,SECURITYCODE_x,NETPROFIT_x,PARENTNETPROFIT_x,REPORTDATE_x,REPORTTIMETYPE_x,KCFJCXSYJLR,Year,Month,managesituationChangeRate,managesituationGreatChange,historyprofitextroplaterate,ifhistoryprofitextroplate,IfprofitdisStableChangeRage,IfprofitdisStable,predicttype,predict,analyst_prediction,adj_prediction
0,300332,112628018.69,116044966.44,2013-12-31,年度报告,114389530.42,2013,12,未知,未知,未知,未知,未知,未知,未知,未知,未知,未知
1,300332,20512181.950000007,21383832.84,2014-03-31,一季度报告,21309794.44,2014,3,未知,未知,未知,未知,未知,未知,未知,未知,未知,未知
2,300332,57658875.39000001,60009869.27,2014-06-30,半年度报告,58841847.17,2014,6,未知,未知,未知,未知,未知,未知,未知,未知,未知,未知
3,300332,81432286.92999999,85520428.42,2014-09-30,三季度报告,85144418.59,2014,9,未知,未知,未知,未知,未知,未知,未知,未知,未知,未知
4,300332,138625879.20999998,140075541.6,2014-12-31,年度报告,135591934.79999998,2014,12,0.0,True,未知,未知,未知,未知,未知,未知,未知,未知
5,300332,20904213.54,21586698.64,2015-03-31,一季度报告,20195982.05,2015,3,4.490786838988622,False,未知,未知,未知,未知,未知,未知,201451875.0,未知
6,300332,59113294.43000001,60671468.89999999,2015-06-30,半年度报告,60671468.89999999,2015,6,0.9533509442942325,False,未知,未知,未知,未知,未知,未知,205187500.0,未知
7,300332,91309033.67999998,92826167.71,2015-09-30,三季度报告,90257738.81,2015,9,0.38308799784557407,True,未知,未知,未知,未知,未知,未知,203173086.0,未知
8,300332,138694293.11,140445459.64999998,2015-12-31,年度报告,134876973.98999998,2015,12,-0.1875397340536729,True,未知,未知,未知,未知,未知,未知,197730781.0,未知
9,300332,24392379.960000005,21753675.01,2016-03-31,一季度报告,21141391.45,2016,3,4.387814206666395,False,未知,未知,未知,未知,未知,未知,272183333.0,未知
10,300332,61724394.57999998,59105944.46,2016-06-30,半年度报告,35564355.91,2016,6,0.9052908449108744,False,未知,未知,未知,未知,未知,未知,207803000.0,未知
11,300332,87116113.24000001,87271675.18,2016-09-30,三季度报告,60624259.47000002,2016,9,0.2334816627751659,True,未知,未知,未知,未知,未知,未知,181910000.0,未知
12,300332,48560718.33000001,58372612.01999999,2016-12-31,年度报告,38235252.68,2016,12,-0.18794049730169185,True,0.10401704625653911,True,0.0,True,比例外推,58372612.01999999,270225000.0,270225000.0
13,300332,1311095.39,2821257.11,2017-03-31,一季度报告,-2119354.61,2017,3,3.617344386841044,False,0.17790936035896923,True,0.2663203503571209,False,前期平均,117302823.25999998,299333333.0,299333333.0
14,300332,14663391.85,16508290.78,2017-06-30,半年度报告,7646974.760000003,2017,6,0.8246921570696761,False,0.05717646036972427,True,0.32550014888076484,False,前期平均,91986087.13999999,221000000.0,221000000.0
15,300332,42130765.95,45172034.55,2017-09-30,三季度报告,34615657.129999995,2017,9,0.2928494454259698,True,0.008630858353607818,True,0.6246622774722332,False,平均增速,31625659.362012718,199000000.0,199000000.0
16,300332,74177223.13,90172263.66,2017-12-31,年度报告,93933106.34,2017,12,1.3193235718760004,False,0.6497858924307478,True,0.0,True,前期平均,90172263.66,294476667.0,294476667.0
17,300332,-24468575.75,-16311501.34,2018-03-31,一季度报告,-16282590.550000004,2018,3,84.90375616376777,False,0.9421106406158335,True,0.3262282189666771,False,盈利变化,71287949.07333332,未知,71287949.07333332
18,300332,16658865.68,37717501.39,2018-06-30,半年度报告,-14514438.24,2018,6,6.680898106122698,False,0.7573043316181506,True,0.44301815175430714,False,前期平均,76155702.32,129460000.0,129460000.0
19,300332,-3906242.09,31078730.320000004,2018-09-30,三季度报告,-21362272.54,2018,9,1.6732962515721836,False,0.5277485637280707,True,0.7111396513664572,False,前期平均,42193844.514999986,,42193844.514999986
20,300332,19431685.56,84395528.61,2018-12-31,年度报告,24773217.779999994,2018,12,0.5183639119600459,False,0.20774111667748074,True,0.0,True,前期平均,84395528.61,,84395528.61
21,300332,-2708726.99,4705701.61,2019-03-31,一季度报告,4345288.659999998,2019,3,-5.602965854684043,False,2.903911857584659,False,0.6149662193163457,False,前期平均,61278862.699999996,未知,61278862.699999996
22,300332,26939182.05000001,42012767.57000001,2019-06-30,半年度报告,19400638.430000003,2019,6,5.760845597381634,False,0.5638343128252367,True,0.7882583338932623,False,前期平均,86491281.745,91000000.0,86491281.745
23,300332,23275716.37,47679519.79000001,2019-09-30,三季度报告,23006152.92,2019,9,-29.832831169969808,False,1.060446211382135,True,1.2262331932788866,False,前期平均,66143741.0,,66143741.0
24,300332,10613668.12,47168621.05,2019-12-31,年度报告,16012593.99,2019,12,4.796101338827963,False,0.6833630199617982,True,0.0,True,前期平均,47168621.05,89000000.0,89000000.0
25,300332,-13017068.31,-14292370.760000002,2020-03-31,一季度报告,-13794156.6,2020,3,-42.57968636403626,False,-0.7660603012166389,True,0.5211121003212835,False,盈利变化,22982694.036666665,141000000.0,141000000.0
