,SECURITYCODE_x,NETPROFIT_x,PARENTNETPROFIT_x,REPORTDATE_x,REPORTTIMETYPE_x,KCFJCXSYJLR,Year,Month,managesituationChangeRate,managesituationGreatChange,historyprofitextroplaterate,ifhistoryprofitextroplate,IfprofitdisStableChangeRage,IfprofitdisStable,predicttype,predict,analyst_prediction,adj_prediction
0,300320,68347772.12,67603717.56,2013-12-31,年度报告,66245998.32000001,2013,12,未知,未知,未知,未知,未知,未知,未知,未知,未知,未知
1,300320,19157157.08,18853814.97,2014-03-31,一季度报告,15852684.070000002,2014,3,未知,未知,未知,未知,未知,未知,未知,未知,未知,未知
2,300320,44490642.49999999,43237433.69,2014-06-30,半年度报告,40059461.36000001,2014,6,未知,未知,未知,未知,未知,未知,未知,未知,未知,未知
3,300320,64296277.02000001,61927316.06,2014-09-30,三季度报告,58475768.07000001,2014,9,未知,未知,未知,未知,未知,未知,未知,未知,未知,未知
4,300320,85537257.44000001,81969219.21,2014-12-31,年度报告,78514234.21,2014,12,0.0,True,未知,未知,未知,未知,未知,未知,未知,未知
5,300320,21082279.94,20271125.950000007,2015-03-31,一季度报告,19747729.19,2015,3,2.5677408623096185,False,未知,未知,未知,未知,未知,未知,109625000.0,未知
6,300320,46178697.14,44641927.36000001,2015-06-30,半年度报告,41698181.24000001,2015,6,0.5362280308718854,False,未知,未知,未知,未知,未知,未知,106250000.0,未知
7,300320,56932157.2,54157796.47000001,2015-09-30,三季度报告,51114792.89000001,2015,9,0.06301290351134538,True,未知,未知,未知,未知,未知,未知,85000000.0,未知
8,300320,69759928.56,65762884.94,2015-12-31,年度报告,61965924.38,2015,12,-0.20095904211164997,True,未知,未知,未知,未知,未知,未知,110545759.99999999,未知
9,300320,20137365.3,20153750.57,2016-03-31,一季度报告,19175971.09,2016,3,2.241953541766698,False,未知,未知,未知,未知,未知,未知,85000000.0,未知
10,300320,41490993.49000001,41206637.08000001,2016-06-30,半年度报告,40084262.93,2016,6,0.4800714691622849,True,未知,未知,未知,未知,未知,未知,85000000.0,未知
11,300320,60944360.18999999,60483841.85,2016-09-30,三季度报告,59018648.67,2016,9,0.2005126009874785,True,未知,未知,未知,未知,未知,未知,,未知
12,300320,83743854.34000002,82981230.72,2016-12-31,年度报告,80531808.97999999,2016,12,-0.020243088964539465,True,0.09335003204063456,True,0.0,True,比例外推,82981230.72,85000000.0,82981230.72
13,300320,23643367.78,23605063.26,2017-03-31,一季度报告,23522781.11,2017,3,2.3940771844666298,False,0.0008770893087411705,True,0.06578289595126557,True,前期平均,76044935.925,137000000.0,137000000.0
14,300320,60026442.20999999,60205822.97,2017-06-30,半年度报告,58728682.64000001,2017,6,0.6472917703566897,False,0.08478447830901141,True,0.11262624580403624,False,前期平均,89567080.96499999,,89567080.96499999
15,300320,100961762.14000002,100344447.97,2017-09-30,三季度报告,98482781.57999995,2017,9,0.12147821237140165,True,0.005446627800221427,True,0.057376829237387406,True,比例外推,130176543.54435031,161000000.0,161000000.0
16,300320,142230285.75,140280141.21,2017-12-31,年度报告,137041242.21,2017,12,-0.1838473084543246,True,0.07849802687345563,True,0.0,True,比例外推,140280141.21,140000000.0,140280141.21
17,300320,47828440.38999999,46732054.11000001,2018-03-31,一季度报告,46905542.11999999,2018,3,1.89077989041035,False,0.1471892900745402,True,0.07586987884229177,True,前期平均,98519070.65,228000000.0,228000000.0
18,300320,96367310.79,91792650.91999996,2018-06-30,半年度报告,90422795.14,2018,6,0.13862773810395404,True,0.36937730197622776,True,0.13985010793642816,False,平均增速,210840620.62613755,220000000.0,210840620.62613755
19,300320,129309540.47,122019966.98,2018-09-30,三季度报告,119454136.63000004,2018,9,-0.3230330902384149,True,0.7130089075496401,True,0.06609119939308716,True,比例外推,159992072.9854022,163000000.0,159992072.9854022
20,300320,175967309.72,166984711.45999998,2018-12-31,年度报告,163720930.25999996,2018,12,-0.5194569724753576,True,0.8531176634605265,True,0.0,True,比例外推,166984711.45999998,330000000.0,330000000.0
21,300320,58609366.93,57359180.24999999,2019-03-31,一季度报告,57257018.60999999,2019,3,0.42901946128041024,True,1.1849081559508685,True,0.06043957684161755,True,比例外推,246807102.3564645,,246807102.3564645
22,300320,104966499.3,101699490.88,2019-06-30,半年度报告,101072071.41,2019,6,-0.2907577106832328,True,0.8985371355277447,True,0.0643159279360192,True,比例外推,205698569.69806442,未知,205698569.69806442
23,300320,158209853.04000002,153662198.41999996,2019-09-30,三季度报告,152692513.48999998,2019,9,-0.47144060777281327,True,0.5973397251332959,True,0.008403200031420921,True,比例外推,210989304.1560462,未知,210989304.1560462
24,300320,229445789.19,224407244.96,2019-12-31,年度报告,219929373.51,2019,12,-0.6115882419936106,True,0.5574110351734626,True,0.0,True,比例外推,224407244.96,201000000.0,201000000.0
25,300320,26981951.79,26501651.070000004,2020-03-31,一季度报告,26372380.96,2020,3,0.16615782937275286,True,0.6400695163775373,True,0.06784825093372876,True,比例外推,110245567.7328767,262000000.0,262000000.0
