,SECURITYCODE_x,NETPROFIT_x,PARENTNETPROFIT_x,REPORTDATE_x,REPORTTIMETYPE_x,KCFJCXSYJLR,Year,Month,managesituationChangeRate,managesituationGreatChange,historyprofitextroplaterate,ifhistoryprofitextroplate,IfprofitdisStableChangeRage,IfprofitdisStable,predicttype,predict,analyst_prediction,adj_prediction
0,300342,100702035.21999998,100702035.21999998,2013-12-31,年度报告,97469481.00999998,2013,12,未知,未知,未知,未知,未知,未知,未知,未知,未知,未知
1,300342,19334129.28,19334129.28,2014-03-31,一季度报告,19256850.76,2014,3,未知,未知,未知,未知,未知,未知,未知,未知,未知,未知
2,300342,44837936.73,44837936.73,2014-06-30,半年度报告,43210280.94,2014,6,未知,未知,未知,未知,未知,未知,未知,未知,未知,未知
3,300342,68402510.69,68402510.69,2014-09-30,三季度报告,66680236.38999999,2014,9,未知,未知,未知,未知,未知,未知,未知,未知,未知,未知
4,300342,91011186.55,91011186.55,2014-12-31,年度报告,88754157.60999998,2014,12,0.0,True,未知,未知,未知,未知,未知,未知,未知,未知
5,300342,24603210.16,24603210.16,2015-03-31,一季度报告,24551431.65,2015,3,4.208511527031642,False,未知,未知,未知,未知,未知,未知,129000000.0,未知
6,300342,65387199.14,58657284.72000001,2015-06-30,半年度报告,57083028.24,2015,6,1.2459114438381962,False,未知,未知,未知,未知,未知,未知,142730000.0,未知
7,300342,93360079.97,81772115.18,2015-09-30,三季度报告,80032003.4,2015,9,0.47219793841166663,True,未知,未知,未知,未知,未知,未知,129240000.0,未知
8,300342,125803456.24,109602870.48999998,2015-12-31,年度报告,106948143.96,2015,12,0.10647975306503668,True,未知,未知,未知,未知,未知,未知,132592000.0,未知
9,300342,33730764.08000001,32338316.38000001,2016-03-31,一季度报告,32240759.43,2016,3,3.09304454845985,False,未知,未知,未知,未知,未知,未知,157750000.0,未知
10,300342,72671806.72999999,71889463.96000001,2016-06-30,半年度报告,69602106.44,2016,6,0.5400879154402634,False,未知,未知,未知,未知,未知,未知,165421667.00000003,未知
11,300342,108454523.90000004,107672181.13000004,2016-09-30,三季度报告,104163638.34,2016,9,0.07864126993420767,True,未知,未知,未知,未知,未知,未知,156837080.0,未知
12,300342,165741808.40999997,165276153.07999998,2016-12-31,年度报告,162027300.6,2016,12,-0.199528866457477,True,0.31241293718309626,True,0.0,True,比例外推,165276153.07999998,208000000.0,208000000.0
13,300342,50905113.95999999,50854302.19000001,2017-03-31,一季度报告,50616296.0,2017,3,1.9854655821363163,False,0.5354031222606052,True,0.01618844077655035,True,前期平均,126801311.77000001,233524444.0,233524444.0
14,300342,91923129.73999998,92117337.69,2017-06-30,半年度报告,91357685.85,2017,6,0.3857098061995575,True,0.3186067979214728,True,0.05381934480344169,True,比例外推,189753557.95956665,222048332.99999997,222048332.99999997
15,300342,139704223.0,139483625.48999998,2017-09-30,三季度报告,132631848.20999998,2017,9,-0.07148146892561343,True,0.34090982912056234,True,0.07128752010917627,True,比例外推,192567854.04149848,223895556.0,223895556.0
16,300342,190771489.34,190569909.04,2017-12-31,年度报告,182030419.13,2017,12,-0.392416215401182,True,0.5288802110153823,True,0.0,True,比例外推,190569909.04,223895556.0,223895556.0
17,300342,41926385.92,41967656.23,2018-03-31,一季度报告,41522394.64000001,2018,3,0.9782302284821365,False,0.7452990173638471,True,0.042527564978809745,True,前期平均,148059282.97,232540000.0,232540000.0
18,300342,74947757.63,74921000.27,2018-06-30,半年度报告,72953794.08,2018,6,0.095502682565647,True,0.33164988637622406,True,0.0588286200397522,True,比例外推,151340597.5244242,232666667.00000003,232666667.00000003
19,300342,99119726.76,98782703.76000002,2018-09-30,三季度报告,95216490.01,2018,9,-0.2791768705517228,True,0.3844808088317655,True,0.06373192872068045,True,比例外推,138317523.82479286,,138317523.82479286
20,300342,97586727.21999995,97309450.25999998,2018-12-31,年度报告,94246996.04999998,2018,12,-0.47213267785247987,True,0.308692079557671,True,0.0,True,比例外推,97309450.25999998,244950000.0,244950000.0
21,300342,44113989.16,44113466.45,2019-03-31,一季度报告,27728287.11000001,2019,3,1.4018773144947472,False,0.009252650508687307,True,0.13469712160577907,False,前期平均,174713798.60000002,116200000.0,116200000.0
22,300342,77478026.23000002,77478613.83,2019-06-30,半年度报告,59021286.99,2019,6,0.343629728285441,True,0.0893066428728151,True,0.20556293334581455,False,平均增速,94828607.8567445,,94828607.8567445
23,300342,107073992.33999996,107034149.41,2019-09-30,三季度报告,87337760.44999999,2019,9,0.015963607969090195,True,0.2011587099128764,True,0.2163572504184419,False,平均增速,106191727.39334498,未知,106191727.39334498
24,300342,141978717.12,141545479.17,2019-12-31,年度报告,119078871.98000003,2019,12,0.03192348066942408,True,0.4525492999229931,True,0.0,True,比例外推,141545479.17,未知,141545479.17
25,300342,23700257.61,23754513.57,2020-03-31,一季度报告,23052238.969999995,2020,3,1.2827687347602366,False,0.0495900805863399,True,0.12340612801073747,False,前期平均,115823875.83999997,174680000.0,174680000.0
