,SECURITYCODE_x,NETPROFIT_x,PARENTNETPROFIT_x,REPORTDATE_x,REPORTTIMETYPE_x,KCFJCXSYJLR,Year,Month,managesituationChangeRate,managesituationGreatChange,historyprofitextroplaterate,ifhistoryprofitextroplate,IfprofitdisStableChangeRage,IfprofitdisStable,predicttype,predict,analyst_prediction,adj_prediction
0,300363,100781715.32,100201387.91,2013-12-31,年度报告,96269325.73,2013,12,未知,未知,未知,未知,未知,未知,未知,未知,未知,未知
1,300363,29400867.01,29615638.31,2014-03-31,一季度报告,29130903.09,2014,3,未知,未知,未知,未知,未知,未知,未知,未知,未知,未知
2,300363,41624890.24999999,42433206.54,2014-06-30,半年度报告,41077810.33,2014,6,未知,未知,未知,未知,未知,未知,未知,未知,未知,未知
3,300363,65401610.36,66774074.51000001,2014-09-30,三季度报告,64828323.56999999,2014,9,未知,未知,未知,未知,未知,未知,未知,未知,未知,未知
4,300363,122579501.18999998,125486041.39,2014-12-31,年度报告,121201666.46,2014,12,0.0,True,未知,未知,未知,未知,未知,未知,未知,未知
5,300363,30353996.739999995,31239644.72000001,2015-03-31,一季度报告,30912731.7,2015,3,2.4278484129641993,False,未知,未知,未知,未知,未知,未知,175240000.0,未知
6,300363,53084729.09,55446763.37999999,2015-06-30,半年度报告,54071325.94000001,2015,6,1.42118873382495,False,未知,未知,未知,未知,未知,未知,185480000.0,未知
7,300363,80023896.10000001,83651436.87999998,2015-09-30,三季度报告,79568141.58,2015,9,0.540966877807013,False,未知,未知,未知,未知,未知,未知,166276667.00000003,未知
8,300363,105634513.67999998,110394837.6,2015-12-31,年度报告,107789198.79999998,2015,12,-0.17782570216379906,True,未知,未知,未知,未知,未知,未知,154350000.0,未知
9,300363,44398540.94000001,45598771.72,2016-03-31,一季度报告,47243958.92,2016,3,2.320212365549592,False,未知,未知,未知,未知,未知,未知,160006937.0,未知
10,300363,90315052.74,92900585.39000002,2016-06-30,半年度报告,95824760.32000002,2016,6,0.8985067277848283,False,未知,未知,未知,未知,未知,未知,193615000.0,未知
11,300363,116425674.1,121217412.64,2016-09-30,三季度报告,121803619.20000002,2016,9,0.2593952585620232,True,未知,未知,未知,未知,未知,未知,186947500.0,未知
12,300363,162446609.65,171189670.04,2016-12-31,年度报告,173680392.83,2016,12,-0.045939515324514395,True,0.05413737146913624,True,0.0,True,比例外推,171189670.04,183510000.0,171189670.04
13,300363,54318229.51,56404019.56999999,2017-03-31,一季度报告,55443768.72,2017,3,1.269933047038549,False,0.4860226650587924,True,0.026034686327407325,True,前期平均,140877634.80499998,229850000.0,229850000.0
14,300363,55252825.20999999,59611993.05999998,2017-06-30,半年度报告,57739857.34,2017,6,0.11589056599603109,True,0.9071991497669553,True,0.12517588864743473,False,平均增速,131740330.46704423,131666667.0,131740330.46704423
15,300363,61735626.88,70997199.72,2017-09-30,三季度报告,67901106.43,2017,9,-0.13436863390254575,True,0.6011726819328416,True,0.1232440854459943,False,平均增速,117888122.32144435,,117888122.32144435
16,300363,94497738.36999996,107449932.43,2017-12-31,年度报告,90031610.18,2017,12,-0.37960099298385086,True,0.4236339494096035,True,0.0,True,比例外推,107449932.43,235736667.00000003,235736667.00000003
17,300363,18154788.0,22063101.84,2018-03-31,一季度报告,4252108.93,2018,3,0.8553939667979432,False,0.45328121815810424,True,0.22428191411067622,False,前期平均,123719552.345,128216667.0,123719552.345
18,300363,23931061.24,30717942.65,2018-06-30,半年度报告,17793101.45,2018,6,0.8240101739043726,False,0.22938759731863395,True,0.07642914636083331,True,前期平均,96504695.33499998,120162000.0,120162000.0
19,300363,85599923.83,97651557.74000002,2018-09-30,三季度报告,42613540.9,2018,9,0.6324725351197403,False,0.3714862616685938,True,0.02991892349681402,True,前期平均,137700473.16500002,134936667.0,137700473.16500002
20,300363,111441330.92,124494102.43999995,2018-12-31,年度报告,72047777.52000001,2018,12,0.0664987020683555,True,0.2950063980918491,True,0.0,True,比例外推,124494102.43999995,134936667.0,124494102.43999995
21,300363,16512501.31,16511266.279999996,2019-03-31,一季度报告,10410134.089999998,2019,3,4.551247159702442,False,0.6321843205112674,True,0.30020553545488476,False,前期平均,97023403.965,155000000.0,155000000.0
22,300363,65311338.87000001,65311176.19999998,2019-06-30,半年度报告,57795815.47999999,2019,6,3.211334980479119,False,0.6712040928669731,True,0.23304470125179028,False,前期平均,120384868.87499997,159000000.0,159000000.0
23,300363,135716174.07999998,135719184.28000003,2019-09-30,三季度报告,124333776.91,2019,9,0.17735753503882523,True,0.03907388013955663,True,0.09085877321998004,True,比例外推,193607223.6686928,182690000.0,193607223.6686928
24,300363,179621003.21999997,185550375.49,2019-12-31,年度报告,162088354.79999998,2019,12,-0.0956522639491105,True,0.13256445001603495,True,0.0,True,比例外推,185550375.49,179460000.0,185550375.49
25,300363,47115764.27,48164934.36000002,2020-03-31,一季度报告,48336440.22,2020,3,5.103358505653314,False,0.544313128462698,True,0.36946939980527993,False,前期平均,99356689.38500002,246923332.99999997,246923332.99999997
