,SECURITYCODE_x,NETPROFIT_x,PARENTNETPROFIT_x,REPORTDATE_x,REPORTTIMETYPE_x,KCFJCXSYJLR,Year,Month,managesituationChangeRate,managesituationGreatChange,historyprofitextroplaterate,ifhistoryprofitextroplate,IfprofitdisStableChangeRage,IfprofitdisStable,predicttype,predict,analyst_prediction,adj_prediction
0,300331,9574381.289999995,13761704.979999995,2013-12-31,年度报告,769487.1000000002,2013,12,未知,未知,未知,未知,未知,未知,未知,未知,未知,未知
1,300331,2869088.41,3999501.33,2014-03-31,一季度报告,1895934.51,2014,3,未知,未知,未知,未知,未知,未知,未知,未知,未知,未知
2,300331,6521551.6499999985,8910143.97,2014-06-30,半年度报告,5531091.489999998,2014,6,未知,未知,未知,未知,未知,未知,未知,未知,未知,未知
3,300331,9236367.85,13093135.070000002,2014-09-30,三季度报告,5191896.739999998,2014,9,未知,未知,未知,未知,未知,未知,未知,未知,未知,未知
4,300331,1639959.93,7906964.35,2014-12-31,年度报告,-10440765.19,2014,12,0.0,True,未知,未知,未知,未知,未知,未知,未知,未知
5,300331,-576484.5199999999,387551.13,2015-03-31,一季度报告,-2038312.09,2015,3,2.3370813031167605,False,未知,未知,未知,未知,未知,未知,17000000.0,未知
6,300331,-1911779.67,932820.1,2015-06-30,半年度报告,-7458971.569999997,2015,6,0.4681140016732057,True,未知,未知,未知,未知,未知,未知,35000000.0,未知
7,300331,1215297.44,4710536.609999999,2015-09-30,三季度报告,-7963762.869999999,2015,9,0.03659592661199562,True,未知,未知,未知,未知,未知,未知,34000000.0,未知
8,300331,3517931.3,9580668.12,2015-12-31,年度报告,-7346662.72,2015,12,4.838180015776358,False,未知,未知,未知,未知,未知,未知,62310000.0,未知
9,300331,3442502.7,4521237.92,2016-03-31,一季度报告,1956083.56,2016,3,-17.608219228505906,False,未知,未知,未知,未知,未知,未知,未知,未知
10,300331,3560735.1600000006,5311503.8,2016-06-30,半年度报告,-4751656.97,2016,6,-6.008098705223702,False,未知,未知,未知,未知,未知,未知,40000000.0,未知
11,300331,8431187.34,11052523.2,2016-09-30,三季度报告,-3223664.8900000006,2016,9,6.878220569608043,False,未知,未知,未知,未知,未知,未知,35340000.0,未知
12,300331,27939260.67,31639240.399999995,2016-12-31,年度报告,14148121.109999998,2016,12,1.7215941624556443,False,0.3726013448340568,True,0.0,True,前期平均,31639240.399999995,,31639240.399999995
13,300331,10512234.2,11698070.24,2017-03-31,一季度报告,9087115.47,2017,3,1.7812269515431303,False,2.003137798915625,False,0.2596280177901877,False,去年同期,23890107.79,,23890107.79
14,300331,33763181.059999995,35695310.46,2017-06-30,半年度报告,27945972.24,2017,6,1.688877678282592,False,0.5448639001879663,True,0.9653946875222553,False,前期平均,27765536.545,未知,27765536.545
15,300331,58165302.16,61000189.59,2017-09-30,三季度报告,47468244.79000002,2017,9,0.13559109813351575,True,0.6133672684805237,True,0.9643724838129586,False,平均增速,228950617.32373077,未知,228950617.32373077
16,300331,76607914.51,81244267.62,2017-12-31,年度报告,63278853.53000002,2017,12,-0.6573144363737383,True,9.833598237782152,False,0.0,True,比例外推,81244267.62,109000000.0,109000000.0
17,300331,15410426.92,16391206.430000005,2018-03-31,一季度报告,14359119.120000005,2018,3,-0.08921537440632782,True,6.335776355752215,False,0.09101097240043368,True,比例外推,79050957.98988618,未知,79050957.98988618
18,300331,36704985.28,38891716.75,2018-06-30,半年度报告,33143610.21,2018,6,-0.716425378491869,True,39.95099141820982,False,0.7095402096139403,False,未知,未知,未知,未知
19,300331,59440358.31,62472377.21000001,2018-09-30,三季度报告,51015191.64,2018,9,-0.8353935949019405,True,11.059377791295287,False,0.7632811383027204,False,未知,未知,未知,未知
20,300331,52857067.07000001,60975910.27999999,2018-12-31,年度报告,4929261.85,2018,12,-0.8750209903083812,True,3.8706136633593493,False,0.0,True,比例外推,60975910.27999999,未知,60975910.27999999
21,300331,12607299.95,13542956.36,2019-03-31,一季度报告,12810133.88,2019,3,-0.3787075893676802,True,1.2086302350852636,True,1.8480703302146968,False,平均增速,-1390980.7981563043,111000000.0,111000000.0
22,300331,33922458.21,34790814.599999994,2019-06-30,半年度报告,31961812.91,2019,6,-0.7391531091222932,True,0.9668346195853722,True,4.447305260218471,False,平均增速,-10910655.645876974,111000000.0,111000000.0
23,300331,59788094.71999999,60248457.37000001,2019-09-30,三季度报告,53532689.84000001,2019,9,-0.838924569733133,True,0.7850898375056241,True,6.725541497662819,False,平均增速,-16360081.755335085,90500000.0,90500000.0
24,300331,103608952.76999998,100887607.88999996,2019-12-31,年度报告,89048155.72,2019,12,-0.818862796959196,True,0.01116203243168304,True,0.0,True,比例外推,100887607.88999996,未知,100887607.88999996
25,300331,4209551.46,4757170.73,2020-03-31,一季度报告,2329517.38,2020,3,-0.24056845415183478,True,0.027314372421962167,True,1.8462040727975835,False,平均增速,357487772.5801153,未知,357487772.5801153
