,SECURITYCODE_x,NETPROFIT_x,PARENTNETPROFIT_x,REPORTDATE_x,REPORTTIMETYPE_x,KCFJCXSYJLR,Year,Month,managesituationChangeRate,managesituationGreatChange,historyprofitextroplaterate,ifhistoryprofitextroplate,IfprofitdisStableChangeRage,IfprofitdisStable,predicttype,predict,analyst_prediction,adj_prediction
0,300356,47336805.85,47336805.85,2013-12-31,年度报告,45113219.32000001,2013,12,未知,未知,未知,未知,未知,未知,未知,未知,未知,未知
1,300356,14131164.739999998,14113196.920000006,2014-03-31,一季度报告,11402012.71,2014,3,未知,未知,未知,未知,未知,未知,未知,未知,未知,未知
2,300356,26062019.0,28555980.9,2014-06-30,半年度报告,24108389.820000004,2014,6,未知,未知,未知,未知,未知,未知,未知,未知,未知,未知
3,300356,25485258.12,30424513.86,2014-09-30,三季度报告,26009312.03,2014,9,未知,未知,未知,未知,未知,未知,未知,未知,未知,未知
4,300356,29343535.5,35930952.54,2014-12-31,年度报告,27471479.809999995,2014,12,0.0,True,未知,未知,未知,未知,未知,未知,未知,未知
5,300356,2911712.54,1795366.7000000004,2015-03-31,一季度报告,1748263.16,2015,3,2.3498162905147764,False,未知,未知,未知,未知,未知,未知,140525924.0,未知
6,300356,10323190.9,6935430.3599999985,2015-06-30,半年度报告,6731642.060000001,2015,6,0.8163138416098922,False,未知,未知,未知,未知,未知,未知,161000000.0,未知
7,300356,29392690.669999994,22756261.19,2015-09-30,三季度报告,22881541.09,2015,9,0.8574191254846117,False,未知,未知,未知,未知,未知,未知,,未知
8,300356,49401871.96999998,39557927.16000001,2015-12-31,年度报告,30902934.86000001,2015,12,0.6131936742932699,False,未知,未知,未知,未知,未知,未知,42000000.0,未知
9,300356,3799569.13,1989164.8300000003,2016-03-31,一季度报告,1982666.42,2016,3,15.257376097298396,False,未知,未知,未知,未知,未知,未知,72801423.0,未知
10,300356,9718586.58,5696701.68,2016-06-30,半年度报告,5167228.21,2016,6,3.585481980188897,False,未知,未知,未知,未知,未知,未知,60071324.00000001,未知
11,300356,32782212.74,24602838.3,2016-09-30,三季度报告,22825606.23000001,2016,9,0.6104958331805562,False,未知,未知,未知,未知,未知,未知,58000000.0,未知
12,300356,80622852.79,63786713.83000001,2016-12-31,年度报告,44142962.31000001,2016,12,-0.04180137386805944,True,0.288514659696412,True,0.0,True,比例外推,63786713.83000001,58000000.0,63786713.83000001
13,300356,-3152961.01,-3708125.7200000007,2017-03-31,一季度报告,-6232819.579999999,2017,3,11.458466797260247,False,0.554116471347378,True,0.2428702640645827,False,盈利变化,52832732.496666685,未知,52832732.496666685
14,300356,178309.6,1940245.39,2017-06-30,半年度报告,-545536.15,2017,6,3.8707500273151862,False,0.4657946672996931,True,0.47342307882811674,False,前期平均,15707436.784999998,未知,15707436.784999998
15,300356,-20017822.61,-15032704.190000005,2017-09-30,三季度报告,-18484559.56,2017,9,0.4439783618462359,True,0.19473170782846977,True,0.21768009582926118,False,平均增速,-10056618.953577401,未知,-10056618.953577401
16,300356,-395765392.87,-392404175.23000014,2017-12-31,年度报告,-408211975.0999999,2017,12,-0.41286118994946575,True,1.0476839318080942,True,0.0,True,比例外推,-392404175.23000014,73000000.0,73000000.0
17,300356,-21501540.89,-19349214.57,2018-03-31,一季度报告,-21593471.69,2018,3,-16.01344472699331,False,1.939600262672331,True,0.023650072384011178,True,前期平均,16308269.225000009,108600000.0,108600000.0
18,300356,17118116.96,18145917.65,2018-06-30,半年度报告,-14204985.26,2018,6,264.47536335676824,False,0.9822062089874076,True,0.11073855567959755,False,前期平均,49719431.10000001,,49719431.10000001
19,300356,19414735.040000007,22503112.5,2018-09-30,三季度报告,-11650388.64,2018,9,-3.36473300679329,False,1.6439197011050088,True,0.388984262304246,False,前期平均,37172487.425000004,未知,37172487.425000004
20,300356,21490677.500000004,23403488.93,2018-12-31,年度报告,-13013192.910000002,2018,12,-1.1196082494902455,False,7.087540559697471,False,0.0,True,前期平均,23403488.93,112700000.0,112700000.0
21,300356,-15498202.480000002,-15728932.140000002,2019-03-31,一季度报告,-18939159.0,2019,3,-3.201554116152464,False,67.50563215939817,False,1.0861737879855347,False,去年同期,-7148653.360000003,未知,-7148653.360000003
22,300356,-4943379.340000002,-6840673.03,2019-06-30,半年度报告,-7834744.460000001,2019,6,1.7653044993565694,False,2.4592899932794894,False,0.6882579031492362,False,前期平均盈利变化,-203926507.05499995,未知,-203926507.05499995
23,300356,3878012.57,4097996.53,2019-09-30,三季度报告,2690089.0400000005,2019,9,1.4381896406246286,False,2.042015300734154,False,0.4405984486472878,False,去年同期,2735192.2599999984,未知,2735192.2599999984
24,300356,27093380.24,25194200.65,2019-12-31,年度报告,777892.0300000001,2019,12,1.202666986650374,False,-1.1363870297836942,True,0.0,True,前期平均,25194200.65,未知,25194200.65
25,300356,-23745288.95,-23701537.63,2020-03-31,一季度报告,-24469664.129999995,2020,3,-4.05434168324274,False,-0.25723103576470985,True,16.78938753089974,False,前期平均,-220400975.99999997,未知,-220400975.99999997
