,SECURITYCODE_x,NETPROFIT_x,PARENTNETPROFIT_x,REPORTDATE_x,REPORTTIMETYPE_x,KCFJCXSYJLR,Year,Month,managesituationChangeRate,managesituationGreatChange,historyprofitextroplaterate,ifhistoryprofitextroplate,IfprofitdisStableChangeRage,IfprofitdisStable,predicttype,predict,analyst_prediction,adj_prediction
0,300318,52818484.25,54256733.72000001,2013-12-31,年度报告,51484036.80000001,2013,12,未知,未知,未知,未知,未知,未知,未知,未知,未知,未知
1,300318,5810181.59,6170251.4700000025,2014-03-31,一季度报告,6140386.07,2014,3,未知,未知,未知,未知,未知,未知,未知,未知,未知,未知
2,300318,17434384.76,18477728.66,2014-06-30,半年度报告,16829697.02,2014,6,未知,未知,未知,未知,未知,未知,未知,未知,未知,未知
3,300318,30312389.45,31638760.95,2014-09-30,三季度报告,26388164.83,2014,9,未知,未知,未知,未知,未知,未知,未知,未知,未知,未知
4,300318,36543406.71,38138794.33,2014-12-31,年度报告,29562522.710000005,2014,12,0.0,True,未知,未知,未知,未知,未知,未知,未知,未知
5,300318,4084917.6,4496176.76,2015-03-31,一季度报告,4654693.91,2015,3,8.090677017893341,False,未知,未知,未知,未知,未知,未知,,未知
6,300318,5631352.130000001,9172011.640000002,2015-06-30,半年度报告,10631213.11,2015,6,2.0295582538239216,False,未知,未知,未知,未知,未知,未知,48350000.0,未知
7,300318,14552354.56,15641156.94,2015-09-30,三季度报告,4950934.159999998,2015,9,0.7424718146064859,False,未知,未知,未知,未知,未知,未知,42130000.0,未知
8,300318,15480593.21,11882008.3,2015-12-31,年度报告,16256772.990000002,2015,12,0.44536289867978757,True,未知,未知,未知,未知,未知,未知,98304000.0,未知
9,300318,3672169.02,2306136.96,2016-03-31,一季度报告,1306960.06,2016,3,11.930122323642465,False,未知,未知,未知,未知,未知,未知,29190000.0,未知
10,300318,22339567.040000007,12259423.4,2016-06-30,半年度报告,12021674.66,2016,6,8.379360947545646,False,未知,未知,未知,未知,未知,未知,30895000.0,未知
11,300318,34229307.45,20595987.05,2016-09-30,三季度报告,20333597.1,2016,9,2.6295490212409995,False,未知,未知,未知,未知,未知,未知,31848000.0,未知
12,300318,48148494.66,23599152.9,2016-12-31,年度报告,21529520.13,2016,12,2.411916037938445,False,0.6535303126714408,True,0.0,True,前期平均,23599152.9,31673332.999999996,31673332.999999996
13,300318,1836724.71,1394918.3299999998,2017-03-31,一季度报告,1115578.7000000002,2017,3,13.383456742413234,False,0.25778025071014976,True,0.12420694790874487,False,前期平均,18907026.19,70312000.0,70312000.0
14,300318,15845823.47,15577942.62,2017-06-30,半年度报告,4613043.489999998,2017,6,1.3643468181557015,False,0.9370347582248872,True,0.06007974556326723,True,前期平均,24757135.405,32813332.999999996,32813332.999999996
15,300318,24642521.29,21455429.05,2017-09-30,三季度报告,10474910.82,2017,9,0.5430777945815551,False,0.5258889003075805,True,0.40932743152175927,False,前期平均,28695527.405000005,,28695527.405000005
16,300318,47250114.92999999,38850990.1,2017-12-31,年度报告,-280862817.91,2017,12,0.0969913934584472,True,0.8510108693695383,True,0.0,True,比例外推,38850990.1,87155000.0,87155000.0
17,300318,8326652.67,7530601.210000003,2018-03-31,一季度报告,7251785.489999997,2018,3,27.756886626738964,False,0.5264395513479518,True,0.1719710686559055,False,前期平均,23442920.785000004,未知,23442920.785000004
18,300318,19402743.65,16951964.8,2018-06-30,半年度报告,14462268.489999998,2018,6,2.333274812129407,False,0.13302129069789848,True,0.4150620007419551,False,前期平均,24518667.475,未知,24518667.475
19,300318,28721165.260000005,23142730.300000004,2018-09-30,三季度报告,20394521.27,2018,9,1.1433879929905502,False,0.01031905329295263,True,0.5405511391720981,False,前期平均,29393611.230000004,未知,29393611.230000004
20,300318,77508382.27999999,69438286.13000001,2018-12-31,年度报告,-68538680.59000002,2018,12,0.1178487994843912,True,0.48517341711816664,True,0.0,True,比例外推,69438286.13000001,未知,69438286.13000001
21,300318,-4365383.99,-6281688.1000000015,2019-03-31,一季度报告,-6238719.03,2019,3,5.343303406937952,False,2.022985404367203,False,0.08944832998428517,True,前期平均盈利变化,-150650110.89000002,未知,-150650110.89000002
22,300318,5102835.26,1523378.4800000002,2019-06-30,半年度报告,-273144.59,2019,6,1.7222172906459032,False,0.01623911086722029,True,0.4480651227189699,False,前期平均,-136460629.48500004,未知,-136460629.48500004
23,300318,8627171.120000001,4791373.38,2019-09-30,三季度报告,3473563.35,2019,9,0.8390090991036618,False,0.024281532450999437,True,0.7412538547959643,False,前期平均,-140279529.47000003,未知,-140279529.47000003
24,300318,2026183.2800000003,2542755.0300000003,2019-12-31,年度报告,-11324129.26,2019,12,-0.3185448760987866,True,0.6249373573286268,True,0.0,True,比例外推,2542755.0300000003,未知,2542755.0300000003
25,300318,-10424978.03,-13453684.69,2020-03-31,一季度报告,-12772384.53,2020,3,-13.099390195912639,False,1.859041994955421,True,0.40387431913888705,False,前期平均,-192338116.035,未知,-192338116.035
