,SECURITYCODE_x,NETPROFIT_x,PARENTNETPROFIT_x,REPORTDATE_x,REPORTTIMETYPE_x,KCFJCXSYJLR,Year,Month,managesituationChangeRate,managesituationGreatChange,historyprofitextroplaterate,ifhistoryprofitextroplate,IfprofitdisStableChangeRage,IfprofitdisStable,predicttype,predict,analyst_prediction,adj_prediction
0,300327,26399318.15,26399318.15,2013-12-31,年度报告,18940282.380000006,2013,12,未知,未知,未知,未知,未知,未知,未知,未知,未知,未知
1,300327,4533710.76,4533710.76,2014-03-31,一季度报告,4498951.779999998,2014,3,未知,未知,未知,未知,未知,未知,未知,未知,未知,未知
2,300327,12050814.56,12050814.56,2014-06-30,半年度报告,11937872.91,2014,6,未知,未知,未知,未知,未知,未知,未知,未知,未知,未知
3,300327,24279898.13000001,24279898.13000001,2014-09-30,三季度报告,21633941.48,2014,9,未知,未知,未知,未知,未知,未知,未知,未知,未知,未知
4,300327,31204155.309999995,31204155.309999995,2014-12-31,年度报告,27229886.13000001,2014,12,0.0,True,未知,未知,未知,未知,未知,未知,未知,未知
5,300327,7061920.749999999,7061920.749999999,2015-03-31,一季度报告,7057989.48,2015,3,4.82289421348088,False,未知,未知,未知,未知,未知,未知,42683200.0,未知
6,300327,20819136.169999994,20819136.169999994,2015-06-30,半年度报告,20805748.649999995,2015,6,1.1906666987994874,False,未知,未知,未知,未知,未知,未知,45990000.0,未知
7,300327,32929351.37,32929351.37,2015-09-30,三季度报告,32821697.75,2015,9,0.08729114136526188,True,未知,未知,未知,未知,未知,未知,45164444.0,未知
8,300327,49783179.5,49783179.5,2015-12-31,年度报告,49094428.20999999,2015,12,-0.15398068341430765,True,未知,未知,未知,未知,未知,未知,45037000.0,未知
9,300327,14603672.53,14603672.53,2016-03-31,一季度报告,14603672.53,2016,3,2.7382631559551274,False,未知,未知,未知,未知,未知,未知,65249000.0,未知
10,300327,38363407.10000001,38363407.10000001,2016-06-30,半年度报告,37424092.1,2016,6,0.2680313887394112,True,未知,未知,未知,未知,未知,未知,79857143.0,未知
11,300327,67115568.86,67115568.86,2016-09-30,三季度报告,59319584.27000001,2016,9,-0.198304337872538,True,未知,未知,未知,未知,未知,未知,83316000.0,未知
12,300327,106812041.63,107632540.58,2016-12-31,年度报告,97159481.98000003,2016,12,-0.46971409992003427,True,0.7284783888794336,True,0.0,True,比例外推,107632540.58,83760000.0,83760000.0
13,300327,25406124.77,26603986.590000004,2017-03-31,一季度报告,26598119.04000001,2017,3,0.8077177570072506,False,1.5188231477355738,True,0.012124149672332551,True,前期平均,58987673.13,140487273.0,140487273.0
14,300327,59744423.64,62080117.17,2017-06-30,半年度报告,62015662.33000001,2017,6,-0.3118620022151267,True,1.3342540069575586,True,0.03061231048155333,True,比例外推,149214281.32850993,137126000.0,149214281.32850993
15,300327,91658619.7,94985537.2,2017-09-30,三季度报告,94167332.04999998,2017,9,-0.606658803636638,True,1.3463188014728276,True,0.10330152629776335,False,平均增速,160797722.29057428,140666139.0,140666139.0
16,300327,129228059.16,133637665.16999996,2017-12-31,年度报告,125107472.47,2017,12,-0.752843239890049,True,1.6377468003012061,True,0.0,True,比例外推,133637665.16999996,134350000.0,133637665.16999996
17,300327,33692187.35,34656716.63,2018-03-31,一季度报告,34635290.13,2018,3,0.03909267505340992,True,1.345296936175108,True,0.04371152286508928,True,比例外推,205096677.88207313,171977143.0,171977143.0
18,300327,77691406.7,80147222.04000002,2018-06-30,半年度报告,74779652.1,2018,6,-0.5581291685216766,True,1.0189880440736252,True,0.060808566486341586,True,比例外推,177318084.39291096,167752000.0,177318084.39291096
19,300327,118304777.39000002,121222164.71,2018-09-30,三季度报告,115254791.68999998,2018,9,-0.7119821546909025,True,0.832349298480719,True,0.07543416920913748,True,比例外推,176146100.0381286,162980000.0,176146100.0381286
20,300327,161339499.29000002,168290777.54999998,2018-12-31,年度报告,159320784.08,2018,12,-0.7957152779233924,True,0.6504725779941813,True,0.0,True,比例外推,168290777.54999998,160465000.0,168290777.54999998
21,300327,29921773.67,32400301.89,2019-03-31,一季度报告,31205243.67,2019,3,-0.2164557950554078,True,0.684196852954314,True,0.04312772710125223,True,比例外推,162517552.87369367,199488000.0,199488000.0
22,300327,84330791.45,87772250.32,2019-06-30,半年度报告,80569140.85000001,2019,6,-0.6602028554851743,True,0.5837962395864914,True,0.06490008650309442,True,比例外推,186212955.85874975,195556667.00000003,186212955.85874975
23,300327,124239082.46,130097215.72,2019-09-30,三季度报告,121792008.74,2019,9,-0.7768533212908825,True,0.49022682418299,True,0.08500944386148634,True,比例外推,183407507.36541474,194500000.0,183407507.36541474
24,300327,181370179.02,189329796.84,2019-12-31,年度报告,179928815.01000002,2019,12,-0.8363741162816646,True,0.36705160479100496,True,0.0,True,比例外推,189329796.84,188666667.00000003,189329796.84
25,300327,39049514.51000001,42047014.96,2020-03-31,一季度报告,36140298.22,2020,3,-0.11772214972442184,True,0.012610093135769895,True,0.027711159107142502,True,比例外推,185582071.91964248,222854000.0,222854000.0
