,SECURITYCODE_x,NETPROFIT_x,PARENTNETPROFIT_x,REPORTDATE_x,REPORTTIMETYPE_x,KCFJCXSYJLR,Year,Month,managesituationChangeRate,managesituationGreatChange,historyprofitextroplaterate,ifhistoryprofitextroplate,IfprofitdisStableChangeRage,IfprofitdisStable,predicttype,predict,analyst_prediction,adj_prediction
0,300312,-58394641.7,-58394641.7,2013-12-31,年度报告,-60045296.46,2013,12,未知,未知,未知,未知,未知,未知,未知,未知,未知,未知
1,300312,-23307047.22,-23037979.36,2014-03-31,一季度报告,-23012949.73,2014,3,未知,未知,未知,未知,未知,未知,未知,未知,未知,未知
2,300312,-14459810.809999995,-13737954.360000005,2014-06-30,半年度报告,-13724061.48,2014,6,未知,未知,未知,未知,未知,未知,未知,未知,未知,未知
3,300312,2391974.7800000003,4067374.750000002,2014-09-30,三季度报告,4060538.94,2014,9,未知,未知,未知,未知,未知,未知,未知,未知,未知,未知
4,300312,6146213.61,9134180.4,2014-12-31,年度报告,7067201.3900000015,2014,12,-0.0,False,未知,未知,未知,未知,未知,未知,未知,未知
5,300312,1006093.16,1853185.55,2015-03-31,一季度报告,1841694.86,2015,3,1.5054500104110573,False,未知,未知,未知,未知,未知,未知,87000000.0,未知
6,300312,1824450.02,3246575.8000000007,2015-06-30,半年度报告,3130139.91,2015,6,3.0384098012967033,False,未知,未知,未知,未知,未知,未知,32000000.0,未知
7,300312,3465993.77,5312750.2,2015-09-30,三季度报告,5184344.73,2015,9,-25.412733022210208,False,未知,未知,未知,未知,未知,未知,,未知
8,300312,6968565.619999999,9124369.96,2015-12-31,年度报告,2412674.0300000003,2015,12,-10.50091314837982,False,未知,未知,未知,未知,未知,未知,32000000.0,未知
9,300312,-27394875.000000004,-26858349.94,2016-03-31,一季度报告,-26831675.16,2016,3,-59.04098866947868,False,未知,未知,未知,未知,未知,未知,23000000.0,未知
10,300312,-27620494.88000001,-26150752.87,2016-06-30,半年度报告,-26096130.76,2016,6,-33.00670945209012,False,未知,未知,未知,未知,未知,未知,29000000.0,未知
11,300312,-48028357.2,-45337907.94,2016-09-30,三季度报告,-45360462.07,2016,9,-17.847878436896327,False,未知,未知,未知,未知,未知,未知,7000000.0,未知
12,300312,15132727.759999994,19681791.51,2016-12-31,年度报告,-99912911.32,2016,12,-9.379721865918228,False,-1.2667473788109516,True,0.0,True,前期平均,19681791.51,20750000.0,19681791.51
13,300312,-13817757.790000005,-13534831.139999995,2017-03-31,一季度报告,-13858615.53,2017,3,1.1315900036046886,False,-1.4568343512385142,True,2.5148328595530196,False,前期平均,1790734.0050000064,31940000.0,31940000.0
14,300312,-14393398.130000005,-14065105.470000004,2017-06-30,半年度报告,-16683966.219999995,2017,6,1.114177966531785,False,-3.371936083037645,True,1.81414565404467,False,前期平均,-4028206.9750000034,,-4028206.9750000034
15,300312,-44104432.03999999,-37484021.9,2017-09-30,三季度报告,-49097031.28000001,2017,9,0.21583674946100384,False,17.397615244964058,False,1.0896770860526277,False,去年同期,-92036471.14999999,未知,-92036471.14999999
16,300312,-139808728.88000005,-141812827.7,2017-12-31,年度报告,-209806757.92,2017,12,-4.858831178761656,False,1.3077365611132736,True,0.0,True,盈利变化,-16949490.689999994,50000000.0,50000000.0
17,300312,6998063.64,1539968.8299999996,2018-03-31,一季度报告,1556686.4,2018,3,3.226057699626242,False,-0.04724483864238902,True,0.3973595723668982,False,盈利变化,-121259091.79333332,未知,-121259091.79333332
18,300312,6365476.19,562915.61,2018-06-30,半年度报告,614862.11,2018,6,3.057043456491951,False,-0.11593837025138423,True,0.7513460190351572,False,盈利变化,-130280275.47999999,未知,-130280275.47999999
19,300312,-5332379.449999998,-11009603.03,2018-09-30,三季度报告,-10929624.38,2018,9,0.32400847259612536,False,-0.9794476165646222,True,1.2031938750726412,False,前期平均,-39671663.004999995,未知,-39671663.004999995
20,300312,-431831895.12,-436649607.4,2018-12-31,年度报告,-405167554.85,2018,12,-0.5823247792337701,False,13.651633230344466,False,0.0,True,去年同期,-436649607.4,未知,-436649607.4
21,300312,-15933497.44,-15563372.420000002,2019-03-31,一季度报告,-15566713.48,2019,3,-9.344399923176464,False,-1.3396076962934549,True,0.15829638260437184,False,盈利变化,-459480807.23999995,未知,-459480807.23999995
22,300312,-27698611.77,-26786555.4,2019-06-30,半年度报告,-26740999.3,2019,6,-10.173648593916113,False,-1.303017679817717,True,0.14812482133931015,False,盈利变化,-454886848.34,未知,-454886848.34
23,300312,-7410994.8,-5584770.319999998,2019-09-30,三季度报告,-5196219.489999998,2019,9,9.95095393108231,False,-0.8842457827666654,True,0.2156712387220099,False,前期平均,-113215858.26499999,未知,-113215858.26499999
24,300312,2206283.39,5125138.99,2019-12-31,年度报告,-21219084.66,2019,12,-0.8647745978009037,False,-5.927265732630674,True,0.0,True,盈利变化,-308666784.00333333,未知,-308666784.00333333
25,300312,-14240736.679999998,-13951128.74,2020-03-31,一季度报告,-14003878.38,2020,3,2.664897924632924,False,-3.672789450535692,True,0.4683416432794467,False,前期平均,-315287320.56,未知,-315287320.56
