,SECURITYCODE_x,NETPROFIT_x,PARENTNETPROFIT_x,REPORTDATE_x,REPORTTIMETYPE_x,KCFJCXSYJLR,Year,Month,managesituationChangeRate,managesituationGreatChange,historyprofitextroplaterate,ifhistoryprofitextroplate,IfprofitdisStableChangeRage,IfprofitdisStable,predicttype,predict,analyst_prediction,adj_prediction
0,300369,118118096.08,118118096.08,2013-12-31,年度报告,109198947.42999998,2013,12,未知,未知,未知,未知,未知,未知,未知,未知,未知,未知
1,300369,-45515443.57000001,-45515443.57000001,2014-03-31,一季度报告,-45555601.62,2014,3,未知,未知,未知,未知,未知,未知,未知,未知,未知,未知
2,300369,-13321797.7,-13321797.7,2014-06-30,半年度报告,-14123984.180000005,2014,6,未知,未知,未知,未知,未知,未知,未知,未知,未知,未知
3,300369,-5529714.89,-5529714.89,2014-09-30,三季度报告,-6567111.200000001,2014,9,未知,未知,未知,未知,未知,未知,未知,未知,未知,未知
4,300369,144460612.4,144503492.29,2014-12-31,年度报告,134959079.45,2014,12,0.0,True,未知,未知,未知,未知,未知,未知,未知,未知
5,300369,-44895166.14999999,-44791964.56,2015-03-31,一季度报告,-55259485.10000001,2015,3,-3.595121277865643,False,未知,未知,未知,未知,未知,未知,245948856.0,未知
6,300369,-13043415.760000002,-12794632.21,2015-06-30,半年度报告,-31250683.599999994,2015,6,-9.86652828244044,False,未知,未知,未知,未知,未知,未知,190062222.0,未知
7,300369,-14336152.36,-13639310.06,2015-09-30,三季度报告,-33098236.09,2015,9,-22.360612333486873,False,未知,未知,未知,未知,未知,未知,171780000.0,未知
8,300369,193478745.56000003,194323894.17,2015-12-31,年度报告,165225380.63000005,2015,12,-0.18235085593476277,True,未知,未知,未知,未知,未知,未知,184708571.0,未知
9,300369,-33637245.370000005,-33376491.28999999,2016-03-31,一季度报告,-35392073.72,2016,3,-3.6309758089624538,False,未知,未知,未知,未知,未知,未知,264320497.0,未知
10,300369,2429588.02,2834316.5500000007,2016-06-30,半年度报告,-9637660.42,2016,6,-10.055764092273325,False,未知,未知,未知,未知,未知,未知,262247500.0,未知
11,300369,13995777.449999996,14498990.09,2016-09-30,三季度报告,764781.45,2016,9,-9.239176950265056,False,未知,未知,未知,未知,未知,未知,258889094.0,未知
12,300369,219970559.68,220124125.56,2016-12-31,年度报告,197550954.80000004,2016,12,-0.3895035046970046,True,0.4736819042183448,True,0.0,True,比例外推,220124125.56,258987983.0,258987983.0
13,300369,-54187987.99000001,-54021711.79000002,2017-03-31,一季度报告,-54393920.14,2017,3,-4.511527022523246,False,-0.25590048614484656,True,0.10456401540607577,False,前期平均,146478061.61,284583600.0,284583600.0
14,300369,-46738907.83000001,-46396728.92999999,2017-06-30,半年度报告,-52694088.73,2017,6,47.61651239126542,False,-1.1843025487873293,True,0.0749466451477527,True,盈利变化,191419840.02,267548000.0,267548000.0
15,300369,-58646895.84,-58140970.63999999,2017-09-30,三季度报告,-85944527.66,2017,9,7.439552322261314,False,-2.4090275822214604,True,0.11861825961440466,False,盈利变化,181586654.84444445,235100000.0,235100000.0
16,300369,152646317.56,152367683.85000002,2017-12-31,年度报告,89349023.16999999,2017,12,-0.4630277058355849,True,0.30183451260528626,True,0.0,True,比例外推,152367683.85000002,235100000.0,235100000.0
17,300369,-28663094.99,-28487924.73,2018-03-31,一季度报告,-30493033.21,2018,3,-3.179783757643812,False,-0.38001589257703755,True,0.2346524016140969,False,前期平均,198226022.39500007,258887500.0,258887500.0
18,300369,-61073889.27,-60683871.45999999,2018-06-30,半年度报告,-80325277.31,2018,6,-3.5271899058836005,False,-7.807172864480652,True,0.31386194055008293,False,前期平均,141148468.26500005,247825000.0,247825000.0
19,300369,-43853055.86,-43532280.58,2018-09-30,三季度报告,-70552851.41,2018,9,-3.014055379883172,False,-343.6017559872397,True,0.5757809686205582,False,前期平均,154022614.45500004,244250000.0,244250000.0
20,300369,167470456.31,168070150.66,2018-12-31,年度报告,122250414.08999996,2018,12,-0.22619753972399728,True,0.26159596533175206,True,0.0,True,比例外推,168070150.66,248833332.99999997,248833332.99999997
21,300369,-24512110.390000004,-24338924.96,2019-03-31,一季度报告,-33118250.77,2019,3,-5.120912138804589,False,-0.34726971068762114,True,0.26299180566906366,False,前期平均,164004060.955,236000000.0,236000000.0
22,300369,-33500017.14,-33296928.25,2019-06-30,半年度报告,-48408932.06999999,2019,6,-2.934019553885208,False,-1.7567062429252842,True,0.3830798305187733,False,前期平均,141318935.31000003,235440000.0,235440000.0
23,300369,-1226334.41,-1018162.11,2019-09-30,三季度报告,-24419747.180000003,2019,9,-3.6934974943841916,False,-0.9642534136310126,True,0.5155855922028577,False,前期平均,185021699.98,256289091.0,256289091.0
24,300369,226288619.16000003,226510778.11000004,2019-12-31,年度报告,183752082.59,2019,12,-0.2946929346071954,True,0.10111180389645413,True,0.0,True,比例外推,226510778.11000004,256015000.0,256015000.0
25,300369,-60849445.88,-60656463.32999999,2020-03-31,一季度报告,-68964034.16,2020,3,-5.818764855440094,False,-0.40828509396993273,True,0.26263207769197155,False,前期平均,87586731.975,318811000.0,318811000.0
