,SECURITYCODE_x,NETPROFIT_x,PARENTNETPROFIT_x,REPORTDATE_x,REPORTTIMETYPE_x,KCFJCXSYJLR,Year,Month,managesituationChangeRate,managesituationGreatChange,historyprofitextroplaterate,ifhistoryprofitextroplate,IfprofitdisStableChangeRage,IfprofitdisStable,predicttype,predict,analyst_prediction,adj_prediction
0,300314,64071728.49,64071728.49,2013-12-31,年度报告,62891034.23,2013,12,未知,未知,未知,未知,未知,未知,未知,未知,未知,未知
1,300314,15864043.250000006,15864043.250000006,2014-03-31,一季度报告,15538318.260000002,2014,3,未知,未知,未知,未知,未知,未知,未知,未知,未知,未知
2,300314,27758037.64,27758037.64,2014-06-30,半年度报告,27567138.17999999,2014,6,未知,未知,未知,未知,未知,未知,未知,未知,未知,未知
3,300314,36652181.61,36652181.61,2014-09-30,三季度报告,36354893.70999999,2014,9,未知,未知,未知,未知,未知,未知,未知,未知,未知,未知
4,300314,53606575.00000001,53606575.00000001,2014-12-31,年度报告,53069638.42,2014,12,0.0,True,未知,未知,未知,未知,未知,未知,未知,未知
5,300314,16859690.390000004,16859690.390000004,2015-03-31,一季度报告,16680867.8,2015,3,3.0388019296404765,False,未知,未知,未知,未知,未知,未知,62283333.0,未知
6,300314,27021226.42999999,27021226.42999999,2015-06-30,半年度报告,26453735.119999994,2015,6,1.3082225523633955,False,未知,未知,未知,未知,未知,未知,58170000.0,未知
7,300314,35742855.63,35742855.63,2015-09-30,三季度报告,34453073.29,2015,9,0.7481013591976471,False,未知,未知,未知,未知,未知,未知,60380000.0,未知
8,300314,44934202.43,44934202.43,2015-12-31,年度报告,43855491.13999999,2015,12,0.1952214535250572,True,未知,未知,未知,未知,未知,未知,,未知
9,300314,18061128.01,18061128.01,2016-03-31,一季度报告,16279092.22,2016,3,2.8002909310839357,False,未知,未知,未知,未知,未知,未知,未知,未知
10,300314,31195350.79000001,31195350.79000001,2016-06-30,半年度报告,25274459.390000004,2016,6,1.3711628580583282,False,未知,未知,未知,未知,未知,未知,未知,未知
11,300314,47337420.08,47337420.08,2016-09-30,三季度报告,39540148.41,2016,9,0.7925744141221543,False,未知,未知,未知,未知,未知,未知,55330000.0,未知
12,300314,62165928.04999998,62165928.04999998,2016-12-31,年度报告,53433475.81,2016,12,0.4259010959371779,True,0.23632137620307572,True,0.0,True,比例外推,62165928.04999998,未知,62165928.04999998
13,300314,20155521.3,20155521.3,2017-03-31,一季度报告,18646778.0,2017,3,2.547493182846889,False,0.10385497013842564,True,0.05442255164696458,True,前期平均,52508493.05,72000000.0,72000000.0
14,300314,37839455.35,37839455.35,2017-06-30,半年度报告,34154547.91,2017,6,1.053887097513866,False,0.1389474217885386,True,0.07131485781299018,True,前期平均,59291583.480000004,,59291583.480000004
15,300314,50233238.54,50233238.54,2017-09-30,三季度报告,44919357.28,2017,9,0.3535112049139794,True,0.3077531799056781,True,0.05183676336793819,True,比例外推,66272891.921155564,未知,66272891.921155564
16,300314,47033169.43000001,47033169.43000001,2017-12-31,年度报告,39204133.78999999,2017,12,0.03065667158491042,True,0.26173001007954355,True,0.0,True,比例外推,47033169.43000001,,47033169.43000001
17,300314,14951543.370000005,14951543.370000005,2018-03-31,一季度报告,13540047.45,2018,3,2.1788673453958243,False,0.1543556092602914,True,0.08874837971213184,True,前期平均,47116046.835,未知,47116046.835
18,300314,25237946.5,25237946.5,2018-06-30,半年度报告,18064825.63,2018,6,0.6932518689120085,False,0.29995465748544403,True,0.22206164239984738,False,前期平均,48018332.72,未知,48018332.72
19,300314,37506120.59,37506120.59,2018-09-30,三季度报告,27890316.99,2018,9,0.2754847258948,True,0.20926990457624697,True,0.25532313773466586,False,平均增速,32942666.612267178,未知,32942666.612267178
20,300314,28812638.89,28812638.89,2018-12-31,年度报告,13157452.37,2018,12,0.36226686966862126,True,0.12169725248312299,True,0.0,True,比例外推,28812638.89,未知,28812638.89
21,300314,9760899.57,9760899.57,2019-03-31,一季度报告,6891017.440000001,2019,3,3.2852919531075795,False,0.2175377151084937,True,0.4259541754785148,False,前期平均,38616769.26,未知,38616769.26
22,300314,19844402.78,19844402.78,2019-06-30,半年度报告,13838407.030000005,2019,6,1.53870609044995,False,0.2688341458128126,True,0.4672467459082734,False,前期平均,36448703.93,未知,36448703.93
23,300314,40344037.66,40344037.66,2019-09-30,三季度报告,31412826.46,2019,9,0.7083006048640232,False,0.23120083187975918,True,0.7845670802712301,False,前期平均,44433089.614999995,未知,44433089.614999995
24,300314,62056592.35000002,62056592.35000002,2019-12-31,年度报告,49335987.62000001,2019,12,1.2237369070778648,False,0.4722916296029445,True,0.0,True,前期平均,62056592.35000002,未知,62056592.35000002
25,300314,14610045.150000002,14610045.150000002,2020-03-31,一季度报告,12223828.749999998,2020,3,5.5641212708430725,False,0.44393530693889255,True,0.4809493938198063,False,前期平均,24697425.505,未知,24697425.505
