,SECURITYCODE_x,NETPROFIT_x,PARENTNETPROFIT_x,REPORTDATE_x,REPORTTIMETYPE_x,KCFJCXSYJLR,Year,Month,managesituationChangeRate,managesituationGreatChange,historyprofitextroplaterate,ifhistoryprofitextroplate,IfprofitdisStableChangeRage,IfprofitdisStable,predicttype,predict,analyst_prediction,adj_prediction
0,300329,32774469.08,32268799.64,2013-12-31,年度报告,25529795.56,2013,12,未知,未知,未知,未知,未知,未知,未知,未知,未知,未知
1,300329,7464575.97,7368152.62,2014-03-31,一季度报告,6932215.539999997,2014,3,未知,未知,未知,未知,未知,未知,未知,未知,未知,未知
2,300329,14500377.19,14109742.340000002,2014-06-30,半年度报告,13605937.48,2014,6,未知,未知,未知,未知,未知,未知,未知,未知,未知,未知
3,300329,18982146.2,18584900.75,2014-09-30,三季度报告,17342536.55,2014,9,未知,未知,未知,未知,未知,未知,未知,未知,未知,未知
4,300329,26029445.469999995,25686859.5,2014-12-31,年度报告,22978926.76,2014,12,0.0,True,未知,未知,未知,未知,未知,未知,未知,未知
5,300329,6829823.9,6836352.44,2015-03-31,一季度报告,6627593.3999999985,2015,3,3.3906672276791094,False,未知,未知,未知,未知,未知,未知,35221667.0,未知
6,300329,15714800.17,15587674.62,2015-06-30,半年度报告,12282370.050000004,2015,6,1.2602494163119078,False,未知,未知,未知,未知,未知,未知,35380000.0,未知
7,300329,31285219.44,30993823.55,2015-12-31,年度报告,25525648.58,2015,12,0.2591305150074718,True,未知,未知,未知,未知,未知,未知,36241667.0,未知
8,300329,8912854.3,8970821.08,2016-03-31,一季度报告,7557554.29,2016,3,3.798728277606103,False,未知,未知,未知,未知,未知,未知,41973461.0,未知
9,300329,17746786.750000004,17844503.230000004,2016-06-30,半年度报告,13306638.659999998,2016,6,1.0855797544640364,False,未知,未知,未知,未知,未知,未知,38444000.0,未知
10,300329,26140801.46,26260784.520000003,2016-09-30,三季度报告,16574801.639999995,2016,9,未知,未知,未知,未知,未知,未知,未知,未知,35000000.0,未知
11,300329,33157962.11000001,33284823.81,2016-12-31,年度报告,21670738.54,2016,12,0.04760233959221981,True,0.0640522720098403,True,0.0,True,比例外推,33284823.81,35000000.0,33284823.81
12,300329,10027891.78,10013634.319999997,2017-03-31,一季度报告,7267877.830000001,2017,3,2.6772136037273713,False,0.2470414121694778,True,0.04538925607315758,True,前期平均,27486017.519999996,38000000.0,38000000.0
13,300329,20309774.66,20224995.99,2017-06-30,半年度报告,14397952.16,2017,6,0.8467832820496359,False,0.17469353487852596,True,0.08126232648809123,True,前期平均,31533129.894999996,40000000.0,40000000.0
14,300329,31127205.53,30967589.17,2017-09-30,三季度报告,22545849.29000001,2017,9,0.2537668032156806,True,未知,未知,未知,未知,未知,未知,,未知
15,300329,40895767.2,40980511.45999999,2017-12-31,年度报告,29686008.73,2017,12,-0.011565639309430173,True,0.15704984621535364,True,0.0,True,比例外推,40980511.45999999,,40980511.45999999
16,300329,14358390.430000005,14303123.24,2018-03-31,一季度报告,11659139.04,2018,3,2.2683309512141543,False,0.2739753239699708,True,0.06433994126320108,True,前期平均,30808742.955,52333333.0,52333333.0
17,300329,30664289.91,30409910.259999994,2018-06-30,半年度报告,25899809.17,2018,6,0.6137288388801847,False,0.2139158079117187,True,0.08729623592391422,True,前期平均,41213599.46499999,61500000.0,61500000.0
18,300329,41870068.28999999,41502573.67,2018-09-30,三季度报告,35734469.6,2018,9,0.05292038016109045,True,未知,未知,未知,未知,未知,未知,62750000.0,未知
19,300329,54841006.26000001,54512659.92000001,2018-12-31,年度报告,45466370.07,2018,12,-0.19858529808923608,True,0.26920385419735676,True,0.0,True,比例外推,54512659.92000001,40000000.0,40000000.0
20,300329,13088303.48,13068234.22,2019-03-31,一季度报告,11940508.830000002,2019,3,1.2826004934036317,False,0.5161377877465329,True,0.06540998011256166,True,前期平均,31333891.795,69000000.0,69000000.0
21,300329,27762802.32,27729083.94,2019-06-30,半年度报告,26667620.72000001,2019,6,0.06881552373113466,True,0.6115113280803368,True,0.07122291305393125,True,比例外推,49004897.11942098,,49004897.11942098
22,300329,38719182.23999999,38695268.98,2019-09-30,三季度报告,36745698.46,2019,9,-0.21723392345582426,True,0.4622498840342476,True,0.015861118152927012,True,比例外推,49665508.99474681,未知,49665508.99474681
23,300329,51584242.07000001,52030578.40000001,2019-12-31,年度报告,49029390.73,2019,12,-0.40237294471554813,True,0.48111396336104384,True,0.0,True,比例外推,52030578.40000001,,52030578.40000001
24,300329,2081793.4,2153705.25,2020-03-31,一季度报告,1427961.64,2020,3,1.5041036930479241,False,0.07341523954257544,True,0.00816863240279389,True,前期平均,30266386.215000004,未知,30266386.215000004
