,SECURITYCODE_x,NETPROFIT_x,PARENTNETPROFIT_x,REPORTDATE_x,REPORTTIMETYPE_x,KCFJCXSYJLR,Year,Month,managesituationChangeRate,managesituationGreatChange,historyprofitextroplaterate,ifhistoryprofitextroplate,IfprofitdisStableChangeRage,IfprofitdisStable,predicttype,predict,analyst_prediction,adj_prediction
0,300349,118202579.59000002,116423217.17,2013-12-31,年度报告,116874519.01,2013,12,未知,未知,未知,未知,未知,未知,未知,未知,未知,未知
1,300349,27505600.36,25517415.03,2014-03-31,一季度报告,25587536.140000004,2014,3,未知,未知,未知,未知,未知,未知,未知,未知,未知,未知
2,300349,74672061.08000001,69837661.92999999,2014-06-30,半年度报告,69864500.06,2014,6,未知,未知,未知,未知,未知,未知,未知,未知,未知,未知
3,300349,111336807.00999998,105798758.81,2014-09-30,三季度报告,105972835.58,2014,9,未知,未知,未知,未知,未知,未知,未知,未知,未知,未知
4,300349,143856706.76,136076998.61999995,2014-12-31,年度报告,137081136.22000003,2014,12,0.0,True,未知,未知,未知,未知,未知,未知,未知,未知
5,300349,22919053.50000001,21536946.21,2015-03-31,一季度报告,21380215.89,2015,3,3.297400458195271,False,未知,未知,未知,未知,未知,未知,170941914.0,未知
6,300349,62117773.27000001,58804680.23,2015-06-30,半年度报告,59015557.14,2015,6,0.5829558991730994,False,未知,未知,未知,未知,未知,未知,159631133.0,未知
7,300349,70563787.12,65465610.31,2015-09-30,三季度报告,65379690.53,2015,9,0.061666691944770584,True,未知,未知,未知,未知,未知,未知,98000000.0,未知
8,300349,89076567.11,82269255.07999998,2015-12-31,年度报告,80958572.76,2015,12,-0.17833111676050975,True,未知,未知,未知,未知,未知,未知,82500000.0,未知
9,300349,23172033.53,21869183.52,2016-03-31,一季度报告,21289565.39,2016,3,4.157393589137525,False,未知,未知,未知,未知,未知,未知,143000000.0,未知
10,300349,41612177.03000001,39285653.47999999,2016-06-30,半年度报告,38783993.89,2016,6,0.9028785702961821,False,未知,未知,未知,未知,未知,未知,97666667.0,未知
11,300349,59185442.03000001,55709171.49,2016-09-30,三季度报告,55509311.68000001,2016,9,0.6751167194156686,False,未知,未知,未知,未知,未知,未知,95000000.0,未知
12,300349,95945340.34,87608402.25,2016-12-31,年度报告,97654466.99000002,2016,12,0.3269772671417896,True,0.32018003749707613,True,0.0,True,比例外推,87608402.25,86115000.0,87608402.25
13,300349,44178530.32,43957931.21,2017-03-31,一季度报告,41234525.94,2017,3,4.101087888422368,False,0.08092443849648294,True,0.04116925982880379,True,前期平均,129493909.685,188835714.0,188835714.0
14,300349,89260996.15999998,94528398.25,2017-06-30,半年度报告,87660371.25999999,2017,6,1.8405766779465225,False,0.3915896275811229,True,0.18370217799153699,False,前期平均,139108224.14000002,204242000.0,204242000.0
15,300349,168851400.51,176183403.48999995,2017-09-30,三季度报告,167368445.64,2017,9,0.9971563197937309,False,0.34925509932417714,True,0.14792825096278506,False,前期平均,199526994.92499998,235000000.0,235000000.0
16,300349,340778856.93,348142142.9,2017-12-31,年度报告,327625420.8,2017,12,0.2319783240241515,True,0.17619892816560787,True,0.0,True,比例外推,348142142.9,350788750.0,348142142.9
17,300349,86033672.9,87918822.13,2018-03-31,一季度报告,81800420.07000001,2018,3,1.6755661343602617,False,0.9170096939238964,True,0.07679332661443003,True,前期平均,155890451.365,449950303.0,449950303.0
18,300349,204372462.96,207521709.91,2018-06-30,半年度报告,194080883.62,2018,6,0.3242354967462201,True,0.7210264904561507,True,0.2644005874173598,False,平均增速,746794681.9391061,468682857.0,468682857.0
19,300349,341520019.96000016,346272966.30000013,2018-09-30,三季度报告,302105502.04000014,2018,9,-0.2999609169187813,True,1.6027345459570306,True,0.17862020827973302,False,平均增速,673647453.8859951,472692500.0,472692500.0
20,300349,495930257.8999999,498062172.61,2018-12-31,年度报告,454507136.27,2018,12,-0.6531399258309026,True,2.683659536610188,False,0.0,True,比例外推,498062172.61,475317500.0,498062172.61
21,300349,106986049.16,107734378.7,2019-03-31,一季度报告,92774835.34,2019,3,0.3739106515583855,True,1.5548018600589641,True,0.04875590870826674,True,比例外推,546271381.7261358,593886364.0,546271381.7261358
22,300349,182654017.04,182767352.52000004,2019-06-30,半年度报告,155644394.76999998,2019,6,-0.4216315746356947,True,2.123213993799855,False,0.09634790416645106,True,比例外推,454822384.53968483,504392500.0,454822384.53968483
23,300349,296847460.59000003,296297946.71,2019-09-30,三季度报告,259760343.94000003,2019,9,-0.6538926777884229,True,1.995305637071291,True,0.0833658317426349,True,比例外推,483381532.92318344,444607143.0,483381532.92318344
24,300349,422748332.52,420313252.1999999,2019-12-31,年度报告,372102105.78,2019,12,-0.7616548341080762,True,1.2711370746118582,True,0.0,True,比例外推,420313252.1999999,432516250.0,420313252.1999999
25,300349,37594848.62,37792449.74,2020-03-31,一季度报告,21196320.79,2020,3,0.10484105654958296,True,0.6432568763043159,True,0.06427257399810221,True,比例外推,131137581.68986431,462545000.0,462545000.0
