,SECURITYCODE_x,NETPROFIT_x,PARENTNETPROFIT_x,REPORTDATE_x,REPORTTIMETYPE_x,KCFJCXSYJLR,Year,Month,managesituationChangeRate,managesituationGreatChange,historyprofitextroplaterate,ifhistoryprofitextroplate,IfprofitdisStableChangeRage,IfprofitdisStable,predicttype,predict,analyst_prediction,adj_prediction
0,300390,9756446.81,9756446.81,2014-03-31,一季度报告,9667746.81,2014,3,未知,未知,未知,未知,未知,未知,未知,未知,未知,未知
1,300390,29849754.69,29849754.69,2014-09-30,三季度报告,29596183.72000001,2014,9,未知,未知,未知,未知,未知,未知,未知,未知,未知,未知
2,300390,41639954.8,41639954.8,2014-12-31,年度报告,39044946.61,2014,12,未知,未知,未知,未知,未知,未知,未知,未知,未知,未知
3,300390,11197262.12,11211643.82,2015-03-31,一季度报告,11138984.369999995,2015,3,0.0,True,未知,未知,未知,未知,未知,未知,未知,未知
4,300390,24125145.0,23415495.62,2015-06-30,半年度报告,23271501.62,2015,6,未知,未知,未知,未知,未知,未知,未知,未知,未知,未知
5,300390,36325592.43,35244623.55,2015-09-30,三季度报告,33414075.41,2015,9,-0.6731481745386498,True,未知,未知,未知,未知,未知,未知,47000000.0,未知
6,300390,48497682.05,47071472.1,2015-12-31,年度报告,45424487.1,2015,12,-0.7656950672290355,True,未知,未知,未知,未知,未知,未知,,未知
7,300390,5784865.379999999,5128758.8999999985,2016-03-31,一季度报告,4602466.88,2016,3,-0.12867567933651256,True,未知,未知,未知,未知,未知,未知,未知,未知
8,300390,12309282.33,11247439.35,2016-06-30,半年度报告,10609604.47,2016,6,-0.5955901276448287,True,未知,未知,未知,未知,未知,未知,59045000.0,未知
9,300390,21049360.259999994,19690170.23,2016-09-30,三季度报告,18987971.21,2016,9,-0.731416718700436,True,未知,未知,未知,未知,未知,未知,,未知
10,300390,17595718.82,16067931.710000005,2016-12-31,年度报告,14146814.32,2016,12,-0.7988265336074963,True,未知,未知,未知,未知,未知,未知,,未知
11,300390,7370839.3,6675692.750000001,2017-03-31,一季度报告,5611295.66,2017,3,0.6865469062998321,False,0.44784330074208023,True,0.05261548129486299,True,前期平均,38507044.015,未知,38507044.015
12,300390,13869925.020000005,12398101.44,2017-06-30,半年度报告,11041026.750000004,2017,6,-0.20739109328723956,True,未知,未知,未知,未知,未知,未知,未知,未知
13,300390,24239435.72,22720688.22,2017-09-30,三季度报告,21008601.74,2017,9,-0.5364967538448124,True,0.3638307564347237,True,0.396939174551347,False,平均增速,18257555.226566732,未知,18257555.226566732
14,300390,34517072.550000004,31911946.33,2017-12-31,年度报告,29013468.730000004,2017,12,-0.44552155499834245,True,0.6095810932056845,True,0.0,True,比例外推,31911946.33,未知,31911946.33
15,300390,8973674.38,7562338.949999997,2018-03-31,一季度报告,7260329.14,2018,3,0.32365479871471364,True,0.13192981268100834,True,0.07068296603401597,True,比例外推,28812690.602145523,未知,28812690.602145523
16,300390,22386852.19,20230550.58,2018-06-30,半年度报告,13804318.37,2018,6,-0.29657537470956014,True,0.23863630986292184,True,0.20235609608838345,False,平均增速,42079959.06070776,未知,42079959.06070776
17,300390,39977337.48,37418289.49000001,2018-09-30,三季度报告,35454141.46000001,2018,9,-0.5974969499001191,True,0.15505165290620826,True,0.4082407349676521,False,平均增速,48900314.21528219,未知,48900314.21528219
18,300390,53225937.65,50276850.32999999,2018-12-31,年度报告,45140489.42000001,2018,12,-0.7173443142993307,True,0.04449376475246297,True,0.0,True,比例外推,50276850.32999999,未知,50276850.32999999
19,300390,12962595.169999994,12084344.21,2019-03-31,一季度报告,10807801.64,2019,3,0.08722986781697774,True,0.3642255733578843,True,0.09881006744635551,True,比例外推,48987659.96909664,未知,48987659.96909664
20,300390,28882012.08000001,27635932.08,2019-06-30,半年度报告,24512558.12,2019,6,-0.5641885367716809,True,0.710277312120376,True,0.2711907350987123,False,平均增速,83713286.13271067,未知,83713286.13271067
21,300390,52057519.56,50080581.87000001,2019-09-30,三季度报告,46645481.53999999,2019,9,-0.7559505603673333,True,0.7654405075221876,True,0.3916335185210619,False,平均增速,65186545.90632703,未知,65186545.90632703
22,300390,64839984.08000001,61840180.51000001,2019-12-31,年度报告,58916113.21999999,2019,12,-0.8166975117628575,True,1.0427206545930987,True,0.0,True,比例外推,61840180.51000001,未知,61840180.51000001
23,300390,48748766.60999999,47530378.56999999,2020-03-31,一季度报告,44436901.29,2020,3,-0.2473384625495479,True,0.5861708000356967,True,0.01839000241328781,True,比例外推,251027805.6225165,168000000.0,168000000.0
