,SECURITYCODE_x,NETPROFIT_x,PARENTNETPROFIT_x,REPORTDATE_x,REPORTTIMETYPE_x,KCFJCXSYJLR,Year,Month,managesituationChangeRate,managesituationGreatChange,historyprofitextroplaterate,ifhistoryprofitextroplate,IfprofitdisStableChangeRage,IfprofitdisStable,predicttype,predict,analyst_prediction,adj_prediction
0,300396,16270598.61,16270598.61,2014-03-31,一季度报告,,2014,3,未知,未知,未知,未知,未知,未知,未知,未知,未知,未知
1,300396,71426706.96,71426706.96,2014-09-30,三季度报告,68742004.11000001,2014,9,未知,未知,未知,未知,未知,未知,未知,未知,未知,未知
2,300396,101358862.36,101358862.36,2014-12-31,年度报告,90467004.62,2014,12,未知,未知,未知,未知,未知,未知,未知,未知,未知,未知
3,300396,18230429.28,18230429.28,2015-03-31,一季度报告,16306641.769999996,2015,3,0.0,True,未知,未知,未知,未知,未知,未知,114000000.0,未知
4,300396,48025092.8,48025092.8,2015-06-30,半年度报告,43606266.63999999,2015,6,未知,未知,未知,未知,未知,未知,未知,未知,123604000.0,未知
5,300396,79236108.12,76424386.88000001,2015-09-30,三季度报告,73727725.88999999,2015,9,-0.7722056734449234,True,未知,未知,未知,未知,未知,未知,124755000.0,未知
6,300396,119947987.92,108278048.69,2015-12-31,年度报告,100134147.3,2015,12,-0.8394753233100514,True,未知,未知,未知,未知,未知,未知,128333333.0,未知
7,300396,28487779.309999995,22292569.680000003,2016-03-31,一季度报告,20080840.2,2016,3,-0.10750326500265504,True,未知,未知,未知,未知,未知,未知,141476667.0,未知
8,300396,77934150.76,62448226.58000001,2016-06-30,半年度报告,57885973.51,2016,6,-0.6612063056752698,True,未知,未知,未知,未知,未知,未知,141855000.0,未知
9,300396,113699661.40000002,89744445.40999998,2016-09-30,三季度报告,84409296.64000002,2016,9,-0.7946567670214341,True,未知,未知,未知,未知,未知,未知,142575000.0,未知
10,300396,157520402.42,125136152.61,2016-12-31,年度报告,110827111.08,2016,12,-0.8643528841780008,True,未知,未知,未知,未知,未知,未知,161784250.0,未知
11,300396,36912361.67999999,27414133.959999993,2017-03-31,一季度报告,25569965.99,2017,3,-0.42885689920068387,True,0.6514162650937757,True,,False,平均增速,135410077.69136292,154843333.0,154843333.0
12,300396,110691489.1,91135203.81,2017-06-30,半年度报告,77611515.04,2017,6,-0.7912263308019397,True,未知,未知,未知,未知,未知,未知,163176000.0,未知
13,300396,166957442.88,135001815.5,2017-09-30,三季度报告,117427022.25,2017,9,-0.8568984427072357,True,0.5093261245600248,True,0.016302832227080066,True,比例外推,173604837.6566284,181856000.0,173604837.6566284
14,300396,211129656.25,167392770.12,2017-12-31,年度报告,144356421.95,2017,12,-0.8967079923614127,True,0.4235474610994042,True,0.0,True,比例外推,167392770.12,148000000.0,148000000.0
15,300396,45701601.40999999,34526290.629999995,2018-03-31,一季度报告,32213253.140000004,2018,3,-0.5592100350811257,True,0.580213060134376,True,0.010875181568715392,True,比例外推,187741717.63302281,222096667.00000003,222096667.00000003
16,300396,122953590.91000004,101525614.25,2018-06-30,半年度报告,96044873.75,2018,6,-0.8530094884232613,True,0.7575762758097655,True,0.06299664453040899,True,比例外推,198158104.51833954,218090000.0,198158104.51833954
17,300396,191087684.2,157727390.76999998,2018-09-30,三季度报告,147195926.19000003,2018,9,-0.9025464314178887,True,0.7307049210767826,True,0.042994695166437724,True,比例外推,201581536.38115937,199000000.0,201581536.38115937
18,300396,239957641.55,197727875.75,2018-12-31,年度报告,185376034.67,2018,12,-0.9229355131865801,True,0.5218285296663102,True,0.0,True,比例外推,197727875.75,,197727875.75
19,300396,56203675.36999998,48070157.71000001,2019-03-31,一季度报告,47328107.65,2019,3,-0.6439818713564855,True,0.3975994766429631,True,0.003826036215840989,True,比例外推,267582753.15277362,258856667.00000003,267582753.15277362
20,300396,142292872.38,125906131.81,2019-06-30,半年度报告,121170825.52000004,2019,6,-0.8676687806384622,True,0.30367845009042804,True,0.01161969697311982,True,比例外推,235090025.139968,250000000.0,235090025.139968
21,300396,218584644.16,189557550.94000003,2019-09-30,三季度报告,182004921.61,2019,9,-0.9148527092255169,True,0.3617163527017629,True,0.028076964770143542,True,比例外推,238023979.04631853,,238023979.04631853
22,300396,272885597.95000005,231892235.07999995,2019-12-31,年度报告,220635329.42,2019,12,-0.9321938717812839,True,0.3018180027731937,True,0.0,True,比例外推,231892235.07999995,,231892235.07999995
23,300396,39708097.55,37958679.0,2020-03-31,一季度报告,37008604.53,2020,3,-0.7105065015252577,True,0.3606338025152353,True,0.026037773997736963,True,比例外推,197312905.85053128,262000000.0,262000000.0
