,SECURITYCODE_x,NETPROFIT_x,PARENTNETPROFIT_x,REPORTDATE_x,REPORTTIMETYPE_x,KCFJCXSYJLR,Year,Month,managesituationChangeRate,managesituationGreatChange,historyprofitextroplaterate,ifhistoryprofitextroplate,IfprofitdisStableChangeRage,IfprofitdisStable,predicttype,predict,analyst_prediction,adj_prediction
0,300346,60586060.22,60586060.22,2013-12-31,年度报告,58320125.77,2013,12,未知,未知,未知,未知,未知,未知,未知,未知,未知,未知
1,300346,8846470.02,8846470.02,2014-03-31,一季度报告,8265175.17,2014,3,未知,未知,未知,未知,未知,未知,未知,未知,未知,未知
2,300346,20125547.809999995,20125547.809999995,2014-06-30,半年度报告,19016936.19,2014,6,未知,未知,未知,未知,未知,未知,未知,未知,未知,未知
3,300346,35666439.92999999,35666439.92999999,2014-09-30,三季度报告,32248012.9,2014,9,未知,未知,未知,未知,未知,未知,未知,未知,未知,未知
4,300346,50941298.92,50941298.92,2014-12-31,年度报告,45796665.51000001,2014,12,0.0,True,未知,未知,未知,未知,未知,未知,未知,未知
5,300346,9034076.47,9034076.47,2015-03-31,一季度报告,7611169.3900000015,2015,3,5.848614202391205,False,未知,未知,未知,未知,未知,未知,100300000.0,未知
6,300346,21034748.19,21380296.09,2015-06-30,半年度报告,19611447.08,2015,6,2.0104055199876822,False,未知,未知,未知,未知,未知,未知,,未知
7,300346,32558178.289999995,33342085.58000001,2015-09-30,三季度报告,26979207.79,2015,9,0.6986853843250963,False,未知,未知,未知,未知,未知,未知,49123239.99999999,未知
8,300346,44944469.11000001,44470006.68000001,2015-12-31,年度报告,24947866.75,2015,12,0.18933088681437957,True,未知,未知,未知,未知,未知,未知,47256667.0,未知
9,300346,98322.95,652651.1799999999,2016-03-31,一季度报告,-625556.1299999999,2016,3,5.706392227383924,False,未知,未知,未知,未知,未知,未知,51500000.0,未知
10,300346,2542364.77,3627258.17,2016-06-30,半年度报告,522185.18,2016,6,1.8802845497719267,False,未知,未知,未知,未知,未知,未知,49570000.0,未知
11,300346,12811566.119999995,14340132.22,2016-09-30,三季度报告,9845548.64,2016,9,0.8608553488574193,False,未知,未知,未知,未知,未知,未知,,未知
12,300346,5234752.54,7548678.72,2016-12-31,年度报告,208771.58,2016,12,0.3480203775845644,True,0.19401894823706292,True,0.0,True,比例外推,7548678.72,76974360.0,76974360.0
13,300346,2243460.63,2504068.45,2017-03-31,一季度报告,230161.03,2017,3,615.1944919268594,False,0.9890022432977663,True,2.15943036178506,False,前期平均,29938162.300000004,13000000.0,13000000.0
14,300346,19866028.099999994,18717145.28,2017-06-30,半年度报告,10594156.78,2017,6,22.830593050579438,False,0.8764651852843819,True,1.2670367698757918,False,前期平均,34775219.775000006,40000000.0,40000000.0
15,300346,30650710.85,29465544.940000005,2017-09-30,三季度报告,18183893.790000007,2017,9,3.7290128039396966,False,0.6244298186121825,True,30.844426504254496,False,前期平均,35224200.72500001,35000000.0,35224200.72500001
16,300346,35794464.05,33839133.41,2017-12-31,年度报告,20008489.42,2017,12,10.573815525575924,False,0.8908127317004503,True,0.0,True,前期平均,33839133.41,未知,33839133.41
17,300346,11696523.83,10546921.740000002,2018-03-31,一季度报告,8622614.93,2018,3,26.00562666883082,False,0.5086810099245528,True,2.1031062581790905,False,前期平均,19632434.275000002,未知,19632434.275000002
18,300346,31526141.89000001,28954228.09,2018-06-30,半年度报告,23467663.43,2018,6,2.049731930058028,False,0.6851959893226888,True,1.228958133494926,False,前期平均,31465731.125,未知,31465731.125
19,300346,53635401.72000001,50070292.76,2018-09-30,三季度报告,42437749.83000001,2018,9,0.9766608518966859,False,0.3511520176536083,True,30.77620897929207,False,前期平均,44236233.71,未知,44236233.71
20,300346,55478179.84,51242336.32000001,2018-12-31,年度报告,36990618.68,2018,12,0.6926097883563647,False,0.42666477769090677,True,0.0,True,前期平均,51242336.32000001,67340000.0,67340000.0
21,300346,16911877.3,15602337.4,2019-03-31,一季度报告,13020118.15,2019,3,4.179834718466093,False,8.989414845926966,False,2.0791128500094924,False,去年同期,43970341.15,81180000.0,81180000.0
22,300346,29086949.75,26322797.16,2019-06-30,半年度报告,13064492.53,2019,6,0.9217721099966786,False,1.8137798255230269,True,1.2795165082300166,False,前期平均,30873256.68,58080000.0,58080000.0
23,300346,50471622.60000001,45416367.41,2019-09-30,三季度报告,26623553.209999993,2019,9,0.12959087239218284,True,1.4681358391334192,True,30.75426442549405,False,平均增速,-89321963.03976932,,-89321963.03976932
24,300346,61701255.64,55011309.88,2019-12-31,年度报告,36816812.56,2019,12,0.09207007862787149,True,1.7043255733779539,True,0.0,True,比例外推,55011309.88,66000000.0,66000000.0
25,300346,40323310.97999999,34872085.91999999,2020-03-31,一季度报告,9331606.09,2020,3,2.5824562315148776,False,1.4263839530851241,True,0.1879141343111164,False,前期平均,58945251.98999999,81000000.0,81000000.0
