,SECURITYCODE_x,NETPROFIT_x,PARENTNETPROFIT_x,REPORTDATE_x,REPORTTIMETYPE_x,KCFJCXSYJLR,Year,Month,managesituationChangeRate,managesituationGreatChange,historyprofitextroplaterate,ifhistoryprofitextroplate,IfprofitdisStableChangeRage,IfprofitdisStable,predicttype,predict,analyst_prediction,adj_prediction
0,300395,12666150.13,12666150.13,2014-03-31,一季度报告,,2014,3,未知,未知,未知,未知,未知,未知,未知,未知,未知,未知
1,300395,44118610.25000001,44118610.25000001,2014-09-30,三季度报告,42949475.8,2014,9,未知,未知,未知,未知,未知,未知,未知,未知,未知,未知
2,300395,69629628.22999999,69629628.22999999,2014-12-31,年度报告,65538002.59999997,2014,12,未知,未知,未知,未知,未知,未知,未知,未知,未知,未知
3,300395,12088769.920000002,12088769.920000002,2015-03-31,一季度报告,11340005.409999998,2015,3,0.0,True,未知,未知,未知,未知,未知,未知,83200000.0,未知
4,300395,37254226.3,37254226.3,2015-06-30,半年度报告,36509638.97000001,2015,6,未知,未知,未知,未知,未知,未知,未知,未知,83700000.0,未知
5,300395,64147115.14000001,64147115.14000001,2015-09-30,三季度报告,62802198.35000002,2015,9,-0.7129068649663551,True,未知,未知,未知,未知,未知,未知,95500000.0,未知
6,300395,84177980.12,84177980.12,2015-12-31,年度报告,86476860.57,2015,12,-0.8180925210721894,True,未知,未知,未知,未知,未知,未知,86100000.0,未知
7,300395,9565301.510000002,9565591.910000002,2016-03-31,一季度报告,8844541.069999997,2016,3,0.04776170063794207,True,未知,未知,未知,未知,未知,未知,109050000.0,未知
8,300395,43633685.85,43633871.03,2016-06-30,半年度报告,42468354.96,2016,6,-0.6600076987775209,True,未知,未知,未知,未知,未知,未知,109390000.0,未知
9,300395,74314651.08,74323481.47000001,2016-09-30,三季度报告,65637026.87000001,2016,9,-0.8025452882431838,True,未知,未知,未知,未知,未知,未知,114144000.0,未知
10,300395,108106505.28999998,108031105.28999998,2016-12-31,年度报告,101481198.16,2016,12,-0.8495313131540606,True,未知,未知,未知,未知,未知,未知,117200000.0,未知
11,300395,15256344.47,15203978.89,2017-03-31,一季度报告,13443964.68,2017,3,0.32417677757028684,True,0.22719996746666932,True,,False,平均增速,143344980.86116606,128816667.0,128816667.0
12,300395,53226862.71000001,53096765.53,2017-06-30,半年度报告,50142346.19000001,2017,6,-0.7097162459861271,True,未知,未知,未知,未知,未知,未知,144277500.0,未知
13,300395,78147808.07000001,77943088.91,2017-09-30,三季度报告,74480246.34,2017,9,-0.8295605247965863,True,0.37281952921481254,True,0.050111834139555334,True,比例外推,113621262.58403869,132895000.0,132895000.0
14,300395,122057455.81,121776126.63,2017-12-31,年度报告,117629932.69,2017,12,-0.8828363742216757,True,0.4057367701082257,True,0.0,True,比例外推,121776126.63,131516000.0,121776126.63
15,300395,21175373.09,21042122.22,2018-03-31,一季度报告,16550644.400000002,2018,3,-0.1697781762265099,True,0.4090970854435755,True,0.023704928212543205,True,比例外推,153785476.8174247,156978571.0,153785476.8174247
16,300395,79285099.01,79063343.60000002,2018-06-30,半年度报告,72904725.13,2018,6,-0.7620346290366584,True,0.3160646948408101,True,0.003956447873004254,True,比例外推,178789546.84518245,166421429.0,178789546.84518245
17,300395,117032419.37,116681734.99,2018-09-30,三季度报告,109820867.6,2018,9,-0.8379205963313208,True,0.12879981533432167,True,0.05749940075995719,True,比例外推,171083444.94553608,166990000.0,171083444.94553608
18,300395,161582906.99999997,161215303.45,2018-12-31,年度报告,151470474.98,2018,12,-0.89622796865669,True,0.26955074456207034,True,0.0,True,比例外推,161215303.45,167790000.0,161215303.45
19,300395,28081633.430000003,27819671.469999995,2019-03-31,一季度报告,23743236.69,2019,3,-0.40184524370994207,True,0.7062021678225544,True,0.016415949631187823,True,比例外推,233323689.44133693,218796000.0,233323689.44133693
20,300395,95160062.79,94650705.35,2019-06-30,半年度报告,89551763.87000002,2019,6,-0.8402455153848966,True,0.6370978729464261,True,0.03928975419405212,True,比例外推,207694037.4989838,202100000.0,207694037.4989838
21,300395,141318088.17,140438005.44,2019-09-30,三季度报告,134763443.89,2019,9,-0.8917722952479027,True,0.5352293282224682,True,0.0566995774001674,True,比例外推,207316046.5331296,197362000.0,207316046.5331296
22,300395,192554247.25,191568496.49000004,2019-12-31,年度报告,184573357.32,2019,12,-0.9216120667392127,True,0.4040678325812841,True,0.0,True,比例外推,191568496.49000004,198135000.0,191568496.49000004
23,300395,16358446.750000006,16130363.27,2020-03-31,一季度报告,14381091.23,2020,3,-0.5489525151172804,True,0.5416035976756733,True,0.011240052280700005,True,比例外推,124247427.59853645,246982000.0,246982000.0
