,SECURITYCODE_x,NETPROFIT_x,PARENTNETPROFIT_x,REPORTDATE_x,REPORTTIMETYPE_x,KCFJCXSYJLR,Year,Month,managesituationChangeRate,managesituationGreatChange,historyprofitextroplaterate,ifhistoryprofitextroplate,IfprofitdisStableChangeRage,IfprofitdisStable,predicttype,predict,analyst_prediction,adj_prediction
0,300313,10155905.55,9615789.71,2013-12-31,年度报告,7419688.0,2013,12,未知,未知,未知,未知,未知,未知,未知,未知,未知,未知
1,300313,97917.21,74449.51,2014-03-31,一季度报告,-221049.46,2014,3,未知,未知,未知,未知,未知,未知,未知,未知,未知,未知
2,300313,4697795.77,4626124.52,2014-06-30,半年度报告,3006817.8300000005,2014,6,未知,未知,未知,未知,未知,未知,未知,未知,未知,未知
3,300313,6866821.3900000015,6245627.91,2014-09-30,三季度报告,1751791.85,2014,9,未知,未知,未知,未知,未知,未知,未知,未知,未知,未知
4,300313,2106243.4200000004,1791099.71,2014-12-31,年度报告,-1410273.59,2014,12,0.0,True,未知,未知,未知,未知,未知,未知,未知,未知
5,300313,-9115063.07,-8095342.1099999985,2015-03-31,一季度报告,-9059421.61,2015,3,102.7193109362491,False,未知,未知,未知,未知,未知,未知,,未知
6,300313,-14028023.849999998,-10131689.58,2015-06-30,半年度报告,-10482810.37,2015,6,1.1618448411179019,False,未知,未知,未知,未知,未知,未知,17782305.0,未知
7,300313,-19067902.91,-14219457.54,2015-09-30,三季度报告,-15267283.139999995,2015,9,0.4789820461603703,True,未知,未知,未知,未知,未知,未知,5000000.0,未知
8,300313,-47498826.11999998,-35659960.1,2015-12-31,年度报告,-32513432.61,2015,12,3.8218099833873898,False,未知,未知,未知,未知,未知,未知,,未知
9,300313,-21454585.030000005,-16346221.88,2016-03-31,一季度报告,-16172858.94,2016,3,-2.11418927899969,False,未知,未知,未知,未知,未知,未知,47100000.0,未知
10,300313,-42183639.25,-29927719.31,2016-06-30,半年度报告,-32792965.95,2016,6,-1.7239726463681484,False,未知,未知,未知,未知,未知,未知,20730000.0,未知
11,300313,-75406041.71000002,-57818727.51000001,2016-09-30,三季度报告,-60847800.94000001,2016,9,-1.5326178551430436,False,未知,未知,未知,未知,未知,未知,-24180000.0,未知
12,300313,-183418286.85,-139629761.39,2016-12-31,年度报告,-139703690.47,2016,12,-1.2138138219319852,False,8.747227053954145,False,0.0,True,去年同期,-139629761.39,未知,-139629761.39
13,300313,-6468155.86,-4881374.41,2017-03-31,一季度报告,-7439791.859999998,2017,3,-1.4733676058427123,False,-3.758619936530561,True,0.09492161670697166,True,前期平均,-17202991.975,未知,-17202991.975
14,300313,173675.53999999998,1679663.25,2017-06-30,半年度报告,-2771971.5500000003,2017,6,-1.24075460843507,False,-8.042359712604155,True,1.6071031553387165,False,盈利变化,-119615765.12333332,未知,-119615765.12333332
15,300313,3630743.3200000008,3749995.37,2017-09-30,三季度报告,-1362660.51,2017,9,-1.1346829155819906,False,-11.360550429303258,True,1.1298155182176932,False,盈利变化,-113191921.19888887,5100000.0,5100000.0
16,300313,6407211.550000003,7444331.38,2017-12-31,年度报告,-607774.1299999999,2017,12,-1.0553701908594617,False,-7.081421057806436,True,0.0,True,盈利变化,-93264455.94333333,,-93264455.94333333
17,300313,-5646845.52,-5304879.539999999,2018-03-31,一季度报告,-5947938.07,2018,3,-2.5701392745968863,False,-0.5768249710404746,True,8.029230949403487,False,前期平均,-78797300.80499998,未知,-78797300.80499998
18,300313,-1861466322.6,-1860550115.6800003,2018-06-30,半年度报告,-1812720790.53,2018,6,57.47631479942427,False,-1.0061793418099383,True,2.8548563732330328,False,盈利变化,-1199188214.6066666,未知,-1199188214.6066666
19,300313,-1923353470.46,-1922676079.1600008,2018-09-30,三季度报告,-1923167907.4100003,2018,9,1.7971973380921897,False,-1.0768623208145662,True,1.1929947497848585,False,盈利变化,-846691333.908889,未知,-846691333.908889
20,300313,-1946481642.9800005,-1945744003.8100011,2018-12-31,年度报告,-1846935304.81,2018,12,0.585074173179126,False,-1.0554936051953188,True,0.0,True,盈利变化,-607998178.8466666,,-607998178.8466666
21,300313,-8094380.78,-8436733.54,2019-03-31,一季度报告,-8485422.190000001,2019,3,-2.798509542014176,False,-0.5955378777287362,True,8.121036227432743,False,前期平均,-66786140.44,未知,-66786140.44
22,300313,-18022792.0,-18613088.81,2019-06-30,半年度报告,-18931483.44,2019,6,-1.0054558631691035,False,-87.62022997448572,True,2.635169631312806,False,前期平均,-70986352.36,未知,-70986352.36
23,300313,-26945703.510000005,-27642256.73,2019-09-30,三季度报告,-30323577.81,2019,9,-1.0052803115527023,False,-52.59374363055155,True,1.002425847097102,False,前期平均,-66692758.30499999,未知,-66692758.30499999
24,300313,-60054251.23,-60790981.91000002,2019-12-31,年度报告,-100087031.59,2019,12,-1.0052175706802204,False,-20.9927667201737,True,0.0,True,前期平均,-60790981.91000002,未知,-60790981.91000002
25,300313,-4824615.76,-4841384.86,2020-03-31,一季度报告,-5782033.91,2020,3,-2.2546859143436544,False,-0.3362575085402097,True,8.131364561440346,False,前期平均,-921919059.3650001,未知,-921919059.3650001
