,SECURITYCODE_x,NETPROFIT_x,PARENTNETPROFIT_x,REPORTDATE_x,REPORTTIMETYPE_x,KCFJCXSYJLR,Year,Month,managesituationChangeRate,managesituationGreatChange,historyprofitextroplaterate,ifhistoryprofitextroplate,IfprofitdisStableChangeRage,IfprofitdisStable,predicttype,predict,analyst_prediction,adj_prediction
0,300305,58475387.87,58475387.87,2013-12-31,年度报告,55008417.71,2013,12,未知,未知,未知,未知,未知,未知,未知,未知,未知,未知
1,300305,12683046.910000002,12683046.910000002,2014-03-31,一季度报告,11889470.76,2014,3,未知,未知,未知,未知,未知,未知,未知,未知,未知,未知
2,300305,34593211.40000001,34593211.40000001,2014-06-30,半年度报告,32821830.75000001,2014,6,未知,未知,未知,未知,未知,未知,未知,未知,未知,未知
3,300305,52806468.51,52806468.51,2014-09-30,三季度报告,49987205.38,2014,9,未知,未知,未知,未知,未知,未知,未知,未知,未知,未知
4,300305,66895264.31999999,66895264.31999999,2014-12-31,年度报告,63159521.54,2014,12,0.0,True,未知,未知,未知,未知,未知,未知,未知,未知
5,300305,16454021.849999998,16454021.849999998,2015-03-31,一季度报告,15179798.29,2015,3,3.610515776291486,False,未知,未知,未知,未知,未知,未知,87300000.0,未知
6,300305,43421977.44,43421977.44,2015-06-30,半年度报告,40947248.11,2015,6,0.6903717666987106,False,未知,未知,未知,未知,未知,未知,,未知
7,300305,65443782.28,65443782.28,2015-09-30,三季度报告,61407439.09,2015,9,0.1073527452214774,True,未知,未知,未知,未知,未知,未知,未知,未知
8,300305,82043655.89999999,82043655.89999999,2015-12-31,年度报告,75316093.16,2015,12,-0.12586655476421618,True,未知,未知,未知,未知,未知,未知,未知,未知
9,300305,16320010.2,16320010.2,2016-03-31,一季度报告,14150010.919999998,2016,3,2.5538659425081534,False,未知,未知,未知,未知,未知,未知,未知,未知
10,300305,35691541.79,35691541.79,2016-06-30,半年度报告,30793089.3,2016,6,0.34667722009668106,True,未知,未知,未知,未知,未知,未知,未知,未知
11,300305,50363831.61,50363831.61,2016-09-30,三季度报告,42085210.78,2016,9,-0.10647909040748682,True,未知,未知,未知,未知,未知,未知,未知,未知
12,300305,72243058.47,72243058.47,2016-12-31,年度报告,58642582.50000001,2016,12,-0.2872649660898399,True,0.30881756562392804,True,0.0,True,比例外推,72243058.47,未知,72243058.47
13,300305,11957399.359999998,11957399.359999998,2017-03-31,一季度报告,7275104.57,2017,3,2.5830484879231266,False,0.12022319983020835,True,0.030930624191740475,True,前期平均,67660572.18499999,未知,67660572.18499999
14,300305,35370503.97,35370503.97,2017-06-30,半年度报告,26298117.56,2017,6,0.6383542132770387,False,0.08501043653950098,True,0.014193517243529796,True,前期平均,67723771.88999999,未知,67723771.88999999
15,300305,52018814.85,52018814.85,2017-09-30,三季度报告,39822923.18000001,2017,9,0.16105915695241516,True,0.14818224445983008,True,0.05715365289346419,True,比例外推,63592921.40912296,未知,63592921.40912296
16,300305,68958150.75999999,68958150.75999999,2017-12-31,年度报告,49581247.20999999,2017,12,-0.19057430418338714,True,0.029896841426154206,True,0.0,True,比例外推,68958150.75999999,未知,68958150.75999999
17,300305,15332104.57,15332104.57,2018-03-31,一季度报告,13074590.86,2018,3,3.890309849950517,False,0.2703125851736635,True,0.049792784511443616,True,前期平均,67646537.79500002,未知,67646537.79500002
18,300305,36060965.58,36060965.58,2018-06-30,半年度报告,31473101.599999994,2018,6,0.6532246167483714,False,0.10582908422591218,True,0.01061387818869397,True,前期平均,67170134.705,未知,67170134.705
19,300305,55001568.39999999,55001568.39999999,2018-09-30,三季度报告,39470599.09,2018,9,0.12411995618543001,True,0.10163394093569471,True,0.06106748120539274,True,比例外推,66217242.10236688,未知,66217242.10236688
20,300305,76211948.81,76211948.81,2018-12-31,年度报告,54101068.99,2018,12,-0.15201629937096062,True,0.10610383996344366,True,0.0,True,比例外推,76211948.81,未知,76211948.81
21,300305,19986122.8,19986122.8,2019-03-31,一季度报告,12726922.409999995,2019,3,2.813917887334106,False,0.08440658522611878,True,0.06316673800590347,True,前期平均,63385479.91,未知,63385479.91
22,300305,49128960.39999999,49128960.39999999,2019-06-30,半年度报告,39642616.88,2019,6,0.6215702194738625,False,0.014914929462903294,True,0.03599683068626314,True,前期平均,74695271.82499999,未知,74695271.82499999
23,300305,74429982.66000001,74429982.66000001,2019-09-30,三季度报告,57580275.84999999,2019,9,0.06315855294773752,True,0.07443146474024025,True,0.05304756198162264,True,比例外推,93609322.82450747,未知,93609322.82450747
24,300305,94368340.12,94368340.12,2019-12-31,年度报告,74914198.89,2019,12,-0.23272677338586487,True,0.07948011529929315,True,0.0,True,比例外推,94368340.12,未知,94368340.12
25,300305,27917495.2,27917495.2,2020-03-31,一季度报告,21230976.52,2020,3,1.9257994887332521,False,0.46474797425898107,True,0.05557394716136718,True,前期平均,69583805.58500001,109000000.0,109000000.0
