,SECURITYCODE_x,NETPROFIT_x,PARENTNETPROFIT_x,REPORTDATE_x,REPORTTIMETYPE_x,KCFJCXSYJLR,Year,Month,managesituationChangeRate,managesituationGreatChange,historyprofitextroplaterate,ifhistoryprofitextroplate,IfprofitdisStableChangeRage,IfprofitdisStable,predicttype,predict,analyst_prediction,adj_prediction
0,300321,27375109.68,27417061.39,2013-12-31,年度报告,27197204.96,2013,12,未知,未知,未知,未知,未知,未知,未知,未知,未知,未知
1,300321,5681252.69,5681252.69,2014-03-31,一季度报告,5307070.07,2014,3,未知,未知,未知,未知,未知,未知,未知,未知,未知,未知
2,300321,16523353.66,16523353.66,2014-06-30,半年度报告,15778543.230000002,2014,6,未知,未知,未知,未知,未知,未知,未知,未知,未知,未知
3,300321,22551059.73,22551059.73,2014-09-30,三季度报告,21465421.57,2014,9,未知,未知,未知,未知,未知,未知,未知,未知,未知,未知
4,300321,29117419.340000004,29117419.340000004,2014-12-31,年度报告,28227282.37,2014,12,0.0,True,未知,未知,未知,未知,未知,未知,未知,未知
5,300321,6176184.04,6176184.04,2015-03-31,一季度报告,5868867.93,2015,3,3.818498872297123,False,未知,未知,未知,未知,未知,未知,未知,未知
6,300321,22638554.270000003,22638554.270000003,2015-06-30,半年度报告,21963320.19,2015,6,0.6567526328671464,False,未知,未知,未知,未知,未知,未知,未知,未知
7,300321,28717348.03,28717348.03,2015-09-30,三季度报告,27507592.06000001,2015,9,0.21391677410097476,True,未知,未知,未知,未知,未知,未知,未知,未知
8,300321,34593358.59,34593358.59,2015-12-31,年度报告,32460955.21,2015,12,-0.05983736538102156,True,未知,未知,未知,未知,未知,未知,未知,未知
9,300321,6534458.13,6534458.13,2016-03-31,一季度报告,5979472.3599999985,2016,3,3.4323662479461996,False,未知,未知,未知,未知,未知,未知,41960000.0,未知
10,300321,14416703.73,14416703.73,2016-06-30,半年度报告,12994814.319999995,2016,6,0.20922517195706047,True,未知,未知,未知,未知,未知,未知,,未知
11,300321,23150092.140000004,23150092.140000004,2016-09-30,三季度报告,21198972.19,2016,9,-0.046739634474527815,True,未知,未知,未知,未知,未知,未知,未知,未知
12,300321,33140398.09,33140398.09,2016-12-31,年度报告,30411098.74,2016,12,-0.20865996261162692,True,0.22470560940024284,True,0.0,True,比例外推,33140398.09,未知,33140398.09
13,300321,4009028.61,4009028.61,2017-03-31,一季度报告,3018479.58,2017,3,3.1893465587176393,False,0.10217044017067248,True,0.008144310763240514,True,前期平均,28765178.400000002,未知,28765178.400000002
14,300321,9635316.98,9635316.98,2017-06-30,半年度报告,7876148.7,2017,6,0.8988466568148029,False,0.263738439109292,True,0.12699312015170294,False,前期平均,21108504.06,未知,21108504.06
15,300321,14949170.6,14949170.6,2017-09-30,三季度报告,10921406.42,2017,9,0.18250543084015539,True,0.0969061396105272,True,0.07909381093180157,True,比例外推,18242576.39807769,未知,18242576.39807769
16,300321,24484663.33,24484663.33,2017-12-31,年度报告,19023058.93,2017,12,-0.1739655750164225,True,0.040338830155609,True,0.0,True,比例外推,24484663.33,未知,24484663.33
17,300321,286678.69,286678.69,2018-03-31,一季度报告,-457694.07000000007,2018,3,5.828364759412381,False,0.36918551299284985,True,0.02002319833712768,True,前期平均,25798535.520000003,未知,25798535.520000003
18,300321,11633815.910000002,11633815.910000002,2018-06-30,半年度报告,10574675.78,2018,6,1.8411218579339357,False,0.4799487306227904,True,0.17062600101073855,False,前期平均,25590775.630000003,未知,25590775.630000003
19,300321,18021522.969999995,18021522.969999995,2018-09-30,三季度报告,16279877.460000005,2018,9,0.8312126078753828,False,0.423562429493231,True,0.1412055957179249,False,前期平均,25104267.81999999,未知,25104267.81999999
20,300321,28798197.26,28798197.26,2018-12-31,年度报告,25014907.28,2018,12,0.11805130056489127,True,0.2770321762699551,True,0.0,True,比例外推,28798197.26,未知,28798197.26
21,300321,5131074.61,5131074.61,2019-03-31,一季度报告,4089566.2599999993,2019,3,94.49056359926857,False,0.9456197561452996,True,0.13062995482958994,False,前期平均,25349177.474999998,未知,25349177.474999998
22,300321,17224674.900000002,17224674.900000002,2019-06-30,半年度报告,15464910.439999998,2019,6,1.353063680203961,False,0.03261218254622054,True,0.007325542378160965,True,前期平均,31506272.225000005,39500000.0,39500000.0
23,300321,26112076.51,26112076.51,2019-09-30,三季度报告,22218265.290000007,2019,9,0.5190230995222046,False,0.053969989236595184,True,0.06655297856629061,True,前期平均,34768966.04,,34768966.04
24,300321,39463064.32,39463064.32,2019-12-31,年度报告,33676622.46000001,2019,12,-0.049415856386838354,True,0.0004974727886372205,True,0.0,True,比例外推,39463064.32,未知,39463064.32
25,300321,5282724.540000001,5282724.540000001,2020-03-31,一季度报告,3993209.56,2020,3,4.335161103806284,False,1.3889312058109735,True,0.10556827789263763,False,前期平均,26021314.89,未知,26021314.89
