,SECURITYCODE_x,NETPROFIT_x,PARENTNETPROFIT_x,REPORTDATE_x,REPORTTIMETYPE_x,KCFJCXSYJLR,Year,Month,managesituationChangeRate,managesituationGreatChange,historyprofitextroplaterate,ifhistoryprofitextroplate,IfprofitdisStableChangeRage,IfprofitdisStable,predicttype,predict,analyst_prediction,adj_prediction
0,300382,96398492.72,96433245.41,2013-12-31,年度报告,93329495.4,2013,12,未知,未知,未知,未知,未知,未知,未知,未知,未知,未知
1,300382,17034458.869999994,17030180.82,2014-03-31,一季度报告,14112016.93,2014,3,未知,未知,未知,未知,未知,未知,未知,未知,未知,未知
2,300382,51270149.88000002,51267258.09,2014-06-30,半年度报告,44713112.33000001,2014,6,未知,未知,未知,未知,未知,未知,未知,未知,未知,未知
3,300382,55852749.47000001,55849857.68000001,2014-09-30,三季度报告,48700563.02,2014,9,未知,未知,未知,未知,未知,未知,未知,未知,未知,未知
4,300382,85757918.43,85748829.9,2014-12-31,年度报告,75034661.37,2014,12,0.0,True,未知,未知,未知,未知,未知,未知,未知,未知
5,300382,24304253.5,24306937.74,2015-03-31,一季度报告,19184177.09,2015,3,4.659028763735542,False,未知,未知,未知,未知,未知,未知,112000000.0,未知
6,300382,48731723.13999999,48723180.6,2015-06-30,半年度报告,40306956.66,2015,6,0.8802069614702668,False,未知,未知,未知,未知,未知,未知,,未知
7,300382,63125859.28,63862706.92999999,2015-09-30,三季度报告,54097886.01000001,2015,9,0.7259399695583146,False,未知,未知,未知,未知,未知,未知,100700000.0,未知
8,300382,97082601.63000004,97838505.09,2015-12-31,年度报告,86676805.88000001,2015,12,0.12407687225623802,True,未知,未知,未知,未知,未知,未知,101862191.0,未知
9,300382,12948483.699999996,13609230.42,2016-03-31,一季度报告,11515360.31,2016,3,2.966321891762691,False,未知,未知,未知,未知,未知,未知,112000000.0,未知
10,300382,41591180.86,42846647.8,2016-06-30,半年度报告,40429418.78,2016,6,0.9781466057143,False,未知,未知,未知,未知,未知,未知,108070000.0,未知
11,300382,52406334.64,54070034.21,2016-09-30,三季度报告,49051500.41,2016,9,0.5270840479559489,False,未知,未知,未知,未知,未知,未知,97800000.0,未知
12,300382,104503177.61999996,108487046.68,2016-12-31,年度报告,102339774.44,2016,12,-0.007046668491717065,True,0.06592571754233353,True,0.0,True,比例外推,108487046.68,97800000.0,97800000.0
13,300382,13051262.720000004,13623489.05,2017-03-31,一季度报告,10355682.72,2017,3,6.444770751033964,False,0.3735419921111588,True,0.061453855366058616,True,前期平均,77831125.665,148045741.0,148045741.0
14,300382,44082137.78,45329910.26999999,2017-06-30,半年度报告,39732592.73,2017,6,1.3177628219907196,False,0.16819196273089976,True,0.11057403897818457,False,前期平均,83675609.39999999,139000000.0,139000000.0
15,300382,54911275.28,57742045.66,2017-09-30,三季度报告,51282291.71000001,2017,9,0.8394435211353678,False,0.11906291070998938,True,0.10485777831255794,False,前期平均,87198554.77,122000000.0,122000000.0
16,300382,133115377.76,136475012.79,2017-12-31,年度报告,128082795.01,2017,12,-0.07755443503804879,True,0.14310742045260758,True,0.0,True,比例外推,136475012.79,122000000.0,122000000.0
17,300382,15311974.740000002,16990617.029999994,2018-03-31,一季度报告,16017605.01,2018,3,6.386142995365277,False,0.29931254984398803,True,0.08309588320554442,True,前期平均,96149138.48999998,189975000.0,189975000.0
18,300382,51942542.85,55562486.52,2018-06-30,半年度报告,53043996.92999999,2018,6,1.1867926006922433,False,0.023899015027240463,True,0.07988543411010568,True,前期平均,109702588.96000001,,109702588.96000001
19,300382,78809958.10000001,83837097.63000003,2018-09-30,三季度报告,80083090.8,2018,9,0.7555318507619988,False,0.04942036644741316,True,0.12286078079472751,False,前期平均,126770694.58000003,未知,126770694.58000003
20,300382,130715279.05,137104600.25,2018-12-31,年度报告,132360547.83,2018,12,-0.27582752389583876,True,0.3206822252567204,True,0.0,True,比例外推,137104600.25,,137104600.25
21,300382,19781911.520000003,21194788.44,2019-03-31,一季度报告,17219449.03,2019,3,5.295627726460054,False,0.17785569848646246,True,0.02394429028552375,True,前期平均,125470551.65,未知,125470551.65
22,300382,57753401.05,60152388.12000001,2019-06-30,半年度报告,56444586.39000002,2019,6,0.8558677998953607,False,0.2125722144198242,True,0.05846142345100974,True,前期平均,135282667.09,未知,135282667.09
23,300382,84678174.52000001,88172080.07,2019-09-30,三季度报告,85716447.37,2019,9,0.22317655083234955,True,0.46872369145658305,True,0.11013018711970268,False,平均增速,146012260.5470432,未知,146012260.5470432
24,300382,90514825.25,97398165.53,2019-12-31,年度报告,87284008.42,2019,12,-0.26253079654807193,True,0.10021104068207062,True,0.0,True,比例外推,97398165.53,未知,97398165.53
25,300382,6508921.310000001,7631377.01,2020-03-31,一季度报告,3957207.8,2020,3,3.8730625765128273,False,0.3948979941304625,True,0.06423164942200071,True,前期平均,124666404.565,未知,124666404.565
