,SECURITYCODE_x,NETPROFIT_x,PARENTNETPROFIT_x,REPORTDATE_x,REPORTTIMETYPE_x,KCFJCXSYJLR,Year,Month,managesituationChangeRate,managesituationGreatChange,historyprofitextroplaterate,ifhistoryprofitextroplate,IfprofitdisStableChangeRage,IfprofitdisStable,predicttype,predict,analyst_prediction,adj_prediction
0,300386,34996278.099999994,34996278.099999994,2014-03-31,一季度报告,31174751.20000001,2014,3,未知,未知,未知,未知,未知,未知,未知,未知,未知,未知
1,300386,126079949.34000003,126079949.34000003,2014-06-30,半年度报告,121465342.43999995,2014,6,未知,未知,未知,未知,未知,未知,未知,未知,未知,未知
2,300386,189373192.95,189373192.95,2014-09-30,三季度报告,184206726.09,2014,9,未知,未知,未知,未知,未知,未知,未知,未知,未知,未知
3,300386,264187319.23999995,264367795.46,2014-12-31,年度报告,256803139.5000001,2014,12,未知,未知,未知,未知,未知,未知,未知,未知,未知,未知
4,300386,20152192.89,20950200.69,2015-03-31,一季度报告,19478942.270000003,2015,3,0.0,True,未知,未知,未知,未知,未知,未知,未知,未知
5,300386,58000627.42999999,59936923.23,2015-06-30,半年度报告,58977845.63,2015,6,-0.7224278857724993,True,未知,未知,未知,未知,未知,未知,未知,未知
6,300386,79583273.54,82643971.76000002,2015-09-30,三季度报告,81115908.26000002,2015,9,-0.8151994083489946,True,未知,未知,未知,未知,未知,未知,未知,未知
7,300386,181390950.11,183582704.27,2015-12-31,年度报告,151992093.55999997,2015,12,-0.867532331980674,True,未知,未知,未知,未知,未知,未知,,未知
8,300386,6951915.86,8389341.56,2016-03-31,一季度报告,1634854.4500000004,2016,3,0.7365990039409549,False,未知,未知,未知,未知,未知,未知,207170000.0,未知
9,300386,26776820.92,28833204.440000005,2016-06-30,半年度报告,21348924.39,2016,6,-0.39662242202058196,True,未知,未知,未知,未知,未知,未知,202533332.99999997,未知
10,300386,48699097.92,52068524.33,2016-09-30,三季度报告,43104573.7,2016,9,-0.5602558610207178,True,未知,未知,未知,未知,未知,未知,,未知
11,300386,113995499.71,119589574.17,2016-12-31,年度报告,108941879.44,2016,12,-0.8070671217126468,True,未知,未知,未知,未知,未知,未知,196000000.0,未知
12,300386,9497613.150000002,10836524.27,2017-03-31,一季度报告,3957311.1600000006,2017,3,4.034047995511844,False,0.7478836408262133,True,0.07317993046714112,True,前期平均,189907294.06500006,171970000.0,171970000.0
13,300386,23289094.37,25682025.97000001,2017-06-30,半年度报告,11714478.159999998,2017,6,0.30696165181658136,True,0.7090749997653868,True,0.1563633524978151,False,平均增速,78370343.63399595,,78370343.63399595
14,300386,35564851.13,53898346.72,2017-09-30,三季度报告,55924127.95,2017,9,-0.28137728223447156,True,0.6378663167646079,True,0.16842115098571164,False,平均增速,118146245.22971421,未知,118146245.22971421
15,300386,104147487.2,125174450.29,2017-12-31,年度报告,116880816.63999996,2017,12,-0.6930029853017958,True,0.4883255869892659,True,0.0,True,比例外推,125174450.29,未知,125174450.29
16,300386,2085708.63,2116072.83,2018-03-31,一季度报告,-5216159.129999999,2018,3,2.6847445297348194,False,0.2991753953171397,True,0.06915029206970283,True,前期平均,122026160.96999997,未知,122026160.96999997
17,300386,36622590.40000001,36611145.78,2018-06-30,半年度报告,19106628.61,2018,6,0.5026895225724483,False,0.45058279475805896,True,0.15995754243588214,False,前期平均,126914747.26999998,未知,126914747.26999998
18,300386,77420819.09,77063773.24000001,2018-09-30,三季度报告,42295578.12,2018,9,-0.015986936875447808,True,0.44552239368151136,True,0.0736082970852393,True,比例外推,124897993.8624143,未知,124897993.8624143
19,300386,134047430.18,133273482.45999998,2018-12-31,年度报告,94662557.37999998,2018,12,-0.6639738601393737,True,0.29483910136389474,True,0.0,True,比例外推,133273482.45999998,未知,133273482.45999998
20,300386,2422599.16,2137730.41,2019-03-31,一季度报告,-5911853.89,2019,3,15.77908294410231,False,0.7464111429899233,True,0.05302321901933258,True,前期平均,112252995.64499998,未知,112252995.64499998
21,300386,12127760.5,11274825.9,2019-06-30,半年度报告,-7253973.250000001,2019,6,-0.04440735300908749,True,0.4629749676149388,True,0.06578461568736121,True,比例外推,-25167082.35624987,未知,-25167082.35624987
22,300386,30580011.939999994,29493219.44,2019-09-30,三季度报告,2012899.66,2019,9,-0.5479732905006134,True,0.8375787027038224,True,0.04464783687738,True,比例外推,32051833.317131344,162000000.0,162000000.0
23,300386,92767943.34000002,90234261.13,2019-12-31,年度报告,47280754.19000001,2019,12,-0.7389261543245798,True,0.22898684095954383,True,0.0,True,比例外推,90234261.13,未知,90234261.13
24,300386,539675.4800000001,334006.64,2020-03-31,一季度报告,-5860671.08,2020,3,13.445756721883777,False,0.5817090803463806,True,0.082618401438056,True,前期平均,106735117.63499996,97000000.0,97000000.0
