,SECURITYCODE_x,NETPROFIT_x,PARENTNETPROFIT_x,REPORTDATE_x,REPORTTIMETYPE_x,KCFJCXSYJLR,Year,Month,managesituationChangeRate,managesituationGreatChange,historyprofitextroplaterate,ifhistoryprofitextroplate,IfprofitdisStableChangeRage,IfprofitdisStable,predicttype,predict,analyst_prediction,adj_prediction
0,300333,67842947.04,50861997.83000001,2013-12-31,年度报告,48208275.95000001,2013,12,未知,未知,未知,未知,未知,未知,未知,未知,未知,未知
1,300333,9671838.55,6473896.34,2014-03-31,一季度报告,,2014,3,未知,未知,未知,未知,未知,未知,未知,未知,未知,未知
2,300333,25818646.47,18847922.85,2014-06-30,半年度报告,18847922.85,2014,6,未知,未知,未知,未知,未知,未知,未知,未知,未知,未知
3,300333,41695743.08,31448131.24,2014-09-30,三季度报告,31458624.65,2014,9,未知,未知,未知,未知,未知,未知,未知,未知,未知,未知
4,300333,48602146.62000001,37026780.3,2014-12-31,年度报告,37037275.1,2014,12,0.0,True,未知,未知,未知,未知,未知,未知,未知,未知
5,300333,12265984.72,7540123.8900000015,2015-03-31,一季度报告,7540123.8900000015,2015,3,6.014482995066125,False,未知,未知,未知,未知,未知,未知,未知,未知
6,300333,32382775.85,21794716.9,2015-06-30,半年度报告,21795016.9,2015,6,1.6276724892929684,False,未知,未知,未知,未知,未知,未知,30000000.0,未知
7,300333,47241274.68,32803673.29000001,2015-09-30,三季度报告,32800433.59,2015,9,0.6270952866778843,False,未知,未知,未知,未知,未知,未知,,未知
8,300333,58619779.24999999,41630491.67000001,2015-12-31,年度报告,39708400.7,2015,12,0.3958837573664352,True,未知,未知,未知,未知,未知,未知,41000000.0,未知
9,300333,11825888.8,7707607.6000000015,2016-03-31,一季度报告,7707394.43,2016,3,4.530982516991102,False,未知,未知,未知,未知,未知,未知,97395000.0,未知
10,300333,21060557.2,14927209.82,2016-06-30,半年度报告,14248595.009999994,2016,6,1.095031857499023,False,未知,未知,未知,未知,未知,未知,140000000.0,未知
11,300333,32159498.47000001,21745759.329999994,2016-09-30,三季度报告,20602733.43,2016,9,0.43609476034570044,True,未知,未知,未知,未知,未知,未知,,未知
12,300333,33506182.430000003,19102625.46,2016-12-31,年度报告,22629470.910000004,2016,12,0.15733883525329065,True,0.006822656198119105,True,0.0,True,比例外推,19102625.46,243000000.0,243000000.0
13,300333,11919712.15,7901640.709999999,2017-03-31,一季度报告,6938765.650000001,2017,3,4.736815911883089,False,0.07812782101968305,True,,False,前期平均,,19000000.0,
14,300333,24415942.329999994,17047655.53,2017-06-30,半年度报告,15214042.8,2017,6,2.221327260990037,False,0.27628719847408706,True,0.06717603054557597,True,前期平均,35099023.55500001,,35099023.55500001
15,300333,38061091.12,25593882.72,2017-09-30,三季度报告,22444144.25,2017,9,1.1095772716507784,False,0.2768028593721532,True,0.04848875775937955,True,前期平均,31837191.500000004,未知,31837191.500000004
16,300333,36331228.03,18944257.22,2017-12-31,年度报告,14299193.4,2017,12,1.0247889231109877,False,0.3750124863337338,True,0.0,True,前期平均,18944257.22,未知,18944257.22
17,300333,8575465.950000001,4062634.2000000007,2018-03-31,一季度报告,2595581.37,2018,3,4.691659847675098,False,0.010478604737420292,True,0.14869066864109715,False,前期平均,27607810.845000003,未知,27607810.845000003
18,300333,21573114.31,12213946.33,2018-06-30,半年度报告,5719603.310000001,2018,6,1.7786331620156648,False,0.08628669146974186,True,0.31647790915862795,False,前期平均,25361076.180000007,未知,25361076.180000007
19,300333,31215094.9,16629486.499999998,2018-09-30,三季度报告,9310496.28,2018,9,0.7824750957901601,False,0.041291674878357415,True,0.46758249307279787,False,前期平均,21096838.795,未知,21096838.795
20,300333,31666243.32,12220671.8,2018-12-31,年度报告,2129695.82,2018,12,0.8673452761899391,False,0.2112705828527096,True,0.0,True,前期平均,12220671.8,未知,12220671.8
21,300333,10804455.510000002,3969216.86,2019-03-31,一季度报告,1189994.11,2019,3,6.911284055649477,False,0.27772171628277953,True,0.5372223164088333,False,前期平均,15110468.975000001,未知,15110468.975000001
22,300333,20913400.28,9399258.58,2019-06-30,半年度报告,5767443.44,2019,6,2.144791524539046,False,0.051241211044899364,True,1.225886592593956,False,前期平均,13132271.830000006,未知,13132271.830000006
23,300333,29155215.37,12510898.449999996,2019-09-30,三季度报告,8467205.680000003,2019,9,1.1734019152381308,False,0.11094181685864717,True,2.087817137557255,False,前期平均,9451791.764999997,未知,9451791.764999997
24,300333,34352333.15,12660717.05,2019-12-31,年度报告,3640286.61,2019,12,1.1424374958033388,False,0.09314382903309051,True,0.0,True,前期平均,12660717.05,未知,12660717.05
25,300333,-4433762.4,-5642810.3199999975,2020-03-31,一季度报告,-7259085.32,2020,3,5.279163903929111,False,0.0543412169714203,True,0.54178741442782,False,盈利变化,1395277.8100000005,未知,1395277.8100000005
