,SECURITYCODE_x,NETPROFIT_x,PARENTNETPROFIT_x,REPORTDATE_x,REPORTTIMETYPE_x,KCFJCXSYJLR,Year,Month,managesituationChangeRate,managesituationGreatChange,historyprofitextroplaterate,ifhistoryprofitextroplate,IfprofitdisStableChangeRage,IfprofitdisStable,predicttype,predict,analyst_prediction,adj_prediction
0,300316,42967032.38000001,43388424.55,2013-12-31,年度报告,20634221.75,2013,12,未知,未知,未知,未知,未知,未知,未知,未知,未知,未知
1,300316,15452010.55,15720285.480000002,2014-03-31,一季度报告,16025262.98,2014,3,未知,未知,未知,未知,未知,未知,未知,未知,未知,未知
2,300316,31387637.590000004,32345110.79000001,2014-06-30,半年度报告,32642719.19,2014,6,未知,未知,未知,未知,未知,未知,未知,未知,未知,未知
3,300316,48635004.57,50283345.64,2014-09-30,三季度报告,49897864.86,2014,9,未知,未知,未知,未知,未知,未知,未知,未知,未知,未知
4,300316,64313886.69,65810597.15000001,2014-12-31,年度报告,60892403.29000001,2014,12,0.0,True,未知,未知,未知,未知,未知,未知,未知,未知
5,300316,17335564.789999995,17620379.769999996,2015-03-31,一季度报告,19607073.0,2015,3,1.7806758376824956,False,未知,未知,未知,未知,未知,未知,101000000.0,未知
6,300316,45130095.44,45542039.23,2015-06-30,半年度报告,44292859.67,2015,6,0.3689157795580373,True,未知,未知,未知,未知,未知,未知,133926458.0,未知
7,300316,72220609.18,71858827.74000001,2015-09-30,三季度报告,68558289.46,2015,9,-0.11654100251686252,True,未知,未知,未知,未知,未知,未知,111840548.0,未知
8,300316,113210050.28,104614895.9,2015-12-31,年度报告,96012957.11,2015,12,-0.33191671983523824,True,未知,未知,未知,未知,未知,未知,,未知
9,300316,23620797.03,25689343.81,2016-03-31,一季度报告,23756554.26,2016,3,1.4785481696440317,False,未知,未知,未知,未知,未知,未知,174193640.0,未知
10,300316,70030489.04,75307087.11999999,2016-06-30,半年度报告,64432130.51000001,2016,6,-0.04792950333720782,True,未知,未知,未知,未知,未知,未知,181526250.0,未知
11,300316,121500387.13,129575222.45,2016-09-30,三季度报告,115781766.23,2016,9,-0.4050585716757034,True,未知,未知,未知,未知,未知,未知,186196667.00000003,未知
12,300316,183996698.85,203748566.09,2016-12-31,年度报告,154341843.74000004,2016,12,-0.6204662724402068,True,1.1105346833602587,True,0.0,True,比例外推,203748566.09,179517143.0,179517143.0
13,300316,57691514.77,60772509.92999999,2017-03-31,一季度报告,57929338.69,2017,3,0.8190339777878363,False,0.44083829225293386,True,0.05607080689359581,True,前期平均,121409022.13999999,427660000.0,427660000.0
14,300316,134603287.95000002,141696843.75000003,2017-06-30,半年度报告,132864900.32999998,2017,6,-0.38645248706662455,True,0.8304381551017314,True,0.06445291519168156,True,比例外推,290552665.2310597,437253792.00000006,437253792.00000006
15,300316,241300805.36,253097653.26000005,2017-09-30,三季度报告,239157718.72,2017,9,-0.6463630001933475,True,1.0106701436531325,True,0.058223144517854375,True,比例外推,328116790.34807575,410285872.0,410285872.0
16,300316,371576201.48,386642455.73,2017-12-31,年度报告,353278562.64,2017,12,-0.7664793300719589,True,1.0729226941501848,True,0.0,True,比例外推,386642455.73,408829577.99999994,386642455.73
17,300316,132668821.59000002,135428903.21,2018-03-31,一季度报告,129998545.25,2018,3,-0.25522786927509883,True,1.8172187277546623,True,0.030175838698244473,True,比例外推,752389844.8485734,704270526.0,752389844.8485734
18,300316,279733390.65,285093284.58,2018-06-30,半年度报告,268663678.28,2018,6,-0.6807876461683415,True,1.3376624659868175,True,0.04302951966214369,True,比例外推,658716737.4092641,701216283.0,658716737.4092641
19,300316,439995703.78,445773598.0899999,2018-09-30,三季度报告,420362941.9599999,2018,9,-0.8219358103015989,True,1.4912199498897984,True,0.03676137471823537,True,比例外推,614378822.3718469,626316364.0,614378822.3718469
20,300316,568395408.17,582151146.83,2018-12-31,年度报告,536807591.72,2018,12,-0.8843654889391169,True,1.5004560129788331,True,0.0,True,比例外推,582151146.83,625313846.0,582151146.83
21,300316,124536796.65999997,126318043.15,2019-03-31,一季度报告,99230234.79,2019,3,-0.6761331572478618,True,2.263191481170014,False,0.05548046591141212,True,比例外推,558614029.3825564,746832847.9999999,746832847.9999999
22,300316,247410081.32999995,251102350.4,2019-06-30,半年度报告,223507744.89,2019,6,-0.846400058712476,True,1.7339903975253306,True,0.06913780997747587,True,比例外推,545757707.1215538,687348500.0,687348500.0
23,300316,468538796.68,471849524.25999993,2019-09-30,三季度报告,448321257.89,2019,9,-0.9023467001816824,True,1.4255471750806206,True,0.05977033495123596,True,比例外推,632051274.961622,667869749.0,632051274.961622
24,300316,624064101.6899999,637395087.11,2019-12-31,年度报告,609508058.7399999,2019,12,-0.9244064400197457,True,1.0461595870942717,True,0.0,True,比例外推,637395087.11,667244499.0000001,637395087.11
25,300316,131496065.62,134237125.35,2020-03-31,一季度报告,130953441.16,2020,3,-0.6549852450653196,True,0.30843219802345967,True,0.052519752077815535,True,比例外推,693784406.2269769,908212143.0000001,908212143.0000001
