,SECURITYCODE_x,NETPROFIT_x,PARENTNETPROFIT_x,REPORTDATE_x,REPORTTIMETYPE_x,KCFJCXSYJLR,Year,Month,managesituationChangeRate,managesituationGreatChange,historyprofitextroplaterate,ifhistoryprofitextroplate,IfprofitdisStableChangeRage,IfprofitdisStable,predicttype,predict,analyst_prediction,adj_prediction
0,300398,15874422.029999996,15874422.029999996,2014-03-31,一季度报告,,2014,3,未知,未知,未知,未知,未知,未知,未知,未知,未知,未知
1,300398,67456733.91000001,67456733.91000001,2014-09-30,三季度报告,65202522.65,2014,9,未知,未知,未知,未知,未知,未知,未知,未知,未知,未知
2,300398,90080983.99,90080983.99,2014-12-31,年度报告,88561493.98,2014,12,未知,未知,未知,未知,未知,未知,未知,未知,未知,未知
3,300398,24104340.2,24104340.2,2015-03-31,一季度报告,24000150.940000005,2015,3,0.0,True,未知,未知,未知,未知,未知,未知,136550000.0,未知
4,300398,51749472.75000002,51749472.75000002,2015-06-30,半年度报告,46671779.63,2015,6,未知,未知,未知,未知,未知,未知,未知,未知,128375000.0,未知
5,300398,83218263.38999999,83218263.38999999,2015-09-30,三季度报告,75809393.21,2015,9,-0.7646725373455011,True,未知,未知,未知,未知,未知,未知,117986000.0,未知
6,300398,105213360.14000002,105213360.14000002,2015-12-31,年度报告,94019510.68,2015,12,-0.8237761031588837,True,未知,未知,未知,未知,未知,未知,115668571.0,未知
7,300398,17172319.790000007,17172319.790000007,2016-03-31,一季度报告,17151780.09,2016,3,-0.34142889212955946,True,未知,未知,未知,未知,未知,未知,132350000.0,未知
8,300398,36237284.68,36237284.68,2016-06-30,半年度报告,26042372.7,2016,6,-0.6932447581313765,True,未知,未知,未知,未知,未知,未知,121020000.0,未知
9,300398,53429836.07,53489881.73,2016-09-30,三季度报告,41620841.73,2016,9,-0.8092435316078999,True,未知,未知,未知,未知,未知,未知,122337489.0,未知
10,300398,67722783.25000001,67786825.11999999,2016-12-31,年度报告,48737368.51000001,2016,12,-0.8491216133685207,True,未知,未知,未知,未知,未知,未知,106335708.0,未知
11,300398,14934493.53,14734846.64,2017-03-31,一季度报告,14800993.85,2017,3,-0.07558080538168283,True,0.1409278911034456,True,,False,平均增速,40839459.091059044,106000000.0,106000000.0
12,300398,25318152.04000001,24239561.520000003,2017-06-30,半年度报告,23515862.48,2017,6,-0.5619312492593749,True,未知,未知,未知,未知,未知,未知,101648000.0,未知
13,300398,51143752.73,49332973.48999999,2017-09-30,三季度报告,47326856.50000001,2017,9,-0.7028921816416871,True,0.2907936017596996,True,0.06260582950463522,True,比例外推,61250152.80371613,114015795.99999999,114015795.99999999
14,300398,87839910.26000002,83812376.7,2017-12-31,年度报告,73863836.33999999,2017,12,-0.7655970226238451,True,0.3064542288544768,True,0.0,True,比例外推,83812376.7,110540795.99999999,110540795.99999999
15,300398,74843053.10000002,73421458.33,2018-03-31,一季度报告,69615513.29999998,2018,3,0.06293675095924035,True,0.27637102742236697,True,0.08273174327200716,True,比例外推,262416216.2944538,312977647.0,312977647.0
16,300398,158030963.40999997,155721414.81999996,2018-06-30,半年度报告,148268720.84000003,2018,6,-0.37300234215672284,True,0.42450085036620483,True,0.13133691764649918,False,平均增速,340045675.4869797,325367500.0,340045675.4869797
17,300398,258052120.1200001,254848588.42,2018-09-30,三季度报告,231677379.56,2018,9,-0.6896117085149219,True,0.2514531423106848,True,0.12627849764232935,False,平均增速,333294873.56704783,336211818.0,333294873.56704783
18,300398,288334277.2,284436794.47,2018-12-31,年度报告,257643988.61,2018,12,-0.8192800745923713,True,0.01586526145556827,True,0.0,True,比例外推,284436794.47,334664364.0,334664364.0
19,300398,75605458.28,73622266.46999998,2019-03-31,一季度报告,68859826.1,2019,3,-0.787897187882091,True,3.6621290225261136,False,0.07775419448871296,True,比例外推,255921332.82164657,356010909.0,356010909.0
20,300398,125591156.12999998,122464262.65000002,2019-06-30,半年度报告,112901478.43,2019,6,-0.8995486600381284,True,4.134589951131125,False,0.15769485162532176,False,未知,未知,295054000.0,未知
21,300398,190277901.27,184629326.04000008,2019-09-30,三季度报告,160012790.03999996,2019,9,-0.93848365972495,True,3.9353211089184708,False,0.15724503407212265,False,未知,未知,307468561.0,未知
22,300398,262238036.1,255136472.4,2019-12-31,年度报告,167814624.15,2019,12,-0.9449443812780232,True,2.706984890711795,False,0.0,True,比例外推,255136472.4,380280000.0,380280000.0
23,300398,54409680.39000001,52382389.07000002,2020-03-31,一季度报告,50728737.19000001,2020,3,-0.790036031906452,True,0.6842843476574958,True,0.11669427280487332,False,平均增速,191236460.0733299,307028333.0,307028333.0
