,SECURITYCODE_x,NETPROFIT_x,PARENTNETPROFIT_x,REPORTDATE_x,REPORTTIMETYPE_x,KCFJCXSYJLR,Year,Month,managesituationChangeRate,managesituationGreatChange,historyprofitextroplaterate,ifhistoryprofitextroplate,IfprofitdisStableChangeRage,IfprofitdisStable,predicttype,predict,analyst_prediction,adj_prediction
0,300357,70551111.57,70564349.31000002,2013-12-31,年度报告,69358082.79000002,2013,12,未知,未知,未知,未知,未知,未知,未知,未知,未知,未知
1,300357,13342998.180000005,13348925.990000002,2014-03-31,一季度报告,12760571.719999995,2014,3,未知,未知,未知,未知,未知,未知,未知,未知,未知,未知
2,300357,39333108.74,39339036.55000001,2014-06-30,半年度报告,35575777.53,2014,6,未知,未知,未知,未知,未知,未知,未知,未知,未知,未知
3,300357,75090486.83000001,75096414.66000001,2014-09-30,三季度报告,70619503.96000002,2014,9,未知,未知,未知,未知,未知,未知,未知,未知,未知,未知
4,300357,99548645.87000002,99554760.20999998,2014-12-31,年度报告,92995700.09999998,2014,12,0.0,True,未知,未知,未知,未知,未知,未知,未知,未知
5,300357,24139118.33,24168814.17,2015-03-31,一季度报告,23655512.81,2015,3,4.2875006515214835,False,未知,未知,未知,未知,未知,未知,,未知
6,300357,51330386.94000001,51333838.61000001,2015-06-30,半年度报告,48513735.95,2015,6,0.7936825699783218,False,未知,未知,未知,未知,未知,未知,133243333.0,未知
7,300357,91265025.44,91268477.11,2015-09-30,三季度报告,88107478.30999999,2015,9,-0.06045206858595645,True,未知,未知,未知,未知,未知,未知,122940000.0,未知
8,300357,117816572.84,117820024.51000002,2015-12-31,年度报告,112689593.83,2015,12,-0.29129009286442464,True,未知,未知,未知,未知,未知,未知,124720000.0,未知
9,300357,28476602.46,28476602.46,2016-03-31,一季度报告,27653966.600000005,2016,3,1.922688003990575,False,未知,未知,未知,未知,未知,未知,149067500.0,未知
10,300357,54129408.69000001,54129408.69000001,2016-06-30,半年度报告,52583687.13999999,2016,6,0.3744511930616663,True,未知,未知,未知,未知,未知,未知,152020000.0,未知
11,300357,102579185.4,102579185.4,2016-09-30,三季度报告,103629467.2,2016,9,-0.22696442333890401,True,未知,未知,未知,未知,未知,未知,,未知
12,300357,129200974.46999998,129200974.46999998,2016-12-31,年度报告,129794614.26,2016,12,-0.4011783752544606,True,0.38526444262047743,True,0.0,True,比例外推,129200974.46999998,162072000.0,162072000.0
13,300357,38207667.31,38207667.31,2017-03-31,一季度报告,36874651.44,2017,3,1.4775115524789326,False,0.5194767591313907,True,0.049514433453576534,True,前期平均,122842272.00999999,165675500.0,165675500.0
14,300357,78730064.47,78730064.47,2017-06-30,半年度报告,74501661.44000001,2017,6,0.303378575111495,True,0.19407283568795233,True,0.024444158152840234,True,比例外推,187701325.02772576,171553000.0,187701325.02772576
15,300357,148488519.77,148488519.77,2017-09-30,三季度报告,141952852.41,2017,9,-0.31222780435532693,True,0.23325261664321523,True,0.020500617352503303,True,比例外推,188553285.3854423,184400000.0,188553285.3854423
16,300357,186103945.40000004,186103945.40000004,2017-12-31,年度报告,176604724.33999997,2017,12,-0.4539428834851264,True,0.18879161290633847,True,0.0,True,比例外推,186103945.40000004,未知,186103945.40000004
17,300357,51954370.06,51954370.06,2018-03-31,一季度报告,49050392.9,2018,3,0.8465171138970533,False,0.4523289517402809,True,0.0024679184486770533,True,前期平均,147541734.4,245524600.0,245524600.0
18,300357,103940262.60999998,103940262.60999998,2018-06-30,半年度报告,99102541.29,2018,6,-0.10388601806767968,True,0.4930820603184205,True,0.014034395465917282,True,比例外推,241266557.71849355,246816364.0,241266557.71849355
19,300357,189127898.18000004,189338767.55,2018-09-30,三季度报告,182351596.09,2018,9,-0.5248716083958577,True,0.5320397666408845,True,0.012826605620314457,True,比例外推,236450723.65380543,245199067.0,236450723.65380543
20,300357,231864239.14,232884097.51,2018-12-31,年度报告,224864128.66,2018,12,-0.6209048044717058,True,0.5068074914244443,True,0.0,True,比例外推,232884097.51,245199067.0,232884097.51
21,300357,65474239.86000002,66137709.53000001,2019-03-31,一季度报告,64976342.53,2019,3,0.3579437396416002,True,0.5582196592748263,True,0.004803287156810415,True,比例外推,305742469.135563,300102727.0,305742469.135563
22,300357,128688434.04999998,130478340.23,2019-06-30,半年度报告,127500058.62,2019,6,-0.32123404541781153,True,0.5646646812279137,True,0.01815278955472721,True,比例外推,304704228.49471146,298197143.0,304704228.49471146
23,300357,242819685.83,246581919.88,2019-09-30,三季度报告,241881488.11000004,2019,9,-0.6269661311264937,True,0.5065888147736084,True,0.0065609344743174924,True,比例外推,305405813.8239068,300950000.0,305405813.8239068
24,300357,292620191.99,298296581.56,2019-12-31,年度报告,294236870.23999995,2019,12,-0.6957223251344028,True,0.4707302330429696,True,0.0,True,比例外推,298296581.56,301311111.0,298296581.56
25,300357,40228999.96000001,41368706.64,2020-03-31,一季度报告,40151830.50999999,2020,3,0.0775399870369716,True,0.4523682421086359,True,0.007122740011316686,True,比例外推,187173517.3160594,360938333.0,360938333.0
