,SECURITYCODE_x,NETPROFIT_x,PARENTNETPROFIT_x,REPORTDATE_x,REPORTTIMETYPE_x,KCFJCXSYJLR,Year,Month,managesituationChangeRate,managesituationGreatChange,historyprofitextroplaterate,ifhistoryprofitextroplate,IfprofitdisStableChangeRage,IfprofitdisStable,predicttype,predict,analyst_prediction,adj_prediction
0,300359,41992106.26,41992106.26,2013-12-31,年度报告,39925019.32,2013,12,未知,未知,未知,未知,未知,未知,未知,未知,未知,未知
1,300359,7370595.980000001,7370595.980000001,2014-03-31,一季度报告,6945774.079999999,2014,3,未知,未知,未知,未知,未知,未知,未知,未知,未知,未知
2,300359,30325766.79,30325766.79,2014-06-30,半年度报告,24792608.61,2014,6,未知,未知,未知,未知,未知,未知,未知,未知,未知,未知
3,300359,31243026.910000004,31243026.910000004,2014-09-30,三季度报告,25373193.67,2014,9,未知,未知,未知,未知,未知,未知,未知,未知,未知,未知
4,300359,44877375.81,44877375.81,2014-12-31,年度报告,37342375.83000001,2014,12,0.0,True,未知,未知,未知,未知,未知,未知,未知,未知
5,300359,5696746.510000003,5696746.510000003,2015-03-31,一季度报告,5775317.1099999985,2015,3,4.697247057625317,False,未知,未知,未知,未知,未知,未知,107700000.0,未知
6,300359,35111566.37,33644403.64000001,2015-06-30,半年度报告,33862698.17,2015,6,0.38470056011401516,True,未知,未知,未知,未知,未知,未知,124920000.0,未知
7,300359,36990424.83999999,32990207.19,2015-09-30,三季度报告,32453767.939999994,2015,9,0.34404730953131557,True,未知,未知,未知,未知,未知,未知,142420000.0,未知
8,300359,115866730.64000002,93595640.65,2015-12-31,年度报告,85726603.53999999,2015,12,-0.06429229646170803,True,未知,未知,未知,未知,未知,未知,142420000.0,未知
9,300359,17899404.36,13083534.529999996,2016-03-31,一季度报告,12289541.3,2016,3,6.371243601288479,False,未知,未知,未知,未知,未知,未知,272284849.0,未知
10,300359,44234081.24,35908770.84,2016-06-30,半年度报告,30739805.8,2016,6,0.19596220281072016,True,未知,未知,未知,未知,未知,未知,235116349.99999997,未知
11,300359,61971584.14999999,42157712.39000001,2016-09-30,三季度报告,31248747.52,2016,9,0.13521557110075114,True,未知,未知,未知,未知,未知,未知,210351752.00000003,未知
12,300359,143007029.04,102943675.91,2016-12-31,年度报告,84908612.83,2016,12,-0.6375827122414439,True,1.6676049604309566,True,0.0,True,比例外推,102943675.91,210351752.00000003,210351752.00000003
13,300359,-5718666.749999999,-6406708.76,2017-03-31,一季度报告,-6047866.289999997,2017,3,1.3460057896585782,False,1.739563055563564,True,0.06533429515730253,True,盈利变化,78493799.12333333,208440000.0,208440000.0
14,300359,-13871911.54,-17858011.73,2017-06-30,半年度报告,-17977160.57,2017,6,-0.050684334729046675,True,0.3519524437783492,True,0.19027059447683986,False,平均增速,10804280.990173388,,10804280.990173388
15,300359,14404947.85,-3071913.16,2017-09-30,三季度报告,-9295394.5,2017,9,-0.3223974046175806,True,0.8164575456934873,True,0.20411606212346434,False,平均增速,33030730.28145011,,33030730.28145011
16,300359,101557267.37999998,66291587.8,2017-12-31,年度报告,26173406.54000001,2017,12,-0.7063633407260386,True,0.7793128743352441,True,0.0,True,比例外推,66291587.8,217070000.0,217070000.0
17,300359,11040126.72,5882382.57,2018-03-31,一季度报告,6099522.620000001,2018,3,-8.342988863619306,False,1.4847118313072558,True,0.22474857747584676,False,前期平均,82167561.55000001,未知,82167561.55000001
18,300359,4793588.2700000005,277840.12,2018-06-30,半年度报告,-909250.3,2018,6,-4.027131923305214,False,1.3496577810589754,True,0.7102462395039636,False,前期平均,53294196.31999999,未知,53294196.31999999
19,300359,14724425.74,5951118.25,2018-09-30,三季度报告,-6871937.96,2018,9,1.9151168541023214,False,0.7088792356376757,True,0.48563131814015437,False,前期平均,59417468.705,未知,59417468.705
20,300359,-644221325.56,-657139722.84,2018-12-31,年度报告,-666004571.5,2018,12,-0.5865179583566695,True,0.2153915676464287,True,0.0,True,比例外推,-657139722.84,未知,-657139722.84
21,300359,6782765.19,3273974.2599999993,2019-03-31,一季度报告,2967468.96,2019,3,2.8035891548172374,False,0.812718913005138,True,0.19923944492242607,False,前期平均,55694146.44,未知,55694146.44
22,300359,-26219787.27,-25462749.83,2019-06-30,半年度报告,-34433995.459999986,2019,6,7.760056954161395,False,0.6842394125739967,True,0.5790319678837593,False,盈利变化,-679489552.9466667,未知,-679489552.9466667
23,300359,-9270432.97,-17393791.72,2019-09-30,三季度报告,-25861700.91,2019,9,1.8518671628683834,False,0.6144253907731761,True,0.3628797400224585,False,盈利变化,-665579617.4844445,未知,-665579617.4844445
24,300359,-716514000.38,-704975871.62,2019-12-31,年度报告,-716339271.3999999,2019,12,-1.065182732383933,False,6.268318679302666,False,0.0,True,去年同期,-704975871.62,未知,-704975871.62
25,300359,2352976.8,3655879.72,2020-03-31,一季度报告,984178.3500000002,2020,3,5.191001027414307,False,1.5492121441251763,True,0.14961244485942254,False,前期平均,-316285530.925,未知,-316285530.925
