,SECURITYCODE_x,NETPROFIT_x,PARENTNETPROFIT_x,REPORTDATE_x,REPORTTIMETYPE_x,KCFJCXSYJLR,Year,Month,managesituationChangeRate,managesituationGreatChange,historyprofitextroplaterate,ifhistoryprofitextroplate,IfprofitdisStableChangeRage,IfprofitdisStable,predicttype,predict,analyst_prediction,adj_prediction
0,300301,27486506.329999994,27486506.329999994,2013-12-31,年度报告,21775233.110000007,2013,12,未知,未知,未知,未知,未知,未知,未知,未知,未知,未知
1,300301,8067139.249999999,8067139.249999999,2014-03-31,一季度报告,10331281.36,2014,3,未知,未知,未知,未知,未知,未知,未知,未知,未知,未知
2,300301,32571943.55,32571943.55,2014-06-30,半年度报告,30332993.43999999,2014,6,未知,未知,未知,未知,未知,未知,未知,未知,未知,未知
3,300301,38281788.56,38281788.56,2014-09-30,三季度报告,36705929.11000001,2014,9,未知,未知,未知,未知,未知,未知,未知,未知,未知,未知
4,300301,50673117.43000001,50673117.43000001,2014-12-31,年度报告,50662900.86,2014,12,0.0,True,未知,未知,未知,未知,未知,未知,未知,未知
5,300301,7316103.969999999,7316103.969999999,2015-03-31,一季度报告,4232536.63,2015,3,2.407218529170672,False,未知,未知,未知,未知,未知,未知,未知,未知
6,300301,46201882.9,35374540.69,2015-06-30,半年度报告,32763590.04000001,2015,6,-0.15612937595183835,True,未知,未知,未知,未知,未知,未知,未知,未知
7,300301,84991152.39999999,63141369.60000001,2015-09-30,三季度报告,59520931.40000001,2015,9,-0.2819952420216807,True,未知,未知,未知,未知,未知,未知,163890000.0,未知
8,300301,133099762.86,100865663.75,2015-12-31,年度报告,93013303.04,2015,12,-0.45757222519475077,True,未知,未知,未知,未知,未知,未知,未知,未知
9,300301,24168749.65,14566947.080000002,2016-03-31,一季度报告,9748526.070000002,2016,3,2.7569868392671295,False,未知,未知,未知,未知,未知,未知,未知,未知
10,300301,61656746.69999999,37565602.01,2016-06-30,半年度报告,32295487.930000003,2016,6,-0.4050782218228601,True,未知,未知,未知,未知,未知,未知,126603333.0,未知
11,300301,90028619.8,53199848.67,2016-09-30,三季度报告,46577511.4,2016,9,-0.6765956743280963,True,未知,未知,未知,未知,未知,未知,105953138.0,未知
12,300301,-7711533.0,-62744686.37000001,2016-12-31,年度报告,-74725149.47,2016,12,-0.7934894417587244,True,2.4058445129854085,False,0.0,True,比例外推,-62744686.37000001,106597746.0,106597746.0
13,300301,11851900.15,2133169.369999999,2017-03-31,一季度报告,-1354331.82,2017,3,0.13727465127679853,True,2.142217711097205,False,0.17011451109983877,False,未知,未知,,未知
14,300301,39088235.24,12320659.070000002,2017-06-30,半年度报告,20805.46,2017,6,-0.5542011571946919,True,0.5654120024024804,True,0.6051163224769857,False,平均增速,-15339693.205696242,31000000.0,31000000.0
15,300301,73646675.1,29657971.410000004,2017-09-30,三季度报告,14277503.730000002,2017,9,-0.6946914615478755,True,0.4606387922425373,True,0.8703556461940722,False,平均增速,-20246194.265957385,,-20246194.265957385
16,300301,99944073.68,36238438.46,2017-12-31,年度报告,16625290.17,2017,12,-4.564337509805119,False,1.0839246028884233,True,0.0,True,前期平均,36238438.46,128735714.0,128735714.0
17,300301,2879894.49,-4466979.88,2018-03-31,一季度报告,-4273703.43,2018,3,1.3191645206359583,False,0.2471363981523252,True,0.10097661877756761,False,盈利变化,32345942.98,未知,32345942.98
18,300301,23723018.56,-1128505.13,2018-06-30,半年度报告,1621700.09,2018,6,-0.2968087159414058,True,0.2751950328877532,True,0.4059594665441247,False,平均增速,651888036.6062162,未知,651888036.6062162
19,300301,30940654.090000004,-11513358.25,2018-09-30,三季度报告,-391644.39,2018,9,-0.6267787202520972,True,0.158418798353344,True,0.9151120632293321,False,平均增速,-10712620.554210665,未知,-10712620.554210665
20,300301,-108232112.74,-156868230.62,2018-12-31,年度报告,-153217721.50000003,2018,12,-0.7249811287660133,True,0.5941539934265088,True,0.0,True,比例外推,-156868230.62,未知,-156868230.62
21,300301,16270236.86,16264922.869999995,2019-03-31,一季度报告,10915971.14,2019,3,8.54427546753631,False,0.8400975825816446,True,0.08923553379670791,True,前期平均,-16982103.90500001,未知,-16982103.90500001
22,300301,40962212.52,40941444.83000001,2019-06-30,半年度报告,29755765.46,2019,6,0.15864287086744142,True,0.5290481351393054,True,0.2850159445577283,False,平均增速,-1108878481.2604682,未知,-1108878481.2604682
23,300301,48471148.28999998,48428387.69999999,2019-09-30,三季度报告,33128585.57,2019,9,-0.11163783900471538,True,0.6219263987408278,True,0.7794420224153414,False,平均增速,-6300861302.409273,未知,-6300861302.409273
24,300301,-429400031.9,-429457847.22000015,2019-12-31,年度报告,-440370180.3299999,2019,12,-1.2539588818341678,False,3.346939853158992,False,0.0,True,去年同期,-429457847.22000015,未知,-429457847.22000015
25,300301,-30538999.15,-30540227.36,2020-03-31,一季度报告,-34482760.300000004,2020,3,0.6893734594346892,False,1.2088601229646245,True,0.05534304399129451,True,盈利变化,-489989489.14000016,未知,-489989489.14000016
