,SECURITYCODE_x,NETPROFIT_x,PARENTNETPROFIT_x,REPORTDATE_x,REPORTTIMETYPE_x,KCFJCXSYJLR,Year,Month,managesituationChangeRate,managesituationGreatChange,historyprofitextroplaterate,ifhistoryprofitextroplate,IfprofitdisStableChangeRage,IfprofitdisStable,predicttype,predict,analyst_prediction,adj_prediction
0,300377,40357333.67000001,40357333.67000001,2013-12-31,年度报告,38162903.02,2013,12,未知,未知,未知,未知,未知,未知,未知,未知,未知,未知
1,300377,-9729515.670000002,-9729515.670000002,2014-03-31,一季度报告,-10188275.969999997,2014,3,未知,未知,未知,未知,未知,未知,未知,未知,未知,未知
2,300377,5193361.149999999,5193361.149999999,2014-06-30,半年度报告,4482560.49,2014,6,未知,未知,未知,未知,未知,未知,未知,未知,未知,未知
3,300377,8912292.79,8912292.79,2014-09-30,三季度报告,8186188.839999999,2014,9,未知,未知,未知,未知,未知,未知,未知,未知,未知,未知
4,300377,46391308.32,46391308.32,2014-12-31,年度报告,42764489.84,2014,12,0.0,True,未知,未知,未知,未知,未知,未知,未知,未知
5,300377,-8117100.080000001,-8117100.080000001,2015-03-31,一季度报告,-8163305.1000000015,2015,3,-5.147928328481741,False,未知,未知,未知,未知,未知,未知,59090000.0,未知
6,300377,6568412.88,6563279.839999999,2015-06-30,半年度报告,6484972.0299999975,2015,6,6.770946888606045,False,未知,未知,未知,未知,未知,未知,58550000.0,未知
7,300377,9679395.06,10259660.1,2015-09-30,三季度报告,10181492.66,2015,9,3.528277360376085,False,未知,未知,未知,未知,未知,未知,,未知
8,300377,57834519.21999998,58418012.53,2015-12-31,年度报告,58071898.47,2015,12,-0.13006692133747502,True,未知,未知,未知,未知,未知,未知,,未知
9,300377,1190467.9,1616260.4800000002,2016-03-31,一季度报告,1577051.88,2016,3,-5.971890610223941,False,未知,未知,未知,未知,未知,未知,108765000.0,未知
10,300377,20231545.68,20536639.7,2016-06-30,半年度报告,19649606.05,2016,6,5.144152995144849,False,未知,未知,未知,未知,未知,未知,100684959.99999999,未知
11,300377,30810484.329999994,30876715.96,2016-09-30,三季度报告,29908302.31,2016,9,3.1694066023584746,False,未知,未知,未知,未知,未知,未知,115050000.0,未知
12,300377,121802560.33999996,121039371.35,2016-12-31,年度报告,114010749.26999998,2016,12,-0.3021929772341933,True,0.3333815468066204,True,0.0,True,比例外推,121039371.35,120687500.0,121039371.35
13,300377,15763415.830000006,14889237.03,2017-03-31,一季度报告,14893093.05,2017,3,32.9003963651603,False,-1.1334110530171526,True,0.1354929482734856,False,前期平均,74483221.72,237800000.0,237800000.0
14,300377,52729273.77,50098952.20999999,2017-06-30,半年度报告,49839002.06,2017,6,0.9947726341984569,False,2.4402200940770835,False,0.04273543630221954,True,去年同期,144460095.42999998,230675000.0,230675000.0
15,300377,87303241.20000002,83449905.12999998,2017-09-30,三季度报告,78182809.84000002,2017,9,0.3098571654293763,True,2.3144364921122524,False,0.05263567792680904,True,比例外推,378111046.79611236,211895000.0,211895000.0
16,300377,220776150.84,208463060.81,2017-12-31,年度报告,197454554.39,2017,12,-0.6686659659916306,True,1.337281712505556,True,0.0,True,比例外推,208463060.81,211895000.0,208463060.81
17,300377,24956266.430000003,25439655.29000001,2018-03-31,一季度报告,25398913.61,2018,3,1.560189625474087,False,-5.551538300392328,True,0.12346755669674561,False,前期平均,114774105.77,301550000.0,301550000.0
18,300377,77379827.91999999,75690186.66000001,2018-06-30,半年度报告,69732475.33,2018,6,-0.23463133882642118,True,2.935026515205179,False,0.07359825647020374,True,比例外推,395940301.1492766,289970000.0,289970000.0
19,300377,122438082.46999998,117881336.83999996,2018-09-30,三季度报告,111845364.96,2018,9,-0.5377338445253508,True,3.3123487901305917,False,0.11808414869043221,False,未知,未知,282940000.0,未知
20,300377,181361091.8,177780372.07,2018-12-31,年度报告,155899691.70000002,2018,12,-0.8172024762799329,True,1.4580242718348062,True,0.0,True,比例外推,177780372.07,307400000.0,307400000.0
21,300377,27184911.31,26243021.11000001,2019-03-31,一季度报告,22370379.459999993,2019,3,0.6171222479611909,False,1.944017645448368,True,0.07885956840236236,True,前期平均,173740600.475,261800000.0,261800000.0
22,300377,82207018.32,80320429.85,2019-06-30,半年度报告,75698384.28999999,2019,6,-0.4784514936925952,True,1.1211337400898664,True,0.1566083798769327,False,平均增速,181406420.01305652,225000000.0,225000000.0
23,300377,126917522.95999996,125035525.48,2019-09-30,三季度报告,119734348.58,2019,9,-0.670385774949649,True,1.0732236142852274,True,0.25885176873238064,False,平均增速,176386469.8578744,236040000.0,236040000.0
24,300377,102190023.91,136436981.52999997,2019-12-31,年度报告,21111032.27,2019,12,-0.7774752386553508,True,0.05879954522164152,True,0.0,True,比例外推,136436981.52999997,,136436981.52999997
25,300377,-26365776.99,-27090945.70000001,2020-03-31,一季度报告,-29440844.289999995,2020,3,0.48454902831169144,True,0.33522217272822086,True,0.6269877646988178,False,平均增速,-26553467.02812199,未知,-26553467.02812199
