,SECURITYCODE_x,NETPROFIT_x,PARENTNETPROFIT_x,REPORTDATE_x,REPORTTIMETYPE_x,KCFJCXSYJLR,Year,Month,managesituationChangeRate,managesituationGreatChange,historyprofitextroplaterate,ifhistoryprofitextroplate,IfprofitdisStableChangeRage,IfprofitdisStable,predicttype,predict,analyst_prediction,adj_prediction
0,300490,41056518.02,41056518.02,2012-12-31,年度报告,37274531.62,2012,12,未知,未知,未知,未知,未知,未知,未知,未知,未知,未知
1,300490,809267.69,809267.69,2014-03-31,一季度报告,-630824.8200000001,2014,3,未知,未知,未知,未知,未知,未知,未知,未知,未知,未知
2,300490,29233501.24,29233501.24,2014-09-30,三季度报告,25426755.36,2014,9,未知,未知,未知,未知,未知,未知,未知,未知,未知,未知
3,300490,44085049.7,44085049.7,2014-12-31,年度报告,39553853.81,2014,12,未知,未知,未知,未知,未知,未知,未知,未知,未知,未知
4,300490,8970628.81,8970628.81,2015-03-31,一季度报告,6696889.209999999,2015,3,49.73292623359276,False,未知,未知,未知,未知,未知,未知,未知,未知
5,300490,23025032.70000001,23025032.70000001,2015-06-30,半年度报告,19989150.03,2015,6,未知,未知,未知,未知,未知,未知,未知,未知,未知,未知
6,300490,31314589.45,31314589.45,2015-09-30,三季度报告,28201823.91,2015,9,0.4044338268938738,True,未知,未知,未知,未知,未知,未知,未知,未知
7,300490,45217035.74,45217035.74,2015-12-31,年度报告,39746539.31,2015,12,-0.06869747682285134,True,未知,未知,未知,未知,未知,未知,57000000.0,未知
8,300490,8600139.84,8600139.84,2016-03-31,一季度报告,7350113.889999999,2016,3,3.5767714716088,False,未知,未知,未知,未知,未知,未知,,未知
9,300490,20286303.16,20286303.16,2016-06-30,半年度报告,16501702.45,2016,6,0.7831252860717972,False,未知,未知,未知,未知,未知,未知,未知,未知
10,300490,27689708.17,27689708.17,2016-09-30,三季度报告,22270725.2,2016,9,0.311098716001209,True,未知,未知,未知,未知,未知,未知,66160000.0,未知
11,300490,53150232.94,48213989.39,2016-12-31,年度报告,36720729.33,2016,12,-0.0920121731093379,True,未知,未知,未知,未知,未知,未知,80000000.0,未知
12,300490,6390857.79,6867242.09,2017-03-31,一季度报告,5995120.869999999,2017,3,3.7739360968344444,False,0.7587384160967348,True,0.1335164676999553,False,前期平均,43484406.455,未知,43484406.455
13,300490,16672713.27,18229314.680000003,2017-06-30,半年度报告,15950553.759999998,2017,6,1.0238541096513911,False,未知,未知,未知,未知,未知,未知,未知,未知
14,300490,24464229.65,25608765.97000001,2017-09-30,三季度报告,20331794.290000007,2017,9,0.4827356708830204,True,0.0853647784942233,True,0.056585056345868745,True,比例外推,36415021.90749851,未知,36415021.90749851
15,300490,56150656.67000001,57124517.91,2017-12-31,年度报告,47961953.23000001,2017,12,-0.2275383239364594,True,0.19034695949425298,True,0.0,True,比例外推,57124517.91,,57124517.91
16,300490,9765978.89,9227059.23,2018-03-31,一季度报告,7623195.330000003,2018,3,5.424257802175254,False,0.2725579720156408,True,0.0395525115897257,True,前期平均,40437192.0,未知,40437192.0
17,300490,22659077.590000004,23673363.41,2018-06-30,半年度报告,18676026.270000003,2018,6,1.4624976963932401,False,0.23009932901201474,True,0.09572190237706801,True,前期平均,43661571.489999995,未知,43661571.489999995
18,300490,42403898.6,44475665.79,2018-09-30,三季度报告,37917022.78999999,2018,9,0.6782264803502613,False,0.17076448201943714,True,0.1560668949978295,False,前期平均,57473025.555,未知,57473025.555
19,300490,98724451.04,101021362.36,2018-12-31,年度报告,89244475.61,2018,12,-0.2688149978139873,True,0.14165326380392906,True,0.0,True,比例外推,101021362.36,未知,101021362.36
20,300490,3036180.14,3709269.77,2019-03-31,一季度报告,-2745001.16,2019,3,3.2040350980115626,False,0.30291247201004345,True,0.06330279307165812,True,前期平均,39377993.67000001,未知,39377993.67000001
21,300490,25123007.88000001,26102632.05,2019-06-30,半年度报告,16753257.200000005,2019,6,0.8119236256165712,False,0.22617319283461265,True,0.12113811763926591,False,前期平均,52217845.22500001,未知,52217845.22500001
22,300490,53798053.35000002,56124820.64,2019-09-30,三季度报告,43431249.64,2019,9,-0.031774922223778694,True,0.6261053478396773,True,0.12139880657895014,False,平均增速,126157535.2569945,未知,126157535.2569945
23,300490,88271514.59,87936350.6,2019-12-31,年度报告,16210417.96,2019,12,-0.5841301968509786,True,0.8064711347229079,True,0.0,True,比例外推,87936350.6,未知,87936350.6
24,300490,-16469517.45,-14489328.67,2020-03-31,一季度报告,-14910050.390000004,2020,3,12.522424930952878,False,0.624161560813648,True,0.18302930272112422,False,盈利变化,71716284.96,未知,71716284.96
