,SECURITYCODE_x,NETPROFIT_x,PARENTNETPROFIT_x,REPORTDATE_x,REPORTTIMETYPE_x,KCFJCXSYJLR,Year,Month,managesituationChangeRate,managesituationGreatChange,historyprofitextroplaterate,ifhistoryprofitextroplate,IfprofitdisStableChangeRage,IfprofitdisStable,predicttype,predict,analyst_prediction,adj_prediction
0,300435,10504669.18,10504669.18,2014-03-31,一季度报告,,2014,3,未知,未知,未知,未知,未知,未知,未知,未知,未知,未知
1,300435,79932612.35,79932612.35,2014-12-31,年度报告,75636893.28000002,2014,12,未知,未知,未知,未知,未知,未知,未知,未知,未知,未知
2,300435,15602338.089999994,15602338.089999994,2015-03-31,一季度报告,15414431.649999995,2015,3,0.0,True,未知,未知,未知,未知,未知,未知,93790000.0,未知
3,300435,33651597.59,33651597.59,2015-06-30,半年度报告,29590654.33999999,2015,6,未知,未知,未知,未知,未知,未知,未知,未知,,未知
4,300435,53442316.87,53442316.87,2015-09-30,三季度报告,44243446.73,2015,9,未知,未知,未知,未知,未知,未知,未知,未知,未知,未知
5,300435,92373295.9,92373295.9,2015-12-31,年度报告,80172284.57,2015,12,-0.8685809349755349,True,未知,未知,未知,未知,未知,未知,未知,未知
6,300435,17713006.23,17713006.23,2016-03-31,一季度报告,16832827.470000006,2016,3,-0.3267246793778455,True,未知,未知,未知,未知,未知,未知,100368000.0,未知
7,300435,28882443.88,28882443.88,2016-06-30,半年度报告,24120671.96,2016,6,-0.6878404018737704,True,未知,未知,未知,未知,未知,未知,96000000.0,未知
8,300435,47730748.7,47730748.7,2016-09-30,三季度报告,41338484.63999999,2016,9,-0.8034391135108735,True,未知,未知,未知,未知,未知,未知,,未知
9,300435,56868623.8,56868623.8,2016-12-31,年度报告,48685602.01000001,2016,12,-0.8862802384861098,True,未知,未知,未知,未知,未知,未知,未知,未知
10,300435,15606119.520000005,15606119.520000005,2017-03-31,一季度报告,13950288.15,2017,3,-0.40695164651336546,True,0.35695417301655374,True,,False,平均增速,42081625.92660592,101000000.0,101000000.0
11,300435,34709327.22,34709327.22,2017-06-30,半年度报告,24120671.96,2017,6,-0.6362956949334164,True,未知,未知,未知,未知,未知,未知,74180000.0,未知
12,300435,49107744.33,49107744.33,2017-09-30,三季度报告,29501547.56,2017,9,-0.7799181980985771,True,未知,未知,未知,未知,未知,未知,74000000.0,未知
13,300435,60216825.61,60203541.68999999,2017-12-31,年度报告,35056315.39,2017,12,-0.8152818113386454,True,0.3399109249638862,True,0.0,True,比例外推,60203541.68999999,,60203541.68999999
14,300435,20327988.66,20327988.66,2018-03-31,一季度报告,15792874.590000002,2018,3,-0.3268878168888972,True,0.06312722629546526,True,0.1197173958014662,False,平均增速,39278467.78820692,未知,39278467.78820692
15,300435,38350433.67999999,39891335.02,2018-06-30,半年度报告,33604486.63,2018,6,-0.6973531318133109,True,0.11009384341971268,True,0.17052804319120507,False,平均增速,51137773.236912236,未知,51137773.236912236
16,300435,57243563.84999998,59055581.09,2018-09-30,三季度报告,48430730.73,2018,9,-0.7860893567130779,True,0.029232848617735094,True,0.19564286121802776,False,平均增速,65458262.66369966,未知,65458262.66369966
17,300435,64521545.68000001,67635588.17999999,2018-12-31,年度报告,51551440.94000001,2018,12,-0.8255525914296032,True,0.19303067487947886,True,0.0,True,比例外推,67635588.17999999,81000000.0,81000000.0
18,300435,18915637.73,18417534.25,2019-03-31,一季度报告,15780611.13,2019,3,-0.48324109405519516,True,0.22019940214067565,True,0.04792716449093698,True,比例外推,47722810.888832085,77130000.0,77130000.0
19,300435,40570941.61,41518715.95999999,2019-06-30,半年度报告,34953759.20999999,2019,6,-0.7260873431666497,True,0.20614453777966865,True,0.11634773208300087,False,平均增速,60681084.758533694,,60681084.758533694
20,300435,58570036.34,59517810.69,2019-09-30,三季度报告,48347013.53999999,2019,9,-0.8164916983937924,True,0.18224813416429883,True,0.062763484129991,True,比例外推,66317342.97815322,未知,66317342.97815322
21,300435,77406696.18999998,77435586.08999999,2019-12-31,年度报告,60932972.87,2019,12,-0.8371912968096148,True,0.10212748048758605,True,0.0,True,比例外推,77435586.08999999,109000000.0,109000000.0
22,300435,33248333.350000005,33652401.07,2020-03-31,一季度报告,32855350.82,2020,3,-0.444656884957164,True,0.05279572462176501,True,0.07684795711054743,True,比例外推,103121027.91116178,222000000.0,222000000.0
