,SECURITYCODE_x,NETPROFIT_x,PARENTNETPROFIT_x,REPORTDATE_x,REPORTTIMETYPE_x,KCFJCXSYJLR,Year,Month,managesituationChangeRate,managesituationGreatChange,historyprofitextroplaterate,ifhistoryprofitextroplate,IfprofitdisStableChangeRage,IfprofitdisStable,predicttype,predict,analyst_prediction,adj_prediction
0,300451,1022905.04,1057665.08,2014-03-31,一季度报告,1227465.08,2014,3,未知,未知,未知,未知,未知,未知,未知,未知,未知,未知
1,300451,7193461.580000001,7249684.6000000015,2014-06-30,半年度报告,5724011.28,2014,6,未知,未知,未知,未知,未知,未知,未知,未知,未知,未知
2,300451,16284874.94,16376630.550000004,2014-09-30,三季度报告,,2014,9,未知,未知,未知,未知,未知,未知,未知,未知,未知,未知
3,300451,47583830.22,47576147.03000001,2014-12-31,年度报告,41483401.86999999,2014,12,未知,未知,未知,未知,未知,未知,未知,未知,未知,未知
4,300451,2176547.13,2223716.14,2015-03-31,一季度报告,1563098.71,2015,3,0.0,True,未知,未知,未知,未知,未知,未知,57200000.0,未知
5,300451,7378850.099999999,7378809.58,2015-06-30,半年度报告,6726785.8999999985,2015,6,-0.8578007224165921,True,未知,未知,未知,未知,未知,未知,52750000.0,未知
6,300451,19127067.0,19184162.99,2015-09-30,三季度报告,16761179.62,2015,9,-0.9371868040885305,True,未知,未知,未知,未知,未知,未知,58062857.0,未知
7,300451,49684510.24,49681720.73,2015-12-31,年度报告,46982665.3,2015,12,-0.978503095793872,True,未知,未知,未知,未知,未知,未知,58180000.0,未知
8,300451,767455.5399999998,771842.5400000002,2016-03-31,一季度报告,402960.83,2016,3,-0.5300331309618826,True,未知,未知,未知,未知,未知,未知,63008750.0,未知
9,300451,-3112986.66,-3095503.99,2016-06-30,半年度报告,-5571059.430000002,2016,6,-0.861373381199328,True,未知,未知,未知,未知,未知,未知,69894000.0,未知
10,300451,20873202.36,20442223.44,2016-09-30,三季度报告,16560420.559999995,2016,9,-0.946520549125488,True,未知,未知,未知,未知,未知,未知,67776667.0,未知
11,300451,67106122.48,63003453.14999999,2016-12-31,年度报告,51891600.83000001,2016,12,-0.9794119930928397,True,未知,未知,未知,未知,未知,未知,63582500.0,未知
12,300451,22349246.36,20750328.840000004,2017-03-31,一季度报告,20724026.87,2017,3,0.3328525063484463,True,0.5202581571957052,True,0.015776042365374797,True,比例外推,880346043.3133703,187845714.0,187845714.0
13,300451,35025685.39000001,32686219.39,2017-06-30,半年度报告,32611964.77,2017,6,-1.328592811894671,False,1.4272467853226702,True,0.16529273349167262,False,前期平均,70693854.38499999,187415740.0,187415740.0
14,300451,70460531.68,67388271.07,2017-09-30,三季度报告,66071212.47000001,2017,9,-0.9509943408606901,True,0.1788792828908609,True,,False,平均增速,157628184.03423893,181000000.0,181000000.0
15,300451,168784575.09,163244227.80999997,2017-12-31,年度报告,154230633.20999998,2017,12,-0.984756904404589,True,0.37981427795812506,True,0.0,True,比例外推,163244227.80999997,165152500.0,163244227.80999997
16,300451,45086468.50999999,44172840.29,2018-03-31,一季度报告,34444506.52,2018,3,-0.9542308933588578,True,14.1828981595319,False,0.07590187017407321,True,比例外推,598840557.841411,222930000.0,222930000.0
17,300451,62981937.36000001,61161881.76,2018-06-30,半年度报告,50717295.42,2018,6,-0.970795573916391,True,15.421381454254908,False,0.18978145513076727,False,未知,未知,222923846.0,未知
18,300451,115477979.56,111826308.67000002,2018-09-30,三季度报告,98538726.48999998,2018,9,-0.9854825813031672,True,2.5230028600987406,False,0.06029908067845069,True,比例外推,280988063.7668685,222511000.0,222511000.0
19,300451,220088550.15,212681116.27,2018-12-31,年度报告,199612997.1900001,2018,12,-0.9939395822192013,True,1.890378640120103,True,0.0,True,比例外推,212681116.27,221282143.0,212681116.27
20,300451,64025564.65999999,62115203.19000001,2019-03-31,一季度报告,54727537.03000002,2019,3,-0.9773123716759248,True,2.900769989165279,False,0.09713197671839577,True,比例外推,529112047.7976847,275865000.0,275865000.0
21,300451,129635026.84000002,125132601.91999996,2019-06-30,半年度报告,80052182.27999999,2019,6,-0.9837587555595003,True,2.9471395316869833,False,0.22674885878189102,False,未知,未知,288983077.0,未知
22,300451,189839103.06,185062377.52,2019-09-30,三季度报告,135253324.05,2019,9,-0.9911419904998552,True,1.5287037866956346,True,0.09459044662742044,True,比例外推,376724788.5763706,289705789.0,289705789.0
23,300451,318711981.33,314070351.32,2019-12-31,年度报告,260686956.46000007,2019,12,-0.9953523023378416,True,0.8660214448235226,True,0.0,True,比例外推,314070351.32,289892000.0,314070351.32
24,300451,59235559.15000001,57979998.78999999,2020-03-31,一季度报告,54812496.32999998,2020,3,-0.9840234905317585,True,0.8988621914493244,True,0.037917181245125386,True,比例外推,321312932.6854476,400318077.0,400318077.0
