,SECURITYCODE_x,NETPROFIT_x,PARENTNETPROFIT_x,REPORTDATE_x,REPORTTIMETYPE_x,KCFJCXSYJLR,Year,Month,managesituationChangeRate,managesituationGreatChange,historyprofitextroplaterate,ifhistoryprofitextroplate,IfprofitdisStableChangeRage,IfprofitdisStable,predicttype,predict,analyst_prediction,adj_prediction
0,300429,16953891.64,16961147.21,2014-03-31,一季度报告,,2014,3,未知,未知,未知,未知,未知,未知,未知,未知,未知,未知
1,300429,67875414.66,67988628.06,2014-12-31,年度报告,67923465.52,2014,12,未知,未知,未知,未知,未知,未知,未知,未知,未知,未知
2,300429,22330230.58,22371024.470000006,2015-03-31,一季度报告,20165644.17,2015,3,0.0,True,未知,未知,未知,未知,未知,未知,86662500.0,未知
3,300429,40722554.75,40801220.55,2015-06-30,半年度报告,36371536.31,2015,6,未知,未知,未知,未知,未知,未知,未知,未知,92000000.0,未知
4,300429,66636151.81,66774909.91000002,2015-09-30,三季度报告,63546411.19000002,2015,9,未知,未知,未知,未知,未知,未知,未知,未知,91454000.0,未知
5,300429,86278608.15000002,86513791.75,2015-12-31,年度报告,81339293.02999999,2015,12,-0.7502204336441249,True,未知,未知,未知,未知,未知,未知,未知,未知
6,300429,23095343.020000003,23200279.07,2016-03-31,一季度报告,22405537.360000007,2016,3,-0.24076504363619508,True,未知,未知,未知,未知,未知,未知,115000000.0,未知
7,300429,55801797.48999999,56009578.81,2016-06-30,半年度报告,44784405.15999999,2016,6,-0.5836731819975023,True,未知,未知,未知,未知,未知,未知,120185000.0,未知
8,300429,94294955.57,94592356.14000002,2016-09-30,三季度报告,80766951.83999999,2016,9,-0.7455751693414002,True,未知,未知,未知,未知,未知,未知,117612333.0,未知
9,300429,115607732.51,116015646.73,2016-12-31,年度报告,100861464.89000002,2016,12,-0.8034983177924621,True,未知,未知,未知,未知,未知,未知,119745667.0,未知
10,300429,29724408.88000001,29679764.15,2017-03-31,一季度报告,28842078.58,2017,3,-0.2659173052628686,True,0.1758105674684974,True,,False,平均增速,127986456.50553966,151430000.0,151430000.0
11,300429,75303907.22,74204371.5,2017-06-30,半年度报告,67438197.50999999,2017,6,-0.6961766035755705,True,未知,未知,未知,未知,未知,未知,150565000.0,未知
12,300429,108326051.90000004,106401776.54,2017-09-30,三季度报告,97803343.54,2017,9,-0.8202036202518357,True,未知,未知,未知,未知,未知,未知,133020000.0,未知
13,300429,125254697.65,126590925.89,2017-12-31,年度报告,120625407.60000002,2017,12,-0.8533498471779688,True,0.49989900234378454,True,0.0,True,比例外推,126590925.89,152520000.0,152520000.0
14,300429,34895550.440000005,36771501.51,2018-03-31,一季度报告,35613005.54,2018,3,-0.42963065444146203,True,0.3087081361587918,True,0.014247062226062729,True,比例外推,151812888.66575575,176283332.99999997,176283332.99999997
15,300429,75058437.35000001,78833687.45,2018-06-30,半年度报告,77106033.49999999,2018,6,-0.7748603988041511,True,0.5603089888189653,True,0.0756550876764131,True,比例外推,161230044.17920256,162380000.0,161230044.17920256
16,300429,105860758.43999998,112460237.61999996,2018-09-30,三季度报告,108436696.45,2018,9,-0.8434920193006684,True,0.34624130366808686,True,0.01635705350050265,True,比例外推,139975885.16689593,162401429.0,162401429.0
17,300429,136876632.54999998,146556470.85999998,2018-12-31,年度报告,134283164.42,2018,12,-0.8646446643672051,True,0.24084370681564257,True,0.0,True,比例外推,146556470.85999998,161226250.0,146556470.85999998
18,300429,32822439.67,33027842.91,2019-03-31,一季度报告,29151288.67,2019,3,-0.5141531964325707,True,0.3213068666458464,True,0.023056776562201065,True,比例外推,124261064.04767996,180600000.0,180600000.0
19,300429,85273361.72,87503113.19000001,2019-06-30,半年度报告,82008846.58,2019,6,-0.7741241059823369,True,0.14500642845444373,True,0.08174601754679334,True,比例外推,161474307.7819827,188430000.0,188430000.0
20,300429,127334243.85,130687964.48,2019-09-30,三季度报告,118146279.1,2019,9,-0.8398472494450419,True,0.04491394808283812,True,0.005594172074080639,True,比例外推,159058747.78409183,,159058747.78409183
21,300429,147630913.39999998,150605926.09,2019-12-31,年度报告,136950564.31,2019,12,-0.8761374288353647,True,0.13655444279189255,True,0.0,True,比例外推,150605926.09,199371000.0,199371000.0
22,300429,24799545.31,26056618.03,2020-03-31,一季度报告,23117221.53,2020,3,-0.48346643910519527,True,0.015860734528236903,True,0.02619763290193519,True,比例外推,99640878.96378396,194400000.0,194400000.0
