,SECURITYCODE_x,NETPROFIT_x,PARENTNETPROFIT_x,REPORTDATE_x,REPORTTIMETYPE_x,KCFJCXSYJLR,Year,Month,managesituationChangeRate,managesituationGreatChange,historyprofitextroplaterate,ifhistoryprofitextroplate,IfprofitdisStableChangeRage,IfprofitdisStable,predicttype,predict,analyst_prediction,adj_prediction
0,300452,19796932.04,19796932.04,2014-06-30,半年度报告,17283387.83,2014,6,未知,未知,未知,未知,未知,未知,未知,未知,未知,未知
1,300452,23233450.71,23233450.71,2014-09-30,三季度报告,,2014,9,未知,未知,未知,未知,未知,未知,未知,未知,未知,未知
2,300452,34932453.370000005,34932453.370000005,2014-12-31,年度报告,30193737.42,2014,12,未知,未知,未知,未知,未知,未知,未知,未知,未知,未知
3,300452,9879874.9,9879874.9,2015-03-31,一季度报告,9828628.769999998,2015,3,未知,未知,未知,未知,未知,未知,未知,未知,43764799.99999999,未知
4,300452,20410760.300000004,20410760.300000004,2015-06-30,半年度报告,20084234.38,2015,6,0.0,True,未知,未知,未知,未知,未知,未知,,未知
5,300452,30892358.760000005,30892358.760000005,2015-09-30,三季度报告,26955831.69,2015,9,-0.1479125383867699,True,未知,未知,未知,未知,未知,未知,44700000.0,未知
6,300452,44272969.65000001,44272969.65000001,2015-12-31,年度报告,38893283.54,2015,12,-0.4332796545861389,True,未知,未知,未知,未知,未知,未知,未知,未知
7,300452,12582906.959999995,12582906.959999995,2016-03-31,一季度报告,11175804.489999998,2016,3,1.0037634322677504,False,未知,未知,未知,未知,未知,未知,55200000.0,未知
8,300452,27294041.51,27294041.51,2016-06-30,半年度报告,24549882.419999994,2016,6,-0.03007375771298462,True,未知,未知,未知,未知,未知,未知,55100000.0,未知
9,300452,35972294.26,35972294.26,2016-09-30,三季度报告,32158149.09,2016,9,-0.35916411583198915,True,未知,未知,未知,未知,未知,未知,52470667.0,未知
10,300452,48785593.60999998,48785593.60999998,2016-12-31,年度报告,43203013.45,2016,12,-0.5528438187791636,True,未知,未知,未知,未知,未知,未知,,未知
11,300452,11662600.839999998,11662600.839999998,2017-03-31,一季度报告,10220617.08,2017,3,0.5733194326980867,False,未知,未知,未知,未知,未知,未知,未知,未知
12,300452,25144208.77,25144208.77,2017-06-30,半年度报告,20465089.47,2017,6,-0.27467934593904714,True,0.3576527237225671,True,0.035958072422062504,True,比例外推,41729966.46956906,52000000.0,52000000.0
13,300452,34740234.01,34094488.69,2017-09-30,三季度报告,27961086.67000001,2017,9,-0.4496616785987561,True,0.32921039379330297,True,,False,平均增速,45520143.87367514,56000000.0,56000000.0
14,300452,52883589.81,50335766.64,2017-12-31,年度报告,40753699.96000001,2017,12,-0.5942053673004388,True,0.23187508506030502,True,0.0,True,比例外推,50335766.64,49748000.0,50335766.64
15,300452,17866091.689999998,15829612.45,2018-03-31,一季度报告,13394176.560000002,2018,3,0.6974714569756296,False,0.038393277616951424,True,0.0046215792403975775,True,前期平均,46375544.315,61333333.0,61333333.0
16,300452,37091557.84,33491008.0,2018-06-30,半年度报告,29867310.21,2018,6,-0.2126643466458937,True,0.05415839982503423,True,0.0393102593924044,True,比例外推,60090641.93296871,,60090641.93296871
17,300452,55888331.55000001,50193338.87000001,2018-09-30,三季度报告,44240765.62,2018,9,-0.4301439640763088,True,0.03912104350885619,True,0.03650945854690768,True,比例外推,68453635.62419192,71000000.0,68453635.62419192
18,300452,77198406.89999999,70109458.06,2018-12-31,年度报告,60723883.5,2018,12,-0.6256507526980231,True,0.13656579163481075,True,0.0,True,比例外推,70109458.06,66945000.0,70109458.06
19,300452,20403020.94,19453773.39,2019-03-31,一季度报告,17637171.47,2019,3,0.1080729005259013,True,0.47376510629321633,True,0.022773618506942955,True,比例外推,74293546.59408255,87275000.0,87275000.0
20,300452,43243036.19,41065588.46,2019-06-30,半年度报告,36812444.99,2019,6,-0.4662685205782665,True,0.41467564771690174,True,0.04748991631341337,True,比例外推,74943702.20229131,87275000.0,87275000.0
21,300452,66556862.14999999,62221414.95,2019-09-30,三季度报告,52848349.03000001,2019,9,-0.645777007633716,True,0.5807193694617423,True,0.03356908603226283,True,比例外推,82807368.54256445,,82807368.54256445
22,300452,90172006.67,84370512.96999998,2019-12-31,年度报告,74418762.80000001,2019,12,-0.7435577645320554,True,0.5186195915647298,True,0.0,True,比例外推,84370512.96999998,,84370512.96999998
23,300452,24326808.22000001,23850090.719999995,2020-03-31,一季度报告,21617371.910000004,2020,3,-0.029705841197847742,True,0.3819115708744186,True,0.015546236664426477,True,比例外推,93784682.68317401,108696667.0,108696667.0
