,SECURITYCODE_x,NETPROFIT_x,PARENTNETPROFIT_x,REPORTDATE_x,REPORTTIMETYPE_x,KCFJCXSYJLR,Year,Month,managesituationChangeRate,managesituationGreatChange,historyprofitextroplaterate,ifhistoryprofitextroplate,IfprofitdisStableChangeRage,IfprofitdisStable,predicttype,predict,analyst_prediction,adj_prediction
0,300455,14596691.84,14596691.84,2014-06-30,半年度报告,14058004.44,2014,6,未知,未知,未知,未知,未知,未知,未知,未知,未知,未知
1,300455,54319461.18,54319461.18,2014-12-31,年度报告,52932493.32999999,2014,12,未知,未知,未知,未知,未知,未知,未知,未知,未知,未知
2,300455,7920930.549999999,7920930.549999999,2015-03-31,一季度报告,7885513.880000003,2015,3,未知,未知,未知,未知,未知,未知,未知,未知,62250000.0,未知
3,300455,15704165.259999998,15704165.259999998,2015-06-30,半年度报告,15586631.93,2015,6,0.0,True,未知,未知,未知,未知,未知,未知,58000000.0,未知
4,300455,31242199.93,31242199.93,2015-09-30,三季度报告,31071375.08000001,2015,9,未知,未知,未知,未知,未知,未知,未知,未知,,未知
5,300455,61296343.46,61296343.46,2015-12-31,年度报告,60571085.76000001,2015,12,-0.7312806216609825,True,未知,未知,未知,未知,未知,未知,未知,未知
6,300455,11069755.57,11069755.57,2016-03-31,一季度报告,11008838.9,2016,3,0.8428001290833186,False,未知,未知,未知,未知,未知,未知,69106667.0,未知
7,300455,17775503.61,17775503.61,2016-06-30,半年度报告,17666381.889999993,2016,6,-0.07052099883467465,True,未知,未知,未知,未知,未知,未知,72064000.0,未知
8,300455,36510697.07,36510697.07,2016-09-30,三季度报告,36357583.45,2016,9,-0.5327892442688174,True,未知,未知,未知,未知,未知,未知,72098000.0,未知
9,300455,67482928.96999998,67482928.96999998,2016-12-31,年度报告,67482281.46,2016,12,-0.7618668420323421,True,未知,未知,未知,未知,未知,未知,71210000.0,未知
10,300455,12256686.99,12256686.99,2017-03-31,一季度报告,12080663.79,2017,3,0.3186101307926169,True,未知,未知,未知,未知,未知,未知,77828571.0,未知
11,300455,21889554.32,21889554.32,2017-06-30,半年度报告,20457141.08,2017,6,-0.1788310384754269,True,0.17326737995144043,True,0.00424022855384848,True,比例外推,79642014.26283816,82794000.0,79642014.26283816
12,300455,41670441.95,41670441.95,2017-09-30,三季度报告,39848587.11,2017,9,-0.6002078017843772,True,未知,未知,未知,未知,未知,未知,81000000.0,未知
13,300455,71756515.05999999,71756515.05999999,2017-12-31,年度报告,91352012.4,2017,12,-0.7836980098109099,True,0.1673651224436954,True,0.0,True,比例外推,71756515.05999999,81000000.0,81000000.0
14,300455,12990376.92,12990376.92,2018-03-31,一季度报告,12267952.95,2018,3,0.19091658715843568,True,0.29081033855768895,True,0.021281453929168664,True,比例外推,87204598.42522053,132000000.0,132000000.0
15,300455,22285229.25,22285229.25,2018-06-30,半年度报告,19915452.01,2018,6,-0.3331663300854268,True,0.30763266536453066,True,0.023748609066480908,True,比例外推,82775788.93884553,,82775788.93884553
16,300455,43200667.94,43200667.94,2018-09-30,三季度报告,39959918.52,2018,9,-0.6497111343931883,True,0.23007114957755984,True,0.059775878371802205,True,比例外推,83807527.06236234,75030000.0,75030000.0
17,300455,125205200.73,125205200.73,2018-12-31,年度报告,120382830.24,2018,12,-0.7965802571683586,True,0.11441094061164825,True,0.0,True,比例外推,125205200.73,,125205200.73
18,300455,8242760.66,8242760.66,2019-03-31,一季度报告,7434251.43,2019,3,0.12365421957286825,True,0.11378980198856337,True,0.03070754655309965,True,比例外推,56946069.663043275,未知,56946069.663043275
19,300455,2758092.92,2758092.92,2019-04-30,其他报告,,2019,4,未知,未知,未知,未知,未知,未知,未知,未知,未知,未知
20,300455,23065139.91,23065139.91,2019-06-30,半年度报告,21421934.95,2019,6,-0.3450059823818057,True,0.12367057621992991,True,0.05162058266888464,True,比例外推,100336827.63338591,未知,100336827.63338591
21,300455,44077557.98,44077557.98,2019-09-30,三季度报告,41758937.86999999,2019,9,-0.662118838989414,True,0.1051429662325222,True,0.10370026141386907,False,平均增速,139811994.09104663,未知,139811994.09104663
22,300455,143177885.93999997,143177885.93999997,2019-12-31,年度报告,141913619.95000002,2019,12,-0.8834178472228388,True,0.7984156946651381,True,0.0,True,比例外推,143177885.93999997,146000000.0,143177885.93999997
23,300455,8354236.93,8354236.93,2020-03-31,一季度报告,6437970.099999999,2020,3,0.7708498938752396,False,0.3470321389145642,True,0.04312644172544061,True,前期平均,102047349.88,213022500.0,213022500.0
