,SECURITYCODE_x,NETPROFIT_x,PARENTNETPROFIT_x,REPORTDATE_x,REPORTTIMETYPE_x,KCFJCXSYJLR,Year,Month,managesituationChangeRate,managesituationGreatChange,historyprofitextroplaterate,ifhistoryprofitextroplate,IfprofitdisStableChangeRage,IfprofitdisStable,predicttype,predict,analyst_prediction,adj_prediction
0,300437,8846326.84,8846326.84,2014-03-31,一季度报告,8505816.84,2014,3,未知,未知,未知,未知,未知,未知,未知,未知,未知,未知
1,300437,17419110.07,17419110.07,2014-06-30,半年度报告,17079972.57,2014,6,未知,未知,未知,未知,未知,未知,未知,未知,未知,未知
2,300437,36953913.4,36953913.4,2014-12-31,年度报告,36394655.83000001,2014,12,未知,未知,未知,未知,未知,未知,未知,未知,未知,未知
3,300437,9151007.82,9151007.82,2015-03-31,一季度报告,9150922.819999997,2015,3,0.0,True,未知,未知,未知,未知,未知,未知,43818857.0,未知
4,300437,18462674.860000007,18462674.860000007,2015-06-30,半年度报告,18211773.07,2015,6,-0.49214817493830787,True,未知,未知,未知,未知,未知,未知,45500000.0,未知
5,300437,25304653.02,25304653.02,2015-09-30,三季度报告,24711598.83,2015,9,未知,未知,未知,未知,未知,未知,未知,未知,,未知
6,300437,39121553.86,39121553.86,2015-12-31,年度报告,33953118.940000005,2015,12,-0.7606119074793307,True,未知,未知,未知,未知,未知,未知,未知,未知
7,300437,9621878.36,9621878.36,2016-03-31,一季度报告,8529079.52,2016,3,-0.033294800528320435,True,未知,未知,未知,未知,未知,未知,80000000.0,未知
8,300437,16849388.44,16849388.44,2016-06-30,半年度报告,14671742.56,2016,6,-0.52085345665888,True,未知,未知,未知,未知,未知,未知,51700000.0,未知
9,300437,23746108.83000001,23746108.83000001,2016-09-30,三季度报告,21272716.860000007,2016,9,-0.6504071076173958,True,未知,未知,未知,未知,未知,未知,58300000.0,未知
10,300437,45236797.72,45236797.72,2016-12-31,年度报告,42288292.93,2016,12,-0.7738758825465528,True,未知,未知,未知,未知,未知,未知,未知,未知
11,300437,11496488.519999998,9026762.51,2017-03-31,一季度报告,8946801.27,2017,3,-0.0806029229411293,True,0.06925592503262362,True,0.03454444010340685,True,比例外推,38155997.14936717,125500000.0,125500000.0
12,300437,32240463.649999995,28439128.83,2017-06-30,半年度报告,27514322.17,2017,6,-0.4749763843654376,True,0.060838892330989845,True,0.10392914545454474,False,平均增速,69374179.12020423,69490000.0,69374179.12020423
13,300437,48255708.82,42444281.04,2017-09-30,三季度报告,40329189.28,2017,9,-0.6274620442729607,True,未知,未知,未知,未知,未知,未知,99000000.0,未知
14,300437,119070354.04000002,113258926.27,2017-12-31,年度报告,111937855.41,2017,12,-0.8044440082882153,True,0.18926112055009953,True,0.0,True,比例外推,113258926.27,,113258926.27
15,300437,57749118.99,49980970.87000001,2018-03-31,一季度报告,51238468.83999999,2018,3,-0.23051922988394358,True,0.2247971260005794,True,0.10378410452118891,False,平均增速,445120030.89861476,249805000.0,249805000.0
16,300437,126744663.2,109205266.62,2018-06-30,半年度报告,109186651.1,2018,6,-0.7256141556760769,True,0.8260311427341593,True,0.16000474844873724,False,平均增速,358871448.52960676,249805000.0,249805000.0
17,300437,180995245.08,153853894.22,2018-09-30,三季度报告,151884664.71000004,2018,9,-0.8166781287371007,True,0.9675824390890675,True,0.19743609296344156,False,平均增速,358381727.61503565,202530000.0,202530000.0
18,300437,284396755.47,247012482.1900001,2018-12-31,年度报告,243446139.01,2018,12,-0.9257050429443738,True,1.8229654043697479,True,0.0,True,比例外推,247012482.1900001,,247012482.1900001
19,300437,44028765.13999999,32564618.45,2019-03-31,一季度报告,32457161.85999999,2019,3,-0.8468145143213033,True,4.46908947250944,False,0.0841024597928966,True,比例外推,197982035.7158571,305000000.0,305000000.0
20,300437,95701467.63,72060021.78,2019-06-30,半年度报告,72216257.37,2019,6,-0.9302035555845005,True,4.163782647689783,False,0.10142099541965299,False,未知,未知,300010000.0,未知
21,300437,137302980.96,103626463.54,2019-09-30,三季度报告,101968293.93999998,2019,9,-0.9511239820908559,True,4.027518776256893,False,0.13545691605008708,False,未知,未知,235310000.0,未知
22,300437,161186164.2,115275996.48,2019-12-31,年度报告,112552818.99,2019,12,-0.9688944171483942,True,2.4617696481698177,False,0.0,True,比例外推,115275996.48,235310000.0,235310000.0
23,300437,25566054.520000003,20278319.960000005,2020-03-31,一季度报告,20441811.22,2020,3,-0.799078470362024,True,0.27166954622043404,True,0.11299706253805694,False,平均增速,98307156.4628825,224000000.0,224000000.0
