,SECURITYCODE_x,NETPROFIT_x,PARENTNETPROFIT_x,REPORTDATE_x,REPORTTIMETYPE_x,KCFJCXSYJLR,Year,Month,managesituationChangeRate,managesituationGreatChange,historyprofitextroplaterate,ifhistoryprofitextroplate,IfprofitdisStableChangeRage,IfprofitdisStable,predicttype,predict,analyst_prediction,adj_prediction
0,300497,12991647.879999995,12991647.879999995,2014-03-31,一季度报告,11616192.390000002,2014,3,未知,未知,未知,未知,未知,未知,未知,未知,未知,未知
1,300497,43551756.87,43551756.87,2014-09-30,三季度报告,,2014,9,未知,未知,未知,未知,未知,未知,未知,未知,未知,未知
2,300497,53441241.95999999,53441241.95999999,2014-12-31,年度报告,50661714.21000001,2014,12,未知,未知,未知,未知,未知,未知,未知,未知,未知,未知
3,300497,19619526.6,19619526.6,2015-03-31,一季度报告,18376555.380000006,2015,3,0.0,True,未知,未知,未知,未知,未知,未知,未知,未知
4,300497,40763263.16,40763263.16,2015-06-30,半年度报告,39561128.75,2015,6,未知,未知,未知,未知,未知,未知,未知,未知,未知,未知
5,300497,64353696.71,64353696.71,2015-09-30,三季度报告,65002995.07999999,2015,9,-0.7016963536332307,True,未知,未知,未知,未知,未知,未知,未知,未知
6,300497,93601767.59,93601767.59,2015-12-31,年度报告,91585300.59,2015,12,-0.7568984663619147,True,未知,未知,未知,未知,未知,未知,80185000.0,未知
7,300497,36875614.53,36875614.53,2016-03-31,一季度报告,34903012.29000001,2016,3,-0.3378205221322723,True,未知,未知,未知,未知,未知,未知,113900000.0,未知
8,300497,86418526.88,86418526.88,2016-06-30,半年度报告,76312611.44000001,2016,6,-0.6812902875560662,True,未知,未知,未知,未知,未知,未知,163170000.0,未知
9,300497,131392757.23000002,131698602.67000002,2016-09-30,三季度报告,119286334.62,2016,9,-0.7981211873725786,True,未知,未知,未知,未知,未知,未知,160855000.0,未知
10,300497,172520230.60999998,173909446.70999998,2016-12-31,年度报告,159071237.26000002,2016,12,-0.8612029642762007,True,未知,未知,未知,未知,未知,未知,90430000.0,未知
11,300497,50583023.06,50749691.03000003,2017-03-31,一季度报告,50241414.22000001,2017,3,-0.6476899966119698,True,1.2615324420538936,True,0.015802543246804523,True,比例外推,232621527.29407907,260420000.0,260420000.0
12,300497,100416765.67,101111388.6,2017-06-30,半年度报告,94908579.84,2017,6,-0.8496659414474852,True,未知,未知,未知,未知,未知,未知,245246667.00000003,未知
13,300497,137886316.09,139449611.27,2017-09-30,三季度报告,131167375.97,2017,9,-0.901123561496937,True,1.435331169477672,True,,False,平均增速,196579216.18953326,,196579216.18953326
14,300497,174476731.50000003,177550392.48999998,2017-12-31,年度报告,166937949.10000002,2017,12,-0.9246949309419312,True,1.3465274702683065,True,0.0,True,比例外推,177550392.48999998,309775000.0,309775000.0
15,300497,61655993.60999999,61788164.63999999,2018-03-31,一季度报告,60958469.89,2018,3,-0.7431618931792647,True,0.7907034852290845,True,0.0606167076998968,True,比例外推,254461989.5408638,225500000.0,225500000.0
16,300497,132078846.14000002,132002979.29999998,2018-06-30,半年度报告,129363260.53000002,2018,6,-0.8706227212824749,True,0.5791060282831039,True,0.07511807400203396,True,比例外推,264822852.7311008,232000000.0,232000000.0
17,300497,173295637.79000005,172697869.91000003,2018-09-30,三季度报告,170346530.57000002,2018,9,-0.9057800059614314,True,0.4088256856215107,True,0.03870357182323769,True,比例外推,229948243.02314657,,229948243.02314657
18,300497,192361854.54,194724797.03,2018-12-31,年度报告,193111290.53,2018,12,-0.9255393669499133,True,0.3112537308462164,True,0.0,True,比例外推,194724797.03,225000000.0,225000000.0
19,300497,53611547.56000001,53423857.11000002,2019-03-31,一季度报告,43116904.44000001,2019,3,-0.7892881596852106,True,0.4099463542763836,True,0.05926286629476632,True,比例外推,165025083.33639428,321212000.0,321212000.0
20,300497,116624004.49,114195098.19,2019-06-30,半年度报告,106015214.48,2019,6,-0.9016371791571438,True,0.4138532858255747,True,0.09717155819815848,True,比例外推,193288771.53489488,315665000.0,315665000.0
21,300497,219612416.12000003,216031434.70999995,2019-09-30,三季度报告,208646931.46,2019,9,-0.9250318816695011,True,0.28710809684095073,True,0.07620460867994483,True,比例外推,266280173.45981327,312866000.0,312866000.0
22,300497,306880044.08000004,305835258.08000004,2019-12-31,年度报告,295865011.18,2019,12,-0.9324624525425415,True,0.10872356559144854,True,0.0,True,比例外推,305835258.08000004,315666000.0,305835258.08000004
23,300497,84111799.58,83809352.55,2020-03-31,一季度报告,84250490.52000001,2020,3,-0.7576707170137136,True,0.04468964268234414,True,0.10838674403504306,False,平均增速,500646804.4973197,396515000.0,396515000.0
