,SECURITYCODE_x,NETPROFIT_x,PARENTNETPROFIT_x,REPORTDATE_x,REPORTTIMETYPE_x,KCFJCXSYJLR,Year,Month,managesituationChangeRate,managesituationGreatChange,historyprofitextroplaterate,ifhistoryprofitextroplate,IfprofitdisStableChangeRage,IfprofitdisStable,predicttype,predict,analyst_prediction,adj_prediction
0,300408,504689522.6199999,503603823.4,2014-09-30,三季度报告,492325235.46,2014,9,未知,未知,未知,未知,未知,未知,未知,未知,未知,未知
1,300408,650029276.55,648266986.5100001,2014-12-31,年度报告,630836876.3700001,2014,12,未知,未知,未知,未知,未知,未知,未知,未知,未知,未知
2,300408,165123050.87,164588044.38000005,2015-03-31,一季度报告,152999292.84999996,2015,3,未知,未知,未知,未知,未知,未知,未知,未知,818533333.0,未知
3,300408,385839183.8000001,384945510.8,2015-06-30,半年度报告,365836745.28999984,2015,6,未知,未知,未知,未知,未知,未知,未知,未知,,未知
4,300408,638747288.6000001,637238883.8299999,2015-09-30,三季度报告,605351675.2200001,2015,9,0.0,True,未知,未知,未知,未知,未知,未知,817280000.0,未知
5,300408,875762510.9200001,873640588.1199998,2015-12-31,年度报告,797486473.19,2015,12,-0.2235895507682116,True,未知,未知,未知,未知,未知,未知,828613333.0,未知
6,300408,225076339.48,224873154.8100001,2016-03-31,一季度报告,201123679.34000003,2016,3,2.056444996388407,False,未知,未知,未知,未知,未知,未知,1138340000.0,未知
7,300408,503818392.13000005,503564049.74000007,2016-06-30,半年度报告,441887425.59,2016,6,0.3080307646555824,True,未知,未知,未知,未知,未知,未知,1117945714.0,未知
8,300408,769638931.1200001,769173845.2999997,2016-09-30,三季度报告,662714410.35,2016,9,-0.20987606268173242,True,未知,未知,未知,未知,未知,未知,1065674443.9999999,未知
9,300408,1059834072.1899998,1059186427.44,2016-12-31,年度报告,915307372.99,2016,12,-0.42371417327533595,True,未知,未知,未知,未知,未知,未知,1065674443.9999999,未知
10,300408,232569023.75000003,232319020.81,2017-03-31,一季度报告,200229981.96,2017,3,1.2423037614082308,False,未知,未知,未知,未知,未知,未知,1353975835.0,未知
11,300408,430205819.14,429887590.28999984,2017-06-30,半年度报告,368092227.62,2017,6,0.0017290565481679623,True,未知,未知,未知,未知,未知,未知,1256135000.0,未知
12,300408,701592579.3600001,699428643.6300002,2017-09-30,三季度报告,616379275.51,2017,9,-0.34425156756875386,True,0.34618533104392024,True,0.03047893841326821,True,比例外推,899971879.4387194,1123140000.0,1123140000.0
13,300408,1085833322.38,1083443382.3300002,2017-12-31,年度报告,1003240947.6,2017,12,-0.5238032670745062,True,0.3892250317422005,True,0.0,True,比例外推,1083443382.3300002,1122440000.0,1083443382.3300002
14,300408,252710331.14,251633131.9,2018-03-31,一季度报告,248647208.8,2018,3,1.1700633836882581,False,0.19205221485041726,True,0.01601064343693176,True,前期平均,930968568.8950001,1512461667.0,1512461667.0
15,300408,554164003.36,551849594.75,2018-06-30,半年度报告,524231428.45,2018,6,0.17313504412584665,True,0.03287325195812329,True,0.06923530482932622,True,比例外推,1229602229.1416857,1474786364.0,1474786364.0
16,300408,935019894.41,931903060.96,2018-09-30,三季度报告,870767549.3299999,2018,9,-0.2806515669245208,True,0.003692922386754123,True,0.08477773543239342,True,比例外推,1306573339.3301082,1407126154.0,1306573339.3301082
17,300408,1323624068.4099994,1318729254.1899998,2018-12-31,年度报告,1284098599.3400002,2018,12,-0.5352053466974208,True,0.12196242941837457,True,0.0,True,比例外推,1318729254.1899998,1408663636.0,1318729254.1899998
18,300408,229498525.56,228923201.45,2019-03-31,一季度报告,214500882.76999992,2019,3,0.9971068073999909,False,0.10439371375426652,True,0.015416074254910567,True,前期平均,987520531.095,1511550000.0,1511550000.0
19,300408,470109831.86,468885369.17,2019-06-30,半年度报告,426406144.59,2019,6,-0.0892776875438085,True,0.18661592852394887,True,0.06346603581369137,True,比例外推,1059405363.9260926,1258583333.0,1258583333.0
20,300408,669467414.51,667409382.03,2019-09-30,三季度报告,614071976.42,2019,9,-0.4602365942828839,True,0.2710710554383691,True,0.0577914899345231,True,比例外推,966890877.9059631,924285714.0,966890877.9059631
21,300408,874074765.57,871260778.3299997,2019-12-31,年度报告,794975041.9399999,2019,12,-0.6187062968519021,True,0.23376444248504671,True,0.0,True,比例外推,871260778.3299997,926285714.0,871260778.3299997
22,300408,185393947.15000004,184636577.88000005,2020-03-31,一季度报告,157859250.29,2020,3,1.1990970154971825,False,0.054159121967917806,True,0.048807685182065325,True,前期平均,1103867755.9700003,1136600000.0,1103867755.9700003
