,SECURITYCODE_x,NETPROFIT_x,PARENTNETPROFIT_x,REPORTDATE_x,REPORTTIMETYPE_x,KCFJCXSYJLR,Year,Month,managesituationChangeRate,managesituationGreatChange,historyprofitextroplaterate,ifhistoryprofitextroplate,IfprofitdisStableChangeRage,IfprofitdisStable,predicttype,predict,analyst_prediction,adj_prediction
0,300469,-10504634.13,-10504634.13,2012-03-31,一季度报告,,2012,3,未知,未知,未知,未知,未知,未知,未知,未知,未知,未知
1,300469,25946537.710000005,24602492.6,2012-12-31,年度报告,23633793.5,2012,12,未知,未知,未知,未知,未知,未知,未知,未知,未知,未知
2,300469,-12795142.55,-12795142.55,2013-03-31,一季度报告,-12795142.55,2013,3,-0.0,False,未知,未知,未知,未知,未知,未知,未知,未知
3,300469,34890414.879999995,33095138.62000001,2013-12-31,年度报告,28726178.14,2013,12,-1.4048568732910915,False,未知,未知,未知,未知,未知,未知,未知,未知
4,300469,-15700960.93,-15700960.93,2014-03-31,一季度报告,-15700960.93,2014,3,-0.17901390399124548,False,未知,未知,未知,未知,未知,未知,未知,未知
5,300469,-14278624.060000004,-13958632.569999995,2014-06-30,半年度报告,-18004910.59,2014,6,未知,未知,未知,未知,未知,未知,未知,未知,未知,未知
6,300469,-9855883.95,-8822545.219999999,2014-09-30,三季度报告,,2014,9,未知,未知,未知,未知,未知,未知,未知,未知,未知,未知
7,300469,37583532.54000001,35339310.97,2014-12-31,年度报告,29485324.30000001,2014,12,-1.3010750707931966,False,未知,未知,未知,未知,未知,未知,未知,未知
8,300469,-20830990.92,-20297285.0,2015-03-31,一季度报告,-20352190.98,2015,3,-0.3309559728966219,False,-0.34773488567187416,True,,False,前期平均,,42300000.0,
9,300469,-12309691.93,-12240757.959999995,2015-06-30,半年度报告,-12408607.689999996,2015,6,-0.26431047656562523,False,未知,未知,未知,未知,未知,未知,42042000.0,未知
10,300469,197783.68,-2317291.25,2015-09-30,三季度报告,-2577893.48,2015,9,0.06582364233296412,False,未知,未知,未知,未知,未知,未知,45090000.0,未知
11,300469,39038620.41,38242426.34,2015-12-31,年度报告,23336861.590000004,2015,12,-1.2795009787549896,False,0.23554947905716606,True,0.0,True,前期平均,38242426.34,45090000.0,45090000.0
12,300469,-21890251.46,-21030545.37,2016-03-31,一季度报告,-21157515.99,2016,3,-0.4957208627116045,False,-0.4620238121061176,True,0.2554304641533457,False,前期平均,22323257.59,52520000.0,52520000.0
13,300469,-13142494.089999998,-11707786.57,2016-06-30,半年度报告,-14086218.84,2016,6,-0.14663712221756625,False,未知,未知,未知,未知,未知,未知,52910000.0,未知
14,300469,598105.7200000001,1312814.4700000002,2016-09-30,三季度报告,-2018791.93,2016,9,-54.11173363747707,False,未知,未知,未知,未知,未知,未知,53300000.0,未知
15,300469,30990573.09,30008810.43,2016-12-31,年度报告,30121636.95000001,2016,12,-1.2690831289547613,False,0.0773145881999205,True,0.0,True,前期平均,30008810.43,,30008810.43
16,300469,-21562081.83,-20906062.720000006,2017-03-31,一季度报告,-16919065.099999998,2017,3,-0.520122729097238,False,-0.19841674761213177,True,0.16983524482734214,False,前期平均,23531606.18,39000000.0,39000000.0
17,300469,-11777425.8,-10541083.28,2017-06-30,半年度报告,-8966575.4,2017,6,-0.20071228048008943,False,-0.011408312211803455,True,0.07397262145644568,True,前期平均,31076768.805000007,54100000.0,54100000.0
18,300469,-481547.04,1667245.2999999996,2017-09-30,三季度报告,5339099.58,2017,9,-18.56317282837556,False,-1.1238557694120936,True,,False,前期平均,,38000000.0,
19,300469,32811909.759999994,33207874.959999993,2017-12-31,年度报告,22571861.7,2017,12,-1.3389622418240992,False,0.1910805975336406,True,0.0,True,前期平均,33207874.959999993,,33207874.959999993
20,300469,-18976597.42,-18238785.15,2018-03-31,一季度报告,-18115764.24,2018,3,-0.5128191139973982,False,-0.00943140361921267,True,0.0974142409593316,True,前期平均,29245317.60500001,41500000.0,41500000.0
21,300469,-3758690.57,-1783895.1900000004,2018-06-30,半年度报告,-4959414.77,2018,6,-0.10807044693926239,False,-0.07454504766345389,True,0.06829005615927175,True,前期平均,38192767.345000006,,38192767.345000006
22,300469,4818209.489999998,7295187.9300000025,2018-09-30,三季度报告,2450967.72,2018,9,20.81434679777079,False,2.210085320900115,False,0.21685382089281732,False,去年同期,24527950.05,未知,24527950.05
23,300469,51351733.19,44803214.13,2018-12-31,年度报告,21403553.04,2018,12,-1.3201469895179914,False,0.06290767835274315,True,0.0,True,前期平均,44803214.13,62000000.0,62000000.0
24,300469,-18168902.18,-16339655.74,2019-03-31,一季度报告,-20268855.950000007,2019,3,-0.44644269478316206,False,-0.12655565383103495,True,0.08027132674633952,True,前期平均,29045384.129999995,56100000.0,56100000.0
25,300469,-4406431.8,-1274241.6,2019-06-30,半年度报告,-6750737.4,2019,6,1.7947589551113277,False,-0.6983384708625562,True,0.13382349485706402,False,前期平均,36598904.845000006,,36598904.845000006
26,300469,-2770602.76,610575.7500000001,2019-09-30,三季度报告,-10146375.22,2019,9,-3.1801945622750423,False,81.67440039643542,False,0.1616975603162277,False,去年同期,19563161.07,未知,19563161.07
27,300469,-149284989.4,-150581542.57999998,2019-12-31,年度报告,-172588079.58000004,2019,12,-1.2045624067085166,False,0.609709556624253,True,0.0,True,盈利变化,-19860663.41000001,未知,-19860663.41000001
28,300469,-29592530.60000001,-27793986.38,2020-03-31,一季度报告,-28348707.83,2020,3,-0.42183440551717466,False,-0.10362633829517276,True,0.6102787532105214,False,前期平均,11711135.66,未知,11711135.66
