,SECURITYCODE_x,NETPROFIT_x,PARENTNETPROFIT_x,REPORTDATE_x,REPORTTIMETYPE_x,KCFJCXSYJLR,Year,Month,managesituationChangeRate,managesituationGreatChange,historyprofitextroplaterate,ifhistoryprofitextroplate,IfprofitdisStableChangeRage,IfprofitdisStable,predicttype,predict,analyst_prediction,adj_prediction
0,300454,232849698.07,232849698.07,2014-12-31,年度报告,119172398.07000004,2014,12,未知,未知,未知,未知,未知,未知,未知,未知,未知,未知
1,300454,330044146.52,330044146.52,2015-12-31,年度报告,149408500.0,2015,12,0.0,True,未知,未知,未知,未知,未知,未知,未知,未知
2,300454,257559075.84,257559075.84,2016-12-31,年度报告,381121909.37000006,2016,12,-0.29448923568202173,True,未知,未知,未知,未知,未知,未知,未知,未知
3,300454,-8901343.98,-8901343.98,2017-03-31,一季度报告,-26199443.98,2017,3,未知,未知,未知,未知,未知,未知,未知,未知,未知,未知
4,300454,110586601.27,110586601.27,2017-06-30,半年度报告,85296719.82,2017,6,未知,未知,未知,未知,未知,未知,未知,未知,未知,未知
5,300454,272822154.17999995,272822154.17999995,2017-09-30,三季度报告,,2017,9,未知,未知,未知,未知,未知,未知,未知,未知,未知,未知
6,300454,573519304.7500001,573519304.7500001,2017-12-31,年度报告,523197792.04,2017,12,-0.09593673874396835,True,0.08487513830391719,True,0.0,True,比例外推,573519304.7500001,未知,573519304.7500001
7,300454,49192625.17999999,49192625.17999999,2018-03-31,一季度报告,33312397.52,2018,3,-27.158937188943458,False,未知,未知,未知,未知,未知,未知,744496667.0,未知
8,300454,124855635.34,124855635.34,2018-06-30,半年度报告,96811427.18000004,2018,6,1.105586892045733,False,未知,未知,未知,未知,未知,未知,699620141.0,未知
9,300454,312804185.18,312804185.18,2018-09-30,三季度报告,273172202.64,2018,9,-0.14651470013548576,True,未知,未知,未知,未知,未知,未知,677318570.9999999,未知
10,300454,603275680.0,603275680.0,2018-12-31,年度报告,551683129.64,2018,12,-0.5939984998909491,True,0.9520631709491503,True,0.0,True,比例外推,603275680.0,679564000.0,679564000.0
11,300454,-35073975.52000001,-35073975.52000001,2019-03-31,一季度报告,-57910448.91,2019,3,3.7334269561338345,False,未知,未知,未知,未知,未知,未知,715225625.0,未知
12,300454,66849533.91000001,66849533.91000001,2019-06-30,半年度报告,14625001.59,2019,6,0.8649514492150594,False,未知,未知,未知,未知,未知,未知,669288235.0,未知
13,300454,312726691.77,312726691.77,2019-09-30,三季度报告,248093329.23000005,2019,9,-0.25560555420315434,True,未知,未知,未知,未知,未知,未知,676474375.0,未知
14,300454,758899876.9300001,758899876.9300001,2019-12-31,年度报告,681251709.62,2019,12,-0.6140243908556036,True,0.4517900936653455,True,0.0,True,比例外推,758899876.9300001,677436875.0,677436875.0
15,300454,-193694748.36,-193694748.36,2020-03-31,一季度报告,-205552349.83,2020,3,-7.638816804135122,False,2.741020611675164,False,0.08528265622864196,True,去年同期,545467410.17,917292000.0,917292000.0
