,SECURITYCODE_x,NETPROFIT_x,PARENTNETPROFIT_x,REPORTDATE_x,REPORTTIMETYPE_x,KCFJCXSYJLR,Year,Month,managesituationChangeRate,managesituationGreatChange,historyprofitextroplaterate,ifhistoryprofitextroplate,IfprofitdisStableChangeRage,IfprofitdisStable,predicttype,predict,analyst_prediction,adj_prediction
0,300425,-3346115.45,-3004894.89,2014-03-31,一季度报告,,2014,3,未知,未知,未知,未知,未知,未知,未知,未知,未知,未知
1,300425,53642071.6,53979241.06,2014-12-31,年度报告,47671146.32,2014,12,未知,未知,未知,未知,未知,未知,未知,未知,未知,未知
2,300425,4173379.54,4454844.57,2015-03-31,一季度报告,4236817.58,2015,3,-0.0,False,未知,未知,未知,未知,未知,未知,,未知
3,300425,34502834.419999994,35326599.02,2015-06-30,半年度报告,33495025.77,2015,6,未知,未知,未知,未知,未知,未知,未知,未知,102817933.0,未知
4,300425,38326926.22,39288234.28,2015-09-30,三季度报告,37539111.03,2015,9,未知,未知,未知,未知,未知,未知,未知,未知,113395000.0,未知
5,300425,50780103.39,52185685.23000001,2015-12-31,年度报告,47024219.04999999,2015,12,-1.062378564999343,False,未知,未知,未知,未知,未知,未知,113395000.0,未知
6,300425,5913708.260000003,6129557.420000001,2016-03-31,一季度报告,6045803.929999999,2016,3,-1.8017759750650428,False,未知,未知,未知,未知,未知,未知,119983846.0,未知
7,300425,33883030.33000001,33626425.48,2016-06-30,半年度报告,33325618.56,2016,6,-1.0969808859547026,False,未知,未知,未知,未知,未知,未知,99788182.0,未知
8,300425,43854626.76000001,43588998.03,2016-09-30,三季度报告,42030544.05,2016,9,-1.087304560527317,False,未知,未知,未知,未知,未知,未知,87253333.0,未知
9,300425,70636721.78000002,69533774.01,2016-12-31,年度报告,61691252.04999998,2016,12,-1.0658942228671977,False,未知,未知,未知,未知,未知,未知,86755000.0,未知
10,300425,-1656332.46,-645867.85,2017-03-31,一季度报告,-901302.66,2017,3,-1.5658235582287583,False,13.297026382469964,False,,False,未知,未知,130259286.0,未知
11,300425,36211021.75,37596136.17,2017-06-30,半年度报告,37633676.47,2017,6,-1.0987549052552525,False,未知,未知,未知,未知,未知,未知,120895000.0,未知
12,300425,48445363.26,49888607.81,2017-09-30,三季度报告,53105376.03,2017,9,-1.0763001693826297,False,未知,未知,未知,未知,未知,未知,101860000.0,未知
13,300425,98910238.15,92411313.88,2017-12-31,年度报告,97374074.46999998,2017,12,-1.0473707636152987,False,0.3529065409098123,True,0.0,True,前期平均,92411313.88,102720000.0,102720000.0
14,300425,10773190.06,11233270.599999998,2018-03-31,一季度报告,10770803.35,2018,3,1.0201955409362684,False,1.328406472282317,True,0.06887059621556245,True,前期平均,60449695.39499998,未知,60449695.39499998
15,300425,67666327.80000001,68794194.36,2018-06-30,半年度报告,68371904.95,2018,6,-1.0924059937634873,False,0.05902065821285092,True,0.16596683374694787,False,前期平均,89741607.74499999,130580000.0,130580000.0
16,300425,86623404.38999999,87068884.49,2018-09-30,三季度报告,86283276.3,2018,9,-1.069069880476318,False,0.17898388393292655,True,0.12961603283718448,False,前期平均,101641792.49999999,,101641792.49999999
17,300425,145543420.87999997,137357026.79,2018-12-31,年度报告,133463599.62,2018,12,-1.0338298189609607,False,0.6292674102046774,True,0.0,True,前期平均,137357026.79,,137357026.79
18,300425,20308370.540000007,19824396.860000007,2019-03-31,一季度报告,17955329.849999998,2019,3,-1.3105965300309572,False,4.060953303675938,False,0.06573844693519991,True,去年同期,142517193.13000003,158000000.0,142517193.13000003
19,300425,39963702.73000001,39264920.94,2019-06-30,半年度报告,34326676.55,2019,6,-1.0494502296606083,False,0.9307295210375574,True,0.09317255789815748,True,前期平均,83317936.68499997,132000000.0,132000000.0
20,300425,63315146.73999999,61605179.84,2019-09-30,三季度报告,55789961.87000001,2019,9,-1.0386283069057753,False,0.8769970478053141,True,0.07901597286409523,True,前期平均,93569883.05999999,,93569883.05999999
21,300425,165693263.24,156333517.63,2019-12-31,年度报告,135557390.26000002,2019,12,-1.0229904960991596,False,0.7168508469876398,True,0.0,True,前期平均,156333517.63,未知,156333517.63
22,300425,24131668.67,22929832.11,2020-03-31,一季度报告,12366369.670000006,2020,3,-1.1647653337528674,False,3.4551250948572463,False,0.07722330230084304,True,去年同期,140531892.52000004,195000000.0,195000000.0
