,SECURITYCODE_x,NETPROFIT_x,PARENTNETPROFIT_x,REPORTDATE_x,REPORTTIMETYPE_x,KCFJCXSYJLR,Year,Month,managesituationChangeRate,managesituationGreatChange,historyprofitextroplaterate,ifhistoryprofitextroplate,IfprofitdisStableChangeRage,IfprofitdisStable,predicttype,predict,analyst_prediction,adj_prediction
0,300448,-14319375.47,-14319375.47,2014-03-31,一季度报告,-14759677.27,2014,3,未知,未知,未知,未知,未知,未知,未知,未知,未知,未知
1,300448,7051031.49,7051031.49,2014-06-30,半年度报告,6870297.76,2014,6,未知,未知,未知,未知,未知,未知,未知,未知,未知,未知
2,300448,9483977.97,9483977.97,2014-09-30,三季度报告,,2014,9,未知,未知,未知,未知,未知,未知,未知,未知,未知,未知
3,300448,57054537.02,57054537.02,2014-12-31,年度报告,54940240.60999999,2014,12,未知,未知,未知,未知,未知,未知,未知,未知,未知,未知
4,300448,-12208497.62,-12208497.62,2015-03-31,一季度报告,-12220131.24,2015,3,-0.0,False,未知,未知,未知,未知,未知,未知,71015714.0,未知
5,300448,8122121.39,8122121.39,2015-06-30,半年度报告,8054689.669999997,2015,6,-3.0308199573790304,False,未知,未知,未知,未知,未知,未知,,未知
6,300448,10688562.47,10688562.47,2015-09-30,三季度报告,10630652.64,2015,9,-2.509849086037048,False,未知,未知,未知,未知,未知,未知,未知,未知
7,300448,65883942.02,65883942.02,2015-12-31,年度报告,63754572.99,2015,12,-1.2509769812868776,False,未知,未知,未知,未知,未知,未知,未知,未知
8,300448,-15023573.990000006,-15023573.990000006,2016-03-31,一季度报告,-15703740.93,2016,3,0.17290234357272222,False,未知,未知,未知,未知,未知,未知,83500000.0,未知
9,300448,-38969868.06,-37625169.93000001,2016-06-30,半年度报告,-39460742.21,2016,6,-2.7630092906060346,False,未知,未知,未知,未知,未知,未知,87590000.0,未知
10,300448,13063115.489999998,13880440.139999995,2016-09-30,三季度报告,7857149.34,2016,9,-2.3396914234435866,False,未知,未知,未知,未知,未知,未知,82000000.0,未知
11,300448,93034422.72,87160102.19000001,2016-12-31,年度报告,79566214.52000001,2016,12,-1.2173424210963752,False,未知,未知,未知,未知,未知,未知,未知,未知
12,300448,-18336259.81,-16073412.61,2017-03-31,一季度报告,-16702546.150000002,2017,3,-0.04687290257755804,False,-0.13266328883813322,True,0.0494192664831051,True,前期平均,56763898.44500001,未知,56763898.44500001
13,300448,6371039.3500000015,7258545.62,2017-06-30,半年度报告,5341601.16,2017,6,-0.6325526314856095,False,6.1366869322679625,False,0.41442877439091114,False,前期平均,59143458.705,104000000.0,104000000.0
14,300448,13567645.159999998,14711910.430000005,2017-09-30,三季度报告,11994372.569999995,2017,9,-2.0961684814745523,False,0.2951383618591965,True,,False,前期平均,,,
15,300448,119309723.97,111185107.70999998,2017-12-31,年度报告,105797801.1,2017,12,-1.153914809716143,False,0.5135118548152814,True,0.0,True,前期平均,111185107.70999998,,111185107.70999998
16,300448,4088260.98,6332112.01,2018-03-31,一季度报告,5112018.29,2018,3,-0.21906781326305816,False,-0.3466665388223099,True,0.024432285685252186,True,盈利变化,140271193.63,140113333.0,140271193.63
17,300448,9190438.599999998,12375761.310000002,2018-06-30,半年度报告,8410798.06,2018,6,-3.247572912887439,False,-1.413063515993922,True,0.3895749066266977,False,前期平均,99739181.33500002,151870000.0,151870000.0
18,300448,22816115.24,24745556.33,2018-09-30,三季度报告,18397000.67000001,2018,9,-2.055406100405415,False,0.14245782406187507,True,0.04045540408306397,True,前期平均,87162049.095,146750000.0,146750000.0
19,300448,158112936.88,140225348.38000005,2018-12-31,年度报告,129845884.98,2018,12,-1.1200185114299699,False,0.5015221703948172,True,0.0,True,前期平均,140225348.38000005,141263333.0,140225348.38000005
20,300448,7443402.349999999,10338894.07,2019-03-31,一季度报告,7260229.059999999,2019,3,-4.502559044065724,False,-1.245100800232404,True,0.1446596889062768,False,前期平均,119224045.42000002,196524000.0,196524000.0
21,300448,9228641.82,14661092.409999998,2019-06-30,半年度报告,11073840.74,2019,6,-2.558073133745761,False,-1.5638508476337214,True,0.36905364899777926,False,前期平均,124402670.745,196235000.0,196235000.0
22,300448,23560536.24,31211288.29000001,2019-09-30,三季度报告,24779674.63000001,2019,9,-1.6275991911583632,False,0.7135158503255145,True,0.023748724690638517,True,前期平均,113967535.14500001,191470000.0,191470000.0
23,300448,174244848.19,154431200.02999997,2019-12-31,年度报告,147564282.07999998,2019,12,-1.0905642242346538,False,0.4892139891270765,True,0.0,True,前期平均,154431200.02999997,,154431200.02999997
24,300448,-42780943.32,-39454201.42,2020-03-31,一季度报告,-39978551.67,2020,3,-2.9237674918916623,False,-2.0448347783869094,True,0.13477167174957988,False,盈利变化,91446159.05666664,190330000.0,190330000.0
