,SECURITYCODE_x,NETPROFIT_x,PARENTNETPROFIT_x,REPORTDATE_x,REPORTTIMETYPE_x,KCFJCXSYJLR,Year,Month,managesituationChangeRate,managesituationGreatChange,historyprofitextroplaterate,ifhistoryprofitextroplate,IfprofitdisStableChangeRage,IfprofitdisStable,predicttype,predict,analyst_prediction,adj_prediction
0,300479,2228232.6700000004,2228232.6700000004,2014-03-31,一季度报告,2100732.67,2014,3,未知,未知,未知,未知,未知,未知,未知,未知,未知,未知
1,300479,15533507.88,15533507.88,2014-06-30,半年度报告,12285112.009999998,2014,6,未知,未知,未知,未知,未知,未知,未知,未知,未知,未知
2,300479,22183585.53,22183585.53,2014-09-30,三季度报告,,2014,9,未知,未知,未知,未知,未知,未知,未知,未知,未知,未知
3,300479,42252515.36,42252515.36,2014-12-31,年度报告,38749119.49,2014,12,未知,未知,未知,未知,未知,未知,未知,未知,未知,未知
4,300479,13275828.150000002,13275828.150000002,2015-03-31,一季度报告,13273924.030000005,2015,3,0.0,True,未知,未知,未知,未知,未知,未知,48900000.0,未知
5,300479,23188889.13,23188889.13,2015-06-30,半年度报告,23006785.01,2015,6,-0.8565531567490343,True,未知,未知,未知,未知,未知,未知,48400000.0,未知
6,300479,31990021.2,31990021.2,2015-09-30,三季度报告,31722917.08,2015,9,-0.8995548908454565,True,未知,未知,未知,未知,未知,未知,49045000.0,未知
7,300479,49424916.17,49424916.17,2015-12-31,年度报告,45699844.14,2015,12,-0.947263904858326,True,未知,未知,未知,未知,未知,未知,50810000.0,未知
8,300479,3245818.3100000005,3245818.3100000005,2016-03-31,一季度报告,2317596.38,2016,3,-0.8321586687607131,True,未知,未知,未知,未知,未知,未知,71495714.0,未知
9,300479,8015375.95,8015375.95,2016-06-30,半年度报告,6676871.270000001,2016,6,-0.903909468991454,True,未知,未知,未知,未知,未知,未知,71042857.0,未知
10,300479,10760622.840000002,9978257.819999997,2016-09-30,三季度报告,8271627.41,2016,9,-0.9303460083358743,True,未知,未知,未知,未知,未知,未知,40500000.0,未知
11,300479,21440470.48,20605805.73,2016-12-31,年度报告,13286928.19,2016,12,-0.9549168143788882,True,未知,未知,未知,未知,未知,未知,40500000.0,未知
12,300479,7240562.739999997,6695393.289999999,2017-03-31,一季度报告,6555216.549999999,2017,3,-0.31350665465929917,True,0.5812944301904512,True,0.11881942404073506,False,平均增速,26240084.076114684,79550000.0,79550000.0
13,300479,11819013.17,8721865.94,2017-06-30,半年度报告,8361769.73,2017,6,-0.7220052204787724,True,0.5860082758859148,True,0.12395401482818041,False,平均增速,15290309.28162158,64933333.0,64933333.0
14,300479,18127022.76,11352544.78,2017-09-30,三季度报告,10817120.62,2017,9,-0.7929271657290053,True,0.6027355943409604,True,,False,平均增速,16475168.995357864,43500000.0,43500000.0
15,300479,30487497.29000001,17143837.09,2017-12-31,年度报告,13168877.9,2017,12,-0.8960735179725402,True,0.532262845453214,True,0.0,True,比例外推,17143837.09,39413333.0,39413333.0
16,300479,3418658.73,1465255.05,2018-03-31,一季度报告,1376480.4999999998,2018,3,-0.6922569764239068,True,0.12350590995517571,True,0.1768920839576067,False,平均增速,4279076.341138257,,4279076.341138257
17,300479,12434075.339999998,4670502.6,2018-06-30,半年度报告,3575513.81,2018,6,-0.8114704977522248,True,0.24247450534733114,True,0.087994071122796,True,比例外推,7631930.717804927,未知,7631930.717804927
18,300479,13477933.64,6367124.48,2018-09-30,三季度报告,-1288662.59,2018,9,-0.8770767434067038,True,0.15196492745048235,True,0.10871139892270154,False,平均增速,6980695.128674878,未知,6980695.128674878
19,300479,22923038.99,10327698.11,2018-12-31,年度报告,581650.2899999999,2018,12,-0.9269132310597739,True,0.1395659085139555,True,0.0,True,比例外推,10327698.11,70540000.0,70540000.0
20,300479,5702353.7799999975,2404126.72,2019-03-31,一季度报告,-788611.7100000002,2019,3,-0.3482143594953099,True,0.34798121226006734,True,1.353603248855921,False,平均增速,2426094.6275285445,未知,2426094.6275285445
21,300479,14701816.179999998,8471573.850000001,2019-06-30,半年度报告,2591645.7,2019,6,-0.8207962708065752,True,0.2537895938990227,True,3.7189658888639134,False,平均增速,6611675.634793289,未知,6611675.634793289
22,300479,19683953.48,12184364.61,2019-09-30,三季度报告,3981279.06,2019,9,-0.8346754977790498,True,0.06687212750906914,True,1.958336847413705,False,平均增速,17427887.557230834,未知,17427887.557230834
23,300479,34636725.44,19838646.08,2019-12-31,年度报告,8790504.809999999,2019,12,-0.9027950582393525,True,0.11712166008379135,True,0.0,True,比例外推,19838646.08,未知,19838646.08
24,300479,-10916388.85,-7479187.710000001,2020-03-31,一季度报告,-10478858.53,2020,3,-0.6092433482792431,True,0.0699381368609464,True,1.4416494378531741,False,平均增速,-25244252.773131393,未知,-25244252.773131393
