,SECURITYCODE_x,NETPROFIT_x,PARENTNETPROFIT_x,REPORTDATE_x,REPORTTIMETYPE_x,KCFJCXSYJLR,Year,Month,managesituationChangeRate,managesituationGreatChange,historyprofitextroplaterate,ifhistoryprofitextroplate,IfprofitdisStableChangeRage,IfprofitdisStable,predicttype,predict,analyst_prediction,adj_prediction
0,300495,107728215.07,107563147.1,2014-12-31,年度报告,104824962.52999996,2014,12,未知,未知,未知,未知,未知,未知,未知,未知,未知,未知
1,300495,4661291.4,4658154.73,2015-03-31,一季度报告,4628587.37,2015,3,未知,未知,未知,未知,未知,未知,未知,未知,未知,未知
2,300495,64624414.35000002,64685115.08,2015-06-30,半年度报告,64967510.69000001,2015,6,未知,未知,未知,未知,未知,未知,未知,未知,123555000.0,未知
3,300495,76222630.05,76389695.6,2015-09-30,三季度报告,76792800.0,2015,9,未知,未知,未知,未知,未知,未知,未知,未知,,未知
4,300495,110249114.06000002,110402777.34000002,2015-12-31,年度报告,105740707.89,2015,12,0.0,True,未知,未知,未知,未知,未知,未知,122176667.0,未知
5,300495,15761266.32,15809156.369999995,2016-03-31,一季度报告,15801925.080000002,2016,3,22.11123802944394,False,未知,未知,未知,未知,未知,未知,176800000.0,未知
6,300495,70484095.36999999,70531981.13,2016-06-30,半年度报告,65910704.87000001,2016,6,0.6669894211582896,False,未知,未知,未知,未知,未知,未知,174000000.0,未知
7,300495,96147171.68,96195052.06000002,2016-09-30,三季度报告,90927847.37999998,2016,9,0.4133363674191402,True,未知,未知,未知,未知,未知,未知,179000000.0,未知
8,300495,208901081.05,208988868.01000005,2016-12-31,年度报告,205794909.07,2016,12,-0.022865480702439888,True,未知,未知,未知,未知,未知,未知,175980000.0,未知
9,300495,-7410643.579999999,-7410130.45,2017-03-31,一季度报告,-7294745.189999999,2017,3,5.834997447717766,False,未知,未知,未知,未知,未知,未知,393051538.0,未知
10,300495,110742031.75999998,110742087.61,2017-06-30,半年度报告,110542992.51000002,2017,6,0.5284045926175304,False,未知,未知,未知,未知,未知,未知,391180000.0,未知
11,300495,151846017.73,151814974.23,2017-09-30,三季度报告,151229637.85999998,2017,9,0.12045121232005007,True,未知,未知,未知,未知,未知,未知,389180000.0,未知
12,300495,284145097.52,284117005.76,2017-12-31,年度报告,282815891.51,2017,12,-0.48430992061637307,True,0.916723008615387,True,0.0,True,比例外推,284117005.76,392036667.0,392036667.0
13,300495,11809004.28,11816281.88,2018-03-31,一季度报告,11468072.250000002,2018,3,-15.536958080231948,False,1.725731192106529,True,0.05738144793417692,True,前期平均,157368834.135,430000000.0,430000000.0
14,300495,145369350.27,145377171.19,2018-06-30,半年度报告,142129306.71,2018,6,-0.02721474982987059,True,0.6393050591632264,True,0.1725562128684654,False,平均增速,399133372.0180074,400621429.0,399133372.0180074
15,300495,208206499.36,208227730.57,2018-09-30,三季度报告,204968458.54,2018,9,-0.29054303378865437,True,0.7618633450405834,True,0.15863610094101221,False,平均增速,406632651.1579032,383546000.0,406632651.1579032
16,300495,386753106.14000016,386782235.9,2018-12-31,年度报告,305249112.57000005,2018,12,-0.6208689996405186,True,0.7806355870913068,True,0.0,True,比例外推,386782235.9,408000000.0,386782235.9
17,300495,11109161.35,11124424.86,2019-03-31,一季度报告,11708503.399999995,2019,3,8.122548566812782,False,1.8282930860794693,True,0.055313633768402426,True,前期平均,251176235.20499998,518322000.0,518322000.0
18,300495,123817875.82000002,123411450.37,2019-06-30,半年度报告,125405010.24,2019,6,-0.25893446679157406,True,0.6042868936411292,True,0.07336518508109385,True,比例外推,317711457.72323334,486867500.0,486867500.0
19,300495,181592814.88,181082632.98,2019-09-30,三季度报告,183785954.91,2019,9,-0.48258956660266294,True,0.6791307846424621,True,0.12213105473760488,False,平均增速,287552895.6641427,438605000.0,438605000.0
20,300495,214872707.5000001,214233994.05,2019-12-31,年度报告,215649094.81000003,2019,12,-0.72145481610947,True,0.5688311681543277,True,0.0,True,比例外推,214233994.05,415210000.0,415210000.0
21,300495,-34278728.64,-33649024.07,2020-03-31,一季度报告,-33567133.86999999,2020,3,8.697241013607206,False,4.0515008239319705,False,0.04781677324133633,True,前期平均盈利变化,213021177.17000008,未知,213021177.17000008
