,SECURITYCODE_x,NETPROFIT_x,PARENTNETPROFIT_x,REPORTDATE_x,REPORTTIMETYPE_x,KCFJCXSYJLR,Year,Month,managesituationChangeRate,managesituationGreatChange,historyprofitextroplaterate,ifhistoryprofitextroplate,IfprofitdisStableChangeRage,IfprofitdisStable,predicttype,predict,analyst_prediction,adj_prediction
0,300439,26045488.85,26213154.07,2014-03-31,一季度报告,25550510.51,2014,3,未知,未知,未知,未知,未知,未知,未知,未知,未知,未知
1,300439,55659788.14000001,56000326.85,2014-06-30,半年度报告,56266114.56,2014,6,未知,未知,未知,未知,未知,未知,未知,未知,未知,未知
2,300439,136789978.22000003,137684356.60999998,2014-12-31,年度报告,135672874.35999998,2014,12,未知,未知,未知,未知,未知,未知,未知,未知,未知,未知
3,300439,32757125.15,33085167.82,2015-03-31,一季度报告,32936065.120000005,2015,3,0.0,True,未知,未知,未知,未知,未知,未知,174704900.00000003,未知
4,300439,66181403.58000001,67010924.96999999,2015-06-30,半年度报告,64433732.54,2015,6,-0.5320591450242628,True,未知,未知,未知,未知,未知,未知,166940000.0,未知
5,300439,113398649.07000002,113849852.07,2015-09-30,三季度报告,109176633.29999998,2015,9,未知,未知,未知,未知,未知,未知,未知,未知,172276800.0,未知
6,300439,159462161.51000002,161267521.76999998,2015-12-31,年度报告,145794426.79,2015,12,-0.8095950508295944,True,未知,未知,未知,未知,未知,未知,164965880.0,未知
7,300439,38283183.48000001,38878525.01000001,2016-03-31,一季度报告,35290375.65,2016,3,-0.20489088310608347,True,未知,未知,未知,未知,未知,未知,192132800.0,未知
8,300439,84802947.82000001,85504250.45999998,2016-06-30,半年度报告,70512996.23,2016,6,-0.60645306020873,True,未知,未知,未知,未知,未知,未知,198138000.0,未知
9,300439,146222512.85,142829855.51999998,2016-09-30,三季度报告,122383802.52,2016,9,-0.7703192316345644,True,未知,未知,未知,未知,未知,未知,201761571.0,未知
10,300439,188100716.1200001,177494663.92000002,2016-12-31,年度报告,151118254.98,2016,12,-0.8366666511768897,True,未知,未知,未知,未知,未知,未知,202872857.0,未知
11,300439,49624830.7,44142550.08000001,2017-03-31,一季度报告,42339803.54999999,2017,3,-0.3196624083363719,True,0.30209121247569065,True,0.027595671727122767,True,比例外推,197892930.82335716,228075000.0,228075000.0
12,300439,116140196.06,97358447.22000004,2017-06-30,半年度报告,87217661.17999999,2017,6,-0.6928704777423149,True,0.39202426737393353,True,0.026373113546053484,True,比例外推,207871973.36864027,206900000.0,207871973.36864027
13,300439,188649759.67,163617895.54,2017-09-30,三季度报告,148389257.68999997,2017,9,-0.8218777099206445,True,未知,未知,未知,未知,未知,未知,,未知
14,300439,257586630.0,229700185.54,2017-12-31,年度报告,194175289.38,2017,12,-0.8615343450719023,True,0.26986908038154533,True,0.0,True,比例外推,229700185.54,265136667.00000003,265136667.00000003
15,300439,76745077.34999998,71004539.98,2018-03-31,一季度报告,57528888.50999999,2018,3,-0.4751520865138186,True,0.3970893893060497,True,0.00777900065507553,True,比例外推,268221691.81265575,298304286.0,298304286.0
16,300439,136581332.38,127597126.40999998,2018-06-30,半年度报告,102710959.07,2018,6,-0.7757409602051606,True,0.5384401758605027,True,0.014032395393237307,True,比例外推,251833761.82380074,304000000.0,304000000.0
17,300439,212563594.29,198143299.35,2018-09-30,三季度报告,168454503.28000003,2018,9,-0.861937333524513,True,0.4532695121989382,True,0.035555637837146215,True,比例外推,247246261.53473565,,247246261.53473565
18,300439,248680057.18000004,241172082.63,2018-12-31,年度报告,207314603.14,2018,12,-0.8988864878196512,True,0.4822447768671958,True,0.0,True,比例外推,241172082.63,未知,241172082.63
19,300439,80957712.83,71711372.41,2019-03-31,一季度报告,62551222.74,2019,3,-0.6606233292173493,True,0.7460314185429588,True,0.034471194207495254,True,比例外推,266546746.78225073,未知,266546746.78225073
20,300439,144786614.23000002,129502555.28000002,2019-06-30,半年度报告,117657035.26000004,2019,6,-0.8093041823787779,True,0.3594027618236546,True,0.025030894105599166,True,比例外推,261964460.46891326,未知,261964460.46891326
21,300439,223493049.44000003,205412733.7,2019-09-30,三季度报告,171567103.31,2019,9,-0.8774696629637049,True,0.2695204215649404,True,0.03133476354545184,True,比例外推,249507539.9973558,未知,249507539.9973558
22,300439,-576626718.42,-559912183.2299999,2019-12-31,年度报告,-586571571.65,2019,12,-0.8952650681146188,True,0.11593950039157538,True,0.0,True,比例外推,-559912183.2299999,未知,-559912183.2299999
23,300439,164936215.11999995,165649634.81,2020-03-31,一季度报告,5368417.8,2020,3,-0.6782827980245449,True,0.2812815025230211,True,0.2362741194672483,False,平均增速,423686163.5774747,未知,423686163.5774747
