,SECURITYCODE_x,NETPROFIT_x,PARENTNETPROFIT_x,REPORTDATE_x,REPORTTIMETYPE_x,KCFJCXSYJLR,Year,Month,managesituationChangeRate,managesituationGreatChange,historyprofitextroplaterate,ifhistoryprofitextroplate,IfprofitdisStableChangeRage,IfprofitdisStable,predicttype,predict,analyst_prediction,adj_prediction
0,300432,65903288.71,65903288.71,2014-06-30,半年度报告,63435017.31999999,2014,6,未知,未知,未知,未知,未知,未知,未知,未知,未知,未知
1,300432,136776218.60999998,136776477.71,2014-12-31,年度报告,130352933.44,2014,12,未知,未知,未知,未知,未知,未知,未知,未知,未知,未知
2,300432,42117726.74999999,42118999.85,2015-03-31,一季度报告,41878785.56000002,2015,3,未知,未知,未知,未知,未知,未知,未知,未知,183147500.0,未知
3,300432,88921290.11999999,88921290.11999999,2015-06-30,半年度报告,87498409.51,2015,6,0.0,True,未知,未知,未知,未知,未知,未知,194500000.0,未知
4,300432,128315873.27,128315873.27,2015-09-30,三季度报告,124812162.0,2015,9,未知,未知,未知,未知,未知,未知,未知,未知,185000000.0,未知
5,300432,173706520.90000004,173705956.14000002,2015-12-31,年度报告,166551925.95,2015,12,-0.5181670514088793,True,未知,未知,未知,未知,未知,未知,未知,未知
6,300432,52853736.08000001,52853736.08000001,2016-03-31,一季度报告,50326383.56000001,2016,3,0.5647399277075184,False,未知,未知,未知,未知,未知,未知,237250000.0,未知
7,300432,111821487.30999996,111821487.30999996,2016-06-30,半年度报告,110099333.16,2016,6,-0.258858158478549,True,未知,未知,未知,未知,未知,未知,231815000.0,未知
8,300432,160933006.82000002,160933006.82000002,2016-09-30,三季度报告,158526382.62999997,2016,9,-0.4863980033761882,True,未知,未知,未知,未知,未知,未知,,未知
9,300432,228829065.82999992,228829065.82999992,2016-12-31,年度报告,225963039.76,2016,12,-0.6206055571860803,True,未知,未知,未知,未知,未知,未知,249000000.0,未知
10,300432,84466299.07000001,84466299.07000001,2017-03-31,一季度报告,78262690.38,2017,3,0.24689934142494746,True,未知,未知,未知,未知,未知,未知,500270000.0,未知
11,300432,212285365.74,212285365.74,2017-06-30,半年度报告,204762964.0,2017,6,-0.41063841757623976,True,0.4444927046471329,True,0.02560629511282042,True,比例外推,417256607.7750153,479975000.0,479975000.0
12,300432,314472088.19,315321734.31,2017-09-30,三季度报告,305079751.04999983,2017,9,-0.5904924041858525,True,未知,未知,未知,未知,未知,未知,486462500.0,未知
13,300432,371447218.75,371223293.24000007,2017-12-31,年度报告,349157460.94,2017,12,-0.7119977373898803,True,0.4740211722631353,True,0.0,True,比例外推,371223293.24000007,未知,371223293.24000007
14,300432,23635949.25,25295663.510000005,2018-03-31,一季度报告,23088590.5,2018,3,-0.2197682456125635,True,0.77877220278676,True,0.018674945483144384,True,比例外推,101397276.97182402,未知,101397276.97182402
15,300432,76497409.60999997,78919903.43999998,2018-06-30,半年度报告,72074189.17999999,2018,6,-0.689553311975748,True,1.1149987905694392,True,0.053433511554973334,True,比例外推,142065462.3745323,未知,142065462.3745323
16,300432,118516664.39,121870677.81,2018-09-30,三季度报告,111891078.39,2018,9,-0.7904319932197541,True,1.1744048799231426,True,0.09885726615313206,True,比例外推,154373344.96626657,未知,154373344.96626657
17,300432,-2328423846.880001,-2323838443.0499988,2018-12-31,年度报告,-2390235276.23,2018,12,-0.8225769762611799,True,0.8455372940685991,True,0.0,True,比例外推,-2323838443.0499988,,-2323838443.0499988
18,300432,32528039.77,33264221.660000004,2019-03-31,一季度报告,31488380.54000001,2019,3,1.7882649439180025,False,0.6557538129933985,True,0.15539529919286602,False,前期平均,256529935.04,未知,256529935.04
19,300432,77152825.8,78767706.34,2019-06-30,半年度报告,103246585.36999996,2019,6,-0.13848992997293694,True,0.5279494469794582,True,0.3780002797048461,False,平均增速,1578016993.7654085,未知,1578016993.7654085
20,300432,209865849.92,212699695.33,2019-09-30,三季度报告,167689780.54000002,2019,9,-0.443932302269885,True,0.5014076810114665,True,0.5563140611089978,False,平均增速,1653393065.1872864,未知,1653393065.1872864
21,300432,510195705.02,514098159.75000006,2019-12-31,年度报告,475567801.53999984,2019,12,-1.0283038196839926,False,8.75784053674267,False,0.0,True,前期平均,514098159.75000006,未知,514098159.75000006
22,300432,82425676.3,82856257.15,2020-03-31,一季度报告,65235207.38,2020,3,1.0260455033869385,False,0.3981986447920717,True,0.13058063351153465,False,前期平均,-988358290.9350001,未知,-988358290.9350001
