,SECURITYCODE_x,NETPROFIT_x,PARENTNETPROFIT_x,REPORTDATE_x,REPORTTIMETYPE_x,KCFJCXSYJLR,Year,Month,managesituationChangeRate,managesituationGreatChange,historyprofitextroplaterate,ifhistoryprofitextroplate,IfprofitdisStableChangeRage,IfprofitdisStable,predicttype,predict,analyst_prediction,adj_prediction
0,300404,3205207.1600000006,3205207.1600000006,2014-03-31,一季度报告,3082707.16,2014,3,未知,未知,未知,未知,未知,未知,未知,未知,未知,未知
1,300404,11542019.92,11542019.92,2014-06-30,半年度报告,11264394.920000002,2014,6,未知,未知,未知,未知,未知,未知,未知,未知,未知,未知
2,300404,37963575.57,37963575.57,2014-12-31,年度报告,37334630.57,2014,12,未知,未知,未知,未知,未知,未知,未知,未知,未知,未知
3,300404,3939108.93,3939108.93,2015-03-31,一季度报告,3783983.9299999992,2015,3,0.0,True,未知,未知,未知,未知,未知,未知,47415800.0,未知
4,300404,12377741.739999998,12377741.739999998,2015-06-30,半年度报告,12064371.739999998,2015,6,-0.7223010199067478,True,未知,未知,未知,未知,未知,未知,44520000.0,未知
5,300404,17311570.049999993,17311570.049999993,2015-09-30,三季度报告,16282214.71,2015,9,未知,未知,未知,未知,未知,未知,未知,未知,47260000.0,未知
6,300404,25663774.74,25663774.74,2015-12-31,年度报告,23763914.67,2015,12,-0.9155715152781115,True,未知,未知,未知,未知,未知,未知,44520000.0,未知
7,300404,162097.50000000006,162097.50000000006,2016-03-31,一季度报告,-325743.0,2016,3,-0.18631162098886145,True,未知,未知,未知,未知,未知,未知,27510000.0,未知
8,300404,-1678476.13,-1678476.13,2016-06-30,半年度报告,-2768711.6300000004,2016,6,-0.7410507322477063,True,未知,未知,未知,未知,未知,未知,12050000.0,未知
9,300404,2913305.61,2913305.61,2016-09-30,三季度报告,-2662643.44,2016,9,-0.8148517349528328,True,未知,未知,未知,未知,未知,未知,12025300.0,未知
10,300404,2024652.54,2087085.62,2016-12-31,年度报告,-4870062.430000002,2016,12,-0.8751077270404689,True,未知,未知,未知,未知,未知,未知,12050000.0,未知
11,300404,-3195151.13,-2931539.0500000007,2017-03-31,一季度报告,-3182953.9000000013,2017,3,18.773328768179642,False,0.9546219685809002,True,0.05633607652983397,True,未知,未知,40340000.0,未知
12,300404,121109.24,459330.48,2017-06-30,半年度报告,-328994.39,2017,6,-2.909593531127548,False,1.1403422119215212,True,0.15758800321647182,False,前期平均,19344219.77,33620000.0,33620000.0
13,300404,-3062499.399999999,-2471070.36,2017-09-30,三季度报告,-3950512.53,2017,9,0.10019599351267537,True,未知,未知,未知,未知,未知,未知,,未知
14,300404,-26767095.340000004,-24488599.539999995,2017-12-31,年度报告,-26482881.36,2017,12,0.5830899854055949,False,0.9363590490524704,True,0.0,True,盈利变化,-5117187.356666666,10220000.0,10220000.0
15,300404,4747210.1400000015,5085215.54,2018-03-31,一季度报告,4917155.73,2018,3,-2.0031472783573783,False,2.5581518192440753,False,0.048549270657805746,True,前期平均,12803021.195,45000000.0,45000000.0
16,300404,6345665.1800000025,5739929.489999997,2018-06-30,半年度报告,4810558.3100000005,2018,6,25.465422126338176,False,0.9773612050743359,True,0.3504489848591288,False,前期平均,10539025.555,,10539025.555
17,300404,8142646.49,6126154.010000003,2018-09-30,三季度报告,4147187.79,2018,9,-2.046598461374393,False,1.302844818577243,True,0.31118597275132553,False,前期平均,8763294.495000001,未知,8763294.495000001
18,300404,11271130.009999998,7399910.669999999,2018-12-31,年度报告,3904677.45,2018,12,-1.1197443024462288,False,2.933450034508425,False,0.0,True,前期平均,7399910.669999999,55430000.0,55430000.0
19,300404,698928.6499999999,1384278.97,2019-03-31,一季度报告,578455.37,2019,3,-0.3248229875073532,True,-4.130317309951425,True,0.7771739073280606,False,平均增速,1651363.5436460278,未知,1651363.5436460278
20,300404,3272443.07,2944975.71,2019-06-30,半年度报告,1320038.74,2019,6,-0.4948981597544673,True,-9.14922318015892,True,0.6276860749536958,False,平均增速,3112935.779811955,未知,3112935.779811955
21,300404,6872836.759999999,5603193.619999999,2019-09-30,三季度报告,2610402.28,2019,9,-0.6063678849454756,True,-110.15530049876807,True,0.47610198930037073,False,平均增速,5605107.862121674,未知,5605107.862121674
22,300404,12337368.32,6592620.34,2019-12-31,年度报告,1837396.93,2019,12,-0.7156268131805534,True,-1.9110765740559776,True,0.0,True,比例外推,6592620.34,未知,6592620.34
23,300404,-5698021.32,-5863094.83,2020-03-31,一季度报告,-7519974.54,2020,3,3.585886070058798,False,0.09935299431688596,True,0.6945284138147987,False,盈利变化,-4205286.206666667,未知,-4205286.206666667
