,SECURITYCODE_x,NETPROFIT_x,PARENTNETPROFIT_x,REPORTDATE_x,REPORTTIMETYPE_x,KCFJCXSYJLR,Year,Month,managesituationChangeRate,managesituationGreatChange,historyprofitextroplaterate,ifhistoryprofitextroplate,IfprofitdisStableChangeRage,IfprofitdisStable,predicttype,predict,analyst_prediction,adj_prediction
0,300482,37879186.33,37908549.36000001,2012-12-31,年度报告,27232711.21,2012,12,未知,未知,未知,未知,未知,未知,未知,未知,未知,未知
1,300482,59003548.06,59003548.06,2013-12-31,年度报告,36944833.99999999,2013,12,0.0,True,未知,未知,未知,未知,未知,未知,未知,未知
2,300482,51420450.49999999,51420450.49999999,2014-06-30,半年度报告,41928360.3,2014,6,未知,未知,未知,未知,未知,未知,未知,未知,未知,未知
3,300482,77326029.76,77326029.76,2014-09-30,三季度报告,,2014,9,未知,未知,未知,未知,未知,未知,未知,未知,未知,未知
4,300482,98364048.89,98364048.89,2014-12-31,年度报告,75879979.73,2014,12,-0.3580184993031079,True,未知,未知,未知,未知,未知,未知,未知,未知
5,300482,20173680.35,20173680.35,2015-03-31,一季度报告,17783168.29,2015,3,未知,未知,未知,未知,未知,未知,未知,未知,未知,未知
6,300482,58502634.05,58502634.05,2015-06-30,半年度报告,52018509.58000001,2015,6,-0.2633439426984405,True,未知,未知,未知,未知,未知,未知,121170000.0,未知
7,300482,85258213.43999998,85258213.43999998,2015-09-30,三季度报告,71012668.94,2015,9,-0.5101366713438257,True,未知,未知,未知,未知,未知,未知,111220000.0,未知
8,300482,125351543.48,125351543.48,2015-12-31,年度报告,102365407.65,2015,12,-0.6149082235079598,True,1.0305795353388147,True,0.0,True,比例外推,125351543.48,未知,125351543.48
9,300482,26140955.23,26140955.23,2016-03-31,一季度报告,22130846.62,2016,3,0.8776537385752717,False,未知,未知,未知,未知,未知,未知,153092500.0,未知
10,300482,80349881.10000002,80349881.10000002,2016-06-30,半年度报告,70930399.22999999,2016,6,-0.3525216950466524,True,未知,未知,未知,未知,未知,未知,161576667.0,未知
11,300482,118037864.49,117432800.38000004,2016-09-30,三季度报告,100819109.64,2016,9,-0.5557121736235152,True,未知,未知,未知,未知,未知,未知,160980000.0,未知
12,300482,145506566.09999996,144986730.40999997,2016-12-31,年度报告,123013970.91,2016,12,-0.697816354881632,True,0.5931048819386577,True,0.0,True,比例外推,144986730.40999997,160680000.0,144986730.40999997
13,300482,34622251.16,35143207.029999994,2017-03-31,一季度报告,27908886.910000004,2017,3,0.4490360431254982,True,未知,未知,未知,未知,未知,未知,204862000.0,未知
14,300482,108178290.82,109248029.54,2017-06-30,半年度报告,90793261.57,2017,6,-0.5285719678557186,True,0.4619291558080652,True,0.03761204523995765,True,比例外推,184810746.17628652,202827500.0,184810746.17628652
15,300482,156004662.84,153087053.9,2017-09-30,三季度报告,131365124.77,2017,9,-0.6790929207872185,True,0.45202096054041235,True,,False,平均增速,181700196.33662271,213320000.0,213320000.0
16,300482,225067483.74,210695013.23,2017-12-31,年度报告,179391842.35,2017,12,-0.739673697584428,True,0.30081738656238804,True,0.0,True,比例外推,210695013.23,214330000.0,210695013.23
17,300482,58123439.01,55188171.48999999,2018-03-31,一季度报告,48933852.94000001,2018,3,0.09407057776077904,True,0.49508900270612893,True,0.014159191766230927,True,比例外推,294551277.25481826,330682000.0,330682000.0
18,300482,173815735.56,162091644.85,2018-06-30,半年度报告,148348911.21,2018,6,-0.6498448437031795,True,0.5581754598126912,True,0.046308970498476265,True,比例外推,293490394.34278965,333143333.0,333143333.0
19,300482,242320196.93,222463152.26,2018-09-30,三季度报告,205476860.24,2018,9,-0.7571919605451198,True,0.5347532960642397,True,0.07105037320437191,True,比例外推,291495639.0776053,339155000.0,339155000.0
20,300482,346585117.39000005,307744491.34,2018-12-31,年度报告,268369082.58,2018,12,-0.8316985390312607,True,0.6618847712479115,True,0.0,True,比例外推,307744491.34,321910000.0,307744491.34
21,300482,77242171.13,72573610.67999999,2019-03-31,一季度报告,68588260.22,2019,3,-0.3482975719402464,True,0.913112966321855,True,0.017031009599823316,True,比例外推,401354237.46052986,416621667.0,401354237.46052986
22,300482,217229799.64,206509274.79,2019-06-30,半年度报告,193002999.52,2019,6,-0.7820727438286257,True,0.8439232056390693,True,0.03904995120643551,True,比例外推,367531768.03939754,410725556.0,410725556.0
23,300482,309718583.87,290170275.29,2019-09-30,三季度报告,280812037.72,2019,9,-0.8436812663166402,True,0.7684860761643745,True,0.04707276487740786,True,比例外推,372868165.0622913,408912000.0,372868165.0622913
24,300482,427096732.29,387461316.97,2019-12-31,年度报告,371099287.52,2019,12,-0.8907074065520942,True,0.870530964268235,True,0.0,True,比例外推,387461316.97,408093333.0,387461316.97
25,300482,97274590.66,97845765.19,2020-03-31,一季度报告,95159770.28,2020,3,-0.5096048469915659,True,0.6656767767519435,True,0.018670811584257346,True,比例外推,548809693.7219505,554666667.0,548809693.7219505
