,SECURITYCODE_x,NETPROFIT_x,PARENTNETPROFIT_x,REPORTDATE_x,REPORTTIMETYPE_x,KCFJCXSYJLR,Year,Month,managesituationChangeRate,managesituationGreatChange,historyprofitextroplaterate,ifhistoryprofitextroplate,IfprofitdisStableChangeRage,IfprofitdisStable,predicttype,predict,analyst_prediction,adj_prediction
0,300493,32558890.20000001,32384214.63,2014-09-30,三季度报告,31035393.91,2014,9,未知,未知,未知,未知,未知,未知,未知,未知,未知,未知
1,300493,38450147.76,38312261.88000001,2014-12-31,年度报告,35894679.57,2014,12,未知,未知,未知,未知,未知,未知,未知,未知,未知,未知
2,300493,7927903.78,7910692.740000001,2015-03-31,一季度报告,7909209.58,2015,3,未知,未知,未知,未知,未知,未知,未知,未知,未知,未知
3,300493,19693626.9,19591766.220000006,2015-06-30,半年度报告,19583975.32,2015,6,未知,未知,未知,未知,未知,未知,未知,未知,44875000.0,未知
4,300493,29040526.16,28872307.67000001,2015-09-30,三季度报告,29547482.06000001,2015,9,0.0,True,未知,未知,未知,未知,未知,未知,39300000.0,未知
5,300493,41185645.52,41201922.54,2015-12-31,年度报告,38554894.59999999,2015,12,-0.15321807335494067,True,未知,未知,未知,未知,未知,未知,42842000.0,未知
6,300493,41185645.52,41201922.54,2015-12-31,年度报告,38030918.98,2015,12,-0.15321807335494067,True,未知,未知,未知,未知,未知,未知,42842000.0,未知
7,300493,9241825.46,9118412.78,2016-03-31,一季度报告,8270854.549999999,2016,3,3.1068725231173286,False,未知,未知,未知,未知,未知,未知,59000000.0,未知
8,300493,23447604.56,23296608.15,2016-06-30,半年度报告,22030926.29,2016,6,0.6532703887063085,False,未知,未知,未知,未知,未知,未知,55873333.0,未知
9,300493,35139267.45,34973115.82,2016-09-30,三季度报告,33707540.76,2016,9,0.12115359138520547,True,未知,未知,未知,未知,未知,未知,,未知
10,300493,49462684.29,49313804.73,2016-12-31,年度报告,45833110.58,2016,12,-0.20946024303081004,True,未知,未知,未知,未知,未知,未知,58783333.0,未知
11,300493,10578620.97,10591068.47,2017-03-31,一季度报告,9428938.36,2017,3,2.5229934108710173,False,未知,未知,未知,未知,未知,未知,未知,未知
12,300493,28953665.95,28835271.79000001,2017-06-30,半年度报告,26961739.90000001,2017,6,0.3885806593456134,True,未知,未知,0.07581080325356737,True,未知,未知,未知,未知
13,300493,43904169.81,43609159.19000001,2017-09-30,三季度报告,42491344.5,2017,9,-0.07343286975665146,True,0.1408961164384641,True,0.0,True,比例外推,54985265.13122706,未知,54985265.13122706
14,300493,54691598.11999998,54414796.28999999,2017-12-31,年度报告,53099640.14000001,2017,12,-0.3417484176736739,True,0.24222242920564271,True,0.01741882843061468,True,比例外推,54414796.28999999,未知,54414796.28999999
15,300493,13504545.569999995,13297340.87,2018-03-31,一季度报告,13092745.87,2018,3,2.0778009999917795,False,0.23224086089315632,True,0.0181179119463033,True,前期平均,47401311.394999996,未知,47401311.394999996
16,300493,29706840.460000005,29443684.61,2018-06-30,半年度报告,28809371.340000004,2018,6,0.12451702165196844,True,0.34227350356678965,True,0.03287432100883403,True,比例外推,58392252.17960923,未知,58392252.17960923
17,300493,31309544.87,30935825.35,2018-09-30,三季度报告,30298382.369999994,2018,9,-0.25841007036684455,True,0.36816176370997844,True,0.0,True,比例外推,40122149.84936483,未知,40122149.84936483
18,300493,16206282.93,15776057.219999995,2018-12-31,年度报告,14902498.8,2018,12,-0.4046820477148635,True,0.20667635541954793,True,0.4663647753869881,False,平均增速,15776057.219999995,未知,15776057.219999995
19,300493,7385820.199999997,7315751.41,2019-03-31,一季度报告,5549325.17,2019,3,1.410957853504435,False,0.36268833476522205,True,0.9593155733497415,False,前期平均,47932230.31500001,未知,47932230.31500001
20,300493,20560882.43,20365378.89,2019-06-30,半年度报告,18265119.93,2019,6,0.09600649869986225,True,0.13382138146176814,True,0.8435183815458889,False,平均增速,10953230.716763096,未知,10953230.716763096
21,300493,26104769.340000004,25894134.78,2019-09-30,三季度报告,23722629.67,2019,9,0.03990301791953226,True,0.2077888827882686,True,0.0,True,比例外推,22113373.19925474,未知,22113373.19925474
22,300493,29549030.24,29345234.09,2019-12-31,年度报告,24723319.52,2019,12,1.0090288649551555,False,0.6888023698112673,True,0.4516976961907651,False,前期平均,29345234.09,未知,29345234.09
23,300493,6172367.929999999,6102131.9,2020-03-31,一季度报告,4870786.409999998,2020,3,3.40829715838466,False,0.3866404413445543,True,未知,未知,前期平均,28842359.255000003,未知,28842359.255000003
