,SECURITYCODE_x,NETPROFIT_x,PARENTNETPROFIT_x,REPORTDATE_x,REPORTTIMETYPE_x,KCFJCXSYJLR,Year,Month,managesituationChangeRate,managesituationGreatChange,historyprofitextroplaterate,ifhistoryprofitextroplate,IfprofitdisStableChangeRage,IfprofitdisStable,predicttype,predict,analyst_prediction,adj_prediction
0,300407,-5619248.259999999,-5232969.849999999,2014-03-31,一季度报告,,2014,3,未知,未知,未知,未知,未知,未知,未知,未知,未知,未知
1,300407,73948004.32,73393258.68,2014-12-31,年度报告,68337781.06,2014,12,未知,未知,未知,未知,未知,未知,未知,未知,未知,未知
2,300407,-2104723.82,-1696016.5199999998,2015-03-31,一季度报告,-2499252.6,2015,3,-0.0,False,未知,未知,未知,未知,未知,未知,83787400.0,未知
3,300407,36572156.49000001,35833952.34,2015-06-30,半年度报告,34851380.190000005,2015,6,未知,未知,未知,未知,未知,未知,未知,未知,,未知
4,300407,54127140.83,53538790.08999998,2015-09-30,三季度报告,52055900.76999999,2015,9,未知,未知,未知,未知,未知,未知,未知,未知,97100000.0,未知
5,300407,70524838.04,69669403.39999999,2015-12-31,年度报告,67187734.17,2015,12,-1.075989180663801,False,未知,未知,未知,未知,未知,未知,94366200.00000001,未知
6,300407,-5019122.18,-4565976.19,2016-03-31,一季度报告,-4923513.63,2016,3,1.6698268944378647,False,未知,未知,未知,未知,未知,未知,96000000.0,未知
7,300407,11075112.32,10842824.919999998,2016-06-30,半年度报告,10261032.12,2016,6,-1.153648261390779,False,未知,未知,未知,未知,未知,未知,84703333.0,未知
8,300407,97279434.73,96914860.72,2016-09-30,三季度报告,28724095.74,2016,9,-1.1038157230149783,False,未知,未知,未知,未知,未知,未知,109930000.0,未知
9,300407,122193220.57999995,121765390.86,2016-12-31,年度报告,56961147.02,2016,12,-1.0796775776615453,False,未知,未知,未知,未知,未知,未知,109441667.0,未知
10,300407,-36828495.87,-36666275.75,2017-03-31,一季度报告,-37260429.62000001,2017,3,0.1195679360808067,False,-0.2996220410988334,True,,False,前期平均,,141440000.0,
11,300407,-19400002.61,-20290726.28,2017-06-30,半年度报告,-21871057.09,2017,6,-1.5073761870434916,False,未知,未知,未知,未知,未知,未知,,未知
12,300407,61614447.13,60257185.37999999,2017-09-30,三季度报告,39187320.31,2017,9,-1.0577639896407323,False,未知,未知,未知,未知,未知,未知,未知,未知
13,300407,65068448.64999999,64146357.72,2017-12-31,年度报告,42218492.18999999,2017,12,-1.045986579560861,False,0.6915735661310892,True,0.0,True,前期平均,64146357.72,132110000.0,132110000.0
14,300407,-42109373.99,-41769341.95,2018-03-31,一季度报告,-42528295.58000001,2018,3,-0.8474211849477848,False,-9.339498037998013,True,0.5471630855076461,False,前期平均,24016481.759999998,未知,24016481.759999998
15,300407,-21062961.4,-20799763.02,2018-06-30,半年度报告,-22194462.9,2018,6,-0.710348066803688,False,1.8143175084120835,True,0.5783154260315109,False,前期平均,18718471.419999998,未知,18718471.419999998
16,300407,4726105.53,5165244.77,2018-09-30,三季度报告,1776085.2000000004,2018,9,-1.0912001733642758,False,0.18610606042558325,True,0.23147835860929955,False,前期平均,26849687.110000007,未知,26849687.110000007
17,300407,14915622.71,14823793.99,2018-12-31,年度报告,9056756.47,2018,12,-1.0863590323203443,False,0.3247290978755501,True,0.0,True,前期平均,14823793.99,未知,14823793.99
18,300407,-29657213.51,-29623042.31000001,2019-03-31,一季度报告,-31774790.840000004,2019,3,-0.8665558822761308,False,-1.0125099564657303,True,2.8075029178908677,False,前期平均,41058748.919999994,未知,41058748.919999994
19,300407,10863751.22,10389875.830000002,2019-06-30,半年度报告,5207141.01,2019,6,-0.7332166093225619,False,-4.060237592632587,True,1.5210969998089445,False,盈利变化,33091529.93,未知,33091529.93
20,300407,24307879.5,23999244.02,2019-09-30,三季度报告,14724661.150000002,2019,9,-2.188980699717892,False,0.9405124291171371,True,0.38534138449683486,False,前期平均,39633355.599999994,未知,39633355.599999994
21,300407,68379939.75,68233412.62,2019-12-31,年度报告,51129526.95,2019,12,-1.3767357467571661,False,0.8406975354718191,True,0.0,True,前期平均,68233412.62,未知,68233412.62
22,300407,-43670884.03,-43416876.38,2020-03-31,一季度报告,-45422403.88,2020,3,-0.8105267624652173,False,-0.2485935188624052,True,2.629162776722588,False,前期平均,22115110.550000004,未知,22115110.550000004
