,SECURITYCODE_x,NETPROFIT_x,PARENTNETPROFIT_x,REPORTDATE_x,REPORTTIMETYPE_x,KCFJCXSYJLR,Year,Month,managesituationChangeRate,managesituationGreatChange,historyprofitextroplaterate,ifhistoryprofitextroplate,IfprofitdisStableChangeRage,IfprofitdisStable,predicttype,predict,analyst_prediction,adj_prediction
0,300443,14152664.76,14152664.76,2014-03-31,一季度报告,14344553.14,2014,3,未知,未知,未知,未知,未知,未知,未知,未知,未知,未知
1,300443,73660818.57,73660818.57,2014-09-30,三季度报告,,2014,9,未知,未知,未知,未知,未知,未知,未知,未知,未知,未知
2,300443,91483611.32,91483611.32,2014-12-31,年度报告,91392709.92,2014,12,未知,未知,未知,未知,未知,未知,未知,未知,未知,未知
3,300443,26999497.009999994,26999497.009999994,2015-03-31,一季度报告,26981872.000000004,2015,3,0.0,True,未知,未知,未知,未知,未知,未知,107415533.0,未知
4,300443,62728562.27,62728562.27,2015-06-30,半年度报告,62767950.41,2015,6,未知,未知,未知,未知,未知,未知,未知,未知,,未知
5,300443,103533365.35,103533365.35,2015-09-30,三季度报告,103446154.40999998,2015,9,-0.8078671261771182,True,未知,未知,未知,未知,未知,未知,未知,未知
6,300443,145267746.87,145267746.87,2015-12-31,年度报告,139416456.46,2015,12,-0.845298359391438,True,未知,未知,未知,未知,未知,未知,未知,未知
7,300443,51858668.38000001,51858668.38000001,2016-03-31,一季度报告,51440948.01000001,2016,3,-0.47581746597878555,True,未知,未知,未知,未知,未知,未知,未知,未知
8,300443,87147358.26,87147358.26,2016-06-30,半年度报告,90154794.34,2016,6,-0.7743824464032308,True,未知,未知,未知,未知,未知,未知,未知,未知
9,300443,132502761.75000004,132502761.75000004,2016-09-30,三季度报告,134995538.48,2016,9,-0.8633033446545838,True,未知,未知,未知,未知,未知,未知,未知,未知
10,300443,209883568.91,209883568.91,2016-12-31,年度报告,213305343.75,2016,12,-0.9025753130688726,True,未知,未知,未知,未知,未知,未知,161000000.0,未知
11,300443,50789741.20999999,50789741.20999999,2017-03-31,一季度报告,50845637.73,2017,3,-0.7270916280322739,True,1.5203375059535793,True,0.04394423823795676,True,比例外推,257759998.60223985,227590000.0,227590000.0
12,300443,97234651.80999996,97234651.80999996,2017-06-30,半年度报告,96404381.29,2017,6,-0.837600759878731,True,未知,未知,未知,未知,未知,未知,239000000.0,未知
13,300443,126948081.51,126948081.51,2017-09-30,三季度报告,119958277.5,2017,9,-0.8931896620637796,True,0.4955655859429639,True,,False,平均增速,221559464.2208287,,221559464.2208287
14,300443,150277457.47,150277457.47,2017-12-31,年度报告,139808521.07,2017,12,-0.9325689722473283,True,0.7730294813477876,True,0.0,True,比例外推,150277457.47,185000000.0,185000000.0
15,300443,13323736.510000005,13323736.510000005,2018-03-31,一季度报告,11343576.630000005,2018,3,-0.7213479647103719,True,0.28812890735702146,True,0.09755521487404939,True,比例外推,44605102.99992009,187150000.0,187150000.0
16,300443,40069156.18999999,40069156.18999999,2018-06-30,半年度报告,34000355.29,2018,6,-0.8544483422673758,True,0.29753534078260324,True,0.16873883218484131,False,平均增速,71437271.37828772,155000000.0,155000000.0
17,300443,82635814.1,82635814.1,2018-09-30,三季度报告,75997679.39000002,2018,9,-0.8885161194115,True,0.07566653520133947,True,0.11372274492559686,False,平均增速,99769024.86882682,,99769024.86882682
18,300443,116343673.4,116343673.4,2018-12-31,年度报告,109925325.87,2018,12,-0.9058231021587166,True,0.15372715350946342,True,0.0,True,比例外推,116343673.4,未知,116343673.4
19,300443,34130459.980000004,34130459.980000004,2019-03-31,一季度报告,32796564.81,2019,3,0.06221439829419098,True,0.7404005271349474,True,0.1328182215185476,False,平均增速,212171502.89739656,177580000.0,177580000.0
20,300443,80709498.91000003,80709498.91000003,2019-06-30,半年度报告,77871613.35,2019,6,-0.646794040461175,True,0.5653680510936194,True,0.21571049216368332,False,平均增速,195020805.46780366,198533332.99999997,195020805.46780366
21,300443,139849570.17,139849570.17,2019-09-30,三季度报告,136534741.86999995,2019,9,-0.8287344910419415,True,0.3629944457941942,True,0.1306015888439095,False,平均增速,182554501.85583118,203569049.0,203569049.0
22,300443,205198565.91,205198565.91,2019-12-31,年度报告,202014950.96,2019,12,-0.8783546681447656,True,0.35393524074841065,True,0.0,True,比例外推,205198565.91,174750000.0,174750000.0
23,300443,61319961.27000002,61319961.27000002,2020-03-31,一季度报告,59359623.48999998,2020,3,-0.5853362431009347,True,0.06468908546987505,True,0.1539401256002355,False,平均增速,325464435.9531991,284500000.0,284500000.0
