,SECURITYCODE_x,NETPROFIT_x,PARENTNETPROFIT_x,REPORTDATE_x,REPORTTIMETYPE_x,KCFJCXSYJLR,Year,Month,managesituationChangeRate,managesituationGreatChange,historyprofitextroplaterate,ifhistoryprofitextroplate,IfprofitdisStableChangeRage,IfprofitdisStable,predicttype,predict,analyst_prediction,adj_prediction
0,300430,9305854.34,9305854.34,2014-03-31,一季度报告,,2014,3,未知,未知,未知,未知,未知,未知,未知,未知,未知,未知
1,300430,32526322.370000005,32526322.370000005,2014-09-30,三季度报告,,2014,9,未知,未知,未知,未知,未知,未知,未知,未知,未知,未知
2,300430,52077964.20999999,52077964.20999999,2014-12-31,年度报告,50233137.32,2014,12,未知,未知,未知,未知,未知,未知,未知,未知,未知,未知
3,300430,10691889.420000002,10691889.420000002,2015-03-31,一季度报告,8532552.84,2015,3,0.0,True,未知,未知,未知,未知,未知,未知,59189667.0,未知
4,300430,30399632.93,30399632.93,2015-06-30,半年度报告,27668787.78999999,2015,6,未知,未知,未知,未知,未知,未知,未知,未知,60545000.0,未知
5,300430,34728898.7,34728898.7,2015-09-30,三季度报告,31682556.81,2015,9,-0.7138977399860285,True,未知,未知,未知,未知,未知,未知,61080000.0,未知
6,300430,53592474.05,53592474.05,2015-12-31,年度报告,48815307.39999999,2015,12,-0.8213091759410001,True,未知,未知,未知,未知,未知,未知,未知,未知
7,300430,11231299.66,11231299.66,2016-03-31,一季度报告,10949928.04,2016,3,-0.12963425130522924,True,未知,未知,未知,未知,未知,未知,65010000.0,未知
8,300430,30749988.72000001,30749988.72000001,2016-06-30,半年度报告,30296695.72000001,2016,6,-0.6938826741287234,True,未知,未知,未知,未知,未知,未知,64500000.0,未知
9,300430,36012619.79000001,36012619.79000001,2016-09-30,三季度报告,35294958.22000001,2016,9,-0.7320429184816045,True,未知,未知,未知,未知,未知,未知,63506667.0,未知
10,300430,53737716.76000001,53737716.76000001,2016-12-31,年度报告,51356687.00000001,2016,12,-0.8263589336943477,True,未知,未知,未知,未知,未知,未知,,未知
11,300430,11421250.81,11421250.81,2017-03-31,一季度报告,10898428.400000002,2017,3,-0.17143566446343042,True,0.12325668283290367,True,,False,平均增速,51973774.51952839,121535000.0,121535000.0
12,300430,34395643.47000001,34645296.38000001,2017-06-30,半年度报告,33089927.039999995,2017,6,-0.6973704795557403,True,未知,未知,未知,未知,未知,未知,113000000.0,未知
13,300430,40550354.61000001,41186634.66,2017-09-30,三季度报告,39192236.58999999,2017,9,-0.7415946300417707,True,0.07092413695340195,True,,False,平均增速,58230845.908768274,120965000.0,120965000.0
14,300430,88930685.87,89601428.10000001,2017-12-31,年度报告,83942413.60999998,2017,12,-0.826828252090404,True,0.01708136437892763,True,0.0,True,比例外推,89601428.10000001,107643333.0,107643333.0
15,300430,11801571.7,11965336.550000004,2018-03-31,一季度报告,11972277.430000005,2018,3,-0.18521583189013258,True,0.041933339928115924,True,0.042780482967347794,True,比例外推,69352257.32964692,127300000.0,127300000.0
16,300430,49030541.30000001,48241793.71000001,2018-06-30,半年度报告,47595655.32,2018,6,-0.7294467147237238,True,0.1249666814577915,True,0.12277888649474622,False,平均增速,118968769.4963254,,118968769.4963254
17,300430,61738110.79,61111934.81999999,2018-09-30,三季度报告,59409489.60999999,2018,9,-0.7705111476952384,True,0.14643721185408784,True,0.1341639824205601,False,平均增速,125085178.75550365,未知,125085178.75550365
18,300430,103901639.99,102304940.61,2018-12-31,年度报告,98929988.08000004,2018,12,-0.8953583428603776,True,0.657142043610609,True,0.0,True,比例外推,102304940.61,101000000.0,102304940.61
19,300430,14463304.08,14381433.270000005,2019-03-31,一季度报告,13972710.26,2019,3,-0.21147330401763348,True,0.04196405748036723,True,0.05852556464683614,True,比例外推,90737225.20596689,121475000.0,121475000.0
20,300430,44983093.57,44273854.01000001,2019-06-30,半年度报告,42625532.06,2019,6,-0.8102029042865165,True,0.5052595132395166,True,0.10151720121769175,False,平均增速,103362191.01414376,,103362191.01414376
21,300430,55799508.92,54127760.08999999,2019-09-30,三季度报告,52078141.72,2019,9,-0.8492688839855574,True,0.6127406562721,True,0.11799444939674747,False,平均增速,99242748.99970205,未知,99242748.99970205
22,300430,83266718.0,81391942.86,2019-12-31,年度报告,77724698.13999999,2019,12,-0.9104359243906482,True,0.45654732336859805,True,0.0,True,比例外推,81391942.86,未知,81391942.86
23,300430,-21387867.800000004,-20682028.95,2020-03-31,一季度报告,-21605883.0,2020,3,-0.3565886267392921,True,0.24561121489620352,True,0.036231251799912406,True,比例外推,-149597239.92671627,未知,-149597239.92671627
