,SECURITYCODE_x,NETPROFIT_x,PARENTNETPROFIT_x,REPORTDATE_x,REPORTTIMETYPE_x,KCFJCXSYJLR,Year,Month,managesituationChangeRate,managesituationGreatChange,historyprofitextroplaterate,ifhistoryprofitextroplate,IfprofitdisStableChangeRage,IfprofitdisStable,predicttype,predict,analyst_prediction,adj_prediction
0,300467,15922837.199999996,16343800.1,2014-03-31,一季度报告,14966660.94,2014,3,未知,未知,未知,未知,未知,未知,未知,未知,未知,未知
1,300467,29381701.599999994,30571474.03,2014-06-30,半年度报告,29193213.95000001,2014,6,未知,未知,未知,未知,未知,未知,未知,未知,未知,未知
2,300467,43803893.18,45944728.06,2014-09-30,三季度报告,,2014,9,未知,未知,未知,未知,未知,未知,未知,未知,未知,未知
3,300467,56909350.79,60175150.46,2014-12-31,年度报告,58719730.82,2014,12,未知,未知,未知,未知,未知,未知,未知,未知,未知,未知
4,300467,15442343.41,16765913.97,2015-03-31,一季度报告,16765876.94,2015,3,0.0,True,未知,未知,未知,未知,未知,未知,76415000.0,未知
5,300467,27476035.92,30515236.009999994,2015-06-30,半年度报告,30513233.35,2015,6,-0.45806960342963937,True,未知,未知,未知,未知,未知,未知,,未知
6,300467,40281293.33000001,45007800.14,2015-09-30,三季度报告,44630239.16,2015,9,-0.6364972141957909,True,未知,未知,未知,未知,未知,未知,86400000.0,未知
7,300467,56282586.1,59364803.63999999,2015-12-31,年度报告,55439521.52999999,2015,12,-0.7202070138041722,True,未知,未知,未知,未知,未知,未知,未知,未知
8,300467,17013986.750000004,17511143.339999996,2016-03-31,一季度报告,14225127.88,2016,3,0.03111534158014139,True,未知,未知,未知,未知,未知,未知,87375000.0,未知
9,300467,15090510.22,20254262.34,2016-06-30,半年度报告,14774787.27,2016,6,-0.42048273461421526,True,未知,未知,未知,未知,未知,未知,77530670.0,未知
10,300467,26887280.8,35590740.79,2016-09-30,三季度报告,27381262.000000004,2016,9,-0.6047088888245488,True,未知,未知,未知,未知,未知,未知,66466667.0,未知
11,300467,20577438.59,39115094.43999999,2016-12-31,年度报告,26287411.14,2016,12,-0.7170912301060737,True,未知,未知,未知,未知,未知,未知,62700000.0,未知
12,300467,13144644.880000005,15610207.039999995,2017-03-31,一季度报告,12982159.379999995,2017,3,-0.06413250263052003,True,0.08489646283595917,True,0.17499213561490584,False,平均增速,25391346.293497294,52200000.0,52200000.0
13,300467,27147515.79,30789839.86,2017-06-30,半年度报告,26475096.16,2017,6,0.05515565530030136,True,0.4691835842151884,True,0.039370642801827394,True,比例外推,53659551.70482892,151546250.0,151546250.0
14,300467,47285207.9,50430867.14,2017-09-30,三季度报告,45311215.03,2017,9,-0.4077929516769879,True,0.36047520577712294,True,,False,平均增速,49137948.29291636,215705978.0,215705978.0
15,300467,100754544.75,102400777.84,2017-12-31,年度报告,95918802.22000004,2017,12,-0.2261992604007574,True,0.636415116564404,True,0.0,True,比例外推,102400777.84,209077173.0,209077173.0
16,300467,55931703.75000001,51845395.94000001,2018-03-31,一季度报告,52264714.01000001,2018,3,0.2113554489575522,True,0.19001040381331868,True,0.21483803331469897,False,平均增速,304279410.9327041,362982221.99999994,362982221.99999994
17,300467,112989002.72,103668314.97,2018-06-30,半年度报告,102789110.64,2018,6,-0.41346982452570125,True,0.2755329361566096,True,0.1868014485327213,False,平均增速,310054645.7346953,322322000.0,310054645.7346953
18,300467,185036603.66,172129054.02,2018-09-30,三季度报告,169136969.57,2018,9,-0.6632596554577062,True,0.4079562805213889,True,0.30061804781586837,False,平均增速,318746580.6827836,314621667.0,318746580.6827836
19,300467,-802805742.9399999,-790353914.33,2018-12-31,年度报告,-736828476.4600003,2018,12,-0.8419640797394403,True,1.62176717107167,True,0.0,True,比例外推,-790353914.33,314621667.0,314621667.0
20,300467,81384988.82000002,72463483.72999999,2019-03-31,一季度报告,40912131.85000001,2019,3,-0.7153164282073208,True,2.7091672086582657,False,0.3392878376416092,False,未知,未知,,未知
21,300467,125523657.09999998,105021817.76,2019-06-30,半年度报告,69880062.72000001,2019,6,-0.859076221431402,True,4.350108108425781,False,0.3723559664747732,False,未知,未知,未知,未知
22,300467,153757383.36999995,117794659.56,2019-09-30,三季度报告,88688635.04,2019,9,-0.9139476358458363,True,3.9893594485794837,False,0.6576990445641338,False,未知,未知,未知,未知
23,300467,-1162087916.9799998,-1186213568.7699995,2019-12-31,年度报告,-1535960968.1699998,2019,12,-1.019833985170171,False,14.233208933712957,False,0.0,True,去年同期,-1186213568.7699995,221020000.0,221020000.0
24,300467,37597533.34,21360989.23,2020-03-31,一季度报告,20435424.57,2020,3,-0.8043516693819706,True,1.3563778466615226,True,0.12275292709003263,False,平均增速,2689177990.815349,未知,2689177990.815349
