,SECURITYCODE_x,NETPROFIT_x,PARENTNETPROFIT_x,REPORTDATE_x,REPORTTIMETYPE_x,KCFJCXSYJLR,Year,Month,managesituationChangeRate,managesituationGreatChange,historyprofitextroplaterate,ifhistoryprofitextroplate,IfprofitdisStableChangeRage,IfprofitdisStable,predicttype,predict,analyst_prediction,adj_prediction
0,300498,1368670502.4199998,1253201007.38,2014-09-30,三季度报告,,2014,9,未知,未知,未知,未知,未知,未知,未知,未知,未知,未知
1,300498,2993993430.499999,2688944845.37,2014-12-31,年度报告,2488501836.01,2014,12,未知,未知,未知,未知,未知,未知,未知,未知,未知,未知
2,300498,575770248.4599999,575770248.4599999,2015-03-31,一季度报告,560860573.3600001,2015,3,未知,未知,未知,未知,未知,未知,未知,未知,未知,未知
3,300498,1848748596.7100003,1680147614.34,2015-06-30,半年度报告,1405619566.93,2015,6,未知,未知,未知,未知,未知,未知,未知,未知,未知,未知
4,300498,5160726032.9,4817729097.75,2015-09-30,三季度报告,4661940500.0,2015,9,0.0,True,未知,未知,未知,未知,未知,未知,6342500000.0,未知
5,300498,6636476887.23,6205366551.209999,2015-12-31,年度报告,6122377007.88,2015,12,-0.5428612205767496,True,未知,未知,未知,未知,未知,未知,未知,未知
6,300498,3212308706.03,3092335709.270001,2016-03-31,一季度报告,3095128946.82,2016,3,1.3771122354459142,False,未知,未知,未知,未知,未知,未知,12998307273.0,未知
7,300498,7577607673.129998,7226610442.580002,2016-06-30,半年度报告,7190578141.33,2016,6,-0.2596773272170909,True,未知,未知,未知,未知,未知,未知,14239696250.0,未知
8,300498,11324773552.95,10837096827.65,2016-09-30,三季度报告,10812861036.809998,2016,9,-0.7347910945679683,True,未知,未知,未知,未知,未知,未知,13410380000.0,未知
9,300498,12237923696.389996,11789879274.56,2016-12-31,年度报告,11833706375.33,2016,12,-0.7937654985202142,True,未知,未知,未知,未知,未知,未知,13404927000.0,未知
10,300498,1471726253.2499998,1473219768.2099998,2017-03-31,一季度报告,1353927502.7800002,2017,3,-0.5739293362898797,True,未知,未知,未知,未知,未知,未知,10347710000.0,未知
11,300498,1794035106.58,1810210513.73,2017-06-30,半年度报告,1657694735.41,2017,6,-0.8193796035029274,True,未知,未知,未知,未知,未知,未知,5363692226.0,未知
12,300498,4118795048.24,4038867820.270001,2017-09-30,三季度报告,3821779008.9900007,2017,9,-0.8791436759401274,True,2.4688576476217903,False,,False,未知,未知,6168125333.0,未知
13,300498,6999027961.43,6751119026.040001,2017-12-31,年度报告,6576975194.000001,2017,12,-0.888161543054584,True,1.5415007351945402,True,0.0,True,比例外推,6751119026.040001,6268411250.0,6751119026.040001
14,300498,1484408326.3199995,1408386480.6799994,2018-03-31,一季度报告,1337463822.71,2018,3,-0.0700237225519507,True,0.22296959966709964,True,0.09473134346377768,True,比例外推,7248481711.176773,6038860000.0,6038860000.0
15,300498,1010319709.12,917334013.54,2018-06-30,半年度报告,879002869.77,2018,6,-0.237099375926305,True,0.6193576700850812,True,0.2445460956604968,False,平均增速,5282158656.71229,4156129444.0,4156129444.0
16,300498,3098908129.0599995,2899873642.52,2018-09-30,三季度报告,2810240361.71,2018,9,-0.6677012363106424,True,0.5003129839297943,True,0.1710080431556723,False,平均增速,5627028658.983953,4913103125.0,4913103125.0
17,300498,4256123421.35,3957435270.5099993,2018-12-31,年度报告,3912930781.8,2018,12,-0.8044484877096617,True,0.2583575907036694,True,0.0,True,比例外推,3957435270.5099993,4887638235.0,4887638235.0
18,300498,-454934979.97,-460457980.31999993,2019-03-31,一季度报告,-737765477.47,2019,3,-0.07796899400781829,True,0.3661839250883075,True,0.07206722351187306,True,比例外推,-2457801874.033217,10779718421.0,10779718421.0
19,300498,1442326830.11,1382933353.2400002,2019-06-30,半年度报告,630039640.6,2019,6,0.3546904906092819,True,0.7843879172801198,True,0.2461949929062892,False,平均增速,3343047715.694703,11712350386.0,11712350386.0
20,300498,6331421001.9800005,6085005458.299999,2019-09-30,三季度报告,5135898024.09,2019,9,-0.5583378256408129,True,0.598679785859699,True,0.1760634587687553,False,平均增速,7409848799.106628,12986338824.0,12986338824.0
21,300498,14444503680.600002,13967204890.300005,2019-12-31,年度报告,13053799823.240005,2019,12,-0.6784232112362308,True,0.557505420083556,True,0.0,True,比例外推,13967204890.300005,12857486667.0,13967204890.300005
22,300498,1885580738.02,1892158223.03,2020-03-31,一季度报告,1982160185.11,2020,3,-4.00849695600513,False,1.3077904389834478,True,0.22023314616422443,False,前期平均,5791415548.184999,28449111959.0,28449111959.0
