,SECURITYCODE_x,NETPROFIT_x,PARENTNETPROFIT_x,REPORTDATE_x,REPORTTIMETYPE_x,KCFJCXSYJLR,Year,Month,managesituationChangeRate,managesituationGreatChange,historyprofitextroplaterate,ifhistoryprofitextroplate,IfprofitdisStableChangeRage,IfprofitdisStable,predicttype,predict,analyst_prediction,adj_prediction
0,300416,-1714827.7400000002,-1296269.5100000002,2014-03-31,一季度报告,,2014,3,未知,未知,未知,未知,未知,未知,未知,未知,未知,未知
1,300416,41837694.57,39791283.29999999,2014-12-31,年度报告,36390225.44,2014,12,未知,未知,未知,未知,未知,未知,未知,未知,未知,未知
2,300416,1905289.47,1798020.89,2015-03-31,一季度报告,-54111.79000000001,2015,3,-0.0,False,未知,未知,未知,未知,未知,未知,,未知
3,300416,18755519.32,16937190.43,2015-06-30,半年度报告,14400325.020000005,2015,6,未知,未知,未知,未知,未知,未知,未知,未知,50934000.0,未知
4,300416,28301131.89,25541300.55000001,2015-09-30,三季度报告,22021021.64,2015,9,未知,未知,未知,未知,未知,未知,未知,未知,48976667.0,未知
5,300416,53384357.21,48419343.75,2015-12-31,年度报告,43553993.22,2015,12,-1.040987625098005,False,未知,未知,未知,未知,未知,未知,51617200.0,未知
6,300416,143061.12,-363020.22,2016-03-31,一季度报告,-620442.21,2016,3,-1.900035279153671,False,未知,未知,未知,未知,未知,未知,64432857.0,未知
7,300416,22702444.74,19612121.36,2016-06-30,半年度报告,18754742.45,2016,6,-1.0914305656240288,False,未知,未知,未知,未知,未知,未知,63487143.0,未知
8,300416,34079468.72000001,30296569.32,2016-09-30,三季度报告,29005009.46,2016,9,-1.06059219633565,False,未知,未知,未知,未知,未知,未知,62212000.0,未知
9,300416,60832499.16999999,53973818.14,2016-12-31,年度报告,49838463.20999999,2016,12,-1.0321222888055825,False,未知,未知,未知,未知,未知,未知,61302857.0,未知
10,300416,-1121045.66,-1474741.76,2017-03-31,一季度报告,-2194079.73,2017,3,-12.98667912008518,False,0.5022558075052682,True,,False,前期平均,,80507500.0,
11,300416,26706242.4,23121740.64,2017-06-30,半年度报告,22343439.12,2017,6,-1.0755349373003253,False,未知,未知,未知,未知,未知,未知,74600000.0,未知
12,300416,42429947.42,37738923.06,2017-09-30,三季度报告,35705707.13999999,2017,9,-1.0503184998008386,False,未知,未知,未知,未知,未知,未知,67800000.0,未知
13,300416,69530963.47000001,61281642.91999999,2017-12-31,年度报告,55329916.75,2017,12,-1.0281893356905791,False,0.27769771881300637,True,0.0,True,前期平均,61281642.91999999,72305000.0,72305000.0
14,300416,2627120.7800000003,2475035.94,2018-03-31,一季度报告,1674699.15,2018,3,0.529668060085974,False,2.0945837743528077,False,0.02187250422370606,True,盈利变化,66440014.75999999,86150000.0,86150000.0
15,300416,33730189.13,29883452.74,2018-06-30,半年度报告,25173824.19,2018,6,-1.064210745724378,False,0.28835281739110064,True,0.03962316740471872,True,前期平均,60002147.21999999,84851667.0,84851667.0
16,300416,51717676.55,45774255.53,2018-09-30,三季度报告,39945671.3,2018,9,-1.0404155047147594,False,0.3603571304248778,True,0.07203283034780594,True,前期平均,66957468.19499999,,66957468.19499999
17,300416,85953472.92000002,71957880.61,2018-12-31,年度报告,60619595.18,2018,12,-1.0246627927245662,False,0.2175254279223057,True,0.0,True,前期平均,71957880.61,95000000.0,95000000.0
18,300416,1486120.35,3415837.37,2019-03-31,一季度报告,1750808.29,2019,3,-1.652740350978458,False,-6.3725200604909364,True,0.0357854295062985,True,前期平均,57407288.31999999,93950000.0,93950000.0
19,300416,37400383.8,35020187.86,2019-06-30,半年度报告,31022339.059999995,2019,6,-1.0508395530600454,False,0.36535459986723307,True,0.022158722682810383,True,前期平均,67055287.05499999,91208000.0,91208000.0
20,300416,59296172.94,54426183.1,2019-09-30,三季度报告,46874321.28999999,2019,9,-1.0331574783399662,False,0.35192971425542985,True,0.04677309982484812,True,前期平均,74655014.78,90010000.0,90010000.0
21,300416,102401225.09,87298238.46000001,2019-12-31,年度报告,71910991.3,2019,12,-1.0199506509945915,False,0.3186742846400358,True,0.0,True,前期平均,87298238.46000001,89864286.0,87298238.46000001
22,300416,-241708.91,-1168290.4600000002,2020-03-31,一季度报告,-6303851.27,2020,3,-2.1538956047536795,False,0.9735009632188861,True,0.043760743412127816,True,盈利变化,76558692.38000001,129644444.0,129644444.0
