,SECURITYCODE_x,NETPROFIT_x,PARENTNETPROFIT_x,REPORTDATE_x,REPORTTIMETYPE_x,KCFJCXSYJLR,Year,Month,managesituationChangeRate,managesituationGreatChange,historyprofitextroplaterate,ifhistoryprofitextroplate,IfprofitdisStableChangeRage,IfprofitdisStable,predicttype,predict,analyst_prediction,adj_prediction
0,300474,82184899.91999999,82184899.91999999,2014-12-31,年度报告,79524385.47,2014,12,未知,未知,未知,未知,未知,未知,未知,未知,未知,未知
1,300474,-1385812.42,-1385812.42,2015-03-31,一季度报告,-3316933.3699999987,2015,3,未知,未知,未知,未知,未知,未知,未知,未知,未知,未知
2,300474,41383243.81,41383243.81,2015-06-30,半年度报告,39500308.32000001,2015,6,未知,未知,未知,未知,未知,未知,未知,未知,未知,未知
3,300474,75411564.52,75411564.52,2015-09-30,三季度报告,,2015,9,未知,未知,未知,未知,未知,未知,未知,未知,未知,未知
4,300474,88954788.77,88954788.77,2015-12-31,年度报告,85710936.83999999,2015,12,0.0,True,未知,未知,未知,未知,未知,未知,未知,未知
5,300474,23078714.579999994,23078714.579999994,2016-03-31,一季度报告,21671908.71,2016,3,-60.30449080547279,False,未知,未知,未知,未知,未知,未知,116208571.0,未知
6,300474,53583193.50000001,53583193.50000001,2016-06-30,半年度报告,51944550.01,2016,6,0.9859462998437188,False,未知,未知,未知,未知,未知,未知,118920000.0,未知
7,300474,90969047.13,90969047.13,2016-09-30,三季度报告,89443241.26,2016,9,0.08981825855374777,True,未知,未知,未知,未知,未知,未知,111000000.0,未知
8,300474,105286507.51,105286507.51,2016-12-31,年度报告,95779740.7,2016,12,-0.07610482744784117,True,未知,未知,未知,未知,未知,未知,,未知
9,300474,13055101.37,13055101.37,2017-03-31,一季度报告,13225916.43,2017,3,2.5610692109872266,False,未知,未知,未知,未知,未知,未知,134028000.0,未知
10,300474,55705248.11,55705248.11,2017-06-30,半年度报告,55852355.18000001,2017,6,0.5337812950622284,False,未知,未知,未知,未知,未知,未知,137055000.0,未知
11,300474,93912466.84,93912466.84,2017-09-30,三季度报告,93397914.73,2017,9,-0.09656193493427448,True,未知,未知,未知,未知,未知,未知,130983750.0,未知
12,300474,118829352.75,118829352.75,2017-12-31,年度报告,106733793.39000002,2017,12,-0.21941660081949105,True,0.23041602232565106,True,0.0,True,比例外推,118829352.75,131838571.0,118829352.75
13,300474,14059754.14,14059754.14,2018-03-31,一季度报告,14307716.14,2018,3,5.295232613731899,False,0.2036288435461234,True,0.14252710421269704,False,前期平均,95627605.24,,95627605.24
14,300474,62279161.38,62279161.38,2018-06-30,半年度报告,58583098.62000001,2018,6,0.4753529103346092,True,0.1731565316736214,True,0.04797000712817634,True,比例外推,118830156.32262546,145570000.0,145570000.0
15,300474,98680955.44,98680955.44,2018-09-30,三季度报告,94470977.76999998,2018,9,-0.12487763674635911,True,0.12888714506658105,True,,False,平均增速,112866394.22346278,144452000.0,144452000.0
16,300474,142287052.35,142287052.35,2018-12-31,年度报告,137334277.42,2018,12,-0.30837879683729924,True,0.2235230615296839,True,0.0,True,比例外推,142287052.35,144282500.0,142287052.35
17,300474,20580323.86,20580323.86,2019-03-31,一季度报告,19473883.86,2019,3,4.845400929606866,False,0.22179522033016819,True,0.07481323829446707,True,前期平均,104388178.33500001,196925556.0,196925556.0
18,300474,76806503.17,76806503.17,2019-06-30,半年度报告,74487580.17,2019,6,0.31962117181610616,True,0.13972091581734825,True,0.07082461226841807,True,比例外推,152073513.8586803,182934444.0,182934444.0
19,300474,123062344.81,123062344.81,2019-09-30,三季度报告,114388560.76000004,2019,9,-0.1671655432038246,True,0.06750483940771462,True,0.14437209852004174,False,平均增速,174741895.20599544,178397692.0,174741895.20599544
20,300474,175966098.04999998,175966098.04999998,2019-12-31,年度报告,163779044.62,2019,12,-0.4224007134687123,True,0.2697633463774564,True,0.0,True,比例外推,175966098.04999998,180072857.0,175966098.04999998
21,300474,25470853.44,25470853.44,2020-03-31,一季度报告,25050515.59,2020,3,2.993372528006466,False,0.5180109554638745,True,0.011485003641938787,True,前期平均,133738072.56,274567000.0,274567000.0
