,SECURITYCODE_x,NETPROFIT_x,PARENTNETPROFIT_x,REPORTDATE_x,REPORTTIMETYPE_x,KCFJCXSYJLR,Year,Month,managesituationChangeRate,managesituationGreatChange,historyprofitextroplaterate,ifhistoryprofitextroplate,IfprofitdisStableChangeRage,IfprofitdisStable,predicttype,predict,analyst_prediction,adj_prediction
0,300409,7070594.54,7070594.54,2014-03-31,一季度报告,,2014,3,未知,未知,未知,未知,未知,未知,未知,未知,未知,未知
1,300409,72281107.31,72281107.31,2014-12-31,年度报告,71553316.88999999,2014,12,未知,未知,未知,未知,未知,未知,未知,未知,未知,未知
2,300409,8508871.299999999,8508871.299999999,2015-03-31,一季度报告,8290081.3,2015,3,0.0,True,未知,未知,未知,未知,未知,未知,100427500.0,未知
3,300409,38763652.18999999,38820305.08,2015-06-30,半年度报告,38548635.12,2015,6,未知,未知,未知,未知,未知,未知,未知,未知,89000000.0,未知
4,300409,49807224.36,49912387.05,2015-09-30,三季度报告,49739628.86000001,2015,9,未知,未知,未知,未知,未知,未知,未知,未知,78000000.0,未知
5,300409,50904607.13999999,50911981.56,2015-12-31,年度报告,50552339.26000001,2015,12,-0.9021792166288273,True,未知,未知,未知,未知,未知,未知,,未知
6,300409,9350016.14,9386835.76,2016-03-31,一季度报告,9345283.13,2016,3,-0.16903261423169005,True,未知,未知,未知,未知,未知,未知,118500000.0,未知
7,300409,47355753.16,47409823.41,2016-06-30,半年度报告,46580967.12,2016,6,-0.8175973072572345,True,未知,未知,未知,未知,未知,未知,124395000.0,未知
8,300409,84428110.92999999,82717025.4,2016-09-30,三季度报告,81314773.39999999,2016,9,-0.8580407836241851,True,未知,未知,未知,未知,未知,未知,123067500.0,未知
9,300409,105224912.71999998,101146488.88,2016-12-31,年度报告,100740793.90000004,2016,12,-0.8611010881479911,True,未知,未知,未知,未知,未知,未知,121454000.0,未知
10,300409,19101210.56,16913392.84,2017-03-31,一季度报告,16376591.87,2017,3,-0.2437879855895094,True,0.20029996355767235,True,,False,平均增速,158669728.9717456,194200000.0,194200000.0
11,300409,72902244.37,68317532.02000001,2017-06-30,半年度报告,64272582.46000001,2017,6,-0.8506919631050801,True,未知,未知,未知,未知,未知,未知,231853332.99999997,未知
12,300409,141075878.32,111034688.76000004,2017-09-30,三季度报告,107532733.34000002,2017,9,-0.916253076586514,True,未知,未知,未知,未知,未知,未知,198633332.99999997,未知
13,300409,209887834.41000003,152119490.94,2017-12-31,年度报告,145806195.55,2017,12,-0.9328049379445472,True,0.7083947305060257,True,0.0,True,比例外推,152119490.94,173000000.0,173000000.0
14,300409,120491595.12,65079669.66,2018-03-31,一季度报告,61535419.74,2018,3,-0.6298352652681297,True,1.1391265972389153,True,0.040965655316194574,True,比例外推,503732959.61572134,394536667.0,394536667.0
15,300409,255462847.47000003,140714701.68,2018-06-30,半年度报告,131693200.62,2018,6,-0.9030126630379899,True,0.6930503426891117,True,0.207301770084643,False,平均增速,294366851.6435933,535000000.0,535000000.0
16,300409,375690330.93,212329747.31,2018-09-30,三季度报告,202427448.65000004,2018,9,-0.9498809107254899,True,1.101918664191091,True,0.14105797944761966,False,平均增速,281270659.5781092,321000000.0,321000000.0
17,300409,385141151.19,220048731.12,2018-12-31,年度报告,206632943.96000004,2018,12,-0.9663125089652023,True,1.6886374158865622,True,0.0,True,比例外推,220048731.12,321000000.0,321000000.0
18,300409,-85558723.88,-84627658.36000003,2019-03-31,一季度报告,-86652929.22000003,2019,3,-0.9413187738700093,True,7.470045695428662,False,0.13017269627303107,False,未知,未知,391000000.0,未知
19,300409,-65772046.31000002,-64139121.8,2019-06-30,半年度报告,-69448540.75,2019,6,-0.972322415529208,True,3.2485797654542075,False,0.1238218851213917,False,未知,未知,31010000.0,未知
20,300409,-14959024.73,-12662668.3,2019-09-30,三季度报告,-15511267.93,2019,9,-0.9811797271372484,True,2.3320060738570727,False,0.1382073936129703,False,未知,未知,41692000.0,未知
21,300409,20296812.96,24001010.44,2019-12-31,年度报告,6227404.36,2019,12,-0.9816415500702704,True,1.44446570123112,True,0.0,True,比例外推,24001010.44,41692000.0,41692000.0
22,300409,6277782.400000001,8384179.6400000015,2020-03-31,一季度报告,5516598.57,2020,3,-1.0826402524413155,False,2.2258328566893804,False,9.413222581040671,False,前期平均,145647743.59000003,157486000.0,145647743.59000003
