,SECURITYCODE_x,NETPROFIT_x,PARENTNETPROFIT_x,REPORTDATE_x,REPORTTIMETYPE_x,KCFJCXSYJLR,Year,Month,managesituationChangeRate,managesituationGreatChange,historyprofitextroplaterate,ifhistoryprofitextroplate,IfprofitdisStableChangeRage,IfprofitdisStable,predicttype,predict,analyst_prediction,adj_prediction
0,300499,35404318.57,35404318.57,2012-12-31,年度报告,34030000.00000001,2012,12,未知,未知,未知,未知,未知,未知,未知,未知,未知,未知
1,300499,41524199.44000001,41804542.40000001,2013-12-31,年度报告,40075977.14,2013,12,0.0,True,未知,未知,未知,未知,未知,未知,未知,未知
2,300499,17973699.96,18209352.05,2014-09-30,三季度报告,,2014,9,未知,未知,未知,未知,未知,未知,未知,未知,未知,未知
3,300499,47337070.74,47649305.23,2014-12-31,年度报告,45051547.76000001,2014,12,-0.14738106820922278,True,未知,未知,未知,未知,未知,未知,未知,未知
4,300499,-4781908.89,-4687372.550000002,2015-03-31,一季度报告,-6233023.11,2015,3,未知,未知,未知,未知,未知,未知,未知,未知,未知,未知
5,300499,14124696.679999998,14307517.2,2015-06-30,半年度报告,11857764.22,2015,6,未知,未知,未知,未知,未知,未知,未知,未知,未知,未知
6,300499,50907889.31,50934159.88,2015-12-31,年度报告,46115977.49,2015,12,-0.25208049385947284,True,0.2306767883880619,True,0.0,True,比例外推,50934159.88,未知,50934159.88
7,300499,-3545786.76,-3474876.51,2016-03-31,一季度报告,-3368939.729999998,2016,3,-8.403804502431665,False,未知,未知,未知,未知,未知,未知,84086667.0,未知
8,300499,19433131.44,19514837.9,2016-06-30,半年度报告,17713455.32,2016,6,1.506554255436231,False,未知,未知,未知,未知,未知,未知,80112600.0,未知
9,300499,22892371.05,23049050.16,2016-09-30,三季度报告,17300584.86,2016,9,未知,未知,未知,未知,未知,未知,未知,未知,63720000.0,未知
10,300499,57019105.38,57243324.32999999,2016-12-31,年度报告,46934733.23,2016,12,-0.3045416132967545,True,0.14578351641563264,True,0.0,True,比例外推,57243324.32999999,76249500.0,76249500.0
11,300499,-5403453.470000002,-5332837.73,2017-03-31,一季度报告,-6373774.32,2017,3,-10.984897842531286,False,未知,未知,未知,未知,未知,未知,72300000.0,未知
12,300499,12820347.510000002,12912790.04,2017-06-30,半年度报告,7179223.329999999,2017,6,0.821853502062249,False,未知,未知,未知,未知,未知,未知,,未知
13,300499,26928748.099999994,26744990.120000005,2017-09-30,三季度报告,18380276.68,2017,9,0.5465553346428045,False,未知,未知,未知,未知,未知,未知,未知,未知
14,300499,41447425.33000001,41255413.09,2017-12-31,年度报告,27133075.88000001,2017,12,-0.3790797253999288,True,0.16075380052027402,True,0.0,True,比例外推,41255413.09,,41255413.09
15,300499,-8258946.23,-8258946.23,2018-03-31,一季度报告,-9359637.79,2018,3,-7.552164974967386,False,-0.2977067599726707,True,0.087625618835391,True,前期平均,43067390.55,未知,43067390.55
16,300499,18338389.12,18338389.12,2018-06-30,半年度报告,11296534.240000002,2018,6,1.7615724567828033,False,0.23592507452177733,True,0.07769666086543531,True,前期平均,50078134.71000001,未知,50078134.71000001
17,300499,35082694.83,35082694.83,2018-09-30,三季度报告,21007772.1,2018,9,0.31474060504134643,True,未知,未知,未知,未知,未知,未知,未知,未知
18,300499,57487884.15000001,57487884.15000001,2018-12-31,年度报告,40221912.97000001,2018,12,-0.14580174068438356,True,0.23193589427649772,True,0.0,True,比例外推,57487884.15000001,未知,57487884.15000001
19,300499,1281201.62,1281201.62,2019-03-31,一季度报告,-1154637.22,2019,3,-5.286784001740618,False,-0.8457312615911307,True,0.10801646399978954,False,盈利变化,68427884.91000001,77000000.0,77000000.0
20,300499,25255070.06000001,25255070.06000001,2019-06-30,半年度报告,20948528.34,2019,6,0.9306122439831835,False,0.13714177304274952,True,0.06978798603784814,True,前期平均,49842635.290000014,,49842635.290000014
21,300499,35736997.050000004,35736997.050000004,2019-09-30,三季度报告,28825446.18,2019,9,0.0091675893644571,True,0.4083463169253196,True,0.15463943014150405,False,平均增速,58816837.44419895,未知,58816837.44419895
22,300499,54653530.24999999,53692818.95000001,2019-12-31,年度报告,40014962.31999999,2019,12,-0.38414295301560525,True,0.16766344331377345,True,0.0,True,比例外推,53692818.95000001,未知,53692818.95000001
23,300499,4015053.7,2517565.5500000003,2020-03-31,一季度报告,1581382.52,2020,3,26.633682331747284,False,-1.187551476773147,True,0.13663253620194124,False,前期平均,44061766.03,106000000.0,106000000.0
