,SECURITYCODE_x,NETPROFIT_x,PARENTNETPROFIT_x,REPORTDATE_x,REPORTTIMETYPE_x,KCFJCXSYJLR,Year,Month,managesituationChangeRate,managesituationGreatChange,historyprofitextroplaterate,ifhistoryprofitextroplate,IfprofitdisStableChangeRage,IfprofitdisStable,predicttype,predict,analyst_prediction,adj_prediction
0,300489,32020087.15,32020087.15,2012-12-31,年度报告,31047587.15,2012,12,未知,未知,未知,未知,未知,未知,未知,未知,未知,未知
1,300489,6843257.2200000025,6843257.2200000025,2014-03-31,一季度报告,,2014,3,未知,未知,未知,未知,未知,未知,未知,未知,未知,未知
2,300489,24360595.820000004,24360595.820000004,2014-06-30,半年度报告,23275281.21,2014,6,未知,未知,未知,未知,未知,未知,未知,未知,未知,未知
3,300489,28293711.86,28293711.86,2014-09-30,三季度报告,,2014,9,未知,未知,未知,未知,未知,未知,未知,未知,未知,未知
4,300489,36011583.24999999,36011583.24999999,2014-12-31,年度报告,34682956.13999999,2014,12,未知,未知,未知,未知,未知,未知,未知,未知,未知,未知
5,300489,5200007.69,5200007.69,2015-03-31,一季度报告,5149163.94,2015,3,3.6790711090646373,False,未知,未知,未知,未知,未知,未知,未知,未知
6,300489,15957136.37,15957136.37,2015-06-30,半年度报告,15877838.87,2015,6,0.31442134611960376,True,未知,未知,未知,未知,未知,未知,38986917.0,未知
7,300489,19082390.44,19082390.44,2015-09-30,三季度报告,18509674.19,2015,9,0.131703302431242,True,未知,未知,未知,未知,未知,未知,,未知
8,300489,29062967.57,29062967.57,2015-12-31,年度报告,21329243.15,2015,12,-0.11083922837521994,True,未知,未知,未知,未知,未知,未知,未知,未知
9,300489,3917373.37,3917373.37,2016-03-31,一季度报告,3300855.32,2016,3,5.157699961016787,False,未知,未知,未知,未知,未知,未知,未知,未知
10,300489,10867478.160000002,10867478.160000002,2016-06-30,半年度报告,9783464.36,2016,6,1.0066311653636635,False,未知,未知,未知,未知,未知,未知,41800000.0,未知
11,300489,18959434.65,18959434.65,2016-09-30,三季度报告,8831482.66,2016,9,0.6779914052528944,False,未知,未知,未知,未知,未知,未知,,未知
12,300489,31337644.42,31337644.42,2016-12-31,年度报告,14964671.97,2016,12,0.10174871416270855,True,未知,未知,未知,未知,未知,未知,未知,未知
13,300489,2466937.61,2466937.61,2017-03-31,一季度报告,1956004.2800000003,2017,3,7.173866549258744,False,0.34944993749207515,True,,False,前期平均,,未知,
14,300489,11234904.62,11234904.62,2017-06-30,半年度报告,8593139.19,2017,6,1.946413756583983,False,0.4609082619634316,True,0.05465837272119489,True,前期平均,19664444.224999994,23360000.0,23360000.0
15,300489,12582745.649999995,12582745.649999995,2017-09-30,三季度报告,8418626.6,2017,9,0.6888735208146094,False,0.1996203263010938,True,,False,前期平均,,22687500.0,
16,300489,12525749.04,12525749.04,2017-12-31,年度报告,7516555.01,2017,12,0.021777090864061717,True,0.036869435897244805,True,0.0,True,比例外推,12525749.04,未知,12525749.04
17,300489,3128053.1100000013,3128053.1100000013,2018-03-31,一季度报告,2567541.56,2018,3,11.979690698379681,False,0.4588495108923308,True,0.02016215415130504,True,前期平均,17050001.04,未知,17050001.04
18,300489,5504546.13,5504546.13,2018-06-30,半年度报告,4000625.96,2018,6,1.85005420455452,False,0.16234362977069786,True,0.29608988905623546,False,前期平均,10820852.075,未知,10820852.075
19,300489,911953.34,911953.34,2018-09-30,三季度报告,-1108726.63,2018,9,1.544761536207323,False,0.3384783395522418,True,0.26916925834387817,False,前期平均,5388332.475,未知,5388332.475
20,300489,1198898.3,1198898.3,2018-12-31,年度报告,-8759790.98,2018,12,1.5563411056493592,False,0.5852443004361023,True,0.0,True,前期平均,1198898.3,,1198898.3
21,300489,-10501132.53,-10501132.53,2019-03-31,一季度报告,-11188159.9,2019,3,9.236426948006644,False,0.020081221043527223,True,0.35567112621577446,False,盈利变化,-17142036.98,未知,-17142036.98
22,300489,-17348958.150000002,-17348958.150000002,2019-06-30,半年度报告,-18590700.380000006,2019,6,4.817025853501204,False,0.501904732644396,True,0.903468613558856,False,盈利变化,-13861985.926666671,未知,-13861985.926666671
23,300489,-25395758.460000005,-25395758.460000005,2019-09-30,三季度报告,-27232927.07,2019,9,34.11154106853756,False,0.9421756307695699,True,0.5077657269544105,False,盈利变化,-10411857.451111112,未知,-10411857.451111112
24,300489,-112403653.87,-112403653.87,2019-12-31,年度报告,-114774483.51000002,2019,12,25.70792606011702,False,0.9453349043277601,True,0.0,True,盈利变化,-34139332.543333344,未知,-34139332.543333344
25,300489,-4616747.19,-4616747.19,2020-03-31,一季度报告,-5476080.249999999,2020,3,-4.049203222464235,False,4.753762268974773,False,0.31463878685810287,False,去年同期,-108203070.80000001,104000000.0,104000000.0
