,SECURITYCODE_x,NETPROFIT_x,PARENTNETPROFIT_x,REPORTDATE_x,REPORTTIMETYPE_x,KCFJCXSYJLR,Year,Month,managesituationChangeRate,managesituationGreatChange,historyprofitextroplaterate,ifhistoryprofitextroplate,IfprofitdisStableChangeRage,IfprofitdisStable,predicttype,predict,analyst_prediction,adj_prediction
0,300449,-11854546.910000006,-11854546.910000006,2014-03-31,一季度报告,-12321366.910000002,2014,3,未知,未知,未知,未知,未知,未知,未知,未知,未知,未知
1,300449,20916913.3,20916913.3,2014-09-30,三季度报告,,2014,9,未知,未知,未知,未知,未知,未知,未知,未知,未知,未知
2,300449,56714360.96,56714360.96,2014-12-31,年度报告,54630924.43000001,2014,12,未知,未知,未知,未知,未知,未知,未知,未知,未知,未知
3,300449,-4610667.51,-4610667.51,2015-03-31,一季度报告,-4642892.510000002,2015,3,-0.0,False,未知,未知,未知,未知,未知,未知,66838666.99999999,未知
4,300449,24005641.75000001,24005641.75000001,2015-06-30,半年度报告,23680311.53,2015,6,未知,未知,未知,未知,未知,未知,未知,未知,,未知
5,300449,17010605.71,17010605.71,2015-09-30,三季度报告,16627169.48,2015,9,-1.5667445640748536,False,未知,未知,未知,未知,未知,未知,未知,未知
6,300449,45451739.12,45451739.12,2015-12-31,年度报告,45012985.83000001,2015,12,-1.209021960387791,False,未知,未知,未知,未知,未知,未知,未知,未知
7,300449,-12439323.31,-12439323.31,2016-03-31,一季度报告,-12385333.64,2016,3,1.5711129428198578,False,未知,未知,未知,未知,未知,未知,58493333.0,未知
8,300449,17762728.89,17762728.89,2016-06-30,半年度报告,17779274.379999995,2016,6,-1.4938233700834098,False,未知,未知,未知,未知,未知,未知,65488000.0,未知
9,300449,12077724.14,12077724.14,2016-09-30,三季度报告,11733713.44,2016,9,-1.6968915223889462,False,未知,未知,未知,未知,未知,未知,,未知
10,300449,31909261.49,31909261.49,2016-12-31,年度报告,30169764.08000001,2016,12,-1.2608161346412305,False,未知,未知,未知,未知,未知,未知,未知,未知
11,300449,-15317491.070000002,-15317491.070000002,2017-03-31,一季度报告,-15314898.070000002,2017,3,-0.04701030638297597,False,-0.5109822432546246,True,0.16411961544883177,False,前期平均,42986593.77000001,79900000.0,79900000.0
12,300449,716738.75,716738.75,2017-06-30,半年度报告,154549.61,2017,6,-1.6673832035275749,False,未知,未知,未知,未知,未知,未知,,未知
13,300449,1588833.3199999996,1588833.3199999996,2017-09-30,三季度报告,898717.6499999998,2017,9,-1.9815215824262074,False,0.3631155184806274,True,,False,前期平均,,未知,
14,300449,47538585.04999999,47538585.04999999,2017-12-31,年度报告,47069070.58,2017,12,-1.371508031099845,False,0.37534541369370433,True,0.0,True,前期平均,47538585.04999999,75271120.0,75271120.0
15,300449,-13685971.79,-13685971.79,2018-03-31,一季度报告,-14625816.16,2018,3,-0.22607776588049258,False,-0.7967741134537457,True,0.17653362724556323,False,前期平均,32419516.240000017,未知,32419516.240000017
16,300449,12920166.14,12920166.14,2018-06-30,半年度报告,11954187.35,2018,6,-17.539564674018262,False,0.9656803107701977,True,0.36960603590787416,False,前期平均,29781748.140000015,90190000.0,90190000.0
17,300449,31504684.9,31504684.9,2018-09-30,三季度报告,30589953.3,2018,9,-8.46116459214237,False,0.8907580237027599,True,0.2400406060572062,False,前期平均,54915618.39500001,90190000.0,90190000.0
18,300449,10986518.56,10986518.56,2018-12-31,年度报告,7500910.289999999,2018,12,-1.2493668437445427,False,0.22900646773317349,True,0.0,True,前期平均,10986518.56,,10986518.56
19,300449,-18868083.95,-18868083.95,2019-03-31,一季度报告,-24229255.71,2019,3,-0.13381767170806025,False,-0.01386581308398707,True,1.054617397743459,False,前期平均,33601449.235,未知,33601449.235
20,300449,18475246.63,18475246.63,2019-06-30,半年度报告,-24336326.56999999,2019,6,-1.9175227920095463,False,0.39832666088642804,True,0.8649350883615108,False,前期平均,48127751.965,57000000.0,57000000.0
21,300449,13195361.950000005,13195361.950000005,2019-09-30,三季度报告,-30648572.31000001,2019,9,-1.3762788597196858,False,3.610478533779932,False,2.5827714647402553,False,去年同期,-9893681.059999997,,-9893681.059999997
22,300449,-519181341.07000005,-519181341.07000005,2019-12-31,年度报告,-546552275.92,2019,12,-2.0790084998500205,False,0.7234281597684699,True,0.0,True,盈利变化,-173697876.8433333,34500000.0,34500000.0
23,300449,12726773.7,12726773.7,2020-03-31,一季度报告,12680256.44,2020,3,-0.37171432237558993,False,-0.3010918069388077,True,1.2062348912991783,False,盈利变化,-469968658.2033334,,-469968658.2033334
