,SECURITYCODE_x,NETPROFIT_x,PARENTNETPROFIT_x,REPORTDATE_x,REPORTTIMETYPE_x,KCFJCXSYJLR,Year,Month,managesituationChangeRate,managesituationGreatChange,historyprofitextroplaterate,ifhistoryprofitextroplate,IfprofitdisStableChangeRage,IfprofitdisStable,predicttype,predict,analyst_prediction,adj_prediction
0,300491,23098524.91,23098524.91,2014-09-30,三季度报告,22676924.91,2014,9,未知,未知,未知,未知,未知,未知,未知,未知,未知,未知
1,300491,37250978.42999999,37250978.42999999,2014-12-31,年度报告,36487409.83000001,2014,12,未知,未知,未知,未知,未知,未知,未知,未知,未知,未知
2,300491,3940657.19,3940657.19,2015-03-31,一季度报告,3659615.65,2015,3,未知,未知,未知,未知,未知,未知,未知,未知,未知,未知
3,300491,16351098.610000005,16351098.610000005,2015-06-30,半年度报告,15961717.88,2015,6,未知,未知,未知,未知,未知,未知,未知,未知,未知,未知
4,300491,26250462.22000001,26250462.22000001,2015-09-30,三季度报告,25818739.01,2015,9,0.0,True,未知,未知,未知,未知,未知,未知,未知,未知
5,300491,42736984.35999999,42736984.35999999,2015-12-31,年度报告,41967069.65000001,2015,12,-0.37992165887922946,True,未知,未知,未知,未知,未知,未知,未知,未知
6,300491,6366528.869999999,6366528.869999999,2016-03-31,一季度报告,4337190.67,2016,3,4.861592063530906,False,未知,未知,未知,未知,未知,未知,63400000.0,未知
7,300491,18761528.31,18761528.31,2016-06-30,半年度报告,14668235.93,2016,6,0.412658895951701,True,未知,未知,未知,未知,未知,未知,61900000.0,未知
8,300491,27132366.07,27132366.07,2016-09-30,三季度报告,21198076.460000005,2016,9,-0.1200716880176904,True,未知,未知,未知,未知,未知,未知,,未知
9,300491,41037968.65000001,41037968.65000001,2016-12-31,年度报告,33160492.759999994,2016,12,-0.4595190733293938,True,未知,未知,未知,未知,未知,未知,48950000.0,未知
10,300491,-1779538.3000000003,-1779538.3000000003,2017-03-31,一季度报告,-2724598.25,2017,3,2.6281190868141,False,未知,未知,未知,未知,未知,未知,49300000.0,未知
11,300491,-6289047.8,-6289047.8,2017-06-30,半年度报告,-8165932.460000003,2017,6,0.2311643555012711,True,未知,未知,未知,未知,未知,未知,,未知
12,300491,-4386231.32,-4386231.32,2017-09-30,三季度报告,-8033484.32,2017,9,-0.14867266458048345,True,0.09961187241899101,True,0.013933241600222579,True,比例外推,-9199667.443836967,未知,-9199667.443836967
13,300491,5453256.51,5453256.51,2017-12-31,年度报告,6917043.13,2017,12,-0.4371425860037058,True,0.026103609057800275,True,0.0,True,比例外推,5453256.51,未知,5453256.51
14,300491,5453256.51,5453256.51,2017-12-31,年度报告,6917043.13,2017,12,-0.4371425860037058,True,0.026103609057800275,True,0.0,True,比例外推,5453256.51,未知,5453256.51
15,300491,10717545.22,10717545.22,2017-12-31,年度报告,6917043.13,2017,12,-0.4371425860037058,True,0.026103609057800275,True,0.0,True,比例外推,10717545.22,未知,10717545.22
16,300491,10717545.22,10717545.22,2017-12-31,年度报告,6917043.13,2017,12,-0.4371425860037058,True,0.026103609057800275,True,0.0,True,比例外推,10717545.22,未知,10717545.22
17,300491,-1481616.6,-1481616.6,2018-03-31,一季度报告,-2178085.05,2018,3,-13.980066183458932,False,1.3453005096911972,True,0.33526291748192655,False,盈利变化,6181940.776666666,未知,6181940.776666666
18,300491,3177887.62,3177887.62,2018-06-30,半年度报告,207064.38,2018,6,-4.672817514600541,False,1.3582214349458306,True,1.0612615969239894,False,前期平均,25426691.92,未知,25426691.92
19,300491,3177887.62,3177887.62,2018-06-30,半年度报告,207064.38,2018,6,-4.672817514600541,False,1.3582214349458306,True,1.0612615969239894,False,前期平均,25426691.92,未知,25426691.92
20,300491,2241893.3400000003,2241893.3400000003,2018-06-30,半年度报告,207064.38,2018,6,-4.672817514600541,False,1.3582214349458306,True,1.0612615969239894,False,前期平均,24490697.64,未知,24490697.64
21,300491,2241893.3400000003,2241893.3400000003,2018-06-30,半年度报告,207064.38,2018,6,-4.672817514600541,False,1.3582214349458306,True,1.0612615969239894,False,前期平均,24490697.64,未知,24490697.64
22,300491,3242738.94,3242738.94,2018-09-30,三季度报告,-1294811.35,2018,9,-6.266143808849552,False,1.16433117017225,True,1.1924266739613358,False,前期平均,17298112.41,未知,17298112.41
23,300491,-14165214.249999998,-14165214.249999998,2018-12-31,年度报告,-22460561.74,2018,12,3.2357304974821366,False,0.8698117679791701,True,0.0,True,盈利变化,-4339278.446666665,未知,-4339278.446666665
24,300491,-537294.7599999999,-537294.7599999999,2019-03-31,一季度报告,-1244365.17,2019,3,-16.590082420782814,False,1.64600812990117,True,0.33852014396900987,False,盈利变化,-12920254.409999998,未知,-12920254.409999998
25,300491,7023146.999999999,7023146.999999999,2019-06-30,半年度报告,5453453.570000001,2019,6,6.268515338500232,False,0.4904161016804827,True,0.931408887061923,False,前期平均,23810763.209999997,未知,23810763.209999997
26,300491,19133119.31,19133119.31,2019-09-30,三季度报告,16817316.720000006,2019,9,6.123152784540836,False,0.7148756062829532,True,1.0065713319589644,False,前期平均,32589591.184999995,未知,32589591.184999995
27,300491,30009227.47999999,30009227.47999999,2019-12-31,年度报告,22488165.130000006,2019,12,-2.630651291419754,False,1.6093715190877536,True,0.0,True,前期平均,30009227.47999999,未知,30009227.47999999
28,300491,-16979631.77,-16979631.77,2020-03-31,一季度报告,-18091575.64,2020,3,-43.99041537274625,False,-0.6704880470412493,True,0.27647743093355887,False,前期平均,-22300049.424999997,未知,-22300049.424999997
