,SECURITYCODE_x,NETPROFIT_x,PARENTNETPROFIT_x,REPORTDATE_x,REPORTTIMETYPE_x,KCFJCXSYJLR,Year,Month,managesituationChangeRate,managesituationGreatChange,historyprofitextroplaterate,ifhistoryprofitextroplate,IfprofitdisStableChangeRage,IfprofitdisStable,predicttype,predict,analyst_prediction,adj_prediction
0,300411,3811357.81,3811357.81,2014-03-31,一季度报告,,2014,3,未知,未知,未知,未知,未知,未知,未知,未知,未知,未知
1,300411,40312034.43999999,40312034.43999999,2014-12-31,年度报告,37932034.44,2014,12,未知,未知,未知,未知,未知,未知,未知,未知,未知,未知
2,300411,4183654.74,4183654.74,2015-03-31,一季度报告,3947779.7400000007,2015,3,0.0,True,未知,未知,未知,未知,未知,未知,70000000.0,未知
3,300411,21911823.260000005,21911823.260000005,2015-06-30,半年度报告,20877373.26,2015,6,未知,未知,未知,未知,未知,未知,未知,未知,64000000.0,未知
4,300411,33759257.919999994,33759257.919999994,2015-09-30,三季度报告,31349399.32,2015,9,未知,未知,未知,未知,未知,未知,未知,未知,53000000.0,未知
5,300411,42909462.78,42909462.78,2015-12-31,年度报告,37482152.47,2015,12,-0.905453598089355,True,未知,未知,未知,未知,未知,未知,53000000.0,未知
6,300411,5485920.09,5485920.09,2016-03-31,一季度报告,4923645.09,2016,3,-0.08898844506466137,True,未知,未知,未知,未知,未知,未知,63000000.0,未知
7,300411,19987246.85,19987246.85,2016-06-30,半年度报告,18813207.27,2016,6,-0.8260593030175802,True,未知,未知,未知,未知,未知,未知,54000000.0,未知
8,300411,34195296.75,34195296.75,2016-09-30,三季度报告,31451825.69,2016,9,-0.8871018486534316,True,未知,未知,未知,未知,未知,未知,132500000.0,未知
9,300411,42654992.25999999,42654992.25999999,2016-12-31,年度报告,38136541.19000001,2016,12,-0.9111767530266898,True,未知,未知,未知,未知,未知,未知,,未知
10,300411,5759824.2200000025,5759824.2200000025,2017-03-31,一季度报告,5261222.72,2017,3,-0.3052472971767257,True,0.37233557938567574,True,,False,平均增速,40157785.92745477,69020000.0,69020000.0
11,300411,16456726.420000002,16456726.420000002,2017-06-30,半年度报告,15089774.680000005,2017,6,-0.8093105149196673,True,未知,未知,未知,未知,未知,未知,201000000.0,未知
12,300411,34995142.07,35047082.86,2017-09-30,三季度报告,32923206.12000001,2017,9,-0.8885414611879338,True,未知,未知,未知,未知,未知,未知,194000000.0,未知
13,300411,70714620.47999999,71150593.91000001,2017-12-31,年度报告,65480722.59000001,2017,12,-0.9106468526176682,True,0.025095526633929287,True,0.0,True,比例外推,71150593.91000001,194000000.0,194000000.0
14,300411,15214665.430000005,15106510.270000005,2018-03-31,一季度报告,9938807.25,2018,3,-0.33828574199092515,True,0.19132936478862794,True,0.02457821457561643,True,比例外推,99889881.48041837,未知,99889881.48041837
15,300411,45974845.34,44611552.85000001,2018-06-30,半年度报告,33517334.47,2018,6,-0.7684012170629497,True,0.21445863228967976,True,0.1964715869802105,False,平均增速,135023701.73684335,未知,135023701.73684335
16,300411,67129652.11000001,63744012.18000001,2018-09-30,三季度报告,47782464.20999999,2018,9,-0.8910889459349465,True,0.0299572189073403,True,0.21850453824875726,False,平均增速,109626731.8412502,未知,109626731.8412502
17,300411,-1750962173.2000005,-1757527023.6,2018-12-31,年度报告,-1710075961.4,2018,12,-0.9461022659228163,True,0.6528971159096859,True,0.0,True,比例外推,-1757527023.6,,-1757527023.6
18,300411,5937136.16,6761394.98,2019-03-31,一季度报告,5428461.38,2019,3,-0.7494944711380355,True,1.7058529894674446,True,0.07369239475129384,True,比例外推,81303802.7595029,未知,81303802.7595029
19,300411,2480439.0,1082432.7399999998,2019-06-30,半年度报告,-3578454.61,2019,6,-0.9170990618497206,True,1.5230424245671168,True,0.258592508505638,False,平均增速,10729515428.27774,未知,10729515428.27774
20,300411,141812450.91000003,139922367.86,2019-09-30,三季度报告,-28337120.07,2019,9,-0.9432239302573081,True,0.9404314600356518,True,0.4611306827728165,False,平均增速,11383535291.714432,未知,11383535291.714432
21,300411,56036408.12000001,51571727.71,2019-12-31,年度报告,-153504961.05999997,2019,12,-1.0021767219579818,False,31.88944437369877,False,0.0,True,前期平均,51571727.71,未知,51571727.71
22,300411,69576450.88,70165931.31000002,2020-03-31,一季度报告,67964813.57000001,2020,3,-0.35804776793261217,True,0.43387073925777275,True,0.0672902175353915,True,比例外推,5207265042.984818,未知,5207265042.984818
