,SECURITYCODE_x,NETPROFIT_x,PARENTNETPROFIT_x,REPORTDATE_x,REPORTTIMETYPE_x,KCFJCXSYJLR,Year,Month,managesituationChangeRate,managesituationGreatChange,historyprofitextroplaterate,ifhistoryprofitextroplate,IfprofitdisStableChangeRage,IfprofitdisStable,predicttype,predict,analyst_prediction,adj_prediction
0,300492,35538453.61,35371884.75000001,2012-12-31,年度报告,35409584.75,2012,12,未知,未知,未知,未知,未知,未知,未知,未知,未知,未知
1,300492,43566651.21999999,42308051.85,2013-12-31,年度报告,42558753.51000001,2013,12,0.0,True,未知,未知,未知,未知,未知,未知,未知,未知
2,300492,966545.5,1093575.2899999998,2014-03-31,一季度报告,1037584.1,2014,3,未知,未知,未知,未知,未知,未知,未知,未知,未知,未知
3,300492,-1255420.05,-1314460.15,2014-09-30,三季度报告,-1902160.15,2014,9,未知,未知,未知,未知,未知,未知,未知,未知,未知,未知
4,300492,25663764.550000004,25613648.93,2014-12-31,年度报告,24999153.61000001,2014,12,-0.18427392019321684,True,未知,未知,未知,未知,未知,未知,未知,未知
5,300492,7275374.670000003,7626054.090000003,2015-03-31,一季度报告,7986973.379999997,2015,3,35.76852627217239,False,未知,未知,未知,未知,未知,未知,未知,未知
6,300492,15676164.83,15517112.79,2015-06-30,半年度报告,16057537.88,2015,6,未知,未知,未知,未知,未知,未知,未知,未知,29396571.0,未知
7,300492,16885980.830000006,17125466.830000002,2015-09-30,三季度报告,17562598.88,2015,9,-29.30801818881258,False,未知,未知,未知,未知,未知,未知,,未知
8,300492,26846998.480000004,26801163.82,2015-12-31,年度报告,25342513.07,2015,12,0.3847716511255163,True,0.35114770139923446,True,0.0,True,比例外推,26801163.82,29900000.0,29900000.0
9,300492,-816193.0700000002,-990606.72,2016-03-31,一季度报告,-1085765.09,2016,3,3.8847592353618245,False,未知,未知,未知,未知,未知,未知,37500000.0,未知
10,300492,3873756.77,3785354.4499999993,2016-06-30,半年度报告,3672401.41,2016,6,1.267037505371778,False,未知,未知,未知,未知,未知,未知,,未知
11,300492,6957151.48,7296802.09,2016-09-30,三季度报告,7161824.59,2016,9,1.1046129311518345,False,未知,未知,未知,未知,未知,未知,未知,未知
12,300492,19828443.489999995,20155053.89,2016-12-31,年度报告,18908048.079999994,2016,12,0.3237402921028509,True,0.22441608413295808,True,0.0,True,比例外推,20155053.89,36200000.0,36200000.0
13,300492,285677.69,790475.73,2017-03-31,一季度报告,362072.31,2017,3,-44.54172427609559,False,1.1980589603308422,True,0.215413598204033,False,前期平均,21449030.330000006,23160000.0,21449030.330000006
14,300492,4367506.7700000005,4367506.7700000005,2017-06-30,半年度报告,2853405.22,2017,6,8.174157212250577,False,未知,未知,未知,未知,未知,未知,,未知
15,300492,6762943.82,6762943.82,2017-09-30,三季度报告,5268095.3900000015,2017,9,4.108190286234791,False,0.10980142326026024,True,0.40798618555258054,False,前期平均,24103557.795000006,未知,24103557.795000006
16,300492,20613083.08,20613083.08,2017-12-31,年度报告,15525436.889999995,2017,12,0.7922966887402421,False,0.244785550776637,True,0.0,True,前期平均,20613083.08,未知,20613083.08
17,300492,1929389.65,1929389.65,2018-03-31,一季度报告,1929199.36,2018,3,123.40052147579323,False,0.9115436884449882,True,0.22147477738083365,False,前期平均,20604066.08,116000000.0,116000000.0
18,300492,8178228.04,8178228.04,2018-06-30,半年度报告,8161536.829999999,2018,6,7.137011682296716,False,0.5531944465700568,True,0.2964092904639452,False,前期平均,20438538.969999995,,20438538.969999995
19,300492,12337808.710000005,12337808.710000005,2018-09-30,三季度报告,12207275.480000002,2018,9,4.254879318219739,False,0.4327134763947465,True,0.22264241142318258,False,前期平均,22100877.550000004,未知,22100877.550000004
20,300492,26685222.7,26744782.969999995,2018-12-31,年度报告,26747354.070000004,2018,12,0.7240726907311336,False,0.11674824233056967,True,0.0,True,前期平均,26744782.969999995,未知,26744782.969999995
21,300492,2776506.65,2776506.65,2019-03-31,一季度报告,2351955.64,2019,3,17.419531591247004,False,-8.273642660463489,True,0.07009828009970051,True,前期平均,20355095.524999995,33000000.0,33000000.0
22,300492,12473551.739999998,12473551.739999998,2019-06-30,半年度报告,8263983.12,2019,6,3.3454955567612172,False,0.9847024671170749,True,0.07741847741625654,True,前期平均,26427390.909999993,,26427390.909999993
23,300492,16012128.840000002,16012128.840000002,2019-09-30,三季度报告,11363531.590000002,2019,9,1.8804510140601771,False,0.7985018967032983,True,0.06489742844379787,True,前期平均,27013911.334999993,未知,27013911.334999993
24,300492,21094012.3,21094012.3,2019-12-31,年度报告,17806931.91,2019,12,0.3317652998264092,True,0.31969413438489813,True,0.0,True,比例外推,21094012.3,未知,21094012.3
25,300492,-7996373.420000001,-7996373.420000001,2020-03-31,一季度报告,-6013393.060000001,2020,3,11.799700519355861,False,1.5069275320541724,True,0.05623794570529665,True,盈利变化,9940214.033333333,未知,9940214.033333333
