,SECURITYCODE_x,NETPROFIT_x,PARENTNETPROFIT_x,REPORTDATE_x,REPORTTIMETYPE_x,KCFJCXSYJLR,Year,Month,managesituationChangeRate,managesituationGreatChange,historyprofitextroplaterate,ifhistoryprofitextroplate,IfprofitdisStableChangeRage,IfprofitdisStable,predicttype,predict,analyst_prediction,adj_prediction
0,300486,49912966.16,49912966.16,2012-12-31,年度报告,49295971.31,2012,12,未知,未知,未知,未知,未知,未知,未知,未知,未知,未知
1,300486,-7905923.82,-7905923.82,2014-03-31,一季度报告,-7957043.619999997,2014,3,未知,未知,未知,未知,未知,未知,未知,未知,未知,未知
2,300486,28045279.79000001,28045279.79000001,2014-06-30,半年度报告,27924243.43,2014,6,未知,未知,未知,未知,未知,未知,未知,未知,未知,未知
3,300486,13351772.95,13351772.95,2014-09-30,三季度报告,,2014,9,未知,未知,未知,未知,未知,未知,未知,未知,未知,未知
4,300486,54105022.1,54105022.1,2014-12-31,年度报告,54080225.38,2014,12,未知,未知,未知,未知,未知,未知,未知,未知,未知,未知
5,300486,2232376.72,2232376.72,2015-03-31,一季度报告,2204126.26,2015,3,-7.313362903109784,False,未知,未知,未知,未知,未知,未知,未知,未知
6,300486,29181344.44,29181344.44,2015-06-30,半年度报告,27937295.529999994,2015,6,0.7797278734155206,False,未知,未知,未知,未知,未知,未知,64158447.0,未知
7,300486,21963179.19,21963179.19,2015-09-30,三季度报告,16403733.950000005,2015,9,2.738302497122676,False,未知,未知,未知,未知,未知,未知,,未知
8,300486,36328786.25999999,36328786.25999999,2015-12-31,年度报告,28089605.52,2015,12,-0.07747997833273235,True,未知,未知,未知,未知,未知,未知,54095000.0,未知
9,300486,-17693275.360000007,-17309526.96,2016-03-31,一季度报告,-17350987.750000004,2016,3,21.358666309689877,False,未知,未知,未知,未知,未知,未知,62670000.0,未知
10,300486,-29652127.750000004,-28869374.84,2016-06-30,半年度报告,-29196375.160000004,2016,6,0.7104409381351997,False,未知,未知,未知,未知,未知,未知,54666667.0,未知
11,300486,-52040223.96999999,-50721912.41,2016-09-30,三季度报告,-51104613.37,2016,9,1.2725747364810347,False,未知,未知,未知,未知,未知,未知,55000000.0,未知
12,300486,-49667897.44000001,-49049367.54,2016-12-31,年度报告,-59104102.26,2016,12,0.3739233070650902,True,未知,未知,未知,未知,未知,未知,,未知
13,300486,14492852.34,14712774.520000005,2017-03-31,一季度报告,14655484.75,2017,3,-3.821013359281149,False,-5.237112356042663,True,0.2221007924292407,False,盈利变化,-6374070.8733333275,未知,-6374070.8733333275
14,300486,26334399.57000001,27046371.99,2017-06-30,半年度报告,27010489.56,2017,6,-2.683284470538543,False,2.0363053263748316,False,0.3262749015886901,False,前期平均,40200517.96,55000000.0,55000000.0
15,300486,32225938.87,32954066.19,2017-09-30,三季度报告,31441111.95000001,2017,9,-1.9591228160119698,False,3.9472062577740754,False,,False,前期平均,,,
16,300486,36149549.45,36548094.36999999,2017-12-31,年度报告,32129319.83999999,2017,12,-2.0049341472587203,False,2.0984364883159947,False,0.0,True,前期平均,36548094.36999999,未知,36548094.36999999
17,300486,9647181.01,9698891.070000004,2018-03-31,一季度报告,9641996.2,2018,3,2.443971206567885,False,-2.874774898595415,True,0.1975905710028476,False,前期平均,1765073.4450000087,,1765073.4450000087
18,300486,34191072.38,34366861.02,2018-06-30,半年度报告,34037186.15,2018,6,0.8953523518668163,False,-112.87482228288798,True,0.2824312298665559,False,前期平均,19489152.46500001,未知,19489152.46500001
19,300486,45484524.56,45576007.52,2018-09-30,三季度报告,45246332.65,2018,9,0.548844437437487,False,-3.1428926349459,True,0.22509224390302096,False,前期平均,47419198.86,未知,47419198.86
20,300486,63273226.20999999,63763327.85000001,2018-12-31,年度报告,59516626.11,2018,12,0.3807354979357839,True,-6.4200836865653805,True,0.0,True,比例外推,63763327.85000001,100955000.0,100955000.0
21,300486,10263546.37,10384838.61,2019-03-31,一季度报告,9584765.26,2019,3,4.173839498632979,False,-7.028691175955845,True,0.15223646747966296,False,前期平均,-1754801.1000000034,未知,-1754801.1000000034
22,300486,32029272.82,31922856.15,2019-06-30,半年度报告,30722774.09,2019,6,0.4598245297856315,True,-21.611135406517892,True,0.20516161684381384,False,平均增速,71424024.92449337,未知,71424024.92449337
23,300486,54635973.31000002,54736934.36999999,2019-09-30,三季度报告,53108312.27,2019,9,0.09736150136423441,True,-5.591084092153294,True,0.11075858215694256,False,平均增速,78794983.39783832,未知,78794983.39783832
24,300486,90782454.41,90520068.88,2019-12-31,年度报告,79877852.28999999,2019,12,-0.21115187023430898,True,-10.361088537860601,True,0.0,True,比例外推,90520068.88,未知,90520068.88
25,300486,12476003.070000002,12586007.92,2020-03-31,一季度报告,9638578.0,2020,3,3.863130575011959,False,0.14966593283517576,True,0.2100943940740611,False,前期平均,46260240.419999994,未知,46260240.419999994
