,SECURITYCODE_x,NETPROFIT_x,PARENTNETPROFIT_x,REPORTDATE_x,REPORTTIMETYPE_x,KCFJCXSYJLR,Year,Month,managesituationChangeRate,managesituationGreatChange,historyprofitextroplaterate,ifhistoryprofitextroplate,IfprofitdisStableChangeRage,IfprofitdisStable,predicttype,predict,analyst_prediction,adj_prediction
0,300587,47120669.33,47120669.33,2014-12-31,年度报告,46631151.94,2014,12,未知,未知,未知,未知,未知,未知,未知,未知,未知,未知
1,300587,40242959.24,40242959.24,2015-09-30,三季度报告,37508841.46999999,2015,9,未知,未知,未知,未知,未知,未知,未知,未知,未知,未知
2,300587,66670292.99,66670292.99,2015-12-31,年度报告,63849324.87,2015,12,0.0,True,未知,未知,未知,未知,未知,未知,未知,未知
3,300587,5745293.05,5745293.05,2016-03-31,一季度报告,5349173.67,2016,3,未知,未知,未知,未知,未知,未知,未知,未知,未知,未知
4,300587,37602811.81,37602811.81,2016-06-30,半年度报告,37266406.55,2016,6,未知,未知,未知,未知,未知,未知,未知,未知,未知,未知
5,300587,46778497.76999999,46778497.76999999,2016-09-30,三季度报告,46291063.65,2016,9,0.17090468046802604,True,未知,未知,未知,未知,未知,未知,未知,未知
6,300587,70527749.37,70527749.37,2016-12-31,年度报告,69903928.25999999,2016,12,-0.293228404784906,True,未知,未知,未知,未知,未知,未知,未知,未知
7,300587,-4162570.5,-4162570.5,2017-03-31,一季度报告,-1543270.5,2017,3,7.2016128541954885,False,未知,未知,未知,未知,未知,未知,未知,未知
8,300587,28549842.61,28549842.61,2017-06-30,半年度报告,24615667.06,2017,6,0.2531155799755602,True,未知,未知,未知,未知,未知,未知,未知,未知
9,300587,47428263.41,47427963.28,2017-09-30,三季度报告,43224986.42,2017,9,0.007314718862550808,True,未知,未知,未知,未知,未知,未知,未知,未知
10,300587,70928462.24999999,71157410.11999999,2017-12-31,年度报告,65705489.15,2017,12,-0.3318846872200993,True,0.23960194961114217,True,0.0,True,比例外推,71157410.11999999,未知,71157410.11999999
11,300587,247940.51,651134.0700000001,2018-03-31,一季度报告,-2498600.08,2018,3,-12.320089192483346,False,未知,未知,未知,未知,未知,未知,未知,未知
12,300587,26225079.56,27262610.92,2018-06-30,半年度报告,23112360.6,2018,6,0.6504703711920042,False,未知,未知,未知,未知,未知,未知,未知,未知
13,300587,40887077.94,42225859.06999999,2018-09-30,三季度报告,37053976.5,2018,9,-0.006485459468354552,True,0.0900360678757613,True,0.04838398423785861,True,比例外推,63447266.30887076,未知,63447266.30887076
14,300587,82789369.81,77973203.80000001,2018-12-31,年度报告,72105793.21000001,2018,12,-0.33565922853487484,True,0.033957351430535056,True,0.0,True,比例外推,77973203.80000001,未知,77973203.80000001
15,300587,4808137.249999999,842436.61,2019-03-31,一季度报告,-646212.34,2019,3,189.04828751058065,False,0.6866911259967832,True,0.07039437898313032,True,前期平均,66744193.73,未知,66744193.73
16,300587,42158104.89000001,33627166.9,2019-06-30,半年度报告,33114035.329999994,2019,6,0.796778889543243,False,0.20713447434782473,True,0.12368246285043794,False,前期平均,70490838.8,未知,70490838.8
17,300587,63724422.66,50306702.15000001,2019-09-30,三季度报告,49279311.62000001,2019,9,0.15245871566433591,True,0.13197147576536591,True,0.09743412665176543,True,比例外推,81639024.25523533,未知,81639024.25523533
18,300587,155697030.42,126748437.0,2019-12-31,年度报告,124487365.49,2019,12,-0.4308367192775954,True,0.1705300016432039,True,0.0,True,比例外推,126748437.0,未知,126748437.0
19,300587,2601283.74,1014616.93,2020-03-31,一季度报告,54817.51000000001,2020,3,8.800192232449273,False,-3.456496405679454,True,0.015919194542830965,True,前期平均,71941193.4,193000000.0,193000000.0
