,SECURITYCODE_x,NETPROFIT_x,PARENTNETPROFIT_x,REPORTDATE_x,REPORTTIMETYPE_x,KCFJCXSYJLR,Year,Month,managesituationChangeRate,managesituationGreatChange,historyprofitextroplaterate,ifhistoryprofitextroplate,IfprofitdisStableChangeRage,IfprofitdisStable,predicttype,predict,analyst_prediction,adj_prediction
0,300586,38085896.35,38085896.35,2014-12-31,年度报告,36520141.58,2014,12,未知,未知,未知,未知,未知,未知,未知,未知,未知,未知
1,300586,29941984.74,29941984.74,2015-09-30,三季度报告,28269776.83,2015,9,未知,未知,未知,未知,未知,未知,未知,未知,未知,未知
2,300586,41168296.00999999,41168296.00999999,2015-12-31,年度报告,38841236.18999999,2015,12,0.0,True,未知,未知,未知,未知,未知,未知,未知,未知
3,300586,9109061.82,9109061.82,2016-03-31,一季度报告,8641510.979999999,2016,3,未知,未知,未知,未知,未知,未知,未知,未知,未知,未知
4,300586,24254801.13,24254801.13,2016-06-30,半年度报告,22875480.26,2016,6,未知,未知,未知,未知,未知,未知,未知,未知,未知,未知
5,300586,47316652.50999999,47316652.50999999,2016-12-31,年度报告,45185134.46,2016,12,-0.07487314168289254,True,未知,未知,未知,未知,未知,未知,未知,未知
6,300586,9339088.71,9339088.71,2017-03-31,一季度报告,8193065.409999997,2017,3,3.181099777627813,False,未知,未知,未知,未知,未知,未知,55930000.0,未知
7,300586,26017894.51,26017894.51,2017-06-30,半年度报告,22969913.660000004,2017,6,0.5702415429369468,False,未知,未知,未知,未知,未知,未知,,未知
8,300586,41818380.60999999,41818380.60999999,2017-09-30,三季度报告,39372512.8,2017,9,未知,未知,未知,未知,未知,未知,未知,未知,未知,未知
9,300586,54569161.16999999,54569161.16999999,2017-12-31,年度报告,46630578.04000001,2017,12,-0.19508472536279153,True,0.1940479386900158,True,0.0,True,比例外推,54569161.16999999,未知,54569161.16999999
10,300586,11759580.66,11759580.66,2018-03-31,一季度报告,9261731.22,2018,3,3.078116991138421,False,未知,未知,未知,未知,未知,未知,未知,未知
11,300586,27779456.06,27779456.06,2018-06-30,半年度报告,23570783.88,2018,6,0.4638346825244315,True,未知,未知,未知,未知,未知,未知,未知,未知
12,300586,42674442.07,42674442.07,2018-09-30,三季度报告,38141302.4,2018,9,-0.08925463409999776,True,未知,未知,未知,未知,未知,未知,未知,未知
13,300586,63295898.08999999,63295898.08999999,2018-12-31,年度报告,59853700.15999999,2018,12,-0.3020619057831852,True,0.23341115257960254,True,0.0,True,比例外推,63295898.08999999,未知,63295898.08999999
14,300586,35359414.15000001,35359414.15000001,2019-03-31,一季度报告,34938074.169999994,2019,3,2.238712114926724,False,0.27487908783883924,True,0.019156448437484708,True,前期平均,72849982.20500001,228310000.0,228310000.0
15,300586,72369902.66,60821318.3,2019-06-30,半年度报告,59344315.51999999,2019,6,0.37100943473261094,True,0.10515084605477099,True,0.07041377038509916,True,比例外推,129313512.39218079,220510000.0,220510000.0
16,300586,102186660.40999998,84150283.58,2019-09-30,三季度报告,81777628.87,2019,9,-0.10752444548597231,True,未知,未知,未知,未知,未知,未知,,未知
17,300586,101374185.34,90111800.23,2019-12-31,年度报告,85510352.28,2019,12,-0.39828808028213875,True,0.24248697250037024,True,0.0,True,比例外推,90111800.23,未知,90111800.23
18,300586,17067670.54,13511471.190000005,2020-03-31,一季度报告,12226500.219999995,2020,3,0.07710767459081296,True,2.351814612562935,False,0.16224163189656007,False,未知,未知,未知,未知
