,SECURITYCODE_x,NETPROFIT_x,PARENTNETPROFIT_x,REPORTDATE_x,REPORTTIMETYPE_x,KCFJCXSYJLR,Year,Month,managesituationChangeRate,managesituationGreatChange,historyprofitextroplaterate,ifhistoryprofitextroplate,IfprofitdisStableChangeRage,IfprofitdisStable,predicttype,predict,analyst_prediction,adj_prediction
0,300538,40715356.9,40715356.9,2014-12-31,年度报告,40011015.37,2014,12,未知,未知,未知,未知,未知,未知,未知,未知,未知,未知
1,300538,31140880.259999994,31140880.259999994,2015-09-30,三季度报告,,2015,9,未知,未知,未知,未知,未知,未知,未知,未知,未知,未知
2,300538,42241928.26,42241928.26,2015-12-31,年度报告,38625815.78,2015,12,0.0,True,未知,未知,未知,未知,未知,未知,未知,未知
3,300538,5315447.59,5315447.59,2016-03-31,一季度报告,5320611.31,2016,3,未知,未知,未知,未知,未知,未知,未知,未知,未知,未知
4,300538,16115940.76,16115940.76,2016-06-30,半年度报告,16013394.490000002,2016,6,未知,未知,未知,未知,未知,未知,未知,未知,未知,未知
5,300538,27609427.0,27609427.0,2016-09-30,三季度报告,27393354.96,2016,9,0.30745684001419443,True,未知,未知,未知,未知,未知,未知,未知,未知
6,300538,27912541.26,27912541.26,2016-12-31,年度报告,27440751.500000004,2016,12,-0.03613877071624001,True,未知,未知,未知,未知,未知,未知,未知,未知
7,300538,5497532.95,5497532.95,2017-03-31,一季度报告,4274780.62,2017,3,6.659817204594054,False,未知,未知,未知,未知,未知,未知,未知,未知
8,300538,6998446.76,6998446.76,2017-06-30,半年度报告,5188639.129999999,2017,6,1.526402740388331,False,未知,未知,未知,未知,未知,未知,未知,未知
9,300538,10849378.77,10849378.77,2017-09-30,三季度报告,8236488.540000001,2017,9,0.4746903983193856,True,未知,未知,未知,未知,未知,未知,28210000.0,未知
10,300538,18435553.16,18435553.16,2017-12-31,年度报告,14951997.14,2017,12,0.45867610264304526,True,0.3270623259629341,True,0.0,True,比例外推,18435553.16,未知,18435553.16
11,300538,7812798.56,7812798.56,2018-03-31,一季度报告,7388707.0299999975,2018,3,6.406114209829337,False,未知,未知,未知,未知,未知,未知,未知,未知
12,300538,15833177.13,15834159.529999996,2018-06-30,半年度报告,12906776.9,2018,6,4.817770470543667,False,未知,未知,未知,未知,未知,未知,未知,未知
13,300538,25545859.120000005,25977797.12,2018-09-30,三季度报告,22745103.41,2018,9,2.7527823263561846,False,0.6306613777529373,True,,False,前期平均,,未知,
14,300538,29594991.68,30426821.119999994,2018-12-31,年度报告,25256655.390000004,2018,12,1.2085237446707564,False,0.4744296896224324,True,0.0,True,前期平均,30426821.119999994,,30426821.119999994
15,300538,9226870.8,8556702.76,2019-03-31,一季度报告,8374777.869999999,2019,3,4.211366527284431,False,0.445077706576544,True,0.06355207468326404,True,前期平均,24955381.115000002,未知,24955381.115000002
16,300538,17045354.549999993,16411189.6,2019-06-30,半年度报告,16034804.329999994,2019,6,1.5715215945417769,False,0.3699845705450906,True,0.13351590332842644,False,前期平均,27006547.11,未知,27006547.11
17,300538,29472183.14,28468339.760000005,2019-09-30,三季度报告,28017652.89,2019,9,0.5938143520146365,False,0.32847906265083215,True,0.2657024580635239,False,前期平均,31849792.330000006,未知,31849792.330000006
18,300538,41890715.6,39416598.55,2019-12-31,年度报告,39515624.44000001,2019,12,0.375751591358447,True,0.27707479888231396,True,0.0,True,比例外推,39416598.55,未知,39416598.55
19,300538,9801978.49,9585627.65,2020-03-31,一季度报告,9758541.430000003,2020,3,3.412693943866646,False,0.386422388212929,True,0.0515245135893779,True,前期平均,23858210.090000004,未知,23858210.090000004
