,SECURITYCODE_x,NETPROFIT_x,PARENTNETPROFIT_x,REPORTDATE_x,REPORTTIMETYPE_x,KCFJCXSYJLR,Year,Month,managesituationChangeRate,managesituationGreatChange,historyprofitextroplaterate,ifhistoryprofitextroplate,IfprofitdisStableChangeRage,IfprofitdisStable,predicttype,predict,analyst_prediction,adj_prediction
0,300578,38639931.1,38639931.1,2014-12-31,年度报告,36163471.51000001,2014,12,未知,未知,未知,未知,未知,未知,未知,未知,未知,未知
1,300578,38639931.1,38639931.1,2014-12-31,年度报告,36163431.1,2014,12,未知,未知,未知,未知,未知,未知,未知,未知,未知,未知
2,300578,33383474.35,33383474.35,2015-12-31,年度报告,30402008.79000001,2015,12,0.0,True,未知,未知,未知,未知,未知,未知,未知,未知
3,300578,7743114.88,7743114.88,2016-03-31,一季度报告,5729717.59,2016,3,未知,未知,未知,未知,未知,未知,未知,未知,未知,未知
4,300578,16174250.0,16174250.0,2016-06-30,半年度报告,14379071.510000002,2016,6,未知,未知,未知,未知,未知,未知,未知,未知,未知,未知
5,300578,31483238.98,31483238.98,2016-12-31,年度报告,26426116.439999994,2016,12,0.1574568511021382,True,未知,未知,未知,未知,未知,未知,未知,未知
6,300578,4851233.21,4851233.21,2017-03-31,一季度报告,3670398.9299999992,2017,3,3.990230895295719,False,未知,未知,未知,未知,未知,未知,34000000.0,未知
7,300578,13086398.08,13086398.08,2017-06-30,半年度报告,12237135.39,2017,6,1.3889782277385352,False,未知,未知,未知,未知,未知,未知,,未知
8,300578,24934817.76,24934817.76,2017-09-30,三季度报告,23251353.48,2017,9,未知,未知,未知,未知,0.0,True,未知,未知,未知,未知
9,300578,34251238.0,34251238.0,2017-12-31,年度报告,31495270.070000004,2017,12,0.2273175299576499,True,0.12574978138582313,True,未知,未知,未知,未知,51900000.0,未知
10,300578,5924079.990000001,5924079.990000001,2018-03-31,一季度报告,4932123.15,2018,3,6.964970849133843,False,未知,未知,未知,未知,未知,未知,未知,未知
11,300578,16225738.379999995,16225738.379999995,2018-06-30,半年度报告,14136108.28,2018,6,1.9526788703649158,False,未知,未知,未知,未知,未知,未知,47955000.0,未知
12,300578,30018502.25,30018502.25,2018-09-30,三季度报告,26586813.3,2018,9,0.5496375979930161,False,未知,未知,0.0,True,未知,未知,,未知
13,300578,16130686.36,16130686.36,2018-12-31,年度报告,11196806.310000002,2018,12,0.12813239334589896,True,0.05604974390337285,True,0.18254304182365105,False,平均增速,16130686.36,44910000.0,44910000.0
14,300578,32151601.59,32928699.260000005,2019-03-31,一季度报告,29575508.529999994,2019,3,5.522520149158215,False,0.059247855043205934,True,0.530787570821292,False,前期平均,57189334.255,182975000.0,182975000.0
15,300578,49934688.76000001,50627881.45,2019-06-30,半年度报告,47874305.15999999,2019,6,1.3813973943785487,False,0.10904846233330566,True,未知,未知,前期平均,66280471.255,162948000.0,162948000.0
16,300578,64895804.31999999,65300957.92,2019-09-30,三季度报告,60956711.2,2019,9,0.28720383109720277,True,未知,未知,0.0,True,未知,未知,139000000.0,未知
17,300578,94531967.95,90197016.1,2019-12-31,年度报告,79867818.18999998,2019,12,1.395430066498423,False,0.5092168645410283,True,0.19257441612166182,False,前期平均,90197016.1,139000000.0,139000000.0
18,300578,12965276.07,13401462.990000002,2020-03-31,一季度报告,12095587.54,2020,3,0.20180423957536361,True,4.9676412171481,False,未知,未知,True,True,152041667.0,152041667.0
