,SECURITYCODE_x,NETPROFIT_x,PARENTNETPROFIT_x,REPORTDATE_x,REPORTTIMETYPE_x,KCFJCXSYJLR,Year,Month,managesituationChangeRate,managesituationGreatChange,historyprofitextroplaterate,ifhistoryprofitextroplate,IfprofitdisStableChangeRage,IfprofitdisStable,predicttype,predict,analyst_prediction,adj_prediction
0,300550,45965522.97,46439184.78000001,2014-12-31,年度报告,37215917.91,2014,12,未知,未知,未知,未知,未知,未知,未知,未知,未知,未知
1,300550,24301449.27,25337947.629999995,2015-09-30,三季度报告,,2015,9,未知,未知,未知,未知,未知,未知,未知,未知,未知,未知
2,300550,50890942.75,51728004.13,2015-12-31,年度报告,43609358.42999999,2015,12,0.0,True,未知,未知,未知,未知,未知,未知,未知,未知
3,300550,-1608200.4699999997,-1190970.2,2016-03-31,一季度报告,-3663785.34,2016,3,未知,未知,未知,未知,未知,未知,未知,未知,未知,未知
4,300550,17228892.929999996,17846659.53,2016-06-30,半年度报告,12760982.97,2016,6,未知,未知,未知,未知,未知,未知,未知,未知,未知,未知
5,300550,33673131.92,35148446.7,2016-09-30,三季度报告,30005105.48,2016,9,0.8914724985865009,False,未知,未知,未知,未知,未知,未知,未知,未知
6,300550,51727717.65,52070995.55,2016-12-31,年度报告,44096531.33000001,2016,12,-0.0967838187670438,True,未知,未知,未知,未知,未知,未知,未知,未知
7,300550,-197599.04,1092733.87,2017-03-31,一季度报告,554769.12,2017,3,-29.581960910631995,False,未知,未知,未知,未知,未知,未知,69570000.0,未知
8,300550,10870418.55,12507479.13,2017-06-30,半年度报告,10803344.1,2017,6,1.6679324757983744,False,未知,未知,未知,未知,未知,未知,68000000.0,未知
9,300550,20403381.29,20673073.86,2017-09-30,三季度报告,17890014.68,2017,9,0.36505042296641815,True,未知,未知,未知,未知,未知,未知,,未知
10,300550,33396854.009999994,32904573.340000004,2017-12-31,年度报告,26151575.23,2017,12,-0.1113947210852826,True,0.06813143067884388,True,0.0,True,比例外推,32904573.340000004,68776667.0,68776667.0
11,300550,1947251.9,3013278.96,2018-03-31,一季度报告,2074654.45,2018,3,-233.6201735089401,False,未知,未知,未知,未知,未知,未知,66000000.0,未知
12,300550,12709021.039999995,14178415.29,2018-06-30,半年度报告,12110382.62,2018,6,3.228496148384277,False,未知,未知,未知,未知,未知,未知,49000000.0,未知
13,300550,22014760.200000007,25688647.219999995,2018-09-30,三季度报告,22333945.35,2018,9,1.252838503416509,False,0.29612665167404895,True,,False,前期平均,,45600000.0,
14,300550,38594312.63,40444026.83,2018-12-31,年度报告,34900971.38,2018,12,0.37634290212594806,True,0.3491075818019548,True,0.0,True,比例外推,40444026.83,47800000.0,47800000.0
15,300550,5475339.449999998,6457702.8199999975,2019-03-31,一季度报告,5981708.34,2019,3,22.605329628899067,False,-3.156664556853269,True,0.0822762565335849,True,前期平均,43136264.21000001,77550000.0,77550000.0
16,300550,19330513.66,21231444.89,2019-06-30,半年度报告,19152986.58,2019,6,2.616763464733395,False,0.09542117791421437,True,0.06327655110052632,True,前期平均,44573334.635000005,62350000.0,62350000.0
17,300550,34248576.0,34673376.47,2019-09-30,三季度报告,28686549.33,2019,9,1.0879411155248462,False,0.185792171381014,True,0.028228046220760028,True,前期平均,45849869.67,68350000.0,68350000.0
18,300550,41358698.69000001,41234827.65000001,2019-12-31,年度报告,32192174.83,2019,12,0.19099213945503027,True,0.09322744590947632,True,0.0,True,比例外推,41234827.65000001,66233333.0,66233333.0
19,300550,-248377.31,623402.16,2020-03-31,一季度报告,138179.15000000002,2020,3,7.395008819042263,False,5.258772325842966,False,0.09698911893066102,True,去年同期,26833868.65,70500000.0,70500000.0
