,SECURITYCODE_x,NETPROFIT_x,PARENTNETPROFIT_x,REPORTDATE_x,REPORTTIMETYPE_x,KCFJCXSYJLR,Year,Month,managesituationChangeRate,managesituationGreatChange,historyprofitextroplaterate,ifhistoryprofitextroplate,IfprofitdisStableChangeRage,IfprofitdisStable,predicttype,predict,analyst_prediction,adj_prediction
0,300553,34220826.36,34220826.36,2014-12-31,年度报告,32305827.3,2014,12,未知,未知,未知,未知,未知,未知,未知,未知,未知,未知
1,300553,22204077.41,22204077.41,2015-09-30,三季度报告,21780251.2,2015,9,未知,未知,未知,未知,未知,未知,未知,未知,未知,未知
2,300553,30024517.42000001,30024517.42000001,2015-12-31,年度报告,29391624.809999995,2015,12,0.0,True,未知,未知,未知,未知,未知,未知,未知,未知
3,300553,4242005.89,4242005.89,2016-03-31,一季度报告,4118627.8,2016,3,未知,未知,未知,未知,未知,未知,未知,未知,未知,未知
4,300553,15411692.499999998,15411692.499999998,2016-06-30,半年度报告,14594667.830000002,2016,6,未知,未知,未知,未知,未知,未知,未知,未知,未知,未知
5,300553,27288449.68,27288449.68,2016-12-31,年度报告,26384820.85,2016,12,0.13976274393688454,True,未知,未知,未知,未知,未知,未知,未知,未知
6,300553,4772866.62,4772866.62,2017-03-31,一季度报告,4332976.72,2017,3,7.067133155253587,False,未知,未知,未知,未知,未知,未知,30600000.0,未知
7,300553,13002206.92,13002206.92,2017-06-30,半年度报告,11860818.950000005,2017,6,1.2204457012102987,False,未知,未知,未知,未知,未知,未知,,未知
8,300553,17862245.19,17862245.19,2017-09-30,三季度报告,16024843.03,2017,9,未知,未知,未知,未知,未知,未知,未知,未知,未知,未知
9,300553,21320172.64,22041182.36,2017-12-31,年度报告,17943929.119999994,2017,12,0.2540406934543011,True,0.1504925314604645,True,0.0,True,比例外推,22041182.36,,22041182.36
10,300553,1528429.62,2226527.28,2018-03-31,一季度报告,2223721.6899999995,2018,3,6.169868568420208,False,未知,未知,未知,未知,未知,未知,未知,未知
11,300553,9658044.33,10783471.29,2018-06-30,半年度报告,10431861.98,2018,6,1.6319244548678509,False,未知,未知,未知,未知,未知,未知,未知,未知
12,300553,16370687.65,18149600.14,2018-09-30,三季度报告,16893299.36,2018,9,0.9158188680087196,False,未知,未知,未知,未知,未知,未知,未知,未知
13,300553,11985150.63,16370155.499999998,2018-12-31,年度报告,13253477.02,2018,12,0.6050914285654677,False,0.2560087631547522,True,0.0,True,前期平均,16370155.499999998,未知,16370155.499999998
14,300553,2097712.45,2730686.83,2019-03-31,一季度报告,1824353.69,2019,3,21.38953361817209,False,0.6609093210570539,True,0.05302128529749925,True,前期平均,20669259.555,未知,20669259.555
15,300553,9855904.29,11192122.29,2019-06-30,半年度报告,9258559.95,2019,6,2.5432459399365794,False,0.3201887437384333,True,0.12002259895552025,False,前期平均,20128753.88499999,未知,20128753.88499999
16,300553,12781969.46,15482444.990000002,2019-09-30,三季度报告,12982010.899999995,2019,9,1.090371955755933,False,未知,未知,未知,未知,未知,未知,未知,未知
17,300553,17632716.5,20856493.17,2019-12-31,年度报告,16545380.98,2019,12,1.8552687752077084,False,0.5068714126025039,True,0.0,True,前期平均,20856493.17,未知,20856493.17
18,300553,-2190834.28,-1257092.4899999998,2020-03-31,一季度报告,-2713671.3,2020,3,15.313401944103443,False,0.33419653033167024,True,0.06829953695070762,True,盈利变化,14805793.183333334,未知,14805793.183333334
