,SECURITYCODE_x,NETPROFIT_x,PARENTNETPROFIT_x,REPORTDATE_x,REPORTTIMETYPE_x,KCFJCXSYJLR,Year,Month,managesituationChangeRate,managesituationGreatChange,historyprofitextroplaterate,ifhistoryprofitextroplate,IfprofitdisStableChangeRage,IfprofitdisStable,predicttype,predict,analyst_prediction,adj_prediction
0,300585,9452097.04,9855554.56,2012-12-31,年度报告,7412954.56,2012,12,未知,未知,未知,未知,未知,未知,未知,未知,未知,未知
1,300585,21991143.89,21991143.89,2013-12-31,年度报告,20900543.89,2013,12,0.0,True,未知,未知,未知,未知,未知,未知,未知,未知
2,300585,31881070.09,31881070.09,2014-12-31,年度报告,31596567.39,2014,12,-0.5701862037154812,True,未知,未知,未知,未知,未知,未知,未知,未知
3,300585,29355973.13000001,29506433.72,2015-09-30,三季度报告,29264586.11,2015,9,未知,未知,未知,未知,未知,未知,未知,未知,未知,未知
4,300585,39472263.46,39536656.31,2015-12-31,年度报告,38027233.51,2015,12,-0.7035200821893115,True,1.0278488569912185,True,0.0,True,比例外推,39536656.31,未知,39536656.31
5,300585,12860742.3,13111548.03,2016-03-31,一季度报告,13111548.03,2016,3,未知,未知,未知,未知,未知,未知,未知,未知,未知,未知
6,300585,25048167.20000001,25561847.73,2016-06-30,半年度报告,24938726.76,2016,6,未知,未知,未知,未知,未知,未知,未知,未知,未知,未知
7,300585,50213540.27,51101229.12000001,2016-12-31,年度报告,49314122.71000002,2016,12,-0.7605382561965703,True,0.4654034257680233,True,0.0,True,比例外推,51101229.12000001,未知,51101229.12000001
8,300585,16273987.78,16523527.77,2017-03-31,一季度报告,16332277.77,2017,3,-0.2650426530978699,True,未知,未知,未知,未知,未知,未知,67375000.0,未知
9,300585,30383300.44,30290298.76,2017-06-30,半年度报告,29241917.09,2017,6,-0.6226431672813173,True,未知,未知,未知,未知,未知,未知,64230000.0,未知
10,300585,46354840.99000001,46078187.56,2017-09-30,三季度报告,44287477.86,2017,9,未知,未知,未知,未知,未知,未知,未知,未知,65050000.0,未知
11,300585,59411047.63,58852972.19000001,2017-12-31,年度报告,53631456.68999999,2017,12,-0.8117619871218852,True,0.4074616495615713,True,0.0,True,比例外推,58852972.19000001,未知,58852972.19000001
12,300585,15648976.870000005,15129313.27,2018-03-31,一季度报告,13825799.409999998,2018,3,-0.4191898649686709,True,未知,未知,未知,未知,未知,未知,69800000.0,未知
13,300585,29140888.79000001,28426581.08,2018-06-30,半年度报告,25185888.83,2018,6,-0.688904862107864,True,未知,未知,未知,未知,未知,未知,,未知
14,300585,35778458.190000005,34452806.550000004,2018-09-30,三季度报告,30639552.840000004,2018,9,-0.7960925582284044,True,未知,未知,未知,未知,未知,未知,未知,未知
15,300585,45808288.84,44596182.14000001,2018-12-31,年度报告,40414946.34,2018,12,-0.8409033771148803,True,0.32487071886778307,True,0.0,True,比例外推,44596182.14000001,92830000.0,92830000.0
16,300585,5134332.85,5187824.5200000005,2019-03-31,一季度报告,3560284.82,2019,3,-0.3959926506045123,True,0.07424896863846324,True,0.03828927908440166,True,比例外推,13332556.098211069,未知,13332556.098211069
17,300585,13858357.13,13890990.85,2019-06-30,半年度报告,10975416.81,2019,6,-0.675641429191975,True,0.05142043069311026,True,0.06513841724119984,True,比例外推,22583224.685041614,未知,22583224.685041614
18,300585,22441718.360000007,22636128.53,2019-09-30,三季度报告,18175702.89,2019,9,-0.7358159764793376,True,未知,未知,未知,未知,未知,未知,未知,未知
19,300585,21110609.750000004,21212308.77,2019-12-31,年度报告,19021333.770000003,2019,12,-0.7936596786443072,True,0.16426980994835738,True,0.0,True,比例外推,21212308.77,未知,21212308.77
20,300585,3269908.76,3495013.8199999994,2020-03-31,一季度报告,2672146.03,2020,3,0.8409591501259993,False,0.6783298226657656,True,0.0907592181153287,True,前期平均,35439176.745000005,未知,35439176.745000005
