,SECURITYCODE_x,NETPROFIT_x,PARENTNETPROFIT_x,REPORTDATE_x,REPORTTIMETYPE_x,KCFJCXSYJLR,Year,Month,managesituationChangeRate,managesituationGreatChange,historyprofitextroplaterate,ifhistoryprofitextroplate,IfprofitdisStableChangeRage,IfprofitdisStable,predicttype,predict,analyst_prediction,adj_prediction
0,300591,20273146.71000001,20273146.71000001,2012-12-31,年度报告,20034055.05,2012,12,未知,未知,未知,未知,未知,未知,未知,未知,未知,未知
1,300591,29213689.8,29213689.8,2013-12-31,年度报告,29366734.36000001,2013,12,0.0,True,未知,未知,未知,未知,未知,未知,未知,未知
2,300591,26287096.03,26287096.03,2014-12-31,年度报告,25706707.469999995,2014,12,-0.30603950241163963,True,未知,未知,未知,未知,未知,未知,未知,未知
3,300591,32068780.889999993,32068780.889999993,2015-12-31,年度报告,32094196.160000004,2015,12,-0.22877952411086439,True,0.06238740981909649,True,0.0,True,比例外推,32068780.889999993,未知,32068780.889999993
4,300591,-1329452.86,-1329452.86,2016-03-31,一季度报告,-1276472.49,2016,3,未知,未知,未知,未知,未知,未知,未知,未知,未知,未知
5,300591,12534257.990000002,12534257.990000002,2016-06-30,半年度报告,12555908.510000005,2016,6,未知,未知,未知,未知,未知,未知,未知,未知,未知,未知
6,300591,37002327.2,37002327.2,2016-12-31,年度报告,35429243.52,2016,12,-0.3678229684022138,True,0.15561538131107916,True,0.0,True,比例外推,37002327.2,未知,37002327.2
7,300591,-2368885.35,-2368885.35,2017-03-31,一季度报告,-2583636.0700000003,2017,3,-16.24924073652375,False,未知,未知,未知,未知,未知,未知,未知,未知
8,300591,13169117.03,13169117.03,2017-06-30,半年度报告,13014342.840000002,2017,6,0.6174189749544166,False,未知,未知,未知,未知,未知,未知,未知,未知
9,300591,22864942.6,22864942.6,2017-09-30,三季度报告,22771294.03,2017,9,未知,未知,未知,未知,未知,未知,未知,未知,未知,未知
10,300591,37332410.09,37332410.09,2017-12-31,年度报告,34703061.72,2017,12,-0.45211157664699514,True,0.26816112285405125,True,0.0,True,比例外推,37332410.09,未知,37332410.09
11,300591,-4853186.040000001,-4889871.13,2018-03-31,一季度报告,-4941116.0600000005,2018,3,-9.558095354846957,False,未知,未知,未知,未知,未知,未知,未知,未知
12,300591,13529159.78,12200294.409999998,2018-06-30,半年度报告,11584699.5,2018,6,0.5394461651313922,False,未知,未知,未知,未知,未知,未知,未知,未知
13,300591,14564341.05,12547496.169999998,2018-09-30,三季度报告,12231418.080000002,2018,9,-0.11335238995964035,True,未知,未知,未知,未知,未知,未知,未知,未知
14,300591,42739240.69000001,37797261.11,2018-12-31,年度报告,37597046.05,2018,12,-0.456955855217329,True,0.08098483207640694,True,0.0,True,比例外推,37797261.11,未知,37797261.11
15,300591,-3559444.37,-4338813.09,2019-03-31,一季度报告,-4360984.7700000005,2019,3,-5.177286125631401,False,-1.624522563608373,True,0.05078912944068656,True,前期平均,32657393.81,未知,32657393.81
16,300591,14798310.46,12835535.96,2019-06-30,半年度报告,12838113.750000002,2019,6,0.4984778833028173,True,0.05271465474653434,True,0.03771936797038872,True,比例外推,37118181.2641938,未知,37118181.2641938
17,300591,13929380.569999995,11367832.470000004,2019-09-30,三季度报告,11423300.64,2019,9,0.3919714349177512,True,未知,未知,未知,未知,未知,未知,未知,未知
18,300591,29429236.5,23998807.09,2019-12-31,年度报告,22486794.42,2019,12,-0.525654962916937,True,0.14991300832241117,True,0.0,True,比例外推,23998807.09,未知,23998807.09
19,300591,-29208192.070000004,-28234946.759999994,2020-03-31,一季度报告,-28417483.83,2020,3,-6.695593076511548,False,-0.014287126840489507,True,0.060665983237902815,True,前期平均,11677483.190000009,未知,11677483.190000009
