,SECURITYCODE_x,NETPROFIT_x,PARENTNETPROFIT_x,REPORTDATE_x,REPORTTIMETYPE_x,KCFJCXSYJLR,Year,Month,managesituationChangeRate,managesituationGreatChange,historyprofitextroplaterate,ifhistoryprofitextroplate,IfprofitdisStableChangeRage,IfprofitdisStable,predicttype,predict,analyst_prediction,adj_prediction
0,300570,84255842.63,84255842.63,2014-12-31,年度报告,82991886.15999998,2014,12,未知,未知,未知,未知,未知,未知,未知,未知,未知,未知
1,300570,116444322.14000002,116444322.14000002,2015-12-31,年度报告,114450142.83,2015,12,0.0,True,未知,未知,未知,未知,未知,未知,未知,未知
2,300570,15416276.88,15416276.88,2016-03-31,一季度报告,15416276.88,2016,3,未知,未知,未知,未知,未知,未知,未知,未知,未知,未知
3,300570,46084388.18999999,46084388.18999999,2016-06-30,半年度报告,45015749.46999999,2016,6,未知,未知,未知,未知,未知,未知,未知,未知,未知,未知
4,300570,101396772.26,101396772.26,2016-12-31,年度报告,99189388.67999998,2016,12,-0.27642807239068373,True,未知,未知,未知,未知,未知,未知,104940820.0,未知
5,300570,21269628.390000004,21269628.390000004,2017-03-31,一季度报告,21039306.13,2017,3,4.465382030035257,False,未知,未知,未知,未知,未知,未知,121040000.0,未知
6,300570,47916983.27,47916983.27,2017-06-30,半年度报告,47230927.9,2017,6,0.8282946989037594,False,未知,未知,未知,未知,未知,未知,,未知
7,300570,78216119.16999999,78216119.16999999,2017-09-30,三季度报告,77527579.16000001,2017,9,未知,未知,未知,未知,未知,未知,未知,未知,117480000.0,未知
8,300570,100031162.74,100108625.43,2017-12-31,年度报告,86638769.06000002,2017,12,-0.16904807961783544,True,0.010430383813580761,True,0.0,True,比例外推,100108625.43,117480000.0,117480000.0
9,300570,21291282.18,21525699.300000004,2018-03-31,一季度报告,17377745.409999996,2018,3,2.9613218005074877,False,未知,未知,未知,未知,未知,未知,121000000.0,未知
10,300570,61570211.12,62367399.07,2018-06-30,半年度报告,53750978.95999999,2018,6,0.7583711844971494,False,未知,未知,未知,未知,未知,未知,,未知
11,300570,106678279.93,107791479.54999997,2018-09-30,三季度报告,95186599.17,2018,9,0.07721839851032344,True,未知,未知,未知,未知,未知,未知,139000000.0,未知
12,300570,151235522.33999997,152734465.93,2018-12-31,年度报告,143697528.17,2018,12,-0.1577040561949985,True,0.08161347595580223,True,0.0,True,比例外推,152734465.93,141395000.0,152734465.93
13,300570,34604299.45,34929771.739999995,2019-03-31,一季度报告,27407052.92,2019,3,2.957293032786248,False,0.16073363997976642,True,0.06977444594373555,True,前期平均,109616059.105,193333332.99999997,193333332.99999997
14,300570,101484282.37,102003178.12,2019-06-30,半年度报告,83724290.87999998,2019,6,0.3684514166401968,True,0.30998537922821073,True,0.08746757181682435,True,比例外推,201210767.05132067,217002000.0,201210767.05132067
15,300570,146934963.57000002,148198528.96,2019-09-30,三季度报告,127811128.95,2019,9,-0.21018746566511134,True,未知,未知,未知,未知,未知,未知,209500000.0,未知
16,300570,166157800.7,168055430.45000002,2019-12-31,年度报告,144028904.35,2019,12,-0.4428832504007867,True,0.501634044354374,True,0.0,True,比例外推,168055430.45000002,183040000.0,168055430.45000002
17,300570,11892747.209999995,12720643.760000002,2020-03-31,一季度报告,10124269.03,2020,3,1.4348374037088039,False,0.6261071009317927,True,0.06375411356149897,True,前期平均,108680266.605,184320000.0,184320000.0
