,SECURITYCODE_x,NETPROFIT_x,PARENTNETPROFIT_x,REPORTDATE_x,REPORTTIMETYPE_x,KCFJCXSYJLR,Year,Month,managesituationChangeRate,managesituationGreatChange,historyprofitextroplaterate,ifhistoryprofitextroplate,IfprofitdisStableChangeRage,IfprofitdisStable,predicttype,predict,analyst_prediction,adj_prediction
0,300560,33379117.059999995,33377996.140000004,2014-12-31,年度报告,31548037.1,2014,12,未知,未知,未知,未知,未知,未知,未知,未知,未知,未知
1,300560,24316633.32,24316633.32,2015-09-30,三季度报告,21580425.76,2015,9,未知,未知,未知,未知,未知,未知,未知,未知,未知,未知
2,300560,34713273.029999994,34712152.11000001,2015-12-31,年度报告,31287397.489999995,2015,12,0.0,True,未知,未知,未知,未知,未知,未知,未知,未知
3,300560,7401053.429999999,7401053.429999999,2016-03-31,一季度报告,7322444.869999999,2016,3,未知,未知,未知,未知,未知,未知,未知,未知,未知,未知
4,300560,22440438.42,22440438.42,2016-06-30,半年度报告,22242806.500000004,2016,6,未知,未知,未知,未知,未知,未知,未知,未知,未知,未知
5,300560,38154442.94000001,38153322.02,2016-12-31,年度报告,37941229.22999999,2016,12,-0.0384335976860203,True,未知,未知,未知,未知,未知,未知,44000000.0,未知
6,300560,8577438.1,8577438.1,2017-03-31,一季度报告,7362788.1000000015,2017,3,3.5100494646746525,False,未知,未知,未知,未知,未知,未知,46500000.0,未知
7,300560,25350376.56,25350376.56,2017-06-30,半年度报告,23383319.72,2017,6,0.48745387390697836,True,未知,未知,未知,未知,未知,未知,46000000.0,未知
8,300560,32285258.82,32285258.82,2017-09-30,三季度报告,30396274.31,2017,9,未知,未知,未知,未知,未知,未知,未知,未知,45500000.0,未知
9,300560,39031979.95,39030859.03,2017-12-31,年度报告,36297797.42,2017,12,-0.12515779322239048,True,0.12066687304029157,True,0.0,True,比例外推,39030859.03,51000000.0,51000000.0
10,300560,9161353.25,9161353.25,2018-03-31,一季度报告,8336853.250000001,2018,3,2.891501946251293,False,未知,未知,未知,未知,未知,未知,未知,未知
11,300560,28183079.31,28294520.62,2018-06-30,半年度报告,26745897.12,2018,6,0.3167108970155667,True,未知,未知,未知,未知,未知,未知,未知,未知
12,300560,34592357.77,34788220.76,2018-09-30,三季度报告,33169836.73999999,2018,9,0.03388104292731808,True,未知,未知,未知,未知,未知,未知,未知,未知
13,300560,68620005.1,58506090.53,2018-12-31,年度报告,53222855.74999999,2018,12,-0.14482644480862436,True,0.07131064643414001,True,0.0,True,比例外推,58506090.53,,58506090.53
14,300560,5763247.1099999985,7623891.349999999,2019-03-31,一季度报告,7640891.35,2019,3,2.643470145635962,False,0.14671065573359557,True,0.027519131518366796,True,前期平均,37400788.19,未知,37400788.19
15,300560,18062462.82,21490494.520000003,2019-06-30,半年度报告,21493543.110000007,2019,6,0.18436728268214198,True,0.17943497392937727,True,0.07513276977357819,True,比例外推,37204944.15976526,未知,37204944.15976526
16,300560,32994180.680000003,34801851.21999999,2019-09-30,三季度报告,34619059.1,2019,9,-0.035072506998993384,True,未知,未知,未知,未知,未知,未知,未知,未知
17,300560,65100161.82,56867391.04999999,2019-12-31,年度报告,52462415.82000001,2019,12,-0.5135658032762228,True,0.7780330408054225,True,0.0,True,比例外推,56867391.04999999,未知,56867391.04999999
18,300560,12569691.750000002,13931218.459999995,2020-03-31,一季度报告,13441373.459999995,2020,3,4.791720608696926,False,0.3502097187698193,True,0.03446744892235118,True,前期平均,50841724.36999999,未知,50841724.36999999
