,SECURITYCODE_x,NETPROFIT_x,PARENTNETPROFIT_x,REPORTDATE_x,REPORTTIMETYPE_x,KCFJCXSYJLR,Year,Month,managesituationChangeRate,managesituationGreatChange,historyprofitextroplaterate,ifhistoryprofitextroplate,IfprofitdisStableChangeRage,IfprofitdisStable,predicttype,predict,analyst_prediction,adj_prediction
0,300543,53273307.52,53273307.52,2014-12-31,年度报告,48724565.2,2014,12,未知,未知,未知,未知,未知,未知,未知,未知,未知,未知
1,300543,29612300.00000001,29612300.00000001,2015-06-30,半年度报告,29020992.03,2015,6,未知,未知,未知,未知,未知,未知,未知,未知,未知,未知
2,300543,52695449.43000002,52695449.43000002,2015-09-30,三季度报告,,2015,9,未知,未知,未知,未知,未知,未知,未知,未知,未知,未知
3,300543,62720488.04,62720488.04,2015-12-31,年度报告,60151954.3,2015,12,0.0,True,未知,未知,未知,未知,未知,未知,未知,未知
4,300543,22681727.92,22681727.92,2016-03-31,一季度报告,22660140.460000005,2016,3,未知,未知,未知,未知,未知,未知,未知,未知,未知,未知
5,300543,35378122.16,35378122.16,2016-06-30,半年度报告,34708169.4,2016,6,0.7990263343272891,False,未知,未知,未知,未知,未知,未知,未知,未知
6,300543,61328600.37,61328600.37,2016-09-30,三季度报告,60156436.81999999,2016,9,0.010965996044261862,True,未知,未知,未知,未知,未知,未知,未知,未知
7,300543,76580804.83,76580804.83,2016-12-31,年度报告,71870499.82,2016,12,-0.1506235173740207,True,未知,未知,未知,未知,未知,未知,未知,未知
8,300543,22808913.14,22808913.14,2017-03-31,一季度报告,18221259.63,2017,3,1.3487323235645268,False,未知,未知,未知,未知,未知,未知,未知,未知
9,300543,40559295.51,40559295.51,2017-06-30,半年度报告,35490425.410000004,2017,6,0.5058263205454432,False,未知,未知,未知,未知,未知,未知,未知,未知
10,300543,64485833.79000001,64485833.79000001,2017-09-30,三季度报告,57447130.87000001,2017,9,-0.13134643219316622,True,未知,未知,未知,未知,未知,未知,87000000.0,未知
11,300543,80171411.27000001,80171411.27000001,2017-12-31,年度报告,72131788.14999999,2017,12,-0.3043516891960039,True,0.3204293291771303,True,0.0,True,比例外推,80171411.27000001,未知,80171411.27000001
12,300543,6625116.280000001,6625116.280000001,2018-03-31,一季度报告,3577552.56,2018,3,1.3356355120040586,False,未知,未知,未知,未知,未知,未知,未知,未知
13,300543,19535306.25,19535306.25,2018-06-30,半年度报告,13193492.41,2018,6,0.31346727920521533,True,0.2481622418191718,True,0.006218708655961636,True,比例外推,33499910.788196407,未知,33499910.788196407
14,300543,32150625.32,32150625.32,2018-09-30,三季度报告,25691105.86,2018,9,-0.17387580513441017,True,0.13109179867070464,True,,False,平均增速,43505086.20044998,未知,43505086.20044998
15,300543,44574584.03999999,44574584.03999999,2018-12-31,年度报告,34914588.12,2018,12,-0.33550742495243097,True,0.15105049807137527,True,0.0,True,比例外推,44574584.03999999,,44574584.03999999
16,300543,20602506.19,20602506.19,2019-03-31,一季度报告,17509611.84,2019,3,7.04111283009813,False,0.7087261851833749,True,0.12099008553882612,False,前期平均,72162950.13,未知,72162950.13
17,300543,42282465.84,42498864.34,2019-06-30,半年度报告,39647687.39999999,2019,6,1.727026996057459,False,0.48548931872046885,True,0.07306344354418232,True,前期平均,79400710.91999999,未知,79400710.91999999
18,300543,75010502.70000002,75775654.56,2019-09-30,三季度报告,72113175.12,2019,9,0.6569913334425933,False,0.48891992346261964,True,0.053925352693743545,True,前期平均,88975014.69999999,未知,88975014.69999999
19,300543,102293639.98000003,103232856.67,2019-12-31,年度报告,96566055.10000002,2019,12,0.1951498520366229,True,0.4312733159502683,True,0.0,True,比例外推,103232856.67,未知,103232856.67
20,300543,19313633.15,19529035.37,2020-03-31,一季度报告,19296893.69,2020,3,1.5857683055014775,False,0.39991068813710523,True,0.07633387809491107,True,前期平均,62152817.41,未知,62152817.41
