,SECURITYCODE_x,NETPROFIT_x,PARENTNETPROFIT_x,REPORTDATE_x,REPORTTIMETYPE_x,KCFJCXSYJLR,Year,Month,managesituationChangeRate,managesituationGreatChange,historyprofitextroplaterate,ifhistoryprofitextroplate,IfprofitdisStableChangeRage,IfprofitdisStable,predicttype,predict,analyst_prediction,adj_prediction
0,300597,59033914.88,59033914.88,2011-12-31,年度报告,31268598.6,2011,12,未知,未知,未知,未知,未知,未知,未知,未知,未知,未知
1,300597,66672824.85000001,66672824.85000001,2012-12-31,年度报告,34307123.94,2012,12,0.0,True,未知,未知,未知,未知,未知,未知,未知,未知
2,300597,42911571.45,42911571.45,2013-12-31,年度报告,43794615.85,2013,12,-0.11457306612080657,True,未知,未知,未知,未知,未知,未知,未知,未知
3,300597,8246475.439999999,8246475.439999999,2014-06-30,半年度报告,8103320.499999999,2014,6,未知,未知,未知,未知,未知,未知,未知,未知,未知,未知
4,300597,54548416.91,54548416.91,2014-12-31,年度报告,53670618.76999999,2014,12,0.37571086038612084,True,0.31727492826290965,True,0.0,True,比例外推,54548416.91,未知,54548416.91
5,300597,35741048.47000001,35741048.47000001,2015-09-30,三季度报告,36070743.36,2015,9,未知,未知,未知,未知,未知,未知,未知,未知,未知,未知
6,300597,57740480.79000001,57740480.79000001,2015-12-31,年度报告,57720928.44000001,2015,12,0.08222966355560192,True,0.004449196203675386,True,0.0,True,比例外推,57740480.79000001,未知,57740480.79000001
7,300597,2486161.2099999995,2486161.2099999995,2016-03-31,一季度报告,2426742.18,2016,3,未知,未知,未知,未知,未知,未知,未知,未知,未知,未知
8,300597,13679229.110000005,13679229.110000005,2016-06-30,半年度报告,13464797.53,2016,6,未知,未知,未知,未知,未知,未知,未知,未知,未知,未知
9,300597,36204798.11,36204798.11,2016-09-30,三季度报告,35947982.97999999,2016,9,0.6517118945055945,False,未知,未知,未知,未知,未知,未知,未知,未知
10,300597,54984235.73,54984235.73,2016-12-31,年度报告,54670156.24,2016,12,0.02240081953429117,True,0.1849063756649931,True,0.0,True,比例外推,54984235.73,未知,54984235.73
11,300597,2690381.49,2690381.49,2017-03-31,一季度报告,2444906.1699999995,2017,3,22.745006817156483,False,未知,未知,未知,未知,未知,未知,未知,未知
12,300597,13440275.12,13440275.12,2017-06-30,半年度报告,12425133.240000006,2017,6,3.3155878452861134,False,未知,未知,未知,未知,未知,未知,未知,未知
13,300597,33883652.879999995,33883652.879999995,2017-09-30,三季度报告,32294798.99,2017,9,0.6305550082240192,False,未知,未知,未知,未知,未知,未知,未知,未知
14,300597,41890862.68000001,41890862.68000001,2017-12-31,年度报告,39846665.93,2017,12,0.07365164026078218,True,0.02066478777091076,True,0.0,True,比例外推,41890862.68000001,未知,41890862.68000001
15,300597,2818059.46,2818059.46,2018-03-31,一季度报告,2827411.1299999994,2018,3,20.942581414355477,False,未知,未知,未知,未知,未知,未知,未知,未知
16,300597,13297523.48,13297523.48,2018-06-30,半年度报告,13082122.54,2018,6,3.392314469229407,False,未知,未知,未知,未知,未知,未知,未知,未知
17,300597,24334667.67,24334667.67,2018-09-30,三季度报告,23573910.460000005,2018,9,0.7422535607087712,False,0.05807897215239109,True,0.11283145070326517,False,前期平均,44520846.84000001,未知,44520846.84000001
18,300597,43882085.71,43882085.71,2018-12-31,年度报告,39648929.41,2018,12,0.40923130017526754,True,0.2567581631918749,True,0.0,True,比例外推,43882085.71,未知,43882085.71
19,300597,2928634.17,2928634.17,2019-03-31,一季度报告,2895140.72,2019,3,19.948427709896514,False,0.08878053299937055,True,0.014630478847760704,True,前期平均,47751221.08,未知,47751221.08
20,300597,12391959.38,12391959.38,2019-06-30,半年度报告,11581674.720000004,2019,6,3.4394668652993423,False,0.019338748435520466,True,0.049729836056990245,True,前期平均,46705405.08,未知,46705405.08
21,300597,18696788.19,18696788.19,2019-09-30,三季度报告,17852700.29,2019,9,1.4259182693823078,False,0.3056012131450302,True,0.12294814176101165,False,前期平均,31833808.29000001,未知,31833808.29000001
22,300597,41810470.54,41946889.95,2019-12-31,年度报告,40800541.79999999,2019,12,0.345285073050827,True,0.09404818306805986,True,0.0,True,比例外推,41946889.95,未知,41946889.95
23,300597,2691813.75,2805427.3100000005,2020-03-31,一季度报告,2973790.98,2020,3,19.157490302040696,False,0.06332597429405132,True,0.00651794252803653,True,前期平均,39917066.33,未知,39917066.33
