,SECURITYCODE_x,NETPROFIT_x,PARENTNETPROFIT_x,REPORTDATE_x,REPORTTIMETYPE_x,KCFJCXSYJLR,Year,Month,managesituationChangeRate,managesituationGreatChange,historyprofitextroplaterate,ifhistoryprofitextroplate,IfprofitdisStableChangeRage,IfprofitdisStable,predicttype,predict,analyst_prediction,adj_prediction
0,300536,42683695.14,42683695.14,2014-12-31,年度报告,43662087.64000001,2014,12,未知,未知,未知,未知,未知,未知,未知,未知,未知,未知
1,300536,23025250.08,23025250.08,2015-06-30,半年度报告,23025300.0,2015,6,未知,未知,未知,未知,未知,未知,未知,未知,未知,未知
2,300536,35539207.57,35539207.57,2015-09-30,三季度报告,,2015,9,未知,未知,未知,未知,未知,未知,未知,未知,未知,未知
3,300536,47504135.24,47504135.24,2015-12-31,年度报告,46733080.52,2015,12,0.0,True,未知,未知,未知,未知,未知,未知,未知,未知
4,300536,3663800.79,3663800.79,2016-03-31,一季度报告,3663800.79,2016,3,未知,未知,未知,未知,未知,未知,未知,未知,未知,未知
5,300536,24187091.57,24187091.57,2016-06-30,半年度报告,24186394.570000004,2016,6,0.8537777002072849,False,未知,未知,未知,未知,未知,未知,52932500.0,未知
6,300536,38066271.43999999,38066271.43999999,2016-09-30,三季度报告,38116497.29000001,2016,9,0.2010311444319016,True,未知,未知,未知,未知,未知,未知,,未知
7,300536,50921911.37999998,50921911.37999998,2016-12-31,年度报告,47997014.23000001,2016,12,-0.10147411537219263,True,未知,未知,未知,未知,未知,未知,未知,未知
8,300536,4060207.1000000006,4060207.1000000006,2017-03-31,一季度报告,4060207.1000000006,2017,3,10.650113525959473,False,未知,未知,未知,未知,未知,未知,未知,未知
9,300536,25580719.63,25580719.63,2017-06-30,半年度报告,25587089.28,2017,6,0.7647303734915326,False,未知,未知,未知,未知,未知,未知,57380000.0,未知
10,300536,40845928.59,40845928.59,2017-09-30,三季度报告,40853126.79,2017,9,0.12129960527597214,True,未知,未知,未知,未知,未知,未知,,未知
11,300536,51890359.7,51890359.7,2017-12-31,年度报告,51217033.92,2017,12,-0.16178136320380956,True,0.12924129930710465,True,0.0,True,比例外推,51890359.7,未知,51890359.7
12,300536,4570825.830000001,4570825.830000001,2018-03-31,一季度报告,4093499.06,2018,3,9.512689153220778,False,未知,未知,未知,未知,未知,未知,未知,未知
13,300536,26527253.829999994,26527253.829999994,2018-06-30,半年度报告,26139427.06,2018,6,0.6685885212526369,False,0.08364545099829844,True,0.006033331469816772,True,前期平均,50286453.92,未知,50286453.92
14,300536,42357131.16,42357131.16,2018-09-30,三季度报告,41799668.90000001,2018,9,0.04499264953545268,True,0.10986109021722971,True,,False,平均增速,53084999.28680085,未知,53084999.28680085
15,300536,52246763.91000002,52246763.91000002,2018-12-31,年度报告,52140803.31,2018,12,-0.1774253370612114,True,0.054403005747789245,True,0.0,True,比例外推,52246763.91000002,未知,52246763.91000002
16,300536,4861697.209999999,4861697.209999999,2019-03-31,一季度报告,4861697.209999999,2019,3,8.338289562435591,False,0.18353732805417958,True,0.0017050789363144137,True,前期平均,50606717.34,未知,50606717.34
17,300536,27740686.579999994,27740686.579999994,2019-06-30,半年度报告,27839835.52,2019,6,0.6090506546037,False,0.06604060698574556,True,0.0023078913699297043,True,前期平均,52460968.72999999,未知,52460968.72999999
18,300536,44531056.49,44531056.49,2019-09-30,三季度报告,44691823.35,2019,9,0.007709775687273062,True,0.07352554215690635,True,0.0038492574326101092,True,比例外推,55856673.51215148,未知,55856673.51215148
19,300536,52503242.85,52526621.47999999,2019-12-31,年度报告,51987462.88,2019,12,-0.18303657593938844,True,0.016352685553379515,True,0.0,True,比例外推,52526621.47999999,未知,52526621.47999999
20,300536,1168731.72,1169778.36,2020-03-31,一季度报告,1194640.27,2020,3,7.779587312061338,False,0.12656208113899484,True,0.009750116055521299,True,前期平均,48771843.895,未知,48771843.895
