,SECURITYCODE_x,NETPROFIT_x,PARENTNETPROFIT_x,REPORTDATE_x,REPORTTIMETYPE_x,KCFJCXSYJLR,Year,Month,managesituationChangeRate,managesituationGreatChange,historyprofitextroplaterate,ifhistoryprofitextroplate,IfprofitdisStableChangeRage,IfprofitdisStable,predicttype,predict,analyst_prediction,adj_prediction
0,300523,51634875.19000001,35683453.010000005,2014-12-31,年度报告,34030223.379999995,2014,12,未知,未知,未知,未知,未知,未知,未知,未知,未知,未知
1,300523,-6361304.119999999,-5626087.68,2015-09-30,三季度报告,,2015,9,未知,未知,未知,未知,未知,未知,未知,未知,未知,未知
2,300523,92125453.43,77797712.63000001,2015-12-31,年度报告,76271539.53999999,2015,12,0.0,True,未知,未知,未知,未知,未知,未知,未知,未知
3,300523,2694896.87,2838915.6300000013,2016-03-31,一季度报告,2582502.6700000004,2016,3,未知,未知,未知,未知,未知,未知,未知,未知,未知,未知
4,300523,13556710.369999995,13316883.14,2016-06-30,半年度报告,12573515.77,2016,6,未知,未知,未知,未知,未知,未知,未知,未知,98966667.0,未知
5,300523,5970209.36,5036122.25,2016-09-30,三季度报告,4123095.69,2016,9,-9.117026668739117,False,未知,未知,未知,未知,未知,未知,,未知
6,300523,92334366.70000002,79355665.12999997,2016-12-31,年度报告,76747543.71000001,2016,12,-0.4395156466802748,True,未知,未知,未知,未知,未知,未知,未知,未知
7,300523,-14920743.57,-13238722.110000005,2017-03-31,一季度报告,-13802960.320000002,2017,3,18.160241627354004,False,未知,未知,未知,未知,未知,未知,107238000.0,未知
8,300523,-7053487.139999999,-6480984.710000001,2017-06-30,半年度报告,-10141388.14,2017,6,2.808805660130071,False,未知,未知,未知,未知,未知,未知,100822000.0,未知
9,300523,3023970.7,1611044.63,2017-09-30,三季度报告,-4882318.579999999,2017,9,7.648754520394242,False,未知,未知,未知,未知,未知,未知,93983333.0,未知
10,300523,120276715.29999998,91013130.51,2017-12-31,年度报告,85567601.14999999,2017,12,-0.44078378359636267,True,0.2845597611851093,True,0.0,True,比例外推,91013130.51,93983333.0,91013130.51
11,300523,11711666.28,2100518.74,2018-03-31,一季度报告,6585302.23,2018,3,-4.460610052559198,False,未知,未知,未知,未知,未知,未知,230134000.0,未知
12,300523,11711666.28,2100518.74,2018-03-31,一季度报告,6585302.23,2018,3,-4.460610052559198,False,未知,未知,未知,未知,未知,未知,230134000.0,未知
13,300523,8682592.66,9207604.44,2018-03-31,一季度报告,6585302.23,2018,3,-4.460610052559198,False,未知,未知,未知,未知,未知,未知,230134000.0,未知
14,300523,8682592.66,9207604.44,2018-03-31,一季度报告,6585302.23,2018,3,-4.460610052559198,False,未知,未知,未知,未知,未知,未知,230134000.0,未知
15,300523,64564154.94000001,54537826.01000001,2018-06-30,半年度报告,49680101.81,2018,6,-8.320474846715326,False,未知,未知,未知,未知,未知,未知,226455556.0,未知
16,300523,100109351.36,80902388.79,2018-09-30,三季度报告,72382872.46,2018,9,16.075190308556895,False,-16.464133040289312,True,,False,前期平均,,230216667.00000003,
17,300523,178041524.75,135568090.76,2018-12-31,年度报告,124130616.96,2018,12,-0.5706993239613352,True,0.3040966343264748,True,0.0,True,比例外推,135568090.76,230216667.00000003,230216667.00000003
18,300523,11711666.28,2100518.74,2019-03-31,一季度报告,1333394.8,2019,3,3.4088410611713584,False,-2.915886329574213,True,0.1364406320153619,False,前期平均,88868319.995,226753332.99999997,226753332.99999997
19,300523,-64809872.18,-70829077.73,2019-06-30,半年度报告,-74085247.37,2019,6,-0.2002547661626685,True,18.856047580270452,False,0.26703066388366054,False,未知,未知,218655000.0,未知
20,300523,39684491.77,19935292.720000006,2019-09-30,三季度报告,12135029.12,2019,9,-0.48421526572160567,True,21.260917769529286,False,0.38985746878476835,False,未知,未知,212200000.0,未知
21,300523,166976852.32999998,123531034.16999996,2019-12-31,年度报告,114120313.96,2019,12,-0.7099840879114915,True,0.6748094509015292,True,0.0,True,比例外推,123531034.16999996,298975000.0,298975000.0
22,300523,-8464346.410000002,-19690027.85,2020-03-31,一季度报告,-21521913.62,2020,3,3.4088410611713584,False,-8.299086448615887,True,0.12911889675039534,False,盈利变化,93057289.60999995,183550000.0,183550000.0
