,SECURITYCODE_x,NETPROFIT_x,PARENTNETPROFIT_x,REPORTDATE_x,REPORTTIMETYPE_x,KCFJCXSYJLR,Year,Month,managesituationChangeRate,managesituationGreatChange,historyprofitextroplaterate,ifhistoryprofitextroplate,IfprofitdisStableChangeRage,IfprofitdisStable,predicttype,predict,analyst_prediction,adj_prediction
0,300516,93103863.79000002,93103863.79000002,2014-12-31,年度报告,90753659.82,2014,12,未知,未知,未知,未知,未知,未知,未知,未知,未知,未知
1,300516,18493996.25,18493996.25,2015-03-31,一季度报告,18442996.25,2015,3,未知,未知,未知,未知,未知,未知,未知,未知,未知,未知
2,300516,50717169.12000001,50717169.12000001,2015-06-30,半年度报告,49547998.79999999,2015,6,未知,未知,未知,未知,未知,未知,未知,未知,未知,未知
3,300516,57208678.81999999,57208678.81999999,2015-09-30,三季度报告,,2015,9,未知,未知,未知,未知,未知,未知,未知,未知,未知,未知
4,300516,119810248.58,119810248.58,2015-12-31,年度报告,117512300.9,2015,12,0.0,True,未知,未知,未知,未知,未知,未知,未知,未知
5,300516,20912302.3,20912302.3,2016-03-31,一季度报告,20849402.3,2016,3,4.034275044259297,False,未知,未知,未知,未知,未知,未知,115870000.0,未知
6,300516,51282478.38,51282478.38,2016-06-30,半年度报告,51183328.54,2016,6,0.8357464623017586,False,未知,未知,未知,未知,未知,未知,151462500.0,未知
7,300516,52137585.85,52137585.85,2016-09-30,三季度报告,47749373.51,2016,9,0.6274429983419084,False,未知,未知,未知,未知,未知,未知,,未知
8,300516,140932026.54000002,140932026.54000002,2016-12-31,年度报告,128919330.42,2016,12,-0.22290567882569348,True,未知,未知,未知,未知,未知,未知,125700000.0,未知
9,300516,22892141.97000001,22892141.97000001,2017-03-31,一季度报告,21273611.380000006,2017,3,3.4521096938236218,False,未知,未知,未知,未知,未知,未知,201365000.0,未知
10,300516,38864941.25,38864941.25,2017-06-30,半年度报告,33938087.83999999,2017,6,0.815510223591499,False,未知,未知,未知,未知,未知,未知,154986667.0,未知
11,300516,27808456.21,27808456.21,2017-09-30,三季度报告,20867471.79,2017,9,0.7857340778658247,False,未知,未知,未知,未知,未知,未知,116295000.0,未知
12,300516,44541963.73000001,44541963.73000001,2017-12-31,年度报告,53819846.43000002,2017,12,-0.33937043214535184,True,0.3238392229735318,True,0.0,True,比例外推,44541963.73000001,73090000.0,73090000.0
13,300516,9539640.34,9539640.34,2018-03-31,一季度报告,9504305.400000002,2018,3,3.0670665030826725,False,0.1618519278563407,True,0.15729309894541987,False,前期平均,113109256.72500001,未知,113109256.72500001
14,300516,27504296.030000005,27504296.030000005,2018-06-30,半年度报告,27183635.97,2018,6,1.3955745408466305,False,0.23793969484061217,True,0.14750483260459551,False,前期平均,100354448.02000001,未知,100354448.02000001
15,300516,30702431.38000001,30702431.38000001,2018-09-30,三季度报告,29419170.62000001,2018,9,2.3480414405931533,False,0.49136888591623795,True,,False,前期平均,,未知,
16,300516,62684897.71,62684897.71,2018-12-31,年度报告,60998784.35999999,2018,12,1.0902505411384116,False,0.6583449023791733,True,0.0,True,前期平均,62684897.71,,62684897.71
17,300516,10091878.33,10091878.33,2019-03-31,一季度报告,9166407.12,2019,3,8.759682804771234,False,0.5644441791704987,True,0.15767104878286287,False,前期平均,80399959.915,69666667.0,69666667.0
18,300516,29053838.42,29053838.42,2019-06-30,半年度报告,26491545.93,2019,6,2.3850662343238316,False,0.38979293821413163,True,0.13950439849010315,False,前期平均,77862718.65500003,90000000.0,90000000.0
19,300516,30989269.320000004,30989269.320000004,2019-09-30,三季度报告,28178011.83,2019,9,2.032458981429372,False,0.23192116610456728,True,0.06882406741175895,True,前期平均,88050435.09500003,,88050435.09500003
20,300516,62280706.06000002,62280706.06000002,2019-12-31,年度报告,56934256.27000001,2019,12,0.4852678586272518,True,0.3240572694991064,True,0.0,True,比例外推,62280706.06000002,88000000.0,88000000.0
21,300516,1598917.9299999997,1598917.9299999997,2020-03-31,一季度报告,1360264.34,2020,3,8.22562289650593,False,0.3776550278034968,True,0.15791256553270408,False,前期平均,43619274.935,83930000.0,83930000.0
