,SECURITYCODE_x,NETPROFIT_x,PARENTNETPROFIT_x,REPORTDATE_x,REPORTTIMETYPE_x,KCFJCXSYJLR,Year,Month,managesituationChangeRate,managesituationGreatChange,historyprofitextroplaterate,ifhistoryprofitextroplate,IfprofitdisStableChangeRage,IfprofitdisStable,predicttype,predict,analyst_prediction,adj_prediction
0,300542,35134783.71,35145608.78,2014-12-31,年度报告,31565730.050000004,2014,12,未知,未知,未知,未知,未知,未知,未知,未知,未知,未知
1,300542,6080198.710000003,6083589.710000003,2015-06-30,半年度报告,5531489.71,2015,6,未知,未知,未知,未知,未知,未知,未知,未知,未知,未知
2,300542,7266702.9,7273312.770000001,2015-09-30,三季度报告,,2015,9,未知,未知,未知,未知,未知,未知,未知,未知,未知,未知
3,300542,35157557.34,35158093.73,2015-12-31,年度报告,32211285.18999999,2015,12,0.0,True,未知,未知,未知,未知,未知,未知,未知,未知
4,300542,-1047100.8000000002,-1044305.02,2016-03-31,一季度报告,-1719272.4500000004,2016,3,未知,未知,未知,未知,未知,未知,未知,未知,未知,未知
5,300542,6813860.23,6813883.050000003,2016-06-30,半年度报告,6138414.490000001,2016,6,4.77855846260656,False,未知,未知,未知,未知,未知,未知,未知,未知
6,300542,9679741.66,9682968.670000004,2016-09-30,三季度报告,8534533.95,2016,9,3.8350378697882364,False,未知,未知,未知,未知,未知,未知,43900000.0,未知
7,300542,34394135.79000001,34396365.86,2016-12-31,年度报告,32866272.940000005,2016,12,-0.0006477591653983399,True,未知,未知,未知,未知,未知,未知,44400000.0,未知
8,300542,-2942119.4800000004,-2940108.01,2017-03-31,一季度报告,-3008068.15,2017,3,-34.55434711729758,False,未知,未知,未知,未知,未知,未知,,未知
9,300542,7564874.51,7567740.800000003,2017-06-30,半年度报告,7252625.26,2017,6,4.156369887851368,False,未知,未知,未知,未知,未知,未知,45000000.0,未知
10,300542,10537265.29,10540176.06,2017-09-30,三季度报告,10156948.26,2017,9,2.629723286437378,False,未知,未知,未知,未知,未知,未知,,未知
11,300542,36186563.05,36187810.88,2017-12-31,年度报告,34334463.34,2017,12,0.021534133740767968,True,0.021397344967215296,True,0.0,True,比例外推,36187810.88,49000000.0,49000000.0
12,300542,-7384814.179999998,-7382013.720000002,2018-03-31,一季度报告,-7479907.84,2018,3,-12.94199757992153,False,未知,未知,未知,未知,未知,未知,未知,未知
13,300542,7729526.759999998,7733985.560000001,2018-06-30,半年度报告,7578791.120000001,2018,6,3.6444635219732158,False,0.1733891624354554,True,0.021324832586613857,True,前期平均,34437812.525,未知,34437812.525
14,300542,10619470.97,10625349.1,2018-09-30,三季度报告,9865640.12,2018,9,2.334336067569957,False,0.24359599474593244,True,,False,前期平均,,未知,
15,300542,48689149.77999999,38368529.30999999,2018-12-31,年度报告,28253923.42,2018,12,-0.02906546660832981,True,0.04056598542793783,True,0.0,True,比例外推,38368529.30999999,未知,38368529.30999999
16,300542,-3538500.6200000006,-6660868.41,2019-03-31,一季度报告,-7089218.12,2019,3,-5.757707215593069,False,-2.7023847577552154,True,0.12985185439801214,False,前期平均,29303170.030000005,未知,29303170.030000005
17,300542,16503887.07,8504496.66,2019-06-30,半年度报告,7701598.709999999,2019,6,3.545528439311595,False,0.07513309060460459,True,0.04615770132638217,True,前期平均,35409344.925000004,未知,35409344.925000004
18,300542,20065513.05,10259724.68,2019-09-30,三季度报告,8086682.13,2019,9,2.3085248605373794,False,0.05054828306323564,True,0.047619057195790626,True,前期平均,34514351.715,未知,34514351.715
19,300542,71977247.69999999,55286886.20999999,2019-12-31,年度报告,50912983.71999999,2019,12,-0.2783857621512156,True,0.37967321322147407,True,0.0,True,比例外推,55286886.20999999,未知,55286886.20999999
20,300542,-11600655.51,-11553348.07,2020-03-31,一季度报告,-12272614.18,2020,3,-10.929285729502004,False,-0.31470449283393553,True,0.1008749530396503,False,前期平均,24984833.305000007,未知,24984833.305000007
