,SECURITYCODE_x,NETPROFIT_x,PARENTNETPROFIT_x,REPORTDATE_x,REPORTTIMETYPE_x,KCFJCXSYJLR,Year,Month,managesituationChangeRate,managesituationGreatChange,historyprofitextroplaterate,ifhistoryprofitextroplate,IfprofitdisStableChangeRage,IfprofitdisStable,predicttype,predict,analyst_prediction,adj_prediction
0,300598,30745210.530000005,30549668.83000001,2014-12-31,年度报告,25592112.00000001,2014,12,未知,未知,未知,未知,未知,未知,未知,未知,未知,未知
1,300598,30543731.28,30318202.94,2015-09-30,三季度报告,24177113.15,2015,9,未知,未知,未知,未知,未知,未知,未知,未知,未知,未知
2,300598,43324243.18999999,43013199.38999999,2015-12-31,年度报告,30374314.78,2015,12,0.0,True,未知,未知,未知,未知,未知,未知,未知,未知
3,300598,1472606.79,1455792.1299999997,2016-03-31,一季度报告,211829.18,2016,3,未知,未知,未知,未知,未知,未知,未知,未知,未知,未知
4,300598,16765254.630000005,16799840.32,2016-06-30,半年度报告,11270276.36,2016,6,未知,未知,未知,未知,未知,未知,未知,未知,未知,未知
5,300598,50939105.43000002,50561999.23,2016-12-31,年度报告,33301855.9,2016,12,-0.2903462757522202,True,未知,未知,未知,未知,未知,未知,未知,未知
6,300598,2130492.67,2060878.25,2017-03-31,一季度报告,-1683874.8199999996,2017,3,19.87808554108324,False,未知,未知,未知,未知,未知,未知,63505000.0,未知
7,300598,12289945.46,11995519.51,2017-06-30,半年度报告,3519927.27,2017,6,0.8338648119894375,False,未知,未知,未知,未知,未知,未知,,未知
8,300598,24187173.99000001,23739384.23,2017-09-30,三季度报告,12127688.609999998,2017,9,未知,未知,未知,未知,未知,未知,未知,未知,未知,未知
9,300598,39597652.57000001,39375845.2,2017-12-31,年度报告,19949062.470000006,2017,12,-0.39643206784913515,True,0.375441639479666,True,0.0,True,比例外推,39375845.2,62542000.0,62542000.0
10,300598,-6233347.63,-6454672.22,2018-03-31,一季度报告,-8038400.449999997,2018,3,13.431033236082435,False,未知,未知,未知,未知,未知,未知,未知,未知
11,300598,1800454.98,1663428.3299999996,2018-06-30,半年度报告,-5428036.91,2018,6,1.501655571220086,False,未知,未知,未知,未知,未知,未知,未知,未知
12,300598,9562108.17,9810721.18,2018-09-30,三季度报告,1191683.63,2018,9,0.2711369481491042,True,未知,未知,未知,未知,未知,未知,未知,未知
13,300598,14622387.75,15917883.259999998,2018-12-31,年度报告,5262853.05,2018,12,-0.2235597684572543,True,0.15985050075765056,True,0.0,True,比例外推,15917883.259999998,未知,15917883.259999998
14,300598,-6037565.590000003,-5640993.82,2019-03-31,一季度报告,-8228011.740000001,2019,3,-5.932375403230961,False,4.459991987009984,False,0.9922404224323066,False,去年同期,7660259.679999996,未知,7660259.679999996
15,300598,-156378.28,849927.5599999998,2019-06-30,半年度报告,-2509480.99,2019,6,16.07635618303547,False,0.8760665922504063,True,0.8592157092438564,False,前期平均,20080284.930000003,未知,20080284.930000003
16,300598,3770317.2600000007,5696866.61,2019-09-30,三季度报告,767617.56,2019,9,2.2153171647293766,False,未知,未知,未知,未知,未知,未知,21800000.0,未知
17,300598,167483202.6,169412390.75,2019-12-31,年度报告,4591695.3900000015,2019,12,1.102612176318468,False,0.6769845072208132,True,0.0,True,前期平均,169412390.75,24866667.000000004,24866667.000000004
18,300598,-24187530.0,-23648769.82,2020-03-31,一季度报告,-26789794.56,2020,3,-6.09231909313303,False,-1.9431045693119031,True,1.050166794762375,False,前期平均,-6181674.425000001,117133333.0,117133333.0
