,SECURITYCODE_x,NETPROFIT_x,PARENTNETPROFIT_x,REPORTDATE_x,REPORTTIMETYPE_x,KCFJCXSYJLR,Year,Month,managesituationChangeRate,managesituationGreatChange,historyprofitextroplaterate,ifhistoryprofitextroplate,IfprofitdisStableChangeRage,IfprofitdisStable,predicttype,predict,analyst_prediction,adj_prediction
0,300596,45023875.06,45134624.75,2014-12-31,年度报告,43339024.75,2014,12,未知,未知,未知,未知,未知,未知,未知,未知,未知,未知
1,300596,45023875.06,45134624.75,2014-12-31,年度报告,43339031.19,2014,12,未知,未知,未知,未知,未知,未知,未知,未知,未知,未知
2,300596,56908258.38000001,56940362.43000002,2015-09-30,三季度报告,55365579.75,2015,9,未知,未知,未知,未知,未知,未知,未知,未知,未知,未知
3,300596,73571743.0,73682755.49,2015-12-31,年度报告,70672960.64999999,2015,12,0.0,True,未知,未知,未知,未知,未知,未知,未知,未知
4,300596,25076663.52,25044630.93,2016-03-31,一季度报告,24254130.92,2016,3,未知,未知,未知,未知,未知,未知,未知,未知,未知,未知
5,300596,48885758.39999999,48830122.47,2016-06-30,半年度报告,46757287.76,2016,6,未知,未知,未知,未知,未知,未知,未知,未知,未知,未知
6,300596,90641701.96999998,90577461.79,2016-12-31,年度报告,87109252.86,2016,12,-0.38802761462372853,True,未知,未知,未知,未知,未知,未知,未知,未知
7,300596,30838115.69,30484913.82,2017-03-31,一季度报告,30259980.95000001,2017,3,0.7954491842222559,False,未知,未知,未知,未知,未知,未知,120505000.0,未知
8,300596,57803982.17,57482130.73,2017-06-30,半年度报告,56476441.64,2017,6,-0.07899812678368899,True,未知,未知,未知,未知,未知,未知,,未知
9,300596,93695509.44,93392334.79,2017-09-30,三季度报告,91629412.27,2017,9,未知,未知,未知,未知,0.0,True,未知,未知,未知,未知
10,300596,128320086.71,130500277.88000004,2017-12-31,年度报告,125291737.68000002,2017,12,-0.5032763718966605,True,0.5285843347794259,True,未知,未知,未知,未知,118540000.0,未知
11,300596,36115277.56,35488367.059999995,2018-03-31,一季度报告,34210845.47,2018,3,0.4600073335414613,True,未知,未知,未知,未知,未知,未知,172725000.0,未知
12,300596,87678800.62,86213095.94999999,2018-06-30,半年度报告,82368404.13,2018,6,-0.22109388713763764,True,未知,未知,未知,未知,未知,未知,180316316.0,未知
13,300596,151013610.54999998,148104737.52999997,2018-09-30,三季度报告,138893594.19,2018,9,-0.5194660306657275,True,未知,未知,0.0,True,未知,未知,192434615.0,未知
14,300596,196065629.17,193073521.01,2018-12-31,年度报告,186094366.54,2018,12,-0.6491283927998523,True,0.5628450731722082,True,0.050759206451809674,True,比例外推,193073521.01,193230000.0,193073521.01
15,300596,54024888.64999998,53155962.23,2019-03-31,一季度报告,43700860.22000001,2019,3,0.24667116250732754,True,0.29179719817407473,True,0.06005207702643617,True,比例外推,195737078.42672375,274064545.0,274064545.0
16,300596,126470410.3,125530668.77,2019-06-30,半年度报告,112816161.54,2019,6,-0.48649075099540295,True,0.6436219668651878,True,未知,未知,True,True,291288182.0,291288182.0
17,300596,220108928.33,218969914.99,2019-09-30,三季度报告,201469445.6,2019,9,-0.7018555155656464,True,未知,未知,0.0,True,未知,未知,313044615.0,未知
18,300596,262611847.76999992,262314192.04999995,2019-12-31,年度报告,246733422.51999995,2019,12,-0.7703632439270538,True,0.7908661630138453,True,0.04069287379696693,True,比例外推,262314192.04999995,311942143.0,311942143.0
19,300596,61259954.48,63285692.37000001,2020-03-31,一季度报告,65287967.99000002,2020,3,-0.16660864677228696,True,0.6138058439629566,True,未知,未知,True,True,367415625.0,367415625.0
