,SECURITYCODE_x,NETPROFIT_x,PARENTNETPROFIT_x,REPORTDATE_x,REPORTTIMETYPE_x,KCFJCXSYJLR,Year,Month,managesituationChangeRate,managesituationGreatChange,historyprofitextroplaterate,ifhistoryprofitextroplate,IfprofitdisStableChangeRage,IfprofitdisStable,predicttype,predict,analyst_prediction,adj_prediction
0,300594,-1107669.45,-1107669.45,2014-12-31,年度报告,-4968566.98,2014,12,未知,未知,未知,未知,未知,未知,未知,未知,未知,未知
1,300594,-1107669.45,-1107669.45,2014-12-31,年度报告,-4968566.98,2014,12,未知,未知,未知,未知,未知,未知,未知,未知,未知,未知
2,300594,-5002072.2,-5002072.2,2014-12-31,年度报告,-4968566.98,2014,12,未知,未知,未知,未知,未知,未知,未知,未知,未知,未知
3,300594,-5002072.2,-5002072.2,2014-12-31,年度报告,-4968566.98,2014,12,未知,未知,未知,未知,未知,未知,未知,未知,未知,未知
4,300594,15446053.2,15451859.5,2015-12-31,年度报告,12888752.71,2015,12,-0.0,False,未知,未知,未知,未知,未知,未知,未知,未知
5,300594,11970104.79,11970329.17,2016-06-30,半年度报告,11860735.61,2016,6,未知,未知,未知,未知,未知,未知,未知,未知,未知,未知
6,300594,31626658.01,31626906.44,2016-09-30,三季度报告,30872706.44,2016,9,未知,未知,未知,未知,未知,未知,未知,未知,未知,未知
7,300594,43546845.60999999,43550731.66,2016-12-31,年度报告,42694430.55,2016,12,-1.0717121348513807,False,未知,未知,未知,未知,未知,未知,未知,未知
8,300594,41508809.3,41524726.23,2017-06-30,半年度报告,40958426.54000001,2017,6,-1.0925363202271514,False,未知,未知,未知,未知,未知,未知,未知,未知
9,300594,62019959.52999998,62110512.46000002,2017-12-31,年度报告,58956531.64999999,2017,12,-1.0254362729259463,False,5.074163778745285,False,0.0,True,去年同期,62110512.46000002,未知,62110512.46000002
10,300594,18147823.220000006,18186792.59,2018-03-31,一季度报告,18017205.61,2018,3,未知,未知,未知,未知,未知,未知,未知,未知,未知,未知
11,300594,45204806.44,45285987.95,2018-06-30,半年度报告,43621989.66,2018,6,-1.0266851655992937,False,未知,未知,未知,未知,未知,未知,未知,未知
12,300594,49376126.54000001,49501830.53999999,2018-09-30,三季度报告,,2018,9,未知,未知,未知,未知,未知,未知,未知,未知,未知,未知
13,300594,76125724.07,76288376.50000001,2018-12-31,年度报告,73591171.4,2018,12,-1.0178598866944473,False,1.102624579604041,True,0.0,True,前期平均,76288376.50000001,未知,76288376.50000001
14,300594,19023105.12,19064038.790000007,2019-03-31,一季度报告,16378565.8,2019,3,-1.0610359400448248,False,未知,未知,未知,未知,未知,未知,未知,未知
15,300594,49615259.80000001,49695464.51,2019-06-30,半年度报告,44330559.97000001,2019,6,-1.0245033556657344,False,0.6905656073690857,True,0.24395773367397888,False,前期平均,74111364.535,未知,74111364.535
16,300594,60381831.31000001,60499782.67000002,2019-09-30,三季度报告,54040415.9,2019,9,-1.0224332998074013,False,未知,未知,未知,未知,未知,未知,未知,未知
17,300594,81584111.38000001,81743794.05999999,2019-12-31,年度报告,74810874.39999999,2019,12,-1.014550527611159,False,0.4422284347630682,True,0.0,True,前期平均,81743794.05999999,未知,81743794.05999999
18,300594,10812466.85,10859203.81,2020-03-31,一季度报告,11326829.55,2020,3,-1.0582275839308404,False,未知,未知,未知,未知,未知,未知,未知,未知
