,SECURITYCODE_x,NETPROFIT_x,PARENTNETPROFIT_x,REPORTDATE_x,REPORTTIMETYPE_x,KCFJCXSYJLR,Year,Month,managesituationChangeRate,managesituationGreatChange,historyprofitextroplaterate,ifhistoryprofitextroplate,IfprofitdisStableChangeRage,IfprofitdisStable,predicttype,predict,analyst_prediction,adj_prediction
0,300526,32154123.120000005,32154123.120000005,2014-12-31,年度报告,30277858.38000001,2014,12,未知,未知,未知,未知,未知,未知,未知,未知,未知,未知
1,300526,15983223.979999995,15983223.979999995,2015-06-30,半年度报告,15737496.52,2015,6,未知,未知,未知,未知,未知,未知,未知,未知,未知,未知
2,300526,22082837.63,22082837.63,2015-09-30,三季度报告,,2015,9,未知,未知,未知,未知,未知,未知,未知,未知,未知,未知
3,300526,42248315.38,42248315.38,2015-12-31,年度报告,38786130.78,2015,12,0.0,True,未知,未知,未知,未知,未知,未知,未知,未知
4,300526,8767521.469999999,8767521.469999999,2016-03-31,一季度报告,8778402.43,2016,3,未知,未知,未知,未知,未知,未知,未知,未知,未知,未知
5,300526,17732307.89,17732307.89,2016-06-30,半年度报告,17521879.459999993,2016,6,1.0117420090111267,False,未知,未知,未知,未知,未知,未知,54932870.99999999,未知
6,300526,23127613.87,23127613.87,2016-09-30,三季度报告,22826916.22000001,2016,9,0.4560684482105666,True,未知,未知,未知,未知,未知,未知,49000000.0,未知
7,300526,35672632.51,35672632.51,2016-12-31,年度报告,34684171.11,2016,12,-0.23892531972478373,True,未知,未知,未知,未知,未知,未知,52285000.0,未知
8,300526,9113413.54,9113413.54,2017-03-31,一季度报告,9121913.54,2017,3,2.6674131030100585,False,未知,未知,未知,未知,未知,未知,56460000.0,未知
9,300526,22474318.82,22474318.82,2017-06-30,半年度报告,19433036.66,2017,6,0.8133072874362325,False,未知,未知,未知,未知,未知,未知,,未知
10,300526,33203026.96,33203026.96,2017-09-30,三季度报告,27862563.20000001,2017,9,0.3902914196310042,True,未知,未知,未知,未知,未知,未知,56690000.0,未知
11,300526,43438341.36999999,43438341.36999999,2017-12-31,年度报告,30586108.92,2017,12,-0.09863329792141526,True,0.04108969466101577,True,0.0,True,比例外推,43438341.36999999,56690000.0,56690000.0
12,300526,7923574.77,7923574.77,2018-03-31,一季度报告,8022200.3,2018,3,2.5282194732929906,False,未知,未知,未知,未知,未知,未知,未知,未知
13,300526,16065147.990000006,16065147.990000006,2018-06-30,半年度报告,16196050.209999995,2018,6,0.43070512514870535,True,0.33317302581233177,True,0.11992519990383932,False,平均增速,25665002.380332123,未知,25665002.380332123
14,300526,20582252.09,20582252.09,2018-09-30,三季度报告,19893507.29,2018,9,-0.031590608930433375,True,0.4688208526296182,True,,False,平均增速,22763854.337605085,未知,22763854.337605085
15,300526,22698760.39,22698760.39,2018-12-31,年度报告,21585674.96,2018,12,-0.2597755322626856,True,0.11493359735103165,True,0.0,True,比例外推,22698760.39,,22698760.39
16,300526,1760916.8,1760916.8,2019-03-31,一季度报告,1581140.6799999997,2019,3,3.0580323974149874,False,0.11374044303961703,True,0.06398559473263049,True,前期平均,25445898.830000002,未知,25445898.830000002
17,300526,11944181.510000002,11944181.510000002,2019-06-30,半年度报告,11723401.53,2019,6,1.0014831572055747,False,0.20087063727709548,True,0.12510074540387572,False,前期平均,26101863.465000007,未知,26101863.465000007
18,300526,20624333.69,20624333.69,2019-09-30,三季度报告,20006705.91,2019,9,0.5622256971394428,False,0.2692342289477909,True,0.17209629617782574,False,前期平均,27914733.99499999,未知,27914733.99499999
19,300526,27666295.04,27666295.04,2019-12-31,年度报告,23703540.74,2019,12,0.41655855066718045,True,0.4261539385311887,True,0.0,True,比例外推,27666295.04,未知,27666295.04
20,300526,-16893662.389999993,-16893662.389999993,2020-03-31,一季度报告,-17634164.689999998,2020,3,17.25987640074761,False,0.7932830887761524,True,0.17882403659339774,False,盈利变化,2045887.8800000027,未知,2045887.8800000027
