,SECURITYCODE_x,NETPROFIT_x,PARENTNETPROFIT_x,REPORTDATE_x,REPORTTIMETYPE_x,KCFJCXSYJLR,Year,Month,managesituationChangeRate,managesituationGreatChange,historyprofitextroplaterate,ifhistoryprofitextroplate,IfprofitdisStableChangeRage,IfprofitdisStable,predicttype,predict,analyst_prediction,adj_prediction
0,300504,39633561.06999999,39633561.06999999,2014-12-31,年度报告,38825625.32,2014,12,未知,未知,未知,未知,未知,未知,未知,未知,未知,未知
1,300504,120405142.5,120405142.5,2015-12-31,年度报告,117364463.16999996,2015,12,0.0,True,未知,未知,未知,未知,未知,未知,未知,未知
2,300504,151960763.85000002,151960763.85000002,2016-12-31,年度报告,162094368.11999995,2016,12,-0.6708316584567807,True,未知,未知,未知,未知,未知,未知,未知,未知
3,300504,51168979.5,51168979.5,2017-03-31,一季度报告,50779502.34,2017,3,未知,未知,未知,未知,未知,未知,未知,未知,未知,未知
4,300504,89084779.7,89084779.7,2017-06-30,半年度报告,87432886.79999998,2017,6,未知,未知,未知,未知,未知,未知,未知,未知,未知,未知
5,300504,229948577.15,229948577.15,2017-12-31,年度报告,226140655.94000003,2017,12,-0.7391855629975501,True,0.899050172991851,True,0.0,True,比例外推,229948577.15,未知,229948577.15
6,300504,52324322.01,52324322.01,2018-03-31,一季度报告,52944934.55000001,2018,3,-0.22543772697284312,True,未知,未知,未知,未知,未知,未知,306000000.0,未知
7,300504,84910137.16,84910137.16,2018-06-30,半年度报告,82417457.46,2018,6,-0.5551028895904652,True,未知,未知,未知,未知,未知,未知,,未知
8,300504,131079081.56,131079081.56,2018-09-30,三季度报告,121573236.47,2018,9,未知,未知,未知,未知,未知,未知,未知,未知,未知,未知
9,300504,152178722.19,152178722.19,2018-12-31,年度报告,139229924.98,2018,12,-0.8276416337895136,True,0.6885268808534926,True,0.0,True,比例外推,152178722.19,未知,152178722.19
10,300504,50097083.55999999,50097083.55999999,2019-03-31,一季度报告,46168387.20999999,2019,3,-0.24254037993219676,True,未知,未知,未知,未知,未知,未知,278000000.0,未知
11,300504,86310225.06000002,86310225.06000002,2019-06-30,半年度报告,78887229.66,2019,6,-0.533229336382808,True,未知,未知,未知,未知,未知,未知,276000000.0,未知
12,300504,119073571.3,119073571.3,2019-09-30,三季度报告,109025094.94000004,2019,9,-0.6976362620311909,True,未知,未知,未知,未知,未知,未知,,未知
13,300504,107679883.36,107679883.36,2019-12-31,年度报告,87692522.88999999,2019,12,-0.7395591151007549,True,0.20306362870553618,True,0.0,True,比例外推,107679883.36,278000000.0,278000000.0
14,300504,38951320.88,38951320.88,2020-03-31,一季度报告,37294782.77,2020,3,-0.2088649028334774,True,0.03187775770861111,True,0.15255116203267868,False,平均增速,68652666.26323658,129200000.0,129200000.0
