,SECURITYCODE_x,NETPROFIT_x,PARENTNETPROFIT_x,REPORTDATE_x,REPORTTIMETYPE_x,KCFJCXSYJLR,Year,Month,managesituationChangeRate,managesituationGreatChange,historyprofitextroplaterate,ifhistoryprofitextroplate,IfprofitdisStableChangeRage,IfprofitdisStable,predicttype,predict,analyst_prediction,adj_prediction
0,300521,37458834.530000016,37458834.530000016,2014-12-31,年度报告,34674239.379999995,2014,12,未知,未知,未知,未知,未知,未知,未知,未知,未知,未知
1,300521,4580781.95,4580781.95,2015-03-31,一季度报告,4232559.459999999,2015,3,未知,未知,未知,未知,未知,未知,未知,未知,未知,未知
2,300521,14218478.65,14218478.65,2015-06-30,半年度报告,14043102.54,2015,6,未知,未知,未知,未知,未知,未知,未知,未知,未知,未知
3,300521,28273915.71,28273915.71,2015-09-30,三季度报告,,2015,9,未知,未知,未知,未知,未知,未知,未知,未知,未知,未知
4,300521,42803186.56,42803186.56,2015-12-31,年度报告,39183372.55,2015,12,0.0,True,未知,未知,未知,未知,未知,未知,未知,未知
5,300521,5870759.91,5870759.91,2016-03-31,一季度报告,5862843.84,2016,3,7.177388694521907,False,未知,未知,未知,未知,未知,未知,未知,未知
6,300521,15853286.65,15853286.65,2016-06-30,半年度报告,14453852.140000002,2016,6,1.63451776044971,False,未知,未知,未知,未知,未知,未知,48500000.0,未知
7,300521,32378480.660000004,32378480.660000004,2016-09-30,三季度报告,29709211.67000001,2016,9,0.3248548561227926,True,未知,未知,未知,未知,未知,未知,,未知
8,300521,46674778.34,46674778.34,2016-12-31,年度报告,42267960.27,2016,12,-0.12485874205903949,True,未知,未知,未知,未知,未知,未知,未知,未知
9,300521,6276039.199999997,6276039.199999997,2017-03-31,一季度报告,5244877.31,2017,3,5.380576808497014,False,未知,未知,未知,未知,未知,未知,60000000.0,未知
10,300521,19135988.95,19135988.95,2017-06-30,半年度报告,13740112.58,2017,6,1.3628434505093627,False,未知,未知,未知,未知,未知,未知,54000000.0,未知
11,300521,29012387.73,29012387.73,2017-09-30,三季度报告,22607586.03,2017,9,0.15690525825926793,True,未知,未知,未知,未知,未知,未知,54000000.0,未知
12,300521,36680334.4,36680334.4,2017-12-31,年度报告,28726220.9,2017,12,-0.19745018911213508,True,0.1630601299626454,True,0.0,True,比例外推,36680334.4,40000000.0,36680334.4
13,300521,2481798.07,2481798.07,2018-03-31,一季度报告,1095101.96,2018,3,4.968546934824759,False,0.20097862766441577,True,0.039479070337960914,True,前期平均,38159762.830000006,,38159762.830000006
14,300521,10026589.929999998,10026589.929999998,2018-06-30,半年度报告,7668190.540000001,2018,6,0.9575071154083217,False,0.27268810188539205,True,0.08542435532137338,True,前期平均,36503779.0,未知,36503779.0
15,300521,18252422.29,18252536.85,2018-09-30,三季度报告,14640645.710000005,2018,9,0.2911324251766442,True,0.043322623132161724,True,,False,平均增速,22923412.635497157,未知,22923412.635497157
16,300521,25439910.730000004,25443343.08,2018-12-31,年度报告,18837509.329999994,2018,12,0.021223910379617957,True,0.18012586806162384,True,0.0,True,比例外推,25443343.08,48000000.0,48000000.0
17,300521,-1727573.46,-1727450.17,2019-03-31,一季度报告,-2846333.94,2019,3,14.093425602510852,False,0.5913659149994783,True,0.06833995551528849,True,盈利变化,20188095.21333333,未知,20188095.21333333
18,300521,8949925.62,8961827.01,2019-06-30,半年度报告,6185626.489999997,2019,6,2.7359495891939827,False,0.42687639237664027,True,0.06919906651777058,True,前期平均,30361935.235,未知,30361935.235
19,300521,9777974.209999997,9791278.630000005,2019-09-30,三季度报告,6853608.3900000015,2019,9,1.0522664846803749,False,0.40537012201726247,True,0.052817732126693495,True,前期平均,19129970.365000002,未知,19129970.365000002
20,300521,5763792.499999999,5767800.510000003,2019-12-31,年度报告,2601708.72,2019,12,0.47244363109445586,True,0.3896016718410115,True,0.0,True,比例外推,5767800.510000003,未知,5767800.510000003
21,300521,-6072311.070000001,-6071959.269999999,2020-03-31,一季度报告,-6263736.69,2020,3,-22.682918496559918,False,1.3945205663772284,True,0.8095884348223006,False,前期平均,14539916.209999997,未知,14539916.209999997
