,SECURITYCODE_x,NETPROFIT_x,PARENTNETPROFIT_x,REPORTDATE_x,REPORTTIMETYPE_x,KCFJCXSYJLR,Year,Month,managesituationChangeRate,managesituationGreatChange,historyprofitextroplaterate,ifhistoryprofitextroplate,IfprofitdisStableChangeRage,IfprofitdisStable,predicttype,predict,analyst_prediction,adj_prediction
0,300518,87740919.45,87740919.45,2014-12-31,年度报告,87926191.88999999,2014,12,未知,未知,未知,未知,未知,未知,未知,未知,未知,未知
1,300518,14554258.249999994,14554258.249999994,2015-03-31,一季度报告,14399402.489999995,2015,3,未知,未知,未知,未知,未知,未知,未知,未知,未知,未知
2,300518,41141807.09,41141807.09,2015-06-30,半年度报告,40801480.43,2015,6,未知,未知,未知,未知,未知,未知,未知,未知,未知,未知
3,300518,63051019.36000001,63051019.36000001,2015-09-30,三季度报告,,2015,9,未知,未知,未知,未知,未知,未知,未知,未知,未知,未知
4,300518,92136444.67,92136444.67,2015-12-31,年度报告,91456253.04,2015,12,0.0,True,未知,未知,未知,未知,未知,未知,未知,未知
5,300518,18038421.09,18038421.09,2016-03-31,一季度报告,16723822.799999995,2016,3,5.0285394104505485,False,未知,未知,未知,未知,未知,未知,未知,未知
6,300518,49360874.99,49360874.99,2016-06-30,半年度报告,47135139.14,2016,6,1.1326462218361444,False,未知,未知,未知,未知,未知,未知,159611400.0,未知
7,300518,69790120.87,69790120.87,2016-09-30,三季度报告,67100276.46,2016,9,0.3915860574597377,True,未知,未知,未知,未知,未知,未知,107520000.0,未知
8,300518,99673855.02000004,99673855.02000004,2016-12-31,年度报告,93470758.78,2016,12,-0.04770669451966817,True,未知,未知,未知,未知,未知,未知,,未知
9,300518,19291455.66,19291455.66,2017-03-31,一季度报告,18199647.82,2017,3,3.864113051371283,False,未知,未知,未知,未知,未知,未知,未知,未知
10,300518,44609066.53000001,44609066.53000001,2017-06-30,半年度报告,43136128.4,2017,6,0.7775397917434689,False,未知,未知,未知,未知,未知,未知,未知,未知
11,300518,51400645.96999999,51400645.96999999,2017-09-30,三季度报告,56237051.09999999,2017,9,0.25721116909135966,True,未知,未知,未知,未知,未知,未知,未知,未知
12,300518,63226991.07999999,63226991.07999999,2017-12-31,年度报告,57809884.98,2017,12,-0.11971981586952403,True,0.10824233507786447,True,0.0,True,比例外推,63226991.07999999,未知,63226991.07999999
13,300518,3700543.9100000006,3700543.9100000006,2018-03-31,一季度报告,-4719388.2,2018,3,3.548175160878451,False,0.18379071930574226,True,0.09775725084582268,True,前期平均,80602437.17500001,未知,80602437.17500001
14,300518,1777589.37,1777589.37,2018-06-30,半年度报告,-5134883.340000002,2018,6,0.9668853503355294,False,0.014193491181449367,True,0.1806454720760008,False,前期平均,50272785.495,未知,50272785.495
15,300518,5592095.52,3016110.3,2018-09-30,三季度报告,-2188849.26,2018,9,0.7070003264396721,False,0.2261336227466077,True,,False,前期平均,,未知,
16,300518,20175120.8,10159391.88,2018-12-31,年度报告,4658409.670000001,2018,12,0.3877130312746177,True,0.3407341401146218,True,0.0,True,比例外推,10159391.88,未知,10159391.88
17,300518,22237016.86,17901429.180000003,2019-03-31,一季度报告,-6483237.6000000015,2019,3,22.710276538780484,False,0.8017382197759332,True,0.8399731023992898,False,前期平均,76080015.75,未知,76080015.75
18,300518,22598421.68,14434682.829999998,2019-06-30,半年度报告,-7429349.73,2019,6,48.35949827940296,False,0.9621668516283653,True,1.1516713270855634,False,前期平均,44939370.94,未知,44939370.94
19,300518,30479615.99,15637324.03,2019-09-30,三季度报告,-6335312.020000001,2019,9,14.690168226954752,False,0.9077141655950925,True,0.87680283636775,False,前期平均,29608982.130000003,未知,29608982.130000003
20,300518,-210879271.15,-225769171.13000005,2019-12-31,年度报告,-289464986.43000007,2019,12,3.3489662500558612,False,0.7523018292045569,True,0.0,True,盈利变化,-87881740.15333337,未知,-87881740.15333337
21,300518,55205008.09,55210513.59000002,2020-03-31,一季度报告,-1511661.5100000002,2020,3,2.9457144815062213,False,0.9343264853757998,True,0.7877987495205414,False,前期平均,79704531.10500002,未知,79704531.10500002
