,SECURITYCODE_x,NETPROFIT_x,PARENTNETPROFIT_x,REPORTDATE_x,REPORTTIMETYPE_x,KCFJCXSYJLR,Year,Month,managesituationChangeRate,managesituationGreatChange,historyprofitextroplaterate,ifhistoryprofitextroplate,IfprofitdisStableChangeRage,IfprofitdisStable,predicttype,predict,analyst_prediction,adj_prediction
0,300563,25848280.76,25849068.86000001,2014-12-31,年度报告,24231692.64,2014,12,未知,未知,未知,未知,未知,未知,未知,未知,未知,未知
1,300563,25130412.86000001,25130958.49,2015-09-30,三季度报告,23458462.18,2015,9,未知,未知,未知,未知,未知,未知,未知,未知,未知,未知
2,300563,32486007.47000001,32486155.36000001,2015-12-31,年度报告,30765772.79,2015,12,0.0,True,未知,未知,未知,未知,未知,未知,未知,未知
3,300563,12707862.470000004,12709051.03,2016-03-31,一季度报告,10032925.910000002,2016,3,未知,未知,未知,未知,未知,未知,未知,未知,未知,未知
4,300563,19867832.74,19869525.55,2016-06-30,半年度报告,17141064.08,2016,6,未知,未知,未知,未知,未知,未知,未知,未知,未知,未知
5,300563,35997913.849999994,35999932.48,2016-12-31,年度报告,33114845.76,2016,12,-0.20432571519075646,True,未知,未知,未知,未知,未知,未知,未知,未知
6,300563,13969412.04,13969106.78,2017-03-31,一季度报告,12435897.96,2017,3,1.0340384404553595,False,未知,未知,未知,未知,未知,未知,44000000.0,未知
7,300563,23288950.28,23288491.62,2017-06-30,半年度报告,18571007.619999994,2017,6,0.30101159488621726,True,未知,未知,未知,未知,未知,未知,,未知
8,300563,32616496.07,32616230.35,2017-09-30,三季度报告,27512213.85,2017,9,未知,未知,未知,未知,未知,未知,未知,未知,未知,未知
9,300563,39760868.73,39760199.71,2017-12-31,年度报告,36402058.47,2017,12,-0.28195059114515864,True,0.2341939858104612,True,0.0,True,比例外推,39760199.71,50000000.0,50000000.0
10,300563,14016766.929999998,14016603.26,2018-03-31,一季度报告,13020705.019999998,2018,3,0.8503485104445386,False,未知,未知,未知,未知,未知,未知,未知,未知
11,300563,23525162.27,23524708.79000001,2018-06-30,半年度报告,22303776.97,2018,6,0.10989462595907093,True,未知,未知,未知,未知,未知,未知,未知,未知
12,300563,33536601.25,33536003.15,2018-09-30,三季度报告,31235096.81000001,2018,9,-0.2075089640369208,True,未知,未知,未知,未知,未知,未知,未知,未知
13,300563,44140646.51,44138481.68999999,2018-12-31,年度报告,40914947.71999999,2018,12,-0.3499065391270689,True,0.16117383361306603,True,0.0,True,比例外推,44138481.68999999,未知,44138481.68999999
14,300563,12820924.830000006,12820078.95,2019-03-31,一季度报告,12587310.72,2019,3,0.8440972079429451,False,0.05083950196979811,True,0.020680153914723276,True,前期平均,36344119.129999995,54000000.0,54000000.0
15,300563,24917541.47000001,24916988.92,2019-06-30,半年度报告,24427019.77,2019,6,0.09875037049000564,True,0.09021852991673715,True,0.020820786801794444,True,比例外推,47079336.21763511,54000000.0,54000000.0
16,300563,37270030.86,37269530.11,2019-09-30,三季度报告,35794209.52,2019,9,-0.22925162966536444,True,未知,未知,未知,未知,未知,未知,,未知
17,300563,53639876.11,53639557.88000001,2019-12-31,年度报告,51661841.21000001,2019,12,-0.41441091593109963,True,0.1652945046572845,True,0.0,True,比例外推,53639557.88000001,54000000.0,53639557.88000001
18,300563,13886391.550000004,13887369.070000002,2020-03-31,一季度报告,13559396.580000002,2020,3,1.0161011083628662,False,0.08376739506000477,True,0.05752277310163875,True,前期平均,39817570.675,61000000.0,61000000.0
