,SECURITYCODE_x,NETPROFIT_x,PARENTNETPROFIT_x,REPORTDATE_x,REPORTTIMETYPE_x,KCFJCXSYJLR,Year,Month,managesituationChangeRate,managesituationGreatChange,historyprofitextroplaterate,ifhistoryprofitextroplate,IfprofitdisStableChangeRage,IfprofitdisStable,predicttype,predict,analyst_prediction,adj_prediction
0,300561,60926716.80000001,60926716.80000001,2014-12-31,年度报告,57694022.52999999,2014,12,未知,未知,未知,未知,未知,未知,未知,未知,未知,未知
1,300561,56606992.23,56606992.23,2015-09-30,三季度报告,51378170.96,2015,9,未知,未知,未知,未知,未知,未知,未知,未知,未知,未知
2,300561,70973005.93,70973005.93,2015-12-31,年度报告,63606145.32999999,2015,12,0.0,True,未知,未知,未知,未知,未知,未知,未知,未知
3,300561,27939669.67,27939669.67,2016-03-31,一季度报告,27861058.66,2016,3,未知,未知,未知,未知,未知,未知,未知,未知,未知,未知
4,300561,52598199.36999999,52598199.36999999,2016-06-30,半年度报告,50832524.64999998,2016,6,未知,未知,未知,未知,未知,未知,未知,未知,未知,未知
5,300561,78861491.66000001,78861491.66000001,2016-12-31,年度报告,75300322.88999999,2016,12,-0.14155084737299353,True,未知,未知,未知,未知,未知,未知,85690000.0,未知
6,300561,20047098.87,20047098.87,2017-03-31,一季度报告,16454337.489999995,2017,3,1.1806527249468375,False,未知,未知,未知,未知,未知,未知,101000000.0,未知
7,300561,37675955.31,37675955.31,2017-06-30,半年度报告,27969353.58000001,2017,6,0.15834225372266814,True,未知,未知,未知,未知,未知,未知,,未知
8,300561,44200945.13999999,44200945.13999999,2017-09-30,三季度报告,30693294.66,2017,9,未知,未知,未知,未知,未知,未知,未知,未知,未知,未知
9,300561,79682818.31,79724732.27,2017-12-31,年度报告,58188602.63000001,2017,12,-0.22742119737378547,True,0.19577949108248288,True,0.0,True,比例外推,79724732.27,108000000.0,108000000.0
10,300561,9436593.71,9498266.1,2018-03-31,一季度报告,5158846.36,2018,3,2.0391787457673174,False,未知,未知,未知,未知,未知,未知,未知,未知
11,300561,15091730.339999998,14614985.55,2018-06-30,半年度报告,6569860.739999997,2018,6,0.6171246700632104,False,未知,未知,未知,未知,未知,未知,未知,未知
12,300561,16179497.590000002,15850448.6,2018-09-30,三季度报告,2492716.79,2018,9,0.378403032039781,True,未知,未知,未知,未知,未知,未知,未知,未知
13,300561,25935804.17,26037504.41999999,2018-12-31,年度报告,5534245.08,2018,12,-0.2353845146017651,True,0.06361111214908949,True,0.0,True,比例外推,26037504.41999999,未知,26037504.41999999
14,300561,9747331.260000002,9882104.94,2019-03-31,一季度报告,7224555.360000001,2019,3,5.456431067434396,False,0.6067001801909623,True,0.40385364176143634,False,前期平均,54468869.625,未知,54468869.625
15,300561,15700159.769999998,16182139.15,2019-06-30,半年度报告,10414319.29,2019,6,3.0370928599563105,False,0.665646709326794,True,0.4061753989030089,False,前期平均,43525662.795,未知,43525662.795
16,300561,17015795.98,17507826.32,2019-09-30,三季度报告,9960740.510000002,2019,9,2.765674209664999,False,未知,未知,未知,未知,未知,未知,未知,未知
17,300561,18606222.720000006,20118329.09,2019-12-31,年度报告,7383347.52,2019,12,1.3491354422884667,False,0.6728257964614737,True,0.0,True,前期平均,20118329.09,未知,20118329.09
18,300561,6029960.210000001,6070972.849999998,2020-03-31,一季度报告,4791275.359999999,2020,3,5.250604927117251,False,0.33879847420387116,True,0.4483697779096327,False,前期平均,27125804.780000005,未知,27125804.780000005
