,SECURITYCODE_x,NETPROFIT_x,PARENTNETPROFIT_x,REPORTDATE_x,REPORTTIMETYPE_x,KCFJCXSYJLR,Year,Month,managesituationChangeRate,managesituationGreatChange,historyprofitextroplaterate,ifhistoryprofitextroplate,IfprofitdisStableChangeRage,IfprofitdisStable,predicttype,predict,analyst_prediction,adj_prediction
0,300548,24984394.02,24984394.02,2014-12-31,年度报告,22030702.49,2014,12,未知,未知,未知,未知,未知,未知,未知,未知,未知,未知
1,300548,16807305.110000007,16807305.110000007,2015-06-30,半年度报告,15248205.11,2015,6,未知,未知,未知,未知,未知,未知,未知,未知,未知,未知
2,300548,32219377.39,32219377.39,2015-09-30,三季度报告,,2015,9,未知,未知,未知,未知,未知,未知,未知,未知,未知,未知
3,300548,43935332.42,43935332.42,2015-12-31,年度报告,42298488.29999999,2015,12,0.0,True,未知,未知,未知,未知,未知,未知,未知,未知
4,300548,16975808.61,16975808.61,2016-03-31,一季度报告,16720042.92,2016,3,未知,未知,未知,未知,未知,未知,未知,未知,未知,未知
5,300548,32001889.649999995,32001889.649999995,2016-06-30,半年度报告,30668990.54000001,2016,6,0.4865199302614427,True,未知,未知,未知,未知,未知,未知,未知,未知
6,300548,51858952.41,51858952.41,2016-09-30,三季度报告,50797513.01000001,2016,9,-0.2245537920371341,True,未知,未知,未知,未知,未知,未知,59360000.0,未知
7,300548,67905908.30000001,67905908.30000001,2016-12-31,年度报告,65886010.75000002,2016,12,-0.43133708922100383,True,未知,未知,未知,未知,未知,未知,65743333.0,未知
8,300548,20115710.590000004,20115710.590000004,2017-03-31,一季度报告,17216623.3,2017,3,0.4717645912479453,True,未知,未知,未知,未知,未知,未知,98679000.0,未知
9,300548,42014813.17,42014813.17,2017-06-30,半年度报告,35226800.59,2017,6,-0.21928378938710566,True,未知,未知,未知,未知,未知,未知,88559000.0,未知
10,300548,58387783.26,58387783.26,2017-09-30,三季度报告,49963511.66,2017,9,-0.5182240894017319,True,未知,未知,未知,未知,未知,未知,81972500.0,未知
11,300548,79800314.93,79800314.93,2017-12-31,年度报告,69804570.27999999,2017,12,-0.6320733402221499,True,0.9705797398693219,True,0.0,True,比例外推,79800314.93,82197778.0,79800314.93
12,300548,14043117.12,14043117.12,2018-03-31,一季度报告,10682070.53,2018,3,0.24203387736251952,True,未知,未知,未知,未知,未知,未知,94554000.0,未知
13,300548,29115847.36000001,29115847.36000001,2018-06-30,半年度报告,21005550.96,2018,6,-0.4053432079084026,True,0.7215941945607298,True,0.08305114775212835,True,比例外推,55468980.582320794,72832500.0,72832500.0
14,300548,44811242.56,44811242.56,2018-09-30,三季度报告,35348648.83000001,2018,9,-0.5720955202435956,True,0.3888901789293155,True,,False,平均增速,64811515.57789558,65162500.0,64811515.57789558
15,300548,2331032.34,2331032.34,2018-12-31,年度报告,-7409804.82,2018,12,-0.6869135912318637,True,0.42702842737204566,True,0.0,True,比例外推,2331032.34,65162500.0,65162500.0
16,300548,3403114.61,3403114.61,2019-03-31,一季度报告,-1530370.4899999998,2019,3,0.7791202484822687,False,0.24278555190589238,True,1.1278795021030104,False,前期平均,54280072.01500001,87482857.0,87482857.0
17,300548,6093764.500000001,6093764.500000001,2019-06-30,半年度报告,-739102.9299999998,2019,6,-0.14189706687622947,True,0.21326278392037099,True,2.2132661007614827,False,平均增速,-178584.07844811026,27150000.0,27150000.0
18,300548,7525817.020000001,7525817.020000001,2019-09-30,三季度报告,-378076.41,2019,9,-0.44245255001471673,True,0.1870735711552881,True,3.6759336160796456,False,平均增速,-2436184.7937224954,29333332.999999996,29333332.999999996
19,300548,7783551.1400000015,7783551.1400000015,2019-12-31,年度报告,-2772828.95,2019,12,9.718167050397938,False,0.968436910930012,True,0.0,True,前期平均,7783551.1400000015,15000000.0,15000000.0
20,300548,2747171.8200000003,2747171.8200000003,2020-03-31,一季度报告,1425016.18,2020,3,6.341625799667089,False,0.8007475760648697,True,1.2272609630175262,False,前期平均,19995207.63499999,84740000.0,84740000.0
