,SECURITYCODE_x,NETPROFIT_x,PARENTNETPROFIT_x,REPORTDATE_x,REPORTTIMETYPE_x,KCFJCXSYJLR,Year,Month,managesituationChangeRate,managesituationGreatChange,historyprofitextroplaterate,ifhistoryprofitextroplate,IfprofitdisStableChangeRage,IfprofitdisStable,predicttype,predict,analyst_prediction,adj_prediction
0,300590,21558600.0,21558600.0,2012-12-31,年度报告,21197900.0,2012,12,未知,未知,未知,未知,未知,未知,未知,未知,未知,未知
1,300590,44703525.88000001,44703525.88000001,2013-12-31,年度报告,44040540.41,2013,12,0.0,True,未知,未知,未知,未知,未知,未知,未知,未知
2,300590,76694949.7,76694949.7,2014-12-31,年度报告,76068161.44999999,2014,12,-0.5177427378352467,True,未知,未知,未知,未知,未知,未知,未知,未知
3,300590,11861800.0,11861800.0,2015-03-31,一季度报告,11856199.999999998,2015,3,未知,未知,未知,未知,未知,未知,未知,未知,未知,未知
4,300590,71172090.58,71172090.58,2015-09-30,三季度报告,70167956.83,2015,9,未知,未知,未知,未知,未知,未知,未知,未知,未知,未知
5,300590,101521705.63,101521705.63,2015-12-31,年度报告,99111066.0,2015,12,-0.7189045682365185,True,1.3148955359172667,True,0.0,True,比例外推,101521705.63,未知,101521705.63
6,300590,15314468.61,15314468.61,2016-03-31,一季度报告,14702780.710000005,2016,3,0.8174813266114755,False,未知,未知,未知,未知,未知,未知,未知,未知
7,300590,38750746.8,38750746.8,2016-06-30,半年度报告,37903395.62,2016,6,未知,未知,未知,未知,未知,未知,未知,未知,未知,未知
8,300590,57688447.71999998,57688447.71999998,2016-09-30,三季度报告,56214468.04000001,2016,9,-0.6970919383663832,True,未知,未知,未知,未知,未知,未知,未知,未知
9,300590,95269351.52,95269351.52,2016-12-31,年度报告,91044057.0,2016,12,-0.7876454117253389,True,0.6725367455392554,True,0.0,True,比例外推,95269351.52,未知,95269351.52
10,300590,17282404.59,17282404.59,2017-03-31,一季度报告,17226347.22,2017,3,0.40772759075184134,True,未知,未知,未知,未知,未知,未知,110661667.0,未知
11,300590,44210991.18,44210991.18,2017-06-30,半年度报告,39639655.6,2017,6,-0.4436597541908534,True,未知,未知,未知,未知,未知,未知,111597500.0,未知
12,300590,60593584.51999998,60593584.51999998,2017-09-30,三季度报告,50250555.1,2017,9,-0.6262925966627134,True,未知,未知,未知,未知,未知,未知,110000000.0,未知
13,300590,96938481.59,96938481.59,2017-12-31,年度报告,81928998.87000002,2017,12,-0.7737089666714675,True,0.0691408313503782,True,0.0,True,比例外推,96938481.59,122000000.0,122000000.0
14,300590,5724692.16,5724692.16,2018-03-31,一季度报告,2537503.12,2018,3,0.24743058107054766,True,0.2718747255567401,True,0.04646756631967819,True,比例外推,18679427.592652634,117450000.0,117450000.0
15,300590,48709847.49,48709847.49,2018-06-30,半年度报告,42196731.25000001,2018,6,-0.5123701273236191,True,未知,未知,未知,未知,未知,未知,118090000.0,未知
16,300590,82467740.16000001,82467740.16000001,2018-09-30,三季度报告,69881668.48,2018,9,-0.6442098586710248,True,0.05954785973449578,True,0.06172025465155573,True,比例外推,120719725.35513447,123376000.0,120719725.35513447
17,300590,124600313.91,124600313.91,2018-12-31,年度报告,105831543.78,2018,12,-0.7776053467478291,True,0.01480806095664581,True,0.0,True,比例外推,124600313.91,122313333.0,124600313.91
18,300590,26979245.350000005,26979245.350000005,2019-03-31,一季度报告,22620047.36,2019,3,2.765896819856249,False,0.6487582029800331,True,0.1079322234597414,False,前期平均,97501209.32000002,171661429.0,171661429.0
19,300590,63056529.63,63056529.63,2019-06-30,半年度报告,50045512.94000001,2019,6,-0.55740777048366,True,0.17427259061864722,True,0.05087448196199179,True,比例外推,128601612.28608531,167925000.0,167925000.0
20,300590,99260236.38,99260236.38,2019-09-30,三季度报告,82198115.28,2019,9,-0.7385814142818389,True,0.3944254862423904,True,0.029945197446529237,True,比例外推,147459731.23951545,158048750.0,147459731.23951545
21,300590,162267290.28,162267290.28,2019-12-31,年度报告,137530968.28,2019,12,-0.8269779639915515,True,0.29651650397298407,True,0.0,True,比例外推,162267290.28,155479167.0,162267290.28
22,300590,19225491.78,19225491.78,2020-03-31,一季度报告,12422040.800000004,2020,3,-0.20091908723458807,True,1.3452976829855774,True,0.10892607615372493,False,平均增速,125219199.66772474,200586667.00000003,200586667.00000003
