,SECURITYCODE_x,NETPROFIT_x,PARENTNETPROFIT_x,REPORTDATE_x,REPORTTIMETYPE_x,KCFJCXSYJLR,Year,Month,managesituationChangeRate,managesituationGreatChange,historyprofitextroplaterate,ifhistoryprofitextroplate,IfprofitdisStableChangeRage,IfprofitdisStable,predicttype,predict,analyst_prediction,adj_prediction
0,300530,37742650.46,37742650.46,2014-12-31,年度报告,36589882.91,2014,12,未知,未知,未知,未知,未知,未知,未知,未知,未知,未知
1,300530,20537056.18,20537056.18,2015-06-30,半年度报告,20516449.45,2015,6,未知,未知,未知,未知,未知,未知,未知,未知,未知,未知
2,300530,31170601.939999994,31170601.939999994,2015-09-30,三季度报告,,2015,9,未知,未知,未知,未知,未知,未知,未知,未知,未知,未知
3,300530,37989817.59,37989817.59,2015-12-31,年度报告,36468686.22,2015,12,0.0,True,未知,未知,未知,未知,未知,未知,未知,未知
4,300530,9528452.12,9528452.12,2016-03-31,一季度报告,8606202.12,2016,3,未知,未知,未知,未知,未知,未知,未知,未知,未知,未知
5,300530,22864319.81,22864319.81,2016-06-30,半年度报告,19923393.33,2016,6,0.8377828900694959,False,未知,未知,未知,未知,未知,未知,未知,未知
6,300530,33664998.46,33664998.46,2016-09-30,三季度报告,32308596.41000001,2016,9,0.2108412449862368,True,未知,未知,未知,未知,未知,未知,39640000.0,未知
7,300530,48078140.18,48078140.18,2016-12-31,年度报告,40588972.25,2016,12,-0.0065061415315946156,True,未知,未知,未知,未知,未知,未知,40330000.0,未知
8,300530,11842682.64,11842682.64,2017-03-31,一季度报告,11028147.32,2017,3,2.9610473962270385,False,未知,未知,未知,未知,未知,未知,,未知
9,300530,29597841.67999999,29597841.67999999,2017-06-30,半年度报告,22382175.18,2017,6,0.6507226444362791,False,未知,未知,未知,未知,未知,未知,未知,未知
10,300530,43837346.34999999,43837346.34999999,2017-09-30,三季度报告,32077499.18000001,2017,9,0.12112437803450296,True,未知,未知,未知,未知,未知,未知,未知,未知
11,300530,54118999.44,54118999.44,2017-12-31,年度报告,38157491.62999999,2017,12,-0.21497274398104638,True,0.2696837015336117,True,0.0,True,比例外推,54118999.44,49700000.0,54118999.44
12,300530,10060935.72,9902192.84,2018-03-31,一季度报告,7282509.119999999,2018,3,2.1870017636476997,False,未知,未知,未知,未知,未知,未知,未知,未知
13,300530,29155877.649999995,28563253.95,2018-06-30,半年度报告,17810962.779999994,2018,6,0.275182524052207,True,0.36391259515917446,True,0.0558120310587063,True,比例外推,43333161.84776433,未知,43333161.84776433
14,300530,44823243.91,43721716.74,2018-09-30,三季度报告,28453916.9,2018,9,-0.1390297633743514,True,0.35226159947768426,True,,False,平均增速,49538977.19454419,未知,49538977.19454419
15,300530,56877639.3,55173143.94,2018-12-31,年度报告,30232062.910000004,2018,12,-0.3025988867025513,True,0.25758762824656695,True,0.0,True,比例外推,55173143.94,未知,55173143.94
16,300530,9010087.88,8739560.079999998,2019-03-31,一季度报告,5399706.66,2019,3,2.7514055859607462,False,0.05845563813196397,True,0.04170439485493285,True,前期平均,38295617.3,未知,38295617.3
17,300530,19502739.93,18308014.02,2019-06-30,半年度报告,9049972.75,2019,6,0.2945125820968043,True,0.1115011971269048,True,0.06466681415552661,True,比例外推,25548914.192985557,未知,25548914.192985557
18,300530,26320993.75,24382473.38,2019-09-30,三季度报告,11693731.53,2019,9,-0.15796700176848036,True,0.1566938786145354,True,0.0819039492298419,True,比例外推,26297505.57144928,未知,26297505.57144928
19,300530,30436162.58,29491489.76,2019-12-31,年度报告,10595243.97,2019,12,-0.3364237523831267,True,0.11309650175119049,True,0.0,True,比例外推,29491489.76,未知,29491489.76
20,300530,-4730414.13,-3406546.5500000007,2020-03-31,一季度报告,-7840741.32,2020,3,3.1889325567821203,False,0.1772968527926816,True,0.16312213214712168,False,盈利变化,11837559.120000001,未知,11837559.120000001
