,SECURITYCODE_x,NETPROFIT_x,PARENTNETPROFIT_x,REPORTDATE_x,REPORTTIMETYPE_x,KCFJCXSYJLR,Year,Month,managesituationChangeRate,managesituationGreatChange,historyprofitextroplaterate,ifhistoryprofitextroplate,IfprofitdisStableChangeRage,IfprofitdisStable,predicttype,predict,analyst_prediction,adj_prediction
0,300623,77224373.56,77224373.56,2014-12-31,年度报告,73751573.56,2014,12,未知,未知,未知,未知,未知,未知,未知,未知,未知,未知
1,300623,80715795.99000001,80715795.99000001,2015-12-31,年度报告,78541807.35000001,2015,12,0.0,True,未知,未知,未知,未知,未知,未知,未知,未知
2,300623,19806023.39,19806023.39,2016-03-31,一季度报告,19540731.56,2016,3,未知,未知,未知,未知,未知,未知,未知,未知,未知,未知
3,300623,48692495.85,48692495.85,2016-06-30,半年度报告,48015572.62000001,2016,6,未知,未知,未知,未知,未知,未知,未知,未知,未知,未知
4,300623,88366842.11999999,88366842.11999999,2016-09-30,三季度报告,,2016,9,未知,未知,未知,未知,未知,未知,未知,未知,未知,未知
5,300623,116426431.37999997,116426431.37999997,2016-12-31,年度报告,112501877.9,2016,12,-0.0432557517048158,True,未知,未知,未知,未知,未知,未知,未知,未知
6,300623,31082006.31,31082006.31,2017-03-31,一季度报告,30806276.1,2017,3,2.899034755204336,False,未知,未知,未知,未知,未知,未知,未知,未知
7,300623,72674503.77,72674503.77,2017-06-30,半年度报告,70341614.59,2017,6,0.5859604691017292,False,未知,未知,未知,未知,未知,未知,159140000.0,未知
8,300623,112611529.26000004,112611529.26000004,2017-09-30,三季度报告,110164620.11,2017,9,-0.12609332066963297,True,未知,未知,未知,未知,未知,未知,150667500.0,未知
9,300623,144149073.48000002,144149073.48000002,2017-12-31,年度报告,138542007.96999997,2017,12,-0.3367109801042497,True,0.4743105786415177,True,0.0,True,比例外推,144149073.48000002,148111667.0,144149073.48000002
10,300623,33288524.64,33288524.64,2018-03-31,一季度报告,31557165.93,2018,3,1.484536319496037,False,未知,未知,未知,未知,未知,未知,186380000.0,未知
11,300623,83570324.82,83570324.82,2018-06-30,半年度报告,75262491.36,2018,6,0.06260613494382318,True,未知,未知,未知,未知,未知,未知,172460000.0,未知
12,300623,132423920.06000002,132423920.06000002,2018-09-30,三季度报告,120964301.01,2018,9,-0.31424096566788795,True,未知,未知,未知,未知,未知,未知,168556667.00000003,未知
13,300623,165668690.94,165668690.94,2018-12-31,年度报告,152690859.48999998,2018,12,-0.46427422878500496,True,0.46238657646348413,True,0.0,True,比例外推,165668690.94,167917500.0,165668690.94
14,300623,34455445.98,34455445.98,2019-03-31,一季度报告,33786379.78,2019,3,1.3198496897998901,False,0.308304716698434,True,0.027216378038294464,True,前期平均,134803885.08499998,194703332.99999997,194703332.99999997
15,300623,85331177.08999999,85331177.08999999,2019-06-30,半年度报告,83628086.64999999,2019,6,-0.07593546242243732,True,0.37715070952826757,True,0.049013135447287526,True,比例外推,177462097.44172662,179415000.0,177462097.44172662
16,300623,135597550.18,135597550.18,2019-09-30,三季度报告,130618354.98,2019,9,-0.416839695388791,True,0.31779274705753663,True,,False,平均增速,171236064.6161803,180923332.99999997,171236064.6161803
17,300623,189634418.27,189686002.12,2019-12-31,年度报告,182561463.81000003,2019,12,-0.5338625957516122,True,0.2715599728302106,True,0.0,True,比例外推,189686002.12,186198000.0,189686002.12
18,300623,41650946.40000001,41817982.84,2020-03-31,一季度报告,39944899.94,2020,3,1.2412820778702343,False,0.07053477644182754,True,0.019632360064320842,True,前期平均,156252695.55499998,245196000.0,245196000.0
