,SECURITYCODE_x,NETPROFIT_x,PARENTNETPROFIT_x,REPORTDATE_x,REPORTTIMETYPE_x,KCFJCXSYJLR,Year,Month,managesituationChangeRate,managesituationGreatChange,historyprofitextroplaterate,ifhistoryprofitextroplate,IfprofitdisStableChangeRage,IfprofitdisStable,predicttype,predict,analyst_prediction,adj_prediction
0,300693,14506484.259999998,14506484.259999998,2012-12-31,年度报告,11620384.260000002,2012,12,未知,未知,未知,未知,未知,未知,未知,未知,未知,未知
1,300693,22024868.31,22024868.31,2013-12-31,年度报告,20991868.310000006,2013,12,0.0,True,未知,未知,未知,未知,未知,未知,未知,未知
2,300693,31233328.51,31233328.51,2014-12-31,年度报告,30218450.16,2014,12,-0.34135886508735275,True,未知,未知,未知,未知,未知,未知,未知,未知
3,300693,8558039.329999998,8558039.329999998,2015-09-30,三季度报告,6962239.329999999,2015,9,未知,未知,未知,未知,未知,未知,未知,未知,未知,未知
4,300693,43005307.8,43005307.8,2015-12-31,年度报告,40054819.09,2015,12,-0.535544722511549,True,0.7099464603809499,True,0.0,True,比例外推,43005307.8,未知,43005307.8
5,300693,23945961.61,23945961.61,2016-03-31,一季度报告,23565772.05,2016,3,未知,未知,未知,未知,未知,未知,未知,未知,未知,未知
6,300693,27321521.69999999,27321521.69999999,2016-06-30,半年度报告,26136261.16,2016,6,未知,未知,未知,未知,未知,未知,未知,未知,未知,未知
7,300693,47880397.16,47880397.16,2016-09-30,三季度报告,,2016,9,0.6950709970621274,False,未知,未知,未知,未知,未知,未知,未知,未知
8,300693,63861594.05,63861594.05,2016-12-31,年度报告,57239300.08,2016,12,-0.6626815385797564,True,0.6149742337446263,True,0.0,True,比例外推,63861594.05,未知,63861594.05
9,300693,19786601.51,19786601.51,2017-03-31,一季度报告,19266621.49,2017,3,-0.39419913485779623,True,未知,未知,未知,未知,未知,未知,未知,未知
10,300693,31710173.379999995,31710173.379999995,2017-06-30,半年度报告,29999506.890000004,2017,6,-0.4690455231854819,True,未知,未知,未知,未知,未知,未知,77267295.0,未知
11,300693,40159612.64000001,40159612.64000001,2017-09-30,三季度报告,36488397.50000001,2017,9,-0.6970266513971415,True,未知,未知,未知,未知,未知,未知,81000000.0,未知
12,300693,46014798.01000001,46014798.01000001,2017-12-31,年度报告,39297298.70999999,2017,12,-0.7728449395008485,True,0.7204409246778632,True,0.0,True,比例外推,46014798.01000001,未知,46014798.01000001
13,300693,12496923.96,12496923.96,2018-03-31,一季度报告,10358139.09,2018,3,-0.2668531656298567,True,未知,未知,未知,未知,未知,未知,54000000.0,未知
14,300693,25458565.7,25458565.7,2018-06-30,半年度报告,20877377.05,2018,6,-0.5425290147057531,True,未知,未知,未知,未知,未知,未知,,未知
15,300693,44552207.04000001,44552207.04000001,2018-09-30,三季度报告,37090929.34,2018,9,-0.6387792783252305,True,0.42312987877031855,True,,False,平均增速,47465454.72384201,未知,47465454.72384201
16,300693,48481608.04,48481608.04,2018-12-31,年度报告,36768118.53,2018,12,-0.6847430633761029,True,0.13883911270138471,True,0.0,True,比例外推,48481608.04,,48481608.04
17,300693,2291858.0,2291858.0,2019-03-31,一季度报告,-3488487.13,2019,3,0.16080439526015944,True,0.42848426579942017,True,0.11285140253330278,False,平均增速,8555049.024345709,未知,8555049.024345709
18,300693,4420588.720000002,4420588.720000002,2019-06-30,半年度报告,1963967.86,2019,6,-0.43019239846650126,True,0.13746113285419123,True,0.1674571794991363,False,平均增速,11612448.385831181,未知,11612448.385831181
19,300693,40984006.26,40984006.26,2019-09-30,三季度报告,36291396.48,2019,9,-0.6743935884708082,True,0.01209000637798658,True,,False,平均增速,40695165.492024146,未知,40695165.492024146
20,300693,62050632.60000001,62050632.60000001,2019-12-31,年度报告,54058389.62000001,2019,12,-0.7007837642672382,True,0.11752457227525755,True,0.0,True,比例外推,62050632.60000001,未知,62050632.60000001
21,300693,14623110.98,14623110.98,2020-03-31,一季度报告,9513752.099999998,2020,3,5.3295737606780165,False,0.8580168698037799,True,0.3003524753874437,False,前期平均,37843439.31,未知,37843439.31
