,SECURITYCODE_x,NETPROFIT_x,PARENTNETPROFIT_x,REPORTDATE_x,REPORTTIMETYPE_x,KCFJCXSYJLR,Year,Month,managesituationChangeRate,managesituationGreatChange,historyprofitextroplaterate,ifhistoryprofitextroplate,IfprofitdisStableChangeRage,IfprofitdisStable,predicttype,predict,analyst_prediction,adj_prediction
0,300644,42004099.99999999,42055500.0,2014-12-31,年度报告,36152900.0,2014,12,未知,未知,未知,未知,未知,未知,未知,未知,未知,未知
1,300644,74266559.08,75122977.39000002,2015-12-31,年度报告,71963764.92,2015,12,0.0,True,未知,未知,未知,未知,未知,未知,未知,未知
2,300644,77229184.77,78660212.23000002,2016-12-31,年度报告,70091779.51,2016,12,-0.4344143512189229,True,未知,未知,未知,未知,未知,未知,未知,未知
3,300644,7771577.9300000025,7721526.06,2017-03-31,一季度报告,5612624.949999998,2017,3,未知,未知,未知,未知,未知,未知,未知,未知,未知,未知
4,300644,20003255.25,20036260.93,2017-06-30,半年度报告,16637650.819999995,2017,6,未知,未知,未知,未知,未知,未知,未知,未知,未知,未知
5,300644,32091310.35000001,32433296.02,2017-09-30,三季度报告,,2017,9,未知,未知,未知,未知,未知,未知,未知,未知,未知,未知
6,300644,56152899.99999999,56433100.0,2017-12-31,年度报告,50200535.28,2017,12,-0.4561110527698246,True,0.32843806650932433,True,0.0,True,比例外推,56433100.0,未知,56433100.0
7,300644,56152899.99999999,56433100.0,2017-12-31,年度报告,50200535.28,2017,12,-0.4561110527698246,True,0.32843806650932433,True,0.0,True,比例外推,56433100.0,未知,56433100.0
8,300644,56152936.71999999,56433093.15000001,2017-12-31,年度报告,50200535.28,2017,12,-0.4561110527698246,True,0.32843806650932433,True,0.0,True,比例外推,56433093.15000001,未知,56433093.15000001
9,300644,56152936.71999999,56433093.15000001,2017-12-31,年度报告,50200535.28,2017,12,-0.4561110527698246,True,0.32843806650932433,True,0.0,True,比例外推,56433093.15000001,未知,56433093.15000001
10,300644,5812165.63,5843068.84,2018-03-31,一季度报告,4791349.99,2018,3,4.4048354630602,False,未知,未知,未知,未知,未知,未知,未知,未知
11,300644,10566044.71,10776485.49,2018-06-30,半年度报告,7319360.31,2018,6,1.0998632210124897,False,未知,未知,未知,未知,未知,未知,未知,未知
12,300644,14232209.14,14654310.7,2018-09-30,三季度报告,8774700.69,2018,9,0.3088932655565428,True,未知,未知,未知,未知,未知,未知,未知,未知
13,300644,22456764.220000006,23025586.1,2018-12-31,年度报告,6851342.670000001,2018,12,-0.2519691770149004,True,0.25868676475032215,True,0.0,True,比例外推,23025586.1,未知,23025586.1
14,300644,6052678.979999999,6053273.560000001,2019-03-31,一季度报告,4205266.76,2019,3,6.226927564347472,False,未知,未知,未知,未知,未知,未知,未知,未知
15,300644,13449715.340000002,13506668.11,2019-06-30,半年度报告,6990409.050000003,2019,6,2.975385411746946,False,未知,未知,未知,未知,未知,未知,未知,未知
16,300644,17000583.13,17307683.8,2019-09-30,三季度报告,8792418.090000002,2019,9,1.9513408344981635,False,未知,未知,未知,未知,未知,未知,未知,未知
17,300644,29201586.64,29273043.2,2019-12-31,年度报告,19079843.98,2019,12,0.8704431140881427,False,0.6632716566287928,True,0.0,True,前期平均,29273043.2,未知,29273043.2
18,300644,5059978.84,5090721.21,2020-03-31,一季度报告,4048445.260000001,2020,3,5.939753477558462,False,0.10883491678637115,True,0.3554841473878419,False,前期平均,28414672.715000004,未知,28414672.715000004
