,SECURITYCODE_x,NETPROFIT_x,PARENTNETPROFIT_x,REPORTDATE_x,REPORTTIMETYPE_x,KCFJCXSYJLR,Year,Month,managesituationChangeRate,managesituationGreatChange,historyprofitextroplaterate,ifhistoryprofitextroplate,IfprofitdisStableChangeRage,IfprofitdisStable,predicttype,predict,analyst_prediction,adj_prediction
0,300628,85907140.35999998,85907140.35999998,2012-12-31,年度报告,81077048.11999999,2012,12,未知,未知,未知,未知,未知,未知,未知,未知,未知,未知
1,300628,100093410.89,100093410.89,2013-12-31,年度报告,94536119.07,2013,12,0.0,True,未知,未知,未知,未知,未知,未知,未知,未知
2,300628,150569998.46,150569998.46,2014-12-31,年度报告,148382334.39,2014,12,-0.14173031375252412,True,未知,未知,未知,未知,未知,未知,未知,未知
3,300628,50424681.63000001,50424681.63000001,2015-03-31,一季度报告,49157931.66,2015,3,未知,未知,未知,未知,未知,未知,未知,未知,未知,未知
4,300628,247620466.2,247620466.2,2015-12-31,年度报告,237935486.65,2015,12,-0.4294538006333192,True,0.6190274431780751,True,0.0,True,比例外推,247620466.2,未知,247620466.2
5,300628,74318004.93,74318004.93,2016-03-31,一季度报告,72393453.51,2016,3,0.7036724394287458,False,未知,未知,未知,未知,未知,未知,未知,未知
6,300628,186072089.96,186072089.96,2016-06-30,半年度报告,179759766.70000002,2016,6,未知,未知,未知,未知,未知,未知,未知,未知,未知,未知
7,300628,299871358.79999995,299871358.79999995,2016-09-30,三季度报告,,2016,9,未知,未知,未知,未知,未知,未知,未知,未知,未知,未知
8,300628,432323291.56999993,432323291.56999993,2016-12-31,年度报告,420120429.31,2016,12,-0.6530693053028426,True,0.9757208827735109,True,0.0,True,比例外推,432323291.56999993,未知,432323291.56999993
9,300628,141199372.56,141199372.56,2017-03-31,一季度报告,140893414.28,2017,3,0.15593980813822658,True,未知,未知,未知,未知,未知,未知,617084278.0,未知
10,300628,305094317.52,305094317.52,2017-06-30,半年度报告,298076288.86,2017,6,-0.5383125949815071,True,未知,未知,未知,未知,未知,未知,640309631.0,未知
11,300628,477559734.46,477559734.46,2017-09-30,三季度报告,450395036.59,2017,9,-0.7135200217060543,True,未知,未知,未知,未知,未知,未知,645443000.0,未知
12,300628,590789691.69,590789691.69,2017-12-31,年度报告,548945215.8700001,2017,12,-0.801289585744907,True,1.1714397000397523,True,0.0,True,比例外推,590789691.69,648080000.0,590789691.69
13,300628,196338738.57999995,196338738.57999995,2018-03-31,一季度报告,166357156.26,2018,3,-0.3915897868207922,True,1.2638501134426745,True,0.04480208193749374,True,比例外推,815203744.4403876,804697692.0,815203744.4403876
14,300628,410140304.15,410140304.15,2018-06-30,半年度报告,355090983.28,2018,6,-0.7184243185572655,True,未知,未知,未知,未知,未知,未知,798165238.0,未知
15,300628,663605664.2300001,663605664.2300001,2018-09-30,三季度报告,575356778.08,2018,9,-0.8201122620667772,True,未知,未知,未知,未知,未知,未知,816114000.0,未知
16,300628,851477077.83,851477077.83,2018-12-31,年度报告,748233040.8000001,2018,12,-0.8545893038278038,True,0.737760468976443,True,0.0,True,比例外推,851477077.83,816299048.0,851477077.83
17,300628,260980124.24,260980124.24,2019-03-31,一季度报告,231219626.4,2019,3,-0.5624544550845407,True,0.8220223433176292,True,0.044787834134155574,True,比例外推,1094779335.1798973,1079455294.0,1094779335.1798973
18,300628,606750681.44,606750681.44,2019-06-30,半年度报告,546779682.9599999,2019,6,-0.7905420669689138,True,0.6700665921119641,True,0.061182340541570734,True,比例外推,1194802119.2768836,1139941765.0,1194802119.2768836
19,300628,982855632.37,982855632.37,2019-09-30,三季度报告,890967407.9100002,2019,9,-0.8705448958762574,True,0.7071755168610611,True,,False,平均增速,1232090081.0106378,1204444706.0,1232090081.0106378
20,300628,1235294618.36,1235294618.36,2019-12-31,年度报告,1095244381.13,2019,12,-0.8991080997988397,True,0.6644829882167906,True,0.0,True,比例外推,1235294618.36,1063347692.0,1063347692.0
21,300628,365834776.74,365834776.74,2020-03-31,一季度报告,316824577.40999985,2020,3,-0.6708288011963742,True,0.5463742648708123,True,0.02662614286491588,True,比例外推,1426293236.0300107,1551527143.0,1426293236.0300107
