,SECURITYCODE_x,NETPROFIT_x,PARENTNETPROFIT_x,REPORTDATE_x,REPORTTIMETYPE_x,KCFJCXSYJLR,Year,Month,managesituationChangeRate,managesituationGreatChange,historyprofitextroplaterate,ifhistoryprofitextroplate,IfprofitdisStableChangeRage,IfprofitdisStable,predicttype,predict,analyst_prediction,adj_prediction
0,300690,18674566.590000004,18674566.590000004,2012-12-31,年度报告,16996566.59,2012,12,未知,未知,未知,未知,未知,未知,未知,未知,未知,未知
1,300690,32779760.06000001,32779760.06000001,2013-12-31,年度报告,32922160.06,2013,12,0.0,True,未知,未知,未知,未知,未知,未知,未知,未知
2,300690,61255440.26000001,61255440.26000001,2014-12-31,年度报告,61069332.57999999,2014,12,-0.4303019132593371,True,未知,未知,未知,未知,未知,未知,未知,未知
3,300690,59987474.85999999,60033861.75,2015-06-30,半年度报告,59128661.75000002,2015,6,未知,未知,未知,未知,未知,未知,未知,未知,未知,未知
4,300690,102365096.26,102335602.93,2015-12-31,年度报告,102011892.13,2015,12,-0.6951361950753205,True,1.38096363311364,True,0.0,True,比例外推,102335602.93,未知,102335602.93
5,300690,47442999.61,47467745.97,2016-06-30,半年度报告,45487714.49,2016,6,-0.6886922372781469,True,未知,未知,未知,未知,未知,未知,未知,未知
6,300690,88515295.68,88576606.77000001,2016-09-30,三季度报告,,2016,9,未知,未知,未知,未知,未知,未知,未知,未知,未知,未知
7,300690,107330022.41,107702692.53000002,2016-12-31,年度报告,105438227.35999998,2016,12,-0.817569002792046,True,1.1771654850875737,True,0.0,True,比例外推,107702692.53000002,未知,107702692.53000002
8,300690,23517225.77,23436011.94,2017-03-31,一季度报告,23344000.01,2017,3,未知,未知,未知,未知,未知,未知,未知,未知,未知,未知
9,300690,51218544.00999999,51438460.49999999,2017-06-30,半年度报告,50857852.76,2017,6,-0.6063788811097055,True,未知,未知,未知,未知,未知,未知,未知,未知
10,300690,92123279.13,92291389.78,2017-09-30,三季度报告,91554483.15999998,2017,9,-0.7890244115829179,True,未知,未知,未知,未知,未知,未知,未知,未知
11,300690,110391851.6,110547475.93999995,2017-12-31,年度报告,103784481.06999998,2017,12,-0.8260079876004938,True,0.3119382773430841,True,0.0,True,比例外推,110547475.93999995,123000000.0,123000000.0
12,300690,16828408.7,16832573.84,2018-03-31,一季度报告,16809504.63,2018,3,-0.20591966192617778,True,未知,未知,未知,未知,未知,未知,132680000.0,未知
13,300690,43969160.53,44055952.42,2018-06-30,半年度报告,36548727.39000001,2018,6,-0.6353944269412666,True,0.04648016751889542,True,0.07926709469720039,True,比例外推,80552366.43680951,,80552366.43680951
14,300690,76791725.52000001,77523506.85000001,2018-09-30,三季度报告,66339584.70999999,2018,9,-0.7972872137600818,True,未知,未知,未知,未知,未知,未知,未知,未知
15,300690,86506652.56,87885278.98,2018-12-31,年度报告,74294142.00999999,2018,12,-0.8308338313078897,True,0.05287955485244377,True,0.0,True,比例外推,87885278.98,157000000.0,157000000.0
16,300690,34723831.32,34820266.10999999,2019-03-31,一季度报告,22486061.470000006,2019,3,0.10970484036318921,True,未知,未知,未知,未知,未知,未知,147880000.0,未知
17,300690,69639133.53,70001245.53999999,2019-06-30,半年度报告,58221016.01999999,2019,6,-0.5752803472957275,True,0.1086869530574246,True,0.039716016467625403,True,比例外推,135357150.39331803,170615000.0,170615000.0
18,300690,120980752.28,121358445.02,2019-09-30,三季度报告,106788913.17,2019,9,-0.7568153799964255,True,0.14977489607885364,True,,False,平均增速,131141811.75681601,155915000.0,155915000.0
19,300690,151536662.0,152276015.09,2019-12-31,年度报告,138058253.98000002,2019,12,-0.7841256592717243,True,0.2053471618012369,True,0.0,True,比例外推,152276015.09,155915000.0,152276015.09
20,300690,45827242.95,46084869.18,2020-03-31,一季度报告,44190717.91,2020,3,-0.4621974050644592,True,0.7213178960325817,True,0.04181211296128151,True,比例外推,217789492.7550611,,217789492.7550611
