,SECURITYCODE_x,NETPROFIT_x,PARENTNETPROFIT_x,REPORTDATE_x,REPORTTIMETYPE_x,KCFJCXSYJLR,Year,Month,managesituationChangeRate,managesituationGreatChange,historyprofitextroplaterate,ifhistoryprofitextroplate,IfprofitdisStableChangeRage,IfprofitdisStable,predicttype,predict,analyst_prediction,adj_prediction
0,300664,117725000.0,75365200.0,2013-09-30,三季度报告,,2013,9,未知,未知,未知,未知,未知,未知,未知,未知,未知,未知
1,300664,56628607.91,56565575.82000001,2014-03-31,一季度报告,,2014,3,未知,未知,未知,未知,未知,未知,未知,未知,未知,未知
2,300664,90367043.29,90371048.79,2014-06-30,半年度报告,,2014,6,未知,未知,未知,未知,未知,未知,未知,未知,未知,未知
3,300664,126477650.07000002,125789195.95000003,2014-09-30,三季度报告,,2014,9,0.0,True,未知,未知,未知,未知,未知,未知,未知,未知
4,300664,210492845.07,210058549.16,2014-12-31,年度报告,141653311.45000002,2014,12,未知,未知,未知,未知,未知,未知,未知,未知,未知,未知
5,300664,37865300.89,37945125.28,2015-03-31,一季度报告,,2015,3,1.0788962389310481,False,未知,未知,未知,未知,未知,未知,未知,未知
6,300664,144485578.57999998,144730635.68,2015-06-30,半年度报告,,2015,6,0.3027426339733682,True,未知,未知,未知,未知,未知,未知,未知,未知
7,300664,163393518.65,163898650.81,2015-09-30,三季度报告,,2015,9,-0.06920313640517357,True,未知,未知,未知,未知,未知,未知,未知,未知
8,300664,178297822.95,175477503.00000003,2015-12-31,年度报告,174974162.66,2015,12,-0.44071733193187534,True,未知,未知,未知,未知,未知,未知,未知,未知
9,300664,262751512.4,262859621.4100001,2016-12-31,年度报告,185466263.23,2016,12,-0.3397283373840544,True,未知,未知,未知,未知,未知,未知,未知,未知
10,300664,48692093.84,48576617.05000001,2017-03-31,一季度报告,48048418.63,2017,3,未知,未知,未知,未知,未知,未知,未知,未知,未知,未知
11,300664,119669692.92,120050383.56,2017-06-30,半年度报告,119527959.48,2017,6,未知,未知,未知,未知,未知,未知,未知,未知,未知,未知
12,300664,203679609.93,204633305.74,2017-09-30,三季度报告,194950305.74000004,2017,9,未知,未知,未知,未知,未知,未知,未知,未知,未知,未知
13,300664,216802842.23,219322071.71,2017-12-31,年度报告,208927595.47,2017,12,-0.5519531022878329,True,0.3516348719896933,True,0.0,True,比例外推,219322071.71,未知,219322071.71
14,300664,50096087.28,48805113.3,2018-03-31,一季度报告,48555549.15000001,2018,3,1.4177436358937239,False,未知,未知,未知,未知,未知,未知,未知,未知
15,300664,105372875.85999995,104424257.14000002,2018-06-30,半年度报告,105144288.1,2018,6,-0.01625050480659328,True,未知,未知,未知,未知,未知,未知,236000000.0,未知
16,300664,149184410.6,148646748.75,2018-09-30,三季度报告,149188546.67999998,2018,9,-0.42200890879327896,True,未知,未知,未知,未知,未知,未知,236000000.0,未知
17,300664,165381240.01999998,168243158.5,2018-12-31,年度报告,150049636.81999996,2018,12,-0.4569951261288868,True,0.01687713888990003,True,0.0,True,比例外推,168243158.5,未知,168243158.5
18,300664,48184179.29000001,50437470.10999999,2019-03-31,一季度报告,46473735.36999998,2019,3,1.3499839287249022,False,未知,未知,未知,未知,未知,未知,未知,未知
19,300664,121047038.87,120686812.48,2019-06-30,半年度报告,109427820.23000002,2019,6,0.11722299537891773,True,未知,未知,未知,未知,未知,未知,未知,未知
20,300664,191447340.67,190342137.73999995,2019-09-30,三季度报告,173787454.43,2019,9,-0.21087599215946493,True,未知,未知,未知,未知,未知,未知,258500000.0,未知
21,300664,298520940.45,289897711.7,2019-12-31,年度报告,274321570.1,2019,12,-0.28815989053073243,True,0.31027113642790366,True,0.0,True,比例外推,289897711.7,258000000.0,258000000.0
22,300664,66603647.42,63142397.97,2020-03-31,一季度报告,62642186.46000001,2020,3,1.44322932827108,False,0.02449506117599821,True,0.08260113317639758,True,前期平均,194329030.225,494000000.0,494000000.0
