,SECURITYCODE_x,NETPROFIT_x,PARENTNETPROFIT_x,REPORTDATE_x,REPORTTIMETYPE_x,KCFJCXSYJLR,Year,Month,managesituationChangeRate,managesituationGreatChange,historyprofitextroplaterate,ifhistoryprofitextroplate,IfprofitdisStableChangeRage,IfprofitdisStable,predicttype,predict,analyst_prediction,adj_prediction
0,300696,17792545.28,17792545.28,2013-12-31,年度报告,17665045.28,2013,12,未知,未知,未知,未知,未知,未知,未知,未知,未知,未知
1,300696,33853101.55,33853101.55,2014-12-31,年度报告,33566998.1,2014,12,0.0,True,未知,未知,未知,未知,未知,未知,未知,未知
2,300696,50394806.9,50394806.9,2015-12-31,年度报告,63925101.94000001,2015,12,-0.4744190497960444,True,未知,未知,未知,未知,未知,未知,未知,未知
3,300696,50394806.9,50394806.9,2015-12-31,年度报告,63925101.94000001,2015,12,-0.4744190497960444,True,未知,未知,未知,未知,未知,未知,未知,未知
4,300696,65509855.35000002,65509855.35000002,2015-12-31,年度报告,63925101.94000001,2015,12,-0.4744190497960444,True,未知,未知,未知,未知,未知,未知,未知,未知
5,300696,65509855.35000002,65509855.35000002,2015-12-31,年度报告,63925101.94000001,2015,12,-0.4744190497960444,True,未知,未知,未知,未知,未知,未知,未知,未知
6,300696,11386880.47,11386880.47,2016-06-30,半年度报告,10880193.35,2016,6,未知,未知,未知,未知,未知,未知,未知,未知,未知,未知
7,300696,14174867.400000002,14174867.400000002,2016-09-30,三季度报告,,2016,9,未知,未知,未知,未知,未知,未知,未知,未知,未知,未知
8,300696,68183586.56000002,68183586.56000002,2016-12-31,年度报告,67132992.0,2016,12,-0.646936929130291,True,0.9515606829703444,True,0.0,True,比例外推,68183586.56000002,未知,68183586.56000002
9,300696,8158170.5,8158170.5,2017-03-31,一季度报告,8098032.999999999,2017,3,未知,未知,未知,未知,未知,未知,未知,未知,未知,未知
10,300696,35956898.050000004,35956898.050000004,2017-06-30,半年度报告,33566296.19,2017,6,0.5625478221955903,False,未知,未知,未知,未知,未知,未知,83000000.0,未知
11,300696,38097738.45,38097738.45,2017-09-30,三季度报告,35532427.59,2017,9,0.2552177581569474,True,未知,未知,未知,未知,未知,未知,96615000.0,未知
12,300696,73636625.61999999,73636625.61999999,2017-12-31,年度报告,68224052.52,2017,12,-0.7390494372961305,True,0.6186416449843635,True,0.0,True,比例外推,73636625.61999999,93743333.0,93743333.0
13,300696,9085960.87,9085960.87,2018-03-31,一季度报告,7893574.080000001,2018,3,1.1809479564076286,False,未知,未知,未知,未知,未知,未知,84800000.0,未知
14,300696,38947320.12000001,38947320.12000001,2018-06-30,半年度报告,31821192.26,2018,6,-0.5051701830547644,True,未知,未知,未知,未知,未知,未知,,未知
15,300696,46986317.11000002,46986317.11000002,2018-09-30,三季度报告,36426173.22000001,2018,9,-0.5329763391768993,True,未知,未知,未知,未知,未知,未知,未知,未知
16,300696,68479887.81,68479887.81,2018-12-31,年度报告,51086531.05,2018,12,-0.7583737015351845,True,0.24199061011633283,True,0.0,True,比例外推,68479887.81,124000000.0,124000000.0
17,300696,23890286.590000004,23890286.590000004,2019-03-31,一季度报告,21847545.44,2019,3,0.9582458624433855,False,未知,未知,未知,未知,未知,未知,78240000.0,未知
18,300696,43039685.36999999,43039685.36999999,2019-06-30,半年度报告,39342288.48,2019,6,-0.5431638113949906,True,0.6452983406699162,True,0.26358350774082373,False,平均增速,63450191.56000601,82720000.0,82720000.0
19,300696,44321944.58,44321944.58,2019-09-30,三季度报告,38569192.81999999,2019,9,-0.6213249649180689,True,0.79774152621473,True,,False,平均增速,58552465.2413169,,58552465.2413169
20,300696,78051323.48,78051323.48,2019-12-31,年度报告,68700332.57,2019,12,-0.7401785276084843,True,0.0342718184191621,True,0.0,True,比例外推,78051323.48,未知,78051323.48
21,300696,26466211.32,26466211.32,2020-03-31,一季度报告,23371691.65,2020,3,-0.25523935374439566,True,1.770830965897473,True,0.1209376730222837,False,平均增速,76049515.35201216,125182500.0,125182500.0
