,SECURITYCODE_x,NETPROFIT_x,PARENTNETPROFIT_x,REPORTDATE_x,REPORTTIMETYPE_x,KCFJCXSYJLR,Year,Month,managesituationChangeRate,managesituationGreatChange,historyprofitextroplaterate,ifhistoryprofitextroplate,IfprofitdisStableChangeRage,IfprofitdisStable,predicttype,predict,analyst_prediction,adj_prediction
0,300616,76037802.28999999,76037802.28999999,2012-12-31,年度报告,75203710.56,2012,12,未知,未知,未知,未知,未知,未知,未知,未知,未知,未知
1,300616,116818794.35,116818794.35,2013-12-31,年度报告,115253594.35,2013,12,0.0,True,未知,未知,未知,未知,未知,未知,未知,未知
2,300616,116818794.35,116818794.35,2013-12-31,年度报告,115253611.21999995,2013,12,0.0,True,未知,未知,未知,未知,未知,未知,未知,未知
3,300616,130129926.23,130129926.23,2014-12-31,年度报告,122814493.40999998,2014,12,-0.3490961560330468,True,未知,未知,0.0,True,未知,未知,未知,未知
4,300616,130129926.23,130129926.23,2014-12-31,年度报告,122814526.23,2014,12,-0.3490961560330468,True,未知,未知,未知,未知,未知,未知,未知,未知
5,300616,139534451.54,139534451.54,2015-12-31,年度报告,136529550.92999998,2015,12,-0.41567781913895896,True,0.3494993533761243,True,未知,未知,未知,未知,未知,未知
6,300616,139534451.54,139534451.54,2015-12-31,年度报告,136529551.54,2015,12,-0.41567781913895896,True,0.3494993533761243,True,未知,未知,未知,未知,未知,未知
7,300616,-60512140.95999999,-60512140.95999999,2016-03-31,一季度报告,-59910979.52999999,2016,3,未知,未知,未知,未知,0.0,True,未知,未知,未知,未知
8,300616,29000088.79000001,29000088.79000001,2016-06-30,半年度报告,28949127.43,2016,6,未知,未知,未知,未知,未知,未知,未知,未知,未知,未知
9,300616,118383567.47,118383567.47,2016-09-30,三季度报告,,2016,9,未知,未知,未知,未知,未知,未知,未知,未知,未知,未知
10,300616,255510652.25,255510652.25,2016-12-31,年度报告,255311202.21,2016,12,-0.4550607290830794,True,0.1300682280295295,True,未知,未知,未知,未知,未知,未知
11,300616,-46571401.03,-46571401.03,2017-03-31,一季度报告,-46540001.21,2017,3,-2.256571013414694,False,未知,未知,0.0,True,未知,未知,345406000.0,未知
12,300616,65870099.56999999,65870099.56999999,2017-06-30,半年度报告,58702455.43000001,2017,6,1.6219851546185549,False,未知,未知,未知,未知,未知,未知,369405385.0,未知
13,300616,205771653.33,205771653.33,2017-09-30,三季度报告,178924569.98000002,2017,9,-0.3576996882673856,True,未知,未知,未知,未知,未知,未知,387007500.0,未知
14,300616,380044995.99,380044995.99,2017-12-31,年度报告,334561355.48000014,2017,12,-0.7024084842631058,True,0.8950271026744818,True,未知,未知,True,True,387007500.0,387007500.0
15,300616,-32978987.129999995,-32978987.129999995,2018-03-31,一季度报告,-63363233.08999999,2018,3,-2.632714511659603,False,未知,未知,0.0,True,未知,未知,542692500.0,未知
16,300616,123482762.91,123482762.91,2018-06-30,半年度报告,67036545.2,2018,6,0.15435991119452927,True,未知,未知,0.049824803584225225,True,未知,未知,533018750.0,未知
17,300616,292761433.93999994,292772638.61999995,2018-09-30,三季度报告,189321003.46,2018,9,-0.6304748440347288,True,未知,未知,0.04663290788953084,True,未知,未知,516992174.0,未知
18,300616,477084602.03,477075201.2099999,2018-12-31,年度报告,350585726.7800001,2018,12,-0.7999242113636441,True,0.924058758576723,True,,False,平均增速,477075201.2099999,521212857.0,477075201.2099999
19,300616,-22933257.37,-22572003.9,2019-03-31,一季度报告,-36734864.98,2019,3,-3.3056439541416567,False,-0.38405124602472074,True,0.0,True,前期平均,325589765.31500006,593799367.0,593799367.0
20,300616,163121969.02000004,163472096.60000002,2019-06-30,半年度报告,131719458.8,2019,6,-0.384223348278821,True,1.6031942182179513,True,0.051585721080712466,True,比例外推,854893690.1530414,588313846.0,588313846.0
21,300616,335111879.47000015,335172524.53,2019-09-30,三季度报告,285023832.61,2019,9,-0.7402738425390293,True,0.8063039874383533,True,未知,未知,True,True,556463000.0,556463000.0
22,300616,528622541.1699999,528398840.9,2019-12-31,年度报告,445039922.53,2019,12,-0.8406198775511549,True,0.5013149622732711,True,未知,未知,True,True,556413000.0,556413000.0
23,300616,-156141915.48000002,-155578770.48000002,2020-03-31,一季度报告,-167640337.28000003,2020,3,-4.315612826526265,False,-0.42342814660126477,True,未知,未知,前期平均,241946387.80000007,558659048.0,558659048.0
