,SECURITYCODE_x,NETPROFIT_x,PARENTNETPROFIT_x,REPORTDATE_x,REPORTTIMETYPE_x,KCFJCXSYJLR,Year,Month,managesituationChangeRate,managesituationGreatChange,historyprofitextroplaterate,ifhistoryprofitextroplate,IfprofitdisStableChangeRage,IfprofitdisStable,predicttype,predict,analyst_prediction,adj_prediction
0,300650,24905389.76,24905389.76,2012-12-31,年度报告,24849089.759999994,2012,12,未知,未知,未知,未知,未知,未知,未知,未知,未知,未知
1,300650,29782621.54,29782621.54,2013-12-31,年度报告,27861721.54000001,2013,12,0.0,True,未知,未知,未知,未知,未知,未知,未知,未知
2,300650,28307882.070000004,28676537.47,2014-12-31,年度报告,28610787.68,2014,12,-0.16376099644047645,True,未知,未知,未知,未知,未知,未知,未知,未知
3,300650,11715416.65,11831425.9,2015-06-30,半年度报告,11771925.9,2015,6,未知,未知,未知,未知,未知,未知,未知,未知,未知,未知
4,300650,35631450.84,35701718.58,2015-12-31,年度报告,35450605.480000004,2015,12,-0.12019593347133094,True,0.035250008076267554,True,0.0,True,比例外推,35701718.58,未知,35701718.58
5,300650,2033866.27,2130366.02,2016-03-31,一季度报告,430366.02,2016,3,未知,未知,未知,未知,未知,未知,未知,未知,未知,未知
6,300650,11337443.63,11290852.26,2016-06-30,半年度报告,8676905.850000001,2016,6,1.1258646195908022,False,未知,未知,未知,未知,未知,未知,未知,未知
7,300650,29067508.34,28802919.49,2016-09-30,三季度报告,,2016,9,未知,未知,未知,未知,未知,未知,未知,未知,未知,未知
8,300650,42193856.3,41574022.95,2016-12-31,年度报告,38321083.94999999,2016,12,-0.3010279072879874,True,0.22675647913874244,True,0.0,True,比例外推,41574022.95,未知,41574022.95
9,300650,3868088.05,3946480.57,2017-03-31,一季度报告,3968722.15,2017,3,11.245342836626127,False,未知,未知,未知,未知,未知,未知,未知,未知
10,300650,13592639.390000002,13331447.91,2017-06-30,半年度报告,13188968.339999994,2017,6,1.1967376926221596,False,未知,未知,未知,未知,未知,未知,未知,未知
11,300650,41079554.68000001,40528136.37000001,2017-09-30,三季度报告,38362928.12000001,2017,9,-0.143188006736459,True,未知,未知,未知,未知,未知,未知,未知,未知
12,300650,51992626.78000001,51439268.07000001,2017-12-31,年度报告,47503374.36999999,2017,12,-0.4097389538675562,True,0.3198090871355007,True,0.0,True,比例外推,51439268.07000001,未知,51439268.07000001
13,300650,7278983.27,7775286.789999999,2018-03-31,一季度报告,5714316.45,2018,3,5.438682221827913,False,未知,未知,未知,未知,未知,未知,未知,未知
14,300650,21578493.05,21567430.169999994,2018-06-30,半年度报告,17500052.51,2018,6,0.8322703225925864,False,0.1792583848514959,True,0.05335399128978219,True,前期平均,48228859.00999999,72000000.0,72000000.0
15,300650,46956079.45,45078849.38,2018-09-30,三季度报告,39722047.72,2018,9,-0.39372785430594165,True,未知,未知,未知,未知,未知,未知,,未知
16,300650,59717088.70999999,57350448.29000002,2018-12-31,年度报告,49983525.69000001,2018,12,-0.5209822757102869,True,0.336136757840748,True,0.0,True,比例外推,57350448.29000002,未知,57350448.29000002
17,300650,6786418.370000001,6605726.300000003,2019-03-31,一季度报告,5469329.81,2019,3,2.4215478777985986,False,1.4666349061136073,True,0.05846968355472159,True,前期平均,47318411.375,未知,47318411.375
18,300650,24246274.78,24363190.73,2019-06-30,半年度报告,22187831.520000003,2019,6,0.15417650816909112,True,0.7311208336280942,True,0.06538787654359635,True,比例外推,80101625.85425243,未知,80101625.85425243
19,300650,42381039.03,41290407.88,2019-09-30,三季度报告,37500411.90000001,2019,9,-0.46960244441787613,True,0.3387896065331231,True,,False,平均增速,52013563.86488563,未知,52013563.86488563
20,300650,52512191.93000001,51721198.36,2019-12-31,年度报告,46653020.00999999,2019,12,-0.5829436716021716,True,0.2680606973991705,True,0.0,True,比例外推,51721198.36,未知,51721198.36
21,300650,-5576626.790000001,-4752977.579999999,2020-03-31,一季度报告,-5075131.94,2020,3,2.6698871779106064,False,0.21761459583089862,True,0.02148866129515803,True,盈利变化,37661916.02666666,未知,37661916.02666666
