,SECURITYCODE_x,NETPROFIT_x,PARENTNETPROFIT_x,REPORTDATE_x,REPORTTIMETYPE_x,KCFJCXSYJLR,Year,Month,managesituationChangeRate,managesituationGreatChange,historyprofitextroplaterate,ifhistoryprofitextroplate,IfprofitdisStableChangeRage,IfprofitdisStable,predicttype,predict,analyst_prediction,adj_prediction
0,300631,59465268.86,59319547.84,2014-12-31,年度报告,44267247.84,2014,12,未知,未知,未知,未知,未知,未知,未知,未知,未知,未知
1,300631,59465268.86,59319547.84,2014-12-31,年度报告,44267254.16,2014,12,未知,未知,未知,未知,未知,未知,未知,未知,未知,未知
2,300631,50466692.15000001,50293134.75000001,2015-12-31,年度报告,38818096.34999999,2015,12,0.0,True,未知,未知,未知,未知,未知,未知,未知,未知
3,300631,1860255.36,1897479.7,2016-03-31,一季度报告,1173802.18,2016,3,未知,未知,未知,未知,未知,未知,未知,未知,未知,未知
4,300631,5811145.28,5789244.19,2016-06-30,半年度报告,2278283.15,2016,6,未知,未知,未知,未知,未知,未知,未知,未知,未知,未知
5,300631,43515461.70999999,43064659.92,2016-12-31,年度报告,33403939.7,2016,12,0.1783072423937336,True,未知,未知,未知,未知,未知,未知,未知,未知
6,300631,2574787.5500000003,2624850.43,2017-03-31,一季度报告,1665046.7499999998,2017,3,30.966186007925277,False,未知,未知,未知,未知,未知,未知,未知,未知
7,300631,8688532.52,8290465.679999999,2017-06-30,半年度报告,6392251.54,2017,6,9.232968889051763,False,未知,未知,未知,未知,未知,未知,未知,未知
8,300631,26504145.96,25671284.99000001,2017-09-30,三季度报告,21420071.05,2017,9,未知,未知,未知,未知,0.0,True,未知,未知,53500000.0,未知
9,300631,45801560.66,45038324.72999999,2017-12-31,年度报告,37541840.06,2017,12,0.36653195262627053,True,0.2083201043590665,True,未知,未知,未知,未知,51000000.0,未知
10,300631,4166620.58,3081056.1600000006,2018-03-31,一季度报告,2118340.33,2018,3,22.095213762393715,False,未知,未知,未知,未知,未知,未知,83333333.0,未知
11,300631,11264538.67,10251594.93,2018-06-30,半年度报告,5414139.6000000015,2018,6,5.844109603447741,False,未知,未知,未知,未知,未知,未知,77000000.0,未知
12,300631,32711224.68000001,31361139.980000004,2018-09-30,三季度报告,24927003.46,2018,9,1.2436213922812247,False,未知,未知,0.0,True,未知,未知,68000000.0,未知
13,300631,57607967.76,55008181.43000002,2018-12-31,年度报告,45340348.62,2018,12,0.2983240746189893,True,0.02531366267199977,True,0.006931120491323252,True,比例外推,55008181.43000002,70721180.0,70721180.0
14,300631,6463495.550000003,5375843.609999999,2019-03-31,一季度报告,2657435.49,2019,3,13.271822384173026,False,0.8789538972014139,True,0.05109102845740504,True,前期平均,39429309.025,63000000.0,63000000.0
15,300631,16913632.72,12573241.390000002,2019-06-30,半年度报告,8694671.41,2019,6,4.278979512793487,False,0.5537639974317221,True,未知,未知,前期平均,43710863.925000004,63000000.0,63000000.0
16,300631,37115874.33,32252450.59,2019-09-30,三季度报告,27469609.760000005,2019,9,0.8178857392752309,False,未知,未知,0.0,True,未知,未知,,未知
17,300631,62592353.02,55814395.21999999,2019-12-31,年度报告,47913876.35,2019,12,0.032240350983004394,True,0.28996615049158864,True,0.006617626221630472,True,比例外推,55814395.21999999,62000000.0,55814395.21999999
18,300631,6925734.33,7667214.06,2020-03-31,一季度报告,2144403.47,2020,3,8.2001717027561,False,0.9175505844948753,True,未知,未知,前期平均,47216614.86,73000000.0,73000000.0
