,SECURITYCODE_x,NETPROFIT_x,PARENTNETPROFIT_x,REPORTDATE_x,REPORTTIMETYPE_x,KCFJCXSYJLR,Year,Month,managesituationChangeRate,managesituationGreatChange,historyprofitextroplaterate,ifhistoryprofitextroplate,IfprofitdisStableChangeRage,IfprofitdisStable,predicttype,predict,analyst_prediction,adj_prediction
0,300670,469654.3500000001,469654.3500000001,2012-12-31,年度报告,396854.35,2012,12,未知,未知,未知,未知,未知,未知,未知,未知,未知,未知
1,300670,7500884.010000003,7500884.010000003,2013-12-31,年度报告,6572784.009999999,2013,12,0.0,True,未知,未知,未知,未知,未知,未知,未知,未知
2,300670,37985537.70999999,37985537.70999999,2014-12-31,年度报告,37244116.12000001,2014,12,-0.9373868000926466,True,未知,未知,未知,未知,未知,未知,未知,未知
3,300670,25342700.67,25342700.67,2015-06-30,半年度报告,24893400.67,2015,6,未知,未知,未知,未知,未知,未知,未知,未知,未知,未知
4,300670,50146155.84,50146155.84,2015-12-31,年度报告,47492266.07000001,2015,12,-0.9876359694158979,True,8.53148607894034,False,0.0,True,比例外推,50146155.84,未知,50146155.84
5,300670,3968579.62,3968579.62,2016-03-31,一季度报告,3923109.0,2016,3,未知,未知,未知,未知,未知,未知,未知,未知,未知,未知
6,300670,17933350.209999993,17933350.209999993,2016-06-30,半年度报告,17472793.110000007,2016,6,-0.9814678650031974,True,未知,未知,未知,未知,未知,未知,未知,未知
7,300670,31290691.600000005,31290691.600000005,2016-09-30,三季度报告,,2016,9,未知,未知,未知,未知,未知,未知,未知,未知,未知,未知
8,300670,54394439.07000002,54394439.07000002,2016-12-31,年度报告,51375362.15999999,2016,12,-0.9906342900640577,True,1.204884620236072,True,0.0,True,比例外推,54394439.07000002,未知,54394439.07000002
9,300670,3316739.24,3316739.24,2017-03-31,一季度报告,2766085.66,2017,3,-0.8816568155434916,True,未知,未知,未知,未知,未知,未知,未知,未知
10,300670,20685808.75,20685808.75,2017-06-30,半年度报告,19361670.96,2017,6,-0.9738111203706872,True,未知,未知,未知,未知,未知,未知,60000000.0,未知
11,300670,33271127.04,33271127.04,2017-09-30,三季度报告,30590827.260000005,2017,9,-0.9849906050015206,True,未知,未知,未知,未知,未知,未知,,未知
12,300670,54915005.69,54915005.69,2017-12-31,年度报告,51476424.19999999,2017,12,-0.991365765360764,True,0.23438996526579342,True,0.0,True,比例外推,54915005.69,未知,54915005.69
13,300670,5751024.86,5751024.86,2018-03-31,一季度报告,5214144.93,2018,3,-0.858398771800945,True,未知,未知,未知,未知,未知,未知,未知,未知
14,300670,13618731.399999995,13618731.399999995,2018-06-30,半年度报告,12354607.750000002,2018,6,-0.9772958188062141,True,0.044006635108198563,True,0.11069542681259853,False,平均增速,40594499.00681503,未知,40594499.00681503
15,300670,22597178.120000005,22597178.120000005,2018-09-30,三季度报告,20600864.69,2018,9,-0.9858840264282192,True,未知,未知,未知,未知,未知,未知,未知,未知
16,300670,35796153.66000001,35796153.66000001,2018-12-31,年度报告,33610410.86,2018,12,-0.9914476135602854,True,0.05059677032212871,True,0.0,True,比例外推,35796153.66000001,未知,35796153.66000001
17,300670,6454040.800000003,6461082.6499999985,2019-03-31,一季度报告,6188743.53,2019,3,-0.9183355381983168,True,0.5787983945564739,True,0.060057650910958035,True,比例外推,65364135.606816955,未知,65364135.606816955
18,300670,16163377.33,16227982.85,2019-06-30,半年度报告,15719401.539999995,2019,6,-0.9655140896603629,True,0.29471631352170713,True,0.021169487411333232,True,比例外推,44020072.35412613,未知,44020072.35412613
19,300670,23933720.02,24035511.28,2019-09-30,三季度报告,22691647.96,2019,9,-0.9792162389699303,True,0.29998322240570624,True,,False,平均增速,36582813.68286739,未知,36582813.68286739
20,300670,33652988.739999995,33779997.84,2019-12-31,年度报告,31699662.06,2019,12,-0.9868797537729644,True,0.3450492089024128,True,0.0,True,比例外推,33779997.84,未知,33779997.84
21,300670,-2184990.88,-2875203.74,2020-03-31,一季度报告,-4259964.46,2020,3,-0.9272309604860262,True,0.42351316792636934,True,0.08096513344487494,True,比例外推,-30240779.26727034,未知,-30240779.26727034
