,SECURITYCODE_x,NETPROFIT_x,PARENTNETPROFIT_x,REPORTDATE_x,REPORTTIMETYPE_x,KCFJCXSYJLR,Year,Month,managesituationChangeRate,managesituationGreatChange,historyprofitextroplaterate,ifhistoryprofitextroplate,IfprofitdisStableChangeRage,IfprofitdisStable,predicttype,predict,analyst_prediction,adj_prediction
0,300612,8078699.999999999,8349500.000000001,2012-12-31,年度报告,7303100.0,2012,12,未知,未知,未知,未知,未知,未知,未知,未知,未知,未知
1,300612,14585297.28,12534343.350000005,2013-12-31,年度报告,10888743.35,2013,12,0.0,True,未知,未知,未知,未知,未知,未知,未知,未知
2,300612,14585297.28,12534343.350000005,2013-12-31,年度报告,10888718.96,2013,12,0.0,True,未知,未知,未知,未知,未知,未知,未知,未知
3,300612,11348683.74,8141995.239999997,2014-12-31,年度报告,7026895.240000001,2014,12,-0.44610659317325896,True,未知,未知,未知,未知,未知,未知,未知,未知
4,300612,11348683.74,8141995.239999997,2014-12-31,年度报告,7026893.8500000015,2014,12,-0.44610659317325896,True,未知,未知,0.0,True,未知,未知,未知,未知
5,300612,20734796.32,21417769.61,2015-09-30,三季度报告,20420395.98,2015,9,未知,未知,未知,未知,未知,未知,未知,未知,未知,未知
6,300612,52958051.99000002,53550102.41,2015-12-31,年度报告,50560964.47000001,2015,12,-0.2881377096160053,True,0.0014723881046990218,True,未知,未知,未知,未知,未知,未知
7,300612,2799910.5,3101594.1500000013,2016-03-31,一季度报告,3101574.16,2016,3,未知,未知,未知,未知,0.0,True,未知,未知,未知,未知
8,300612,25473559.250000004,26118008.58,2016-06-30,半年度报告,26103514.45,2016,6,未知,未知,未知,未知,未知,未知,未知,未知,未知,未知
9,300612,59194968.92999999,58710099.47,2016-12-31,年度报告,58413682.0,2016,12,-0.847450959836561,True,3.084066534109002,False,未知,未知,未知,未知,未知,未知
10,300612,9336072.71,7531362.939999999,2017-03-31,一季度报告,7531362.939999999,2017,3,1.8853422279033558,False,未知,未知,未知,未知,未知,未知,82333333.0,未知
11,300612,30674940.64,27219988.75,2017-06-30,半年度报告,27136805.69,2017,6,-0.6828593946878468,True,未知,未知,0.0,True,未知,未知,,未知
12,300612,40181528.95,35378766.870000005,2017-09-30,三季度报告,35295206.33000001,2017,9,未知,未知,未知,未知,未知,未知,未知,未知,147500000.0,未知
13,300612,81922000.05999999,74956482.52999999,2017-12-31,年度报告,74845443.29,2017,12,-0.863523874646284,True,0.8410192418578848,True,未知,未知,True,True,73000000.0,73000000.0
14,300612,3287481.65,3254497.28,2018-03-31,一季度报告,-124604.42,2018,3,-0.13467897573818294,True,未知,未知,未知,未知,未知,未知,未知,未知
15,300612,3058041.4400000004,2601730.97,2018-06-30,半年度报告,-992024.72,2018,6,-0.7366351871773337,True,未知,未知,0.0,True,未知,未知,未知,未知
16,300612,9354532.54,7517938.629999999,2018-09-30,三季度报告,3921933.49,2018,9,-0.7989449328806588,True,未知,未知,0.05612636570293954,True,未知,未知,未知,未知
17,300612,21542898.45,21062083.21,2018-12-31,年度报告,17002888.86,2018,12,-0.9013854642942906,True,0.4608968958301329,True,0.3087111671307258,False,平均增速,21062083.21,,21062083.21
18,300612,-12698626.230000002,-12180332.099999996,2019-03-31,一季度报告,-12183202.6,2019,3,1.4574129562061586,False,0.45822574189273296,True,未知,未知,盈利变化,4983952.303333335,未知,4983952.303333335
19,300612,-9656483.480000002,-8662354.66,2019-06-30,半年度报告,-8667135.770000001,2019,6,1.6417889222586852,False,0.89107308490909,True,0.0,True,盈利变化,15945342.51,未知,15945342.51
20,300612,-9275057.18,-5910177.509999999,2019-09-30,三季度报告,-6542164.65,2019,9,-0.13638656282871833,True,未知,未知,0.9016049855555679,False,未知,未知,未知,未知
21,300612,6548329.28,10349912.85,2019-12-31,年度报告,9330361.36,2019,12,-0.624994750880423,True,0.6946802556179249,True,未知,未知,True,True,未知,True
22,300612,-11982852.24,-12557088.87,2020-03-31,一季度报告,-14458477.650000002,2020,3,-1.6361869271271556,False,3.0118939353939616,False,未知,未知,去年同期,8956475.090000002,未知,8956475.090000002
