,SECURITYCODE_x,NETPROFIT_x,PARENTNETPROFIT_x,REPORTDATE_x,REPORTTIMETYPE_x,KCFJCXSYJLR,Year,Month,managesituationChangeRate,managesituationGreatChange,historyprofitextroplaterate,ifhistoryprofitextroplate,IfprofitdisStableChangeRage,IfprofitdisStable,predicttype,predict,analyst_prediction,adj_prediction
0,300657,88268037.28,88224770.69,2014-12-31,年度报告,39738923.48,2014,12,未知,未知,未知,未知,未知,未知,未知,未知,未知,未知
1,300657,32486099.59,34890244.739999995,2015-12-31,年度报告,28253132.33999999,2015,12,0.0,True,未知,未知,未知,未知,未知,未知,未知,未知
2,300657,-6598191.9,-3807120.66,2016-03-31,一季度报告,-4192861.7599999993,2016,3,未知,未知,未知,未知,未知,未知,未知,未知,未知,未知
3,300657,4273094.819999998,7114161.219999999,2016-06-30,半年度报告,6656471.22,2016,6,未知,未知,未知,未知,未知,未知,未知,未知,未知,未知
4,300657,15330562.549999995,19407539.4,2016-09-30,三季度报告,,2016,9,未知,未知,未知,未知,未知,未知,未知,未知,未知,未知
5,300657,40726323.27,45368122.50999999,2016-12-31,年度报告,35225181.86,2016,12,1.7171017264002668,False,未知,未知,未知,未知,未知,未知,未知,未知
6,300657,18728828.96,18207493.31,2017-03-31,一季度报告,17119475.09,2017,3,-14.377609899463518,False,未知,未知,未知,未知,未知,未知,57200000.0,未知
7,300657,52170804.45,38892644.53000001,2017-06-30,半年度报告,28476141.50000001,2017,6,19.656699885728266,False,未知,未知,未知,未知,未知,未知,105978000.0,未知
8,300657,62274955.41,47255412.40000001,2017-09-30,三季度报告,31925441.789999995,2017,9,4.757651553367167,False,未知,未知,未知,未知,未知,未知,104865000.0,未知
9,300657,81192717.32999998,72283162.44,2017-12-31,年度报告,15151011.680000005,2017,12,1.1673460846150179,False,0.325467030353674,True,0.0,True,前期平均,72283162.44,111585000.0,111585000.0
10,300657,-21345649.76,-18340714.48,2018-03-31,一季度报告,-25218250.20000001,2018,3,3.7129501512624197,False,未知,未知,未知,未知,未知,未知,128666667.0,未知
11,300657,39393364.40000001,43599253.0,2018-06-30,半年度报告,13027942.22,2018,6,0.6919048538842302,False,未知,未知,未知,未知,未知,未知,119500000.0,未知
12,300657,82337194.6,87752884.16000001,2018-09-30,三季度报告,46401070.22,2018,9,0.41739221969520807,True,未知,未知,未知,未知,未知,未知,101000000.0,未知
13,300657,106323495.52999996,117943676.12,2018-12-31,年度报告,60494898.78999999,2018,12,0.08714229776598141,True,1.2180038348207722,True,0.0,True,比例外推,117943676.12,139400000.0,139400000.0
14,300657,21259692.05,22505018.03,2019-03-31,一季度报告,18886181.37,2019,3,-5.135176875496527,False,4.5192957557663505,False,0.9319139242972199,False,盈利变化,176749584.88000003,182870000.0,176749584.88000003
15,300657,69749346.75,72164304.55,2019-06-30,半年度报告,59301038.20999999,2019,6,1.2406828821150389,False,0.39584135431754736,True,1.118216810175209,False,前期平均,79786094.96,193660000.0,193660000.0
16,300657,133244810.97,141252399.95000002,2019-09-30,三季度报告,81781161.12999998,2019,9,0.07203114836268672,True,1.1219417578641466,True,,False,平均增速,169256426.85747612,216040000.0,216040000.0
17,300657,171427504.13000005,180380492.4400001,2019-12-31,年度报告,107161124.31000002,2019,12,-0.16981625895572136,True,0.7441655545639188,True,0.0,True,比例外推,180380492.4400001,216040000.0,216040000.0
18,300657,-31921087.4,-30462236.73999999,2020-03-31,一季度报告,-42322524.07,2020,3,3.1518963243872578,False,-17.24848904441603,True,0.8334901857674222,False,盈利变化,98768885.18666676,,98768885.18666676
