,SECURITYCODE_x,NETPROFIT_x,PARENTNETPROFIT_x,REPORTDATE_x,REPORTTIMETYPE_x,KCFJCXSYJLR,Year,Month,managesituationChangeRate,managesituationGreatChange,historyprofitextroplaterate,ifhistoryprofitextroplate,IfprofitdisStableChangeRage,IfprofitdisStable,predicttype,predict,analyst_prediction,adj_prediction
0,300683,77595021.36000001,77654086.56,2013-12-31,年度报告,76911825.97999999,2013,12,未知,未知,未知,未知,未知,未知,未知,未知,未知,未知
1,300683,108967636.12000002,109911995.24,2014-12-31,年度报告,99442945.84000002,2014,12,0.0,True,未知,未知,未知,未知,未知,未知,未知,未知
2,300683,83230305.30000001,83346512.48000002,2015-12-31,年度报告,69184224.79999998,2015,12,-0.28790763824087257,True,未知,未知,未知,未知,未知,未知,未知,未知
3,300683,61460008.71,61473079.00999999,2016-06-30,半年度报告,56688119.39000001,2016,6,未知,未知,未知,未知,未知,未知,未知,未知,未知,未知
4,300683,97631204.28999998,97659399.58,2016-09-30,三季度报告,,2016,9,未知,未知,未知,未知,未知,未知,未知,未知,未知,未知
5,300683,156735440.04999998,157053448.92999998,2016-12-31,年度报告,148181032.44,2016,12,-0.06770711605211421,True,0.10774957406551193,True,0.0,True,比例外推,157053448.92999998,未知,157053448.92999998
6,300683,30514402.01,30889740.45,2017-03-31,一季度报告,30085553.86,2017,3,未知,未知,未知,未知,未知,未知,未知,未知,未知,未知
7,300683,68875131.48999998,69538620.03000002,2017-06-30,半年度报告,65533661.52000001,2017,6,0.262528642423943,True,未知,未知,未知,未知,未知,未知,171350000.0,未知
8,300683,107762430.19,108663580.03,2017-09-30,三季度报告,103690754.96,2017,9,-0.2052231463875551,True,未知,未知,未知,未知,未知,未知,,未知
9,300683,141197434.18,142389649.91000003,2017-12-31,年度报告,124548584.96,2017,12,-0.5049299549913758,True,0.6309793839830397,True,0.0,True,比例外推,142389649.91000003,未知,142389649.91000003
10,300683,23089374.69,23743408.83,2018-03-31,一季度报告,20367165.190000005,2018,3,1.54289831190436,False,未知,未知,未知,未知,未知,未知,未知,未知
11,300683,45430626.73,46465576.47000001,2018-06-30,半年度报告,26710462.09,2018,6,0.12660432991356366,True,未知,未知,未知,未知,未知,未知,未知,未知
12,300683,74525283.05999999,75985806.94,2018-09-30,三季度报告,44704077.2,2018,9,-0.27994365732853915,True,未知,未知,未知,未知,未知,未知,未知,未知
13,300683,91464026.88,94137745.35,2018-12-31,年度报告,66887868.43,2018,12,-0.45045020250806367,True,0.17681324869145545,True,0.0,True,比例外推,94137745.35,未知,94137745.35
14,300683,29274813.57,29854699.68,2019-03-31,一季度报告,26295585.08000001,2019,3,2.36063762669183,False,未知,未知,未知,未知,未知,未知,未知,未知
15,300683,54862909.42,55806029.49,2019-06-30,半年度报告,39793269.55,2019,6,0.7079892342484534,False,0.3028644974749488,True,0.09014903011938413,True,前期平均,131059947.73499998,105300000.0,105300000.0
16,300683,66885959.58000001,68128794.01,2019-09-30,三季度报告,45226146.71,2019,9,0.04119056210130183,True,0.2743175001632602,True,,False,平均增速,86990093.55884439,,86990093.55884439
17,300683,61187256.17,63035065.41,2019-12-31,年度报告,35084959.85,2019,12,-0.15163344533469966,True,0.3860091665521204,True,0.0,True,比例外推,63035065.41,未知,63035065.41
18,300683,4052881.96,4250575.75,2020-03-31,一季度报告,-912044.87,2020,3,1.6505726902226012,False,0.09226682790804173,True,0.3176374388878701,False,前期平均,74742442.91999999,94000000.0,94000000.0
