,SECURITYCODE_x,NETPROFIT_x,PARENTNETPROFIT_x,REPORTDATE_x,REPORTTIMETYPE_x,KCFJCXSYJLR,Year,Month,managesituationChangeRate,managesituationGreatChange,historyprofitextroplaterate,ifhistoryprofitextroplate,IfprofitdisStableChangeRage,IfprofitdisStable,predicttype,predict,analyst_prediction,adj_prediction
0,300688,-1305860.32,-1702173.27,2013-12-31,年度报告,-2882673.2700000005,2013,12,未知,未知,未知,未知,未知,未知,未知,未知,未知,未知
1,300688,8960944.570000002,7158091.209999999,2014-12-31,年度报告,6386302.04,2014,12,-0.0,False,未知,未知,未知,未知,未知,未知,未知,未知
2,300688,7796387.8500000015,5329207.28,2015-12-31,年度报告,19070922.590000004,2015,12,-1.1457279765318311,False,未知,未知,未知,未知,未知,未知,未知,未知
3,300688,-3757501.4,-3959515.38,2016-03-31,一季度报告,-4030282.81,2016,3,未知,未知,未知,未知,未知,未知,未知,未知,未知,未知
4,300688,10827707.270000003,10937366.53,2016-06-30,半年度报告,6605817.1800000025,2016,6,未知,未知,未知,未知,未知,未知,未知,未知,未知,未知
5,300688,17605909.21,17100914.569999997,2016-09-30,三季度报告,,2016,9,未知,未知,未知,未知,未知,未知,未知,未知,未知,未知
6,300688,42611415.57000001,40537983.98,2016-12-31,年度报告,31796164.910000004,2016,12,-1.1674955562914946,False,1.0369175819325567,True,0.0,True,前期平均,40537983.98,未知,40537983.98
7,300688,574081.8200000001,775856.52,2017-03-31,一季度报告,347250.59999999986,2017,3,-0.6524657795204015,False,未知,未知,未知,未知,未知,未知,未知,未知
8,300688,15611758.06,15268055.63,2017-06-30,半年度报告,10529169.35,2017,6,-1.1206035855455851,False,未知,未知,未知,未知,未知,未知,50193750.0,未知
9,300688,22156806.430000003,21614526.25,2017-09-30,三季度报告,13243339.340000002,2017,9,-1.0741717058985107,False,未知,未知,未知,未知,未知,未知,51770000.0,未知
10,300688,48170943.5,47172804.88999999,2017-12-31,年度报告,33554483.37,2017,12,-1.0306457859362779,False,4.085703917783831,False,0.0,True,去年同期,47172804.88999999,未知,47172804.88999999
11,300688,4012707.44,4498982.6,2018-03-31,一季度报告,124710.59,2018,3,-3.274693736164646,False,未知,未知,未知,未知,未知,未知,53450000.0,未知
12,300688,15056919.48,16463457.23,2018-06-30,半年度报告,10269090.58,2018,6,-1.0836459490969077,False,未知,未知,未知,未知,未知,未知,52690000.0,未知
13,300688,21081915.030000005,22891489.73,2018-09-30,三季度报告,14063963.14,2018,9,-1.0589372084883084,False,未知,未知,未知,未知,未知,未知,,未知
14,300688,4328620.37,13444772.630000005,2018-12-31,年度报告,2710873.22,2018,12,-1.027108879858249,False,0.9112494586854978,True,0.0,True,前期平均,13444772.630000005,,13444772.630000005
15,300688,9033789.07,10101853.21,2019-03-31,一季度报告,9611618.499999998,2019,3,-1.3254312305409437,False,-3.5210044351112524,True,0.10328672744380983,False,前期平均,44618693.455,43395000.0,44618693.455
16,300688,15415151.449999996,17339372.950000007,2019-06-30,半年度报告,16751544.84,2019,6,-1.0867282528630484,False,0.1389730686358019,True,2.3515583463248193,False,前期平均,41447203.825,43130000.0,41447203.825
17,300688,17269692.280000005,19323195.85,2019-09-30,三季度报告,17864077.819999997,2019,9,-1.0619422058262606,False,0.06038607729258225,True,,False,前期平均,,43130000.0,
18,300688,12926048.339999998,16341562.92,2019-12-31,年度报告,16111366.9,2019,12,-1.3016804913293887,False,0.9046374116217379,True,0.0,True,前期平均,16341562.92,,16341562.92
19,300688,-3679520.69,-3492883.4400000004,2020-03-31,一季度报告,-3141728.86,2020,3,-1.1445528902525062,False,2.939046927130897,False,0.3789315961515022,False,前期平均盈利变化,1650466.9000000013,27030000.0,27030000.0
