,SECURITYCODE_x,NETPROFIT_x,PARENTNETPROFIT_x,REPORTDATE_x,REPORTTIMETYPE_x,KCFJCXSYJLR,Year,Month,managesituationChangeRate,managesituationGreatChange,historyprofitextroplaterate,ifhistoryprofitextroplate,IfprofitdisStableChangeRage,IfprofitdisStable,predicttype,predict,analyst_prediction,adj_prediction
0,300667,16211542.53,16211542.53,2012-12-31,年度报告,13811542.53,2012,12,未知,未知,未知,未知,未知,未知,未知,未知,未知,未知
1,300667,20134292.07,20134292.07,2013-12-31,年度报告,14394592.070000002,2013,12,0.0,True,未知,未知,未知,未知,未知,未知,未知,未知
2,300667,19152573.19,19152573.19,2014-12-31,年度报告,17459587.68,2014,12,-0.19482927566372593,True,未知,未知,未知,未知,未知,未知,未知,未知
3,300667,5185106.8900000015,5185106.8900000015,2015-06-30,半年度报告,3749506.89,2015,6,未知,未知,未知,未知,未知,未知,未知,未知,未知,未知
4,300667,24254626.36,24254626.36,2015-12-31,年度报告,21977786.31,2015,12,-0.15355799091975703,True,0.053907464268271366,True,0.0,True,比例外推,24254626.36,未知,24254626.36
5,300667,-1305758.2200000002,-1305758.2200000002,2016-03-31,一季度报告,-1323767.11,2016,3,未知,未知,未知,未知,未知,未知,未知,未知,未知,未知
6,300667,3828961.41,3828961.41,2016-06-30,半年度报告,3790204.2599999993,2016,6,2.1265589840135375,False,未知,未知,未知,未知,未知,未知,未知,未知
7,300667,1967149.5,1967149.5,2016-09-30,三季度报告,,2016,9,未知,未知,未知,未知,未知,未知,未知,未知,未知,未知
8,300667,32260408.480000004,32260408.480000004,2016-12-31,年度报告,31819021.939999994,2016,12,-0.3316102961398083,True,0.2347448033577213,True,0.0,True,比例外推,32260408.480000004,未知,32260408.480000004
9,300667,2812272.990000001,2812272.990000001,2017-03-31,一季度报告,1397575.49,2017,3,-13.415424449711676,False,未知,未知,未知,未知,未知,未知,未知,未知
10,300667,6434682.67,6434682.67,2017-06-30,半年度报告,4997034.319999998,2017,6,3.233926852242681,False,未知,未知,未知,未知,未知,未知,未知,未知
11,300667,9437076.39,9437076.39,2017-09-30,三季度报告,6821507.97,2017,9,7.241133950419122,False,未知,未知,未知,未知,未知,未知,未知,未知
12,300667,42869915.99,42869915.99,2017-12-31,年度报告,39560447.42000001,2017,12,-0.49747869621519447,True,0.4864081910117146,True,0.0,True,比例外推,42869915.99,未知,42869915.99
13,300667,3219258.5500000007,3219258.5500000007,2018-03-31,一季度报告,1282298.28,2018,3,4.764569295955864,False,未知,未知,未知,未知,未知,未知,未知,未知
14,300667,8286256.96,8286256.96,2018-06-30,半年度报告,5532165.15,2018,6,1.5194004679643354,False,0.4276977843622506,True,0.031925775862503,True,前期平均,31414805.509999998,未知,31414805.509999998
15,300667,11389045.6,11388977.55,2018-09-30,三季度报告,7342438.65,2018,9,0.7178564483359023,False,未知,未知,未知,未知,未知,未知,未知,未知
16,300667,47329754.85,47334427.49999999,2018-12-31,年度报告,42440203.67,2018,12,-0.621843380010785,True,0.5171154405679563,True,0.0,True,比例外推,47334427.49999999,未知,47334427.49999999
17,300667,4700309.3,4704128.62,2019-03-31,一季度报告,2248928.02,2019,3,4.035800100616335,False,3.273782924809955,False,0.04958261728751062,True,去年同期,45862034.01,未知,45862034.01
18,300667,9199450.910000002,9201748.6,2019-06-30,半年度报告,6867082.23,2019,6,0.956437340557684,False,0.6146812760483019,True,0.00614359037182681,True,前期平均,40497863.99,未知,40497863.99
19,300667,11661294.38,11666404.839999998,2019-09-30,三季度报告,13296684.12,2019,9,0.4234329283921736,True,0.9973377780927135,True,,False,平均增速,63768692.18732619,未知,63768692.18732619
20,300667,33292392.97000001,33325914.04000001,2019-12-31,年度报告,24626643.19,2019,12,-0.6574767272431794,True,0.25993745358837267,True,0.0,True,比例外推,33325914.04000001,未知,33325914.04000001
21,300667,-5967491.41,-5937181.320000001,2020-03-31,一季度报告,-10751722.28,2020,3,2.4490373920711987,False,0.558579033808716,True,0.039033344828600665,True,盈利变化,15991713.640000012,116160000.0,116160000.0
