,SECURITYCODE_x,NETPROFIT_x,PARENTNETPROFIT_x,REPORTDATE_x,REPORTTIMETYPE_x,KCFJCXSYJLR,Year,Month,managesituationChangeRate,managesituationGreatChange,historyprofitextroplaterate,ifhistoryprofitextroplate,IfprofitdisStableChangeRage,IfprofitdisStable,predicttype,predict,analyst_prediction,adj_prediction
0,300615,83812522.94999999,84306208.82,2014-12-31,年度报告,84189743.06,2014,12,未知,未知,未知,未知,未知,未知,未知,未知,未知,未知
1,300615,41392796.35,41648905.04,2015-09-30,三季度报告,39228705.03999999,2015,9,未知,未知,未知,未知,未知,未知,未知,未知,未知,未知
2,300615,52272676.29,52660437.97,2015-12-31,年度报告,50027066.29,2015,12,0.0,True,未知,未知,未知,未知,未知,未知,未知,未知
3,300615,14955910.12,15070201.59,2016-03-31,一季度报告,14587479.270000005,2016,3,未知,未知,未知,未知,未知,未知,未知,未知,未知,未知
4,300615,31360349.95,31545363.189999994,2016-06-30,半年度报告,30922275.590000004,2016,6,未知,未知,未知,未知,未知,未知,未知,未知,未知,未知
5,300615,57083498.94,57412461.51,2016-12-31,年度报告,55279124.42,2016,12,0.6033715680640156,False,未知,未知,未知,未知,未知,未知,未知,未知
6,300615,12105717.089999994,12113888.310000002,2017-03-31,一季度报告,11012722.529999996,2017,3,4.60397343107328,False,未知,未知,未知,未知,未知,未知,未知,未知
7,300615,20159011.6,20213346.92,2017-06-30,半年度报告,17747854.06,2017,6,1.6725633828585509,False,未知,未知,未知,未知,未知,未知,未知,未知
8,300615,20671910.58,21070324.51,2017-09-30,三季度报告,17835608.889999993,2017,9,未知,未知,未知,未知,未知,未知,未知,未知,未知,未知
9,300615,31016114.899999995,31473043.09,2017-12-31,年度报告,27820209.11,2017,12,0.4682443176458866,True,0.16106234537192413,True,0.0,True,比例外推,31473043.09,未知,31473043.09
10,300615,2780418.99,2780418.99,2018-03-31,一季度报告,1497320.7100000004,2018,3,5.9233835820625504,False,未知,未知,未知,未知,未知,未知,未知,未知
11,300615,9071729.6,9071729.6,2018-06-30,半年度报告,7224117.31,2018,6,3.1575710462907804,False,未知,未知,未知,未知,未知,未知,未知,未知
12,300615,18706021.26,18706021.26,2018-09-30,三季度报告,15938300.48,2018,9,3.0544159005354983,False,未知,未知,未知,未知,未知,未知,未知,未知
13,300615,15571874.500000002,15571874.500000002,2018-12-31,年度报告,11531039.160000002,2018,12,1.7022250601089954,False,0.4327505541453638,True,0.0,True,前期平均,15571874.500000002,未知,15571874.500000002
14,300615,2972033.47,2972033.47,2019-03-31,一季度报告,783148.2899999998,2019,3,29.14384639561104,False,0.7945120617896502,True,0.13334611778095073,False,前期平均,31721599.334999997,未知,31721599.334999997
15,300615,7955960.8900000015,7955960.8900000015,2019-06-30,半年度报告,4308212.92,2019,6,8.238869173305165,False,0.6478322196910066,True,0.048557596408687176,True,前期平均,25170562.83,未知,25170562.83
16,300615,14370306.03,14370306.03,2019-09-30,三季度报告,9118338.85,2019,9,3.4805104081229925,False,未知,未知,未知,未知,未知,未知,未知,未知
17,300615,16946188.6,17167440.02,2019-12-31,年度报告,9937511.26,2019,12,4.382301466018107,False,0.6464939215674546,True,0.0,True,前期平均,17167440.02,未知,17167440.02
18,300615,2355881.28,2475854.52,2020-03-31,一季度报告,-349351.98000000004,2020,3,27.200396730390786,False,0.6006977963888126,True,0.19434935253241664,False,前期平均,15896457.035000004,未知,15896457.035000004
