,SECURITYCODE_x,NETPROFIT_x,PARENTNETPROFIT_x,REPORTDATE_x,REPORTTIMETYPE_x,KCFJCXSYJLR,Year,Month,managesituationChangeRate,managesituationGreatChange,historyprofitextroplaterate,ifhistoryprofitextroplate,IfprofitdisStableChangeRage,IfprofitdisStable,predicttype,predict,analyst_prediction,adj_prediction
0,300698,-2301438.5200000005,-2301438.5200000005,2013-05-31,其他报告,,2013,5,未知,未知,未知,未知,未知,未知,未知,未知,未知,未知
1,300698,-2301438.5200000005,-2301438.5200000005,2013-12-31,年度报告,-2988980.89,2013,12,未知,未知,未知,未知,未知,未知,未知,未知,未知,未知
2,300698,3891828.23,5037170.919999999,2014-05-31,其他报告,,2014,5,-0.0,False,未知,未知,未知,未知,未知,未知,未知,未知
3,300698,3891828.23,5037170.919999999,2014-12-31,年度报告,4326615.260000002,2014,12,-0.0,False,未知,未知,未知,未知,未知,未知,未知,未知
4,300698,10122301.84,11880372.79,2015-05-31,其他报告,,2015,5,-1.5913515150179174,False,未知,未知,未知,未知,未知,未知,未知,未知
5,300698,13181138.750000006,14939209.7,2015-06-30,半年度报告,14962679.849999998,2015,6,未知,未知,未知,未知,未知,未知,未知,未知,未知,未知
6,300698,32008643.049999993,33766714.0,2015-12-31,年度报告,33247234.480000004,2015,12,-1.5913515150179174,False,未知,未知,未知,未知,未知,未知,未知,未知
7,300698,27756562.70000001,27756562.70000001,2016-06-30,半年度报告,27116756.9,2016,6,-1.1746008871957287,False,未知,未知,未知,未知,未知,未知,未知,未知
8,300698,31721232.06,31721232.06,2016-09-30,三季度报告,,2016,9,未知,未知,未知,未知,未知,未知,未知,未知,未知,未知
9,300698,36915703.52,36915703.52,2016-12-31,年度报告,34989635.370000005,2016,12,-1.071900533752867,False,39.25257815582824,False,0.0,True,去年同期,36915703.52,未知,36915703.52
10,300698,4498262.61,4498262.61,2017-03-31,一季度报告,4396357.17,2017,3,未知,未知,未知,未知,未知,未知,未知,未知,未知,未知
11,300698,25432991.08,25432991.08,2017-06-30,半年度报告,25305643.139999993,2017,6,-1.0829151125402137,False,未知,未知,未知,未知,未知,未知,39800000.0,未知
12,300698,30148178.43,30148178.43,2017-09-30,三季度报告,29504272.32,2017,9,-1.0725519902772653,False,未知,未知,未知,未知,未知,未知,,未知
13,300698,27339076.36000001,27339076.36000001,2017-12-31,年度报告,26118952.36,2017,12,-1.0623430762670727,False,1.0565581566928115,True,0.0,True,前期平均,27339076.36000001,未知,27339076.36000001
14,300698,-1711208.46,-1711208.46,2018-03-31,一季度报告,-4732023.460000001,2018,3,-1.5116283150929688,False,未知,未知,未知,未知,未知,未知,未知,未知
15,300698,5118835.0200000005,5118783.0200000005,2018-06-30,半年度报告,-251720.44999999995,2018,6,-1.0904902814128616,False,0.24252169414362598,True,0.2812565468674098,False,前期平均,18197499.570000008,未知,18197499.570000008
16,300698,6205686.96,6205634.960000001,2018-09-30,三季度报告,-870672.97,2018,9,-1.076337564650668,False,未知,未知,未知,未知,未知,未知,未知,未知
17,300698,4286337.66,4286326.44,2018-12-31,年度报告,-4272881.449999998,2018,12,-1.084181282852966,False,0.20669320144415804,True,0.0,True,前期平均,4286326.44,未知,4286326.44
18,300698,-1195094.75,-1195094.75,2019-03-31,一季度报告,-2536860.45,2019,3,0.34492002219297146,False,未知,未知,未知,未知,未知,未知,未知,未知
19,300698,3514654.26,3514654.26,2019-06-30,半年度报告,933299.16,2019,6,-1.449602011201369,False,0.8075247992802395,True,0.5420109932811997,False,前期平均,7857748.105000006,未知,7857748.105000006
20,300698,5978877.830000001,4511173.07,2019-09-30,三季度报告,1111952.41,2019,9,-1.370859589733479,False,0.7993940168218338,True,,False,前期平均,,未知,
21,300698,10980462.71,3943469.76,2019-12-31,年度报告,166054.70000000007,2019,12,-1.5369242235573202,False,0.866583072325358,True,0.0,True,前期平均,3943469.76,未知,3943469.76
22,300698,-11223717.88,-10561620.4,2020-03-31,一季度报告,-11140190.0,2020,3,0.9257372856838343,False,1.857604255733603,True,10.610096979751075,False,前期平均,529248.2000000011,未知,529248.2000000011
