,SECURITYCODE_x,NETPROFIT_x,PARENTNETPROFIT_x,REPORTDATE_x,REPORTTIMETYPE_x,KCFJCXSYJLR,Year,Month,managesituationChangeRate,managesituationGreatChange,historyprofitextroplaterate,ifhistoryprofitextroplate,IfprofitdisStableChangeRage,IfprofitdisStable,predicttype,predict,analyst_prediction,adj_prediction
0,300632,25129252.35,25279522.1,2013-12-31,年度报告,17786848.48,2013,12,未知,未知,未知,未知,未知,未知,未知,未知,未知,未知
1,300632,20844645.81,21614177.379999995,2014-12-31,年度报告,16068717.44,2014,12,0.0,True,未知,未知,未知,未知,未知,未知,未知,未知
2,300632,14209658.09,14221740.350000005,2015-06-30,半年度报告,12375718.54,2015,6,未知,未知,未知,未知,未知,未知,未知,未知,未知,未知
3,300632,31102593.45,31114675.709999993,2015-12-31,年度报告,26657017.15,2015,12,0.20554950077129677,True,未知,未知,未知,未知,未知,未知,未知,未知
4,300632,6623798.94,6623798.94,2016-03-31,一季度报告,5693489.1000000015,2016,3,未知,未知,未知,未知,未知,未知,未知,未知,未知,未知
5,300632,15545387.459999995,15545387.459999995,2016-06-30,半年度报告,12244765.83,2016,6,0.7684628434293314,False,未知,未知,未知,未知,未知,未知,未知,未知
6,300632,30110497.68,30110497.68,2016-09-30,三季度报告,,2016,9,未知,未知,未知,未知,未知,未知,未知,未知,未知,未知
7,300632,43026891.5,43026891.5,2016-12-31,年度报告,37267250.87,2016,12,-0.1920528302439679,True,0.353054437183275,True,0.0,True,比例外推,43026891.5,未知,43026891.5
8,300632,11427184.1,11427184.1,2017-03-31,一季度报告,10521992.129999997,2017,3,2.793782477038773,False,未知,未知,未知,未知,未知,未知,未知,未知
9,300632,27217849.25,27217849.25,2017-06-30,半年度报告,24775696.79000001,2017,6,0.6165085891014523,False,未知,未知,未知,未知,未知,未知,未知,未知
10,300632,44310441.53,44310441.53,2017-09-30,三季度报告,38732411.9,2017,9,-0.16543218192333772,True,未知,未知,未知,未知,未知,未知,未知,未知
11,300632,52280093.94000001,52280093.94000001,2017-12-31,年度报告,41815380.0,2017,12,-0.4159640291467488,True,0.6565612383998711,True,0.0,True,比例外推,52280093.94000001,未知,52280093.94000001
12,300632,11900336.77,11900336.77,2018-03-31,一季度报告,10084743.03,2018,3,1.1990765292737344,False,未知,未知,未知,未知,未知,未知,未知,未知
13,300632,34140228.45,34140228.45,2018-06-30,半年度报告,35406789.83,2018,6,-0.07673629465781535,True,0.8294611046226412,True,0.13320889526115737,False,平均增速,57051172.68428357,未知,57051172.68428357
14,300632,71978239.72999999,71303994.33999999,2018-09-30,三季度报告,77553153.09,2018,9,-0.4328819239369019,True,未知,未知,未知,未知,未知,未知,未知,未知
15,300632,120178195.55,118551595.61,2018-12-31,年度报告,122545869.34000002,2018,12,-0.5193342158328954,True,0.4105074107897201,True,0.0,True,比例外推,118551595.61,未知,118551595.61
16,300632,26513784.2,25802972.910000004,2019-03-31,一季度报告,21300951.96,2019,3,1.1116421186793022,False,0.3185250624444662,True,0.08939707231164173,True,前期平均,57236547.730000004,176730000.0,176730000.0
17,300632,71839056.44,70741585.78,2019-06-30,半年度报告,62143735.68,2019,6,-0.26394012310717274,True,0.596709280053933,True,0.18917026964712919,False,平均增速,235498802.6200004,178190000.0,178190000.0
18,300632,140636980.34,138962781.75000003,2019-09-30,三季度报告,127885991.13,2019,9,-0.6508770922397771,True,0.934354510815639,True,,False,平均增速,221644812.84793454,189950000.0,189950000.0
19,300632,177055986.19,173269372.27,2019-12-31,年度报告,158829128.09999996,2019,12,-0.7909000693928292,True,1.5219178845113617,True,0.0,True,比例外推,173269372.27,189950000.0,173269372.27
20,300632,21648787.61,22500962.860000007,2020-03-31,一季度报告,22076665.73,2020,3,-0.052219322581647847,True,1.2731763351756462,True,0.09561781100973468,True,比例外推,141930587.6107805,未知,141930587.6107805
