,SECURITYCODE_x,NETPROFIT_x,PARENTNETPROFIT_x,REPORTDATE_x,REPORTTIMETYPE_x,KCFJCXSYJLR,Year,Month,managesituationChangeRate,managesituationGreatChange,historyprofitextroplaterate,ifhistoryprofitextroplate,IfprofitdisStableChangeRage,IfprofitdisStable,predicttype,predict,analyst_prediction,adj_prediction
0,300694,-5728970.339999999,-5728970.339999999,2014-12-31,年度报告,-7466570.339999997,2014,12,未知,未知,未知,未知,未知,未知,未知,未知,未知,未知
1,300694,14071468.81,14071468.81,2015-12-31,年度报告,9055568.29,2015,12,-0.0,False,未知,未知,未知,未知,未知,未知,未知,未知
2,300694,89547549.81,89547549.81,2016-12-31,年度报告,86982492.41,2016,12,-1.4071337837830162,False,未知,未知,未知,未知,未知,未知,未知,未知
3,300694,71654902.79,71654902.79,2017-09-30,三季度报告,68362694.36999999,2017,9,未知,未知,未知,未知,未知,未知,未知,未知,未知,未知
4,300694,97998737.63,97998737.63,2017-12-31,年度报告,92673023.48,2017,12,-1.0639768519870796,False,20.467801314442433,False,0.0,True,未知,未知,未知,未知
5,300694,27469059.98,27469059.98,2018-03-31,一季度报告,26629399.730000004,2018,3,未知,未知,未知,未知,未知,未知,未知,未知,未知,未知
6,300694,58803471.98,58803471.98,2018-06-30,半年度报告,57371842.11000001,2018,6,未知,未知,未知,未知,未知,未知,未知,未知,未知,未知
7,300694,80075873.10000001,80075873.10000001,2018-12-31,年度报告,75502035.64999999,2018,12,-1.0584596340580434,False,0.8915202814145315,True,0.0,True,前期平均,80075873.10000001,未知,80075873.10000001
8,300694,29718327.41,29718327.41,2019-03-31,一季度报告,26095105.020000003,2019,3,-1.2085608442433493,False,未知,未知,未知,未知,未知,未知,未知,未知
9,300694,61492127.72999999,61492127.72999999,2019-06-30,半年度报告,55460595.39000002,2019,6,-1.0974257156439422,False,未知,未知,未知,未知,未知,未知,未知,未知
10,300694,90515093.88,90515093.88,2019-09-30,三季度报告,80093953.26,2019,9,未知,未知,未知,未知,未知,未知,未知,未知,未知,未知
11,300694,106135593.22,106135593.22,2019-12-31,年度报告,93840432.52,2019,12,-1.0715442756752158,False,0.14606816063348665,True,0.0,True,前期平均,106135593.22,未知,106135593.22
12,300694,36221003.26000001,36221003.26000001,2020-03-31,一季度报告,29939008.639999993,2020,3,-1.1927756653650785,False,未知,未知,未知,未知,未知,未知,未知,未知
