,SECURITYCODE_x,NETPROFIT_x,PARENTNETPROFIT_x,REPORTDATE_x,REPORTTIMETYPE_x,KCFJCXSYJLR,Year,Month,managesituationChangeRate,managesituationGreatChange,historyprofitextroplaterate,ifhistoryprofitextroplate,IfprofitdisStableChangeRage,IfprofitdisStable,predicttype,predict,analyst_prediction,adj_prediction
0,300672,6059881.46,9743197.249999996,2013-12-31,年度报告,8036966.2200000025,2013,12,未知,未知,未知,未知,未知,未知,未知,未知,未知,未知
1,300672,34391514.03,39849169.78,2014-12-31,年度报告,25393201.52000001,2014,12,0.0,True,未知,未知,未知,未知,未知,未知,未知,未知
2,300672,37215175.16,41501041.10000001,2015-12-31,年度报告,30933383.78,2015,12,-0.8237971886112977,True,未知,未知,未知,未知,未知,未知,未知,未知
3,300672,-41205262.74999999,-41205262.74999999,2016-03-31,一季度报告,-41547046.74999999,2016,3,未知,未知,未知,未知,未知,未知,未知,未知,未知,未知
4,300672,-35855634.84,-35855634.84,2016-06-30,半年度报告,-36492241.72000001,2016,6,未知,未知,未知,未知,未知,未知,未知,未知,未知,未知
5,300672,-65782179.54,-65522600.69,2016-09-30,三季度报告,,2016,9,未知,未知,未知,未知,未知,未知,未知,未知,未知,未知
6,300672,49523447.77,51108935.73999999,2016-12-31,年度报告,41240998.70999999,2016,12,-0.8371663861866396,True,0.8399946261038123,True,0.0,True,比例外推,51108935.73999999,未知,51108935.73999999
7,300672,-27900311.86,-26922736.95000001,2017-03-31,一季度报告,-27281511.95,2017,3,-1.1470657157743764,False,未知,未知,未知,未知,未知,未知,未知,未知
8,300672,-27570691.83,-25547685.96,2017-06-30,半年度报告,-30563141.08,2017,6,-1.1690077860018724,False,未知,未知,未知,未知,未知,未知,86955000.0,未知
9,300672,508040.96,4539083.16,2017-09-30,三季度报告,-48748331.08,2017,9,-1.0921204116734258,False,未知,未知,未知,未知,未知,未知,,未知
10,300672,45869861.1,52644829.51999999,2017-12-31,年度报告,971040.47,2017,12,-0.8776361151561237,True,0.38320730451858515,True,0.0,True,比例外推,52644829.51999999,未知,52644829.51999999
11,300672,-37872374.43,-37904289.43000001,2018-03-31,一季度报告,-38624289.43,2018,3,-1.217197624542968,False,未知,未知,未知,未知,未知,未知,未知,未知
12,300672,-61087399.54,-57173021.17,2018-06-30,半年度报告,-57173021.17,2018,6,-1.2197943199019101,False,未知,未知,未知,未知,未知,未知,75000000.0,未知
13,300672,-52086336.17999999,-48307656.08,2018-09-30,三季度报告,-48452153.8,2018,9,10.927938763047766,False,未知,未知,未知,未知,未知,未知,,未知
14,300672,44871265.32,56171038.40999998,2018-12-31,年度报告,2139919.77,2018,12,-0.8678896923888876,True,0.05765712091182257,True,0.0,True,比例外推,56171038.40999998,未知,56171038.40999998
15,300672,-9380645.11,-3380624.47,2019-03-31,一季度报告,-51705990.29999999,2019,3,-1.1600079622998172,False,-0.09607291868229813,True,14.709900650626436,False,前期平均,52139674.47,未知,52139674.47
16,300672,-23213918.27,-22173783.84,2019-06-30,半年度报告,-71772389.35000001,2019,6,-1.0992001870374593,False,-0.92624743532227,True,18.80743043965534,False,前期平均,32459927.150000002,未知,32459927.150000002
17,300672,3897765.17,745343.1900000002,2019-09-30,三季度报告,-51509954.03000001,2019,9,-1.1163430163154164,False,-0.5959256548797796,True,,False,盈利变化,54812016.08555553,未知,54812016.08555553
18,300672,67451486.38000001,68127799.38,2019-12-31,年度报告,8037832.02,2019,12,-0.864949619388179,True,0.059236630922413706,True,0.0,True,比例外推,68127799.38,未知,68127799.38
19,300672,-34269550.65999999,-34955955.89,2020-03-31,一季度报告,-42330349.95999999,2020,3,-1.6459983710011603,False,-0.7147556033019675,True,11.092962675713366,False,前期平均,-447575.0799999982,154000000.0,154000000.0
