,SECURITYCODE_x,NETPROFIT_x,PARENTNETPROFIT_x,REPORTDATE_x,REPORTTIMETYPE_x,KCFJCXSYJLR,Year,Month,managesituationChangeRate,managesituationGreatChange,historyprofitextroplaterate,ifhistoryprofitextroplate,IfprofitdisStableChangeRage,IfprofitdisStable,predicttype,predict,analyst_prediction,adj_prediction
0,300626,22352539.580000006,18020054.4,2012-12-31,年度报告,16690692.46,2012,12,未知,未知,未知,未知,未知,未知,未知,未知,未知,未知
1,300626,30486119.65,23264178.08999999,2013-12-31,年度报告,24696361.02,2013,12,0.0,True,未知,未知,未知,未知,未知,未知,未知,未知
2,300626,28441289.030000005,23110300.12,2014-12-31,年度报告,21027185.94,2014,12,-0.2667961735825567,True,未知,未知,未知,未知,未知,未知,未知,未知
3,300626,10927539.089999998,10927539.089999998,2015-06-30,半年度报告,9508287.11,2015,6,未知,未知,未知,未知,未知,未知,未知,未知,未知,未知
4,300626,22561195.84,22561195.84,2015-12-31,年度报告,15384262.03,2015,12,-0.21408134643888882,True,0.07653333542013885,True,0.0,True,比例外推,22561195.84,未知,22561195.84
5,300626,505179.69,505179.69,2016-03-31,一季度报告,148182.72999999998,2016,3,未知,未知,未知,未知,未知,未知,未知,未知,未知,未知
6,300626,505179.69,505179.69,2016-03-31,一季度报告,148182.72999999998,2016,3,未知,未知,未知,未知,未知,未知,未知,未知,未知,未知
7,300626,135682.09,135682.09,2016-03-31,一季度报告,148182.72999999998,2016,3,未知,未知,未知,未知,未知,未知,未知,未知,未知,未知
8,300626,135682.09,135682.09,2016-03-31,一季度报告,148182.72999999998,2016,3,未知,未知,未知,未知,未知,未知,未知,未知,未知,未知
9,300626,15538889.86,15538889.86,2016-06-30,半年度报告,11035146.17,2016,6,1.045523644061383,False,未知,未知,未知,未知,未知,未知,未知,未知
10,300626,23513019.89,23513019.89,2016-09-30,三季度报告,,2016,9,未知,未知,未知,未知,未知,未知,未知,未知,未知,未知
11,300626,39506874.34999999,39506874.34999999,2016-12-31,年度报告,32643066.44,2016,12,-0.009248457461197863,True,0.2342715776790205,True,0.0,True,比例外推,39506874.34999999,未知,39506874.34999999
12,300626,4497228.09,4497228.09,2017-03-31,一季度报告,4303321.48,2017,3,43.246710670415126,False,未知,未知,未知,未知,未知,未知,54000000.0,未知
13,300626,25977301.25,25977301.25,2017-06-30,半年度报告,21721397.46,2017,6,0.43849012261420367,True,未知,未知,未知,未知,未知,未知,50000000.0,未知
14,300626,42126190.7,42126190.7,2017-09-30,三季度报告,37928583.1,2017,9,-0.0493547964246627,True,未知,未知,未知,未知,未知,未知,,未知
15,300626,56919108.11,56919108.11,2017-12-31,年度报告,51422916.12000001,2017,12,-0.4342113885807822,True,0.5492137079477156,True,0.0,True,比例外推,56919108.11,未知,56919108.11
16,300626,10773130.73,10773130.73,2018-03-31,一季度报告,10500438.35,2018,3,3.970292618625,False,未知,未知,未知,未知,未知,未知,未知,未知
17,300626,22583739.08,22583739.08,2018-06-30,半年度报告,20273377.6,2018,6,-0.1395357291011896,True,0.9630378770839052,True,0.15854797754025796,False,平均增速,63897292.65494098,未知,63897292.65494098
18,300626,34435624.08,34435624.08,2018-09-30,三季度报告,32169557.55,2018,9,-0.4693909131451564,True,未知,未知,未知,未知,未知,未知,未知,未知
19,300626,44084128.49,44084128.49,2018-12-31,年度报告,39181111.78,2018,12,-0.6072928701412148,True,0.8340866063907509,True,0.0,True,比例外推,44084128.49,未知,44084128.49
20,300626,5590031.5200000005,5590031.5200000005,2019-03-31,一季度报告,5188038.08,2019,3,1.0748415795006327,False,3.3071781445214365,False,0.1492568440537259,False,去年同期,34270704.95,未知,34270704.95
21,300626,11284201.92,11284201.92,2019-06-30,半年度报告,9829118.64,2019,6,-0.01023743230388015,True,0.08794850761539423,True,0.091464284723277,True,比例外推,24530134.07797706,未知,24530134.07797706
22,300626,18510306.91,18510306.91,2019-09-30,三季度报告,16806684.87,2019,9,-0.3508890813748247,True,0.049239433883325634,True,,False,平均增速,24438802.22135306,未知,24438802.22135306
23,300626,24167890.300000004,24167890.300000004,2019-12-31,年度报告,20846268.56,2019,12,-0.49295720828255835,True,0.08563797090089795,True,0.0,True,比例外推,24167890.300000004,未知,24167890.300000004
24,300626,4270541.29,4270541.29,2020-03-31,一季度报告,-1428006.34,2020,3,2.9986428520174075,False,0.26785852436177393,True,0.11649965603270443,False,前期平均,42170675.325,未知,42170675.325
