,SECURITYCODE_x,NETPROFIT_x,PARENTNETPROFIT_x,REPORTDATE_x,REPORTTIMETYPE_x,KCFJCXSYJLR,Year,Month,managesituationChangeRate,managesituationGreatChange,historyprofitextroplaterate,ifhistoryprofitextroplate,IfprofitdisStableChangeRage,IfprofitdisStable,predicttype,predict,analyst_prediction,adj_prediction
0,300692,26131061.590000004,25658843.94,2013-12-31,年度报告,24506802.86000001,2013,12,未知,未知,未知,未知,未知,未知,未知,未知,未知,未知
1,300692,33144788.36,31847071.05999999,2014-12-31,年度报告,32370968.66,2014,12,0.0,True,未知,未知,未知,未知,未知,未知,未知,未知
2,300692,34659758.59,32818200.96,2015-12-31,年度报告,32116415.31,2015,12,-0.21160873600461258,True,未知,未知,未知,未知,未知,未知,未知,未知
3,300692,12658135.660000006,11714701.9,2016-06-30,半年度报告,11111888.32,2016,6,未知,未知,未知,未知,未知,未知,未知,未知,未知,未知
4,300692,27193241.19,26018119.059999995,2016-09-30,三季度报告,,2016,9,未知,未知,未知,未知,未知,未知,未知,未知,未知,未知
5,300692,50231549.73,46187847.24,2016-12-31,年度报告,40770302.69000001,2016,12,-0.24606914032173008,True,0.16943944689906557,True,0.0,True,比例外推,46187847.24,未知,46187847.24
6,300692,7724458.63,7198721.310000001,2017-03-31,一季度报告,6999168.64,2017,3,未知,未知,未知,未知,未知,未知,未知,未知,未知,未知
7,300692,20176351.090000004,18774630.6,2017-06-30,半年度报告,18343885.19,2017,6,1.0643689001196872,False,未知,未知,未知,未知,未知,未知,52715000.0,未知
8,300692,37094967.31,34435858.660000004,2017-09-30,三季度报告,33975988.33,2017,9,-0.039060426544173854,True,未知,未知,未知,未知,未知,未知,,未知
9,300692,53888616.92999999,50688840.99000001,2017-12-31,年度报告,47956350.31,2017,12,-0.4797878677751875,True,0.4816572631048306,True,0.0,True,比例外推,50688840.99000001,54000000.0,50688840.99000001
10,300692,8739161.6,8089472.57,2018-03-31,一季度报告,7202573.73,2018,3,2.3828987689199397,False,未知,未知,未知,未知,未知,未知,62000000.0,未知
11,300692,24850440.32,23009331.55,2018-06-30,半年度报告,21164304.8,2018,6,0.2951331721696363,True,未知,未知,未知,未知,未知,未知,57000000.0,未知
12,300692,44072106.97,41445575.34000001,2018-09-30,三季度报告,39289454.33000001,2018,9,-0.2955631589691243,True,未知,未知,未知,未知,未知,未知,64080000.0,未知
13,300692,64048126.82999999,60444722.16,2018-12-31,年度报告,56236143.68000002,2018,12,-0.5150912552841425,True,0.2695909156415743,True,0.0,True,比例外推,60444722.16,62500000.0,60444722.16
14,300692,10883329.409999998,10128249.9,2019-03-31,一季度报告,9489160.21,2019,3,1.9901108122316908,False,未知,未知,未知,未知,未知,未知,,未知
15,300692,32166118.57,30724627.93,2019-06-30,半年度报告,29645536.259999994,2019,6,0.05153314200913134,True,0.513679230573019,True,0.07125398784617476,True,比例外推,87307463.92906266,82000000.0,87307463.92906266
16,300692,63040744.76999999,60605553.98999999,2019-09-30,三季度报告,58742849.7,2019,9,-0.40708390438906206,True,0.3710790205018701,True,,False,平均增速,83225867.87995598,83625000.0,83225867.87995598
17,300692,101245636.65,97112077.23000002,2019-12-31,年度报告,92825026.51,2019,12,-0.5920089644563925,True,0.2302732291842452,True,0.0,True,比例外推,97112077.23000002,86083333.0,86083333.0
18,300692,14460226.319999995,13680866.239999998,2020-03-31,一季度报告,13076614.089999998,2020,3,1.4010172444095863,False,0.3221064696534242,True,0.023191137893840946,True,前期平均,58676242.05000001,129097500.0,129097500.0
