,SECURITYCODE_x,NETPROFIT_x,PARENTNETPROFIT_x,REPORTDATE_x,REPORTTIMETYPE_x,KCFJCXSYJLR,Year,Month,managesituationChangeRate,managesituationGreatChange,historyprofitextroplaterate,ifhistoryprofitextroplate,IfprofitdisStableChangeRage,IfprofitdisStable,predicttype,predict,analyst_prediction,adj_prediction
0,300660,103864606.76,88979622.04,2012-12-31,年度报告,88268022.04,2012,12,未知,未知,未知,未知,未知,未知,未知,未知,未知,未知
1,300660,144050960.56000003,138099030.77,2013-12-31,年度报告,133795030.77000004,2013,12,0.0,True,未知,未知,未知,未知,未知,未知,未知,未知
2,300660,149842436.46000004,149842436.46000004,2014-12-31,年度报告,153748036.46000004,2014,12,-0.27897317479713457,True,未知,未知,未知,未知,未知,未知,未知,未知
3,300660,77482980.1,77505735.02,2015-06-30,半年度报告,67252735.02000003,2015,6,未知,未知,未知,未知,未知,未知,未知,未知,未知,未知
4,300660,132249712.45,132483609.8,2015-12-31,年度报告,131477089.47,2015,12,-0.30684117788136517,True,0.208818293097255,True,0.0,True,比例外推,132483609.8,未知,132483609.8
5,300660,49825092.77,49971200.18,2016-03-31,一季度报告,48035299.3,2016,3,未知,未知,未知,未知,未知,未知,未知,未知,未知,未知
6,300660,124904854.24,125029775.29999998,2016-06-30,半年度报告,123027801.9,2016,6,0.3404828599255182,True,未知,未知,未知,未知,未知,未知,未知,未知
7,300660,190265983.82999995,190434869.9,2016-09-30,三季度报告,,2016,9,未知,未知,未知,未知,未知,未知,未知,未知,未知,未知
8,300660,230755306.08,230871188.3,2016-12-31,年度报告,220654068.33000004,2016,12,-0.2146326458042896,True,0.10001576223912159,True,0.0,True,比例外推,230871188.3,未知,230871188.3
9,300660,60612537.53999999,60675100.68000001,2017-03-31,一季度报告,60176700.67999999,2017,3,1.0845843125562131,False,未知,未知,未知,未知,未知,未知,未知,未知
10,300660,127560395.52,127692189.72,2017-06-30,半年度报告,129600789.69,2017,6,-0.16845019841720438,True,未知,未知,未知,未知,未知,未知,未知,未知
11,300660,185139380.23,185244296.77,2017-09-30,三季度报告,180104798.42000005,2017,9,-0.4541083767616517,True,未知,未知,未知,未知,未知,未知,245650000.0,未知
12,300660,217928363.72,218100373.53000003,2017-12-31,年度报告,198817138.46,2017,12,-0.5498928777655434,True,0.6360278509815688,True,0.0,True,比例外推,218100373.53000003,,218100373.53000003
13,300660,48390858.91000001,48407669.2,2018-03-31,一季度报告,34731233.39,2018,3,0.7135828819484203,False,未知,未知,未知,未知,未知,未知,未知,未知
14,300660,115011336.28999998,115104376.2,2018-06-30,半年度报告,105254537.24,2018,6,-0.18576133025775046,True,0.26055398473908103,True,0.07821403074045408,True,比例外推,193333523.12063333,未知,193333523.12063333
15,300660,169707841.76999998,169603171.45999998,2018-09-30,三季度报告,174048546.68999997,2018,9,-0.43899236007505127,True,未知,未知,未知,未知,未知,未知,未知,未知
16,300660,200879681.48999995,200419196.53000003,2018-12-31,年度报告,192756079.88000005,2018,12,-0.5234002358066252,True,0.200690638396723,True,0.0,True,比例外推,200419196.53000003,未知,200419196.53000003
17,300660,44406323.68,44194296.79,2019-03-31,一季度报告,24424384.74,2019,3,1.146368324504699,False,0.12365271195757858,True,0.06915662159478056,True,前期平均,199823900.19500002,未知,199823900.19500002
18,300660,119258722.23,118602129.24,2019-06-30,半年度报告,105863537.42000005,2019,6,-0.09691852898651312,True,0.08889372775593683,True,0.06670281321223859,True,比例外推,193653526.25726873,未知,193653526.25726873
19,300660,196182443.82999995,195279924.23999995,2019-09-30,三季度报告,169336814.54,2019,9,-0.387979920805518,True,0.09586884995667738,True,,False,平均增速,213128814.9763685,未知,213128814.9763685
20,300660,231614251.63000005,230251181.87,2019-12-31,年度报告,220135357.55000004,2019,12,-0.4829511576800737,True,0.10458215883122411,True,0.0,True,比例外推,230251181.87,未知,230251181.87
21,300660,49722862.51000001,48987896.34000001,2020-03-31,一季度报告,54192933.02,2020,3,1.3389598181661502,False,0.18523045838540936,True,0.10473775078472808,False,前期平均,197320538.47500002,未知,197320538.47500002
