,SECURITYCODE_x,NETPROFIT_x,PARENTNETPROFIT_x,REPORTDATE_x,REPORTTIMETYPE_x,KCFJCXSYJLR,Year,Month,managesituationChangeRate,managesituationGreatChange,historyprofitextroplaterate,ifhistoryprofitextroplate,IfprofitdisStableChangeRage,IfprofitdisStable,predicttype,predict,analyst_prediction,adj_prediction
0,300677,10695235.96,10697159.4,2013-12-31,年度报告,12615895.090000002,2013,12,未知,未知,未知,未知,未知,未知,未知,未知,未知,未知
1,300677,31749423.55,31854285.25,2014-12-31,年度报告,29867248.91,2014,12,0.0,True,未知,未知,未知,未知,未知,未知,未知,未知
2,300677,64219972.84,64219972.84,2015-12-31,年度报告,82261913.26,2015,12,-0.6631360584182953,True,未知,未知,未知,未知,未知,未知,未知,未知
3,300677,49863153.33,49863153.33,2016-06-30,半年度报告,51362925.72000001,2016,6,未知,未知,未知,未知,未知,未知,未知,未知,未知,未知
4,300677,64107376.14,64107376.14,2016-09-30,三季度报告,,2016,9,未知,未知,未知,未知,未知,未知,未知,未知,未知,未知
5,300677,86045754.22,86045754.22,2016-12-31,年度报告,87472534.08999999,2016,12,-0.8334593509304885,True,2.0260566856412034,False,0.0,True,比例外推,86045754.22,未知,86045754.22
6,300677,20587888.78,20587888.78,2017-03-31,一季度报告,20296345.92,2017,3,未知,未知,未知,未知,未知,未知,未知,未知,未知,未知
7,300677,61003797.18999999,61003797.18999999,2017-06-30,半年度报告,62090614.56999999,2017,6,-0.78550823111371,True,未知,未知,未知,未知,未知,未知,109450000.0,未知
8,300677,111800426.40999998,111800426.40999998,2017-09-30,三季度报告,112523690.43,2017,9,-0.8331668428194072,True,未知,未知,未知,未知,未知,未知,146000000.0,未知
9,300677,145084146.13,145084146.13,2017-12-31,年度报告,145193055.4,2017,12,-0.8757029204177273,True,0.7931915268139783,True,0.0,True,比例外推,145084146.13,146000000.0,145084146.13
10,300677,22471875.91,22471875.91,2018-03-31,一季度报告,18998463.87,2018,3,-0.4805083671138814,True,未知,未知,未知,未知,未知,未知,198000000.0,未知
11,300677,69109883.0,69109883.0,2018-06-30,半年度报告,64533171.93,2018,6,-0.8246791764996358,True,未知,未知,未知,未知,未知,未知,188000000.0,未知
12,300677,128770218.24,128770218.24,2018-09-30,三季度报告,120479885.39,2018,9,-0.9043363580673842,True,未知,未知,未知,未知,未知,未知,174000000.0,未知
13,300677,179338691.06,179338691.06,2018-12-31,年度报告,167424586.93,2018,12,-0.9262825315840041,True,0.9310344277250788,True,0.0,True,比例外推,179338691.06,219000000.0,219000000.0
14,300677,33844168.489999995,33844168.489999995,2019-03-31,一季度报告,33256802.07,2019,3,-0.5240612753988815,True,未知,未知,未知,未知,未知,未知,182580000.0,未知
15,300677,70847823.27999999,70847823.27999999,2019-06-30,半年度报告,70478735.67999999,2019,6,-0.8452430318830086,True,0.24671748750828745,True,0.12043013042331807,False,平均增速,199391381.86363488,182580000.0,199391381.86363488
16,300677,125768460.12,125767527.37999997,2019-09-30,三季度报告,123811267.56999998,2019,9,-0.9169432489423418,True,0.4640648836869915,True,,False,平均增速,182902622.75787747,182840000.0,182902622.75787747
17,300677,178267164.78000003,178316192.33,2019-12-31,年度报告,169015160.2,2019,12,-0.9403629194749626,True,0.5518432776410792,True,0.0,True,比例外推,178316192.33,182840000.0,178316192.33
18,300677,129116054.19000004,129189765.70000002,2020-03-31,一季度报告,125061045.29,2020,3,-0.683985855254203,True,0.5719625378194326,True,0.04675762767264702,True,比例外推,837810485.4303368,422000000.0,422000000.0
