,SECURITYCODE_x,NETPROFIT_x,PARENTNETPROFIT_x,REPORTDATE_x,REPORTTIMETYPE_x,KCFJCXSYJLR,Year,Month,managesituationChangeRate,managesituationGreatChange,historyprofitextroplaterate,ifhistoryprofitextroplate,IfprofitdisStableChangeRage,IfprofitdisStable,predicttype,predict,analyst_prediction,adj_prediction
0,300611,16576600.0,16708700.000000002,2012-12-31,年度报告,12676200.0,2012,12,未知,未知,未知,未知,未知,未知,未知,未知,未知,未知
1,300611,26743241.96,27398747.74000001,2013-12-31,年度报告,22476947.74,2013,12,0.0,True,未知,未知,未知,未知,未知,未知,未知,未知
2,300611,26743241.96,27398747.74000001,2013-12-31,年度报告,22476952.76,2013,12,0.0,True,未知,未知,未知,未知,未知,未知,未知,未知
3,300611,37594513.43000001,37466452.74,2014-12-31,年度报告,33522452.74,2014,12,-0.3801574235168009,True,未知,未知,未知,未知,未知,未知,未知,未知
4,300611,37594513.43000001,37466452.74,2014-12-31,年度报告,33522446.37,2014,12,-0.3801574235168009,True,未知,未知,未知,未知,未知,未知,未知,未知
5,300611,10986899.999999998,11179699.999999998,2015-03-31,一季度报告,10835800.000000002,2015,3,未知,未知,未知,未知,0.0,True,未知,未知,未知,未知
6,300611,30544773.340000004,31111527.18,2015-09-30,三季度报告,,2015,9,未知,未知,未知,未知,未知,未知,未知,未知,未知,未知
7,300611,46944761.91000001,47873214.50000001,2015-12-31,年度报告,46580110.84,2015,12,-0.5590686382770935,True,0.7356717720583303,True,未知,未知,未知,未知,未知,未知
8,300611,11699059.21,11573710.969999995,2016-03-31,一季度报告,11302601.76,2016,3,0.5087604328791563,False,未知,未知,未知,未知,未知,未知,未知,未知
9,300611,19796860.310000006,19977529.13,2016-06-30,半年度报告,19296035.340000004,2016,6,未知,未知,未知,未知,0.0,True,未知,未知,未知,未知
10,300611,31963915.65000001,32381193.2,2016-09-30,三季度报告,31414210.7,2016,9,-0.4573015875586131,True,未知,未知,未知,未知,未知,未知,未知,未知
11,300611,54689049.02,55351282.88999999,2016-12-31,年度报告,54228294.00000001,2016,12,-0.6468913820080764,True,0.45932234114889925,True,未知,未知,未知,未知,未知,未知
12,300611,11790729.310000002,11997318.209999995,2017-03-31,一季度报告,11302601.76,2017,3,0.4169173522799872,True,未知,未知,未知,未知,未知,未知,未知,未知
13,300611,21090491.46,21362238.88,2017-06-30,半年度报告,20564095.91,2017,6,-0.1626652034501326,True,未知,未知,0.0,True,未知,未知,56100000.0,未知
14,300611,32494672.489999995,32866869.51999999,2017-09-30,三季度报告,29589564.23,2017,9,-0.4813964540042204,True,未知,未知,0.03655070858329848,True,未知,未知,,未知
15,300611,47110585.75000001,47654211.24,2017-12-31,年度报告,41047710.10999999,2017,12,-0.6968936140407584,True,0.2938140006535805,True,未知,未知,True,True,未知,True
16,300611,8415169.58,8574641.51,2018-03-31,一季度报告,8120639.000000001,2018,3,0.40590115879778405,True,0.0394737291780577,True,,False,平均增速,33546308.77808506,未知,33546308.77808506
17,300611,20398980.11,20530017.4,2018-06-30,半年度报告,15168762.94,2018,6,-0.21402495378360428,True,未知,未知,0.0,True,未知,未知,未知,未知
18,300611,26034919.100000005,26554954.27,2018-09-30,三季度报告,20596848.98,2018,9,-0.48986714652682434,True,0.039684978681873,True,0.28197472195305,False,平均增速,36046042.05659105,未知,36046042.05659105
19,300611,18398852.47,19920959.879999995,2018-12-31,年度报告,12214212.499999998,2018,12,-0.6481342837050164,True,0.07293477792646609,True,0.542326311597256,False,平均增速,19920959.879999995,未知,19920959.879999995
20,300611,8562707.530000001,9347169.950000003,2019-03-31,一季度报告,9046115.36,2019,3,0.9698474097773321,False,0.28350401513108225,True,0.6908167488005261,False,前期平均,45682570.245,未知,45682570.245
21,300611,13597469.29,15121680.069999995,2019-06-30,半年度报告,12623595.339999998,2019,6,-0.1873809420563232,True,0.002186288574101308,True,0.0,True,比例外推,20542924.559647117,未知,20542924.559647117
22,300611,21949684.42,23514921.96,2019-09-30,三季度报告,21715654.85,2019,9,-0.3632935851911291,True,0.19219704150349065,True,0.2516274027030031,False,平均增速,16886053.350679316,未知,16886053.350679316
23,300611,22597420.9,18079518.63,2019-12-31,年度报告,14118315.260000002,2019,12,-0.09904163713314447,True,0.6385281241613634,True,未知,未知,True,True,未知,True
24,300611,-1164425.2,-1164425.2,2020-03-31,一季度报告,-1779068.3099999996,2020,3,0.9359063639535516,False,0.15245467904051252,True,未知,未知,盈利变化,3645940.4033333343,未知,3645940.4033333343
