,SECURITYCODE_x,NETPROFIT_x,PARENTNETPROFIT_x,REPORTDATE_x,REPORTTIMETYPE_x,KCFJCXSYJLR,Year,Month,managesituationChangeRate,managesituationGreatChange,historyprofitextroplaterate,ifhistoryprofitextroplate,IfprofitdisStableChangeRage,IfprofitdisStable,predicttype,predict,analyst_prediction,adj_prediction
0,300685,7972533.210000001,7972533.210000001,2012-12-31,年度报告,2903133.21,2012,12,未知,未知,未知,未知,未知,未知,未知,未知,未知,未知
1,300685,22049699.19,22049699.19,2013-12-31,年度报告,13762399.19,2013,12,0.0,True,未知,未知,未知,未知,未知,未知,未知,未知
2,300685,19138943.27,19138943.27,2014-12-31,年度报告,15564157.180000005,2014,12,-0.6384289354107964,True,未知,未知,未知,未知,未知,未知,未知,未知
3,300685,11956589.030000005,12282265.46,2015-06-30,半年度报告,11491865.46,2015,6,未知,未知,未知,未知,未知,未知,未知,未知,未知,未知
4,300685,18488513.39,21085157.4,2015-12-31,年度报告,28106625.980000004,2015,12,-0.5834392161819705,True,0.27498468568246764,True,0.0,True,比例外推,21085157.4,未知,21085157.4
5,300685,32172725.36000001,33470513.27,2016-06-30,半年度报告,26503151.33,2016,6,-0.3332100660149563,True,未知,未知,未知,未知,未知,未知,未知,未知
6,300685,50923570.82000001,52492596.95999999,2016-09-30,三季度报告,,2016,9,未知,未知,未知,未知,未知,未知,未知,未知,未知,未知
7,300685,65464922.45999999,67033948.6,2016-12-31,年度报告,48237200.14000001,2016,12,-0.5687845181586013,True,0.10225186916733356,True,0.0,True,比例外推,67033948.6,未知,67033948.6
8,300685,16485821.37,16485821.37,2017-03-31,一季度报告,16018220.350000005,2017,3,未知,未知,未知,未知,未知,未知,未知,未知,未知,未知
9,300685,44074777.73,44074777.73,2017-06-30,半年度报告,42549852.85,2017,6,-0.7521959013173263,True,未知,未知,未知,未知,未知,未知,82200000.0,未知
10,300685,67864520.16000001,67864520.16000001,2017-09-30,三季度报告,64704162.2,2017,9,-0.8434411986115313,True,未知,未知,未知,未知,未知,未知,88250000.0,未知
11,300685,94065765.39,94065765.39,2017-12-31,年度报告,80076400.94,2017,12,-0.8782167165191201,True,2.4796357910415305,False,0.0,True,比例外推,94065765.39,未知,94065765.39
12,300685,24977042.71,24977042.71,2018-03-31,一季度报告,21112025.62,2018,3,-0.5164006068567513,True,未知,未知,未知,未知,未知,未知,132028750.0,未知
13,300685,69575574.13999999,69575574.13999999,2018-06-30,半年度报告,59684385.07000001,2018,6,-0.8191134789416441,True,0.9975283250712648,True,0.08768867328965724,True,比例外推,130088008.04483788,131423750.0,130088008.04483788
14,300685,95872763.68,95872763.68,2018-09-30,三季度报告,82875584.27,2018,9,-0.8825228088078476,True,未知,未知,未知,未知,未知,未知,128182857.0,未知
15,300685,126737914.51,126737914.51,2018-12-31,年度报告,108113554.39,2018,12,-0.9152451141289757,True,1.2409032921074905,True,0.0,True,比例外推,126737914.51,128031111.0,126737914.51
16,300685,32586272.94000001,32586272.94000001,2019-03-31,一季度报告,26258255.129999995,2019,3,-0.6808055580251678,True,未知,未知,未知,未知,未知,未知,153280909.0,未知
17,300685,78162636.38,78162636.38,2019-06-30,半年度报告,64540593.18000001,2019,6,-0.8854118947842576,True,0.8249928540709144,True,0.012918405223302898,True,比例外推,132200911.37616745,144134167.0,132200911.37616745
18,300685,108856598.12,108856598.12,2019-09-30,三季度报告,92312404.70000002,2019,9,-0.9168425639985681,True,0.6141814030186209,True,,False,平均增速,141905212.6079212,146965714.0,141905212.6079212
19,300685,135474211.31000003,135474211.31000003,2019-12-31,年度报告,117091439.11,2019,12,-0.937094331709467,True,0.5888844487295929,True,0.0,True,比例外推,135474211.31000003,146965714.0,135474211.31000003
20,300685,25912928.63,25912928.63,2020-03-31,一季度报告,13771012.38,2020,3,-0.7553407465567002,True,0.5718293303196247,True,0.01773180750006223,True,比例外推,78822374.41255197,189826250.0,189826250.0
