,SECURITYCODE_x,NETPROFIT_x,PARENTNETPROFIT_x,REPORTDATE_x,REPORTTIMETYPE_x,KCFJCXSYJLR,Year,Month,managesituationChangeRate,managesituationGreatChange,historyprofitextroplaterate,ifhistoryprofitextroplate,IfprofitdisStableChangeRage,IfprofitdisStable,predicttype,predict,analyst_prediction,adj_prediction
0,300619,27011577.09,27011577.09,2014-12-31,年度报告,25740277.08999999,2014,12,未知,未知,未知,未知,未知,未知,未知,未知,未知,未知
1,300619,27011577.09,27011577.09,2014-12-31,年度报告,25740306.74,2014,12,未知,未知,未知,未知,未知,未知,未知,未知,未知,未知
2,300619,23940663.85,23940663.85,2015-12-31,年度报告,15273463.849999998,2015,12,0.0,True,未知,未知,未知,未知,未知,未知,未知,未知
3,300619,23940663.85,23940663.85,2015-12-31,年度报告,15273471.409999995,2015,12,0.0,True,未知,未知,未知,未知,未知,未知,未知,未知
4,300619,-7778378.65,-7778378.65,2016-03-31,一季度报告,-8187211.180000002,2016,3,未知,未知,未知,未知,未知,未知,未知,未知,未知,未知
5,300619,16738362.58,16738362.58,2016-06-30,半年度报告,13515794.990000002,2016,6,未知,未知,未知,未知,未知,未知,未知,未知,未知,未知
6,300619,20733131.7,20733131.7,2016-09-30,三季度报告,,2016,9,未知,未知,未知,未知,未知,未知,未知,未知,未知,未知
7,300619,43117707.05,43117707.05,2016-12-31,年度报告,35686879.919999994,2016,12,0.12827184990528148,True,未知,未知,未知,未知,未知,未知,未知,未知
8,300619,3639922.08,3639922.08,2017-03-31,一季度报告,-256767.96,2017,3,-4.472648774947463,False,未知,未知,未知,未知,未知,未知,67605000.0,未知
9,300619,21479748.31,21479748.31,2017-06-30,半年度报告,16840647.24,2017,6,0.6137526571610447,False,未知,未知,0.0,True,未知,未知,67000000.0,未知
10,300619,39477767.27,39536627.04000001,2017-09-30,三季度报告,25926426.73,2017,9,0.3028218544524077,True,未知,未知,未知,未知,未知,未知,65705000.0,未知
11,300619,47503961.45999999,47464629.65,2017-12-31,年度报告,34620039.97,2017,12,-0.3735386471577226,True,0.6924753947829011,True,未知,未知,未知,未知,65186000.0,未知
12,300619,3910373.1800000006,3942173.260000001,2018-03-31,一季度报告,2194346.09,2018,3,6.420921793468721,False,未知,未知,未知,未知,未知,未知,未知,未知
13,300619,27165467.05,27247999.370000005,2018-06-30,半年度报告,23187236.31000001,2018,6,0.2575369459717846,True,未知,未知,0.0,True,未知,未知,未知,未知
14,300619,39502835.49,39673905.31999999,2018-09-30,三季度报告,34601713.19,2018,9,-0.31577748799064753,True,未知,未知,0.16929480383301243,False,未知,未知,未知,未知
15,300619,46248599.15000001,46364835.11000001,2018-12-31,年度报告,38861895.53999999,2018,12,-0.431382641366769,True,0.416794378462898,True,0.10937989491983646,False,平均增速,46364835.11000001,,46364835.11000001
16,300619,4033110.55,4124219.21,2019-03-31,一季度报告,4037797.7800000007,2019,3,5.9076724513541174,False,-2.8897736940610206,True,,False,前期平均,43499668.725,未知,43499668.725
17,300619,28386338.17999999,28531269.430000003,2019-06-30,半年度报告,26033353.35,2019,6,-0.005664911253568927,True,0.4216017703328193,True,0.0,True,比例外推,55924053.72437273,未知,55924053.72437273
18,300619,37767255.7,37925396.27,2019-09-30,三季度报告,31694553.11000001,2019,9,-0.31621169075729055,True,0.31214900178395405,True,0.07433187465895688,True,比例外推,,未知,
19,300619,41323656.64,41510927.33999999,2019-12-31,年度报告,29684874.93,2019,12,-0.4159482106173157,True,0.02069626195188708,True,未知,未知,True,True,未知,True
20,300619,-17076516.32,-17063526.14,2020-03-31,一季度报告,-19278457.55,2020,3,5.697455166459545,False,0.06833187607023448,True,未知,未知,盈利变化,10422586.899999987,未知,10422586.899999987
