,SECURITYCODE_x,NETPROFIT_x,PARENTNETPROFIT_x,REPORTDATE_x,REPORTTIMETYPE_x,KCFJCXSYJLR,Year,Month,managesituationChangeRate,managesituationGreatChange,historyprofitextroplaterate,ifhistoryprofitextroplate,IfprofitdisStableChangeRage,IfprofitdisStable,predicttype,predict,analyst_prediction,adj_prediction
0,300605,10767009.89,10767009.89,2012-12-31,年度报告,10525409.89,2012,12,未知,未知,未知,未知,未知,未知,未知,未知,未知,未知
1,300605,26122980.67,26406268.430000003,2013-12-31,年度报告,26458281.33,2013,12,0.0,True,未知,未知,未知,未知,未知,未知,未知,未知
2,300605,30491710.38000001,30551389.509999994,2014-12-31,年度报告,29955407.60000001,2014,12,-0.5878337917860581,True,未知,未知,未知,未知,未知,未知,未知,未知
3,300605,25246967.83000001,25540332.58000001,2015-09-30,三季度报告,25056687.04,2015,9,未知,未知,未知,未知,未知,未知,未知,未知,未知,未知
4,300605,35157311.13,35216411.5,2015-12-31,年度报告,34372546.75,2015,12,-0.6468873095074965,True,0.6531156510005899,True,0.0,True,比例外推,35216411.5,未知,35216411.5
5,300605,2928702.83,2950569.8499999987,2016-03-31,一季度报告,2291111.54,2016,3,未知,未知,未知,未知,未知,未知,未知,未知,未知,未知
6,300605,11896509.85,11982099.13,2016-06-30,半年度报告,11307765.820000002,2016,6,未知,未知,未知,未知,未知,未知,未知,未知,未知,未知
7,300605,37663970.99,37628612.49,2016-12-31,年度报告,36125019.52,2016,12,-0.6937476290440077,True,0.2419854450481893,True,0.0,True,比例外推,37628612.49,未知,37628612.49
8,300605,3300437.019999998,3294620.93,2017-03-31,一季度报告,2124312.62,2017,3,2.6763750079758006,False,未知,未知,未知,未知,未知,未知,,未知
9,300605,13834479.420000002,13821664.22,2017-06-30,半年度报告,12529362.9,2017,6,-0.09494380908699866,True,未知,未知,未知,未知,未知,未知,未知,未知
10,300605,28916070.620000005,28300142.33000001,2017-09-30,三季度报告,27282752.71,2017,9,未知,未知,未知,未知,未知,未知,未知,未知,未知,未知
11,300605,43197688.37,43147744.17,2017-12-31,年度报告,40882568.58,2017,12,-0.7141297211369799,True,0.1474343447529625,True,0.0,True,比例外推,43147744.17,47300000.0,43147744.17
12,300605,3272514.4000000013,3575518.1399999987,2018-03-31,一季度报告,1287813.05,2018,3,2.2622982425521356,False,未知,未知,未知,未知,未知,未知,未知,未知
13,300605,14405248.230000004,14634721.96,2018-06-30,半年度报告,12208010.080000002,2018,6,-0.22172641534783538,True,未知,未知,未知,未知,未知,未知,未知,未知
14,300605,29721800.06000001,30053853.35000001,2018-09-30,三季度报告,28513244.919999994,2018,9,-0.6276461614894203,True,未知,未知,未知,未知,未知,未知,未知,未知
15,300605,53573785.56,53537241.7,2018-12-31,年度报告,50612989.87000001,2018,12,-0.7507503226150062,True,0.18640285126581055,True,0.0,True,比例外推,53537241.7,未知,53537241.7
16,300605,4100127.29,4128964.540000002,2019-03-31,一季度报告,3974264.5400000005,2019,3,2.2901336935293535,False,0.05071148787902152,True,0.021498143476483857,True,前期平均,40425046.51,73000000.0,73000000.0
17,300605,17332617.330000002,17281510.75,2019-06-30,半年度报告,17265122.499999996,2019,6,-0.25256339091908886,True,0.11968087031890495,True,0.04569445909364217,True,比例外推,60195089.41111332,,60195089.41111332
18,300605,35418771.43,35406858.59,2019-09-30,三季度报告,34816946.419999994,2019,9,-0.6377403162572787,True,未知,未知,未知,未知,未知,未知,未知,未知
19,300605,61240664.92000001,60737910.35000001,2019-12-31,年度报告,57649770.13999999,2019,12,-0.7990246577229179,True,0.3250726236395157,True,0.0,True,比例外推,60737910.35000001,未知,60737910.35000001
20,300605,3868098.76,4414447.83,2020-03-31,一季度报告,4414447.83,2020,3,1.626018444905402,False,0.2475757169067895,True,0.023336924417013967,True,前期平均,48456164.22,未知,48456164.22
