,SECURITYCODE_x,NETPROFIT_x,PARENTNETPROFIT_x,REPORTDATE_x,REPORTTIMETYPE_x,KCFJCXSYJLR,Year,Month,managesituationChangeRate,managesituationGreatChange,historyprofitextroplaterate,ifhistoryprofitextroplate,IfprofitdisStableChangeRage,IfprofitdisStable,predicttype,predict,analyst_prediction,adj_prediction
0,300656,21599307.17,21599307.17,2013-12-31,年度报告,21372407.17,2013,12,未知,未知,未知,未知,未知,未知,未知,未知,未知,未知
1,300656,27794295.92999999,27794295.92999999,2014-12-31,年度报告,27143395.93000001,2014,12,0.0,True,未知,未知,未知,未知,未知,未知,未知,未知
2,300656,45529187.71,45529187.71,2015-12-31,年度报告,43038004.64999999,2015,12,-0.2228870547972175,True,未知,未知,未知,未知,未知,未知,未知,未知
3,300656,7187191.53,7187191.53,2016-03-31,一季度报告,6773735.49,2016,3,未知,未知,未知,未知,未知,未知,未知,未知,未知,未知
4,300656,17324007.54,17324007.54,2016-06-30,半年度报告,15761001.62,2016,6,未知,未知,未知,未知,未知,未知,未知,未知,未知,未知
5,300656,29275760.1,29275760.1,2016-09-30,三季度报告,,2016,9,未知,未知,未知,未知,未知,未知,未知,未知,未知,未知
6,300656,46309437.51,46309437.51,2016-12-31,年度报告,40976502.75,2016,12,-0.5255942779480789,True,0.8435256734692435,True,0.0,True,比例外推,46309437.51,未知,46309437.51
7,300656,7569045.33,7569045.33,2017-03-31,一季度报告,7111327.16,2017,3,2.0052499755770388,False,未知,未知,未知,未知,未知,未知,未知,未知
8,300656,18387513.73,18387513.73,2017-06-30,半年度报告,17057947.67,2017,6,0.24678467843705423,True,未知,未知,未知,未知,未知,未知,未知,未知
9,300656,26213897.46,26213897.46,2017-09-30,三季度报告,23683124.89,2017,9,-0.26221190854750853,True,未知,未知,未知,未知,未知,未知,45000000.0,未知
10,300656,41220147.38,40459916.66,2017-12-31,年度报告,36006290.4,2017,12,-0.5335873564576146,True,0.26315431867279476,True,0.0,True,比例外推,40459916.66,45000000.0,45000000.0
11,300656,8055098.8,8272592.94,2018-03-31,一季度报告,6551231.8,2018,3,1.8536369156610668,False,未知,未知,未知,未知,未知,未知,48000000.0,未知
12,300656,23752121.86,23921497.71,2018-06-30,半年度报告,14086503.19,2018,6,0.17467252436417358,True,未知,未知,未知,未知,未知,未知,,未知
13,300656,41792752.52,40731604.15,2018-09-30,三季度报告,29588767.390000004,2018,9,-0.17603602428984244,True,未知,未知,未知,未知,未知,未知,未知,未知
14,300656,54864070.69,53439201.88999999,2018-12-31,年度报告,39322956.15,2018,12,-0.4760012143847895,True,0.10233526947388677,True,0.0,True,比例外推,53439201.88999999,59000000.0,53439201.88999999
15,300656,6351377.8599999985,6928889.809999999,2019-03-31,一季度报告,4989957.17,2019,3,1.6814453436623273,False,0.0917551509131848,True,0.021032072332190177,True,前期平均,38477755.059999995,未知,38477755.059999995
16,300656,16817047.430000003,17094176.84,2019-06-30,半年度报告,13247611.309999995,2019,6,-0.0906367314334753,True,0.3302217892326715,True,0.06821238129241969,True,比例外推,36513425.76754834,未知,36513425.76754834
17,300656,23104745.39,23171578.55,2019-09-30,三季度报告,18332291.6,2019,9,-0.4831805548183597,True,0.5063258400832705,True,,False,平均增速,30983162.536176257,未知,30983162.536176257
18,300656,37467652.11,36165935.83000001,2019-12-31,年度报告,29491979.42,2019,12,-0.6063123479837438,True,0.2536120389225805,True,0.0,True,比例外推,36165935.83000001,未知,36165935.83000001
19,300656,6891732.969999999,7879305.759999999,2020-03-31,一季度报告,6443765.539999999,2020,3,2.4007277863326504,False,0.1869791001473565,True,0.019735641243520424,True,前期平均,38712649.555,未知,38712649.555
