,SECURITYCODE_x,NETPROFIT_x,PARENTNETPROFIT_x,REPORTDATE_x,REPORTTIMETYPE_x,KCFJCXSYJLR,Year,Month,managesituationChangeRate,managesituationGreatChange,historyprofitextroplaterate,ifhistoryprofitextroplate,IfprofitdisStableChangeRage,IfprofitdisStable,predicttype,predict,analyst_prediction,adj_prediction
0,300666,7295300.0,7533100.0,2012-12-31,年度报告,-3187899.9999999995,2012,12,未知,未知,未知,未知,未知,未知,未知,未知,未知,未知
1,300666,18071800.0,18561000.0,2013-12-31,年度报告,8179799.999999999,2013,12,0.0,True,未知,未知,未知,未知,未知,未知,未知,未知
2,300666,17530005.959999993,19085265.09,2014-12-31,年度报告,9320744.93,2014,12,-0.5963158069478414,True,未知,未知,未知,未知,未知,未知,未知,未知
3,300666,13023300.000000002,13532500.0,2015-06-30,半年度报告,6989099.999999999,2015,6,未知,未知,未知,未知,未知,未知,未知,未知,未知,未知
4,300666,23230221.45000001,23844777.14,2015-12-31,年度报告,14702531.929999998,2015,12,-0.5838392744049015,True,0.3821056376172281,True,0.0,True,比例外推,23844777.14,未知,23844777.14
5,300666,5775412.6400000015,5896249.7799999975,2016-03-31,一季度报告,5427549.779999998,2016,3,未知,未知,未知,未知,未知,未知,未知,未知,未知,未知
6,300666,15322784.33,15334576.32,2016-06-30,半年度报告,14274683.14,2016,6,-0.43982707915812436,True,未知,未知,未知,未知,未知,未知,未知,未知
7,300666,35134520.05,35379646.08,2016-09-30,三季度报告,,2016,9,未知,未知,未知,未知,未知,未知,未知,未知,未知,未知
8,300666,54488703.60999999,54940766.32999999,2016-12-31,年度报告,44170490.44,2016,12,-0.6859565021494878,True,0.30500241904020614,True,0.0,True,比例外推,54940766.32999999,未知,54940766.32999999
9,300666,9415095.01,9589666.96,2017-03-31,一季度报告,8889793.059999999,2017,3,0.26316515455075745,True,未知,未知,未知,未知,未知,未知,未知,未知
10,300666,20253334.83,20584008.1,2017-06-30,半年度报告,18950403.88,2017,6,-0.5238920131691236,True,未知,未知,未知,未知,未知,未知,77852000.0,未知
11,300666,38532093.37000001,38620451.4,2017-09-30,三季度报告,35126263.98000001,2017,9,-0.7923609034756118,True,未知,未知,未知,未知,未知,未知,67000000.0,未知
12,300666,63593048.27,64034567.92000001,2017-12-31,年度报告,50674199.62,2017,12,-0.8661135333258114,True,1.673621177914816,True,0.0,True,比例外推,64034567.92000001,67000000.0,64034567.92000001
13,300666,13032434.79,13112777.739999998,2018-03-31,一季度报告,8738079.229999999,2018,3,-0.2251485521652744,True,未知,未知,未知,未知,未知,未知,83000000.0,未知
14,300666,24407592.74,24593736.38000001,2018-06-30,半年度报告,18546290.23,2018,6,-0.6397975908049509,True,0.4290040623751998,True,0.08453209378039539,True,比例外推,53500437.37606664,83571667.0,83571667.0
15,300666,44862679.50000001,45188986.48,2018-09-30,三季度报告,38023940.21,2018,9,-0.8106695130745242,True,未知,未知,未知,未知,未知,未知,74250000.0,未知
16,300666,58251762.1,58808599.13999999,2018-12-31,年度报告,44236334.26,2018,12,-0.885281485972712,True,0.6364881068775812,True,0.0,True,比例外推,58808599.13999999,,58808599.13999999
17,300666,10398002.23,10746424.93,2019-03-31,一季度报告,5740022.940000001,2019,3,-0.44021971967987106,True,0.7158656037410306,True,0.04240250591895581,True,比例外推,39735530.31090048,66500000.0,66500000.0
18,300666,13336196.709999995,13790252.26,2019-06-30,半年度报告,4444104.83,2019,6,-0.7011053044963254,True,0.37213351631915326,True,0.04895847423648636,True,比例外推,21288464.52657819,46840000.0,46840000.0
19,300666,32708890.15,32528855.11,2019-09-30,三季度报告,8213176.3,2019,9,-0.8373859947442507,True,0.2179921790138944,True,,False,平均增速,36337358.74095405,47015000.0,47015000.0
20,300666,63746060.33999999,64185986.24999999,2019-12-31,年度报告,33764334.84,2019,12,-0.8747625867956362,True,0.013365551026070975,True,0.0,True,比例外推,64185986.24999999,81000000.0,81000000.0
21,300666,16238976.990000002,16726746.25,2020-03-31,一季度报告,16150003.27,2020,3,-0.2983940723774975,True,0.07357269840889114,True,0.016543511512652986,True,比例外推,89809093.1429495,81910000.0,89809093.1429495
