,SECURITYCODE_x,NETPROFIT_x,PARENTNETPROFIT_x,REPORTDATE_x,REPORTTIMETYPE_x,KCFJCXSYJLR,Year,Month,managesituationChangeRate,managesituationGreatChange,historyprofitextroplaterate,ifhistoryprofitextroplate,IfprofitdisStableChangeRage,IfprofitdisStable,predicttype,predict,analyst_prediction,adj_prediction
0,300643,8323170.3,8323170.3,2012-12-31,年度报告,10647270.3,2012,12,未知,未知,未知,未知,未知,未知,未知,未知,未知,未知
1,300643,12992883.3,12993110.35,2013-12-31,年度报告,10404010.35,2013,12,0.0,True,未知,未知,未知,未知,未知,未知,未知,未知
2,300643,39007500.48,39036648.02,2014-12-31,年度报告,37450296.26,2014,12,-0.3594054446713918,True,未知,未知,未知,未知,未知,未知,未知,未知
3,300643,6067531.580000001,6243664.33,2015-06-30,半年度报告,8249464.330000001,2015,6,未知,未知,未知,未知,未知,未知,未知,未知,未知,未知
4,300643,34942178.09,34823953.2,2015-12-31,年度报告,36463683.88,2015,12,-0.786626412931342,True,2.659917657553647,False,0.0,True,比例外推,34823953.2,未知,34823953.2
5,300643,5077144.670000001,5412007.13,2016-03-31,一季度报告,4245808.49,2016,3,未知,未知,未知,未知,未知,未知,未知,未知,未知,未知
6,300643,14596159.98,15087559.18,2016-06-30,半年度报告,13272998.060000002,2016,6,0.37175557972126755,True,未知,未知,未知,未知,未知,未知,未知,未知
7,300643,29625825.20000001,30267366.08,2016-09-30,三季度报告,,2016,9,未知,未知,未知,未知,未知,未知,未知,未知,未知,未知
8,300643,38007758.35,39070328.13,2016-12-31,年度报告,45583908.36,2016,12,-0.7618016175590959,True,0.3439200078919111,True,0.0,True,比例外推,39070328.13,未知,39070328.13
9,300643,8348400.170000003,8504833.68,2017-03-31,一季度报告,7568311.63,2017,3,0.6393407793124789,False,未知,未知,未知,未知,未知,未知,51000000.0,未知
10,300643,18400314.379999995,18687695.78,2017-06-30,半年度报告,18967235.379999995,2017,6,-0.4297698633473049,True,未知,未知,未知,未知,未知,未知,55210000.0,未知
11,300643,29160715.22,29326709.289999995,2017-09-30,三季度报告,27489831.88,2017,9,-0.7190569294252098,True,未知,未知,未知,未知,未知,未知,,未知
12,300643,35254989.980000004,35337820.34,2017-12-31,年度报告,31515889.86,2017,12,-0.7810139123871798,True,0.027935728321584377,True,0.0,True,比例外推,35337820.34,未知,35337820.34
13,300643,584861.5299999999,454735.76,2018-03-31,一季度报告,-1322324.12,2018,3,-0.003022120344765756,True,未知,未知,未知,未知,未知,未知,未知,未知
14,300643,11392647.36,11631409.9,2018-06-30,半年度报告,8330251.6499999985,2018,6,-0.5476615166398041,True,0.7809319623816523,True,0.22874888231825724,False,平均增速,20477845.085385434,未知,20477845.085385434
15,300643,28494896.18,28536714.480000004,2018-09-30,三季度报告,23388597.55,2018,9,-0.7145759204735994,True,未知,未知,未知,未知,未知,未知,未知,未知
16,300643,31656284.930000003,32472194.45,2018-12-31,年度报告,25792095.96,2018,12,-0.7639151137265477,True,0.0334469993953567,True,0.0,True,比例外推,32472194.45,未知,32472194.45
17,300643,1272853.63,855434.38,2019-03-31,一季度报告,-340044.55,2019,3,13.231010030699062,False,0.9128733266366268,True,0.14613710754056597,False,前期平均,33498273.43,未知,33498273.43
18,300643,11859449.88,11994522.26,2019-06-30,半年度报告,7259891.779999997,2019,6,-0.26942614503956697,True,0.30946274831042275,True,0.19650251628784426,False,平均增速,26194425.8890707,未知,26194425.8890707
19,300643,19906895.07,19674535.790000007,2019-09-30,三季度报告,14952290.809999995,2019,9,-0.7079066283511547,True,0.030563936016019252,True,,False,平均增速,21349991.938789986,未知,21349991.938789986
20,300643,18905189.35,19835829.89,2019-12-31,年度报告,13324564.39,2019,12,-0.7370768452961356,True,0.13581497687175292,True,0.0,True,比例外推,19835829.89,未知,19835829.89
21,300643,5488064.870000001,5267170.209999999,2020-03-31,一季度报告,4000818.49,2020,3,5.538984612079867,False,0.7150304843302644,True,0.18569138395108437,False,前期平均,30798169.364999995,未知,30798169.364999995
