,SECURITYCODE_x,NETPROFIT_x,PARENTNETPROFIT_x,REPORTDATE_x,REPORTTIMETYPE_x,KCFJCXSYJLR,Year,Month,managesituationChangeRate,managesituationGreatChange,historyprofitextroplaterate,ifhistoryprofitextroplate,IfprofitdisStableChangeRage,IfprofitdisStable,predicttype,predict,analyst_prediction,adj_prediction
0,300618,9889052.17,9963769.33,2012-12-31,年度报告,9579423.009999998,2012,12,未知,未知,未知,未知,未知,未知,未知,未知,未知,未知
1,300618,15621973.44,15621973.44,2013-12-31,年度报告,12123719.35,2013,12,0.0,True,未知,未知,未知,未知,未知,未知,未知,未知
2,300618,30171897.48,30171897.48,2014-12-31,年度报告,26929954.29000001,2014,12,-0.36697804486857455,True,未知,未知,未知,未知,未知,未知,未知,未知
3,300618,28389871.250000004,28389871.250000004,2015-12-31,年度报告,25222612.58,2015,12,-0.6722429480427892,True,1.3654005872796426,True,0.0,True,比例外推,28389871.250000004,未知,28389871.250000004
4,300618,4684503.6000000015,4684503.6000000015,2016-03-31,一季度报告,4607661.16,2016,3,未知,未知,未知,未知,未知,未知,未知,未知,未知,未知
5,300618,17868404.06,17868404.06,2016-06-30,半年度报告,17391411.500000004,2016,6,未知,未知,未知,未知,未知,未知,未知,未知,未知,未知
6,300618,39235361.85,39235361.85,2016-09-30,三季度报告,,2016,9,未知,未知,未知,未知,未知,未知,未知,未知,未知,未知
7,300618,66574962.55000001,66574962.55000001,2016-12-31,年度报告,64987996.53,2016,12,-0.651669707026234,True,0.2398982955424727,True,0.0,True,比例外推,66574962.55000001,未知,66574962.55000001
8,300618,49722230.82000001,49722230.82000001,2017-03-31,一季度报告,49647786.51,2017,3,1.111013890564626,False,未知,未知,未知,未知,未知,未知,160000000.0,未知
9,300618,135943950.92,135943950.92,2017-06-30,半年度报告,136015339.38000005,2017,6,-0.4465620915671189,True,未知,未知,未知,未知,未知,未知,462377778.00000006,未知
10,300618,311787653.62999994,311787653.62999994,2017-09-30,三季度报告,310284806.32,2017,9,-0.7479556271761515,True,未知,未知,未知,未知,未知,未知,498618333.0,未知
11,300618,449404770.8400001,449404770.8400001,2017-12-31,年度报告,449297471.64,2017,12,-0.8514598913582115,True,1.2736663865787583,True,0.0,True,比例外推,449404770.8400001,496556667.0,449404770.8400001
12,300618,254834952.85,254834952.85,2018-03-31,一季度报告,254333420.57,2018,3,-0.801114068960432,True,未知,未知,未知,未知,未知,未知,1457855000.0,未知
13,300618,528459434.3,528779207.0999999,2018-06-30,半年度报告,528220529.62,2018,6,-0.9272564016046622,True,未知,未知,未知,未知,未知,未知,1176099091.0,未知
14,300618,699825575.1,701333668.4899997,2018-09-30,三季度报告,699168030.97,2018,9,-0.9682827332805954,True,未知,未知,未知,未知,未知,未知,903023333.0,未知
15,300618,704159685.5299997,707628530.9299997,2018-12-31,年度报告,701679412.0800003,2018,12,-0.9779952220989644,True,8.464656607233488,False,0.0,True,比例外推,707628530.9299997,1210225000.0,1210225000.0
16,300618,-55459959.79000001,-55320787.19000001,2019-03-31,一季度报告,-56967690.24,2019,3,-0.9611942865003261,True,8.367772411509492,False,0.18117552827387853,False,未知,未知,217098332.99999997,未知
17,300618,-76707533.6,-76527243.12999998,2019-06-30,半年度报告,-78307602.88999997,2019,6,-0.9812870174546149,True,5.871482259909678,False,0.31175028163238155,False,未知,未知,111755000.0,未知
18,300618,-40563404.61,-40298543.45,2019-09-30,三季度报告,-44016825.23,2019,9,-0.9858692615390815,True,2.98734865942073,False,,False,未知,未知,81964286.0,未知
19,300618,13589092.6,13865703.02,2019-12-31,年度报告,5504558.659999998,2019,12,-0.9859562363861306,True,1.7294083079723015,True,0.0,True,比例外推,13865703.02,61315000.0,61315000.0
20,300618,22697375.6,22753401.55,2020-03-31,一季度报告,22159397.98,2020,3,-1.1783097609057966,False,1.3642006346505562,True,7.057110904207368,False,前期平均,446251239.8700002,291214578.0,291214578.0
