,SECURITYCODE_x,NETPROFIT_x,PARENTNETPROFIT_x,REPORTDATE_x,REPORTTIMETYPE_x,KCFJCXSYJLR,Year,Month,managesituationChangeRate,managesituationGreatChange,historyprofitextroplaterate,ifhistoryprofitextroplate,IfprofitdisStableChangeRage,IfprofitdisStable,predicttype,predict,analyst_prediction,adj_prediction
0,300695,34107097.93000001,34909780.6,2012-12-31,年度报告,32006880.599999994,2012,12,未知,未知,未知,未知,未知,未知,未知,未知,未知,未知
1,300695,51381623.98,51752640.87,2013-12-31,年度报告,44141740.87,2013,12,0.0,True,未知,未知,未知,未知,未知,未知,未知,未知
2,300695,99779961.99,100111657.34,2014-12-31,年度报告,88038857.33999999,2014,12,-0.33620046841501156,True,未知,未知,未知,未知,未知,未知,未知,未知
3,300695,25659489.06,25806663.710000005,2015-03-31,一季度报告,21983663.71,2015,3,未知,未知,未知,未知,未知,未知,未知,未知,未知,未知
4,300695,112426413.53,112717334.4,2015-12-31,年度报告,104430219.26000004,2015,12,-0.6581768799088314,True,1.3343421157950026,True,0.0,True,比例外推,112717334.4,未知,112717334.4
5,300695,86897331.86,86897331.86,2016-06-30,半年度报告,77485831.85999998,2016,6,未知,未知,未知,未知,未知,未知,未知,未知,未知,未知
6,300695,120587275.0,120587275.0,2016-09-30,三季度报告,,2016,9,未知,未知,未知,未知,未知,未知,未知,未知,未知,未知
7,300695,198667767.67,198667767.67,2016-12-31,年度报告,181800375.86,2016,12,-0.696627359540391,True,0.4874997878404438,True,0.0,True,比例外推,198667767.67,未知,198667767.67
8,300695,30598980.45,30598980.45,2017-03-31,一季度报告,28678348.54,2017,3,未知,未知,未知,未知,未知,未知,未知,未知,未知,未知
9,300695,78341931.03000002,78341931.03000002,2017-06-30,半年度报告,73694871.0,2017,6,-0.6075012063091898,True,未知,未知,未知,未知,未知,未知,未知,未知
10,300695,122148331.21,122148331.21,2017-09-30,三季度报告,114622468.44999996,2017,9,-0.71715839892725,True,未知,未知,未知,未知,未知,未知,,未知
11,300695,204976747.27,204976747.27,2017-12-31,年度报告,191533741.06,2017,12,-0.8283209283014943,True,0.8724014976757943,True,0.0,True,比例外推,204976747.27,227000000.0,204976747.27
12,300695,28649197.19000001,28649197.19000001,2018-03-31,一季度报告,22871191.64,2018,3,0.1146481820115679,True,未知,未知,未知,未知,未知,未知,,未知
13,300695,91191569.96,91191569.96,2018-06-30,半年度报告,67920834.87,2018,6,-0.5646380235771934,True,未知,未知,未知,未知,未知,未知,未知,未知
14,300695,135118450.71,135118450.71,2018-09-30,三季度报告,100741849.06,2018,9,-0.72077311583273,True,未知,未知,未知,未知,未知,未知,未知,未知
15,300695,195940773.61,195940956.94,2018-12-31,年度报告,152691852.73999998,2018,12,-0.8336050386970315,True,0.3177793713744976,True,0.0,True,比例外推,195940956.94,276000000.0,276000000.0
16,300695,31059208.66,31096809.180000003,2019-03-31,一季度报告,25263345.18,2019,3,0.1905079819097017,True,未知,未知,未知,未知,未知,未知,未知,未知
17,300695,80200621.83,80255471.19000001,2019-06-30,半年度报告,75084380.81,2019,6,-0.6259840910189325,True,0.10375183676177901,True,0.03383769579794166,True,比例外推,184541533.46597224,未知,184541533.46597224
18,300695,138999081.21,139031335.66000003,2019-09-30,三季度报告,131280434.53,2019,9,-0.7475763098912163,True,0.11329732641781282,True,,False,平均增速,196916872.07049805,未知,196916872.07049805
19,300695,214190732.38000005,214204901.39000005,2019-12-31,年度报告,200878129.25,2019,12,-0.825931595034494,True,0.029141899083525224,True,0.0,True,比例外推,214204901.39000005,未知,214204901.39000005
20,300695,42002456.41,41971267.15,2020-03-31,一季度报告,43397279.23,2020,3,0.09813158163057999,True,0.048444353806794856,True,0.015995839733154715,True,比例外推,304705220.2971028,236500000.0,236500000.0
