,SECURITYCODE_x,NETPROFIT_x,PARENTNETPROFIT_x,REPORTDATE_x,REPORTTIMETYPE_x,KCFJCXSYJLR,Year,Month,managesituationChangeRate,managesituationGreatChange,historyprofitextroplaterate,ifhistoryprofitextroplate,IfprofitdisStableChangeRage,IfprofitdisStable,predicttype,predict,analyst_prediction,adj_prediction
0,300689,19869974.35,19869974.35,2013-12-31,年度报告,19051874.35,2013,12,未知,未知,未知,未知,未知,未知,未知,未知,未知,未知
1,300689,25943937.41,25943937.41,2014-12-31,年度报告,25250633.58,2014,12,0.0,True,未知,未知,未知,未知,未知,未知,未知,未知
2,300689,27531847.37,27531847.37,2015-12-31,年度报告,23612528.84,2015,12,-0.23411878328301897,True,未知,未知,未知,未知,未知,未知,未知,未知
3,300689,17111895.939999998,17111895.939999998,2016-06-30,半年度报告,18788744.44,2016,6,未知,未知,未知,未知,未知,未知,未知,未知,未知,未知
4,300689,28925172.57,28925172.57,2016-09-30,三季度报告,,2016,9,未知,未知,未知,未知,未知,未知,未知,未知,未知,未知
5,300689,42577691.43000001,42577691.43000001,2016-12-31,年度报告,43353394.43,2016,12,-0.2782912790788147,True,0.20189900020883952,True,0.0,True,比例外推,42577691.43000001,未知,42577691.43000001
6,300689,10824738.22,10824738.22,2017-03-31,一季度报告,10742333.670000002,2017,3,未知,未知,未知,未知,未知,未知,未知,未知,未知,未知
7,300689,26608961.739999995,26608961.739999995,2017-06-30,半年度报告,25037527.959999993,2017,6,0.16117900784756667,True,未知,未知,未知,未知,未知,未知,53040000.0,未知
8,300689,40917469.62,40917469.62,2017-09-30,三季度报告,37721668.04,2017,9,-0.31305597911597866,True,未知,未知,未知,未知,未知,未知,59000000.0,未知
9,300689,52904938.75000001,52904938.75000001,2017-12-31,年度报告,48875770.29,2017,12,-0.5333242906636378,True,0.5924101574260247,True,0.0,True,比例外推,52904938.75000001,,52904938.75000001
10,300689,9736826.579999998,9736826.579999998,2018-03-31,一季度报告,7788289.869999999,2018,3,0.8356078406854998,False,未知,未知,未知,未知,未知,未知,未知,未知
11,300689,25547167.7,25547167.7,2018-06-30,半年度报告,21775286.28,2018,6,-0.2532600653812656,True,未知,未知,未知,未知,未知,未知,未知,未知
12,300689,37420285.56,37420285.56,2018-09-30,三季度报告,32568452.77,2018,9,-0.5143889753073151,True,未知,未知,未知,未知,未知,未知,未知,未知
13,300689,54817900.03,54817900.03,2018-12-31,年度报告,45015243.49,2018,12,-0.6244211822284739,True,0.5092080095098271,True,0.0,True,比例外推,54817900.03,未知,54817900.03
14,300689,6117622.409999997,6117622.409999997,2019-03-31,一季度报告,3922428.35,2019,3,1.0407033222522493,False,未知,未知,未知,未知,未知,未知,66000000.0,未知
15,300689,20448442.17,21590292.2,2019-06-30,半年度报告,10443011.97,2019,6,-0.22222398258261708,True,0.16864897239591406,True,0.04307618432511101,True,比例外推,33065109.696967423,,33065109.696967423
16,300689,31375478.81,32953206.24000001,2019-09-30,三季度报告,20676802.73,2019,9,-0.46900527206986925,True,0.07155984901607296,True,,False,平均增速,43278249.1825249,未知,43278249.1825249
17,300689,46133720.13,47686109.64,2019-12-31,年度报告,23807526.24,2019,12,-0.63752762621104,True,0.1482276918149302,True,0.0,True,比例外推,47686109.64,未知,47686109.64
18,300689,1836626.85,1823209.28,2020-03-31,一季度报告,1827735.72,2020,3,2.247989663029891,False,0.4049458327218366,True,0.033935581550665284,True,前期平均,39503404.4,,39503404.4
