,SECURITYCODE_x,NETPROFIT_x,PARENTNETPROFIT_x,REPORTDATE_x,REPORTTIMETYPE_x,KCFJCXSYJLR,Year,Month,managesituationChangeRate,managesituationGreatChange,historyprofitextroplaterate,ifhistoryprofitextroplate,IfprofitdisStableChangeRage,IfprofitdisStable,predicttype,predict,analyst_prediction,adj_prediction
0,300675,17450919.870000005,17027892.26,2012-12-31,年度报告,11169173.09,2012,12,未知,未知,未知,未知,未知,未知,未知,未知,未知,未知
1,300675,26554863.91,26544563.35,2013-12-31,年度报告,12747914.84,2013,12,0.0,True,未知,未知,未知,未知,未知,未知,未知,未知
2,300675,22439592.360000007,22447462.090000004,2014-12-31,年度报告,10770090.83,2014,12,-0.34283527382611223,True,未知,未知,未知,未知,未知,未知,未知,未知
3,300675,23355125.3,23330986.300000004,2015-12-31,年度报告,14983443.73,2015,12,-0.22231564682487845,True,0.019847412430294236,True,0.0,True,比例外推,23330986.300000004,未知,23330986.300000004
4,300675,-19358562.42,-19383604.26,2016-03-31,一季度报告,-19832499.009999994,2016,3,未知,未知,未知,未知,未知,未知,未知,未知,未知,未知
5,300675,-2362361.8,-2508890.12,2016-06-30,半年度报告,-3136078.8200000008,2016,6,未知,未知,未知,未知,未知,未知,未知,未知,未知,未知
6,300675,-21733333.2,-21946377.97,2016-09-30,三季度报告,,2016,9,未知,未知,未知,未知,未知,未知,未知,未知,未知,未知
7,300675,31655362.36000001,31539638.45,2016-12-31,年度报告,23382116.51,2016,12,-0.2528012739884549,True,0.04662171690225819,True,0.0,True,比例外推,31539638.45,未知,31539638.45
8,300675,-6822937.590000003,-7009880.91,2017-03-31,一季度报告,-7992880.199999997,2017,3,-1.9014574270231375,False,未知,未知,未知,未知,未知,未知,未知,未知
9,300675,3443493.31,3296590.58,2017-06-30,半年度报告,2361798.96,2017,6,-8.38706487295892,False,未知,未知,未知,未知,未知,未知,39000000.0,未知
10,300675,3258586.52,3261693.79,2017-09-30,三季度报告,860207.1100000001,2017,9,-1.80295644066231,False,未知,未知,未知,未知,未知,未知,,未知
11,300675,33904614.66,33987787.760000005,2017-12-31,年度报告,24170554.18,2017,12,-0.44872152554945516,True,0.38248968341821643,True,0.0,True,比例外推,33987787.760000005,未知,33987787.760000005
12,300675,-27243081.34000001,-26783354.59,2018-03-31,一季度报告,-32131210.45,2018,3,-3.5576842290887787,False,未知,未知,未知,未知,未知,未知,未知,未知
13,300675,2790055.3600000003,3611318.84,2018-06-30,半年度报告,-3093753.2999999993,2018,6,4.067795491085186,False,未知,未知,未知,未知,未知,未知,未知,未知
14,300675,2978503.1,3671711.22,2018-09-30,三季度报告,-6205349.020000001,2018,9,4.355364899134243,False,未知,未知,未知,未知,未知,未知,未知,未知
15,300675,33031226.289999995,34630772.68,2018-12-31,年度报告,12116967.0,2018,12,-0.48529366739601204,True,0.23266002910398448,True,0.0,True,比例外推,34630772.68,未知,34630772.68
16,300675,-24375916.9,-23515497.820000004,2019-03-31,一季度报告,-29920522.680000003,2019,3,-1.6405633655095198,False,-1.0810940037503225,True,1.3748765108193834,False,前期平均,14173527.129999992,42000000.0,42000000.0
17,300675,-12831359.110000005,-12375261.12,2019-06-30,半年度报告,-24990245.67,2019,6,5.254685881931749,False,4.161361655253208,False,0.19495827361078247,False,前期平均盈利变化,55581198.895,,55581198.895
18,300675,-25075686.12,-24226081.79000001,2019-09-30,三季度报告,-41088688.35,2019,9,4.858956423446396,False,-1.3224404806832242,True,,False,盈利变化,19127066.31111111,未知,19127066.31111111
19,300675,37253256.31,36620943.28,2019-12-31,年度报告,4562916.38,2019,12,-0.471684165862072,True,0.00766436449248133,True,0.0,True,比例外推,36620943.28,未知,36620943.28
20,300675,-20216934.410000004,-20987355.08,2020-03-31,一季度报告,-25840446.01,2020,3,-1.7159082442556246,False,-0.43109865288858323,True,3.3774028188143004,False,前期平均,17218450.835,未知,17218450.835
