,SECURITYCODE_x,NETPROFIT_x,PARENTNETPROFIT_x,REPORTDATE_x,REPORTTIMETYPE_x,KCFJCXSYJLR,Year,Month,managesituationChangeRate,managesituationGreatChange,historyprofitextroplaterate,ifhistoryprofitextroplate,IfprofitdisStableChangeRage,IfprofitdisStable,predicttype,predict,analyst_prediction,adj_prediction
0,300668,28436022.61,28436022.61,2013-12-31,年度报告,10696236.950000003,2013,12,未知,未知,未知,未知,未知,未知,未知,未知,未知,未知
1,300668,25506194.24,25506194.24,2014-12-31,年度报告,15994751.84,2014,12,0.0,True,未知,未知,未知,未知,未知,未知,未知,未知
2,300668,33094775.67,33094775.67,2015-12-31,年度报告,29691006.59,2015,12,0.11486732761586627,True,未知,未知,未知,未知,未知,未知,未知,未知
3,300668,8276032.549999999,8276032.549999999,2016-03-31,一季度报告,8149500.1499999985,2016,3,未知,未知,未知,未知,未知,未知,未知,未知,未知,未知
4,300668,17281325.65,17281325.65,2016-06-30,半年度报告,16735905.769999998,2016,6,未知,未知,未知,未知,未知,未知,未知,未知,未知,未知
5,300668,27794237.379999995,27794237.379999995,2016-09-30,三季度报告,,2016,9,未知,未知,未知,未知,未知,未知,未知,未知,未知,未知
6,300668,40826130.43,40826130.43,2016-12-31,年度报告,38553470.49,2016,12,-0.14077004499000437,True,0.22704544242326613,True,0.0,True,比例外推,40826130.43,未知,40826130.43
7,300668,10373356.46,10373356.46,2017-03-31,一季度报告,9811190.86,2017,3,2.4359486188826076,False,未知,未知,未知,未知,未知,未知,未知,未知
8,300668,26015664.390000004,26015664.390000004,2017-06-30,半年度报告,25433423.4,2017,6,0.6454769261292175,False,未知,未知,未知,未知,未知,未知,未知,未知
9,300668,43708703.5,43708703.5,2017-09-30,三季度报告,41883198.52,2017,9,0.02309058605298579,True,未知,未知,未知,未知,未知,未知,64390000.0,未知
10,300668,62247922.87000001,62247922.87000001,2017-12-31,年度报告,59693895.8,2017,12,-0.303484745909092,True,0.39336022911228985,True,0.0,True,比例外推,62247922.87000001,未知,62247922.87000001
11,300668,17157007.88,17157007.88,2018-03-31,一季度报告,14957341.060000002,2018,3,1.7412557082801718,False,未知,未知,未知,未知,未知,未知,未知,未知
12,300668,39099438.36000001,39099438.36000001,2018-06-30,半年度报告,34177169.529999994,2018,6,0.09303464957559728,True,未知,未知,未知,未知,未知,未知,92000000.0,未知
13,300668,61766654.51999999,61766654.51999999,2018-09-30,三季度报告,55888639.95,2018,9,-0.3494196731321486,True,未知,未知,未知,未知,未知,未知,,未知
14,300668,83606453.46,83606453.46,2018-12-31,年度报告,76055556.58000001,2018,12,-0.5431811810108678,True,0.6841764029729613,True,0.0,True,比例外推,83606453.46,,83606453.46
15,300668,21121831.660000004,21121831.660000004,2019-03-31,一季度报告,20356521.94,2019,3,0.6573998688400673,False,0.8399538849020985,True,0.026442795875519537,True,前期平均,61265169.300000004,106150000.0,106150000.0
16,300668,40051246.7,40051246.7,2019-06-30,半年度报告,36525127.65,2019,6,-0.27272554791756365,True,0.8061042268239855,True,0.012860731492685795,True,比例外推,87201398.80438095,100000000.0,100000000.0
17,300668,65699203.7,65699203.7,2019-09-30,三季度报告,61714480.8,2019,9,-0.5396217776244877,True,0.7276675269527737,True,,False,平均增速,91063706.55235101,,91063706.55235101
18,300668,84049011.84,84049011.84,2019-12-31,年度报告,78755703.83000003,2019,12,-0.6598824440794548,True,0.622259934159395,True,0.0,True,比例外推,84049011.84,未知,84049011.84
19,300668,9835780.12,9835780.12,2020-03-31,一季度报告,9092091.44,2020,3,0.34628582727753804,True,0.5344389488744415,True,0.051977291041201606,True,比例外推,44773292.87337912,未知,44773292.87337912
