,SECURITYCODE_x,NETPROFIT_x,PARENTNETPROFIT_x,REPORTDATE_x,REPORTTIMETYPE_x,KCFJCXSYJLR,Year,Month,managesituationChangeRate,managesituationGreatChange,historyprofitextroplaterate,ifhistoryprofitextroplate,IfprofitdisStableChangeRage,IfprofitdisStable,predicttype,predict,analyst_prediction,adj_prediction
0,300651,10656745.28,10656745.28,2012-12-31,年度报告,10384045.28,2012,12,未知,未知,未知,未知,未知,未知,未知,未知,未知,未知
1,300651,23021231.93,23021231.93,2013-12-31,年度报告,21331231.93,2013,12,0.0,True,未知,未知,未知,未知,未知,未知,未知,未知
2,300651,48863520.73,48863520.73,2014-12-31,年度报告,46435720.73,2014,12,-0.5370905730673468,True,未知,未知,未知,未知,未知,未知,未知,未知
3,300651,15440324.81,15440324.81,2015-06-30,半年度报告,15131524.81,2015,6,未知,未知,未知,未知,未知,未知,未知,未知,未知,未知
4,300651,44137813.18999999,44137813.18999999,2015-12-31,年度报告,44651600.35,2015,12,-0.7819079525831785,True,1.9018085275911971,True,0.0,True,比例外推,44137813.18999999,未知,44137813.18999999
5,300651,1853732.93,1853732.93,2016-03-31,一季度报告,756748.5799999998,2016,3,未知,未知,未知,未知,未知,未知,未知,未知,未知,未知
6,300651,12650291.86,12650291.86,2016-06-30,半年度报告,11702240.97,2016,6,-0.309810809608221,True,未知,未知,未知,未知,未知,未知,未知,未知
7,300651,22986989.42000001,22986989.42000001,2016-09-30,三季度报告,,2016,9,未知,未知,未知,未知,未知,未知,未知,未知,未知,未知
8,300651,46310896.03999999,46310896.03999999,2016-12-31,年度报告,45173329.60000001,2016,12,-0.758557470119194,True,0.22801599940846182,True,0.0,True,比例外推,46310896.03999999,未知,46310896.03999999
9,300651,1966386.11,1966386.11,2017-03-31,一季度报告,2259289.6,2017,3,4.74880291952304,False,未知,未知,未知,未知,未知,未知,56280000.0,未知
10,300651,9286864.08,9286864.08,2017-06-30,半年度报告,9304503.15,2017,6,-0.1575889791368023,True,未知,未知,未知,未知,未知,未知,56810000.0,未知
11,300651,20408052.77,20408052.77,2017-09-30,三季度报告,21628137.42,2017,9,-0.5364010012234132,True,未知,未知,未知,未知,未知,未知,,未知
12,300651,43878125.7,43878125.7,2017-12-31,年度报告,39845966.79,2017,12,-0.7698868691550369,True,0.00408103651853517,True,0.0,True,比例外推,43878125.7,未知,43878125.7
13,300651,2099297.48,2099297.48,2018-03-31,一季度报告,2100042.7500000005,2018,3,4.419457158390933,False,未知,未知,未知,未知,未知,未知,未知,未知
14,300651,13471493.910000002,13471493.910000002,2018-06-30,半年度报告,13306361.319999995,2018,6,0.14750740273567126,True,0.33879243812271925,True,0.061731929926359175,True,比例外推,48176910.37083723,63883333.0,63883333.0
15,300651,27014976.6,27014976.6,2018-09-30,三季度报告,26769490.17,2018,9,-0.4778166540383755,True,未知,未知,未知,未知,未知,未知,65500000.0,未知
16,300651,35298611.01,35404133.93,2018-12-31,年度报告,28735098.04000001,2018,12,-0.7571285211027142,True,0.029767786106857454,True,0.0,True,比例外推,35404133.93,未知,35404133.93
17,300651,2157495.62,2215719.18,2019-03-31,一季度报告,-2329880.85,2019,3,4.076338814068409,False,0.09907437858271556,True,0.03209307026445535,True,前期平均,43217348.285000004,未知,43217348.285000004
18,300651,14832597.08,14946813.04,2019-06-30,半年度报告,10916599.66,2019,6,-0.20894109063216748,True,0.22818964744980552,True,0.14452539306463508,False,平均增速,27459642.115772717,未知,27459642.115772717
19,300651,27219354.969999995,27241381.17,2019-09-30,三季度报告,22324046.31,2019,9,-0.6055245415241264,True,0.245072028353753,True,,False,平均增速,28848803.81412213,未知,28848803.81412213
20,300651,42214335.33,42500446.66,2019-12-31,年度报告,36528023.52,2019,12,-0.6980973195522913,True,0.21723042718525,True,0.0,True,比例外推,42500446.66,,42500446.66
21,300651,2709575.01,2731625.86,2020-03-31,一季度报告,1526064.66,2020,3,3.9394052906582493,False,0.061319983338890466,True,0.08578339765929889,True,前期平均,34842492.10000001,未知,34842492.10000001
