,SECURITYCODE_x,NETPROFIT_x,PARENTNETPROFIT_x,REPORTDATE_x,REPORTTIMETYPE_x,KCFJCXSYJLR,Year,Month,managesituationChangeRate,managesituationGreatChange,historyprofitextroplaterate,ifhistoryprofitextroplate,IfprofitdisStableChangeRage,IfprofitdisStable,predicttype,predict,analyst_prediction,adj_prediction
0,300602,37541282.59,37847672.1,2012-12-31,年度报告,38053750.53000001,2012,12,未知,未知,未知,未知,未知,未知,未知,未知,未知,未知
1,300602,51641802.12999999,50366044.80999999,2013-12-31,年度报告,49770644.80999998,2013,12,0.0,True,未知,未知,未知,未知,未知,未知,未知,未知
2,300602,83920927.96999998,83920927.96999998,2014-12-31,年度报告,82078787.03,2014,12,-0.2730446839268734,True,未知,未知,未知,未知,未知,未知,未知,未知
3,300602,67643971.83000001,66623253.12,2015-09-30,三季度报告,65635554.39,2015,9,未知,未知,未知,未知,未知,未知,未知,未知,未知,未知
4,300602,102056681.03999998,100749481.85,2015-12-31,年度报告,98136232.06,2015,12,-0.5526588718916425,True,0.8819920444214028,True,0.0,True,比例外推,100749481.85,未知,100749481.85
5,300602,25784805.510000005,24644007.050000004,2016-03-31,一季度报告,24466081.79000001,2016,3,未知,未知,未知,未知,未知,未知,未知,未知,未知,未知
6,300602,53121514.17000001,50737568.02,2016-06-30,半年度报告,49352620.80999999,2016,6,未知,未知,未知,未知,未知,未知,未知,未知,未知,未知
7,300602,78823103.56,75811842.88999997,2016-09-30,三季度报告,73179344.35000001,2016,9,-0.445016583527248,True,未知,未知,未知,未知,未知,未知,未知,未知
8,300602,120159607.35000002,115888461.26000002,2016-12-31,年度报告,112988213.25,2016,12,-0.6321526213919683,True,0.5056746196350025,True,0.0,True,比例外推,115888461.26000002,未知,115888461.26000002
9,300602,16743968.29,16132084.180000005,2017-03-31,一季度报告,15275690.42,2017,3,0.4559459281335489,True,未知,未知,未知,未知,未知,未知,154165000.0,未知
10,300602,36668932.33999999,36084676.46,2017-06-30,半年度报告,35437597.91,2017,6,-0.29329419206952556,True,未知,未知,未知,未知,未知,未知,136615000.0,未知
11,300602,71699414.07000001,70343474.69,2017-09-30,三季度报告,69346968.89999999,2017,9,-0.5237274238837393,True,未知,未知,未知,未知,未知,未知,123850000.0,未知
12,300602,110266499.45,108147838.03,2017-12-31,年度报告,105184007.79000002,2017,12,-0.6875715274214401,True,0.2921943452186126,True,0.0,True,比例外推,108147838.03,126350000.0,126350000.0
13,300602,32209689.350000005,31992572.85,2018-03-31,一季度报告,22473728.41,2018,3,1.2420779793533643,False,未知,未知,未知,未知,未知,未知,169823332.99999997,未知
14,300602,71738641.54,70044647.22,2018-06-30,半年度报告,59365285.01000001,2018,6,0.023789900450644403,True,未知,未知,未知,未知,未知,未知,172950000.0,未知
15,300602,123690432.47,120608527.35000002,2018-09-30,三季度报告,109194693.12,2018,9,-0.47640740057724157,True,0.020948375201936226,True,0.010922668783963307,True,比例外推,177213279.9701386,170915714.0,177213279.9701386
16,300602,166026730.31000006,162458970.57999998,2018-12-31,年度报告,149865965.93,2018,12,-0.6595404517486929,True,0.007575004974638619,True,0.0,True,比例外推,162458970.57999998,170801250.0,162458970.57999998
17,300602,41560517.14000001,40384597.67,2019-03-31,一季度报告,37386233.63,2019,3,0.1655276206505853,True,0.5147245721906989,True,0.045962018602954346,True,比例外推,222176606.85397583,259164000.0,259164000.0
18,300602,162584049.93,155843872.24000004,2019-06-30,半年度报告,103485370.22,2019,6,-0.4766937067094064,True,0.5979125692845385,True,0.05303197333263959,True,比例外推,317744742.6441164,284954286.0,284954286.0
19,300602,270409740.92999995,259409037.44,2019-09-30,三季度报告,196523315.69,2019,9,-0.6964900045999491,True,0.6434807817132576,True,0.05008901609392469,True,比例外推,352518134.5700859,337226250.0,352518134.5700859
20,300602,352593044.85,350756386.57,2019-12-31,年度报告,282472355.04999995,2019,12,-0.7738841057707752,True,0.4410409707100086,True,0.0,True,比例外推,350756386.57,343578571.0,350756386.57
21,300602,40627761.26,42893306.2,2020-03-31,一季度报告,40778558.78000001,2020,3,-0.09670800140577855,True,0.6979534990268403,True,0.010159969816544018,True,比例外推,288252820.3547329,436950000.0,436950000.0
