,SECURITYCODE_x,NETPROFIT_x,PARENTNETPROFIT_x,REPORTDATE_x,REPORTTIMETYPE_x,KCFJCXSYJLR,Year,Month,managesituationChangeRate,managesituationGreatChange,historyprofitextroplaterate,ifhistoryprofitextroplate,IfprofitdisStableChangeRage,IfprofitdisStable,predicttype,predict,analyst_prediction,adj_prediction
0,300681,3442057.4800000004,3442057.4800000004,2013-12-31,年度报告,3280217.48,2013,12,未知,未知,未知,未知,未知,未知,未知,未知,未知,未知
1,300681,28675808.98,28675808.98,2014-12-31,年度报告,28262851.800000004,2014,12,0.0,True,未知,未知,未知,未知,未知,未知,未知,未知
2,300681,92284123.85,92284123.85,2015-12-31,年度报告,88537909.09,2015,12,-0.8799665082718096,True,未知,未知,未知,未知,未知,未知,未知,未知
3,300681,15396219.39,15396219.39,2016-03-31,一季度报告,15367134.4,2016,3,未知,未知,未知,未知,未知,未知,未知,未知,未知,未知
4,300681,24189632.35,24189632.35,2016-06-30,半年度报告,22163743.03,2016,6,未知,未知,未知,未知,未知,未知,未知,未知,未知,未知
5,300681,34577434.43,34577434.43,2016-09-30,三季度报告,,2016,9,未知,未知,未知,未知,未知,未知,未知,未知,未知,未知
6,300681,65375179.98,65375179.98,2016-12-31,年度报告,57414693.82000001,2016,12,-0.9627015207340022,True,4.746591166940171,False,0.0,True,比例外推,65375179.98,未知,65375179.98
7,300681,22740160.81,22740160.81,2017-03-31,一季度报告,21936442.98,2017,3,-0.7764348900980425,True,未知,未知,未知,未知,未知,未知,未知,未知
8,300681,38575421.04,38575421.04,2017-06-30,半年度报告,35941396.739999995,2017,6,-0.8577052585919107,True,未知,未知,未知,未知,未知,未知,81887333.0,未知
9,300681,53430977.22,53430977.22,2017-09-30,三季度报告,50018652.91,2017,9,-0.9004536473934107,True,未知,未知,未知,未知,未知,未知,97300000.0,未知
10,300681,84295415.03,84295415.03,2017-12-31,年度报告,79666974.87,2017,12,-0.9473491701123727,True,0.08093942267444623,True,0.0,True,比例外推,84295415.03,92150000.0,84295415.03
11,300681,23791185.37,23791185.37,2018-03-31,一季度报告,22130085.539999995,2018,3,-0.8486353061106606,True,未知,未知,未知,未知,未知,未知,101860000.0,未知
12,300681,40417294.14000001,40417294.14000001,2018-06-30,半年度报告,35408084.11000001,2018,6,-0.9107707087258795,True,未知,未知,未知,未知,未知,未知,93000000.0,未知
13,300681,54254261.90000001,54254261.90000001,2018-09-30,三季度报告,47579640.53,2018,9,-0.9355793650221395,True,未知,未知,未知,未知,未知,未知,,未知
14,300681,53076063.8,53076063.8,2018-12-31,年度报告,42731410.02,2018,12,-0.9591667295454325,True,0.06933638525885669,True,0.0,True,比例外推,53076063.8,74000000.0,74000000.0
15,300681,-16452881.85,-16452881.85,2019-03-31,一季度报告,-18276275.42,2019,3,-0.8553221528700988,True,0.24768975163510665,True,0.1642575596871303,False,平均增速,-15050788.642956913,124000000.0,124000000.0
16,300681,-33144249.149999995,-33144249.149999995,2019-06-30,半年度报告,-37973241.78,2019,6,-0.9148370133815199,True,0.287891651708193,True,0.2733548696542,False,平均增速,-33548761.167779956,,-33548761.167779956
17,300681,-50986601.25000001,-50986601.25000001,2019-09-30,三季度报告,-59153731.46000001,2019,9,-0.9365569199642914,True,0.23293355448257336,True,,False,平均增速,-50304736.66951735,未知,-50304736.66951735
18,300681,-79342518.05,-79342518.05,2019-12-31,年度报告,-95966767.18,2019,12,-0.9351485917838541,True,0.29076163829703744,True,0.0,True,比例外推,-79342518.05,121060000.0,121060000.0
19,300681,-4701738.819999998,-4701738.819999998,2020-03-31,一季度报告,-11751553.08,2020,3,-1.209206965161547,False,1.7071741181247724,True,0.18999349285889122,False,前期平均,34464189.365,未知,34464189.365
