,SECURITYCODE_x,NETPROFIT_x,PARENTNETPROFIT_x,REPORTDATE_x,REPORTTIMETYPE_x,KCFJCXSYJLR,Year,Month,managesituationChangeRate,managesituationGreatChange,historyprofitextroplaterate,ifhistoryprofitextroplate,IfprofitdisStableChangeRage,IfprofitdisStable,predicttype,predict,analyst_prediction,adj_prediction
0,300663,31478541.01,31478541.01,2012-12-31,年度报告,30923141.01,2012,12,未知,未知,未知,未知,未知,未知,未知,未知,未知,未知
1,300663,31070937.66000001,31070937.66000001,2013-12-31,年度报告,29851237.66,2013,12,0.0,True,未知,未知,未知,未知,未知,未知,未知,未知
2,300663,34453465.61,34453465.61,2014-12-31,年度报告,33020722.56000001,2014,12,0.013118476000314893,True,未知,未知,未知,未知,未知,未知,未知,未知
3,300663,-45428890.38,-45428890.38,2015-06-30,半年度报告,-47463590.38,2015,6,未知,未知,未知,未知,未知,未知,未知,未知,未知,未知
4,300663,35278933.2,35278933.2,2015-12-31,年度报告,33034213.51,2015,12,-0.08634616423424575,True,0.10163877757544194,True,0.0,True,比例外推,35278933.2,未知,35278933.2
5,300663,-32556875.289999995,-32556875.289999995,2016-03-31,一季度报告,-32556875.289999995,2016,3,未知,未知,未知,未知,未知,未知,未知,未知,未知,未知
6,300663,-33349949.65,-33349949.65,2016-06-30,半年度报告,-34159482.64999999,2016,6,-1.6929189937656584,False,未知,未知,未知,未知,未知,未知,未知,未知
7,300663,-64660924.70000001,-64660924.70000001,2016-09-30,三季度报告,,2016,9,未知,未知,未知,未知,未知,未知,未知,未知,未知,未知
8,300663,42773543.31,42773543.31,2016-12-31,年度报告,41564593.32,2016,12,-0.10772412443582623,True,0.0768181452833549,True,0.0,True,比例外推,42773543.31,未知,42773543.31
9,300663,-20579815.44,-20579815.44,2017-03-31,一季度报告,-20579815.44,2017,3,-1.9668784467061184,False,未知,未知,未知,未知,未知,未知,未知,未知
10,300663,-30622838.84,-30622838.84,2017-06-30,半年度报告,-31337776.000000004,2017,6,-1.9438857131827783,False,未知,未知,未知,未知,未知,未知,未知,未知
11,300663,-61295319.45999999,-61295319.45999999,2017-09-30,三季度报告,-62831468.38,2017,9,-1.4868247887893258,False,未知,未知,未知,未知,未知,未知,53300000.0,未知
12,300663,40080358.35,40080358.35,2017-12-31,年度报告,37972695.60000001,2017,12,-0.2640651539700558,True,0.2267911054241847,True,0.0,True,比例外推,40080358.35,53300000.0,53300000.0
13,300663,-19762826.89,-19762826.89,2018-03-31,一季度报告,-21438048.66,2018,3,-2.529583251209176,False,未知,未知,未知,未知,未知,未知,未知,未知
14,300663,-33079903.660000004,-33079903.660000004,2018-06-30,半年度报告,-36237530.22,2018,6,-2.0279432672611093,False,-0.22256182425792442,True,0.4088299205643686,False,前期平均,45031036.27,未知,45031036.27
15,300663,-60966117.85,-60966117.85,2018-09-30,三季度报告,-65475911.83000001,2018,9,-1.5135553788987466,False,未知,未知,未知,未知,未知,未知,未知,未知
16,300663,42083474.81,42576019.79,2018-12-31,年度报告,37838026.21999999,2018,12,-0.21461428225977924,True,0.027010548342177098,True,0.0,True,比例外推,42576019.79,,42576019.79
17,300663,-18238067.87,-16980692.16,2019-03-31,一季度报告,-17715771.47,2019,3,-2.5928157031992303,False,-0.2561513854741326,True,0.15267667953082253,False,前期平均,49356297.66500001,未知,49356297.66500001
18,300663,-38582362.96,-36091789.50000001,2019-06-30,半年度报告,-38125783.43000001,2019,6,-1.9515910727413526,False,-0.034186704716519904,True,0.0894301916744199,True,前期平均,36425484.28499999,未知,36425484.28499999
19,300663,-64135633.64999999,-60719275.63,2019-09-30,三季度报告,-63753105.91000001,2019,9,-1.51632844799876,False,-0.03194766950091308,True,,False,前期平均,,未知,
20,300663,46102493.02,49509331.14,2019-12-31,年度报告,46289779.14000001,2019,12,-0.25199757975974035,True,0.015847750482388186,True,0.0,True,比例外推,49509331.14,未知,49509331.14
21,300663,-11652332.11,-10347499.18,2020-03-31,一季度报告,-10709347.11,2020,3,-2.7259800344190737,False,-0.0958416793419787,True,0.11436953779781767,False,前期平均,48566793.78,未知,48566793.78
