,SECURITYCODE_x,NETPROFIT_x,PARENTNETPROFIT_x,REPORTDATE_x,REPORTTIMETYPE_x,KCFJCXSYJLR,Year,Month,managesituationChangeRate,managesituationGreatChange,historyprofitextroplaterate,ifhistoryprofitextroplate,IfprofitdisStableChangeRage,IfprofitdisStable,predicttype,predict,analyst_prediction,adj_prediction
0,300700,6561698.769999999,7420687.52,2012-12-31,年度报告,7362187.52,2012,12,未知,未知,未知,未知,未知,未知,未知,未知,未知,未知
1,300700,25351396.739999995,25859652.04,2013-12-31,年度报告,24529252.039999995,2013,12,0.0,True,未知,未知,未知,未知,未知,未知,未知,未知
2,300700,33656697.99,33656697.99,2014-12-31,年度报告,31214632.49,2014,12,-0.7411701281276228,True,未知,未知,未知,未知,未知,未知,未知,未知
3,300700,14053624.98,14053624.98,2015-06-30,半年度报告,12721824.98,2015,6,未知,未知,未知,未知,未知,未知,未知,未知,未知,未知
4,300700,30561012.009999994,30561012.009999994,2015-12-31,年度报告,26970887.99000001,2015,12,-0.8050403289131455,True,1.109271911867882,True,0.0,True,比例外推,30561012.009999994,未知,30561012.009999994
5,300700,28812927.42,28812927.42,2016-09-30,三季度报告,,2016,9,未知,未知,未知,未知,未知,未知,未知,未知,未知,未知
6,300700,39299875.56,39299875.56,2016-12-31,年度报告,37610256.96,2016,12,-0.7852918362830092,True,0.03582439493551823,True,0.0,True,比例外推,39299875.56,未知,39299875.56
7,300700,10703309.81,10703309.81,2017-03-31,一季度报告,10302322.310000002,2017,3,未知,未知,未知,未知,未知,未知,未知,未知,未知,未知
8,300700,36937991.11999999,36937991.11999999,2017-06-30,半年度报告,35490783.25,2017,6,未知,未知,未知,未知,未知,未知,未知,未知,未知,未知
9,300700,68455277.46000001,68455277.46000001,2017-09-30,三季度报告,66988859.09,2017,9,-0.7722654600710476,True,未知,未知,未知,未知,未知,未知,106000000.0,未知
10,300700,111347272.30000004,111347272.30000004,2017-12-31,年度报告,107766319.68000002,2017,12,-0.833035126027763,True,0.22395755189650962,True,0.0,True,比例外推,111347272.30000004,98355000.0,98355000.0
11,300700,39136802.5,39136802.5,2018-03-31,一季度报告,39271301.26000001,2018,3,-0.3869467588549604,True,未知,未知,未知,未知,未知,未知,,未知
12,300700,48134275.63000001,48134275.63000001,2018-06-30,半年度报告,48409644.06000001,2018,6,-0.8223590787955118,True,未知,未知,未知,未知,未知,未知,未知,未知
13,300700,48906340.12999999,48906340.12999999,2018-09-30,三季度报告,49295279.8,2018,9,-0.904146195684706,True,未知,未知,未知,未知,未知,未知,128330000.0,未知
14,300700,34009430.809999995,34009430.809999995,2018-12-31,年度报告,33317992.680000003,2018,12,-0.94106996395636,True,2.1876855898354015,False,0.0,True,比例外推,34009430.809999995,,34009430.809999995
15,300700,-4259697.98,-4259697.98,2019-03-31,一季度报告,-5795607.72,2019,3,-0.8323394260427893,True,未知,未知,未知,未知,未知,未知,未知,未知
16,300700,-11717962.94,-11717962.94,2019-06-30,半年度报告,-13288242.089999998,2019,6,-0.863679287075209,True,未知,未知,未知,未知,未知,未知,未知,未知
17,300700,-15479339.489999998,-15479339.489999998,2019-09-30,三季度报告,-17954845.830000002,2019,9,-0.86583132672455,True,0.005597670694875945,True,,False,平均增速,-25249657.099594124,未知,-25249657.099594124
18,300700,-45832175.61,-45832175.61,2019-12-31,年度报告,-48765722.23,2019,12,-0.8070623761197843,True,0.5484888855432463,True,0.0,True,比例外推,-45832175.61,未知,-45832175.61
19,300700,2766407.08,2766407.08,2020-03-31,一季度报告,-5570469.52,2020,3,-2.5404140858831497,False,1.1709345257292019,True,0.714306109057671,False,前期平均,48521751.475,未知,48521751.475
