,SECURITYCODE_x,NETPROFIT_x,PARENTNETPROFIT_x,REPORTDATE_x,REPORTTIMETYPE_x,KCFJCXSYJLR,Year,Month,managesituationChangeRate,managesituationGreatChange,historyprofitextroplaterate,ifhistoryprofitextroplate,IfprofitdisStableChangeRage,IfprofitdisStable,predicttype,predict,analyst_prediction,adj_prediction
0,300796,3240195.7900000014,4200123.0200000005,2014-12-31,年度报告,4245871.06,2014,12,未知,未知,未知,未知,未知,未知,未知,未知,未知,未知
1,300796,14807419.78,13939575.780000005,2015-06-30,半年度报告,13744845.069999995,2015,6,未知,未知,未知,未知,未知,未知,未知,未知,未知,未知
2,300796,27232666.84,24687084.95000001,2015-12-31,年度报告,31235698.3,2015,12,0.0,True,未知,未知,未知,未知,未知,未知,未知,未知
3,300796,27232666.84,24687084.95000001,2015-12-31,年度报告,31235698.3,2015,12,0.0,True,未知,未知,未知,未知,未知,未知,未知,未知
4,300796,28332733.17,25787151.28,2015-12-31,年度报告,31235698.3,2015,12,0.0,True,未知,未知,未知,未知,未知,未知,未知,未知
5,300796,28332733.17,25787151.28,2015-12-31,年度报告,31235698.3,2015,12,0.0,True,未知,未知,未知,未知,未知,未知,未知,未知
6,300796,35161890.89,31858025.02000001,2016-06-30,半年度报告,31035420.97000001,2016,6,-0.7811775557024155,True,未知,未知,未知,未知,未知,未知,未知,未知
7,300796,40527351.08,36910384.47,2016-12-31,年度报告,36764057.31,2016,12,-0.8810180505259688,True,未知,未知,未知,未知,未知,未知,未知,未知
8,300796,43023775.76000001,40744139.63,2017-06-30,半年度报告,40725431.91,2017,6,-0.9078492166380759,True,未知,未知,未知,未知,未知,未知,未知,未知
9,300796,76975183.58,73171415.11,2017-12-31,年度报告,69931704.69,2017,12,-0.9200491593046896,True,1.6598978620473632,True,0.0,True,比例外推,73171415.11,未知,73171415.11
10,300796,45802232.18000001,43947221.31,2018-06-30,半年度报告,43714105.04,2018,6,-0.9246882512572858,True,0.7220079758206522,True,0.2219867320207407,False,平均增速,82104751.18039435,未知,82104751.18039435
11,300796,51193007.36,49460766.13,2018-09-30,三季度报告,46755858.52,2018,9,未知,未知,未知,未知,未知,未知,未知,未知,未知,未知
12,300796,81382478.07000001,77952037.03,2018-12-31,年度报告,75095493.19999999,2018,12,-0.9579059686602438,True,1.2719941919401427,True,0.0,True,比例外推,77952037.03,未知,77952037.03
13,300796,23556376.66,22462366.68,2019-03-31,一季度报告,22503985.13,2019,3,未知,未知,未知,未知,未知,未知,未知,未知,未知,未知
14,300796,41169833.90999999,39115809.92,2019-06-30,半年度报告,38334770.19000001,2019,6,-0.929256814880414,True,0.17162733637700597,True,0.1746276869554999,False,平均增速,76223532.5542757,未知,76223532.5542757
15,300796,53900135.51000001,51549361.04,2019-09-30,三季度报告,50180280.95,2019,9,-0.9367062816369771,True,未知,未知,未知,未知,未知,未知,未知,未知
16,300796,65092336.35,63652795.42000001,2019-12-31,年度报告,52648463.58,2019,12,-0.9601855845773952,True,0.38520378824992424,True,0.0,True,比例外推,63652795.42000001,未知,63652795.42000001
17,300796,585676.8099999999,865485.1300000001,2020-03-31,一季度报告,-1644022.55,2020,3,-0.8624493131194481,True,未知,未知,未知,未知,未知,未知,未知,未知
