,SECURITYCODE_x,NETPROFIT_x,PARENTNETPROFIT_x,REPORTDATE_x,REPORTTIMETYPE_x,KCFJCXSYJLR,Year,Month,managesituationChangeRate,managesituationGreatChange,historyprofitextroplaterate,ifhistoryprofitextroplate,IfprofitdisStableChangeRage,IfprofitdisStable,predicttype,predict,analyst_prediction,adj_prediction
0,300770,15571138.710000005,17462296.81,2013-12-31,年度报告,17462296.81,2013,12,未知,未知,未知,未知,未知,未知,未知,未知,未知,未知
1,300770,15571138.710000005,17462296.81,2014-12-31,年度报告,12956696.81,2014,12,0.0,True,未知,未知,未知,未知,未知,未知,未知,未知
2,300770,15571138.710000005,17462296.81,2014-12-31,年度报告,12956696.81,2014,12,0.0,True,未知,未知,未知,未知,未知,未知,未知,未知
3,300770,28812973.14,29130149.33,2014-12-31,年度报告,12956696.81,2014,12,0.0,True,未知,未知,未知,未知,未知,未知,未知,未知
4,300770,28812973.14,29130149.33,2014-12-31,年度报告,12956696.81,2014,12,0.0,True,未知,未知,未知,未知,未知,未知,未知,未知
5,300770,28812973.14,29130149.33,2015-12-31,年度报告,14300549.329999994,2015,12,0.0,True,未知,未知,未知,未知,未知,未知,未知,未知
6,300770,28812973.14,29130149.33,2015-12-31,年度报告,14300549.329999994,2015,12,0.0,True,未知,未知,未知,未知,未知,未知,未知,未知
7,300770,58967771.02000001,52171770.42,2015-12-31,年度报告,14300549.329999994,2015,12,0.0,True,未知,未知,未知,未知,未知,未知,未知,未知
8,300770,58967771.02000001,52171770.42,2015-12-31,年度报告,14300549.329999994,2015,12,0.0,True,未知,未知,未知,未知,未知,未知,未知,未知
9,300770,57271882.51000001,50475881.91,2016-12-31,年度报告,34884698.32,2016,12,-0.4595788975215765,True,0.850408867111042,True,0.0,True,比例外推,50475881.91,未知,50475881.91
10,300770,49431077.33,49796014.49999999,2017-06-30,半年度报告,49139614.5,2017,6,未知,未知,未知,未知,未知,未知,未知,未知,未知,未知
11,300770,110219290.56,109812881.76,2017-12-31,年度报告,107801584.53,2017,12,-0.7281189647069627,True,1.5807380219099731,True,0.0,True,比例外推,109812881.76,未知,109812881.76
12,300770,38898202.03,38546012.9,2018-03-31,一季度报告,38197950.68000001,2018,3,未知,未知,未知,未知,未知,未知,未知,未知,未知,未知
13,300770,104876702.83,104872385.20000002,2018-06-30,半年度报告,104277606.45,2018,6,-0.6849929325624915,True,未知,未知,未知,未知,未知,未知,未知,未知
14,300770,156009138.57000002,156158441.26999998,2018-09-30,三季度报告,,2018,9,未知,未知,未知,未知,未知,未知,未知,未知,未知,未知
15,300770,204739453.95000005,205198999.57,2018-12-31,年度报告,201956854.84,2018,12,-0.8587258307426361,True,1.560712676527558,True,0.0,True,比例外推,205198999.57,未知,205198999.57
16,300770,73244648.11000001,73445699.11999999,2019-03-31,一季度报告,72825264.44000001,2019,3,-0.5996951556272226,True,未知,未知,未知,未知,未知,未知,290630000.0,未知
17,300770,170690990.16000003,170938986.84999996,2019-06-30,半年度报告,166906675.59,2019,6,-0.8515290975991107,True,未知,未知,未知,未知,未知,未知,311275625.0,未知
18,300770,276819066.38,277058521.64,2019-09-30,三季度报告,269438341.21,2019,9,-0.9001908551465184,True,未知,未知,未知,未知,未知,未知,354259375.0,未知
19,300770,395369221.52,395682794.75,2019-12-31,年度报告,379478541.45,2019,12,-0.9239465652096411,True,1.4447790316022535,True,0.0,True,比例外推,395682794.75,356551667.0,356551667.0
20,300770,143620421.04000002,143667057.58,2020-03-31,一季度报告,135359207.34000003,2020,3,-0.7874091949132581,True,未知,未知,未知,未知,未知,未知,563735500.0,未知
