,SECURITYCODE_x,NETPROFIT_x,PARENTNETPROFIT_x,REPORTDATE_x,REPORTTIMETYPE_x,KCFJCXSYJLR,Year,Month,managesituationChangeRate,managesituationGreatChange,historyprofitextroplaterate,ifhistoryprofitextroplate,IfprofitdisStableChangeRage,IfprofitdisStable,predicttype,predict,analyst_prediction,adj_prediction
0,300745,12188402.489999998,12188402.489999998,2014-12-31,年度报告,11164702.489999998,2014,12,未知,未知,未知,未知,未知,未知,未知,未知,未知,未知
1,300745,91903813.06999998,91903813.06999998,2015-12-31,年度报告,88735675.18,2015,12,0.0,True,未知,未知,未知,未知,未知,未知,未知,未知
2,300745,126314160.00999998,126314160.00999998,2016-12-31,年度报告,154026524.51,2016,12,-0.867378707337023,True,未知,未知,未知,未知,未知,未知,未知,未知
3,300745,30821181.39,30821181.39,2017-06-30,半年度报告,23976533.41,2017,6,未知,未知,未知,未知,未知,未知,未知,未知,未知,未知
4,300745,91496814.62,91496814.62,2017-12-31,年度报告,77157279.0,2017,12,-0.9035072355384774,True,1.4269664994725952,True,0.0,True,比例外推,91496814.62,未知,91496814.62
5,300745,28137859.03,28137859.03,2018-03-31,一季度报告,11452077.78,2018,3,未知,未知,未知,未知,未知,未知,未知,未知,未知,未知
6,300745,43760089.67,43760089.67,2018-06-30,半年度报告,24624616.289999995,2018,6,-0.6045446040574372,True,未知,未知,未知,未知,未知,未知,107000000.0,未知
7,300745,55832257.14000001,55832257.14000001,2018-09-30,三季度报告,32310683.61,2018,9,未知,未知,未知,未知,未知,未知,未知,未知,,未知
8,300745,82457304.83999999,82457304.83999999,2018-12-31,年度报告,56803871.69,2018,12,-0.8667887779413933,True,0.1614181606713325,True,0.0,True,比例外推,82457304.83999999,未知,82457304.83999999
9,300745,15619295.860000005,15619295.860000005,2019-03-31,一季度报告,10759209.56,2019,3,-0.566832626568888,True,未知,未知,未知,未知,未知,未知,未知,未知
10,300745,22489253.820000004,22489253.820000004,2019-06-30,半年度报告,12588659.31,2019,6,-0.7214721774586346,True,未知,未知,未知,未知,未知,未知,未知,未知
11,300745,21413176.300000004,21413176.300000004,2019-09-30,三季度报告,4664086.96,2019,9,-0.7816960460789281,True,未知,未知,未知,未知,未知,未知,未知,未知
12,300745,27041348.98,27041348.98,2019-12-31,年度报告,1865615.3100000003,2019,12,-0.8521852913619922,True,0.24285445230597846,True,0.0,True,比例外推,27041348.98,未知,27041348.98
13,300745,-14916594.02,-14916594.02,2020-03-31,一季度报告,-18944106.620000005,2020,3,-0.2196573648871266,True,未知,未知,未知,未知,未知,未知,未知,未知
