,SECURITYCODE_x,NETPROFIT_x,PARENTNETPROFIT_x,REPORTDATE_x,REPORTTIMETYPE_x,KCFJCXSYJLR,Year,Month,managesituationChangeRate,managesituationGreatChange,historyprofitextroplaterate,ifhistoryprofitextroplate,IfprofitdisStableChangeRage,IfprofitdisStable,predicttype,predict,analyst_prediction,adj_prediction
0,300763,-5401666.89,-5401666.89,2013-12-31,年度报告,-8060747.62,2013,12,未知,未知,未知,未知,未知,未知,未知,未知,未知,未知
1,300763,3852779.0200000005,3872980.83,2014-12-31,年度报告,2153203.49,2014,12,-0.0,False,未知,未知,未知,未知,未知,未知,未知,未知
2,300763,3852779.0200000005,3872980.83,2014-12-31,年度报告,2153203.49,2014,12,-0.0,False,未知,未知,未知,未知,未知,未知,未知,未知
3,300763,3851560.18,3872403.49,2014-12-31,年度报告,2153203.49,2014,12,-0.0,False,未知,未知,未知,未知,未知,未知,未知,未知
4,300763,3851560.18,3872403.49,2014-12-31,年度报告,2153203.49,2014,12,-0.0,False,未知,未知,未知,未知,未知,未知,未知,未知
5,300763,6297271.65,6310222.129999997,2015-06-30,半年度报告,6275739.540000003,2015,6,未知,未知,未知,未知,未知,未知,未知,未知,未知,未知
6,300763,20171985.15,20102134.81,2015-12-31,年度报告,20951771.58,2015,12,-2.402018351418452,False,未知,未知,未知,未知,未知,未知,未知,未知
7,300763,9258496.68,9258692.61,2016-06-30,半年度报告,8969590.469999999,2016,6,-1.857778922400465,False,未知,未知,未知,未知,未知,未知,未知,未知
8,300763,29829463.59,29728383.759999994,2016-12-31,年度报告,30221068.039999995,2016,12,-1.2677806299098926,False,-27.047056782748268,True,0.0,True,前期平均,29728383.759999994,未知,29728383.759999994
9,300763,35293840.68,35293840.68,2017-06-30,半年度报告,34372540.68,2017,6,-1.5834280744160725,False,未知,未知,未知,未知,未知,未知,未知,未知
10,300763,117814173.40999998,117814173.40999998,2017-12-31,年度报告,113152977.13,2017,12,-1.1810849489030317,False,1.483226339199483,True,0.0,True,前期平均,117814173.40999998,未知,117814173.40999998
11,300763,5886521.99,5886521.99,2018-03-31,一季度报告,5285128.870000001,2018,3,未知,未知,未知,未知,未知,未知,未知,未知,未知,未知
12,300763,42758553.35999999,42758553.35999999,2018-06-30,半年度报告,40413987.25,2018,6,-1.1530484295822463,False,3.53771744748014,False,0.0037363920565230413,True,去年同期,121538989.80999997,未知,121538989.80999997
13,300763,81048592.43,81048592.43,2018-09-30,三季度报告,,2018,9,未知,未知,未知,未知,未知,未知,未知,未知,未知,未知
14,300763,118064118.75,118064118.75,2018-12-31,年度报告,108303833.71000002,2018,12,-1.0458490411947456,False,3.7124303946718005,False,0.0,True,去年同期,118064118.75,未知,118064118.75
15,300763,6751474.499999999,6751474.499999999,2019-03-31,一季度报告,7025342.3900000015,2019,3,-1.917633009640723,False,未知,未知,未知,未知,未知,未知,未知,未知
16,300763,30986003.40000001,30986003.40000001,2019-06-30,半年度报告,28403646.54000001,2019,6,-1.1263295052225313,False,0.9194752012445253,True,0.04857927018173552,True,前期平均,81001960.41,未知,81001960.41
17,300763,72769703.68,72769703.68,2019-09-30,三季度报告,75908736.74000001,2019,9,-1.0666472634261392,False,未知,未知,未知,未知,未知,未知,未知,未知
18,300763,126583766.25,126583766.25,2019-12-31,年度报告,121291907.04,2019,12,-1.0457519773762762,False,0.5993119805088521,True,0.0,True,前期平均,126583766.25,未知,126583766.25
19,300763,58504111.99,58504111.99,2020-03-31,一季度报告,59503983.26000001,2020,3,-1.8000721753448081,False,未知,未知,未知,未知,未知,未知,224800000.0,未知
