,SECURITYCODE_x,NETPROFIT_x,PARENTNETPROFIT_x,REPORTDATE_x,REPORTTIMETYPE_x,KCFJCXSYJLR,Year,Month,managesituationChangeRate,managesituationGreatChange,historyprofitextroplaterate,ifhistoryprofitextroplate,IfprofitdisStableChangeRage,IfprofitdisStable,predicttype,predict,analyst_prediction,adj_prediction
0,300759,20995240.72,20995240.72,2014-12-31,年度报告,28117040.72000001,2014,12,未知,未知,未知,未知,未知,未知,未知,未知,未知,未知
1,300759,73846442.67000002,73846442.67000002,2015-12-31,年度报告,45384332.31000001,2015,12,0.0,True,未知,未知,未知,未知,未知,未知,未知,未知
2,300759,176911924.66,176911924.66,2016-12-31,年度报告,185873112.76,2016,12,-0.7156905605619744,True,未知,未知,未知,未知,未知,未知,未知,未知
3,300759,151710676.28,155323519.83,2017-09-30,三季度报告,150729030.85,2017,9,未知,未知,未知,未知,未知,未知,未知,未知,未知,未知
4,300759,227023844.49,230857087.95,2017-12-31,年度报告,211065479.4,2017,12,-0.8813237674037524,True,2.730678712913975,False,0.0,True,比例外推,230857087.95,未知,230857087.95
5,300759,39639370.16,40824972.01000001,2018-03-31,一季度报告,40359208.03,2018,3,未知,未知,未知,未知,未知,未知,未知,未知,未知,未知
6,300759,116095184.28,116473393.01,2018-06-30,半年度报告,115798547.84000002,2018,6,未知,未知,未知,未知,未知,未知,未知,未知,未知,未知
7,300759,332845594.8400001,333044273.76000005,2018-12-31,年度报告,319410877.39000005,2018,12,-0.9075196670765356,True,0.8106980589105114,True,0.0,True,比例外推,333044273.76000005,412000000.0,412000000.0
8,300759,52156863.07999999,54242101.89,2019-03-31,一季度报告,53222260.73,2019,3,-0.47034373565334164,True,未知,未知,未知,未知,未知,未知,462294000.0,未知
9,300759,156681906.29999998,161324016.12,2019-06-30,半年度报告,155610072.71,2019,6,-0.8191549386806314,True,未知,未知,未知,未知,未知,未知,458007692.0,未知
10,300759,317460071.04,328380337.59,2019-09-30,三季度报告,326717479.1,2019,9,未知,未知,未知,未知,未知,未知,未知,未知,474161111.0,未知
11,300759,530673808.8299999,547191486.9400002,2019-12-31,年度报告,505137676.9700001,2019,12,-0.9369219811063071,True,0.6480124824815857,True,0.0,True,比例外推,547191486.9400002,474161111.0,474161111.0
12,300759,93176138.92,101518061.99,2020-03-31,一季度报告,121230340.01,2020,3,-0.5974596729907476,True,未知,未知,未知,未知,未知,未知,789413125.0,未知
