,SECURITYCODE_x,NETPROFIT_x,PARENTNETPROFIT_x,REPORTDATE_x,REPORTTIMETYPE_x,KCFJCXSYJLR,Year,Month,managesituationChangeRate,managesituationGreatChange,historyprofitextroplaterate,ifhistoryprofitextroplate,IfprofitdisStableChangeRage,IfprofitdisStable,predicttype,predict,analyst_prediction,adj_prediction
0,300786,16272789.27,16272789.27,2013-12-31,年度报告,11588338.849999998,2013,12,未知,未知,未知,未知,未知,未知,未知,未知,未知,未知
1,300786,4206847.740000001,4206847.740000001,2014-06-30,半年度报告,3684060.71,2014,6,未知,未知,未知,未知,未知,未知,未知,未知,未知,未知
2,300786,18901759.790000007,18901759.790000007,2014-12-31,年度报告,17903796.09,2014,12,0.0,True,未知,未知,未知,未知,未知,未知,未知,未知
3,300786,12228787.04,12228787.04,2015-06-30,半年度报告,11751820.769999998,2015,6,2.8681669211065848,False,未知,未知,未知,未知,未知,未知,未知,未知
4,300786,29444116.48,29444116.48,2015-12-31,年度报告,26860665.33,2015,12,-0.13908601893199735,True,未知,未知,未知,未知,未知,未知,未知,未知
5,300786,13981648.92,13981648.92,2016-06-30,半年度报告,10693386.830000002,2016,6,0.33069528619414085,True,未知,未知,未知,未知,未知,未知,未知,未知
6,300786,33489323.76999999,33489323.76999999,2016-12-31,年度报告,27099165.09,2016,12,-0.4473330765060199,True,0.6741716534744965,True,0.0,True,比例外推,33489323.76999999,未知,33489323.76999999
7,300786,1004044.25,1004044.25,2017-03-31,一季度报告,516771.59,2017,3,未知,未知,未知,未知,未知,未知,未知,未知,未知,未知
8,300786,19807852.44,19991446.2,2017-06-30,半年度报告,15289578.66,2017,6,0.16386767849124334,True,0.7013822839399938,True,0.14019095688621908,False,平均增速,42011238.23359834,未知,42011238.23359834
9,300786,31805417.71,32616931.75,2017-09-30,三季度报告,,2017,9,未知,未知,未知,未知,未知,未知,未知,未知,未知,未知
10,300786,44208547.02,45030573.43,2017-12-31,年度报告,38167332.69000001,2017,12,-0.5140902401685011,True,0.3854055962485911,True,0.0,True,比例外推,45030573.43,未知,45030573.43
11,300786,11632217.1,11643990.34,2018-03-31,一季度报告,11642556.9,2018,3,15.207243126983697,False,未知,未知,未知,未知,未知,未知,未知,未知
12,300786,27102892.599999994,27064966.25,2018-06-30,半年度报告,26998636.12,2018,6,-0.17846776578672865,True,0.5114477660904959,True,0.026608474787898906,True,比例外推,65772119.36717902,未知,65772119.36717902
13,300786,44861148.81,44650629.13,2018-09-30,三季度报告,44331152.23,2018,9,-0.48836423346568275,True,未知,未知,未知,未知,未知,未知,未知,未知
14,300786,61571945.34,60906237.94,2018-12-31,年度报告,60442393.28,2018,12,-0.6319085252306942,True,0.4049302515287177,True,0.0,True,比例外推,60906237.94,未知,60906237.94
15,300786,16110717.47,15744443.679999998,2019-03-31,一季度报告,15700607.94,2019,3,0.39894133079754845,True,未知,未知,未知,未知,未知,未知,未知,未知
16,300786,16110717.47,15744443.679999998,2019-03-31,一季度报告,15700607.94,2019,3,0.39894133079754845,True,未知,未知,未知,未知,未知,未知,未知,未知
17,300786,11632217.1,11634990.34,2019-03-31,一季度报告,15700607.94,2019,3,0.39894133079754845,True,未知,未知,未知,未知,未知,未知,未知,未知
18,300786,11632217.1,11634990.34,2019-03-31,一季度报告,15700607.94,2019,3,0.39894133079754845,True,未知,未知,未知,未知,未知,未知,未知,未知
19,300786,33839616.58,33285938.63,2019-06-30,半年度报告,32776164.38,2019,6,-0.39959215755443006,True,0.6042197433599532,True,0.03272404665983325,True,比例外推,79686956.23980851,未知,79686956.23980851
20,300786,52094856.18000001,51413677.68000001,2019-09-30,三季度报告,50185765.03,2019,9,-0.6372632065460475,True,未知,未知,未知,未知,未知,未知,未知,未知
21,300786,72432473.25,71830162.02,2019-12-31,年度报告,68053093.47999999,2019,12,-0.7357109771318459,True,0.5849068890553059,True,0.0,True,比例外推,71830162.02,未知,71830162.02
22,300786,10116398.270000003,10109620.55,2020-03-31,一季度报告,6568590.5,2020,3,0.010059874757396442,True,1.5499183696449903,True,0.13208475443491752,False,平均增速,56523543.39059743,未知,56523543.39059743
