,SECURITYCODE_x,NETPROFIT_x,PARENTNETPROFIT_x,REPORTDATE_x,REPORTTIMETYPE_x,KCFJCXSYJLR,Year,Month,managesituationChangeRate,managesituationGreatChange,historyprofitextroplaterate,ifhistoryprofitextroplate,IfprofitdisStableChangeRage,IfprofitdisStable,predicttype,predict,analyst_prediction,adj_prediction
0,300710,15123809.500000002,15144376.969999995,2013-12-31,年度报告,14779978.140000004,2013,12,未知,未知,未知,未知,未知,未知,未知,未知,未知,未知
1,300710,32442860.92,32460391.85,2014-12-31,年度报告,28487617.47,2014,12,0.0,True,未知,未知,未知,未知,未知,未知,未知,未知
2,300710,6699713.89,6699713.89,2015-04-30,其他报告,,2015,4,未知,未知,未知,未知,未知,未知,未知,未知,未知,未知
3,300710,11757111.61,11757111.61,2015-06-30,半年度报告,11542463.070000002,2015,6,未知,未知,未知,未知,未知,未知,未知,未知,未知,未知
4,300710,39022112.72,39022112.72,2015-12-31,年度报告,38162464.78,2015,12,-0.5338324342821243,True,未知,未知,未知,未知,未知,未知,未知,未知
5,300710,24336140.14,24336140.14,2016-06-30,半年度报告,23659855.25,2016,6,0.2863541660297297,True,未知,未知,未知,未知,未知,未知,未知,未知
6,300710,38657975.49,38657975.49,2016-09-30,三季度报告,,2016,9,未知,未知,未知,未知,未知,未知,未知,未知,未知,未知
7,300710,45003083.3,45003083.3,2016-12-31,年度报告,44039617.13,2016,12,-0.6124297623626976,True,0.6407334116702297,True,0.0,True,比例外推,45003083.3,未知,45003083.3
8,300710,5534395.6400000015,5534395.6400000015,2017-03-31,一季度报告,3690929.4,2017,3,未知,未知,未知,未知,未知,未知,未知,未知,未知,未知
9,300710,26747135.21,26747135.21,2017-06-30,半年度报告,24568125.47000001,2017,6,-0.3785452658886603,True,未知,未知,未知,未知,未知,未知,未知,未知
10,300710,42490184.65000001,42490184.65000001,2017-09-30,三季度报告,38708367.09,2017,9,-0.608779060250783,True,未知,未知,未知,未知,未知,未知,未知,未知
11,300710,46781359.9,46781359.9,2017-12-31,年度报告,41384553.47,2017,12,-0.6639383706404846,True,0.2594444805003358,True,0.0,True,比例外推,46781359.9,未知,46781359.9
12,300710,1225628.6700000002,1225628.6700000002,2018-03-31,一季度报告,-436770.97,2018,3,1.732693953191969,False,未知,未知,未知,未知,未知,未知,108000000.0,未知
13,300710,16904729.68,16904729.68,2018-06-30,半年度报告,7183147.340000003,2018,6,-0.43456338851774917,True,0.48211280021340835,True,0.17532763738298057,False,平均增速,28165299.098915137,,28165299.098915137
14,300710,13542729.61,13542729.61,2018-09-30,三季度报告,1823810.2900000003,2018,9,-0.6440634554879489,True,未知,未知,未知,未知,未知,未知,未知,未知
15,300710,16351409.050000004,14443020.43,2018-12-31,年度报告,2998510.77,2018,12,-0.6767129144529208,True,0.11350790276918656,True,0.0,True,比例外推,14443020.43,未知,14443020.43
16,300710,7345684.11,6169459.64,2019-03-31,一季度报告,1644479.2400000002,2019,3,11.33963423848432,False,未知,未知,未知,未知,未知,未知,未知,未知
17,300710,21694862.870000005,18188983.05,2019-06-30,半年度报告,9345910.45,2019,6,-0.10535040865557324,True,0.3381501258806813,True,1.2200828432062745,False,平均增速,14407804.269886784,未知,14407804.269886784
18,300710,24566039.15,19944432.25,2019-09-30,三季度报告,7963240.2,2019,9,0.1167475047890292,True,0.6662221401782727,True,,False,平均增速,22806207.614213504,未知,22806207.614213504
19,300710,19978191.750000004,12235496.26,2019-12-31,年度报告,-6425125.910000001,2019,12,-0.07507607119644544,True,0.6436997713355413,True,0.0,True,比例外推,12235496.26,未知,12235496.26
20,300710,-4498348.68,-4241847.85,2020-03-31,一季度报告,-5517895.170000001,2020,3,1.0588701165914962,False,1.1732715070665178,True,0.19332667063516198,False,盈利变化,2685663.713333331,未知,2685663.713333331
