,SECURITYCODE_x,NETPROFIT_x,PARENTNETPROFIT_x,REPORTDATE_x,REPORTTIMETYPE_x,KCFJCXSYJLR,Year,Month,managesituationChangeRate,managesituationGreatChange,historyprofitextroplaterate,ifhistoryprofitextroplate,IfprofitdisStableChangeRage,IfprofitdisStable,predicttype,predict,analyst_prediction,adj_prediction
0,300775,15507166.049999995,15507166.049999995,2013-12-31,年度报告,23951.49,2013,12,未知,未知,未知,未知,未知,未知,未知,未知,未知,未知
1,300775,13102384.739999998,13159362.47,2014-12-31,年度报告,-8051306.309999999,2014,12,0.0,True,未知,未知,未知,未知,未知,未知,未知,未知
2,300775,13102384.739999998,13159362.47,2014-12-31,年度报告,-8051306.309999999,2014,12,0.0,True,未知,未知,未知,未知,未知,未知,未知,未知
3,300775,5751635.299999999,5808613.03,2014-12-31,年度报告,-8051306.309999999,2014,12,0.0,True,未知,未知,未知,未知,未知,未知,未知,未知
4,300775,5751635.299999999,5808613.03,2014-12-31,年度报告,-8051306.309999999,2014,12,0.0,True,未知,未知,未知,未知,未知,未知,未知,未知
5,300775,-56436305.31000001,-56372210.21000002,2015-06-30,半年度报告,-7316564.659999997,2015,6,未知,未知,未知,未知,未知,未知,未知,未知,未知,未知
6,300775,-56436305.31000001,-56372210.21000002,2015-06-30,半年度报告,-7316564.659999997,2015,6,未知,未知,未知,未知,未知,未知,未知,未知,未知,未知
7,300775,-49711594.05,-49594456.22,2015-06-30,半年度报告,-7316564.659999997,2015,6,未知,未知,未知,未知,未知,未知,未知,未知,未知,未知
8,300775,-49711594.05,-49594456.22,2015-06-30,半年度报告,-7316564.659999997,2015,6,未知,未知,未知,未知,未知,未知,未知,未知,未知,未知
9,300775,-46202845.18,-46070982.09000001,2015-07-31,其他报告,,2015,7,未知,未知,未知,未知,未知,未知,未知,未知,未知,未知
10,300775,-10756761.569999997,-10565511.75,2015-12-31,年度报告,36187926.68,2015,12,0.183537680942805,True,未知,未知,未知,未知,未知,未知,未知,未知
11,300775,1033715.16,1033715.16,2016-06-30,半年度报告,-4815352.409999998,2016,6,-1.2747728782885484,False,未知,未知,未知,未知,未知,未知,未知,未知
12,300775,1033715.16,1033715.16,2016-06-30,半年度报告,-4815352.409999998,2016,6,-1.2747728782885484,False,未知,未知,未知,未知,未知,未知,未知,未知
13,300775,4993797.61,4993797.61,2016-06-30,半年度报告,-4815352.409999998,2016,6,-1.2747728782885484,False,未知,未知,未知,未知,未知,未知,未知,未知
14,300775,4993797.61,4993797.61,2016-06-30,半年度报告,-4815352.409999998,2016,6,-1.2747728782885484,False,未知,未知,未知,未知,未知,未知,未知,未知
15,300775,49114810.77,49114810.77,2016-12-31,年度报告,51951555.48999999,2016,12,-2.4416203193764754,False,1.7519699731713263,True,0.0,True,前期平均,49114810.77,未知,49114810.77
16,300775,61726645.96,61726645.96,2017-06-30,半年度报告,57971260.24,2017,6,14.001391727678634,False,未知,未知,未知,未知,未知,未知,未知,未知
17,300775,122539442.82,122539442.82,2017-12-31,年度报告,116022410.86,2017,12,-0.6842670101567003,True,40.87783562011793,False,0.0,True,比例外推,122539442.82,未知,122539442.82
18,300775,39929635.42,39929635.42,2018-03-31,一季度报告,39949684.33,2018,3,未知,未知,未知,未知,未知,未知,未知,未知,未知,未知
19,300775,78990527.06,78990527.06,2018-06-30,半年度报告,78438041.19,2018,6,-0.7487767914678383,True,-3.2282945903026516,True,0.4313943942220842,False,平均增速,171509350.69654468,未知,171509350.69654468
20,300775,103407645.35,103407645.35,2018-09-30,三季度报告,,2018,9,未知,未知,未知,未知,未知,未知,未知,未知,未知,未知
21,300775,149606205.73,149606205.73,2018-12-31,年度报告,144343996.01,2018,12,-0.8734516357090124,True,5.3892426948552945,False,0.0,True,比例外推,149606205.73,未知,149606205.73
22,300775,54783524.46000001,54783524.46000001,2019-03-31,一季度报告,54172863.36,2019,3,-0.6116376749527558,True,未知,未知,未知,未知,未知,未知,未知,未知
23,300775,93527025.12,93527025.12,2019-06-30,半年度报告,88837243.76,2019,6,-0.8036832183912257,True,1.5172107250615514,True,0.4094815879503502,False,平均增速,188143959.21947056,未知,188143959.21947056
24,300775,129971500.78,129971500.78,2019-09-30,三季度报告,117150211.28,2019,9,-0.8500384957271441,True,未知,未知,未知,未知,未知,未知,未知,未知
25,300775,192181018.17,192181018.17,2019-12-31,年度报告,176837413.83999997,2019,12,-0.8963467726867803,True,0.7431109640584582,True,0.0,True,比例外推,192181018.17,未知,192181018.17
26,300775,37418476.7,37418476.7,2020-03-31,一季度报告,31516267.04,2020,3,-0.7169374149828112,True,未知,未知,未知,未知,未知,未知,234000000.0,未知
