,SECURITYCODE_x,NETPROFIT_x,PARENTNETPROFIT_x,REPORTDATE_x,REPORTTIMETYPE_x,KCFJCXSYJLR,Year,Month,managesituationChangeRate,managesituationGreatChange,historyprofitextroplaterate,ifhistoryprofitextroplate,IfprofitdisStableChangeRage,IfprofitdisStable,predicttype,predict,analyst_prediction,adj_prediction
0,300793,3482966.56,5184971.2700000005,2015-12-31,年度报告,15302771.27,2015,12,未知,未知,未知,未知,未知,未知,未知,未知,未知,未知
1,300793,28591048.53999999,29977261.500000004,2016-12-31,年度报告,27123755.46,2016,12,0.0,True,未知,未知,未知,未知,未知,未知,未知,未知
2,300793,62071079.87,61965881.69,2017-12-31,年度报告,55336483.88,2017,12,-0.8781798241807329,True,未知,未知,未知,未知,未知,未知,未知,未知
3,300793,24421576.34,24426309.83,2018-06-30,半年度报告,17984409.830000006,2018,6,未知,未知,未知,未知,未知,未知,未知,未知,未知,未知
4,300793,78804695.53999998,78805717.64999999,2018-09-30,三季度报告,,2018,9,未知,未知,未知,未知,未知,未知,未知,未知,未知,未知
5,300793,110349084.55,110385652.09,2018-12-31,年度报告,97416739.95000002,2018,12,-0.9438874502055605,True,2.870490156999397,False,0.0,True,比例外推,110385652.09,未知,110385652.09
6,300793,1918763.97,1919354.0,2019-03-31,一季度报告,1374587.2999999998,2019,3,未知,未知,未知,未知,未知,未知,未知,未知,未知,未知
7,300793,36393453.73,36399876.72999999,2019-06-30,半年度报告,35754082.55,2019,6,-0.8573815829285655,True,未知,未知,未知,未知,未知,未知,未知,未知
8,300793,97639569.75,97645992.75,2019-09-30,三季度报告,104247257.7,2019,9,-0.9558025503920372,True,未知,未知,未知,未知,未知,未知,143510000.0,未知
9,300793,120748033.86,120754456.86,2019-12-31,年度报告,121294729.78,2019,12,-0.9684368332170273,True,1.4342928295477462,True,0.0,True,比例外推,120754456.86,未知,120754456.86
10,300793,-7471156.7,-7471156.7,2020-03-31,一季度报告,-7961899.3999999985,2020,3,0.8152136554867664,False,未知,未知,未知,未知,未知,未知,,未知
