,SECURITYCODE_x,NETPROFIT_x,PARENTNETPROFIT_x,REPORTDATE_x,REPORTTIMETYPE_x,KCFJCXSYJLR,Year,Month,managesituationChangeRate,managesituationGreatChange,historyprofitextroplaterate,ifhistoryprofitextroplate,IfprofitdisStableChangeRage,IfprofitdisStable,predicttype,predict,analyst_prediction,adj_prediction
0,300705,36256055.74,36256055.74,2013-12-31,年度报告,32183626.69000001,2013,12,未知,未知,未知,未知,未知,未知,未知,未知,未知,未知
1,300705,36256055.74,36256055.74,2013-12-31,年度报告,32152461.08,2013,12,未知,未知,未知,未知,未知,未知,未知,未知,未知,未知
2,300705,24151512.88000001,24151512.88000001,2014-06-30,半年度报告,22417066.56,2014,6,未知,未知,未知,未知,未知,未知,未知,未知,未知,未知
3,300705,41231159.25000001,41237039.55,2014-12-31,年度报告,34156929.01,2014,12,0.0,True,未知,未知,未知,未知,未知,未知,未知,未知
4,300705,23339531.69,23339531.69,2015-06-30,半年度报告,21309955.61,2015,6,0.5011919095976727,False,未知,未知,未知,未知,未知,未知,未知,未知
5,300705,44642785.89999999,44642785.89999999,2015-12-31,年度报告,41214099.05,2015,12,-0.12066368252791738,True,未知,未知,未知,未知,未知,未知,未知,未知
6,300705,6715231.69,6715231.69,2016-03-31,一季度报告,6209331.69,2016,3,未知,未知,未知,未知,未知,未知,未知,未知,未知,未知
7,300705,16881427.240000002,16881427.240000002,2016-06-30,半年度报告,16111799.22,2016,6,0.5534183042556156,False,未知,未知,未知,未知,未知,未知,未知,未知
8,300705,28382559.8,28382559.8,2016-09-30,三季度报告,,2016,9,未知,未知,未知,未知,0.0,True,未知,未知,未知,未知
9,300705,54527281.40000001,54527281.40000001,2016-12-31,年度报告,52966583.47000002,2016,12,-0.18786305538337808,True,0.15226198039925154,True,未知,未知,未知,未知,未知,未知
10,300705,10146038.92,10146038.92,2017-03-31,一季度报告,9427174.840000002,2017,3,4.399077412919464,False,未知,未知,0.1883250995785924,False,未知,未知,未知,未知
11,300705,24586756.93,24586756.93,2017-06-30,半年度报告,23403267.24,2017,6,1.147689009024808,False,0.2890690279462093,True,未知,未知,前期平均,40408759.875,未知,40408759.875
12,300705,46352387.3,46352387.3,2017-09-30,三季度报告,43958316.95000001,2017,9,0.2774061252924763,True,未知,未知,0.0,True,未知,未知,69450000.0,未知
13,300705,68573377.75,68573377.75,2017-12-31,年度报告,63944141.31,2017,12,-0.3350841118589126,True,0.2699377280211053,True,未知,未知,True,True,,True
14,300705,12793394.77,12793394.77,2018-03-31,一季度报告,12589341.190000005,2018,3,2.573419738074492,False,未知,未知,0.12130883028657069,False,未知,未知,未知,未知
15,300705,27915632.39,27915632.39,2018-06-30,半年度报告,26740784.739999995,2018,6,0.4746172438773934,True,0.22258432340165965,True,未知,未知,True,True,未知,True
16,300705,44420556.34,44420556.34,2018-09-30,三季度报告,41962970.63,2018,9,-0.21781686226115898,True,未知,未知,0.0,True,未知,未知,未知,未知
17,300705,71985020.51,71985020.51,2018-12-31,年度报告,67398623.85,2018,12,-0.4712808829079445,True,0.3829450683452343,True,0.03630639523492166,True,比例外推,71985020.51,未知,71985020.51
18,300705,10416498.69,10416498.69,2019-03-31,一季度报告,8972799.71,2019,3,1.8339667767478736,False,0.5174888139702302,True,0.05145837755025379,True,前期平均,61053607.81500001,未知,61053607.81500001
19,300705,28520688.80999999,28520688.80999999,2019-06-30,半年度报告,27023622.13,2019,6,0.2987725025705571,True,0.34636386659994906,True,,False,平均增速,72049295.15999138,未知,72049295.15999138
20,300705,37856983.33,37856983.33,2019-09-30,三季度报告,36025442.879999995,2019,9,-0.18380005278430064,True,0.18874925489844915,True,0.0,True,比例外推,,未知,
21,300705,55065853.68999999,55065853.68999999,2019-12-31,年度报告,46394576.77,2019,12,-0.4963388843521495,True,0.16953103268578237,True,0.02844487936321413,True,比例外推,55065853.68999999,未知,55065853.68999999
22,300705,7110935.41,7110935.41,2020-03-31,一季度报告,5267419.58,2020,3,2.4806374789646335,False,0.09182599441930682,True,未知,未知,前期平均,61774059.974999994,未知,61774059.974999994
