,SECURITYCODE_x,NETPROFIT_x,PARENTNETPROFIT_x,REPORTDATE_x,REPORTTIMETYPE_x,KCFJCXSYJLR,Year,Month,managesituationChangeRate,managesituationGreatChange,historyprofitextroplaterate,ifhistoryprofitextroplate,IfprofitdisStableChangeRage,IfprofitdisStable,predicttype,predict,analyst_prediction,adj_prediction
0,300738,-331591.85000000003,-331591.85000000003,2013-12-31,年度报告,-326891.85000000003,2013,12,未知,未知,未知,未知,未知,未知,未知,未知,未知,未知
1,300738,1081429.73,1081429.73,2014-06-30,半年度报告,1081429.73,2014,6,未知,未知,未知,未知,未知,未知,未知,未知,未知,未知
2,300738,3996652.7500000005,3996652.7500000005,2014-12-31,年度报告,3870419.74,2014,12,-0.0,False,未知,未知,未知,未知,未知,未知,未知,未知
3,300738,3996652.7500000005,3996652.7500000005,2014-12-31,年度报告,3870419.74,2014,12,-0.0,False,未知,未知,未知,未知,未知,未知,未知,未知
4,300738,2704746.1,2704746.1,2014-12-31,年度报告,3870419.74,2014,12,-0.0,False,未知,未知,未知,未知,未知,未知,未知,未知
5,300738,2704746.1,2704746.1,2014-12-31,年度报告,3870419.74,2014,12,-0.0,False,未知,未知,未知,未知,未知,未知,未知,未知
6,300738,10249932.12,10249932.12,2015-06-30,半年度报告,10249932.12,2015,6,-1.306623575070384,False,未知,未知,未知,未知,未知,未知,未知,未知
7,300738,26802901.8,26802901.8,2015-12-31,年度报告,26627555.3,2015,12,-1.082967390649588,False,未知,未知,未知,未知,未知,未知,未知,未知
8,300738,23219334.07,23219334.07,2016-06-30,半年度报告,22581911.660000004,2016,6,-1.0323506386303756,False,未知,未知,未知,未知,未知,未知,未知,未知
9,300738,55569696.14,55569696.14,2016-12-31,年度报告,51535677.44,2016,12,-1.012371490686878,False,13.626169949863588,False,0.0,True,去年同期,55569696.14,未知,55569696.14
10,300738,15069101.2,15069101.2,2017-03-31,一季度报告,14370157.38,2017,3,未知,未知,未知,未知,未知,未知,未知,未知,未知,未知
11,300738,32698720.92,32698720.92,2017-06-30,半年度报告,31231125.45999999,2017,6,-1.014280850992554,False,3.0982424491192115,False,0.0880997979087833,True,去年同期,61652486.699999996,未知,61652486.699999996
12,300738,49571073.06,49571073.06,2017-09-30,三季度报告,48179900.00000001,2017,9,未知,未知,未知,未知,未知,未知,未知,未知,未知,未知
13,300738,62732697.31999999,62732697.31999999,2017-12-31,年度报告,60910600.64999998,2017,12,-1.0059671344821575,False,2.6084740154139663,False,0.0,True,去年同期,62732697.31999999,未知,62732697.31999999
14,300738,8682940.209999999,8682940.209999999,2018-03-31,一季度报告,8490388.780000001,2018,3,-1.0220047530107501,False,未知,未知,未知,未知,未知,未知,64000000.0,未知
15,300738,25279734.640000004,25279734.640000004,2018-06-30,半年度报告,17844076.21,2018,6,-1.0101408202116304,False,0.9539550544295936,True,0.06745234198065081,True,前期平均,47945429.120000005,,47945429.120000005
16,300738,40707904.89,40707904.89,2018-09-30,三季度报告,28585872.64,2018,9,-1.006689220739657,False,未知,未知,未知,未知,未知,未知,未知,未知
17,300738,57928262.24999999,57928262.24999999,2018-12-31,年度报告,40280898.7,2018,12,-1.0052857897741676,False,0.5231448051618899,True,0.0,True,前期平均,57928262.24999999,未知,57928262.24999999
18,300738,14233061.569999995,14233061.569999995,2019-03-31,一季度报告,13313112.43,2019,3,-1.0381888901662724,False,未知,未知,未知,未知,未知,未知,未知,未知
19,300738,60823356.05,60823356.05,2019-06-30,半年度报告,49893542.04000001,2019,6,-1.0131169039043364,False,0.09582925784808298,True,0.04810101440086806,True,前期平均,90139976.535,104000000.0,104000000.0
20,300738,78088312.4,78088312.4,2019-09-30,三季度报告,63345159.97,2019,9,-1.008145637828722,False,未知,未知,未知,未知,未知,未知,104433333.0,未知
21,300738,104453436.64,103792081.85,2019-12-31,年度报告,88012138.75,2019,12,-1.005724180859577,False,0.020674720844316624,True,0.0,True,前期平均,103792081.85,104500000.0,103792081.85
22,300738,65523320.08999999,64135898.41,2020-03-31,一季度报告,21951092.15,2020,3,-1.0232972961136428,False,0.1984705924272803,True,0.04805754342098584,True,前期平均,103301375.005,171355000.0,171355000.0
