,SECURITYCODE_x,NETPROFIT_x,PARENTNETPROFIT_x,REPORTDATE_x,REPORTTIMETYPE_x,KCFJCXSYJLR,Year,Month,managesituationChangeRate,managesituationGreatChange,historyprofitextroplaterate,ifhistoryprofitextroplate,IfprofitdisStableChangeRage,IfprofitdisStable,predicttype,predict,analyst_prediction,adj_prediction
0,300703,23367582.72,23367582.72,2012-12-31,年度报告,20058482.72,2012,12,未知,未知,未知,未知,未知,未知,未知,未知,未知,未知
1,300703,32925978.910000004,32927326.83,2013-12-31,年度报告,19856426.83,2013,12,0.0,True,未知,未知,未知,未知,未知,未知,未知,未知
2,300703,27836956.23000001,27848922.270000003,2014-12-31,年度报告,27200490.25,2014,12,-0.2902995296245242,True,未知,未知,未知,未知,未知,未知,未知,未知
3,300703,14528792.670000006,14551855.830000002,2015-06-30,半年度报告,10810155.83,2015,6,未知,未知,未知,未知,未知,未知,未知,未知,未知,未知
4,300703,36338462.77,36318836.35999999,2015-12-31,年度报告,30865200.77,2015,12,-0.16055539524767973,True,0.011007460747869176,True,0.0,True,比例外推,36318836.35999999,未知,36318836.35999999
5,300703,46912431.86,47650407.41,2016-09-30,三季度报告,,2016,9,未知,未知,未知,未知,未知,未知,未知,未知,未知,未知
6,300703,74586537.21,75577804.67,2016-12-31,年度报告,69037221.85000001,2016,12,-0.35694630595954635,True,0.1960733195746671,True,0.0,True,比例外推,75577804.67,未知,75577804.67
7,300703,17299126.82,17401964.8,2017-03-31,一季度报告,15644855.49,2017,3,未知,未知,未知,未知,未知,未知,未知,未知,未知,未知
8,300703,23926860.41,24106284.69,2017-06-30,半年度报告,22584080.440000005,2017,6,未知,未知,未知,未知,未知,未知,未知,未知,未知,未知
9,300703,39253303.90000001,39529759.78,2017-09-30,三季度报告,34168266.90000001,2017,9,-0.5018893330932941,True,未知,未知,未知,未知,未知,未知,未知,未知
10,300703,60082730.84,60526037.27999999,2017-12-31,年度报告,44121194.23,2017,12,-0.6867050865465429,True,1.324458129677345,True,0.0,True,比例外推,60526037.27999999,未知,60526037.27999999
11,300703,1675674.53,1763095.3200000003,2018-03-31,一季度报告,-1552411.78,2018,3,0.3507955033304969,True,未知,未知,未知,未知,未知,未知,未知,未知
12,300703,29762567.680000003,29798576.6,2018-06-30,半年度报告,23479856.36,2018,6,-0.02337447038251022,True,未知,未知,未知,未知,未知,未知,未知,未知
13,300703,63978147.84,64457276.60000002,2018-09-30,三季度报告,53574860.85,2018,9,-0.40469768405915024,True,未知,未知,未知,未知,未知,未知,未知,未知
14,300703,81855076.04999998,83255917.81,2018-12-31,年度报告,69659953.05000001,2018,12,-0.6110765540563103,True,0.08330368899405988,True,0.0,True,比例外推,83255917.81,107000000.0,107000000.0
15,300703,8704487.26,8927070.159999998,2019-03-31,一季度报告,4933527.139999999,2019,3,12.945179867357654,False,未知,未知,未知,未知,未知,未知,,未知
16,300703,48673904.72,48876424.42,2019-06-30,半年度报告,41454630.91,2019,6,-0.21486670870461685,True,未知,未知,未知,未知,未知,未知,106000000.0,未知
17,300703,95156732.45,95594821.62,2019-09-30,三季度报告,81517565.13,2019,9,-0.6347568113656727,True,0.48500206667300416,True,,False,平均增速,116750949.42941193,113000000.0,116750949.42941193
18,300703,117446252.62,117970672.96999998,2019-12-31,年度报告,92054327.43,2019,12,-0.7145249403259213,True,0.21564596340731318,True,0.0,True,比例外推,117970672.96999998,129000000.0,117970672.96999998
19,300703,-9741668.96,-9849397.19,2020-03-31,一季度报告,-15033044.030000005,2020,3,1.6845444219766712,False,0.0825213819695668,True,0.22595611748645225,False,盈利变化,91348578.07666665,,91348578.07666665
