,SECURITYCODE_x,NETPROFIT_x,PARENTNETPROFIT_x,REPORTDATE_x,REPORTTIMETYPE_x,KCFJCXSYJLR,Year,Month,managesituationChangeRate,managesituationGreatChange,historyprofitextroplaterate,ifhistoryprofitextroplate,IfprofitdisStableChangeRage,IfprofitdisStable,predicttype,predict,analyst_prediction,adj_prediction
0,300731,31174271.85,31174271.85,2013-12-31,年度报告,29818195.93,2013,12,未知,未知,未知,未知,未知,未知,未知,未知,未知,未知
1,300731,56069184.58,56069184.58,2014-12-31,年度报告,53911336.68000001,2014,12,0.0,True,未知,未知,未知,未知,未知,未知,未知,未知
2,300731,35242542.0,35358265.82,2015-12-31,年度报告,31703501.43,2015,12,-0.444003473859687,True,未知,未知,未知,未知,未知,未知,未知,未知
3,300731,27405108.92,27530508.149999995,2016-06-30,半年度报告,25973293.64,2016,6,未知,未知,未知,未知,未知,未知,未知,未知,未知,未知
4,300731,39392437.87000001,39513761.11000001,2016-09-30,三季度报告,37121511.54,2016,9,未知,未知,未知,未知,未知,未知,未知,未知,未知,未知
5,300731,53563532.09000001,54046539.13000001,2016-12-31,年度报告,50255098.39999998,2016,12,-0.11543634253170497,True,0.1920874426089036,True,0.0,True,比例外推,54046539.13000001,未知,54046539.13000001
6,300731,14799428.44,15592264.569999995,2017-03-31,一季度报告,14039621.500000002,2017,3,未知,未知,未知,未知,未知,未知,未知,未知,未知,未知
7,300731,31782525.59,33337714.6,2017-06-30,半年度报告,30782923.0,2017,6,0.1375350465127799,True,未知,未知,未知,未知,未知,未知,未知,未知
8,300731,60263692.1,64211603.62000001,2017-12-31,年度报告,58262236.88,2017,12,-0.41799447061072265,True,0.17320160501120188,True,0.0,True,比例外推,64211603.62000001,未知,64211603.62000001
9,300731,13011062.8,14036764.2,2018-03-31,一季度报告,12025198.18,2018,3,1.106451068457614,False,未知,未知,未知,未知,未知,未知,未知,未知
10,300731,26281439.28,28791429.12,2018-06-30,半年度报告,24983915.68,2018,6,-0.019137992614135683,True,未知,未知,未知,未知,未知,未知,未知,未知
11,300731,35630047.72,40553805.94,2018-09-30,三季度报告,35617085.37,2018,9,未知,未知,未知,未知,未知,未知,未知,未知,未知,未知
12,300731,35494245.45,44305300.27,2018-12-31,年度报告,38873078.24999999,2018,12,-0.4827022579653728,True,0.3571975277034792,True,0.0,True,比例外推,44305300.27,未知,44305300.27
13,300731,9263489.430000003,12533938.349999996,2019-03-31,一季度报告,10213275.5,2019,3,1.3959819677451715,False,未知,未知,未知,未知,未知,未知,未知,未知
14,300731,22050353.470000006,28890915.77,2019-06-30,半年度报告,24013321.91,2019,6,0.18617064757649757,True,0.11192804045717897,True,0.0800764852584781,True,比例外推,47558204.51638368,未知,47558204.51638368
15,300731,44473248.60000002,52398819.68999998,2019-09-30,三季度报告,19856701.820000004,2019,9,-0.12505669105514175,True,未知,未知,未知,未知,未知,未知,61530000.0,未知
16,300731,39161204.37,49408605.83,2019-12-31,年度报告,11247060.91,2019,12,-0.1217091262324609,True,0.37634874780477595,True,0.0,True,比例外推,49408605.83,未知,49408605.83
17,300731,8605992.8,8839123.900000002,2020-03-31,一季度报告,8146960.04,2020,3,2.365283901446627,False,0.3338133188617489,True,0.4219499429934765,False,前期平均,44374371.625,83950000.0,83950000.0
