,SECURITYCODE_x,NETPROFIT_x,PARENTNETPROFIT_x,REPORTDATE_x,REPORTTIMETYPE_x,KCFJCXSYJLR,Year,Month,managesituationChangeRate,managesituationGreatChange,historyprofitextroplaterate,ifhistoryprofitextroplate,IfprofitdisStableChangeRage,IfprofitdisStable,predicttype,predict,analyst_prediction,adj_prediction
0,300799,1554099.9999999998,1554099.9999999998,2013-12-31,年度报告,1530599.9999999998,2013,12,未知,未知,未知,未知,未知,未知,未知,未知,未知,未知
1,300799,7088899.999999999,7088899.999999999,2014-12-31,年度报告,7034199.999999999,2014,12,0.0,True,未知,未知,未知,未知,未知,未知,未知,未知
2,300799,16239600.0,16239600.0,2015-12-31,年度报告,18822700.0,2015,12,-0.7807699360972788,True,未知,未知,未知,未知,未知,未知,未知,未知
3,300799,11298600.0,11298600.0,2016-06-30,半年度报告,11728600.0,2016,6,未知,未知,未知,未知,未知,未知,未知,未知,未知,未知
4,300799,17637530.900000002,17637530.900000002,2016-12-31,年度报告,22983819.84,2016,12,-0.9043018300943373,True,2.757861853523083,False,0.0,True,比例外推,17637530.900000002,未知,17637530.900000002
5,300799,11746900.0,11746900.0,2017-06-30,半年度报告,11381200.0,2017,6,-0.8624519852017064,True,未知,未知,未知,未知,未知,未知,未知,未知
6,300799,48374698.73,48374698.73,2017-12-31,年度报告,47554582.32,2017,12,-0.9118867596144083,True,0.5121015838995222,True,0.0,True,比例外推,48374698.73,未知,48374698.73
7,300799,15159525.959999995,15159525.959999995,2018-09-30,三季度报告,14287244.59,2018,9,未知,未知,未知,未知,未知,未知,未知,未知,未知,未知
8,300799,64482911.06,64482911.06,2018-12-31,年度报告,63541393.47,2018,12,-0.967873701732509,True,1.8558911244753604,True,0.0,True,比例外推,64482911.06,未知,64482911.06
9,300799,67522.34999999999,67522.34999999999,2019-03-31,一季度报告,67522.34999999999,2019,3,未知,未知,未知,未知,未知,未知,未知,未知,未知,未知
10,300799,18009776.340000004,18009776.340000004,2019-06-30,半年度报告,18009776.340000004,2019,6,未知,未知,未知,未知,未知,未知,未知,未知,未知,未知
11,300799,23108890.340000004,23108890.340000004,2019-09-30,三季度报告,23108890.340000004,2019,9,-0.897483601789353,True,未知,未知,未知,未知,未知,未知,未知,未知
12,300799,88708333.17,88708333.17,2019-12-31,年度报告,87595337.59,2019,12,-0.9758990409326598,True,0.9536655986755225,True,0.0,True,比例外推,88708333.17,未知,88708333.17
13,300799,4732693.85,4732693.85,2020-03-31,一季度报告,847269.33,2020,3,22.01608282294677,False,未知,未知,未知,未知,未知,未知,未知,未知
