,SECURITYCODE_x,NETPROFIT_x,PARENTNETPROFIT_x,REPORTDATE_x,REPORTTIMETYPE_x,KCFJCXSYJLR,Year,Month,managesituationChangeRate,managesituationGreatChange,historyprofitextroplaterate,ifhistoryprofitextroplate,IfprofitdisStableChangeRage,IfprofitdisStable,predicttype,predict,analyst_prediction,adj_prediction
0,300726,79856858.86000001,79856858.86000001,2013-12-31,年度报告,79520658.86,2013,12,未知,未知,未知,未知,未知,未知,未知,未知,未知,未知
1,300726,141398528.55,141566993.04000002,2014-12-31,年度报告,141449141.78,2014,12,0.0,True,未知,未知,未知,未知,未知,未知,未知,未知
2,300726,74206527.63,74956137.87,2015-12-31,年度报告,184304594.54000005,2015,12,-0.43523557367316035,True,未知,未知,未知,未知,未知,未知,未知,未知
3,300726,56114389.58,55474257.07000001,2016-03-31,一季度报告,55406457.07,2016,3,未知,未知,未知,未知,未知,未知,未知,未知,未知,未知
4,300726,140357346.04000002,137927739.29000002,2016-09-30,三季度报告,140651955.83999997,2016,9,未知,未知,未知,未知,未知,未知,未知,未知,未知,未知
5,300726,196024287.3,196301475.09,2016-12-31,年度报告,194343044.09000003,2016,12,0.07614331798643169,True,0.3292228632382119,True,0.0,True,比例外推,196301475.09,未知,196301475.09
6,300726,34684515.120000005,35627654.93,2017-03-31,一季度报告,35396244.93,2017,3,0.4231083944368912,True,未知,未知,未知,未知,未知,未知,未知,未知
7,300726,92668812.17,95536199.57,2017-06-30,半年度报告,93284198.77,2017,6,未知,未知,未知,未知,未知,未知,未知,未知,未知,未知
8,300726,199291145.71,199838465.86000004,2017-12-31,年度报告,189445677.15,2017,12,-0.5926175273486123,True,0.8183644741276124,True,0.0,True,比例外推,199838465.86000004,未知,199838465.86000004
9,300726,41455478.69000001,42389520.08,2018-03-31,一季度报告,41047782.4,2018,3,1.3023778358646405,False,未知,未知,未知,未知,未知,未知,未知,未知
10,300726,129836475.1,129403998.43999998,2018-06-30,半年度报告,126879169.44,2018,6,-0.13825528794408834,True,未知,未知,未知,未知,未知,未知,未知,未知
11,300726,175617363.76000002,177880028.34,2018-09-30,三季度报告,174034499.59,2018,9,未知,未知,未知,未知,未知,未知,未知,未知,251000000.0,未知
12,300726,218981003.42,222991632.02,2018-12-31,年度报告,215291259.06,2018,12,-0.5992955001814064,True,0.47496980136498457,True,0.0,True,比例外推,222991632.02,未知,222991632.02
13,300726,57114207.63999999,55135199.25999999,2019-03-31,一季度报告,52008629.03999999,2019,3,0.9263282293074394,False,0.08687271444586024,True,0.06422985741930276,True,前期平均,201628208.88000003,251500000.0,251500000.0
14,300726,185198239.32999995,180728130.41,2019-06-30,半年度报告,137418175.69,2019,6,-0.38494279979108875,True,未知,未知,未知,未知,未知,未知,267850000.0,未知
15,300726,248854622.43,240324655.24,2019-09-30,三季度报告,197676787.53,2019,9,-0.5452792528583166,True,未知,未知,未知,未知,未知,未知,292000000.0,未知
16,300726,309064151.26000005,292990202.73,2019-12-31,年度报告,242886873.58000004,2019,12,-0.6353251760983276,True,0.10787986066033801,True,0.0,True,比例外推,292990202.73,286000000.0,292990202.73
17,300726,38635515.43000001,41206824.82,2020-03-31,一季度报告,40487497.97000001,2020,3,0.39819603842445994,True,0.5002419827488552,True,0.016917055580836754,True,比例外推,206020866.31820816,358698000.0,358698000.0
