,SECURITYCODE_x,NETPROFIT_x,PARENTNETPROFIT_x,REPORTDATE_x,REPORTTIMETYPE_x,KCFJCXSYJLR,Year,Month,managesituationChangeRate,managesituationGreatChange,historyprofitextroplaterate,ifhistoryprofitextroplate,IfprofitdisStableChangeRage,IfprofitdisStable,predicttype,predict,analyst_prediction,adj_prediction
0,300746,54778289.31000001,54176065.10000001,2012-12-31,年度报告,52834065.1,2012,12,未知,未知,未知,未知,未知,未知,未知,未知,未知,未知
1,300746,59143699.88999999,58700261.51000001,2013-12-31,年度报告,56913461.51000001,2013,12,0.0,True,未知,未知,未知,未知,未知,未知,未知,未知
2,300746,53970164.26,53621910.75999999,2014-12-31,年度报告,48222310.76,2014,12,-0.07381023825224174,True,未知,未知,未知,未知,未知,未知,未知,未知
3,300746,48344314.55000002,48174045.17,2015-12-31,年度报告,42365245.17000001,2015,12,0.014973551796264478,True,0.05250663828822967,True,0.0,True,比例外推,48174045.17,未知,48174045.17
4,300746,48359655.28999999,47683785.2,2016-12-31,年度报告,43124478.78000001,2016,12,0.13308648224489072,True,0.14520974217818686,True,0.0,True,比例外推,47683785.2,未知,47683785.2
5,300746,7599498.55,7350277.0299999975,2017-03-31,一季度报告,7087595.3500000015,2017,3,未知,未知,未知,未知,未知,未知,未知,未知,未知,未知
6,300746,22062632.060000006,21747110.25,2017-06-30,半年度报告,19523811.82,2017,6,未知,未知,未知,未知,未知,未知,未知,未知,未知,未知
7,300746,36618267.47999999,36517788.36,2017-09-30,三季度报告,,2017,9,未知,未知,未知,未知,未知,未知,未知,未知,未知,未知
8,300746,61454455.45000001,60485334.57999999,2017-12-31,年度报告,55126855.99,2017,12,0.13272704243876796,True,0.054685986725206026,True,0.0,True,比例外推,60485334.57999999,未知,60485334.57999999
9,300746,12054092.84,11820958.3,2018-03-31,一季度报告,11614710.179999998,2018,3,6.20814524137254,False,未知,未知,未知,未知,未知,未知,未知,未知
10,300746,31645207.32,31556676.3,2018-06-30,半年度报告,27584033.52,2018,6,1.482853775607043,False,未知,未知,未知,未知,未知,未知,未知,未知
11,300746,44187348.39000001,44069634.14000001,2018-09-30,三季度报告,37675582.55,2018,9,0.4959279365119768,True,未知,未知,未知,未知,未知,未知,未知,未知
12,300746,75871928.44,75654061.05000001,2018-12-31,年度报告,59244673.26000001,2018,12,-0.10863599866134685,True,0.2709810269770412,True,0.0,True,比例外推,75654061.05000001,未知,75654061.05000001
13,300746,13648287.53,13885852.81,2019-03-31,一季度报告,9507407.11,2019,3,3.5443726074703115,False,未知,未知,未知,未知,未知,未知,84000000.0,未知
14,300746,33614631.27,34152903.33,2019-06-30,半年度报告,22858009.27,2019,6,0.7310137600324627,False,未知,未知,未知,未知,未知,未知,,未知
15,300746,46449554.33000001,47103070.15,2019-09-30,三季度报告,32685768.75,2019,9,0.239682653652891,True,未知,未知,未知,未知,未知,未知,未知,未知
16,300746,92691201.03,92206402.71,2019-12-31,年度报告,42468421.88000001,2019,12,-0.27801638318289185,True,0.381824756922855,True,0.0,True,比例外推,92206402.71,未知,92206402.71
17,300746,20496866.58,18929447.74,2020-03-31,一季度报告,12802143.05,2020,3,3.013565012430538,False,0.388884836279279,True,0.05425962176061094,True,前期平均,66764059.60000001,未知,66764059.60000001
