,SECURITYCODE_x,NETPROFIT_x,PARENTNETPROFIT_x,REPORTDATE_x,REPORTTIMETYPE_x,KCFJCXSYJLR,Year,Month,managesituationChangeRate,managesituationGreatChange,historyprofitextroplaterate,ifhistoryprofitextroplate,IfprofitdisStableChangeRage,IfprofitdisStable,predicttype,predict,analyst_prediction,adj_prediction
0,300782,-165811.82000000007,-165811.82000000007,2014-12-31,年度报告,7068088.18,2014,12,未知,未知,未知,未知,未知,未知,未知,未知,未知,未知
1,300782,11252189.929999998,11252189.929999998,2015-12-31,年度报告,19912489.93,2015,12,-0.0,False,未知,未知,未知,未知,未知,未知,未知,未知
2,300782,84159408.32999998,84159408.32999998,2016-12-31,年度报告,115759768.84999996,2016,12,-1.014735959935934,False,未知,未知,未知,未知,未知,未知,未知,未知
3,300782,143636789.40999997,143819140.57,2017-09-30,三季度报告,143768440.57,2017,9,未知,未知,未知,未知,未知,未知,未知,未知,未知,未知
4,300782,169446088.86,169888388.63000005,2017-12-31,年度报告,170000278.84,2017,12,-1.001970211332164,False,14.182489266550915,False,0.0,True,未知,未知,未知,未知
5,300782,23925641.7,24148075.33,2018-03-31,一季度报告,24063200.33,2018,3,未知,未知,未知,未知,未知,未知,未知,未知,未知,未知
6,300782,68804711.80000001,69618077.53999999,2018-06-30,半年度报告,66685471.65,2018,6,未知,未知,未知,未知,未知,未知,未知,未知,未知,未知
7,300782,135931341.88000005,137287018.52,2018-09-30,三季度报告,,2018,9,-1.0011543826667324,False,未知,未知,未知,未知,未知,未知,未知,未知
8,300782,160375944.55,162332924.2,2018-12-31,年度报告,153473137.1,2018,12,-1.000978552064055,False,2.551897084843992,False,0.0,True,去年同期,162332924.2,未知,162332924.2
9,300782,41203099.76000001,41772809.92,2019-03-31,一季度报告,39692575.69000001,2019,3,-1.006930297714857,False,未知,未知,未知,未知,未知,未知,未知,未知
10,300782,151648614.87,152825244.29999998,2019-06-30,半年度报告,148787662.67000002,2019,6,-1.0024098904807852,False,未知,未知,未知,未知,未知,未知,344566875.0,未知
11,300782,320893780.2499999,322665213.95,2019-09-30,三季度报告,317276262.47,2019,9,-1.0012198203718636,False,未知,未知,未知,未知,未知,未知,458535882.0,未知
12,300782,494456758.23,497169961.2500001,2019-12-31,年度报告,486484890.2799999,2019,12,-1.0010338945810435,False,0.26476709950689387,True,0.0,True,前期平均,497169961.2500001,464712353.0,497169961.2500001
13,300782,151248524.87,151806101.18,2020-03-31,一季度报告,148180493.03000003,2020,3,-1.0040242559653478,False,未知,未知,未知,未知,未知,未知,791212500.0,未知
