,SECURITYCODE_x,NETPROFIT_x,PARENTNETPROFIT_x,REPORTDATE_x,REPORTTIMETYPE_x,KCFJCXSYJLR,Year,Month,managesituationChangeRate,managesituationGreatChange,historyprofitextroplaterate,ifhistoryprofitextroplate,IfprofitdisStableChangeRage,IfprofitdisStable,predicttype,predict,analyst_prediction,adj_prediction
0,300720,41435906.83,41644727.26,2013-12-31,年度报告,39068427.26000001,2013,12,未知,未知,未知,未知,未知,未知,未知,未知,未知,未知
1,300720,31426351.27000001,31466902.76999999,2014-12-31,年度报告,29411955.39,2014,12,0.0,True,未知,未知,未知,未知,未知,未知,未知,未知
2,300720,31494078.48,31828196.69,2015-12-31,年度报告,30167876.33,2015,12,0.3185083586065314,True,未知,未知,未知,未知,未知,未知,未知,未知
3,300720,18918315.51,18918315.51,2016-09-30,三季度报告,19438285.58,2016,9,未知,未知,未知,未知,未知,未知,未知,未知,未知,未知
4,300720,37882244.69000001,37882244.69000001,2016-12-31,年度报告,37013914.19,2016,12,0.31567294011518565,True,0.13551736382433097,True,0.0,True,比例外推,37882244.69000001,未知,37882244.69000001
5,300720,4679466.399999999,4679466.399999999,2017-03-31,一季度报告,3851183.5800000005,2017,3,未知,未知,未知,未知,未知,未知,未知,未知,未知,未知
6,300720,14004845.45,14004845.45,2017-06-30,半年度报告,12927555.19,2017,6,未知,未知,未知,未知,未知,未知,未知,未知,未知,未知
7,300720,38146038.22000001,38146038.22000001,2017-12-31,年度报告,35854884.73,2017,12,0.09380811958426702,True,0.20413178487548406,True,0.0,True,比例外推,38146038.22000001,未知,38146038.22000001
8,300720,5830677.9300000025,5830677.9300000025,2018-03-31,一季度报告,4488556.249999999,2018,3,7.8548358483779275,False,未知,未知,未知,未知,未知,未知,未知,未知
9,300720,15576378.169999998,15576378.169999998,2018-06-30,半年度报告,12261570.599999996,2018,6,1.958683619746764,False,未知,未知,未知,未知,未知,未知,未知,未知
10,300720,29425368.0,29425368.0,2018-09-30,三季度报告,24750927.98000001,2018,9,未知,未知,未知,未知,未知,未知,未知,未知,未知,未知
11,300720,46640869.12000001,46640869.12000001,2018-12-31,年度报告,40354891.19,2018,12,0.0862440442969803,True,0.09968463236446852,True,0.0,True,比例外推,46640869.12000001,,46640869.12000001
12,300720,5623003.04,5623003.04,2019-03-31,一季度报告,4840093.71,2019,3,6.106533292947632,False,未知,未知,未知,未知,未知,未知,未知,未知
13,300720,16942885.240000002,16942885.240000002,2019-06-30,半年度报告,15325564.49,2019,6,1.6601759650266634,False,未知,未知,未知,未知,未知,未知,未知,未知
14,300720,31065315.61,31065315.61,2019-09-30,三季度报告,27294831.56,2019,9,0.4081695369111441,True,未知,未知,未知,未知,未知,未知,未知,未知
15,300720,44351971.81,44351971.81,2019-12-31,年度报告,39063971.83,2019,12,-0.11159659732344225,True,0.22693469679466674,True,0.0,True,比例外推,44351971.81,未知,44351971.81
16,300720,7311746.989999997,7311746.989999997,2020-03-31,一季度报告,7111218.3900000015,2020,3,6.3689995426358506,False,0.07001442862202807,True,0.00972203401739545,True,前期平均,41246765.03499999,未知,41246765.03499999
