,SECURITYCODE_x,NETPROFIT_x,PARENTNETPROFIT_x,REPORTDATE_x,REPORTTIMETYPE_x,KCFJCXSYJLR,Year,Month,managesituationChangeRate,managesituationGreatChange,historyprofitextroplaterate,ifhistoryprofitextroplate,IfprofitdisStableChangeRage,IfprofitdisStable,predicttype,predict,analyst_prediction,adj_prediction
0,300797,47449973.34,47487838.1,2015-12-31,年度报告,42604667.8,2015,12,未知,未知,未知,未知,未知,未知,未知,未知,未知,未知
1,300797,44655257.2,44667016.79000001,2016-12-31,年度报告,29448976.870000005,2016,12,0.0,True,未知,未知,未知,未知,未知,未知,未知,未知
2,300797,42054640.03,42049929.83,2017-12-31,年度报告,22927725.06,2017,12,0.06258425805237552,True,未知,未知,未知,未知,未知,未知,未知,未知
3,300797,16993598.000000004,17014650.24,2018-06-30,半年度报告,15580140.299999995,2018,6,未知,未知,未知,未知,未知,未知,未知,未知,未知,未知
4,300797,35009401.779999994,35074674.29,2018-09-30,三季度报告,27360875.89,2018,9,未知,未知,未知,未知,未知,未知,未知,未知,未知,未知
5,300797,64248446.66,64227499.81,2018-12-31,年度报告,48594706.96,2018,12,0.12829341319177145,True,0.08681320738378126,True,0.0,True,比例外推,64227499.81,未知,64227499.81
6,300797,13964289.13,13976131.73,2019-03-31,一季度报告,11773354.12,2019,3,未知,未知,未知,未知,未知,未知,未知,未知,未知,未知
7,300797,29467651.559999995,29507178.84,2019-06-30,半年度报告,24045547.01,2019,6,1.7922264219737334,False,未知,未知,未知,未知,未知,未知,未知,未知
8,300797,51738385.60999999,51782521.17,2019-09-30,三季度报告,41704794.74,2019,9,0.3553494469336234,True,未知,未知,未知,未知,未知,未知,未知,未知
9,300797,69097172.17999999,69135770.25,2019-12-31,年度报告,46835929.23,2019,12,-0.26146115888056853,True,0.4819172600234898,True,0.0,True,比例外推,69135770.25,未知,69135770.25
10,300797,-3479174.2800000007,-3473000.9900000007,2020-03-31,一季度报告,-13185751.46,2020,3,2.3979512238873273,False,未知,未知,未知,未知,未知,未知,未知,未知
