,SECURITYCODE_x,NETPROFIT_x,PARENTNETPROFIT_x,REPORTDATE_x,REPORTTIMETYPE_x,KCFJCXSYJLR,Year,Month,managesituationChangeRate,managesituationGreatChange,historyprofitextroplaterate,ifhistoryprofitextroplate,IfprofitdisStableChangeRage,IfprofitdisStable,predicttype,predict,analyst_prediction,adj_prediction
0,300756,17602116.089999996,17602116.089999996,2012-12-31,年度报告,17631385.09,2012,12,未知,未知,未知,未知,未知,未知,未知,未知,未知,未知
1,300756,36777837.29,36780230.98,2013-12-31,年度报告,36216307.58000001,2013,12,0.0,True,未知,未知,未知,未知,未知,未知,未知,未知
2,300756,67127359.60999998,67127359.60999998,2014-12-31,年度报告,66546774.42,2014,12,-0.5213933883277562,True,未知,未知,未知,未知,未知,未知,未知,未知
3,300756,100014846.03,100014846.03,2015-12-31,年度报告,86322342.15999998,2015,12,-0.7377803001299964,True,1.4688274056037813,True,0.0,True,比例外推,100014846.03,未知,100014846.03
4,300756,56104008.03,56104008.03,2016-06-30,半年度报告,55696648.62,2016,6,未知,未知,未知,未知,未知,未知,未知,未知,未知,未知
5,300756,88202827.33999999,88202827.33999999,2016-12-31,年度报告,83356884.21,2016,12,-0.8240049673753419,True,0.9251172994986168,True,0.0,True,比例外推,88202827.33999999,未知,88202827.33999999
6,300756,12646611.98,12646611.98,2017-03-31,一季度报告,12517885.569999995,2017,3,未知,未知,未知,未知,未知,未知,未知,未知,未知,未知
7,300756,88836362.6,88836362.6,2017-09-30,三季度报告,,2017,9,未知,未知,未知,未知,未知,未知,未知,未知,未知,未知
8,300756,102317177.44,102317177.44,2017-12-31,年度报告,100888953.5,2017,12,-0.8004359200170738,True,0.05542256071427054,True,0.0,True,比例外推,102317177.44,未知,102317177.44
9,300756,31527095.89,31527095.89,2018-03-31,一季度报告,29482285.76,2018,3,0.3918444021083974,True,未知,未知,未知,未知,未知,未知,未知,未知
10,300756,61571500.12000001,61571500.12000001,2018-06-30,半年度报告,59183515.23,2018,6,未知,未知,未知,未知,未知,未知,未知,未知,未知,未知
11,300756,98043804.3,98043804.3,2018-12-31,年度报告,93442007.82000002,2018,12,-0.8279651908857426,True,0.08722178537255601,True,0.0,True,比例外推,98043804.3,108000000.0,98043804.3
12,300756,13616139.88,13616139.88,2019-03-31,一季度报告,13830244.990000002,2019,3,-0.44168292089398675,True,未知,未知,未知,未知,未知,未知,111750000.0,未知
13,300756,64532608.26000001,64532608.26000001,2019-06-30,半年度报告,60289588.49,2019,6,-0.7141190964050854,True,未知,未知,未知,未知,未知,未知,112000000.0,未知
14,300756,77517808.22,77517808.22,2019-09-30,三季度报告,68913654.40999998,2019,9,未知,未知,未知,未知,未知,未知,未知,未知,,未知
15,300756,109504729.62,109504729.62,2019-12-31,年度报告,89688677.42000002,2019,12,-0.8204668187278817,True,0.029223197986107164,True,0.0,True,比例外推,109504729.62,121400000.0,109504729.62
16,300756,-22581599.27,-22581599.27,2020-03-31,一季度报告,-26029747.599999994,2020,3,0.29273907620872613,True,0.38351836254854105,True,0.1175832797620496,False,平均增速,-58200132.44481887,56122990.0,56122990.0
