,SECURITYCODE_x,NETPROFIT_x,PARENTNETPROFIT_x,REPORTDATE_x,REPORTTIMETYPE_x,KCFJCXSYJLR,Year,Month,managesituationChangeRate,managesituationGreatChange,historyprofitextroplaterate,ifhistoryprofitextroplate,IfprofitdisStableChangeRage,IfprofitdisStable,predicttype,predict,analyst_prediction,adj_prediction
0,300766,-7589893.509999998,-7589893.509999998,2014-12-31,年度报告,-9171093.51,2014,12,未知,未知,未知,未知,未知,未知,未知,未知,未知,未知
1,300766,10811162.34,10811162.34,2015-12-31,年度报告,5650862.339999999,2015,12,-0.0,False,未知,未知,未知,未知,未知,未知,未知,未知
2,300766,34300300.92999999,34303985.42000001,2016-12-31,年度报告,30344035.14,2016,12,-1.7020423217509466,False,未知,未知,未知,未知,未知,未知,未知,未知
3,300766,32942545.63000001,32946445.93,2017-06-30,半年度报告,27616545.93,2017,6,未知,未知,未知,未知,未知,未知,未知,未知,未知,未知
4,300766,146847968.52999997,146848394.98999998,2017-12-31,年度报告,129178226.52,2017,12,-1.2212777527955059,False,20.29614306670578,False,0.0,True,未知,未知,未知,未知
5,300766,66824470.45,66764722.77,2018-03-31,一季度报告,63914380.3,2018,3,未知,未知,未知,未知,未知,未知,未知,未知,未知,未知
6,300766,125242277.82,124922305.79,2018-06-30,半年度报告,115718950.04,2018,6,-1.2303979053485186,False,未知,未知,未知,未知,未知,未知,未知,未知
7,300766,190757972.86,189877939.07999995,2018-09-30,三季度报告,,2018,9,未知,未知,未知,未知,未知,未知,未知,未知,未知,未知
8,300766,250511572.66,248786599.32,2018-12-31,年度报告,227690583.74,2018,12,-1.0516853830936683,False,5.510450244147002,False,0.0,True,去年同期,248786599.32,未知,248786599.32
9,300766,60920474.9,60327608.94000001,2019-03-31,一季度报告,56217867.44000001,2019,3,-1.1135795534014592,False,未知,未知,未知,未知,未知,未知,337015000.0,未知
10,300766,93432565.06,91474964.2,2019-06-30,半年度报告,79426187.08,2019,6,-1.0606016885201361,False,未知,未知,未知,未知,未知,未知,201000000.0,未知
11,300766,121261797.03000002,117740742.99,2019-09-30,三季度报告,98611686.53,2019,9,-1.039788080132149,False,未知,未知,未知,未知,未知,未知,156000000.0,未知
12,300766,115353719.90000002,108983846.57,2019-12-31,年度报告,101664117.99,2019,12,-1.0302975763930122,False,1.765818005402656,True,0.0,True,前期平均,108983846.57,未知,108983846.57
13,300766,34911688.2,33612750.800000004,2020-03-31,一季度报告,27120926.9,2020,3,-1.1245869064950444,False,未知,未知,未知,未知,未知,未知,205666667.00000003,未知
