,SECURITYCODE_x,NETPROFIT_x,PARENTNETPROFIT_x,REPORTDATE_x,REPORTTIMETYPE_x,KCFJCXSYJLR,Year,Month,managesituationChangeRate,managesituationGreatChange,historyprofitextroplaterate,ifhistoryprofitextroplate,IfprofitdisStableChangeRage,IfprofitdisStable,predicttype,predict,analyst_prediction,adj_prediction
0,300761,72285123.3,72469600.58,2012-12-31,年度报告,65124099.60000001,2012,12,未知,未知,未知,未知,未知,未知,未知,未知,未知,未知
1,300761,-238284524.19,-236957438.74,2013-12-31,年度报告,-248199393.77,2013,12,0.0,True,未知,未知,未知,未知,未知,未知,未知,未知
2,300761,351262324.06,351644399.37,2014-12-31,年度报告,404360412.42,2014,12,-1.3033563490777198,False,未知,未知,未知,未知,未知,未知,未知,未知
3,300761,356317388.46,356317388.46,2015-09-30,三季度报告,381165942.85000014,2015,9,未知,未知,未知,未知,未知,未知,未知,未知,未知,未知
4,300761,437787520.01,437787520.01,2015-12-31,年度报告,462930193.52,2015,12,-0.7942132749550083,True,-5.232091467519995,True,0.0,True,比例外推,437787520.01,未知,437787520.01
5,300761,522205133.2800001,522205133.2800001,2016-12-31,年度报告,487534102.27,2016,12,-0.8348853724785282,True,6.749974251822009,False,0.0,True,比例外推,522205133.2800001,未知,522205133.2800001
6,300761,790536957.3,790536957.3,2017-12-31,年度报告,738385728.5400003,2017,12,-0.8615771491061893,True,0.32363028065860205,True,0.0,True,比例外推,790536957.3,未知,790536957.3
7,300761,390186045.77,390186045.77,2018-03-31,一季度报告,373446022.95000017,2018,3,未知,未知,未知,未知,未知,未知,未知,未知,未知,未知
8,300761,538069996.04,538069996.04,2018-06-30,半年度报告,498441132.5,2018,6,未知,未知,未知,未知,未知,未知,未知,未知,未知,未知
9,300761,976478851.66,976478851.66,2018-09-30,三季度报告,913838763.55,2018,9,未知,未知,未知,未知,未知,未知,未知,未知,未知,未知
10,300761,1299693032.6899998,1299693032.6899998,2018-12-31,年度报告,1213739675.24,2018,12,-0.9085619936772057,True,0.6469645983034206,True,0.0,True,比例外推,1299693032.6899998,未知,1299693032.6899998
11,300761,106636533.4,106636533.4,2019-03-31,一季度报告,84613689.62,2019,3,-0.814741905602105,True,未知,未知,未知,未知,未知,未知,1439133333.0,未知
12,300761,430561882.52,430561882.52,2019-06-30,半年度报告,401696753.29,2019,6,-0.8656585131451441,True,未知,未知,未知,未知,未知,未知,1601342857.0,未知
13,300761,1270927679.26,1270927679.26,2019-09-30,三季度报告,1217940134.06,2019,9,-0.9259736929508342,True,未知,未知,未知,未知,未知,未知,1963500000.0,未知
14,300761,1964251401.9,1964251401.9,2019-12-31,年度报告,1861657773.53,2019,12,-0.9443829262126688,True,0.9801193882886245,True,0.0,True,比例外推,1964251401.9,1963500000.0,1964251401.9
15,300761,-196839706.24,-196839706.24,2020-03-31,一季度报告,-223024729.41000003,2020,3,-0.3221354727572193,True,未知,未知,未知,未知,未知,未知,2341000000.0,未知
