,SECURITYCODE_x,NETPROFIT_x,PARENTNETPROFIT_x,REPORTDATE_x,REPORTTIMETYPE_x,KCFJCXSYJLR,Year,Month,managesituationChangeRate,managesituationGreatChange,historyprofitextroplaterate,ifhistoryprofitextroplate,IfprofitdisStableChangeRage,IfprofitdisStable,predicttype,predict,analyst_prediction,adj_prediction
0,300773,-126810271.28,-126754879.27,2013-12-31,年度报告,-150170879.27,2013,12,未知,未知,未知,未知,未知,未知,未知,未知,未知,未知
1,300773,-196946973.92,-196322586.42,2014-12-31,年度报告,-178623686.41999996,2014,12,-0.0,False,未知,未知,未知,未知,未知,未知,未知,未知
2,300773,123563400.39,124534848.47,2015-12-31,年度报告,112796948.47,2015,12,-0.3561197272748632,False,未知,未知,未知,未知,未知,未知,未知,未知
3,300773,211715914.87,217190461.82999992,2016-09-30,三季度报告,213823661.83,2016,9,未知,未知,未知,未知,未知,未知,未知,未知,未知,未知
4,300773,326405967.76,335012531.91,2016-12-31,年度报告,338096518.98,2016,12,-2.0262769629174335,False,-1.7633089434873905,True,0.0,True,未知,未知,未知,未知
5,300773,123141528.47,122813734.67,2017-03-31,一季度报告,,2017,3,未知,未知,未知,未知,未知,未知,未知,未知,未知,未知
6,300773,464292761.56,469643398.63,2017-12-31,年度报告,447875059.89,2017,12,-1.3885047572820148,False,-9.895886424134462,True,0.0,True,前期平均,469643398.63,未知,469643398.63
7,300773,123141528.47,122813734.67,2018-03-31,一季度报告,122813734.67,2018,3,-2.029792896479223,False,未知,未知,未知,未知,未知,未知,未知,未知
8,300773,293785064.95000005,292281405.57,2018-06-30,半年度报告,275421589.75,2018,6,未知,未知,未知,未知,未知,未知,未知,未知,未知,未知
9,300773,489318754.99000007,485442083.57,2018-09-30,三季度报告,,2018,9,未知,未知,未知,未知,未知,未知,未知,未知,未知,未知
10,300773,606382586.2100003,599491627.18,2018-12-31,年度报告,579086221.9200001,2018,12,-1.2731256693598323,False,1.0636638599151276,True,0.0,True,前期平均,599491627.18,未知,599491627.18
11,300773,163425948.63000005,159926829.57000002,2019-03-31,一季度报告,158145696.56000003,2019,3,-2.029792896479223,False,未知,未知,未知,未知,未知,未知,810000000.0,未知
12,300773,373237746.2699999,366246498.51000017,2019-06-30,半年度报告,360211559.92,2019,6,-1.4316430152825574,False,未知,未知,未知,未知,未知,未知,793333333.0,未知
13,300773,624595773.3100001,616128386.7399999,2019-09-30,三季度报告,594115745.71,2019,9,-1.2591567766140326,False,未知,未知,未知,未知,未知,未知,791250000.0,未知
14,300773,816933351.99,806342383.91,2019-12-31,年度报告,793269997.05,2019,12,-1.2091258458996768,False,0.5337892011828289,True,0.0,True,前期平均,806342383.91,791250000.0,806342383.91
15,300773,816933351.99,806342383.91,2019-12-31,年度报告,793269997.05,2019,12,-1.2091258458996768,False,0.5337892011828289,True,0.0,True,前期平均,806342383.91,791250000.0,806342383.91
16,300773,96794076.94,96794076.94,2019-12-31,年度报告,793269997.05,2019,12,-1.2091258458996768,False,0.5337892011828289,True,0.0,True,前期平均,96794076.94,791250000.0,791250000.0
17,300773,96794076.94,96794076.94,2019-12-31,年度报告,793269997.05,2019,12,-1.2091258458996768,False,0.5337892011828289,True,0.0,True,前期平均,96794076.94,791250000.0,791250000.0
18,300773,168383497.45999995,168199950.79999998,2020-03-31,一季度报告,164046761.12,2020,3,-1.7759494275116694,False,0.32713919228162114,True,,False,前期平均,,1010624286.0,
