,SECURITYCODE_x,NETPROFIT_x,PARENTNETPROFIT_x,REPORTDATE_x,REPORTTIMETYPE_x,KCFJCXSYJLR,Year,Month,managesituationChangeRate,managesituationGreatChange,historyprofitextroplaterate,ifhistoryprofitextroplate,IfprofitdisStableChangeRage,IfprofitdisStable,predicttype,predict,analyst_prediction,adj_prediction
0,300758,18175350.750000004,18175350.750000004,2014-12-31,年度报告,13971750.750000002,2014,12,未知,未知,未知,未知,未知,未知,未知,未知,未知,未知
1,300758,20725235.33,20725235.33,2015-06-30,半年度报告,20037729.67,2015,6,未知,未知,未知,未知,未知,未知,未知,未知,未知,未知
2,300758,38826023.06,38826023.06,2015-12-31,年度报告,39782618.54000001,2015,12,0.0,True,未知,未知,未知,未知,未知,未知,未知,未知
3,300758,25591553.79000001,25591553.79000001,2016-06-30,半年度报告,25228943.9,2016,6,-0.12303284085315111,True,未知,未知,未知,未知,未知,未知,未知,未知
4,300758,75669939.19,75669939.19,2016-12-31,年度报告,75072598.41,2016,12,-0.531877093826668,True,未知,未知,未知,未知,未知,未知,未知,未知
5,300758,45833883.91,45833883.91,2017-06-30,半年度报告,44874755.47,2017,6,-0.2897910420311374,True,未知,未知,未知,未知,未知,未知,未知,未知
6,300758,74882487.52000001,74882487.52000001,2017-09-30,三季度报告,73595476.88,2017,9,未知,未知,未知,未知,未知,未知,未知,未知,未知,未知
7,300758,103384465.73,103384465.73,2017-12-31,年度报告,102489333.8,2017,12,-0.7598075147865069,True,1.6550215944698823,True,0.0,True,比例外推,103384465.73,未知,103384465.73
8,300758,20468751.81,20468751.81,2018-03-31,一季度报告,20507682.12,2018,3,未知,未知,未知,未知,未知,未知,未知,未知,未知,未知
9,300758,52563783.31,52563783.31,2018-06-30,半年度报告,52336655.50000001,2018,6,-0.6034516562966962,True,0.9791477250830635,True,0.08980244290828854,True,比例外推,123122631.47668073,未知,123122631.47668073
10,300758,105376881.81,105376881.81,2018-12-31,年度报告,106770646.88000004,2018,12,-0.8241965016536725,True,0.8059058799691429,True,0.0,True,比例外推,105376881.81,未知,105376881.81
11,300758,15321163.67,15321163.67,2019-03-31,一季度报告,15198686.089999998,2019,3,-0.11204401134413848,True,未知,未知,未知,未知,未知,未知,130440000.0,未知
12,300758,58035856.9,58035856.9,2019-06-30,半年度报告,58235996.65,2019,6,-0.6542229343955493,True,0.47185050599976935,True,0.08530170974491225,True,比例外推,138008695.4062071,,138008695.4062071
13,300758,100311195.93000002,100311195.93000002,2019-09-30,三季度报告,100632933.59,2019,9,未知,未知,未知,未知,未知,未知,未知,未知,未知,未知
14,300758,108099205.23000002,108099205.23000002,2019-12-31,年度报告,133371379.79,2019,12,-0.8275205107817566,True,0.17703758091940264,True,0.0,True,比例外推,108099205.23000002,137800000.0,137800000.0
15,300758,36944618.46,36944618.46,2020-03-31,一季度报告,37419482.1,2020,3,0.18629048951345115,True,未知,未知,未知,未知,未知,未知,175000000.0,未知
