,SECURITYCODE_x,NETPROFIT_x,PARENTNETPROFIT_x,REPORTDATE_x,REPORTTIMETYPE_x,KCFJCXSYJLR,Year,Month,managesituationChangeRate,managesituationGreatChange,historyprofitextroplaterate,ifhistoryprofitextroplate,IfprofitdisStableChangeRage,IfprofitdisStable,predicttype,predict,analyst_prediction,adj_prediction
0,300767,30129776.17999999,30129776.17999999,2012-12-31,年度报告,30118276.18,2012,12,未知,未知,未知,未知,未知,未知,未知,未知,未知,未知
1,300767,44162057.14,44162057.14,2013-12-31,年度报告,40147857.13999999,2013,12,0.0,True,未知,未知,未知,未知,未知,未知,未知,未知
2,300767,52027480.08,52027480.08,2014-12-31,年度报告,49644280.08,2014,12,-0.3177451837335314,True,未知,未知,未知,未知,未知,未知,未知,未知
3,300767,13304722.47,13304722.47,2015-03-31,一季度报告,13120622.470000004,2015,3,未知,未知,未知,未知,未知,未知,未知,未知,未知,未知
4,300767,54086412.20999999,54086412.20999999,2015-12-31,年度报告,51188612.20999999,2015,12,-0.42088726700445667,True,0.40062447660700706,True,0.0,True,比例外推,54086412.20999999,未知,54086412.20999999
5,300767,68735766.77,68735766.77,2016-12-31,年度报告,66605829.82999998,2016,12,-0.4429326156259757,True,0.12457994441320994,True,0.0,True,比例外推,68735766.77,未知,68735766.77
6,300767,35222232.63999999,35222232.63999999,2017-06-30,半年度报告,32598932.640000004,2017,6,未知,未知,未知,未知,未知,未知,未知,未知,未知,未知
7,300767,65395913.92000002,65395913.92000002,2017-12-31,年度报告,62151810.80000001,2017,12,-0.5616579606827016,True,0.2955092926409891,True,0.0,True,比例外推,65395913.92000002,未知,65395913.92000002
8,300767,14922577.47,14922577.47,2018-03-31,一季度报告,14450710.009999998,2018,3,未知,未知,未知,未知,未知,未知,未知,未知,未知,未知
9,300767,54942457.2,54942457.2,2018-06-30,半年度报告,54638737.8,2018,6,-0.1445807400129649,True,未知,未知,未知,未知,未知,未知,未知,未知
10,300767,88106252.5,88106252.5,2018-09-30,三季度报告,,2018,9,未知,未知,未知,未知,未知,未知,未知,未知,未知,未知
11,300767,114434032.25999998,114434032.25999998,2018-12-31,年度报告,110064479.61999996,2018,12,-0.5392712728679305,True,0.06488770127826668,True,0.0,True,比例外推,114434032.25999998,未知,114434032.25999998
12,300767,18989305.91,18989305.91,2019-03-31,一季度报告,15848704.139999995,2019,3,1.0190731956709345,False,未知,未知,未知,未知,未知,未知,未知,未知
13,300767,43301594.360000014,43301594.360000014,2019-06-30,半年度报告,40243645.99,2019,6,-0.45161214631660146,True,未知,未知,未知,未知,未知,未知,未知,未知
14,300767,67613493.53,67613493.53,2019-09-30,三季度报告,64397092.23,2019,9,-0.6580290805127594,True,未知,未知,未知,未知,未知,未知,109000000.0,未知
15,300767,90728693.75,90728693.75,2019-12-31,年度报告,79261483.39000002,2019,12,-0.7367061565082003,True,0.7062938698945481,True,0.0,True,比例外推,90728693.75,93500000.0,90728693.75
16,300767,22285547.61,22285547.61,2020-03-31,一季度报告,22049268.66,2020,3,0.5866707463032275,False,未知,未知,未知,未知,未知,未知,142000000.0,未知
