,SECURITYCODE_x,NETPROFIT_x,PARENTNETPROFIT_x,REPORTDATE_x,REPORTTIMETYPE_x,KCFJCXSYJLR,Year,Month,managesituationChangeRate,managesituationGreatChange,historyprofitextroplaterate,ifhistoryprofitextroplate,IfprofitdisStableChangeRage,IfprofitdisStable,predicttype,predict,analyst_prediction,adj_prediction
0,300708,442576.78,442576.78,2012-12-31,年度报告,-12428823.220000004,2012,12,未知,未知,未知,未知,未知,未知,未知,未知,未知,未知
1,300708,11541657.569999995,11541657.569999995,2013-12-31,年度报告,5229357.57,2013,12,0.0,True,未知,未知,未知,未知,未知,未知,未知,未知
2,300708,57045777.74000001,57045777.74000001,2014-12-31,年度报告,34004895.37,2014,12,-0.9616539671779571,True,未知,未知,未知,未知,未知,未知,未知,未知
3,300708,2046516.26,2046516.26,2015-03-31,一季度报告,5622216.26,2015,3,未知,未知,未知,未知,未知,未知,未知,未知,未知,未知
4,300708,23417315.340000004,23417315.340000004,2015-12-31,年度报告,15157550.36,2015,12,-0.9922417258992041,True,8.520137219279267,False,0.0,True,比例外推,23417315.340000004,未知,23417315.340000004
5,300708,31655223.32,31655223.32,2016-09-30,三季度报告,15598623.32,2016,9,未知,未知,未知,未知,未知,未知,未知,未知,未知,未知
6,300708,60608450.28999998,60608450.28999998,2016-12-31,年度报告,31642456.03,2016,12,-0.9811004475289267,True,0.31715436700150895,True,0.0,True,比例外推,60608450.28999998,未知,60608450.28999998
7,300708,22504838.899999995,22504838.899999995,2017-03-31,一季度报告,17456880.77,2017,3,未知,未知,未知,未知,未知,未知,未知,未知,未知,未知
8,300708,55765337.81999999,55765337.81999999,2017-06-30,半年度报告,46382040.37,2017,6,未知,未知,未知,未知,未知,未知,未知,未知,未知,未知
9,300708,110025462.47,110025462.47,2017-12-31,年度报告,88567346.17,2017,12,-0.9926977710553173,True,0.5064906895821253,True,0.0,True,比例外推,110025462.47,未知,110025462.47
10,300708,2450959.49,2450959.49,2018-03-31,一季度报告,-1639188.5799999996,2018,3,-0.9803341502702336,True,未知,未知,未知,未知,未知,未知,未知,未知
11,300708,-12406564.15,-12406564.15,2018-06-30,半年度报告,-22969036.289999995,2018,6,-0.992063586498327,True,未知,未知,未知,未知,未知,未知,未知,未知
12,300708,-82749200.30000001,-82749200.30000001,2018-09-30,三季度报告,-97710657.40000002,2018,9,未知,未知,未知,未知,未知,未知,未知,未知,未知,未知
13,300708,20371592.85,20371592.85,2018-12-31,年度报告,-121931127.37,2018,12,-0.9959775058421529,True,1.6188505786305447,True,0.0,True,比例外推,20371592.85,未知,20371592.85
14,300708,-8405096.74,-8405096.74,2019-03-31,一季度报告,-18378109.630000006,2019,3,-0.8194271338201514,True,未知,未知,未知,未知,未知,未知,未知,未知
15,300708,7770734.439999999,7770734.439999999,2019-06-30,半年度报告,-9321651.3,2019,6,-1.0356727918099708,False,未知,未知,未知,未知,未知,未知,未知,未知
16,300708,14226578.529999996,14226578.529999996,2019-09-30,三季度报告,-17890101.52,2019,9,-1.005348411566462,False,未知,未知,未知,未知,未知,未知,未知,未知
17,300708,8144337.9,8144337.9,2019-12-31,年度报告,-59836160.23000001,2019,12,-0.9782748073133612,True,0.7612245711243456,True,0.0,True,比例外推,8144337.9,未知,8144337.9
18,300708,5244759.58,5244759.58,2020-03-31,一季度报告,-12185899.04,2020,3,-1.0526557627699593,False,1.6735987050903565,True,0.15911876726834112,False,前期平均,-19345977.115000002,99000000.0,99000000.0
