,SECURITYCODE_x,NETPROFIT_x,PARENTNETPROFIT_x,REPORTDATE_x,REPORTTIMETYPE_x,KCFJCXSYJLR,Year,Month,managesituationChangeRate,managesituationGreatChange,historyprofitextroplaterate,ifhistoryprofitextroplate,IfprofitdisStableChangeRage,IfprofitdisStable,predicttype,predict,analyst_prediction,adj_prediction
0,300753,32169337.640000004,31383815.190000005,2014-12-31,年度报告,30139015.190000005,2014,12,未知,未知,未知,未知,未知,未知,未知,未知,未知,未知
1,300753,29702617.71,28898908.21,2015-12-31,年度报告,40318949.7,2015,12,0.0,True,未知,未知,未知,未知,未知,未知,未知,未知
2,300753,49305144.99,47703318.95,2016-12-31,年度报告,45577543.34,2016,12,0.0830472234495861,True,未知,未知,未知,未知,未知,未知,未知,未知
3,300753,34199834.410000004,32829141.62,2017-09-30,三季度报告,31505185.71,2017,9,未知,未知,未知,未知,未知,未知,未知,未知,未知,未知
4,300753,60198025.39000001,57921514.33,2017-12-31,年度报告,55527932.91,2017,12,-0.3475460289889718,True,0.5937800805256107,True,0.0,True,比例外推,57921514.33,未知,57921514.33
5,300753,11896645.180000005,11847911.98,2018-03-31,一季度报告,11453944.13,2018,3,未知,未知,未知,未知,未知,未知,未知,未知,未知,未知
6,300753,33756884.28,33287292.64000001,2018-06-30,半年度报告,31503950.329999994,2018,6,未知,未知,未知,未知,未知,未知,未知,未知,未知,未知
7,300753,50559522.49000001,49577531.35000002,2018-09-30,三季度报告,46675048.88,2018,9,-0.05937153805067208,True,未知,未知,未知,未知,未知,未知,未知,未知
8,300753,71080466.62,70089798.68,2018-12-31,年度报告,66909349.89,2018,12,-0.46560809209958043,True,0.5238509061084957,True,0.0,True,比例外推,70089798.68,74000000.0,70089798.68
9,300753,15336376.79,15250873.36,2019-03-31,一季度报告,13899130.35,2019,3,1.704068008524063,False,未知,未知,未知,未知,未知,未知,,未知
10,300753,41555742.56,41212789.06,2019-06-30,半年度报告,37839767.17,2019,6,-0.047028826085723,True,未知,未知,未知,未知,未知,未知,未知,未知
11,300753,76062979.22000001,75367704.72999999,2019-09-30,三季度报告,56441747.87000001,2019,9,-0.3637333571264906,True,未知,未知,未知,未知,未知,未知,未知,未知
12,300753,102837742.07999998,102343469.8,2019-12-31,年度报告,84541753.95000002,2019,12,-0.547423657022695,True,0.29823577478780205,True,0.0,True,比例外推,102343469.8,95000000.0,102343469.8
13,300753,8872599.719999999,8872599.719999999,2020-03-31,一季度报告,3827824.95,2020,3,1.0975839391854174,False,未知,未知,未知,未知,未知,未知,115000000.0,未知
