,SECURITYCODE_x,NETPROFIT_x,PARENTNETPROFIT_x,REPORTDATE_x,REPORTTIMETYPE_x,KCFJCXSYJLR,Year,Month,managesituationChangeRate,managesituationGreatChange,historyprofitextroplaterate,ifhistoryprofitextroplate,IfprofitdisStableChangeRage,IfprofitdisStable,predicttype,predict,analyst_prediction,adj_prediction
0,300776,-112866.29,-112866.29,2013-12-31,年度报告,-1043839.1,2013,12,未知,未知,未知,未知,未知,未知,未知,未知,未知,未知
1,300776,879631.27,879631.27,2014-12-31,年度报告,-326513.56,2014,12,-0.0,False,未知,未知,未知,未知,未知,未知,未知,未知
2,300776,879631.27,879631.27,2014-12-31,年度报告,-326513.56,2014,12,-0.0,False,未知,未知,未知,未知,未知,未知,未知,未知
3,300776,1538931.6999999997,1538931.6999999997,2014-12-31,年度报告,-326513.56,2014,12,-0.0,False,未知,未知,未知,未知,未知,未知,未知,未知
4,300776,1538931.6999999997,1538931.6999999997,2014-12-31,年度报告,-326513.56,2014,12,-0.0,False,未知,未知,未知,未知,未知,未知,未知,未知
5,300776,3213106.5699999994,3213106.5699999994,2015-06-30,半年度报告,997671.66,2015,6,未知,未知,未知,未知,未知,未知,未知,未知,未知,未知
6,300776,3213106.5699999994,3213106.5699999994,2015-06-30,半年度报告,997671.66,2015,6,未知,未知,未知,未知,未知,未知,未知,未知,未知,未知
7,300776,1497672.63,1497672.63,2015-06-30,半年度报告,997671.66,2015,6,未知,未知,未知,未知,未知,未知,未知,未知,未知,未知
8,300776,1497672.63,1497672.63,2015-06-30,半年度报告,997671.66,2015,6,未知,未知,未知,未知,未知,未知,未知,未知,未知,未知
9,300776,5115359.719999999,5115359.719999999,2015-07-31,其他报告,,2015,7,未知,未知,未知,未知,未知,未知,未知,未知,未知,未知
10,300776,8847565.040000001,8847565.040000001,2015-12-31,年度报告,7758265.040000001,2015,12,-1.1283109114572518,False,未知,未知,未知,未知,未知,未知,未知,未知
11,300776,9219255.22,9219255.22,2016-06-30,半年度报告,7535915.61,2016,6,-1.0351268429917033,False,未知,未知,未知,未知,未知,未知,未知,未知
12,300776,30203486.61,30203486.61,2016-12-31,年度报告,27633862.67,2016,12,-1.012756762961304,False,22.07764509537199,False,0.0,True,去年同期,30203486.61,未知,30203486.61
13,300776,26821440.33,26821440.33,2017-06-30,半年度报告,29882293.459999993,2017,6,-1.0122424520535185,False,未知,未知,未知,未知,未知,未知,65200000.0,未知
14,300776,67127229.55999999,67127229.55999999,2017-12-31,年度报告,70377026.46000001,2017,12,-1.003736862947559,False,5.210111453996141,False,0.0,True,去年同期,67127229.55999999,未知,67127229.55999999
15,300776,42898777.29999999,42898777.29999999,2018-03-31,一季度报告,42894401.19000001,2018,3,未知,未知,未知,未知,未知,未知,未知,未知,102400000.0,未知
16,300776,76240828.83999999,76240828.83999999,2018-06-30,半年度报告,75488128.97999999,2018,6,-1.0042080622297438,False,3.3147779614286788,False,0.14930179657347892,False,去年同期,116735561.84,,116735561.84
17,300776,116423594.53,116423594.53,2018-09-30,三季度报告,,2018,9,未知,未知,未知,未知,未知,未知,未知,未知,未知,未知
18,300776,167906944.04,167906944.04,2018-12-31,年度报告,165982637.70999998,2018,12,-1.001681378640826,False,2.437921731872232,False,0.0,True,去年同期,167906944.04,未知,167906944.04
19,300776,74860541.79999998,74860541.79999998,2019-03-31,一季度报告,74860541.79999998,2019,3,-1.0026309908371211,False,未知,未知,未知,未知,未知,未知,296066667.0,未知
20,300776,148006988.22,148006988.22,2019-06-30,半年度报告,147994592.51,2019,6,-1.0014803916971688,False,3.2308189493307378,False,0.11132887254300078,False,去年同期,238501496.95,274333333.0,274333333.0
21,300776,225236599.82,225236599.82,2019-09-30,三季度报告,222178203.36,2019,9,-1.000969445158051,False,未知,未知,未知,未知,未知,未知,,未知
22,300776,305158611.98,305158611.98,2019-12-31,年度报告,295807391.5,2019,12,-1.000672195486883,False,2.450235457976699,False,0.0,True,去年同期,305158611.98,未知,305158611.98
23,300776,71658899.84,71658899.84,2020-03-31,一季度报告,71946213.13999999,2020,3,-1.0015076873248066,False,未知,未知,未知,未知,未知,未知,418000000.0,未知
