,SECURITYCODE_x,NETPROFIT_x,PARENTNETPROFIT_x,REPORTDATE_x,REPORTTIMETYPE_x,KCFJCXSYJLR,Year,Month,managesituationChangeRate,managesituationGreatChange,historyprofitextroplaterate,ifhistoryprofitextroplate,IfprofitdisStableChangeRage,IfprofitdisStable,predicttype,predict,analyst_prediction,adj_prediction
0,300742,-458642.21,-458642.21,2013-12-31,年度报告,-1229146.9200000002,2013,12,未知,未知,未知,未知,未知,未知,未知,未知,未知,未知
1,300742,3892125.48,3892125.48,2014-12-31,年度报告,3739878.13,2014,12,-0.0,False,未知,未知,未知,未知,未知,未知,未知,未知
2,300742,26351880.3,26351880.3,2015-12-31,年度报告,45063558.05,2015,12,-1.1178384952789344,False,未知,未知,未知,未知,未知,未知,未知,未知
3,300742,3432609.0700000008,3432609.0700000008,2016-06-30,半年度报告,3257909.62,2016,6,未知,未知,未知,未知,未知,未知,未知,未知,未知,未知
4,300742,81865105.35000001,81865105.35000001,2016-12-31,年度报告,78795677.12,2016,12,-1.0174045345067844,False,14.349939538222943,False,0.0,True,未知,未知,未知,未知
5,300742,-7985274.46,-7985274.46,2017-03-31,一季度报告,-8985152.319999997,2017,3,未知,未知,未知,未知,未知,未知,未知,未知,未知,未知
6,300742,33673786.24,33673786.24,2017-06-30,半年度报告,30919854.48,2017,6,-1.133613295498284,False,未知,未知,未知,未知,未知,未知,未知,未知
7,300742,24369115.37,24369115.37,2017-09-30,三季度报告,,2017,9,未知,未知,未知,未知,未知,未知,未知,未知,未知,未知
8,300742,94257068.33,94257068.33,2017-12-31,年度报告,79704422.37,2017,12,-1.005602413971608,False,4.413641694522914,False,0.0,True,去年同期,94257068.33,未知,94257068.33
9,300742,-9963962.02,-9963962.02,2018-03-31,一季度报告,-10634085.319999997,2018,3,-0.9425640017387705,False,未知,未知,未知,未知,未知,未知,108000000.0,未知
10,300742,25177871.72000001,25177871.72000001,2018-06-30,半年度报告,22535959.26,2018,6,-1.013620155652565,False,未知,未知,未知,未知,未知,未知,,未知
11,300742,-9190624.24,-9190624.24,2018-09-30,三季度报告,-14867400.41,2018,9,-1.0188206343577255,False,未知,未知,未知,未知,未知,未知,未知,未知
12,300742,21211842.35,21211842.35,2018-12-31,年度报告,-40231945.13,2018,12,-1.004865865426604,False,0.7420013644595541,True,0.0,True,前期平均,21211842.35,未知,21211842.35
13,300742,-16033138.54,-16033138.54,2019-03-31,一季度报告,-23866607.19,2019,3,-0.9539698958025533,False,未知,未知,未知,未知,未知,未知,未知,未知
14,300742,7940251.800000003,7940251.800000003,2019-06-30,半年度报告,-23823268.55,2019,6,-1.018216083356866,False,0.35706373576064876,True,0.5165265092964544,False,前期平均,70101419.495,未知,70101419.495
15,300742,-76165519.75,-76165519.75,2019-09-30,三季度报告,-110132188.76999998,2019,9,-0.9500967292293521,False,未知,未知,未知,未知,未知,未知,未知,未知
16,300742,-840642154.97,-840642154.97,2019-12-31,年度报告,-880439902.25,2019,12,-1.0216219884360964,False,0.7591235458115543,True,0.0,True,盈利变化,-258857476.69000003,未知,-258857476.69000003
17,300742,5124556.78,5124556.78,2020-03-31,一季度报告,-21672921.32,2020,3,-0.9713941092159988,False,-0.7864981118127202,True,0.20475406835911888,False,盈利变化,-837717240.4766667,未知,-837717240.4766667
