,SECURITYCODE_x,NETPROFIT_x,PARENTNETPROFIT_x,REPORTDATE_x,REPORTTIMETYPE_x,KCFJCXSYJLR,Year,Month,managesituationChangeRate,managesituationGreatChange,historyprofitextroplaterate,ifhistoryprofitextroplate,IfprofitdisStableChangeRage,IfprofitdisStable,predicttype,predict,analyst_prediction,adj_prediction
0,300747,13434022.849999998,13434022.849999998,2014-12-31,年度报告,8139922.849999999,2014,12,未知,未知,未知,未知,未知,未知,未知,未知,未知,未知
1,300747,23741103.38,24643252.96,2015-12-31,年度报告,19065719.49,2015,12,0.0,True,未知,未知,未知,未知,未知,未知,未知,未知
2,300747,88324879.56,89035380.79,2016-12-31,年度报告,87762267.37999998,2016,12,-0.4341449664333167,True,未知,未知,未知,未知,未知,未知,未知,未知
3,300747,141076200.82000002,140983315.91,2017-06-30,半年度报告,138959388.31,2017,6,未知,未知,未知,未知,未知,未知,未知,未知,未知,未知
4,300747,216652513.1,215640755.27000004,2017-09-30,三季度报告,,2017,9,未知,未知,未知,未知,未知,未知,未知,未知,未知,未知
5,300747,279592720.77,277175552.03,2017-12-31,年度报告,271573799.51,2017,12,-0.8479021662194951,True,3.7518267463862767,False,0.0,True,比例外推,277175552.03,未知,277175552.03
6,300747,114332283.48000002,112691204.46000004,2018-03-31,一季度报告,110605672.19999996,2018,3,未知,未知,未知,未知,未知,未知,未知,未知,未知,未知
7,300747,262131305.54,258095107.28000003,2018-06-30,半年度报告,252906911.82,2018,6,-0.9047747049331124,True,未知,未知,未知,未知,未知,未知,464770000.0,未知
8,300747,370915887.8000001,364296540.49,2018-09-30,三季度报告,354419964.67999995,2018,9,-0.9379927670453595,True,未知,未知,未知,未知,未知,未知,460617917.0,未知
9,300747,439932141.31,432524966.04000014,2018-12-31,年度报告,395217919.81999993,2018,12,-0.9519514570586722,True,3.9897875061640002,False,0.0,True,比例外推,432524966.04000014,461644783.0,432524966.04000014
10,300747,104159456.82999998,100427644.79999998,2019-03-31,一季度报告,79012245.87000002,2019,3,-0.8825001789424595,True,未知,未知,未知,未知,未知,未知,559963043.0,未知
11,300747,227327655.64999995,218746788.73,2019-06-30,半年度报告,173957103.88,2019,6,-0.9487507879979257,True,未知,未知,未知,未知,未知,未知,467800000.0,未知
12,300747,293166969.51,280087021.57,2019-09-30,三季度报告,222750187.07,2019,9,-0.963781484450071,True,未知,未知,未知,未知,未知,未知,389102941.0,未知
13,300747,338443907.39000005,325206412.29,2019-12-31,年度报告,243104326.60999995,2019,12,-0.9694634204038898,True,1.3914710300100201,True,0.0,True,比例外推,325206412.29,389049474.0,389049474.0
14,300747,14113894.52,10984152.39,2020-03-31,一季度报告,5022189.3900000015,2020,3,-0.8710244536708189,True,未知,未知,未知,未知,未知,未知,363418824.0,未知
