,SECURITYCODE_x,NETPROFIT_x,PARENTNETPROFIT_x,REPORTDATE_x,REPORTTIMETYPE_x,KCFJCXSYJLR,Year,Month,managesituationChangeRate,managesituationGreatChange,historyprofitextroplaterate,ifhistoryprofitextroplate,IfprofitdisStableChangeRage,IfprofitdisStable,predicttype,predict,analyst_prediction,adj_prediction
0,300812,27894303.410000004,27894303.410000004,2015-12-31,年度报告,27459686.910000004,2015,12,未知,未知,未知,未知,未知,未知,未知,未知,未知,未知
1,300812,21081883.470000006,20883200.36,2016-12-31,年度报告,20598233.09,2016,12,0.0,True,未知,未知,未知,未知,未知,未知,未知,未知
2,300812,47414094.56999999,46797260.32,2017-12-31,年度报告,44074871.75000001,2017,12,0.3231409541606766,True,未知,未知,未知,未知,未知,未知,未知,未知
3,300812,27940108.23,27309240.93,2018-06-30,半年度报告,26394823.95,2018,6,未知,未知,未知,未知,未知,未知,未知,未知,未知,未知
4,300812,76722454.75,73332093.13999999,2018-12-31,年度报告,72348725.77,2018,12,-0.41168752323598345,True,0.9362101294726186,True,0.0,True,比例外推,73332093.13999999,未知,73332093.13999999
5,300812,5242498.889999999,5028581.47,2019-03-31,一季度报告,1570220.91,2019,3,未知,未知,未知,未知,未知,未知,未知,未知,未知,未知
6,300812,50168342.29,50525807.86,2019-06-30,半年度报告,46363152.3,2019,6,-0.0016393930768963444,True,未知,未知,未知,未知,未知,未知,未知,未知
7,300812,72321715.90999998,72038301.92,2019-09-30,三季度报告,67223633.77,2019,9,未知,未知,未知,未知,未知,未知,未知,未知,未知,未知
8,300812,93751724.92999998,92617202.05,2019-12-31,年度报告,87487645.65,2019,12,-0.6364258221286904,True,1.240203204491684,True,0.0,True,比例外推,92617202.05,未知,92617202.05
9,300812,5020207.48,5534151.660000001,2020-03-31,一季度报告,4054328.41,2020,3,4.32080292152432,False,未知,未知,未知,未知,未知,未知,未知,未知
