,SECURITYCODE_x,NETPROFIT_x,PARENTNETPROFIT_x,REPORTDATE_x,REPORTTIMETYPE_x,KCFJCXSYJLR,Year,Month,managesituationChangeRate,managesituationGreatChange,historyprofitextroplaterate,ifhistoryprofitextroplate,IfprofitdisStableChangeRage,IfprofitdisStable,predicttype,predict,analyst_prediction,adj_prediction
0,300824,3033734.24,2896535.76,2013-12-31,年度报告,431725.14,2013,12,未知,未知,未知,未知,未知,未知,未知,未知,未知,未知
1,300824,4317273.94,4262407.180000002,2014-06-30,半年度报告,3831680.62,2014,6,未知,未知,未知,未知,未知,未知,未知,未知,未知,未知
2,300824,12342616.24,12042896.98,2014-12-31,年度报告,8722783.43,2014,12,0.0,True,未知,未知,未知,未知,未知,未知,未知,未知
3,300824,10874107.11,10874107.11,2015-06-30,半年度报告,9134007.92,2015,6,-0.2973032793003633,True,未知,未知,未知,未知,未知,未知,未知,未知
4,300824,10874107.11,10874107.11,2015-06-30,半年度报告,9134007.930000003,2015,6,-0.2973032793003633,True,未知,未知,未知,未知,未知,未知,未知,未知
5,300824,22672311.93,22672311.93,2015-12-31,年度报告,15938570.599999996,2015,12,-0.7542065489998577,True,未知,未知,未知,未知,未知,未知,未知,未知
6,300824,16325961.670000002,16325961.670000002,2016-06-30,半年度报告,15177787.34,2016,6,-0.7210130257766055,True,未知,未知,0.0,True,未知,未知,,未知
7,300824,52001201.57,52001201.57,2016-12-31,年度报告,47409322.72,2016,12,-0.8661921091520549,True,1.9489848009759985,True,0.12891174523886934,False,平均增速,52001201.57,38346650.0,38346650.0
8,300824,17891102.889999993,17891102.889999993,2017-06-30,半年度报告,20746508.6,2017,6,-0.8141773023040547,True,1.149371622799232,True,0.0,True,比例外推,43853714.10331549,未知,43853714.10331549
9,300824,40765839.63,40765839.63,2017-12-31,年度报告,41241655.99,2017,12,-0.9416603049851411,True,1.970230372458879,True,0.14527870333678472,False,平均增速,40765839.63,39131000.0,40765839.63
10,300824,14271925.29,14271925.29,2018-06-30,半年度报告,11501797.1,2018,6,-0.830433357929227,True,0.31551894480172654,True,0.0,True,比例外推,27482736.621570773,未知,27482736.621570773
11,300824,68016531.87,68016531.87,2018-12-31,年度报告,62825341.06,2018,12,-0.9255814606657226,True,0.09184201249617116,True,未知,未知,未知,未知,未知,未知
12,300824,15589942.94,15589942.94,2019-03-31,一季度报告,14116300.0,2019,3,未知,未知,未知,未知,0.16762518659874243,False,未知,未知,未知,未知
13,300824,30309761.41,30309761.41,2019-06-30,半年度报告,26840361.41,2019,6,-0.7874334276311223,True,0.16580072115923195,True,0.0,True,比例外推,83489025.47294495,未知,83489025.47294495
14,300824,65777700.99999999,65777700.99999999,2019-12-31,年度报告,58376160.53,2019,12,-0.9553971048421231,True,0.4663943355347632,True,未知,未知,True,True,未知,True
15,300824,21597643.570000004,21597643.570000004,2020-03-31,一季度报告,20924988.070000004,2020,3,-0.8054044038726931,True,未知,未知,未知,未知,未知,未知,未知,未知
