,SECURITYCODE_x,NETPROFIT_x,PARENTNETPROFIT_x,REPORTDATE_x,REPORTTIMETYPE_x,KCFJCXSYJLR,Year,Month,managesituationChangeRate,managesituationGreatChange,historyprofitextroplaterate,ifhistoryprofitextroplate,IfprofitdisStableChangeRage,IfprofitdisStable,predicttype,predict,analyst_prediction,adj_prediction
0,300850,42745941.40000001,42745941.40000001,2016-12-31,年度报告,37093788.73,2016,12,未知,未知,未知,未知,未知,未知,未知,未知,未知,未知
1,300850,40857589.56,40857589.56,2017-12-31,年度报告,38156505.11000001,2017,12,0.0,True,未知,未知,未知,未知,未知,未知,未知,未知
2,300850,56975783.61000001,56975783.61000001,2018-12-31,年度报告,53734897.47999999,2018,12,0.046217896364809705,True,未知,未知,未知,未知,未知,未知,未知,未知
3,300850,9401545.1,9401545.1,2019-03-31,一季度报告,7869033.04,2019,3,未知,未知,未知,未知,未知,未知,未知,未知,未知,未知
4,300850,30986759.70000001,30986759.70000001,2019-06-30,半年度报告,28717405.91,2019,6,未知,未知,未知,未知,未知,未知,未知,未知,未知,未知
5,300850,99830475.56,99830475.56,2019-12-31,年度报告,93123104.48999996,2019,12,-0.24975246163183032,True,0.3629994560220187,True,0.0,True,比例外推,99830475.56,未知,99830475.56
6,300850,27183741.97000001,27183741.97000001,2020-03-31,一季度报告,27001629.45000001,2020,3,3.5466932238616833,False,未知,未知,未知,未知,未知,未知,未知,未知
