,SECURITYCODE_x,NETPROFIT_x,PARENTNETPROFIT_x,REPORTDATE_x,REPORTTIMETYPE_x,KCFJCXSYJLR,Year,Month,managesituationChangeRate,managesituationGreatChange,historyprofitextroplaterate,ifhistoryprofitextroplate,IfprofitdisStableChangeRage,IfprofitdisStable,predicttype,predict,analyst_prediction,adj_prediction
0,300802,46730325.08000001,42427448.69000001,2015-12-31,年度报告,41179048.69000001,2015,12,未知,未知,未知,未知,未知,未知,未知,未知,未知,未知
1,300802,48879528.44000001,44463413.16,2016-12-31,年度报告,43793900.0,2016,12,0.0,True,未知,未知,未知,未知,未知,未知,未知,未知
2,300802,73816042.91999999,67380329.41,2017-12-31,年度报告,63720693.80999999,2017,12,-0.043969396362695326,True,未知,未知,未知,未知,未知,未知,未知,未知
3,300802,60335535.94,57733495.01,2018-06-30,半年度报告,57325895.01,2018,6,未知,未知,未知,未知,未知,未知,未知,未知,未知,未知
4,300802,76781088.3,71851663.26000002,2018-09-30,三季度报告,69761451.0,2018,9,未知,未知,未知,未知,未知,未知,未知,未知,未知,未知
5,300802,106087723.50000004,99155180.48000002,2018-12-31,年度报告,95859783.92,2018,12,-0.3669353810980468,True,0.5441095285133738,True,0.0,True,比例外推,99155180.48000002,未知,99155180.48000002
6,300802,21934842.96,21775489.49,2019-03-31,一季度报告,21365390.95,2019,3,未知,未知,未知,未知,未知,未知,未知,未知,未知,未知
7,300802,51246446.22000001,49166123.81,2019-06-30,半年度报告,48343272.64999998,2019,6,-0.22549250036544857,True,未知,未知,未知,未知,未知,未知,未知,未知
8,300802,69805364.54,65956244.3,2019-09-30,三季度报告,65327909.96,2019,9,-0.3913823558033624,True,未知,未知,未知,未知,未知,未知,未知,未知
9,300802,92426566.95,86448604.92999999,2019-12-31,年度报告,84289561.79,2019,12,-0.559512415402146,True,0.7292836623862973,True,0.0,True,比例外推,86448604.92999999,未知,86448604.92999999
10,300802,20076387.55,18580222.450000007,2020-03-31,一季度报告,17645112.69,2020,3,1.1304153015919294,False,未知,未知,未知,未知,未知,未知,,未知
