,SECURITYCODE_x,NETPROFIT_x,PARENTNETPROFIT_x,REPORTDATE_x,REPORTTIMETYPE_x,KCFJCXSYJLR,Year,Month,managesituationChangeRate,managesituationGreatChange,historyprofitextroplaterate,ifhistoryprofitextroplate,IfprofitdisStableChangeRage,IfprofitdisStable,predicttype,predict,analyst_prediction,adj_prediction
0,300820,21016006.74,21016006.74,2015-12-31,年度报告,14808086.680000005,2015,12,未知,未知,未知,未知,未知,未知,未知,未知,未知,未知
1,300820,34485583.39,34510423.82000001,2016-12-31,年度报告,34126676.35,2016,12,0.0,True,未知,未知,未知,未知,未知,未知,未知,未知
2,300820,72081720.74000001,72081720.74000001,2017-12-31,年度报告,69328717.69,2017,12,-0.3905857267273564,True,未知,未知,未知,未知,未知,未知,未知,未知
3,300820,70005821.68999998,70005821.68999998,2018-06-30,半年度报告,69532923.98,2018,6,未知,未知,未知,未知,未知,未知,未知,未知,未知,未知
4,300820,113250463.06000002,113250463.06000002,2018-12-31,年度报告,112360132.34,2018,12,-0.7084419388959222,True,1.5974650661779162,True,0.0,True,比例外推,113250463.06000002,未知,113250463.06000002
5,300820,25516437.770000003,25516437.770000003,2019-03-31,一季度报告,24976865.12,2019,3,未知,未知,未知,未知,未知,未知,未知,未知,未知,未知
6,300820,61809844.92,61809844.92,2019-06-30,半年度报告,61172205.79000001,2019,6,-0.6997962993268881,True,未知,未知,未知,未知,未知,未知,未知,未知
7,300820,110973575.72,110973575.72,2019-12-31,年度报告,109945101.7,2019,12,-0.8144289553247501,True,1.1254260673019805,True,0.0,True,比例外推,110973575.72,未知,110973575.72
8,300820,19580154.34,19580154.34,2020-03-31,一季度报告,20318901.49,2020,3,-0.17637379757182323,True,未知,未知,未知,未知,未知,未知,未知,未知
