,SECURITYCODE_x,NETPROFIT_x,PARENTNETPROFIT_x,REPORTDATE_x,REPORTTIMETYPE_x,KCFJCXSYJLR,Year,Month,managesituationChangeRate,managesituationGreatChange,historyprofitextroplaterate,ifhistoryprofitextroplate,IfprofitdisStableChangeRage,IfprofitdisStable,predicttype,predict,analyst_prediction,adj_prediction
0,300836,3906983.98,3643334.7500000005,2014-12-31,年度报告,3081706.51,2014,12,未知,未知,未知,未知,未知,未知,未知,未知,未知,未知
1,300836,2425577.5900000003,2482056.33,2015-06-30,半年度报告,1939327.2000000004,2015,6,未知,未知,未知,未知,未知,未知,未知,未知,未知,未知
2,300836,6642301.55,6771845.629999999,2015-12-31,年度报告,11651615.31,2015,12,0.0,True,未知,未知,未知,未知,未知,未知,未知,未知
3,300836,3035861.1400000006,3038212.2399999993,2016-06-30,半年度报告,2952726.12,2016,6,0.6107437651582193,False,未知,未知,未知,未知,未知,未知,未知,未知
4,300836,27983576.09,27853749.83,2016-12-31,年度报告,23973749.83,2016,12,-0.4118026785459627,True,未知,未知,未知,未知,未知,未知,未知,未知
5,300836,3990479.51,3787744.12,2017-06-30,半年度报告,3399652.0700000008,2017,6,0.2869442309209173,True,未知,未知,未知,未知,未知,未知,未知,未知
6,300836,36456709.28999999,36049532.56,2017-12-31,年度报告,32810504.530000005,2017,12,-0.8603829629410313,True,4.305302621759637,False,0.0,True,比例外推,36049532.56,未知,36049532.56
7,300836,21719428.0,21726058.360000007,2018-06-30,半年度报告,20993858.36,2018,6,-0.020923683429713888,True,0.46132904067203534,True,0.035368613215560785,True,比例外推,160899984.96913445,未知,160899984.96913445
8,300836,50716788.03000001,50688247.75,2018-12-31,年度报告,48131849.92999999,2018,12,-0.8928322370260752,True,1.1057493282356547,True,0.0,True,比例外推,50688247.75,未知,50688247.75
9,300836,-4334445.1,-4291519.58,2019-03-31,一季度报告,-4635608.739999998,2019,3,未知,未知,未知,未知,未知,未知,未知,未知,未知,未知
10,300836,20890420.05,20982859.01,2019-06-30,半年度报告,18941959.01,2019,6,-0.8201157056253967,True,5.182287219450426,False,0.21518938539941782,False,未知,未知,未知,未知
11,300836,63925479.25,64273194.63,2019-12-31,年度报告,60384436.50000001,2019,12,-0.9229646803009501,True,0.5740708698270515,True,0.0,True,比例外推,64273194.63,未知,64273194.63
12,300836,-553114.21,-516471.7699999999,2020-03-31,一季度报告,-593808.49,2020,3,-1.9013804281429243,False,未知,未知,未知,未知,未知,未知,未知,未知
