,SECURITYCODE_x,NETPROFIT_x,PARENTNETPROFIT_x,REPORTDATE_x,REPORTTIMETYPE_x,KCFJCXSYJLR,Year,Month,managesituationChangeRate,managesituationGreatChange,historyprofitextroplaterate,ifhistoryprofitextroplate,IfprofitdisStableChangeRage,IfprofitdisStable,predicttype,predict,analyst_prediction,adj_prediction
0,300810,17787045.71,17787045.71,2014-12-31,年度报告,15938445.71,2014,12,未知,未知,未知,未知,未知,未知,未知,未知,未知,未知
1,300810,27847347.58000001,27847347.58000001,2015-12-31,年度报告,26222547.58000001,2015,12,0.0,True,未知,未知,未知,未知,未知,未知,未知,未知
2,300810,-2969357.5500000007,-2969357.5500000007,2016-12-31,年度报告,-3483251.8799999994,2016,12,-0.3612660717900949,True,未知,未知,未知,未知,未知,未知,未知,未知
3,300810,31129198.780000005,31129198.780000005,2017-06-30,半年度报告,30296898.78,2017,6,未知,未知,未知,未知,未知,未知,未知,未知,未知,未知
4,300810,79846387.58000001,79846387.58000001,2017-12-31,年度报告,77197831.46000001,2017,12,-6.990200038388775,False,1.130136826017612,True,0.0,True,前期平均,79846387.58000001,未知,79846387.58000001
5,300810,32276962.17,32277734.70000001,2018-06-30,半年度报告,32291934.7,2018,6,-0.4286057332953946,True,未知,未知,未知,未知,未知,未知,未知,未知
6,300810,28081930.66,28355606.73,2018-09-30,三季度报告,27099233.65,2018,9,未知,未知,未知,未知,未知,未知,未知,未知,未知,未知
7,300810,84829878.61999999,85806351.05999997,2018-12-31,年度报告,84345410.26,2018,12,-0.7772341836732597,True,5.419038474065984,False,0.0,True,比例外推,85806351.05999997,未知,85806351.05999997
8,300810,23008296.289999995,23502256.770000003,2019-03-31,一季度报告,23502256.770000003,2019,3,未知,未知,未知,未知,未知,未知,未知,未知,未知,未知
9,300810,49236633.95999999,49678788.18,2019-06-30,半年度报告,49678788.18,2019,6,-0.4489244180937118,True,未知,未知,未知,未知,未知,未知,未知,未知
10,300810,51435921.84,52356605.18,2019-09-30,三季度报告,50628837.41,2019,9,-0.3666017509495552,True,未知,未知,未知,未知,未知,未知,未知,未知
11,300810,81327196.52,81814326.66000001,2019-12-31,年度报告,78541695.97,2019,12,-0.790320981246737,True,1.20689791441986,True,0.0,True,比例外推,81814326.66000001,未知,81814326.66000001
12,300810,2250730.3,2606500.5900000003,2020-03-31,一季度报告,-401585.48,2020,3,-0.22692903960339236,True,未知,未知,未知,未知,未知,未知,未知,未知
