,SECURITYCODE_x,NETPROFIT_x,PARENTNETPROFIT_x,REPORTDATE_x,REPORTTIMETYPE_x,KCFJCXSYJLR,Year,Month,managesituationChangeRate,managesituationGreatChange,historyprofitextroplaterate,ifhistoryprofitextroplate,IfprofitdisStableChangeRage,IfprofitdisStable,predicttype,predict,analyst_prediction,adj_prediction
0,300849,26850712.07,24733553.02,2014-12-31,年度报告,18729053.02,2014,12,未知,未知,未知,未知,未知,未知,未知,未知,未知,未知
1,300849,24410836.66,22624220.02,2015-12-31,年度报告,20258720.02,2015,12,0.0,True,未知,未知,未知,未知,未知,未知,未知,未知
2,300849,53164830.34,52699828.60000001,2016-12-31,年度报告,41155628.6,2016,12,0.09995050329422016,True,未知,未知,未知,未知,未知,未知,未知,未知
3,300849,42872879.42000001,42872879.42000001,2017-12-31,年度报告,41427044.18999999,2017,12,-0.4949534890211408,True,1.074257670989411,True,0.0,True,比例外推,42872879.42000001,未知,42872879.42000001
4,300849,53513086.11000002,53513086.11000002,2018-12-31,年度报告,51528769.45,2018,12,-0.37371334901582887,True,0.10531771309165822,True,0.0,True,比例外推,53513086.11000002,未知,53513086.11000002
5,300849,15842828.579999998,15842828.579999998,2019-03-31,一季度报告,15396047.409999998,2019,3,未知,未知,未知,未知,未知,未知,未知,未知,未知,未知
6,300849,32062399.24,32062399.24,2019-06-30,半年度报告,29141999.24,2019,6,未知,未知,未知,未知,未知,未知,未知,未知,未知,未知
7,300849,65641214.98000001,65641214.98000001,2019-12-31,年度报告,60841741.45999999,2019,12,-0.49824026192758875,True,0.11441820600949763,True,0.0,True,比例外推,65641214.98000001,未知,65641214.98000001
8,300849,13099961.820000002,13099961.820000002,2020-03-31,一季度报告,12475087.59,2020,3,0.6948180644898453,False,未知,未知,未知,未知,未知,未知,未知,未知
