,SECURITYCODE_x,NETPROFIT_x,PARENTNETPROFIT_x,REPORTDATE_x,REPORTTIMETYPE_x,KCFJCXSYJLR,Year,Month,managesituationChangeRate,managesituationGreatChange,historyprofitextroplaterate,ifhistoryprofitextroplate,IfprofitdisStableChangeRage,IfprofitdisStable,predicttype,predict,analyst_prediction,adj_prediction
0,300815,39475882.54000001,39536684.81,2014-12-31,年度报告,37031019.90000001,2014,12,未知,未知,未知,未知,未知,未知,未知,未知,未知,未知
1,300815,29911454.98,29900180.129999995,2015-06-30,半年度报告,31226380.14,2015,6,未知,未知,未知,未知,未知,未知,未知,未知,未知,未知
2,300815,64513174.41,64547048.73,2015-12-31,年度报告,64165784.68999998,2015,12,0.0,True,未知,未知,未知,未知,未知,未知,未知,未知
3,300815,44169121.64,41520894.84000001,2016-06-30,半年度报告,41702597.67000001,2016,6,0.319758018003309,True,未知,未知,未知,未知,未知,未知,未知,未知
4,300815,124061270.75,108036280.86,2016-12-31,年度报告,112465359.37,2016,12,-0.38809579747046263,True,未知,未知,未知,未知,未知,未知,未知,未知
5,300815,175392182.05,154323894.21,2017-12-31,年度报告,151407316.48000002,2017,12,-0.6818033355506314,True,1.386044731796176,True,0.0,True,比例外推,154323894.21,未知,154323894.21
6,300815,97759311.5,87464361.89,2018-06-30,半年度报告,85996611.34000002,2018,6,未知,未知,未知,未知,未知,未知,未知,未知,未知,未知
7,300815,163225836.16,146432497.07000005,2018-09-30,三季度报告,142679097.07000002,2018,9,未知,未知,未知,未知,未知,未知,未知,未知,未知,未知
8,300815,202582037.53000003,182429940.54000005,2018-12-31,年度报告,177978237.26000002,2018,12,-0.7749279239325136,True,0.8601903550736664,True,0.0,True,比例外推,182429940.54000005,未知,182429940.54000005
9,300815,63185247.02000001,58059979.06,2019-03-31,一季度报告,54789846.89999999,2019,3,未知,未知,未知,未知,未知,未知,未知,未知,未知,未知
10,300815,148356079.98000002,135727699.39999998,2019-06-30,半年度报告,130758648.41999996,2019,6,-0.5961931202839945,True,未知,未知,未知,未知,未知,未知,未知,未知
11,300815,261693834.35000005,239229400.80000004,2019-09-30,三季度报告,231748710.87,2019,9,-0.7581517517771863,True,未知,未知,未知,未知,未知,未知,未知,未知
12,300815,341303110.76,312790640.30999994,2019-12-31,年度报告,301771150.03000003,2019,12,-0.8051363140517623,True,0.35301186635708093,True,0.0,True,比例外推,312790640.30999994,未知,312790640.30999994
13,300815,158148511.41000003,145158975.04999998,2020-03-31,一季度报告,149959536.52999997,2020,3,-0.37523576464764447,True,未知,未知,未知,未知,未知,未知,503602308.0,未知
