,SECURITYCODE_x,NETPROFIT_x,PARENTNETPROFIT_x,REPORTDATE_x,REPORTTIMETYPE_x,KCFJCXSYJLR,Year,Month,managesituationChangeRate,managesituationGreatChange,historyprofitextroplaterate,ifhistoryprofitextroplate,IfprofitdisStableChangeRage,IfprofitdisStable,predicttype,predict,analyst_prediction,adj_prediction
0,300839,4105818.02,4105818.02,2013-12-31,年度报告,3693127.41,2013,12,未知,未知,未知,未知,未知,未知,未知,未知,未知,未知
1,300839,4105818.02,4105818.02,2013-12-31,年度报告,3693127.41,2013,12,未知,未知,未知,未知,未知,未知,未知,未知,未知,未知
2,300839,28390671.51,28390671.51,2013-12-31,年度报告,3693127.41,2013,12,未知,未知,未知,未知,未知,未知,未知,未知,未知,未知
3,300839,28390671.51,28390671.51,2013-12-31,年度报告,3693127.41,2013,12,未知,未知,未知,未知,未知,未知,未知,未知,未知,未知
4,300839,11507835.38,11507835.38,2014-06-30,半年度报告,11225462.29,2014,6,未知,未知,未知,未知,未知,未知,未知,未知,未知,未知
5,300839,27525958.439999994,27525958.439999994,2014-12-31,年度报告,26654309.570000004,2014,12,0.0,True,未知,未知,未知,未知,未知,未知,未知,未知
6,300839,19513478.21,19513478.21,2015-06-30,半年度报告,19459885.25,2015,6,-0.6432154367505386,True,未知,未知,未知,未知,未知,未知,未知,未知
7,300839,47067374.52,47067374.52,2015-12-31,年度报告,46783346.11000001,2015,12,-0.8508383267035114,True,未知,未知,未知,未知,未知,未知,未知,未知
8,300839,35546097.879999995,35546097.879999995,2016-06-30,半年度报告,34794948.27,2016,6,-0.7895906626274394,True,未知,未知,未知,未知,未知,未知,未知,未知
9,300839,69796989.91000001,69796989.91000001,2016-12-31,年度报告,69114800.0,2016,12,-0.9127672180173265,True,1.9759551809882772,True,0.0,True,比例外推,69796989.91000001,未知,69796989.91000001
10,300839,26671060.66,26671060.66,2017-03-31,一季度报告,26490387.17,2017,3,未知,未知,未知,未知,未知,未知,未知,未知,未知,未知
11,300839,32209138.32,32209138.32,2017-06-30,半年度报告,32152134.649999995,2017,6,-0.8844931436958053,True,1.291720998652913,True,0.056588831308907295,True,比例外推,72010155.03444308,未知,72010155.03444308
12,300839,83503177.7,83503177.7,2017-12-31,年度报告,83235435.44000001,2017,12,-0.9411748554587488,True,0.8714002214494966,True,0.0,True,比例外推,83503177.7,未知,83503177.7
13,300839,36142069.9,36142069.9,2018-03-31,一季度报告,35913418.79,2018,3,-0.8460571901380093,True,未知,未知,未知,未知,未知,未知,未知,未知
14,300839,58562091.27000001,58562091.27000001,2018-06-30,半年度报告,57322152.56000001,2018,6,-0.8725263004800559,True,0.1699740756213295,True,0.06821235996283176,True,比例外推,132946983.64337537,未知,132946983.64337537
15,300839,89453891.40999998,89453891.40999998,2018-12-31,年度报告,85918109.24000001,2018,12,-0.9508303979190963,True,0.4290614270189635,True,0.0,True,比例外推,89453891.40999998,未知,89453891.40999998
16,300839,20578142.520000003,20578142.520000003,2019-03-31,一季度报告,19281042.52,2019,3,-0.8863978175195771,True,未知,未知,未知,未知,未知,未知,未知,未知
17,300839,38041746.11,38041746.11,2019-06-30,半年度报告,36887467.06999999,2019,6,-0.9298894911202852,True,0.7286366207074051,True,0.1482091615238088,False,平均增速,63231638.486324385,未知,63231638.486324385
18,300839,75731552.31000002,75731552.31000002,2019-12-31,年度报告,73563769.95,2019,12,-0.9541012922380142,True,0.1670423171039607,True,0.0,True,比例外推,75731552.31000002,未知,75731552.31000002
19,300839,18438520.489999995,18438520.489999995,2020-03-31,一季度报告,17033136.42,2020,3,-0.8004767429319952,True,0.34478213913113387,True,0.08521119923062992,True,比例外推,52589033.89348417,未知,52589033.89348417
