,SECURITYCODE_x,NETPROFIT_x,PARENTNETPROFIT_x,REPORTDATE_x,REPORTTIMETYPE_x,KCFJCXSYJLR,Year,Month,managesituationChangeRate,managesituationGreatChange,historyprofitextroplaterate,ifhistoryprofitextroplate,IfprofitdisStableChangeRage,IfprofitdisStable,predicttype,predict,analyst_prediction,adj_prediction
0,300801,41850917.08000001,41850917.08000001,2012-12-31,年度报告,42109817.08000001,2012,12,未知,未知,未知,未知,未知,未知,未知,未知,未知,未知
1,300801,37568719.6,37568719.6,2013-12-31,年度报告,36518719.6,2013,12,0.0,True,未知,未知,未知,未知,未知,未知,未知,未知
2,300801,66957235.94,66957235.94,2014-12-31,年度报告,66125435.94000001,2014,12,0.11398305626577733,True,未知,未知,未知,未知,未知,未知,未知,未知
3,300801,46089865.7,46089865.7,2015-06-30,半年度报告,44994965.69999999,2015,6,未知,未知,未知,未知,未知,未知,未知,未知,未知,未知
4,300801,45710718.95000001,45710718.95000001,2015-12-31,年度报告,87447218.95000002,2015,12,-0.3749605028872102,True,0.6861632396981646,True,0.0,True,比例外推,45710718.95000001,未知,45710718.95000001
5,300801,66869636.04000001,66869636.04000001,2016-12-31,年度报告,65411261.42,2016,12,-0.08443975414654896,True,0.12537094324849424,True,0.0,True,比例外推,66869636.04000001,未知,66869636.04000001
6,300801,29115348.22000001,29115348.22000001,2017-06-30,半年度报告,27715148.22000001,2017,6,未知,未知,未知,未知,未知,未知,未知,未知,未知,未知
7,300801,98657575.62999998,98657575.62999998,2017-12-31,年度报告,96189246.60999998,2017,12,-0.3741416948199677,True,0.18702138696466397,True,0.0,True,比例外推,98657575.62999998,未知,98657575.62999998
8,300801,73566509.74000001,73566509.74000001,2018-06-30,半年度报告,72232609.74,2018,6,0.43741770710650973,True,未知,未知,未知,未知,未知,未知,未知,未知
9,300801,137024541.98000002,137024541.98000002,2018-09-30,三季度报告,135429399.29999998,2018,9,未知,未知,未知,未知,未知,未知,未知,未知,未知,未知
10,300801,186123301.50000003,186123301.50000003,2018-12-31,年度报告,182495179.63,2018,12,-0.575796214200971,True,0.7526605887637017,True,0.0,True,比例外推,186123301.50000003,未知,186123301.50000003
11,300801,39714765.09,39714765.09,2019-03-31,一季度报告,35711226.28999999,2019,3,未知,未知,未知,未知,未知,未知,未知,未知,未知,未知
12,300801,83464926.40999998,83464926.40999998,2019-06-30,半年度报告,78026066.51,2019,6,-0.431114548890382,True,未知,未知,未知,未知,未知,未知,未知,未知
13,300801,135951989.12000003,135951989.12000003,2019-09-30,三季度报告,127091320.39000002,2019,9,-0.6945735670759728,True,未知,未知,未知,未知,未知,未知,未知,未知
14,300801,171614747.95000005,171614747.95000005,2019-12-31,年度报告,158849923.98,2019,12,-0.7751441289579747,True,1.248854428491927,True,0.0,True,比例外推,171614747.95000005,未知,171614747.95000005
15,300801,48367235.52,48367235.52,2020-03-31,一季度报告,43571330.07999999,2020,3,0.05378735050198957,True,未知,未知,未知,未知,未知,未知,未知,未知
