,SECURITYCODE_x,NETPROFIT_x,PARENTNETPROFIT_x,REPORTDATE_x,REPORTTIMETYPE_x,KCFJCXSYJLR,Year,Month,managesituationChangeRate,managesituationGreatChange,historyprofitextroplaterate,ifhistoryprofitextroplate,IfprofitdisStableChangeRage,IfprofitdisStable,predicttype,predict,analyst_prediction,adj_prediction
0,300807,22857150.46,22857150.46,2013-12-31,年度报告,21971961.21,2013,12,未知,未知,未知,未知,未知,未知,未知,未知,未知,未知
1,300807,22857150.46,22857150.46,2013-12-31,年度报告,21971961.21,2013,12,未知,未知,未知,未知,未知,未知,未知,未知,未知,未知
2,300807,19078562.56,19078562.56,2013-12-31,年度报告,21971961.21,2013,12,未知,未知,未知,未知,未知,未知,未知,未知,未知,未知
3,300807,19078562.56,19078562.56,2013-12-31,年度报告,21971961.21,2013,12,未知,未知,未知,未知,未知,未知,未知,未知,未知,未知
4,300807,17560174.439999998,17560174.439999998,2014-06-30,半年度报告,16717955.350000005,2014,6,未知,未知,未知,未知,未知,未知,未知,未知,未知,未知
5,300807,29444906.289999995,29459521.72,2014-12-31,年度报告,24995874.88,2014,12,0.0,True,未知,未知,未知,未知,未知,未知,未知,未知
6,300807,29444906.289999995,29459521.72,2014-12-31,年度报告,24995874.88,2014,12,0.0,True,未知,未知,未知,未知,未知,未知,未知,未知
7,300807,24318298.19,24332913.62,2014-12-31,年度报告,24995874.88,2014,12,0.0,True,未知,未知,未知,未知,未知,未知,未知,未知
8,300807,24318298.19,24332913.62,2014-12-31,年度报告,24995874.88,2014,12,0.0,True,未知,未知,未知,未知,未知,未知,未知,未知
9,300807,15053368.64,15077395.95,2015-06-30,半年度报告,12824087.3,2015,6,0.30164711848955894,True,未知,未知,未知,未知,未知,未知,未知,未知
10,300807,41440179.46000001,41524010.53,2015-12-31,年度报告,43939407.58,2015,12,-0.22373159435855672,True,未知,未知,未知,未知,未知,未知,未知,未知
11,300807,12964775.230000002,13084949.279999996,2016-06-30,半年度报告,12391052.67,2016,6,0.5184076738321344,False,未知,未知,未知,未知,未知,未知,未知,未知
12,300807,16119600.000000002,16277300.0,2016-09-30,三季度报告,15288700.000000002,2016,9,未知,未知,未知,未知,未知,未知,未知,未知,71000000.0,未知
13,300807,38646103.45,38842833.02000001,2016-12-31,年度报告,35579670.03000001,2016,12,-0.44843022501717716,True,0.5846481777219978,True,0.0,True,比例外推,38842833.02000001,,38842833.02000001
14,300807,-14476404.830000002,-14422233.350000005,2017-03-31,一季度报告,-14484082.369999995,2017,3,未知,未知,未知,未知,未知,未知,未知,未知,未知,未知
15,300807,7579018.700000001,7672817.630000001,2017-06-30,半年度报告,7064230.96,2017,6,0.7630194164191458,False,0.20494530764732827,True,0.23251218059300555,False,前期平均,27369437.534999996,未知,27369437.534999996
16,300807,23402776.13,23571231.74,2017-09-30,三季度报告,,2017,9,0.4179725588724285,True,未知,未知,未知,未知,未知,未知,未知,未知
17,300807,47526141.13999999,47728814.77,2017-12-31,年度报告,44106059.43,2017,12,-0.4085522622074335,True,0.09038743597767329,True,0.0,True,比例外推,47728814.77,未知,47728814.77
18,300807,-7340264.43,-7262569.719999999,2018-03-31,一季度报告,-7235653.13,2018,3,-2.5789245139533725,False,未知,未知,未知,未知,未知,未知,未知,未知
19,300807,13749106.449999996,13910922.27,2018-06-30,半年度报告,10654943.079999998,2018,6,2.01584563447508,False,0.45899209204110636,True,0.10659711126635876,False,前期平均,41062891.09,未知,41062891.09
20,300807,9181229.87,8992060.34,2018-09-30,三季度报告,5116384.470000002,2018,9,-0.023314570329994354,True,未知,未知,未知,未知,未知,未知,未知,未知
21,300807,58339313.35000001,58255907.08,2018-12-31,年度报告,52170401.13999999,2018,12,-0.5190615120072842,True,0.18687344231993613,True,0.0,True,比例外推,58255907.08,未知,58255907.08
22,300807,-1923100.99,-1863864.04,2019-03-31,一季度报告,-5273046.55,2019,3,-4.11394101370269,False,未知,未知,未知,未知,未知,未知,未知,未知
23,300807,24623357.39,24349203.91,2019-06-30,半年度报告,15763385.03,2019,6,0.6624462500979479,False,0.3385167799918633,True,0.11070873016228946,False,前期平均,54464426.825,未知,54464426.825
24,300807,30461936.23,30207024.79000001,2019-09-30,三季度报告,18071264.81,2019,9,1.4895521388356223,False,0.5353907953408267,True,,False,前期平均,,未知,
25,300807,74789733.71,74545927.20999998,2019-12-31,年度报告,60977622.87000002,2019,12,-0.6082032998422324,True,0.3540163338572264,True,0.0,True,比例外推,74545927.20999998,未知,74545927.20999998
26,300807,-4505678.220000002,-4505767.529999998,2020-03-31,一季度报告,-10507617.53,2020,3,-12.8855694936749,False,-0.8237035207270681,True,0.14387214823265446,False,前期平均,54492330.50499999,未知,54492330.50499999
