,SECURITYCODE_x,NETPROFIT_x,PARENTNETPROFIT_x,REPORTDATE_x,REPORTTIMETYPE_x,KCFJCXSYJLR,Year,Month,managesituationChangeRate,managesituationGreatChange,historyprofitextroplaterate,ifhistoryprofitextroplate,IfprofitdisStableChangeRage,IfprofitdisStable,predicttype,predict,analyst_prediction,adj_prediction
0,300827,7006548.21,7006548.21,2013-12-31,年度报告,7005798.21,2013,12,未知,未知,未知,未知,未知,未知,未知,未知,未知,未知
1,300827,21166819.020000003,21166819.020000003,2014-12-31,年度报告,21115348.29,2014,12,0.0,True,未知,未知,未知,未知,未知,未知,未知,未知
2,300827,33631922.22000001,33631922.22000001,2015-12-31,年度报告,31980122.219999995,2015,12,-0.6689843569135406,True,未知,未知,未知,未知,未知,未知,未知,未知
3,300827,18279874.58,18279874.58,2016-06-30,半年度报告,17913520.21,2016,6,未知,未知,未知,未知,未知,未知,未知,未知,未知,未知
4,300827,36294105.09,36294105.09,2016-12-31,年度报告,33822405.09,2016,12,-0.7916697070073089,True,1.387497521715299,True,0.0,True,比例外推,36294105.09,未知,36294105.09
5,300827,26071790.579999994,26071790.579999994,2017-06-30,半年度报告,25298858.05,2017,6,-0.6167069867281332,True,未知,未知,未知,未知,未知,未知,未知,未知
6,300827,54466463.39999999,54466463.39999999,2017-12-31,年度报告,51650677.11000001,2017,12,-0.8069507929007873,True,0.324632802459606,True,0.0,True,比例外推,54466463.39999999,未知,54466463.39999999
7,300827,25983333.59,25983333.59,2018-06-30,半年度报告,24330633.59,2018,6,-0.7312594166288366,True,未知,未知,未知,未知,未知,未知,未知,未知
8,300827,70860370.57,70860370.57,2018-12-31,年度报告,69037683.83000001,2018,12,-0.8713603239016249,True,0.5578309106146181,True,0.0,True,比例外推,70860370.57,未知,70860370.57
9,300827,16320520.340000005,16320520.340000005,2019-03-31,一季度报告,14830215.339999998,2019,3,未知,未知,未知,未知,未知,未知,未知,未知,未知,未知
10,300827,83842866.7,83842866.7,2019-12-31,年度报告,73764875.71000001,2019,12,-0.9011217673060498,True,0.5614792139123146,True,0.0,True,比例外推,83842866.7,未知,83842866.7
11,300827,18830660.739999995,18830660.739999995,2020-03-31,一季度报告,7834023.64,2020,3,-0.5706908809256754,True,未知,未知,未知,未知,未知,未知,未知,未知
