,SECURITYCODE_x,NETPROFIT_x,PARENTNETPROFIT_x,REPORTDATE_x,REPORTTIMETYPE_x,KCFJCXSYJLR,Year,Month,managesituationChangeRate,managesituationGreatChange,historyprofitextroplaterate,ifhistoryprofitextroplate,IfprofitdisStableChangeRage,IfprofitdisStable,predicttype,predict,analyst_prediction,adj_prediction
0,600022,163838159.43000004,158294827.37,2013-12-31,年度报告,-34516400.0,2013,12,未知,未知,未知,未知,未知,未知,未知,未知,未知,未知
1,600022,-369790609.6499999,-370536173.84,2014-03-31,一季度报告,-371937104.71,2014,3,未知,未知,未知,未知,未知,未知,未知,未知,未知,未知
2,600022,-795193966.99,-797284236.3100003,2014-06-30,半年度报告,-790346188.2100003,2014,6,未知,未知,未知,未知,未知,未知,未知,未知,未知,未知
3,600022,-987360317.05,-991019206.92,2014-09-30,三季度报告,-984351784.5900002,2014,9,未知,未知,未知,未知,未知,未知,未知,未知,未知,未知
4,600022,-1393574225.3299994,-1398414314.7699995,2014-12-31,年度报告,-1377008900.0,2014,12,0.0,True,未知,未知,未知,未知,未知,未知,未知,未知
5,600022,-188844579.82,-189968420.93,2015-03-31,一季度报告,-194657243.48,2015,3,-1.443056570811979,False,未知,未知,未知,未知,未知,未知,47500000.0,未知
6,600022,9596205.089999996,7454434.439999999,2015-06-30,半年度报告,136204.40000000002,2015,6,-1.206035465850133,False,未知,未知,未知,未知,未知,未知,22150000.0,未知
7,600022,-772173130.7400001,-775401747.5500003,2015-09-30,三季度报告,-797580239.61,2015,9,-1.1659355319439106,False,未知,未知,未知,未知,未知,未知,-1124900000.0,未知
8,600022,101328238.15999998,86799381.62,2015-12-31,年度报告,-2139424818.5100005,2015,12,-1.1175668697454584,False,未知,未知,未知,未知,未知,未知,198400000.0,未知
9,600022,-320690955.02000004,-331535062.76999986,2016-03-31,一季度报告,-330512552.39000005,2016,3,-1.867582006251727,False,未知,未知,未知,未知,未知,未知,134200000.0,未知
10,600022,55165465.78,28052257.02,2016-06-30,半年度报告,43231187.34,2016,6,16.073224039441627,False,未知,未知,未知,未知,未知,未知,228316667.00000003,未知
11,600022,67809731.00999999,25963274.89,2016-09-30,三季度报告,29140389.85,2016,9,-1.212178011520536,False,未知,未知,未知,未知,未知,未知,446282407.0,未知
12,600022,-538030529.23,-599891611.66,2016-12-31,年度报告,-671795681.83,2016,12,0.6169052418664897,False,-1.1647967250368338,True,0.0,True,盈利变化,576009093.8466668,123800000.0,123800000.0
13,600022,462835539.4,452564966.82000005,2017-03-31,一季度报告,142482697.34,2017,3,-1.5108911145304431,False,-0.14812300071627313,True,0.20762553777906073,False,盈利变化,30768721.313333392,800000000.0,800000000.0
14,600022,617505011.6700001,595585586.26,2017-06-30,半年度报告,374810040.66000015,2017,6,1.9699406524253231,False,-1.140442013598868,True,0.404110893779818,False,前期平均,-767526281.0900004,,-767526281.0900004
15,600022,1100733234.24,1072698154.9300002,2017-09-30,三季度报告,853690100.7599998,2017,9,1.416145249209713,False,-1.077076944567516,True,0.3914675919448068,False,前期平均,205447307.77499998,未知,205447307.77499998
16,600022,1960752012.41,1924452497.66,2017-12-31,年度报告,1723462828.2600002,2017,12,-1.3045146149317517,False,-0.16729394469503542,True,0.0,True,盈利变化,198527891.70333338,1665000000.0,1665000000.0
17,600022,629045516.71,621454820.5799999,2018-03-31,一季度报告,629182368.0899999,2018,3,-0.6460121458209697,True,-2.8166958249352936,True,0.27010312060336206,False,平均增速,6582995457.820745,2709330000.0,2709330000.0
18,600022,1729308505.8399994,1677982606.45,2018-06-30,半年度报告,1707751330.3400002,2018,6,-0.734677198834531,True,18.07007658618182,False,0.16645510328278476,False,未知,未知,,未知
19,600022,2599750796.99,2418078020.4700003,2018-09-30,三季度报告,2446180310.5799994,2018,9,-0.8511554350013589,True,-4.125469706864207,True,0.3182963952686229,False,平均增速,5023544923.86271,未知,5023544923.86271
20,600022,2338673024.7900004,2106619963.23,2018-12-31,年度报告,2756986814.41,2018,12,-0.9164411621699048,True,-9.979810971936057,True,0.0,True,比例外推,2106619963.23,2585115000.0,2585115000.0
21,600022,160708752.60999998,150724083.33,2019-03-31,一季度报告,138508293.72,2019,3,-0.7395448261249876,True,7.850784142832363,False,0.22436045684466954,False,未知,未知,2462000000.0,未知
22,600022,737677135.6700001,577498786.21,2019-06-30,半年度报告,552254486.73,2019,6,-0.9052579925000619,True,4.141621533311724,False,0.36191005805620996,False,未知,未知,1093666667.0,未知
23,600022,742473607.4700003,489535903.07,2019-09-30,三季度报告,470397979.37,2019,9,-0.9369792829298516,True,3.449559621342301,False,0.48978460376693583,False,未知,未知,787000000.0,未知
24,600022,905674128.25,579062116.1400001,2019-12-31,年度报告,540783155.86,2019,12,-0.9299439649351103,True,2.2876048508984463,False,0.0,True,比例外推,579062116.1400001,769500000.0,769500000.0
25,600022,156840369.62999997,28966174.51,2020-03-31,一季度报告,9634616.93,2020,3,0.01947253506219628,True,0.7056295615521521,True,0.1063314960387488,False,平均增速,223561460.09638724,,223561460.09638724
