,SECURITYCODE_x,NETPROFIT_x,PARENTNETPROFIT_x,REPORTDATE_x,REPORTTIMETYPE_x,KCFJCXSYJLR,Year,Month,managesituationChangeRate,managesituationGreatChange,historyprofitextroplaterate,ifhistoryprofitextroplate,IfprofitdisStableChangeRage,IfprofitdisStable,predicttype,predict,analyst_prediction,adj_prediction
0,600028,71376999999.99997,67179000000.000015,2013-12-31,年度报告,66658000000.0,2013,12,未知,未知,未知,未知,未知,未知,未知,未知,未知,未知
1,600028,14482000000.0,13477000000.0,2014-03-31,一季度报告,13433000000.0,2014,3,未知,未知,未知,未知,未知,未知,未知,未知,未知,未知
2,600028,32694000000.000008,31430000000.000008,2014-06-30,半年度报告,31354000000.0,2014,6,未知,未知,未知,未知,未知,未知,未知,未知,未知,未知
3,600028,53603000000.000015,51169000000.000015,2014-09-30,三季度报告,49317000000.000015,2014,9,未知,未知,未知,未知,未知,未知,未知,未知,未知,未知
4,600028,48910000000.000015,47430000000.000015,2014-12-31,年度报告,43238000000.000015,2014,12,0.0,True,未知,未知,未知,未知,未知,未知,未知,未知
5,600028,1980000000.0,1685000000.0,2015-03-31,一季度报告,1336000000.0000002,2015,3,3.9286700731943083,False,未知,未知,未知,未知,未知,未知,40943363506.0,未知
6,600028,30593999999.999992,24456000000.0,2015-06-30,半年度报告,23431000000.0,2015,6,1.183183458738605,False,未知,未知,未知,未知,未知,未知,49870479475.99999,未知
7,600028,34631.0,25893.0,2015-09-30,三季度报告,24722000000.0,2015,9,0.33158591869857934,True,未知,未知,未知,未知,未知,未知,35770968411.0,未知
8,600028,34631.0,25893.0,2015-09-30,三季度报告,-1170974107.0,2015,9,0.33158591869857934,True,未知,未知,未知,未知,未知,未知,35770968411.0,未知
9,600028,34631.0,25893.0,2015-09-30,三季度报告,24722000000.0,2015,9,0.33158591869857934,True,未知,未知,未知,未知,未知,未知,35770968411.0,未知
10,600028,34631.0,25893.0,2015-09-30,三季度报告,-1170974107.0,2015,9,0.33158591869857934,True,未知,未知,未知,未知,未知,未知,35770968411.0,未知
11,600028,34631000000.0,25893000000.000008,2015-09-30,三季度报告,24722000000.0,2015,9,0.33158591869857934,True,未知,未知,未知,未知,未知,未知,35770968411.0,未知
12,600028,34631000000.0,25893000000.000008,2015-09-30,三季度报告,-1170974107.0,2015,9,0.33158591869857934,True,未知,未知,未知,未知,未知,未知,35770968411.0,未知
13,600028,34631000000.0,25893000000.000008,2015-09-30,三季度报告,24722000000.0,2015,9,0.33158591869857934,True,未知,未知,未知,未知,未知,未知,35770968411.0,未知
14,600028,34631000000.0,25893000000.000008,2015-09-30,三季度报告,-1170974107.0,2015,9,0.33158591869857934,True,未知,未知,未知,未知,未知,未知,35770968411.0,未知
15,600028,43480000000.000015,32281000000.0,2015-12-31,年度报告,28901000000.0,2015,12,0.4593539153547321,True,未知,未知,未知,未知,未知,未知,35279362093.0,未知
16,600028,9035000000.000002,6190000000.000001,2016-03-31,一季度报告,6403000000.000002,2016,3,35.04898989898988,False,未知,未知,未知,未知,未知,未知,36194517382.0,未知
17,600028,26381000000.0,19250000000.0,2016-06-30,半年度报告,18290000000.0,2016,6,1.333039158004837,False,未知,未知,0.0,True,未知,未知,38346557077.0,未知
18,600028,40070000000.0,29165999999.999992,2016-09-30,三季度报告,28336999999.999992,2016,9,2061071.449539429,False,未知,未知,0.144572382447212,False,未知,未知,37065756612.0,未知
19,600028,59170000000.0,46416000000.0,2016-12-31,年度报告,29713000000.0,2016,12,0.6416053357865673,False,0.2770623591909347,True,0.10159046847616382,False,前期平均,46416000000.0,37266228099.0,37266228099.0
20,600028,21683000000.000004,16632999999.999996,2017-03-31,一季度报告,16540000000.000004,2017,3,6.900055340343105,False,0.09767950431296342,True,0.15736487096145213,False,前期平均,45318000000.0,59021019273.0,59021019273.0
21,600028,36117000000.0,27092000000.0,2017-06-30,半年度报告,26099000000.000004,2017,6,1.7056214699973453,False,0.16631904942485148,True,0.0,True,前期平均,35769000000.00001,57094303333.0,57094303333.0
22,600028,51828999999.999985,38373000000.0,2017-09-30,三季度报告,36718000000.0,2017,9,0.7813077115048658,False,0.49506460877968606,True,0.1619679621192497,False,前期平均,37423000000.0,55844200000.0,55844200000.0
23,600028,70294000000.00003,51118999999.999985,2017-12-31,年度报告,45582000000.000015,2017,12,0.206303870204495,True,0.28087455352310814,True,0.14444613259631756,False,平均增速,51118999999.999985,55850000000.0,51118999999.999985
24,600028,24522000000.0,18770000000.0,2018-03-31,一季度报告,17982000000.0,2018,3,2.2918415348429626,False,2.936995006808897,False,0.0821468023650872,True,去年同期,47812000000.000015,74612818000.0,74612818000.0
25,600028,53281000000.0,41600000000.0,2018-06-30,半年度报告,39791000000.0,2018,6,0.9762715618683714,False,0.2678192189556825,True,0.0,True,前期平均,50046500000.0,79634983333.0,79634983333.0
26,600028,75779000000.00003,59980000000.0,2018-09-30,三季度报告,57150000000.0,2018,9,0.37716336413976714,True,1.586920649172722,True,0.07781078288498003,True,比例外推,68403318943.766685,79045727500.0,79045727500.0
27,600028,80288999999.99997,63088999999.999985,2018-12-31,年度报告,59630000000.000015,2018,12,0.0154067203459746,True,0.36958597174866087,True,0.04882289735549894,True,比例外推,63088999999.999985,77310623571.0,77310623571.0
28,600028,18471000000.0,14763000000.000004,2019-03-31,一季度报告,14370000000.0,2019,3,1.9107332191501496,False,0.5965883195520538,True,0.10034198438234887,False,前期平均,40939000000.000015,64797324532.0,64797324532.0
29,600028,38955999999.999985,31337999999.999992,2019-06-30,半年度报告,30451000000.000008,2019,6,0.33963326514141945,True,0.7050465614899677,True,0.0,True,比例外推,50122584652.352844,62682152778.0,62682152778.0
30,600028,54464000000.0,43281000000.000015,2019-09-30,三季度报告,41546000000.0,2019,9,-0.0580899721558751,True,0.6491800781292515,True,0.05312771767208885,True,比例外推,47597624228.53376,57158490000.0,57158490000.0
31,600028,72122000000.0,57590999999.99998,2019-12-31,年度报告,54271000000.0,2019,12,-0.11099901605450314,True,0.2403293579682375,True,未知,未知,True,True,56708898182.0,56708898182.0
32,600028,-21032000000.0,-19782000000.0,2020-03-31,一季度报告,-20444000000.000004,2020,3,2.8642737263818945,False,0.20047613894600153,True,未知,未知,盈利变化,11172333333.333313,28295842000.0,28295842000.0
