,SECURITYCODE_x,NETPROFIT_x,PARENTNETPROFIT_x,REPORTDATE_x,REPORTTIMETYPE_x,KCFJCXSYJLR,Year,Month,managesituationChangeRate,managesituationGreatChange,historyprofitextroplaterate,ifhistoryprofitextroplate,IfprofitdisStableChangeRage,IfprofitdisStable,predicttype,predict,analyst_prediction,adj_prediction
0,600019,1586212654.1800005,1510048384.1299994,2014-03-31,一季度报告,1499000000.0,2014,3,未知,未知,未知,未知,未知,未知,未知,未知,未知,未知
1,600019,5292059579.64,5009967783.289999,2014-09-30,三季度报告,4798000000.0,2014,9,未知,未知,未知,未知,未知,未知,未知,未知,未知,未知
2,600019,6090692217.8899975,5792349060.9,2014-12-31,年度报告,5793999999.999999,2014,12,未知,未知,未知,未知,未知,未知,未知,未知,未知,未知
3,600019,1636725627.5299995,1547150249.7100005,2015-03-31,一季度报告,1523000000.0,2015,3,0.0,True,未知,未知,未知,未知,未知,未知,6904093333.000001,未知
4,600019,3293775649.3500004,3174482235.1000004,2015-06-30,半年度报告,3144000000.0,2015,6,未知,未知,未知,未知,未知,未知,未知,未知,5301970000.0,未知
5,600019,2320702834.3899994,2254026165.79,2015-09-30,三季度报告,2075026165.79,2015,9,-0.7002655336151933,True,未知,未知,未知,未知,未知,未知,2785101667.0,未知
6,600019,2320702834.3899994,2254026165.79,2015-09-30,三季度报告,2075000000.0,2015,9,-0.7002655336151933,True,未知,未知,未知,未知,未知,未知,2785101667.0,未知
7,600019,645603594.18,944405134.07,2015-12-31,年度报告,1084999999.9999998,2015,12,-0.7395677539704161,True,未知,未知,未知,未知,未知,未知,2620951250.0,未知
8,600019,1570729411.15,1558783538.22,2016-03-31,一季度报告,1494000000.0,2016,3,-0.030862212028920588,True,未知,未知,未知,未知,未知,未知,5414166000.0,未知
9,600019,3894665995.830001,3741244976.65,2016-06-30,半年度报告,3682000000.0,2016,6,-0.5184211606843877,True,未知,未知,未知,未知,未知,未知,6642237500.0,未知
10,600019,6197727950.079998,5967795928.73,2016-09-30,三季度报告,5585999999.999999,2016,9,-0.31649471415544717,True,未知,未知,未知,未知,未知,未知,7707441111.0,未知
11,600019,9339042267.209995,9075928087.45,2016-12-31,年度报告,8993999999.999998,2016,12,1.4569452036503852,False,未知,未知,0.7941822061274256,False,未知,未知,7707441111.0,未知
12,600019,4167029541.86,3786154766.21,2017-03-31,一季度报告,3958000000.0,2017,3,0.00985735857499764,True,0.025281110678535595,True,未知,未知,True,True,12730836250.0,12730836250.0
13,600019,6739088170.829999,6169575197.070001,2017-06-30,半年度报告,6200999999.999999,2017,6,-0.5927217748894642,True,未知,未知,0.791918090523339,False,未知,未知,15247792500.0,未知
14,600019,12520006957.510002,11668343331.44,2017-09-30,三季度报告,11475000000.0,2017,9,-0.7440654596400079,True,0.6282467816565107,True,0.0,True,比例外推,10433864648.96583,17215401538.0,17215401538.0
15,600019,20403137217.050003,19170337569.640003,2017-12-31,年度报告,17986000000.0,2017,12,-0.8301525350464148,True,1.7727530167177141,True,0.8070674948975826,False,平均增速,19170337569.640003,17215401538.0,17215401538.0
16,600019,5534415617.650001,5020535555.050002,2018-03-31,一季度报告,4912000000.000001,2018,3,-0.6193421145097097,True,1.5983401117759115,True,1.6804131727536396,False,平均增速,49809274931.14181,23050739500.0,23050739500.0
17,600019,10901132343.0,10009204831.14,2018-06-30,半年度报告,9444000000.0,2018,6,-0.7646250332432378,True,0.8749788906886924,True,0.8552853615785709,False,平均增速,49297857756.83786,22140000000.0,22140000000.0
18,600019,17181942991.180004,15747434222.45,2018-09-30,三季度报告,14963000000.0,2018,9,-0.873305768953385,True,1.9395101690173506,True,0.0,True,比例外推,14938110714.42407,21815746250.0,21815746250.0
19,600019,23044284774.63,21448768283.520008,2018-12-31,年度报告,20634000000.0,2018,12,-0.9222564335422656,True,3.0869025302034325,False,0.04196408783200958,True,比例外推,21448768283.520008,21717683750.0,21448768283.520008
20,600019,2946859612.76,2725832313.54,2019-03-31,一季度报告,2783000000.0,2019,3,-0.7133911213459732,True,0.9291209906079004,True,0.05917963902791207,True,比例外推,13317828330.089092,15138808235.0,15138808235.0
21,600019,6697051648.289999,6187024076.0,2019-06-30,半年度报告,6248024076.0,2019,6,-0.8544910194399609,True,1.0502885758217564,True,0.0637492556775423,True,比例外推,15406404944.860195,12745395133.0,12745395133.0
22,600019,9618568334.320002,8874379886.680002,2019-09-30,三季度报告,8715379886.68,2019,9,-0.9076814156004214,True,0.8358998111692205,True,0.0,True,比例外推,13335908526.194105,12583271401.0,13335908526.194105
23,600019,13469014497.36,12423230251.95,2019-12-31,年度报告,11060230251.95,2019,12,-0.9311667656560858,True,0.5496029661730323,True,0.016518617476412478,True,比例外推,12423230251.95,12615829494.0,12423230251.95
24,600019,1766026915.65,1536453182.2300005,2020-03-31,一季度报告,1660453182.2300005,2020,3,-0.4617277839393343,True,0.39249058994653124,True,未知,未知,True,True,9341923077.0,9341923077.0
