,SECURITYCODE_x,NETPROFIT_x,PARENTNETPROFIT_x,REPORTDATE_x,REPORTTIMETYPE_x,KCFJCXSYJLR,Year,Month,managesituationChangeRate,managesituationGreatChange,historyprofitextroplaterate,ifhistoryprofitextroplate,IfprofitdisStableChangeRage,IfprofitdisStable,predicttype,predict,analyst_prediction,adj_prediction
0,600068,1955393038.03,1584737039.6700006,2013-12-31,年度报告,1433135323.2199998,2013,12,未知,未知,未知,未知,未知,未知,未知,未知,未知,未知
1,600068,579472321.5999999,504090757.26,2014-03-31,一季度报告,493738663.12,2014,3,未知,未知,未知,未知,未知,未知,未知,未知,未知,未知
2,600068,1351914985.8599994,1160824931.7900002,2014-06-30,半年度报告,1117894226.4600003,2014,6,未知,未知,未知,未知,未知,未知,未知,未知,未知,未知
3,600068,1927944091.68,1633482191.0499995,2014-09-30,三季度报告,1542455376.4,2014,9,未知,未知,未知,未知,未知,未知,未知,未知,未知,未知
4,600068,2803477171.53,2129072245.46,2014-12-31,年度报告,1868682899.3,2014,12,0.0,True,未知,未知,未知,未知,未知,未知,未知,未知
5,600068,707389563.93,509087716.3800001,2015-03-31,一季度报告,472392229.83,2015,3,2.3744373374571204,False,未知,未知,未知,未知,未知,未知,3072666667.0,未知
6,600068,1694175561.4400005,1255134431.7,2015-06-30,半年度报告,1106137453.21,2015,6,0.44638757501908116,True,未知,未知,未知,未知,未知,未知,2793750000.0,未知
7,600068,2335396768.070001,1794923350.3399997,2015-09-30,三季度报告,1613351357.3,2015,9,0.014237418226210616,True,未知,未知,未知,未知,未知,未知,2422490000.0,未知
8,600068,3431279205.5399995,2683050048.9300003,2015-12-31,年度报告,2432998247.1,2015,12,-0.30251151752277605,True,未知,未知,未知,未知,未知,未知,3080000000.0,未知
9,600068,740141502.12,645762107.6800001,2016-03-31,一季度报告,617091847.51,2016,3,1.7642378934268483,False,未知,未知,未知,未知,未知,未知,3354000000.0,未知
10,600068,1745846444.2099993,1441569163.7699995,2016-06-30,半年度报告,1367614635.36,2016,6,0.154185600675276,True,未知,未知,未知,未知,未知,未知,3302147143.0,未知
11,600068,2684751093.57,2242857033.81,2016-09-30,三季度报告,2034043747.88,2016,9,-0.16271484795880772,True,未知,未知,未知,未知,未知,未知,3381083333.0,未知
12,600068,4478937069.630001,3395312602.05,2016-12-31,年度报告,2970733902.9100003,2016,12,-0.43012709811754624,True,0.44205622529774835,True,0.0,True,比例外推,3395312602.05,3381083333.0,3395312602.05
13,600068,985608420.74,746413644.3800001,2017-03-31,一季度报告,736678588.8299999,2017,3,1.6419178392633489,False,0.1503044894599073,True,0.0421835671422838,True,前期平均,2414188771.105,4344044798.0,4344044798.0
14,600068,2256770972.47,1733775641.8799994,2017-06-30,半年度报告,1684918667.66,2017,6,0.12002578721338869,True,0.14628663665791955,True,0.09381643490403369,True,比例外推,3389236744.5324435,4255060000.0,4255060000.0
15,600068,3438795027.44,2589316928.63,2017-09-30,三季度报告,2493735755.62,2017,9,-0.2716669181313748,True,0.25945880561256923,True,0.10101373176134287,False,平均增速,3754325649.6613064,4111228000.0,3754325649.6613064
16,600068,5847482897.080001,4683602072.05,2017-12-31,年度报告,3916359065.5300007,2017,12,-0.5634247573405776,True,0.4367641007120989,True,0.0,True,比例外推,4683602072.05,4091182857.0,4091182857.0
17,600068,1115440115.91,757696218.8100001,2018-03-31,一季度报告,730657689.08,2018,3,0.9839451417854979,False,0.36177860891029134,True,0.011061317608391658,True,前期平均,2914820255.145,5399162500.0,5399162500.0
18,600068,2662445552.15,1952973673.36,2018-06-30,半年度报告,1827506802.12,2018,6,-0.1335438722477658,True,0.3120677534989071,True,0.018183538432935187,True,比例外推,4200999407.439786,5674500000.0,5674500000.0
19,600068,3874790115.8600006,2787060170.36,2018-09-30,三季度报告,2627197620.41,2018,9,-0.4313726109213069,True,0.36999750693263495,True,0.02476981547251167,True,比例外推,4131328741.96141,5399040000.0,5399040000.0
20,600068,5959893569.02,4657706341.59,2018-12-31,年度报告,4012361000.79,2018,12,-0.6656008965829648,True,0.4784634689281821,True,0.0,True,比例外推,4657706341.59,,4657706341.59
21,600068,1090067067.95,697425654.23,2019-03-31,一季度报告,665079038.36,2019,3,0.7530237707425003,False,0.29270191600117385,True,0.015080933532215735,True,前期平均,3464086920.28,5184000000.0,5184000000.0
22,600068,2933703840.98,2124056524.74,2019-06-30,半年度报告,2088728616.8000004,2019,6,-0.2655650604944898,True,0.33035225452967987,True,0.018460053202285553,True,比例外推,4690541917.169516,5036000000.0,4690541917.169516
23,600068,4345172128.3,3198116793.779999,2019-09-30,三季度报告,3075995535.98,2019,9,-0.4953551083899147,True,0.26553798707109394,True,0.025954521388933394,True,比例外推,4791638612.475792,5141200000.0,4791638612.475792
24,600068,6563609489.02,5441781311.029999,2019-12-31,年度报告,3328869701.53,2019,12,-0.6719080608764076,True,0.15430005524340928,True,0.0,True,比例外推,5441781311.029999,5227150000.0,5441781311.029999
25,600068,525620564.5299999,405988404.8899999,2020-03-31,一季度报告,374532297.50000006,2020,3,0.7938281923398968,False,0.03764101488873617,True,0.009792631325058143,True,前期平均,3636680299.0950003,6026697500.0,6026697500.0
