,SECURITYCODE_x,NETPROFIT_x,PARENTNETPROFIT_x,REPORTDATE_x,REPORTTIMETYPE_x,KCFJCXSYJLR,Year,Month,managesituationChangeRate,managesituationGreatChange,historyprofitextroplaterate,ifhistoryprofitextroplate,IfprofitdisStableChangeRage,IfprofitdisStable,predicttype,predict,analyst_prediction,adj_prediction
0,600079,601250236.7499999,417780076.54,2013-12-31,年度报告,395524806.28999984,2013,12,未知,未知,未知,未知,未知,未知,未知,未知,未知,未知
1,600079,136704458.75,92671901.89,2014-03-31,一季度报告,88995277.77999999,2014,3,未知,未知,未知,未知,未知,未知,未知,未知,未知,未知
2,600079,322885485.4,228822853.16,2014-06-30,半年度报告,217700097.25,2014,6,未知,未知,未知,未知,未知,未知,未知,未知,未知,未知
3,600079,465340215.7799999,327836754.32,2014-09-30,三季度报告,316884824.39000016,2014,9,未知,未知,未知,未知,未知,未知,未知,未知,未知,未知
4,600079,635732320.36,451770962.71,2014-12-31,年度报告,427222373.52999985,2014,12,0.0,True,未知,未知,未知,未知,未知,未知,未知,未知
5,600079,180802231.34000003,135050624.06,2015-03-31,一季度报告,130739978.17,2015,3,3.398175759940236,False,未知,未知,未知,未知,未知,未知,596340419.0,未知
6,600079,387688844.42,299946399.17,2015-06-30,半年度报告,286322928.02,2015,6,0.8621160254545153,False,未知,未知,未知,未知,未知,未知,604420000.0,未知
7,600079,594219396.49,441242145.4,2015-09-30,三季度报告,411436367.56999993,2015,9,0.29206592587788394,True,未知,未知,未知,未知,未知,未知,622363294.0,未知
8,600079,853223936.8399997,653823533.17,2015-12-31,年度报告,564654887.8499999,2015,12,-0.05423994109733756,True,未知,未知,未知,未知,未知,未知,619327808.0,未知
9,600079,207873139.88,149007049.85,2016-03-31,一季度报告,140591803.48000002,2016,3,2.3254580559868425,False,未知,未知,未知,未知,未知,未知,888768475.9999999,未知
10,600079,548013313.09,426953632.04999983,2016-06-30,半年度报告,224993744.95,2016,6,0.5508577185126318,False,未知,未知,未知,未知,未知,未知,900225604.0,未知
11,600079,807554775.8800001,623063464.36,2016-09-30,三季度报告,390361975.16,2016,9,0.01183206119074942,True,未知,未知,未知,未知,未知,未知,912936250.0,未知
12,600079,1080146941.58,832403388.14,2016-12-31,年度报告,564762399.96,2016,12,-0.29531953946722317,True,0.37952460515435693,True,0.0,True,比例外推,832403388.14,914225714.0,832403388.14
13,600079,271172785.90000004,197647556.12,2017-03-31,一季度报告,194937033.57,2017,3,1.8923902198094795,False,0.30940951084260016,True,0.021285539327613207,True,前期平均,583718558.8349999,1038171818.0,1038171818.0
14,600079,505646173.04,375788468.13,2017-06-30,半年度报告,356842654.42,2017,6,0.09714531086812624,True,0.5424517607575853,True,0.07329126359127702,True,比例外推,775484796.4336939,1511448333.0,1511448333.0
15,600079,2132551069.82,1939611777.04,2017-09-30,三季度报告,466304914.5100001,2017,9,-0.2554681679706348,True,0.5243215511959637,True,0.029330046275927724,True,比例外推,2120479002.8712096,1661495000.0,1661495000.0
16,600079,2318233078.13,2068719633.63,2017-12-31,年度报告,559088793.71,2017,12,-0.44336255225561,True,0.45087800445021703,True,0.0,True,比例外推,2068719633.63,2406990000.0,2406990000.0
17,600079,280933915.33,177461526.88,2018-03-31,一季度报告,160106262.28999996,2018,3,1.2172218895583498,False,0.39536901990380774,True,0.07228633699783865,True,前期平均,606504279.96,未知,606504279.96
18,600079,686623549.63,501698720.8900001,2018-06-30,半年度报告,254968767.17,2018,6,0.18907304911499237,True,0.08078445471489917,True,0.12368420380194722,False,平均增速,674577238.6436121,752000000.0,752000000.0
19,600079,933742988.9099996,648430588.23,2018-09-30,三季度报告,400138648.39999986,2018,9,-0.7180605682748086,True,2.0426456869503657,False,0.08274702617261498,True,比例外推,780888787.7358788,720335000.0,780888787.7358788
20,600079,-1961162275.6200008,-2357747308.41,2018-12-31,年度报告,-2662200605.4500003,2018,12,-0.7406428877138628,True,1.3981255784968891,True,0.0,True,比例外推,-2357747308.41,,-2357747308.41
21,600079,303978512.70000005,172766593.27,2019-03-31,一季度报告,164145207.91,2019,3,1.1401838793430805,False,0.17288927934236428,True,0.23929668725424078,False,前期平均,566927771.58,801160000.0,801160000.0
22,600079,562537002.9399999,336510294.54000014,2019-06-30,半年度报告,326677591.1500001,2019,6,-0.12433787470005235,True,0.3033120446756641,True,0.4093971648085688,False,平均增速,1218394369.1671646,810000000.0,810000000.0
23,600079,1090318151.17,745600172.22,2019-09-30,三季度报告,507215523.56,2019,9,-0.3560859423942059,True,0.3648235553997969,True,0.6086162407176299,False,平均增速,1692264762.8255117,881000000.0,881000000.0
24,600079,1351478253.7799995,842544886.9400003,2019-12-31,年度报告,538179322.6700001,2019,12,-1.3065785244925339,False,2.154174791662856,False,0.0,True,前期平均,842544886.9400003,881000000.0,842544886.9400003
25,600079,248948980.56,136652197.72,2020-03-31,一季度报告,137389644.82999998,2020,3,0.9779366357495827,False,0.10115856961267639,True,0.257983760153645,False,前期平均,-1092425356.0800002,1089000000.0,1089000000.0
