,SECURITYCODE_x,NETPROFIT_x,PARENTNETPROFIT_x,REPORTDATE_x,REPORTTIMETYPE_x,KCFJCXSYJLR,Year,Month,managesituationChangeRate,managesituationGreatChange,historyprofitextroplaterate,ifhistoryprofitextroplate,IfprofitdisStableChangeRage,IfprofitdisStable,predicttype,predict,analyst_prediction,adj_prediction
0,600085,1066701257.04,656013728.53,2013-12-31,年度报告,633345695.0799997,2013,12,未知,未知,未知,未知,未知,未知,未知,未知,未知,未知
1,600085,353834301.72,210807616.92000005,2014-03-31,一季度报告,208299814.1,2014,3,未知,未知,未知,未知,未知,未知,未知,未知,未知,未知
2,600085,722243779.02,425988565.46,2014-06-30,半年度报告,418268389.95999986,2014,6,未知,未知,未知,未知,未知,未知,未知,未知,未知,未知
3,600085,970367283.9299996,579462388.46,2014-09-30,三季度报告,570816657.4599999,2014,9,未知,未知,未知,未知,未知,未知,未知,未知,未知,未知
4,600085,1253965330.8,763669171.3100001,2014-12-31,年度报告,745666418.2,2014,12,0.0,True,未知,未知,未知,未知,未知,未知,未知,未知
5,600085,400890609.54,239735085.25000003,2015-03-31,一季度报告,238876932.95,2015,3,2.0146914865368637,False,未知,未知,未知,未知,未知,未知,905341675.0,未知
6,600085,830920472.6700003,490056837.06,2015-06-30,半年度报告,487954217.06,2015,6,0.4769268881587161,True,未知,未知,未知,未知,未知,未知,903160000.0,未知
7,600085,830920472.6700003,490056837.06,2015-06-30,半年度报告,488173630.06000006,2015,6,0.4769268881587161,True,未知,未知,未知,未知,未知,未知,903160000.0,未知
8,600085,1129941459.7300005,663330897.44,2015-09-30,三季度报告,661271635.21,2015,9,0.09927578423691963,True,未知,未知,未知,未知,未知,未知,907000000.0,未知
9,600085,1129941459.7300005,663330897.44,2015-09-30,三季度报告,660900922.5799999,2015,9,0.09927578423691963,True,未知,未知,未知,未知,未知,未知,907000000.0,未知
10,600085,1465649406.86,875437875.3800001,2015-12-31,年度报告,868231286.2799999,2015,12,-0.1493375208711153,True,未知,未知,未知,未知,未知,未知,912828619.9999999,未知
11,600085,441135980.4500001,262388942.02,2016-03-31,一季度报告,257551681.57,2016,3,1.66082874394085,False,未知,未知,未知,未知,未知,未知,1004800000.0,未知
12,600085,951539078.5300002,563254280.6700001,2016-06-30,半年度报告,554947054.7900001,2016,6,0.28375854504145775,True,未知,未知,0.0,True,未知,未知,1008650674.0,未知
13,600085,1286666115.1,758118036.1200001,2016-09-30,三季度报告,748428796.8,2016,9,-0.055967680577993645,True,未知,未知,0.00399944263111357,True,未知,未知,1009750000.0,未知
14,600085,1562183161.3500006,933165391.02,2016-12-31,年度报告,910359044.62,2016,12,-0.2721988955562739,True,0.2631279431003296,True,0.03208034134249216,True,比例外推,933165391.02,1090868538.0,1090868538.0
15,600085,500935643.19,293904008.95,2017-03-31,一季度报告,290529156.52999985,2017,3,1.418078108142221,False,0.16899806503943623,True,0.03903562717168407,True,前期平均,877264487.665,1054000000.0,1054000000.0
16,600085,1023184484.85,599802115.0200001,2017-06-30,半年度报告,595272364.2500001,2017,6,0.12102727161548617,True,0.22529098579835216,True,0.0,True,比例外推,1035284649.2080463,1026633333.0,1035284649.2080463
17,600085,1392565151.08,819323137.5000001,2017-09-30,三季度报告,810537159.6699997,2017,9,-0.17095721685567528,True,0.22521616784573706,True,0.007838806998331671,True,比例外推,1043836814.6005813,1014182657.9999999,1043836814.6005813
18,600085,1741717326.45,1017381549.82,2017-12-31,年度报告,999138800.61,2017,12,-0.31717273401015106,True,0.1488268097077074,True,0.027119299306652134,True,比例外推,1017381549.82,1162000000.0,1162000000.0
19,600085,538251690.0799999,316863784.72,2018-03-31,一季度报告,314622374.08000016,2018,3,1.1294177636216047,False,0.1898333120239091,True,0.03669972462481996,True,前期平均,957944642.91,1128708333.0,1128708333.0
20,600085,1076195621.41,639372953.4399999,2018-06-30,半年度报告,635740891.6800003,2018,6,0.042530719371081493,True,0.14805913453818825,True,0.0,True,比例外推,1082752467.793066,1126917500.0,1082752467.793066
21,600085,1448557731.01,849761832.3399997,2018-09-30,三季度报告,837749516.38,2018,9,-0.23400262011962394,True,0.1524958918313097,True,0.01822828089961076,True,比例外推,1061389178.9742346,1061000000.0,1061389178.9742346
22,600085,1822534017.57,1134283847.11,2018-12-31,年度报告,1001381541.1,2018,12,-0.38755776219200283,True,0.1504713600987994,True,0.021450245627365416,True,比例外推,1134283847.11,1061000000.0,1134283847.11
23,600085,568157373.28,349112557.44,2019-03-31,一季度报告,344969948.96000004,2019,3,0.9817889598850251,False,0.1426980211977715,True,0.01327560197020805,True,前期平均,1029821061.0050001,1210043333.0,1210043333.0
24,600085,1078583630.15,660687214.79,2019-06-30,半年度报告,655043833.2399999,2019,6,-0.008822154802637911,True,0.08997091174417261,True,0.0,True,比例外推,1073509957.4357015,1180900000.0,1073509957.4357015
25,600085,1388019701.64,850127347.41,2019-09-30,三季度报告,842389646.64,2019,9,-0.2636114983858824,True,0.08132339995817366,True,0.047265094293778565,True,比例外推,1030901919.134307,1173333333.0,1173333333.0
26,600085,1561601328.39,985435905.02,2019-12-31,年度报告,923907239.8200002,2019,12,-0.4147153102457633,True,0.10326205301878678,True,未知,未知,True,True,1168000000.0,1168000000.0
27,600085,358105739.14000005,238978450.08,2020-03-31,一季度报告,240413837.39,2020,3,0.8774749870478351,False,0.09346477788982487,True,未知,未知,前期平均,936662855.63,1085000000.0,1085000000.0
