,SECURITYCODE_x,NETPROFIT_x,PARENTNETPROFIT_x,REPORTDATE_x,REPORTTIMETYPE_x,KCFJCXSYJLR,Year,Month,managesituationChangeRate,managesituationGreatChange,historyprofitextroplaterate,ifhistoryprofitextroplate,IfprofitdisStableChangeRage,IfprofitdisStable,predicttype,predict,analyst_prediction,adj_prediction
0,600080,45291787.56,45594449.31,2013-12-31,年度报告,39246510.95,2013,12,未知,未知,未知,未知,未知,未知,未知,未知,未知,未知
1,600080,3829877.76,3940708.2900000005,2014-03-31,一季度报告,3618614.52,2014,3,未知,未知,未知,未知,未知,未知,未知,未知,未知,未知
2,600080,18203908.9,18385865.04,2014-06-30,半年度报告,17218606.82,2014,6,未知,未知,未知,未知,未知,未知,未知,未知,未知,未知
3,600080,28438205.02,29248619.05,2014-09-30,三季度报告,28024180.649999995,2014,9,未知,未知,未知,未知,未知,未知,未知,未知,未知,未知
4,600080,29808133.97000001,30950766.41999999,2014-12-31,年度报告,28264055.000000004,2014,12,0.0,True,未知,未知,未知,未知,未知,未知,未知,未知
5,600080,2341521.68,2386763.430000001,2015-03-31,一季度报告,1707805.9399999997,2015,3,10.825909441036574,False,未知,未知,未知,未知,未知,未知,未知,未知
6,600080,12049303.279999996,12104534.630000005,2015-06-30,半年度报告,9840224.000000002,2015,6,1.488025391074112,False,未知,未知,未知,未知,未知,未知,未知,未知
7,600080,22201198.71,21965793.19,2015-09-30,三季度报告,19742482.78,2015,9,0.5926387593080235,False,未知,未知,未知,未知,未知,未知,未知,未知
8,600080,25756822.099999994,25384136.05,2015-12-31,年度报告,19127769.980000008,2015,12,0.5194439076791356,False,未知,未知,未知,未知,未知,未知,未知,未知
9,600080,2899884.5300000007,3041021.22,2016-03-31,一季度报告,3411239.9600000004,2016,3,18.342886272144188,False,未知,未知,未知,未知,未知,未知,59690000.0,未知
10,600080,12601564.489999998,12606142.819999995,2016-06-30,半年度报告,13042603.44,2016,6,2.758871903836752,False,未知,未知,未知,未知,未知,未知,46000000.0,未知
11,600080,25499987.07,25442056.549999993,2016-09-30,三季度报告,24808860.43,2016,9,1.0400604558167121,False,未知,未知,未知,未知,未知,未知,46000000.0,未知
12,600080,27807727.770000003,27299103.90000001,2016-12-31,年度报告,24525260.29,2016,12,0.7584384977368778,False,0.3140652726325162,True,0.0,True,前期平均,27299103.90000001,未知,27299103.90000001
13,600080,5982239.66,5918565.69,2017-03-31,一季度报告,6131574.91,2017,3,14.618479664085104,False,0.06021816990021279,True,0.029517168965183888,True,前期平均,26951267.950000003,55000000.0,55000000.0
14,600080,14115796.02,13904474.98,2017-06-30,半年度报告,14576240.16,2017,6,2.5941400447493175,False,0.1669271735494765,True,0.0573867883150283,True,前期平均,24070972.060000006,,24070972.060000006
15,600080,29188999.51,28845762.89,2017-09-30,三季度报告,29517528.070000004,2017,9,0.7761494323769476,False,0.007120352599775693,True,0.02039923127246701,True,前期平均,28658343.665000007,未知,28658343.665000007
16,600080,53811886.63,53462801.12,2017-12-31,年度报告,33721168.40000001,2017,12,0.6287482362677056,False,0.0009088366764185007,True,0.0,True,前期平均,53462801.12,58000000.0,53462801.12
17,600080,5848476.27,6345337.560000001,2018-03-31,一季度报告,5964306.45,2018,3,6.571041973266582,False,1.2826849972385557,True,0.047451427189217146,True,前期平均,25612329.745000005,未知,25612329.745000005
18,600080,19438749.84,20093525.910000004,2018-06-30,半年度报告,20474032.49,2018,6,2.2085889804463186,False,0.1452575342746242,True,0.06057804561757363,True,前期平均,30478627.325000007,未知,30478627.325000007
19,600080,34126735.65,34859429.510000005,2018-09-30,三季度报告,35819682.01,2018,9,0.5516731755222809,False,0.22382699854133484,True,0.09767279374112581,True,前期平均,34410273.04000001,未知,34410273.04000001
20,600080,36887503.0,38322012.62000001,2018-12-31,年度报告,37878424.18000001,2018,12,-0.1583311718576703,True,1.0092350915148278,True,0.0,True,比例外推,38322012.62000001,未知,38322012.62000001
21,600080,11249485.18,11066913.569999997,2019-03-31,一季度报告,9092739.26,2019,3,6.74420301443747,False,0.31690936647441736,True,0.022371058227308865,True,前期平均,35418720.480000004,未知,35418720.480000004
22,600080,25057158.95,24863415.69,2019-06-30,半年度报告,20875706.55,2019,6,1.3299743004460622,False,0.45513998905126135,True,0.06926892611539354,True,前期平均,40177208.235000014,未知,40177208.235000014
23,600080,41706511.44000001,41470353.7,2019-09-30,三季度报告,36737138.74999999,2019,9,0.32716436826854856,True,0.24802954979166847,True,0.06884329164316028,True,比例外推,43642071.2264922,未知,43642071.2264922
24,600080,26410325.56,25902673.81,2019-12-31,年度报告,13385086.969999995,2019,12,0.22783555070127687,True,0.09611180422337312,True,0.0,True,比例外推,25902673.81,未知,25902673.81
25,600080,-1064840.0700000005,-1043390.17,2020-03-31,一季度报告,-2709605.24,2020,3,3.026120914450594,False,0.9017420833296942,True,0.33978215945613205,False,盈利变化,10166214.476666665,未知,10166214.476666665
