,SECURITYCODE_x,NETPROFIT_x,PARENTNETPROFIT_x,REPORTDATE_x,REPORTTIMETYPE_x,KCFJCXSYJLR,Year,Month,managesituationChangeRate,managesituationGreatChange,historyprofitextroplaterate,ifhistoryprofitextroplate,IfprofitdisStableChangeRage,IfprofitdisStable,predicttype,predict,analyst_prediction,adj_prediction
0,600012,917211861.2,847910073.1800001,2013-12-31,年度报告,845813722.11,2013,12,未知,未知,未知,未知,未知,未知,未知,未知,未知,未知
1,600012,261001277.26,260076573.47,2014-03-31,一季度报告,259769901.8700001,2014,3,未知,未知,未知,未知,未知,未知,未知,未知,未知,未知
2,600012,441744577.41,438331682.23000014,2014-06-30,半年度报告,437619404.5,2014,6,未知,未知,未知,未知,未知,未知,未知,未知,未知,未知
3,600012,676098201.2099999,670404459.3900001,2014-09-30,三季度报告,669603911.7900001,2014,9,未知,未知,未知,未知,未知,未知,未知,未知,未知,未知
4,600012,867661583.1199998,860865567.67,2014-12-31,年度报告,830491624.27,2014,12,0.0,True,未知,未知,未知,未知,未知,未知,未知,未知
5,600012,232166693.26,223296323.15,2015-03-31,一季度报告,222757069.43,2015,3,2.5142044929010323,False,未知,未知,未知,未知,未知,未知,902500000.0,未知
6,600012,489229537.9599999,470895413.8399999,2015-06-30,半年度报告,471688639.2299999,2015,6,1.076339830989483,False,未知,未知,未知,未知,未知,未知,937000000.0,未知
7,600012,729798284.1799997,702485583.9999999,2015-09-30,三季度报告,701736542.05,2015,9,0.3566252055670074,True,未知,未知,未知,未知,未知,未知,914000000.0,未知
8,600012,967459887.81,937866859.9399998,2015-12-31,年度报告,939137601.33,2015,12,0.05710783909761665,True,未知,未知,未知,未知,未知,未知,未知,未知
9,600012,248767349.01,254213916.3100001,2016-03-31,一季度报告,253859154.47000003,2016,3,2.9506608304612767,False,未知,未知,未知,未知,未知,未知,952000000.0,未知
10,600012,474210164.1799999,481661753.0399999,2016-06-30,半年度报告,480896964.72,2016,6,0.8748088372272251,False,未知,未知,未知,未知,未知,未知,989000000.0,未知
11,600012,688716458.6,700761382.3,2016-09-30,三季度报告,700362523.76,2016,9,0.2568018877032274,True,未知,未知,未知,未知,未知,未知,,未知
12,600012,909040451.29,933257550.08,2016-12-31,年度报告,931530732.81,2016,12,-0.05193809815076089,True,0.08406552956317011,True,0.0,True,比例外推,933257550.08,952000000.0,933257550.08
13,600012,298036251.65000004,293545766.39,2017-03-31,一季度报告,290297920.26,2017,3,2.687026713313289,False,0.00885444262610098,True,0.03862317617252137,True,前期平均,937096893.54,未知,937096893.54
14,600012,515928386.9000001,524322976.55,2017-06-30,半年度报告,520804653.28,2017,6,0.9341885317579282,False,0.018739740130224985,True,0.012889847000410293,True,前期平均,954483567.4850001,1067600000.0,1067600000.0
15,600012,825170102.4999998,825982403.7099999,2017-09-30,三季度报告,822433353.76,2017,9,0.33176991742650946,True,0.02024584916869161,True,0.037831334871365696,True,比例外推,1073808747.9079006,,1073808747.9079006
16,600012,1085625159.6900003,1091343092.2800002,2017-12-31,年度报告,1101477260.4999998,2017,12,0.008989049825455194,True,0.009285798580605192,True,0.0,True,比例外推,1091343092.2800002,未知,1091343092.2800002
17,600012,264333984.41,268062776.35999995,2018-03-31,一季度报告,268192156.47,2018,3,2.077517772157231,False,0.23940592869356603,True,0.020561701324165793,True,前期平均,965088831.48,未知,965088831.48
18,600012,548541517.6899999,555596747.3199999,2018-06-30,半年度报告,554951814.7999998,2018,6,0.7777890972643434,False,0.07101334054225894,True,0.024284478987499303,True,前期平均,1014638112.415,1148000000.0,1148000000.0
19,600012,846609503.8600001,851751809.4200001,2018-09-30,三季度报告,850205568.6199999,2018,9,0.11154276969214394,True,0.16342830654383553,True,0.0032677586849121365,True,比例外推,1137315060.1093326,1148000000.0,1137315060.1093326
20,600012,1096642037.84,1123042225.39,2018-12-31,年度报告,1120711864.99,2018,12,-0.15513024637167638,True,0.15707430163394884,True,0.0,True,比例外推,1123042225.39,未知,1123042225.39
21,600012,290128490.67000014,289033267.3,2019-03-31,一季度报告,288584560.41,2019,3,2.4698976117173874,False,0.03316662841669315,True,0.019153725267277516,True,前期平均,1033458726.5899999,1163000000.0,1163000000.0
22,600012,544747858.83,547875668.55,2019-06-30,半年度报告,547016641.85,2019,6,0.6720919595339521,False,0.10800961560717899,True,0.02192472615072405,True,前期平均,1063528856.2049998,1113333333.0,1063528856.2049998
23,600012,842055747.8799999,845539764.0999999,2019-09-30,三季度报告,844004524.7000003,2019,9,0.08339424140421071,True,0.11845831202154027,True,0.006251811729901746,True,比例外推,1123317624.1713634,1125000000.0,1123317624.1713634
24,600012,1059204628.74,1097546191.64,2019-12-31,年度报告,1084806943.04,2019,12,-0.16361781734485975,True,0.09957481775725617,True,0.0,True,比例外推,1097546191.64,1125000000.0,1097546191.64
25,600012,-74644915.58,-26142369.46,2020-03-31,一季度报告,-34112255.849999994,2020,3,2.161398796381088,False,0.03180599564677503,True,0.016988927339577603,True,盈利变化,667283769.96,541813333.0,541813333.0
