,SECURITYCODE_x,NETPROFIT_x,PARENTNETPROFIT_x,REPORTDATE_x,REPORTTIMETYPE_x,KCFJCXSYJLR,Year,Month,managesituationChangeRate,managesituationGreatChange,historyprofitextroplaterate,ifhistoryprofitextroplate,IfprofitdisStableChangeRage,IfprofitdisStable,predicttype,predict,analyst_prediction,adj_prediction
0,600090,166575968.18,94453318.77,2013-12-31,年度报告,44431047.54,2013,12,未知,未知,未知,未知,未知,未知,未知,未知,未知,未知
1,600090,13313279.230000002,4887259.71,2014-03-31,一季度报告,4490251.48,2014,3,未知,未知,未知,未知,未知,未知,未知,未知,未知,未知
2,600090,63680423.86,29409276.09,2014-06-30,半年度报告,27528665.56,2014,6,未知,未知,未知,未知,未知,未知,未知,未知,未知,未知
3,600090,130456090.12,61453554.3,2014-09-30,三季度报告,58137330.67,2014,9,未知,未知,未知,未知,未知,未知,未知,未知,未知,未知
4,600090,94706039.88,37759185.79000001,2014-12-31,年度报告,285988212.97,2014,12,0.0,True,未知,未知,未知,未知,未知,未知,未知,未知
5,600090,28019988.809999995,12212819.05,2015-03-31,一季度报告,5452271.619999999,2015,3,11.512016408747703,False,未知,未知,未知,未知,未知,未知,未知,未知
6,600090,158395183.20000002,137615584.72,2015-06-30,半年度报告,137318444.85,2015,6,1.6158112349599554,False,未知,未知,未知,未知,未知,未知,,未知
7,600090,229024625.12,197222231.17,2015-09-30,三季度报告,189507781.77,2015,9,0.276873835685058,True,未知,未知,未知,未知,未知,未知,未知,未知
8,600090,229024625.12,197222231.17,2015-09-30,三季度报告,194226177.07,2015,9,0.276873835685058,True,未知,未知,未知,未知,未知,未知,未知,未知
9,600090,396823209.83000016,341777335.07,2015-12-31,年度报告,337008677.43000007,2015,12,0.7588737570598968,False,未知,未知,未知,未知,未知,未知,未知,未知
10,600090,97162236.66,81313021.77,2016-03-31,一季度报告,81627438.84,2016,3,4.944897741020905,False,未知,未知,未知,未知,未知,未知,未知,未知
11,600090,211848281.35999995,174793171.4,2016-06-30,半年度报告,174468177.0,2016,6,0.05164794039014684,True,未知,未知,未知,未知,未知,未知,未知,未知
12,600090,303638929.51,247588391.74000004,2016-09-30,三季度报告,247176812.46000007,2016,9,-0.2726722373512426,True,未知,未知,0.0,True,未知,未知,未知,未知
13,600090,551264426.71,472783670.39,2016-12-31,年度报告,470705465.5399999,2016,12,-0.5802262467173694,True,2.0375088799751944,False,0.10498365222372948,False,未知,未知,未知,未知
14,600090,155083323.45,130866916.15999998,2017-03-31,一季度报告,128570034.71999998,2017,3,0.7144105972251299,False,3.701405974769374,False,0.19519969820648636,False,去年同期,519944942.8599999,未知,519944942.8599999
15,600090,289751372.86,245501351.7199999,2017-06-30,半年度报告,244080606.33,2017,6,-0.21370158346041707,True,0.9078932996253223,True,0.2269571825231129,False,平均增速,643430418.618937,未知,643430418.618937
16,600090,455127245.5299999,402070933.54,2017-09-30,三季度报告,398304258.29,2017,9,-0.45140114790678043,True,0.689319713894981,True,0.0,True,比例外推,929532610.5367649,未知,929532610.5367649
17,600090,581013703.9800001,514978299.12,2017-12-31,年度报告,511032245.5500001,2017,12,-0.6978292809965234,True,1.2430584834381406,True,0.13088237802886532,False,平均增速,514978299.12,未知,514978299.12
18,600090,137424859.7,132839681.56000002,2018-03-31,一季度报告,132524900.09,2018,3,0.07410625768350479,True,1.477721144000045,True,0.059043413865190464,True,比例外推,901471935.4603957,未知,901471935.4603957
19,600090,243788100.76,229065211.10000005,2018-06-30,半年度报告,230066723.08,2018,6,-0.42510723405446993,True,0.5651937203231537,True,0.15712644875941473,False,平均增速,520546987.28282106,未知,520546987.28282106
20,600090,450817278.6,424070199.76000017,2018-09-30,三季度报告,403359276.22999984,2018,9,-0.6340013264070343,True,0.7088732336723937,True,0.0,True,比例外推,668901759.3090118,未知,668901759.3090118
21,600090,606618262.52,570850856.68,2018-12-31,年度报告,528645957.89,2018,12,-0.71330113723835,True,0.2256540040968817,True,0.0,True,比例外推,570850856.68,未知,570850856.68
22,600090,606618262.52,570850856.68,2018-12-31,年度报告,528645957.89,2018,12,-0.71330113723835,True,0.2256540040968817,True,0.051815370201124145,True,比例外推,570850856.68,未知,570850856.68
23,600090,564618099.8599999,528880081.4599999,2018-12-31,年度报告,528645957.89,2018,12,-0.71330113723835,True,0.2256540040968817,True,0.0,True,比例外推,528880081.4599999,未知,528880081.4599999
24,600090,564618099.8599999,528880081.4599999,2018-12-31,年度报告,528645957.89,2018,12,-0.71330113723835,True,0.2256540040968817,True,0.051815370201124145,True,比例外推,528880081.4599999,未知,528880081.4599999
25,600090,145178381.85,138589227.04999998,2019-03-31,一季度报告,138151299.08,2019,3,0.2121239821065651,True,0.08961172311672286,True,0.057172544070772435,True,比例外推,613815391.7039561,未知,613815391.7039561
26,600090,289829548.1,270821413.08000004,2019-06-30,半年度报告,262442565.25,2019,6,-0.3167182169240178,True,0.027957460859511174,True,0.1640586470854689,False,平均增速,599377063.2058296,未知,599377063.2058296
27,600090,440753943.07000005,409002620.42000014,2019-09-30,三季度报告,400826538.21,2019,9,-0.6305022542674122,True,0.18829039414213275,True,0.1640586470854689,False,平均增速,537658942.8481847,未知,537658942.8481847
28,600090,440753943.07000005,409002620.42000014,2019-09-30,三季度报告,400826538.21,2019,9,-0.6305022542674122,True,0.18829039414213275,True,0.0,True,比例外推,589776500.7823946,未知,589776500.7823946
29,600090,460969640.44000006,429218368.61,2019-09-30,三季度报告,400826538.21,2019,9,-0.6305022542674122,True,0.18829039414213275,True,0.1640586470854689,False,平均增速,557874691.0381845,未知,557874691.0381845
30,600090,460969640.44000006,429218368.61,2019-09-30,三季度报告,400826538.21,2019,9,-0.6305022542674122,True,0.18829039414213275,True,0.0,True,比例外推,609992248.9723945,未知,609992248.9723945
31,600090,166085132.09,155565890.26000002,2019-12-31,年度报告,525217471.9,2019,12,-0.7254023189344583,True,0.07150044865802062,True,0.0,True,比例外推,155565890.26000002,未知,155565890.26000002
32,600090,166085132.09,155565890.26000002,2019-12-31,年度报告,525217471.9,2019,12,-0.7254023189344583,True,0.07150044865802062,True,0.007932140526285103,True,比例外推,155565890.26000002,未知,155565890.26000002
33,600090,565728058.95,522448821.62,2019-12-31,年度报告,525217471.9,2019,12,-0.7254023189344583,True,0.07150044865802062,True,0.0,True,比例外推,522448821.62,未知,522448821.62
34,600090,565728058.95,522448821.62,2019-12-31,年度报告,525217471.9,2019,12,-0.7254023189344583,True,0.07150044865802062,True,0.007932140526285103,True,比例外推,522448821.62,未知,522448821.62
35,600090,97927456.87999998,89492678.16,2020-03-31,一季度报告,90092615.98,2020,3,0.14738824098555012,True,0.007355074401103941,True,未知,未知,True,True,未知,True
