,SECURITYCODE_x,NETPROFIT_x,PARENTNETPROFIT_x,REPORTDATE_x,REPORTTIMETYPE_x,KCFJCXSYJLR,Year,Month,managesituationChangeRate,managesituationGreatChange,historyprofitextroplaterate,ifhistoryprofitextroplate,IfprofitdisStableChangeRage,IfprofitdisStable,predicttype,predict,analyst_prediction,adj_prediction
0,600018,6275614832.099999,5255528522.52,2013-12-31,年度报告,5103255017.25,2013,12,未知,未知,未知,未知,未知,未知,未知,未知,未知,未知
1,600018,1698885845.0399995,1438541605.4899995,2014-03-31,一季度报告,1386224742.13,2014,3,未知,未知,未知,未知,未知,未知,未知,未知,未知,未知
2,600018,3472545424.65,2932075850.8,2014-06-30,半年度报告,2799653661.35,2014,6,未知,未知,未知,未知,未知,未知,未知,未知,未知,未知
3,600018,5506647516.209998,4679385941.29,2014-09-30,三季度报告,4474172688.07,2014,9,未知,未知,未知,未知,未知,未知,未知,未知,未知,未知
4,600018,7847793313.240002,6766548224.749999,2014-12-31,年度报告,6220143316.9,2014,12,0.0,True,未知,未知,未知,未知,未知,未知,未知,未知
5,600018,1827335305.2499995,1504418081.3500006,2015-03-31,一季度报告,1483022849.52,2015,3,2.6939591029156187,False,未知,未知,未知,未知,未知,未知,7432808571.0,未知
6,600018,3765107602.15,3097824574.99,2015-06-30,半年度报告,3008784682.7000012,2015,6,0.8072088524896754,False,未知,未知,未知,未知,未知,未知,7255993333.000001,未知
7,600018,5536695176.07,4524713522.91,2015-09-30,三季度报告,4342401761.69,2015,9,0.13964346067664238,True,未知,未知,未知,未知,未知,未知,6846750000.0,未知
8,600018,7865271963.939997,6562453504.510001,2015-12-31,年度报告,5687842921.1,2015,12,-0.2003338286811889,True,未知,未知,未知,未知,未知,未知,7197433333.000001,未知
9,600018,1482812976.66,1219612466.62,2016-03-31,一季度报告,1169966337.0600002,2016,3,2.434298464036641,False,未知,未知,未知,未知,未知,未知,6568616666.999999,未知
10,600018,3485352033.9199986,2917150223.48,2016-06-30,半年度报告,2713566038.17,2016,6,0.6667823327323812,False,未知,未知,未知,未知,未知,未知,6198409275.0,未知
11,600018,4777960731.75,3958005194.59,2016-09-30,三季度报告,3578336502.13,2016,9,0.1334586124993235,True,未知,未知,未知,未知,未知,未知,6039222500.0,未知
12,600018,8089999999.999998,6940000000.000001,2016-12-31,年度报告,6100635109.34,2016,12,-0.20211089192187082,True,0.11379234856073077,True,0.0,True,比例外推,6940000000.000001,7046285000.0,6940000000.000001
13,600018,1443011380.86,1141577613.42,2017-03-31,一季度报告,1034433377.1200002,2017,3,3.2322362502084845,False,0.15897902402516503,True,0.035610908950955644,True,前期平均,5660946936.594999,8478793333.000001,8478793333.000001
14,600018,4029169449.100001,3372807281.5,2017-06-30,半年度报告,2436559722.820001,2017,6,0.8005684278158192,False,0.03688335956027857,True,0.05435836168688385,True,前期平均,6422581228.474999,8760016250.0,8760016250.0
15,600018,5765489289.759999,4763294170.19,2017-09-30,三季度报告,3596687277.46,2017,9,0.3134504832569984,True,0.13468940249584044,True,0.10321800998469621,False,平均增速,7283861343.119955,8939359091.0,8939359091.0
16,600018,12850000000.0,11530000000.0,2017-12-31,年度报告,6361521823.809998,2017,12,-0.22427505165636577,True,0.02971633571064741,True,0.0,True,比例外推,11530000000.0,8480425000.0,8480425000.0
17,600018,12850000000.0,11530000000.0,2017-12-31,年度报告,6361521823.809998,2017,12,-0.22427505165636577,True,0.02971633571064741,True,0.0,True,比例外推,11530000000.0,8480425000.0,8480425000.0
18,600018,12846413455.930004,11536191567.22,2017-12-31,年度报告,6361521823.809998,2017,12,-0.22427505165636577,True,0.02971633571064741,True,0.0,True,比例外推,11536191567.22,8480425000.0,8480425000.0
19,600018,12846413455.930004,11536191567.22,2017-12-31,年度报告,6361521823.809998,2017,12,-0.22427505165636577,True,0.02971633571064741,True,0.0,True,比例外推,11536191567.22,8480425000.0,8480425000.0
20,600018,1896342163.95,1650974109.9299998,2018-03-31,一季度报告,1550545337.3800006,2018,3,3.3489711275595657,False,0.12812885830760246,True,0.055695152499286804,True,前期平均,6218718531.860001,11094796154.0,11094796154.0
21,600018,3994224347.76,3386511356.670001,2018-06-30,半年度报告,3208721833.91,2018,6,0.5575455218200835,False,0.11142455825985421,True,0.07671819264961016,True,前期平均,6419575011.455001,10728991101.0,10728991101.0
22,600018,5984947888.179999,5109122994.43,2018-09-30,三季度报告,4834649240.48,2018,9,0.0884791414400902,True,0.11792178843095004,True,0.12499110138382563,False,平均增速,8429501576.596168,10215728000.0,10215728000.0
23,600018,11472021103.160006,10276342534.27,2018-12-31,年度报告,7593552326.830002,2018,12,-0.5116253048949416,True,0.6107528632594766,True,0.0,True,比例外推,10276342534.27,10215728000.0,10276342534.27
24,600018,2132185916.83,1922231042.1600003,2019-03-31,一季度报告,1858147887.3200004,2019,3,2.3093262130649252,False,0.2962788822753433,True,0.023584817194128527,True,前期平均,7051109651.645,9958750000.0,9958750000.0
25,600018,4880941188.89,4373200456.59,2019-06-30,半年度报告,4132719254.53,2019,6,0.5711723442924345,False,0.06306818252777621,True,0.033776286063185446,True,前期平均,8029216042.669998,9838200000.0,9838200000.0
26,600018,7566873258.270001,6766942245.13,2019-09-30,三季度报告,6430008630.48,2019,9,0.048566328287344675,True,0.1352921246783422,True,0.04047444967060099,True,比例外推,11121851703.232876,9413933333.0,9413933333.0
27,600018,9925845382.34,9062278383.660002,2019-12-31,年度报告,8618653274.57,2019,12,-0.45296345119419623,True,0.09570402131423167,True,0.0,True,比例外推,9062278383.660002,9293000000.0,9062278383.660002
28,600018,1897923894.72,1666503558.9500005,2020-03-31,一季度报告,1559818396.95,2020,3,1.9432774987230894,False,0.277005197693924,True,0.031524247222729646,True,前期平均,7351551277.0199995,8561000000.0,8561000000.0
