,SECURITYCODE_x,NETPROFIT_x,PARENTNETPROFIT_x,REPORTDATE_x,REPORTTIMETYPE_x,KCFJCXSYJLR,Year,Month,managesituationChangeRate,managesituationGreatChange,historyprofitextroplaterate,ifhistoryprofitextroplate,IfprofitdisStableChangeRage,IfprofitdisStable,predicttype,predict,analyst_prediction,adj_prediction
0,600094,410761586.56999993,255450881.08,2013-12-31,年度报告,226226815.48,2013,12,未知,未知,未知,未知,未知,未知,未知,未知,未知,未知
1,600094,76880589.28999999,57167114.68,2014-03-31,一季度报告,58075110.28,2014,3,未知,未知,未知,未知,未知,未知,未知,未知,未知,未知
2,600094,132850655.63,85449998.00000001,2014-06-30,半年度报告,87293559.47000003,2014,6,未知,未知,未知,未知,未知,未知,未知,未知,未知,未知
3,600094,99652658.21,55120160.29,2014-09-30,三季度报告,57536847.54,2014,9,未知,未知,未知,未知,未知,未知,未知,未知,未知,未知
4,600094,588288369.3299999,345433272.88,2014-12-31,年度报告,347054572.98,2014,12,0.0,True,未知,未知,未知,未知,未知,未知,未知,未知
5,600094,43272873.1,21863119.62,2015-03-31,一季度报告,21327170.5,2015,3,4.342851691999563,False,未知,未知,未知,未知,未知,未知,616822361.0,未知
6,600094,189672031.66,130563225.06,2015-06-30,半年度报告,117856834.44,2015,6,2.091904850767201,False,未知,未知,未知,未知,未知,未知,613460000.0,未知
7,600094,329262488.88,273640458.08000004,2015-09-30,三季度报告,215318077.07,2015,9,3.121933061779386,False,未知,未知,未知,未知,未知,未知,618330000.0,未知
8,600094,640659661.6199999,457241571.49000007,2015-12-31,年度报告,482575374.54000014,2015,12,-0.3017683027835223,True,未知,未知,未知,未知,未知,未知,656000000.0,未知
9,600094,112609821.95999998,146444817.07000002,2016-03-31,一季度报告,149464010.88,2016,3,8.492357616762911,False,未知,未知,未知,未知,未知,未知,583986667.0,未知
10,600094,297330576.7500001,350386977.07000005,2016-06-30,半年度报告,340361921.31999993,2016,6,1.165641307129129,False,未知,未知,未知,未知,未知,未知,650853333.0,未知
11,600094,722136248.77,794768130.1800001,2016-09-30,三季度报告,765400120.75,2016,9,0.24752014104984293,True,未知,未知,未知,未知,未知,未知,963480000.0,未知
12,600094,1090596920.7900002,840250298.8199999,2016-12-31,年度报告,816879475.41,2016,12,-0.35884587218847164,True,0.28253779070108254,True,0.0,True,比例外推,840250298.8199999,,840250298.8199999
13,600094,257571001.2600001,278424122.00999993,2017-03-31,一季度报告,-92903485.59,2017,3,2.6476532812200535,False,0.8744332409578929,True,0.08730587303741072,True,前期平均,653537955.3800001,1125996667.0,1125996667.0
14,600094,270344492.22,320972540.54,2017-06-30,半年度报告,-51071032.54,2017,6,0.3814979645210666,True,0.8437808468503298,True,0.11252354565532635,False,平均增速,652526316.158496,1143705000.0,1143705000.0
15,600094,612241585.68,656959403.23,2017-09-30,三季度报告,323529141.19000006,2017,9,-0.43118547605158747,True,2.3672685782695053,False,0.4206631355736715,False,未知,未知,966410000.0,未知
16,600094,1485557648.9999995,1411975364.11,2017-12-31,年度报告,1046578025.69,2017,12,-0.623360768089777,True,0.7748462804353873,True,0.0,True,比例外推,1411975364.11,,1411975364.11
17,600094,33870853.56,37521932.22000001,2018-03-31,一季度报告,31147177.02,2018,3,0.5947509019284533,False,2.3046772916116165,False,0.1368377597248546,False,去年同期,1177003443.5,1658316667.0,1658316667.0
18,600094,328411066.29,265324022.57,2018-06-30,半年度报告,253868818.1900001,2018,6,0.5194006106687454,False,0.11023837470866733,True,0.25282735601438455,False,前期平均,685942069.665,,685942069.665
19,600094,121827868.38,55631722.7,2018-09-30,三季度报告,18854274.76,2018,9,-0.3290857789188261,True,0.16462301837727522,True,0.37288170640732654,False,平均增速,614276296.0414891,未知,614276296.0414891
20,600094,762570690.0799997,550664771.2,2018-12-31,年度报告,511741298.3,2018,12,-0.7234967038495589,True,0.7161611561147398,True,0.0,True,比例外推,550664771.2,,550664771.2
21,600094,183441649.54999995,158830375.11999995,2019-03-31,一季度报告,159237366.40999997,2019,3,11.127287723716872,False,0.8170037374417399,True,0.1404573936051203,False,前期平均,1062278863.0249999,未知,1062278863.0249999
22,600094,473902483.2199999,275336598.6,2019-06-30,半年度报告,277386508.79999995,2019,6,0.2507544012152171,True,0.1570388915823799,True,0.3367818493570557,False,平均增速,530335788.03082,未知,530335788.03082
23,600094,700914307.8299999,461866197.28,2019-09-30,三季度报告,457970043.88000005,2019,9,2.3716553694329683,False,0.8174012408858475,True,0.50932904271704,False,前期平均,849130316.8599999,未知,849130316.8599999
24,600094,998087009.99,743559126.3500001,2019-12-31,年度报告,746231475.0200001,2019,12,-0.46134621758553584,True,0.4079775344053505,True,0.0,True,比例外推,743559126.3500001,未知,743559126.3500001
25,600094,149081745.45999998,118999911.07,2020-03-31,一季度报告,108685506.99,2020,3,1.2391947934268892,False,0.2588559022402387,True,0.15156037712457526,False,前期平均,929037727.3499999,1002330000.0,929037727.3499999
