,SECURITYCODE_x,NETPROFIT_x,PARENTNETPROFIT_x,REPORTDATE_x,REPORTTIMETYPE_x,KCFJCXSYJLR,Year,Month,managesituationChangeRate,managesituationGreatChange,historyprofitextroplaterate,ifhistoryprofitextroplate,IfprofitdisStableChangeRage,IfprofitdisStable,predicttype,predict,analyst_prediction,adj_prediction
0,600060,1623349310.01,1582879067.44,2013-12-31,年度报告,1484302760.33,2013,12,未知,未知,未知,未知,未知,未知,未知,未知,未知,未知
1,600060,471521399.73,456656797.7999999,2014-03-31,一季度报告,438796311.1199998,2014,3,未知,未知,未知,未知,未知,未知,未知,未知,未知,未知
2,600060,617898604.2500001,612997310.1099999,2014-06-30,半年度报告,570892227.9300001,2014,6,未知,未知,未知,未知,未知,未知,未知,未知,未知,未知
3,600060,947525403.3200004,919222062.3800002,2014-09-30,三季度报告,858577281.1500003,2014,9,未知,未知,未知,未知,未知,未知,未知,未知,未知,未知
4,600060,1442827312.34,1400067139.61,2014-12-31,年度报告,1320060900.82,2014,12,0.0,True,未知,未知,未知,未知,未知,未知,未知,未知
5,600060,498312331.3600001,482914019.10000014,2015-03-31,一季度报告,462058573.2899999,2015,3,2.442790318614496,False,未知,未知,未知,未知,未知,未知,1611816250.0,未知
6,600060,644808542.9200001,625135727.84,2015-06-30,半年度报告,580223790.7100003,2015,6,1.6272098671923803,False,未知,未知,未知,未知,未知,未知,1529546265.0000002,未知
7,600060,943133231.37,928046109.34,2015-09-30,三季度报告,851729530.3999997,2015,9,0.7132514910122771,False,未知,未知,未知,未知,未知,未知,1445936667.0,未知
8,600060,1536478537.6000006,1488782382.67,2015-12-31,年度报告,1338391297.79,2015,12,0.12511684255354624,True,未知,未知,未知,未知,未知,未知,1441012500.0,未知
9,600060,533369058.6700002,532238888.13,2016-03-31,一季度报告,515737294.7100001,2016,3,2.2576944375017476,False,未知,未知,未知,未知,未知,未知,1654997000.0,未知
10,600060,741245139.3699999,740986618.0199999,2016-06-30,半年度报告,700501052.2599999,2016,6,1.517567932116255,False,未知,未知,未知,未知,未知,未知,1701543485.0,未知
11,600060,1141419985.4199998,1139778113.93,2016-09-30,三季度报告,1081844123.39,2016,9,0.7212301040987759,False,未知,未知,未知,未知,未知,未知,1776688746.9999998,未知
12,600060,1789156287.1000004,1758869028.4099998,2016-12-31,年度报告,1702232358.4600005,2016,12,0.05653887788481097,True,0.002211370604216731,True,0.0,True,比例外推,1758869028.4099998,1776688746.9999998,1758869028.4099998
13,600060,267975722.11,268612460.81,2017-03-31,一季度报告,233023518.27,2017,3,2.043576082305853,False,0.09991855628808559,True,0.02389545193098902,True,前期平均,1147411117.9099998,1938996423.0,1938996423.0
14,600060,388608416.14000016,396024069.34,2017-06-30,半年度报告,320827646.55,2017,6,1.1900302933382056,False,0.1740570900090185,True,0.01431977739477408,True,前期平均,1149692159.3249998,1409849091.0,1409849091.0
15,600060,614051973.35,599586603.07,2017-09-30,三季度报告,485350508.29000014,2017,9,0.4222191049271563,True,0.2074310660603746,True,0.009629092426994501,True,比例外推,871675225.167145,1114838504.0,1114838504.0
16,600060,1027036784.81,966527175.67,2017-12-31,年度报告,731397687.0000001,2017,12,-0.09267327750263386,True,0.20105580105918414,True,0.0,True,比例外推,966527175.67,2024950000.0,2024950000.0
17,600060,287998412.25,278188413.83,2018-03-31,一季度报告,232380424.22000003,2018,3,5.05782231773832,False,0.4805068217772009,True,0.022963755732036184,True,前期平均,1309602307.9550002,1336191250.0,1309602307.9550002
18,600060,376786270.20000017,335838260.78000003,2018-06-30,半年度报告,218526838.51,2018,6,3.177339559792683,False,0.43925921325362816,True,0.016378414366989724,True,前期平均,1215787667.4200003,1019210000.0,1019210000.0
19,600060,366373611.84,335401734.65,2018-09-30,三季度报告,117692047.26,2018,9,1.643667605453189,False,0.41085507589431786,True,0.018419653609039632,True,前期平均,888926735.8800002,607000000.0,607000000.0
20,600060,546767307.06,392403641.8700001,2018-12-31,年度报告,59826354.92999999,2018,12,0.5806145739077075,False,0.38235143727625176,True,0.0,True,前期平均,392403641.8700001,1556300000.0,1556300000.0
21,600060,50489624.38,26785773.16,2019-03-31,一季度报告,-30196263.72000001,2019,3,4.636660623673282,False,0.28121223434019826,True,2.382306502785596,False,前期平均,869220389.4000002,704000000.0,704000000.0
22,600060,111987853.05999996,62205466.85,2019-06-30,半年度报告,-86223008.24000002,2019,6,3.3084088736787507,False,0.3330352090985382,True,2.1517337279868247,False,前期平均,768356140.1750003,471728333.0,471728333.0
23,600060,339815909.29,264633850.17,2019-09-30,三季度报告,6250120.5699999975,2019,9,3.430857620605431,False,0.5825924646535446,True,0.8784391296592986,False,前期平均,697851557.0600002,333292000.0,333292000.0
24,600060,806894177.38,556071934.25,2019-12-31,年度报告,108198653.79,2019,12,1.968994833906301,False,0.6116975696633107,True,0.0,True,前期平均,556071934.25,345076667.0,345076667.0
25,600060,101284123.96,51373687.11,2020-03-31,一季度报告,5721993.06,2020,3,31.152136799279546,False,0.8183741967128731,True,2.576326075973209,False,前期平均,214283736.83000004,690695714.0,690695714.0
