,SECURITYCODE_x,NETPROFIT_x,PARENTNETPROFIT_x,REPORTDATE_x,REPORTTIMETYPE_x,KCFJCXSYJLR,Year,Month,managesituationChangeRate,managesituationGreatChange,historyprofitextroplaterate,ifhistoryprofitextroplate,IfprofitdisStableChangeRage,IfprofitdisStable,predicttype,predict,analyst_prediction,adj_prediction
0,600073,163266105.57,155317122.45,2013-12-31,年度报告,182556358.88,2013,12,未知,未知,未知,未知,未知,未知,未知,未知,未知,未知
1,600073,46518883.91,39699079.66,2014-03-31,一季度报告,35472260.3,2014,3,未知,未知,未知,未知,未知,未知,未知,未知,未知,未知
2,600073,95469448.54999998,83877006.13,2014-06-30,半年度报告,75579175.13000001,2014,6,未知,未知,未知,未知,未知,未知,未知,未知,未知,未知
3,600073,140088886.94000003,127776698.25999996,2014-09-30,三季度报告,107299220.52,2014,9,未知,未知,未知,未知,未知,未知,未知,未知,未知,未知
4,600073,100248176.0,67997224.48999998,2014-12-31,年度报告,102504711.81,2014,12,0.0,True,未知,未知,未知,未知,未知,未知,未知,未知
5,600073,66754162.61,61259801.85,2015-03-31,一季度报告,56965320.58,2015,3,2.5096737463837404,False,未知,未知,未知,未知,未知,未知,177666667.00000003,未知
6,600073,89091186.91,75082487.92999999,2015-06-30,半年度报告,58029261.49,2015,6,0.7101398201173544,False,未知,未知,未知,未知,未知,未知,323000000.0,未知
7,600073,142457520.82,122719467.68,2015-09-30,三季度报告,108562711.8,2015,9,0.1654465185373823,True,未知,未知,未知,未知,未知,未知,154150000.0,未知
8,600073,142457520.82,122719467.68,2015-09-30,三季度报告,108450846.28999998,2015,9,0.1654465185373823,True,未知,未知,未知,未知,未知,未知,154150000.0,未知
9,600073,227080442.42,163498388.72999996,2015-12-31,年度报告,160090624.83,2015,12,0.6286192136802569,False,未知,未知,未知,未知,未知,未知,170400000.0,未知
10,600073,181253603.98,128187021.26000002,2016-03-31,一季度报告,119349089.60999998,2016,3,1.4457816439681048,False,未知,未知,未知,未知,未知,未知,468942658.0,未知
11,600073,316371947.6,202953408.7,2016-06-30,半年度报告,185405602.08,2016,6,0.8325730213352256,False,未知,未知,未知,未知,未知,未知,441525556.0,未知
12,600073,463975455.1,290515040.98,2016-09-30,三季度报告,258698612.97,2016,9,0.1460686991478138,True,未知,未知,0.0,True,未知,未知,376825000.0,未知
13,600073,457891601.9399999,256493473.15,2016-12-31,年度报告,212735731.24,2016,12,-0.2810208407643105,True,0.7234773088355615,True,0.14005140329248478,False,平均增速,256493473.15,371014286.0,371014286.0
14,600073,297510525.04,184844853.31,2017-03-31,一季度报告,176325009.67000002,2017,3,-0.09923939725901829,True,2.2002953844451785,False,0.2946329680128793,False,未知,未知,419228333.0,未知
15,600073,467265791.4599998,278829840.3000001,2017-06-30,半年度报告,262736197.51,2017,6,-0.4839425340693513,True,2.4283794787710042,False,0.302188026932935,False,未知,未知,462984000.0,未知
16,600073,466084497.75,299572276.72,2017-09-30,三季度报告,280811626.92999995,2017,9,-0.6481147789707724,True,2.2842424632353433,False,0.0,True,比例外推,305209335.4321451,421310000.0,421310000.0
17,600073,465558788.03,280394947.76,2017-12-31,年度报告,210119381.38000005,2017,12,-0.6434393972759656,True,1.79774866096476,True,0.25382652451055565,False,平均增速,280394947.76,412965000.0,412965000.0
18,600073,238725878.22,166609273.34,2018-03-31,一季度报告,145176529.44,2018,3,-0.4512257825229914,True,1.3992032921439652,True,0.4656629677130335,False,平均增速,200093070.50745586,未知,200093070.50745586
19,600073,389682356.22,287444417.67000014,2018-06-30,半年度报告,257501082.6800001,2018,6,-0.6505926422307413,True,1.3048496974931543,True,0.3987430058105754,False,平均增速,231187881.53162634,287000000.0,287000000.0
20,600073,379088851.97000015,297030027.94,2018-09-30,三季度报告,250540166.78000003,2018,9,-0.6497070673704894,True,0.5371344114093338,True,0.0,True,比例外推,279144503.05339205,,279144503.05339205
21,600073,383713653.93,304071307.95000005,2018-12-31,年度报告,251687284.97,2018,12,-0.6493115160367688,True,0.3593512081649768,True,0.18016605231273441,False,平均增速,304071307.95000005,,304071307.95000005
22,600073,278018048.06,176346101.11,2019-03-31,一季度报告,159057674.54,2019,3,-0.3160938110800848,True,0.0027411673106887253,True,0.20206612999260565,False,平均增速,292889173.9497442,443582500.0,443582500.0
23,600073,462326495.28,312683444.13,2019-06-30,半年度报告,287982482.04,2019,6,-0.581027719207728,True,0.005452808621909159,True,0.18720338108314039,False,平均增速,306255885.13134646,393665000.0,393665000.0
24,600073,489480025.2900001,332957462.73,2019-09-30,三季度报告,302307743.49,2019,9,-0.5693196866076127,True,0.18480770877543728,True,0.0,True,比例外推,286269598.82396483,364366667.0,364366667.0
25,600073,560794766.58,366040066.79,2019-12-31,年度报告,358719651.03,2019,12,-0.5745105656318806,True,0.16895664759540413,True,0.21937157596031243,False,平均增速,366040066.79,358550000.0,366040066.79
26,600073,256266940.90000004,147765989.62,2020-03-31,一季度报告,139366039.75,2020,3,-0.4127499753729478,True,0.03692344037001143,True,未知,未知,True,True,412770000.0,412770000.0
