,SECURITYCODE_x,NETPROFIT_x,PARENTNETPROFIT_x,REPORTDATE_x,REPORTTIMETYPE_x,KCFJCXSYJLR,Year,Month,managesituationChangeRate,managesituationGreatChange,historyprofitextroplaterate,ifhistoryprofitextroplate,IfprofitdisStableChangeRage,IfprofitdisStable,predicttype,predict,analyst_prediction,adj_prediction
0,600091,-110344374.22,-110344374.22,2013-12-31,年度报告,-121518963.47,2013,12,未知,未知,未知,未知,未知,未知,未知,未知,未知,未知
1,600091,-32832188.44,-32832188.44,2014-03-31,一季度报告,-38715389.42,2014,3,未知,未知,未知,未知,未知,未知,未知,未知,未知,未知
2,600091,-77941478.52000001,-77941478.52000001,2014-06-30,半年度报告,-88423654.17,2014,6,未知,未知,未知,未知,未知,未知,未知,未知,未知,未知
3,600091,-110437806.14000005,-110437806.14000005,2014-09-30,三季度报告,-129631666.49,2014,9,未知,未知,未知,未知,未知,未知,未知,未知,未知,未知
4,600091,-161459176.3,-161459176.3,2014-12-31,年度报告,-180760900.73,2014,12,-0.0,False,未知,未知,未知,未知,未知,未知,未知,未知
5,600091,-25206761.92000001,-25206761.92000001,2015-03-31,一季度报告,-25176761.92,2015,3,2.3608595546913227,False,未知,未知,未知,未知,未知,未知,未知,未知
6,600091,-78014394.21,-78014394.21,2015-06-30,半年度报告,-78020884.72000001,2015,6,0.4157336544710954,False,未知,未知,未知,未知,未知,未知,未知,未知
7,600091,-132096269.5,-132096269.5,2015-09-30,三季度报告,-132104733.89999996,2015,9,-0.000846013908331396,False,未知,未知,未知,未知,未知,未知,未知,未知
8,600091,33842128.27,33842128.27,2015-12-31,年度报告,-231068359.01,2015,12,-0.3165803471276597,False,未知,未知,未知,未知,未知,未知,未知,未知
9,600091,-19052691.8,-19052691.8,2016-03-31,一季度报告,-21323611.950000007,2016,3,3.377570374576694,False,未知,未知,未知,未知,未知,未知,未知,未知
10,600091,-34411103.61999999,-34411103.61999999,2016-06-30,半年度报告,-46069988.59,2016,6,0.414410447422995,False,未知,未知,未知,未知,未知,未知,未知,未知
11,600091,51074903.85,51074903.85,2016-09-30,三季度报告,-65585205.31999999,2016,9,-0.16466699144747612,False,未知,未知,未知,未知,未知,未知,未知,未知
12,600091,15018326.23,15018326.23,2016-12-31,年度报告,-97373546.57999995,2016,12,-4.260562495941394,False,-1.2490190301433153,True,0.0,True,前期平均,15018326.23,未知,15018326.23
13,600091,17620024.69,17620024.69,2017-03-31,一季度报告,-13934582.929999998,2017,3,4.791537247246082,False,-0.34345153791303,True,0.07175056789577453,True,盈利变化,24870364.923333347,未知,24870364.923333347
14,600091,14810282.460000005,14810282.460000005,2017-06-30,半年度报告,-26698094.750000004,2017,6,2.206650255642107,False,-0.5587071776440953,True,0.09566511502436276,True,盈利变化,27932922.123333335,未知,27932922.123333335
15,600091,13268968.280000005,13268968.280000005,2017-09-30,三季度报告,-39039408.93000001,2017,9,-3.160442133069233,False,-1.4211771373999575,True,0.08242038734833168,True,前期平均,-61777461.39500001,未知,-61777461.39500001
16,600091,5582334.11,5582334.11,2017-12-31,年度报告,-62746215.68999999,2017,12,-8.347315042310145,False,-1.235365516783769,True,0.0,True,前期平均,5582334.11,未知,5582334.11
17,600091,-3788757.05,-3788757.05,2018-03-31,一季度报告,-14036900.94,2018,3,-7.26244152101696,False,-1.7962151906108073,True,0.0743833514518614,True,盈利变化,5445910.096666665,未知,5445910.096666665
18,600091,-5674079.4700000025,-5674079.4700000025,2018-06-30,半年度报告,-27765813.88000001,2018,6,-8.4505246282791,False,-1.2634683901047932,True,0.07443799329468237,True,盈利变化,4870521.356666663,未知,4870521.356666663
19,600091,-5304351.680000002,-5304351.680000002,2018-09-30,三季度报告,-41837006.59,2018,9,-9.315972417110936,False,-1.3275424494156252,True,0.05106412674729188,True,盈利变化,4338957.372222224,未知,4338957.372222224
20,600091,4066027.96,4066027.96,2018-12-31,年度报告,-60522015.85,2018,12,-20.766709058551854,False,0.7714988873056841,True,0.0,True,前期平均,4066027.96,未知,4066027.96
21,600091,816840.31,816840.31,2019-03-31,一季度报告,-13585796.589999998,2019,3,28.124162030922516,False,-4.289096152978623,True,0.007598265001224042,True,盈利变化,4667500.426666669,未知,4667500.426666669
22,600091,2194685.91,2194685.91,2019-06-30,半年度报告,-27463512.17,2019,6,18.447097067182945,False,-0.4210365551848128,True,0.026970614202809495,True,盈利变化,4267562.433333339,未知,4267562.433333339
23,600091,4197653.6,4197653.6,2019-09-30,三季度报告,-39747196.52,2019,9,19.802612812429505,False,1.16487511566861,True,0.040150850886475076,True,前期平均,-23549920.409999974,未知,-23549920.409999974
24,600091,9748523.969999997,9748523.969999997,2019-12-31,年度报告,-61095711.50000002,2019,12,-28.138124800302652,False,0.6052526576436918,True,0.0,True,前期平均,9748523.969999997,未知,9748523.969999997
25,600091,5002717.040000001,5002717.040000001,2020-03-31,一季度报告,-9610504.7,2020,3,-136.08683749948628,False,0.8818849679927095,True,0.006471151511282441,True,前期平均,-42645656.795,未知,-42645656.795
