,SECURITYCODE_x,NETPROFIT_x,PARENTNETPROFIT_x,REPORTDATE_x,REPORTTIMETYPE_x,KCFJCXSYJLR,Year,Month,managesituationChangeRate,managesituationGreatChange,historyprofitextroplaterate,ifhistoryprofitextroplate,IfprofitdisStableChangeRage,IfprofitdisStable,predicttype,predict,analyst_prediction,adj_prediction
0,600020,396883192.85,394594967.52,2013-12-31,年度报告,362715308.28,2013,12,未知,未知,未知,未知,未知,未知,未知,未知,未知,未知
1,600020,112707830.27,113584507.68999998,2014-03-31,一季度报告,111609668.60000004,2014,3,未知,未知,未知,未知,未知,未知,未知,未知,未知,未知
2,600020,310730906.65,311862996.72,2014-06-30,半年度报告,304573043.60999995,2014,6,未知,未知,未知,未知,未知,未知,未知,未知,未知,未知
3,600020,530616705.53,532301896.1400001,2014-09-30,三季度报告,511485790.78000015,2014,9,未知,未知,未知,未知,未知,未知,未知,未知,未知,未知
4,600020,928216035.7300004,922730108.38,2014-12-31,年度报告,896171451.3499998,2014,12,0.0,True,未知,未知,未知,未知,未知,未知,未知,未知
5,600020,203680762.92,204366454.28,2015-03-31,一季度报告,199632650.83,2015,3,2.5213453395317504,False,未知,未知,未知,未知,未知,未知,1216673000.0,未知
6,600020,798691731.08,794358095.8800002,2015-06-30,半年度报告,779591973.1800001,2015,6,0.2772568944905116,True,未知,未知,未知,未知,未知,未知,,未知
7,600020,1106040705.7400002,1099990931.36,2015-09-30,三季度报告,1080624414.2,2015,9,-0.2520341166914861,True,未知,未知,未知,未知,未知,未知,未知,未知
8,600020,1153682151.1999998,1144538404.98,2015-12-31,年度报告,1157174842.8400002,2015,12,-0.5724236841718974,True,未知,未知,未知,未知,未知,未知,,未知
9,600020,162218001.25,162239295.45999998,2016-03-31,一季度报告,160288269.57,2016,3,0.9485551171363418,False,未知,未知,未知,未知,未知,未知,未知,未知
10,600020,378460529.9999999,379394321.36,2016-06-30,半年度报告,372779218.49,2016,6,-0.5030833832305612,True,未知,未知,未知,未知,未知,未知,未知,未知
11,600020,643424061.76,639860398.2099999,2016-09-30,三季度报告,623109873.19,2016,9,-0.641167643477946,True,未知,未知,未知,未知,未知,未知,未知,未知
12,600020,751253839.0099998,748139907.6700001,2016-12-31,年度报告,719281597.9599999,2016,12,-0.6559856695042192,True,0.7412766173538654,True,0.0,True,比例外推,748139907.6700001,未知,748139907.6700001
13,600020,461540205.52,452666830.27,2017-03-31,一季度报告,440845564.72,2017,3,1.4466038897763822,False,0.025435206841250793,True,0.04954402919014492,True,前期平均,1323718817.6499999,未知,1323718817.6499999
14,600020,786957507.6300001,776388218.03,2017-06-30,半年度报告,763527697.82,2017,6,0.04867789740187741,True,0.3177342572090083,True,0.17074946275706054,False,平均增速,1296941678.0496671,未知,1296941678.0496671
15,600020,1100984995.62,1086936149.9399998,2017-09-30,三季度报告,1062061248.5000004,2017,9,-0.3831701106042267,True,0.2137339710444094,True,0.21955032027118948,False,平均增速,1214886188.9702168,未知,1214886188.9702168
16,600020,1167125368.9699998,1147826843.49,2017-12-31,年度报告,1147962162.59,2017,12,-0.4717056043626857,True,0.2782991562927384,True,0.0,True,比例外推,1147826843.49,未知,1147826843.49
17,600020,259872748.48,256437757.57,2018-03-31,一季度报告,276812676.9100001,2018,3,-0.14008966477179022,True,1.5227754270608256,True,0.12422890805251646,False,平均增速,870461501.7261462,未知,870461501.7261462
18,600020,611556145.29,609058846.18,2018-06-30,半年度报告,610434786.82,2018,6,-0.49567392266800686,True,0.33705304513112266,True,0.1007621701210537,False,平均增速,975862554.8692504,未知,975862554.8692504
19,600020,942160379.12,939887027.53,2018-09-30,三季度报告,951621532.6699996,2018,9,-0.6395198895271934,True,0.25865352200640956,True,0.042142862521257096,True,比例外推,1035801966.207409,未知,1035801966.207409
20,600020,803567058.4200001,798804153.45,2018-12-31,年度报告,806602242.6200001,2018,12,-0.6599481054890842,True,0.225369644931047,True,0.0,True,比例外推,798804153.45,未知,798804153.45
21,600020,463710085.0,462369507.2800001,2019-03-31,一季度报告,450384764.0,2019,3,0.5272212849226261,False,0.16675164940691975,True,0.0938393994788721,True,前期平均,1095424470.41,未知,1095424470.41
22,600020,863936657.91,858766971.1399999,2019-06-30,半年度报告,812875960.91,2019,6,-0.3510273816939604,True,0.04950519992579412,True,0.1284604849505504,False,平均增速,1102107378.360676,未知,1102107378.360676
23,600020,1330425202.47,1325062363.36,2019-09-30,三季度报告,1264032280.8000002,2019,9,-0.5787519814612685,True,0.08020578674943325,True,0.1893716571807823,False,平均增速,1145412147.2988567,未知,1145412147.2988567
24,600020,1467787501.4999998,1460148730.75,2019-12-31,年度报告,1406181672.2200005,2019,12,-0.5060982295237876,True,0.16224377841737134,True,0.0,True,比例外推,1460148730.75,未知,1460148730.75
25,600020,-432940522.9,-433585852.72,2020-03-31,一季度报告,-444746553.92,2020,3,-0.14411351901048255,True,0.2855607386279343,True,0.034858718249568765,True,比例外推,-1262579772.0251675,280000000.0,280000000.0
