,SECURITYCODE_x,NETPROFIT_x,PARENTNETPROFIT_x,REPORTDATE_x,REPORTTIMETYPE_x,KCFJCXSYJLR,Year,Month,managesituationChangeRate,managesituationGreatChange,historyprofitextroplaterate,ifhistoryprofitextroplate,IfprofitdisStableChangeRage,IfprofitdisStable,predicttype,predict,analyst_prediction,adj_prediction
0,600036,14967000000.000004,14944999999.999996,2014-03-31,一季度报告,14863000000.000004,2014,3,未知,未知,未知,未知,未知,未知,未知,未知,未知,未知
1,600036,30519000000.000008,30459000000.0,2014-06-30,半年度报告,30269000000.0,2014,6,未知,未知,未知,未知,未知,未知,未知,未知,未知,未知
2,600036,45918999999.999985,45803999999.999985,2014-09-30,三季度报告,45425000000.0,2014,9,未知,未知,未知,未知,未知,未知,未知,未知,未知,未知
3,600036,56049000000.000015,55910999999.999985,2014-12-31,年度报告,55390999999.999985,2014,12,未知,未知,未知,未知,未知,未知,未知,未知,未知,未知
4,600036,17302999999.999996,17219999999.999996,2015-03-31,一季度报告,17147999999.999996,2015,3,0.0,True,未知,未知,未知,未知,未知,未知,61726054488.0,未知
5,600036,33169000000.0,32976000000.0,2015-06-30,半年度报告,32787999999.999992,2015,6,-0.5095841934532587,True,未知,未知,未知,未知,未知,未知,60671377385.0,未知
6,600036,48786000000.0,48499999999.999985,2015-09-30,三季度报告,48192999999.999985,2015,9,-0.674056490777238,True,未知,未知,未知,未知,未知,未知,59425888889.0,未知
7,600036,58017999999.999985,57696000000.0,2015-12-31,年度报告,57044999999.999985,2015,12,-0.7329657977840819,True,未知,未知,未知,未知,未知,未知,59293300000.0,未知
8,600036,18419000000.0,18350000000.0,2016-03-31,一季度报告,18272000000.0,2016,3,-0.1350054903773908,True,未知,未知,未知,未知,未知,未知,60388973333.0,未知
9,600036,35332000000.0,35231000000.0,2016-06-30,半年度报告,34861999999.999985,2016,6,-0.5487654134884982,True,未知,未知,未知,未知,未知,未知,60286607219.0,未知
10,600036,52344000000.000015,52141999999.999985,2016-09-30,三季度报告,51427000000.000015,2016,9,-0.6932111671381133,True,未知,未知,未知,未知,未知,未知,61249000000.0,未知
11,600036,62380000000.0,62080999999.999985,2016-12-31,年度报告,61142000000.000015,2016,12,-0.7420283360336447,True,未知,未知,未知,未知,未知,未知,61345941176.00001,未知
12,600036,20092000000.0,19977000000.0,2017-03-31,一季度报告,19836000000.0,2017,3,-0.18741516911884445,True,0.141555624418965,True,0.02093083895328457,True,比例外推,68716072436.85724,67760790407.99999,68716072436.85724
13,600036,39465999999.999985,39259000000.0,2017-06-30,半年度报告,39128000000.0,2017,6,-0.5763896750820785,True,0.10953397814344919,True,0.01734465289517606,True,比例外推,69530848023.21718,69566455604.0,69530848023.21718
14,600036,59164000000.000015,58804999999.999985,2017-09-30,三季度报告,58388000000.000015,2017,9,-0.7140646492434664,True,0.1054115411013151,True,0.015257899577531098,True,比例外推,70314540551.46553,70013125177.0,70314540551.46553
15,600036,70638000000.00003,70150000000.00003,2017-12-31,年度报告,69769000000.0,2017,12,-0.7600673292722027,True,0.0937431509551404,True,0.0,True,比例外推,70150000000.00003,68489083302.99999,70150000000.00003
16,600036,22708000000.0,22674000000.0,2018-03-31,一季度报告,22546000000.0,2018,3,-0.25507664742185926,True,0.12490901965175522,True,0.010276931925154165,True,比例外推,76662375125.58415,80777625296.0,76662375125.58415
17,600036,44868999999.999985,44756000000.000015,2018-06-30,半年度报告,44585000000.0,2018,6,-0.6207621750367402,True,0.15227514926789346,True,0.007770302699695364,True,比例外推,78583930815.26549,80824613906.0,78583930815.26549
18,600036,67564000000.000015,67379999999.999985,2018-09-30,三季度报告,67027999999.999985,2018,9,-0.7470252180379962,True,0.17005834074953044,True,0.00405996476506898,True,比例外推,80058427940.54575,80860906620.0,80058427940.54575
19,600036,80818999999.99997,80560000000.0,2018-12-31,年度报告,80129000000.00003,2018,12,-0.7881168776012912,True,0.17340819614943837,True,0.0,True,比例外推,80560000000.0,80714307692.0,80560000000.0
20,600036,25497000000.0,25240000000.0,2019-03-31,一季度报告,25091000000.0,2019,3,-0.3408930773295753,True,0.17929942094466517,True,0.010669894205508235,True,比例外推,87217495593.58557,90907725251.0,87217495593.58557
21,600036,50858000000.0,50611999999.999985,2019-06-30,半年度报告,50174000000.000015,2019,6,-0.6664289375738258,True,0.19973796090804552,True,0.00770811959112383,True,比例外推,89640540291.98082,90983524675.99998,89640540291.98082
22,600036,77761000000.0,77239000000.00003,2019-09-30,三季度报告,76752999999.99997,2019,9,-0.7784767035699486,True,0.21182336693331413,True,0.0029460176318401032,True,比例外推,92059036669.0487,91596203278.0,92059036669.0487
23,600036,93423000000.0,92867000000.0,2019-12-31,年度报告,92178000000.00003,2019,12,-0.8148083990150831,True,0.21515885068186186,True,0.0,True,比例外推,92867000000.0,91727972509.0,92867000000.0
24,600036,27954000000.000004,27795000000.0,2020-03-31,一季度报告,27916000000.0,2020,3,-0.4129897635015883,True,0.1914485981308411,True,0.007092573119129919,True,比例外推,99830956375.78915,103843740162.0,99830956375.78915
