,SECURITYCODE_x,NETPROFIT_x,PARENTNETPROFIT_x,REPORTDATE_x,REPORTTIMETYPE_x,KCFJCXSYJLR,Year,Month,managesituationChangeRate,managesituationGreatChange,historyprofitextroplaterate,ifhistoryprofitextroplate,IfprofitdisStableChangeRage,IfprofitdisStable,predicttype,predict,analyst_prediction,adj_prediction
0,600056,536418064.5100001,484832049.2700001,2013-12-31,年度报告,433274838.69,2013,12,未知,未知,未知,未知,未知,未知,未知,未知,未知,未知
1,600056,145348844.82,132946118.06,2014-03-31,一季度报告,132039478.96000002,2014,3,未知,未知,未知,未知,未知,未知,未知,未知,未知,未知
2,600056,314245517.83000004,283571966.01000005,2014-06-30,半年度报告,280536008.8499999,2014,6,未知,未知,未知,未知,未知,未知,未知,未知,未知,未知
3,600056,471206189.56999993,421383527.08,2014-09-30,三季度报告,407046067.47000015,2014,9,未知,未知,未知,未知,未知,未知,未知,未知,未知,未知
4,600056,613684857.5800003,550177822.19,2014-12-31,年度报告,526219021.37,2014,12,0.0,True,未知,未知,未知,未知,未知,未知,未知,未知
5,600056,202039494.52,177865644.69,2015-03-31,一季度报告,176611788.87,2015,3,2.690556090585379,False,未知,未知,未知,未知,未知,未知,,未知
6,600056,422825307.39,373568732.41,2015-06-30,半年度报告,368651832.72,2015,6,0.7070030726745021,False,未知,未知,未知,未知,未知,未知,692068114.0,未知
7,600056,585721504.36,517391037.89,2015-09-30,三季度报告,500019094.2200001,2015,9,0.13839350242726944,True,未知,未知,未知,未知,未知,未知,,未知
8,600056,718766959.9100003,614453640.44,2015-12-31,年度报告,584099793.0300001,2015,12,-0.12590630535466266,True,未知,未知,未知,未知,未知,未知,未知,未知
9,600056,287912642.26000005,255500790.88,2016-03-31,一季度报告,255443536.64,2016,3,1.6550158709533882,False,未知,未知,未知,未知,未知,未知,808090000.0,未知
10,600056,588567277.7,509701324.8399999,2016-06-30,半年度报告,504753590.6200002,2016,6,0.2686517460867732,True,未知,未知,未知,未知,未知,未知,815836000.0,未知
11,600056,895515633.2600002,759749925.0699999,2016-09-30,三季度报告,740792103.81,2016,9,-0.08417556719873596,True,未知,未知,未知,未知,未知,未知,847140000.0,未知
12,600056,1149685693.74,949689003.28,2016-12-31,年度报告,891522354.8,2016,12,-0.25369682466043353,True,0.24991763103051012,True,0.0,True,比例外推,949689003.28,848120000.0,848120000.0
13,600056,385533712.51000017,330140154.73,2017-03-31,一季度报告,329602322.46000004,2017,3,0.863127858156318,False,0.6575838026515379,True,0.029016198594436493,True,前期平均,730973928.0150001,1197750920.0,1197750920.0
14,600056,793593149.4300001,664144971.85,2017-06-30,半年度报告,639973956.05,2017,6,-0.08860365699192171,True,0.5970440222602087,True,0.054334572582656726,True,比例外推,1133675291.210896,1210535714.0,1133675291.210896
15,600056,1200841792.9500005,1007716764.45,2017-09-30,三季度报告,956737994.85,2017,9,-0.4009953097555152,True,0.6945636648618463,True,0.046640221762024314,True,比例外推,1217490625.7589293,1224001000.0,1217490625.7589293
16,600056,1585916951.13,1313406685.54,2017-12-31,年度报告,1141369341.91,2017,12,-0.5334219887828661,True,0.7256694443266467,True,0.0,True,比例外推,1313406685.54,1218437273.0,1313406685.54
17,600056,512108525.0500001,437586730.17,2018-03-31,一季度报告,380115843.18,2018,3,0.39136487187507946,True,0.5737607148475965,True,0.009809493883210951,True,比例外推,1356762211.9702957,1571127500.0,1571127500.0
18,600056,999845781.31,839566311.85,2018-06-30,半年度报告,771265652.23,2018,6,-0.32406414433480996,True,0.5693078259207945,True,0.0451376661431061,True,比例外推,1384436528.9325986,1578146364.0,1578146364.0
19,600056,1475128755.51,1240261417.0099995,2018-09-30,三季度报告,1091893390.0100002,2018,9,-0.5532983048564375,True,0.6214038420336541,True,0.014311749438433163,True,比例外推,1445555547.5776722,1570323333.0,1445555547.5776722
20,600056,1820840218.57,1544519826.5200002,2018-12-31,年度报告,1015959136.06,2018,12,-0.6617615669422092,True,0.6975725320434852,True,0.0,True,比例外推,1544519826.5200002,1559387143.0,1544519826.5200002
21,600056,513157824.72999984,409297376.70000017,2019-03-31,一季度报告,408826811.76000017,2019,3,0.04746950747915505,True,0.5208591491296993,True,0.05766218473446133,True,比例外推,1292253343.6637855,1400500000.0,1292253343.6637855
22,600056,851223146.7299999,688493305.7199997,2019-06-30,半年度报告,664002006.3100001,2019,6,-0.4634991970389833,True,0.4467868731940749,True,0.13047431995010206,False,平均增速,926593580.9906052,1406000000.0,1406000000.0
23,600056,1191000259.3100002,968730890.86,2019-09-30,三季度报告,933340453.35,2019,9,-0.6363584788742438,True,0.4073256183005791,True,0.16010551381909632,False,平均增速,895075570.6608896,1408000000.0,1408000000.0
24,600056,1255130714.27,981345845.1200002,2019-12-31,年度报告,882207705.9599998,2019,12,-0.7054008039589125,True,0.3312168870611171,True,0.0,True,比例外推,981345845.1200002,1293000000.0,1293000000.0
25,600056,310445582.99000007,264027450.88000005,2020-03-31,一季度报告,255910317.68000004,2020,3,0.0453276529345309,True,0.14334598631383888,True,0.08796795876694563,True,比例外推,689735116.863184,1093000000.0,1093000000.0
