,SECURITYCODE_x,NETPROFIT_x,PARENTNETPROFIT_x,REPORTDATE_x,REPORTTIMETYPE_x,KCFJCXSYJLR,Year,Month,managesituationChangeRate,managesituationGreatChange,historyprofitextroplaterate,ifhistoryprofitextroplate,IfprofitdisStableChangeRage,IfprofitdisStable,predicttype,predict,analyst_prediction,adj_prediction
0,600031,3094852000.0000005,2903595000.0,2013-12-31,年度报告,2411492999.9999995,2013,12,未知,未知,未知,未知,未知,未知,未知,未知,未知,未知
1,600031,855188000.0000001,827151000.0,2014-03-31,一季度报告,831281999.9999998,2014,3,未知,未知,未知,未知,未知,未知,未知,未知,未知,未知
2,600031,1430906999.9999998,1369507000.0,2014-06-30,半年度报告,1222289999.9999998,2014,6,未知,未知,未知,未知,未知,未知,未知,未知,未知,未知
3,600031,1666856000.0,1592342000.0,2014-09-30,三季度报告,1310564999.9999998,2014,9,未知,未知,未知,未知,未知,未知,未知,未知,未知,未知
4,600031,755972000.0,709206000.0,2014-12-31,年度报告,254287000.00000003,2014,12,0.0,True,未知,未知,未知,未知,未知,未知,未知,未知
5,600031,32004000.0,20561000.0,2015-03-31,一季度报告,36073000.0,2015,3,2.618914203660482,False,未知,未知,未知,未知,未知,未知,1111825202.0,未知
6,600031,298134000.00000006,268385000.0,2015-06-30,半年度报告,194618000.0,2015,6,1.1628603396307384,False,未知,未知,未知,未知,未知,未知,422000000.0,未知
7,600031,298134000.00000006,268385000.0,2015-06-30,半年度报告,195125000.0,2015,6,1.1628603396307384,False,未知,未知,未知,未知,未知,未知,422000000.0,未知
8,600031,-54657000.0,-76411000.00000003,2015-09-30,三季度报告,-156327000.0,2015,9,0.8567002788483231,False,未知,未知,未知,未知,未知,未知,39000000.0,未知
9,600031,-54657000.0,-76411000.00000003,2015-09-30,三季度报告,-129612000.0,2015,9,0.8567002788483231,False,未知,未知,未知,未知,未知,未知,39000000.0,未知
10,600031,4526000.0,4961000.0,2015-12-31,年度报告,-78212000.0,2015,12,3.093871201578895,False,未知,未知,未知,未知,未知,未知,144150000.0,未知
11,600031,99272000.0,90163000.0,2016-03-31,一季度报告,-240928000.0,2016,3,95.70203724534434,False,未知,未知,未知,未知,未知,未知,750038934.0,未知
12,600031,155828000.0,137953000.0,2016-06-30,半年度报告,-94786000.0,2016,6,9.380741545747885,False,未知,未知,0.0,True,未知,未知,320825000.0,未知
13,600031,208213000.00000003,174584000.00000003,2016-09-30,三季度报告,-77226000.0,2016,9,-57.62315897323308,False,未知,未知,2.0769501311349785,False,未知,未知,268000000.0,未知
14,600031,163799000.0,203457000.0,2016-12-31,年度报告,-313500000.00000006,2016,12,682.7940786566505,False,0.9976493342723531,True,3.9331533147897058,False,前期平均,203457000.0,269571429.0,269571429.0
15,600031,811805000.0000001,745704000.0,2017-03-31,一季度报告,696639000.0000001,2017,3,30.17547747602547,False,0.7762107863912209,True,2.687555926501307,False,前期平均,400064000.0000001,2239979923.0,2239979923.0
16,600031,1270185000.0000002,1160110000.0,2017-06-30,半年度报告,999796000.0,2017,6,18.860692558461896,False,0.8197521053578255,True,0.0,True,前期平均,539693500.0000001,2479527767.0,2479527767.0
17,600031,1938668000.0,1802687000.0,2017-09-30,三季度报告,1545362000.0,2017,9,13.863874974185089,False,0.7417031024085736,True,0.6936268400523945,False,前期平均,1313605500.0,2427239946.0,2427239946.0
18,600031,2227084999.9999995,2092253000.0,2017-12-31,年度报告,1786581000.0000005,2017,12,17.894205703331526,False,0.5692322662255522,True,1.94621353453324,False,前期平均,2092253000.0,2418874738.0,2418874738.0
19,600031,1552532000.0,1500185000.0,2018-03-31,一季度报告,1241923000.0,2018,3,2.8123096063709885,False,11.367911880313235,False,0.9620672473607554,False,去年同期,2590127000.0000005,4039270065.0,4039270065.0
20,600031,3514460000.000001,3388559000.0,2018-06-30,半年度报告,3482624999.9999995,2018,6,1.4365364100505045,False,4.595997021777154,False,0.0,True,去年同期,4175344000.0000005,5432006566.0,5432006566.0
21,600031,5065054000.0,4883396000.0,2018-09-30,三季度报告,5231566000.0,2018,9,0.596380607716226,False,24.250306077261712,False,0.3137968042915955,False,去年同期,5124615000.0,6075367241.0,6075367241.0
22,600031,6303487000.0,6116288000.0,2018-12-31,年度报告,6037494000.0,2018,12,0.38964251476706147,True,25.461725828011282,False,0.17725054742144003,False,未知,未知,6090916071.0,未知
23,600031,3324655000.0000005,3221072000.0000005,2019-03-31,一季度报告,3105425000.0,2019,3,0.9934223578000327,False,2.4081246700333776,False,0.4129419544829073,False,去年同期,8016643000.0,9613512759.0,9613512759.0
24,600031,6935870000.000002,6748013000.000001,2019-06-30,半年度报告,6812376000.0,2019,6,-0.11939472920448671,True,3.9290714741029715,False,0.0,True,比例外推,14139976185.1344,10939983871.0,10939983871.0
25,600031,9406182000.000002,9159443000.0,2019-09-30,三季度报告,9254086000.0,2019,9,-0.3889794659642325,True,3.71852329029881,False,0.09226287001141156,True,比例外推,13942078509.063654,11084679310.000002,11084679310.000002
26,600031,11494448000.0,11206662000.0,2019-12-31,年度报告,10411683000.000002,2019,12,-0.5090254013373867,True,4.272934195050869,False,未知,未知,True,True,11120679032.0,11120679032.0
27,600031,2213973000.0,2193674000.0,2020-03-31,一季度报告,1947977000.0,2020,3,-0.06912085614898388,True,1.812335974101831,True,未知,未知,True,True,13635374762.0,13635374762.0
