,SECURITYCODE_x,NETPROFIT_x,PARENTNETPROFIT_x,REPORTDATE_x,REPORTTIMETYPE_x,KCFJCXSYJLR,Year,Month,managesituationChangeRate,managesituationGreatChange,historyprofitextroplaterate,ifhistoryprofitextroplate,IfprofitdisStableChangeRage,IfprofitdisStable,predicttype,predict,analyst_prediction,adj_prediction
0,600029,2649000000.0,1895000000.0,2013-12-31,年度报告,1834000000.0,2013,12,未知,未知,未知,未知,未知,未知,未知,未知,未知,未知
1,600029,-171000000.00000003,-306000000.0,2014-03-31,一季度报告,-324000000.0,2014,3,未知,未知,未知,未知,未知,未知,未知,未知,未知,未知
2,600029,-768000000.0,-1018000000.0,2014-06-30,半年度报告,-1112000000.0,2014,6,未知,未知,未知,未知,未知,未知,未知,未知,未知,未知
3,600029,1828000000.0,1256000000.0,2014-09-30,三季度报告,1084000000.0,2014,9,未知,未知,未知,未知,未知,未知,未知,未知,未知,未知
4,600029,2418000000.0,1773000000.0000005,2014-12-31,年度报告,1421000000.0,2014,12,0.0,True,未知,未知,未知,未知,未知,未知,未知,未知
5,600029,2214000000.0,1903000000.0,2015-03-31,一季度报告,1832000000.0,2015,3,-16.491228070175435,False,未知,未知,未知,未知,未知,未知,6823735151.0,未知
6,600029,4097000000.0,3482000000.0,2015-06-30,半年度报告,3313999999.9999995,2015,6,-4.44921875,False,未知,未知,未知,未知,未知,未知,7748684844.0,未知
7,600029,5778.0,4686.0,2015-09-30,三季度报告,4423000000.000001,2015,9,0.44912472647702406,True,未知,未知,未知,未知,未知,未知,5971274079.0,未知
8,600029,5778.0,4686.0,2015-09-30,三季度报告,-262995314.0,2015,9,0.44912472647702406,True,未知,未知,未知,未知,未知,未知,5971274079.0,未知
9,600029,5778.0,4686.0,2015-09-30,三季度报告,4393000000.0,2015,9,0.44912472647702406,True,未知,未知,未知,未知,未知,未知,5971274079.0,未知
10,600029,5778.0,4686.0,2015-09-30,三季度报告,4423000000.000001,2015,9,0.44912472647702406,True,未知,未知,未知,未知,未知,未知,5971274079.0,未知
11,600029,5778.0,4686.0,2015-09-30,三季度报告,-262995314.0,2015,9,0.44912472647702406,True,未知,未知,未知,未知,未知,未知,5971274079.0,未知
12,600029,5778.0,4686.0,2015-09-30,三季度报告,4393000000.0,2015,9,0.44912472647702406,True,未知,未知,未知,未知,未知,未知,5971274079.0,未知
13,600029,5777999999.999999,4686000000.0,2015-09-30,三季度报告,4423000000.000001,2015,9,0.44912472647702406,True,未知,未知,未知,未知,未知,未知,5971274079.0,未知
14,600029,5777999999.999999,4686000000.0,2015-09-30,三季度报告,-262995314.0,2015,9,0.44912472647702406,True,未知,未知,未知,未知,未知,未知,5971274079.0,未知
15,600029,5777999999.999999,4686000000.0,2015-09-30,三季度报告,4393000000.0,2015,9,0.44912472647702406,True,未知,未知,未知,未知,未知,未知,5971274079.0,未知
16,600029,5777999999.999999,4686000000.0,2015-09-30,三季度报告,4423000000.000001,2015,9,0.44912472647702406,True,未知,未知,未知,未知,未知,未知,5971274079.0,未知
17,600029,5777999999.999999,4686000000.0,2015-09-30,三季度报告,-262995314.0,2015,9,0.44912472647702406,True,未知,未知,未知,未知,未知,未知,5971274079.0,未知
18,600029,5777999999.999999,4686000000.0,2015-09-30,三季度报告,4393000000.0,2015,9,0.44912472647702406,True,未知,未知,未知,未知,未知,未知,5971274079.0,未知
19,600029,4985999999.999999,3851000000.0,2015-12-31,年度报告,3315000000.0000005,2015,12,0.09553349875930521,True,未知,未知,未知,未知,未知,未知,5760364819.0,未知
20,600029,4985999999.999999,3851000000.0,2015-12-31,年度报告,3315000000.0000005,2015,12,0.09553349875930521,True,未知,未知,0.0,True,未知,未知,5760364819.0,未知
21,600029,5027000000.000001,3892000000.0,2015-12-31,年度报告,3315000000.0000005,2015,12,0.09553349875930521,True,未知,未知,未知,未知,未知,未知,5760364819.0,未知
22,600029,5027000000.000001,3892000000.0,2015-12-31,年度报告,3315000000.0000005,2015,12,0.09553349875930521,True,未知,未知,0.0,True,未知,未知,5760364819.0,未知
23,600029,3035000000.0000005,2693000000.0000005,2016-03-31,一季度报告,2514000000.0,2016,3,0.19647696476964768,True,未知,未知,0.525597333360055,False,未知,未知,6296942123.0,未知
24,600029,3693000000.0,3132000000.0000005,2016-06-30,半年度报告,2841000000.0,2016,6,-0.35342933854039543,True,未知,未知,1.0689424142328483,False,未知,未知,5982058308.0,未知
25,600029,7535000000.000002,6441000000.000001,2016-09-30,三季度报告,5904999999.999999,2016,9,458462.1360332295,False,未知,未知,0.3810051503404941,False,未知,未知,6328162095.0,未知
26,600029,5889000000.0,5056000000.0,2016-12-31,年度报告,4425000000.0,2016,12,-0.4687123947051744,True,0.9680284191829481,True,0.0,True,比例外推,5056000000.0,6241245428.000001,6241245428.000001
27,600029,1840000000.0,1550000000.0000002,2017-03-31,一季度报告,1411000000.0,2017,3,-0.12718286655683703,True,1.9711209006363195,True,0.19311076210467065,False,平均增速,3838527476.5572433,5771216048.0,5771216048.0
28,600029,3199999999.9999995,2768000000.0,2017-06-30,半年度报告,2478000000.0000005,2017,6,-0.2826969943135662,True,1.2186842895764494,True,0.2939738313707424,False,平均增速,4911216146.660502,6804500000.0,6804500000.0
29,600029,8210000000.0,7050000000.000002,2017-09-30,三季度报告,6538000000.0,2017,9,-0.6484406104844062,True,7.2439564367722715,False,0.05329193363295204,True,比例外推,6227793313.897076,6902500554.0,6227793313.897076
30,600029,6832999999.999998,5913999999.999999,2017-12-31,年度报告,5212000000.0,2017,12,-0.5501782985226694,True,0.5907617504051866,True,0.0,True,比例外推,5913999999.999999,7023117174.0,7023117174.0
31,600029,2862000000.0,2544000000.0000005,2018-03-31,一季度报告,2383000000.0000005,2018,3,0.43967391304347825,True,0.29891407887216614,True,0.39871860140609106,False,平均增速,8141391575.015455,8150737500.0,8141391575.015455
32,600029,2404999999.9999995,2137000000.0,2018-06-30,半年度报告,1835000000.0,2018,6,-0.17218749999999988,True,0.17843388960205403,True,0.1582232266720705,False,平均增速,4866712970.100686,4690475000.0,4866712970.100686
33,600029,4857000000.0,4175000000.0000014,2018-09-30,三季度报告,3658000000.0,2018,9,-0.6773447015834348,True,1.1791622307631886,True,0.17831653992129493,False,平均增速,2971094310.3939953,3999407500.0,3999407500.0
34,600029,3456000000.0,2983000000.0,2018-12-31,年度报告,2341999999.9999995,2018,12,-0.6123225523196253,True,0.2566436781609192,True,0.0,True,比例外推,2983000000.0,3844376154.0,3844376154.0
35,600029,2884000000.0,2649000000.0,2019-03-31,一季度报告,2459000000.0000005,2019,3,-0.07442348008385745,True,0.17415384615384616,True,0.5788142910669787,False,平均增速,2611167394.408477,8069736111.0,8069736111.0
36,600029,1712000000.0000005,1690000000.0,2019-06-30,半年度报告,1433999999.9999998,2019,6,0.10145530145530167,True,0.3021906281735095,True,未知,未知,True,True,5607096142.0,5607096142.0
37,600029,4567000000.0,4078000000.0,2019-09-30,三季度报告,3601000000.0,2019,9,-0.45460160592958615,True,0.38304223563035894,True,未知,未知,True,True,4776010000.0,4776010000.0
38,600029,3095000000.0000005,2651000000.0000005,2019-12-31,年度报告,1951000000.0,2019,12,-0.23350694444444445,True,0.4566891998113503,True,未知,未知,True,True,4852102727.0,4852102727.0
39,600029,-6009999999.999999,-5262000000.000001,2020-03-31,一季度报告,-5352999999.999999,2020,3,-0.08148404993065188,True,0.22671203743088048,True,未知,未知,True,True,-3887516667.0,-3887516667.0
