,SECURITYCODE_x,NETPROFIT_x,PARENTNETPROFIT_x,REPORTDATE_x,REPORTTIMETYPE_x,KCFJCXSYJLR,Year,Month,managesituationChangeRate,managesituationGreatChange,historyprofitextroplaterate,ifhistoryprofitextroplate,IfprofitdisStableChangeRage,IfprofitdisStable,predicttype,predict,analyst_prediction,adj_prediction
0,600067,1284801264.06,1277775337.61,2013-12-31,年度报告,671748964.0399997,2013,12,未知,未知,未知,未知,未知,未知,未知,未知,未知,未知
1,600067,80187554.22999999,82720435.25,2014-03-31,一季度报告,71881578.88,2014,3,未知,未知,未知,未知,未知,未知,未知,未知,未知,未知
2,600067,368294228.73,372556906.68,2014-06-30,半年度报告,352426214.88999987,2014,6,未知,未知,未知,未知,未知,未知,未知,未知,未知,未知
3,600067,336138228.48,340822460.8800002,2014-09-30,三季度报告,317620325.12,2014,9,未知,未知,未知,未知,未知,未知,未知,未知,未知,未知
4,600067,907451339.38,751069734.64,2014-12-31,年度报告,701745103.17,2014,12,0.0,True,未知,未知,未知,未知,未知,未知,未知,未知
5,600067,112829110.71,64827168.96000002,2015-03-31,一季度报告,51718505.15000001,2015,3,15.022452316912373,False,未知,未知,未知,未知,未知,未知,1034000000.0,未知
6,600067,350838901.05,308582980.40000004,2015-06-30,半年度报告,261608984.02,2015,6,2.488518591481649,False,未知,未知,未知,未知,未知,未知,1049416422.0,未知
7,600067,277646286.75999993,242160987.12,2015-09-30,三季度报告,194998553.79,2015,9,2.82224083785354,False,未知,未知,未知,未知,未知,未知,837500000.0,未知
8,600067,455335474.95,212450534.53000003,2015-12-31,年度报告,161252271.38,2015,12,0.4158348864610389,True,未知,未知,未知,未知,未知,未知,837500000.0,未知
9,600067,14356190.23,1184613.5399999998,2016-03-31,一季度报告,-1844480.49,2016,3,10.387143406299387,False,未知,未知,未知,未知,未知,未知,611700000.0,未知
10,600067,45045394.1,34244115.58000001,2016-06-30,半年度报告,22411468.640000004,2016,6,2.6620832530680394,False,未知,未知,未知,未知,未知,未知,439066667.0,未知
11,600067,260804804.19,248338557.57,2016-09-30,三季度报告,233344779.15000004,2016,9,3.6274750476695345,False,未知,未知,未知,未知,未知,未知,506000000.0,未知
12,600067,364411662.22,321517130.98,2016-12-31,年度报告,259385471.56000003,2016,12,1.8216586116007827,False,0.5845957949959737,True,0.0,True,前期平均,321517130.98,,321517130.98
13,600067,361028773.39000016,294523140.84000003,2017-03-31,一季度报告,274044564.11,2017,3,88.49458341497609,False,0.8512440339339333,True,0.182046384588916,False,前期平均,664221786.1,425000000.0,425000000.0
14,600067,651836735.0200001,511239030.9799999,2017-06-30,半年度报告,375127420.46,2017,6,27.522367041739347,False,0.8747230735600222,True,0.8853669045641213,False,前期平均,635720118.8,588000000.0,635720118.8
15,600067,670688682.5600001,525922967.64,2017-09-30,三季度报告,361777365.43000007,2017,9,3.926294467812042,False,0.1501747023121919,True,0.40121754159689543,False,前期平均,701112215.46,596000000.0,596000000.0
16,600067,731877658.75,595163952.4499999,2017-12-31,年度报告,436990339.72999984,2017,12,2.52568646193422,False,0.4651963779101293,True,0.0,True,前期平均,595163952.4499999,,595163952.4499999
17,600067,-27373202.19,-30228048.28999999,2018-03-31,一季度报告,-34891588.19,2018,3,2.5587226247812045,False,4.677209091329138,False,0.32069015083820773,False,前期平均盈利变化,-153782341.45,未知,-153782341.45
18,600067,179460240.45000002,130144964.46000002,2018-06-30,半年度报告,118094316.49,2018,6,0.9710476489493628,False,2.293066903666992,False,0.7693294072901282,False,去年同期,192007883.7299999,未知,192007883.7299999
19,600067,411678406.05000013,305348685.36999995,2018-09-30,三季度报告,293006251.28999984,2018,9,0.9156447655504626,False,1.491177727494955,True,0.23035410566425474,False,前期平均,301495890.36999995,未知,301495890.36999995
20,600067,871299399.09,758970510.55,2018-12-31,年度报告,737953064.6200001,2018,12,0.7554863831399881,False,0.7856180901750984,True,0.0,True,前期平均,758970510.55,,758970510.55
21,600067,93995863.64999998,88507222.95,2019-03-31,一季度报告,75269394.67000002,2019,3,-47.9364619872411,False,1.1458406960472167,True,0.43620960073010295,False,前期平均,300595086.7849999,未知,300595086.7849999
22,600067,258150265.23000005,223945758.75000003,2019-06-30,半年度报告,202256440.95,2019,6,6.159252995751794,False,0.4849624263528855,True,0.4901455006295035,False,前期平均,373364219.845,未知,373364219.845
23,600067,293952245.71000004,247516042.46,2019-09-30,三季度报告,226255403.97,2019,9,2.120885733083496,False,0.1160895660444077,True,0.31112831454744894,False,前期平均,298142875.8149999,未知,298142875.8149999
24,600067,535087931.47,418843518.52,2019-12-31,年度报告,405712354.95000017,2019,12,0.47458068420782606,True,0.5895428011997267,True,0.0,True,比例外推,418843518.52,未知,418843518.52
25,600067,-72988722.59999998,-75650710.75,2020-03-31,一季度报告,-71582379.85999998,2020,3,12.668700027525096,False,0.43656949403277384,True,0.37199793347407467,False,盈利变化,223041152.48,未知,223041152.48
