,SECURITYCODE_x,NETPROFIT_x,PARENTNETPROFIT_x,REPORTDATE_x,REPORTTIMETYPE_x,KCFJCXSYJLR,Year,Month,managesituationChangeRate,managesituationGreatChange,historyprofitextroplaterate,ifhistoryprofitextroplate,IfprofitdisStableChangeRage,IfprofitdisStable,predicttype,predict,analyst_prediction,adj_prediction
0,600025,3643210075.33,3457171263.02,2014-09-30,三季度报告,,2014,9,未知,未知,未知,未知,未知,未知,未知,未知,未知,未知
1,600025,4792855138.630001,4553622864.960001,2014-12-31,年度报告,4431219365.35,2014,12,未知,未知,未知,未知,未知,未知,未知,未知,未知,未知
2,600025,659147853.0300003,555550441.3799999,2015-03-31,一季度报告,,2015,3,未知,未知,未知,未知,未知,未知,未知,未知,未知,未知
3,600025,2423623831.83,2280331165.7299995,2015-06-30,半年度报告,,2015,6,未知,未知,未知,未知,未知,未知,未知,未知,未知,未知
4,600025,3024187745.12,2971893808.2200003,2015-09-30,三季度报告,,2015,9,0.0,True,未知,未知,未知,未知,未知,未知,未知,未知
5,600025,2524679109.44,2287311110.8100004,2015-12-31,年度报告,2286344170.2,2015,12,-0.2398664324389779,True,未知,未知,未知,未知,未知,未知,未知,未知
6,600025,577385609.6999997,503765366.2000001,2016-03-31,一季度报告,,2016,3,4.52715154662604,False,未知,未知,未知,未知,未知,未知,未知,未知
7,600025,978340029.35,804971150.03,2016-06-30,半年度报告,,2016,6,0.5032077286429099,False,未知,未知,未知,未知,未知,未知,未知,未知
8,600025,994599847.4399998,789372991.53,2016-09-30,三季度报告,1129683441.69,2016,9,0.20469044331288275,True,未知,未知,未知,未知,未知,未知,未知,未知
9,600025,732713002.8700001,508167899.1300001,2016-12-31,年度报告,1007714608.1,2016,12,0.4430388645066666,True,未知,未知,未知,未知,未知,未知,未知,未知
10,600025,879192082.5499997,801010772.95,2017-03-31,一季度报告,911598376.32,2017,3,5.309838718050062,False,未知,未知,未知,未知,未知,未知,未知,未知
11,600025,1674097494.7600002,1518306012.8899994,2017-06-30,半年度报告,1722866467.0899994,2017,6,2.7238689678786985,False,未知,未知,未知,未知,未知,未知,未知,未知
12,600025,2370930791.6400003,2188922701.47,2017-12-31,年度报告,2618402284.02,2017,12,3.9722197655285614,False,0.7997377318559861,True,0.0,True,前期平均,2188922701.47,1752390000.0,1752390000.0
13,600025,408475995.59,338941257.82,2018-03-31,一季度报告,388512512.84,2018,3,3.1438158368797757,False,0.42202715745182123,True,,False,前期平均,,,
14,600025,1044384853.0900002,867113067.7599999,2018-06-30,半年度报告,955129687.81,2018,6,1.176223360188645,False,0.01580524480978736,True,,False,前期平均,,未知,
15,600025,2491937806.99,2244941904.7900004,2018-09-30,三季度报告,2431656105.1000013,2018,9,未知,未知,未知,未知,未知,未知,未知,未知,2678726667.0,未知
16,600025,6050342160.34,5802730955.64,2018-12-31,年度报告,2927832369.53,2018,12,0.5366159519190137,False,0.45572329636338416,True,0.0,True,前期平均,5802730955.64,未知,5802730955.64
17,600025,858302583.0099999,804439508.3400003,2019-03-31,一季度报告,911486859.4899998,2019,3,7.919031019357139,False,0.439129134321671,True,,False,前期平均,,3803104000.0,
18,600025,2943259100.5199995,2816121442.070001,2019-06-30,半年度报告,3109105086.27,2019,6,2.488378890742152,False,0.21250936650020932,True,,False,前期平均,,4624100000.0,
19,600025,5190515299.679999,4864984435.999999,2019-09-30,三季度报告,5214037581.96,2019,9,0.4619987967238302,True,未知,未知,未知,未知,未知,未知,5391700000.0,未知
20,600025,5936517593.42,5544565705.95,2019-12-31,年度报告,5793501452.249998,2019,12,-0.39785057129310036,True,2.898863762035051,False,0.0,True,比例外推,5544565705.95,5292362500.0,5544565705.95
21,600025,12579631.670000002,-53744762.26,2020-03-31,一季度报告,64716288.71,2020,3,3.244668660501461,False,0.3331115332917064,True,0.13542525231502378,False,盈利变化,4415538278.243334,5095600000.0,5095600000.0
