,SECURITYCODE_x,NETPROFIT_x,PARENTNETPROFIT_x,REPORTDATE_x,REPORTTIMETYPE_x,KCFJCXSYJLR,Year,Month,managesituationChangeRate,managesituationGreatChange,historyprofitextroplaterate,ifhistoryprofitextroplate,IfprofitdisStableChangeRage,IfprofitdisStable,predicttype,predict,analyst_prediction,adj_prediction
0,600017,832650250.4999999,801910146.7900001,2013-12-31,年度报告,800389378.8900001,2013,12,未知,未知,未知,未知,未知,未知,未知,未知,未知,未知
1,600017,212329975.47,172251968.63,2014-03-31,一季度报告,172207885.79999998,2014,3,未知,未知,未知,未知,未知,未知,未知,未知,未知,未知
2,600017,483136153.05,401498739.65,2014-06-30,半年度报告,400160641.97999984,2014,6,未知,未知,未知,未知,未知,未知,未知,未知,未知,未知
3,600017,684382384.5600003,569967499.38,2014-09-30,三季度报告,569462801.49,2014,9,未知,未知,未知,未知,未知,未知,未知,未知,未知,未知
4,600017,720754517.86,572513854.8999999,2014-12-31,年度报告,564646267.3699999,2014,12,0.0,True,未知,未知,未知,未知,未知,未知,未知,未知
5,600017,151439251.6,129988087.71999998,2015-03-31,一季度报告,129911896.45,2015,3,2.9214917660914277,False,未知,未知,未知,未知,未知,未知,625890000.0,未知
6,600017,258625726.76999992,226098795.36000004,2015-06-30,半年度报告,225779479.89,2015,6,0.7234277444226545,False,未知,未知,未知,未知,未知,未知,395650000.0,未知
7,600017,399313784.81,353279620.03,2015-09-30,三季度报告,352541552.41999984,2015,9,0.21664477240354924,True,未知,未知,未知,未知,未知,未知,432000000.0,未知
8,600017,371712516.37,308158527.09,2015-12-31,年度报告,304427796.03000003,2015,12,0.15524804890884442,True,未知,未知,未知,未知,未知,未知,,未知
9,600017,97274402.57,79603940.44000001,2016-03-31,一季度报告,79088497.56999998,2016,3,4.498245941542938,False,未知,未知,未知,未知,未知,未知,287900000.0,未知
10,600017,191841510.01,160403820.81000003,2016-06-30,半年度报告,159309214.88,2016,6,2.219518262545046,False,未知,未知,未知,未知,未知,未知,267860000.0,未知
11,600017,275532954.0300001,230969673.7200001,2016-09-30,三季度报告,228914550.34,2016,9,1.0852028709607118,False,未知,未知,未知,未知,未知,未知,286270000.0,未知
12,600017,228305984.08,176243235.98999998,2016-12-31,年度报告,171189260.68999997,2016,12,1.2400382387747895,False,0.521422202453474,True,0.0,True,前期平均,176243235.98999998,,176243235.98999998
13,600017,127482609.87,107332685.36,2017-03-31,一季度报告,105901107.68,2017,3,7.559808423401144,False,0.46518619316151494,True,0.09292280870331054,True,前期平均,390809825.935,227533332.99999997,227533332.99999997
14,600017,266298189.87,227112813.86,2017-06-30,半年度报告,225242460.94,2017,6,3.3403028388204246,False,0.4827409840566266,True,0.13695370182259292,False,前期平均,348679784.6250001,377500000.0,348679784.6250001
15,600017,392299753.06,336405389.72,2017-09-30,三季度报告,335142828.39,2017,9,2.0219624851455724,False,0.4914940888087122,True,0.16927548570058226,False,前期平均,309940244.46500003,324100000.0,309940244.46500003
16,600017,447248932.87,368875556.9,2017-12-31,年度报告,366295177.82000005,2017,12,2.64708027192241,False,0.5820359298238849,True,0.0,True,前期平均,368875556.9,,368875556.9
17,600017,197164108.08,170746746.73,2018-03-31,一季度报告,170034148.03,2018,3,5.5314810494473905,False,0.02513559454893044,True,0.10350250328671318,False,前期平均,304055078.08000004,616000000.0,616000000.0
18,600017,406193804.15,354925583.85,2018-06-30,半年度报告,351297109.78000003,2018,6,2.1267589573420627,False,0.18231990310121154,True,0.16821103197879117,False,前期平均,400189764.82500005,610365000.0,610365000.0
19,600017,613539582.8600001,538722435.4300002,2018-09-30,三季度报告,534528144.27,2018,9,1.1224847683568406,False,0.16263361881047958,True,0.2217807828599132,False,前期平均,485802912.41000026,625000000.0,625000000.0
20,600017,735274038.9500003,644371989.59,2018-12-31,年度报告,633828770.84,2018,12,0.8617154548740374,False,0.49078380928112586,True,0.0,True,前期平均,644371989.59,,644371989.59
21,600017,251426989.94,233568693.83,2019-03-31,一季度报告,196850803.09,2019,3,3.2231329962051163,False,0.7544645743378882,True,0.12220325794150805,False,前期平均,409816110.46000004,809550000.0,809550000.0
22,600017,403537557.11,368621886.7,2019-06-30,半年度报告,330685091.87,2019,6,1.049884173497923,False,0.7732311967567703,True,0.23067966869062362,False,前期平均,445088268.045,,445088268.045
23,600017,595995846.46,535051658.8900001,2019-09-30,三季度报告,464945959.85,2019,9,0.35712556086213804,True,0.8374050157963191,True,0.3053727301625424,False,平均增速,674314233.2428303,700615000.0,674314233.2428303
24,600017,714499832.89,631340872.3999999,2019-12-31,年度报告,550762502.0900002,2019,12,0.13243526412146495,True,1.1768001993668273,True,0.0,True,比例外推,631340872.3999999,655230000.0,631340872.3999999
25,600017,205415107.14,178247909.67,2020-03-31,一季度报告,175714051.61999995,2020,3,2.3116979632882764,False,0.5489267319728341,True,0.0524836169882848,True,前期平均,540342256.145,672000000.0,672000000.0
