,SECURITYCODE_x,NETPROFIT_x,PARENTNETPROFIT_x,REPORTDATE_x,REPORTTIMETYPE_x,KCFJCXSYJLR,Year,Month,managesituationChangeRate,managesituationGreatChange,historyprofitextroplaterate,ifhistoryprofitextroplate,IfprofitdisStableChangeRage,IfprofitdisStable,predicttype,predict,analyst_prediction,adj_prediction
0,600023,7699703276.96,5757297403.740001,2013-12-31,年度报告,5715617244.19,2013,12,未知,未知,未知,未知,未知,未知,未知,未知,未知,未知
1,600023,1344695938.92,1205289888.14,2014-03-31,一季度报告,1198863051.64,2014,3,未知,未知,未知,未知,未知,未知,未知,未知,未知,未知
2,600023,3461600843.47,3006300450.26,2014-06-30,半年度报告,2942893924.6399994,2014,6,未知,未知,未知,未知,未知,未知,未知,未知,未知,未知
3,600023,4977362837.969999,4246533594.37,2014-09-30,三季度报告,4154108783.020001,2014,9,未知,未知,未知,未知,未知,未知,未知,未知,未知,未知
4,600023,7078081154.919998,5964358783.419999,2014-12-31,年度报告,5782042176.2,2014,12,0.0,True,未知,未知,未知,未知,未知,未知,未知,未知
5,600023,1500849043.2300005,1268565123.47,2015-03-31,一季度报告,1262827190.11,2015,3,4.725980910706148,False,未知,未知,未知,未知,未知,未知,6137000000.0,未知
6,600023,4587132171.67,3908402026.1700006,2015-06-30,半年度报告,3850132431.56,2015,6,1.2243186390148943,False,未知,未知,未知,未知,未知,未知,7924766666.999999,未知
7,600023,6689807250.950001,5626773003.679999,2015-09-30,三季度报告,5528686147.21,2015,9,0.5469443413332307,False,未知,未知,未知,未知,未知,未知,6497300000.0,未知
8,600023,8405927364.489999,6976475852.900001,2015-12-31,年度报告,6819036732.809999,2015,12,0.08782353697766099,True,未知,未知,未知,未知,未知,未知,未知,未知
9,600023,1684361619.41,1472819984.04,2016-03-31,一季度报告,1447613241.02,2016,3,4.130231659001061,False,未知,未知,未知,未知,未知,未知,未知,未知
10,600023,4842279954.38,4163678833.750001,2016-06-30,半年度报告,4092762112.88,2016,6,0.6785440202733097,False,未知,未知,未知,未知,未知,未知,未知,未知
11,600023,6727504634.99,5841511776.11,2016-09-30,三季度报告,5780193969.200001,2016,9,0.15096040709791553,True,未知,未知,未知,未知,未知,未知,未知,未知
12,600023,7126503199.94,6221977276.94,2016-12-31,年度报告,6118023730.52,2016,12,-0.08401501189664949,True,0.13764379271306168,True,0.0,True,比例外推,6221977276.94,,6221977276.94
13,600023,1082805096.25,981789375.96,2017-03-31,一季度报告,944786597.5800002,2017,3,3.5712887234138355,False,0.18385871949024796,True,0.02689836954451655,True,前期平均,6051483709.59,4228170000.0,4228170000.0
14,600023,2489702707.52,2314830648.28,2017-06-30,半年度报告,2236831887.97,2017,6,0.5900987447029714,False,0.20324029763975807,True,0.08811644694225651,True,前期平均,5218856924.684999,4298410000.0,4298410000.0
15,600023,4106531263.1,3740620028.61,2017-09-30,三季度报告,3626317871.42,2017,9,0.14451103265147663,True,0.15323674613759702,True,0.1201133488677314,False,平均增速,4021971770.989623,4324333333.0,4021971770.989623
16,600023,4744635806.330001,4334460539.61,2017-12-31,年度报告,4261827547.64,2017,12,0.0804321644063566,True,0.07950151396435057,True,0.0,True,比例外推,4334460539.61,未知,4334460539.61
17,600023,637101855.3699999,572830047.7900001,2018-03-31,一季度报告,609501726.3900001,2018,3,6.11088570198443,False,0.32010456391443953,True,0.029305812975933543,True,前期平均,5686140063.889999,5412286666.999999,5686140063.889999
18,600023,2562291016.81,2348121672.96,2018-06-30,半年度报告,2279765042.13,2018,6,2.0926195540148234,False,0.47192832930870277,True,0.08282265502396191,True,前期平均,4845204632.405001,5394955714.0,5394955714.0
19,600023,4113566745.78,3754078841.7500014,2018-09-30,三季度报告,3466941167.03,2018,9,0.8749895675084993,False,0.3878757089334364,True,0.07596895033795692,True,前期平均,4568169015.210001,4855966667.0,4568169015.210001
20,600023,4328176300.41,4035710030.53,2018-12-31,年度报告,3712943492.2799993,2018,12,0.6228228237639505,False,0.3890671795828991,True,0.0,True,前期平均,4035710030.53,4767542857.0,4767542857.0
21,600023,1177622440.38,1066644482.0700002,2019-03-31,一季度报告,974412576.23,2019,3,11.085513818647351,False,0.5395276679467835,True,0.04332947604506604,True,前期平均,5060370201.85,5517663000.0,5060370201.85
22,600023,2749251857.59,2506841967.57,2019-06-30,半年度报告,2507313970.0600014,2019,6,2.005007326039793,False,0.3010646274097949,True,0.07775576305728615,True,前期平均,4531970606.225,5061600000.0,5061600000.0
23,600023,4091839416.7599993,3626867660.7,2019-09-30,三季度报告,3591178833.2199993,2019,9,0.8717827503003137,False,0.24062154039840195,True,0.05891976575280611,True,前期平均,4113537379.4699993,4417100000.0,4113537379.4699993
24,600023,4907175921.18,4293272328.809999,2019-12-31,年度报告,4228906711.63,2019,12,0.7789717290930644,False,0.2708069043545056,True,0.0,True,前期平均,4293272328.809999,5833500000.0,5833500000.0
25,600023,501677609.5500001,558900073.09,2020-03-31,一季度报告,638724534.2399999,2020,3,5.538346258479439,False,0.3694025008396927,True,0.041263682039614086,True,前期平均,3769141431.0649996,4728250000.0,4728250000.0
