,SECURITYCODE_x,NETPROFIT_x,PARENTNETPROFIT_x,REPORTDATE_x,REPORTTIMETYPE_x,KCFJCXSYJLR,Year,Month,managesituationChangeRate,managesituationGreatChange,historyprofitextroplaterate,ifhistoryprofitextroplate,IfprofitdisStableChangeRage,IfprofitdisStable,predicttype,predict,analyst_prediction,adj_prediction
0,600099,401894.81,401894.81,2013-12-31,年度报告,-5362844.48,2013,12,未知,未知,未知,未知,未知,未知,未知,未知,未知,未知
1,600099,495527.27,495527.27,2014-03-31,一季度报告,495527.27,2014,3,未知,未知,未知,未知,未知,未知,未知,未知,未知,未知
2,600099,1509554.62,1509554.62,2014-06-30,半年度报告,1508086.0799999996,2014,6,未知,未知,未知,未知,未知,未知,未知,未知,未知,未知
3,600099,2253862.6,2253862.6,2014-09-30,三季度报告,2153964.0600000005,2014,9,未知,未知,未知,未知,未知,未知,未知,未知,未知,未知
4,600099,2929147.08,2929147.08,2014-12-31,年度报告,2771871.26,2014,12,0.0,True,未知,未知,未知,未知,未知,未知,未知,未知
5,600099,565888.19,565888.19,2015-03-31,一季度报告,565888.19,2015,3,-0.1889552112843356,True,未知,未知,未知,未知,未知,未知,未知,未知
6,600099,1452357.1,1452357.1,2015-06-30,半年度报告,1423119.6,2015,6,-0.7337659699918642,True,未知,未知,未知,未知,未知,未知,未知,未知
7,600099,2380151.94,2380151.94,2015-09-30,三季度报告,2347984.4400000004,2015,9,-0.8216861977300657,True,未知,未知,未知,未知,未知,未知,未知,未知
8,600099,2360275.2700000005,2360275.2700000005,2015-12-31,年度报告,2039056.72,2015,12,-0.862794595483406,True,未知,未知,未知,未知,未知,未知,未知,未知
9,600099,1283314.04,1283314.04,2016-03-31,一季度报告,1281360.16,2016,3,-0.2897982020087749,True,未知,未知,未知,未知,未知,未知,未知,未知
10,600099,1350965.1,1350965.1,2016-06-30,半年度报告,1038959.96,2016,6,-0.723280996113146,True,未知,未知,未知,未知,未知,未知,未知,未知
11,600099,1828973.76,1828973.76,2016-09-30,三季度报告,1231410.2500000002,2016,9,-0.8311474140596251,True,未知,未知,未知,未知,未知,未知,未知,未知
12,600099,1934025.37,1934025.37,2016-12-31,年度报告,3105451.51,2016,12,-0.8297254497777287,True,0.41713935035503286,True,0.0,True,比例外推,1934025.37,未知,1934025.37
13,600099,553320.55,553320.55,2017-03-31,一季度报告,541570.55,2017,3,-0.6868305048700316,True,1.4181182361900024,True,0.12297943968221225,False,平均增速,1968776.5485627456,未知,1968776.5485627456
14,600099,1358351.9900000002,1358351.9900000002,2017-06-30,半年度报告,1080108.99,2017,6,-0.7025128110267245,True,0.08777490505355103,True,0.19095938797242618,False,平均增速,3599369.572035234,未知,3599369.572035234
15,600099,2345419.910000001,2345419.910000001,2017-09-30,三季度报告,1891630.33,2017,9,-0.7802621236075032,True,0.21063097915959494,True,0.37850701023607813,False,平均增速,4843005.355525907,未知,4843005.355525907
16,600099,1926997.5,1926997.5,2017-12-31,年度报告,-270878.21,2017,12,-0.7921977569508305,True,0.26871962871333205,True,0.0,True,比例外推,1926997.5,未知,1926997.5
17,600099,33252.78000000001,33252.78000000001,2018-03-31,一季度报告,41612.37,2018,3,-0.273667298277644,True,0.4015575570661084,True,1.5629228418501888,False,平均增速,-289579.9572040317,未知,-289579.9572040317
18,600099,218399.32,218399.32,2018-06-30,半年度报告,71181.33,2018,6,-0.7041305840027517,True,0.030898417598947327,True,3.0024528129810446,False,平均增速,-311039.61764780426,未知,-311039.61764780426
19,600099,207421.60000000003,207421.60000000003,2018-09-30,三季度报告,48602.48,2018,9,-0.8286469692328996,True,0.11444517325771525,True,5.171561729257485,False,平均增速,-596569.1038172201,未知,-596569.1038172201
20,600099,2647795.910000001,2647795.910000001,2018-12-31,年度报告,1795010.79,2018,12,-0.7914398902956542,True,0.1025325604590182,True,0.0,True,比例外推,2647795.910000001,未知,2647795.910000001
21,600099,138958.86000000002,138958.86000000002,2019-03-31,一季度报告,-31205.74,2019,3,11.086051451938749,False,0.9637894438218111,True,1.478142089436556,False,前期平均,644780.155,未知,644780.155
22,600099,178707.87,178707.87,2019-06-30,半年度报告,13110.02,2019,6,0.8401834309740525,False,0.8387790629556764,True,2.783027724344204,False,前期平均,536460.0449999999,未知,536460.0449999999
23,600099,770525.33,770525.33,2019-09-30,三季度报告,549434.0800000001,2019,9,0.9375745341854461,False,0.9006219267288224,True,4.796752134619032,False,前期平均,626291.6899999997,未知,626291.6899999997
24,600099,5799058.04,5799058.04,2019-12-31,年度报告,4127503.09,2019,12,-0.8482153369592599,True,0.3715515287792123,True,0.0,True,比例外推,5799058.04,未知,5799058.04
25,600099,-1497687.09,-1497687.09,2020-03-31,一季度报告,-1662710.0799999996,2020,3,1.892185572046287,False,0.5262012338678951,True,1.3380831494276224,False,盈利变化,3623718.9200000004,未知,3623718.9200000004
