,SECURITYCODE_x,NETPROFIT_x,PARENTNETPROFIT_x,REPORTDATE_x,REPORTTIMETYPE_x,KCFJCXSYJLR,Year,Month,managesituationChangeRate,managesituationGreatChange,historyprofitextroplaterate,ifhistoryprofitextroplate,IfprofitdisStableChangeRage,IfprofitdisStable,predicttype,predict,analyst_prediction,adj_prediction
0,600177,1358962393.36,1359596966.9299998,2013-12-31,年度报告,2466803474.18,2013,12,未知,未知,未知,未知,未知,未知,未知,未知,未知,未知
1,600177,774100182.2099999,759488232.58,2014-03-31,一季度报告,850847272.07,2014,3,未知,未知,未知,未知,未知,未知,未知,未知,未知,未知
2,600177,1873868368.23,1828917962.4999995,2014-06-30,半年度报告,1347020834.6700006,2014,6,未知,未知,未知,未知,未知,未知,未知,未知,未知,未知
3,600177,2009008012.09,1961526090.12,2014-09-30,三季度报告,1696224199.9999995,2014,9,未知,未知,未知,未知,未知,未知,未知,未知,未知,未知
4,600177,3214818723.16,3162418735.010001,2014-12-31,年度报告,1389761427.12,2014,12,0.0,True,未知,未知,未知,未知,未知,未知,未知,未知
5,600177,1388398434.07,1388269398.35,2015-03-31,一季度报告,754208623.08,2015,3,0.7555381391078616,False,未知,未知,未知,未知,未知,未知,3405651250.0,未知
6,600177,2906231215.15,2902702957.49,2015-06-30,半年度报告,1454349363.43,2015,6,-0.27478236123723293,True,未知,未知,未知,未知,未知,未知,3732100000.0,未知
7,600177,3257540864.4300003,3252432505.6000004,2015-09-30,三季度报告,1871229620.9,2015,9,-0.32356546853874824,True,未知,未知,未知,未知,未知,未知,3898966667.0,未知
8,600177,4376014694.77,4371497355.2,2015-12-31,年度报告,2206710818.99,2015,12,-0.5772817970824151,True,未知,未知,未知,未知,未知,未知,2729500000.0,未知
9,600177,2569810132.46,2447462365.02,2016-03-31,一季度报告,1231407032.4300005,2016,3,-0.021201436120689213,True,未知,未知,未知,未知,未知,未知,3935750000.0,未知
10,600177,3193333247.0799994,3070590941.11,2016-06-30,半年度报告,1984747744.17,2016,6,-0.5323970142926637,True,未知,未知,未知,未知,未知,未知,4100000000.0,未知
11,600177,3427508105.960001,3305835290.22,2016-09-30,三季度报告,2208306410.6800003,2016,9,-0.5828256805006223,True,未知,未知,未知,未知,未知,未知,4201000000.0,未知
12,600177,3687343868.11,3684747270.35,2016-12-31,年度报告,2392366019.980001,2016,12,-0.6894520498333414,True,0.9135216938844369,True,0.0,True,比例外推,3684747270.35,,3684747270.35
13,600177,1260441266.16,1261788998.2099993,2017-03-31,一季度报告,745514062.83,2017,3,-0.4711817903608672,True,1.3767045334629353,True,0.14779661161770402,False,平均增速,2388731667.923992,4007000000.0,4007000000.0
14,600177,2045332935.31,2047130251.77,2017-06-30,半年度报告,1607871420.6,2017,6,-0.5744376523801135,True,0.33609486220033896,True,0.16024938135350186,False,平均增速,2484524415.3675685,4034666667.0,4034666667.0
15,600177,2675825010.29,2677889331.84,2017-09-30,三季度报告,2207399177.44,2017,9,-0.6035130038067782,True,0.3016144675846282,True,0.22333108776183297,False,平均增速,2892831599.268431,,2892831599.268431
16,600177,293917688.4,296731412.49000007,2017-12-31,年度报告,-398952060.33,2017,12,-0.6314522209026967,True,0.02847456528283852,True,0.0,True,比例外推,296731412.49000007,,296731412.49000007
17,600177,509009253.81000006,509284926.35,2018-03-31,一季度报告,283782390.21,2018,3,0.07816399688352758,True,0.36312539120949977,True,1.531288231141767,False,平均增速,28987332.611118913,1873000000.0,1873000000.0
18,600177,1487954112.7599998,1488759205.08,2018-06-30,半年度报告,1257653216.6,2018,6,-0.3355788830760556,True,0.3293511535208117,True,3.1830496484134967,False,平均增速,243654666.50299168,1667000000.0,1667000000.0
19,600177,2342521175.9500003,2341102760.2700005,2018-09-30,三季度报告,1837675401.96,2018,9,-0.49213330911623454,True,0.1994598627049716,True,4.279007722428343,False,平均增速,658451683.1621115,,658451683.1621115
20,600177,3678491325.22,3676929188.559999,2018-12-31,年度报告,3099071190.08,2018,12,3.6236155460999466,False,0.9270979490474199,True,0.0,True,前期平均,3676929188.559999,未知,3676929188.559999
21,600177,754902849.2,753868468.36,2019-03-31,一季度报告,692004032.4600003,2019,3,1.669818639225104,False,0.7342162689407851,True,1.447885096428174,False,前期平均,762114900.5550002,4124000000.0,4124000000.0
22,600177,2032233107.04,2027071693.8499992,2019-06-30,半年度报告,1842871770.37,2019,6,-0.08669065685146275,True,0.43193398435585717,True,3.0986358662068594,False,平均增速,7796197505.980415,4202000000.0,4202000000.0
23,600177,3074583630.2200003,3076952034.7700005,2019-09-30,三季度报告,2856589708.97,2019,9,-0.4198718853378655,True,0.2323797075034017,True,4.194009020606052,False,平均增速,7085095522.6078415,,7085095522.6078415
24,600177,3951620259.8,3972408923.4700007,2019-12-31,年度报告,3591218171.9,2019,12,-0.6305652852725636,True,0.8479023661256706,True,0.0,True,比例外推,3972408923.4700007,未知,3972408923.4700007
25,600177,1028578136.65,1033166975.11,2020-03-31,一季度报告,958796234.8,2020,3,0.8001818310795161,False,0.14673754289235635,True,1.340541726116853,False,前期平均,1868578313.4650002,3960000000.0,3960000000.0
