,SECURITYCODE_x,NETPROFIT_x,PARENTNETPROFIT_x,REPORTDATE_x,REPORTTIMETYPE_x,KCFJCXSYJLR,Year,Month,managesituationChangeRate,managesituationGreatChange,historyprofitextroplaterate,ifhistoryprofitextroplate,IfprofitdisStableChangeRage,IfprofitdisStable,predicttype,predict,analyst_prediction,adj_prediction
0,600190,169053066.83,155522880.86,2013-12-31,年度报告,120227892.20999996,2013,12,未知,未知,未知,未知,未知,未知,未知,未知,未知,未知
1,600190,73937079.87,69650434.21,2014-03-31,一季度报告,68115818.52000001,2014,3,未知,未知,未知,未知,未知,未知,未知,未知,未知,未知
2,600190,139421076.17,131462075.82,2014-06-30,半年度报告,123745181.92,2014,6,未知,未知,未知,未知,未知,未知,未知,未知,未知,未知
3,600190,166627301.44000003,156542127.33999997,2014-09-30,三季度报告,132380388.3,2014,9,未知,未知,未知,未知,未知,未知,未知,未知,未知,未知
4,600190,231917577.14,220825148.69,2014-12-31,年度报告,110500709.34000002,2014,12,0.0,True,未知,未知,未知,未知,未知,未知,未知,未知
5,600190,74054464.27,71721167.04999998,2015-03-31,一季度报告,58918146.48,2015,3,1.2864450033357804,False,未知,未知,未知,未知,未知,未知,未知,未知
6,600190,112895237.57,110650140.65999998,2015-06-30,半年度报告,73869884.97999999,2015,6,0.21253594846642065,True,未知,未知,未知,未知,未知,未知,未知,未知
7,600190,122311167.26000004,121626875.96000002,2015-09-30,三季度报告,66020824.3,2015,9,0.014558030821098468,True,未知,未知,未知,未知,未知,未知,未知,未知
8,600190,129471977.0,129065845.76999998,2015-12-31,年度报告,62281264.31000001,2015,12,-0.27106401802417507,True,未知,未知,未知,未知,未知,未知,未知,未知
9,600190,12357792.04,13404410.300000004,2016-03-31,一季度报告,-3760118.71,2016,3,1.2828207387152033,False,未知,未知,未知,未知,未知,未知,未知,未知
10,600190,21231613.39,25088446.01,2016-06-30,半年度报告,4213807.99,2016,6,0.4974331111636105,True,未知,未知,未知,未知,未知,未知,未知,未知
11,600190,36109518.63,40006383.38,2016-09-30,三季度报告,3521327.36,2016,9,0.38215561683455695,True,未知,未知,未知,未知,未知,未知,未知,未知
12,600190,50104698.93,55502638.55000001,2016-12-31,年度报告,-42196356.48,2016,12,0.3057116354220807,True,0.35420720221260443,True,0.0,True,比例外推,55502638.55000001,未知,55502638.55000001
13,600190,44965216.91,41402090.18999999,2017-03-31,一季度报告,32609494.67,2017,3,12.679876330885403,False,0.8329932684760755,True,0.46140328504865363,False,前期平均,64276094.515,未知,64276094.515
14,600190,88371844.36,84392477.72999999,2017-06-30,半年度报告,61606621.48000001,2017,6,6.962327861038732,False,0.8317063762125332,True,0.8352172082824221,False,前期平均,71975931.10500002,未知,71975931.10500002
15,600190,92606747.02,85461055.29,2017-09-30,三季度报告,61653158.43000001,2017,9,3.681676002447447,False,0.7500539212209095,True,0.808316644370564,False,前期平均,72651435.81500003,未知,72651435.81500003
16,600190,153170486.42999998,143099148.68999997,2017-12-31,年度报告,90095439.73,2017,12,2.3739962606337532,False,0.7227108622481668,True,0.0,True,前期平均,143099148.68999997,未知,143099148.68999997
17,600190,45001780.34,44082494.98,2018-03-31,一季度报告,40027839.76,2018,3,2.759640861254327,False,0.04071387162231582,True,0.4803161103461772,False,前期平均,26545935.010000005,未知,26545935.010000005
18,600190,92184533.8,91183829.34,2018-06-30,半年度报告,90060424.12,2018,6,0.9129742968962973,False,0.31773531887891276,True,0.689861936007458,False,前期平均,62184436.77000001,未知,62184436.77000001
19,600190,118169449.46,114847302.08999996,2018-09-30,三季度报告,110087195.81,2018,9,0.825494062473549,False,0.16912442967582925,True,0.6370848277787406,False,前期平均,90118680.17499997,未知,90118680.17499997
20,600190,246475964.20999995,241881889.31,2018-12-31,年度报告,52939689.51000001,2018,12,0.10369217184185472,True,0.7059062446362098,True,0.0,True,比例外推,241881889.31,未知,241881889.31
21,600190,45720073.63,44886078.1,2019-03-31,一季度报告,30471769.79000001,2019,3,2.7565861962073654,False,0.5701122869964071,True,0.35371712589758847,False,前期平均,54410931.745000005,未知,54410931.745000005
22,600190,104637031.52,101532938.79,2019-06-30,半年度报告,56008148.68,2019,6,0.8338549847935557,False,0.6821464521724908,True,0.9394824164945814,False,前期平均,92572265.68,未知,92572265.68
23,600190,152469642.40999997,148433940.29,2019-09-30,三季度报告,101219108.80999996,2019,9,0.43059875122143115,True,0.8361230239746315,True,1.1860359967767757,False,平均增速,54688702.340042084,未知,54688702.340042084
24,600190,172013189.96,167638363.95999995,2019-12-31,年度报告,107335151.36,2019,12,-0.3141194624317804,True,1.4250472459143646,True,0.0,True,比例外推,167638363.95999995,未知,167638363.95999995
25,600190,48773410.27999999,47667266.62999999,2020-03-31,一季度报告,49682389.03000001,2020,3,2.6975676854350685,False,0.01637433786865667,True,0.28878924760626207,False,前期平均,82866164.035,未知,82866164.035
