,SECURITYCODE_x,NETPROFIT_x,PARENTNETPROFIT_x,REPORTDATE_x,REPORTTIMETYPE_x,KCFJCXSYJLR,Year,Month,managesituationChangeRate,managesituationGreatChange,historyprofitextroplaterate,ifhistoryprofitextroplate,IfprofitdisStableChangeRage,IfprofitdisStable,predicttype,predict,analyst_prediction,adj_prediction
0,600199,133618605.2,133452490.18999998,2013-12-31,年度报告,126115519.87000002,2013,12,未知,未知,未知,未知,未知,未知,未知,未知,未知,未知
1,600199,32430223.31000001,32437261.280000005,2014-03-31,一季度报告,24341993.49,2014,3,未知,未知,未知,未知,未知,未知,未知,未知,未知,未知
2,600199,49203633.04000001,49128694.43999999,2014-06-30,半年度报告,35521180.77,2014,6,未知,未知,未知,未知,未知,未知,未知,未知,未知,未知
3,600199,56356277.97,56253844.57000001,2014-09-30,三季度报告,34645141.79000001,2014,9,未知,未知,未知,未知,未知,未知,未知,未知,未知,未知
4,600199,88573194.86000001,88561655.24000001,2014-12-31,年度报告,61910222.91,2014,12,0.0,True,未知,未知,未知,未知,未知,未知,未知,未知
5,600199,22080345.87,22060460.28,2015-03-31,一季度报告,12293774.930000005,2015,3,3.1201876386339307,False,未知,未知,未知,未知,未知,未知,162910000.0,未知
6,600199,34349052.32,34264916.529999994,2015-06-30,半年度报告,15652556.71,2015,6,1.715624781027348,False,未知,未知,未知,未知,未知,未知,,未知
7,600199,38475255.49,38306436.52,2015-09-30,三季度报告,12284809.76,2015,9,1.37096220710546,False,未知,未知,未知,未知,未知,未知,未知,未知
8,600199,52354000.77,52082291.04999999,2015-12-31,年度报告,21271325.180000003,2015,12,0.5085670716879906,False,未知,未知,未知,未知,未知,未知,未知,未知
9,600199,27599667.739999995,27491210.07000001,2016-03-31,一季度报告,21653211.07,2016,3,5.05147247179421,False,未知,未知,未知,未知,未知,未知,112430000.0,未知
10,600199,11096820.84,10835316.47,2016-06-30,半年度报告,2878688.8,2016,6,2.890023047948823,False,未知,未知,未知,未知,未知,未知,56328333.0,未知
11,600199,10482259.11,10030751.260000002,2016-09-30,三季度报告,785359.0599999998,2016,9,2.4728451701829104,False,未知,未知,未知,未知,未知,未知,36509875.0,未知
12,600199,17537395.12,17019311.330000002,2016-12-31,年度报告,5157079.8999999985,2016,12,1.5522138372387086,False,0.5287494790009128,True,0.0,True,前期平均,17019311.330000002,25500000.0,25500000.0
13,600199,6528991.6099999985,6313510.64,2017-03-31,一季度报告,4988141.43,2017,3,3.841312093273773,False,0.012635463367215972,True,2.4754456552423996,False,前期平均,29586400.475,,29586400.475
14,600199,5573467.840000002,5089814.95,2017-06-30,半年度报告,1579372.16,2017,6,11.041160898836319,False,0.7343754831532323,True,0.11325016760687634,False,前期平均,21093720.254999995,未知,21093720.254999995
15,600199,5781283.99,4980638.6000000015,2017-09-30,三季度报告,-2027106.64,2017,9,11.747119089293339,False,0.7789288282589795,True,0.2775189826122517,False,前期平均,23106436.869999997,未知,23106436.869999997
16,600199,9161118.98,8189818.88,2017-12-31,年度报告,-2503193.33,2017,12,6.6190679565415405,False,0.7511141119128789,True,0.0,True,前期平均,8189818.88,64000000.0,64000000.0
17,600199,7656548.6,7394814.18,2018-03-31,一季度报告,766389.7699999998,2018,3,19.465427616011294,False,0.7371582197519451,True,3.270743438929345,False,前期平均,3635523.719999998,未知,3635523.719999998
18,600199,6566934.85,6005822.59,2018-06-30,半年度报告,-5696717.84,2018,6,22.97405153054583,False,0.754720618068987,True,0.8519798825057644,False,前期平均,9954402.375,未知,9954402.375
19,600199,2390866.54,1624717.9,2018-09-30,三季度报告,-13631717.03,2018,9,22.112271500781265,False,0.7638244491275707,True,0.3609207618136742,False,前期平均,8303836.030000001,未知,8303836.030000001
20,600199,102762428.46,101888832.38000004,2018-12-31,年度报告,17640820.939999998,2018,12,13.585402229979552,False,0.7378470164076157,True,0.0,True,前期平均,101888832.38000004,未知,101888832.38000004
21,600199,9351384.510000004,8981112.199999997,2019-03-31,一季度报告,6591328.689999998,2019,3,16.451545360790895,False,0.5513126653186275,True,3.448912265386021,False,前期平均,-3012620.7650000025,未知,-3012620.7650000025
22,600199,-31229362.74,-31783362.19,2019-06-30,半年度报告,-35824427.69,2019,6,19.347179963267035,False,0.21213903657486044,True,0.6900912456914271,False,盈利变化,81803692.48000005,未知,81803692.48000005
23,600199,-70953831.58,-71606728.81,2019-09-30,三季度报告,-78189249.14000002,2019,9,54.88710325922249,False,0.7059845415849145,True,0.8358566785952066,False,盈利变化,73196595.8866667,未知,73196595.8866667
24,600199,-203756194.32,-204497795.95,2019-12-31,年度报告,-228352014.31,2019,12,0.30026710347751945,True,6.697988590308851,False,0.0,True,比例外推,-204497795.95,未知,-204497795.95
25,600199,-25880209.69,-26209954.17,2020-03-31,一季度报告,-33330468.75,2020,3,13.28864411009017,False,0.318438969762718,True,1.3333339250855452,False,盈利变化,-257726859.20333332,未知,-257726859.20333332
