,SECURITYCODE_x,NETPROFIT_x,PARENTNETPROFIT_x,REPORTDATE_x,REPORTTIMETYPE_x,KCFJCXSYJLR,Year,Month,managesituationChangeRate,managesituationGreatChange,historyprofitextroplaterate,ifhistoryprofitextroplate,IfprofitdisStableChangeRage,IfprofitdisStable,predicttype,predict,analyst_prediction,adj_prediction
0,600101,149437656.08999997,164855331.72000003,2013-12-31,年度报告,65944273.47000001,2013,12,未知,未知,未知,未知,未知,未知,未知,未知,未知,未知
1,600101,24961781.0,26336291.66,2014-03-31,一季度报告,26505173.56,2014,3,未知,未知,未知,未知,未知,未知,未知,未知,未知,未知
2,600101,49287482.40000001,53651207.79,2014-06-30,半年度报告,51647112.27000001,2014,6,未知,未知,未知,未知,未知,未知,未知,未知,未知,未知
3,600101,108196157.31000005,114193967.56999998,2014-09-30,三季度报告,109629965.95,2014,9,未知,未知,未知,未知,未知,未知,未知,未知,未知,未知
4,600101,81429805.35,97487872.12999997,2014-12-31,年度报告,91796923.34,2014,12,0.0,True,未知,未知,未知,未知,未知,未知,未知,未知
5,600101,26680776.67,27961183.690000005,2015-03-31,一季度报告,28632249.78,2015,3,4.9866584075070595,False,未知,未知,未知,未知,未知,未知,未知,未知
6,600101,42679930.25000001,46316216.67,2015-06-30,半年度报告,44566009.56000001,2015,6,2.0319596135427673,False,未知,未知,未知,未知,未知,未知,未知,未知
7,600101,82645135.98,87354660.80000001,2015-09-30,三季度报告,82076396.53999999,2015,9,0.3811734150764352,True,未知,未知,未知,未知,未知,未知,未知,未知
8,600101,81780689.16,89085163.64,2015-12-31,年度报告,81319832.64,2015,12,0.8351714761897068,False,未知,未知,未知,未知,未知,未知,未知,未知
9,600101,28448049.340000004,30675875.74,2016-03-31,一季度报告,30473089.070000004,2016,3,4.600948500799395,False,未知,未知,未知,未知,未知,未知,114530000.0,未知
10,600101,43575745.81,47742143.35,2016-06-30,半年度报告,37843088.63,2016,6,2.5013566145647568,False,未知,未知,未知,未知,未知,未知,110600000.0,未知
11,600101,83851338.30999999,89602145.46000001,2016-09-30,三季度报告,78374362.24999999,2016,9,0.8081845267477527,False,未知,未知,未知,未知,未知,未知,110600000.0,未知
12,600101,76412076.60999998,83539122.56,2016-12-31,年度报告,79912304.26,2016,12,0.8272975885252369,False,0.29153559665874407,True,0.0,True,前期平均,83539122.56,未知,83539122.56
13,600101,24565959.08,24719839.209999993,2017-03-31,一季度报告,24318683.41,2017,3,4.253001859775316,False,0.10172890823050525,True,0.05198393836894438,True,前期平均,83709505.52999999,未知,83709505.52999999
14,600101,42421989.63999999,43092910.24,2017-06-30,半年度报告,43136467.76000001,2017,6,2.4293769002045673,False,0.05236551612393344,True,0.05451394473515736,True,前期平均,81544727.315,未知,81544727.315
15,600101,93931680.32999998,93673002.22,2017-09-30,三季度报告,86929030.33,2017,9,0.7821737744664984,False,0.12124533569807097,True,0.13282476026405,False,前期平均,84378198.965,未知,84378198.965
16,600101,99286805.47,98103612.95,2017-12-31,年度报告,89229003.96999998,2017,12,0.9556811268553221,False,0.06363770492321892,True,0.0,True,前期平均,98103612.95,,98103612.95
17,600101,26623601.42,27148346.55,2018-03-31,一季度报告,27028518.53,2018,3,5.083119148873872,False,0.10877989400521987,True,0.06278040291263581,True,前期平均,78211745.575,未知,78211745.575
18,600101,47990697.12000001,54547798.82,2018-06-30,半年度报告,46021922.12,2018,6,2.522646093645126,False,0.016366421834292166,True,0.04635806786605412,True,前期平均,93959318.17500001,未知,93959318.17500001
19,600101,98718006.38000004,104989053.51,2018-09-30,三季度报告,95915167.43999998,2018,9,0.5909185864129851,False,0.1283323653615847,True,0.021209522462667496,True,前期平均,105379742.56500003,未知,105379742.56500003
20,600101,96414877.48,101781013.51000002,2018-12-31,年度报告,84460835.4,2018,12,0.5051109297212035,False,0.25526353859133255,True,0.0,True,前期平均,101781013.51000002,未知,101781013.51000002
21,600101,30241622.38,29772278.16,2019-03-31,一季度报告,32360494.07,2019,3,4.612976761954543,False,0.004398732088932689,True,0.05670281624066209,True,前期平均,86947046.035,未知,86947046.035
22,600101,50934727.96999999,50267308.44000001,2019-06-30,半年度报告,45828425.25,2019,6,2.113888004509153,False,0.11609211263248488,True,0.04426271535764126,True,前期平均,94348184.36,未知,94348184.36
23,600101,94815001.74,93863592.92,2019-09-30,三季度报告,90254282.96,2019,9,0.5137831644893872,False,0.11054483307990307,True,0.10541853747311625,False,前期平均,95782550.745,未知,95782550.745
24,600101,100733724.86999996,99686162.28,2019-12-31,年度报告,98861357.67,2019,12,0.5499439505173758,False,0.0975013197420341,True,0.0,True,前期平均,99686162.28,未知,99686162.28
25,600101,26191048.15,26046774.49,2020-03-31,一季度报告,24204336.88000001,2020,3,3.941456321762324,False,0.18155428898437206,True,0.03408660213849196,True,前期平均,87218093.20499998,未知,87218093.20499998
26,600101,43823322.92,44126973.36000001,2020-06-30,半年度报告,40531200.0,2020,6,1.9339050593932128,False,0.12671638893346804,True,0.0475944314030225,True,前期平均,86392698.10499999,未知,86392698.10499999
