,SECURITYCODE_x,NETPROFIT_x,PARENTNETPROFIT_x,REPORTDATE_x,REPORTTIMETYPE_x,KCFJCXSYJLR,Year,Month,managesituationChangeRate,managesituationGreatChange,historyprofitextroplaterate,ifhistoryprofitextroplate,IfprofitdisStableChangeRage,IfprofitdisStable,predicttype,predict,analyst_prediction,adj_prediction
0,600121,211273490.54,43277407.19,2013-12-31,年度报告,47014846.75999999,2013,12,未知,未知,未知,未知,未知,未知,未知,未知,未知,未知
1,600121,27426884.63000001,1879623.26,2014-03-31,一季度报告,2091255.97,2014,3,未知,未知,未知,未知,未知,未知,未知,未知,未知,未知
2,600121,10276754.060000002,-51957100.76000001,2014-06-30,半年度报告,-52491355.84999999,2014,6,未知,未知,未知,未知,未知,未知,未知,未知,未知,未知
3,600121,-84959636.6,-173534887.74,2014-09-30,三季度报告,-172074761.24,2014,9,未知,未知,未知,未知,未知,未知,未知,未知,未知,未知
4,600121,162583329.70000002,62293601.44999998,2014-12-31,年度报告,-199578347.52,2014,12,0.0,True,未知,未知,未知,未知,未知,未知,未知,未知
5,600121,26830532.49,24696354.599999994,2015-03-31,一季度报告,-121258826.3,2015,3,6.703153070068531,False,未知,未知,未知,未知,未知,未知,17910000.0,未知
6,600121,-190267075.20999995,-171836249.54,2015-06-30,半年度报告,-377730173.0,2015,6,19.558387337723243,False,未知,未知,未知,未知,未知,未知,,未知
7,600121,-476781589.5199999,-427079029.23,2015-09-30,三季度报告,-632998657.08,2015,9,-3.486751344461377,False,未知,未知,未知,未知,未知,未知,-607000000.0,未知
8,600121,-599636903.2800001,-544250806.33,2015-12-31,年度报告,-760632274.9699999,2015,12,0.29947818715389474,True,未知,未知,未知,未知,未知,未知,未知,未知
9,600121,-128494188.86,-120994119.59,2016-03-31,一季度报告,-120651152.28,2016,3,6.874368151982957,False,未知,未知,未知,未知,未知,未知,-379200000.0,未知
10,600121,-199513402.72000003,-192144699.55,2016-06-30,半年度报告,-191625226.05,2016,6,-2.110404889058262,False,未知,未知,未知,未知,未知,未知,-53450000.0,未知
11,600121,-119924458.11000004,-140842797.8,2016-09-30,三季度报告,-134783132.66,2016,9,-1.4431242631509738,False,未知,未知,未知,未知,未知,未知,,未知
12,600121,-554349629.38,-628059008.81,2016-12-31,年度报告,179415391.78,2016,12,-1.352335704130848,False,4.207842525890308,False,0.0,True,去年同期,-628059008.81,,-628059008.81
13,600121,294863663.82,227827510.61,2017-03-31,一季度报告,212666368.04,2017,3,-2.64422603398969,False,5.736465378579009,False,0.4979588547995667,False,前期平均,-192694015.46999997,813000000.0,813000000.0
14,600121,529094064.35,405845393.1,2017-06-30,半年度报告,375835434.15000015,2017,6,-2.058943848682207,False,-1.2169347934406982,True,0.965239465302464,False,盈利变化,-249751902.0099998,759000000.0,759000000.0
15,600121,808176373.6999999,615215872.15,2017-09-30,三季度报告,572562519.17,2017,9,-2.7617214525681706,False,-0.573025968066009,True,1.0656207603290921,False,盈利变化,-313683163.5522222,,-313683163.5522222
16,600121,854815041.01,627445968.66,2017-12-31,年度报告,586217247.2600001,2017,12,-1.3811195666826621,False,-1.5367582506611384,True,0.0,True,盈利变化,-492458390.3166666,未知,-492458390.3166666
17,600121,98005056.58,41469451.47,2018-03-31,一季度报告,13363868.830000006,2018,3,-0.28348753521229986,True,-6.800768423021455,True,0.6223774447048138,False,平均增速,567142406.1061176,526000000.0,567142406.1061176
18,600121,231154973.59,102746773.03000002,2018-06-30,半年度报告,71624176.61999999,2018,6,-0.6006882239369806,True,-3.7148310103156024,True,1.0912756114303162,False,平均增速,412239325.20304173,269000000.0,269000000.0
19,600121,360004327.90000004,164784973.82,2018-09-30,三季度报告,136725557.18000004,2018,9,-0.7385799716307644,True,-3.7087923003626955,True,1.1037926001337077,False,平均增速,185201669.02895743,213000000.0,213000000.0
20,600121,406391255.42,168582252.42,2018-12-31,年度报告,124586623.51000002,2018,12,-0.7528430357397883,True,-2.4814991628015037,True,0.0,True,比例外推,168582252.42,未知,168582252.42
21,600121,33032078.12,8418325.99,2019-03-31,一季度报告,3257378.4700000007,2019,3,1.1557407129043462,False,0.17816151795349766,True,0.6049931843706643,False,前期平均,345227037.63000005,141000000.0,141000000.0
22,600121,92056971.72,10541487.54,2019-06-30,半年度报告,3949993.1399999987,2019,6,-0.08600932413967365,True,0.40272170367509924,True,1.1173737289954058,False,平均增速,58077911.489801,,58077911.489801
23,600121,64688947.32,-64550713.18,2019-09-30,三季度报告,-86633525.82,2019,9,-0.41313624818786526,True,0.04614115775148534,True,1.1922036186290885,False,平均增速,-71265482.95387296,未知,-71265482.95387296
24,600121,-786506280.4,-921895082.98,2019-12-31,年度报告,-690229062.24,2019,12,-0.4801229413225154,True,1.7050784528932037,True,0.0,True,比例外推,-921895082.98,,-921895082.98
25,600121,-143804280.39000002,-149711438.55,2020-03-31,一季度报告,-150959475.95000002,2020,3,5.396009653781964,False,0.8318416488522256,True,0.20766946319502697,False,盈利变化,-1127517555.54,-506000000.0,-506000000.0
