,SECURITYCODE_x,NETPROFIT_x,PARENTNETPROFIT_x,REPORTDATE_x,REPORTTIMETYPE_x,KCFJCXSYJLR,Year,Month,managesituationChangeRate,managesituationGreatChange,historyprofitextroplaterate,ifhistoryprofitextroplate,IfprofitdisStableChangeRage,IfprofitdisStable,predicttype,predict,analyst_prediction,adj_prediction
0,600167,138700122.83,138684594.26,2013-12-31,年度报告,128771268.65999997,2013,12,未知,未知,未知,未知,未知,未知,未知,未知,未知,未知
1,600167,109834563.01,109840989.19,2014-03-31,一季度报告,109665250.16,2014,3,未知,未知,未知,未知,未知,未知,未知,未知,未知,未知
2,600167,115298872.18,115302500.08,2014-06-30,半年度报告,114455698.29999998,2014,6,未知,未知,未知,未知,未知,未知,未知,未知,未知,未知
3,600167,118454354.59,118449548.15,2014-09-30,三季度报告,122632320.87,2014,9,未知,未知,未知,未知,未知,未知,未知,未知,未知,未知
4,600167,162800867.39,162792099.21999997,2014-12-31,年度报告,153115449.99,2014,12,0.0,True,未知,未知,未知,未知,未知,未知,未知,未知
5,600167,127465490.16,127471363.4,2015-03-31,一季度报告,127289067.32000004,2015,3,0.26280943838572846,True,未知,未知,未知,未知,未知,未知,未知,未知
6,600167,278436510.19000006,273225337.17,2015-06-30,半年度报告,132219257.76000002,2015,6,0.20296166135490817,True,未知,未知,未知,未知,未知,未知,未知,未知
7,600167,261102824.95,256416544.50000003,2015-09-30,三季度报告,254271894.74,2015,9,0.17091620067557373,True,未知,未知,未知,未知,未知,未知,未知,未知
8,600167,261102824.95,256416544.50000003,2015-09-30,三季度报告,134984367.2,2015,9,0.17091620067557373,True,未知,未知,未知,未知,未知,未知,未知,未知
9,600167,470683068.46,459212961.2000001,2015-12-31,年度报告,477967458.74,2015,12,-0.14803818275897193,True,未知,未知,未知,未知,未知,未知,未知,未知
10,600167,470683068.46,459212961.2000001,2015-12-31,年度报告,195357438.0600001,2015,12,-0.14803818275897193,True,未知,未知,未知,未知,未知,未知,未知,未知
11,600167,327609058.75,318989194.90000004,2016-03-31,一季度报告,134171224.84,2016,3,0.08813862211566313,True,未知,未知,未知,未知,未知,未知,未知,未知
12,600167,323664081.73,315760652.50999993,2016-06-30,半年度报告,144527942.42,2016,6,-0.5018608632346615,True,未知,未知,0.0,True,未知,未知,未知,未知
13,600167,305606063.87,298018894.83000004,2016-09-30,三季度报告,117521472.57000002,2016,9,-0.46879118272059883,True,未知,未知,0.2897464488741525,False,未知,未知,590000000.0,未知
14,600167,715841554.7800003,698923929.3400003,2016-12-31,年度报告,451908351.72999984,2016,12,-0.7053216227135497,True,2.12226548985163,False,0.29952657357133294,False,未知,未知,未知,未知
15,600167,464943061.56,451574556.66,2017-03-31,一季度报告,448700639.6599999,2017,3,-0.5766291586709673,True,1.761137676739611,True,0.2709292999189884,False,平均增速,1305935701.5099008,885483333.0,885483333.0
16,600167,461102877.8700001,450144250.3999999,2017-06-30,半年度报告,445147322.98,2017,6,-0.5714689066249142,True,0.6440690688338859,True,0.0,True,比例外推,998660770.160707,936543333.0,998660770.160707
17,600167,478591599.0,467388408.94,2017-09-30,三季度报告,460054080.93,2017,9,-0.5461473470991045,True,0.6103295120928859,True,0.15038113380227908,False,平均增速,1461886014.563107,931282817.0000001,931282817.0000001
18,600167,1069492977.5,1047750713.1900002,2017-12-31,年度报告,884700654.5900002,2017,12,-0.8062418674861271,True,1.2600148615276063,True,0.13662598106007612,False,平均增速,1047750713.1900002,931282817.0000001,931282817.0000001
19,600167,634829814.42,622505874.29,2018-03-31,一季度报告,576833367.0799999,2018,3,-0.701683637638066,True,1.0433709715194455,True,0.1772949408371982,False,平均增速,1219205304.2402592,1176244444.0,1219205304.2402592
20,600167,658569184.4700001,646690937.7900001,2018-06-30,半年度报告,558964220.88,2018,6,-0.6991991820335068,True,0.5316473162719161,True,0.0,True,比例外推,1612719976.4703863,1183085714.0,1183085714.0
21,600167,745105740.04,733886783.64,2018-09-30,三季度报告,588949204.7100003,2018,9,-0.7101910624427822,True,0.6890209715839201,True,0.1408903462273558,False,平均增速,1313903715.6260934,1182942857.0,1182942857.0
22,600167,1349047798.6300006,1316794135.38,2018-12-31,年度报告,1132619265.45,2018,12,-0.8703122640840342,True,0.8027320403677319,True,0.11901410711573213,False,平均增速,1316794135.38,1123695911.0,1123695911.0
23,600167,795548984.3900001,779905420.99,2019-03-31,一季度报告,770096497.7599999,2019,3,-0.7815160540991277,True,0.6019888109609541,True,0.17329590747404383,False,平均增速,1600802740.4131765,1588911111.0,1600802740.4131765
24,600167,831015900.4299997,815479749.2199997,2019-06-30,半年度报告,801419970.0400001,2019,6,-0.7893917205652092,True,0.6783815282072434,True,0.0,True,比例外推,1840320684.4341002,1570654545.0,1570654545.0
25,600167,934180126.74,918088036.5,2019-09-30,三季度报告,897388200.8200002,2019,9,-0.8138517590502603,True,0.9003008433181712,True,0.005072775349587499,True,比例外推,2091506982.6656282,1598000000.0,1598000000.0
26,600167,1644737392.2800002,1591538410.04,2019-12-31,年度报告,1538268470.6100006,2019,12,-0.8971866504872147,True,0.5112549208435125,True,未知,未知,True,True,1332000000.0,1332000000.0
27,600167,929254282.7400002,897548395.7199998,2020-03-31,一季度报告,888453394.8999999,2020,3,-0.8256548301216793,True,0.44675141888927183,True,未知,未知,True,True,1857841667.0,1857841667.0
