,SECURITYCODE_x,NETPROFIT_x,PARENTNETPROFIT_x,REPORTDATE_x,REPORTTIMETYPE_x,KCFJCXSYJLR,Year,Month,managesituationChangeRate,managesituationGreatChange,historyprofitextroplaterate,ifhistoryprofitextroplate,IfprofitdisStableChangeRage,IfprofitdisStable,predicttype,predict,analyst_prediction,adj_prediction
0,600152,12707365.13,31893396.67,2013-12-31,年度报告,-196573280.54,2013,12,未知,未知,未知,未知,未知,未知,未知,未知,未知,未知
1,600152,-31157161.029999994,-27273236.86,2014-03-31,一季度报告,-34256496.47,2014,3,未知,未知,未知,未知,未知,未知,未知,未知,未知,未知
2,600152,-74877109.78,-63161201.19,2014-06-30,半年度报告,-85011907.39000002,2014,6,未知,未知,未知,未知,未知,未知,未知,未知,未知,未知
3,600152,-97179579.6,-82317832.14000002,2014-09-30,三季度报告,-114474356.14000002,2014,9,未知,未知,未知,未知,未知,未知,未知,未知,未知,未知
4,600152,-259326108.01,-220752697.76,2014-12-31,年度报告,-255333703.90000007,2014,12,0.0,True,未知,未知,未知,未知,未知,未知,未知,未知
5,600152,-21151029.51,-17609716.17,2015-03-31,一季度报告,-23859749.64,2015,3,-1.4078473362115562,False,未知,未知,未知,未知,未知,未知,未知,未知
6,600152,14255037.170000002,19270875.49,2015-06-30,半年度报告,-43218340.5,2015,6,-1.1697096104181386,False,未知,未知,未知,未知,未知,未知,未知,未知
7,600152,12902218.4,19220413.43,2015-09-30,三季度报告,-55336388.55,2015,9,-1.1307616804096567,False,未知,未知,未知,未知,未知,未知,未知,未知
8,600152,36200709.25,44232710.86,2015-12-31,年度报告,-97621191.63,2015,12,-1.0490014878467615,False,未知,未知,未知,未知,未知,未知,未知,未知
9,600152,-13871429.21,-11348903.26,2016-03-31,一季度报告,-16157298.68,2016,3,-1.6007918018360325,False,未知,未知,未知,未知,未知,未知,,未知
10,600152,-53859876.48,-44714356.04,2016-06-30,半年度报告,-49211144.01999999,2016,6,-0.10857018621158747,True,未知,未知,未知,未知,未知,未知,未知,未知
11,600152,-64839108.43,-50679249.51000001,2016-09-30,三季度报告,-54444236.53,2016,9,-0.01510230752255748,True,未知,未知,未知,未知,未知,未知,未知,未知
12,600152,-42657649.7,-51013549.25,2016-12-31,年度报告,-93167701.71,2016,12,-0.6489746915662985,True,-1.2935763018434863,True,0.0,True,比例外推,-51013549.25,30000000.0,30000000.0
13,600152,-9273862.18,-11778149.52,2017-03-31,一季度报告,-15477948.11,2017,3,-1.9160818930495773,False,-0.46962687614313325,True,0.06041261888485011,True,前期平均,-159197474.23000005,未知,-159197474.23000005
14,600152,28946299.72000001,33983533.24,2017-06-30,半年度报告,-48038174.16,2017,6,-1.2359337963710086,False,-0.7769064685893127,True,0.10167523534504203,False,盈利变化,-50231569.34333334,未知,-50231569.34333334
15,600152,31221328.2,38682156.64,2017-09-30,三季度报告,-53195103.20999999,2017,9,-1.1959830330443055,False,-0.5387076079928332,True,0.08485052733049031,True,盈利变化,-50458378.88555555,未知,-50458378.88555555
16,600152,9566623.98,15978713.319999995,2017-12-31,年度报告,-87457209.98,2017,12,-1.2978918252498097,False,-0.6176351958399521,True,0.0,True,盈利变化,-49110052.00666667,未知,-49110052.00666667
17,600152,-6263003.1499999985,-5576943.1,2018-03-31,一季度报告,-14352560.210000005,2018,3,-2.370234416185814,False,-0.4704048476925437,True,0.04614136788576367,True,前期平均,-80962865.60999998,未知,-80962865.60999998
18,600152,53959807.68000002,55653635.15000001,2018-06-30,半年度报告,-24072719.180000003,2018,6,-0.5610020882489503,True,-2.461755695733437,True,0.06401548312653776,True,比例外推,32220367.776954953,未知,32220367.776954953
19,600152,94062976.83,96540939.51,2018-09-30,三季度报告,-64785629.00999999,2018,9,-0.5929908859546853,True,-2.202279465788799,True,0.021755570977904592,True,比例外推,50862484.83168866,未知,50862484.83168866
20,600152,56405469.58000001,54579586.18,2018-12-31,年度报告,-162830624.13,2018,12,0.3283019335312059,True,-3.9632065075030996,True,0.0,True,比例外推,54579586.18,未知,54579586.18
21,600152,-22324903.93,-21584445.06,2019-03-31,一季度报告,-37078275.57,2019,3,-3.0289571672976097,False,-0.4588097384934242,True,0.058036946082183974,True,前期平均,-96079277.50999999,未知,-96079277.50999999
22,600152,-50118912.35999999,-48554385.21,2019-06-30,半年度报告,-70189009.72,2019,6,-0.7645031426842921,True,-5.33175920100202,True,0.2605992995952208,False,平均增速,-26632216.28598706,未知,-26632216.28598706
23,600152,-49072461.01,-46931021.22,2019-09-30,三季度报告,-83914892.82000002,2019,9,-0.86490577315062,True,-6.596025447632595,True,0.13228902066309817,False,平均增速,-110878917.2018696,未知,-110878917.2018696
24,600152,-64391471.17,-64080936.67999999,2019-12-31,年度报告,-75944153.7,2019,12,-0.7747139554972214,True,-4.409109772376074,True,0.0,True,比例外推,-64080936.67999999,未知,-64080936.67999999
25,600152,-16294754.270000005,-16254325.620000005,2020-03-31,一季度报告,-34011205.42,2020,3,-1.5692013354164522,False,-1.8737977006073467,True,0.23711337535911764,False,前期平均,-126482988.51499999,未知,-126482988.51499999
