,SECURITYCODE_x,NETPROFIT_x,PARENTNETPROFIT_x,REPORTDATE_x,REPORTTIMETYPE_x,KCFJCXSYJLR,Year,Month,managesituationChangeRate,managesituationGreatChange,historyprofitextroplaterate,ifhistoryprofitextroplate,IfprofitdisStableChangeRage,IfprofitdisStable,predicttype,predict,analyst_prediction,adj_prediction
0,600196,1955450759.88,1582560377.11,2013-12-31,年度报告,1025867432.55,2013,12,未知,未知,未知,未知,未知,未知,未知,未知,未知,未知
1,600196,484669665.35,415708966.54,2014-03-31,一季度报告,303223087.65000004,2014,3,未知,未知,未知,未知,未知,未知,未知,未知,未知,未知
2,600196,1152300138.26,1017555759.75,2014-06-30,半年度报告,669791058.8700001,2014,6,未知,未知,未知,未知,未知,未知,未知,未知,未知,未知
3,600196,1794017070.98,1574583864.38,2014-09-30,三季度报告,1050763440.19,2014,9,未知,未知,未知,未知,未知,未知,未知,未知,未知,未知
4,600196,2369838937.26,2112869467.32,2014-12-31,年度报告,1331023744.8899994,2014,12,0.0,True,未知,未知,未知,未知,未知,未知,未知,未知
5,600196,615388798.6200001,536355998.91,2015-03-31,一季度报告,371181996.83,2015,3,3.0346052160452177,False,未知,未知,未知,未知,未知,未知,2667285691.0,未知
6,600196,1516105476.2300005,1303484469.41,2015-06-30,半年度报告,882448921.2800002,2015,6,0.6969977655585257,False,未知,未知,未知,未知,未知,未知,2593404805.0,未知
7,600196,936636356.17,936636356.17,2015-09-30,三季度报告,1308763589.4299998,2015,9,0.08998447757903179,True,未知,未知,未知,未知,未知,未知,2645094000.0,未知
8,600196,936636356.17,936636356.17,2015-09-30,三季度报告,354430488.29,2015,9,0.08998447757903179,True,未知,未知,未知,未知,未知,未知,2645094000.0,未知
9,600196,936636356.17,936636356.17,2015-09-30,三季度报告,1308763589.4299998,2015,9,0.08998447757903179,True,未知,未知,未知,未知,未知,未知,2645094000.0,未知
10,600196,936636356.17,936636356.17,2015-09-30,三季度报告,354430488.29,2015,9,0.08998447757903179,True,未知,未知,未知,未知,未知,未知,2645094000.0,未知
11,600196,2176897216.15,1890969457.31,2015-09-30,三季度报告,1308763589.4299998,2015,9,0.08998447757903179,True,未知,未知,未知,未知,未知,未知,2645094000.0,未知
12,600196,2176897216.15,1890969457.31,2015-09-30,三季度报告,354430488.29,2015,9,0.08998447757903179,True,未知,未知,未知,未知,未知,未知,2645094000.0,未知
13,600196,2176897216.15,1890969457.31,2015-09-30,三季度报告,1308763589.4299998,2015,9,0.08998447757903179,True,未知,未知,未知,未知,未知,未知,2645094000.0,未知
14,600196,2176897216.15,1890969457.31,2015-09-30,三季度报告,354430488.29,2015,9,0.08998447757903179,True,未知,未知,未知,未知,未知,未知,2645094000.0,未知
15,600196,2870660854.37,2460093583.5800014,2015-12-31,年度报告,1656207786.3400002,2015,12,-0.17485921547863262,True,未知,未知,未知,未知,未知,未知,2612018731.0,未知
16,600196,761809861.16,634231825.7099999,2016-03-31,一季度报告,431398425.3100001,2016,3,2.177585884346722,False,未知,未知,未知,未知,未知,未知,2948373293.0,未知
17,600196,1748625488.5799994,1500266407.5699995,2016-06-30,半年度报告,1118942830.9400003,2016,6,0.2897854341523062,True,未知,未知,0.0,True,未知,未知,2910148750.0,未知
18,600196,2532806876.710001,2176888747.9500003,2016-09-30,三季度报告,1661132514.9199994,2016,9,1.0877374095065395,False,未知,未知,0.013218347025305832,True,未知,未知,2908206238.0,未知
19,600196,3221341795.7,2805837071.35,2016-12-31,年度报告,2092783003.7,2016,12,-0.31881512338762613,True,0.3273843166011096,True,0.020350134478603454,True,比例外推,2805837071.35,2860000000.0,2805837071.35
20,600196,835964419.8299997,737746682.61,2017-03-31,一季度报告,517887090.3299999,2017,3,1.5668488419176612,False,0.3850352251474069,True,0.0026098533302847393,True,前期平均,1894159905.9849997,3236875000.0,3236875000.0
21,600196,1926618982.2000003,1689059654.8899994,2017-06-30,半年度报告,1268112299.48,2017,6,0.11827876961118564,True,0.3106144576256302,True,0.0,True,比例外推,2843019254.2038126,3346766667.0,3346766667.0
22,600196,2757342058.9799995,2419266944.81,2017-09-30,三季度报告,1855559811.93,2017,9,-0.22795110126199586,True,0.8550921559851755,True,0.010868301801817054,True,比例外推,2909151873.026245,3257118182.0,3257118182.0
23,600196,3585258943.65,3124499549.35,2017-12-31,年度报告,2345909050.39,2017,12,-0.3929701087633021,True,0.2294025088389658,True,0.004548748809295677,True,比例外推,3124499549.35,3189523636.0,3124499549.35
24,600196,837857516.11,705783679.6700001,2018-03-31,一季度报告,526784216.07,2018,3,1.3391554873563367,False,0.2140070190941666,True,0.002097575128296003,True,前期平均,2178988863.62,3703790000.0,3703790000.0
25,600196,1737951812.9499998,1560470766.33,2018-06-30,半年度报告,1200656556.4099998,2018,6,0.014964960869988372,True,0.1802620203420806,True,0.0,True,比例外推,2599784356.834878,3486644444.0,3486644444.0
26,600196,2339036522.08,2094152353.81,2018-09-30,三季度报告,1591668096.39,2018,9,-0.29082039222824474,True,0.5895011815432513,True,0.02575058454129922,True,比例外推,2513065531.441433,2960600000.0,2960600000.0
27,600196,3019882133.6800003,2707923418.34,2018-12-31,年度报告,2089792463.2599995,2018,12,-0.4545859056168371,True,0.17703788051004998,True,0.02461235631662162,True,比例外推,2707923418.34,2900000000.0,2707923418.34
28,600196,850839225.0999999,712291660.86,2019-03-31,一季度报告,529562795.43000007,2019,3,1.3338702849605686,False,0.0487808272778726,True,0.020480520894565757,True,前期平均,2456994930.085,3270200000.0,3270200000.0
29,600196,1819628941.7399995,1516119846.9500005,2019-06-30,半年度报告,1167603886.2,2019,6,0.1251467073536507,True,0.05423879866083953,True,0.0,True,比例外推,2471735096.700989,3124206364.0,3124206364.0
30,600196,2455596989.2999988,2063704147.99,2019-09-30,三季度报告,1722388028.3399994,2019,9,-0.16399306234812197,True,0.11570106985091279,True,0.015867575744709345,True,比例外推,2543520888.4306655,3041203019.0,3041203019.0
31,600196,3743521280.96,3321617566.0499988,2019-12-31,年度报告,2233957491.68,2019,12,-0.3524744763806043,True,0.11266071000121997,True,未知,未知,True,True,3072703019.0,3072703019.0
32,600196,648489410.0500001,577198049.3400003,2020-03-31,一季度报告,436418344.88000005,2020,3,1.298261178132889,False,0.016642459787310843,True,未知,未知,前期平均,2272713152.965,3549190909.0,3549190909.0
