,SECURITYCODE_x,NETPROFIT_x,PARENTNETPROFIT_x,REPORTDATE_x,REPORTTIMETYPE_x,KCFJCXSYJLR,Year,Month,managesituationChangeRate,managesituationGreatChange,historyprofitextroplaterate,ifhistoryprofitextroplate,IfprofitdisStableChangeRage,IfprofitdisStable,predicttype,predict,analyst_prediction,adj_prediction
0,600109,314734794.88,315915955.64,2013-12-31,年度报告,299415022.41,2013,12,未知,未知,未知,未知,未知,未知,未知,未知,未知,未知
1,600109,213099727.36,213777111.64000008,2014-03-31,一季度报告,213832772.49000007,2014,3,未知,未知,未知,未知,未知,未知,未知,未知,未知,未知
2,600109,379130469.25,377429414.18,2014-06-30,半年度报告,375177764.79,2014,6,未知,未知,未知,未知,未知,未知,未知,未知,未知,未知
3,600109,550596988.35,548783864.4600002,2014-09-30,三季度报告,544875487.3900001,2014,9,未知,未知,未知,未知,未知,未知,未知,未知,未知,未知
4,600109,836586765.0899997,836489632.37,2014-12-31,年度报告,832003766.8899997,2014,12,0.0,True,未知,未知,未知,未知,未知,未知,未知,未知
5,600109,379864828.27000016,381134408.27000016,2015-03-31,一季度报告,380950975.48,2015,3,0.47693663797280594,True,未知,未知,未知,未知,未知,未知,1436364000.0,未知
6,600109,1232142631.9699998,1233434820.5400002,2015-06-30,半年度报告,1218340081.5900002,2015,6,-0.16985096053447835,True,未知,未知,未知,未知,未知,未知,1901323689.0,未知
7,600109,1682336743.4899998,1683736023.5299995,2015-09-30,三季度报告,1668921899.3400006,2015,9,-0.4283753788352882,True,未知,未知,未知,未知,未知,未知,2168109016.0,未知
8,600109,2358150654.9400005,2359776226.13,2015-12-31,年度报告,2337464677.51,2015,12,-0.623787026028148,True,未知,未知,未知,未知,未知,未知,2156874680.0,未知
9,600109,315613591.45,317062969.29999995,2016-03-31,一季度报告,316857014.34000003,2016,3,-0.17145581412898556,True,未知,未知,未知,未知,未知,未知,1803276797.0,未知
10,600109,637858309.8900001,637952323.88,2016-06-30,半年度报告,578305772.0799999,2016,6,-0.7445630183440782,True,未知,未知,未知,未知,未知,未知,1596049231.0000002,未知
11,600109,1012630003.13,1013726636.58,2016-09-30,三季度报告,946260714.13,2016,9,-0.8129180759453163,True,未知,未知,未知,未知,未知,未知,1573191250.0,未知
12,600109,1293531644.91,1298730528.61,2016-12-31,年度报告,1226868083.64,2016,12,-0.8665332114296116,True,3.09642403465709,False,0.0,True,比例外推,1298730528.61,1581755000.0,1581755000.0
13,600109,283309984.75000006,285732861.03,2017-03-31,一季度报告,258835174.88000005,2017,3,-0.0027844066092420267,True,0.06452768029169537,True,0.06310734596897422,True,比例外推,1171763138.5942202,1545100706.0,1545100706.0
14,600109,547438176.59,550340859.5,2017-06-30,半年度报告,523505693.78,2017,6,-0.506575692438221,True,0.2082554975850636,True,0.04004849070886152,True,比例外推,1114810129.7934494,1283060000.0,1283060000.0
15,600109,875170050.7,878744282.7900001,2017-09-30,三季度报告,847349903.6600001,2017,9,-0.6891907272081935,True,0.093004876328717,True,0.058492901761017735,True,比例外推,1219176451.6875486,1328666667.0,1219176451.6875486
16,600109,1202326686.439999,1201432521.06,2017-12-31,年度报告,1127399826.2000005,2017,12,-0.7566856627601884,True,0.19021097834209288,True,0.0,True,比例外推,1201432521.06,1292000000.0,1201432521.06
17,600109,271965034.72,272332653.42,2018-03-31,一季度报告,247036576.47,2018,3,0.1109202351541898,True,0.1852802999579462,True,0.05396620691560586,True,比例外推,1164016006.780757,1197666667.0,1164016006.780757
18,600109,505343165.88,495568535.99000007,2018-06-30,半年度报告,455468666.65,2018,6,-0.4250770071599913,True,0.4145049188633139,True,0.035576795509138004,True,比例外推,977961157.6125541,1072333333.0,977961157.6125541
19,600109,725294849.7699999,710284725.1700001,2018-09-30,三季度报告,669458988.7200001,2018,9,-0.6403729827954452,True,0.35051513952991853,True,0.03163400903243285,True,比例外推,938678690.9337759,963500000.0,938678690.9337759
20,600109,1023121564.26,1010492527.44,2018-12-31,年度报告,932351403.3600004,2018,12,-0.738228554327521,True,0.34149436467165456,True,0.0,True,比例外推,1010492527.44,,1010492527.44
21,600109,401590263.9,400763506.23,2019-03-31,一季度报告,389762279.4499999,2019,3,0.15726198113677856,True,0.09182057435260467,True,0.02135127289475161,True,比例外推,1564227386.8124423,1359886469.0,1359886469.0
22,600109,621147349.6800001,621142135.6700003,2019-06-30,半年度报告,608158874.71,2019,6,-0.3771860071919174,True,0.14731348376687042,True,0.01377226912447127,True,比例外推,1294008609.1216793,1219666667.0,1294008609.1216793
23,600109,873077371.0100001,877314949.87,2019-09-30,三季度报告,863772631.7299997,2019,9,-0.5660595205111323,True,0.23159780793679957,True,0.02893745245853252,True,比例外推,1169910332.6398165,1150000000.0,1169910332.6398165
24,600109,1298062878.86,1298539701.3300002,2019-12-31,年度报告,1249406087.02,2019,12,-0.6923779090633865,True,0.18014452069753673,True,0.0,True,比例外推,1298539701.3300002,1102000000.0,1102000000.0
25,600109,476036822.79,476137648.02,2020-03-31,一季度报告,459011400.4500001,2020,3,-0.21627882154440842,True,0.44645535930397384,True,0.04312310752375914,True,比例外推,1724536028.2521076,1352333333.0,1352333333.0
