,SECURITYCODE_x,NETPROFIT_x,PARENTNETPROFIT_x,REPORTDATE_x,REPORTTIMETYPE_x,KCFJCXSYJLR,Year,Month,managesituationChangeRate,managesituationGreatChange,historyprofitextroplaterate,ifhistoryprofitextroplate,IfprofitdisStableChangeRage,IfprofitdisStable,predicttype,predict,analyst_prediction,adj_prediction
0,600103,26713181.11,17241552.79,2013-12-31,年度报告,-154089484.7,2013,12,未知,未知,未知,未知,未知,未知,未知,未知,未知,未知
1,600103,12284092.44,9100504.71,2014-03-31,一季度报告,-45530953.48,2014,3,未知,未知,未知,未知,未知,未知,未知,未知,未知,未知
2,600103,39529270.65999999,32166663.180000003,2014-06-30,半年度报告,-122093725.32999998,2014,6,未知,未知,未知,未知,未知,未知,未知,未知,未知,未知
3,600103,15099582.96,4848735.199999998,2014-09-30,三季度报告,-149411397.19000003,2014,9,未知,未知,未知,未知,未知,未知,未知,未知,未知,未知
4,600103,41153499.73,27349823.16,2014-12-31,年度报告,-241620918.81000003,2014,12,0.0,True,未知,未知,未知,未知,未知,未知,未知,未知
5,600103,-48591671.93000001,-52533513.71000002,2015-03-31,一季度报告,-57765502.68999999,2015,3,1.1746157675446474,False,未知,未知,未知,未知,未知,未知,未知,未知
6,600103,-67673625.17999999,-74283165.36000001,2015-06-30,半年度报告,-75262931.72999999,2015,6,-0.32421770844784903,True,未知,未知,未知,未知,未知,未知,未知,未知
7,600103,-73508938.43,-88613039.13,2015-09-30,三季度报告,-93788251.16,2015,9,0.7691337026171746,False,未知,未知,未知,未知,未知,未知,未知,未知
8,600103,-130389552.22,-146515756.34000003,2015-12-31,年度报告,-150025542.55,2015,12,-0.35088920054770756,True,未知,未知,未知,未知,未知,未知,未知,未知
9,600103,-18692918.58,-22861332.57,2016-03-31,一季度报告,-23685282.34,2016,3,-1.5497481368511534,False,未知,未知,未知,未知,未知,未知,未知,未知
10,600103,15932905.999999998,2952965.74,2016-06-30,半年度报告,876104.26,2016,6,-1.3947354828258072,False,未知,未知,未知,未知,未知,未知,未知,未知
11,600103,52823106.58000001,36222961.83,2016-09-30,三季度报告,31768300.8,2016,9,-1.363400447354277,False,未知,未知,未知,未知,未知,未知,未知,未知
12,600103,61180935.44,44988543.19,2016-12-31,年度报告,39141429.87,2016,12,-1.2048720979187668,False,4.842520382789947,False,0.0,True,前期平均,44988543.19,未知,44988543.19
13,600103,28255959.94,23273152.82,2017-03-31,一季度报告,18953257.89,2017,3,-2.4290535207584476,False,-0.02969786708852253,True,0.5945728133556805,False,盈利变化,101839930.16333333,未知,101839930.16333333
14,600103,78849253.17000002,63608046.62000001,2017-06-30,半年度报告,42723996.47,2017,6,0.6766044505628793,False,-2.132227494411195,True,0.3207374800541719,False,前期平均,-33536855.530000024,未知,-33536855.530000024
15,600103,125037456.01,100832423.73,2017-09-30,三季度报告,69650853.23,2017,9,-0.49428985079582205,True,-2.80872074875508,True,0.12657912305092,False,平均增速,115624604.27302058,未知,115624604.27302058
16,600103,128017974.55000004,105391179.26,2017-12-31,年度报告,68316704.28,2017,12,-0.5633740981911342,True,-2.3712156406034675,True,0.0,True,比例外推,105391179.26,未知,105391179.26
17,600103,56711913.71000001,50701633.96999999,2018-03-31,一季度报告,39241613.77,2018,3,-0.05460012094000732,True,-1.8398939408214288,True,0.624237028680261,False,平均增速,151244639.5686738,未知,151244639.5686738
18,600103,139101207.62,126940300.78000002,2018-06-30,半年度报告,109780331.19,2018,6,-0.6612119958523128,True,-4.047860734045561,True,0.3607609244406708,False,平均增速,185453722.48110864,未知,185453722.48110864
19,600103,193489625.62,172259829.45000002,2018-09-30,三季度报告,141884338.87,2018,9,-0.786358568364798,True,-13.089188089383027,True,0.20076023049712066,False,平均增速,169564702.23678473,未知,169564702.23678473
20,600103,176550148.06000003,154793157.74999997,2018-12-31,年度报告,123519229.03,2018,12,-0.7913325749458204,True,-4.6994808018470575,True,0.0,True,比例外推,154793157.74999997,未知,154793157.74999997
21,600103,62625001.84000001,54084438.46000001,2019-03-31,一季度报告,35968920.12,2019,3,-0.5289670306913014,True,10.860643821371069,False,0.6017898984571326,False,未知,未知,未知,未知
22,600103,103384664.48999998,92845260.24,2019-06-30,半年度报告,59356076.83000001,2019,6,-0.8079586686049793,True,1.9351770172382323,True,0.4897955009793302,False,平均增速,108764453.26613046,未知,108764453.26613046
23,600103,125838967.63,113544428.6,2019-09-30,三季度报告,63863370.11999999,2019,9,-0.8619399824440055,True,1.175745120811607,True,0.18165134536265992,False,平均增速,93096546.82787701,未知,93096546.82787701
24,600103,144967914.74,127529572.03000002,2019-12-31,年度报告,63043380.63999999,2019,12,-0.8486935219056198,True,0.8662913868724873,True,0.0,True,比例外推,127529572.03000002,未知,127529572.03000002
25,600103,-14773434.61,-17477429.180000003,2020-03-31,一季度报告,-33870920.17999999,2020,3,-0.5734422303371864,True,0.4740865964932855,True,0.18198536393144232,False,平均增速,-14532486.11170049,未知,-14532486.11170049
