,SECURITYCODE_x,NETPROFIT_x,PARENTNETPROFIT_x,REPORTDATE_x,REPORTTIMETYPE_x,KCFJCXSYJLR,Year,Month,managesituationChangeRate,managesituationGreatChange,historyprofitextroplaterate,ifhistoryprofitextroplate,IfprofitdisStableChangeRage,IfprofitdisStable,predicttype,predict,analyst_prediction,adj_prediction
0,600175,171736434.10000002,143099565.4,2013-12-31,年度报告,182434121.28,2013,12,未知,未知,未知,未知,未知,未知,未知,未知,未知,未知
1,600175,-18937984.04,-21788455.22,2014-03-31,一季度报告,-19963878.85,2014,3,未知,未知,未知,未知,未知,未知,未知,未知,未知,未知
2,600175,97437301.89,95509987.37999998,2014-06-30,半年度报告,96648980.86,2014,6,未知,未知,未知,未知,未知,未知,未知,未知,未知,未知
3,600175,105613294.46,100616042.67000005,2014-09-30,三季度报告,96049956.91,2014,9,未知,未知,未知,未知,未知,未知,未知,未知,未知,未知
4,600175,221642399.97,189142633.46,2014-12-31,年度报告,-122132885.12,2014,12,0.0,True,未知,未知,未知,未知,未知,未知,未知,未知
5,600175,37787107.78999999,34743357.90000001,2015-03-31,一季度报告,-45526192.10999999,2015,3,-10.068358793484336,False,未知,未知,未知,未知,未知,未知,352382067.0,未知
6,600175,172130130.76000002,168707317.64000002,2015-06-30,半年度报告,-185420377.94,2015,6,0.7625327340639894,False,未知,未知,未知,未知,未知,未知,471372563.0,未知
7,600175,48810557.43000001,22824783.15,2015-09-30,三季度报告,-46115671.31,2015,9,0.6260872741266823,False,未知,未知,未知,未知,未知,未知,80000000.0,未知
8,600175,48810557.43000001,22824783.15,2015-09-30,三季度报告,-13047260.13,2015,9,0.6260872741266823,False,未知,未知,未知,未知,未知,未知,80000000.0,未知
9,600175,70496143.22,49927406.74,2015-12-31,年度报告,-165724548.47,2015,12,-0.2251643452550365,True,未知,未知,未知,未知,未知,未知,107300000.0,未知
10,600175,-92834384.67,-94382764.73000002,2016-03-31,一季度报告,-23536548.72000001,2016,3,3.544841988289151,False,未知,未知,未知,未知,未知,未知,,未知
11,600175,21415309.33,18133457.7,2016-06-30,半年度报告,34972597.36,2016,6,-0.0022872036305423204,True,未知,未知,未知,未知,未知,未知,73324888.0,未知
12,600175,87975929.65999998,81680884.75999999,2016-09-30,三季度报告,-62739547.88,2016,9,2.518428043897879,False,未知,未知,0.0,True,未知,未知,180160000.0,未知
13,600175,161610487.63,149129034.7,2016-12-31,年度报告,-73912545.77999999,2016,12,1.436111058785948,False,0.6415864956910441,True,0.08874239952757457,True,前期平均,149129034.7,317600000.0,317600000.0
14,600175,32139747.69,33935809.96,2017-03-31,一季度报告,30764986.99,2017,3,-2.8499226844716485,False,10.850259980387687,False,1.1673994117957596,False,前期平均,-77247871.35500002,未知,-77247871.35500002
15,600175,29456198.24,22291578.83,2017-06-30,半年度报告,14867551.009999994,2017,6,7.019330071474623,False,0.8411135268123793,True,0.8999927095938799,False,前期平均,-77251439.425,83000000.0,83000000.0
16,600175,37099550.62000001,27269496.07,2017-09-30,三季度报告,22655785.520000003,2017,9,0.9520843344731762,False,0.13940856393955853,True,0.0,True,前期平均,-141626363.525,228000000.0,228000000.0
17,600175,123191431.28,57889142.33000001,2017-12-31,年度报告,163805612.79,2017,12,0.06265649351410245,True,0.10639620411122785,True,0.07250660544841164,True,比例外推,57889142.33000001,,57889142.33000001
18,600175,48103762.17,48216864.45,2018-03-31,一季度报告,45046041.48,2018,3,4.3434281985180085,False,-2.1677143543381034,True,0.8733640143002264,False,前期平均,-37070312.25999999,未知,-37070312.25999999
19,600175,39862231.48,110112907.26,2018-06-30,半年度报告,138621885.16,2018,6,4.8302307955950265,False,0.6956146502206133,True,0.4270312753124142,False,前期平均,65518250.425,未知,65518250.425
20,600175,40236241.63,145445707.68000004,2018-09-30,三季度报告,147479148.49999997,2018,9,3.6290704666222715,False,0.4575553271487993,True,0.0,True,前期平均,80054770.15000005,未知,80054770.15000005
21,600175,-1270426228.4600005,-1096418892.91,2018-12-31,年度报告,-1859931966.28,2018,12,0.39406152128927535,True,0.0615072118263872,True,0.18489672553261133,False,平均增速,-1096418892.91,,-1096418892.91
22,600175,-88983263.44999999,-76178656.0,2019-03-31,一季度报告,-36268162.16,2019,3,2.5701247959167683,False,-2.5851075008769246,True,0.320852156887138,False,盈利变化,-1204837831.0966668,未知,-1204837831.0966668
23,600175,-197131870.51,-165134957.37,2019-06-30,半年度报告,-127607340.22000004,2019,6,3.308249381025371,False,0.5671731931729738,True,0.5462178604217127,False,盈利变化,-1273905043.1633334,未知,-1273905043.1633334
24,600175,-280863822.75000006,-209691018.83,2019-09-30,三季度报告,-152969202.22000006,2019,9,3.2682026735805745,False,0.3566086407995362,True,0.0,True,盈利变化,-1229951493.23,未知,-1229951493.23
25,600175,-1010959206.36,-831189252.7000003,2019-12-31,年度报告,-770108116.78,2019,12,-1.135180170444196,False,9.921472392617318,False,0.1175840955267811,False,去年同期,-831189252.7000003,未知,-831189252.7000003
26,600175,164708425.55,166942718.04999995,2020-03-31,一季度报告,156094157.23000005,2020,3,-2.929985791052711,False,3.217830790433972,False,未知,未知,前期平均,-719025972.9300001,未知,-719025972.9300001
