,SECURITYCODE_x,NETPROFIT_x,PARENTNETPROFIT_x,REPORTDATE_x,REPORTTIMETYPE_x,KCFJCXSYJLR,Year,Month,managesituationChangeRate,managesituationGreatChange,historyprofitextroplaterate,ifhistoryprofitextroplate,IfprofitdisStableChangeRage,IfprofitdisStable,predicttype,predict,analyst_prediction,adj_prediction
0,600119,47998426.44000001,36085496.92,2013-12-31,年度报告,19330951.58,2013,12,未知,未知,未知,未知,未知,未知,未知,未知,未知,未知
1,600119,15939790.740000002,12475081.13,2014-03-31,一季度报告,9438386.38,2014,3,未知,未知,未知,未知,未知,未知,未知,未知,未知,未知
2,600119,29237738.08,22195674.92,2014-06-30,半年度报告,18035646.07,2014,6,未知,未知,未知,未知,未知,未知,未知,未知,未知,未知
3,600119,43320411.56,32050197.160000004,2014-09-30,三季度报告,26602708.33,2014,9,未知,未知,未知,未知,未知,未知,未知,未知,未知,未知
4,600119,53975215.77,40755092.8,2014-12-31,年度报告,26449931.33,2014,12,0.0,True,未知,未知,未知,未知,未知,未知,未知,未知
5,600119,14365753.71,12765492.87,2015-03-31,一季度报告,1394964.37,2015,3,2.011233160015751,False,未知,未知,未知,未知,未知,未知,未知,未知
6,600119,30452503.04000001,24150592.32,2015-06-30,半年度报告,7641317.34,2015,6,0.64166004595387,False,未知,未知,未知,未知,未知,未知,未知,未知
7,600119,88730823.02,80373839.03000002,2015-09-30,三季度报告,1393475.2999999998,2015,9,0.10798639051526153,True,未知,未知,未知,未知,未知,未知,未知,未知
8,600119,93011195.92,85020919.26000002,2015-12-31,年度报告,5533773.5,2015,12,-0.11073210629612626,True,未知,未知,未知,未知,未知,未知,未知,未知
9,600119,24106337.54,20620838.76,2016-03-31,一季度报告,20399187.17,2016,3,2.3411700777376065,False,未知,未知,未知,未知,未知,未知,未知,未知
10,600119,81110215.57,72595848.72999999,2016-06-30,半年度报告,71060722.28,2016,6,0.5761734389108527,False,未知,未知,未知,未知,未知,未知,176016667.00000003,未知
11,600119,139463088.68,125401008.81,2016-09-30,三季度报告,123483180.24,2016,9,-0.4590557733339053,True,未知,未知,未知,未知,未知,未知,192000000.0,未知
12,600119,155212151.22,140023016.06999996,2016-12-31,年度报告,137894849.38,2016,12,-0.4839500130577397,True,0.8242203358482942,True,0.0,True,比例外推,140023016.06999996,未知,140023016.06999996
13,600119,12431737.89,10062778.3,2017-03-31,一季度报告,9188646.95,2017,3,0.9911123521088809,False,0.5908862868160745,True,0.10455486800929703,False,前期平均,20637955.34,未知,20637955.34
14,600119,22566806.16,14414869.510000002,2017-06-30,半年度报告,12020337.84,2017,6,-0.4082320444756276,True,1.7177044035368436,True,0.5214993550962438,False,平均增速,439919391.153727,未知,439919391.153727
15,600119,25896023.730000004,24233972.88,2017-09-30,三季度报告,7376241.320000001,2017,9,-0.6558341931596462,True,1.1122572480836554,True,0.4658794517743045,False,平均增速,115198483.53892615,未知,115198483.53892615
16,600119,-140655753.63000005,-93702965.57,2017-12-31,年度报告,-137377899.82000002,2017,12,-0.6907560003342371,True,1.111925169618378,True,0.0,True,比例外推,-93702965.57,,-93702965.57
17,600119,3609023.65,647066.75,2018-03-31,一季度报告,-3544477.6000000006,2018,3,2.8609586901449715,False,0.35372694927261067,True,0.17792889800841788,False,前期平均,61464302.419999994,未知,61464302.419999994
18,600119,-267470508.22000003,-272890418.64000005,2018-06-30,半年度报告,-277423050.2099999,2018,6,1.1269481423152354,False,0.595441802760493,True,0.7779583837139677,False,盈利变化,-286665224.2699999,未知,-286665224.2699999
19,600119,-285654970.76999986,-291081686.29,2018-09-30,三季度报告,-295951473.94,2018,9,0.8535056555572598,False,0.7730349286089213,True,0.5309520594458512,False,盈利变化,-228515283.4633333,未知,-228515283.4633333
20,600119,-699072774.7499999,-674250544.9599999,2018-12-31,年度报告,-680174803.6600001,2018,12,-1.3412475153079166,False,2.1332999514398545,False,0.0,True,去年同期,-674250544.9599999,未知,-674250544.9599999
21,600119,11945720.37,10776439.419999998,2019-03-31,一季度报告,8185172.799999999,2019,3,12.299559962706262,False,0.8024513547839046,True,0.11918020752955293,False,前期平均,-3759002.8600000106,未知,-3759002.8600000106
22,600119,-32492294.88,-38802812.05,2019-06-30,半年度报告,-43062532.68,2019,6,-1.1794531545157132,False,6.159687339718493,False,0.36606410932759137,False,去年同期,-441554565.5000002,未知,-441554565.5000002
23,600119,-41663809.87000001,-54644775.55,2019-09-30,三季度报告,-59152988.11999998,2019,9,-1.1680293758257292,False,4.454964974191831,False,0.479328342356445,False,去年同期,-438868105.2700001,未知,-438868105.2700001
24,600119,83261536.76,60469139.17999999,2019-12-31,年度报告,-197417571.35,2019,12,-1.0686601283495343,False,97.05024463336365,False,0.0,True,盈利变化,-513331467.5233332,未知,-513331467.5233332
25,600119,-15337390.640000002,-13036743.4,2020-03-31,一季度报告,-18215374.44,2020,3,3.0180436971002043,False,0.4894206039048192,True,0.03958979671998994,True,盈利变化,25268409.526666656,未知,25268409.526666656
