,SECURITYCODE_x,NETPROFIT_x,PARENTNETPROFIT_x,REPORTDATE_x,REPORTTIMETYPE_x,KCFJCXSYJLR,Year,Month,managesituationChangeRate,managesituationGreatChange,historyprofitextroplaterate,ifhistoryprofitextroplate,IfprofitdisStableChangeRage,IfprofitdisStable,predicttype,predict,analyst_prediction,adj_prediction
0,600162,373669373.81,192433192.04,2013-12-31,年度报告,166585429.08999997,2013,12,未知,未知,未知,未知,未知,未知,未知,未知,未知,未知
1,600162,64816599.76000001,60094753.23,2014-03-31,一季度报告,59266431.03000002,2014,3,未知,未知,未知,未知,未知,未知,未知,未知,未知,未知
2,600162,133364867.4,139558799.77999997,2014-06-30,半年度报告,135387508.06,2014,6,未知,未知,未知,未知,未知,未知,未知,未知,未知,未知
3,600162,258350327.93,244180566.3,2014-09-30,三季度报告,244038221.08,2014,9,未知,未知,未知,未知,未知,未知,未知,未知,未知,未知
4,600162,344376162.28999984,362400413.58000016,2014-12-31,年度报告,265715101.79,2014,12,0.0,True,未知,未知,未知,未知,未知,未知,未知,未知
5,600162,101585582.88999996,107060732.06000002,2015-03-31,一季度报告,98359569.47000004,2015,3,4.765025860560507,False,未知,未知,未知,未知,未知,未知,335079713.0,未知
6,600162,226500607.36,257819971.04999995,2015-06-30,半年度报告,149016895.16,2015,6,1.8018576488308344,False,未知,未知,未知,未知,未知,未知,337500000.0,未知
7,600162,287700151.7,335439608.16,2015-09-30,三季度报告,192881653.31000003,2015,9,0.4463669421439468,True,未知,未知,未知,未知,未知,未知,399433333.0,未知
8,600162,287700151.7,335439608.16,2015-09-30,三季度报告,324353796.72999984,2015,9,0.4463669421439468,True,未知,未知,未知,未知,未知,未知,399433333.0,未知
9,600162,367111067.63000005,428666325.04999983,2015-12-31,年度报告,238707253.37,2015,12,0.08506167013770334,True,未知,未知,未知,未知,未知,未知,435029960.99999994,未知
10,600162,108810124.97,116122516.56,2016-03-31,一季度报告,85363018.22,2016,3,2.678370130677115,False,未知,未知,未知,未知,未知,未知,513484626.0,未知
11,600162,253362216.22,269179876.0499999,2016-06-30,半年度报告,216498556.08000004,2016,6,0.649749985950766,False,未知,未知,未知,未知,未知,未知,483800000.0,未知
12,600162,473572436.9500001,514116527.0,2016-09-30,三季度报告,456956835.24,2016,9,0.298815352032364,True,未知,未知,0.0,True,未知,未知,,未知
13,600162,647991471.84,690292208.15,2016-12-31,年度报告,615578808.4000001,2016,12,0.017864637594118687,True,0.022528653611387874,True,0.15412863018737955,False,平均增速,690292208.15,642050998.0,690292208.15
14,600162,114377950.21,113064816.56,2017-03-31,一季度报告,97598814.03,2017,3,2.4341415738013743,False,0.30779684781977246,True,0.1434630933752658,False,前期平均,286462993.89,未知,286462993.89
15,600162,383289351.15,330042233.8700001,2017-06-30,半年度报告,314532014.96,2017,6,0.4748425372374176,True,0.40809404619307416,True,0.09549821129442637,True,比例外推,650720205.868216,未知,650720205.868216
16,600162,413015506.52999985,411936987.44000006,2017-09-30,三季度报告,387876172.95000017,2017,9,-0.21095624522283565,True,0.7345372071493811,True,0.0,True,比例外推,495400739.20313424,未知,495400739.20313424
17,600162,876148460.59,833248410.9399999,2017-12-31,年度报告,788702751.3399997,2017,12,-0.42334214253013314,True,0.8215125854412333,True,0.18722830314945751,False,平均增速,833248410.9399999,未知,833248410.9399999
18,600162,-20463265.85,13742494.439999998,2018-03-31,一季度报告,21055326.05,2018,3,2.2669703655637843,False,0.08726505282235673,True,0.16601226367282462,False,前期平均,349024231.48,未知,349024231.48
19,600162,33033600.36000001,70567407.4,2018-06-30,半年度报告,69102326.32,2018,6,-0.025098472762514094,True,0.597495502112387,True,0.18892214373234484,False,平均增速,580234288.070258,未知,580234288.070258
20,600162,223065220.44,286003188.89,2018-09-30,三季度报告,285225335.07999986,2018,9,-0.09526550964289739,True,0.08506601364018468,True,0.0,True,比例外推,419788022.50849694,未知,419788022.50849694
21,600162,415466515.13,514493280.64,2018-12-31,年度报告,472488735.71,2018,12,-0.5735090676774455,True,0.7262265170717631,True,0.05776398378229935,True,比例外推,514493280.64,未知,514493280.64
22,600162,5811757.199999997,14039306.750000002,2019-03-31,一季度报告,-2742227.93,2019,3,-19.260495492218805,False,1.1833723941881436,True,0.15266407581410915,False,前期平均,624699170.4949999,未知,624699170.4949999
23,600162,205698750.70000008,238987030.78000003,2019-06-30,半年度报告,208746718.89,2019,6,10.311796768676531,False,0.8962270665681028,True,0.1297284207450109,False,前期平均,675612525.1299999,未知,675612525.1299999
24,600162,232528526.53,292763432.20999986,2019-09-30,三季度报告,242158733.11000004,2019,9,0.6751574856579198,False,0.4968006906016944,True,0.0,True,前期平均,572487707.9849997,未知,572487707.9849997
25,600162,469147087.1,454798652.97,2019-12-31,年度报告,361286093.48,2019,12,-0.10060291214304386,True,0.45481841097411,True,0.07017319785400652,True,比例外推,454798652.97,未知,454798652.97
26,600162,-60965267.99999999,-38955555.81999999,2020-03-31,一季度报告,-41093975.97000001,2020,3,63.29542063629227,False,0.8762332591627102,True,未知,未知,盈利变化,403662988.9166667,未知,403662988.9166667
