,SECURITYCODE_x,NETPROFIT_x,PARENTNETPROFIT_x,REPORTDATE_x,REPORTTIMETYPE_x,KCFJCXSYJLR,Year,Month,managesituationChangeRate,managesituationGreatChange,historyprofitextroplaterate,ifhistoryprofitextroplate,IfprofitdisStableChangeRage,IfprofitdisStable,predicttype,predict,analyst_prediction,adj_prediction
0,600112,7278897.219999999,7278897.219999999,2013-12-31,年度报告,-50814304.71,2013,12,未知,未知,未知,未知,未知,未知,未知,未知,未知,未知
1,600112,36356267.59,36356267.59,2014-03-31,一季度报告,-18888016.44,2014,3,未知,未知,未知,未知,未知,未知,未知,未知,未知,未知
2,600112,30826241.71,30826241.71,2014-06-30,半年度报告,-25284052.43,2014,6,未知,未知,未知,未知,未知,未知,未知,未知,未知,未知
3,600112,23074178.17999999,23074178.17999999,2014-09-30,三季度报告,-34960137.13999999,2014,9,未知,未知,未知,未知,未知,未知,未知,未知,未知,未知
4,600112,15911194.89,15911194.89,2014-12-31,年度报告,-50945748.98,2014,12,0.0,True,未知,未知,未知,未知,未知,未知,未知,未知
5,600112,5863392.93,5863392.93,2015-03-31,一季度报告,4650486.090000002,2015,3,-0.7997897555908049,True,未知,未知,未知,未知,未知,未知,95000000.0,未知
6,600112,3420237.06,3420237.06,2015-06-30,半年度报告,1742459.9,2015,6,-0.7638733489318378,True,未知,未知,未知,未知,未知,未知,62000000.0,未知
7,600112,4553318.94,4553318.94,2015-09-30,三季度报告,2062835.94,2015,9,-0.6845435983367273,True,未知,未知,未知,未知,未知,未知,,未知
8,600112,4553318.94,4553318.94,2015-09-30,三季度报告,2062835.84,2015,9,-0.6845435983367273,True,未知,未知,未知,未知,未知,未知,,未知
9,600112,-176590955.25,-176590955.25,2015-12-31,年度报告,-182461747.13,2015,12,-0.5425298181361162,True,未知,未知,未知,未知,未知,未知,60000000.0,未知
10,600112,4797689.260000002,4797689.260000002,2016-03-31,一季度报告,3485630.1,2016,3,0.2414138548957863,True,未知,未知,未知,未知,未知,未知,未知,未知
11,600112,6070938.75,6070938.75,2016-06-30,半年度报告,3765287.35,2016,6,1.1281850036441623,False,未知,未知,未知,未知,未知,未知,未知,未知
12,600112,5457667.340000002,5487925.41,2016-09-30,三季度报告,1392254.66,2016,9,0.5985915583589666,False,未知,未知,0.0,True,未知,未知,未知,未知
13,600112,-99114544.39999998,-98959610.96,2016-12-31,年度报告,-105644625.08,2016,12,-1.0412189696221714,False,16.229862340551094,False,0.2666588884037571,False,去年同期,-98959610.96,,-98959610.96
14,600112,26503121.52,26612588.17,2017-03-31,一季度报告,-20592705.960000005,2017,3,0.5171672914889858,False,0.7727272459840233,True,0.34592604135901084,False,前期平均,-82972394.71,未知,-82972394.71
15,600112,29981701.940000005,30126440.27000001,2017-06-30,半年度报告,-19880455.41,2017,6,0.19897391816051493,True,0.6454561772162014,True,0.465643314691519,False,平均增速,323354526.1835511,未知,323354526.1835511
16,600112,16650034.45,16794898.650000002,2017-09-30,三季度报告,-35590100.74,2017,9,0.33370115225820934,True,0.6049104762335413,True,0.0,True,比例外推,-108963153.0496932,未知,-108963153.0496932
17,600112,13059773.85,13249438.54,2017-12-31,年度报告,-46248733.84,2017,12,-1.0734392440994764,False,-0.23369046826975198,True,0.31633371600055293,False,盈利变化,-79160980.54666667,未知,-79160980.54666667
18,600112,-20908510.59,-20908204.739999995,2018-03-31,一季度报告,-21861424.69,2018,3,-0.7253569842892982,True,3.971938316892386,False,0.3016365670191872,False,未知,未知,未知,未知
19,600112,-29651217.8,-29649416.61,2018-06-30,半年度报告,-33520166.25,2018,6,-0.7572220137947246,True,5.317805620755855,False,0.5211859195482532,False,未知,未知,未知,未知
20,600112,81349177.89,81351105.51,2018-09-30,三季度报告,-87972000.36999999,2018,9,-0.562829900330927,True,2.3263524660429358,False,0.0,True,比例外推,-184901589.38773787,未知,-184901589.38773787
21,600112,12004422.73,12006476.79,2018-12-31,年度报告,-145124611.88000005,2018,12,-0.4426475294593253,True,-1.0947371297749156,True,0.25762490066409327,False,平均增速,12006476.79,未知,12006476.79
22,600112,30123951.599999994,30124156.23,2019-03-31,一季度报告,-20327999.89,2019,3,-1.3481308335506839,False,2.3359724600718477,False,0.2440388841012141,False,前期平均,-37268985.3,未知,-37268985.3
23,600112,-38613627.7,-38613200.5,2019-06-30,半年度报告,-37405886.28,2019,6,-1.2454839214057507,False,2.644884659348929,False,0.4673588607830927,False,去年同期,-150217646.13000005,未知,-150217646.13000005
24,600112,-73321507.69,-73318613.85,2019-09-30,三季度报告,-67793694.72999999,2019,9,-0.910522793114855,True,6.35935183699617,False,0.0,True,比例外推,-154790991.71694157,未知,-154790991.71694157
25,600112,-846019966.78,-846007878.1400001,2019-12-31,年度报告,-691180375.78,2019,12,-0.3936487090037691,True,-1.2789949389970225,True,0.23682340896353757,False,平均增速,-846007878.1400001,未知,-846007878.1400001
26,600112,-26285942.55,-26285942.55,2020-03-31,一季度报告,-23636481.38,2020,3,-0.7583684465885279,True,9.768917437481214,False,未知,未知,True,True,未知,True
