,SECURITYCODE_x,NETPROFIT_x,PARENTNETPROFIT_x,REPORTDATE_x,REPORTTIMETYPE_x,KCFJCXSYJLR,Year,Month,managesituationChangeRate,managesituationGreatChange,historyprofitextroplaterate,ifhistoryprofitextroplate,IfprofitdisStableChangeRage,IfprofitdisStable,predicttype,predict,analyst_prediction,adj_prediction
0,600153,3391830432.5600014,2692975139.82,2013-12-31,年度报告,2427403145.300001,2013,12,未知,未知,未知,未知,未知,未知,未知,未知,未知,未知
1,600153,515828792.31000006,423633668.65,2014-03-31,一季度报告,427451530.88,2014,3,未知,未知,未知,未知,未知,未知,未知,未知,未知,未知
2,600153,1287890767.0600002,1003563128.11,2014-06-30,半年度报告,980682642.0599998,2014,6,未知,未知,未知,未知,未知,未知,未知,未知,未知,未知
3,600153,1968089904.87,1573955504.9199998,2014-09-30,三季度报告,1322525148.66,2014,9,未知,未知,未知,未知,未知,未知,未知,未知,未知,未知
4,600153,3374496925.6499987,2507192830.44,2014-12-31,年度报告,2148617008.63,2014,12,0.0,True,未知,未知,未知,未知,未知,未知,未知,未知
5,600153,425839392.08999985,361388931.91,2015-03-31,一季度报告,265510192.64,2015,3,5.575496527385771,False,未知,未知,未知,未知,未知,未知,2937292111.0,未知
6,600153,891428068.0099998,729320970.92,2015-06-30,半年度报告,529045645.0600001,2015,6,1.6336320744832105,False,未知,未知,未知,未知,未知,未知,2583333333.0,未知
7,600153,2167878051.12,1609598737.14,2015-09-30,三季度报告,1339290264.33,2015,9,0.7234123421734868,False,未知,未知,未知,未知,未知,未知,2604515000.0,未知
8,600153,3563746137.809999,2641350412.26,2015-12-31,年度报告,2241109094.51,2015,12,0.0051366195589773464,True,未知,未知,未知,未知,未知,未知,3300500000.0,未知
9,600153,382672578.18,318051268.53,2016-03-31,一季度报告,371565177.38,2016,3,6.9650462018392805,False,未知,未知,未知,未知,未知,未知,2847000000.0,未知
10,600153,1103899431.6,861515735.56,2016-06-30,半年度报告,890018185.6800002,2016,6,2.8049401340164586,False,未知,未知,未知,未知,未知,未知,2927346000.0,未知
11,600153,1561350915.2899995,1314674325.16,2016-09-30,三季度报告,1102346640.5500004,2016,9,0.5645854391152979,False,未知,未知,未知,未知,未知,未知,3016407521.0,未知
12,600153,3950352319.17,2856066861.41,2016-12-31,年度报告,2479953988.6800003,2016,12,-0.04824016599443967,True,0.053376802257693666,True,0.0,True,比例外推,2856066861.41,3031611280.9999995,2856066861.41
13,600153,494845680.57000005,422242639.16,2017-03-31,一季度报告,344608001.69,2017,3,7.863531452114047,False,0.18724539170063084,True,0.043195048993267315,True,前期平均,2270624828.9700003,3337360000.0,3337360000.0
14,600153,1122616141.3400002,934597267.5399998,2017-06-30,半年度报告,729484492.3299999,2017,6,2.072590070676871,False,0.013068316426075094,True,0.1143938664225205,False,前期平均,2374596175.5499997,3296385000.0,3296385000.0
15,600153,1965641422.01,1630680663.15,2017-09-30,三季度报告,1315937556.0900002,2017,9,1.1723690679298802,False,0.2449888723007434,True,0.1080399137170866,False,前期平均,2494636008.2250004,3341012500.0,3341012500.0
16,600153,4825578250.469996,3330831518.57,2017-12-31,年度报告,2516234148.0000005,2017,12,-0.14138533515090332,True,0.13871834210432488,True,0.0,True,比例外推,3330831518.57,3311586250.0,3330831518.57
17,600153,660550149.3900001,581176115.1800001,2018-03-31,一季度报告,448920377.1699999,2018,3,5.854319570200226,False,0.22408993005941025,True,0.016611988022523005,True,前期平均,2623169971.7650003,3970828182.0,3970828182.0
18,600153,1515665556.6699994,1186368190.67,2018-06-30,半年度报告,968791237.97,2018,6,2.021362607980476,False,0.125244995179411,True,0.06393149902010642,True,前期平均,2837367816.8950005,4060833333.0,4060833333.0
19,600153,2282085485.12,1717781723.78,2018-09-30,三季度报告,1411336461.39,2018,9,0.7255590946448552,False,0.054181140238356275,True,0.07719160112254325,True,前期平均,2857494812.9350004,3843500000.0,3843500000.0
20,600153,7631527832.540002,4672023584.96,2018-12-31,年度报告,4245887468.12,2018,12,-0.29711419927142463,True,0.2844064469204335,True,0.0,True,比例外推,4672023584.96,4229410000.0,4229410000.0
21,600153,555304509.1299999,439618757.46000016,2019-03-31,一季度报告,370445228.17,2019,3,4.13485680942206,False,0.5054960801178887,True,0.025106682474374822,True,前期平均,2579626236.2650003,5099000000.0,5099000000.0
22,600153,1824744020.13,1376593524.88,2019-06-30,半年度报告,1160138733.9299998,2019,6,1.2378488563216015,False,0.3614686329533644,True,0.06656234496810887,True,前期平均,3064936254.215,4682500000.0,4682500000.0
23,600153,2377135033.4300003,1824994690.69,2019-09-30,三季度报告,1433064555.7400002,2019,9,0.4862854413981987,True,0.2940688648430653,True,0.10089340068793035,False,平均增速,5178848039.50213,4484000000.0,4484000000.0
24,600153,7963115364.64,4675776510.82,2019-12-31,年度报告,4140401078.62,2019,12,-0.5555502768269276,True,0.739195125116643,True,0.0,True,比例外推,4675776510.82,4666666667.0,4675776510.82
25,600153,2425943049.9100003,1467791855.38,2020-03-31,一季度报告,1032791641.2,2020,3,5.108054908241264,False,0.03876317582135536,True,0.026235415734755782,True,前期平均,4452088474.01,4957500000.0,4957500000.0
