,SECURITYCODE_x,NETPROFIT_x,PARENTNETPROFIT_x,REPORTDATE_x,REPORTTIMETYPE_x,KCFJCXSYJLR,Year,Month,managesituationChangeRate,managesituationGreatChange,historyprofitextroplaterate,ifhistoryprofitextroplate,IfprofitdisStableChangeRage,IfprofitdisStable,predicttype,predict,analyst_prediction,adj_prediction
0,600130,67966519.72999999,67966519.72999999,2013-12-31,年度报告,17216897.369999994,2013,12,未知,未知,未知,未知,未知,未知,未知,未知,未知,未知
1,600130,13883107.3,13883107.3,2014-03-31,一季度报告,4290376.399999999,2014,3,未知,未知,未知,未知,未知,未知,未知,未知,未知,未知
2,600130,29665670.33,29665670.33,2014-06-30,半年度报告,10157579.5,2014,6,未知,未知,未知,未知,未知,未知,未知,未知,未知,未知
3,600130,43277513.61,43277513.61,2014-09-30,三季度报告,15817456.150000004,2014,9,未知,未知,未知,未知,未知,未知,未知,未知,未知,未知
4,600130,74352240.99,74352240.99,2014-12-31,年度报告,40298905.17000001,2014,12,0.0,True,未知,未知,未知,未知,未知,未知,未知,未知
5,600130,8914886.57,8914886.57,2015-03-31,一季度报告,3368860.5,2015,3,3.8956273448956193,False,未知,未知,未知,未知,未知,未知,未知,未知
6,600130,20631876.879999995,20631876.879999995,2015-06-30,半年度报告,8373565.76,2015,6,1.2910832276480702,False,未知,未知,未知,未知,未知,未知,未知,未知
7,600130,31561311.53,31561311.53,2015-09-30,三季度报告,9267468.88,2015,9,0.5704811589336588,False,未知,未知,未知,未知,未知,未知,未知,未知
8,600130,60982353.61999999,60982353.61999999,2015-12-31,年度报告,36846801.64,2015,12,-0.08588471813322819,True,未知,未知,未知,未知,未知,未知,未知,未知
9,600130,10546014.82,10546014.82,2016-03-31,一季度报告,7711940.68,2016,3,6.623935447335701,False,未知,未知,未知,未知,未知,未知,53750000.0,未知
10,600130,15243767.960000005,15243767.960000005,2016-06-30,半年度报告,8031714.229999999,2016,6,2.2942480281997497,False,未知,未知,未知,未知,未知,未知,,未知
11,600130,21732167.99,21732167.99,2016-09-30,三季度报告,9758602.1,2016,9,1.153475772557668,False,未知,未知,未知,未知,未知,未知,未知,未知
12,600130,30807547.80999999,30807547.80999999,2016-12-31,年度报告,17768874.369999994,2016,12,0.11452765751746005,True,0.1430173603046253,True,0.0,True,比例外推,30807547.80999999,未知,30807547.80999999
13,600130,-8725619.75,-8725619.75,2017-03-31,一季度报告,-10079515.05,2017,3,5.444758602188271,False,0.07482957666046607,True,0.22337845323566172,False,盈利变化,7085606.8366666585,未知,7085606.8366666585
14,600130,-29157113.4,-29157113.4,2017-06-30,半年度报告,-31736343.27,2017,6,3.4586430276520663,False,0.3938564082914449,True,0.14157036742510382,False,盈利变化,4295509.476666659,未知,4295509.476666659
15,600130,-72594653.36,-72594653.36,2017-09-30,三季度报告,-79598214.25999999,2017,9,2.127461547383336,False,0.41922744112174615,True,0.1514586451509411,False,盈利变化,-8906592.794444446,未知,-8906592.794444446
16,600130,-152706937.14000002,-152706937.14000002,2017-12-31,年度报告,-171082910.75000003,2017,12,1.206164546077191,False,0.5447202853227656,True,0.0,True,盈利变化,-32143047.230000023,未知,-32143047.230000023
17,600130,6815255.21,6815255.21,2018-03-31,一季度报告,4197902.000000001,2018,3,-8.78930570862889,False,1.8967333604067966,True,0.23922774609873435,False,前期平均,28582692.625,未知,28582692.625
18,600130,31435625.789999995,31435625.789999995,2018-06-30,半年度报告,11220710.09,2018,6,-3.3310441880025063,False,2.625454456918411,False,0.16375478693029427,False,前期平均,50540823.8,未知,50540823.8
19,600130,35010242.92999999,35010242.92999999,2018-09-30,三季度报告,8972005.88,2018,9,-1.9362469077846696,False,3.72433528506078,False,0.17047680565463652,False,前期平均,52805045.44499999,未知,52805045.44499999
20,600130,33102925.72000001,33102925.72000001,2018-12-31,年度报告,-4410598.899999999,2018,12,-1.445078141195963,False,4.3273145468285765,False,0.0,True,前期平均,33102925.72000001,未知,33102925.72000001
21,600130,-3493884.3000000007,-3493884.3000000007,2019-03-31,一季度报告,-4820871.75,2019,3,8.972703535778521,False,6.4876660811875295,False,0.7988273034252702,False,前期平均盈利变化,-87985889.055,未知,-87985889.055
22,600130,4803370.1,4803370.1,2019-06-30,半年度报告,-7212940.39,2019,6,1.1620857871269374,False,-5.518773134119785,True,1.908526477853692,False,前期平均,-60001333.570000015,未知,-60001333.570000015
23,600130,13928242.579999998,13928242.579999998,2019-09-30,三季度报告,-6905782.240000001,2019,9,0.941332422796759,False,-2.37666268863259,True,1.6942806208192713,False,前期平均,-27808969.530000024,未知,-27808969.530000024
24,600130,27916011.75000001,27916011.75000001,2019-12-31,年度报告,-20920660.11,2019,12,1.0531876941903118,False,-1.543118811372966,True,0.0,True,前期平均,27916011.75000001,未知,27916011.75000001
25,600130,-3643054.0499999993,-3643054.0499999993,2020-03-31,一季度报告,-11332140.96,2020,3,-20.452996691962575,False,-2.657819465179144,True,0.7309679382225328,False,前期平均,-88449002.35000001,未知,-88449002.35000001
