,SECURITYCODE_x,NETPROFIT_x,PARENTNETPROFIT_x,REPORTDATE_x,REPORTTIMETYPE_x,KCFJCXSYJLR,Year,Month,managesituationChangeRate,managesituationGreatChange,historyprofitextroplaterate,ifhistoryprofitextroplate,IfprofitdisStableChangeRage,IfprofitdisStable,predicttype,predict,analyst_prediction,adj_prediction
0,600114,81232591.39999999,73426236.80000001,2013-12-31,年度报告,70908620.35,2013,12,未知,未知,未知,未知,未知,未知,未知,未知,未知,未知
1,600114,25491129.219999995,22681972.27,2014-03-31,一季度报告,20543030.35,2014,3,未知,未知,未知,未知,未知,未知,未知,未知,未知,未知
2,600114,66999727.5,60635927.40999998,2014-06-30,半年度报告,56409747.78000001,2014,6,未知,未知,未知,未知,未知,未知,未知,未知,未知,未知
3,600114,106742564.72,99009032.51,2014-09-30,三季度报告,92805222.26,2014,9,未知,未知,未知,未知,未知,未知,未知,未知,未知,未知
4,600114,131120459.51,123371247.43999998,2014-12-31,年度报告,112503756.39,2014,12,0.0,True,未知,未知,未知,未知,未知,未知,未知,未知
5,600114,32678827.96,29370353.6,2015-03-31,一季度报告,24956110.36000001,2015,3,2.1867003889441663,False,未知,未知,未知,未知,未知,未知,206000000.0,未知
6,600114,91207568.38,85245577.95000002,2015-06-30,半年度报告,74124394.53,2015,6,0.21243166847208433,True,未知,未知,未知,未知,未知,未知,190974741.0,未知
7,600114,120122315.45,114644646.6,2015-09-30,三季度报告,103277088.25,2015,9,-0.23898595079588048,True,未知,未知,未知,未知,未知,未知,172566105.0,未知
8,600114,120122315.45,114644646.6,2015-09-30,三季度报告,103277008.25,2015,9,-0.23898595079588048,True,未知,未知,未知,未知,未知,未知,172566105.0,未知
9,600114,165166435.34,160386061.31,2015-12-31,年度报告,145448285.88,2015,12,-0.38047356069702665,True,未知,未知,未知,未知,未知,未知,167565657.0,未知
10,600114,35532651.36,34762479.910000004,2016-03-31,一季度报告,33970270.730000004,2016,3,1.4857865618507327,False,未知,未知,未知,未知,未知,未知,222414345.0,未知
11,600114,80825157.53,77856644.83,2016-06-30,半年度报告,73905704.13,2016,6,-0.10936567169997395,True,未知,未知,未知,未知,未知,未知,204873145.0,未知
12,600114,112150040.04,108922160.27,2016-09-30,三季度报告,102760356.88,2016,9,-0.32375103580306497,True,未知,未知,0.0,True,未知,未知,194836667.00000003,未知
13,600114,179986043.27999997,175863130.83,2016-12-31,年度报告,165946195.17999998,2016,12,-0.5081773652571705,True,0.5555833517080125,True,0.01841127052343458,True,比例外推,175863130.83,194836667.00000003,175863130.83
14,600114,61349717.42,58309422.63000002,2017-03-31,一季度报告,56262153.43000001,2017,3,1.2861393194949016,False,0.22168394417236545,True,0.040103835818366074,True,前期平均,164535873.41,267906667.00000003,267906667.00000003
15,600114,159077967.25999996,150575981.13,2017-06-30,半年度报告,124071275.63000004,2017,6,0.0050409288698108875,True,0.02176270797657481,True,0.1068386619870405,False,平均增速,283834869.18654746,279051508.0,283834869.18654746
16,600114,222026566.76,209904503.63,2017-09-30,三季度报告,181974206.02,2017,9,-0.2756793366188085,True,0.011305408259216164,True,0.0,True,比例外推,281351876.68421125,279195344.0,281351876.68421125
17,600114,315372042.99,300101898.95000005,2017-12-31,年度报告,240259011.9,2017,12,-0.5486728308503988,True,0.21494434217970243,True,0.031906055512650966,True,比例外推,300101898.95000005,281596009.0,300101898.95000005
18,600114,82942514.18999998,76357650.83,2018-03-31,一季度报告,75073310.63000001,2018,3,0.32409071819975777,True,0.7988091749833057,True,0.04510486782003764,True,比例外推,370219073.1190204,390593090.0,370219073.1190204
19,600114,216181478.66,200428735.81,2018-06-30,半年度报告,148957248.56000003,2018,6,-0.4893535993753808,True,0.8493919272455475,True,0.07633032621918523,True,比例外推,355178091.3060423,390602500.0,355178091.3060423
20,600114,266169060.77000004,248977786.36000004,2018-09-30,三季度报告,195271318.37,2018,9,-0.6341312096772252,True,0.9117778031881101,True,0.0,True,比例外推,334442419.7463261,334000000.0,334442419.7463261
21,600114,346912205.56000006,327969627.11000013,2018-12-31,年度报告,228013557.44000003,2018,12,-0.7424229788099013,True,0.8274360610181963,True,0.07320640160278435,True,比例外推,327969627.11000013,331000000.0,327969627.11000013
22,600114,25216234.15,22779830.79,2019-03-31,一季度报告,20687609.94,2019,3,-0.020615757873977607,True,0.7122313426985962,True,0.11493302262898475,False,平均增速,135495870.38548818,353250000.0,353250000.0
23,600114,63527829.72,57082260.95000001,2019-06-30,半年度报告,52930277.9,2019,6,-0.6242388945458238,True,0.8022397903256593,True,0.12511088891701516,False,平均增速,118499574.30857807,298184000.0,298184000.0
24,600114,92543919.17,82337337.54999998,2019-09-30,三季度报告,76069150.22000001,2019,9,-0.6948082877664206,True,0.5929844001875241,True,0.0,True,比例外推,108463607.50034834,246500000.0,246500000.0
25,600114,320736090.36,307716384.92,2019-12-31,年度报告,105588239.31999996,2019,12,-0.7658410684372694,True,0.4006522359298361,True,0.0761328409776294,True,比例外推,307716384.92,252666667.00000003,252666667.00000003
26,600114,28150884.33999999,26448369.8,2020-03-31,一季度报告,-3666770.6700000013,2020,3,2.2214402403143927,False,0.6504838289817895,True,未知,未知,前期平均,194916922.44000003,323218000.0,323218000.0
