,SECURITYCODE_x,NETPROFIT_x,PARENTNETPROFIT_x,REPORTDATE_x,REPORTTIMETYPE_x,KCFJCXSYJLR,Year,Month,managesituationChangeRate,managesituationGreatChange,historyprofitextroplaterate,ifhistoryprofitextroplate,IfprofitdisStableChangeRage,IfprofitdisStable,predicttype,predict,analyst_prediction,adj_prediction
0,600165,6972369.18,7612001.8,2013-12-31,年度报告,-23471391.63000001,2013,12,未知,未知,未知,未知,未知,未知,未知,未知,未知,未知
1,600165,58226644.23000002,59284009.56999999,2014-03-31,一季度报告,-15453746.88,2014,3,未知,未知,未知,未知,未知,未知,未知,未知,未知,未知
2,600165,-7836292.37,-6595482.320000001,2014-09-30,三季度报告,-84599235.29,2014,9,未知,未知,未知,未知,未知,未知,未知,未知,未知,未知
3,600165,-114082334.8,-107963614.24,2014-12-31,年度报告,-205902327.73,2014,12,0.0,True,未知,未知,未知,未知,未知,未知,未知,未知
4,600165,-32299735.42000001,-32307506.76,2015-03-31,一季度报告,-33413110.94,2015,3,-0.8802546622391878,True,未知,未知,未知,未知,未知,未知,未知,未知
5,600165,-58412088.94000001,-58218083.29000002,2015-06-30,半年度报告,-59723418.43,2015,6,未知,未知,未知,未知,未知,未知,未知,未知,未知,未知
6,600165,-17323806.07,-17336260.459999993,2015-09-30,三季度报告,-87890898.67000002,2015,9,-1.889753578706763,False,未知,未知,未知,未知,未知,未知,未知,未知
7,600165,47165215.71,46088660.78,2015-12-31,年度报告,-61308467.51000001,2015,12,-1.0611169923215842,False,未知,未知,未知,未知,未知,未知,未知,未知
8,600165,-19158310.66,-20106206.17,2016-03-31,一季度报告,-20520614.61,2016,3,-1.215864591128592,False,未知,未知,未知,未知,未知,未知,未知,未知
9,600165,-51738469.44000001,-53421339.48999999,2016-06-30,半年度报告,-54936323.17,2016,6,-1.11936517434194,False,未知,未知,未知,未知,未知,未知,未知,未知
10,600165,-77369857.56,-81459078.64999999,2016-09-30,三季度报告,-83905935.14,2016,9,-1.4024732874419668,False,未知,未知,未知,未知,未知,未知,未知,未知
11,600165,-187799601.67,-192020695.4,2016-12-31,年度报告,-196990913.1,2016,12,-0.852171370891839,True,-1.8806877200825678,True,0.0,True,比例外推,-192020695.4,未知,-192020695.4
12,600165,3939295.95,1583834.0099999998,2017-03-31,一季度报告,-43575.05,2017,3,-1.3639344461908836,False,2.4778707944242577,False,0.30359191279441633,False,盈利变化,-164717975.98666668,未知,-164717975.98666668
13,600165,-7287902.739999997,-12077747.1,2017-06-30,半年度报告,-13865938.81,2017,6,-1.1347617982415523,False,未知,未知,未知,未知,未知,未知,未知,未知
14,600165,5784162.5299999975,-785281.83,2017-09-30,三季度报告,-34367288.65,2017,9,-1.0901173842099032,False,-5.150203087997139,True,0.6767870560983076,False,前期平均,-48145612.46999999,未知,-48145612.46999999
15,600165,41150406.51000001,38230180.78,2017-12-31,年度报告,-56942124.48999999,2017,12,-1.0371266452005143,False,-4.612901578067622,True,0.0,True,盈利变化,-145337765.86333334,未知,-145337765.86333334
16,600165,1213333.7699999998,485586.09,2018-03-31,一季度报告,-710218.09,2018,3,0.7699531257609623,False,-1.1531070940344572,True,0.3283547537809979,False,前期平均,-101697241.44000001,未知,-101697241.44000001
17,600165,-1463524.74,-4225269.21,2018-06-30,半年度报告,-5947849.310000001,2018,6,-1.9567044770962467,False,-0.8676737939928001,True,0.47530195716643864,False,前期平均,-76045088.715,未知,-76045088.715
18,600165,4633104.049999999,329264.52,2018-09-30,三季度报告,-1518866.7199999997,2018,9,0.20542414633705025,True,-1.1221657776934404,True,0.6125613900572521,False,平均增速,-24556326.239784475,未知,-24556326.239784475
19,600165,11572807.74,9400612.25,2018-12-31,年度报告,6623786.24,2018,12,-0.8305637836577474,True,-1.5852111662321937,True,0.0,True,比例外推,9400612.25,未知,9400612.25
20,600165,-5604414.16,-5362273.69,2019-03-31,一季度报告,-5611917.199999998,2019,3,4.746456047291918,False,-1.159449713811335,True,0.10646012077289083,False,盈利变化,2865013.4366666684,未知,2865013.4366666684
21,600165,-23259446.0,-23183730.78,2019-06-30,半年度报告,-23492956.44,2019,6,-5.764093827344524,False,-0.9504111573878536,True,0.7727643195588327,False,前期平均,-115749118.58499998,未知,-115749118.58499998
22,600165,-33699328.489999995,-31514585.42000001,2019-09-30,三季度报告,-31941126.36,2019,9,0.5049023515886722,False,-1.129442175508902,True,0.49603187663470305,False,盈利变化,-4120392.034444444,未知,-4120392.034444444
23,600165,-52062060.86000001,-44952125.08000001,2019-12-31,年度报告,-44261903.29000001,2019,12,-0.3975213849011891,True,-1.1578298159410096,True,0.0,True,比例外推,-44952125.08000001,未知,-44952125.08000001
24,600165,1214241.21,1528035.0699999996,2020-03-31,一季度报告,-719388.62,2020,3,-2.244085283661477,False,3.175360724348731,False,0.12001162853431922,False,前期平均,-23254237.484999996,未知,-23254237.484999996
