,SECURITYCODE_x,NETPROFIT_x,PARENTNETPROFIT_x,REPORTDATE_x,REPORTTIMETYPE_x,KCFJCXSYJLR,Year,Month,managesituationChangeRate,managesituationGreatChange,historyprofitextroplaterate,ifhistoryprofitextroplate,IfprofitdisStableChangeRage,IfprofitdisStable,predicttype,predict,analyst_prediction,adj_prediction
0,600182,558356078.32,282625376.79,2013-12-31,年度报告,281797144.99,2013,12,未知,未知,未知,未知,未知,未知,未知,未知,未知,未知
1,600182,125219968.25,62785602.98,2014-03-31,一季度报告,59984909.83000001,2014,3,未知,未知,未知,未知,未知,未知,未知,未知,未知,未知
2,600182,207257393.57,103670302.53,2014-06-30,半年度报告,100600125.12,2014,6,未知,未知,未知,未知,未知,未知,未知,未知,未知,未知
3,600182,314311893.74,157267985.80999997,2014-09-30,三季度报告,151868633.02000004,2014,9,未知,未知,未知,未知,未知,未知,未知,未知,未知,未知
4,600182,418087580.68000007,209133572.72,2014-12-31,年度报告,203361392.48000005,2014,12,0.0,True,未知,未知,未知,未知,未知,未知,未知,未知
5,600182,81550111.57999998,40313452.19,2015-03-31,一季度报告,39806997.77,2015,3,3.4590019157747234,False,未知,未知,未知,未知,未知,未知,未知,未知
6,600182,214137866.26,106880504.61,2015-06-30,半年度报告,106117695.89,2015,6,1.6940224843241527,False,未知,未知,未知,未知,未知,未知,未知,未知
7,600182,337728423.77,168686350.07999998,2015-09-30,三季度报告,167657712.70000002,2015,9,0.776439547597503,False,未知,未知,未知,未知,未知,未知,未知,未知
8,600182,405492451.36,202304649.0,2015-12-31,年度报告,199897191.74,2015,12,0.3355002734399806,True,未知,未知,未知,未知,未知,未知,未知,未知
9,600182,73972817.19,36595531.21999999,2016-03-31,一季度报告,36478734.88,2016,3,5.846784970640504,False,未知,未知,未知,未知,未知,未知,未知,未知
10,600182,149980665.95999998,74286120.60000001,2016-06-30,半年度报告,73963839.41,2016,6,1.6074607357956032,False,未知,未知,未知,未知,未知,未知,未知,未知
11,600182,244333107.5,119526614.56,2016-09-30,三季度报告,118685739.01,2016,9,0.6532694289902352,False,未知,未知,未知,未知,未知,未知,未知,未知
12,600182,311108494.57,151158290.15,2016-12-31,年度报告,149860338.52,2016,12,0.376982669954283,True,0.16945038738789134,True,0.0,True,比例外推,151158290.15,未知,151158290.15
13,600182,54778076.34,28032492.419999994,2017-03-31,一季度报告,27728013.86,2017,3,6.548125102304219,False,0.2844920575470283,True,0.04912617919127765,True,前期平均,179765830.73,未知,179765830.73
14,600182,37396461.45,17819068.409999996,2017-06-30,半年度报告,17321807.08,2017,6,2.7228537074832984,False,0.2881710818460301,True,0.02449482731691044,True,前期平均,116089450.01500002,未知,116089450.01500002
15,600182,85856530.8,40562884.44000001,2017-09-30,三季度报告,39915017.7,2017,9,1.2852248065481673,False,0.25055828316551054,True,0.04622396259055872,True,前期平均,82429003.69000001,未知,82429003.69000001
16,600182,129909118.35,61108072.11000001,2017-12-31,年度报告,60154148.74000001,2017,12,0.7947310602744371,False,0.24449723775019863,True,0.0,True,前期平均,61108072.11000001,未知,61108072.11000001
17,600182,45896079.32000001,22122429.910000004,2018-03-31,一季度报告,21927053.06,2018,3,9.19305743513811,False,0.2955626958258959,True,0.15978102541929035,False,前期平均,158858328.715,未知,158858328.715
18,600182,86093791.74,41408550.07,2018-06-30,半年度报告,41189623.81,2018,6,13.93071955662265,False,0.7945918257881742,True,0.1494997329577245,False,前期平均,126246547.55000001,未知,126246547.55000001
19,600182,153269747.68,74446180.03999999,2018-09-30,三季度报告,73992885.28000002,2018,9,5.503361749156537,False,0.7049915646798728,True,0.10120141680742056,False,前期平均,106153219.31499998,未知,106153219.31499998
20,600182,184230328.36,88842944.86999997,2018-12-31,年度报告,88849974.4,2018,12,3.298051479463374,False,0.6374296766203545,True,0.0,True,前期平均,88842944.86999997,未知,88842944.86999997
21,600182,39588169.17,19041140.310000006,2019-03-31,一季度报告,18361440.630000006,2019,3,11.165659607370575,False,0.2870561428871816,True,0.1438976808167472,False,前期平均,91945009.57000002,未知,91945009.57000002
22,600182,87235134.07000001,42141551.29,2019-06-30,半年度报告,41150243.34,2019,6,5.485439507719841,False,0.08106402387503642,True,0.12707468503472558,False,前期平均,101505971.67500001,未知,101505971.67500001
23,600182,154863894.79000002,75301373.6,2019-09-30,三季度报告,74112832.84,2019,9,2.642963381695834,False,0.07162593914746718,True,0.09922303094552931,True,前期平均,101008238.875,未知,101008238.875
24,600182,180335991.64,86865756.40000002,2019-12-31,年度报告,85173094.45,2019,12,2.0307500577696955,False,0.16452167458709108,True,0.0,True,前期平均,86865756.40000002,未知,86865756.40000002
25,600182,24226007.23,11467012.089999998,2020-03-31,一季度报告,9617874.83,2020,3,13.104114689474537,False,0.21353859070448156,True,0.15317776825879031,False,前期平均,61141540.2,未知,61141540.2
