,SECURITYCODE_x,NETPROFIT_x,PARENTNETPROFIT_x,REPORTDATE_x,REPORTTIMETYPE_x,KCFJCXSYJLR,Year,Month,managesituationChangeRate,managesituationGreatChange,historyprofitextroplaterate,ifhistoryprofitextroplate,IfprofitdisStableChangeRage,IfprofitdisStable,predicttype,predict,analyst_prediction,adj_prediction
0,600160,250020177.92,253001644.93000004,2013-12-31,年度报告,210072500.38000005,2013,12,未知,未知,未知,未知,未知,未知,未知,未知,未知,未知
1,600160,129172.37,1810783.72,2014-03-31,一季度报告,-39951249.91,2014,3,未知,未知,未知,未知,未知,未知,未知,未知,未知,未知
2,600160,65164466.8,66756792.86000001,2014-06-30,半年度报告,23862856.219999995,2014,6,未知,未知,未知,未知,未知,未知,未知,未知,未知,未知
3,600160,114806463.82999998,115239478.81,2014-09-30,三季度报告,67442145.8,2014,9,未知,未知,未知,未知,未知,未知,未知,未知,未知,未知
4,600160,163875006.96000004,162516000.0,2014-12-31,年度报告,99602108.03999998,2014,12,0.0,True,未知,未知,未知,未知,未知,未知,未知,未知
5,600160,2103200.7100000004,1715581.84,2015-03-31,一季度报告,-11645781.14,2015,3,1934.5546230203875,False,未知,未知,未知,未知,未知,未知,243400252.0,未知
6,600160,86596745.76999998,85621562.59,2015-06-30,半年度报告,72587166.53999999,2015,6,2.836756290623098,False,未知,未知,未知,未知,未知,未知,279860000.0,未知
7,600160,139685431.35999998,138920576.56,2015-09-30,三季度报告,91706374.59,2015,9,1.1777534955716267,False,未知,未知,未知,未知,未知,未知,208541644.0,未知
8,600160,164363367.08999997,161777868.35000002,2015-12-31,年度报告,91487612.84,2015,12,0.5256760781162131,False,未知,未知,未知,未知,未知,未知,208531279.0,未知
9,600160,-33493466.08,-34411858.78,2016-03-31,一季度报告,-44808931.29,2016,3,117.87604294313876,False,未知,未知,未知,未知,未知,未知,241340000.0,未知
10,600160,52798029.5,48772406.43,2016-06-30,半年度报告,37873010.17,2016,6,1.88717752262944,False,未知,未知,未知,未知,未知,未知,216383332.99999997,未知
11,600160,74701194.03,70667476.63000001,2016-09-30,三季度报告,47633679.02000001,2016,9,0.7898801291284498,False,未知,未知,未知,未知,未知,未知,115167500.0,未知
12,600160,154097231.81000003,151230005.54,2016-12-31,年度报告,54329566.52999998,2016,12,0.5211429550667283,False,0.20577299232097326,True,0.0,True,前期平均,151230005.54,113734000.0,113734000.0
13,600160,183503425.09,184022075.15,2017-03-31,一季度报告,182151093.76,2017,3,-8.464744834793164,False,31.007050685273438,False,0.37370695479256505,False,前期平均,305365451.115,1157377751.0,1157377751.0
14,600160,528302989.92,526002276.15,2017-06-30,半年度报告,506816235.32,2017,6,3.7354073681859656,False,0.30419599835963534,True,0.3371145647840881,False,前期平均,573322125.2099999,1182231909.0,1182231909.0
15,600160,813150975.86,807716940.5799999,2017-09-30,三季度报告,786477615.2900003,2017,9,2.3469368350336124,False,0.4129385222721598,True,0.17497137709962385,False,前期平均,823687540.8249999,1148088770.0,1148088770.0
16,600160,917100350.4500002,908358712.98,2017-12-31,年度报告,888220496.9799998,2017,12,0.6224832528352732,False,0.06106510394469201,True,0.0,True,前期平均,908358712.98,1148088770.0,1148088770.0
17,600160,427380823.13,424315260.95000017,2018-03-31,一季度报告,423506461.45,2018,3,0.3624823503832507,True,-12.691740922036049,True,0.5757678420021862,False,平均增速,4235793134.874739,1430335000.0,1430335000.0
18,600160,1072919101.22,1064726667.6099998,2018-06-30,半年度报告,955749407.74,2018,6,-0.5267485085445757,True,6.579953967380862,False,0.11643757737024873,False,未知,未知,1746066154.0,未知
19,600160,1674320109.58,1659458630.2400002,2018-09-30,三季度报告,1494671366.3299994,2018,9,-0.6925292038719193,True,6.585836797242009,False,0.08085831239235941,True,比例外推,1786727671.2848976,2009283333.0,2009283333.0
20,600160,2182941371.0600004,2152555375.44,2018-12-31,年度报告,1983254378.96,2018,12,-0.7273796942752003,True,4.759584410867603,False,0.0,True,比例外推,2152555375.44,2004651379.0,2152555375.44
21,600160,375246230.76999986,370086312.43,2019-03-31,一季度报告,218689731.17,2019,3,-0.41499439284867196,True,4.698032663304839,False,0.6893794086490822,False,未知,未知,2124050833.0,未知
22,600160,722141099.0100001,705424131.9000001,2019-06-30,半年度报告,531911679.64,2019,6,-0.7669720134204845,True,2.692711130642607,False,0.11389607599369689,False,未知,未知,1648140000.0,未知
23,600160,910999805.24,890771275.1800002,2019-09-30,三季度报告,676480712.33,2019,9,-0.8506736098494826,True,2.7716191194023643,False,0.08497191808921545,True,比例外推,1020952149.167297,1314218571.0,1314218571.0
24,600160,918057333.43,895359996.3800002,2019-12-31,年度报告,573984326.48,2019,12,-0.885466379796268,True,3.0757025729174186,False,0.0,True,比例外推,895359996.3800002,1192110000.0,1192110000.0
25,600160,3375187.02,11904095.000000002,2020-03-31,一季度报告,-43718079.89,2020,3,-0.33371701720504376,True,0.22853464257228984,True,0.11446352618917066,False,平均增速,200426712.2891288,681079091.0,681079091.0
