,SECURITYCODE_x,NETPROFIT_x,PARENTNETPROFIT_x,REPORTDATE_x,REPORTTIMETYPE_x,KCFJCXSYJLR,Year,Month,managesituationChangeRate,managesituationGreatChange,historyprofitextroplaterate,ifhistoryprofitextroplate,IfprofitdisStableChangeRage,IfprofitdisStable,predicttype,predict,analyst_prediction,adj_prediction
0,600123,876333152.2300001,1001311024.91,2013-12-31,年度报告,1028262079.83,2013,12,未知,未知,未知,未知,未知,未知,未知,未知,未知,未知
1,600123,-77250107.56,-51657140.51999999,2014-03-31,一季度报告,145071597.45,2014,3,未知,未知,未知,未知,未知,未知,未知,未知,未知,未知
2,600123,-59830583.97000001,-7935288.02,2014-06-30,半年度报告,185044533.48,2014,6,未知,未知,未知,未知,未知,未知,未知,未知,未知,未知
3,600123,-50019530.43000001,17573535.1,2014-09-30,三季度报告,211802972.87,2014,9,未知,未知,未知,未知,未知,未知,未知,未知,未知,未知
4,600123,-16939087.5,66776805.79000002,2014-12-31,年度报告,292679462.59000003,2014,12,0.0,True,未知,未知,未知,未知,未知,未知,未知,未知
5,600123,-29881756.19,496661.52,2015-03-31,一季度报告,28456995.94,2015,3,-12.344102680366548,False,未知,未知,未知,未知,未知,未知,246300000.0,未知
6,600123,-301383.35,55517589.56,2015-06-30,半年度报告,92870982.01999998,2015,6,-15.64690955831899,False,未知,未知,未知,未知,未知,未知,109666667.0,未知
7,600123,-301383.35,55517589.56,2015-06-30,半年度报告,92872514.18,2015,6,-15.64690955831899,False,未知,未知,未知,未知,未知,未知,109666667.0,未知
8,600123,-30845603.03,63872131.27,2015-09-30,三季度报告,111019137.18,2015,9,-18.519819652373332,False,未知,未知,未知,未知,未知,未知,109866667.0,未知
9,600123,-30845603.03,63872131.27,2015-09-30,三季度报告,110868467.99000004,2015,9,-18.519819652373332,False,未知,未知,未知,未知,未知,未知,109866667.0,未知
10,600123,-127684110.01999998,9648246.529999996,2015-12-31,年度报告,42072524.03,2015,12,-52.734377795143935,False,未知,未知,未知,未知,未知,未知,128800000.0,未知
11,600123,-189823432.54000005,-152648232.47000003,2016-03-31,一季度报告,-140468153.99,2016,3,-30.32669507969773,False,未知,未知,未知,未知,未知,未知,22900000.0,未知
12,600123,-252620072.63000005,-179777283.13000005,2016-06-30,半年度报告,-166831974.20999998,2016,6,-2908.702606099508,False,未知,未知,0.0,True,未知,未知,-53500000.0,未知
13,600123,-341211978.53000003,-234334535.53,2016-09-30,三季度报告,-213855246.15,2016,9,-29.41031025970511,False,未知,未知,0.2236420286921989,False,未知,未知,,未知
14,600123,-869799238.49,-660042204.25,2016-12-31,年度报告,-560616109.9699999,2016,12,-7.8632906012559785,False,1.2971491548760348,True,1.1616581958735321,False,盈利变化,-191247964.80333328,-492000000.0,-492000000.0
15,600123,200442341.02,223859827.32000005,2017-03-31,一季度报告,230148904.41,2017,3,-5.616569938199475,False,-2.5437343456091988,True,1.3907930545841467,False,前期平均,304471523.93500006,859642000.0,859642000.0
16,600123,495124701.5199999,510706172.73,2017-06-30,半年度报告,500170461.9100001,2017,6,-4.46897672503452,False,-7.402188848591957,True,0.0,True,前期平均,539124408.2900001,1059358333.0,1059358333.0
17,600123,697119318.1699997,741991521.2900001,2017-09-30,三季度报告,730348258.2499998,2017,9,-3.5682953922233165,False,-7.43903828338528,True,0.27018895444821117,False,前期平均,747956459.575,982800000.0,982800000.0
18,600123,619202905.1199999,781600287.71,2017-12-31,年度报告,789175855.1800003,2017,12,-2.0075119791451455,False,-11.028488560691866,True,1.1611430706199657,False,前期平均,781600287.71,未知,781600287.71
19,600123,146109028.22000003,195127440.98,2018-03-31,一季度报告,199563380.11,2018,3,3.371996194868629,False,-2.824648222271414,True,1.3235303213351999,False,前期平均,-8138772.964999974,850520000.0,850520000.0
20,600123,566484608.9000001,628845218.4000001,2018-06-30,半年度报告,571726871.7600001,2018,6,0.7699241212157576,False,-4.915244751391533,True,0.0,True,前期平均,406553921.52500015,1024975000.0,1024975000.0
21,600123,892617824.02,988444787.9,2018-09-30,三季度报告,932208461.0200002,2018,9,0.2570777044745406,True,-4.74737327080958,True,0.05868838565126244,True,比例外推,765018306.0065767,1080000000.0,1080000000.0
22,600123,922029857.6300002,1080691887.6799998,2018-12-31,年度报告,1090131615.33,2018,12,0.4152600786977398,True,-2.2415303093428878,True,0.18769047193199923,False,平均增速,1080691887.6799998,1202200000.0,1202200000.0
23,600123,178098451.07,209923051.27,2019-03-31,一季度报告,212379676.16,2019,3,4.997802893538402,False,26.51865288135539,False,0.3392204742885818,False,去年同期,1100491286.49,1160500000.0,1100491286.49
24,600123,489954235.5100001,544904137.6800001,2019-06-30,半年度报告,552067153.65,2019,6,0.5469672758306073,False,3.6719488324237934,False,0.0,True,去年同期,1063308881.2499999,993000000.0,1063308881.2499999
25,600123,657651815.65,739861221.95,2019-09-30,三季度报告,754092173.3299999,2019,9,-0.018243722399201127,True,4.016012453819486,False,0.08067002829312866,True,比例外推,1032123572.0652484,929000000.0,929000000.0
26,600123,529339028.2,662849027.5699999,2019-12-31,年度报告,671014699.01,2019,12,-0.049560982241355626,True,-8.358685941095898,True,未知,未知,True,True,926500000.0,926500000.0
27,600123,22266709.06,53972541.13999999,2020-03-31,一季度报告,56810445.36000002,2020,3,3.9204984488358363,False,0.027832909508200724,True,未知,未知,前期平均,778770134.135,470000000.0,470000000.0
