,SECURITYCODE_x,NETPROFIT_x,PARENTNETPROFIT_x,REPORTDATE_x,REPORTTIMETYPE_x,KCFJCXSYJLR,Year,Month,managesituationChangeRate,managesituationGreatChange,historyprofitextroplaterate,ifhistoryprofitextroplate,IfprofitdisStableChangeRage,IfprofitdisStable,predicttype,predict,analyst_prediction,adj_prediction
0,600156,91038254.36,79198711.23000002,2013-12-31,年度报告,-116801528.49,2013,12,未知,未知,未知,未知,未知,未知,未知,未知,未知,未知
1,600156,-14011374.230000002,-10114331.02,2014-03-31,一季度报告,-11113437.830000002,2014,3,未知,未知,未知,未知,未知,未知,未知,未知,未知,未知
2,600156,-13070963.18,-10086584.96,2014-06-30,半年度报告,-12783023.08,2014,6,未知,未知,未知,未知,未知,未知,未知,未知,未知,未知
3,600156,-16906318.780000005,-11467523.64,2014-09-30,三季度报告,-15555299.54,2014,9,未知,未知,未知,未知,未知,未知,未知,未知,未知,未知
4,600156,-33012108.95,-31684906.77,2014-12-31,年度报告,-44436553.15000001,2014,12,0.0,True,未知,未知,未知,未知,未知,未知,未知,未知
5,600156,-9965303.3,-8195111.29,2015-03-31,一季度报告,-9913148.02,2015,3,-7.497453630570824,False,未知,未知,未知,未知,未知,未知,未知,未知
6,600156,-3916994.43,-1577203.6,2015-06-30,半年度报告,-10254487.809999997,2015,6,-7.9649231740854765,False,未知,未知,未知,未知,未知,未知,未知,未知
7,600156,-10374227.71,-5728947.46,2015-09-30,三季度报告,-15650140.720000004,2015,9,-6.384865596388569,False,未知,未知,未知,未知,未知,未知,未知,未知
8,600156,2211413.95,9361908.729999997,2015-12-31,年度报告,-43748063.51000001,2015,12,-3.757723067553368,False,未知,未知,未知,未知,未知,未知,未知,未知
9,600156,-16575576.62,-12261381.2,2016-03-31,一季度报告,-13173064.999999998,2016,3,-10.135522684994443,False,未知,未知,未知,未知,未知,未知,未知,未知
10,600156,-39790888.09,-30797503.87,2016-06-30,半年度报告,-32610260.77,2016,6,-24.241864645694683,False,未知,未知,未知,未知,未知,未知,未知,未知
11,600156,-50402170.36,-38275860.59,2016-09-30,三季度报告,-40364433.38999999,2016,9,-9.775424726049318,False,未知,未知,未知,未知,未知,未知,未知,未知
12,600156,-7912931.770000001,9479492.409999998,2016-12-31,年度报告,-82928244.72000001,2016,12,40.167441473361414,False,0.9237787058101263,True,0.0,True,前期平均,9479492.409999998,未知,9479492.409999998
13,600156,-19358947.81,-15431315.52,2017-03-31,一季度报告,-15873971.55,2017,3,-6.492312964253307,False,-0.38264166077725936,True,0.052998372473761296,True,前期平均,-49010330.92500001,未知,-49010330.92500001
14,600156,-41416489.12,-32929043.59,2017-06-30,半年度报告,-34671222.50000001,2017,6,-3.287917127008763,False,-3.68459940900453,True,0.08813385723865269,True,前期平均,-65502596.47500001,未知,-65502596.47500001
15,600156,-60250330.16,-48216930.08000001,2017-09-30,三季度报告,-50554366.11000001,2017,9,-2.8062367892048052,False,-2.695099757512225,True,0.08856293741250154,True,前期平均,-76706518.28000003,未知,-76706518.28000003
16,600156,-117199483.29999998,-86569456.92,2017-12-31,年度报告,-110820000.0,2017,12,-12.504996757984175,False,-0.4861848558936737,True,0.0,True,盈利变化,182240.65000000224,未知,182240.65000000224
17,600156,-13442447.21,-11136742.990000002,2018-03-31,一季度报告,-16781422.619999994,2018,3,-5.702644753914444,False,-0.4588022603886599,True,0.050367516703447246,True,前期平均,-62931790.59500001,未知,-62931790.59500001
18,600156,-16632966.13,-12566346.899999995,2018-06-30,半年度报告,-31530963.230000004,2018,6,-3.198116168085278,False,-0.895149649541979,True,0.07973665677436315,True,前期平均,-54472126.72500001,未知,-54472126.72500001
19,600156,-27677699.4,-21385667.68,2018-09-30,三季度报告,-41330317.8,2018,9,-2.511000091090621,False,-0.9826884143613085,True,0.07581903223799774,True,前期平均,-56716534.74000002,未知,-56716534.74000002
20,600156,13774991.35,27609663.840000004,2018-12-31,年度报告,-67663500.00000001,2018,12,-1.7767803389283372,False,-40.11167832849112,True,0.0,True,前期平均,27609663.840000004,未知,27609663.840000004
21,600156,-12163832.590000002,-10267242.9,2019-03-31,一季度报告,-11509000.000000002,2019,3,-7.77244648521108,False,-0.25183664327125194,True,0.06464528725007726,True,前期平均,-92617846.98500001,未知,-92617846.98500001
22,600156,-18450657.77,-15314008.91,2019-06-30,半年度报告,-19689899.73,2019,6,-6.473362576972914,False,-0.5903582481924612,True,0.07783663553473441,True,前期平均,-78547389.63500002,未知,-78547389.63500002
23,600156,-31336709.73,-26434003.28,2019-09-30,三季度报告,-31110205.289999995,2019,9,-4.289227657411439,False,-0.49973657585808706,True,0.09290638292406816,True,前期平均,-77848725.89000002,未知,-77848725.89000002
24,600156,-66901166.70000001,-56688934.28,2019-12-31,年度报告,-60970809.41,2019,12,5.608951835022387,False,-1.2202018295673205,True,0.0,True,盈利变化,29840560.703333344,未知,29840560.703333344
25,600156,-13220027.700000005,-11046841.05,2020-03-31,一季度报告,-12945873.48,2020,3,-8.484339634437536,False,-0.2583344347041736,True,0.05467411871068256,True,前期平均,-83960893.965,未知,-83960893.965
