,SECURITYCODE_x,NETPROFIT_x,PARENTNETPROFIT_x,REPORTDATE_x,REPORTTIMETYPE_x,KCFJCXSYJLR,Year,Month,managesituationChangeRate,managesituationGreatChange,historyprofitextroplaterate,ifhistoryprofitextroplate,IfprofitdisStableChangeRage,IfprofitdisStable,predicttype,predict,analyst_prediction,adj_prediction
0,600187,146488455.36999995,142763532.14000005,2013-12-31,年度报告,106850540.37,2013,12,未知,未知,未知,未知,未知,未知,未知,未知,未知,未知
1,600187,20084265.97,19321516.03,2014-03-31,一季度报告,13240065.42,2014,3,未知,未知,未知,未知,未知,未知,未知,未知,未知,未知
2,600187,53561093.60000001,51407001.20999999,2014-06-30,半年度报告,37132004.93,2014,6,未知,未知,未知,未知,未知,未知,未知,未知,未知,未知
3,600187,78837094.57,75521025.52000003,2014-09-30,三季度报告,57479684.80999999,2014,9,未知,未知,未知,未知,未知,未知,未知,未知,未知,未知
4,600187,154923403.31999996,150179974.55999997,2014-12-31,年度报告,125111434.38,2014,12,0.0,True,未知,未知,未知,未知,未知,未知,未知,未知
5,600187,14701765.510000005,14720152.529999996,2015-03-31,一季度报告,9865283.44,2015,3,6.293692265816969,False,未知,未知,未知,未知,未知,未知,190000000.0,未知
6,600187,13317099.879999995,12172720.62,2015-06-30,半年度报告,2340125.46,2015,6,1.7349787975576347,False,未知,未知,未知,未知,未知,未知,,未知
7,600187,-21211586.380000006,-21629590.1,2015-09-30,三季度报告,-33981760.08,2015,9,0.8581158548395241,False,未知,未知,未知,未知,未知,未知,未知,未知
8,600187,-119416606.7,-117874328.06000002,2015-12-31,年度报告,-72289807.63000001,2015,12,-0.054445924690779766,True,未知,未知,未知,未知,未知,未知,,未知
9,600187,-10960371.68,-10189283.95,2016-03-31,一季度报告,-10549922.77,2016,3,8.964004341543868,False,未知,未知,未知,未知,未知,未知,未知,未知
10,600187,19609580.55,20260937.28,2016-06-30,半年度报告,-16090739.94,2016,6,10.0000267843602,False,未知,未知,未知,未知,未知,未知,未知,未知
11,600187,17875157.029999994,18291748.239999995,2016-09-30,三季度报告,-18280443.09,2016,9,-7.906058450589111,False,未知,未知,未知,未知,未知,未知,未知,未知
12,600187,14696361.94,16188985.230000002,2016-12-31,年度报告,-23018426.93,2016,12,-2.226700870323758,False,1.7923816084676294,True,0.0,True,前期平均,16188985.230000002,未知,16188985.230000002
13,600187,-6737995.660000001,-4846151.76,2017-03-31,一季度报告,-4947392.06,2017,3,-14.365281730117381,False,1.6301593607365987,True,0.31576417952695207,False,前期平均,10011987.184999993,未知,10011987.184999993
14,600187,3855315.36,6155080.98,2017-06-30,半年度报告,6768102.85,2017,6,6.470249299646541,False,0.4135732581991986,True,0.377884889142432,False,前期平均,12829829.159999996,未知,12829829.159999996
15,600187,18443435.67,20519455.930000003,2017-09-30,三季度报告,11259621.55,2017,9,7.195086349403667,False,0.3796095655742277,True,0.21960884371454026,False,前期平均,35181306.94,未知,35181306.94
16,600187,14482145.099999998,17833758.59,2017-12-31,年度报告,3934421.82,2017,12,8.967667914553276,False,0.17219443379907945,True,0.0,True,前期平均,17833758.59,未知,17833758.59
17,600187,-2758423.01,-2209218.08,2018-03-31,一季度报告,-15218391.489999998,2018,3,-22.740657424228722,False,4.601863886112192,False,0.9455945627075373,False,去年同期,6672595.799999999,未知,6672595.799999999
18,600187,889637.1599999998,2097111.06,2018-06-30,半年度报告,-12750254.95,2018,6,36.996490997820715,False,0.7658242307057858,True,0.9245967472133715,False,前期平均,-38681698.98,未知,-38681698.98
19,600187,8200036.190000001,9502960.77,2018-09-30,三季度报告,-14704548.729999995,2018,9,6.942579570913532,False,-12.05579272643668,True,1.4864683256984261,False,前期平均,-12020054.925000008,未知,-12020054.925000008
20,600187,3762358.76,10398554.36,2018-12-31,年度报告,2904686.3600000013,2018,12,9.115107558893328,False,-1.2765873042636688,True,0.0,True,前期平均,10398554.36,未知,10398554.36
21,600187,-1789987.75,-1344925.38,2019-03-31,一季度报告,-11303004.489999998,2019,3,-54.10587057856654,False,-0.6882850313807534,True,3.226456940058577,False,前期平均,-3138270.5200000005,未知,-3138270.5200000005
22,600187,11637220.86,13375865.88,2019-06-30,半年度报告,-31353217.260000005,2019,6,163.6608999223908,False,0.9241729293484005,True,3.7327859309967018,False,前期平均,8495181.870000001,未知,8495181.870000001
23,600187,23282847.64,26366048.95,2019-09-30,三季度报告,-37063324.13999999,2019,9,16.864366933970803,False,0.5484386601796934,True,4.59356533302646,False,前期平均,20334457.165,未知,20334457.165
24,600187,22445323.43,19741340.47,2019-12-31,年度报告,-110391931.37,2019,12,37.93527032228047,False,0.7421143751568723,True,0.0,True,前期平均,19741340.47,未知,19741340.47
25,600187,15650209.9,16755727.25,2020-03-31,一季度报告,7702230.35,2020,3,-82.83768596740394,False,-0.6230183583512963,True,3.1078118309303466,False,盈利变化,45081653.58999999,未知,45081653.58999999
