,SECURITYCODE_x,NETPROFIT_x,PARENTNETPROFIT_x,REPORTDATE_x,REPORTTIMETYPE_x,KCFJCXSYJLR,Year,Month,managesituationChangeRate,managesituationGreatChange,historyprofitextroplaterate,ifhistoryprofitextroplate,IfprofitdisStableChangeRage,IfprofitdisStable,predicttype,predict,analyst_prediction,adj_prediction
0,600126,41327591.66,20651120.5,2013-12-31,年度报告,-2933257.72,2013,12,未知,未知,未知,未知,未知,未知,未知,未知,未知,未知
1,600126,-11854064.48,-15927859.17,2014-03-31,一季度报告,-16074105.31,2014,3,未知,未知,未知,未知,未知,未知,未知,未知,未知,未知
2,600126,15437635.48,8948597.06,2014-06-30,半年度报告,5047667.81,2014,6,未知,未知,未知,未知,未知,未知,未知,未知,未知,未知
3,600126,15887902.7,5057751.62,2014-09-30,三季度报告,468172.57,2014,9,未知,未知,未知,未知,未知,未知,未知,未知,未知,未知
4,600126,24133091.88,10733613.96,2014-12-31,年度报告,-92996024.19,2014,12,0.0,True,未知,未知,未知,未知,未知,未知,未知,未知
5,600126,-39314563.08,-66542496.54000001,2015-03-31,一季度报告,-78172219.67999999,2015,3,-4.486364675148114,False,未知,未知,未知,未知,未知,未知,520990651.0,未知
6,600126,-232435455.61,-254038943.82,2015-06-30,半年度报告,-268703514.11,2015,6,1.677067463702025,False,未知,未知,未知,未知,未知,未知,-98050000.0,未知
7,600126,-505446586.04000014,-458121149.61,2015-09-30,三季度报告,-460833836.78,2015,9,1.6011986881062659,False,未知,未知,未知,未知,未知,未知,-97550000.0,未知
8,600126,-505446586.04000014,-458121149.61,2015-09-30,三季度报告,-476020273.66999984,2015,9,1.6011986881062659,False,未知,未知,未知,未知,未知,未知,-97550000.0,未知
9,600126,-1782390584.5699997,-1493448007.1999998,2015-12-31,年度报告,-1627708752.9800005,2015,12,0.7124864010586943,False,未知,未知,未知,未知,未知,未知,,未知
10,600126,113703681.41,111049931.97,2016-03-31,一季度报告,35927549.08000001,2016,3,-2.0512031273475873,False,未知,未知,未知,未知,未知,未知,430000000.0,未知
11,600126,341508944.03000003,338223183.7,2016-06-30,半年度报告,192273136.58,2016,6,-1.1778024421942879,False,未知,未知,未知,未知,未知,未知,520594850.0,未知
12,600126,535132205.3899999,528656859.9399999,2016-09-30,三季度报告,492766000.6400001,2016,9,-1.0817645084593162,False,未知,未知,0.0,True,未知,未知,,未知
13,600126,736652479.71,725454057.31,2016-12-31,年度报告,581727589.43,2016,12,-1.0231866079285705,False,55.45682776840738,False,0.07863614854675736,True,盈利变化,-756969226.3966664,184000000.0,184000000.0
14,600126,208971172.56,206733780.62000003,2017-03-31,一季度报告,202330593.7,2017,3,-0.6365325102273661,True,-5.4442732522646535,True,0.20138612853004162,False,平均增速,-50112394.338032186,未知,-50112394.338032186
15,600126,360574141.21,355606435.49,2017-06-30,半年度报告,316796144.41,2017,6,-0.8789853314753315,True,-4.147579490203241,True,0.47202104253031757,False,平均增速,-603457326.0781618,未知,-603457326.0781618
16,600126,1198331224.58,1189056427.4800005,2017-09-30,三季度报告,1120202160.9400003,2017,9,-0.9227712493403741,True,-3.1861820598873893,True,0.0,True,比例外推,3055642554.0384636,未知,3055642554.0384636
17,600126,1811350243.67,1795744461.39,2017-12-31,年度报告,1728596457.67,2017,12,-0.943898116414039,True,-1.837934697019807,True,0.04143736886913141,True,比例外推,1795744461.39,未知,1795744461.39
18,600126,505469582.97,503044955.91,2018-03-31,一季度报告,473995819.49,2018,3,-0.8022330489238463,True,4.618326369536366,False,0.10423105350254533,False,未知,未知,未知,未知
19,600126,1163720440.8099995,1155346272.5,2018-06-30,半年度报告,1080867342.8999996,2018,6,-0.8853839281948656,True,5.611581722252575,False,0.30962622590426775,False,未知,未知,未知,未知
20,600126,1619661562.85,1605393572.2299998,2018-09-30,三季度报告,1553959042.28,2018,9,-0.9655123802064952,True,79.73479690293263,False,0.0,True,比例外推,2673069070.216014,未知,2673069070.216014
21,600126,1955702534.7599995,1936194124.47,2018-12-31,年度报告,1885310849.4799995,2018,12,-0.9771840968888128,True,-4.464252158837605,True,0.10800708763204026,False,平均增速,1936194124.47,未知,1936194124.47
22,600126,441664176.73,436006019.4900001,2019-03-31,一季度报告,425530555.68,2019,3,-0.9182392115126484,True,2.1329964312434146,False,0.21094366859945912,False,未知,未知,未知,未知
23,600126,727499740.4200001,712635735.47,2019-06-30,半年度报告,680206237.6500001,2019,6,-0.9644866668912043,True,2.3150504983671367,False,0.1250786939228422,False,未知,未知,1262000000.0,未知
24,600126,842941589.1899999,821432826.9300003,2019-09-30,三季度报告,784205212.2100003,2019,9,-0.9744838103169658,True,0.8687000081426934,True,0.0,True,比例外推,1051565702.8245659,,1051565702.8245659
25,600126,932881234.0500002,917844644.04,2019-12-31,年度报告,875189333.9399997,2019,12,-0.9788681607118377,True,0.5350866910893274,True,0.20132219467151768,False,平均增速,917844644.04,未知,917844644.04
26,600126,140332960.82,142451404.67,2020-03-31,一季度报告,145294321.04000002,2020,3,-0.9064275668314741,True,0.23639132653443415,True,未知,未知,True,True,986193333.0,986193333.0
