,SECURITYCODE_x,NETPROFIT_x,PARENTNETPROFIT_x,REPORTDATE_x,REPORTTIMETYPE_x,KCFJCXSYJLR,Year,Month,managesituationChangeRate,managesituationGreatChange,historyprofitextroplaterate,ifhistoryprofitextroplate,IfprofitdisStableChangeRage,IfprofitdisStable,predicttype,predict,analyst_prediction,adj_prediction
0,600129,44035756.41,12559822.05,2013-12-31,年度报告,-171748651.01,2013,12,未知,未知,未知,未知,未知,未知,未知,未知,未知,未知
1,600129,22107600.750000004,6600292.8900000015,2014-03-31,一季度报告,6423113.1499999985,2014,3,未知,未知,未知,未知,未知,未知,未知,未知,未知,未知
2,600129,43420067.42,23622365.20000001,2014-06-30,半年度报告,20056471.64,2014,6,未知,未知,未知,未知,未知,未知,未知,未知,未知,未知
3,600129,23395924.99,22623631.86,2014-09-30,三季度报告,19588959.51,2014,9,未知,未知,未知,未知,未知,未知,未知,未知,未知,未知
4,600129,-264004370.92999995,-276635699.56,2014-12-31,年度报告,-281032798.35999995,2014,12,0.0,True,未知,未知,未知,未知,未知,未知,未知,未知
5,600129,43205719.68,20482536.02,2015-03-31,一季度报告,17231002.22,2015,3,0.9918831042757993,False,未知,未知,未知,未知,未知,未知,1211795000.0,未知
6,600129,186114859.68,179988916.77,2015-06-30,半年度报告,-253905401.15000004,2015,6,0.014179825748414155,True,未知,未知,未知,未知,未知,未知,1236790000.0,未知
7,600129,215822548.27,202727076.07,2015-09-30,三季度报告,-233759033.54,2015,9,0.8821977087386789,False,未知,未知,未知,未知,未知,未知,337690000.0,未知
8,600129,215822548.27,202727076.07,2015-09-30,三季度报告,-233759031.54,2015,9,0.8821977087386789,False,未知,未知,未知,未知,未知,未知,337690000.0,未知
9,600129,230177317.24000004,231606900.03,2015-12-31,年度报告,-536467935.42,2015,12,-1.166799345991419,False,未知,未知,未知,未知,未知,未知,1078480000.0,未知
10,600129,918431738.63,919695367.29,2016-03-31,一季度报告,-66402876.95000001,2016,3,0.01921126962234637,True,未知,未知,未知,未知,未知,未知,1067235000.0,未知
11,600129,958632138.56,964429836.1200002,2016-06-30,半年度报告,-209007311.03,2016,6,-0.7633947311584165,True,未知,未知,未知,未知,未知,未知,972450000.0,未知
12,600129,915805662.98,930108866.03,2016-09-30,三季度报告,-263839621.86,2016,9,-0.7959631337736313,True,未知,未知,0.0,True,未知,未知,,未知
13,600129,852049631.7399999,856210859.0899999,2016-12-31,年度报告,-439905902.84,2016,12,-0.8086876807062399,True,-3.0928196301302053,True,0.11895685308227077,False,平均增速,856210859.0899999,337246259.99999994,337246259.99999994
14,600129,1741646.16,2313506.07,2017-03-31,一季度报告,585123.45,2017,3,-0.9520533159321269,True,27.12387220809989,False,0.3637143894717657,False,未知,未知,未知,未知
15,600129,47821628.85,34747895.77,2017-06-30,半年度报告,30064099.88000001,2017,6,-0.9540639681910228,True,7.3528215132362735,False,0.3916359636879927,False,未知,未知,140865000.0,未知
16,600129,89185223.36000001,78264968.9,2017-09-30,三季度报告,63744406.64999999,2017,9,-0.9519158286631367,True,6.656646666953985,False,0.0,True,比例外推,212526065.5412592,130730000.0,130730000.0
17,600129,94036482.67000005,97738746.78000002,2017-12-31,年度报告,63980075.84999999,2017,12,-0.9483178505457798,True,-51.3768161157876,True,0.10828992400360696,False,平均增速,97738746.78000002,128243333.0,128243333.0
18,600129,6915255.64,11634688.35,2018-03-31,一季度报告,14521997.470000004,2018,3,24.283985588668596,False,0.9963777489220088,True,0.002871148974219695,True,前期平均,-451966293.41499996,,-451966293.41499996
19,600129,62641871.31000001,54307355.52,2018-06-30,半年度报告,52287822.64000001,2018,6,-0.07916653052272613,True,0.9164503092412144,True,0.3190440269187539,False,平均增速,111997234.26403052,209000000.0,209000000.0
20,600129,165815048.42000002,146504492.95000002,2018-09-30,三季度报告,75938147.59,2018,9,-0.5062438064179337,True,0.8423771650911994,True,0.0,True,比例外推,182689823.18952593,,182689823.18952593
21,600129,62047718.84,70263495.00999999,2018-12-31,年度报告,-83629381.96,2018,12,-0.5317162535254151,True,0.8262167048073797,True,0.16912915318194222,False,平均增速,70263495.00999999,296480000.0,296480000.0
22,600129,109201202.79,105117063.11,2019-03-31,一季度报告,25902893.31,2019,3,5.367914463679899,False,0.9849696682075234,True,0.7318271436494899,False,前期平均,-49936973.635000005,未知,-49936973.635000005
23,600129,93057227.07,89104076.14,2019-06-30,半年度报告,53626055.19000001,2019,6,-0.2970236123362709,True,0.8755196247688514,True,1.137381371264524,False,平均增速,-9079505.573048502,未知,-9079505.573048502
24,600129,122245804.21,123861281.56,2019-09-30,三季度报告,79305824.35,2019,9,-0.7344284681661706,True,0.6700168117466831,True,0.0,True,比例外推,390341423.1365465,未知,390341423.1365465
25,600129,-104173685.12,-70830331.39999999,2019-12-31,年度报告,-156603879.77,2019,12,-0.2902920972235376,True,0.8688328305532858,True,0.11911392709576013,False,平均增速,-70830331.39999999,未知,-70830331.39999999
26,600129,-33040587.53,-30843874.67,2020-03-31,一季度报告,-24267265.44,2020,3,-0.5967465990765394,True,24.228703134879044,False,未知,未知,True,True,未知,True
