,SECURITYCODE_x,NETPROFIT_x,PARENTNETPROFIT_x,REPORTDATE_x,REPORTTIMETYPE_x,KCFJCXSYJLR,Year,Month,managesituationChangeRate,managesituationGreatChange,historyprofitextroplaterate,ifhistoryprofitextroplate,IfprofitdisStableChangeRage,IfprofitdisStable,predicttype,predict,analyst_prediction,adj_prediction
0,600197,265282065.04999995,272748595.53000003,2013-12-31,年度报告,116249986.81999998,2013,12,未知,未知,未知,未知,未知,未知,未知,未知,未知,未知
1,600197,93346010.26,93292203.76,2014-03-31,一季度报告,92843779.44,2014,3,未知,未知,未知,未知,未知,未知,未知,未知,未知,未知
2,600197,147085762.89,147078129.71,2014-06-30,半年度报告,145832494.67000002,2014,6,未知,未知,未知,未知,未知,未知,未知,未知,未知,未知
3,600197,271692205.66,271699394.07000005,2014-09-30,三季度报告,267538460.56,2014,9,未知,未知,未知,未知,未知,未知,未知,未知,未知,未知
4,600197,268816079.34000003,268072499.01999995,2014-12-31,年度报告,235786886.51000005,2014,12,0.0,True,未知,未知,未知,未知,未知,未知,未知,未知
5,600197,72344084.14,72284139.96000001,2015-03-31,一季度报告,71665587.62,2015,3,1.8419218380207174,False,未知,未知,未知,未知,未知,未知,未知,未知
6,600197,132271788.40000002,132367043.90000004,2015-06-30,半年度报告,130971669.59999998,2015,6,0.8035876473537049,False,未知,未知,未知,未知,未知,未知,286810000.0,未知
7,600197,229157142.39000005,229318321.38,2015-09-30,三季度报告,224442069.28,2015,9,-0.023593391626485695,True,未知,未知,未知,未知,未知,未知,,未知
8,600197,282285595.88,281927822.20000005,2015-12-31,年度报告,262315119.59,2015,12,-0.013146588175368188,True,未知,未知,未知,未知,未知,未知,290190000.0,未知
9,600197,87881835.89,87772873.07000001,2016-03-31,一季度报告,87692266.75999998,2016,3,2.666948973141012,False,未知,未知,未知,未知,未知,未知,319970000.0,未知
10,600197,137825511.23,137785461.64,2016-06-30,半年度报告,137602068.22000003,2016,6,1.0055831123093812,False,未知,未知,未知,未知,未知,未知,301935000.0,未知
11,600197,231374633.01000005,231386728.7,2016-09-30,三季度报告,231008599.26,2016,9,0.15764257785393088,True,未知,未知,未知,未知,未知,未知,323240000.0,未知
12,600197,277387140.63000005,276801251.94,2016-12-31,年度报告,256858929.85,2016,12,-0.06023520533165379,True,0.057055145557196506,True,0.0,True,比例外推,276801251.94,未知,276801251.94
13,600197,111335840.65,111258976.56,2017-03-31,一季度报告,105964267.84000002,2017,3,2.0186222484251286,False,0.06079770439191683,True,0.06291850085500378,True,前期平均,278055296.08000004,355661667.0,355661667.0
14,600197,161587719.45,161699544.1,2017-06-30,半年度报告,149739996.39000002,2017,6,0.9247675026381977,False,0.013268045960756255,True,0.06732787084703085,True,前期平均,272348465.015,378934000.0,378934000.0
15,600197,256667855.1500001,256571936.79000005,2017-09-30,三季度报告,244618351.58000004,2017,9,0.14654775071446322,True,0.07607094264640317,True,0.171448167743961,False,平均增速,283776425.30602837,366354000.0,366354000.0
16,600197,356858988.72,353341996.09,2017-12-31,年度报告,340586418.90000004,2017,12,-0.04363964224335391,True,0.00666411699535113,True,0.0,True,比例外推,353341996.09,358824000.0,353341996.09
17,600197,120738264.72,120623092.66,2018-03-31,一季度报告,115389531.12,2018,3,1.3827193786047003,False,0.3897357010545356,True,0.035372360030431815,True,前期平均,300531190.19000006,459967500.0,459967500.0
18,600197,218416589.08,215512993.09000003,2018-06-30,半年度报告,188529336.35,2018,6,0.6417216973724669,False,0.19651488312808194,True,0.05189836655386515,True,前期平均,340813148.90000004,463746000.0,463746000.0
19,600197,289799205.27999985,289671849.15,2018-09-30,三季度报告,253291715.77,2018,9,0.03356170134731363,True,0.1146586136301597,True,0.10617529981932605,False,平均增速,394662837.178633,404280000.0,394662837.178633
20,600197,433774162.21,427886193.14,2018-12-31,年度报告,391129577.49,2018,12,-0.25661935544477343,True,0.2752416383377782,True,0.0,True,比例外推,427886193.14,494697500.0,494697500.0
21,600197,149477462.7,149363186.47,2019-03-31,一季度报告,107592322.67000002,2019,3,1.1971664547706278,False,0.21212401245687157,True,0.0255552568127419,True,前期平均,351257593.54499996,536550000.0,536550000.0
22,600197,203812978.61,201769254.06,2019-06-30,半年度报告,184876233.74,2019,6,0.21456921457936695,True,0.4589641785965986,True,0.04991846578033904,True,比例外推,397459513.3400323,439000000.0,397459513.3400323
23,600197,304133819.97,302384815.38,2019-09-30,三季度报告,285312038.22,2019,9,-0.08460043983320033,True,0.18759826167016797,True,0.14430078975922733,False,平均增速,465281626.9032583,,465281626.9032583
24,600197,457915151.8000001,446821094.68,2019-12-31,年度报告,449094281.11,2019,12,-0.3884327648783035,True,0.3678417325291317,True,0.0,True,比例外推,446821094.68,,446821094.68
25,600197,8195303.16,8341654.42,2020-03-31,一季度报告,12660323.92,2020,3,0.7747295161305944,False,0.28818734396657764,True,0.04232887504374902,True,前期平均,263522753.13499996,未知,263522753.13499996
