,SECURITYCODE_x,NETPROFIT_x,PARENTNETPROFIT_x,REPORTDATE_x,REPORTTIMETYPE_x,KCFJCXSYJLR,Year,Month,managesituationChangeRate,managesituationGreatChange,historyprofitextroplaterate,ifhistoryprofitextroplate,IfprofitdisStableChangeRage,IfprofitdisStable,predicttype,predict,analyst_prediction,adj_prediction
0,600151,187561126.54,144255216.03,2013-12-31,年度报告,55322986.75999999,2013,12,未知,未知,未知,未知,未知,未知,未知,未知,未知,未知
1,600151,43689822.32,42896081.88,2014-03-31,一季度报告,38068305.64,2014,3,未知,未知,未知,未知,未知,未知,未知,未知,未知,未知
2,600151,38550351.4,33939835.90000001,2014-06-30,半年度报告,23560805.17,2014,6,未知,未知,未知,未知,未知,未知,未知,未知,未知,未知
3,600151,31872249.640000004,36206011.96,2014-09-30,三季度报告,17565946.06,2014,9,未知,未知,未知,未知,未知,未知,未知,未知,未知,未知
4,600151,62585833.95,36435428.95,2014-12-31,年度报告,-2703941.05,2014,12,0.0,True,未知,未知,未知,未知,未知,未知,未知,未知
5,600151,-88495377.43000002,-84957923.88,2015-03-31,一季度报告,-92519446.05,2015,3,3.2930164642518966,False,未知,未知,未知,未知,未知,未知,403890741.0,未知
6,600151,-15282892.510000005,-12325554.840000005,2015-06-30,半年度报告,-28865321.12,2015,6,3.865354522812469,False,未知,未知,未知,未知,未知,未知,353750000.0,未知
7,600151,-18141464.75,-12466454.689999998,2015-09-30,三季度报告,-37557196.97,2015,9,4.884778409384972,False,未知,未知,未知,未知,未知,未知,293258995.0,未知
8,600151,-18141464.75,-12466454.689999998,2015-09-30,三季度报告,-1869459.84,2015,9,4.884778409384972,False,未知,未知,未知,未知,未知,未知,293258995.0,未知
9,600151,180173272.4,172615475.77,2015-12-31,年度报告,155761886.75000003,2015,12,1.9968623041732272,False,未知,未知,未知,未知,未知,未知,413281482.00000006,未知
10,600151,42980688.03999999,46348316.25999999,2016-03-31,一季度报告,-17750314.639999993,2016,3,-3.1194454669495153,False,未知,未知,未知,未知,未知,未知,315333333.0,未知
11,600151,89477729.81999998,96372152.41,2016-06-30,半年度报告,26851890.28999999,2016,6,-13.27261962467339,False,未知,未知,未知,未知,未知,未知,348200000.0,未知
12,600151,88573211.86999999,93470235.96999998,2016-09-30,三季度报告,8155997.17,2016,9,-11.338808311495354,False,未知,未知,0.0,True,未知,未知,298703333.0,未知
13,600151,213261582.48,202086074.08000004,2016-12-31,年度报告,-50366202.42,2016,12,0.04100416250196267,True,0.4405393697134505,True,9.30536325841662,False,平均增速,202086074.08000004,289853238.0,289853238.0
14,600151,-130139662.12000002,-125572932.51,2017-03-31,一季度报告,-130836423.12999998,2017,3,3.363846534179401,False,-2.9185428206158863,True,5.569520295085702,False,盈利变化,51304596.09333339,249750000.0,249750000.0
15,600151,-209587573.84,-198522547.78,2017-06-30,半年度报告,-210701842.96,2017,6,1.0961766343123795,False,6.691233515702583,False,4.196597893582687,False,前期平均盈利变化,355766149.5450001,153500000.0,153500000.0
16,600151,-252960794.35000008,-243992705.6600001,2017-09-30,三季度报告,-267977092.78000003,2017,9,1.1175829867757963,False,11.901405502974121,False,0.0,True,前期平均盈利变化,1223197342.3950002,51556667.0,51556667.0
17,600151,-348287965.43,-309103270.66,2017-12-31,年度报告,-510134467.57,2017,12,-0.12051141908041607,True,0.7569811133884162,True,0.5989531683291482,False,平均增速,-309103270.66,51556667.0,51556667.0
18,600151,-139473993.99999997,-134573569.02,2018-03-31,一季度报告,-138711659.73,2018,3,-2.441229548967573,False,-4.718578501321942,True,0.5148380066789418,False,前期平均,-26740846.50999999,134000000.0,134000000.0
19,600151,-170128446.51999998,-174662709.2,2018-06-30,半年度报告,-192678306.27,2018,6,-1.8949057575483217,False,6.6496538422020866,False,0.48455559458960407,False,去年同期,-474095333.81,59000000.0,59000000.0
20,600151,-243715326.97,-242076276.23000005,2018-09-30,三季度报告,-268644425.91,2018,9,-1.741463225643132,False,8.183146938525075,False,0.0,True,去年同期,-484233651.02,,-484233651.02
21,600151,31924596.780000005,38532002.83,2018-12-31,年度报告,-525638407.8000001,2018,12,-1.5385231336042147,False,2.770498780725617,False,0.06149468531160873,True,前期平均,38532002.83,134000000.0,134000000.0
22,600151,-114681738.88,-103092978.57,2019-03-31,一季度报告,-105574733.98,2019,3,-2.3447749014773325,False,-2.2004505668454035,True,0.6152862494946467,False,前期平均,-309049944.68,105000000.0,105000000.0
23,600151,-100405643.38,-97698692.95000003,2019-06-30,半年度报告,-115062748.34,2019,6,-2.1024677552554425,False,-1.8328809833717064,True,0.4534189414479582,False,前期平均,-286024051.6100001,,-286024051.6100001
24,600151,-123498208.83,-119430924.54000004,2019-09-30,三季度报告,-144934541.9,2019,9,-1.769591017815173,False,-1.9651306174497845,True,0.0,True,前期平均,-269770711.73,未知,-269770711.73
25,600151,-757870235.49,-752194457.7200001,2019-12-31,年度报告,-800238851.27,2019,12,4.875129068427343,False,-1.4728645777591718,True,0.08550270535579063,True,盈利变化,-53001478.32666664,未知,-53001478.32666664
26,600151,-98463557.96,-87544843.77,2020-03-31,一季度报告,-90811949.25,2020,3,-2.6354925236724833,False,-0.14928835185590678,True,未知,未知,前期平均,-470657240.02500004,未知,-470657240.02500004
