,SECURITYCODE_x,NETPROFIT_x,PARENTNETPROFIT_x,REPORTDATE_x,REPORTTIMETYPE_x,KCFJCXSYJLR,Year,Month,managesituationChangeRate,managesituationGreatChange,historyprofitextroplaterate,ifhistoryprofitextroplate,IfprofitdisStableChangeRage,IfprofitdisStable,predicttype,predict,analyst_prediction,adj_prediction
0,600183,559204570.4399999,557850257.2400001,2013-12-31,年度报告,381951737.48,2013,12,未知,未知,未知,未知,未知,未知,未知,未知,未知,未知
1,600183,123631456.11,121513755.2,2014-03-31,一季度报告,118415707.92,2014,3,未知,未知,未知,未知,未知,未知,未知,未知,未知,未知
2,600183,284813390.98,280907710.38,2014-06-30,半年度报告,275223586.99000007,2014,6,未知,未知,未知,未知,未知,未知,未知,未知,未知,未知
3,600183,425863757.13000005,420045354.64,2014-09-30,三季度报告,411284253.03000015,2014,9,未知,未知,未知,未知,未知,未知,未知,未知,未知,未知
4,600183,522387619.47000015,515421671.88,2014-12-31,年度报告,496241473.3,2014,12,0.0,True,未知,未知,未知,未知,未知,未知,未知,未知
5,600183,119188577.84999998,118085602.20000002,2015-03-31,一季度报告,116379531.56,2015,3,3.5231576819935904,False,未知,未知,未知,未知,未知,未知,648000000.0,未知
6,600183,232025483.57,230138676.41000003,2015-06-30,半年度报告,243039081.66000003,2015,6,0.9634068767478283,False,未知,未知,未知,未知,未知,未知,515000000.0,未知
7,600183,342426635.47000015,338140691.76999986,2015-09-30,三季度报告,363630243.42,2015,9,0.3131067414813982,True,未知,未知,未知,未知,未知,未知,515000000.0,未知
8,600183,552935006.52,544227556.3900001,2015-12-31,年度报告,548639696.6,2015,12,0.0704782226794602,True,未知,未知,未知,未知,未知,未知,,未知
9,600183,154399263.12,153061499.62,2016-03-31,一季度报告,157531157.43,2016,3,3.6917630911224104,False,未知,未知,未知,未知,未知,未知,610000000.0,未知
10,600183,319844981.57000005,316233605.84000003,2016-06-30,半年度报告,311124035.94,2016,6,1.4100997952291434,False,未知,未知,未知,未知,未知,未知,708758000.0,未知
11,600183,506504406.0100001,500016140.3599999,2016-09-30,三季度报告,490841616.68,2016,9,0.6330638814718945,False,未知,未知,未知,未知,未知,未知,728000000.0,未知
12,600183,760643887.22,748196207.1399999,2016-12-31,年度报告,729791714.87,2016,12,0.011338699568794951,True,0.022446374295676124,True,0.0,True,比例外推,748196207.1399999,746505000.0,748196207.1399999
13,600183,290600633.66,283972353.85,2017-03-31,一季度报告,273032467.67,2017,3,2.621808544548447,False,0.2717176635057581,True,0.016422954469018758,True,前期平均,689015319.0600001,1088000000.0,1088000000.0
14,600183,555155004.9599999,539611121.13,2017-06-30,半年度报告,504417402.15,2017,6,0.7483612457981135,False,0.23769707473526208,True,0.07997623190951397,True,前期平均,802920371.755,1204666667.0,1204666667.0
15,600183,833657055.2000003,806638887.37,2017-09-30,三季度报告,758312609.0699999,2017,9,0.10404680355131866,True,0.3185233367188666,True,0.10741147734252943,False,平均增速,1136725780.5462246,1155333333.0,1136725780.5462246
16,600183,1113341797.23,1074663320.0199995,2017-12-31,年度报告,1001796705.4399998,2017,12,-0.26482736555764635,True,0.4147268342274674,True,0.0,True,比例外推,1074663320.0199995,1142054000.0,1074663320.0199995
17,600183,260669865.24,249364274.3100001,2018-03-31,一季度报告,250004425.66,2018,3,0.924306094577426,False,1.1243680466915602,True,0.03903469749802077,True,前期平均,751624635.5500001,1299421250.0,1299421250.0
18,600183,564279087.35,532841757.67,2018-06-30,半年度报告,481962433.34000015,2018,6,0.0072944771168762116,True,1.0119032998773239,True,0.04590722130733693,True,比例外推,1104106210.109315,1185361818.0,1104106210.109315
19,600183,857800320.45,810108138.66,2018-09-30,三季度报告,731433959.4099997,2018,9,-0.3292150927627635,True,0.9640159552809572,True,0.059514116422674346,True,比例外推,1127417529.336998,1140907500.0,1127417529.336998
20,600183,1064961688.4899998,1000468630.58,2018-12-31,年度报告,924798068.77,2018,12,-0.4977242641646045,True,0.6951274149360177,True,0.0,True,比例外推,1000468630.58,1133751429.0,1133751429.0
21,600183,266356540.52,249296613.53,2019-03-31,一季度报告,223690202.39,2019,3,1.1452597519285077,False,0.17155022788183036,True,0.03705382275578581,True,前期平均,899809011.1349999,1169013333.0,1169013333.0
22,600183,676787097.68,628851216.2800001,2019-06-30,半年度报告,591948985.94,2019,6,-0.008992920389503225,True,0.28978079094096837,True,0.057343027058933294,True,比例外推,1260792088.970014,1300111667.0,1260792088.970014
23,600183,1122118094.5699997,1042300452.6399996,2019-09-30,三季度报告,1000835079.13,2019,9,-0.34809470559926753,True,0.2801447367028629,True,0.06756976933911896,True,比例外推,1393675778.8031492,1408387500.0,1393675778.8031492
24,600183,1563393933.9199998,1448767198.85,2019-12-31,年度报告,1393661498.5100002,2019,12,-0.4749063966489805,True,0.13657398487817968,True,0.0,True,比例外推,1448767198.85,1408305882.0,1448767198.85
25,600183,366498456.94,339269165.27000004,2020-03-31,一季度报告,342748701.29,2020,3,1.099458753099441,False,0.033662998286738306,True,0.07395534986007599,True,前期平均,1041048105.7099998,1906426176.0,1906426176.0
