,SECURITYCODE_x,NETPROFIT_x,PARENTNETPROFIT_x,REPORTDATE_x,REPORTTIMETYPE_x,KCFJCXSYJLR,Year,Month,managesituationChangeRate,managesituationGreatChange,historyprofitextroplaterate,ifhistoryprofitextroplate,IfprofitdisStableChangeRage,IfprofitdisStable,predicttype,predict,analyst_prediction,adj_prediction
0,600248,185978158.06000003,185978158.06000003,2013-12-31,年度报告,170402531.84,2013,12,未知,未知,未知,未知,未知,未知,未知,未知,未知,未知
1,600248,39211830.95,39211830.95,2014-03-31,一季度报告,39035144.2,2014,3,未知,未知,未知,未知,未知,未知,未知,未知,未知,未知
2,600248,110742303.51000002,110742303.51000002,2014-06-30,半年度报告,106886005.17,2014,6,未知,未知,未知,未知,未知,未知,未知,未知,未知,未知
3,600248,169753154.67000005,169753154.67000005,2014-09-30,三季度报告,165964944.05,2014,9,未知,未知,未知,未知,未知,未知,未知,未知,未知,未知
4,600248,197980537.96000004,197980537.96000004,2014-12-31,年度报告,193367769.36,2014,12,0.0,True,未知,未知,未知,未知,未知,未知,未知,未知
5,600248,30531002.579999994,30531002.579999994,2015-03-31,一季度报告,30078785.45,2015,3,3.7429093096199835,False,未知,未知,未知,未知,未知,未知,未知,未知
6,600248,71931097.37,71931097.37,2015-06-30,半年度报告,70821667.00999999,2015,6,0.6793777279809448,False,未知,未知,未知,未知,未知,未知,未知,未知
7,600248,97586845.26,97586845.26,2015-09-30,三季度报告,96382547.84,2015,9,0.09557998154167664,True,未知,未知,未知,未知,未知,未知,141700000.0,未知
8,600248,121135640.54000002,121135640.54000002,2015-12-31,年度报告,120312878.83,2015,12,-0.06062403922967906,True,未知,未知,未知,未知,未知,未知,未知,未知
9,600248,19580060.94,19580060.94,2016-03-31,一季度报告,19346492.76,2016,3,5.0914526987013895,False,未知,未知,未知,未知,未知,未知,未知,未知
10,600248,54890856.37,54890856.37,2016-06-30,半年度报告,54529784.68000001,2016,6,1.585504251427772,False,未知,未知,未知,未知,未知,未知,未知,未知
11,600248,84585029.84,84585029.84,2016-09-30,三季度报告,82300748.61000001,2016,9,0.9057707784742873,False,未知,未知,未知,未知,未知,未知,未知,未知
12,600248,122816514.83,122816514.83,2016-12-31,年度报告,129539863.31999996,2016,12,0.5352885181515877,False,0.3690173354808447,True,0.0,True,前期平均,122816514.83,,122816514.83
13,600248,15169821.670000006,15169821.670000006,2017-03-31,一季度报告,13461534.409999998,2017,3,8.498344189525287,False,0.43850687019828055,True,0.05105969231452695,True,前期平均,137453180.94000003,未知,137453180.94000003
14,600248,62061109.66,62061109.66,2017-06-30,半年度报告,60017960.92999999,2017,6,2.3881445901733893,False,0.3990273777619288,True,0.0998354268516688,True,前期平均,130047597.66499999,未知,130047597.66499999
15,600248,86145985.26,86145985.26,2017-09-30,三季度报告,82098411.68999997,2017,9,1.1987124484296336,False,0.3672100706056136,True,0.12957425765978559,False,前期平均,111812563.41000001,未知,111812563.41000001
16,600248,284056628.58,194887471.45999995,2017-12-31,年度报告,80850030.72,2017,12,0.5142764661367165,False,0.23027083485834626,True,0.0,True,前期平均,194887471.45999995,未知,194887471.45999995
17,600248,123643601.65,77697662.57000001,2018-03-31,一季度报告,22032618.96,2018,3,11.259745836550756,False,0.3945519969279628,True,0.061387185958126006,True,前期平均,177911394.54,301000000.0,301000000.0
18,600248,166066591.79000002,121557837.6,2018-06-30,半年度报告,59486419.35000001,2018,6,1.9966940500883084,False,0.02128759524975298,True,0.1630276621190797,False,前期平均,183808482.82999998,156000000.0,156000000.0
19,600248,209432488.44,161196253.83,2018-09-30,三季度报告,93476193.84000002,2018,9,1.1588720298304476,False,0.05423397313430855,True,0.19815025938919673,False,前期平均,196780976.68,,196780976.68
20,600248,348040089.47999984,281361737.9699999,2018-12-31,年度报告,188679999.36,2018,12,-0.3452778800139062,True,1.328789660818318,True,0.0,True,比例外推,281361737.9699999,298570000.0,281361737.9699999
21,600248,47507217.2,47507217.2,2019-03-31,一季度报告,47386319.83000001,2019,3,0.5041470450404016,False,6.116202551683957,False,0.027434339685928483,True,去年同期,214154597.60000002,未知,214154597.60000002
22,600248,156905404.93,156905404.93,2019-06-30,半年度报告,155129587.88,2019,6,0.11990109543031531,True,1.839911075071647,True,0.2494823973349874,False,平均增速,420895248.37977266,未知,420895248.37977266
23,600248,217185499.42,217185499.42,2019-09-30,三季度报告,210029395.85,2019,9,-0.11198993315079366,True,1.4533619543857554,True,0.3000427015734942,False,平均增速,394540371.02625,未知,394540371.02625
24,600248,295691376.55999994,295691376.55999994,2019-12-31,年度报告,289915924.29999995,2019,12,-0.4656415634823376,True,0.7108039452448454,True,0.0,True,比例外推,295691376.55999994,未知,295691376.55999994
25,600248,-20361060.08,-20361060.08,2020-03-31,一季度报告,-20424204.97,2020,3,2.9147348344369033,False,0.3155241609381845,True,0.032134571587915606,True,盈利变化,205277343.49333328,未知,205277343.49333328
