,SECURITYCODE_x,NETPROFIT_x,PARENTNETPROFIT_x,REPORTDATE_x,REPORTTIMETYPE_x,KCFJCXSYJLR,Year,Month,managesituationChangeRate,managesituationGreatChange,historyprofitextroplaterate,ifhistoryprofitextroplate,IfprofitdisStableChangeRage,IfprofitdisStable,predicttype,predict,analyst_prediction,adj_prediction
0,600208,974541801.9299998,983137478.08,2013-12-31,年度报告,256164996.66,2013,12,未知,未知,未知,未知,未知,未知,未知,未知,未知,未知
1,600208,48059240.05,46829248.78000001,2014-03-31,一季度报告,47539787.92,2014,3,未知,未知,未知,未知,未知,未知,未知,未知,未知,未知
2,600208,276502326.3,275356956.62,2014-06-30,半年度报告,-62615393.44000001,2014,6,未知,未知,未知,未知,未知,未知,未知,未知,未知,未知
3,600208,455399590.25,445775992.5799999,2014-09-30,三季度报告,132714927.76,2014,9,未知,未知,未知,未知,未知,未知,未知,未知,未知,未知
4,600208,1146004368.93,1081922249.92,2014-12-31,年度报告,638494300.5799999,2014,12,0.0,True,未知,未知,未知,未知,未知,未知,未知,未知
5,600208,152999914.60999998,151402707.31000003,2015-03-31,一季度报告,42493442.69000001,2015,3,19.277927843139082,False,未知,未知,未知,未知,未知,未知,1685781543.0,未知
6,600208,500842727.72,438827821.14,2015-06-30,半年度报告,313107696.24,2015,6,2.524533825703295,False,未知,未知,未知,未知,未知,未知,1588208798.0,未知
7,600208,668651086.9300001,593998528.4700001,2015-09-30,三季度报告,469003440.01,2015,9,1.139970748315797,False,未知,未知,未知,未知,未知,未知,1444766667.0,未知
8,600208,1041679563.63,1160723279.7699995,2015-12-31,年度报告,1009188710.4399996,2015,12,-0.14961772541939888,True,未知,未知,未知,未知,未知,未知,2207000000.0,未知
9,600208,112751465.12999998,112975445.68000002,2016-03-31,一季度报告,96886817.91,2016,3,5.36955781585975,False,未知,未知,未知,未知,未知,未知,1623297476.0,未知
10,600208,206946192.92000005,310271163.62,2016-06-30,半年度报告,276586183.19,2016,6,0.9458040378592157,False,未知,未知,未知,未知,未知,未知,1520652500.0,未知
11,600208,642872702.7800001,694389202.2799999,2016-09-30,三季度报告,643243976.3899999,2016,9,0.45747434047321445,True,未知,未知,未知,未知,未知,未知,1623031691.0,未知
12,600208,5847179529.420002,5838460777.01,2016-12-31,年度报告,553005497.72,2016,12,-0.06445145325309196,True,0.017536540402191988,True,0.0,True,比例外推,5838460777.01,1623031691.0,1623031691.0
13,600208,389008661.74,380489021.63,2017-03-31,一季度报告,347807041.63,2017,3,7.643273954856147,False,0.12157504412736397,True,0.07794609837939181,True,前期平均,1159313911.8349996,3122399946.0,3122399946.0
14,600208,487784059.66,474776008.3,2017-06-30,半年度报告,425931252.7500001,2017,6,3.709155496794918,False,0.4675564169353405,True,0.3355140839372684,False,前期平均,1173371362.4099998,2932666667.0,2932666667.0
15,600208,1760364456.5500004,1730260362.0300007,2017-09-30,三季度报告,1289443338.09,2017,9,0.5159172223610519,False,0.14385003422235126,True,0.5512557678586292,False,前期平均,2253242683.6550007,3259000000.0,3259000000.0
16,600208,3350220958.11,3321865217.7499995,2017-12-31,年度报告,2428945061.92,2017,12,-0.8333313015229639,True,4.345543240862685,False,0.0,True,比例外推,3321865217.7499995,3660000000.0,3321865217.7499995
17,600208,785878004.2399999,787908970.6700001,2018-03-31,一季度报告,806954229.3199997,2018,3,1.5051930658072339,False,1.9276134868657302,True,0.0780600063111275,True,前期平均,1499315944.4499998,4934870000.0,4934870000.0
18,600208,1461030054.73,1457287723.2200005,2018-06-30,半年度报告,1458383839.7699995,2018,6,0.997895959554899,False,0.37833200106871895,True,0.17156281134751594,False,前期平均,1943537887.5850003,,1943537887.5850003
19,600208,1771608136.18,1770294955.3100004,2018-09-30,三季度报告,1800441007.0200005,2018,9,-0.44639770571150506,True,1.6844567675577529,True,0.4435859360767479,False,平均增速,3973185064.515298,4274220000.0,3973185064.515298
20,600208,2693359300.61,2506201669.61,2018-12-31,年度报告,2518147121.1600013,2018,12,-0.7091111857649594,True,0.02735099880618711,True,0.0,True,比例外推,2506201669.61,4749000000.0,4749000000.0
21,600208,802303034.63,808101067.4500003,2019-03-31,一季度报告,301665090.44,2019,3,0.24006753805566972,True,2.132484875362013,False,0.10750600403599017,False,未知,未知,3466703333.0,未知
22,600208,1706163502.4699993,1720712761.6700006,2019-06-30,半年度报告,1509764234.9100006,2019,6,-0.33297621169737246,True,3.206035506023278,False,0.2428624980105396,False,未知,未知,3248000000.0,未知
23,600208,2436155431.8700013,2457040390.35,2019-09-30,三季度报告,2539676337.0399995,2019,9,-0.4499111953553459,True,0.4743514840407241,True,0.36016817509054344,False,平均增速,3937337610.899687,3099500000.0,3099500000.0
24,600208,2111626934.6700003,2153412681.24,2019-12-31,年度报告,2165878812.05,2019,12,-0.638168661080873,True,0.41432162179700577,True,0.0,True,比例外推,2153412681.24,3135000000.0,3135000000.0
25,600208,128269912.97999996,135684330.76999995,2020-03-31,一季度报告,412465378.14000016,2020,3,0.21468043851963192,True,0.36575391969536153,True,0.11947926166287268,False,平均增速,2294175429.9776645,3357500000.0,3357500000.0
