,SECURITYCODE_x,NETPROFIT_x,PARENTNETPROFIT_x,REPORTDATE_x,REPORTTIMETYPE_x,KCFJCXSYJLR,Year,Month,managesituationChangeRate,managesituationGreatChange,historyprofitextroplaterate,ifhistoryprofitextroplate,IfprofitdisStableChangeRage,IfprofitdisStable,predicttype,predict,analyst_prediction,adj_prediction
0,600213,5628967.319999998,5243770.76,2013-12-31,年度报告,-44347849.66,2013,12,未知,未知,未知,未知,未知,未知,未知,未知,未知,未知
1,600213,-29836349.98,-27662764.39,2014-03-31,一季度报告,-28466124.04000001,2014,3,未知,未知,未知,未知,未知,未知,未知,未知,未知,未知
2,600213,-56309409.88,-55227668.09,2014-06-30,半年度报告,-69126807.81,2014,6,未知,未知,未知,未知,未知,未知,未知,未知,未知,未知
3,600213,-77046674.20000002,-77179598.94999999,2014-09-30,三季度报告,-91533961.99,2014,9,未知,未知,未知,未知,未知,未知,未知,未知,未知,未知
4,600213,-144768832.97999996,-144937044.96999997,2014-12-31,年度报告,-157569015.6,2014,12,0.0,True,未知,未知,未知,未知,未知,未知,未知,未知
5,600213,-11182690.87,-9798219.9,2015-03-31,一季度报告,-10849781.55,2015,3,-1.188661392019239,False,未知,未知,未知,未知,未知,未知,未知,未知
6,600213,-43146824.64,-41145882.84,2015-06-30,半年度报告,-42368808.71,2015,6,-1.0999649495882802,False,未知,未知,未知,未知,未知,未知,未知,未知
7,600213,-80450354.71999998,-76961173.82,2015-09-30,三季度报告,-79069591.07000001,2015,9,-1.0730591862458352,False,未知,未知,未知,未知,未知,未知,未知,未知
8,600213,15792237.579999998,20196318.06,2015-12-31,年度报告,16966962.969999995,2015,12,-1.0388824528327698,False,未知,未知,未知,未知,未知,未知,未知,未知
9,600213,-14990013.06,-13133152.81,2016-03-31,一季度报告,-14235553.96,2016,3,-1.5033642962536797,False,未知,未知,未知,未知,未知,未知,未知,未知
10,600213,14820221.24,14219198.000000006,2016-06-30,半年度报告,12655917.820000002,2016,6,-1.130460755037384,False,未知,未知,未知,未知,未知,未知,30530000.0,未知
11,600213,46239215.67000001,43382150.22,2016-09-30,三季度报告,41339664.93000001,2016,9,-1.0699682100792607,False,未知,未知,未知,未知,未知,未知,,未知
12,600213,65249615.90999998,62307778.22,2016-12-31,年度报告,60024863.19000002,2016,12,-0.6435611298598511,True,-1.2269980282802582,True,0.0,True,比例外推,62307778.22,未知,62307778.22
13,600213,8710331.78,5387367.539999999,2017-03-31,一季度报告,1922968.69,2017,3,-1.3755145040547414,False,-0.2691192797600483,True,0.41264745745310705,False,盈利变化,83852475.08666667,75390000.0,75390000.0
14,600213,19651975.950000007,13768045.549999995,2017-06-30,半年度报告,9640701.13,2017,6,-0.6201833138086137,True,-1.298024981772656,True,1.881274697175713,False,平均增速,98664301.05055597,,98664301.05055597
15,600213,32804958.69,24561712.35,2017-09-30,三季度报告,20405946.11,2017,9,-0.8782642127804933,True,-1.587175719911352,True,3.530013397611846,False,平均增速,55544864.55268219,未知,55544864.55268219
16,600213,52280780.02,42818431.91,2017-12-31,年度报告,42254233.63999999,2017,12,-0.9137317937968533,True,-2.0118055249890707,True,0.0,True,比例外推,42818431.91,未知,42818431.91
17,600213,5456247.16,3151890.0200000005,2018-03-31,一季度报告,2583814.93,2018,3,-0.35375971177988824,True,-1.6656042725502223,True,0.36242627955653395,False,平均增速,73015861.8822743,未知,73015861.8822743
18,600213,18366913.09,17339672.39,2018-06-30,半年度报告,16749683.65,2018,6,-0.7135673616575947,True,-2.387527877768784,True,1.8110917921804113,False,平均增速,80255092.71223524,未知,80255092.71223524
19,600213,20887788.83,19249529.3,2018-09-30,三季度报告,18471643.89,2018,9,-0.828411083422096,True,-2.917794005166281,True,3.49735310472017,False,平均增速,52306603.991294116,未知,52306603.991294116
20,600213,15609497.38,13072174.36,2018-12-31,年度报告,2444762.4,2018,12,-0.8923319943228345,True,0.2902167896851249,True,0.0,True,比例外推,13072174.36,未知,13072174.36
21,600213,1134211.59,1126172.53,2019-03-31,一季度报告,1015480.44,2019,3,0.03165548680899534,True,-2.7377465246134274,True,0.7684689733750931,False,平均增速,1072364.9092568266,22120000.0,22120000.0
22,600213,10383187.769999998,10342455.61,2019-06-30,半年度报告,10252759.4,2019,6,-0.6935267623678837,True,0.06560733502232541,True,4.421166765147138,False,平均增速,3239929.4520833455,,3239929.4520833455
23,600213,13213905.23,13122745.619999995,2019-09-30,三季度报告,12945142.22,2019,9,-0.7305139684332973,True,0.47149074554518516,True,4.646518674419983,False,平均增速,4454498.130718265,未知,4454498.130718265
24,600213,14212504.070000006,13946225.939999998,2019-12-31,年度报告,12471921.99,2019,12,-0.6393883042504475,True,0.7343751417412586,True,0.0,True,比例外推,13946225.939999998,未知,13946225.939999998
25,600213,-40355863.56,-36804619.48,2020-03-31,一季度报告,-37052718.61,2020,3,3.962889966589037,False,0.8398750192542958,True,0.6622748788834405,False,盈利变化,-36811372.79333333,未知,-36811372.79333333
