,SECURITYCODE_x,NETPROFIT_x,PARENTNETPROFIT_x,REPORTDATE_x,REPORTTIMETYPE_x,KCFJCXSYJLR,Year,Month,managesituationChangeRate,managesituationGreatChange,historyprofitextroplaterate,ifhistoryprofitextroplate,IfprofitdisStableChangeRage,IfprofitdisStable,predicttype,predict,analyst_prediction,adj_prediction
0,600284,904480897.57,577019815.7199999,2013-12-31,年度报告,481998436.02,2013,12,未知,未知,未知,未知,未知,未知,未知,未知,未知,未知
1,600284,74244671.43999998,54866261.92,2014-03-31,一季度报告,50649247.04999998,2014,3,未知,未知,未知,未知,未知,未知,未知,未知,未知,未知
2,600284,176673387.50999996,131474796.57999998,2014-06-30,半年度报告,110469631.17000002,2014,6,未知,未知,未知,未知,未知,未知,未知,未知,未知,未知
3,600284,176673387.50999996,131474796.57999998,2014-06-30,半年度报告,103112042.99000002,2014,6,未知,未知,未知,未知,未知,未知,未知,未知,未知,未知
4,600284,305054350.72,237489909.48,2014-09-30,三季度报告,188312194.12,2014,9,未知,未知,未知,未知,未知,未知,未知,未知,未知,未知
5,600284,447118108.23,352710863.15000004,2014-12-31,年度报告,297753027.79,2014,12,0.0,True,未知,未知,未知,未知,未知,未知,未知,未知
6,600284,76852471.30999999,59732636.24,2015-03-31,一季度报告,57397344.32,2015,3,11.18243518393029,False,未知,未知,未知,未知,未知,未知,未知,未知
7,600284,181172810.68,144328804.41,2015-06-30,半年度报告,123818747.87,2015,6,4.119508434844525,False,未知,未知,未知,未知,未知,未知,402500000.0,未知
8,600284,304196283.57999986,228493833.76,2015-09-30,三季度报告,194820916.81,2015,9,1.9649827823639046,False,未知,未知,未知,未知,未知,未知,,未知
9,600284,480257833.54,379157801.95,2015-12-31,年度报告,345137246.56999993,2015,12,1.022912695597491,False,未知,未知,未知,未知,未知,未知,未知,未知
10,600284,74591488.36,59767911.8,2016-03-31,一季度报告,59323268.58999999,2016,3,10.769054165110624,False,未知,未知,未知,未知,未知,未知,452000000.0,未知
11,600284,172520051.99,144628407.95,2016-06-30,半年度报告,143401220.68999997,2016,6,3.9923655441188526,False,未知,未知,未知,未知,未知,未知,,未知
12,600284,263775740.60999995,226998652.97,2016-09-30,三季度报告,224068555.82999995,2016,9,1.9733463108931533,False,未知,未知,0.0,True,未知,未知,未知,未知
13,600284,403793673.44999987,359112257.83,2016-12-31,年度报告,351072775.13,2016,12,0.8833235699728926,False,0.28934864337853017,True,0.0021587025146797556,True,前期平均,359112257.83,未知,359112257.83
14,600284,71454724.85,68450392.46,2017-03-31,一季度报告,59963275.28,2017,3,11.125792331756605,False,0.012668446240357326,True,0.029056149128348918,True,前期平均,335872233.955,,335872233.955
15,600284,154242082.68999997,148527567.31,2017-06-30,半年度报告,128700861.14,2017,6,4.242758086013257,False,0.03578658729580933,True,0.04724546018658227,True,前期平均,352828514.96999997,436590000.0,436590000.0
16,600284,229932510.31,217534988.22,2017-09-30,三季度报告,182518902.34,2017,9,2.4289768099155906,False,0.13409777270707068,True,0.0,True,前期平均,347413569.93499994,322430000.0,347413569.93499994
17,600284,390392430.05,371356727.21,2017-12-31,年度报告,313901690.49,2017,12,1.2399580702742194,False,0.1291694009673902,True,0.015590407717230942,True,前期平均,371356727.21,243000000.0,243000000.0
18,600284,74857974.47999999,73244206.21999998,2018-03-31,一季度报告,47076815.19000001,2018,3,11.658097830041537,False,0.05635424475559739,True,0.03365503651793411,True,前期平均,362988910.6149999,438000000.0,438000000.0
19,600284,164515652.83,162234320.62000003,2018-06-30,半年度报告,102163869.29,2018,6,4.864034521550457,False,0.12781908277346377,True,0.04351768635422526,True,前期平均,376729347.19000006,,376729347.19000006
20,600284,218652842.01000008,214868022.53,2018-09-30,三季度报告,134540702.41,2018,9,2.9336799148174357,False,0.19033860642022662,True,0.0,True,前期平均,353528297.06,未知,353528297.06
21,600284,461548618.9699999,452885282.5400001,2018-12-31,年度报告,360692008.64000016,2018,12,1.316850502081092,False,0.11681066778744599,True,0.03298889738695618,True,前期平均,452885282.5400001,,452885282.5400001
22,600284,74245058.27,73358061.55,2019-03-31,一季度报告,53873519.79000001,2019,3,11.082625850525153,False,0.025127222879262768,True,0.0839937984940613,True,前期平均,346202022.425,516666667.0,516666667.0
23,600284,158738928.98999998,156676193.23999998,2019-06-30,半年度报告,111832254.0,2019,6,4.497840977506456,False,0.0069444122778249415,True,0.15789257839769566,False,前期平均,353112385.135,486000000.0,486000000.0
24,600284,253006997.7,249683587.9,2019-09-30,三季度报告,202327410.15,2019,9,3.136607094860599,False,0.11424270668941933,True,0.0,True,前期平均,378877091.625,525000000.0,525000000.0
25,600284,412364408.27,408299777.08999985,2019-12-31,年度报告,354561431.66,2019,12,0.9596654835376947,False,0.16231854709102192,True,0.033196385282516366,True,前期平均,408299777.08999985,未知,408299777.08999985
26,600284,84701370.97,83857286.79,2020-03-31,一季度报告,68218885.71,2020,3,11.182371711269452,False,0.014881942715641978,True,未知,未知,前期平均,367634091.1200001,未知,367634091.1200001
