,SECURITYCODE_x,NETPROFIT_x,PARENTNETPROFIT_x,REPORTDATE_x,REPORTTIMETYPE_x,KCFJCXSYJLR,Year,Month,managesituationChangeRate,managesituationGreatChange,historyprofitextroplaterate,ifhistoryprofitextroplate,IfprofitdisStableChangeRage,IfprofitdisStable,predicttype,predict,analyst_prediction,adj_prediction
0,600209,-35819664.54,-23302171.11000001,2013-12-31,年度报告,-26087469.35,2013,12,未知,未知,未知,未知,未知,未知,未知,未知,未知,未知
1,600209,-7625131.369999999,-5653258.04,2014-03-31,一季度报告,-5729828.8199999975,2014,3,未知,未知,未知,未知,未知,未知,未知,未知,未知,未知
2,600209,254795.50000000003,3446789.8199999994,2014-06-30,半年度报告,3396356.3200000008,2014,6,未知,未知,未知,未知,未知,未知,未知,未知,未知,未知
3,600209,-1390626.59,3234274.0600000005,2014-09-30,三季度报告,3208635.33,2014,9,未知,未知,未知,未知,未知,未知,未知,未知,未知,未知
4,600209,-1301258.2200000002,9264588.44,2014-12-31,年度报告,7298010.71,2014,12,-0.0,False,未知,未知,未知,未知,未知,未知,未知,未知
5,600209,-7747374.11,-5551753.48,2015-03-31,一季度报告,-6111045.82,2015,3,3.697579989366138,False,未知,未知,未知,未知,未知,未知,未知,未知
6,600209,-18185066.85,-13331326.489999998,2015-06-30,半年度报告,-14377764.24,2015,6,-141.58201396806456,False,未知,未知,未知,未知,未知,未知,5000000.0,未知
7,600209,-27071504.210000005,-19541939.15,2015-09-30,三季度报告,-21025533.73,2015,9,24.75793156666161,False,未知,未知,未知,未知,未知,未知,600000.0,未知
8,600209,-5933723.360000001,2516484.68,2015-12-31,年度报告,-24600695.99,2015,12,26.526945835546766,False,未知,未知,未知,未知,未知,未知,未知,未知
9,600209,-8991434.93,-6862406.460000001,2016-03-31,一季度报告,-8545534.309999999,2016,3,3.6234587398800597,False,未知,未知,未知,未知,未知,未知,未知,未知
10,600209,-46811557.54000001,-39271742.23,2016-06-30,半年度报告,-40950749.56000001,2016,6,0.9697296048158325,False,未知,未知,未知,未知,未知,未知,未知,未知
11,600209,-58653111.99000002,-48259398.3,2016-09-30,三季度报告,-49975720.69,2016,9,0.32315013832029665,False,未知,未知,未知,未知,未知,未知,未知,未知
12,600209,-57356444.30000001,-45941203.83000001,2016-12-31,年度报告,-61884085.3,2016,12,5.036625296936659,False,-0.6803030248809472,True,0.0,True,盈利变化,-9911311.756666668,,-9911311.756666668
13,600209,-8105203.83,-6656736.44,2017-03-31,一季度报告,-6215088.560000001,2017,3,2.98375396350669,False,-0.1698073475007796,True,0.652247617721653,False,前期平均,-9387641.76,未知,-9387641.76
14,600209,-19955695.3,-15945626.6,2017-06-30,半年度报告,-15939780.36,2017,6,-0.23481152043718145,False,-4.221511334238676,True,0.10513877954296724,False,前期平均,-19106265.28,未知,-19106265.28
15,600209,-29641836.710000005,-23230701.56,2017-09-30,三季度报告,-23068766.13000001,2017,9,-0.3892964358633345,False,-3.1214842558449636,True,0.26097478604299296,False,前期平均,-22973594.999999996,未知,-22973594.999999996
16,600209,-56796920.66,-45608164.35999999,2017-12-31,年度报告,-45739717.74,2017,12,-0.3754901480181192,False,-14.855311769846965,True,0.0,True,前期平均,-45608164.35999999,未知,-45608164.35999999
17,600209,-9062975.930000003,-7280922.720000002,2018-03-31,一季度报告,-7372839.940000001,2018,3,3.4193416095743023,False,-0.03156744178975346,True,0.07428336633654112,True,前期平均,-43195023.3,未知,-43195023.3
18,600209,-23171979.61,-19028436.33,2018-06-30,半年度报告,-19998255.86,2018,6,0.7949594840726997,False,-0.3859467168553367,True,0.18306697099515357,False,前期平均,-34606570.07499999,未知,-34606570.07499999
19,600209,-33737446.02,-26907320.89,2018-09-30,三季度报告,-28234887.62,2018,9,0.2084158242433012,False,-0.3084404917989006,True,0.21784826519449318,False,前期平均,-34649084.324999996,未知,-34649084.324999996
20,600209,2068937.77,8274396.84,2018-12-31,年度报告,-35087836.28,2018,12,-0.36933791262337773,False,-0.7948102449378149,True,0.0,True,盈利变化,-42057537.206666656,未知,-42057537.206666656
21,600209,-8885992.69,-6033778.310000001,2019-03-31,一季度报告,-6032664.02,2019,3,2.9523071468645052,False,-0.06020558277269286,True,0.04876054570857194,True,前期平均,-52465368.394999996,未知,-52465368.394999996
22,600209,-20207889.39,-15083108.729999995,2019-06-30,半年度报告,-15184953.830000006,2019,6,0.545818058830926,False,-0.3058878829258119,True,0.17823462637161636,False,前期平均,-40449745.28999999,未知,-40449745.28999999
23,600209,-28108208.3,-20959254.39,2019-09-30,三季度报告,-21166239.56,2019,9,0.06171832090566753,False,-0.2358012204156817,True,0.20118803248787176,False,前期平均,-38248912.5,未知,-38248912.5
24,600209,-54308342.01000001,-45258122.29000002,2019-12-31,年度报告,-45904570.46,2019,12,-18.313070049467946,False,-1.0362483886607279,True,0.0,True,盈利变化,4668818.779999999,未知,4668818.779999999
25,600209,-6546955.74,-6623160.16,2020-03-31,一季度报告,-7176199.990000001,2020,3,3.0310256591039355,False,-0.03517004297722902,True,0.05098450119304379,True,前期平均,-40242972.92,未知,-40242972.92
