,SECURITYCODE_x,NETPROFIT_x,PARENTNETPROFIT_x,REPORTDATE_x,REPORTTIMETYPE_x,KCFJCXSYJLR,Year,Month,managesituationChangeRate,managesituationGreatChange,historyprofitextroplaterate,ifhistoryprofitextroplate,IfprofitdisStableChangeRage,IfprofitdisStable,predicttype,predict,analyst_prediction,adj_prediction
0,600272,25726505.57,25446761.050000004,2013-12-31,年度报告,18306976.8,2013,12,未知,未知,未知,未知,未知,未知,未知,未知,未知,未知
1,600272,39465067.65,39428956.42,2014-03-31,一季度报告,1945706.1400000004,2014,3,未知,未知,未知,未知,未知,未知,未知,未知,未知,未知
2,600272,42905920.42,42758551.34,2014-06-30,半年度报告,3407783.3900000006,2014,6,未知,未知,未知,未知,未知,未知,未知,未知,未知,未知
3,600272,43951845.33000001,43755140.6,2014-09-30,三季度报告,2611761.18,2014,9,未知,未知,未知,未知,未知,未知,未知,未知,未知,未知
4,600272,36639253.29,36345310.38,2014-12-31,年度报告,-5990648.959999999,2014,12,0.0,True,未知,未知,未知,未知,未知,未知,未知,未知
5,600272,3980511.57,3998415.62,2015-03-31,一季度报告,1691869.9499999997,2015,3,-0.348119562389753,True,未知,未知,未知,未知,未知,未知,未知,未知
6,600272,10986788.28,11018817.86,2015-06-30,半年度报告,4035001.3900000006,2015,6,-0.40039730372482707,True,未知,未知,未知,未知,未知,未知,未知,未知
7,600272,17663142.290000007,17855188.71,2015-09-30,三季度报告,5697226.12,2015,9,-0.41466608792327597,True,未知,未知,未知,未知,未知,未知,未知,未知
8,600272,19546374.53,19847014.46000001,2015-12-31,年度报告,4125733.47,2015,12,-0.297843071026189,True,未知,未知,未知,未知,未知,未知,未知,未知
9,600272,4305616.83,4400280.99,2016-03-31,一季度报告,2119186.28,2016,3,5.463115385442781,False,未知,未知,未知,未知,未知,未知,,未知
10,600272,11526396.15,11727610.46,2016-06-30,半年度报告,7122529.09,2016,6,1.3415856312469145,False,未知,未知,未知,未知,未知,未知,未知,未知
11,600272,13696722.689999998,14210938.969999995,2016-09-30,三季度报告,7644539.519999999,2016,9,0.4565078595650033,True,未知,未知,未知,未知,未知,未知,未知,未知
12,600272,20683388.88,21292231.22,2016-12-31,年度报告,14263011.640000002,2016,12,0.3161778687149713,True,0.3731696723556872,True,0.0,True,比例外推,21292231.22,25000000.0,25000000.0
13,600272,5413331.0200000005,5682764.73,2017-03-31,一季度报告,-142277.84,2017,3,4.975103355864577,False,0.8017926377182273,True,0.4027458746239219,False,前期平均,2931518.940000001,未知,2931518.940000001
14,600272,15961189.12,16315425.48,2017-06-30,半年度报告,7270637.4700000025,2017,6,1.2319643742246356,False,0.5722465458486038,True,0.8716932648161502,False,前期平均,11661575.345,未知,11661575.345
15,600272,19540700.289999995,20088364.230000004,2017-09-30,三季度报告,8575976.350000001,2017,9,0.878296447425556,False,0.5554093827147314,True,0.9296052339392868,False,前期平均,15001412.835000005,未知,15001412.835000005
16,600272,38801436.02,38730491.74,2017-12-31,年度报告,22823206.33,2017,12,0.24382448733420525,True,0.2637480550626693,True,0.0,True,比例外推,38730491.74,未知,38730491.74
17,600272,8072237.3500000015,8023321.56,2018-03-31,一季度报告,6255184.130000001,2018,3,3.752435325855983,False,0.3066008052687188,True,0.22593650036236043,False,前期平均,15312166.000000002,未知,15312166.000000002
18,600272,21368229.39,21381578.03,2018-06-30,半年度报告,14396767.230000002,2018,6,0.6118163488059718,False,0.4179414884311859,True,0.3793608376084946,False,前期平均,24997185.345000003,未知,24997185.345000003
19,600272,26777200.85,26741669.779999994,2018-09-30,三季度报告,17920199.57,2018,9,0.3165600612156979,True,0.2462234963359841,True,0.6166913308221661,False,平均增速,59640002.073302075,未知,59640002.073302075
20,600272,35142118.56999999,35234314.21,2018-12-31,年度报告,19147152.63,2018,12,-0.3369702720090204,True,0.9289915093239176,True,0.0,True,比例外推,35234314.21,未知,35234314.21
21,600272,6903546.8999999985,6897088.560000001,2019-03-31,一季度报告,5195885.129999999,2019,3,2.187035322988861,False,0.6611339981621571,True,0.17034494639683703,False,前期平均,24451743.325000003,未知,24451743.325000003
22,600272,11432210.25,11463557.33,2019-06-30,半年度报告,5614384.679999999,2019,6,0.20396056689842562,True,0.5547549324619158,True,0.22862280784617706,False,平均增速,15286491.336949747,未知,15286491.336949747
23,600272,14043308.03,14186692.8,2019-09-30,三季度报告,5646795.7799999975,2019,9,-0.039238428463294776,True,0.6112681699849407,True,0.3200377503190689,False,平均增速,15128169.661417276,未知,15128169.661417276
24,600272,21675210.3,21976309.29,2019-12-31,年度报告,9570188.46,2019,12,-0.26792957804308026,True,0.18154902965848654,True,0.0,True,比例外推,21976309.29,未知,21976309.29
25,600272,2029107.17,2303120.22,2020-03-31,一季度报告,-480975.85,2020,3,2.726563452476872,False,0.023842186044991737,True,0.29402729321128457,False,前期平均,20231846.555,未知,20231846.555
