,SECURITYCODE_x,NETPROFIT_x,PARENTNETPROFIT_x,REPORTDATE_x,REPORTTIMETYPE_x,KCFJCXSYJLR,Year,Month,managesituationChangeRate,managesituationGreatChange,historyprofitextroplaterate,ifhistoryprofitextroplate,IfprofitdisStableChangeRage,IfprofitdisStable,predicttype,predict,analyst_prediction,adj_prediction
0,600259,-67688516.8,-69015273.11000001,2013-12-31,年度报告,-99344615.6,2013,12,未知,未知,未知,未知,未知,未知,未知,未知,未知,未知
1,600259,5547064.04,3918157.52,2014-03-31,一季度报告,2885717.88,2014,3,未知,未知,未知,未知,未知,未知,未知,未知,未知,未知
2,600259,10738420.87,11795522.590000005,2014-06-30,半年度报告,-3941120.8,2014,6,未知,未知,未知,未知,未知,未知,未知,未知,未知,未知
3,600259,18381654.21,18695795.97,2014-12-31,年度报告,-23629188.57,2014,12,-0.0,False,未知,未知,未知,未知,未知,未知,未知,未知
4,600259,4095824.84,2696238.0300000003,2015-03-31,一季度报告,-20207723.48,2015,3,-13.202584342256847,False,未知,未知,未知,未知,未知,未知,,未知
5,600259,-44245680.07,-35002021.39000001,2015-06-30,半年度报告,-66784298.39000001,2015,6,-7.303395780389078,False,未知,未知,未知,未知,未知,未知,91350000.0,未知
6,600259,-107580522.76,-95869653.82000002,2015-09-30,三季度报告,-128765379.49,2015,9,未知,未知,未知,未知,未知,未知,未知,未知,,未知
7,600259,-311657264.09000003,-274448826.20000005,2015-12-31,年度报告,-318521757.75,2015,12,-4.6823952853588136,False,未知,未知,未知,未知,未知,未知,35635000.0,未知
8,600259,-74326371.33,-65544711.95,2016-03-31,一季度报告,-70965116.53999999,2016,3,-17.526223518874893,False,未知,未知,未知,未知,未知,未知,39200000.0,未知
9,600259,-110711593.84000002,-100900808.84,2016-06-30,半年度报告,-109554620.08000004,2016,6,0.5298333462817537,False,未知,未知,未知,未知,未知,未知,18460000.0,未知
10,600259,-129154054.68,-118228895.56999996,2016-09-30,三季度报告,-134578786.23,2016,9,-0.37081067219755537,False,未知,未知,未知,未知,未知,未知,,未知
11,600259,9684373.23,26319963.64,2016-12-31,年度报告,-183099308.78,2016,12,-0.7828110408475735,False,-11.641537008002928,True,0.0,True,未知,未知,未知,未知
12,600259,4822027.82,1718987.86,2017-03-31,一季度报告,-1100864.35,2017,3,-0.08930685584701477,False,16.415789242196475,False,0.2779457731073825,False,盈利变化,119472299.89333333,未知,119472299.89333333
13,600259,-27244408.86000001,-32271715.43,2017-06-30,半年度报告,-42564668.67,2017,6,-0.3886049829810671,False,-5.608215442461495,True,0.27340299850494426,False,前期平均,-167984478.995,未知,-167984478.995
14,600259,14882350.39,8183620.339999999,2017-09-30,三季度报告,-35092511.42000001,2017,9,-0.4759086970385157,False,未知,未知,未知,未知,未知,未知,未知,未知
15,600259,26349046.46,20480409.64,2017-12-31,年度报告,-37606000.4,2017,12,-7.989457675001234,False,-1.0660428136793412,True,0.0,True,前期平均,20480409.64,未知,20480409.64
16,600259,2101796.870000001,3511162.29,2018-03-31,一季度报告,-23006925.13,2018,3,-15.037355097631934,False,-1.1373199572264927,True,0.22747951575206263,False,前期平均,-201712950.965,未知,-201712950.965
17,600259,-33679764.66,-30137899.399999995,2018-06-30,半年度报告,-84480254.66000001,2018,6,1.4844920345979555,False,-0.648362310815771,True,0.48523764520627277,False,前期平均,-192778973.42999998,未知,-192778973.42999998
18,600259,-146169022.06000003,-135212604.13,2018-09-30,三季度报告,-191406348.97,2018,9,-5.5482410389613195,False,-1.125730263410903,True,0.2865494379909571,False,盈利变化,-48992407.04888888,未知,-48992407.04888888
19,600259,-295293360.18999994,-266140025.28,2018-12-31,年度报告,-319914363.75000006,2018,12,-3.568917129610617,False,-1.1745126616164754,True,0.0,True,盈利变化,-73622378.14333336,未知,-73622378.14333336
20,600259,17140613.27,19251718.73,2019-03-31,一季度报告,-29907118.66,2019,3,-33.20507070219396,False,-1.0604795834003555,True,0.22465495605920402,False,前期平均,-55067945.41499999,未知,-55067945.41499999
21,600259,62287055.16,65497078.57999999,2019-06-30,半年度报告,15828375.16,2019,6,1.0097681050720264,False,-0.5117317985323158,True,0.4671036576611892,False,盈利变化,-199267605.4,114000000.0,114000000.0
22,600259,64006803.23,70339400.58,2019-09-30,三季度报告,3260038.1500000013,2019,9,-0.5369161273295312,False,-1.5582714980613337,True,0.17767193911397317,False,盈利变化,-179621631.00444445,,-179621631.00444445
23,600259,37451613.14999999,44105225.41,2019-12-31,年度报告,-38637002.03,2019,12,-0.7707753511408203,False,17.389971461517977,False,0.0,True,前期平均,44105225.41,未知,44105225.41
24,600259,1199103.21,5144824.86,2020-03-31,一季度报告,6456888.3500000015,2020,3,-4.949013709939446,False,3.951197939704044,False,0.4823060331395625,False,去年同期,-3585058.5100000007,50000000.0,50000000.0
