,SECURITYCODE_x,NETPROFIT_x,PARENTNETPROFIT_x,REPORTDATE_x,REPORTTIMETYPE_x,KCFJCXSYJLR,Year,Month,managesituationChangeRate,managesituationGreatChange,historyprofitextroplaterate,ifhistoryprofitextroplate,IfprofitdisStableChangeRage,IfprofitdisStable,predicttype,predict,analyst_prediction,adj_prediction
0,600267,507521314.41,301857409.97,2013-12-31,年度报告,219993942.43000004,2013,12,未知,未知,未知,未知,未知,未知,未知,未知,未知,未知
1,600267,140948205.36,75587178.66000003,2014-03-31,一季度报告,64297156.06000001,2014,3,未知,未知,未知,未知,未知,未知,未知,未知,未知,未知
2,600267,298616924.47,169606495.04000002,2014-06-30,半年度报告,150345119.53,2014,6,未知,未知,未知,未知,未知,未知,未知,未知,未知,未知
3,600267,435978947.31000006,227035005.63,2014-09-30,三季度报告,176062364.57,2014,9,未知,未知,未知,未知,未知,未知,未知,未知,未知,未知
4,600267,551970494.2399999,307896706.19000006,2014-12-31,年度报告,183235862.87,2014,12,0.0,True,未知,未知,未知,未知,未知,未知,未知,未知
5,600267,41678036.99,5058058.95,2015-03-31,一季度报告,6564510.450000001,2015,3,2.600764643393115,False,未知,未知,未知,未知,未知,未知,332500000.0,未知
6,600267,97641239.29,36756339.88,2015-06-30,半年度报告,27648963.59,2015,6,0.6995731749323109,False,未知,未知,未知,未知,未知,未知,278000000.0,未知
7,600267,89281051.21,4431478.87,2015-09-30,三季度报告,-35974231.59,2015,9,0.16409592146918558,True,未知,未知,未知,未知,未知,未知,28000000.0,未知
8,600267,126300672.26999998,13566704.030000005,2015-12-31,年度报告,-139065854.30999997,2015,12,-0.08052818093329661,True,未知,未知,未知,未知,未知,未知,,未知
9,600267,42651367.63,6072564.760000003,2016-03-31,一季度报告,561346.62,2016,3,11.177188540136184,False,未知,未知,未知,未知,未知,未知,51000000.0,未知
10,600267,92168693.75,20341680.72,2016-06-30,半年度报告,-42114547.22999999,2016,6,4.197817214329214,False,未知,未知,未知,未知,未知,未知,,未知
11,600267,164131530.31000006,31004371.340000004,2016-09-30,三季度报告,-126186729.87,2016,9,4.684535604495153,False,未知,未知,未知,未知,未知,未知,45000000.0,未知
12,600267,61852851.8,-94428052.17999998,2016-12-31,年度报告,-283340025.21000004,2016,12,3.0183579809064156,False,0.7615825412922601,True,0.0,True,盈利变化,-34524686.27000001,,-34524686.27000001
13,600267,80321592.00999999,6831898.060000001,2017-03-31,一季度报告,2462464.12,2017,3,10.899297551551925,False,0.532910855732777,True,0.2503273807221902,False,前期平均,-6513930.914999981,未知,-6513930.914999981
14,600267,138240968.01999998,13504035.96,2017-06-30,半年度报告,-725651.64,2017,6,4.506439266532407,False,0.5348048207994857,True,0.563728056907399,False,前期平均,-53408001.319999985,未知,-53408001.319999985
15,600267,179036852.39000005,5110635.05,2017-09-30,三季度报告,-17698916.57,2017,9,2.0921622033952256,False,0.3750465263965822,True,0.40588758432559,False,前期平均,-42848427.15999998,未知,-42848427.15999998
16,600267,231566223.25,13566226.7,2017-12-31,年度报告,-141404917.44,2017,12,7.205301770903957,False,0.8176161545587738,True,0.0,True,前期平均,13566226.7,,13566226.7
17,600267,130201771.18000002,10790753.78,2018-03-31,一季度报告,-6896455.420000003,2018,3,5.318616223976411,False,0.9049486326137419,True,0.025004402668972307,True,前期平均,-203975114.515,未知,-203975114.515
18,600267,242533224.37,14844990.98,2018-06-30,半年度报告,-62633448.06,2018,6,2.671280096480332,False,0.4566252229894361,True,0.1838020735557928,False,前期平均,-189125156.96,未知,-189125156.96
19,600267,267371267.29,7113647.9,2018-09-30,三季度报告,-108749226.46,2018,9,1.8347309932843034,False,0.41300681533738254,True,0.16895305617936224,False,前期平均,-123008811.12999998,125000000.0,125000000.0
20,600267,-236971588.7,-492473970.48,2018-12-31,年度报告,-611570904.2200001,2018,12,1.1916897347420032,False,1.4614603887392392,True,0.0,True,盈利变化,-143155768.8933334,125000000.0,125000000.0
21,600267,155145162.39999998,31731435.960000005,2019-03-31,一季度报告,25424105.20000001,2019,3,2.897960141482001,False,1.1175674971337144,True,0.01470799930351815,True,前期平均,-182152940.735,100500000.0,100500000.0
22,600267,226932238.18,52626540.92999999,2019-06-30,半年度报告,5461027.59,2019,6,1.0925846993884174,False,1.1052348456819665,True,0.0802622175462248,True,前期平均,-138325830.96000004,556945000.0,556945000.0
23,600267,1469712759.4799998,1254988330.54,2019-09-30,三季度报告,-403949319.89999986,2019,9,0.898189433569633,False,0.5582511721293251,True,0.19590818070578256,False,前期平均,1114558682.435,1022000000.0,1114558682.435
24,600267,323265742.43,93072677.67,2019-12-31,年度报告,-2520559106.5799994,2019,12,-3.1416968894634416,False,2.61524323979018,False,0.0,True,盈利变化,-1128803371.2666664,,-1128803371.2666664
25,600267,51070646.07999999,-71410895.84999998,2020-03-31,一季度报告,-85334783.27,2020,3,2.2712674153609322,False,0.4738997140187192,True,0.0166847388870794,True,盈利变化,-54605840.29000001,未知,-54605840.29000001
