,SECURITYCODE_x,NETPROFIT_x,PARENTNETPROFIT_x,REPORTDATE_x,REPORTTIMETYPE_x,KCFJCXSYJLR,Year,Month,managesituationChangeRate,managesituationGreatChange,historyprofitextroplaterate,ifhistoryprofitextroplate,IfprofitdisStableChangeRage,IfprofitdisStable,predicttype,predict,analyst_prediction,adj_prediction
0,600207,16499942.379999995,9952470.89,2013-12-31,年度报告,-176554200.75999996,2013,12,未知,未知,未知,未知,未知,未知,未知,未知,未知,未知
1,600207,-18884739.77,-20630561.07,2014-03-31,一季度报告,-21082562.040000007,2014,3,未知,未知,未知,未知,未知,未知,未知,未知,未知,未知
2,600207,-35463353.77,-38808497.98,2014-06-30,半年度报告,-39908364.84,2014,6,未知,未知,未知,未知,未知,未知,未知,未知,未知,未知
3,600207,-70266099.69999999,-75235052.25,2014-09-30,三季度报告,-72538397.67999999,2014,9,未知,未知,未知,未知,未知,未知,未知,未知,未知,未知
4,600207,-263490424.5,-269953160.13000005,2014-12-31,年度报告,-279556271.3999999,2014,12,0.0,True,未知,未知,未知,未知,未知,未知,未知,未知
5,600207,-41543737.97000001,-43277318.23,2015-03-31,一季度报告,-43820542.73,2015,3,-1.8737182815837123,False,未知,未知,未知,未知,未知,未知,未知,未知
6,600207,-92781273.2,-95493900.44,2015-06-30,半年度报告,-97058950.01999998,2015,6,-1.4652673993275283,False,未知,未知,未知,未知,未知,未知,-181040000.0,未知
7,600207,61365713.92,58184334.33,2015-09-30,三季度报告,-128977385.25,2015,9,-1.2348208090451334,False,未知,未知,未知,未知,未知,未知,88000000.0,未知
8,600207,22382951.36,18599893.2,2015-12-31,年度报告,-169516320.08999997,2015,12,-1.0626206527668332,False,未知,未知,未知,未知,未知,未知,未知,未知
9,600207,1873723.86,730840.63,2016-03-31,一季度报告,-391810.50000000006,2016,3,-1.3971703844250871,False,未知,未知,未知,未知,未知,未知,未知,未知
10,600207,3646146.9100000006,1210429.2999999998,2016-06-30,半年度报告,-1757640.7399999998,2016,6,-1.1778369902774732,False,未知,未知,未知,未知,未知,未知,未知,未知
11,600207,5259012.58,1594267.41,2016-09-30,三季度报告,-3401016.81,2016,9,-0.731121153393403,True,未知,未知,未知,未知,未知,未知,未知,未知
12,600207,14611087.11,9541634.39,2016-12-31,年度报告,6365315.489999997,2016,12,-0.2628343727053519,True,-1.1812454566498258,True,0.0,True,比例外推,9541634.39,,9541634.39
13,600207,-17155658.64,-17861883.02,2017-03-31,一季度报告,-18594277.3,2017,3,7.805962677979665,False,-1.0620145974241448,True,0.16771545823193462,False,盈利变化,-14728321.343333334,未知,-14728321.343333334
14,600207,-13369102.989999998,-14924242.17,2017-06-30,半年度报告,-15466025.0,2017,6,3.525309261331983,False,-1.0568623730466764,True,0.42616660418379315,False,盈利变化,402711.55000000075,未知,402711.55000000075
15,600207,-4108231.33,-6459190.770000001,2017-09-30,三季度报告,-6933188.95,2017,9,2.137460146558538,False,-2.181749355588047,True,0.6963137368871375,False,盈利变化,7971780.105555556,未知,7971780.105555556
16,600207,13069935.939999998,9076621.75,2017-12-31,年度报告,-2598813.9,2017,12,0.12927547798323927,True,-1.1211997863004108,True,0.0,True,比例外推,9076621.75,未知,9076621.75
17,600207,-9566482.28,-10735918.41,2018-03-31,一季度报告,-11067349.66,2018,3,-1.9617784269458975,False,-0.135081797932842,True,4.704289617795284,False,前期平均,-70205244.09499998,未知,-70205244.09499998
18,600207,2783628.27,621230.41,2018-06-30,半年度报告,-617191.38,2018,6,-2.234184701272916,False,-0.7000261614819776,True,3.8686452868629906,False,盈利变化,18975844.163333334,未知,18975844.163333334
19,600207,-23125088.04,-26178320.180000003,2018-09-30,三季度报告,-28027392.750000004,2018,9,-5.016312873988037,False,1.1233245236661495,True,1.703035200571768,False,前期平均,-41564621.44999999,未知,-41564621.44999999
20,600207,-327864489.59000003,-332575958.29,2018-12-31,年度报告,-315266670.47,2018,12,0.26243483179612265,True,0.2934031276093876,True,0.0,True,比例外推,-332575958.29,未知,-332575958.29
21,600207,-24291291.270000003,-25999988.56,2019-03-31,一季度报告,-27238713.28,2019,3,-2.724765895871183,False,-0.2519988362363628,True,4.778755838252151,False,前期平均,-14623693.865,未知,-14623693.865
22,600207,23828353.9,20415623.26,2019-06-30,半年度报告,-33931086.0,2019,6,4.927494902183902,False,-1.5725888808087674,True,4.058847408586256,False,前期平均,30910706.924999997,未知,30910706.924999997
23,600207,31705040.85,27051940.5,2019-09-30,三季度报告,-39577208.6,2019,9,-1.7135083054152989,False,41.19024126435845,False,1.9270200937073931,False,盈利变化,-337709209.7788889,未知,-337709209.7788889
24,600207,26139285.710000005,19887043.96,2019-12-31,年度报告,-69231065.38000001,2019,12,-1.0503254939277915,False,24.688755216725998,False,0.0,True,前期平均,19887043.96,未知,19887043.96
25,600207,21711879.66,20297233.87,2020-03-31,一季度报告,19817415.969999995,2020,3,-1.6792534080054276,False,-0.8180647533236646,True,4.627089045822312,False,盈利变化,82628549.62666667,未知,82628549.62666667
