,SECURITYCODE_x,NETPROFIT_x,PARENTNETPROFIT_x,REPORTDATE_x,REPORTTIMETYPE_x,KCFJCXSYJLR,Year,Month,managesituationChangeRate,managesituationGreatChange,historyprofitextroplaterate,ifhistoryprofitextroplate,IfprofitdisStableChangeRage,IfprofitdisStable,predicttype,predict,analyst_prediction,adj_prediction
0,600266,1456121080.62,1321567636.67,2013-12-31,年度报告,1255349567.5100002,2013,12,未知,未知,未知,未知,未知,未知,未知,未知,未知,未知
1,600266,324906600.84999985,254899000.78000003,2014-03-31,一季度报告,177450310.01,2014,3,未知,未知,未知,未知,未知,未知,未知,未知,未知,未知
2,600266,348649818.41,260449274.47,2014-06-30,半年度报告,190897073.82,2014,6,未知,未知,未知,未知,未知,未知,未知,未知,未知,未知
3,600266,847532141.3000001,763889150.6999999,2014-09-30,三季度报告,681484061.8399997,2014,9,未知,未知,未知,未知,未知,未知,未知,未知,未知,未知
4,600266,1499542175.4,1372788811.44,2014-12-31,年度报告,1139606785.01,2014,12,0.0,True,未知,未知,未知,未知,未知,未知,未知,未知
5,600266,220981416.94000003,229993943.48,2015-03-31,一季度报告,225534614.01,2015,3,3.4816605043128983,False,未知,未知,未知,未知,未知,未知,1727000000.0,未知
6,600266,313530814.32,291939647.12,2015-06-30,半年度报告,286792261.19,2015,6,3.176457303952048,False,未知,未知,未知,未知,未知,未知,1634500000.0,未知
7,600266,808356064.66,791363699.3,2015-09-30,三季度报告,785135139.7699999,2015,9,0.7180718106885084,False,未知,未知,未知,未知,未知,未知,1594510000.0,未知
8,600266,1483596553.7399998,1429031990.9,2015-12-31,年度报告,1374902354.3,2015,12,-0.028956234437632747,True,未知,未知,未知,未知,未知,未知,2160000000.0,未知
9,600266,169151475.23000005,173506106.46,2016-03-31,一季度报告,172753204.07999998,2016,3,5.5893372428477095,False,未知,未知,未知,未知,未知,未知,1638300000.0,未知
10,600266,445344312.3899999,434867077.0,2016-06-30,半年度报告,439418982.23000014,2016,6,3.6442678490090428,False,未知,未知,未知,未知,未知,未知,1645469667.0,未知
11,600266,727647848.3100001,684734273.96,2016-09-30,三季度报告,684825185.5800003,2016,9,0.8013362480708972,False,未知,未知,未知,未知,未知,未知,1508500000.0,未知
12,600266,1630737884.59,1443561365.88,2016-12-31,年度报告,1437923973.54,2016,12,-0.01851950454504423,True,0.003900935411541193,True,0.0,True,比例外推,1443561365.88,1777000000.0,1777000000.0
13,600266,87916493.92999999,102998793.24,2017-03-31,一季度报告,102140163.68999998,2017,3,7.608385345975084,False,0.3802704228064896,True,0.02648909426028656,True,前期平均,1158760900.885,1731538000.0,1731538000.0
14,600266,286633219.05999994,264266782.35000005,2017-06-30,半年度报告,262969409.93,2017,6,2.269652356859642,False,0.34508407639154337,True,0.07836097438355275,True,前期平均,1282676684.5,1759704000.0,1759704000.0
15,600266,527489994.37,482213248.5700002,2017-09-30,三季度报告,479564360.73,2017,9,1.0011343179285375,False,0.12113892025923728,True,0.07217596843377172,True,前期平均,1006158217.4200003,1646940000.0,1646940000.0
16,600266,527489994.37,482213248.5700002,2017-09-30,三季度报告,479564360.73,2017,9,1.0011343179285375,False,0.12113892025923728,True,0.07217596843377172,True,前期平均,1006158217.4200003,1646940000.0,1646940000.0
17,600266,527489994.37,527489994.37,2017-09-30,三季度报告,479564360.73,2017,9,1.0011343179285375,False,0.12113892025923728,True,0.07217596843377172,True,前期平均,1051434963.2200001,1646940000.0,1646940000.0
18,600266,527489994.37,527489994.37,2017-09-30,三季度报告,479564360.73,2017,9,1.0011343179285375,False,0.12113892025923728,True,0.07217596843377172,True,前期平均,1051434963.2200001,1646940000.0,1646940000.0
19,600266,1572735218.06,1456107797.1,2017-12-31,年度报告,1380227569.9399998,2017,12,-0.10707840028742704,True,0.09330341808147853,True,0.0,True,比例外推,1456107797.1,1639263333.0,1639263333.0
20,600266,112994522.54,114580240.58,2018-03-31,一季度报告,106600790.0,2018,3,15.562547202796534,False,0.549299760699539,True,0.04539090497025193,True,前期平均,1321849495.455,1710000000.0,1710000000.0
21,600266,356014798.83,362885553.6,2018-06-30,半年度报告,339465565.73000014,2018,6,4.0800848743047995,False,0.24458396652777553,True,0.07068938367628011,True,前期平均,1406193095.81,1767666667.0,1767666667.0
22,600266,645988212.9799999,670721608.4400003,2018-09-30,三季度报告,646169120.9000001,2018,9,1.7604714708552849,False,0.31316581954527545,True,0.11746712357722622,False,前期平均,1342154609.6850002,1767666667.0,1767666667.0
23,600266,1352608865.74,1230080020.47,2018-12-31,年度报告,1149999853.2400002,2018,12,-0.07414734285905157,True,0.009997641039058099,True,0.0,True,比例外推,1230080020.47,,1230080020.47
24,600266,1190335492.24,1197541931.33,2019-03-31,一季度报告,-141151936.68999997,2019,3,11.886651918056769,False,0.12089769169435644,True,0.024527552294262317,True,前期平均,2469171019.185,1537000000.0,1537000000.0
25,600266,1333076527.47,1189404320.6899998,2019-06-30,半年度报告,-44447616.37000001,2019,6,3.090057731884651,False,0.027252112165907998,True,0.07324262543839682,True,前期平均,2247285896.3499994,1475000000.0,1475000000.0
26,600266,1961662903.4,1797318177.3900003,2019-09-30,三季度报告,1096405420.6,2019,9,1.2540985289852062,False,0.029350229136061355,True,0.11441323571573392,False,前期平均,2624199175.9750004,1994584000.0,1994584000.0
27,600266,2222462632.3900003,2087757861.49,2019-12-31,年度报告,1407444324.49,2019,12,0.07652782522859576,True,0.1555359933435462,True,0.0,True,比例外推,2087757861.49,,2087757861.49
28,600266,-713690210.6,-694228996.6599997,2020-03-31,一季度报告,-332694889.23000014,2020,3,0.22328628366767306,True,10.84938002060968,False,0.1224259428971809,False,未知,未知,2402000000.0,未知
