,SECURITYCODE_x,NETPROFIT_x,PARENTNETPROFIT_x,REPORTDATE_x,REPORTTIMETYPE_x,KCFJCXSYJLR,Year,Month,managesituationChangeRate,managesituationGreatChange,historyprofitextroplaterate,ifhistoryprofitextroplate,IfprofitdisStableChangeRage,IfprofitdisStable,predicttype,predict,analyst_prediction,adj_prediction
0,600280,572361634.13,570285668.2900001,2013-12-31,年度报告,559336506.1800001,2013,12,未知,未知,未知,未知,未知,未知,未知,未知,未知,未知
1,600280,99249354.36,98830949.54,2014-03-31,一季度报告,98756313.44,2014,3,未知,未知,未知,未知,未知,未知,未知,未知,未知,未知
2,600280,326302350.78,324097399.28,2014-06-30,半年度报告,232691303.35,2014,6,未知,未知,未知,未知,未知,未知,未知,未知,未知,未知
3,600280,497126008.72,494475519.81,2014-09-30,三季度报告,404697202.84,2014,9,未知,未知,未知,未知,未知,未知,未知,未知,未知,未知
4,600280,408703057.53,407581325.63,2014-12-31,年度报告,321518881.82000005,2014,12,0.0,True,未知,未知,未知,未知,未知,未知,未知,未知
5,600280,94058313.91000004,93455611.52,2015-03-31,一季度报告,93502965.27000004,2015,3,4.766905364985187,False,未知,未知,未知,未知,未知,未知,513592126.99999994,未知
6,600280,166426287.60999998,165364244.84,2015-06-30,半年度报告,161399900.29999998,2015,6,0.7540836980236727,False,未知,未知,未知,未知,未知,未知,592565000.0,未知
7,600280,173673840.37000003,172321247.1,2015-09-30,三季度报告,163812528.77999997,2015,9,0.15134115715191937,True,未知,未知,未知,未知,未知,未知,212500000.0,未知
8,600280,115002675.28999996,112835755.36,2015-12-31,年度报告,64062118.38,2015,12,0.4004339424056964,True,未知,未知,未知,未知,未知,未知,1131800000.0,未知
9,600280,43864692.91,42062933.18999999,2016-03-31,一季度报告,49038306.62000002,2016,3,5.085178548678491,False,未知,未知,未知,未知,未知,未知,未知,未知
10,600280,76652739.05999999,74358620.09,2016-06-30,半年度报告,87184310.32000002,2016,6,2.4391299736929826,False,未知,未知,未知,未知,未知,未知,85690000.0,未知
11,600280,82762762.47,80113022.66000001,2016-09-30,三季度报告,103173464.39,2016,9,2.295612240223533,False,未知,未知,未知,未知,未知,未知,,未知
12,600280,120447623.95999998,118307526.78,2016-12-31,年度报告,131169817.94,2016,12,3.976941907539864,False,0.7655553680248937,True,0.0,True,前期平均,118307526.78,,118307526.78
13,600280,47037998.15,46447058.56,2017-03-31,一季度报告,55072533.94,2017,3,12.048344720077058,False,0.5461670682537794,True,0.7460417351297636,False,前期平均,143107919.305,未知,143107919.305
14,600280,243981293.92000005,242791317.57,2017-06-30,半年度报告,260842055.35,2017,6,6.466943010111922,False,0.6888642831459351,True,1.2168211833909688,False,前期平均,238536215.84500003,417360000.0,417360000.0
15,600280,274060113.21,272460886.5,2017-09-30,三季度报告,308166455.43000007,2017,9,5.9156903062228094,False,0.7532415590663144,True,1.0229697781997258,False,前期平均,180996520.79000005,419526667.0,419526667.0
16,600280,241777713.83,238933074.03000003,2017-12-31,年度报告,258298775.52,2017,12,3.7519545451563103,False,0.5400179283452741,True,0.0,True,前期平均,238933074.03000003,426747500.0,426747500.0
17,600280,40324644.68000001,39748594.040000014,2018-03-31,一季度报告,47192466.52999999,2018,3,11.168069574406411,False,0.31790932876937433,True,0.7773560816685804,False,前期平均,66093926.25499999,276570000.0,276570000.0
18,600280,71017764.80000001,70090791.01,2018-06-30,半年度报告,76917285.74000001,2018,6,1.3459242507242124,False,1.0074236536352845,True,1.1214474787426905,False,前期平均,43414653.86,,43414653.86
19,600280,73450112.26,73644292.14000002,2018-09-30,三季度报告,86594603.52000001,2018,9,1.088452885120955,False,1.1374492578268625,True,1.0448505465591362,False,前期平均,37767263.71500003,未知,37767263.71500003
20,600280,-346999150.73,-340370184.26000005,2018-12-31,年度报告,-320436005.98,2018,12,1.3673051790556752,False,1.0537473479554311,True,0.0,True,盈利变化,46021480.19666669,494393333.0,494393333.0
21,600280,1700740.39,4663666.1499999985,2019-03-31,一季度报告,6912607.030000001,2019,3,13.193841971132773,False,0.11279535930605472,True,0.29387256418845625,False,前期平均,147342542.6,未知,147342542.6
22,600280,2758003.82,6508646.650000001,2019-06-30,半年度报告,27081758.70000001,2019,6,7.059414932895774,False,0.5570166763649207,True,0.7181975517655861,False,前期平均,27229760.544999998,未知,27229760.544999998
23,600280,-60385169.24999999,-56976243.57999999,2019-09-30,三季度报告,-37566310.23,2019,9,6.792522251074909,False,0.5883105189372986,True,0.8400353078361127,False,盈利变化,-395552812.59333336,未知,-395552812.59333336
24,600280,-595810342.21,-588331102.86,2019-12-31,年度报告,-543954422.62,2019,12,-2.649461195872939,False,2.915929751613194,False,0.0,True,去年同期,-588331102.86,未知,-588331102.86
25,600280,-54749819.80999999,-53383497.84,2020-03-31,一季度报告,-53711464.3,2020,3,335.5367445233661,False,0.9610648136341413,True,0.19546963443872223,False,盈利变化,-669163197.9666667,未知,-669163197.9666667
