,SECURITYCODE_x,NETPROFIT_x,PARENTNETPROFIT_x,REPORTDATE_x,REPORTTIMETYPE_x,KCFJCXSYJLR,Year,Month,managesituationChangeRate,managesituationGreatChange,historyprofitextroplaterate,ifhistoryprofitextroplate,IfprofitdisStableChangeRage,IfprofitdisStable,predicttype,predict,analyst_prediction,adj_prediction
0,600278,152655151.82999998,123144943.84,2013-12-31,年度报告,71584784.46000001,2013,12,未知,未知,未知,未知,未知,未知,未知,未知,未知,未知
1,600278,31224429.35,23848506.99,2014-03-31,一季度报告,25251242.19,2014,3,未知,未知,未知,未知,未知,未知,未知,未知,未知,未知
2,600278,72737945.97,55891050.04999999,2014-06-30,半年度报告,54079812.22,2014,6,未知,未知,未知,未知,未知,未知,未知,未知,未知,未知
3,600278,122058396.35999995,95505341.31,2014-09-30,三季度报告,70507655.49,2014,9,未知,未知,未知,未知,未知,未知,未知,未知,未知,未知
4,600278,167936889.49,134951884.95000002,2014-12-31,年度报告,69818625.74000001,2014,12,0.0,True,未知,未知,未知,未知,未知,未知,未知,未知
5,600278,55152356.17999999,47589263.63999999,2015-03-31,一季度报告,15290198.18,2015,3,3.8889653072234602,False,未知,未知,未知,未知,未知,未知,未知,未知
6,600278,102298705.4,87816604.21000002,2015-06-30,半年度报告,20605597.28,2015,6,1.0987003385132843,False,未知,未知,未知,未知,未知,未知,未知,未知
7,600278,126470542.54,104727626.94,2015-09-30,三季度报告,39591821.97,2015,9,0.2506730907700747,True,未知,未知,未知,未知,未知,未知,未知,未知
8,600278,180205048.88,147352175.89,2015-12-31,年度报告,35917507.230000004,2015,12,-0.0909969078646654,True,未知,未知,未知,未知,未知,未知,未知,未知
9,600278,43223804.01999999,37049916.02,2016-03-31,一季度报告,37751136.88999999,2016,3,1.7678808740606013,False,未知,未知,未知,未知,未知,未知,未知,未知
10,600278,87317964.58,74030257.62,2016-06-30,半年度报告,38339506.58,2016,6,0.49224910748479495,True,未知,未知,未知,未知,未知,未知,未知,未知
11,600278,126539826.53,104254049.48000002,2016-09-30,三季度报告,59818824.88000001,2016,9,0.20704117151801044,True,未知,未知,未知,未知,未知,未知,未知,未知
12,600278,175700893.17,149334668.41,2016-12-31,年度报告,55272078.13,2016,12,-0.15288082781934545,True,0.12420163730844296,True,0.0,True,比例外推,149334668.41,未知,149334668.41
13,600278,51843539.66,43220503.47,2017-03-31,一季度报告,8660661.56,2017,3,2.531738015454754,False,0.0008199252792913648,True,0.19287959271359234,False,前期平均,75817849.77000001,未知,75817849.77000001
14,600278,97014593.84000002,79825351.87,2017-06-30,半年度报告,33356918.56,2017,6,0.7482674105411447,False,0.002289361724322208,True,0.10694721901438842,False,前期平均,95350713.60500002,未知,95350713.60500002
15,600278,126560475.07999998,105599358.23000002,2017-09-30,三季度报告,35979805.2,2017,9,0.20638028371098308,True,0.018310600689568336,True,0.0549407311218022,True,比例外推,103409449.1189366,未知,103409449.1189366
16,600278,202591677.56,173442386.23999998,2017-12-31,年度报告,28039201.329999994,2017,12,-0.13116462258220862,True,0.0093635601193656,True,0.0,True,比例外推,173442386.23999998,未知,173442386.23999998
17,600278,60631552.29,50562197.43999999,2018-03-31,一季度报告,16594114.91,2018,3,1.9445356708114863,False,0.05398583466972932,True,0.21047700569170086,False,前期平均,69636322.585,未知,69636322.585
18,600278,89040713.75000003,71690232.63999999,2018-06-30,半年度报告,38150747.54000001,2018,6,0.5735277115293024,False,0.023270726674323686,True,0.3706543549793766,False,前期平均,87812473.38999999,未知,87812473.38999999
19,600278,137491209.99,103986126.64000005,2018-09-30,三季度报告,67523503.49999999,2018,9,0.20618346078035285,True,0.00043706149438238825,True,0.12727770478111555,False,平均增速,92473110.23923813,未知,92473110.23923813
20,600278,195846498.52000004,153992133.98999998,2018-12-31,年度报告,78613674.83000001,2018,12,-0.2464885346300107,True,0.13845628085376907,True,0.0,True,比例外推,153992133.98999998,未知,153992133.98999998
21,600278,131257305.75,100010878.11,2019-03-31,一季度报告,15736873.47,2019,3,1.5177510069320377,False,0.2755495198033078,True,0.2820166327614602,False,前期平均,118460618.61500001,未知,118460618.61500001
22,600278,105351558.13,61817286.56,2019-06-30,半年度报告,61538949.72000001,2019,6,0.7144421400148528,False,0.033912245202807924,True,0.400120442499988,False,前期平均,67624713.72,未知,67624713.72
23,600278,154654447.27000004,94274999.09,2019-09-30,三季度报告,84452962.10000001,2019,9,0.11029026394562151,True,0.08645631092023745,True,0.2158670870229804,False,平均增速,110390235.3156336,未知,110390235.3156336
24,600278,187322600.99,112638396.63000004,2019-12-31,年度报告,99518980.80999996,2019,12,-0.22053673165665158,True,0.03542344562606912,True,0.0,True,比例外推,112638396.63000004,未知,112638396.63000004
25,600278,18750661.92,5317964.8500000015,2020-03-31,一季度报告,13508305.11,2020,3,0.16302213395081808,True,1.3339799679087974,True,0.0828467001723934,True,比例外推,51572935.50668265,未知,51572935.50668265
