,SECURITYCODE_x,NETPROFIT_x,PARENTNETPROFIT_x,REPORTDATE_x,REPORTTIMETYPE_x,KCFJCXSYJLR,Year,Month,managesituationChangeRate,managesituationGreatChange,historyprofitextroplaterate,ifhistoryprofitextroplate,IfprofitdisStableChangeRage,IfprofitdisStable,predicttype,predict,analyst_prediction,adj_prediction
0,600219,905990590.43,793626274.34,2013-12-31,年度报告,780819787.93,2013,12,未知,未知,未知,未知,未知,未知,未知,未知,未知,未知
1,600219,96958557.87,89173173.10000001,2014-03-31,一季度报告,91660980.21,2014,3,未知,未知,未知,未知,未知,未知,未知,未知,未知,未知
2,600219,350091457.41,323368056.32000005,2014-06-30,半年度报告,320971045.6,2014,6,未知,未知,未知,未知,未知,未知,未知,未知,未知,未知
3,600219,628379637.96,566846300.68,2014-09-30,三季度报告,561762045.9100001,2014,9,未知,未知,未知,未知,未知,未知,未知,未知,未知,未知
4,600219,977636763.2299998,895670629.9999998,2014-12-31,年度报告,881598270.32,2014,12,0.0,True,未知,未知,未知,未知,未知,未知,未知,未知
5,600219,115828327.39000002,101577771.53,2015-03-31,一季度报告,98585940.86000004,2015,3,8.344101339097195,False,未知,未知,未知,未知,未知,未知,1043666667.0,未知
6,600219,342366949.1800001,298323391.91,2015-06-30,半年度报告,295961469.91,2015,6,1.5878683162753495,False,未知,未知,未知,未知,未知,未知,1008500000.0,未知
7,600219,616531998.54,541442232.39,2015-09-30,三季度报告,547443781.09,2015,9,0.44178858718472896,True,未知,未知,未知,未知,未知,未知,799000000.0,未知
8,600219,1128633478.7800002,1018121303.73,2015-12-31,年度报告,555550947.56,2015,12,-0.07328506403880423,True,未知,未知,未知,未知,未知,未知,1058250000.0,未知
9,600219,239126203.56,216599345.37000003,2016-03-31,一季度报告,65948433.36,2016,3,6.821839534809843,False,未知,未知,未知,未知,未知,未知,1226030000.0,未知
10,600219,598993290.84,563000009.17,2016-06-30,半年度报告,209005916.00000003,2016,6,1.646255991122769,False,未知,未知,未知,未知,未知,未知,800848693.0,未知
11,600219,1052208586.83,995343733.51,2016-09-30,三季度报告,432950823.66000015,2016,9,0.46949483980630763,True,未知,未知,未知,未知,未知,未知,1124495659.0,未知
12,600219,1344348332.86,1312727874.34,2016-12-31,年度报告,528665487.81,2016,12,-0.19726766265224274,True,0.19836174239771823,True,0.0,True,比例外推,1312727874.34,1113331700.0,1113331700.0
13,600219,295688366.23,286527445.77,2017-03-31,一季度报告,275733877.2,2017,3,2.7887549626181998,False,1.2475652413241212,True,0.04206528420420211,True,前期平均,909978594.175,1793864444.0,1793864444.0
14,600219,782459873.2000003,741537817.7700001,2017-06-30,半年度报告,729490289.9399999,2017,6,0.5125221004720792,False,0.7300484336372851,True,0.10201510132958741,False,前期平均,1151646168.9550002,1822349630.0,1822349630.0
15,600219,1383201735.5900002,1321348550.3200002,2017-09-30,三季度报告,1290605129.0,2017,9,-0.13896293779592941,True,0.6904148952904419,True,0.17664669831823565,False,平均增速,1501858531.2126186,1993857143.0,1993857143.0
16,600219,1720334294.9400005,1611355062.5399995,2017-12-31,年度报告,1598581360.31,2017,12,-0.32607452377868973,True,0.2765202736540559,True,0.0,True,比例外推,1611355062.5399995,1993857143.0,1993857143.0
17,600219,334853644.50000006,297430608.83000004,2018-03-31,一季度报告,267678696.17,2018,3,2.0640048574832286,False,0.6660633430350636,True,0.033484185985047085,True,前期平均,757271639.405,2053466667.0,2053466667.0
18,600219,869315256.4999999,821081224.3100003,2018-06-30,半年度报告,798558101.4499999,2018,6,0.15787482714583198,True,0.6624026380875744,True,0.07126261387301164,True,比例外推,1752979838.6964033,2061000000.0,2061000000.0
19,600219,1482317791.79,1396218385.5500002,2018-09-30,三季度报告,1364469103.4199998,2018,9,-0.34500473277417293,True,0.6577792231059222,True,0.11483983361751693,False,平均增速,1865102565.369612,1959413639.0,1865102565.369612
20,600219,1522515165.27,1437977104.6799998,2018-12-31,年度报告,1371952885.38,2018,12,-0.47336364037223483,True,0.3913036374490205,True,0.0,True,比例外推,1437977104.6799998,1957229424.0,1957229424.0
21,600219,275726343.11999995,253713940.51,2019-03-31,一季度报告,205889213.21000007,2019,3,1.7056315656435979,False,0.2522233439955964,True,0.0393680610134977,True,前期平均,1146496209.29,1733986250.0,1733986250.0
22,600219,821245057.37,767513918.6899999,2019-06-30,半年度报告,660798983.78,2019,6,0.04218876139096044,True,0.2585519062517107,True,0.10414551785445747,False,平均增速,1561238068.6568089,1660006667.0,1561238068.6568089
23,600219,1365725155.7100005,1262989746.09,2019-09-30,三季度报告,1114739832.2400002,2019,9,-0.38880137886225163,True,0.217304351668397,True,0.12093195481229391,False,平均增速,1273309863.5830677,1650000000.0,1650000000.0
24,600219,1736280868.2599998,1622717123.0300002,2019-12-31,年度报告,1447555202.44,2019,12,-0.40493821598858537,True,0.0064125064963440415,True,0.0,True,比例外推,1622717123.0300002,2366166667.0,2366166667.0
25,600219,320314850.62,293436776.06000006,2020-03-31,一季度报告,271628995.4,2020,3,2.2858325402578608,False,0.12543069794578116,True,0.027709883539344088,True,前期平均,1506997612.2200003,1605222222.0,1506997612.2200003
