,SECURITYCODE_x,NETPROFIT_x,PARENTNETPROFIT_x,REPORTDATE_x,REPORTTIMETYPE_x,KCFJCXSYJLR,Year,Month,managesituationChangeRate,managesituationGreatChange,historyprofitextroplaterate,ifhistoryprofitextroplate,IfprofitdisStableChangeRage,IfprofitdisStable,predicttype,predict,analyst_prediction,adj_prediction
0,600260,93270729.61999996,78606520.57999998,2013-12-31,年度报告,72756098.55000001,2013,12,未知,未知,未知,未知,未知,未知,未知,未知,未知,未知
1,600260,64739746.3,62278245.63999999,2014-03-31,一季度报告,42562397.67000001,2014,3,未知,未知,未知,未知,未知,未知,未知,未知,未知,未知
2,600260,86253043.66000001,79611176.15,2014-06-30,半年度报告,57958534.51000002,2014,6,未知,未知,未知,未知,未知,未知,未知,未知,未知,未知
3,600260,96018235.07,90890884.48,2014-09-30,三季度报告,45610063.71999999,2014,9,未知,未知,未知,未知,未知,未知,未知,未知,未知,未知
4,600260,51318838.53,47516541.95000001,2014-12-31,年度报告,-9299505.420000002,2014,12,0.0,True,未知,未知,未知,未知,未知,未知,未知,未知
5,600260,33642038.599999994,33775610.47,2015-03-31,一季度报告,33783166.39,2015,3,0.4407027359636095,True,未知,未知,未知,未知,未知,未知,133000000.0,未知
6,600260,71618632.68999998,71985320.38,2015-06-30,半年度报告,65913033.99000002,2015,6,0.08136160374424459,True,未知,未知,未知,未知,未知,未知,211000000.0,未知
7,600260,113064374.82,112578648.7,2015-09-30,三季度报告,103549013.53,2015,9,-0.02861441316846768,True,未知,未知,未知,未知,未知,未知,未知,未知
8,600260,119990691.84999998,119612655.51,2015-12-31,年度报告,79415672.51,2015,12,0.8174754591430532,False,未知,未知,未知,未知,未知,未知,207930000.0,未知
9,600260,44207755.94,36756301.73,2016-03-31,一季度报告,35813531.70999999,2016,3,1.7724458297244798,False,未知,未知,未知,未知,未知,未知,315135000.0,未知
10,600260,84635344.02,76671672.82,2016-06-30,半年度报告,70034851.68,2016,6,0.3023249134582156,True,未知,未知,未知,未知,未知,未知,322090000.0,未知
11,600260,133366705.96000002,112883814.25,2016-09-30,三季度报告,105266373.38,2016,9,-0.1750652690691633,True,未知,未知,未知,未知,未知,未知,238800000.0,未知
12,600260,246158956.19000003,182229578.59,2016-12-31,年度报告,172885937.7,2016,12,-0.22268362502153558,True,0.6597420323645942,True,0.0,True,比例外推,182229578.59,342950000.0,342950000.0
13,600260,76656954.9,77294325.2,2017-03-31,一季度报告,75356288.53,2017,3,1.1098272833977278,False,0.10130201469845458,True,3.262079509841856,False,前期平均,74179626.715,382170000.0,382170000.0
14,600260,372621507.52000016,346299791.17,2017-06-30,半年度报告,330112697.32,2017,6,0.10203048974385164,True,0.07220428612367742,True,4.56664393943876,False,平均增速,915679459.1413295,795580000.0,795580000.0
15,600260,561374930.86,519661211.99,2017-09-30,三季度报告,502359634.05,2017,9,-0.3006445728068431,True,0.2757321714145935,True,3.9073004929978783,False,平均增速,895985900.0660431,801932500.0,801932500.0
16,600260,10843520.45,10843520.45,2017-12-31,年度报告,680062296.14,2017,12,-0.6210955267944502,True,1.8738501079766958,True,0.0,True,比例外推,10843520.45,413800000.0,413800000.0
17,600260,10843520.45,10843520.45,2017-12-31,年度报告,680062296.14,2017,12,-0.6210955267944502,True,1.8738501079766958,True,0.0,True,比例外推,10843520.45,413800000.0,413800000.0
18,600260,806428016.89,739582918.8199999,2017-12-31,年度报告,680062296.14,2017,12,-0.6210955267944502,True,1.8738501079766958,True,0.0,True,比例外推,739582918.8199999,413800000.0,413800000.0
19,600260,806428016.89,739582918.8199999,2017-12-31,年度报告,680062296.14,2017,12,-0.6210955267944502,True,1.8738501079766958,True,0.0,True,比例外推,739582918.8199999,413800000.0,413800000.0
20,600260,322359288.30999994,303467056.71000016,2018-03-31,一季度报告,286730391.54,2018,3,0.21672886356721108,True,0.9693553554752905,True,0.17761143386290687,False,平均增速,2377692849.39146,1267962000.0,1267962000.0
21,600260,644501567.9299997,614997470.6700003,2018-06-30,半年度报告,597183164.4200001,2018,6,-0.7496904291951164,True,3.7694339096606564,False,0.2564806949905437,False,未知,未知,1288503333.0,未知
22,600260,859331537.7499999,842973544.4099996,2018-09-30,三季度报告,823663244.6899997,2018,9,-0.8338530552529063,True,3.556040001798023,False,0.42006622288516315,False,未知,未知,1232035000.0,未知
23,600260,915547247.25,904731513.7100002,2018-12-31,年度报告,835624464.3099997,2018,12,7.601517380824413,False,0.9407700075199014,True,0.0,True,前期平均,904731513.7100002,1194356667.0,1194356667.0
24,600260,357102672.36999995,360379464.75,2019-03-31,一季度报告,330169605.15999985,2019,3,-0.7106621927694999,True,4.3342168457547094,False,0.1227690052913345,False,未知,未知,1377500000.0,未知
25,600260,653759082.6700003,665706413.75,2019-06-30,半年度报告,603802412.6899999,2019,6,-0.8552823852398599,True,1.818991408261576,True,0.17960057136721785,False,平均增速,1093977067.564865,,1093977067.564865
26,600260,952082481.0,967886081.74,2019-09-30,三季度报告,871855189.8599999,2019,9,-0.8914612980873341,True,1.4738161417339761,True,0.2079325653871107,False,平均增速,989653572.4832803,1086260000.0,989653572.4832803
27,600260,860562189.1600001,873634371.32,2019-12-31,年度报告,801594514.1700001,2019,12,-0.8981257058003786,True,6.124812641649879,False,0.0,True,比例外推,873634371.32,1086260000.0,1086260000.0
28,600260,169390809.71999997,175196137.95,2020-03-31,一季度报告,178512561.67,2020,3,-0.7388125689427476,True,0.7899154655819808,True,0.17780276106833737,False,平均增速,560510751.8396184,未知,560510751.8396184
