,SECURITYCODE_x,NETPROFIT_x,PARENTNETPROFIT_x,REPORTDATE_x,REPORTTIMETYPE_x,KCFJCXSYJLR,Year,Month,managesituationChangeRate,managesituationGreatChange,historyprofitextroplaterate,ifhistoryprofitextroplate,IfprofitdisStableChangeRage,IfprofitdisStable,predicttype,predict,analyst_prediction,adj_prediction
0,600297,53632158.0,52738771.81,2013-12-31,年度报告,1585374833.1,2013,12,未知,未知,未知,未知,未知,未知,未知,未知,未知,未知
1,600297,3056898.3199999994,3171657.4000000013,2014-03-31,一季度报告,476001.51,2014,3,未知,未知,未知,未知,未知,未知,未知,未知,未知,未知
2,600297,1161207267.6999998,1051226399.48,2014-06-30,半年度报告,864151074.8499999,2014,6,未知,未知,未知,未知,未知,未知,未知,未知,未知,未知
3,600297,1521618857.6099994,1372628785.689999,2014-09-30,三季度报告,1199689472.31,2014,9,未知,未知,未知,未知,未知,未知,未知,未知,未知,未知
4,600297,1795216069.5800004,1603328546.4700005,2014-12-31,年度报告,1399214619.8400002,2014,12,0.0,True,未知,未知,未知,未知,未知,未知,未知,未知
5,600297,510290577.8,450409025.93,2015-03-31,一季度报告,459953779.72,2015,3,16.544632626184313,False,未知,未知,未知,未知,未知,未知,,未知
6,600297,998006686.26,903934977.2,2015-06-30,半年度报告,896792610.2900002,2015,6,-0.9538134495952397,True,未知,未知,未知,未知,未知,未知,2933550000.0,未知
7,600297,1354302856.2300005,1244524078.28,2015-09-30,三季度报告,1251210431.4700005,2015,9,-0.9647532246779329,True,未知,未知,未知,未知,未知,未知,1751000000.0,未知
8,600297,2118472777.9100003,1988341217.32,2015-12-31,年度报告,1877523018.62,2015,12,-0.9701249565950312,True,未知,未知,未知,未知,未知,未知,1848000000.0,未知
9,600297,773528145.26,736018074.7399999,2016-03-31,一季度报告,685473409.8200003,2016,3,-0.8948987883898961,True,未知,未知,未知,未知,未知,未知,2889000000.0,未知
10,600297,1463960760.3200002,1380052631.9399998,2016-06-30,半年度报告,1264084018.71,2016,6,-0.9462607227603005,True,未知,未知,未知,未知,未知,未知,3009662472.0,未知
11,600297,2157726333.0,2003808566.12,2016-09-30,三季度报告,1876745941.65,2016,9,-0.9603986968252457,True,未知,未知,未知,未知,未知,未知,2984000000.0,未知
12,600297,3042977348.41,2802902398.8900003,2016-12-31,年度报告,2615974359.6199994,2016,12,-0.9746835746207174,True,1.2916675866714247,True,0.0,True,比例外推,2802902398.8900003,2993333333.0,2802902398.8900003
13,600297,1100131070.71,970664489.87,2017-03-31,一季度报告,965117992.6599998,2017,3,-0.9306655377329897,True,2.0136629914166764,False,0.16877744690032248,False,未知,未知,3806391666.0,未知
14,600297,2311788870.3700004,2004920095.88,2017-06-30,半年度报告,2100644497.34,2017,6,-0.9633650303657888,True,0.356012689372533,True,0.09144350482073593,True,比例外推,3896729500.590498,4088182726.9999995,3896729500.590498
15,600297,3383377743.88,2910822193.48,2017-09-30,三季度报告,3092081599.85,2017,9,-0.975144133350112,True,0.5005459450556126,True,0.11032367648427999,False,平均增速,4025265238.13085,4151716667.0,4025265238.13085
16,600297,4511110960.360001,3890311489.059999,2017-12-31,年度报告,3641332367.960001,2017,12,-0.9823751044259256,True,0.5550430639684493,True,0.0,True,比例外推,3890311489.059999,4127522857.0,3890311489.059999
17,600297,1335214528.1500006,1118516894.06,2018-03-31,一季度报告,1081584751.1,2018,3,-0.9512493016260444,True,0.713841761222834,True,0.012373635148776901,True,比例外推,4239665866.450681,4789755455.0,4789755455.0
18,600297,2493395808.42,2109576693.58,2018-06-30,半年度报告,1847892613.0,2018,6,-0.9768005812782479,True,0.8780011681969089,True,0.06430466744925312,True,比例外推,3866735163.544253,4399225714.0,4399225714.0
19,600297,3707630523.0,3153460475.8300004,2018-09-30,三季度报告,2799987406.6,2018,9,-0.9841483387135793,True,0.9267366878700648,True,0.10483041098483858,False,平均增速,3784596470.7907104,4262740000.0,4262740000.0
20,600297,3973923153.89,3257417491.8799987,2018-12-31,年度报告,2916332410.87,2018,12,-0.9881110975829954,True,0.7480013755654841,True,0.0,True,比例外推,3257417491.8799987,4218348889.0,4218348889.0
21,600297,974995963.22,801313385.34,2019-03-31,一季度报告,855458780.5199999,2019,3,-0.9598325535939833,True,0.42524800323281337,True,0.0715547140809435,True,比例外推,2803892138.588796,4040625000.0,4040625000.0
22,600297,1889597110.33,1510009742.01,2019-06-30,半年度报告,1357687222.37,2019,6,-0.9784903151682182,True,0.3207421319216781,True,0.08136340312356377,True,比例外推,2557093457.046605,3435396667.0,3435396667.0
23,600297,2803655405.46,2246478201.7900004,2019-09-30,三季度报告,2014993744.18,2019,9,-0.9855346540958445,True,0.3382280756897949,True,0.12481091214211781,False,平均增速,2352123684.700129,3169041250.0,3169041250.0
24,600297,3315212570.150001,2600698424.92,2019-12-31,年度报告,2474221364.2100005,2019,12,-0.9865039770717507,True,0.0521251516947269,True,0.0,True,比例外推,2600698424.92,3045555000.0,3045555000.0
25,600297,-385718130.1900001,-397313945.27,2020-03-31,一季度报告,-396048553.20000017,2020,3,-0.9449924307144045,True,0.19929560414226113,True,0.06217655484687207,True,比例外推,-1211601925.8326,2592461538.0,2592461538.0
