,SECURITYCODE_x,NETPROFIT_x,PARENTNETPROFIT_x,REPORTDATE_x,REPORTTIMETYPE_x,KCFJCXSYJLR,Year,Month,managesituationChangeRate,managesituationGreatChange,historyprofitextroplaterate,ifhistoryprofitextroplate,IfprofitdisStableChangeRage,IfprofitdisStable,predicttype,predict,analyst_prediction,adj_prediction
0,600277,289993117.52,252303130.91000003,2013-12-31,年度报告,209676283.21,2013,12,未知,未知,未知,未知,未知,未知,未知,未知,未知,未知
1,600277,71345426.88000001,70019271.72000001,2014-03-31,一季度报告,18205965.16,2014,3,未知,未知,未知,未知,未知,未知,未知,未知,未知,未知
2,600277,324954642.83000004,356678427.16,2014-06-30,半年度报告,22895709.51,2014,6,未知,未知,未知,未知,未知,未知,未知,未知,未知,未知
3,600277,337399713.50000006,379536685.75,2014-09-30,三季度报告,50814074.74,2014,9,未知,未知,未知,未知,未知,未知,未知,未知,未知,未知
4,600277,231730778.35,257751776.60000005,2014-12-31,年度报告,-55014317.97,2014,12,0.0,True,未知,未知,未知,未知,未知,未知,未知,未知
5,600277,8687793.21,36796764.16,2015-03-31,一季度报告,43640721.95,2015,3,3.0646349766433687,False,未知,未知,未知,未知,未知,未知,438820000.0,未知
6,600277,77370241.38000001,100342191.51000002,2015-06-30,半年度报告,98191379.96,2015,6,-0.10758893919940136,True,未知,未知,未知,未知,未知,未知,358000000.0,未知
7,600277,89514794.46000001,105368643.06,2015-09-30,三季度报告,80355660.22,2015,9,-0.1405057386926325,True,未知,未知,未知,未知,未知,未知,269500000.0,未知
8,600277,152297182.19,130704689.09,2015-12-31,年度报告,-247492948.89,2015,12,0.2514225325821937,True,未知,未知,未知,未知,未知,未知,510924000.0,未知
9,600277,40753883.91,27005313.43,2016-03-31,一季度报告,19128291.81,2016,3,32.379376155754514,False,未知,未知,未知,未知,未知,未知,未知,未知
10,600277,180768090.71,156888471.42,2016-06-30,半年度报告,68468851.90999998,2016,6,2.748122176531847,False,未知,未知,未知,未知,未知,未知,304250000.0,未知
11,600277,254314375.3,217553491.86,2016-09-30,三季度报告,109474053.6,2016,9,2.239611052780604,False,未知,未知,未知,未知,未知,未知,366082500.0,未知
12,600277,463326753.54,308305691.72,2016-12-31,年度报告,65040677.38000001,2016,12,0.9041266118647943,False,0.41617708755303595,True,0.0,True,前期平均,308305691.72,379457500.0,379457500.0
13,600277,150600851.26000002,100794987.65999998,2017-03-31,一季度报告,42707265.62,2017,3,6.11571731814358,False,0.01842419595690154,True,0.36515243338305514,False,前期平均,-81381989.325,501000000.0,501000000.0
14,600277,310876665.93999994,215098305.73999995,2017-06-30,半年度报告,112978246.96,2017,6,0.604227363253097,False,0.1013825005383204,True,0.9727792532543295,False,前期平均,3301127.574999988,,3301127.574999988
15,600277,525452424.4,357633307.48,2017-09-30,三季度报告,259124170.57999995,2017,9,0.1402938476360678,True,0.19140657231460553,True,1.5382187176566124,False,平均增速,307667079.10733354,488222000.0,488222000.0
16,600277,750420508.39,521464877.06,2017-12-31,年度报告,435739151.94,2017,12,-0.37410668539138386,True,1.4129844758620922,True,0.0,True,比例外推,521464877.06,469000000.0,469000000.0
17,600277,750420508.39,521464877.06,2017-12-31,年度报告,435739151.94,2017,12,-0.37410668539138386,True,1.4129844758620922,True,0.0,True,比例外推,521464877.06,469000000.0,469000000.0
18,600277,736489565.6800001,525026902.35,2017-12-31,年度报告,435739151.94,2017,12,-0.37410668539138386,True,1.4129844758620922,True,0.0,True,比例外推,525026902.35,469000000.0,469000000.0
19,600277,736489565.6800001,525026902.35,2017-12-31,年度报告,435739151.94,2017,12,-0.37410668539138386,True,1.4129844758620922,True,0.0,True,比例外推,525026902.35,469000000.0,469000000.0
20,600277,291714975.44,189532712.71,2018-03-31,一季度报告,143994362.69,2018,3,0.9255742254693544,False,5.092060788895829,False,0.2482569306702816,False,去年同期,582564599.03,678735000.0,678735000.0
21,600277,654928925.9599999,436102154.7400001,2018-06-30,半年度报告,315814862.4999999,2018,6,-0.06717631365755364,True,1.4086052111905074,True,0.7476269780613419,False,平均增速,1610387389.237698,,1610387389.237698
22,600277,966600888.77,672845563.5799999,2018-09-30,三季度报告,501052811.11,2018,9,-0.44810775618528104,True,2.056473799281061,False,1.0321090211015935,False,未知,未知,673600000.0,未知
23,600277,1124923399.75,770722519.98,2018-12-31,年度报告,577456320.42,2018,12,-0.6135591787834135,True,1.437918556562164,True,0.0,True,比例外推,770722519.98,,770722519.98
24,600277,329861916.35999995,259851331.7500001,2019-03-31,一季度报告,180808802.54,2019,3,-0.005902535231188941,True,2.048944413952858,False,0.11581164982422743,False,未知,未知,,未知
25,600277,813520069.4199997,687767510.0900003,2019-06-30,半年度报告,270695140.51,2019,6,-0.557214369337977,True,1.6642363906109603,True,0.4330766181534311,False,平均增速,1324798092.9801512,797000000.0,797000000.0
26,600277,907458416.01,761596829.34,2019-09-30,三季度报告,327504636.28999984,2019,9,-0.6999867050722286,True,1.4792050370492325,True,0.6346529785377875,False,平均增速,939845960.1567636,1164000000.0,1164000000.0
27,600277,1101782854.35,899964544.7800002,2019-12-31,年度报告,262915909.19,2019,12,-0.7422107873438785,True,0.853636972101161,True,0.0,True,比例外推,899964544.7800002,,899964544.7800002
28,600277,104220528.15000002,81035140.51999998,2020-03-31,一季度报告,75552384.43000002,2020,3,-0.12086511616724054,True,0.4915221045604965,True,0.3426802741208466,False,平均增速,134738316.14537144,未知,134738316.14537144
