,SECURITYCODE_x,NETPROFIT_x,PARENTNETPROFIT_x,REPORTDATE_x,REPORTTIMETYPE_x,KCFJCXSYJLR,Year,Month,managesituationChangeRate,managesituationGreatChange,historyprofitextroplaterate,ifhistoryprofitextroplate,IfprofitdisStableChangeRage,IfprofitdisStable,predicttype,predict,analyst_prediction,adj_prediction
0,600381,7927441.799999999,32859879.91,2013-12-31,年度报告,303996469.72,2013,12,未知,未知,未知,未知,未知,未知,未知,未知,未知,未知
1,600381,95087099.57,95087099.57,2014-03-31,一季度报告,95572963.69999996,2014,3,未知,未知,未知,未知,未知,未知,未知,未知,未知,未知
2,600381,200427020.27000004,200032980.75,2014-06-30,半年度报告,180959563.69,2014,6,未知,未知,未知,未知,未知,未知,未知,未知,未知,未知
3,600381,314980927.2,314361674.7,2014-09-30,三季度报告,295464091.7,2014,9,未知,未知,未知,未知,未知,未知,未知,未知,未知,未知
4,600381,365940957.05,365221517.1299999,2014-12-31,年度报告,343545953.33,2014,12,0.0,True,未知,未知,未知,未知,未知,未知,未知,未知
5,600381,15139732.54,15109967.83,2015-03-31,一季度报告,15254170.390000002,2015,3,-0.9166296812517236,True,未知,未知,未知,未知,未知,未知,未知,未知
6,600381,60301680.36,60180206.19000001,2015-06-30,半年度报告,58727453.98,2015,6,-0.9604472401509498,True,未知,未知,未知,未知,未知,未知,未知,未知
7,600381,191533793.97,191155117.39,2015-09-30,三季度报告,157938613.65999997,2015,9,-0.9748319942084417,True,未知,未知,未知,未知,未知,未知,未知,未知
8,600381,358289500.58,357575992.44999987,2015-12-31,年度报告,322252737.28000003,2015,12,-0.9783368282580164,True,未知,未知,未知,未知,未知,未知,未知,未知
9,600381,22822309.89,22777441.23,2016-03-31,一季度报告,22606376.78,2016,3,-0.47638164815294687,True,未知,未知,未知,未知,未知,未知,未知,未知
10,600381,54389543.28,54265567.37999999,2016-06-30,半年度报告,53751782.92,2016,6,-0.868536966919109,True,未知,未知,未知,未知,未知,未知,未知,未知
11,600381,88388736.46000001,88190985.28999998,2016-09-30,三季度报告,88739296.39999999,2016,9,-0.9586107410306837,True,未知,未知,未知,未知,未知,未知,未知,未知
12,600381,245403432.48,244960927.36999995,2016-12-31,年度报告,210408391.99000004,2016,12,-0.9778742000891261,True,0.9166610587152061,True,0.0,True,比例外推,244960927.36999995,未知,244960927.36999995
13,600381,37955692.2,37878769.66,2017-03-31,一季度报告,35448015.07,2017,3,-0.652645072378342,True,0.5859028250539822,True,0.1338715436403455,False,平均增速,259816460.42174545,未知,259816460.42174545
14,600381,84777220.53,84593235.4,2017-06-30,半年度报告,80103032.53999999,2017,6,-0.8542469503891742,True,0.5827882151172596,True,0.20525885269599348,False,平均增速,263629342.6053614,未知,263629342.6053614
15,600381,189455274.86000004,189055124.05,2017-09-30,三季度报告,184450484.32,2017,9,-0.9103116288624905,True,0.6509924281930816,True,0.26940967763389667,False,平均增速,363896079.2572174,未知,363896079.2572174
16,600381,311122011.91,310542224.45,2017-12-31,年度报告,270369452.21,2017,12,-0.9676962880270793,True,0.3223056835166316,True,0.0,True,比例外推,310542224.45,未知,310542224.45
17,600381,43461073.85,43370965.5,2018-03-31,一季度报告,44354227.1,2018,3,-0.7911395803763001,True,0.9996654431851655,True,0.04795930710292672,True,比例外推,464456297.24244404,286660000.0,286660000.0
18,600381,82833401.48,82648641.30000001,2018-06-30,半年度报告,83630616.0,2018,6,-0.9064908975495991,True,0.4783558469321777,True,0.06241861525607473,True,比例外推,340843281.61187786,,340843281.61187786
19,600381,64820682.56999999,64600333.23,2018-09-30,三季度报告,65441812.47000001,2018,9,-0.9581566583149608,True,0.3536264806478446,True,0.15085902488512193,False,平均增速,121467760.37677884,未知,121467760.37677884
20,600381,68653902.96000001,68446859.43,2018-12-31,年度报告,25514035.68,2018,12,-0.9745198298528192,True,0.030729348885978017,True,0.0,True,比例外推,68446859.43,未知,68446859.43
21,600381,7859437.250000001,7848079.279999997,2019-03-31,一季度报告,630954.3300000001,2019,3,-0.8175967343245939,True,0.43015802940158804,True,1.0794330577634974,False,平均增速,1217308.483439276,未知,1217308.483439276
22,600381,2758531.65,2757962.89,2019-06-30,半年度报告,-4435393.85,2019,6,-0.9042965559984391,True,0.19041931007449217,True,2.001306361127443,False,平均增速,-15741574.852331314,未知,-15741574.852331314
23,600381,-28403009.759999994,-28403009.759999994,2019-09-30,三季度报告,-35634073.27,2019,9,-0.8777019697156206,True,0.5334023413925999,True,1.3419677555453604,False,平均增速,-31300880.022763398,未知,-31300880.022763398
24,600381,5807775.09,5807775.09,2019-12-31,年度报告,-6197533.409999997,2019,12,-0.8845303550386817,True,0.7532766788938082,True,0.0,True,比例外推,5807775.09,未知,5807775.09
25,600381,-17853349.51,-17853349.51,2020-03-31,一季度报告,-18032642.18,2020,3,0.008652597868886598,True,0.8069331998479692,True,1.1491823248810888,False,平均增速,79979139.12204188,未知,79979139.12204188
