,SECURITYCODE_x,NETPROFIT_x,PARENTNETPROFIT_x,REPORTDATE_x,REPORTTIMETYPE_x,KCFJCXSYJLR,Year,Month,managesituationChangeRate,managesituationGreatChange,historyprofitextroplaterate,ifhistoryprofitextroplate,IfprofitdisStableChangeRage,IfprofitdisStable,predicttype,predict,analyst_prediction,adj_prediction
0,600369,636428320.6999999,630328806.7000003,2013-12-31,年度报告,605960572.6200001,2013,12,未知,未知,未知,未知,未知,未知,未知,未知,未知,未知
1,600369,275628525.05,272249674.17,2014-03-31,一季度报告,272141735.23,2014,3,未知,未知,未知,未知,未知,未知,未知,未知,未知,未知
2,600369,547584107.4499999,541905947.4200002,2014-06-30,半年度报告,541079358.85,2014,6,未知,未知,未知,未知,未知,未知,未知,未知,未知,未知
3,600369,901216472.04,890642464.29,2014-09-30,三季度报告,887379813.4399998,2014,9,未知,未知,未知,未知,未知,未知,未知,未知,未知,未知
4,600369,1346796992.54,1339048940.4099998,2014-12-31,年度报告,1325351708.05,2014,12,0.0,True,未知,未知,未知,未知,未知,未知,未知,未知
5,600369,972236159.4900002,965222284.48,2015-03-31,一季度报告,965114345.5399996,2015,3,1.3090074606195041,False,未知,未知,未知,未知,未知,未知,2479000000.0,未知
6,600369,2851947192.44,2842499775.04,2015-06-30,半年度报告,2795699996.24,2015,6,0.16224761099026672,True,未知,未知,未知,未知,未知,未知,4051011855.0,未知
7,600369,3103827884.21,3109941477.78,2015-09-30,三季度报告,3052539627.59,2015,9,-0.29381193037963865,True,未知,未知,未知,未知,未知,未知,3543636667.0,未知
8,600369,3545060131.4499993,3554650541.8899994,2015-12-31,年度报告,3497377497.1200004,2015,12,-0.5274504441090828,True,未知,未知,未知,未知,未知,未知,3491000000.0,未知
9,600369,369937504.27,343819480.64999986,2016-03-31,一季度报告,342725145.94999987,2016,3,-0.3453973970338163,True,未知,未知,未知,未知,未知,未知,2298750000.0,未知
10,600369,880313787.9299998,860368675.6699997,2016-06-30,半年度报告,828206858.3,2016,6,-0.7768442829562002,True,未知,未知,未知,未知,未知,未知,1741430000.0,未知
11,600369,1086268319.19,1056561178.8000004,2016-09-30,三季度报告,1076375948.02,2016,9,-0.7949537331184888,True,未知,未知,未知,未知,未知,未知,1365000000.0,未知
12,600369,912701377.38,917572729.0000002,2016-12-31,年度报告,941383255.01,2016,12,-0.8204746049146173,True,2.575045263675489,False,0.0,True,比例外推,917572729.0000002,3195000000.0,3195000000.0
13,600369,22224329.04,23885995.689999994,2017-03-31,一季度报告,23638185.0,2017,3,0.720367125133387,False,0.40708714838521154,True,0.08228058324923343,True,前期平均,1816622557.8900006,985000000.0,985000000.0
14,600369,373367421.41,366709871.13,2017-06-30,半年度报告,402164127.52,2017,6,-0.2770437889010924,True,0.4820969655678802,True,0.2875466835517655,False,平均增速,476467389.24471503,,476467389.24471503
15,600369,602673181.9599999,590529184.4,2017-09-30,三季度报告,630340670.1999999,2017,9,-0.41411499400574736,True,0.4575499182700219,True,0.24814846929890855,False,平均增速,452862766.1291433,未知,452862766.1291433
16,600369,690882061.8299999,668800161.7399999,2017-12-31,年度报告,697915991.1899999,2017,12,-0.3026981919026674,True,0.6268487184942297,True,0.0,True,比例外推,668800161.7399999,,668800161.7399999
17,600369,261199602.15000004,261852323.51000005,2018-03-31,一季度报告,253626473.2300001,2018,3,27.636559490931656,False,0.9668830798277771,True,0.19075995387006905,False,前期平均,1827312953.8300004,859000000.0,859000000.0
18,600369,315411291.67,304691091.29999995,2018-06-30,半年度报告,247700115.52,2018,6,0.7045630770262867,False,0.7999242692974884,True,0.17555847552824033,False,前期平均,712118040.0950003,,712118040.0950003
19,600369,300237028.13,296983753.59000015,2018-09-30,三季度报告,241910281.24,2018,9,0.056009027364088644,True,0.712334441643145,True,0.17027091085261514,False,平均增速,327022593.3799476,500000000.0,500000000.0
20,600369,215225572.12,226842591.87000003,2018-12-31,年度报告,137129368.38000005,2018,12,-0.07881770875012097,True,0.6900318420079268,True,0.0,True,比例外推,226842591.87000003,未知,226842591.87000003
21,600369,428687966.56999993,413123292.43000007,2019-03-31,一季度报告,412195403.71,2019,3,1.4365593035418023,False,0.3321010866629867,True,1.100382692127436,False,前期平均,1049591250.0550001,814000000.0,814000000.0
22,600369,478996262.92,490496523.69000006,2019-06-30,半年度报告,472142603.91,2019,6,1.017772785908581,False,0.49682377095522046,True,0.7188788191040314,False,前期平均,694960653.88,831000000.0,831000000.0
23,600369,655971466.1299999,671948400.64,2019-09-30,三季度报告,653379691.44,2019,9,1.1197529320881503,False,0.6444672264544762,True,0.4938771634709087,False,前期平均,638239714.63,,638239714.63
24,600369,964502673.18,1042001454.67,2019-12-31,年度报告,1012993690.5699998,2019,12,1.957029289926368,False,0.7315692257011208,True,0.0,True,前期平均,1042001454.67,,1042001454.67
25,600369,213884866.21,202727740.61999995,2020-03-31,一季度报告,209215079.59,2020,3,0.48459572073404195,True,2.02506541892977,False,1.0861017969227147,False,未知,未知,未知,未知
