,SECURITYCODE_x,NETPROFIT_x,PARENTNETPROFIT_x,REPORTDATE_x,REPORTTIMETYPE_x,KCFJCXSYJLR,Year,Month,managesituationChangeRate,managesituationGreatChange,historyprofitextroplaterate,ifhistoryprofitextroplate,IfprofitdisStableChangeRage,IfprofitdisStable,predicttype,predict,analyst_prediction,adj_prediction
0,600365,9865957.01,9865957.01,2013-12-31,年度报告,1451161.52,2013,12,未知,未知,未知,未知,未知,未知,未知,未知,未知,未知
1,600365,483711.2700000001,420727.75000000006,2014-03-31,一季度报告,326862.98,2014,3,未知,未知,未知,未知,未知,未知,未知,未知,未知,未知
2,600365,1505496.79,1505496.79,2014-06-30,半年度报告,-5405057.990000001,2014,6,未知,未知,未知,未知,未知,未知,未知,未知,未知,未知
3,600365,300261.65,300261.65,2014-09-30,三季度报告,-7008961.2,2014,9,未知,未知,未知,未知,未知,未知,未知,未知,未知,未知
4,600365,2228075.44,2248290.86,2014-12-31,年度报告,-4216681.26,2014,12,0.0,True,未知,未知,未知,未知,未知,未知,未知,未知
5,600365,6472343.190000001,2673052.870000001,2015-03-31,一季度报告,2673658.34,2015,3,19.396376148110004,False,未知,未知,未知,未知,未知,未知,未知,未知
6,600365,13837183.510000002,4437809.3599999985,2015-06-30,半年度报告,-721374.2300000002,2015,6,5.553289967493056,False,未知,未知,未知,未知,未知,未知,未知,未知
7,600365,11798209.94,1864583.04,2015-09-30,三季度报告,-3250619.31,2015,9,31.857865831350754,False,未知,未知,未知,未知,未知,未知,未知,未知
8,600365,12491108.13,476251.91,2015-12-31,年度报告,-8292206.369999999,2015,12,3.42801748669695,False,未知,未知,未知,未知,未知,未知,未知,未知
9,600365,5160124.550000002,1954534.63,2016-03-31,一季度报告,2248086.22,2016,3,0.5243253826903449,False,未知,未知,未知,未知,未知,未知,未知,未知
10,600365,10342694.42,2325006.08,2016-06-30,半年度报告,3261881.11,2016,6,-0.2869967357974283,True,未知,未知,未知,未知,未知,未知,未知,未知
11,600365,13579917.65,1030885.73,2016-09-30,三季度报告,1935526.81,2016,9,-0.1637750929866908,True,未知,未知,未知,未知,未知,未知,未知,未知
12,600365,19980722.03,2070696.3900000004,2016-12-31,年度报告,2247502.4000000004,2016,12,-0.21016158796153186,True,1.0656647287232972,True,0.0,True,比例外推,2070696.3900000004,未知,2070696.3900000004
13,600365,8054249.840000003,2211030.42,2017-03-31,一季度报告,2347792.53,2017,3,0.9119610223361753,False,0.48363546595924733,True,0.8001554806452639,False,前期平均,-5543674.055,未知,-5543674.055
14,600365,12032286.52,1148464.6,2017-06-30,半年度报告,1679770.22,2017,6,-0.04609412118742653,True,0.3482252406706277,True,0.853058331329321,False,平均增速,302865.02911967237,未知,302865.02911967237
15,600365,15076277.3,2720963.74,2017-09-30,三季度报告,3428555.37,2017,9,-0.2734891871748575,True,1.2448980516224033,True,0.6903992993667156,False,平均增速,3177015.548121972,未知,3177015.548121972
16,600365,26646131.77,6063674.010000003,2017-12-31,年度报告,7421742.010000003,2017,12,-0.5062262016764567,True,1.7149225953977285,True,0.0,True,比例外推,6063674.010000003,未知,6063674.010000003
17,600365,8913504.440000001,2708626.66,2018-03-31,一季度报告,2689515.01,2018,3,0.22493803966726672,True,0.3847878231897854,True,0.6688699927213169,False,平均增速,12684463.71176246,未知,12684463.71176246
18,600365,19750012.8,6074486.92,2018-06-30,半年度报告,6133542.66,2018,6,-0.18004304555074707,True,0.004768629946511917,True,0.8631155784351104,False,平均增速,24558024.56010709,未知,24558024.56010709
19,600365,19352194.7,2065871.19,2018-09-30,三季度报告,2198670.78,2018,9,-0.34559727088596337,True,0.1881315708997112,True,0.2894700730074925,False,平均增速,8910012.897394937,未知,8910012.897394937
20,600365,33163438.65,4197836.489999998,2018-12-31,年度报告,3360582.44,2018,12,-0.6297414913669475,True,0.641184475202367,True,0.0,True,比例外推,4197836.489999998,未知,4197836.489999998
21,600365,5147345.32,1329198.16,2019-03-31,一季度报告,1268097.37,2019,3,0.10685500595319143,True,0.34906188926284815,True,0.38929742994924776,False,平均增速,2117369.0930564627,未知,2117369.0930564627
22,600365,14353720.7,2759009.7299999995,2019-06-30,半年度报告,2616426.47,2019,6,-0.5004581966650675,True,0.7653657764411935,True,0.9412722498393845,False,平均增速,-435560.6644118214,未知,-435560.6644118214
23,600365,18992879.559999995,3122560.38,2019-09-30,三季度报告,2968559.840000001,2019,9,-0.4901892440137552,True,0.3506464995625665,True,0.20205543363920297,False,平均增速,4997694.741973463,未知,4997694.741973463
24,600365,-11399636.91,-31314713.87,2019-12-31,年度报告,-41595446.35,2019,12,-0.7025050051617612,True,0.42250381259908215,True,0.0,True,比例外推,-31314713.87,未知,-31314713.87
25,600365,1611351.4999999998,-633565.87,2020-03-31,一季度报告,-649595.31,2020,3,0.9167078166809293,False,0.39327912992384534,True,0.4382569860842761,False,盈利变化,-33871637.443333335,未知,-33871637.443333335
