,SECURITYCODE_x,NETPROFIT_x,PARENTNETPROFIT_x,REPORTDATE_x,REPORTTIMETYPE_x,KCFJCXSYJLR,Year,Month,managesituationChangeRate,managesituationGreatChange,historyprofitextroplaterate,ifhistoryprofitextroplate,IfprofitdisStableChangeRage,IfprofitdisStable,predicttype,predict,analyst_prediction,adj_prediction
0,600320,134076622.0,139836320.0,2013-12-31,年度报告,-1009219217.0,2013,12,未知,未知,未知,未知,未知,未知,未知,未知,未知,未知
1,600320,26854983.0,24849628.0,2014-03-31,一季度报告,-59391506.0,2014,3,未知,未知,未知,未知,未知,未知,未知,未知,未知,未知
2,600320,45048986.0,57809770.00000002,2014-06-30,半年度报告,-72105791.00000001,2014,6,未知,未知,未知,未知,未知,未知,未知,未知,未知,未知
3,600320,57247098.0,80544893.0,2014-09-30,三季度报告,-137858244.0,2014,9,未知,未知,未知,未知,未知,未知,未知,未知,未知,未知
4,600320,156586047.99999997,202223273.0,2014-12-31,年度报告,-79581135.0,2014,12,0.0,True,未知,未知,未知,未知,未知,未知,未知,未知
5,600320,39419158.0,45743181.0,2015-03-31,一季度报告,-228415794.0,2015,3,3.9926161561897096,False,未知,未知,未知,未知,未知,未知,未知,未知
6,600320,94014089.0,112063601.0,2015-06-30,半年度报告,-296161543.00000006,2015,6,1.9762406194891935,False,未知,未知,未知,未知,未知,未知,未知,未知
7,600320,147776105.0,175238890.0,2015-09-30,三季度报告,-216529761.00000003,2015,9,1.342068448605028,False,未知,未知,未知,未知,未知,未知,未知,未知
8,600320,147776105.0,175238890.0,2015-09-30,三季度报告,-232940753.0,2015,9,1.342068448605028,False,未知,未知,未知,未知,未知,未知,未知,未知
9,600320,194205688.0,212411967.00000003,2015-12-31,年度报告,-214409604.0,2015,12,-0.14375115974572636,True,未知,未知,未知,未知,未知,未知,未知,未知
10,600320,51188223.00000001,53657723.00000001,2016-03-31,一季度报告,33458662.0,2016,3,2.4013060857362807,False,未知,未知,未知,未知,未知,未知,未知,未知
11,600320,133695832.0,112293361.0,2016-06-30,半年度报告,110668071.99999996,2016,6,0.42613328944771245,True,未知,未知,未知,未知,未知,未知,未知,未知
12,600320,185785116.00000003,155570081.0,2016-09-30,三季度报告,137938415.0,2016,9,-0.09270431779210854,True,未知,未知,0.0,True,未知,未知,未知,未知
13,600320,307344236.0,212419946.0,2016-12-31,年度报告,157445434.99999997,2016,12,-0.3096153702768994,True,0.3362960437953728,True,0.462202209125607,False,平均增速,212419946.0,216100000.0,212419946.0
14,600320,43991624.0,66367907.0,2017-03-31,一季度报告,65423907.00000001,2017,3,1.6192865104928529,False,0.5447419529737852,True,0.38453763004180963,False,前期平均,63276187.5,504000000.0,504000000.0
15,600320,115911782.0,115431320.0,2017-06-30,半年度报告,109561991.99999996,2017,6,0.0028481815349337145,True,0.9228085097356002,True,0.5262015816933006,False,平均增速,162443799.54122785,411833333.0,411833333.0
16,600320,177605097.99999997,170978450.0,2017-09-30,三季度报告,153879559.00000003,2017,9,-0.27832420117013046,True,0.8123325875462011,True,0.0,True,比例外推,144683677.63222465,324450000.0,324450000.0
17,600320,329443420.0,300195422.0,2017-12-31,年度报告,277837568.0,2017,12,-0.5637574865728082,True,0.7522889193718064,True,0.5608879842528111,False,平均增速,300195422.0,320633333.0,300195422.0
18,600320,54549417.0,83590256.99999999,2018-03-31,一季度报告,72514676.99999999,2018,3,2.0477761402943435,False,0.02896158095552944,True,0.5551136597922145,False,前期平均,152586738.49999997,489600000.0,489600000.0
19,600320,132796915.0,162118766.0,2018-06-30,半年度报告,121787133.0,2018,6,0.1567126282296307,True,0.01806527788484016,True,0.2594323103395936,False,平均增速,444911934.72147834,449933333.0,444911934.72147834
20,600320,163133791.0,194929918.0,2018-09-30,三季度报告,123234797.0,2018,9,-0.24508573509528414,True,0.06490255352554888,True,0.0,True,比例外推,223223341.59725124,362000000.0,362000000.0
21,600320,393842439.00000006,443005092.0,2018-12-31,年度报告,121335528.0,2018,12,-0.5930207924626328,True,0.3137014053261027,True,0.2490967670922884,False,平均增速,443005092.0,630633333.0,630633333.0
22,600320,69616125.0,98988791.0,2019-03-31,一季度报告,-134306822.0,2019,3,1.4578928497072663,False,0.14623880410314172,True,0.30598110284176905,False,前期平均,267189008.0,563400000.0,563400000.0
23,600320,175955733.0,222422676.0,2019-06-30,半年度报告,38549872.00000001,2019,6,0.009636571753191707,True,0.06404538605140467,True,0.2613538715969782,False,平均增速,222102663.84115332,,222102663.84115332
24,600320,182290917.00000003,243231715.0,2019-09-30,三季度报告,184297536.0,2019,9,-0.17811864005538866,True,0.10215638883440048,True,0.0,True,比例外推,285010349.0343498,564515000.0,564515000.0
25,600320,497121613.0,514930143.00000006,2019-12-31,年度报告,311117615.00000006,2019,12,-0.6595678659201073,True,0.23696631141983085,True,0.565498652129236,False,平均增速,514930143.00000006,,514930143.00000006
26,600320,-113980466.0,-92971034.0,2020-03-31,一季度报告,100767019.00000004,2020,3,0.9259420428815881,False,0.4129366666625736,True,未知,未知,盈利变化,828361931.0000001,未知,828361931.0000001
