,SECURITYCODE_x,NETPROFIT_x,PARENTNETPROFIT_x,REPORTDATE_x,REPORTTIMETYPE_x,KCFJCXSYJLR,Year,Month,managesituationChangeRate,managesituationGreatChange,historyprofitextroplaterate,ifhistoryprofitextroplate,IfprofitdisStableChangeRage,IfprofitdisStable,predicttype,predict,analyst_prediction,adj_prediction
0,600317,535395299.4300002,511129457.06,2013-12-31,年度报告,512038522.0099998,2013,12,未知,未知,未知,未知,未知,未知,未知,未知,未知,未知
1,600317,160773430.98,163919011.3,2014-03-31,一季度报告,163613647.14,2014,3,未知,未知,未知,未知,未知,未知,未知,未知,未知,未知
2,600317,373867541.79000014,363639910.61,2014-06-30,半年度报告,363428222.52999985,2014,6,未知,未知,未知,未知,未知,未知,未知,未知,未知,未知
3,600317,484964840.02,472057303.5100001,2014-09-30,三季度报告,471710144.95,2014,9,未知,未知,未知,未知,未知,未知,未知,未知,未知,未知
4,600317,563059212.9200001,539666590.09,2014-12-31,年度报告,539595793.23,2014,12,0.0,True,未知,未知,未知,未知,未知,未知,未知,未知
5,600317,150837622.24,149563926.82,2015-03-31,一季度报告,150428333.18,2015,3,2.3301229946172053,False,未知,未知,未知,未知,未知,未知,未知,未知
6,600317,337621021.36,322079531.57,2015-06-30,半年度报告,323304530.54,2015,6,0.4320454160493278,True,未知,未知,未知,未知,未知,未知,未知,未知
7,600317,465563121.73,443848367.66,2015-09-30,三季度报告,444583502.5200001,2015,9,0.10398786726048109,True,未知,未知,未知,未知,未知,未知,未知,未知
8,600317,524482987.5100001,500107431.38,2015-12-31,年度报告,513737235.52,2015,12,-0.04913144631190042,True,未知,未知,未知,未知,未知,未知,未知,未知
9,600317,110733065.56,106018515.52,2016-03-31,一季度报告,106116675.73999998,2016,3,2.5494811670932114,False,未知,未知,未知,未知,未知,未知,未知,未知
10,600317,232945338.47,220812069.38,2016-06-30,半年度报告,220312248.99,2016,6,0.5857878080971639,False,未知,未知,未知,未知,未知,未知,未知,未知
11,600317,361219224.84,353241389.39000005,2016-09-30,三季度报告,351436046.00999993,2016,9,0.1499950800237542,True,未知,未知,未知,未知,未知,未知,未知,未知
12,600317,508688087.1999999,491575569.5100001,2016-12-31,年度报告,498131680.64,2016,12,0.020805845336960553,True,0.04505287817892967,True,0.0,True,比例外推,491575569.5100001,未知,491575569.5100001
13,600317,174418503.5,167139933.89999998,2017-03-31,一季度报告,167946866.05,2017,3,3.835008375523566,False,0.28928666415551363,True,0.05665609583829556,True,前期平均,536785458.11499995,未知,536785458.11499995
14,600317,268432466.41,254681933.32,2017-06-30,半年度报告,255855624.64,2017,6,1.2983730987986752,False,0.3451888040514036,True,0.13942799325597777,False,前期平均,437982071.1600001,560600000.0,560600000.0
15,600317,429098531.91999984,406380130.65,2017-09-30,三季度报告,408616677.81,2017,9,0.482189381440455,True,0.23996086517020346,True,0.10952195694106892,False,平均增速,562138353.4548669,,562138353.4548669
16,600317,562789781.0500001,535163759.36,2017-12-31,年度报告,535646018.22,2017,12,0.052502138151113875,True,0.06451798008597523,True,0.0,True,比例外推,535163759.36,未知,535163759.36
17,600317,199690837.29000005,192794714.72000003,2018-03-31,一季度报告,193336369.25,2018,3,2.069601496896229,False,0.3336242295877007,True,0.060097952678550115,True,前期平均,570456668.34,未知,570456668.34
18,600317,369267007.02,351647718.93,2018-06-30,半年度报告,352128031.78,2018,6,0.9945251280157926,False,0.059066621137708455,True,0.11290085120537718,False,前期平均,585773787.245,未知,585773787.245
19,600317,590832045.1000001,562411118.1799998,2018-09-30,三季度报告,562284718.37,2018,9,0.24772111671968639,True,0.03799635708276459,True,0.08747501099836519,True,比例外推,722935591.6874394,未知,722935591.6874394
20,600317,1035664280.3100002,1000905501.38,2018-12-31,年度报告,1039763055.72,2018,12,-0.04867622430686259,True,0.08944161296418231,True,0.0,True,比例外推,1000905501.38,未知,1000905501.38
21,600317,304014194.17,293228334.18,2019-03-31,一季度报告,290890691.04,2019,3,1.6811210103369687,False,0.4005943431998596,True,0.07603648669818422,True,前期平均,673085412.7149999,未知,673085412.7149999
22,600317,595048279.5199999,573579835.1400001,2019-06-30,半年度报告,567948670.9900001,2019,6,0.44988663826390124,True,0.47300899013022935,True,0.08087051860737227,True,比例外推,1359397348.3250957,未知,1359397348.3250957
23,600317,868936596.23,836946233.4300001,2019-09-30,三季度报告,827944210.97,2019,9,-0.09382826495238104,True,0.49517593410069727,True,0.12893116189209008,False,平均增速,1548553353.5627956,未知,1548553353.5627956
24,600317,1048288049.53,1011632317.9299998,2019-12-31,年度报告,998588566.94,2019,12,-0.48304164813935363,True,0.9331510449236013,True,0.0,True,比例外推,1011632317.9299998,未知,1011632317.9299998
25,600317,303396017.47,291873557.08999985,2020-03-31,一季度报告,289188166.60999995,2020,3,0.7610865206202032,False,0.6252691981869184,True,0.07765239297056911,True,前期平均,898936476.4099998,未知,898936476.4099998
