,SECURITYCODE_x,NETPROFIT_x,PARENTNETPROFIT_x,REPORTDATE_x,REPORTTIMETYPE_x,KCFJCXSYJLR,Year,Month,managesituationChangeRate,managesituationGreatChange,historyprofitextroplaterate,ifhistoryprofitextroplate,IfprofitdisStableChangeRage,IfprofitdisStable,predicttype,predict,analyst_prediction,adj_prediction
0,600363,93648617.71,95026753.56999998,2013-12-31,年度报告,100728355.4,2013,12,未知,未知,未知,未知,未知,未知,未知,未知,未知,未知
1,600363,12666305.42,15340667.59,2014-03-31,一季度报告,14570993.39,2014,3,未知,未知,未知,未知,未知,未知,未知,未知,未知,未知
2,600363,62368379.71,60201506.15,2014-06-30,半年度报告,57925997.92,2014,6,未知,未知,未知,未知,未知,未知,未知,未知,未知,未知
3,600363,107308951.99000002,100672406.47999996,2014-09-30,三季度报告,98042509.64999998,2014,9,未知,未知,未知,未知,未知,未知,未知,未知,未知,未知
4,600363,145443521.23999998,133344250.37,2014-12-31,年度报告,122189567.81,2014,12,0.0,True,未知,未知,未知,未知,未知,未知,未知,未知
5,600363,26545955.83,27939082.74,2015-03-31,一季度报告,25695824.23,2015,3,6.393522783852151,False,未知,未知,未知,未知,未知,未知,210869188.0,未知
6,600363,88296283.71999998,84613892.33,2015-06-30,半年度报告,79222643.36000001,2015,6,0.5015400134723171,False,未知,未知,未知,未知,未知,未知,,未知
7,600363,129919469.85,122289218.68,2015-09-30,三季度报告,112597973.7,2015,9,-0.12729911183246873,True,未知,未知,未知,未知,未知,未知,未知,未知
8,600363,129919469.85,122289218.68,2015-09-30,三季度报告,115142957.18,2015,9,-0.12729911183246873,True,未知,未知,未知,未知,未知,未知,未知,未知
9,600363,150753430.6,142478743.37,2015-12-31,年度报告,127549555.97,2015,12,-0.3561169523978447,True,未知,未知,未知,未知,未知,未知,,未知
10,600363,35765532.83000001,31514284.09,2016-03-31,一季度报告,29901920.49,2016,3,2.5277922674822744,False,未知,未知,未知,未知,未知,未知,未知,未知
11,600363,110042226.44,99221308.8,2016-06-30,半年度报告,93564421.45999996,2016,6,0.06061788519857776,True,未知,未知,未知,未知,未知,未知,188788764.0,未知
12,600363,172970986.02999997,156493678.15000004,2016-09-30,三季度报告,144742737.26000002,2016,9,-0.2791794962054335,True,未知,未知,0.0,True,未知,未知,204000000.0,未知
13,600363,180184926.11000004,157425232.78,2016-12-31,年度报告,147161132.21,2016,12,-0.3787961087367786,True,0.2610488262981011,True,0.05538370552340094,True,比例外推,157425232.78,未知,157425232.78
14,600363,53017544.62,48520964.63000001,2017-03-31,一季度报告,47312251.87,2017,3,1.6184040974624552,False,0.8242014966683419,True,0.10292503914570533,False,前期平均,153257117.71000004,221000000.0,221000000.0
15,600363,128765693.81,115594616.39000002,2017-06-30,半年度报告,113724151.77,2017,6,-0.14897561836354284,True,0.4607569410743284,True,0.0939913610972003,True,比例外推,198968890.4293815,221000000.0,198968890.4293815
16,600363,193801389.1099999,172704042.88000005,2017-09-30,三季度报告,166939463.63,2017,9,-0.4585877096534696,True,0.4582652844747344,True,0.0,True,比例外推,193426627.12108922,,193426627.12108922
17,600363,226479662.82,199241521.04,2017-12-31,年度报告,187467526.35,2017,12,-0.48026386151287154,True,0.2166561809004203,True,0.03336738842011028,True,比例外推,199241521.04,266000000.0,266000000.0
18,600363,43318127.91,39529115.84,2018-03-31,一季度报告,37030168.74,2018,3,0.7663703285623792,False,0.7016940458376135,True,0.014614985925765489,True,前期平均,149085587.57,未知,149085587.57
19,600363,126653653.61,114321284.36999996,2018-06-30,半年度报告,103860655.36,2018,6,-0.2727207461936015,True,0.29844369311965213,True,0.06461880380019724,True,比例外推,177659393.78565112,未知,177659393.78565112
20,600363,198014065.1200001,175201241.11000004,2018-09-30,三季度报告,165670469.27999997,2018,9,-0.5167804619973807,True,0.27967973468784824,True,0.0,True,比例外推,189813607.84928036,未知,189813607.84928036
21,600363,253754315.6,227161742.82,2018-12-31,年度报告,213175944.64,2018,12,-0.5865031917482612,True,0.3687120772069538,True,0.04261755672913542,True,比例外推,227161742.82,未知,227161742.82
22,600363,32299652.07,29202508.600000005,2019-03-31,一季度报告,27449133.48,2019,3,1.1618805388951539,False,0.02418052732187675,True,0.0893390304694841,True,前期平均,157909751.7,未知,157909751.7
23,600363,110062669.82000004,96422702.77,2019-06-30,半年度报告,90131872.6,2019,6,-0.2605928448114984,True,0.060715687129727844,True,0.10658567552470055,False,平均增速,209746009.23734075,未知,209746009.23734075
24,600363,179044629.71,154727536.66,2019-09-30,三季度报告,140745771.68000004,2019,9,-0.5270607789742247,True,0.07976542695952271,True,0.0,True,比例外推,173243397.0854004,未知,173243397.0854004
25,600363,221544540.5,194922442.5,2019-12-31,年度报告,161226367.15000004,2019,12,-0.630947684619398,True,0.24797842009144885,True,0.053597410891282754,True,比例外推,194922442.5,未知,194922442.5
26,600363,24048015.48,20601108.5,2020-03-31,一季度报告,16820280.37,2020,3,1.8993692411003111,False,0.32943527103230574,True,未知,未知,前期平均,178751633.69,275723333.0,275723333.0
