,SECURITYCODE_x,NETPROFIT_x,PARENTNETPROFIT_x,REPORTDATE_x,REPORTTIMETYPE_x,KCFJCXSYJLR,Year,Month,managesituationChangeRate,managesituationGreatChange,historyprofitextroplaterate,ifhistoryprofitextroplate,IfprofitdisStableChangeRage,IfprofitdisStable,predicttype,predict,analyst_prediction,adj_prediction
0,600388,463319448.9800001,456715102.42,2013-12-31,年度报告,314194222.34,2013,12,未知,未知,未知,未知,未知,未知,未知,未知,未知,未知
1,600388,42113226.05,40990330.50999999,2014-03-31,一季度报告,36119482.68000001,2014,3,未知,未知,未知,未知,未知,未知,未知,未知,未知,未知
2,600388,144359621.59,142872900.88,2014-06-30,半年度报告,128923392.64,2014,6,未知,未知,未知,未知,未知,未知,未知,未知,未知,未知
3,600388,296993879.95000005,296303019.4,2014-09-30,三季度报告,277226213.00999993,2014,9,未知,未知,未知,未知,未知,未知,未知,未知,未知,未知
4,600388,466987730.6499999,463414694.98,2014-12-31,年度报告,379681641.6799998,2014,12,0.0,True,未知,未知,未知,未知,未知,未知,未知,未知
5,600388,59925484.46,60576265.73000001,2015-03-31,一季度报告,56780263.31,2015,3,10.001756275567972,False,未知,未知,未知,未知,未知,未知,520332000.0,未知
6,600388,170469727.3,172187466.57999998,2015-06-30,半年度报告,159203211.67999998,2015,6,2.209480905234618,False,未知,未知,未知,未知,未知,未知,558080000.0,未知
7,600388,386702469.7699999,389597335.70000017,2015-09-30,三季度报告,362182956.92,2015,9,0.5600302910551609,False,未知,未知,未知,未知,未知,未知,587665000.0,未知
8,600388,561038919.3000001,560148716.64,2015-12-31,年度报告,518955730.65,2015,12,-0.007855199246656779,True,未知,未知,未知,未知,未知,未知,608000000.0,未知
9,600388,75308082.25,76498419.49,2016-03-31,一季度报告,72314876.47999999,2016,3,6.731592879975193,False,未知,未知,未知,未知,未知,未知,664310000.0,未知
10,600388,196852074.93000004,196878316.24000004,2016-06-30,半年度报告,173949727.92000002,2016,6,1.71789869273757,False,未知,未知,未知,未知,未知,未知,671745000.0,未知
11,600388,431489944.27,429545386.79999983,2016-09-30,三季度报告,391496596.58000016,2016,9,0.1981290144217849,True,未知,未知,未知,未知,未知,未知,653000000.0,未知
12,600388,671439852.56,663907266.7,2016-12-31,年度报告,526998340.8399999,2016,12,-0.17417592070425902,True,0.20613692248002516,True,0.0,True,比例外推,663907266.7,659500000.0,663907266.7
13,600388,84682080.8,84088660.19,2017-03-31,一季度报告,74905632.99,2017,3,5.1523203770070785,False,0.4760688737362996,True,0.023299038668656916,True,前期平均,486957473.35999984,739333333.0,739333333.0
14,600388,227849377.43000004,225732544.72,2017-06-30,半年度报告,205061745.87,2017,6,1.3536426991930615,False,0.25053191911138695,True,0.01869359960002409,True,前期平均,530987928.7249999,742730000.0,742730000.0
15,600388,475135340.6400001,470733530.99000007,2017-09-30,三季度报告,437986349.14000016,2017,9,0.07376650402328529,True,0.2622268480640908,True,0.025740015899226254,True,比例外推,637995596.8724052,733371667.0,733371667.0
16,600388,727833261.4699999,724326580.9899999,2017-12-31,年度报告,657855919.1599997,2017,12,-0.3099613506503953,True,0.3062693512714999,True,0.0,True,比例外推,724326580.9899999,733538333.0,724326580.9899999
17,600388,93638044.77,93405279.75999998,2018-03-31,一季度报告,77368577.54000002,2018,3,4.471280873154927,False,0.25238256832485184,True,0.017054935038297706,True,前期平均,551834745.6099999,806602856.9999999,806602856.9999999
18,600388,252133022.45,250553794.7,2018-06-30,半年度报告,211881941.3299999,2018,6,1.033446192418679,False,0.24059816785572252,True,0.013888169817119489,True,前期平均,606954360.645,803753615.0,803753615.0
19,600388,533351955.8799999,529837691.79,2018-09-30,三季度报告,467354209.91000015,2018,9,-0.02486847567281398,True,0.16142690273530594,True,0.040691499323959435,True,比例外推,728051377.3160015,802471667.0,728051377.3160015
20,600388,805402878.6500003,801217236.9900001,2018-12-31,年度报告,702818593.5899999,2018,12,-0.36342638691142404,True,0.18108851541773416,True,0.0,True,比例外推,801217236.9900001,802613333.0,801217236.9900001
21,600388,105578119.81,104514090.92,2019-03-31,一季度报告,87622605.17,2019,3,3.9479829498580004,False,0.17054752598428569,True,0.016831353467911106,True,前期平均,623330966.1849998,909816571.0,909816571.0
22,600388,282650624.92000014,276849361.63000005,2019-06-30,半年度报告,244111044.71,2019,6,0.8375992342370784,False,0.18734240746734396,True,0.015655340460328182,True,前期平均,679770754.7349999,912209167.0,912209167.0
23,600388,565028438.8600001,557620539.9399998,2019-09-30,三季度报告,513779578.43,2019,9,-0.13130636557702355,True,0.17656536775928386,True,0.05167013532603992,True,比例外推,787145574.4417033,894740000.0,894740000.0
24,600388,860842998.3599999,851029698.3700001,2019-12-31,年度报告,671109880.63,2019,12,-0.42473579215832136,True,0.1511732349811059,True,0.0,True,比例外推,851029698.3700001,939627500.0,851029698.3700001
25,600388,68676821.59,67830038.49000001,2020-03-31,一季度报告,50206962.52,2020,3,3.3884040539251585,False,0.18414138025665597,True,0.012393628422759415,True,前期平均,672030189.5999998,942000000.0,942000000.0
