,SECURITYCODE_x,NETPROFIT_x,PARENTNETPROFIT_x,REPORTDATE_x,REPORTTIMETYPE_x,KCFJCXSYJLR,Year,Month,managesituationChangeRate,managesituationGreatChange,historyprofitextroplaterate,ifhistoryprofitextroplate,IfprofitdisStableChangeRage,IfprofitdisStable,predicttype,predict,analyst_prediction,adj_prediction
0,600337,172008381.12,172008381.12,2013-12-31,年度报告,154488097.44,2013,12,未知,未知,未知,未知,未知,未知,未知,未知,未知,未知
1,600337,29373171.32000001,29373171.32000001,2014-03-31,一季度报告,32663007.29,2014,3,未知,未知,未知,未知,未知,未知,未知,未知,未知,未知
2,600337,93744375.26,93744375.26,2014-06-30,半年度报告,93244758.82,2014,6,未知,未知,未知,未知,未知,未知,未知,未知,未知,未知
3,600337,148992061.4,148992061.4,2014-09-30,三季度报告,147008970.85999998,2014,9,未知,未知,未知,未知,未知,未知,未知,未知,未知,未知
4,600337,233565748.92000005,233565748.92000005,2014-12-31,年度报告,221907629.45,2014,12,0.0,True,未知,未知,未知,未知,未知,未知,未知,未知
5,600337,41580217.37,41580217.37,2015-03-31,一季度报告,38591322.92,2015,3,4.855969014924873,False,未知,未知,未知,未知,未知,未知,313850000.0,未知
6,600337,128511060.2,128511060.2,2015-06-30,半年度报告,125136342.31000002,2015,6,0.8348661521604341,False,未知,未知,未知,未知,未知,未知,312006000.0,未知
7,600337,203025780.76,203025780.76,2015-09-30,三季度报告,199197958.5,2015,9,0.1544801750088411,True,未知,未知,未知,未知,未知,未知,312620000.0,未知
8,600337,300615202.89,300615202.89,2015-12-31,年度报告,297030282.96,2015,12,-0.2635547724126469,True,未知,未知,未知,未知,未知,未知,312020000.0,未知
9,600337,42849009.84,42849009.84,2016-03-31,一季度报告,42972070.06000001,2016,3,3.1367840766533255,False,未知,未知,未知,未知,未知,未知,361320000.0,未知
10,600337,131667791.45000002,131667791.45000002,2016-06-30,半年度报告,131879388.47000004,2016,6,0.3384714191315963,True,未知,未知,未知,未知,未知,未知,348555709.0,未知
11,600337,218260212.69000003,218260212.69000003,2016-09-30,三季度报告,219152767.31,2016,9,-0.15277566978878485,True,未知,未知,未知,未知,未知,未知,341192313.0,未知
12,600337,330800546.86000013,330800546.86000013,2016-12-31,年度报告,325677677.1299999,2016,12,-0.4278121017620633,True,0.4824180371679602,True,0.0,True,比例外推,330800546.86000013,340213090.0,330800546.86000013
13,600337,47464823.44,47464823.44,2017-03-31,一季度报告,45489960.49999999,2017,3,3.0142906863492644,False,0.20780728393988693,True,0.01083777474778258,True,前期平均,271306614.53999996,405848333.0,405848333.0
14,600337,151711664.01,151711664.01,2017-06-30,半年度报告,148893454.37000003,2017,6,0.3063816080284073,True,0.18483303841355703,True,0.01053701937066509,True,比例外推,361187098.28319967,399567143.0,361187098.28319967
15,600337,258512599.73,258512599.73,2017-09-30,三季度报告,252337526.45,2017,9,-0.21191141985961756,True,0.24005198913068668,True,0.006196152463856408,True,比例外推,383544892.8749647,399094000.0,383544892.8749647
16,600337,365364011.12,365364011.12,2017-12-31,年度报告,332484674.44999987,2017,12,-0.480023891276103,True,0.23853366818538596,True,0.0,True,比例外推,365364011.12,399943333.0,365364011.12
17,600337,62315754.29,63008293.36000001,2018-03-31,一季度报告,62923513.37000001,2018,3,2.6239127980205126,False,0.12436948692995133,True,0.003921981338344149,True,前期平均,333580576.91499996,496392500.0,496392500.0
18,600337,202402394.91000003,205582725.52,2018-06-30,半年度报告,201972667.17,2018,6,0.13378481636495773,True,0.16621057436356756,True,0.023137035066519374,True,比例外推,479194068.815403,497198333.0,479194068.815403
19,600337,330277477.53999984,337030450.58000004,2018-09-30,三季度报告,328047823.89000005,2018,9,-0.3346228334725199,True,0.2272546619126151,True,0.05811492583165012,True,比例外推,477067420.89562076,496036667.0,477067420.89562076
20,600337,445323022.52,451208323.5399999,2018-12-31,年度报告,395442579.47,2018,12,-0.5292136721602128,True,0.15728507331234792,True,0.0,True,比例外推,451208323.5399999,490371667.0,451208323.5399999
21,600337,65103807.72000001,66856510.43000001,2019-03-31,一季度报告,63939969.99000001,2019,3,1.760271187916965,False,0.3799824905405676,True,0.0164928829164801,True,前期平均,351706670.9399998,552945000.0,552945000.0
22,600337,214402756.86,216090322.23,2019-06-30,半年度报告,190157473.15,2019,6,-0.15016627547077682,True,0.428490252276385,True,0.05624766462710867,True,比例外推,444318118.4071564,512783333.0,512783333.0
23,600337,350122507.19,354350637.0700002,2019-09-30,三季度报告,309805361.06,2019,9,-0.4792003911342453,True,0.3854711046277148,True,0.08089666917730587,True,比例外推,455531421.1009307,485666667.0,455531421.1009307
24,600337,457699141.06,463644648.0500001,2019-12-31,年度报告,391173726.3399999,2019,12,-0.6137446922311884,True,0.27936137344352857,True,0.0,True,比例外推,463644648.0500001,477000000.0,463644648.0500001
25,600337,-271410877.79999995,-266788859.6099999,2020-03-31,一季度报告,-308876857.92999995,2020,3,1.6420633008099572,False,0.18607150857084526,True,0.016314006437252282,True,盈利变化,-33444455.843333185,489000000.0,489000000.0
