,SECURITYCODE_x,NETPROFIT_x,PARENTNETPROFIT_x,REPORTDATE_x,REPORTTIMETYPE_x,KCFJCXSYJLR,Year,Month,managesituationChangeRate,managesituationGreatChange,historyprofitextroplaterate,ifhistoryprofitextroplate,IfprofitdisStableChangeRage,IfprofitdisStable,predicttype,predict,analyst_prediction,adj_prediction
0,600371,-38455359.76999999,-35393397.3,2013-12-31,年度报告,-49594907.3,2013,12,未知,未知,未知,未知,未知,未知,未知,未知,未知,未知
1,600371,-9669330.989999998,-9041395.9,2014-03-31,一季度报告,-10249721.8,2014,3,未知,未知,未知,未知,未知,未知,未知,未知,未知,未知
2,600371,-17482941.950000007,-16460707.680000005,2014-06-30,半年度报告,-17581723.16,2014,6,未知,未知,未知,未知,未知,未知,未知,未知,未知,未知
3,600371,-27347680.73,-24784683.410000004,2014-09-30,三季度报告,-26085991.98,2014,9,未知,未知,未知,未知,未知,未知,未知,未知,未知,未知
4,600371,2625169.1100000003,4433012.22,2014-12-31,年度报告,-12207742.110000005,2014,12,-0.0,False,未知,未知,未知,未知,未知,未知,未知,未知
5,600371,6783171.3500000015,6326705.3900000015,2015-03-31,一季度报告,3139404.2300000004,2015,3,2.9770445142244526,False,未知,未知,未知,未知,未知,未知,未知,未知
6,600371,10591708.5,9950470.84,2015-06-30,半年度报告,6673076.169999999,2015,6,1.199593173733553,False,未知,未知,未知,未知,未知,未知,未知,未知
7,600371,8539288.160000002,8238673.219999999,2015-09-30,三季度报告,1166957.7699999998,2015,9,0.40616530336391665,False,未知,未知,未知,未知,未知,未知,未知,未知
8,600371,6239804.449999997,5678124.42,2015-12-31,年度报告,17063398.689999998,2015,12,-15.648717152549454,False,未知,未知,未知,未知,未知,未知,未知,未知
9,600371,10806640.929999998,10399151.9,2016-03-31,一季度报告,9858313.03,2016,3,-6.66923018537634,False,未知,未知,未知,未知,未知,未知,22320000.0,未知
10,600371,29601658.05,28478841.980000004,2016-06-30,半年度报告,28051207.58000001,2016,6,-4.63070412766741,False,未知,未知,未知,未知,未知,未知,,未知
11,600371,31521861.51000001,30282389.8,2016-09-30,三季度报告,29358899.000000004,2016,9,-5.503344898247348,False,未知,未知,未知,未知,未知,未知,未知,未知
12,600371,56540975.05,54909185.42,2016-12-31,年度报告,49382864.89,2016,12,-7.162911046034464,False,-1.3482987020198012,True,0.0,True,前期平均,54909185.42,未知,54909185.42
13,600371,11683223.56,11194922.7,2017-03-31,一季度报告,11116641.390000002,2017,3,-4.558493339335926,False,-8.488595419482763,True,0.4318672330280647,False,前期平均,17177909.774999995,未知,17177909.774999995
14,600371,27017075.030000005,25894838.56,2017-06-30,半年度报告,26127364.140000004,2017,6,-2.2990947907392636,False,-9.591105863638962,True,0.6404370341650564,False,前期平均,33776990.345,未知,33776990.345
15,600371,35496123.059999995,33392657.74,2017-09-30,三季度报告,33593714.84,2017,9,-2.2199584011813642,False,-4.351893192646181,True,1.2035915379585362,False,前期平均,48280003.13499999,未知,48280003.13499999
16,600371,62464808.5,57632623.54,2017-12-31,年度报告,56505850.6,2017,12,-1.6801325894361279,False,11.75603918439662,False,0.0,True,去年同期,57632623.54,未知,57632623.54
17,600371,13975820.35,12534316.420000006,2018-03-31,一季度报告,12845695.89,2018,3,-4.291502518334075,False,0.3284079868531718,True,0.009465062339057168,True,前期平均,39258589.58,未知,39258589.58
18,600371,-5394489.73,-5036524.790000001,2018-06-30,半年度报告,28298214.52,2018,6,-2.423372431223543,False,0.3443549196801484,True,0.09420389933111245,True,盈利变化,59079857.126666665,未知,59079857.126666665
19,600371,36963908.63000001,33031691.84,2018-09-30,三季度报告,36210137.96,2018,9,-2.08336788513489,False,0.7720970742175901,True,0.3507514398332226,False,前期平均,50991895.245,未知,50991895.245
20,600371,58192745.32,52032280.16,2018-12-31,年度报告,47544700.49999999,2018,12,-1.615632396759849,False,0.9899341485557696,True,0.0,True,前期平均,52032280.16,未知,52032280.16
21,600371,14168919.4,12619863.5,2019-03-31,一季度报告,12409670.08,2019,3,-3.7515636869216045,False,0.24285500752699293,True,0.04799943672677545,True,前期平均,55076744.035,未知,55076744.035
22,600371,39643072.38,35418289.85,2019-06-30,半年度报告,35106501.75000001,2019,6,6.128637126907643,False,1.1905549430919904,True,0.07948677519116848,True,前期平均,61273361.73499999,未知,61273361.73499999
23,600371,49424245.77,44160079.04,2019-09-30,三季度报告,43686886.43,2019,9,-2.040348848248952,False,0.10310415531494715,True,0.1113901942091956,False,前期平均,65628129.865,未知,65628129.865
24,600371,65701099.16,58722378.91999999,2019-12-31,年度报告,57010663.84,2019,12,-1.6608273859316178,False,0.022018198039081744,True,0.0,True,前期平均,58722378.91999999,未知,58722378.91999999
25,600371,15087277.419999998,13477544.089999998,2020-03-31,一季度报告,13084777.12,2020,3,-3.714064402822419,False,0.10439963778058013,True,0.04198525348886692,True,前期平均,53521650.99999999,未知,53521650.99999999
