,SECURITYCODE_x,NETPROFIT_x,PARENTNETPROFIT_x,REPORTDATE_x,REPORTTIMETYPE_x,KCFJCXSYJLR,Year,Month,managesituationChangeRate,managesituationGreatChange,historyprofitextroplaterate,ifhistoryprofitextroplate,IfprofitdisStableChangeRage,IfprofitdisStable,predicttype,predict,analyst_prediction,adj_prediction
0,600301,2328075.58,47705333.52,2013-12-31,年度报告,-257514164.78000003,2013,12,未知,未知,未知,未知,未知,未知,未知,未知,未知,未知
1,600301,-14977967.849999996,-8689532.319999997,2014-03-31,一季度报告,-8842769.62,2014,3,未知,未知,未知,未知,未知,未知,未知,未知,未知,未知
2,600301,-40356134.34,-27375063.47,2014-06-30,半年度报告,-27656201.320000004,2014,6,未知,未知,未知,未知,未知,未知,未知,未知,未知,未知
3,600301,-160605497.75,-142866613.51999998,2014-09-30,三季度报告,-143631129.72,2014,9,未知,未知,未知,未知,未知,未知,未知,未知,未知,未知
4,600301,-317864267.85999995,-241811859.27000004,2014-12-31,年度报告,-225121128.37,2014,12,0.0,True,未知,未知,未知,未知,未知,未知,未知,未知
5,600301,-718652.8099999998,271035.54,2015-03-31,一季度报告,143347.54,2015,3,-1.1554333407118376,False,未知,未知,未知,未知,未知,未知,未知,未知
6,600301,-12038312.380000005,-10195127.6,2015-06-30,半年度报告,-65372626.08,2015,6,-1.057688270149613,False,未知,未知,未知,未知,未知,未知,未知,未知
7,600301,-12925598.97,-10175297.37,2015-09-30,三季度报告,-84276460.00000001,2015,9,-1.014495615733055,False,未知,未知,未知,未知,未知,未知,未知,未知
8,600301,-61147913.75000002,-41835182.39,2015-12-31,年度报告,-119297726.84,2015,12,-1.0073241185480633,False,未知,未知,未知,未知,未知,未知,未知,未知
9,600301,-9276949.98,-8422148.120000003,2016-03-31,一季度报告,-8421665.040000001,2016,3,-4.239499724491441,False,未知,未知,未知,未知,未知,未知,未知,未知
10,600301,-16494381.25,-14624465.55,2016-06-30,半年度报告,-14623982.470000004,2016,6,-1.193388866023096,False,未知,未知,未知,未知,未知,未知,未知,未知
11,600301,-54188142.53,-32908682.390000004,2016-09-30,三季度报告,-37509824.39000001,2016,9,-1.1801135549233275,False,未知,未知,未知,未知,未知,未知,未知,未知
12,600301,-19559606.140000008,6014231.4,2016-12-31,年度报告,-39395973.4,2016,12,-1.0380728537938058,False,-0.612419017240731,True,0.0,True,盈利变化,-15201264.576666668,未知,-15201264.576666668
13,600301,-3136592.26,-2313872.6300000004,2017-03-31,一季度报告,-2293482.16,2017,3,-1.2509526929668753,False,-0.1820314933953437,True,0.1298203079678411,False,前期平均,-170173589.195,未知,-170173589.195
14,600301,-16107824.299999995,-9345932.2,2017-06-30,半年度报告,-9193541.73,2017,6,-1.141143553353964,False,-0.37037673713219055,True,0.22449439448863762,False,前期平均,-135040946.105,未知,-135040946.105
15,600301,-9382912.4,-1859297.92,2017-09-30,三季度报告,-1706907.45,2017,9,-1.0429628230698462,False,-0.37546476044653904,True,0.18659713473087458,False,前期平均,-60114930.66499999,未知,-60114930.66499999
16,600301,-68199008.28000002,-32479915.07,2017-12-31,年度报告,-32327504.640000004,2017,12,-1.119024665595848,False,-0.8967863984903437,True,0.0,True,盈利变化,8370387.653333332,未知,8370387.653333332
17,600301,-4231913.76,-3585310.35,2018-03-31,一季度报告,-3640221.23,2018,3,-1.742230862993968,False,-0.3724055815547269,True,0.11926524957040353,False,前期平均,-78793001.71999998,未知,-78793001.71999998
18,600301,-19364934.190000005,-12673547.270000005,2018-06-30,半年度报告,-12503685.47,2018,6,-1.1445307284609505,False,-0.1290784185243427,True,0.14678833408355924,False,前期平均,-52022093.114999995,未知,-52022093.114999995
19,600301,40545046.56,49790442.12,2018-09-30,三季度报告,-13329128.11,2018,9,-1.2481186523706649,False,-0.7203877420542856,True,0.517653489487149,False,盈利变化,-37645346.47444445,未知,-37645346.47444445
20,600301,44876618.84000001,54122014.4,2018-12-31,年度报告,-11189654.81,2018,12,-1.0341365019626352,False,-0.6900285964170765,True,0.0,True,盈利变化,-25433965.126666665,未知,-25433965.126666665
21,600301,1070147.79,1070147.79,2019-03-31,一季度报告,1070147.79,2019,3,-1.5501235875846393,False,-0.3181778934358386,True,0.13239982663388278,False,盈利变化,60402506.42666666,未知,60402506.42666666
22,600301,3497690.3100000005,3497690.3100000005,2019-06-30,半年度报告,3497690.3100000005,2019,6,-1.1202211976120326,False,-0.18795240158223017,True,0.5264242197970702,False,盈利变化,64789598.25333333,未知,64789598.25333333
23,600301,7875180.080000001,7875180.080000001,2019-09-30,三季度报告,7875180.080000001,2019,9,-0.9425805177815043,True,-2.2755819957572005,True,0.6792411246732784,False,平均增速,12162115.792071218,未知,12162115.792071218
24,600301,6503690.9700000025,6503690.9700000025,2019-12-31,年度报告,6503690.9700000025,2019,12,-0.948122749882286,True,-2.022728518142436,True,0.0,True,比例外推,6503690.9700000025,未知,6503690.9700000025
25,600301,2651185.18,2651185.18,2020-03-31,一季度报告,2590408.08,2020,3,1.1754710907733594,False,-1.2904653364183585,True,0.13838352468923357,False,前期平均,-16140542.850000001,未知,-16140542.850000001
