,SECURITYCODE_x,NETPROFIT_x,PARENTNETPROFIT_x,REPORTDATE_x,REPORTTIMETYPE_x,KCFJCXSYJLR,Year,Month,managesituationChangeRate,managesituationGreatChange,historyprofitextroplaterate,ifhistoryprofitextroplate,IfprofitdisStableChangeRage,IfprofitdisStable,predicttype,predict,analyst_prediction,adj_prediction
0,600358,10649881.35,10461728.18,2013-12-31,年度报告,-118737359.07,2013,12,未知,未知,未知,未知,未知,未知,未知,未知,未知,未知
1,600358,-10405462.150000002,-10772707.41,2014-03-31,一季度报告,-10628962.39,2014,3,未知,未知,未知,未知,未知,未知,未知,未知,未知,未知
2,600358,-26429997.25,-26567062.8,2014-06-30,半年度报告,-27909307.63000001,2014,6,未知,未知,未知,未知,未知,未知,未知,未知,未知,未知
3,600358,-47080013.28999999,-47724676.2,2014-09-30,三季度报告,-49262009.6,2014,9,未知,未知,未知,未知,未知,未知,未知,未知,未知,未知
4,600358,-165744991.61999995,-165896270.73,2014-12-31,年度报告,-164850341.9,2014,12,0.0,True,未知,未知,未知,未知,未知,未知,未知,未知
5,600358,2557793.38,2132716.46,2015-03-31,一季度报告,-3960041.6,2015,3,-2.023489509305456,False,未知,未知,未知,未知,未知,未知,25184000.0,未知
6,600358,40382185.37,39927602.8,2015-06-30,半年度报告,-25679740.35,2015,6,-1.402946744536646,False,未知,未知,未知,未知,未知,未知,61086667.0,未知
7,600358,21296157.61,20741028.720000006,2015-09-30,三季度报告,-43434090.73,2015,9,-1.226208121148982,False,未知,未知,未知,未知,未知,未知,19802167.0,未知
8,600358,12889330.55,12731772.259999998,2015-12-31,年度报告,-67048101.5,2015,12,-1.0642546193758708,False,未知,未知,未知,未知,未知,未知,19515500.0,未知
9,600358,-11157299.91,-11566268.97,2016-03-31,一季度报告,-10807361.35,2016,3,3.1636988481063315,False,未知,未知,未知,未知,未知,未知,19155000.0,未知
10,600358,-32315054.19,-32875155.369999994,2016-06-30,半年度报告,-32486862.08,2016,6,-0.736272783346891,True,未知,未知,未知,未知,未知,未知,5954240.0,未知
11,600358,-51101302.75999999,-51762743.06,2016-09-30,三季度报告,-51315885.8,2016,9,-0.49991535820531524,True,未知,未知,未知,未知,未知,未知,-43000000.0,未知
12,600358,-163133387.06,-163103636.58000004,2016-12-31,年度报告,-152579747.94,2016,12,-0.1737444152985898,True,-1.166211952492395,True,0.0,True,比例外推,-163103636.58000004,7500000.0,7500000.0
13,600358,-5814557.5299999975,-5936126.620000001,2017-03-31,一季度报告,-5951179.36,2017,3,-1.9545213838390043,False,-1.8434686113797325,True,0.006040891879106419,True,前期平均,-114590846.32500002,29845000.0,29845000.0
14,600358,-21356429.85,-22889999.88,2017-06-30,半年度报告,-22997582.77,2017,6,-1.3295640876039638,False,5.632256089448428,False,0.12793044353726707,False,去年同期,-142982885.74,,-142982885.74
15,600358,51023718.83999999,46498065.26,2017-09-30,三季度报告,-44056311.08,2017,9,-1.208407237678807,False,-2.963821656016964,True,0.22015314904899697,False,盈利变化,-159877158.9266667,未知,-159877158.9266667
16,600358,53519281.06999999,32306847.070000004,2017-12-31,年度报告,-36124561.19,2017,12,-1.0652832724308177,False,-1.1344762230990373,True,0.0,True,盈利变化,-124285240.9966667,,-124285240.9966667
17,600358,5134943.1000000015,1388875.64,2018-03-31,一季度报告,67918.54000000001,2018,3,-2.8315892989367333,False,-0.35230027669971353,True,0.06652915386015155,True,盈利变化,40332310.93666667,未知,40332310.93666667
18,600358,-4708502.950000001,-9531399.57,2018-06-30,半年度报告,-10541269.84,2018,6,-1.4986733000225692,False,6.294677717141079,False,0.2257720150157076,False,去年同期,-22658377.99,未知,-22658377.99
19,600358,-10885618.249999998,-16802586.5,2018-09-30,三季度报告,-22904390.389999993,2018,9,-0.7912758694952075,True,-4.423819517282237,True,0.4850022295522446,False,平均增速,-7982901.790277062,未知,-7982901.790277062
20,600358,-65226375.77,-83590557.22,2018-12-31,年度报告,-95192595.03,2018,12,-0.8010085125009322,True,-1.7124312576908869,True,0.0,True,比例外推,-83590557.22,未知,-83590557.22
21,600358,-1508952.43,-4042438.33,2019-03-31,一季度报告,-3876448.86,2019,3,1.0740018229218542,False,-1.6051126835295881,True,0.08645454752625019,True,盈利变化,-88849713.75333333,未知,-88849713.75333333
22,600358,-5055506.42,-9986939.05,2019-06-30,半年度报告,-11746935.64,2019,6,-3.2618402203613353,False,-0.8245435901682586,True,0.31652818076280415,False,前期平均,-76596871.19,未知,-76596871.19
23,600358,12616751.56,-2202328.81,2019-09-30,三季度报告,-3969987.92,2019,9,-1.9783441882136554,False,-279.6153195146558,True,0.6207335225236185,False,前期平均,-48868384.93500001,未知,-48868384.93500001
24,600358,-187255628.06,-190094288.44,2019-12-31,年度报告,-201839578.06,2019,12,-1.1632756875462988,False,-0.19010915941695575,True,0.0,True,前期平均,-190094288.44,未知,-190094288.44
25,600358,2910721.5,3796992.3900000006,2020-03-31,一季度报告,-3338298.3199999994,2020,3,-8.057797938666628,False,-3.440613275383246,True,0.10366298412541225,False,盈利变化,-189376754.38666666,未知,-189376754.38666666
