,SECURITYCODE_x,NETPROFIT_x,PARENTNETPROFIT_x,REPORTDATE_x,REPORTTIMETYPE_x,KCFJCXSYJLR,Year,Month,managesituationChangeRate,managesituationGreatChange,historyprofitextroplaterate,ifhistoryprofitextroplate,IfprofitdisStableChangeRage,IfprofitdisStable,predicttype,predict,analyst_prediction,adj_prediction
0,600307,-2373658794.4700003,-2338477546.6800003,2013-12-31,年度报告,-2349391581.7499995,2013,12,未知,未知,未知,未知,未知,未知,未知,未知,未知,未知
1,600307,-433757676.24,-428314793.98,2014-03-31,一季度报告,-428314793.98,2014,3,未知,未知,未知,未知,未知,未知,未知,未知,未知,未知
2,600307,-332644124.78,-321856906.05,2014-06-30,半年度报告,-330827104.71000004,2014,6,未知,未知,未知,未知,未知,未知,未知,未知,未知,未知
3,600307,-150702335.65,-136115180.35999998,2014-09-30,三季度报告,-237632078.39000005,2014,9,未知,未知,未知,未知,未知,未知,未知,未知,未知,未知
4,600307,22303884.419999994,39133715.40000001,2014-12-31,年度报告,3369262.12,2014,12,-0.0,False,未知,未知,未知,未知,未知,未知,未知,未知
5,600307,-371267842.78,-366402275.59,2015-03-31,一季度报告,-368879135.35000014,2015,3,4.4723153606084995,False,未知,未知,未知,未知,未知,未知,643250000.0,未知
6,600307,-1542535978.4399998,-1534256305.9599993,2015-06-30,半年度报告,-1534313778.77,2015,6,6.1357304026934525,False,未知,未知,未知,未知,未知,未知,-2033125000.0,未知
7,600307,-3541521941.249999,-3526627996.690001,2015-09-30,三季度报告,-3526530501.319999,2015,9,14.750643705899325,False,未知,未知,未知,未知,未知,未知,-2934166667.0,未知
8,600307,-7410824272.34,-7363873554.599998,2015-12-31,年度报告,-7399671917.619998,2015,12,-107.42356056784125,False,未知,未知,未知,未知,未知,未知,,未知
9,600307,-270979739.61,-266753399.67,2016-03-31,一季度报告,-273624131.83,2016,3,5.393386447628715,False,未知,未知,未知,未知,未知,未知,108900000.0,未知
10,600307,219895866.64,227339607.93,2016-06-30,半年度报告,227318857.2,2016,6,0.538802872442906,False,未知,未知,未知,未知,未知,未知,578476667.0,未知
11,600307,442008218.0500001,451475390.27,2016-09-30,三季度报告,447751928.25999993,2016,9,-0.32976306970663444,False,未知,未知,未知,未知,未知,未知,,未知
12,600307,21722341.2,82421640.80999999,2016-12-31,年度报告,1196503.09,2016,12,-0.6797038079381543,False,-5.303450185818536,True,0.0,True,盈利变化,-4896917414.363333,149600000.0,149600000.0
13,600307,219090666.92,223402205.00000003,2017-03-31,一季度报告,220235872.64,2017,3,7.7595434178445295,False,-0.3267797524235556,True,118.6368124713473,False,盈利变化,740901646.7699999,1225520000.0,1225520000.0
14,600307,344093295.84,350768998.33999985,2017-06-30,半年度报告,315478661.73,2017,6,-11.794467539292171,False,-1.2345330629974176,True,159.31815532321366,False,前期平均,-2414811887.6699996,913000000.0,913000000.0
15,600307,603698670.7,664716979.3000001,2017-09-30,三季度报告,646715520.8800001,2017,9,-6.370168918898905,False,-1.2394265271562057,True,272.82901767827997,False,前期平均,-1151353058.5949993,946500000.0,946500000.0
16,600307,345181334.17999995,421160883.2,2017-12-31,年度报告,529157067.0,2017,12,-110.27269637353824,False,-1.0058800247030557,True,0.0,True,前期平均,421160883.2,未知,421160883.2
17,600307,121252017.19,122738238.89,2018-03-31,一季度报告,117353833.6,2018,3,-11.834139253119037,False,-1.682262332867635,True,152.61303292266427,False,前期平均,-3255247834.784999,未知,-3255247834.784999
18,600307,591981320.7700001,584855922.9799999,2018-06-30,半年度报告,531157917.78,2018,6,-7.898300034225975,False,-1.5203128088588187,True,126.38949849510053,False,前期平均,-2460884323.4999986,未知,-2460884323.4999986
19,600307,1081154700.15,1073658996.9400004,2018-09-30,三季度报告,1020083875.8699998,2018,9,-4.931860230398881,False,-1.3895441186024042,True,248.91182621523916,False,前期平均,-1086189423.7949991,未知,-1086189423.7949991
20,600307,1098912934.49,1092667119.74,2018-12-31,年度报告,958466605.6399996,2018,12,-7.876556057437973,False,-1.093429847739763,True,0.0,True,前期平均,1092667119.74,,1092667119.74
21,600307,30755409.67,30913847.36,2019-03-31,一季度报告,25285136.050000004,2019,3,-20.57624169460632,False,-5.673508733308602,True,152.63722905766994,False,前期平均,322784762.0,未知,322784762.0
22,600307,770389058.4000003,769432027.2099999,2019-06-30,半年度报告,759301664.0,2019,6,-5.009685291053681,False,1.099264880080006,True,126.2738899016748,False,前期平均,763210052.79,248000000.0,248000000.0
23,600307,1263621592.67,1252968559.69,2019-09-30,三季度报告,1241322428.3900006,2019,9,-3.1954848775486777,False,1.067796840168803,True,248.71592353639522,False,前期平均,970911620.165,1669000000.0,1669000000.0
24,600307,1243569810.04,1237328548.85,2019-12-31,年度报告,1144621184.19,2019,12,-3.160006238866961,False,4.990198562889088,False,0.0,True,去年同期,1237328548.85,未知,1237328548.85
25,600307,-279134039.2099999,-279133792.01,2020-03-31,一季度报告,-284420739.01000005,2020,3,-78.1785783359393,False,0.8192679842645905,True,0.22929103571438755,False,盈利变化,824387382.1033332,未知,824387382.1033332
