,SECURITYCODE_x,NETPROFIT_x,PARENTNETPROFIT_x,REPORTDATE_x,REPORTTIMETYPE_x,KCFJCXSYJLR,Year,Month,managesituationChangeRate,managesituationGreatChange,historyprofitextroplaterate,ifhistoryprofitextroplate,IfprofitdisStableChangeRage,IfprofitdisStable,predicttype,predict,analyst_prediction,adj_prediction
0,600310,69453758.72999999,54747135.15000001,2013-12-31,年度报告,37612071.18000001,2013,12,未知,未知,未知,未知,未知,未知,未知,未知,未知,未知
1,600310,1943376.68,8705375.27,2014-03-31,一季度报告,-18623577.87,2014,3,未知,未知,未知,未知,未知,未知,未知,未知,未知,未知
2,600310,48414584.82000001,39314565.56,2014-06-30,半年度报告,13037287.72,2014,6,未知,未知,未知,未知,未知,未知,未知,未知,未知,未知
3,600310,72319680.36,52174890.12,2014-09-30,三季度报告,25737763.67000001,2014,9,未知,未知,未知,未知,未知,未知,未知,未知,未知,未知
4,600310,-4202100.05,-8106399.989999997,2014-12-31,年度报告,-447428410.6499999,2014,12,0.0,True,未知,未知,未知,未知,未知,未知,未知,未知
5,600310,-55867488.63000001,-50554951.19000001,2015-03-31,一季度报告,-52664557.99,2015,3,34.73870132577694,False,未知,未知,未知,未知,未知,未知,42000000.0,未知
6,600310,392929143.32000005,391160821.1,2015-06-30,半年度报告,-101280932.38,2015,6,0.4345627250181173,True,未知,未知,未知,未知,未知,未知,256200000.0,未知
7,600310,420043935.65,403088354.83,2015-09-30,三季度报告,-90886471.84999998,2015,9,-0.03962851627293904,True,未知,未知,未知,未知,未知,未知,440000000.0,未知
8,600310,399254657.0,375913541.76999986,2015-12-31,年度报告,-225051492.6,2015,12,-17.52834485223644,False,未知,未知,未知,未知,未知,未知,440000000.0,未知
9,600310,20727636.59,17371649.32,2016-03-31,一季度报告,14405550.47,2016,3,-2.2431874142397796,False,未知,未知,未知,未知,未知,未知,71000000.0,未知
10,600310,130088446.5,112905924.35,2016-06-30,半年度报告,107042473.36,2016,6,-0.82324100945234,True,未知,未知,未知,未知,未知,未知,180750000.0,未知
11,600310,129865048.97999994,103528728.85,2016-09-30,三季度报告,96385648.26,2016,9,-0.8346512047066617,True,未知,未知,未知,未知,未知,未知,217166667.00000003,未知
12,600310,237774312.8099999,209400229.84,2016-12-31,年度报告,44775901.91,2016,12,-0.8260414562177543,True,11.237379557138334,False,0.0,True,比例外推,209400229.84,76000000.0,76000000.0
13,600310,-81946252.76000002,-78180942.56999998,2017-03-31,一季度报告,-81473807.03,2017,3,2.3507804147583227,False,-1.768770623769169,True,0.1574964951355954,False,盈利变化,81561086.50666668,230000000.0,230000000.0
14,600310,17308023.890000004,5521622.339999999,2017-06-30,半年度报告,1595869.41,2017,6,-0.4661035580127403,True,0.4104892028340585,True,1.4534524940191593,False,平均增速,-52476375.525493994,230000000.0,230000000.0
15,600310,45302914.66,17275058.330000002,2017-09-30,三季度报告,11611970.03,2017,9,-0.46518513429509184,True,0.4724831618047002,True,1.3196409468278607,False,平均增速,-33520773.40525346,151000000.0,151000000.0
16,600310,100103572.37,63440511.04,2017-12-31,年度报告,-104684855.19000004,2017,12,-0.7079004964447151,True,0.20376040416361071,True,0.0,True,比例外推,63440511.04,300000000.0,300000000.0
17,600310,-69951381.26000002,-74626273.88000001,2018-03-31,一季度报告,-77040470.82000001,2018,3,-1.8475525895419842,False,-3.6640067047931715,True,0.33360572545563344,False,前期平均,-145634565.465,265000000.0,265000000.0
18,600310,24993617.38000001,2345682.6700000004,2018-06-30,半年度报告,-330036.05,2018,6,3.0128069600208978,False,0.9338147541234447,True,1.4488212425425058,False,前期平均,-90672883.165,177000000.0,177000000.0
19,600310,36227919.39,9589564.48,2018-09-30,三季度报告,4690910.93,2018,9,0.5330969155351912,False,0.835234862763766,True,1.337440731814699,False,前期平均,-83297819.07000001,,-83297819.07000001
20,600310,101377487.89,68497672.78,2018-12-31,年度报告,-67191507.66000001,2018,12,-0.30618101746372284,True,0.6857173625875858,True,0.0,True,比例外推,68497672.78,,68497672.78
21,600310,275285128.14,269215239.44,2019-03-31,一季度报告,15979719.410000002,2019,3,-1.992886165776335,False,-1.285297696561768,True,0.42713545092174937,False,盈利变化,192524593.08666667,未知,192524593.08666667
22,600310,185882723.2,160677683.06,2019-06-30,半年度报告,44170140.34,2019,6,1.778859805446856,False,0.6608654560876692,True,1.5971954467675453,False,前期平均,76404035.03499998,未知,76404035.03499998
23,600310,212141606.30000004,172597954.82999995,2019-09-30,三季度报告,55374752.11000002,2019,9,0.9171335229693407,False,0.5863636405061537,True,1.4953278974269069,False,前期平均,88644669.04499993,未知,88644669.04499993
24,600310,190812028.9700001,151788266.58999997,2019-12-31,年度报告,-36951579.66,2019,12,-0.314899587910868,True,0.3999164056801617,True,0.0,True,比例外推,151788266.58999997,未知,151788266.58999997
25,600310,-141536486.62,-133454174.25999998,2020-03-31,一季度报告,-45374177.38,2020,3,-0.747702466895784,True,-4.624613772506209,True,0.9299192915880862,False,平均增速,-95465907.37990125,未知,-95465907.37990125
