,SECURITYCODE_x,NETPROFIT_x,PARENTNETPROFIT_x,REPORTDATE_x,REPORTTIMETYPE_x,KCFJCXSYJLR,Year,Month,managesituationChangeRate,managesituationGreatChange,historyprofitextroplaterate,ifhistoryprofitextroplate,IfprofitdisStableChangeRage,IfprofitdisStable,predicttype,predict,analyst_prediction,adj_prediction
0,600356,74304297.56999998,73701637.75,2013-12-31,年度报告,72011906.11,2013,12,未知,未知,未知,未知,未知,未知,未知,未知,未知,未知
1,600356,17449430.94,17297493.5,2014-03-31,一季度报告,16917618.5,2014,3,未知,未知,未知,未知,未知,未知,未知,未知,未知,未知
2,600356,26223857.28,26105974.43000001,2014-06-30,半年度报告,25309769.06,2014,6,未知,未知,未知,未知,未知,未知,未知,未知,未知,未知
3,600356,46507529.71,46304086.66,2014-09-30,三季度报告,45088154.49999999,2014,9,未知,未知,未知,未知,未知,未知,未知,未知,未知,未知
4,600356,79788562.91,79574362.63999997,2014-12-31,年度报告,77933555.48000002,2014,12,0.0,True,未知,未知,未知,未知,未知,未知,未知,未知
5,600356,18170265.99,18044069.25,2015-03-31,一季度报告,17590101.44,2015,3,3.2582648010411264,False,未知,未知,未知,未知,未知,未知,未知,未知
6,600356,29436083.590000004,29667063.71,2015-06-30,半年度报告,28834671.72000001,2015,6,1.8334617892642824,False,未知,未知,未知,未知,未知,未知,94000000.0,未知
7,600356,51556786.16,51622960.16,2015-09-30,三季度报告,50756582.64999999,2015,9,0.5976831715923873,False,未知,未知,未知,未知,未知,未知,,未知
8,600356,87813450.7,87968052.92999999,2015-12-31,年度报告,85756737.97999999,2015,12,-0.06873498080403036,True,未知,未知,未知,未知,未知,未知,未知,未知
9,600356,24295602.23,24582358.11000001,2016-03-31,一季度报告,24146907.41,2016,3,3.089334609129736,False,未知,未知,未知,未知,未知,未知,107000000.0,未知
10,600356,37868431.34,38774778.63000001,2016-06-30,半年度报告,37982876.73,2016,6,1.5242589539065774,False,未知,未知,未知,未知,未知,未知,,未知
11,600356,64607682.17,65640892.82,2016-09-30,三季度报告,65651886.16000001,2016,9,0.4412127501393501,True,未知,未知,未知,未知,未知,未知,未知,未知
12,600356,93667168.65,94670006.86,2016-12-31,年度报告,92223199.41,2016,12,-0.15383922419985285,True,0.1397471683822431,True,0.0,True,比例外推,94670006.86,未知,94670006.86
13,600356,27341333.919999994,27440043.28,2017-03-31,一季度报告,27045543.28,2017,3,2.0583435169287414,False,0.3641667012353213,True,0.0338228663352696,True,前期平均,92031330.04,未知,92031330.04
14,600356,45848329.1,46123371.16,2017-06-30,半年度报告,45313206.00000001,2017,6,0.9621699378794488,False,0.36070684762119837,True,0.054239156525111576,True,前期平均,100896297.5,未知,100896297.5
15,600356,74398804.68999998,75076556.96999997,2017-09-30,三季度报告,74118311.25999999,2017,9,0.150084557661202,True,0.3176593666476572,True,0.08444922205253169,True,比例外推,119088036.4044424,未知,119088036.4044424
16,600356,96566049.03,97730625.05,2017-12-31,年度报告,95805050.75,2017,12,-0.20671993569435204,True,0.11773321373045045,True,0.0,True,比例外推,97730625.05,未知,97730625.05
17,600356,17554550.39,18195467.49,2018-03-31,一季度报告,17766855.59,2018,3,1.717654441711306,False,0.28768514885199703,True,0.0446321055754183,True,前期平均,86316931.75999999,未知,86316931.75999999
18,600356,29814503.53,31046821.12,2018-06-30,半年度报告,30164383.98,2018,6,0.6206544279494796,False,0.3624146655743529,True,0.07078508278096812,True,前期平均,86628015.58999999,未知,86628015.58999999
19,600356,53155367.45999999,54802995.94,2018-09-30,三季度报告,53599151.77,2018,9,-0.0012702773975172153,True,0.28092188187265443,True,0.10059439195484432,False,平均增速,74107213.96854217,未知,74107213.96854217
20,600356,64512853.51000001,66794562.41,2018-12-31,年度报告,64279389.95,2018,12,-0.23053393696457442,True,0.06420233053937931,True,0.0,True,比例外推,66794562.41,未知,66794562.41
21,600356,26555891.59000001,24758939.459999993,2019-03-31,一季度报告,22821190.03,2019,3,3.232765631657968,False,0.32007776995111265,True,0.011678618445900124,True,前期平均,93176839.195,未知,93176839.195
22,600356,42640026.78,43166495.01,2019-06-30,半年度报告,38633950.27,2019,6,1.4922198518326284,False,0.28772916263600223,True,0.03950888214553261,True,前期平均,95532578.725,未知,95532578.725
23,600356,77828582.55000001,78205486.73,2019-09-30,三季度报告,72516538.15,2019,9,0.3978700763552202,True,0.23521026017245827,True,0.0612408801647466,True,比例外推,99486056.444726,未知,99486056.444726
24,600356,88365279.16,89422515.49999999,2019-12-31,年度报告,85371768.26,2019,12,0.15177508864155595,True,0.3217498573932547,True,0.0,True,比例外推,89422515.49999999,未知,89422515.49999999
25,600356,17317455.979999997,15930627.460000005,2020-03-31,一季度报告,13222064.7,2020,3,1.798034376596879,False,0.18299893177892118,True,0.008022446506525505,True,前期平均,73566648.37500001,未知,73566648.37500001
