,SECURITYCODE_x,NETPROFIT_x,PARENTNETPROFIT_x,REPORTDATE_x,REPORTTIMETYPE_x,KCFJCXSYJLR,Year,Month,managesituationChangeRate,managesituationGreatChange,historyprofitextroplaterate,ifhistoryprofitextroplate,IfprofitdisStableChangeRage,IfprofitdisStable,predicttype,predict,analyst_prediction,adj_prediction
0,600398,1350575612.77,1350575612.77,2013-12-31,年度报告,1293758665.93,2013,12,未知,未知,未知,未知,未知,未知,未知,未知,未知,未知
1,600398,646076728.2700001,645021280.1000001,2014-03-31,一季度报告,508087126.1500001,2014,3,未知,未知,未知,未知,未知,未知,未知,未知,未知,未知
2,600398,1227523949.9299994,1227776928.22,2014-06-30,半年度报告,1097177803.5000002,2014,6,未知,未知,未知,未知,未知,未知,未知,未知,未知,未知
3,600398,1617149683.4599998,1612982115.28,2014-09-30,三季度报告,1489872000.8700006,2014,9,未知,未知,未知,未知,未知,未知,未知,未知,未知,未知
4,600398,2378969339.97,2374772139.59,2014-12-31,年度报告,2241164669.63,2014,12,0.0,True,未知,未知,未知,未知,未知,未知,未知,未知
5,600398,867979246.49,867918057.2499999,2015-03-31,一季度报告,859855766.61,2015,3,1.0904260340508423,False,未知,未知,未知,未知,未知,未知,3177379231.0,未知
6,600398,1666258905.2499998,1665869497.59,2015-06-30,半年度报告,1631864720.0700002,2015,6,0.10024379796990336,True,未知,未知,未知,未知,未知,未知,3180658462.0000005,未知
7,600398,2290112878.03,2289572800.81,2015-09-30,三季度报告,2249418541.48,2015,9,-0.1648419273840173,True,未知,未知,未知,未知,未知,未知,3210112000.0,未知
8,600398,2954072131.0000005,2953131679.3,2015-12-31,年度报告,2907546340.09,2015,12,-0.43228540608807026,True,未知,未知,未知,未知,未知,未知,3210112000.0,未知
9,600398,957704733.74,957618848.39,2016-03-31,一季度报告,923750513.8200004,2016,3,0.5559998908171591,False,未知,未知,未知,未知,未知,未知,3576937857.0,未知
10,600398,1773058072.8,1772838817.18,2016-06-30,半年度报告,1722579172.36,2016,6,-0.18945632727624387,True,未知,未知,未知,未知,未知,未知,3392830667.0000005,未知
11,600398,2414768319.09,2414423925.7,2016-09-30,三季度报告,2361739206.7700005,2016,9,-0.41025805944910826,True,未知,未知,未知,未知,未知,未知,3254021667.0,未知
12,600398,3123134517.4800005,3122647316.530001,2016-12-31,年度报告,3067129051.9100013,2016,12,-0.5428088574422153,True,0.5841461456737345,True,0.0,True,比例外推,3122647316.530001,3243478182.0,3122647316.530001
13,600398,1010303345.75,1010003238.1799998,2017-03-31,一季度报告,1001478010.4799998,2017,3,0.4102212980568367,True,0.2650849766526103,True,0.04783218306356948,True,比例外推,3656379657.3251643,3459504510.0,3656379657.3251643
14,600398,1875287820.6600003,1874833234.71,2017-06-30,半年度报告,1852790296.55,2017,6,-0.23827897490284616,True,0.22542579145228367,True,0.04792115130914315,True,比例外推,3469234915.91346,3413211765.0,3469234915.91346
15,600398,2511707506.1400003,2511252920.1900005,2017-09-30,三季度报告,2478558802.53,2017,9,-0.4407017840622651,True,0.2360409780954929,True,0.07137102301076781,True,比例外推,3399629595.894117,3354947333.0,3399629595.894117
16,600398,3329328822.7,3328874236.7500005,2017-12-31,年度报告,3288397221.67,2017,12,-0.567557655550567,True,0.1712395391937386,True,0.0,True,比例外推,3328874236.7500005,3852200000.0,3852200000.0
17,600398,1130941250.9,1130941250.9,2018-03-31,一季度报告,1117780123.26,2018,3,0.33680207875328616,True,0.10676695056799676,True,0.004753894909528711,True,比例外推,3733064505.2709193,3708574761.9999995,3733064505.2709193
18,600398,2066010728.01,2066010728.01,2018-06-30,半年度报告,2040953110.21,2018,6,-0.2798035598105308,True,0.09050013861952214,True,0.0013292834644096363,True,比例外推,3655979086.5604477,3690398947.0,3655979086.5604477
19,600398,2628239492.41,2628239492.41,2018-09-30,三季度报告,2508653762.7699995,2018,9,-0.4622878621541532,True,0.06770283920346043,True,0.012069192792758532,True,比例外推,3395455700.931253,3518453750.0,3395455700.931253
20,600398,3455926894.99,3454774216.84,2018-12-31,年度报告,3267784944.1,2018,12,-0.594339975204156,True,0.09567734496331923,True,0.0,True,比例外推,3454774216.84,3522144500.0,3454774216.84
21,600398,1207564934.8300002,1209623300.4900002,2019-03-31,一季度报告,1153520350.4999998,2019,3,0.1942049259368826,True,0.14932582105361902,True,0.026131474182120862,True,比例外推,3707303973.6442933,3718603043.0,3707303973.6442933
22,600398,2112347452.4200008,2125237193.25,2019-06-30,半年度报告,1989744186.35,2019,6,-0.3462881898629411,True,0.13257393259422948,True,0.04135898764962276,True,比例外推,3547211577.88359,3668607273.0000005,3547211577.88359
23,600398,2593816880.13,2616402496.9999995,2019-09-30,三季度报告,2417621597.57,2019,9,-0.4861291687191066,True,0.0669856447686095,True,0.010083873008641664,True,比例外推,3363984278.4395895,3608095294.0,3363984278.4395895
24,600398,3167568193.31,3210519911.15,2019-12-31,年度报告,3012696729.4700003,2019,12,-0.6092001787630672,True,0.07119613480627446,True,0.0,True,比例外推,3210519911.15,3602513750.0,3602513750.0
25,600398,286766436.29999995,295253393.4,2020-03-31,一季度报告,288897482.67000014,2020,3,0.11842897538270497,True,0.1279093819727539,True,0.03972105419348826,True,比例外推,848217005.761896,2444398667.0,2444398667.0
