,SECURITYCODE_x,NETPROFIT_x,PARENTNETPROFIT_x,REPORTDATE_x,REPORTTIMETYPE_x,KCFJCXSYJLR,Year,Month,managesituationChangeRate,managesituationGreatChange,historyprofitextroplaterate,ifhistoryprofitextroplate,IfprofitdisStableChangeRage,IfprofitdisStable,predicttype,predict,analyst_prediction,adj_prediction
0,600399,23189368.67000001,23189368.67000001,2013-12-31,年度报告,18159530.32,2013,12,未知,未知,未知,未知,未知,未知,未知,未知,未知,未知
1,600399,5958809.7799999975,5958809.7799999975,2014-03-31,一季度报告,6048359.7799999975,2014,3,未知,未知,未知,未知,未知,未知,未知,未知,未知,未知
2,600399,14483742.45,14483742.45,2014-06-30,半年度报告,9654446.04,2014,6,未知,未知,未知,未知,未知,未知,未知,未知,未知,未知
3,600399,22624845.16,22624845.16,2014-09-30,三季度报告,16386062.5,2014,9,未知,未知,未知,未知,未知,未知,未知,未知,未知,未知
4,600399,46960183.24,46960183.24,2014-12-31,年度报告,30913099.05,2014,12,0.0,True,未知,未知,未知,未知,未知,未知,未知,未知
5,600399,46960183.24,46960183.24,2014-12-31,年度报告,30913099.05,2014,12,0.0,True,未知,未知,未知,未知,未知,未知,未知,未知
6,600399,-123719122.34,-123719122.34,2014-12-31,年度报告,30913099.05,2014,12,0.0,True,未知,未知,未知,未知,未知,未知,未知,未知
7,600399,-123719122.34,-123719122.34,2014-12-31,年度报告,30913099.05,2014,12,0.0,True,未知,未知,未知,未知,未知,未知,未知,未知
8,600399,60754047.26000001,60754047.26000001,2015-03-31,一季度报告,60689860.81,2015,3,2.891610829369354,False,未知,未知,未知,未知,未知,未知,251322167.0,未知
9,600399,130834877.89,130834877.89,2015-06-30,半年度报告,89118224.93,2015,6,0.6010619320284869,False,未知,未知,未知,未知,未知,未知,303363333.0,未知
10,600399,184207678.59,184207678.59,2015-09-30,三季度报告,103560087.26999998,2015,9,0.024951486121021882,True,未知,未知,未知,未知,未知,未知,223856667.00000003,未知
11,600399,51816919.02,51816919.02,2015-12-31,年度报告,-51154978.21,2015,12,-0.5061908393439223,True,未知,未知,未知,未知,未知,未知,219523332.99999997,未知
12,600399,49000853.47000001,49000853.47000001,2016-03-31,一季度报告,46300535.32000001,2016,3,-0.6183074261578009,True,未知,未知,未知,未知,未知,未知,244950000.0,未知
13,600399,103997622.3,103997622.3,2016-06-30,半年度报告,94788740.12,2016,6,-0.8227585102384047,True,未知,未知,未知,未知,未知,未知,191042500.0,未知
14,600399,132017450.72999996,132017450.72999996,2016-09-30,三季度报告,121178352.88,2016,9,-0.8741129096924688,True,未知,未知,未知,未知,未知,未知,192165000.0,未知
15,600399,-44102024.07000001,-44102024.07000001,2016-12-31,年度报告,-66122241.87000001,2016,12,-0.5524749616809617,True,0.4773271563154022,True,0.0,True,比例外推,-44102024.07000001,303400000.0,303400000.0
16,600399,31460520.85,31460520.85,2017-03-31,一季度报告,30323524.529999994,2017,3,-0.5267558210144783,True,0.4690077938236059,True,0.7593107091624001,False,平均增速,21273042.48082786,207918332.99999997,207918332.99999997
17,600399,59588431.13999999,59588431.13999999,2017-06-30,半年度报告,58424195.63000001,2017,6,-0.7770202033743996,True,0.43130483976077083,True,1.2667595306350623,False,平均增速,48109913.815222554,121000000.0,121000000.0
18,600399,67465318.93,67465318.93,2017-09-30,三季度报告,61664139.71999999,2017,9,-0.8243461864944919,True,0.2765637467110388,True,1.6390721967275876,False,平均增速,64170899.39230813,110000000.0,110000000.0
19,600399,-1337585276.2799995,-1337585276.2799995,2017-12-31,年度报告,-1299114407.94,2017,12,-1.5258118909280256,False,1.8929604748662328,True,0.0,True,前期平均,-1337585276.2799995,292000000.0,292000000.0
20,600399,-21944521.39,-21944521.39,2018-03-31,一季度报告,-21984454.75,2018,3,-0.2629057611422219,True,0.4267131464608816,True,0.6133116789096913,False,平均增速,6090060681.341337,未知,6090060681.341337
21,600399,-69541374.35000001,-69541374.35000001,2018-06-30,半年度报告,-70737807.19000001,2018,6,-0.6108410940452893,True,0.49250268943363673,True,1.0285718297804765,False,平均增速,6501377567.024366,未知,6501377567.024366
22,600399,-126164506.18,-126164506.18,2018-09-30,三季度报告,-128128425.08,2018,9,-0.6562771948938594,True,0.5733083004815259,True,1.2540489511990571,False,平均增速,7050389541.831556,未知,7050389541.831556
23,600399,2607308283.68,2607308283.68,2018-12-31,年度报告,-224867047.92,2018,12,-1.0173367403792697,False,347.7539830286348,False,0.0,True,盈利变化,-979502822.9399996,,-979502822.9399996
24,600399,50413725.24999999,50413725.24999999,2019-03-31,一季度报告,43567431.55,2019,3,-2.056727018916315,False,1.5454672276097408,True,0.4916258152734061,False,前期平均,-670516629.58,未知,-670516629.58
25,600399,125505606.39000005,125505606.39000005,2019-06-30,半年度报告,118632725.36,2019,6,-1.3334614664543223,False,1.8502115294994428,True,1.0455598741695598,False,前期平均,-633719186.3900001,未知,-633719186.3900001
26,600399,173918367.52000004,173918367.52000004,2019-09-30,三季度报告,165851049.13,2019,9,-1.1838026349258288,False,2.2649163273102313,False,1.3958709058644814,False,前期平均,-600121203.6850002,未知,-600121203.6850002
27,600399,302025455.43,302025455.43,2019-12-31,年度报告,209082733.7,2019,12,-0.9911060119683008,True,-4.774093143969022,True,0.0,True,比例外推,302025455.43,未知,302025455.43
28,600399,80194700.65,80194700.65,2020-03-31,一季度报告,56182588.94000001,2020,3,-0.5400187438042974,True,9.595571271711693,False,0.1176079867355734,False,未知,未知,363275000.0,未知
