,SECURITYCODE_x,NETPROFIT_x,PARENTNETPROFIT_x,REPORTDATE_x,REPORTTIMETYPE_x,KCFJCXSYJLR,Year,Month,managesituationChangeRate,managesituationGreatChange,historyprofitextroplaterate,ifhistoryprofitextroplate,IfprofitdisStableChangeRage,IfprofitdisStable,predicttype,predict,analyst_prediction,adj_prediction
0,600330,13695734.630000005,12140467.2,2013-12-31,年度报告,-50252590.65999999,2013,12,未知,未知,未知,未知,未知,未知,未知,未知,未知,未知
1,600330,11270531.750000002,11234526.179999998,2014-03-31,一季度报告,-3883528.03,2014,3,未知,未知,未知,未知,未知,未知,未知,未知,未知,未知
2,600330,15968015.209999995,15932009.64,2014-06-30,半年度报告,-3577488.18,2014,6,未知,未知,未知,未知,未知,未知,未知,未知,未知,未知
3,600330,11428909.430000005,11445737.52,2014-09-30,三季度报告,-13368231.36,2014,9,未知,未知,未知,未知,未知,未知,未知,未知,未知,未知
4,600330,13034733.69,13566562.65,2014-12-31,年度报告,-65635851.76,2014,12,0.0,True,未知,未知,未知,未知,未知,未知,未知,未知
5,600330,11296719.3,11739747.249999998,2015-03-31,一季度报告,6331265.5,2015,3,0.21518087467346003,True,未知,未知,未知,未知,未知,未知,153970000.0,未知
6,600330,20803234.18,20560680.62,2015-06-30,半年度报告,-3374986.56,2015,6,-0.14230200498412424,True,未知,未知,未知,未知,未知,未知,87093333.0,未知
7,600330,55349576.75999999,55618226.69,2015-09-30,三季度报告,25716383.15,2015,9,0.19834133903010537,True,未知,未知,未知,未知,未知,未知,107730000.0,未知
8,600330,55349576.75999999,55618226.69,2015-09-30,三季度报告,26233470.43,2015,9,0.19834133903010537,True,未知,未知,未知,未知,未知,未知,107730000.0,未知
9,600330,61433462.18,63333478.64000001,2015-12-31,年度报告,10734199.6,2015,12,0.05071073607795397,True,未知,未知,未知,未知,未知,未知,103693287.0,未知
10,600330,54199390.10000001,53080507.00000001,2016-03-31,一季度报告,34943017.4,2016,3,0.2123638966580327,True,未知,未知,未知,未知,未知,未知,271960000.0,未知
11,600330,95362648.6,92941268.96999998,2016-06-30,半年度报告,54508538.27000001,2016,6,-0.3416535856156956,True,未知,未知,未知,未知,未知,未知,,未知
12,600330,110984944.32999995,108563564.70000002,2016-09-30,三季度报告,53509988.88,2016,9,-0.7525593612145264,True,未知,未知,0.0,True,未知,未知,207515000.0,未知
13,600330,112777890.91999996,110331714.05,2016-12-31,年度报告,46512048.71,2016,12,-0.7770639299170294,True,3.5965122230226596,False,0.40758478611352766,False,未知,未知,294484860.0,未知
14,600330,53904978.52999999,54119014.79000001,2017-03-31,一季度报告,41068888.01000001,2017,3,-0.7473083257075249,True,3.803366611193878,False,0.8679184044739725,False,未知,未知,270000000.0,未知
15,600330,100208183.56,100471315.36,2017-06-30,半年度报告,84350906.47,2017,6,-0.8563826106860039,True,4.186804918623953,False,1.1457862897696236,False,未知,未知,235040000.0,未知
16,600330,150031384.21,150346738.14000002,2017-09-30,三季度报告,128229023.13999996,2017,9,-0.8765982655334092,True,2.3239730536634964,False,0.0,True,比例外推,124704489.35410975,204520000.0,204520000.0
17,600330,159789013.63000005,156863991.35,2017-12-31,年度报告,118585288.16,2017,12,-0.8785601103347889,True,2.0288874224072146,False,0.21614755368035665,False,未知,未知,209367500.0,未知
18,600330,85135086.59,82072310.98,2018-03-31,一季度报告,72180154.94,2018,3,-0.745928205455497,True,0.646051315835868,True,0.837353915066823,False,平均增速,283570549.0807904,300710000.0,283570549.0807904
19,600330,166124954.17,162066488.03000003,2018-06-30,半年度报告,137577722.98,2018,6,-0.8633271840338306,True,0.7252601394125092,True,0.8532361245505018,False,平均增速,248890568.61390746,300216000.0,300216000.0
20,600330,236747320.87000003,233257354.78,2018-09-30,三季度报告,187682402.34,2018,9,-0.9087142020176927,True,0.8039716978392156,True,0.0,True,比例外推,167248579.88847762,306836667.0,306836667.0
21,600330,290461342.79999995,283546469.38,2018-12-31,年度报告,224829617.68,2018,12,-0.9142886340001247,True,0.8344271000326682,True,0.2783895730512314,False,平均增速,283546469.38,322587500.0,322587500.0
22,600330,82880844.89999999,82635548.09,2019-03-31,一季度报告,41054255.94,2019,3,-0.8391293745203201,True,0.5750535832901429,True,0.34020532364784717,False,平均增速,295697642.1675384,379488000.0,379488000.0
23,600330,111402814.39000002,115296344.42,2019-06-30,半年度报告,61411584.88000001,2019,6,-0.9175576318535216,True,0.6988724988815325,True,0.1874084180581912,False,平均增速,231739390.03751457,311450000.0,311450000.0
24,600330,146754249.73,146704870.73,2019-09-30,三季度报告,78535320.76,2019,9,-0.9421504134464084,True,0.8140422263561126,True,0.0,True,比例外推,145000411.36337036,,145000411.36337036
25,600330,167669614.37,162417496.13,2019-12-31,年度报告,57849878.7,2019,12,-0.9528483394796177,True,1.1313030889024707,True,0.2506567439880952,False,平均增速,162417496.13,191000000.0,191000000.0
26,600330,97670345.76,98946612.05,2020-03-31,一季度报告,13504977.78,2020,3,-0.8347539211680983,True,0.19218650866523684,True,未知,未知,True,True,240200000.0,240200000.0
