,SECURITYCODE_x,NETPROFIT_x,PARENTNETPROFIT_x,REPORTDATE_x,REPORTTIMETYPE_x,KCFJCXSYJLR,Year,Month,managesituationChangeRate,managesituationGreatChange,historyprofitextroplaterate,ifhistoryprofitextroplate,IfprofitdisStableChangeRage,IfprofitdisStable,predicttype,predict,analyst_prediction,adj_prediction
0,600308,24783832.57,24465891.99,2014-03-31,一季度报告,4196107.6400000015,2014,3,未知,未知,未知,未知,未知,未知,未知,未知,未知,未知
1,600308,52428108.15000001,56566985.02999999,2014-06-30,半年度报告,-21734201.130000006,2014,6,未知,未知,未知,未知,未知,未知,未知,未知,未知,未知
2,600308,62942686.23000003,67131637.72999999,2014-09-30,三季度报告,-21734201.130000006,2014,9,未知,未知,未知,未知,未知,未知,未知,未知,未知,未知
3,600308,51745875.25,60119575.11,2014-12-31,年度报告,-160616087.41,2014,12,未知,未知,未知,未知,未知,未知,未知,未知,未知,未知
4,600308,19883346.39,25238011.91,2015-03-31,一季度报告,18548536.58,2015,3,0.0,True,未知,未知,未知,未知,未知,未知,70053685.0,未知
5,600308,50084763.73,58663329.29,2015-06-30,半年度报告,-14009237.980000002,2015,6,-0.5272796703041058,True,未知,未知,未知,未知,未知,未知,,未知
6,600308,56539103.35000001,68799209.27000001,2015-09-30,三季度报告,-30344959.37,2015,9,-0.60624761899362,True,未知,未知,未知,未知,未知,未知,未知,未知
7,600308,47010066.89999999,64574917.2,2015-12-31,年度报告,-173354292.19,2015,12,-0.5210471858817385,True,未知,未知,未知,未知,未知,未知,未知,未知
8,600308,26992136.86000001,27579930.51,2016-03-31,一季度报告,15532373.07,2016,3,0.2464618421808825,True,未知,未知,未知,未知,未知,未知,71000000.0,未知
9,600308,68057871.19000001,70669143.68999998,2016-06-30,半年度报告,42743322.29,2016,6,-0.5051622344949813,True,未知,未知,未知,未知,未知,未知,118800000.0,未知
10,600308,117282165.49,119205256.8,2016-09-30,三季度报告,42743322.29,2016,9,-0.5616514747929763,True,未知,未知,未知,未知,未知,未知,166040000.0,未知
11,600308,179984654.51000002,182034922.75,2016-12-31,年度报告,104298196.57999998,2016,12,-0.47279733460664347,True,未知,未知,未知,未知,未知,未知,未知,未知
12,600308,125367955.13,123909653.44,2017-03-31,一季度报告,116822338.55,2017,3,-0.081812873928945,True,0.20858928136795007,True,0.14365613479039838,False,平均增速,535888971.0497773,423726667.0,423726667.0
13,600308,297758281.71000004,295681182.98,2017-06-30,半年度报告,287158873.54999995,2017,6,-0.6358417896908657,True,0.32779171906660676,True,0.2011687926255717,False,平均增速,556654941.8978527,637450000.0,637450000.0
14,600308,489170234.24,482895574.09,2017-09-30,三季度报告,472210881.3,2017,9,-0.7886820006566712,True,0.9631805968468983,True,0.1697577419123581,False,平均增速,877116498.4583995,673652500.0,673652500.0
15,600308,683239556.74,673681608.24,2017-12-31,年度报告,650186561.28,2017,12,-0.8623003020036745,True,2.6450394901123433,False,0.0,True,比例外推,673681608.24,673652500.0,673681608.24
16,600308,165057563.15,167097167.10000002,2018-03-31,一季度报告,159261727.06999996,2018,3,-0.8023112641160937,True,4.3489776078201805,False,0.18086451459205338,False,未知,未知,818462500.0,未知
17,600308,375106917.5,371569736.13999987,2018-06-30,半年度报告,357722176.72,2018,6,-0.9167652619847596,True,4.040657539280824,False,0.2299496768361281,False,未知,未知,834500000.0,未知
18,600308,656508448.6799997,649712279.5,2018-09-30,三季度报告,628924644.41,2018,9,-0.9493349536925414,True,4.628427838600974,False,0.2892251082943567,False,未知,未知,846000000.0,未知
19,600308,720433039.73,719065722.1700001,2018-12-31,年度报告,683600356.08,2018,12,-0.9637259986991191,True,5.019871761739571,False,0.0,True,比例外推,719065722.1700001,849390000.0,849390000.0
20,600308,97284427.10999998,101831786.89,2019-03-31,一季度报告,93615069.03,2019,3,-0.8498473375165663,True,1.1666771264595113,True,0.04578398792436705,True,比例外推,508321483.5417074,964900000.0,964900000.0
21,600308,263417740.38,273684604.59000003,2019-06-30,半年度报告,250508772.99,2019,6,-0.9339286176453944,True,1.0507947203880836,True,0.06503607596502031,True,比例外推,569833488.0864742,,569833488.0864742
22,600308,466392714.3500001,482796979.2600001,2019-09-30,三季度报告,446910143.37,2019,9,-0.9622490272290762,True,1.165078245126197,True,0.2755503338013499,False,平均增速,601805483.6559289,未知,601805483.6559289
23,600308,653806920.1999999,680202187.9699999,2019-12-31,年度报告,560278350.04,2019,12,-0.9655987007768433,True,0.6691678253249411,True,0.0,True,比例外推,680202187.9699999,948790000.0,948790000.0
24,600308,149227768.30999997,155403062.39999998,2020-03-31,一季度报告,151351786.05999997,2020,3,-0.7452435779677585,True,0.330055928376047,True,0.03972932911646393,True,比例外推,787260860.577628,未知,787260860.577628
