,SECURITYCODE_x,NETPROFIT_x,PARENTNETPROFIT_x,REPORTDATE_x,REPORTTIMETYPE_x,KCFJCXSYJLR,Year,Month,managesituationChangeRate,managesituationGreatChange,historyprofitextroplaterate,ifhistoryprofitextroplate,IfprofitdisStableChangeRage,IfprofitdisStable,predicttype,predict,analyst_prediction,adj_prediction
0,600329,360589072.23000014,351794374.51000005,2013-12-31,年度报告,289941646.56,2013,12,未知,未知,未知,未知,未知,未知,未知,未知,未知,未知
1,600329,109409836.67,102341066.16,2014-03-31,一季度报告,101361175.23,2014,3,未知,未知,未知,未知,未知,未知,未知,未知,未知,未知
2,600329,210201273.82000008,198328122.57,2014-06-30,半年度报告,195682995.33,2014,6,未知,未知,未知,未知,未知,未知,未知,未知,未知,未知
3,600329,274258657.17,256836899.6,2014-09-30,三季度报告,253721430.91,2014,9,未知,未知,未知,未知,未知,未知,未知,未知,未知,未知
4,600329,379436552.7,357800340.94,2014-12-31,年度报告,343380863.87000006,2014,12,0.0,True,未知,未知,未知,未知,未知,未知,未知,未知
5,600329,125648186.55,119410652.76000004,2015-03-31,一季度报告,117864033.52,2015,3,2.295764651560558,False,未知,未知,未知,未知,未知,未知,441725000.0,未知
6,600329,242898810.27,238863710.87,2015-06-30,半年度报告,204426430.69,2015,6,0.7154466558503371,False,未知,未知,未知,未知,未知,未知,451292773.0,未知
7,600329,337781929.03000003,335031075.32000005,2015-09-30,三季度报告,243443737.72000003,2015,9,0.31477735634973214,True,未知,未知,未知,未知,未知,未知,425000000.0,未知
8,600329,457868106.83,451442939.02,2015-12-31,年度报告,350358851.8,2015,12,-0.04967228469657096,True,未知,未知,未知,未知,未知,未知,421000000.0,未知
9,600329,115285477.11,119581314.59,2016-03-31,一季度报告,116251964.73,2016,3,1.86983109053077,False,未知,未知,未知,未知,未知,未知,,未知
10,600329,250244938.68,258561636.09,2016-06-30,半年度报告,245988549.04,2016,6,0.48452383043448705,True,未知,未知,未知,未知,未知,未知,未知,未知
11,600329,340589314.73,350211464.64000005,2016-09-30,三季度报告,333400235.69999987,2016,9,0.06752031781420283,True,未知,未知,未知,未知,未知,未知,470661923.0,未知
12,600329,408786349.29,423597504.4099999,2016-12-31,年度报告,348166862.68999994,2016,12,-0.21246082255761525,True,0.23743851943859454,True,0.0,True,比例外推,423597504.4099999,472441282.0,472441282.0
13,600329,133290743.42,133753519.69999996,2017-03-31,一季度报告,123655977.59000002,2017,3,2.1277926870697073,False,0.01908919737574912,True,0.026645005164865898,True,前期平均,371010773.15999997,536440000.0,536440000.0
14,600329,275622934.01,277503047.23,2017-06-30,半年度报告,225015717.23000005,2017,6,0.4409445167284777,True,0.10459012243437765,True,0.08656696246377449,True,比例外推,415440544.7028512,487805714.0,487805714.0
15,600329,358888447.68,359504827.27,2017-09-30,三季度报告,302834942.02000004,2017,9,0.058721036259915545,True,0.1129631675070113,True,0.1604805701536296,False,平均增速,373646493.8760071,443500000.0,443500000.0
16,600329,473260607.67,476079838.39,2017-12-31,年度报告,409890301.94000006,2017,12,-0.11790334276991209,True,0.023566046988292136,True,0.0,True,比例外推,476079838.39,453333333.0,476079838.39
17,600329,174119786.91000003,173367607.95,2018-03-31,一季度报告,168689690.94000006,2018,3,1.7052821747252291,False,0.10645180416213494,True,0.02231513650488437,True,前期平均,405572466.07,615452000.0,615452000.0
18,600329,315225577.02000004,313491871.21,2018-06-30,半年度报告,305118315.64000005,2018,6,0.30826947882688693,True,0.11781984298434435,True,0.09353558845703669,True,比例外推,506128283.88740396,615250000.0,615250000.0
19,600329,403548108.23000014,400906349.31,2018-09-30,三季度报告,389952668.48,2018,9,0.004738588162961655,True,0.05808862324644954,True,0.16050479758653147,False,平均增速,527937508.8762547,569646000.0,527937508.8762547
20,600329,567787812.08,561679706.35,2018-12-31,年度报告,544747210.3,2018,12,-0.2380750343763338,True,0.09215525132999651,True,0.0,True,比例外推,561679706.35,623000000.0,561679706.35
21,600329,191583460.95,190006868.27,2019-03-31,一季度报告,171528132.79,2019,3,1.0709253016510027,False,0.4009367954726464,True,0.01881595813246134,True,前期平均,449081479.42499995,691337500.0,691337500.0
22,600329,353856833.43999994,346862520.44999987,2019-06-30,半年度报告,325300825.96999985,2019,6,0.14390804083490322,True,0.19887748763775898,True,0.10132470968874752,False,平均增速,624747061.5151203,646885000.0,624747061.5151203
23,600329,453460051.9799999,445064901.7000001,2019-09-30,三季度报告,416454881.56,2019,9,-0.10645332024581249,True,0.15385543305795538,True,0.1535046665155202,False,平均增速,624712241.1747167,634000000.0,624712241.1747167
24,600329,635358961.6400001,625568681.66,2019-12-31,年度报告,596675465.54,2019,12,-0.3649228381478644,True,0.28743216582685555,True,0.0,True,比例外推,625568681.66,,625568681.66
25,600329,174597138.03999996,169889787.25,2020-03-31,一季度报告,157338706.10999998,2020,3,0.8821513633899104,False,0.2464339510057665,True,0.012133502605833069,True,前期平均,501035709.10499996,712500000.0,712500000.0
