,SECURITYCODE_x,NETPROFIT_x,PARENTNETPROFIT_x,REPORTDATE_x,REPORTTIMETYPE_x,KCFJCXSYJLR,Year,Month,managesituationChangeRate,managesituationGreatChange,historyprofitextroplaterate,ifhistoryprofitextroplate,IfprofitdisStableChangeRage,IfprofitdisStable,predicttype,predict,analyst_prediction,adj_prediction
0,600311,4869184.67,4869184.67,2013-12-31,年度报告,5013102.77,2013,12,未知,未知,未知,未知,未知,未知,未知,未知,未知,未知
1,600311,1701897.71,1701897.71,2014-03-31,一季度报告,-3212385.46,2014,3,未知,未知,未知,未知,未知,未知,未知,未知,未知,未知
2,600311,658755.51,658755.51,2014-06-30,半年度报告,-4255527.66,2014,6,未知,未知,未知,未知,未知,未知,未知,未知,未知,未知
3,600311,-3163470.22,-3163470.22,2014-09-30,三季度报告,-8056623.550000003,2014,9,未知,未知,未知,未知,未知,未知,未知,未知,未知,未知
4,600311,-25057592.89,-25057592.89,2014-12-31,年度报告,-29975552.64,2014,12,0.0,True,未知,未知,未知,未知,未知,未知,未知,未知
5,600311,1102982.0,1102982.0,2015-03-31,一季度报告,1102982.0,2015,3,1.8610325058842696,False,未知,未知,未知,未知,未知,未知,,未知
6,600311,-14355296.429999994,-14355296.429999994,2015-06-30,半年度报告,-14155296.43,2015,6,6.3914898563808595,False,未知,未知,未知,未知,未知,未知,-12820000.0,未知
7,600311,-4522693.830000001,-4522693.830000001,2015-09-30,三季度报告,-40239193.83000001,2015,9,-2.5391909300160886,False,未知,未知,未知,未知,未知,未知,,未知
8,600311,4300919.710000001,4300919.710000001,2015-12-31,年度报告,-72622103.88999999,2015,12,-1.194319729407975,False,未知,未知,未知,未知,未知,未知,3150000.0,未知
9,600311,-28340044.38000001,-28340044.38000001,2016-03-31,一季度报告,-28433044.270000003,2016,3,3.4145640364031324,False,未知,未知,未知,未知,未知,未知,5070000.0,未知
10,600311,-42012324.23000001,-42012324.23000001,2016-06-30,半年度报告,-42021811.10999999,2016,6,-1.3391908132126256,False,未知,未知,未知,未知,未知,未知,5070000.0,未知
11,600311,-46225763.3,-46225763.3,2016-09-30,三季度报告,-46293859.17999999,2016,9,-2.0766116064947067,False,未知,未知,未知,未知,未知,未知,,未知
12,600311,-64955644.52999999,-64955644.52999999,2016-12-31,年度报告,-65126740.52,2016,12,0.1321263818710066,True,-1.4260781398049223,True,0.0,True,比例外推,-64955644.52999999,未知,-64955644.52999999
13,600311,-4402850.07,-4402850.07,2017-03-31,一季度报告,-4495850.069999998,2017,3,-1.1718128809084103,False,21.207671850569316,False,0.2603938279171474,False,去年同期,-41096546.32,2560000.0,2560000.0
14,600311,3282364.8700000006,3282364.8700000006,2017-06-30,半年度报告,3096364.8700000006,2017,6,-1.1158989596324935,False,-5.134734963431924,True,0.31785959571321265,False,盈利变化,-34876860.54333332,,-34876860.54333332
15,600311,4657909.95,4657909.95,2017-09-30,三季度报告,3280209.9500000007,2017,9,-1.1053348678830794,False,-11.028305146570478,True,0.24245702945034997,False,盈利变化,-42922724.91666666,未知,-42922724.91666666
16,600311,2572559.5500000003,2572559.5500000003,2017-12-31,年度报告,1143239.2499999998,2017,12,-1.0749616866283445,False,-5.258772199832843,True,0.0,True,盈利变化,-42865651.27333332,未知,-42865651.27333332
17,600311,201925.82000000004,201925.82000000004,2018-03-31,一季度报告,-1074.19,2018,3,-2.1059165296537112,False,-0.6767015466959474,True,2.7621667300157515,False,盈利变化,8565594.056666665,未知,8565594.056666665
18,600311,-45677541.17000001,-45677541.17000001,2018-06-30,半年度报告,-46097396.69000001,2018,6,0.4834379670898681,True,-1.1164627788637265,True,1.525559651740053,False,平均增速,-32662690.162359018,未知,-32662690.162359018
19,600311,-56579921.91,-56579921.91,2018-09-30,三季度报告,-57407377.44,2018,9,0.04535826631856628,True,-1.183568534431226,True,1.491177140023345,False,平均增速,-39547467.58764948,未知,-39547467.58764948
20,600311,-108699739.24,-108699739.24,2018-12-31,年度报告,-109534585.34,2018,12,0.8927393420300025,False,-1.0848263530214464,True,0.0,True,盈利变化,-34320048.64666667,未知,-34320048.64666667
21,600311,-10519376.44,-10519376.44,2019-03-31,一季度报告,-10737376.45,2019,3,23.113729834054897,False,-1.0123340238174943,True,2.7672326540960643,False,盈利变化,-123014808.91999999,未知,-123014808.91999999
22,600311,-31606318.230000004,-31606318.230000004,2019-06-30,半年度报告,-32042298.25,2019,6,-1.1065990976151312,False,-1.3587704157095193,True,1.4502494258449754,False,前期平均,-44135345.745000005,未知,-44135345.745000005
23,600311,-44602758.13,-44602758.13,2019-09-30,三季度报告,-44931556.43,2019,9,-1.0860585258096551,False,-1.722292221039122,True,1.5011729462823893,False,前期平均,-55087684.150000006,未知,-55087684.150000006
24,600311,-92676009.26,-92676009.26,2019-12-31,年度报告,-90576543.59,2019,12,-1.0447948146338166,False,-2.484910670091071,True,0.0,True,前期平均,-92676009.26,未知,-92676009.26
25,600311,-10686214.99,-10686214.99,2020-03-31,一季度报告,-10689540.12,2020,3,-1.462877690305377,False,-4.00812479063387,True,2.661220853283453,False,前期平均,-62633425.90500001,未知,-62633425.90500001
