,SECURITYCODE_x,NETPROFIT_x,PARENTNETPROFIT_x,REPORTDATE_x,REPORTTIMETYPE_x,KCFJCXSYJLR,Year,Month,managesituationChangeRate,managesituationGreatChange,historyprofitextroplaterate,ifhistoryprofitextroplate,IfprofitdisStableChangeRage,IfprofitdisStable,predicttype,predict,analyst_prediction,adj_prediction
0,600379,19027810.11,18710641.630000006,2013-12-31,年度报告,15424390.680000005,2013,12,未知,未知,未知,未知,未知,未知,未知,未知,未知,未知
1,600379,4886434.959999999,4880322.169999999,2014-03-31,一季度报告,4129446.8700000006,2014,3,未知,未知,未知,未知,未知,未知,未知,未知,未知,未知
2,600379,16514836.83,16370295.99,2014-06-30,半年度报告,15376205.360000005,2014,6,未知,未知,未知,未知,未知,未知,未知,未知,未知,未知
3,600379,22600314.02,22393526.36,2014-09-30,三季度报告,20565940.47,2014,9,未知,未知,未知,未知,未知,未知,未知,未知,未知,未知
4,600379,20411508.08,20302308.789999995,2014-12-31,年度报告,17138675.95,2014,12,0.0,True,未知,未知,未知,未知,未知,未知,未知,未知
5,600379,4661440.550000002,4697080.13,2015-03-31,一季度报告,4548347.54,2015,3,2.89400662564022,False,未知,未知,未知,未知,未知,未知,未知,未知
6,600379,14004891.6,13976006.64,2015-06-30,半年度报告,13319158.119999995,2015,6,0.15216458423828091,True,未知,未知,未知,未知,未知,未知,未知,未知
7,600379,24849138.99,24817295.19,2015-09-30,三季度报告,23473216.36,2015,9,-0.15807319786966395,True,未知,未知,未知,未知,未知,未知,未知,未知
8,600379,27188447.51,27457042.44,2015-12-31,年度报告,25395825.430000003,2015,12,-0.06779009001083074,True,未知,未知,未知,未知,未知,未知,未知,未知
9,600379,6567255.790000003,6668611.440000001,2016-03-31,一季度报告,6130123.1000000015,2016,3,3.0819591939234305,False,未知,未知,未知,未知,未知,未知,未知,未知
10,600379,24182064.09,24136685.030000005,2016-06-30,半年度报告,22960354.37,2016,6,0.3586545796612949,True,未知,未知,未知,未知,未知,未知,未知,未知
11,600379,40812293.96,40746129.70999999,2016-09-30,三季度报告,39401567.1,2016,9,-0.23426682438947552,True,未知,未知,未知,未知,未知,未知,未知,未知
12,600379,36253450.46,36144482.89999999,2016-12-31,年度报告,34328166.21,2016,12,-0.3001509150898922,True,0.37874835356021674,True,0.0,True,比例外推,36144482.89999999,未知,36144482.89999999
13,600379,6186434.520000001,6186434.520000001,2017-03-31,一季度报告,6211074.249999999,2017,3,1.897376121541322,False,0.37564755282403167,True,0.04140464963151336,True,前期平均,23114788.005000003,未知,23114788.005000003
14,600379,23216473.73,23216473.73,2017-06-30,半年度报告,22358551.16,2017,6,-0.2131436737913302,True,0.5846840934685211,True,0.20033897326302663,False,平均增速,36804101.64903026,未知,36804101.64903026
15,600379,34455120.65000001,34455120.65000001,2017-09-30,三季度报告,33612170.53,2017,9,-0.5337725899786693,True,0.7202429689294326,True,0.16639172126390933,False,平均增速,28697263.41758006,未知,28697263.41758006
16,600379,36041222.74,36041222.74,2017-12-31,年度报告,32796948.25,2017,12,-0.47514485190880784,True,0.5232556421803165,True,0.0,True,比例外推,36041222.74,未知,36041222.74
17,600379,4797283.18,4797283.18,2018-03-31,一季度报告,5155320.569999998,2018,3,2.0757312711361235,False,0.10189719851307323,True,0.007028964582761532,True,前期平均,29320043.680000003,未知,29320043.680000003
18,600379,21265025.230000004,21265025.230000004,2018-06-30,半年度报告,20879323.630000006,2018,6,-0.18041773564378422,True,0.21593739592494873,True,0.1005501393971916,False,平均增速,32159582.21448594,未知,32159582.21448594
19,600379,34077293.96,34077293.96,2018-09-30,三季度报告,33541244.779999994,2018,9,-0.4477508785040347,True,0.04947818230640706,True,0.11547715438298001,False,平均增速,33200339.129709825,未知,33200339.129709825
20,600379,38465510.23,38465510.23,2018-12-31,年度报告,33271656.020000003,2018,12,-0.47205425722468153,True,0.13619623287572344,True,0.0,True,比例外推,38465510.23,未知,38465510.23
21,600379,4296888.1400000015,4296888.1400000015,2019-03-31,一季度报告,4272024.030000001,2019,3,2.966372089379139,False,0.2477027333432251,True,0.019353718435335232,True,前期平均,31688846.695,未知,31688846.695
22,600379,22481987.66,22481987.66,2019-06-30,半年度报告,21018825.4,2019,6,-0.1052063233315056,True,0.10271387228206257,True,0.031831233446179,True,比例外推,33340194.380755655,未知,33340194.380755655
23,600379,35655519.41,35655519.41,2019-09-30,三季度报告,33794677.260000005,2019,9,-0.44162790236998034,True,0.09450074413815462,True,0.08754103163461302,True,比例外推,33735090.56529333,未知,33735090.56529333
24,600379,44171447.34000001,44171447.34000001,2019-12-31,年度报告,41306417.49000001,2019,12,-0.5053280199268008,True,0.06413124307476627,True,0.0,True,比例外推,44171447.34000001,未知,44171447.34000001
25,600379,3634782.5300000007,3634782.5300000007,2020-03-31,一季度报告,2829898.46,2020,3,3.428276811041209,False,0.21758947974418513,True,0.04582680711308307,True,前期平均,30985887.255000003,未知,30985887.255000003
