,SECURITYCODE_x,NETPROFIT_x,PARENTNETPROFIT_x,REPORTDATE_x,REPORTTIMETYPE_x,KCFJCXSYJLR,Year,Month,managesituationChangeRate,managesituationGreatChange,historyprofitextroplaterate,ifhistoryprofitextroplate,IfprofitdisStableChangeRage,IfprofitdisStable,predicttype,predict,analyst_prediction,adj_prediction
0,600343,83139331.58,71163324.8,2013-12-31,年度报告,51358417.29999998,2013,12,未知,未知,未知,未知,未知,未知,未知,未知,未知,未知
1,600343,6540387.560000001,5917122.0,2014-03-31,一季度报告,3954500.5500000007,2014,3,未知,未知,未知,未知,未知,未知,未知,未知,未知,未知
2,600343,18030864.59,15184209.790000005,2014-06-30,半年度报告,10722859.63,2014,6,未知,未知,未知,未知,未知,未知,未知,未知,未知,未知
3,600343,31630869.34,24009112.36,2014-09-30,三季度报告,11879102.15,2014,9,未知,未知,未知,未知,未知,未知,未知,未知,未知,未知
4,600343,75459085.70000002,61189132.11000002,2014-12-31,年度报告,38838338.7,2014,12,0.0,True,未知,未知,未知,未知,未知,未知,未知,未知
5,600343,4711710.579999999,4877878.999999999,2015-03-31,一季度报告,3663499.98,2015,3,11.711682727865744,False,未知,未知,未知,未知,未知,未知,未知,未知
6,600343,14999497.569999995,13149888.75,2015-06-30,半年度报告,10527680.69,2015,6,3.6109453689818873,False,未知,未知,未知,未知,未知,未知,未知,未知
7,600343,21692635.340000004,18016722.790000007,2015-09-30,三季度报告,12847881.28,2015,9,1.628423856655215,False,未知,未知,未知,未知,未知,未知,未知,未知
8,600343,56169927.77,49884032.48000001,2015-12-31,年度报告,37387759.1,2015,12,0.10178026686586236,True,未知,未知,未知,未知,未知,未知,未知,未知
9,600343,4884000.11,5295655.42,2016-03-31,一季度报告,3668848.9900000007,2016,3,16.645254344124,False,未知,未知,未知,未知,未知,未知,59000000.0,未知
10,600343,15429963.239999995,14125039.74,2016-06-30,半年度报告,10532753.45,2016,6,4.5428077635269775,False,未知,未知,未知,未知,未知,未知,59050000.0,未知
11,600343,21489477.94,18701868.82,2016-09-30,三季度报告,11162855.590000002,2016,9,2.8326063328366438,False,未知,未知,未知,未知,未知,未知,59050000.0,未知
12,600343,36229174.27,29657685.13000001,2016-12-31,年度报告,15757869.29,2016,12,0.48013954941213544,True,0.2916710174877227,True,0.0,True,比例外推,29657685.13000001,59000000.0,59000000.0
13,600343,5416843.17,5462826.67,2017-03-31,一季度报告,3525877.24,2017,3,16.022794780403885,False,0.13189521647737779,True,0.08861560148360781,True,前期平均,39766875.30500001,64000000.0,64000000.0
14,600343,14991810.29,13144272.449999996,2017-06-30,半年度报告,10508387.96,2017,6,4.388174312980413,False,0.0657103203860241,True,0.2597180234626455,False,前期平均,40632051.19,,40632051.19
15,600343,13449070.310000004,10603208.29,2017-09-30,三季度报告,6636016.790000001,2017,9,2.8688390575206313,False,0.19399604099690626,True,0.2557662248495947,False,前期平均,36352765.475,未知,36352765.475
16,600343,22595594.67,15754850.09,2017-12-31,年度报告,6508453.580000001,2017,12,1.2948171813246239,False,0.4495260077557733,True,0.0,True,前期平均,15754850.09,,15754850.09
17,600343,3620728.26,3441093.6599999988,2018-03-31,一季度报告,2559433.47,2018,3,14.348299548424992,False,0.129013440483375,True,0.2508877030024239,False,前期平均,26347733.37,未知,26347733.37
18,600343,15066341.340000002,11292832.94,2018-06-30,半年度报告,9436680.27,2018,6,4.545649922975379,False,0.01465159809382733,True,0.7597190771313785,False,前期平均,27335430.064999998,未知,27335430.064999998
19,600343,14891204.78,9949585.96,2018-09-30,三季度报告,6163452.34,2018,9,5.181790240042249,False,0.3770999477124245,True,0.3469069978900317,False,前期平均,24517031.72,未知,24517031.72
20,600343,33850006.9,23029041.29000001,2018-12-31,年度报告,9214399.680000003,2018,12,2.6794487064499988,False,0.5109131112504045,True,0.0,True,前期平均,23029041.29000001,未知,23029041.29000001
21,600343,4073481.9500000007,3494937.5300000007,2019-03-31,一季度报告,2275876.76,2019,3,21.96204675133505,False,0.2970035245502736,True,0.19096172887958146,False,前期平均,11030735.85,未知,11030735.85
22,600343,15352255.47,12851854.919999998,2019-06-30,半年度报告,10094186.72,2019,6,4.5182163807261775,False,0.00950276122839806,True,0.5122050013062218,False,前期平均,13464445.649999999,未知,13464445.649999999
23,600343,26921670.44,22339621.58,2019-09-30,三季度报告,16798116.69,2019,9,4.583116531421442,False,0.1475773593426283,True,0.22063563778218087,False,前期平均,24573346.824999996,未知,24573346.824999996
24,600343,-77823672.62,-81753709.07000001,2019-12-31,年度报告,-96215126.38000004,2019,12,1.4561097380455779,False,0.15087598336429592,True,0.0,True,盈利变化,-12114134.063333336,未知,-12114134.063333336
25,600343,-17461419.75,-15662563.680000005,2020-03-31,一季度报告,-18169488.35,2020,3,19.40989320696511,False,0.09854500591205821,True,0.2889369062970039,False,盈利变化,-109014195.88333334,未知,-109014195.88333334
