,SECURITYCODE_x,NETPROFIT_x,PARENTNETPROFIT_x,REPORTDATE_x,REPORTTIMETYPE_x,KCFJCXSYJLR,Year,Month,managesituationChangeRate,managesituationGreatChange,historyprofitextroplaterate,ifhistoryprofitextroplate,IfprofitdisStableChangeRage,IfprofitdisStable,predicttype,predict,analyst_prediction,adj_prediction
0,600385,26337372.77,26828030.16,2013-12-31,年度报告,5800943.31,2013,12,未知,未知,未知,未知,未知,未知,未知,未知,未知,未知
1,600385,4110684.32,4190360.66,2014-03-31,一季度报告,5131680.199999998,2014,3,未知,未知,未知,未知,未知,未知,未知,未知,未知,未知
2,600385,9594474.29,9758483.750000002,2014-06-30,半年度报告,11695305.12,2014,6,未知,未知,未知,未知,未知,未知,未知,未知,未知,未知
3,600385,11851169.92,10775016.5,2014-09-30,三季度报告,13761584.920000002,2014,9,未知,未知,未知,未知,未知,未知,未知,未知,未知,未知
4,600385,40236476.91,36289547.56,2014-12-31,年度报告,34326716.7,2014,12,0.0,True,未知,未知,未知,未知,未知,未知,未知,未知
5,600385,1240091.37,1240091.37,2015-03-31,一季度报告,2130470.85,2015,3,5.407053113239306,False,未知,未知,未知,未知,未知,未知,未知,未知
6,600385,-1493793.33,-1493793.33,2015-06-30,半年度报告,313019.86,2015,6,1.745056370357943,False,未知,未知,未知,未知,未知,未知,未知,未知
7,600385,-4280380.339999999,-3210671.85,2015-09-30,三季度报告,-330162.52000000014,2015,9,1.2223436966803696,False,未知,未知,未知,未知,未知,未知,未知,未知
8,600385,4592341.159999998,5662049.6499999985,2015-12-31,年度报告,9446801.77,2015,12,-0.34543541600546157,True,未知,未知,未知,未知,未知,未知,未知,未知
9,600385,-583213.6799999999,-583213.6799999999,2016-03-31,一季度报告,356336.3000000001,2016,3,20.238251799139604,False,未知,未知,未知,未知,未知,未知,未知,未知
10,600385,3216183.21,3216183.21,2016-06-30,半年度报告,5112730.3999999985,2016,6,-18.63120255062325,False,未知,未知,未知,未知,未知,未知,未知,未知
11,600385,1756599.4299999997,1756599.4299999997,2016-09-30,三季度报告,4637775.3999999985,2016,9,-7.153044981512089,False,未知,未知,未知,未知,未知,未知,未知,未知
12,600385,1514997.0300000003,2332995.37,2016-12-31,年度报告,6052358.04,2016,12,4.735064502481346,False,0.8620376865068201,True,0.0,True,前期平均,2332995.37,未知,2332995.37
13,600385,-2386214.61,-2386214.61,2017-03-31,一季度报告,-1381080.35,2017,3,-46.159044914721484,False,1.2179921991833673,True,0.08575565688414072,True,前期平均,15869469.100000005,未知,15869469.100000005
14,600385,-2621216.96,-2621216.96,2017-06-30,半年度报告,-656988.5900000001,2017,6,7.189015068578757,False,0.20594744420103656,True,0.4385532296029588,False,盈利变化,-1513483.9566666656,未知,-1513483.9566666656
15,600385,-4659969.77,-4659969.77,2017-09-30,三季度报告,-1682572.17,2017,9,13.99338569750077,False,0.5359534401430295,True,0.41235840932663215,False,盈利变化,-476047.99444444384,未知,-476047.99444444384
16,600385,-6969770.82,-6365793.070000002,2017-12-31,年度报告,-2338255.93,2017,12,16.384438549031344,False,0.9324096821988775,True,0.0,True,盈利变化,-463875.9533333336,未知,-463875.9533333336
17,600385,-2161029.5500000003,-2161029.5500000003,2018-03-31,一季度报告,-1098711.53,2018,3,-12.037302621326253,False,8.265323960081517,False,0.2989641384157615,False,去年同期,-3118205.1300000004,未知,-3118205.1300000004
18,600385,-5296727.48,-5296727.48,2018-06-30,半年度报告,-3192136.77,2018,6,-11.047765283038608,False,4.043697586054094,False,0.45846384368925364,False,去年同期,-6977994.82,未知,-6977994.82
19,600385,-7405304.3599999985,-7405304.3599999985,2018-09-30,三季度报告,-4178128.9100000006,2018,9,-6.651833395906343,False,-2.6928481006697216,True,0.5185864562441227,False,前期平均,-1809530.8949999986,未知,-1809530.8949999986
20,600385,-829803.4299999998,-632223.66,2018-12-31,年度报告,-5762168.6099999985,2018,12,-4.778800401072584,False,3.282425044485706,False,0.0,True,去年同期,-632223.66,未知,-632223.66
21,600385,859767.3100000002,859767.3100000002,2019-03-31,一季度报告,-1815588.44,2019,3,-13.187419079947333,False,-0.45551893425249224,True,0.3105795502182132,False,盈利变化,-1588059.54,未知,-1588059.54
22,600385,-5955400.25,-5955400.25,2019-06-30,半年度报告,-3900781.61,2019,6,-5.972385849460391,False,18.80513593838306,False,0.28484823323671205,False,去年同期,-8525432.089999998,未知,-8525432.089999998
23,600385,-8575088.26,-8575088.26,2019-09-30,三季度报告,-5434064.23,2019,9,-4.556555070479237,False,-4.101177936535646,True,0.02929023233185879,True,前期平均,-8195638.819999999,未知,-8195638.819999999
24,600385,3029545.33,3125734.02,2019-12-31,年度报告,-9561073.26,2019,12,-32.739291280104744,False,-0.6957514786328106,True,0.0,True,盈利变化,-1898525.2100000004,未知,-1898525.2100000004
25,600385,-3126443.5000000005,-3126443.5000000005,2020-03-31,一季度报告,-2065316.22,2020,3,29.63314045982976,False,-1.378148733495762,True,0.266906825042408,False,盈利变化,2792763.6466666665,未知,2792763.6466666665
