,SECURITYCODE_x,NETPROFIT_x,PARENTNETPROFIT_x,REPORTDATE_x,REPORTTIMETYPE_x,KCFJCXSYJLR,Year,Month,managesituationChangeRate,managesituationGreatChange,historyprofitextroplaterate,ifhistoryprofitextroplate,IfprofitdisStableChangeRage,IfprofitdisStable,predicttype,predict,analyst_prediction,adj_prediction
0,600303,-306962005.53,-268850595.64,2013-12-31,年度报告,-361957730.85,2013,12,未知,未知,未知,未知,未知,未知,未知,未知,未知,未知
1,600303,-29347429.209999993,-27061163.17,2014-03-31,一季度报告,-33463663.209999993,2014,3,未知,未知,未知,未知,未知,未知,未知,未知,未知,未知
2,600303,19264301.75,2187114.92,2014-06-30,半年度报告,-46207605.95,2014,6,未知,未知,未知,未知,未知,未知,未知,未知,未知,未知
3,600303,79990425.79999998,63852662.7,2014-09-30,三季度报告,-113663911.79,2014,9,未知,未知,未知,未知,未知,未知,未知,未知,未知,未知
4,600303,23737953.57,10196038.47,2014-12-31,年度报告,-271342126.8300001,2014,12,-0.0,False,未知,未知,未知,未知,未知,未知,未知,未知
5,600303,674857.85,1057219.51,2015-03-31,一季度报告,-28409745.980000004,2015,3,9.459587561605028,False,未知,未知,未知,未知,未知,未知,未知,未知
6,600303,3370646.0200000014,2487190.99,2015-06-30,半年度报告,-91414202.86,2015,6,-16.934239896860003,False,未知,未知,未知,未知,未知,未知,未知,未知
7,600303,-59452817.60999999,-59827507.2,2015-09-30,三季度报告,-169262547.26,2015,9,-4.8374843296558625,False,未知,未知,未知,未知,未知,未知,6000000.0,未知
8,600303,108254065.18999998,103414970.33,2015-12-31,年度报告,-56731583.58000001,2015,12,-13.931274999119479,False,未知,未知,未知,未知,未知,未知,46000000.0,未知
9,600303,101998904.68,95851582.0,2016-03-31,一季度报告,-84405565.75000001,2016,3,-455.85431566069803,False,未知,未知,未知,未知,未知,未知,501000000.0,未知
10,600303,89247270.56,81477688.39,2016-06-30,半年度报告,-111459372.79000002,2016,6,-92.06919080455675,False,未知,未知,未知,未知,未知,未知,,未知
11,600303,42096080.48,34586014.559999995,2016-09-30,三季度报告,-164369142.04999998,2016,9,4.163119560516318,False,未知,未知,未知,未知,未知,未知,未知,未知
12,600303,68531615.69999999,60689650.07000001,2016-12-31,年度报告,-198048925.93,2016,12,-3.835570239244519,False,-1.7644411866919325,True,0.0,True,前期平均,60689650.07000001,530000000.0,530000000.0
13,600303,448096826.91,446822763.43000007,2017-03-31,一季度报告,-75475154.32,2017,3,-4.009463743684585,False,-8.114737175075604,True,0.22676909515782634,False,前期平均,313722612.82,542970000.0,542970000.0
14,600303,396055079.7,394613094.1,2017-06-30,半年度报告,-72219594.32000001,2017,6,-4.43945538730658,False,6.885794256462734,False,0.8298706317778898,False,去年同期,308023540.96000004,,308023540.96000004
15,600303,384987933.51000017,383696872.1399999,2017-09-30,三季度报告,-90349504.7,2017,9,-8.291937919869731,False,3.099414117803366,False,1.572766352055889,False,去年同期,350017088.2599999,未知,350017088.2599999
16,600303,316805708.35999984,316033039.23999995,2017-12-31,年度报告,-155149275.08,2017,12,-5.4791298496994285,False,0.03842060063662584,True,0.0,True,前期平均,316033039.23999995,未知,316033039.23999995
17,600303,13675585.75,13889978.97,2018-03-31,一季度报告,10000138.06,2018,3,-1.6850349904210618,False,7.728555686835216,False,0.0449573009862968,True,去年同期,-65784141.79000002,未知,-65784141.79000002
18,600303,17036190.63,17020534.430000003,2018-06-30,半年度报告,11384672.249999998,2018,6,-1.7750487779692528,False,7.552450634276618,False,0.7314733679231238,False,去年同期,-65909146.33,未知,-65909146.33
19,600303,-32062930.11000001,-30802267.74,2018-09-30,三季度报告,-40979228.46,2018,9,-1.7973288999771382,False,-45.361786507047285,True,1.518285015475432,False,盈利变化,337975384.2355555,未知,337975384.2355555
20,600303,-131794071.23999998,-128140610.38,2018-12-31,年度报告,-132982363.46,2018,12,-1.9689282655891605,False,2.584065256474289,False,0.0,True,前期平均盈利变化,-305475903.34000015,未知,-305475903.34000015
21,600303,-30703331.37,-29912376.06,2019-03-31,一季度报告,-33914955.010000005,2019,3,-23.445985944697103,False,0.9502792515387385,True,0.3543504547141883,False,盈利变化,-186694067.80666667,未知,-186694067.80666667
22,600303,-92521920.83,-90520472.01,2019-06-30,半年度报告,-99647980.19,2019,6,-19.018230260317296,False,0.9297914357065327,True,0.39983080619654526,False,盈利变化,-202162378.67333335,未知,-202162378.67333335
23,600303,-88960894.38,-87603189.22000001,2019-09-30,三季度报告,-102499555.64999998,2019,9,8.573735291094389,False,1.150148116341113,True,0.2653235256682371,False,前期平均,-136842966.35000002,未知,-136842966.35000002
24,600303,51461902.43999999,46637226.33,2019-12-31,年度报告,-168810466.83,2019,12,1.3291032945709313,False,1.684045188518923,True,0.0,True,前期平均,46637226.33,未知,46637226.33
25,600303,-22594205.48,-22713440.62,2020-03-31,一季度报告,-29831807.3,2020,3,8.99767751032809,False,1.1329803623093728,True,0.28240980527664017,False,前期平均,-134041751.76000002,未知,-134041751.76000002
