,SECURITYCODE_x,NETPROFIT_x,PARENTNETPROFIT_x,REPORTDATE_x,REPORTTIMETYPE_x,KCFJCXSYJLR,Year,Month,managesituationChangeRate,managesituationGreatChange,historyprofitextroplaterate,ifhistoryprofitextroplate,IfprofitdisStableChangeRage,IfprofitdisStable,predicttype,predict,analyst_prediction,adj_prediction
0,600323,332149863.89,287692756.79,2013-12-31,年度报告,226847704.17,2013,12,未知,未知,未知,未知,未知,未知,未知,未知,未知,未知
1,600323,80062032.14000002,68406482.33000001,2014-03-31,一季度报告,67761408.05,2014,3,未知,未知,未知,未知,未知,未知,未知,未知,未知,未知
2,600323,188321930.20999995,164321413.10999995,2014-06-30,半年度报告,155678887.10999998,2014,6,未知,未知,未知,未知,未知,未知,未知,未知,未知,未知
3,600323,282522605.59000015,249046536.72,2014-09-30,三季度报告,205813580.96,2014,9,未知,未知,未知,未知,未知,未知,未知,未知,未知,未知
4,600323,351630008.06000006,308712042.65,2014-12-31,年度报告,242343692.67999995,2014,12,0.0,True,未知,未知,未知,未知,未知,未知,未知,未知
5,600323,92952646.33999996,81335890.93999998,2015-03-31,一季度报告,82375623.47,2015,3,3.148656423174321,False,未知,未知,未知,未知,未知,未知,437417213.0,未知
6,600323,215363332.70999995,189218321.10999995,2015-06-30,半年度报告,187765123.71,2015,6,0.7637343856852776,False,未知,未知,未知,未知,未知,未知,406333333.0,未知
7,600323,356895188.94000006,319484917.95,2015-09-30,三季度报告,288406378.96000004,2015,9,0.17565765470823755,True,未知,未知,未知,未知,未知,未知,408420000.0,未知
8,600323,445647304.58,402901796.76000017,2015-12-31,年度报告,373803254.23,2015,12,-0.05539954987765464,True,未知,未知,未知,未知,未知,未知,410480000.0,未知
9,600323,115351028.88,106271444.81,2016-03-31,一季度报告,104782253.97,2016,3,2.5733233745177104,False,未知,未知,未知,未知,未知,未知,515810615.00000006,未知
10,600323,286486959.8,261856683.24,2016-06-30,半年度报告,249221773.87,2016,6,0.5422767641567858,False,未知,未知,未知,未知,未知,未知,525253846.0,未知
11,600323,473692155.74000007,432589086.82000005,2016-09-30,三季度报告,418711057.83000016,2016,9,-0.06933499194397985,True,未知,未知,未知,未知,未知,未知,541743077.0,未知
12,600323,556115723.1100001,508567480.1,2016-12-31,年度报告,492783597.39,2016,12,-0.2546799666991492,True,0.30348178664313474,True,0.0,True,比例外推,508567480.1,544186923.0,508567480.1
13,600323,137587043.39,131721767.48000002,2017-03-31,一季度报告,122062164.23,2017,3,1.8794703186872865,False,0.3334247694288467,True,0.04207080527616666,True,前期平均,364726725.17499995,618401538.0,618401538.0
14,600323,340210910.79000014,314288553.39000005,2017-06-30,半年度报告,287653696.3,2017,6,0.15938911886906754,True,0.41935803020272455,True,0.09224161452430091,True,比例外推,549501601.5797361,611343125.0,611343125.0
15,600323,588370786.0799999,545643690.0699999,2017-09-30,三季度报告,497273484.0799999,2017,9,-0.2988064930669651,True,0.48163582494035634,True,0.0519522690223535,True,比例外推,652225181.5279492,620729000.0,652225181.5279492
16,600323,697329006.0699999,652236336.9699999,2017-12-31,年度报告,594510931.7900001,2017,12,-0.4027324708021239,True,0.39503712019234827,True,0.0,True,比例外推,652236336.9699999,643140000.0,652236336.9699999
17,600323,312724903.9,308177479.33,2018-03-31,一季度报告,167113690.65999994,2018,3,1.414107140513938,False,0.32102367607952575,True,0.007598183821234478,True,前期平均,647891966.42,765029375.0,765029375.0
18,600323,504300417.31999993,499980143.3,2018-06-30,半年度报告,355775749.7,2018,6,-0.02369426330649327,True,0.35582629269154414,True,0.013451423855693923,True,比例外推,859618095.8256218,806248182.0,859618095.8256218
19,600323,750113879.6099999,743709552.5,2018-09-30,三季度报告,598366921.4099997,2018,9,-0.4354752619467445,True,0.41675836948052997,True,0.0476782939117506,True,比例外推,875749404.77572,815737000.0,875749404.77572
20,600323,876647117.7600001,873405678.3399999,2018-12-31,年度报告,720292009.3,2018,12,-0.5236827078771225,True,0.3922035187862642,True,0.0,True,比例外推,873405678.3399999,810559545.0000001,873405678.3399999
21,600323,182890982.92000005,190526070.01,2019-03-31,一季度报告,183354078.02,2019,3,0.06211516814858956,True,1.472738888957612,True,0.015355948412342946,True,比例外推,853477681.8756406,925186468.0,853477681.8756406
22,600323,449674987.38,461057227.9500001,2019-06-30,半年度报告,447386832.97,2019,6,-0.34136508223581963,True,0.6093892798621766,True,0.01123457071754358,True,比例外推,918380922.1071494,918281698.9999999,918380922.1071494
23,600323,729626945.0899999,736367136.9600003,2019-09-30,三季度报告,719103174.5100001,2019,9,-0.5572007492213159,True,0.4125601225188598,True,0.010733796841317367,True,比例外推,874408903.8552592,919582632.0,874408903.8552592
24,600323,903636701.0899998,912604712.32,2019-12-31,年度报告,867847870.76,2019,12,-0.621113379419183,True,0.3987806519933274,True,0.0,True,比例外推,912604712.32,920477368.0,912604712.32
25,600323,130132536.32999998,135788031.71,2020-03-31,一季度报告,130982172.44,2020,3,0.8161084739496893,False,0.18771427664468057,True,0.015808934595692714,True,前期平均,648601574.8100001,1055849231.0,1055849231.0
