,SECURITYCODE_x,NETPROFIT_x,PARENTNETPROFIT_x,REPORTDATE_x,REPORTTIMETYPE_x,KCFJCXSYJLR,Year,Month,managesituationChangeRate,managesituationGreatChange,historyprofitextroplaterate,ifhistoryprofitextroplate,IfprofitdisStableChangeRage,IfprofitdisStable,predicttype,predict,analyst_prediction,adj_prediction
0,600360,36781528.62000001,43977762.76,2013-12-31,年度报告,20269388.45,2013,12,未知,未知,未知,未知,未知,未知,未知,未知,未知,未知
1,600360,8979499.82,12491472.78,2014-03-31,一季度报告,6382805.41,2014,3,未知,未知,未知,未知,未知,未知,未知,未知,未知,未知
2,600360,14364663.56,18747969.2,2014-06-30,半年度报告,10698664.15,2014,6,未知,未知,未知,未知,未知,未知,未知,未知,未知,未知
3,600360,20372645.78,26818729.18,2014-09-30,三季度报告,17810194.68,2014,9,未知,未知,未知,未知,未知,未知,未知,未知,未知,未知
4,600360,27283138.8,35665286.160000004,2014-12-31,年度报告,23810176.18,2014,12,0.0,True,未知,未知,未知,未知,未知,未知,未知,未知
5,600360,4846914.279999998,7742896.579999999,2015-03-31,一季度报告,4766314.76,2015,3,3.096166752860407,False,未知,未知,未知,未知,未知,未知,未知,未知
6,600360,14600699.67,19251694.06,2015-06-30,半年度报告,15338696.47,2015,6,1.5605562195290295,False,未知,未知,未知,未知,未知,未知,未知,未知
7,600360,23402223.31,27995630.6,2015-09-30,三季度报告,22509669.51,2015,9,0.8054370069158494,False,未知,未知,未知,未知,未知,未知,54050000.0,未知
8,600360,37632176.76000001,43007734.35,2015-12-31,年度报告,34319594.47,2015,12,0.34814138833615477,True,未知,未知,未知,未知,未知,未知,,未知
9,600360,6772220.099999999,8706275.059999999,2016-03-31,一季度报告,5901541.83,2016,3,6.588648466875719,False,未知,未知,未知,未知,未知,未知,95000000.0,未知
10,600360,22526775.53,25901532.75,2016-06-30,半年度报告,21279065.3,2016,6,1.5191620573892683,False,未知,未知,未知,未知,未知,未知,95000000.0,未知
11,600360,34123289.6,37955126.07,2016-09-30,三季度报告,30528485.669999994,2016,9,0.5717108640819997,False,未知,未知,未知,未知,未知,未知,未知,未知
12,600360,36780810.44,40618659.76000001,2016-12-31,年度报告,29329917.43,2016,12,-0.0226042767981514,True,0.17481845377540564,True,0.0,True,比例外推,40618659.76000001,,40618659.76000001
13,600360,12332924.910000002,12612302.97,2017-03-31,一季度报告,9910985.04,2017,3,4.431236444899365,False,0.020393856133673907,True,0.06534944357766079,True,前期平均,36102628.21,82950000.0,82950000.0
14,600360,34059236.230000004,34189162.95,2017-06-30,半年度报告,30296319.19,2017,6,0.6327915449335509,False,0.555428485472509,True,0.1849152515289325,False,前期平均,50235367.965,110400000.0,110400000.0
15,600360,55578433.15000001,55624839.23000001,2017-09-30,三季度报告,50275421.64000001,2017,9,0.07790101866380464,True,0.5590355977921212,True,0.22594616555607472,False,平均增速,53949939.682776034,110400000.0,110400000.0
16,600360,94763227.63,94853828.23000002,2017-12-31,年度报告,82991840.98,2017,12,1.9525942778943378e-05,True,0.13319361148307687,True,0.0,True,比例外推,94853828.23000002,110400000.0,110400000.0
17,600360,21629764.81,21701634.2,2018-03-31,一季度报告,19649024.460000005,2018,3,1.9823848672082773,False,1.1228646655862164,True,0.04804108036322549,True,前期平均,48192461.855000004,138900000.0,138900000.0
18,600360,50753986.52,50352211.77,2018-06-30,半年度报告,46253295.07,2018,6,0.07992816901754722,True,0.8347186845605921,True,0.21300851947535138,False,平均增速,139112574.20259035,136750000.0,139112574.20259035
19,600360,79312660.16999999,78144953.51,2018-09-30,三季度报告,71613845.34,2018,9,-0.33820500983302726,True,0.9323055228365809,True,0.2733528855971409,False,平均增速,131579612.14422959,,131579612.14422959
20,600360,107006286.15,106006552.17,2018-12-31,年度报告,96391923.04,2018,12,-0.6118586339881508,True,1.5469539981053193,True,0.0,True,比例外推,106006552.17,137800000.0,137800000.0
21,600360,14578461.569999995,15712106.180000005,2019-03-31,一季度报告,14001199.739999998,2019,3,0.7005052502001761,False,1.2642869026828703,True,0.055405032061571796,True,前期平均,63966721.95000001,162800000.0,162800000.0
22,600360,33866811.34,36073286.86,2019-06-30,半年度报告,31632403.739999995,2019,6,-0.27529774226688647,True,0.7938704263260132,True,0.20203879500921607,False,平均增速,103244630.24345526,,103244630.24345526
23,600360,51768580.58,55460410.05,2019-09-30,三季度报告,49824923.8,2019,9,-0.536246438574095,True,0.7683642574189017,True,0.24433269889920406,False,平均增速,88802708.40884815,未知,88802708.40884815
24,600360,61181443.83000001,64996395.41,2019-12-31,年度报告,57086538.88999999,2019,12,-0.6562675900326067,True,0.6269271906197309,True,0.0,True,比例外推,64996395.41,未知,64996395.41
25,600360,8435174.200000001,8593567.280000001,2020-03-31,一季度报告,7173538.070000001,2020,3,1.5230048070154516,False,0.141501353974623,True,0.07008848587275815,True,前期平均,83505444.54,未知,83505444.54
