,SECURITYCODE_x,NETPROFIT_x,PARENTNETPROFIT_x,REPORTDATE_x,REPORTTIMETYPE_x,KCFJCXSYJLR,Year,Month,managesituationChangeRate,managesituationGreatChange,historyprofitextroplaterate,ifhistoryprofitextroplate,IfprofitdisStableChangeRage,IfprofitdisStable,predicttype,predict,analyst_prediction,adj_prediction
0,600348,715842324.2200001,935150653.4500002,2013-12-31,年度报告,1021376339.02,2013,12,未知,未知,未知,未知,未知,未知,未知,未知,未知,未知
1,600348,134230226.1,151121283.80999997,2014-03-31,一季度报告,114094057.9,2014,3,未知,未知,未知,未知,未知,未知,未知,未知,未知,未知
2,600348,371517355.56000006,423537121.75,2014-06-30,半年度报告,424831460.16,2014,6,未知,未知,未知,未知,未知,未知,未知,未知,未知,未知
3,600348,449430683.43000007,513004995.12,2014-09-30,三季度报告,515991099.81000006,2014,9,未知,未知,未知,未知,未知,未知,未知,未知,未知,未知
4,600348,846870667.72,989248947.19,2014-12-31,年度报告,902348760.04,2014,12,0.0,True,未知,未知,未知,未知,未知,未知,未知,未知
5,600348,15009703.969999995,66444406.23000001,2015-03-31,一季度报告,66240062.99,2015,3,4.332944337639018,False,未知,未知,未知,未知,未知,未知,658959714.0,未知
6,600348,244894373.55000007,322095077.64,2015-06-30,半年度报告,326844937.67000014,2015,6,0.9268072231537824,False,未知,未知,未知,未知,未知,未知,592421880.0,未知
7,600348,160873986.97,267622829.94000003,2015-09-30,三季度报告,276280849.03000003,2015,9,0.5927758175226912,False,未知,未知,未知,未知,未知,未知,257150000.0,未知
8,600348,-23140007.11000001,80819916.31000002,2015-12-31,年度报告,92008407.75,2015,12,-0.15472060669282933,True,未知,未知,未知,未知,未知,未知,676877433.0,未知
9,600348,-7309572.989999997,10873754.1,2016-03-31,一季度报告,8777565.05,2016,3,46.69196818609877,False,未知,未知,未知,未知,未知,未知,104266667.0,未知
10,600348,6020793.56,84923039.04,2016-06-30,半年度报告,82150167.96999998,2016,6,1.923065621488632,False,未知,未知,未知,未知,未知,未知,284257143.0,未知
11,600348,34153199.54,126974565.25,2016-09-30,三季度报告,118779884.49999996,2016,9,3.4497083568488383,False,未知,未知,未知,未知,未知,未知,425850000.0,未知
12,600348,454459062.68,429048254.3100001,2016-12-31,年度报告,596102387.5500003,2016,12,-31.935268118852356,False,1.0296151721133044,True,0.0,True,前期平均,429048254.3100001,,429048254.3100001
13,600348,446231492.0199999,424627134.89000016,2017-03-31,一季度报告,430023996.26,2017,3,-98.93216720037164,False,1.0979573360369639,True,0.43290121850928137,False,前期平均,831638658.3400002,1743043750.0,1743043750.0
14,600348,902302431.24,852036912.6700003,2017-06-30,半年度报告,886809978.3299998,2017,6,117.89501227476072,False,0.9804650259699209,True,2.165352330482709,False,前期平均,973377297.6500002,1736862857.0,1736862857.0
15,600348,1236831763.03,1159531299.12,2017-09-30,三季度报告,1195567730.29,2017,9,19.959744148761537,False,0.888078197017186,True,1.7448215266429299,False,前期平均,1260573908.5949998,1645305000.0,1645305000.0
16,600348,1691773672.0700002,1636150746.14,2017-12-31,年度报告,1635138464.5,2017,12,0.5751524900803858,False,0.10341664918350356,True,0.0,True,前期平均,1636150746.14,841916667.0,841916667.0
17,600348,548308835.28,500911496.36,2018-03-31,一季度报告,492470326.27,2018,3,0.6041949907648302,False,114.90231209807293,False,0.38738516887717206,False,去年同期,1706025964.6,1969844444.0,1969844444.0
18,600348,962899312.0800002,885685845.6800002,2018-06-30,半年度报告,839545847.0599997,2018,6,-0.20664923485106299,True,6.192091587229039,False,2.1415059247667756,False,未知,未知,1910775000.0,未知
19,600348,1537010722.4999995,1404480544.85,2018-09-30,三季度报告,1229425750.4700005,2018,9,-0.4212290259539227,True,11.68368564570952,False,1.6917078443141438,False,未知,未知,1858640000.0,未知
20,600348,2091014255.0000005,1971274188.39,2018-12-31,年度报告,1733169934.41,2018,12,-0.5768687407553055,True,6.844650729999743,False,0.0,True,比例外推,1971274188.39,1841366667.0,1971274188.39
21,600348,550225975.93,529209185.03,2019-03-31,一季度报告,525010475.96,2019,3,0.30554584963863907,True,1.4984345119593971,True,0.17256125709640785,False,平均增速,2370144807.019411,2007900000.0,2007900000.0
22,600348,1098423688.74,1063324594.26,2019-06-30,半年度报告,1061805130.9,2019,6,-0.25657613912541033,True,1.1201688689442397,True,0.25037339206412906,False,平均增速,2478038251.445776,2035413750.0,2035413750.0
23,600348,1669069002.41,1597069200.98,2019-09-30,三季度报告,1589772810.7500002,2019,9,-0.5342632853883683,True,1.418613544242225,True,0.3473337889626178,False,平均增速,2401700610.8867264,2025475000.0,2025475000.0
24,600348,1790687864.0199995,1700817116.61,2019-12-31,年度报告,1577236520.1900005,2019,12,-0.6576578459432836,True,0.9485438099457263,True,0.0,True,比例外推,1700817116.61,1947333333.0,1947333333.0
25,600348,414769964.24,377667721.2,2020-03-31,一季度报告,385006426.98000014,2020,3,0.3009969640384081,True,0.10649304171257808,True,0.03953366314777196,True,比例外推,1305181806.5011835,1378000000.0,1305181806.5011835
