,SECURITYCODE_x,NETPROFIT_x,PARENTNETPROFIT_x,REPORTDATE_x,REPORTTIMETYPE_x,KCFJCXSYJLR,Year,Month,managesituationChangeRate,managesituationGreatChange,historyprofitextroplaterate,ifhistoryprofitextroplate,IfprofitdisStableChangeRage,IfprofitdisStable,predicttype,predict,analyst_prediction,adj_prediction
0,600366,372102090.21,350164601.72,2013-12-31,年度报告,236854050.77,2013,12,未知,未知,未知,未知,未知,未知,未知,未知,未知,未知
1,600366,103601636.89,87239310.92,2014-03-31,一季度报告,70683236.57000001,2014,3,未知,未知,未知,未知,未知,未知,未知,未知,未知,未知
2,600366,172870712.84,142829200.24,2014-06-30,半年度报告,103059925.66,2014,6,未知,未知,未知,未知,未知,未知,未知,未知,未知,未知
3,600366,219593953.74000004,189734958.5,2014-09-30,三季度报告,139544315.0,2014,9,未知,未知,未知,未知,未知,未知,未知,未知,未知,未知
4,600366,219608368.89000005,198037049.68,2014-12-31,年度报告,120327773.72000004,2014,12,0.0,True,未知,未知,未知,未知,未知,未知,未知,未知
5,600366,100055450.29999998,100042062.76,2015-03-31,一季度报告,67238400.53,2015,3,2.591662268860509,False,未知,未知,未知,未知,未知,未知,318110909.0,未知
6,600366,234507008.63000005,227387122.87,2015-06-30,半年度报告,159843771.05,2015,6,1.1524877412543442,False,未知,未知,未知,未知,未知,未知,335954516.0,未知
7,600366,319074607.02999985,299817983.69,2015-09-30,三季度报告,216178165.5300001,2015,9,0.6945006174922743,False,未知,未知,未知,未知,未知,未知,364010000.0,未知
8,600366,368173813.91,340620596.12,2015-12-31,年度报告,269822343.69,2015,12,0.6943893900345061,False,未知,未知,未知,未知,未知,未知,348632500.0,未知
9,600366,660763088.3299997,631542410.96,2016-03-31,一季度报告,230045232.27,2016,3,2.718958728328266,False,未知,未知,未知,未知,未知,未知,704180000.0,未知
10,600366,772808094.9999998,742212463.35,2016-06-30,半年度报告,310007158.17,2016,6,0.5867418734469227,False,未知,未知,未知,未知,未知,未知,880292500.0,未知
11,600366,807425359.95,776031143.9100001,2016-09-30,三季度报告,330842098.48,2016,9,0.16619148629089875,True,未知,未知,未知,未知,未知,未知,901208127.0,未知
12,600366,835085978.8800001,799721325.4099997,2016-12-31,年度报告,354328604.85,2016,12,0.010669624377360576,True,0.24443909431649258,True,0.0,True,比例外推,799721325.4099997,894993027.0,894993027.0
13,600366,81595280.61,80387515.98,2017-03-31,一季度报告,54792201.28999999,2017,3,-0.43686005350201407,True,5.488977108010455,False,0.24609163970333736,False,未知,未知,384428222.0,未知
14,600366,164472891.03,161879875.9,2017-06-30,半年度报告,112111822.8,2017,6,-0.518506479658446,True,2.7940616497699695,False,0.18220000402103542,False,未知,未知,400426114.0,未知
15,600366,307174345.71000004,299966975.01,2017-09-30,三季度报告,243531664.84,2017,9,-0.5391498599535659,True,1.9978558941543783,True,0.19483358200885148,False,平均增速,329488218.814911,421388000.0,421388000.0
16,600366,426695115.00000006,414034920.52,2017-12-31,年度报告,292127489.95999986,2017,12,-0.5544146355935043,True,1.8414810905016767,True,0.0,True,比例外推,414034920.52,414275000.0,414034920.52
17,600366,21230029.32,19971838.09,2018-03-31,一季度报告,21349813.84,2018,3,3.5603383851148442,False,0.7855065920004315,True,0.2872425098452208,False,前期平均,183405495.96,383995000.0,383995000.0
18,600366,55386536.59,54863928.67999999,2018-06-30,半年度报告,62528482.40000001,2018,6,1.262391618945448,False,0.6734430161181957,True,0.25788259092191224,False,前期平均,132013938.33999999,234440000.0,234440000.0
19,600366,66518971.28,65265573.13999999,2018-09-30,三季度报告,38866740.31,2018,9,0.21137098656441028,True,0.4546394057454,True,0.07753177268278444,True,比例外推,71794161.66238976,88000000.0,88000000.0
20,600366,91151352.51,89328734.49999999,2018-12-31,年度报告,57835883.77,2018,12,-0.12794387109400132,True,0.29076809919722907,True,0.0,True,比例外推,89328734.49999999,,89328734.49999999
21,600366,109362366.66,106440125.32,2019-03-31,一季度报告,94934627.78999998,2019,3,16.52715856399957,False,0.942803825730923,True,0.24725928084702248,False,前期平均,287249455.94499993,199963332.99999997,199963332.99999997
22,600366,53074929.79000001,53071378.43000002,2019-06-30,半年度报告,34771533.03000001,2019,6,5.718276915642758,False,0.8818144453679821,True,0.3961655551750607,False,前期平均,165239935.34999996,91500000.0,91500000.0
23,600366,44451403.41,46852972.78,2019-09-30,三季度报告,24338664.390000004,2019,9,4.593924305348938,False,0.8806406085660836,True,0.14110951470277466,False,前期平均,82894138.52499995,129500000.0,129500000.0
24,600366,44838596.35999999,49680993.46,2019-12-31,年度报告,-713486.37,2019,12,3.0822443108474724,False,0.8555195462158846,True,0.0,True,前期平均,49680993.46,,49680993.46
25,600366,-22913602.070000004,-21952975.03,2020-03-31,一季度报告,6300836.409999997,2020,3,2.402469254957142,False,1.1271487872869081,True,88.89048981750653,False,盈利变化,-68497395.04666665,39000000.0,39000000.0
