,SECURITYCODE_x,NETPROFIT_x,PARENTNETPROFIT_x,REPORTDATE_x,REPORTTIMETYPE_x,KCFJCXSYJLR,Year,Month,managesituationChangeRate,managesituationGreatChange,historyprofitextroplaterate,ifhistoryprofitextroplate,IfprofitdisStableChangeRage,IfprofitdisStable,predicttype,predict,analyst_prediction,adj_prediction
0,600416,54914846.60000001,48082952.87000001,2013-12-31,年度报告,4573426.33,2013,12,未知,未知,未知,未知,未知,未知,未知,未知,未知,未知
1,600416,15943.6,1391053.42,2014-03-31,一季度报告,-1028137.82,2014,3,未知,未知,未知,未知,未知,未知,未知,未知,未知,未知
2,600416,21593240.48,24933534.74,2014-06-30,半年度报告,20397036.690000005,2014,6,未知,未知,未知,未知,未知,未知,未知,未知,未知,未知
3,600416,28444692.38,33179270.88000001,2014-09-30,三季度报告,2614465.5600000005,2014,9,未知,未知,未知,未知,未知,未知,未知,未知,未知,未知
4,600416,54400257.50000001,54400377.16999999,2014-12-31,年度报告,-9859617.21,2014,12,0.0,True,未知,未知,未知,未知,未知,未知,未知,未知
5,600416,-32021857.21,-24256235.14,2015-03-31,一季度报告,-25294450.770000003,2015,3,3443.3191374595453,False,未知,未知,未知,未知,未知,未知,361121135.99999994,未知
6,600416,-84314367.96,-65787021.96,2015-06-30,半年度报告,-69087851.34,2015,6,1.543149864461659,False,未知,未知,未知,未知,未知,未知,331093333.0,未知
7,600416,-7947616.78,11009678.230000002,2015-09-30,三季度报告,3832198.57,2015,9,0.9305832478825355,False,未知,未知,未知,未知,未知,未知,168010777.00000003,未知
8,600416,46537399.92999999,63482830.05,2015-12-31,年度报告,11833528.110000005,2015,12,0.009459313680638395,True,未知,未知,未知,未知,未知,未知,,未知
9,600416,1402754.86,5196550.6099999985,2016-03-31,一季度报告,-1756290.99,2016,3,-2.7149176026820463,False,未知,未知,未知,未知,未知,未知,214000000.0,未知
10,600416,59877726.44999998,69400278.82,2016-06-30,半年度报告,-4592827.779999998,2016,6,-1.65131065948395,False,未知,未知,未知,未知,未知,未知,205820000.0,未知
11,600416,79569777.0,93572642.92,2016-09-30,三季度报告,12528411.840000002,2016,9,-7.909599206920997,False,未知,未知,未知,未知,未知,未知,222440000.0,未知
12,600416,128733079.04999998,133079959.10000002,2016-12-31,年度报告,-7054553.48,2016,12,0.18001535716651754,True,0.14856413826531806,True,0.0,True,比例外推,133079959.10000002,194220000.0,194220000.0
13,600416,-49380295.91,-38254258.71000001,2017-03-31,一季度报告,-48385469.08000001,2017,3,38.14785695342378,False,-1.0876559798975225,True,1.5427614082463892,False,盈利变化,70907721.64666668,267883639.0,267883639.0
14,600416,11952177.93,19327952.220000006,2017-06-30,半年度报告,3452422.5800000005,2017,6,-0.08288357197637007,True,-2.909331954183805,True,3.4196422964172144,False,平均增速,14338373.144606322,269450000.0,269450000.0
15,600416,44401658.37000001,54252899.38999999,2017-09-30,三季度报告,29155551.61,2017,9,-0.30985295333930607,True,6.764012637978465,False,1.2035128859917696,False,未知,未知,161000000.0,未知
16,600416,83628308.76,91197298.82,2017-12-31,年度报告,17862444.5,2017,12,-0.5734208565098403,True,1.5507443372019214,True,0.0,True,比例外推,91197298.82,,91197298.82
17,600416,-193586675.23999995,-182003274.55,2018-03-31,一季度报告,-188839166.55,2018,3,-2.112080144276317,False,-2.2254567978868263,True,1.7814076904599205,False,前期平均,-166088416.35500002,114565888.0,114565888.0
18,600416,-217408998.5000001,-221249392.63,2018-06-30,半年度报告,-230145413.19000003,2018,6,3.5945472801374208,False,-1.9782177248136905,True,4.173650154517817,False,盈利变化,-64534591.69333336,118500000.0,118500000.0
19,600416,-446830813.98,-429851459.73,2018-09-30,三季度报告,-449072403.53,2018,9,0.23677467499959942,True,0.23988604179523623,True,1.8359780088803728,False,平均增速,-353991761.1054574,,-353991761.1054574
20,600416,-1988856539.3700004,-1911796321.85,2018-12-31,年度报告,-1908614211.7,2018,12,-0.3433462016122206,True,0.04572282512512793,True,0.0,True,比例外推,-1911796321.85,未知,-1911796321.85
21,600416,-131576016.29,-131611220.32,2019-03-31,一季度报告,-131421273.67,2019,3,-1.2836705911288526,False,-7.069887326582776,True,1.9218210186184925,False,前期平均,-101136394.77499999,未知,-101136394.77499999
22,600416,-592100125.8700001,-591144872.12,2019-06-30,半年度报告,-748534624.4300003,2019,6,-1.2525877354611887,False,7.053439730334224,False,0.3294093728113742,False,去年同期,-2269613670.63,未知,-2269613670.63
23,600416,-896446565.28,-897004943.2800002,2019-09-30,三季度报告,-620184362.23,2019,9,-1.1228985219503191,False,8.208609187211671,False,1.806459581112756,False,去年同期,-2356546751.4500003,-659000000.0,-659000000.0
24,600416,-1581807561.4899995,-1578916977.5799994,2019-12-31,年度报告,-1462150151.6199994,2019,12,-1.0276112658268428,False,19.730867789858603,False,0.0,True,去年同期,-1578916977.5799994,,-1578916977.5799994
25,600416,-55386843.76,-71925617.38,2020-03-31,一季度报告,-74438484.72000001,2020,3,-1.4173621314006422,False,-0.08307738839753023,True,1.8687955885398413,False,前期平均,-898689183.1650001,185435000.0,185435000.0
