,SECURITYCODE_x,NETPROFIT_x,PARENTNETPROFIT_x,REPORTDATE_x,REPORTTIMETYPE_x,KCFJCXSYJLR,Year,Month,managesituationChangeRate,managesituationGreatChange,historyprofitextroplaterate,ifhistoryprofitextroplate,IfprofitdisStableChangeRage,IfprofitdisStable,predicttype,predict,analyst_prediction,adj_prediction
0,600415,707736701.3000001,707466255.3900001,2013-12-31,年度报告,677395602.0999999,2013,12,未知,未知,未知,未知,未知,未知,未知,未知,未知,未知
1,600415,114027190.94,116032144.34,2014-03-31,一季度报告,103419531.5,2014,3,未知,未知,未知,未知,未知,未知,未知,未知,未知,未知
2,600415,198548020.25000003,201397700.16,2014-06-30,半年度报告,161530537.69,2014,6,未知,未知,未知,未知,未知,未知,未知,未知,未知,未知
3,600415,317222639.69999987,320983073.54,2014-09-30,三季度报告,233487358.65,2014,9,未知,未知,未知,未知,未知,未知,未知,未知,未知,未知
4,600415,406463535.90000015,408959070.43,2014-12-31,年度报告,321742855.69000006,2014,12,0.0,True,未知,未知,未知,未知,未知,未知,未知,未知
5,600415,117900123.32,122010982.09000002,2015-03-31,一季度报告,97001890.14000005,2015,3,5.206736265847366,False,未知,未知,未知,未知,未知,未知,747662418.9999999,未知
6,600415,213125012.42,220916840.27,2015-06-30,半年度报告,176748486.4,2015,6,2.564561864726022,False,未知,未知,未知,未知,未知,未知,769293333.0,未知
7,600415,368800482.36,381404653.81,2015-09-30,三季度报告,277651702.79,2015,9,1.2310409558703397,False,未知,未知,未知,未知,未知,未知,675286961.0,未知
8,600415,662753157.0799999,688401928.74,2015-12-31,年度报告,652983305.9599999,2015,12,0.7412058863605427,False,未知,未知,未知,未知,未知,未知,675286961.0,未知
9,600415,208271886.42,210916682.29,2016-03-31,一季度报告,191405821.86,2016,3,5.002849542227264,False,未知,未知,未知,未知,未知,未知,1337114267.9999998,未知
10,600415,559581802.6099999,574386837.04,2016-06-30,半年度报告,573731935.79,2016,6,2.3207585222577327,False,未知,未知,未知,未知,未知,未知,1356244000.0,未知
11,600415,812001032.2300004,830800272.4699999,2016-09-30,三季度报告,807745141.13,2016,9,0.9190232528198042,False,未知,未知,未知,未知,未知,未知,1206558089.0,未知
12,600415,1003420950.2499998,1060274609.21,2016-12-31,年度报告,1179940809.38,2016,12,0.06787375320578104,True,0.18964820676309896,True,0.0,True,比例外推,1060274609.21,1364429984.9999998,1364429984.9999998
13,600415,676517214.14,680421839.69,2017-03-31,一季度报告,671311532.47,2017,3,2.3981384308047318,False,0.7960099877370951,True,0.11070079875367891,False,前期平均,1067574209.695,1610843707.0,1610843707.0
14,600415,1021532243.45,1035278752.95,2017-06-30,半年度报告,1026133724.41,2017,6,0.2647600368685624,True,1.7185740051064484,True,0.14897654197073595,False,平均增速,2158821508.833227,1649855465.0,1649855465.0
15,600415,1202868296.36,1236936210.25,2017-09-30,三季度报告,1204970479.5399995,2017,9,-0.12840418520609378,True,1.3672701578678927,True,0.18661662166094517,False,平均增速,1871535448.0355985,1662676667.0,1662676667.0
16,600415,1408728515.74,1459364534.0300002,2017-12-31,年度报告,1558313380.2599998,2017,12,-0.29467617641063876,True,0.8769272063147054,True,0.0,True,比例外推,1459364534.0300002,1848905000.0,1848905000.0
17,600415,720592503.73,723131600.09,2018-03-31,一季度报告,205815119.57,2018,3,0.04614736551779665,True,3.1482235994392593,False,0.18360633372352322,False,未知,未知,1124630000.0,未知
18,600415,1209993527.09,1213904695.13,2018-06-30,半年度报告,665920497.4499997,2018,6,-0.307181240887928,True,1.6440358065441412,True,0.20112367691253275,False,平均增速,1802707234.1662097,,1802707234.1662097
19,600415,1351582639.4499998,1358828356.29,2018-09-30,三季度报告,799774669.9800004,2018,9,-0.411625775289213,True,1.037375937441377,True,0.2024691013923866,False,平均增速,1752375506.8802223,未知,1752375506.8802223
20,600415,1041770067.35,1082631394.5400002,2018-12-31,年度报告,357013210.41,2018,12,-0.49760603736467385,True,0.6909739618957955,True,0.0,True,比例外推,1082631394.5400002,,1082631394.5400002
21,600415,200134543.12,202791418.8,2019-03-31,一季度报告,154951980.79000002,2019,3,-0.01784059973348947,True,0.6288457967529737,True,0.2276174504460532,False,平均增速,318288338.87170595,1195400000.0,1195400000.0
22,600415,669083018.1999999,673681239.3900001,2019-06-30,半年度报告,482601595.4600001,2019,6,-0.41509050630866867,True,0.5305581910491525,True,0.8619270466205831,False,平均增速,442062540.94045985,,442062540.94045985
23,600415,1014184798.2399998,1022066773.47,2019-09-30,三季度报告,725314142.7299999,2019,9,-0.4763644629321373,True,0.3416082326250244,True,1.0075158213819952,False,平均增速,649752053.5053953,1126200000.0,1126200000.0
24,600415,1248826326.9599998,1255276023.6999998,2019-12-31,年度报告,930676526.7100002,2019,12,-0.32064020316853264,True,0.13623091600384354,True,0.0,True,比例外推,1255276023.6999998,1195400000.0,1255276023.6999998
25,600415,265733001.47,267701151.53,2020-03-31,一季度报告,207007351.47000003,2020,3,2.536304579243192,False,0.7135020384438806,True,0.22476581258624206,False,前期平均,786801120.8449999,未知,786801120.8449999
