,SECURITYCODE_x,NETPROFIT_x,PARENTNETPROFIT_x,REPORTDATE_x,REPORTTIMETYPE_x,KCFJCXSYJLR,Year,Month,managesituationChangeRate,managesituationGreatChange,historyprofitextroplaterate,ifhistoryprofitextroplate,IfprofitdisStableChangeRage,IfprofitdisStable,predicttype,predict,analyst_prediction,adj_prediction
0,600400,43912183.84,47931352.20999999,2013-12-31,年度报告,16608367.969999995,2013,12,未知,未知,未知,未知,未知,未知,未知,未知,未知,未知
1,600400,15473482.97,14087913.87,2014-03-31,一季度报告,13496227.99,2014,3,未知,未知,未知,未知,未知,未知,未知,未知,未知,未知
2,600400,23888186.54000001,22974894.64,2014-06-30,半年度报告,17968030.14,2014,6,未知,未知,未知,未知,未知,未知,未知,未知,未知,未知
3,600400,26211148.67,23171934.17,2014-09-30,三季度报告,17698825.55,2014,9,未知,未知,未知,未知,未知,未知,未知,未知,未知,未知
4,600400,73556836.17,65534012.89999999,2014-12-31,年度报告,59137861.14000001,2014,12,0.0,True,未知,未知,未知,未知,未知,未知,未知,未知
5,600400,15006634.089999994,13330681.790000005,2015-03-31,一季度报告,13139387.95,2015,3,1.837899128795823,False,未知,未知,未知,未知,未知,未知,未知,未知
6,600400,32211002.94,29085052.13,2015-06-30,半年度报告,28577579.20000001,2015,6,0.8382384852224108,False,未知,未知,未知,未知,未知,未知,未知,未知
7,600400,53154526.89999999,48211128.92999999,2015-09-30,三季度报告,47729951.32000001,2015,9,0.6753246640525808,False,未知,未知,未知,未知,未知,未知,97000000.0,未知
8,600400,84391761.32,81537198.35,2015-12-31,年度报告,84957766.31,2015,12,-0.4030169576827246,True,未知,未知,未知,未知,未知,未知,未知,未知
9,600400,30864165.37999999,27655079.66,2016-03-31,一季度报告,17454506.76,2016,3,1.9261847511336248,False,未知,未知,未知,未知,未知,未知,107800000.0,未知
10,600400,64033093.63,57985532.3,2016-06-30,半年度报告,47163703.40000001,2016,6,0.3632665807331736,True,未知,未知,未知,未知,未知,未知,118770000.0,未知
11,600400,102830042.18,95208127.04,2016-09-30,三季度报告,83533070.13999999,2016,9,-0.17387687557426063,True,未知,未知,未知,未知,未知,未知,,未知
12,600400,176366269.02,159417686.57999998,2016-12-31,年度报告,142739296.39000002,2016,12,-0.47966266904310645,True,0.43683434683997224,True,0.0,True,比例外推,159417686.57999998,126700000.0,126700000.0
13,600400,32710391.53,30785055.78,2017-03-31,一季度报告,29663826.24,2017,3,0.42275623848410104,True,1.0251999242157763,True,0.05983081314177516,True,比例外推,177287326.0870577,168300000.0,177287326.0870577
14,600400,498518662.52,498371800.24000007,2017-06-30,半年度报告,63352925.8,2017,6,-0.31422673260585987,True,1.2828527193901267,True,0.01970885471005923,True,比例外推,630829514.9375829,612370000.0,630829514.9375829
15,600400,570049908.1199999,568686930.04,2017-09-30,三季度报告,117046165.66,2017,9,-0.5729634753710066,True,1.5912975966368383,True,0.1828202201200237,False,平均增速,656299075.8679789,,656299075.8679789
16,600400,611634854.2,610004370.7,2017-12-31,年度报告,161066595.36999995,2017,12,-0.7510171072733849,True,1.2332109537239297,True,0.0,True,比例外推,610004370.7,未知,610004370.7
17,600400,47852141.52,47821633.79999998,2018-03-31,一季度报告,46313208.74,2018,3,0.34245362975023985,True,0.42619670500371215,True,0.03142140829368448,True,比例外推,302823030.5502808,262850000.0,262850000.0
18,600400,112447578.95,111221598.92,2018-06-30,半年度报告,102089193.93999995,2018,6,-0.9119146641009888,True,9.359464741973419,False,0.039958343881088154,True,比例外推,298029696.7566135,219000000.0,219000000.0
19,600400,174616500.64,173489003.03999996,2018-09-30,三季度报告,137056616.42,2018,9,-0.9229678257736756,True,6.309055139007215,False,0.10212207669921158,False,未知,未知,241298571.0,未知
20,600400,207991342.28,207064178.16000003,2018-12-31,年度报告,166029932.75,2018,12,-0.9282052297404865,True,3.691206275814363,False,0.0,True,比例外推,207064178.16000003,239511250.0,239511250.0
21,600400,50895317.21000001,50976550.75,2019-03-31,一季度报告,42244123.7,2019,3,-0.0823360784877993,True,0.505386552288281,True,0.08381208665448908,True,比例外推,225221470.9762987,262262500.0,262262500.0
22,600400,95931571.65,94799548.86,2019-06-30,半年度报告,84258361.77999999,2019,6,-0.6094875118696363,True,0.6002231697948278,True,0.16867210277856087,False,平均增速,155701404.13126168,236443332.99999997,236443332.99999997
23,600400,146301136.96,144122192.28,2019-09-30,三季度报告,114039422.05,2019,9,-0.7485221403529783,True,0.48098765444817265,True,0.12725304981304353,False,平均增速,171815857.2984165,224628571.0,224628571.0
24,600400,172173238.32999998,169510915.35999998,2019-12-31,年度报告,133517998.13,2019,12,-0.7888749437422016,True,0.472103944648994,True,0.0,True,比例外推,169510915.35999998,206261667.00000003,206261667.00000003
25,600400,67354557.13999999,60748771.57999999,2020-03-31,一季度报告,55850008.86,2020,3,-0.13720581288818345,True,0.2634984348968407,True,0.07566509553681616,True,比例外推,219841834.05823898,201478332.99999997,219841834.05823898
