,SECURITYCODE_x,NETPROFIT_x,PARENTNETPROFIT_x,REPORTDATE_x,REPORTTIMETYPE_x,KCFJCXSYJLR,Year,Month,managesituationChangeRate,managesituationGreatChange,historyprofitextroplaterate,ifhistoryprofitextroplate,IfprofitdisStableChangeRage,IfprofitdisStable,predicttype,predict,analyst_prediction,adj_prediction
0,600419,35870559.96,34844877.84,2013-12-31,年度报告,-35875181.059999995,2013,12,未知,未知,未知,未知,未知,未知,未知,未知,未知,未知
1,600419,4763483.330000001,3795859.4099999988,2014-03-31,一季度报告,1845153.53,2014,3,未知,未知,未知,未知,未知,未知,未知,未知,未知,未知
2,600419,12099131.85,9038260.82,2014-06-30,半年度报告,6039941.12,2014,6,未知,未知,未知,未知,未知,未知,未知,未知,未知,未知
3,600419,18770083.4,13773776.79,2014-09-30,三季度报告,10365207.849999996,2014,9,未知,未知,未知,未知,未知,未知,未知,未知,未知,未知
4,600419,18200980.48,12560162.279999996,2014-12-31,年度报告,9337562.62,2014,12,0.0,True,未知,未知,未知,未知,未知,未知,未知,未知
5,600419,6552816.5,4941159.49,2015-03-31,一季度报告,4091377.09,2015,3,6.530321295361811,False,未知,未知,未知,未知,未知,未知,未知,未知
6,600419,23756893.340000004,19828295.98,2015-06-30,半年度报告,17100807.150000002,2015,6,1.9647218002670166,False,未知,未知,未知,未知,未知,未知,未知,未知
7,600419,41729799.24,35808960.75,2015-09-30,三季度报告,32887538.710000005,2015,9,0.9110495779683112,False,未知,未知,未知,未知,未知,未知,未知,未知
8,600419,55872536.23,50860785.27999999,2015-12-31,年度报告,45478691.42,2015,12,0.970803715734769,False,未知,未知,未知,未知,未知,未知,58650000.0,未知
9,600419,21211675.56,19241690.96,2016-03-31,一季度报告,19345109.23,2016,3,4.474067518905802,False,未知,未知,未知,未知,未知,未知,87437909.0,未知
10,600419,54952371.19000001,51053540.75,2016-06-30,半年度报告,43067761.24,2016,6,0.5099011241341035,False,未知,未知,未知,未知,未知,未知,123306667.0,未知
11,600419,79512642.51,74645255.68999998,2016-09-30,三季度报告,64620732.09,2016,9,-0.1404089975679452,True,未知,未知,未知,未知,未知,未知,110500000.0,未知
12,600419,84747041.11,78273331.2,2016-12-31,年度报告,69654977.96,2016,12,-0.3579929893939593,True,1.0666152943061964,True,0.0,True,比例外推,78273331.2,98000000.0,98000000.0
13,600419,25486828.04,23577759.01,2017-03-31,一季度报告,24068470.26,2017,3,0.6910762121801943,False,2.7488712527334997,False,0.09846935192605033,True,去年同期,73887627.74,110776667.0,110776667.0
14,600419,64240334.68,59853175.7,2017-06-30,半年度报告,60376935.83000001,2017,6,-0.3472427270521938,True,2.0651680379411297,False,0.1710362277846808,False,未知,未知,118857500.0,未知
15,600419,92075455.43,86326658.96,2017-09-30,三季度报告,90010532.47,2017,9,-0.5488697290435456,True,1.6285222066672096,True,0.19716584205124266,False,平均增速,97890215.47661853,116223333.0,116223333.0
16,600419,105257881.83,99126452.35,2017-12-31,年度报告,104562040.82,2017,12,-0.5767337774844468,True,1.288187327241048,True,0.0,True,比例外推,99126452.35,116223333.0,116223333.0
17,600419,29648135.39000001,28061109.91,2018-03-31,一季度报告,29044595.63,2018,3,0.4074156228347983,True,0.8359297180673868,True,0.10932873620183817,False,平均增速,137657850.3291684,157190000.0,157190000.0
18,600419,72706615.76,69678198.46000001,2018-06-30,半年度报告,72993132.56,2018,6,-0.44161934805162817,True,0.6323449358497008,True,0.1478973837084599,False,平均增速,129887614.54131655,127236667.0,129887614.54131655
19,600419,108958891.34,104305954.79000002,2018-09-30,三季度报告,112641691.7,2018,9,-0.6104221283241933,True,0.5188650789441892,True,0.11409209611018023,False,平均增速,124443765.79123391,122520000.0,124443765.79123391
20,600419,118032053.92,114183166.40000002,2018-12-31,年度报告,122269425.14,2018,12,-0.6592125992243141,True,0.49705871431401066,True,0.0,True,比例外推,114183166.40000002,154000000.0,154000000.0
21,600419,31497589.620000005,30920933.67,2019-03-31,一季度报告,33512182.09,2019,3,0.20987574726533204,True,0.2697681126553278,True,0.029241897192720218,True,比例外推,132274391.4343806,133500000.0,132274391.4343806
22,600419,79979028.41,77563271.73000002,2019-06-30,半年度报告,84926922.11999999,2019,6,-0.5066396697873207,True,0.21998431412907066,True,0.02072988348321525,True,比例外推,134756478.23233438,133466667.0,134756478.23233438
23,600419,121813788.46,117669165.5,2019-09-30,三季度报告,123261138.55999996,2019,9,-0.6707881337736085,True,0.2700052351894496,True,0.04243884704194434,True,比例外推,130868648.65893649,129000000.0,130868648.65893649
24,600419,142028807.07999998,139583335.57000002,2019-12-31,年度报告,141709581.13000005,2019,12,-0.6960947575790521,True,0.2424104817249637,True,0.0,True,比例外推,139583335.57000002,,139583335.57000002
25,600419,18734043.83,19737899.73,2020-03-31,一季度报告,24541587.35,2020,3,0.13883507889833238,True,0.1425631817091785,True,0.004554512801796223,True,比例外推,99745095.60393466,145930000.0,145930000.0
