,SECURITYCODE_x,NETPROFIT_x,PARENTNETPROFIT_x,REPORTDATE_x,REPORTTIMETYPE_x,KCFJCXSYJLR,Year,Month,managesituationChangeRate,managesituationGreatChange,historyprofitextroplaterate,ifhistoryprofitextroplate,IfprofitdisStableChangeRage,IfprofitdisStable,predicttype,predict,analyst_prediction,adj_prediction
0,600408,-358875419.20999986,-242990546.00000003,2013-12-31,年度报告,-272778233.24,2013,12,未知,未知,未知,未知,未知,未知,未知,未知,未知,未知
1,600408,-69626142.66,-62455672.85000001,2014-03-31,一季度报告,-65411322.81,2014,3,未知,未知,未知,未知,未知,未知,未知,未知,未知,未知
2,600408,-265913246.34,-199996608.25000003,2014-06-30,半年度报告,-213967998.53,2014,6,未知,未知,未知,未知,未知,未知,未知,未知,未知,未知
3,600408,-410701636.96,-314970150.6,2014-09-30,三季度报告,-330881834.72,2014,9,未知,未知,未知,未知,未知,未知,未知,未知,未知,未知
4,600408,-857114903.9599997,-680314834.5300001,2014-12-31,年度报告,-702736541.0300001,2014,12,-0.0,False,未知,未知,未知,未知,未知,未知,未知,未知
5,600408,-292102542.38000005,-241373628.96,2015-03-31,一季度报告,-250372042.4700001,2015,3,4.154319993891787,False,未知,未知,未知,未知,未知,未知,未知,未知
6,600408,-298603140.29,-236148024.03000003,2015-06-30,半年度报告,-246127566.47000003,2015,6,0.3495958706439816,False,未知,未知,未知,未知,未知,未知,未知,未知
7,600408,-445032794.6099999,-341895804.73,2015-09-30,三季度报告,-343630224.44,2015,9,-0.12618945990480115,False,未知,未知,未知,未知,未知,未知,未知,未知
8,600408,-81026892.61000001,37899162.53,2015-12-31,年度报告,-477837093.13000005,2015,12,-0.5812983562041198,False,未知,未知,未知,未知,未知,未知,未知,未知
9,600408,-121198696.18,-119398108.04999997,2016-03-31,一季度报告,-118395478.87000002,2016,3,0.2285939597990013,False,未知,未知,未知,未知,未知,未知,未知,未知
10,600408,-367820297.96,-354488634.94000006,2016-06-30,半年度报告,-307069699.92999995,2016,6,0.20184743824684523,False,未知,未知,未知,未知,未知,未知,未知,未知
11,600408,-459970897.74,-442588405.6399999,2016-09-30,三季度报告,-392423935.8499999,2016,9,-0.19359781221404865,False,未知,未知,未知,未知,未知,未知,未知,未知
12,600408,-601159662.4,-581954801.8499999,2016-12-31,年度报告,-514216705.32,2016,12,3.429090239673203,False,-0.8667310239792555,True,0.0,True,盈利变化,25772625.133333355,未知,25772625.133333355
13,600408,-45531129.42,-48146610.82000001,2017-03-31,一季度报告,-61169252.12000001,2017,3,1.9610501640794122,False,-0.32989170506841164,True,0.24153790901419525,False,前期平均,-480541745.26000005,未知,-480541745.26000005
14,600408,-59569135.99000001,-67016093.16999999,2017-06-30,半年度报告,-79261635.97999999,2017,6,-0.024318611016330764,False,-0.3031341752744542,True,0.16776345228112405,False,前期平均,-427255127.75,未知,-427255127.75
15,600408,24917680.85,9462331.31,2017-09-30,三季度报告,-31766183.0,2017,9,-0.2197866843896387,False,-0.07503188085139924,True,0.18019681874806792,False,盈利变化,-421662467.24999994,未知,-421662467.24999994
16,600408,-271262187.29,-281928830.48999995,2017-12-31,年度报告,-129391552.26999998,2017,12,-0.4030281110724107,False,-0.28159658720662123,True,0.0,True,前期平均,-281928830.48999995,未知,-281928830.48999995
17,600408,48030160.44000001,38803598.52,2018-03-31,一季度报告,19948874.08,2018,3,6.881979291564866,False,-0.7796709752013475,True,0.1787420451078125,False,盈利变化,-173771328.88999993,未知,-173771328.88999993
18,600408,518916777.91,447255006.3699999,2018-06-30,半年度报告,239231723.19,2018,6,5.024519463741173,False,-0.821227368153719,True,0.05985283621833182,True,盈利变化,-69599924.37666664,1003800000.0,1003800000.0
19,600408,648383617.5300001,569493192.02,2018-09-30,三季度报告,363930717.1,2018,9,-15.402440635240733,False,-1.055066473342881,True,0.3304257025319176,False,前期平均,441493372.93999994,,441493372.93999994
20,600408,899167227.4,820249593.76,2018-12-31,年度报告,523462577.98000014,2018,12,0.32298357834272934,False,-0.20472725445014475,True,0.0,True,盈利变化,-64310787.07333323,未知,-64310787.07333323
21,600408,19828767.87,19717151.180000003,2019-03-31,一季度报告,19010391.16,2019,3,-8.471876336084955,False,-1.5761435935910917,True,0.2257122928018204,False,前期平均,-212304612.12,未知,-212304612.12
22,600408,69504733.03,69361799.69,2019-06-30,半年度报告,112191364.85,2019,6,-1.6915856925178137,False,-3.4283088756504343,True,0.09856547564528717,True,前期平均,-59276661.150000036,未知,-59276661.150000036
23,600408,153971252.51000005,153760129.67000002,2019-09-30,三季度报告,198393486.38,2019,9,-1.5534924225524485,False,-3.9807094505127596,True,0.32245921696838586,False,前期平均,44051060.30000001,未知,44051060.30000001
24,600408,457052184.14,456806727.6,2019-12-31,年度报告,193747868.69000003,2019,12,-1.3991197724673656,False,-3.0613129479035934,True,0.0,True,前期平均,456806727.6,未知,456806727.6
25,600408,-8716051.39,-8871299.120000001,2020-03-31,一季度报告,-5787704.729999999,2020,3,-19.098725123156118,False,14.869165057422869,False,0.26975399246826876,False,前期平均盈利变化,183976306.86500007,未知,183976306.86500007
