,SECURITYCODE_x,NETPROFIT_x,PARENTNETPROFIT_x,REPORTDATE_x,REPORTTIMETYPE_x,KCFJCXSYJLR,Year,Month,managesituationChangeRate,managesituationGreatChange,historyprofitextroplaterate,ifhistoryprofitextroplate,IfprofitdisStableChangeRage,IfprofitdisStable,predicttype,predict,analyst_prediction,adj_prediction
0,600458,123857248.00999998,121568722.39000005,2013-12-31,年度报告,104364666.93,2013,12,未知,未知,未知,未知,未知,未知,未知,未知,未知,未知
1,600458,29349781.61,30163952.919999994,2014-03-31,一季度报告,29415425.41,2014,3,未知,未知,未知,未知,未知,未知,未知,未知,未知,未知
2,600458,58985220.12000001,60747717.13,2014-06-30,半年度报告,60188349.75000002,2014,6,未知,未知,未知,未知,未知,未知,未知,未知,未知,未知
3,600458,106093398.49,109915832.95,2014-09-30,三季度报告,105245838.73,2014,9,未知,未知,未知,未知,未知,未知,未知,未知,未知,未知
4,600458,68651098.97999999,71608426.19,2014-12-31,年度报告,47484492.08,2014,12,0.0,True,未知,未知,未知,未知,未知,未知,未知,未知
5,600458,170380829.09,173120149.38000005,2015-03-31,一季度报告,169142701.85999998,2015,3,3.2200398509200348,False,未知,未知,未知,未知,未知,未知,363782151.0,未知
6,600458,206598479.5,206323893.34000003,2015-06-30,半年度报告,184474959.11,2015,6,1.0998014037757897,False,未知,未知,未知,未知,未知,未知,324470000.0,未知
7,600458,225148552.71,225148893.21,2015-09-30,三季度报告,196632935.23,2015,9,0.16743595523216595,True,未知,未知,未知,未知,未知,未知,262000000.0,未知
8,600458,257323012.28,255574282.42999995,2015-12-31,年度报告,228248056.54999992,2015,12,0.8041553573102027,False,未知,未知,未知,未知,未知,未知,161000000.0,未知
9,600458,67838537.07000001,68237183.36,2016-03-31,一季度报告,57247512.87,2016,3,-0.2730564308700772,True,未知,未知,未知,未知,未知,未知,317300000.0,未知
10,600458,182580495.41,182094092.71,2016-06-30,半年度报告,107223501.40999998,2016,6,-0.40049293533159824,True,未知,未知,未知,未知,未知,未知,340697109.0,未知
11,600458,203572220.63,203933404.33,2016-09-30,三季度报告,126925406.22,2016,9,-0.4498865459307088,True,未知,未知,未知,未知,未知,未知,290786000.0,未知
12,600458,233806454.58,243683127.85,2016-12-31,年度报告,144974706.69000003,2016,12,-0.5186701456952182,True,1.6733699219116656,True,0.0,True,比例外推,243683127.85,290786000.0,290786000.0
13,600458,19384740.419999994,20923104.01,2017-03-31,一季度报告,16756536.910000002,2017,3,0.8257653151069043,False,0.32069964806851703,True,0.19025448375715637,False,前期平均,59510314.68999997,329575714.0,329575714.0
14,600458,28788858.79,32544028.07,2017-06-30,半年度报告,6424357.5299999975,2017,6,-0.32162935733158127,True,0.3749375106321519,True,0.32908371537440206,False,平均增速,85035056.14063764,246250000.0,246250000.0
15,600458,47274356.73,52366766.9,2017-09-30,三季度报告,16856885.569999997,2017,9,-0.39158079807404034,True,0.22914516046360014,True,0.8986209173710382,False,平均增速,78121193.2325109,110296667.0,110296667.0
16,600458,66769893.61999999,69223914.55,2017-12-31,年度报告,-6868554.639999999,2017,12,-0.4702573620882628,True,0.43450934601069474,True,0.0,True,比例外推,69223914.55,399410000.0,399410000.0
17,600458,31215468.96,33743489.04000001,2018-03-31,一季度报告,21557145.809999995,2018,3,5.389419993584831,False,0.8372530266327698,True,2.0050434136033024,False,前期平均,107159763.29499999,206000000.0,206000000.0
18,600458,76450487.15,77539317.17,2018-06-30,半年度报告,61629356.34,2018,6,3.3022632093017386,False,0.8520533705775982,True,1.1394935265988597,False,前期平均,118301468.52999999,206000000.0,206000000.0
19,600458,81514626.65,85697707.35,2018-09-30,三季度报告,53401552.36,2018,9,1.619966861048814,False,0.7794631859720559,True,2.2151370564728783,False,前期平均,110529918.24499997,213750000.0,213750000.0
20,600458,-434590976.61,-426962777.1599999,2018-12-31,年度报告,-503669812.63,2018,12,0.8549864511525935,False,0.7280965687239725,True,0.0,True,盈利变化,-96376504.78000002,,-96376504.78000002
21,600458,28751415.72000001,32205886.83,2019-03-31,一季度报告,25387382.39,2019,3,2.9678163467193985,False,0.28423994469644187,True,1.7437607888213265,False,前期平均,64256937.96500002,152000000.0,152000000.0
22,600458,88593.04,11378501.590000002,2019-06-30,半年度报告,-9202437.319999997,2019,6,0.6200975641526696,False,0.27661710999351663,True,0.8456307957786178,False,前期平均,23607648.145000026,,23607648.145000026
23,600458,-3217567.9399999995,12479300.96,2019-09-30,三季度报告,-22077340.5,2019,9,0.5194481420102286,False,0.3500838041492183,True,1.8926327880138198,False,前期平均,9641231.090000018,51000000.0,51000000.0
24,600458,21157420.17,53882695.74,2019-12-31,年度报告,-667030717.76,2019,12,-1.2849972840580832,False,3.891717723051371,False,0.0,True,前期平均,53882695.74,,53882695.74
25,600458,3820865.36,8340423.029999997,2020-03-31,一季度报告,-1476886.4099999997,2020,3,3.307866061838569,False,0.13641489125395445,True,1.5994475872382092,False,前期平均,-266085601.965,,-266085601.965
