,SECURITYCODE_x,NETPROFIT_x,PARENTNETPROFIT_x,REPORTDATE_x,REPORTTIMETYPE_x,KCFJCXSYJLR,Year,Month,managesituationChangeRate,managesituationGreatChange,historyprofitextroplaterate,ifhistoryprofitextroplate,IfprofitdisStableChangeRage,IfprofitdisStable,predicttype,predict,analyst_prediction,adj_prediction
0,600456,17940813.020000003,19532337.31,2013-12-31,年度报告,-544700.26,2013,12,未知,未知,未知,未知,未知,未知,未知,未知,未知,未知
1,600456,1578824.2900000003,1618439.53,2014-03-31,一季度报告,1044518.76,2014,3,未知,未知,未知,未知,未知,未知,未知,未知,未知,未知
2,600456,-823005.1,1753474.38,2014-06-30,半年度报告,-265970.98,2014,6,未知,未知,未知,未知,未知,未知,未知,未知,未知,未知
3,600456,-844064.81,1506620.28,2014-09-30,三季度报告,-622086.27,2014,9,未知,未知,未知,未知,未知,未知,未知,未知,未知,未知
4,600456,17640211.030000005,11929101.81,2014-12-31,年度报告,736849.36,2014,12,0.0,True,未知,未知,未知,未知,未知,未知,未知,未知
5,600456,-18527321.039999995,-19782088.980000004,2015-03-31,一季度报告,-21632687.89,2015,3,10.363400685962336,False,未知,未知,未知,未知,未知,未知,60983333.0,未知
6,600456,-48338555.15000001,-50005444.87999999,2015-06-30,半年度报告,-52364101.37,2015,6,-22.799151694199715,False,未知,未知,未知,未知,未知,未知,,未知
7,600456,-87644242.58,-89948258.57,2015-09-30,三季度报告,-94337621.89,2015,9,-22.255255292540866,False,未知,未知,未知,未知,未知,未知,-106000000.0,未知
8,600456,-179835064.21999997,-186775749.09,2015-12-31,年度报告,-196777190.28,2015,12,0.01704072527753645,True,未知,未知,未知,未知,未知,未知,-63756643.0,未知
9,600456,-50344659.18,-49754412.72,2016-03-31,一季度报告,-51009064.86,2016,3,-1.9683436143447974,False,未知,未知,未知,未知,未知,未知,-37000000.0,未知
10,600456,-93306472.59,-90428601.08,2016-06-30,半年度报告,-95752292.06000005,2016,6,-1.3711491368396846,False,未知,未知,未知,未知,未知,未知,1344555.0,未知
11,600456,-117953948.72,-116130997.76,2016-09-30,三季度报告,-122660111.84000002,2016,9,-1.2047004171851217,False,未知,未知,未知,未知,未知,未知,,未知
12,600456,38947564.76,36862129.2,2016-12-31,年度报告,-33166949.59,2016,12,-1.0997625968985238,False,11.108481642759234,False,0.0,True,前期平均,36862129.2,38467271.0,36862129.2
13,600456,-35278888.87,-36274599.60000001,2017-03-31,一季度报告,-37461614.01000001,2017,3,-1.3563598068239024,False,-4.94089964704392,True,0.9118753267120812,False,前期平均,-124000685.49499999,51063333.0,51063333.0
14,600456,-47615045.44999999,-52300966.93999999,2017-06-30,半年度报告,-56768965.27,2017,6,-1.1922783331316589,False,-2.795911769907668,True,1.9562689252282288,False,前期平均,-124006101.225,36250000.0,36250000.0
15,600456,-15752381.099999996,-26868282.44,2017-09-30,三季度报告,-32646199.49,2017,9,-1.1521001476821098,False,-1.665978188511037,True,2.587121596345103,False,前期平均,-77408598.82000001,50907500.0,50907500.0
16,600456,34923997.65000001,21483626.55,2017-12-31,年度报告,-9590434.74,2017,12,-0.5393598256899078,True,-1.4802564815589512,True,0.0,True,比例外推,21483626.55,61926000.0,61926000.0
17,600456,-4589936.23,-8286520.3599999985,2018-03-31,一季度报告,-9536395.39,2018,3,-1.5085424624939443,False,-0.02447726222790456,True,2.0548011210947705,False,前期平均,-86937713.92,137410000.0,137410000.0
18,600456,39311826.02,34001694.919999994,2018-06-30,半年度报告,25365826.15,2018,6,-1.3767887408369577,False,-0.3276849006320088,True,2.8951919465298444,False,盈利变化,76240154.16333334,145162000.0,145162000.0
19,600456,107250271.14,96815688.92,2018-09-30,三季度报告,87250017.71000002,2018,9,-2.138927055288169,False,-0.8467653727846779,True,2.0478246602145878,False,盈利变化,74770834.19444445,165366000.0,165366000.0
20,600456,164539975.79,141092221.70999998,2018-12-31,年度报告,111384006.17000002,2018,12,-0.48628982283762134,True,-1.4957714173912986,True,0.0,True,比例外推,141092221.70999998,163314000.0,163314000.0
21,600456,34593748.09,29432180.71,2019-03-31,一季度报告,27852632.87,2019,3,-4.908728165489132,False,-0.8927879926835152,True,2.1199851924543998,False,盈利变化,190944259.39,234425178.0,234425178.0
22,600456,130636399.94,110504337.75,2019-06-30,半年度报告,101392118.86,2019,6,-0.5436280927049137,True,-1.5579250999672243,True,2.9079837743551002,False,平均增速,611975351.2713357,250182841.99999997,250182841.99999997
23,600456,198261770.98,170077952.95000002,2019-09-30,三季度报告,159421847.52,2019,9,-0.832720115023478,True,-2.604266174748555,True,1.8452160826815611,False,平均增速,284589411.6660987,248513000.0,248513000.0
24,600456,280615725.67,240010609.7200001,2019-12-31,年度报告,205896327.25000003,2019,12,-0.8909638041827743,True,3.4547582431457053,False,0.0,True,比例外推,240010609.7200001,248407879.0,240010609.7200001
25,600456,52503002.21,41331019.64000001,2020-03-31,一季度报告,39103792.78,2020,3,-0.4813856835251065,True,-2.7353783565595973,True,2.587543059239353,False,平均增速,854568113.0646588,312364545.0,312364545.0
