,SECURITYCODE_x,NETPROFIT_x,PARENTNETPROFIT_x,REPORTDATE_x,REPORTTIMETYPE_x,KCFJCXSYJLR,Year,Month,managesituationChangeRate,managesituationGreatChange,historyprofitextroplaterate,ifhistoryprofitextroplate,IfprofitdisStableChangeRage,IfprofitdisStable,predicttype,predict,analyst_prediction,adj_prediction
0,600436,431098113.75,429768408.02,2013-12-31,年度报告,403775121.1900001,2013,12,未知,未知,未知,未知,未知,未知,未知,未知,未知,未知
1,600436,114524110.75,115209280.42,2014-03-31,一季度报告,113854931.71999998,2014,3,未知,未知,未知,未知,未知,未知,未知,未知,未知,未知
2,600436,216226892.93,217346220.63000005,2014-06-30,半年度报告,214411969.52,2014,6,未知,未知,未知,未知,未知,未知,未知,未知,未知,未知
3,600436,298258644.56,298772223.64,2014-09-30,三季度报告,295472204.8,2014,9,未知,未知,未知,未知,未知,未知,未知,未知,未知,未知
4,600436,437890665.58,438828802.74,2014-12-31,年度报告,381543084.68,2014,12,0.0,True,未知,未知,未知,未知,未知,未知,未知,未知
5,600436,115813698.44,116079965.64,2015-03-31,一季度报告,115705902.31,2015,3,2.7642563729751553,False,未知,未知,未知,未知,未知,未知,520602857.0,未知
6,600436,252384192.8700001,252277491.81,2015-06-30,半年度报告,250316678.62000003,2015,6,0.9937303260865017,False,未知,未知,未知,未知,未知,未知,520745000.0,未知
7,600436,372236358.5,373161759.32,2015-09-30,三季度报告,369200934.47999984,2015,9,0.44538346704407755,True,未知,未知,未知,未知,未知,未知,533134000.0,未知
8,600436,463340569.4399998,466676722.6700001,2015-12-31,年度报告,459397198.54,2015,12,-0.01551198133215065,True,未知,未知,未知,未知,未知,未知,509876667.0,未知
9,600436,147167001.35999998,146642321.31999996,2016-03-31,一季度报告,146212485.60000002,2016,3,2.722341308125485,False,未知,未知,未知,未知,未知,未知,575405950.0,未知
10,600436,309047016.07,305435740.45,2016-06-30,半年度报告,304058261.14,2016,6,0.7081026701702082,False,未知,未知,未知,未知,未知,未知,581221667.0,未知
11,600436,479566608.9500001,481056725.9,2016-09-30,三季度报告,474368833.1900001,2016,9,0.15813005340798808,True,未知,未知,未知,未知,未知,未知,599987651.0,未知
12,600436,506817435.47,536131906.97,2016-12-31,年度报告,522399206.54,2016,12,-0.06958694708941313,True,0.06639022381218912,True,0.0,True,比例外推,536131906.97,599987651.0,599987651.0
13,600436,219487507.59,226368800.01,2017-03-31,一季度报告,224243860.98,2017,3,1.9293123442492899,False,0.27783625169939463,True,0.024854580407956295,True,前期平均,532058524.605,715671186.0,715671186.0
14,600436,422931585.66000015,433198861.81,2017-06-30,半年度报告,416898055.68,2017,6,0.3949272807486195,True,0.3189914854122725,True,0.019081053474233056,True,比例外推,756846102.4468344,731628040.0,756846102.4468344
15,600436,647660191.37,674707080.2700001,2017-09-30,三季度报告,648994853.4300001,2017,9,-0.10106728511837125,True,0.43048525868606835,True,0.07934619869848625,True,比例外推,808849103.5109673,737412500.0,808849103.5109673
16,600436,780426444.94,807018675.0400001,2017-12-31,年度报告,775252280.4900001,2017,12,-0.149401572283679,True,0.12472230383527032,True,0.0,True,比例外推,807018675.0400001,737412500.0,807018675.0400001
17,600436,325579199.47000015,326118301.77999985,2018-03-31,一季度报告,323716055.29,2018,3,0.96411230180483,False,0.669229017619338,True,0.021803337551434432,True,前期平均,686057310.3649999,1084840000.0,1084840000.0
18,600436,607237813.28,617532953.0499997,2018-06-30,半年度报告,605144106.2599999,2018,6,0.01930933599403717,True,0.5066194359181008,True,0.027148428102122923,True,比例外推,1102947783.016767,1123998947.0,1102947783.016767
19,600436,910825509.68,919946372.38,2018-09-30,三季度报告,905345441.4300002,2018,9,-0.33437608255944334,True,0.5206807586239526,True,0.05843737477618094,True,比例外推,1080188680.8087273,1104695625.0,1080188680.8087273
20,600436,1128726962.18,1142932917.5600002,2018-12-31,年度报告,1123918192.5899997,2018,12,-0.4476121144470659,True,0.6088646199696082,True,0.0,True,比例外推,1142932917.5600002,1104695625.0,1142932917.5600002
21,600436,411898974.59,404368159.66,2019-03-31,一季度报告,403259023.88,2019,3,0.3240959940062838,True,0.775945428312727,True,0.005834776543835796,True,比例外推,1412481185.3004086,1502769375.0,1412481185.3004086
22,600436,756966472.1999999,746546615.42,2019-06-30,半年度报告,744930112.42,2019,6,-0.2900670802738386,True,0.6591682102313356,True,0.029300795136034563,True,比例外推,1349318016.6031663,1433054706.0,1349318016.6031663
23,600436,1121097433.7500002,1109054289.7099998,2019-09-30,三季度报告,1103410524.77,2019,9,-0.5266951691971632,True,0.6160465833875354,True,0.05781663347019894,True,比例外推,1303405121.6809714,1420945294.0,1303405121.6809714
24,600436,1386935598.45,1374376823.8,2019-12-31,年度报告,1354605040.01,2019,12,-0.6180669655331118,True,0.7537111333098576,True,0.0,True,比例外推,1374376823.8,1416415882.0,1374376823.8
25,600436,478421456.31999993,467813514.04,2020-03-31,一季度报告,462535453.2300001,2020,3,0.04661128175691783,True,0.5113708808659954,True,0.006037495905842238,True,比例外推,1591164216.077418,1729004286.0000002,1591164216.077418
