,SECURITYCODE_x,NETPROFIT_x,PARENTNETPROFIT_x,REPORTDATE_x,REPORTTIMETYPE_x,KCFJCXSYJLR,Year,Month,managesituationChangeRate,managesituationGreatChange,historyprofitextroplaterate,ifhistoryprofitextroplate,IfprofitdisStableChangeRage,IfprofitdisStable,predicttype,predict,analyst_prediction,adj_prediction
0,600460,118112489.50999998,115267665.61999996,2013-12-31,年度报告,35394636.27,2013,12,未知,未知,未知,未知,未知,未知,未知,未知,未知,未知
1,600460,21331384.470000006,20725778.26,2014-03-31,一季度报告,13851563.049999995,2014,3,未知,未知,未知,未知,未知,未知,未知,未知,未知,未知
2,600460,62966440.26000001,61547810.56,2014-06-30,半年度报告,30811454.85,2014,6,未知,未知,未知,未知,未知,未知,未知,未知,未知,未知
3,600460,128196671.01000002,125896754.7,2014-09-30,三季度报告,81392102.0,2014,9,未知,未知,未知,未知,未知,未知,未知,未知,未知,未知
4,600460,167065897.5,164344173.76000002,2014-12-31,年度报告,94203317.86,2014,12,0.0,True,未知,未知,未知,未知,未知,未知,未知,未知
5,600460,29795005.19,29421543.11,2015-03-31,一季度报告,14192446.849999996,2015,3,4.537028769797422,False,未知,未知,未知,未知,未知,未知,230666667.00000003,未知
6,600460,65351131.58000001,64421018.07000001,2015-06-30,半年度报告,34101477.61999999,2015,6,0.8758006490805544,False,未知,未知,未知,未知,未知,未知,186000000.0,未知
7,600460,85984815.95,84724485.85,2015-09-30,三季度报告,46648117.85,2015,9,-0.07866180471420685,True,未知,未知,未知,未知,未知,未知,135000000.0,未知
8,600460,41570383.55,39876203.52,2015-12-31,年度报告,-27561054.93,2015,12,-0.29301855568698587,True,未知,未知,未知,未知,未知,未知,,未知
9,600460,41570383.55,39876203.52,2015-12-31,年度报告,-27561054.93,2015,12,-0.29301855568698587,True,未知,未知,未知,未知,未知,未知,,未知
10,600460,41570400.0,39876200.0,2015-12-31,年度报告,-27561054.93,2015,12,-0.29301855568698587,True,未知,未知,未知,未知,未知,未知,,未知
11,600460,41570400.0,39876200.0,2015-12-31,年度报告,-27561054.93,2015,12,-0.29301855568698587,True,未知,未知,未知,未知,未知,未知,,未知
12,600460,2005104.4,2066620.61,2016-03-31,一季度报告,-10066996.98,2016,3,2.9641707983203065,False,未知,未知,未知,未知,未知,未知,,未知
13,600460,23888000.81,24558541.25,2016-06-30,半年度报告,-2328103.7100000004,2016,6,0.8073518645260458,False,未知,未知,未知,未知,未知,未知,未知,未知
14,600460,59254925.03,60637660.15,2016-09-30,三季度报告,18383464.85,2016,9,0.3736435695656097,True,未知,未知,未知,未知,未知,未知,未知,未知
15,600460,91643101.82,95891364.65,2016-12-31,年度报告,23247273.08,2016,12,1.841265329388571,False,0.7084604903909334,True,0.0,True,前期平均,95891364.65,45490000.0,45490000.0
16,600460,91643101.82,95891364.65,2016-12-31,年度报告,23247273.08,2016,12,1.841265329388571,False,0.7084604903909334,True,0.0,True,前期平均,95891364.65,45490000.0,45490000.0
17,600460,91643100.0,95891400.0,2016-12-31,年度报告,23247273.08,2016,12,1.841265329388571,False,0.7084604903909334,True,0.0,True,前期平均,95891400.0,45490000.0,45490000.0
18,600460,91643100.0,95891400.0,2016-12-31,年度报告,23247273.08,2016,12,1.841265329388571,False,0.7084604903909334,True,0.0,True,前期平均,95891400.0,45490000.0,45490000.0
19,600460,32840221.36,32810177.69,2017-03-31,一季度报告,20262538.2,2017,3,57.905905103993575,False,0.9215628401170388,True,0.4140212138413901,False,前期平均,52109304.205000006,163000000.0,163000000.0
20,600460,84393822.00000001,84425485.12999998,2017-06-30,半年度报告,62616341.79000001,2017,6,3.9444275579794734,False,0.6276737399646855,True,0.9005140424202465,False,前期平均,85290150.35999998,168990000.0,168990000.0
21,600460,102538869.97,135048492.27999997,2017-09-30,三季度报告,98483697.74,2017,9,0.9932940502447881,False,0.4466849038071503,True,1.6799529819267693,False,前期平均,104349513.81999996,161000000.0,161000000.0
22,600460,102813025.68,169486597.35000002,2017-12-31,年度报告,98917327.53000002,2017,12,0.28883120676108937,True,0.12150368709805003,True,0.0,True,比例外推,169486597.35000002,171000000.0,169486597.35000002
23,600460,102813025.68,169486597.35000002,2017-12-31,年度报告,98917327.53000002,2017,12,0.28883120676108937,True,0.12150368709805003,True,0.0,True,比例外推,169486597.35000002,171000000.0,169486597.35000002
24,600460,102813000.0,169486600.0,2017-12-31,年度报告,98917327.53000002,2017,12,0.28883120676108937,True,0.12150368709805003,True,0.0,True,比例外推,169486600.0,171000000.0,169486600.0
25,600460,102813000.0,169486600.0,2017-12-31,年度报告,98917327.53000002,2017,12,0.28883120676108937,True,0.12150368709805003,True,0.0,True,比例外推,169486600.0,171000000.0,169486600.0
26,600460,8813896.739999998,31137987.45,2018-03-31,一季度报告,18192366.52,2018,3,2.5965801879113757,False,1.0654156091541946,True,0.4525573123194022,False,前期平均,26918371.59,244160000.0,244160000.0
27,600460,8813896.739999998,31137987.45,2018-03-31,一季度报告,18192366.52,2018,3,2.5965801879113757,False,1.0654156091541946,True,0.4525573123194022,False,前期平均,26918371.59,244160000.0,244160000.0
28,600460,8813900.000000002,31138000.0,2018-03-31,一季度报告,18192366.52,2018,3,2.5965801879113757,False,1.0654156091541946,True,0.4525573123194022,False,前期平均,26918384.14,244160000.0,244160000.0
29,600460,8813900.000000002,31138000.0,2018-03-31,一季度报告,18192366.52,2018,3,2.5965801879113757,False,1.0654156091541946,True,0.4525573123194022,False,前期平均,26918384.14,244160000.0,244160000.0
30,600460,50171113.84,95312560.35,2018-06-30,半年度报告,67101029.74000001,2018,6,0.3995395244689825,True,0.8914083931514566,True,1.0024950190388258,False,平均增速,179183572.44223315,243461667.00000003,243461667.00000003
31,600460,79658055.16,151383905.98,2018-09-30,三季度报告,112857624.45,2018,9,0.1518801557356384,True,0.41199466865091605,True,1.72382352151098,False,平均增速,152401894.75043258,217350000.0,217350000.0
32,600460,74256106.45,170462588.85,2018-12-31,年度报告,89656353.2,2018,12,0.1488086137803076,True,0.5435828496557565,True,0.0,True,比例外推,170462588.85,267976320.0,267976320.0
33,600460,-6317365.820000001,23201386.84,2019-03-31,一季度报告,2953037.11,2019,3,12.40071173899412,False,0.4941131099932068,True,0.4246117206964675,False,前期平均,79185916.53500001,277510980.0,277510980.0
34,600460,2610163.51,57812582.87000001,2019-06-30,半年度报告,-10844899.1,2019,6,1.354193089806036,False,0.07332343438594917,True,0.5272440335174612,False,前期平均,88750764.13500002,129860000.0,129860000.0
35,600460,-42903061.06,50486296.26,2019-09-30,三季度报告,-45423935.77,2019,9,0.48274382638090985,True,0.015313842412807038,True,0.24372145172026993,False,平均增速,25217752.969056282,,25217752.969056282
36,600460,-107311200.83,14532046.33,2019-12-31,年度报告,-120425888.37000002,2019,12,0.5906097849276606,False,0.23626879332974474,True,0.0,True,前期平均,14532046.33,260000000.0,260000000.0
37,600460,-20501423.660000004,2219375.09,2020-03-31,一季度报告,-14980131.740000002,2020,3,-19.696477752811212,False,1.3033249103886322,True,0.1522661915940042,False,前期平均,77278763.09500003,未知,77278763.09500003
