,SECURITYCODE_x,NETPROFIT_x,PARENTNETPROFIT_x,REPORTDATE_x,REPORTTIMETYPE_x,KCFJCXSYJLR,Year,Month,managesituationChangeRate,managesituationGreatChange,historyprofitextroplaterate,ifhistoryprofitextroplate,IfprofitdisStableChangeRage,IfprofitdisStable,predicttype,predict,analyst_prediction,adj_prediction
0,600448,15650878.32,17003090.119999994,2013-12-31,年度报告,6313804.1,2013,12,未知,未知,未知,未知,未知,未知,未知,未知,未知,未知
1,600448,4665880.17,4813930.569999998,2014-03-31,一季度报告,4760361.44,2014,3,未知,未知,未知,未知,未知,未知,未知,未知,未知,未知
2,600448,13368651.839999998,14106906.46,2014-06-30,半年度报告,12542761.62,2014,6,未知,未知,未知,未知,未知,未知,未知,未知,未知,未知
3,600448,20722848.12,21871250.95,2014-09-30,三季度报告,18247155.320000004,2014,9,未知,未知,未知,未知,未知,未知,未知,未知,未知,未知
4,600448,22795280.97000001,24316100.32,2014-12-31,年度报告,16009786.089999994,2014,12,0.0,True,未知,未知,未知,未知,未知,未知,未知,未知
5,600448,5182909.47,5182909.47,2015-03-31,一季度报告,5638192.3599999985,2015,3,2.354324961157329,False,未知,未知,未知,未知,未知,未知,,未知
6,600448,9556279.05,9556279.05,2015-06-30,半年度报告,10104795.57,2015,6,0.17071478166342932,True,未知,未知,未知,未知,未知,未知,未知,未知
7,600448,15855887.69,15855887.69,2015-09-30,三季度报告,16941916.240000002,2015,9,-0.2447525441787584,True,未知,未知,未知,未知,未知,未知,未知,未知
8,600448,15855887.69,15855887.69,2015-09-30,三季度报告,15855887.69,2015,9,-0.2447525441787584,True,未知,未知,未知,未知,未知,未知,未知,未知
9,600448,12530622.989999998,12530622.989999998,2015-12-31,年度报告,9505292.609999998,2015,12,-0.3134158626692289,True,未知,未知,未知,未知,未知,未知,63000000.0,未知
10,600448,3010452.3200000008,3010452.3200000008,2016-03-31,一季度报告,3174281.350000001,2016,3,2.0197089898234326,False,未知,未知,未知,未知,未知,未知,未知,未知
11,600448,6002644.290000001,6002644.290000001,2016-06-30,半年度报告,5870104.2,2016,6,0.6377586127521045,False,未知,未知,未知,未知,未知,未知,未知,未知
12,600448,11497529.38,11497529.38,2016-09-30,三季度报告,11497529.38,2016,9,-0.012929542262669697,True,未知,未知,0.0,True,未知,未知,未知,未知
13,600448,10279981.02,10279981.02,2016-12-31,年度报告,6862230.0299999975,2016,12,0.2490103909829628,True,0.3481469555655063,True,0.15368495786923364,False,平均增速,10279981.02,未知,10279981.02
14,600448,2227000.41,2227000.41,2017-03-31,一季度报告,2165033.35,2017,3,4.198846105624419,False,0.38866552540155574,True,0.16242506954243685,False,前期平均,9785262.859999996,未知,9785262.859999996
15,600448,7665317.45,7665317.45,2017-06-30,半年度报告,3277938.910000001,2017,6,1.6073306302812753,False,0.4763217111709251,True,0.39278214846273873,False,前期平均,9099078.204999996,未知,9099078.204999996
16,600448,14014647.8,14014647.8,2017-09-30,三季度报告,8321731.29,2017,9,0.36123838458936813,True,0.3713544700002031,True,0.0,True,比例外推,11122969.47662795,未知,11122969.47662795
17,600448,6860232.53,6860232.53,2017-12-31,年度报告,-11007106.590000004,2017,12,0.5224617914712844,False,0.41799190579014434,True,0.48304153518786247,False,前期平均,6860232.53,未知,6860232.53
18,600448,1798188.3000000003,1798188.3000000003,2018-03-31,一季度报告,2428164.7,2018,3,6.027784211319476,False,0.4563890947137097,True,0.8380322600159427,False,前期平均,5575712.764999998,未知,5575712.764999998
19,600448,11343676.78,11343676.78,2018-06-30,半年度报告,5957009.22,2018,6,1.0417782332028531,False,0.014672508824122873,True,1.6566372752584555,False,前期平均,11539988.214999996,未知,11539988.214999996
20,600448,28322414.840000004,28322414.840000004,2018-09-30,三季度报告,22830619.47,2018,9,0.11675145485996441,True,0.024709107760480662,True,0.0,True,比例外推,30842118.116794597,未知,30842118.116794597
21,600448,20971446.56,21013658.62,2018-12-31,年度报告,10113869.72,2018,12,1.2813918116562732,False,0.3985049648845313,True,0.3653479299386132,False,前期平均,21013658.62,未知,21013658.62
22,600448,1464508.14,1521690.61,2019-03-31,一季度报告,1461799.8099999996,2019,3,7.703692666669001,False,0.3133347859351467,True,0.6800068020030396,False,前期平均,-3220405.0200000033,未知,-3220405.0200000033
23,600448,9328487.82,9604178.22,2019-06-30,半年度报告,2970665.37,2019,6,0.3797006582199181,True,0.6598929666011777,True,1.814967562867033,False,平均增速,12007055.669615582,未知,12007055.669615582
24,600448,14590394.95,15050235.9,2019-09-30,三季度报告,10421358.42,2019,9,-0.4474031113372394,True,1.2203055929074575,True,0.0,True,比例外推,14470235.707678253,未知,14470235.707678253
25,600448,11374314.1,11599921.150000002,2019-12-31,年度报告,5888045.99,2019,12,-0.2537053524075069,True,1.447046123296404,True,0.29391220816329894,False,平均增速,11599921.150000002,未知,11599921.150000002
26,600448,8570452.63,8581098.280000001,2020-03-31,一季度报告,2394923.17,2020,3,9.686781379036924,False,0.272328208433239,True,未知,未知,前期平均,5837880.819999999,,5837880.819999999
