,SECURITYCODE_x,NETPROFIT_x,PARENTNETPROFIT_x,REPORTDATE_x,REPORTTIMETYPE_x,KCFJCXSYJLR,Year,Month,managesituationChangeRate,managesituationGreatChange,historyprofitextroplaterate,ifhistoryprofitextroplate,IfprofitdisStableChangeRage,IfprofitdisStable,predicttype,predict,analyst_prediction,adj_prediction
0,600469,313062640.74000007,313061603.12999994,2013-12-31,年度报告,308137358.52000004,2013,12,未知,未知,未知,未知,未知,未知,未知,未知,未知,未知
1,600469,98091627.51,98091627.51,2014-03-31,一季度报告,96010914.3,2014,3,未知,未知,未知,未知,未知,未知,未知,未知,未知,未知
2,600469,185325403.48000005,185325403.48000005,2014-06-30,半年度报告,180061545.56,2014,6,未知,未知,未知,未知,未知,未知,未知,未知,未知,未知
3,600469,306337575.92,306337575.92,2014-09-30,三季度报告,298696243.15000004,2014,9,未知,未知,未知,未知,未知,未知,未知,未知,未知,未知
4,600469,331797675.07000005,331797675.07000005,2014-12-31,年度报告,325959582.16,2014,12,0.0,True,未知,未知,未知,未知,未知,未知,未知,未知
5,600469,54478045.72000001,54478045.72000001,2015-03-31,一季度报告,51255287.22000001,2015,3,2.1915327402237743,False,未知,未知,未知,未知,未知,未知,437176000.0,未知
6,600469,146712490.17999998,146712490.17999998,2015-06-30,半年度报告,142594897.32,2015,6,0.6892591887640767,False,未知,未知,未知,未知,未知,未知,307575000.0,未知
7,600469,204453132.27,204453132.27,2015-09-30,三季度报告,198006379.37,2015,9,0.021953117569084316,True,未知,未知,未知,未知,未知,未知,,未知
8,600469,149340944.06,149340944.06,2015-12-31,年度报告,238677035.99000004,2015,12,-0.05646523691296937,True,未知,未知,未知,未知,未知,未知,212000000.0,未知
9,600469,29094344.2,29094344.2,2016-03-31,一季度报告,30710303.37,2016,3,4.74658353842286,False,未知,未知,未知,未知,未知,未知,279000000.0,未知
10,600469,95071225.56000002,95071225.56000002,2016-06-30,半年度报告,116732673.31000002,2016,6,1.1338513193791946,False,未知,未知,未知,未知,未知,未知,276490000.0,未知
11,600469,60560778.54000001,60560778.54000001,2016-09-30,三季度报告,158904564.87000003,2016,9,0.5312195869250405,False,未知,未知,未知,未知,未知,未知,,未知
12,600469,84551362.41000001,84551362.41000001,2016-12-31,年度报告,99422916.77,2016,12,1.0962947750900944,False,0.5368269983479603,True,0.0,True,前期平均,84551362.41000001,,84551362.41000001
13,600469,-118968513.44,-118968513.44,2017-03-31,一季度报告,-124832099.39999996,2017,3,9.76025768403469,False,0.6186090776226538,True,0.057979722045587934,True,盈利变化,-122838507.94999991,未知,-122838507.94999991
14,600469,-112499063.69999996,-112499063.69999996,2017-06-30,半年度报告,-123777248.26000002,2017,6,2.292927369937231,False,0.4273471349185765,True,0.399453782385076,False,盈利变化,-75788585.30333336,84715000.0,84715000.0
15,600469,-200545351.6,-200545351.6,2017-09-30,三季度报告,-217906931.73,2017,9,4.169395907505122,False,0.7628743923138356,True,0.48352620062566665,False,盈利变化,-82920413.85666667,87248700.00000001,87248700.00000001
16,600469,-474993175.83,-474993175.83,2017-12-31,年度报告,-473027483.81,2017,12,2.702632717163333,False,0.6485363716473782,True,0.0,True,盈利变化,-106265437.78333335,,-106265437.78333335
17,600469,-102808979.17,-102808979.17,2018-03-31,一季度报告,-108240953.73,2018,3,-3.6314747632606887,False,3.847076972523654,False,0.047763650057833285,True,去年同期,-451004363.58000004,未知,-451004363.58000004
18,600469,-89928801.35000001,-89928801.35000001,2018-06-30,半年度报告,-94903409.78,2018,6,-3.782802189135021,False,1.9305760179562699,True,0.49636518478141256,False,前期平均,-50542610.285,未知,-50542610.285
19,600469,1869970.61,1869970.61,2018-09-30,三季度报告,-26971192.49,2018,9,-2.5610565801815377,False,2.513470375853437,False,0.6354246457536313,False,前期平均,-7535525.130000009,未知,-7535525.130000009
20,600469,18270878.74,18270878.74,2018-12-31,年度报告,-21738274.73,2018,12,-1.6590887125756206,False,5.061640017141176,False,0.0,True,前期平均,18270878.74,未知,18270878.74
21,600469,88448375.89999998,88448375.89999998,2019-03-31,一季度报告,23888873.01,2019,3,-4.045090450925835,False,-1.2878426591173018,True,3.1285912887193863,False,盈利变化,194443981.06000003,未知,194443981.06000003
22,600469,144535915.70999998,144535915.70999998,2019-06-30,半年度报告,79121303.68,2019,6,-4.481227771752126,False,-9.320132724161311,True,2.431894933577084,False,盈利变化,134287354.38,326000000.0,326000000.0
23,600469,191973862.5,191973862.5,2019-09-30,三季度报告,125112023.83000004,2019,9,166.41580806983916,False,-1.0267168098473036,True,0.6392212807865272,False,前期平均,34672762.40999997,,34672762.40999997
24,600469,206223501.47000003,206223501.47000003,2019-12-31,年度报告,136176015.10000002,2019,12,16.13451472121149,False,-1.0935907892649086,True,0.0,True,前期平均,206223501.47000003,未知,206223501.47000003
25,600469,20381975.809999995,20381975.809999995,2020-03-31,一季度报告,5340486.32,2020,3,2.539495638607878,False,-1.797631670004838,True,3.1730776635123377,False,前期平均,-110464376.89500001,未知,-110464376.89500001
