,SECURITYCODE_x,NETPROFIT_x,PARENTNETPROFIT_x,REPORTDATE_x,REPORTTIMETYPE_x,KCFJCXSYJLR,Year,Month,managesituationChangeRate,managesituationGreatChange,historyprofitextroplaterate,ifhistoryprofitextroplate,IfprofitdisStableChangeRage,IfprofitdisStable,predicttype,predict,analyst_prediction,adj_prediction
0,600418,626248424.01,552274186.61,2014-12-31,年度报告,302608848.77000004,2014,12,未知,未知,未知,未知,未知,未知,未知,未知,未知,未知
1,600418,226664008.03000003,223803725.19,2015-03-31,一季度报告,189748946.83,2015,3,未知,未知,未知,未知,未知,未知,未知,未知,1171587000.0,未知
2,600418,559182461.0400001,536974150.1400001,2015-06-30,半年度报告,452951182.28,2015,6,未知,未知,未知,未知,未知,未知,未知,未知,1191818343.0,未知
3,600418,559182461.0400001,536974150.1400001,2015-06-30,半年度报告,448236479.5900003,2015,6,未知,未知,未知,未知,未知,未知,未知,未知,1191818343.0,未知
4,600418,653761789.0200001,649149440.4099997,2015-09-30,三季度报告,495766913.73,2015,9,未知,未知,未知,未知,未知,未知,未知,未知,1082074205.0,未知
5,600418,653761789.0200001,649149440.4099997,2015-09-30,三季度报告,500481616.41999984,2015,9,未知,未知,未知,未知,未知,未知,未知,未知,1082074205.0,未知
6,600418,855466464.4499999,857581782.3299999,2015-12-31,年度报告,528649151.3299999,2015,12,0.0,True,未知,未知,未知,未知,未知,未知,1075579108.0,未知
7,600418,277056257.47,279690387.7799999,2016-03-31,一季度报告,229768459.89,2016,3,1.7628931009069297,False,未知,未知,未知,未知,未知,未知,1208587547.0,未知
8,600418,598171554.91,577485305.2399999,2016-06-30,半年度报告,476219743.7299999,2016,6,0.11993574126997247,True,未知,未知,未知,未知,未知,未知,1141844391.0,未知
9,600418,840576748.6899997,817517719.4499997,2016-09-30,三季度报告,612938409.99,2016,9,-0.04208469426034077,True,未知,未知,未知,未知,未知,未知,1131185263.0,未知
10,600418,1214610691.0200002,1161965732.89,2016-12-31,年度报告,843604020.1700001,2016,12,-0.26794509190651883,True,未知,未知,未知,未知,未知,未知,1117658462.0,未知
11,600418,256354975.11999995,273569705.52000004,2017-03-31,一季度报告,189506923.02000004,2017,3,1.2603655652058712,False,未知,未知,未知,未知,未知,未知,1320480556.0,未知
12,600418,311133578.08999985,344689260.67000014,2017-06-30,半年度报告,192439631.47000003,2017,6,0.04693782054585399,True,未知,未知,0.0,True,未知,未知,1131285714.0,未知
13,600418,125051981.11,218735205.17,2017-09-30,三季度报告,-48168189.75000001,2017,9,-0.25497769836486744,True,未知,未知,1.5667945430943329,False,未知,未知,707666667.0,未知
14,600418,237336137.53,431891845.43,2017-12-31,年度报告,-93144698.5,2017,12,-0.4844039916328318,True,0.6394661354619836,True,1.8511241907508702,False,平均增速,431891845.43,560166667.0,560166667.0
15,600418,145094581.25,209399662.76,2018-03-31,一季度报告,-154790781.72,2018,3,1.4428955346657604,False,0.0178465814375694,True,0.2106316224608209,False,前期平均,685767545.1500001,664319364.0,685767545.1500001
16,600418,47774246.42000001,163462691.64,2018-06-30,半年度报告,-436504501.76000017,2018,6,1.0127960082432783,False,0.462336374519581,True,0.0,True,前期平均,385003814.38500005,267000000.0,267000000.0
17,600418,-165988981.72,47827292.85999999,2018-09-30,三季度报告,-825834477.08,2018,9,4.007904860452634,False,0.8326323280109793,True,1.4746348407003222,False,前期平均,179601216.74999997,,179601216.74999997
18,600418,-1420619888.7999995,-786143804.1099999,2018-12-31,年度报告,-1877330319.9999995,2018,12,1.638656002947888,False,0.770698268996535,True,1.6430257718053023,False,盈利变化,-162836695.06999987,828000000.0,828000000.0
19,600418,76620700.03,64635922.21,2019-03-31,一季度报告,-34133017.61,2019,3,3.316139297655542,False,0.4559747812377803,True,0.16537040268648528,False,前期平均,230227891.59000006,106500000.0,106500000.0
20,600418,159112992.79999995,125114330.46999998,2019-06-30,半年度报告,63737721.96,2019,6,12.10849403053755,False,0.8949214192547618,True,0.0,True,前期平均,166014303.70500004,124300000.0,124300000.0
21,600418,255514416.2,121639326.16,2019-09-30,三季度报告,-83823257.83000001,2019,9,-4.772831289888824,False,1.3437946212606569,True,1.395474864711495,False,前期平均,214483876.87500003,226000000.0,214483876.87500003
22,600418,171777653.04999995,106014967.55,2019-12-31,年度报告,-978433598.61,2019,12,-1.4408275774169215,False,2.9568483650585393,False,未知,未知,前期平均,106014967.55,未知,106014967.55
23,600418,-395029195.96,-355950605.61,2020-03-31,一季度报告,-428687000.81,2020,3,7.173358162543533,False,0.6182798121745499,True,未知,未知,盈利变化,-420057010.04999995,127000000.0,127000000.0
