,SECURITYCODE_x,NETPROFIT_x,PARENTNETPROFIT_x,REPORTDATE_x,REPORTTIMETYPE_x,KCFJCXSYJLR,Year,Month,managesituationChangeRate,managesituationGreatChange,historyprofitextroplaterate,ifhistoryprofitextroplate,IfprofitdisStableChangeRage,IfprofitdisStable,predicttype,predict,analyst_prediction,adj_prediction
0,600423,-131329764.68999998,-127676065.07,2013-12-31,年度报告,-180991054.27000004,2013,12,未知,未知,未知,未知,未知,未知,未知,未知,未知,未知
1,600423,-15617286.14,-14989155.270000005,2014-03-31,一季度报告,-15602220.82,2014,3,未知,未知,未知,未知,未知,未知,未知,未知,未知,未知
2,600423,-18859618.52,-18859618.52,2014-06-30,半年度报告,-20254334.7,2014,6,未知,未知,未知,未知,未知,未知,未知,未知,未知,未知
3,600423,-9296999.329999998,-9296999.329999998,2014-09-30,三季度报告,-13069403.69,2014,9,未知,未知,未知,未知,未知,未知,未知,未知,未知,未知
4,600423,8608455.71,8791689.989999998,2014-12-31,年度报告,-15730982.889999995,2014,12,-0.0,False,未知,未知,未知,未知,未知,未知,未知,未知
5,600423,-53804135.14,-53804135.14,2015-03-31,一季度报告,-55219611.64999999,2015,3,7.409256481100754,False,未知,未知,未知,未知,未知,未知,未知,未知
6,600423,-133193239.01,-133193239.01,2015-06-30,半年度报告,-135788045.31000003,2015,6,5.963543008610123,False,未知,未知,未知,未知,未知,未知,未知,未知
7,600423,-279892198.21000004,-279892198.21000004,2015-09-30,三季度报告,-284067254.14,2015,9,13.1260378782882,False,未知,未知,未知,未知,未知,未知,未知,未知
8,600423,-485552403.42000014,-485552403.42000014,2015-12-31,年度报告,-503951049.9,2015,12,-16.255902930120314,False,未知,未知,未知,未知,未知,未知,未知,未知
9,600423,-88402323.96000001,-88402323.96000001,2016-03-31,一季度报告,-92174974.07,2016,3,1.4408860833516965,False,未知,未知,未知,未知,未知,未知,未知,未知
10,600423,-239438323.92,-239438323.92,2016-06-30,半年度报告,-236642912.26,2016,6,-0.013990757592884389,False,未知,未知,未知,未知,未知,未知,未知,未知
11,600423,-431683733.21,-431683733.21,2016-09-30,三季度报告,-432783310.24000007,2016,9,-0.5307844751304404,False,未知,未知,未知,未知,未知,未知,未知,未知
12,600423,-816239772.17,-816239772.17,2016-12-31,年度报告,-823949368.15,2016,12,-0.7295250445369529,False,-6.913090358238129,True,0.0,True,前期平均,-816239772.17,未知,-816239772.17
13,600423,40686338.82,40686338.82,2017-03-31,一季度报告,-119749180.01,2017,3,0.4855917673547094,False,-1.5468312901127053,True,0.587395474791627,False,盈利变化,-853005380.0899999,未知,-853005380.0899999
14,600423,-87916820.03,-87916820.03,2017-06-30,半年度报告,-248178382.60999995,2017,6,-0.45150900432347135,False,-2.1494090648412687,True,0.6728119067355185,False,前期平均,-269736646.41999996,未知,-269736646.41999996
15,600423,-178997395.28999996,-178997395.28999996,2017-09-30,三季度报告,-358207714.04,2017,9,-0.6957731909112443,False,-1.9854761995408932,True,0.19089270631134747,False,前期平均,-290270082.77,未知,-290270082.77
16,600423,61551527.52000001,61551527.52000001,2017-12-31,年度报告,-627931319.4399997,2017,12,-0.8391039383674536,False,-2.422791194181604,True,0.0,True,盈利变化,-750900422.5999999,未知,-750900422.5999999
17,600423,8090953.33,8090953.33,2018-03-31,一季度报告,7043280.19,2018,3,-4.227858993924585,False,-1.5722150607995835,True,0.05332181913800374,True,前期平均,-582161962.8349999,未知,-582161962.8349999
18,600423,-25326799.70000001,-25326799.70000001,2018-06-30,半年度报告,-27471521.03,2018,6,0.49379566555280446,False,-0.5281300417027989,True,0.07793697348104422,True,前期平均,-503061529.93999994,未知,-503061529.93999994
19,600423,-85960621.4,-84129481.64,2018-09-30,三季度报告,-77920818.92,2018,9,-0.2663034873930538,False,-0.4968986797156053,True,0.027875869797004404,True,前期平均,-389654408.47499996,未知,-389654408.47499996
20,600423,375701619.70999986,390303020.62,2018-12-31,年度报告,-329334697.43000007,2018,12,-3.1336556537500524,False,-1.0945642917113148,True,0.0,True,前期平均,390303020.62,未知,390303020.62
21,600423,-110508989.34,-107982449.48999996,2019-03-31,一季度报告,-107278950.3,2019,3,-17.23167991873709,False,-1.3391296776650812,True,0.11511558329588599,False,盈利变化,237873379.96666667,未知,237873379.96666667
22,600423,-246307019.0899999,-241578944.09,2019-06-30,半年度报告,-234430109.5900001,2019,6,4.1854070093980305,False,-0.8452640798956352,True,0.17186899038538522,False,前期平均,-725108640.4499999,未知,-725108640.4499999
23,600423,-490249443.68000007,-483410157.94,2019-09-30,三季度报告,-350887848.23,2019,9,0.5277898478523559,False,-0.7184762476248683,True,0.20750339388651243,False,前期平均,-813854989.5949998,未知,-813854989.5949998
24,600423,-1876248561.2599995,-1867008703.24,2019-12-31,年度报告,-394273774.04,2019,12,-1.349558686468725,False,-1.9956472023338276,True,0.0,True,盈利变化,368656661.75,未知,368656661.75
25,600423,111083.26,111083.26,2020-03-31,一季度报告,264725.77,2020,3,0.18840797906441137,False,5.531165403776929,False,0.16852319245530073,False,前期平均,-422168975.26499987,未知,-422168975.26499987
