,SECURITYCODE_x,NETPROFIT_x,PARENTNETPROFIT_x,REPORTDATE_x,REPORTTIMETYPE_x,KCFJCXSYJLR,Year,Month,managesituationChangeRate,managesituationGreatChange,historyprofitextroplaterate,ifhistoryprofitextroplate,IfprofitdisStableChangeRage,IfprofitdisStable,predicttype,predict,analyst_prediction,adj_prediction
0,600477,66016448.68999999,44573085.16,2013-12-31,年度报告,36068961.07000001,2013,12,未知,未知,未知,未知,未知,未知,未知,未知,未知,未知
1,600477,10816947.24,3240337.78,2014-03-31,一季度报告,95048.74,2014,3,未知,未知,未知,未知,未知,未知,未知,未知,未知,未知
2,600477,32213819.54000001,22812033.87,2014-06-30,半年度报告,16262267.320000002,2014,6,未知,未知,未知,未知,未知,未知,未知,未知,未知,未知
3,600477,63959394.64000002,50649765.61999999,2014-09-30,三季度报告,40212028.74999999,2014,9,未知,未知,未知,未知,未知,未知,未知,未知,未知,未知
4,600477,73621218.49000001,59258127.93000001,2014-12-31,年度报告,42478995.31,2014,12,0.0,True,未知,未知,未知,未知,未知,未知,未知,未知
5,600477,14635865.47,10799351.73,2015-03-31,一季度报告,9524414.52,2015,3,5.1030572882779435,False,未知,未知,未知,未知,未知,未知,未知,未知
6,600477,32403724.55999999,28257506.7,2015-06-30,半年度报告,43225763.46999999,2015,6,1.0493207459620595,False,未知,未知,未知,未知,未知,未知,未知,未知
7,600477,123205111.29,117252030.56999998,2015-09-30,三季度报告,121795364.96,2015,9,0.0321618749142052,True,未知,未知,未知,未知,未知,未知,未知,未知
8,600477,143538481.19,120510414.13,2015-12-31,年度报告,111862436.27000004,2015,12,-0.10329589697069436,True,未知,未知,未知,未知,未知,未知,145166667.0,未知
9,600477,36425092.52,36600626.78000001,2016-03-31,一季度报告,37738034.27,2016,3,3.5105941172606303,False,未知,未知,未知,未知,未知,未知,260225000.0,未知
10,600477,222222571.03,221265571.27,2016-06-30,半年度报告,219767433.20000008,2016,6,1.0373105124925184,False,未知,未知,未知,未知,未知,未知,376800000.0,未知
11,600477,300535013.08000004,299132410.76999986,2016-09-30,三季度报告,292232463.75000006,2016,9,-0.46417443238527195,True,未知,未知,未知,未知,未知,未知,437072857.0,未知
12,600477,439815705.53,448758427.46,2016-12-31,年度报告,428514781.04000014,2016,12,-0.5400783947085598,True,1.0558705124308851,True,0.0,True,比例外推,448758427.46,447085000.0,448758427.46
13,600477,119394450.11000004,120547756.75,2017-03-31,一季度报告,125467240.25,2017,3,0.812389320734112,False,1.8621663888399391,True,0.05624531781627437,True,前期平均,192908740.91000003,643630236.0,643630236.0
14,600477,358639816.73999983,358293636.45,2017-06-30,半年度报告,359785780.38,2017,6,-0.7029264471920461,True,5.878087804949553,False,0.08548906906372883,True,比例外推,840369213.2051227,735321000.0,735321000.0
15,600477,536857506.21,534678093.85,2017-09-30,三季度报告,525770500.5199999,2017,9,-0.7803369131155878,True,2.2114530646360997,False,0.22383246099905751,False,未知,未知,811050000.0,未知
16,600477,762738681.0,768016397.92,2017-12-31,年度报告,758579638.4499999,2017,12,-0.8498997469623172,True,3.050619946316919,False,0.0,True,比例外推,768016397.92,811050000.0,768016397.92
17,600477,129890219.37,128691236.65,2018-03-31,一季度报告,126927525.19,2018,3,-0.44707271879741506,True,3.6765456352535635,False,0.05252804100183797,True,比例外推,1126314415.4313583,954400000.0,954400000.0
18,600477,351340714.83000004,352824117.52,2018-06-30,半年度报告,345790141.13,2018,6,-0.8159254895619708,True,1.8169896271631165,True,0.071436445170726,True,比例外推,762272761.9117794,805000000.0,762272761.9117794
19,600477,428825492.51999986,428132993.88,2018-09-30,三季度报告,412792857.65,2018,9,-0.8770317115317064,True,1.533899790623691,True,0.267509114697405,False,平均增速,845514541.2783263,686500000.0,686500000.0
20,600477,574541053.9499999,567992334.37,2018-12-31,年度报告,542780472.71,2018,12,-0.9134481437293202,True,1.6150105660117648,True,0.0,True,比例外推,567992334.37,543000000.0,567992334.37
21,600477,96468893.44,93509305.56,2019-03-31,一季度报告,95601114.59999998,2019,3,-0.49175196554293116,True,0.6671877888697145,True,0.07437012229689159,True,比例外推,586450277.8474267,510666667.0,510666667.0
22,600477,210704353.49000004,205957640.1600001,2019-06-30,半年度报告,203421256.41,2019,6,-0.8121013423623767,True,0.20972100183259942,True,0.09566547523573254,True,比例外推,378263894.322804,,378263894.322804
23,600477,311246133.42,301691835.74000007,2019-09-30,三季度报告,277548651.34,2019,9,-0.8460528820195523,True,0.02419231756115556,True,0.04865536801051096,True,比例外推,414035403.7431283,394000000.0,414035403.7431283
24,600477,480151348.55,468916731.25,2019-12-31,年度报告,324762446.56999993,2019,12,-0.8850970731575517,True,0.044465580292210885,True,0.0,True,比例外推,468916731.25,,468916731.25
25,600477,217489021.28,216392017.12000003,2020-03-31,一季度报告,64261559.55,2020,3,-0.3156711315336096,True,0.22603428729708036,True,0.06580805393116387,True,比例外推,430071600.526865,615000000.0,615000000.0
