,SECURITYCODE_x,NETPROFIT_x,PARENTNETPROFIT_x,REPORTDATE_x,REPORTTIMETYPE_x,KCFJCXSYJLR,Year,Month,managesituationChangeRate,managesituationGreatChange,historyprofitextroplaterate,ifhistoryprofitextroplate,IfprofitdisStableChangeRage,IfprofitdisStable,predicttype,predict,analyst_prediction,adj_prediction
0,600428,37108107.89000001,32638806.59,2013-12-31,年度报告,-52809359.67999999,2013,12,未知,未知,未知,未知,未知,未知,未知,未知,未知,未知
1,600428,-9952012.3,-13124257.3,2014-03-31,一季度报告,-15302063.009999994,2014,3,未知,未知,未知,未知,未知,未知,未知,未知,未知,未知
2,600428,16499547.840000002,11437676.489999998,2014-06-30,半年度报告,-2278411.0300000003,2014,6,未知,未知,未知,未知,未知,未知,未知,未知,未知,未知
3,600428,192454235.39,191778973.26,2014-09-30,三季度报告,30021890.49,2014,9,未知,未知,未知,未知,未知,未知,未知,未知,未知,未知
4,600428,196467316.56,197825595.05,2014-12-31,年度报告,37464871.68000001,2014,12,0.0,True,未知,未知,未知,未知,未知,未知,未知,未知
5,600428,251848621.5,253528403.74,2015-03-31,一季度报告,35832174.02,2015,3,-4.728703981806776,False,未知,未知,未知,未知,未知,未知,292200000.0,未知
6,600428,388416787.8,391807772.38,2015-06-30,半年度报告,100980664.96,2015,6,1.249037867573467,False,未知,未知,未知,未知,未知,未知,482300000.0,未知
7,600428,361077908.91,366084689.56,2015-09-30,三季度报告,86685612.71000001,2015,9,-0.8071847688111302,True,未知,未知,未知,未知,未知,未知,482300000.0,未知
8,600428,145702935.72,145581381.88,2015-12-31,年度报告,-87795321.86000001,2015,12,-0.8111232517462139,True,未知,未知,未知,未知,未知,未知,371920832.0,未知
9,600428,2656847.06,918440.82,2016-03-31,一季度报告,-346196.92000000004,2016,3,-0.8526570934993185,True,未知,未知,未知,未知,未知,未知,5800000.0,未知
10,600428,6312866.089999999,4410371.73,2016-06-30,半年度报告,-17550012.03,2016,6,-0.9044631718927985,True,未知,未知,未知,未知,未知,未知,52250000.0,未知
11,600428,35469990.88999999,33190945.59,2016-09-30,三季度报告,-47098134.56,2016,9,-0.8972296366675555,True,未知,未知,未知,未知,未知,未知,46500000.0,未知
12,600428,53110851.23000001,50260945.94000001,2016-12-31,年度报告,-55160542.36000001,2016,12,-0.7453166766570075,True,0.24758789211738913,True,0.0,True,比例外推,50260945.94000001,,50260945.94000001
13,600428,11292399.609999998,11057155.09,2017-03-31,一季度报告,32587886.46000001,2017,3,12.966971772172691,False,0.978033201302104,True,0.27637434212158957,False,前期平均,-24373125.505000014,218343846.0,218343846.0
14,600428,72820371.99000001,72243783.00999999,2017-06-30,半年度报告,102232853.66,2017,6,4.878171239650042,False,0.9688189112942452,True,0.8525711120856134,False,前期平均,-2272569.045000002,235271569.00000003,235271569.00000003
15,600428,162170965.45999995,161654152.30000004,2017-09-30,三季度报告,173802041.73000002,2017,9,0.04618318073664482,True,0.8718412606918952,True,1.2099641165787787,False,平均增速,140674291.7366052,239667500.0,239667500.0
16,600428,241901306.7299999,240584964.6,2017-12-31,年度报告,241434915.89,2017,12,-0.30130835732041045,True,0.6895647656328752,True,0.0,True,比例外推,240584964.6,226168000.0,240584964.6
17,600428,241901306.7299999,240584964.6,2017-12-31,年度报告,241434915.89,2017,12,-0.30130835732041045,True,0.6895647656328752,True,0.0,True,比例外推,240584964.6,226168000.0,240584964.6
18,600428,238869232.96,237560541.7,2017-12-31,年度报告,241434915.89,2017,12,-0.30130835732041045,True,0.6895647656328752,True,0.0,True,比例外推,237560541.7,226168000.0,237560541.7
19,600428,238869232.96,237560541.7,2017-12-31,年度报告,241434915.89,2017,12,-0.30130835732041045,True,0.6895647656328752,True,0.0,True,比例外推,237560541.7,226168000.0,237560541.7
20,600428,19871909.64,19675967.950000007,2018-03-31,一季度报告,14466667.76,2018,3,2.286113596010088,False,0.9112600631028264,True,0.3191727229718929,False,前期平均,-69544952.71000001,349644286.0,349644286.0
21,600428,59608503.3,59340001.29,2018-06-30,半年度报告,52649179.82000001,2018,6,-0.4904158427658699,True,0.6310367297092253,True,1.0139888314521883,False,平均增速,364841529.6966106,203160000.0,203160000.0
22,600428,130095894.72,129048093.88999996,2018-09-30,三季度报告,82477004.03,2018,9,-0.7711790900131696,True,0.18208637321346902,True,1.182809715156108,False,平均增速,276111641.0377492,178820000.0,178820000.0
23,600428,87095866.91,86066557.49000001,2018-12-31,年度报告,-64324661.86,2018,12,-0.8465981503298842,True,1.4334459942743911,True,0.0,True,比例外推,86066557.49000001,380046667.0,380046667.0
24,600428,31455394.57,30900422.21,2019-03-31,一季度报告,31738039.89,2019,3,0.8673649670440031,False,1.849173164703955,True,0.1970178764179057,False,前期平均,107916764.20499998,233285000.0,233285000.0
25,600428,99134813.47,99431282.8,2019-06-30,半年度报告,93326620.62,2019,6,-0.37746955827357587,True,0.5065351739995418,True,0.7928612348763161,False,平均增速,-182936234.69330496,189600000.0,189600000.0
26,600428,146466875.98999998,146872214.86,2019-09-30,三季度报告,173072083.35,2019,9,-0.7147634214756257,True,0.3164872010598328,True,1.379368732800945,False,平均增速,-231412917.46245593,196000000.0,196000000.0
27,600428,102851090.25,100928932.07,2019-12-31,年度报告,-270794122.38,2019,12,-0.5739395081933629,True,0.40954388109110307,True,0.0,True,比例外推,100928932.07,196000000.0,196000000.0
28,600428,4369461.97,4582955.87,2020-03-31,一季度报告,4538489.71,2020,3,0.17970568792009936,True,1.0186806848606793,True,0.20401870126509752,False,平均增速,170236873.74054313,128970000.0,128970000.0
