,SECURITYCODE_x,NETPROFIT_x,PARENTNETPROFIT_x,REPORTDATE_x,REPORTTIMETYPE_x,KCFJCXSYJLR,Year,Month,managesituationChangeRate,managesituationGreatChange,historyprofitextroplaterate,ifhistoryprofitextroplate,IfprofitdisStableChangeRage,IfprofitdisStable,predicttype,predict,analyst_prediction,adj_prediction
0,600438,294304628.23,305870959.89,2013-12-31,年度报告,288279741.7,2013,12,未知,未知,未知,未知,未知,未知,未知,未知,未知,未知
1,600438,-37540099.96000001,-32224171.51,2014-03-31,一季度报告,-38597256.63,2014,3,未知,未知,未知,未知,未知,未知,未知,未知,未知,未知
2,600438,85630742.11,84379163.0,2014-06-30,半年度报告,71535702.92,2014,6,未知,未知,未知,未知,未知,未知,未知,未知,未知,未知
3,600438,334145504.25,328701839.26000005,2014-09-30,三季度报告,309394001.92,2014,9,未知,未知,未知,未知,未知,未知,未知,未知,未知,未知
4,600438,337265079.00000006,329294934.05000013,2014-12-31,年度报告,309401973.68999994,2014,12,0.0,True,未知,未知,未知,未知,未知,未知,未知,未知
5,600438,-74368631.08000001,-46150153.99999999,2015-03-31,一季度报告,-57790325.06999999,2015,3,-8.83974013238083,False,未知,未知,未知,未知,未知,未知,566988392.0,未知
6,600438,73207499.56,82529605.25999999,2015-06-30,半年度报告,92681240.42,2015,6,2.436903861605457,False,未知,未知,未知,未知,未知,未知,464107857.0,未知
7,600438,73207499.56,82529605.25999999,2015-06-30,半年度报告,82237957.35000001,2015,6,2.436903861605457,False,未知,未知,未知,未知,未知,未知,464107857.0,未知
8,600438,611483661.52,575399850.82,2015-09-30,三季度报告,338631611.24999994,2015,9,-0.11923211748553693,True,未知,未知,未知,未知,未知,未知,420420447.0,未知
9,600438,611483661.52,575399850.82,2015-09-30,三季度报告,564640030.4,2015,9,-0.11923211748553693,True,未知,未知,未知,未知,未知,未知,420420447.0,未知
10,600438,807866152.5,736847463.19,2015-12-31,年度报告,311417114.73,2015,12,-0.1273788881356437,True,未知,未知,未知,未知,未知,未知,358125000.0,未知
11,600438,126721415.69999996,138667810.76999998,2016-03-31,一季度报告,-14409031.25,2016,3,-4.957375898359753,False,未知,未知,未知,未知,未知,未知,677542000.0,未知
12,600438,497936544.1100001,501557105.3299999,2016-06-30,半年度报告,223323875.68,2016,6,3.020143154715883,False,未知,未知,0.0,True,未知,未知,811930000.0,未知
13,600438,903979441.24,901614956.61,2016-09-30,三季度报告,559961089.63,2016,9,-0.5187040198287063,True,未知,未知,0.08777371163965628,True,未知,未知,962668750.0,未知
14,600438,1023436702.49,1024724401.6099998,2016-12-31,年度报告,613164764.85,2016,12,-0.6357012516005861,True,1.558280244450666,True,0.06653753776201032,True,比例外推,1024724401.6099998,966787143.0000001,1024724401.6099998
15,600438,266266232.4700001,265670916.7500001,2017-03-31,一季度报告,257085167.84,2017,3,1.3224537589347662,False,-3.2647279532587206,True,0.08719105366051294,True,前期平均,624274251.8100001,1460008773.0,1460008773.0
16,600438,805944889.11,791622413.51,2017-06-30,半年度报告,768174981.2,2017,6,-0.4089515386824377,True,5.269731254574143,False,0.0,True,比例外推,2604007872.611103,1655501337.0,1655501337.0
17,600438,1567045114.2400002,1528538909.8499994,2017-09-30,三季度报告,1483311047.9000006,2017,9,-0.6744343789209425,True,0.9119110830383795,True,0.1595616409840861,False,平均增速,1638582341.8778303,1858127306.0,1858127306.0
18,600438,2037859439.34,2008493042.67,2017-12-31,年度报告,1961880367.1100004,2017,12,-0.7124349483324538,True,0.7874574971628481,True,0.05351432032284881,True,比例外推,2008493042.67,1898115789.0,2008493042.67
19,600438,320541093.0599999,319925917.55000013,2018-03-31,一季度报告,307289888.97,2018,3,0.10530210871992184,True,9.171998849829293,False,0.16849379756647875,False,未知,未知,2529332500.0,未知
20,600438,931133253.39,918106461.9200002,2018-06-30,半年度报告,889945577.0300002,2018,6,-0.6348328127559705,True,1.8222123579587393,True,0.0,True,比例外推,2562711549.0213194,2016747368.0000002,2016747368.0000002
21,600438,1675748911.62,1658509079.13,2018-09-30,三季度报告,1568396282.4999998,2018,9,-0.8121913494668375,True,1.0680742558311815,True,0.11299171674764151,False,平均增速,2529896574.997931,2044142273.0,2044142273.0
22,600438,2031020084.77,2018746008.65,2018-12-31,年度报告,1909390964.39,2018,12,-0.8555814878354338,True,1.2255842978534839,True,0.05880398050315305,True,比例外推,2018746008.65,2576859091.0,2576859091.0
23,600438,484396514.94,490633349.19,2019-03-31,一季度报告,474571143.79,2019,3,-0.08185055020414758,True,0.6313036531944078,True,0.08299474976111221,True,比例外推,5318990948.981844,3186106794.0,3186106794.0
24,600438,1459945941.1000006,1450706345.61,2019-06-30,半年度报告,1385540865.0499995,2019,6,-0.683928560000926,True,0.4282483509110489,True,0.0,True,比例外推,3467062862.9396534,3099602581.0,3099602581.0
25,600438,2279895668.8899994,2243050064.79,2019-09-30,三季度报告,2085678021.2100003,2019,9,-0.8243742686095578,True,0.3563191089329203,True,0.03937056237345615,True,比例外推,2669521983.784421,2922312500.0,2669521983.784421
26,600438,2682335991.14,2634568828.17,2019-12-31,年度报告,2314484711.22,2019,12,-0.8550951660020988,True,0.32690206414063855,True,未知,未知,True,True,2907887931.0,2907887931.0
27,600438,358933545.71,344466430.75999993,2020-03-31,一季度报告,316119847.56999993,2020,3,-0.392430335163633,True,0.6509559232325421,True,未知,未知,True,True,2808921143.0,2808921143.0
