,SECURITYCODE_x,NETPROFIT_x,PARENTNETPROFIT_x,REPORTDATE_x,REPORTTIMETYPE_x,KCFJCXSYJLR,Year,Month,managesituationChangeRate,managesituationGreatChange,historyprofitextroplaterate,ifhistoryprofitextroplate,IfprofitdisStableChangeRage,IfprofitdisStable,predicttype,predict,analyst_prediction,adj_prediction
0,600403,1205746052.2300005,1193628535.84,2013-12-31,年度报告,1209483914.64,2013,12,未知,未知,未知,未知,未知,未知,未知,未知,未知,未知
1,600403,99232622.22000004,98446774.68,2014-03-31,一季度报告,98665020.45,2014,3,未知,未知,未知,未知,未知,未知,未知,未知,未知,未知
2,600403,102744167.72,104642454.70000002,2014-06-30,半年度报告,105838381.81,2014,6,未知,未知,未知,未知,未知,未知,未知,未知,未知,未知
3,600403,122358769.11,126525135.14,2014-09-30,三季度报告,127985861.32999998,2014,9,未知,未知,未知,未知,未知,未知,未知,未知,未知,未知
4,600403,97098945.21999995,110566855.67,2014-12-31,年度报告,194779680.26,2014,12,0.0,True,未知,未知,未知,未知,未知,未知,未知,未知
5,600403,-92390846.9,-66699365.25999999,2015-03-31,一季度报告,-28546064.75,2015,3,11.150702311955895,False,未知,未知,未知,未知,未知,未知,-38306667.0,未知
6,600403,-291811576.87,-232334102.86000004,2015-06-30,半年度报告,-164657812.22000006,2015,6,10.73542089041899,False,未知,未知,未知,未知,未知,未知,-472200000.0,未知
7,600403,-683435743.07,-579921269.4599999,2015-09-30,三季度报告,-473822127.99,2015,9,8.854185858522655,False,未知,未知,未知,未知,未知,未知,-875500000.0,未知
8,600403,-1450924529.9299994,-1288326036.81,2015-12-31,年度报告,-1042905633.85,2015,12,11.417704945178404,False,未知,未知,未知,未知,未知,未知,,未知
9,600403,-496453497.4799999,-472361611.67,2016-03-31,一季度报告,-353266740.43,2016,3,-14.050492475028936,False,未知,未知,未知,未知,未知,未知,-970700000.0,未知
10,600403,-1001822215.21,-959650421.28,2016-06-30,半年度报告,-798046201.03,2016,6,-5.131933575641352,False,未知,未知,未知,未知,未知,未知,-1236400000.0,未知
11,600403,-1354086386.9299998,-1286135051.57,2016-09-30,三季度报告,-1083908719.65,2016,9,-2.764242014638827,False,未知,未知,未知,未知,未知,未知,,未知
12,600403,-2066608988.2,-1962631327.8200004,2016-12-31,年度报告,-1675689566.14,2016,12,-1.8310191380444663,False,3.2273171908704845,False,0.0,True,去年同期,-1962631327.8200004,,-1962631327.8200004
13,600403,125793589.44999996,151359743.41,2017-03-31,一季度报告,148477341.40999997,2017,3,-3.428719020714675,False,146.12417443138054,False,0.25830105786367374,False,盈利变化,-1293639218.7000003,156000000.0,156000000.0
14,600403,250176126.74,289727927.28,2017-06-30,半年度报告,268240844.32999995,2017,6,-2.2035529197935126,False,-9.597513550473275,True,0.234618956267877,False,盈利变化,-1251773297.5800004,,-1251773297.5800004
15,600403,352994548.93999994,413749890.0599999,2017-09-30,三季度报告,392446955.81,2017,9,-1.890449873706863,False,-3.8267401792415545,True,0.1317552728483775,False,盈利变化,-1306473249.837778,未知,-1306473249.837778
16,600403,419451104.54,480391514.7699998,2017-12-31,年度报告,500074495.16,2017,12,-1.5834417923828907,False,-2.052991480645839,True,0.0,True,盈利变化,-1237376640.7200003,未知,-1237376640.7200003
17,600403,294765938.53,290792876.1,2018-03-31,一季度报告,290132472.33,2018,3,8.585115247142674,False,-1.4272558296622488,True,0.15099528015130345,False,前期平均,-877598321.305,595000000.0,595000000.0
18,600403,452869246.56000006,448489157.0400001,2018-06-30,半年度报告,457320767.36,2018,6,3.8195887750836177,False,-1.3867804447775725,True,0.23229459238676192,False,前期平均,-429456436.3299999,803000000.0,803000000.0
19,600403,679579997.72,673042866.16,2018-09-30,三季度报告,675550443.3199999,2018,9,2.415763942674782,False,-1.3464939533589262,True,0.17432088565912118,False,前期平均,92610689.9849999,912000000.0,912000000.0
20,600403,619218356.7,651277217.83,2018-12-31,年度报告,646812495.72,2018,12,1.8745807060212838,False,-1.2384916034932283,True,0.0,True,前期平均,651277217.83,未知,651277217.83
21,600403,140938579.01,153848797.92,2019-03-31,一季度报告,134754174.19,2019,3,3.090520289566242,False,-2.590492697721938,True,0.1297951482869507,False,前期平均,-331564038.06000006,未知,-331564038.06000006
22,600403,98751638.46999998,110960591.36,2019-06-30,半年度报告,92621211.64000002,2019,6,1.662459554029913,False,-2.2050065942119916,True,0.133808013071394,False,前期平均,-211944265.77999997,未知,-211944265.77999997
23,600403,125567950.71000002,152698806.15,2019-09-30,三季度报告,108667586.07000002,2019,9,0.7742518265329977,False,-2.3576776314238383,True,0.2190799446800542,False,前期平均,-89377847.41999993,未知,-89377847.41999993
24,600403,9599260.98,76862851.23999998,2019-12-31,年度报告,68758979.82000001,2019,12,0.9472065696756505,False,-1.7518627847915722,True,0.0,True,前期平均,76862851.23999998,,76862851.23999998
25,600403,29243637.87,36521793.75,2020-03-31,一季度报告,-70890236.88000001,2020,3,7.55511713470908,False,0.32975681380019783,True,1.0580472380729826,False,前期平均,390660382.32000005,未知,390660382.32000005
