,SECURITYCODE_x,NETPROFIT_x,PARENTNETPROFIT_x,REPORTDATE_x,REPORTTIMETYPE_x,KCFJCXSYJLR,Year,Month,managesituationChangeRate,managesituationGreatChange,historyprofitextroplaterate,ifhistoryprofitextroplate,IfprofitdisStableChangeRage,IfprofitdisStable,predicttype,predict,analyst_prediction,adj_prediction
0,600405,31360883.61,31191440.64,2013-12-31,年度报告,22206430.6,2013,12,未知,未知,未知,未知,未知,未知,未知,未知,未知,未知
1,600405,9694454.32,9659154.21,2014-03-31,一季度报告,2477525.8300000005,2014,3,未知,未知,未知,未知,未知,未知,未知,未知,未知,未知
2,600405,25276290.46,25197267.05,2014-06-30,半年度报告,15579666.569999995,2014,6,未知,未知,未知,未知,未知,未知,未知,未知,未知,未知
3,600405,31711943.510000005,31595038.29,2014-09-30,三季度报告,17065693.51,2014,9,未知,未知,未知,未知,未知,未知,未知,未知,未知,未知
4,600405,46001938.91999999,45687803.41,2014-12-31,年度报告,24224026.01,2014,12,0.0,True,未知,未知,未知,未知,未知,未知,未知,未知
5,600405,-20386766.24,-20386394.96,2015-03-31,一季度报告,-20878760.1,2015,3,2.2349302575289247,False,未知,未知,未知,未知,未知,未知,77730000.0,未知
6,600405,-15952090.76,-15966308.879999995,2015-06-30,半年度报告,-22040401.21,2015,6,0.24072334346801924,True,未知,未知,未知,未知,未知,未知,54000000.0,未知
7,600405,3598502.81,3501414.06,2015-09-30,三季度报告,-2624232.05,2015,9,-0.011070273882434962,True,未知,未知,未知,未知,未知,未知,,未知
8,600405,50202307.99999999,49905408.79999999,2015-12-31,年度报告,41141349.42000001,2015,12,-0.3182703958513928,True,未知,未知,未知,未知,未知,未知,未知,未知
9,600405,-26815244.469999995,-26782046.08,2016-03-31,一季度报告,-29163769.4,2016,3,-2.538296129989863,False,未知,未知,未知,未知,未知,未知,未知,未知
10,600405,-22643464.04000001,-22688373.54000001,2016-06-30,半年度报告,-27063848.86,2016,6,-2.9659418995181293,False,未知,未知,未知,未知,未知,未知,未知,未知
11,600405,23289921.39,23148398.550000004,2016-09-30,三季度报告,18322675.629999995,2016,9,7.7149809978889525,False,未知,未知,未知,未知,未知,未知,78080000.0,未知
12,600405,27346292.21,27163110.529999994,2016-12-31,年度报告,12815951.409999998,2016,12,-0.37530992379872247,True,0.29784065157478945,True,0.0,True,比例外推,27163110.529999994,78080000.0,78080000.0
13,600405,-26965887.980000004,-26965887.980000004,2017-03-31,一季度报告,-41113617.73,2017,3,-2.1695169755056876,False,-4.0157991406595634,True,1.3819847951651245,False,前期平均,14917416.870000005,77560000.0,77560000.0
14,600405,-29802585.849999994,-29802585.849999994,2017-06-30,半年度报告,-33311391.45,2017,6,-2.3849861290922862,False,5.856923868758411,False,1.4436295364725389,False,去年同期,10077214.420000002,55900000.0,55900000.0
15,600405,-23887217.5,-25080604.460000005,2017-09-30,三季度报告,-48792977.87000001,2017,9,0.34654312845664775,True,0.3191519120962499,True,0.7539144640307965,False,平均增速,-20515410.83844252,,-20515410.83844252
16,600405,20746299.059999995,19992617.19,2017-12-31,年度报告,-5999465.740000001,2017,12,0.14680569377269878,True,0.4314951140828492,True,0.0,True,比例外推,19992617.19,117820000.0,117820000.0
17,600405,-31946124.02,-32424513.020000003,2018-03-31,一季度报告,-34357712.18,2018,3,-2.1629835306465583,False,-0.14257369863640743,True,5.496277251331093,False,前期平均,19575402.145000003,未知,19575402.145000003
18,600405,-42875089.05,-44055992.99,2018-06-30,半年度报告,-53518838.71999999,2018,6,-2.0522873339864907,False,-0.5443532813265834,True,4.58408044316,False,前期平均,7474782.460000001,未知,7474782.460000001
19,600405,-41313833.69,-43023250.530000016,2018-09-30,三季度报告,-56889631.11000001,2018,9,-2.3128730296862745,False,2.776765891695505,False,4.966627568910132,False,去年同期,-229738.40000000596,未知,-229738.40000000596
20,600405,-278075286.68,-280221091.6,2018-12-31,年度报告,-221479997.86,2018,12,0.5116374982979739,False,0.4649471685157579,True,0.0,True,盈利变化,-51834226.85000001,-16350000.0,-16350000.0
21,600405,-18382444.5,-18387563.78,2019-03-31,一季度报告,-19668819.86,2019,3,-1.9816803938520489,False,-0.18800488441555668,True,5.275405153247111,False,前期平均,20159372.61999999,48230000.0,48230000.0
22,600405,1320582.56,1399303.85,2019-06-30,半年度报告,-1331190.3299999998,2019,6,-1.7314476612148284,False,-0.6350169036534087,True,4.324958546955067,False,盈利变化,-245429326.0066667,45510000.0,45510000.0
23,600405,16003901.159999995,16117768.650000002,2019-09-30,三季度报告,11500232.89,2019,9,-1.759089167210132,False,-137.33618869541957,True,4.859745230759707,False,盈利变化,-249825596.48888892,,-249825596.48888892
24,600405,10479208.94,11070482.28,2019-12-31,年度报告,5267211.94,2019,12,-1.1127783917241416,False,12.564163183424158,False,0.0,True,前期平均,11070482.28,35460000.0,35460000.0
25,600405,-45555350.70999999,-44449594.33,2020-03-31,一季度报告,-46484317.75000002,2020,3,-2.7060235710217975,False,-0.3759356071559736,True,5.7616104178063665,False,前期平均,-120453661.17500001,70240000.0,70240000.0
