,SECURITYCODE_x,NETPROFIT_x,PARENTNETPROFIT_x,REPORTDATE_x,REPORTTIMETYPE_x,KCFJCXSYJLR,Year,Month,managesituationChangeRate,managesituationGreatChange,historyprofitextroplaterate,ifhistoryprofitextroplate,IfprofitdisStableChangeRage,IfprofitdisStable,predicttype,predict,analyst_prediction,adj_prediction
0,600476,-61982962.55,-61968154.22000001,2013-12-31,年度报告,-63532078.06,2013,12,未知,未知,未知,未知,未知,未知,未知,未知,未知,未知
1,600476,-4355974.73,-4355910.38,2014-03-31,一季度报告,-5863393.3,2014,3,未知,未知,未知,未知,未知,未知,未知,未知,未知,未知
2,600476,-5697382.02,-5696052.33,2014-06-30,半年度报告,-13434098.870000005,2014,6,未知,未知,未知,未知,未知,未知,未知,未知,未知,未知
3,600476,-11678377.66,-11676478.7,2014-09-30,三季度报告,-19870004.94,2014,9,未知,未知,未知,未知,未知,未知,未知,未知,未知,未知
4,600476,7211980.67,7216217.889999999,2014-12-31,年度报告,-45385903.43,2014,12,-0.0,False,未知,未知,未知,未知,未知,未知,未知,未知
5,600476,-4334800.31,-4334583.7,2015-03-31,一季度报告,-5002683.699999998,2015,3,13.229412793218842,False,未知,未知,未知,未知,未知,未知,未知,未知
6,600476,-5382086.6099999985,-5381578.8599999985,2015-06-30,半年度报告,-7231920.790000001,2015,6,9.879200715770153,False,未知,未知,未知,未知,未知,未知,未知,未知
7,600476,-13061795.88,-13061288.13,2015-09-30,三季度报告,-16113330.06,2015,9,4.307497698271902,False,未知,未知,未知,未知,未知,未知,1610700.0,未知
8,600476,-39542335.05,-39529770.11,2015-12-31,年度报告,-42844793.48,2015,12,-9.594443799306523,False,未知,未知,未知,未知,未知,未知,未知,未知
9,600476,-5253654.93,-5253455.73,2016-03-31,一季度报告,-5878292.030000001,2016,3,13.298919931100587,False,未知,未知,未知,未知,未知,未知,4100000.0,未知
10,600476,-4219654.6099999985,-4215990.98,2016-06-30,半年度报告,-5149397.5600000005,2016,6,10.516530119532954,False,未知,未知,未知,未知,未知,未知,1200000.0,未知
11,600476,-4721711.55,-4717614.129999999,2016-09-30,三季度报告,-7332286.31,2016,9,3.745362974543742,False,未知,未知,未知,未知,未知,未知,1803100.0,未知
12,600476,2291321.4599999995,2311558.41,2016-12-31,年度报告,-31333638.469999995,2016,12,0.5675089109336754,False,-0.4439155075450329,True,0.0,True,盈利变化,-35692718.44,,-35692718.44
13,600476,654430.3200000001,654553.4899999999,2017-03-31,一季度报告,405553.5299999999,2017,3,10.798065037743163,False,-0.2090187367224731,True,0.04308459954544913,True,盈利变化,10690019.15666667,未知,10690019.15666667
14,600476,1372939.27,1373189.87,2017-06-30,半年度报告,1263992.4,2017,6,13.689108061856281,False,-0.2382929631526925,True,0.08628666797476084,True,盈利变化,6587151.716666668,未知,6587151.716666668
15,600476,2413953.08,2414322.86,2017-09-30,三季度报告,2203425.39,2017,9,12.127223442948353,False,-0.6182960040788784,True,0.11529119902833496,False,盈利变化,6549652.498888888,未知,6549652.498888888
16,600476,2118598.67,2128807.64,2017-12-31,年度报告,-2068081.0200000003,2017,12,-28.051185803496995,False,-1.141744283596065,True,0.0,True,前期平均,2128807.64,,2128807.64
17,600476,-6348283.15,-6348163.98,2018-03-31,一季度报告,405553.5299999999,2018,3,-95.71285277552542,False,-1.136503806634029,True,0.23218963935755507,False,盈利变化,2128807.64,未知,2128807.64
18,600476,357425.37000000005,357663.72,2018-06-30,半年度报告,-2896556.1100000013,2018,6,-46.14617937179406,False,-1.2859771448828947,True,0.5185054094489299,False,前期平均,-30540893.079999994,未知,-30540893.079999994
19,600476,-10891506.04,-10891136.26,2018-09-30,三季度报告,-14578097.13,2018,9,-26.67695414775833,False,-1.2714822246963235,True,0.9136605923339552,False,盈利变化,-5329646.813333333,未知,-5329646.813333333
20,600476,1618874.9400000004,1634640.81,2018-12-31,年度报告,-2355035.88,2018,12,-30.256585226686656,False,-1.1137471690471656,True,0.0,True,前期平均,1634640.81,未知,1634640.81
21,600476,4127915.74,4127955.46,2019-03-31,一季度报告,2588755.46,2019,3,8.763736286715567,False,-1.7605884418852078,True,0.24783826435444817,False,盈利变化,4545576.716666667,未知,4545576.716666667
22,600476,-7923803.3,-7923011.169999999,2019-06-30,半年度报告,-9937611.29,2019,6,-174.4151175390823,False,-1.251114233290358,True,0.9689109529392566,False,盈利变化,-3059395.976666665,未知,-3059395.976666665
23,600476,-23813268.02,-23811680.070000004,2019-09-30,三季度报告,-26496800.20000001,2019,9,4.690945065114246,False,-8.439034614397928,True,4.403932840429379,False,前期平均,-37948109.355000004,未知,-37948109.355000004
24,600476,-64238375.71000001,-64235909.56000001,2019-12-31,年度报告,-68891082.32000001,2019,12,-39.287678077220704,False,0.2658030566190772,True,0.0,True,盈利变化,-20544041.33666667,未知,-20544041.33666667
25,600476,-14211148.999999994,-14211148.999999994,2020-03-31,一季度报告,-10923871.98,2020,3,-16.0155590506312,False,-2.449955193169262,True,0.0977177645887401,True,盈利变化,-82252746.14666668,未知,-82252746.14666668
