,SECURITYCODE_x,NETPROFIT_x,PARENTNETPROFIT_x,REPORTDATE_x,REPORTTIMETYPE_x,KCFJCXSYJLR,Year,Month,managesituationChangeRate,managesituationGreatChange,historyprofitextroplaterate,ifhistoryprofitextroplate,IfprofitdisStableChangeRage,IfprofitdisStable,predicttype,predict,analyst_prediction,adj_prediction
0,600426,489522777.3299999,489522777.3299999,2013-12-31,年度报告,87411929.82000001,2013,12,未知,未知,未知,未知,未知,未知,未知,未知,未知,未知
1,600426,195347453.59,195347453.59,2014-03-31,一季度报告,196155540.07,2014,3,未知,未知,未知,未知,未知,未知,未知,未知,未知,未知
2,600426,411795266.73,411795266.73,2014-06-30,半年度报告,412827658.24,2014,6,未知,未知,未知,未知,未知,未知,未知,未知,未知,未知
3,600426,621546288.5400001,621546288.5400001,2014-09-30,三季度报告,622333285.1800001,2014,9,未知,未知,未知,未知,未知,未知,未知,未知,未知,未知
4,600426,804427991.8599997,804427991.8599997,2014-12-31,年度报告,804105153.66,2014,12,0.0,True,未知,未知,未知,未知,未知,未知,未知,未知
5,600426,245363714.15000004,245363714.15000004,2015-03-31,一季度报告,243656872.98,2015,3,1.505908156639821,False,未知,未知,未知,未知,未知,未知,981812000.0,未知
6,600426,526063609.7999999,526063609.7999999,2015-06-30,半年度报告,522259532.69,2015,6,0.18875280237488296,True,未知,未知,未知,未知,未知,未知,1008821389.0,未知
7,600426,768551276.8,768551276.8,2015-09-30,三季度报告,765702504.76,2015,9,-0.21241139017999894,True,未知,未知,未知,未知,未知,未知,958212000.0,未知
8,600426,904649382.86,904649382.86,2015-12-31,年度报告,901182237.4599998,2015,12,-0.39146476467318775,True,未知,未知,未知,未知,未知,未知,958212000.0,未知
9,600426,221608181.33,221608181.33,2016-03-31,一季度报告,221602008.45,2016,3,0.9950903458803053,False,未知,未知,未知,未知,未知,未知,919011667.0,未知
10,600426,489994564.95,489994564.95,2016-06-30,半年度报告,492069616.15,2016,6,-0.06946086326688164,True,未知,未知,未知,未知,未知,未知,908246000.0,未知
11,600426,644673784.53,644673784.53,2016-09-30,三季度报告,643854361.99,2016,9,-0.3630577528044516,True,未知,未知,未知,未知,未知,未知,885056667.0,未知
12,600426,875490486.04,875490486.04,2016-12-31,年度报告,876982951.6899999,2016,12,-0.4588812123185226,True,0.39827480983113694,True,0.0,True,比例外推,875490486.04,895542500.0,875490486.04
13,600426,313827230.44000006,313827230.44000006,2017-03-31,一季度报告,313179526.61,2017,3,1.2089562505864544,False,0.00568443711750452,True,0.01470665054132525,True,前期平均,946564719.475,1095850000.0,1095850000.0
14,600426,545510003.29,545510003.29,2017-06-30,半年度报告,544716667.9599999,2017,6,-0.0009628425573418483,True,0.044921740812304774,True,0.03794021081894361,True,比例外推,988779642.8312564,1113003000.0,1113003000.0
15,600426,847827166.5400001,847827166.5400001,2017-09-30,三季度报告,846822547.8700001,2017,9,-0.24066591650397734,True,0.07247692449224458,True,0.06373799254641632,True,比例外推,1078487818.6219206,1197771339.0,1078487818.6219206
16,600426,1222051795.5200002,1222051795.5200002,2017-12-31,年度报告,1230846951.55,2017,12,-0.4408588269825764,True,0.024518256446326925,True,0.0,True,比例外推,1222051795.5200002,1206139049.0,1222051795.5200002
17,600426,734085801.0399997,734085801.0399997,2018-03-31,一季度报告,734655443.3,2018,3,0.559847998670054,False,0.3440947238052402,True,0.011206767110627291,True,前期平均,1390538954.8999996,2353906213.0,2353906213.0
18,600426,1680056059.05,1680056059.05,2018-06-30,半年度报告,1681060996.3000002,2018,6,-0.10263281263833493,True,0.07377710616662705,True,0.08517070664614884,True,比例外推,3184481495.729437,3055148489.0,3184481495.729437
19,600426,2534570945.55,2534570945.55,2018-09-30,三季度报告,2535973067.9,2018,9,-0.4226148952884438,True,0.19984734171371352,True,0.09238641838763373,True,比例外推,3347398426.501477,3285367353.0,3347398426.501477
20,600426,3019652962.34,3019652962.34,2018-12-31,年度报告,3011194056.2100005,2018,12,-0.5994255078838937,True,0.37298401869415054,True,0.0,True,比例外推,3019652962.34,3291711818.0,3019652962.34
21,600426,642255953.77,642255953.77,2019-03-31,一季度报告,636252238.9,2019,3,-0.333153186403443,True,1.7420143864348339,True,0.006393168561376783,True,比例外推,2547272324.767666,2600763871.0,2547272324.767666
22,600426,1308885547.63,1308885547.63,2019-06-30,半年度报告,1292681104.4700005,2019,6,-0.708627117117268,True,2.244903229940385,False,0.07808519229005156,True,比例外推,2499076005.564172,2595789375.0,2499076005.564172
23,600426,1912377944.89,1912377944.89,2019-09-30,三季度报告,1878882150.6700003,2019,9,-0.806861678822025,True,2.396407812983867,False,0.08739804161491349,True,比例外推,2522794130.9515204,2530878400.0,2522794130.9515204
24,600426,2453030877.47,2453030877.47,2019-12-31,年度报告,2404142981.45,2019,12,-0.8378877362944855,True,1.8792296478469084,True,0.0,True,比例外推,2453030877.47,2522793300.0,2453030877.47
25,600426,429590016.27,429590016.27,2020-03-31,一季度报告,421989246.95,2020,3,-0.23780733451121225,True,0.2257810228066773,True,0.0103803221706123,True,比例外推,1666656253.4439816,2212614571.0,2212614571.0
