,SECURITYCODE_x,NETPROFIT_x,PARENTNETPROFIT_x,REPORTDATE_x,REPORTTIMETYPE_x,KCFJCXSYJLR,Year,Month,managesituationChangeRate,managesituationGreatChange,historyprofitextroplaterate,ifhistoryprofitextroplate,IfprofitdisStableChangeRage,IfprofitdisStable,predicttype,predict,analyst_prediction,adj_prediction
0,600409,451244275.8399999,446327304.57000005,2013-12-31,年度报告,432279449.76,2013,12,未知,未知,未知,未知,未知,未知,未知,未知,未知,未知
1,600409,104209179.32,102883684.76999998,2014-03-31,一季度报告,99636777.03999998,2014,3,未知,未知,未知,未知,未知,未知,未知,未知,未知,未知
2,600409,159183424.52,156936135.71000004,2014-06-30,半年度报告,158358541.97000003,2014,6,未知,未知,未知,未知,未知,未知,未知,未知,未知,未知
3,600409,376333528.91000015,371784737.87000006,2014-09-30,三季度报告,371543346.8,2014,9,未知,未知,未知,未知,未知,未知,未知,未知,未知,未知
4,600409,485048656.67,477151032.55,2014-12-31,年度报告,479272924.1999999,2014,12,0.0,True,未知,未知,未知,未知,未知,未知,未知,未知
5,600409,32701646.28,38006481.39,2015-03-31,一季度报告,17215815.349999998,2015,3,3.3301778095223553,False,未知,未知,未知,未知,未知,未知,853666667.0,未知
6,600409,175733513.32,189536492.98,2015-06-30,半年度报告,170199360.99999997,2015,6,1.834744114851638,False,未知,未知,未知,未知,未知,未知,697422856.9999999,未知
7,600409,313837788.12999994,331207216.44000006,2015-09-30,三季度报告,315206206.56,2015,9,0.19905413994593774,True,未知,未知,未知,未知,未知,未知,,未知
8,600409,384117071.23,412607215.36000013,2015-12-31,年度报告,429020412.46,2015,12,-0.06969276249949231,True,未知,未知,未知,未知,未知,未知,852333333.0,未知
9,600409,135928188.02,127808258.27,2016-03-31,一季度报告,123069048.69,2016,3,12.798824437654579,False,未知,未知,未知,未知,未知,未知,795542647.0,未知
10,600409,306194238.23,293798652.07,2016-06-30,半年度报告,303599748.01,2016,6,1.5677758744759838,False,未知,未知,未知,未知,未知,未知,968738376.0,未知
11,600409,589233390.3800001,570239291.4800001,2016-09-30,三季度报告,582668608.0600001,2016,9,0.43782645974130613,True,未知,未知,未知,未知,未知,未知,886877934.0,未知
12,600409,800869215.1099999,762859975.7600001,2016-12-31,年度报告,793234029.5200001,2016,12,0.1747571499362124,True,0.1794938146114918,True,0.0,True,比例外推,762859975.7600001,897146210.0,897146210.0
13,600409,556009759.0000001,510487946.7000001,2017-03-31,一季度报告,512757692.68,2017,3,2.3197255287005327,False,0.985645582433768,True,0.09426120044770843,True,前期平均,906208318.835,1573828802.0000002,1573828802.0000002
14,600409,1027955003.85,962132622.89,2017-06-30,半年度报告,936469978.8299998,2017,6,0.4737190302746471,True,0.8284786682020739,True,0.03954155170487261,True,比例外推,2556965845.808409,1962360500.0,1962360500.0
15,600409,1558577187.53,1463883998.8099995,2017-09-30,三季度报告,1446451815.7299998,2017,9,-0.23418413958348525,True,0.7074989233313794,True,0.02706206160735458,True,比例外推,1950775575.35925,2025344000.0,1950775575.35925
16,600409,2014004293.19,1889077149.93,2017-12-31,年度报告,1928457423.02,2017,12,-0.43655684682795404,True,0.8428458219239452,True,0.0,True,比例外推,1889077149.93,1414840000.0,1414840000.0
17,600409,461979185.1900001,438092739.05,2018-03-31,一季度报告,429463917.72000015,2018,3,-0.18842382074088773,True,5.594441147476122,False,0.11359405254617695,False,未知,未知,2229521111.0,未知
18,600409,1238206999.57,1178744739.83,2018-06-30,半年度报告,1169383915.88,2018,6,-0.5610272101892061,True,3.2660129056433873,False,0.06391952239471549,True,比例外推,2782474785.994154,2286920000.0,2286920000.0
19,600409,1624733689.5499995,1543951951.5900002,2018-09-30,三季度报告,1543257627.7300005,2018,9,-0.710476786488116,True,2.451726119975473,False,0.010284388376231357,True,比例外推,2086820348.3199506,1917315000.0,2086820348.3199506
20,600409,1701521363.439999,1586079163.1500006,2018-12-31,年度报告,1662051397.1500006,2018,12,-0.7759467160195225,True,2.3992027020169844,False,0.0,True,比例外推,1586079163.1500006,2530000000.0,2530000000.0
21,600409,221929694.55,192150470.27,2019-03-31,一季度报告,191078499.79,2019,3,-0.023236781426819505,True,0.3353196978995773,True,0.071329005124521,True,比例外推,844769547.2823162,1417203750.0,1417203750.0
22,600409,454994428.54,390405316.79,2019-06-30,半年度报告,383816440.74,2019,6,-0.6355663665310353,True,0.8561746475073184,True,0.17960498230001587,False,平均增速,876844312.6521382,959012500.0,876844312.6521382
23,600409,603502584.18,527734757.36,2019-09-30,三季度报告,521585367.64,2019,9,-0.7222656988389399,True,0.5129208378617838,True,0.12414902132082117,False,平均增速,645606155.3141346,675867500.0,645606155.3141346
24,600409,739996148.11,682915734.4200001,2019-12-31,年度报告,596586151.5100001,2019,12,-0.734799523805149,True,0.20895049701015297,True,0.0,True,比例外推,682915734.4200001,730394000.0,682915734.4200001
25,600409,-228955717.57,-212922289.26,2020-03-31,一季度报告,-219418832.4400001,2020,3,1.0332757937371744,False,0.5639840770047136,True,0.038763023117149686,True,盈利变化,135585958.11333334,256498571.0,256498571.0
