,SECURITYCODE_x,NETPROFIT_x,PARENTNETPROFIT_x,REPORTDATE_x,REPORTTIMETYPE_x,KCFJCXSYJLR,Year,Month,managesituationChangeRate,managesituationGreatChange,historyprofitextroplaterate,ifhistoryprofitextroplate,IfprofitdisStableChangeRage,IfprofitdisStable,predicttype,predict,analyst_prediction,adj_prediction
0,600487,326709316.54,291042793.31,2013-12-31,年度报告,210550001.65,2013,12,未知,未知,未知,未知,未知,未知,未知,未知,未知,未知
1,600487,47134191.54,42418479.96,2014-03-31,一季度报告,25991293.93,2014,3,未知,未知,未知,未知,未知,未知,未知,未知,未知,未知
2,600487,98697005.47,86477525.81,2014-06-30,半年度报告,58258635.60999999,2014,6,未知,未知,未知,未知,未知,未知,未知,未知,未知,未知
3,600487,267895213.41,249264559.88,2014-09-30,三季度报告,174328536.72,2014,9,未知,未知,未知,未知,未知,未知,未知,未知,未知,未知
4,600487,383442787.9999999,344156362.00999993,2014-12-31,年度报告,266953387.76,2014,12,0.0,True,未知,未知,未知,未知,未知,未知,未知,未知
5,600487,65916714.04,50166335.3,2015-03-31,一季度报告,43542469.82,2015,3,5.931471737724432,False,未知,未知,未知,未知,未知,未知,446909936.0,未知
6,600487,177205973.89,140630199.08,2015-06-30,半年度报告,111888647.43000002,2015,6,2.310225218933383,False,未知,未知,未知,未知,未知,未知,483021400.99999994,未知
7,600487,479192767.43,402371583.55,2015-09-30,三季度报告,367134597.15,2015,9,0.2195414482452437,True,未知,未知,未知,未知,未知,未知,524903915.0,未知
8,600487,479192767.43,402371583.55,2015-09-30,三季度报告,367134597.14,2015,9,0.2195414482452437,True,未知,未知,未知,未知,未知,未知,524903915.0,未知
9,600487,693275185.0499997,572815848.16,2015-12-31,年度报告,526729322.08,2015,12,-0.14795811327138556,True,未知,未知,未知,未知,未知,未知,534398105.0,未知
10,600487,136785134.35999998,114778814.19,2016-03-31,一季度报告,106662434.19,2016,3,3.956395677456619,False,未知,未知,未知,未知,未知,未知,799556250.0,未知
11,600487,497980579.1700001,382437566.26000017,2016-06-30,半年度报告,357081214.83000004,2016,6,0.8436698795651423,False,未知,未知,未知,未知,未知,未知,1312405398.0,未知
12,600487,1211432660.6,1047721273.9500002,2016-09-30,三季度报告,989977937.5600002,2016,9,-0.318208999079425,True,未知,未知,0.0,True,未知,未知,1403174000.0,未知
13,600487,1523127437.5,1316391523.8799994,2016-12-31,年度报告,1105997480.5400002,2016,12,-0.5287451165348758,True,0.9524695642465715,True,0.009490406236228668,True,比例外推,1316391523.8799994,1408811111.0,1316391523.8799994
14,600487,326127079.11000013,277691962.21000004,2017-03-31,一季度报告,245931063.06,2017,3,1.3884855475606381,False,1.4198856905786494,True,0.07168706311797524,True,前期平均,639766435.2550001,2303650000.0,2303650000.0
15,600487,841067064.29,767420175.8100003,2017-06-30,半年度报告,716263623.78,2017,6,-0.3439316105769893,True,2.6098238614540783,False,0.14672043473927165,False,未知,未知,2302960714.0,未知
16,600487,1780213482.8800004,1670878674.8,2017-09-30,三季度报告,1605795183.7199993,2017,9,-0.7303116160181887,True,2.2430789724067215,False,0.0,True,比例外推,2210780739.360508,2242780000.0,2210780739.360508
17,600487,2231816634.86,2104884504.36,2017-12-31,年度报告,1906149660.3,2017,12,-0.7855009971613095,True,1.8292040731621935,True,0.026311280353514002,True,比例外推,2104884504.36,2237853571.0,2104884504.36
18,600487,491219257.9000001,481742024.81999993,2018-03-31,一季度报告,454357104.4,2018,3,0.0017853084496657322,True,2.2178007421662977,False,0.0912601839281457,True,比例外推,4451137408.317381,3038158567.0,3038158567.0
19,600487,1215294654.8499994,1171753714.3400002,2018-06-30,半年度报告,1093421632.3300002,2018,6,-0.6115537863609047,True,1.491362010923399,True,0.11450405317922041,False,平均增速,3217268417.9239206,3174900000.0,3217268417.9239206
20,600487,2176425193.01,2106947591.43,2018-09-30,三季度报告,1986247206.68,2018,9,-0.8164774507766029,True,1.105982145263712,True,0.0,True,比例外推,2568288175.90782,2905571429.0,2905571429.0
21,600487,2647366489.47,2531586632.55,2018-12-31,年度报告,2318326500.49,2018,12,-0.8536128320593442,True,1.0139090363394954,True,0.055503353142805495,True,比例外推,2531586632.55,2850146667.0,2850146667.0
22,600487,443255518.3600001,456794946.13,2019-03-31,一季度报告,414452781.2099999,2019,3,-0.33490124565411516,True,1.1222998383119327,True,0.08155389111090255,True,比例外推,2992570444.3496666,2372257500.0,2372257500.0
23,600487,708671357.31,730630753.47,2019-06-30,半年度报告,636760024.96,2019,6,-0.7311686386209566,True,0.8151626804103369,True,0.030337171080428993,True,比例外推,1726217280.130273,2291015000.0,2291015000.0
24,600487,1139490227.97,1187264967.76,2019-09-30,三季度报告,949053989.98,2019,9,-0.8498871830792584,True,0.45500175396967024,True,0.0,True,比例外推,1335684599.8808477,1731666667.0,1731666667.0
25,600487,1339529921.9400005,1362121368.14,2019-12-31,年度报告,1100520573.03,2019,12,-0.8765908241871692,True,0.4100697312416253,True,0.14272976837863208,False,平均增速,1362121368.14,1615500000.0,1615500000.0
26,600487,188576563.82,233450460.64,2020-03-31,一季度报告,132112148.8,2020,3,-0.2629323200559556,True,0.08462104322020554,True,未知,未知,True,True,1804882500.0,1804882500.0
