,SECURITYCODE_x,NETPROFIT_x,PARENTNETPROFIT_x,REPORTDATE_x,REPORTTIMETYPE_x,KCFJCXSYJLR,Year,Month,managesituationChangeRate,managesituationGreatChange,historyprofitextroplaterate,ifhistoryprofitextroplate,IfprofitdisStableChangeRage,IfprofitdisStable,predicttype,predict,analyst_prediction,adj_prediction
0,600433,153829338.03,153829338.03,2013-12-31,年度报告,62133574.62,2013,12,未知,未知,未知,未知,未知,未知,未知,未知,未知,未知
1,600433,23706413.77,23706413.77,2014-03-31,一季度报告,18392147.85,2014,3,未知,未知,未知,未知,未知,未知,未知,未知,未知,未知
2,600433,74347978.15,74347978.15,2014-06-30,半年度报告,34527430.38999999,2014,6,未知,未知,未知,未知,未知,未知,未知,未知,未知,未知
3,600433,91331910.95,91331910.95,2014-09-30,三季度报告,52114407.84999998,2014,9,未知,未知,未知,未知,未知,未知,未知,未知,未知,未知
4,600433,132049603.15,125940611.76000004,2014-12-31,年度报告,62646006.7,2014,12,0.0,True,未知,未知,未知,未知,未知,未知,未知,未知
5,600433,9713226.329999998,10625943.28,2015-03-31,一季度报告,4468275.74,2015,3,5.488933312413032,False,未知,未知,未知,未知,未知,未知,196150000.0,未知
6,600433,12285943.289999995,13594045.92,2015-06-30,半年度报告,2425373.7299999995,2015,6,1.0690453440393926,False,未知,未知,未知,未知,未知,未知,147000000.0,未知
7,600433,29660370.75,31390726.49,2015-09-30,三季度报告,18185310.79,2015,9,0.6842890554892085,False,未知,未知,未知,未知,未知,未知,54065000.0,未知
8,600433,34844337.84,36761452.54000001,2015-12-31,年度报告,29618729.82,2015,12,0.16493601162329577,True,未知,未知,未知,未知,未知,未知,54000000.0,未知
9,600433,10108140.62,11034326.38,2016-03-31,一季度报告,6839959.69,2016,3,14.837100135810386,False,未知,未知,未知,未知,未知,未知,136526667.0,未知
10,600433,39318957.04,41373146.54000001,2016-06-30,半年度报告,36871696.46,2016,6,11.520759244852421,False,未知,未知,未知,未知,未知,未知,168285000.0,未知
11,600433,58277481.16,61267827.92,2016-09-30,三季度报告,50709795.41,2016,9,4.186359244346263,False,未知,未知,未知,未知,未知,未知,84000000.0,未知
12,600433,103981234.1,108525047.37,2016-12-31,年度报告,81711882.05000001,2016,12,3.414758539432184,False,0.7562301182719107,True,0.0,True,前期平均,108525047.37,154030000.0,154030000.0
13,600433,14705753.620000005,16235596.76,2017-03-31,一季度报告,15549094.829999998,2017,3,14.218361498219839,False,0.39507782909966166,True,0.11753631906789519,False,前期平均,50937753.225,未知,50937753.225
14,600433,30912997.14,34028338.620000005,2017-06-30,半年度报告,33453331.1,2017,6,2.9123453318842154,False,0.09229649572699752,True,0.27953956398469143,False,前期平均,61684304.82000001,未知,61684304.82000001
15,600433,33841549.910000004,38613982.83000001,2017-09-30,三季度报告,35926785.63,2017,9,1.6396016946522403,False,0.036674400363837505,True,0.1430671728533366,False,前期平均,49596491.770000026,未知,49596491.770000026
16,600433,45153900.41,52790214.49,2017-12-31,年度报告,54782957.31999999,2017,12,0.4793951943488235,True,0.24607560326267766,True,0.0,True,比例外推,52790214.49,,52790214.49
17,600433,21728124.000000004,22373719.92,2018-03-31,一季度报告,21969966.62,2018,3,9.460486555465625,False,0.48382840165319757,True,0.11103122960347497,False,前期平均,72384908.14000002,未知,72384908.14000002
18,600433,48687028.98,49923572.48000001,2018-06-30,半年度报告,48515711.78,2018,6,3.976202641669833,False,0.19806440637688957,True,0.29937317071882097,False,前期平均,85940343.32000002,未知,85940343.32000002
19,600433,85837404.11,87165844.08999999,2018-09-30,三季度报告,83188350.23000002,2018,9,3.5455760282582163,False,0.23033030316375838,True,0.025677228142411135,True,前期平均,108383596.925,未知,108383596.925
20,600433,107003476.08,109215647.43,2018-12-31,年度报告,90765733.32999995,2018,12,2.406778520420624,False,0.34948727703401244,True,0.0,True,前期平均,109215647.43,未知,109215647.43
21,600433,15351685.11,15925041.35,2019-03-31,一季度报告,15168599.22,2019,3,6.079733990380393,False,0.7512869032039529,True,0.11948856112331192,False,前期平均,72977933.775,未知,72977933.775
22,600433,53673216.87000001,54858281.87000001,2019-06-30,半年度报告,53487325.12000001,2019,6,2.159554839404785,False,0.38646374142511414,True,0.08089574234762759,True,前期平均,87943187.77500002,未知,87943187.77500002
23,600433,90941079.21,92597374.25,2019-09-30,三季度报告,90797760.06,2019,9,0.7921014693416036,False,0.8636193436462294,True,0.18554645754140808,False,前期平均,117526503.415,未知,117526503.415
24,600433,166811217.0,170325142.7,2019-12-31,年度报告,148253390.19,2019,12,0.43761066149842787,True,0.4349868182514037,True,0.0,True,比例外推,170325142.7,未知,170325142.7
25,600433,23367959.430000003,23604864.89,2020-03-31,一季度报告,21558346.23,2020,3,9.0203552201443,False,0.15728513609691389,True,0.10708382856245349,False,前期平均,77619679.48999998,未知,77619679.48999998
