,SECURITYCODE_x,NETPROFIT_x,PARENTNETPROFIT_x,REPORTDATE_x,REPORTTIMETYPE_x,KCFJCXSYJLR,Year,Month,managesituationChangeRate,managesituationGreatChange,historyprofitextroplaterate,ifhistoryprofitextroplate,IfprofitdisStableChangeRage,IfprofitdisStable,predicttype,predict,analyst_prediction,adj_prediction
0,600539,-132310488.78,-130165893.8,2013-12-31,年度报告,-133528752.32999995,2013,12,未知,未知,未知,未知,未知,未知,未知,未知,未知,未知
1,600539,-4040016.0000000005,-3273849.8000000007,2014-03-31,一季度报告,-3289536.08,2014,3,未知,未知,未知,未知,未知,未知,未知,未知,未知,未知
2,600539,-12850048.54,-10746493.84,2014-06-30,半年度报告,-10777866.4,2014,6,未知,未知,未知,未知,未知,未知,未知,未知,未知,未知
3,600539,-15704942.85,-12785274.420000002,2014-09-30,三季度报告,-12832333.259999998,2014,9,未知,未知,未知,未知,未知,未知,未知,未知,未知,未知
4,600539,-49711004.16,-41632930.84,2014-12-31,年度报告,-40489393.05,2014,12,-0.0,False,未知,未知,未知,未知,未知,未知,未知,未知
5,600539,-2242548.36,-1352872.36,2015-03-31,一季度报告,-1368558.64,2015,3,31.74999128221274,False,未知,未知,未知,未知,未知,未知,未知,未知
6,600539,477823.3,1183422.4,2015-06-30,半年度报告,1152049.84,2015,6,9.296497197511755,False,未知,未知,未知,未知,未知,未知,未知,未知
7,600539,17494009.200000007,19006089.990000006,2015-09-30,三季度报告,-34000579.5,2015,9,7.424767287835117,False,未知,未知,未知,未知,未知,未知,未知,未知
8,600539,2413146.42,13939469.71,2015-12-31,年度报告,-38740943.76,2015,12,1.6615935649608895,False,未知,未知,未知,未知,未知,未知,未知,未知
9,600539,-10249814.12,-5735853.790000001,2016-03-31,一季度报告,-5848658.76,2016,3,58.00006044016817,False,未知,未知,未知,未知,未知,未知,未知,未知
10,600539,-43748570.17,-26929067.89,2016-06-30,半年度报告,-27089604.42,2016,6,-277.90254698755797,False,未知,未知,未知,未知,未知,未知,未知,未知
11,600539,-54842632.54,-38352834.76,2016-09-30,三季度报告,-38430356.04,2016,9,-8.563188475972675,False,未知,未知,未知,未知,未知,未知,未知,未知
12,600539,-30777044.570000004,-10479547.62,2016-12-31,年度报告,-51061903.58999999,2016,12,-55.82903469239135,False,-1.026514961294109,True,0.0,True,盈利变化,9832483.100000003,未知,9832483.100000003
13,600539,1188713.0000000002,757426.6400000001,2017-03-31,一季度报告,744428.77,2017,3,11.908574461055691,False,-2.2629396318671375,True,0.041711049677558405,True,盈利变化,-1688764.2466666661,未知,-1688764.2466666661
14,600539,2648119.8000000003,1650077.35,2017-06-30,半年度报告,1197073.64,2017,6,2.0243385844580164,False,-6.0720617061769575,True,0.2853963917190382,False,盈利变化,8378237.753333336,未知,8378237.753333336
15,600539,5524943.67,3907607.12,2017-09-30,三季度报告,3453397.4,2017,9,1.4125480972033588,False,62.30866252109631,False,0.3321336022454389,False,盈利变化,8135453.9088888895,未知,8135453.9088888895
16,600539,-49082072.13,-50725755.48,2017-12-31,年度报告,-65307089.68,2017,12,3.298999160854124,False,-0.30141389232399546,True,0.0,True,前期平均,-50725755.48,未知,-50725755.48
17,600539,1770895.45,1665599.09,2018-03-31,一季度报告,1623966.41,2018,3,-112.30566316680307,False,-1.1903103599344165,True,0.06838470258283452,True,前期平均,-39627215.88499999,未知,-39627215.88499999
18,600539,4232058.25,3570812.66,2018-06-30,半年度报告,3528905.48,2018,6,-50.96393621617874,False,-1.1223976932016382,True,0.3697055725494738,False,前期平均,-28361833.724999994,未知,-28361833.724999994
19,600539,10782061.670000002,8815929.200000001,2018-09-30,三季度报告,8756263.940000001,2018,9,-24.94784393883241,False,-1.2958579554434524,True,0.5786736712328566,False,前期平均,129973.29500000738,未知,129973.29500000738
20,600539,14507187.95,10048422.19,2018-12-31,年度报告,10000714.64,2018,12,1.695698918936412,False,-2.460883399766403,True,0.0,True,盈利变化,-25623154.04,未知,-25623154.04
21,600539,2630914.71,2653060.08,2019-03-31,一季度报告,2664532.2700000005,2019,3,-75.71389052357665,False,-1.390878641910576,True,0.09990779480698318,True,前期平均,-52979321.559999995,未知,-52979321.559999995
22,600539,4437712.199999998,4415795.14,2019-06-30,半年度报告,4397397.5200000005,2019,6,-32.26386286861718,False,-1.2059373175671602,True,0.3066833111467393,False,前期平均,-40822436.105,未知,-40822436.105
23,600539,7098877.0699999975,6979888.1,2019-09-30,三季度报告,6961213.280000001,2019,9,-13.271353367245206,False,-1.4372492676378736,True,0.5779818047094472,False,前期平均,-33716129.214999996,未知,-33716129.214999996
24,600539,-19718985.31,-19820729.01,2019-12-31,年度报告,-19880065.68,2019,12,-10.120340153861452,False,-1.3633195194106122,True,0.0,True,盈利变化,88162.08333333209,未知,88162.08333333209
25,600539,3505452.510000001,3352969.9399999995,2020-03-31,一季度报告,2969439.8100000005,2020,3,-51.29067961690024,False,0.7778802530449592,True,0.1567331082744685,False,前期平均,-25484415.17,未知,-25484415.17
