,SECURITYCODE_x,NETPROFIT_x,PARENTNETPROFIT_x,REPORTDATE_x,REPORTTIMETYPE_x,KCFJCXSYJLR,Year,Month,managesituationChangeRate,managesituationGreatChange,historyprofitextroplaterate,ifhistoryprofitextroplate,IfprofitdisStableChangeRage,IfprofitdisStable,predicttype,predict,analyst_prediction,adj_prediction
0,600573,18451125.74,19075469.870000005,2013-12-31,年度报告,7465636.419999999,2013,12,未知,未知,未知,未知,未知,未知,未知,未知,未知,未知
1,600573,-15785673.790000005,-15271736.22,2014-03-31,一季度报告,-22943019.46,2014,3,未知,未知,未知,未知,未知,未知,未知,未知,未知,未知
2,600573,5444976.5600000005,6270186.130000001,2014-06-30,半年度报告,-3006837.76,2014,6,未知,未知,未知,未知,未知,未知,未知,未知,未知,未知
3,600573,40446799.94999999,41150070.27,2014-09-30,三季度报告,27667923.52,2014,9,未知,未知,未知,未知,未知,未知,未知,未知,未知,未知
4,600573,31159102.800000004,32451534.289999995,2014-12-31,年度报告,14986772.760000002,2014,12,0.0,True,未知,未知,未知,未知,未知,未知,未知,未知
5,600573,-14716750.27,-14136066.110000005,2015-03-31,一季度报告,-15981486.98,2015,3,-2.16885259289271,False,未知,未知,未知,未知,未知,未知,未知,未知
6,600573,9834330.009999998,10620456.769999998,2015-06-30,半年度报告,4737348.56,2015,6,2.3886510872325952,False,未知,未知,未知,未知,未知,未知,未知,未知
7,600573,37354679.78000001,37767252.2,2015-09-30,三季度报告,29297922.5,2015,9,-0.5438174153997564,True,未知,未知,未知,未知,未知,未知,未知,未知
8,600573,22455774.12,23015531.05,2015-12-31,年度报告,10885062.489999998,2015,12,-0.40784155890393625,True,未知,未知,未知,未知,未知,未知,未知,未知
9,600573,-18203510.26,-18082096.06,2016-03-31,一季度报告,-19659583.52,2016,3,-2.2537500060466815,False,未知,未知,未知,未知,未知,未知,未知,未知
10,600573,-16168457.42,-16355505.82,2016-06-30,半年度报告,-20468261.260000005,2016,6,0.8761955030223765,False,未知,未知,未知,未知,未知,未知,未知,未知
11,600573,1579029.6000000003,656839.73,2016-09-30,三季度报告,-4777804.32,2016,9,-0.506055844979325,True,未知,未知,未知,未知,未知,未知,未知,未知
12,600573,2435361.87,1679530.88,2016-12-31,年度报告,-10696043.66,2016,12,-0.1783349065857099,True,0.09471192611442067,True,0.0,True,比例外推,1679530.88,未知,1679530.88
13,600573,-13710347.93,-13446034.310000004,2017-03-31,一季度报告,-14463103.070000006,2017,3,-2.0136026225965935,False,-0.19357794149033283,True,2.2250452779193726,False,前期平均,18952136.534999996,未知,18952136.534999996
14,600573,1524591.4900000002,2007673.52,2017-06-30,半年度报告,-19372333.500000004,2017,6,-2.14118034025784,False,3.1163862830981865,False,1.1975585242768685,False,前期平均,14078335.745000001,未知,14078335.745000001
15,600573,7877748.590000003,8121699.82,2017-09-30,三季度报告,-24345672.430000003,2017,9,10.685104408429071,False,0.9594087514664291,True,1.2147832350611338,False,前期平均,-7425305.5649999995,未知,-7425305.5649999995
16,600573,23740033.8,24181702.89,2017-12-31,年度报告,-46292320.9,2017,12,6.576338435486796,False,0.9091535032847744,True,0.0,True,前期平均,24181702.89,未知,24181702.89
17,600573,-10064327.58,-9529473.68,2018-03-31,一季度报告,-11358246.64,2018,3,-2.34578099944689,False,-0.16705714297091565,True,1.6956202483421574,False,前期平均,8385570.984999999,未知,8385570.984999999
18,600573,2892346.8,3323118.5000000005,2018-06-30,半年度报告,-4254805.369999999,2018,6,11.102340765394143,False,-1.4813895873307037,True,0.9911881544144465,False,前期平均,11283084.265000002,未知,11283084.265000002
19,600573,24598943.9,24595874.82,2018-09-30,三季度报告,14286106.489999998,2018,9,1.3421826082926558,False,0.5953250427226566,True,1.4701807044520725,False,前期平均,12430325.145,未知,12430325.145
20,600573,18173200.43,18497328.66,2018-12-31,年度报告,-567001.3,2018,12,-0.22278435256482249,True,0.9075090674477488,True,0.0,True,比例外推,18497328.66,未知,18497328.66
21,600573,-6032236.060000001,-5654792.8199999975,2019-03-31,一季度报告,-7103600.8199999975,2019,3,-2.8333192747686775,False,-0.36928167568573134,True,12.637938822473284,False,前期平均,-17087631.804999996,未知,-17087631.804999996
22,600573,5972167.3900000015,6009458.9300000025,2019-06-30,半年度报告,1243183.18,2019,6,5.379292324143148,False,-1.3950250314808776,True,4.225329962863407,False,前期平均,-2564425.9699999923,未知,-2564425.9699999923
23,600573,27895681.83,27614025.25,2019-09-30,三季度报告,19912739.120000005,2019,9,-0.24992203669361596,True,4.202394178180463,False,17.121465032248196,False,未知,未知,未知,未知
24,600573,19528774.62,19818966.18,2019-12-31,年度报告,4746956.579999999,2019,12,0.015293140636979079,True,0.38857121085115565,True,0.0,True,比例外推,19818966.18,未知,19818966.18
25,600573,-7254068.05,-7077600.51,2020-03-31,一季度报告,-7381126.25,2020,3,-4.0587539274780955,False,-0.49254945183476856,True,13.749431350275351,False,前期平均,-17596586.754999995,未知,-17596586.754999995
