,SECURITYCODE_x,NETPROFIT_x,PARENTNETPROFIT_x,REPORTDATE_x,REPORTTIMETYPE_x,KCFJCXSYJLR,Year,Month,managesituationChangeRate,managesituationGreatChange,historyprofitextroplaterate,ifhistoryprofitextroplate,IfprofitdisStableChangeRage,IfprofitdisStable,predicttype,predict,analyst_prediction,adj_prediction
0,600530,87379487.67000002,82977234.38000001,2013-12-31,年度报告,18912873.15,2013,12,未知,未知,未知,未知,未知,未知,未知,未知,未知,未知
1,600530,15933236.239999995,11701340.579999998,2014-03-31,一季度报告,11671089.010000002,2014,3,未知,未知,未知,未知,未知,未知,未知,未知,未知,未知
2,600530,34281465.11,25140886.26,2014-06-30,半年度报告,24706855.72,2014,6,未知,未知,未知,未知,未知,未知,未知,未知,未知,未知
3,600530,45531244.6,34596372.89,2014-09-30,三季度报告,17707306.76,2014,9,未知,未知,未知,未知,未知,未知,未知,未知,未知,未知
4,600530,95413358.59999998,84871375.55999999,2014-12-31,年度报告,29625823.07,2014,12,0.0,True,未知,未知,未知,未知,未知,未知,未知,未知
5,600530,30924117.47000001,29786294.919999994,2015-03-31,一季度报告,10146462.450000003,2015,3,4.484101682408749,False,未知,未知,未知,未知,未知,未知,未知,未知
6,600530,68764003.06,68095113.61,2015-06-30,半年度报告,-22459246.94,2015,6,1.5488842845433457,False,未知,未知,未知,未知,未知,未知,92800000.0,未知
7,600530,80092549.19999999,78591454.6,2015-09-30,三季度报告,-29517308.239999995,2015,9,0.9191104578327299,False,未知,未知,未知,未知,未知,未知,92800000.0,未知
8,600530,94226827.57,99296736.05000004,2015-12-31,年度报告,-62397385.31,2015,12,-0.08420069315115761,True,未知,未知,未知,未知,未知,未知,,未知
9,600530,31341433.41,30822110.5,2016-03-31,一季度报告,8694826.520000001,2016,3,1.8256097447168307,False,未知,未知,未知,未知,未知,未知,,未知
10,600530,57755146.77,57299153.18000001,2016-06-30,半年度报告,20397294.95,2016,6,0.2707155456577634,True,未知,未知,未知,未知,未知,未知,未知,未知
11,600530,112972671.69,135703825.16999996,2016-09-30,三季度报告,-58807134.01000001,2016,9,0.09098147758793061,True,未知,未知,未知,未知,未知,未知,未知,未知
12,600530,114402703.2,137201053.17,2016-12-31,年度报告,-33670344.71000001,2016,12,-0.07266868764007967,True,0.03096843769060047,True,0.0,True,比例外推,137201053.17,142000000.0,137201053.17
13,600530,35930826.07000001,33687491.56999999,2017-03-31,一季度报告,7329051.6400000015,2017,3,1.7879863223524473,False,0.3377380892643668,True,0.40291469049064677,False,前期平均,6392934.719999991,未知,6392934.719999991
14,600530,61559728.44000001,59065224.32000001,2017-06-30,半年度报告,11822814.22,2017,6,0.5129298868891093,False,0.12096432372393194,True,0.8018301866244599,False,前期平均,41555638.81,未知,41555638.81
15,600530,97516057.43,94228644.89,2017-09-30,三季度报告,12919668.15,2017,9,-0.22654314213466029,True,0.7985871668524631,True,0.807453164368042,False,平均增速,118068359.3865795,未知,118068359.3865795
16,600530,163694874.45,160431480.08999997,2017-12-31,年度报告,20697908.23,2017,12,-0.23621133744329204,True,0.20652384402792667,True,0.0,True,比例外推,160431480.08999997,未知,160431480.08999997
17,600530,31744233.35000001,30967251.07,2018-03-31,一季度报告,16239478.900000002,2018,3,1.4318808451486291,False,0.15411573694246908,True,0.3763456120584596,False,前期平均,-26487258.425000012,未知,-26487258.425000012
18,600530,66118059.11000001,64381470.28,2018-06-30,半年度报告,18339757.870000005,2018,6,0.41942613920341715,True,0.02687097529953413,True,0.7142450686114743,False,平均增速,80306819.13554174,未知,80306819.13554174
19,600530,85034830.21,82923861.85,2018-09-30,三季度报告,37785063.03,2018,9,-0.10394769873952635,True,0.010187717709761292,True,0.7986187495980097,False,平均增速,102222340.39019433,未知,102222340.39019433
20,600530,-525529255.4599999,-506039123.5299999,2018-12-31,年度报告,-549201929.7900001,2018,12,-0.4662051089651572,True,0.5692397317469172,True,0.0,True,比例外推,-506039123.5299999,未知,-506039123.5299999
21,600530,77142408.20999996,76783603.67000002,2019-03-31,一季度报告,8426994.28,2019,3,1.752609795504795,False,0.05624595946751135,True,0.33199856295726515,False,前期平均,62285446.35000001,未知,62285446.35000001
22,600530,74122020.60000001,73703028.63999999,2019-06-30,半年度报告,2350049.390000001,2019,6,0.32156764500040097,True,0.10829532350646126,True,0.5938679557138835,False,平均增速,3431162470.196275,未知,3431162470.196275
23,600530,101410949.01,93005042.87000002,2019-09-30,三季度报告,19577551.13,2019,9,0.02757290693954128,True,0.1920248598059473,True,0.9792366008242247,False,平均增速,3451039434.317616,未知,3451039434.317616
24,600530,-70818393.04,-77794294.01,2019-12-31,年度报告,-52129169.7,2019,12,-1.166269502148869,False,4.779459425003733,False,0.0,True,去年同期,-77794294.01,未知,-77794294.01
25,600530,18454933.98,18103106.64,2020-03-31,一季度报告,-243467.98,2020,3,0.13270365415780502,True,1.2797884145544485,True,0.2998059167414883,False,平均增速,391838740.94475925,未知,391838740.94475925
