,SECURITYCODE_x,NETPROFIT_x,PARENTNETPROFIT_x,REPORTDATE_x,REPORTTIMETYPE_x,KCFJCXSYJLR,Year,Month,managesituationChangeRate,managesituationGreatChange,historyprofitextroplaterate,ifhistoryprofitextroplate,IfprofitdisStableChangeRage,IfprofitdisStable,predicttype,predict,analyst_prediction,adj_prediction
0,600533,211769130.38,172415062.58999997,2013-12-31,年度报告,173725903.06,2013,12,未知,未知,未知,未知,未知,未知,未知,未知,未知,未知
1,600533,16975124.990000002,15555369.66,2014-03-31,一季度报告,17431830.709999993,2014,3,未知,未知,未知,未知,未知,未知,未知,未知,未知,未知
2,600533,26860273.009999994,27701388.21,2014-06-30,半年度报告,29645179.71,2014,6,未知,未知,未知,未知,未知,未知,未知,未知,未知,未知
3,600533,76991405.97999999,77410953.17999999,2014-09-30,三季度报告,17604866.650000002,2014,9,未知,未知,未知,未知,未知,未知,未知,未知,未知,未知
4,600533,12397885.36,12914564.800000004,2014-12-31,年度报告,-47858081.43000002,2014,12,0.0,True,未知,未知,未知,未知,未知,未知,未知,未知
5,600533,5646540.33,6610578.910000003,2015-03-31,一季度报告,5342395.3500000015,2015,3,11.47526192029529,False,未知,未知,未知,未知,未知,未知,204000000.0,未知
6,600533,75003052.78,76604434.25999999,2015-06-30,半年度报告,77369010.07999998,2015,6,6.884101933780011,False,未知,未知,未知,未知,未知,未知,191315000.0,未知
7,600533,150850868.10999998,153786853.19000003,2015-09-30,三季度报告,154613526.12,2015,9,1.7505554377719914,False,未知,未知,未知,未知,未知,未知,262173332.99999997,未知
8,600533,176470566.78000003,185728083.75,2015-12-31,年度报告,152103290.20000002,2015,12,16.081068604105884,False,未知,未知,未知,未知,未知,未知,229000000.0,未知
9,600533,7153292.23,9652220.710000005,2016-03-31,一季度报告,7725856.670000003,2016,3,36.504227013995305,False,未知,未知,未知,未知,未知,未知,246746667.00000003,未知
10,600533,12633189.779999996,23708696.79,2016-06-30,半年度报告,-2868524.5500000007,2016,6,1.8234734791550973,False,未知,未知,未知,未知,未知,未知,234000000.0,未知
11,600533,36794642.51000001,46648948.71999999,2016-09-30,三季度报告,-26838075.29000001,2016,9,0.40383103546728416,True,未知,未知,未知,未知,未知,未知,165295000.0,未知
12,600533,179741166.32000002,195387402.83,2016-12-31,年度报告,141086965.03000003,2016,12,0.20002521805239912,True,0.5744561366216279,True,0.0,True,比例外推,195387402.83,275080000.0,275080000.0
13,600533,-16154412.72,-17075208.37,2017-03-31,一季度报告,-20312072.58,2017,3,28.604428782018317,False,0.3675715621452753,True,0.27278771209937763,False,盈利变化,158003497.16333336,274790000.0,274790000.0
14,600533,69517805.15,67738840.28999999,2017-06-30,半年度报告,-8345119.95,2017,6,15.762918476476814,False,0.7519580343166018,True,0.5757360398076419,False,前期平均,66354349.78,273210000.0,273210000.0
15,600533,77435573.63999999,75220984.96,2017-09-30,三季度报告,-21959763.89,2017,9,4.755433833130613,False,0.6770165443883713,True,0.8636954319683139,False,前期平均,41234392.959999986,273210000.0,273210000.0
16,600533,56770396.64000001,54169507.08,2017-12-31,年度报告,-26833653.910000004,2017,12,0.17818936371526248,True,0.9033476928880175,True,0.0,True,比例外推,54169507.08,,54169507.08
17,600533,-11945677.69,-12461702.250000002,2018-03-31,一季度报告,-14015314.969999995,2018,3,-14.109057819094769,False,3.524160006668087,False,0.4746807351973848,False,去年同期,-18983283.580000006,未知,-18983283.580000006
18,600533,68160833.04,67587613.07000001,2018-06-30,半年度报告,75207592.71,2018,6,2.046257428914238,False,0.5865081185425028,True,0.2867729148161752,False,前期平均,176932497.92000008,未知,176932497.92000008
19,600533,112381776.36,112125810.17,2018-09-30,三季度报告,141665709.34,2018,9,1.7347783508974859,False,0.17466105760649522,True,0.7384390938511796,False,前期平均,194833212.37000006,未知,194833212.37000006
20,600533,218786777.28,217618379.09,2018-12-31,年度报告,230283161.89,2018,12,2.7302739264426594,False,0.6812547630256596,True,0.0,True,前期平均,217618379.09,,217618379.09
21,600533,217144148.2200001,216362788.03,2019-03-31,一季度报告,-6986696.179999999,2019,3,-18.727678234385714,False,-1.6542645892300458,True,0.506675633009818,False,盈利变化,226989870.81,未知,226989870.81
22,600533,422811188.6899999,420686675.01,2019-06-30,半年度报告,247998777.98000008,2019,6,2.1069034947933196,False,0.6594037138096533,True,0.22608173805107137,False,前期平均,483420152.82,未知,483420152.82
23,600533,495863120.0799999,493798294.74,2019-09-30,三季度报告,276674684.35999995,2019,9,0.8843725134013356,False,0.9676365877208399,True,0.6046647601876209,False,前期平均,575323869.89,未知,575323869.89
24,600533,300727762.70000005,298100330.34000003,2019-12-31,年度报告,224685477.77,2019,12,-0.032075278895940446,True,0.8501148488626095,True,0.0,True,比例外推,298100330.34000003,未知,298100330.34000003
25,600533,144865443.16000003,144471220.04,2020-03-31,一季度报告,121976831.74000004,2020,3,-0.024753224455095063,True,-16.455049791777526,True,0.5352939617175779,False,平均增速,3067852918.2624173,未知,3067852918.2624173
