,SECURITYCODE_x,NETPROFIT_x,PARENTNETPROFIT_x,REPORTDATE_x,REPORTTIMETYPE_x,KCFJCXSYJLR,Year,Month,managesituationChangeRate,managesituationGreatChange,historyprofitextroplaterate,ifhistoryprofitextroplate,IfprofitdisStableChangeRage,IfprofitdisStable,predicttype,predict,analyst_prediction,adj_prediction
0,600568,59758044.27000001,60625445.16,2013-12-31,年度报告,64590198.39,2013,12,未知,未知,未知,未知,未知,未知,未知,未知,未知,未知
1,600568,19401858.96,19601236.15,2014-03-31,一季度报告,19584167.57,2014,3,未知,未知,未知,未知,未知,未知,未知,未知,未知,未知
2,600568,9932229.28,10775868.420000002,2014-06-30,半年度报告,10327633.46,2014,6,未知,未知,未知,未知,未知,未知,未知,未知,未知,未知
3,600568,3572216.73,3775194.22,2014-09-30,三季度报告,3837646.16,2014,9,未知,未知,未知,未知,未知,未知,未知,未知,未知,未知
4,600568,31638745.009999994,32406403.88,2014-12-31,年度报告,26597805.03,2014,12,0.0,True,未知,未知,未知,未知,未知,未知,未知,未知
5,600568,15363618.169999994,15859143.070000006,2015-03-31,一季度报告,14914559.220000004,2015,3,2.080016424879733,False,未知,未知,未知,未知,未知,未知,未知,未知
6,600568,57428329.06,58130235.61,2015-06-30,半年度报告,2567207.43,2015,6,5.016579217551048,False,未知,未知,未知,未知,未知,未知,未知,未知
7,600568,63779887.38,64867769.10000001,2015-09-30,三季度报告,9119599.77,2015,9,15.728560663227176,False,未知,未知,未知,未知,未知,未知,未知,未知
8,600568,71656551.91,73411041.63,2015-12-31,年度报告,15903657.920000002,2015,12,0.888761524868082,False,未知,未知,未知,未知,未知,未知,未知,未知
9,600568,29151520.78,30505982.899999995,2016-03-31,一季度报告,29930259.96,2016,3,2.889581452023292,False,未知,未知,未知,未知,未知,未知,未知,未知
10,600568,120177412.47,122688840.76999998,2016-06-30,半年度报告,120512842.94,2016,6,0.04056735148198317,True,未知,未知,未知,未知,未知,未知,未知,未知
11,600568,162952708.29999998,167719093.08999997,2016-09-30,三季度报告,145102752.95000002,2016,9,-0.06305817202275517,True,未知,未知,未知,未知,未知,未知,248500000.0,未知
12,600568,292703110.27,294174099.59000015,2016-12-31,年度报告,145443735.00000003,2016,12,-0.1660491235322683,True,0.5680321480544682,True,0.0,True,比例外推,294174099.59000015,285280000.0,294174099.59000015
13,600568,60959371.16000001,62930149.05999999,2017-03-31,一季度报告,60722789.22,2017,3,1.0499117257374182,False,0.67703844080681,True,0.4208476129693202,False,前期平均,66931517.139999986,,66931517.139999986
14,600568,168803838.86999995,173135252.59000003,2017-06-30,半年度报告,91821362.52000004,2017,6,-0.5027514485310002,True,2.5681833830239,False,0.36915445559355714,False,未知,未知,未知,未知
15,600568,244816304.2,251304664.88,2017-09-30,三季度报告,170295701.35,2017,9,-0.6332798338031672,True,3.838830514748709,False,0.427504916826225,False,未知,未知,未知,未知
16,600568,160297819.17,169343639.21,2017-12-31,年度报告,-34959356.550000004,2017,12,-0.7958407609168313,True,4.6673075928460195,False,0.0,True,比例外推,169343639.21,448260000.0,448260000.0
17,600568,63197240.86000001,63113056.71,2018-03-31,一季度报告,75851026.44999999,2018,3,-0.019707009228275646,True,1.7388152703946584,True,1.5391667965007128,False,平均增速,-209657831.06257227,未知,-209657831.06257227
18,600568,59968090.13000002,57331384.25999999,2018-06-30,半年度报告,101048213.69,2018,6,-0.6459912009701321,True,0.9008826788573916,True,2.0810149569097685,False,平均增速,-294672470.3262358,未知,-294672470.3262358
19,600568,30273544.08,25855560.32,2018-09-30,三季度报告,97414036.24,2018,9,-0.7559065991733078,True,1.159515736727352,True,3.771193237061885,False,平均增速,-489796192.9369527,未知,-489796192.9369527
20,600568,-1914924459.8400004,-1894614846.13,2018-12-31,年度报告,-1502404860.6,2018,12,-0.6272061305673469,True,0.12011215395841429,True,0.0,True,比例外推,-1894614846.13,未知,-1894614846.13
21,600568,-6378972.88,-11003639.94,2019-03-31,一季度报告,-11284231.489999998,2019,3,-0.054420043394280485,True,0.4026548733327297,True,1.2097357125900754,False,平均增速,16368790346.850464,未知,16368790346.850464
22,600568,21906979.500000004,11319073.8,2019-06-30,半年度报告,-35061272.7,2019,6,-0.0035026271396115046,True,0.584968991227429,True,2.0047882582739724,False,平均增速,16811527999.836054,未知,16811527999.836054
23,600568,-18696454.12,-28427601.73,2019-09-30,三季度报告,-79803746.69999999,2019,9,0.9739361903609672,False,0.8515162106389829,True,3.5584377200194934,False,盈利变化,-1973378305.2144446,未知,-1973378305.2144446
24,600568,-364334265.3,-369497677.89,2019-12-31,年度报告,-563262022.21,2019,12,-1.0312064760376987,False,9.454395279970976,False,0.0,True,去年同期,-369497677.89,未知,-369497677.89
25,600568,-23615659.340000004,-24766521.660000004,2020-03-31,一季度报告,-24369211.04000001,2020,3,-10.367972774638918,False,1.1027568774021062,True,1.147818340780017,False,前期平均,-861735538.0699999,未知,-861735538.0699999
