,SECURITYCODE_x,NETPROFIT_x,PARENTNETPROFIT_x,REPORTDATE_x,REPORTTIMETYPE_x,KCFJCXSYJLR,Year,Month,managesituationChangeRate,managesituationGreatChange,historyprofitextroplaterate,ifhistoryprofitextroplate,IfprofitdisStableChangeRage,IfprofitdisStable,predicttype,predict,analyst_prediction,adj_prediction
0,600523,143624426.52,131269176.01,2013-12-31,年度报告,108530156.95,2013,12,未知,未知,未知,未知,未知,未知,未知,未知,未知,未知
1,600523,11815550.89,9610452.57,2014-03-31,一季度报告,9576145.78,2014,3,未知,未知,未知,未知,未知,未知,未知,未知,未知,未知
2,600523,53640073.24,46775495.95,2014-06-30,半年度报告,46548277.05,2014,6,未知,未知,未知,未知,未知,未知,未知,未知,未知,未知
3,600523,81329794.46,73633286.24000001,2014-09-30,三季度报告,71158414.24,2014,9,未知,未知,未知,未知,未知,未知,未知,未知,未知,未知
4,600523,151415486.16,133153094.82999998,2014-12-31,年度报告,113189993.1,2014,12,0.0,True,未知,未知,未知,未知,未知,未知,未知,未知
5,600523,20050643.000000004,17797764.249999996,2015-03-31,一季度报告,17059329.93,2015,3,11.15554212047408,False,未知,未知,未知,未知,未知,未知,未知,未知
6,600523,82869272.55000001,76472848.88000001,2015-06-30,半年度报告,76003144.68999998,2015,6,1.6775583597245662,False,未知,未知,未知,未知,未知,未知,未知,未知
7,600523,103286287.07000002,96123005.73,2015-09-30,三季度报告,91176463.21,2015,9,0.7659509343852832,False,未知,未知,未知,未知,未知,未知,未知,未知
8,600523,176521250.71999997,165563997.1,2015-12-31,年度报告,156938619.79,2015,12,-0.05145484017247226,True,未知,未知,未知,未知,未知,未知,未知,未知
9,600523,21348185.62,17668757.13,2016-03-31,一季度报告,15402267.48,2016,3,6.163083324559715,False,未知,未知,未知,未知,未知,未知,未知,未知
10,600523,81907140.08000001,75163426.01,2016-06-30,半年度报告,74120937.56000002,2016,6,0.7331445311450364,False,未知,未知,未知,未知,未知,未知,未知,未知
11,600523,114140848.23,102816795.59,2016-09-30,三季度报告,104138380.3,2016,9,0.3905469021522837,True,未知,未知,未知,未知,未知,未知,未知,未知
12,600523,190843312.21,173239507.50000003,2016-12-31,年度报告,155593171.07000002,2016,12,-0.18636183499618003,True,0.196592346551124,True,0.0,True,比例外推,173239507.50000003,未知,173239507.50000003
13,600523,37113379.12000001,32943157.2,2017-03-31,一季度报告,33753322.370000005,2017,3,5.727711154312138,False,0.3398641641165259,True,0.012828825500066032,True,前期平均,154689725.79,未知,154689725.79
14,600523,103576881.11,98470762.2,2017-06-30,半年度报告,95695150.09999998,2017,6,0.7535031302487151,False,0.20002245422818682,True,0.046060638525965036,True,前期平均,172259357.77499998,未知,172259357.77499998
15,600523,120879169.53,114326466.51,2017-09-30,三季度报告,110591496.56,2017,9,0.2583087365058738,True,0.23652118801418898,True,0.04534158955706957,True,比例外推,180311111.9151141,未知,180311111.9151141
16,600523,210285639.39,194257074.0,2017-12-31,年度报告,156665938.54999995,2017,12,-0.24742227088388258,True,0.1639032212474213,True,0.0,True,比例外推,194257074.0,未知,194257074.0
17,600523,14199186.01,11449090.169999998,2018-03-31,一季度报告,10251508.44,2018,3,2.8698827734228685,False,0.7929675962894435,True,0.0744013968892184,True,前期平均,151484186.89499998,未知,151484186.89499998
18,600523,83220133.25,75058188.3,2018-06-30,半年度报告,73063620.74,2018,6,0.3866456006477835,True,0.25718092118655905,True,0.08699451566074046,True,比例外推,141474627.30613998,未知,141474627.30613998
19,600523,111623462.83,97428932.59000002,2018-09-30,三季度报告,84379282.27,2018,9,0.1881652320944764,True,0.11190509283226521,True,0.0710892484440393,True,比例外推,142454179.0478896,未知,142454179.0478896
20,600523,134196248.22000004,117542206.87000002,2018-12-31,年度报告,96254079.51,2018,12,-0.317003163237261,True,0.144833555598389,True,0.0,True,比例外推,117542206.87000002,未知,117542206.87000002
21,600523,7321718.880000001,5746033.11,2019-03-31,一季度报告,4458576.87,2019,3,9.114976056997229,False,0.5142385916918584,True,0.07513339196418406,True,前期平均,137297792.995,未知,137297792.995
22,600523,53641135.36999999,49650872.89,2019-06-30,半年度报告,42652589.40000001,2019,6,0.7258374976226082,False,0.10267059430684104,True,0.14364708927901582,False,前期平均,120872383.86999999,未知,120872383.86999999
23,600523,75245474.43,67871297.89999999,2019-09-30,三季度报告,57401890.78999999,2019,9,0.2866867133367539,True,0.050093997150585504,True,0.12601860125915176,False,平均增速,76723524.77543736,未知,76723524.77543736
24,600523,146190845.32999998,135103771.98000002,2019-12-31,年度报告,95635318.11,2019,12,0.07025664595737059,True,0.3309071923892514,True,0.0,True,比例外推,135103771.98000002,未知,135103771.98000002
25,600523,80419.03000000001,772198.82,2020-03-31,一季度报告,-2514023.4200000004,2020,3,18.61621702143254,False,0.714622768850067,True,0.0925900684008158,True,前期平均,105229792.44499996,未知,105229792.44499996
