,SECURITYCODE_x,NETPROFIT_x,PARENTNETPROFIT_x,REPORTDATE_x,REPORTTIMETYPE_x,KCFJCXSYJLR,Year,Month,managesituationChangeRate,managesituationGreatChange,historyprofitextroplaterate,ifhistoryprofitextroplate,IfprofitdisStableChangeRage,IfprofitdisStable,predicttype,predict,analyst_prediction,adj_prediction
0,600543,-82755523.16,-82755523.16,2013-12-31,年度报告,-90446463.56,2013,12,未知,未知,未知,未知,未知,未知,未知,未知,未知,未知
1,600543,16888106.0,16936251.400000002,2014-03-31,一季度报告,16856544.3,2014,3,未知,未知,未知,未知,未知,未知,未知,未知,未知,未知
2,600543,19777204.21,19772949.15,2014-06-30,半年度报告,19722861.51,2014,6,未知,未知,未知,未知,未知,未知,未知,未知,未知,未知
3,600543,24094976.0,24129920.94,2014-09-30,三季度报告,23957438.39,2014,9,未知,未知,未知,未知,未知,未知,未知,未知,未知,未知
4,600543,17018489.950000007,17103416.660000004,2014-12-31,年度报告,18748184.84,2014,12,-0.0,False,未知,未知,未知,未知,未知,未知,未知,未知
5,600543,14897631.34,14961814.6,2015-03-31,一季度报告,14774221.86,2015,3,-5.900225233072317,False,未知,未知,未知,未知,未知,未知,32112000.0,未知
6,600543,16560315.63,16634810.390000004,2015-06-30,半年度报告,16271255.29,2015,6,-5.184389374821548,False,未知,未知,未知,未知,未知,未知,,未知
7,600543,23465674.49,23715459.960000005,2015-09-30,三季度报告,23212031.33,2015,9,-4.434555118876234,False,未知,未知,未知,未知,未知,未知,未知,未知
8,600543,18262222.01,19234540.29,2015-12-31,年度报告,14290739.269999998,2015,12,-5.862683081938181,False,未知,未知,未知,未知,未知,未知,未知,未知
9,600543,16108631.430000005,16238945.99,2016-03-31,一季度报告,16113138.6,2016,3,-6.554945029267988,False,未知,未知,未知,未知,未知,未知,29000000.0,未知
10,600543,12365465.52,12559555.19,2016-06-30,半年度报告,11946231.329999998,2016,6,-5.9972189545761685,False,未知,未知,未知,未知,未知,未知,,未知
11,600543,21378168.74,21636746.66,2016-09-30,三季度报告,20495290.23,2016,9,-4.526662879230964,False,未知,未知,未知,未知,未知,未知,未知,未知
12,600543,18376943.969999995,20328588.140000004,2016-12-31,年度报告,20367866.03,2016,12,-5.531514462735413,False,-1.555614426701019,True,0.0,True,前期平均,20328588.140000004,未知,20328588.140000004
13,600543,12878756.21,13390524.31,2017-03-31,一季度报告,13070996.65,2017,3,-6.137340407818864,False,0.013576073928509054,True,0.1258183813722592,False,前期平均,14094603.285,未知,14094603.285
14,600543,12781361.85,14247241.86,2017-06-30,半年度报告,14006835.11,2017,6,-7.692471304549802,False,0.31941059409408507,True,0.33917607828142415,False,前期平均,12769645.514999997,未知,12769645.514999997
15,600543,20669363.72,24631366.63,2017-09-30,三季度报告,23960251.07,2017,9,-4.871029561346797,False,0.10101445124284293,True,0.321477273886845,False,前期平均,17566093.825,未知,17566093.825
16,600543,18390268.59,24091911.28,2017-12-31,年度报告,23581053.11,2017,12,-5.50322552515243,False,0.041755846131172614,True,0.0,True,前期平均,24091911.28,未知,24091911.28
17,600543,13331877.02,14229254.31,2018-03-31,一季度报告,14035664.289999995,2018,3,-7.425738775592523,False,0.1692803285882751,True,0.24075235965708697,False,前期平均,16114876.73,未知,16114876.73
18,600543,12539353.079999998,14469877.910000002,2018-06-30,半年度报告,14109645.55,2018,6,-7.474703097463749,False,0.1162650520157171,True,0.36555481599469575,False,前期平均,17690437.25,未知,17690437.25
19,600543,17947423.809999995,20461020.46,2018-09-30,三季度报告,19866662.71,2018,9,-5.003777004510519,False,0.07816269832232217,True,0.40873498534388597,False,前期平均,15936662.330000002,未知,15936662.330000002
20,600543,18870745.39,27246386.32,2018-12-31,年度报告,21656104.11,2018,12,-5.499962725122983,False,0.0038584721081580415,True,0.0,True,前期平均,27246386.32,未知,27246386.32
21,600543,10295266.910000002,12216859.230000002,2019-03-31,一季度报告,11992798.98,2019,3,-7.207342224643473,False,0.08016015892351755,True,0.12659837052752,False,前期平均,19599251.175000004,未知,19599251.175000004
22,600543,10684772.41,12759520.449999996,2019-06-30,半年度报告,12058177.07,2019,6,-7.599664482850658,False,0.002708938547105511,True,0.04085125607905238,True,前期平均,21757446.799999997,未知,21757446.799999997
23,600543,11449568.9,14704572.53,2019-09-30,三季度报告,13864483.93,2019,9,-5.610997323966354,False,0.14632689435112703,True,0.06253217663923327,True,前期平均,14451261.45,未知,14451261.45
24,600543,21540792.23,27427427.95,2019-12-31,年度报告,19071992.29,2019,12,-5.385387087245312,False,0.026498560868874484,True,0.0,True,前期平均,27427427.95,未知,27427427.95
25,600543,-7925163.179999999,-7241650.73,2020-03-31,一季度报告,-7502465.379999999,2020,3,-9.038210556699397,False,0.21442058880009732,True,0.0561105197899644,True,盈利变化,1433742.1366666667,未知,1433742.1366666667
