,SECURITYCODE_x,NETPROFIT_x,PARENTNETPROFIT_x,REPORTDATE_x,REPORTTIMETYPE_x,KCFJCXSYJLR,Year,Month,managesituationChangeRate,managesituationGreatChange,historyprofitextroplaterate,ifhistoryprofitextroplate,IfprofitdisStableChangeRage,IfprofitdisStable,predicttype,predict,analyst_prediction,adj_prediction
0,600565,339029826.14000005,291395170.55,2013-12-31,年度报告,31142672.899999995,2013,12,未知,未知,未知,未知,未知,未知,未知,未知,未知,未知
1,600565,46781711.67000001,46344998.0,2014-03-31,一季度报告,-6080654.7200000025,2014,3,未知,未知,未知,未知,未知,未知,未知,未知,未知,未知
2,600565,148218206.44,143487930.03,2014-06-30,半年度报告,134217964.56,2014,6,未知,未知,未知,未知,未知,未知,未知,未知,未知,未知
3,600565,167093747.68,156463293.48,2014-09-30,三季度报告,115915742.95,2014,9,未知,未知,未知,未知,未知,未知,未知,未知,未知,未知
4,600565,560636758.14,559975925.4200001,2014-12-31,年度报告,512751688.93000007,2014,12,0.0,True,未知,未知,未知,未知,未知,未知,未知,未知
5,600565,19844007.13,23192574.71,2015-03-31,一季度报告,22657080.039999995,2015,3,6.247059033058249,False,未知,未知,未知,未知,未知,未知,999805000.0,未知
6,600565,171699889.61000004,172326762.85,2015-06-30,半年度报告,171129008.79,2015,6,1.2873696442767457,False,未知,未知,未知,未知,未知,未知,1010870000.0,未知
7,600565,242298572.82,241000482.04999992,2015-09-30,三季度报告,239388549.2099999,2015,9,1.028979724539266,False,未知,未知,未知,未知,未知,未知,907168777.0,未知
8,600565,465926819.4200001,468504132.07,2015-12-31,年度报告,468254209.74,2015,12,-0.39527720717994935,True,未知,未知,未知,未知,未知,未知,936779185.0,未知
9,600565,73868713.24,76615963.26,2016-03-31,一季度报告,74943057.23,2016,3,16.08474623693607,False,未知,未知,未知,未知,未知,未知,806945000.0,未知
10,600565,125977829.76000002,126230184.99,2016-06-30,半年度报告,123097600.96000002,2016,6,0.9745488882379251,False,未知,未知,未知,未知,未知,未知,724590000.0,未知
11,600565,129699819.03000002,128859411.19000006,2016-09-30,三季度报告,120018834.6,2016,9,0.3992233721981527,True,未知,未知,未知,未知,未知,未知,748712627.0000001,未知
12,600565,557296366.4799999,562585055.8100001,2016-12-31,年度报告,549321962.7399999,2016,12,-0.2723539148013958,True,0.03577664784088804,True,0.0,True,比例外推,562585055.8100001,705140203.0,705140203.0
13,600565,71662952.83999997,76087436.27000003,2017-03-31,一季度报告,85409869.94000001,2017,3,3.589626802330909,False,1.2174233785527273,True,0.0787763903388844,True,前期平均,558302172.945,1103035000.0,1103035000.0
14,600565,92488785.45,101933480.0,2017-06-30,半年度报告,105285826.08,2017,6,1.6911864316593224,False,0.21243698736997413,True,0.0816910957046803,True,前期平均,439762942.6600001,936370000.0,936370000.0
15,600565,499771674.85,513534475.67,2017-09-30,三季度报告,472253744.81,2017,9,1.6139575881873918,False,0.36637883743596006,True,0.1926403830650737,False,前期平均,826385278.9250001,,826385278.9250001
16,600565,641624914.62,669417870.99,2017-12-31,年度报告,640498814.18,2017,12,-0.39165254515943976,True,0.08575129424446647,True,0.0,True,比例外推,669417870.99,1040920000.0,1040920000.0
17,600565,106745078.27999996,114812200.95999998,2018-03-31,一季度报告,75520162.16,2018,3,3.7308938957196363,False,0.5294178326497765,True,0.05766823966203784,True,前期平均,574800218.5649999,未知,574800218.5649999
18,600565,162650161.74,182980884.33,2018-06-30,半年度报告,146288011.70000002,2018,6,2.6656317248676773,False,0.3785978631807469,True,0.11415082092203221,False,前期平均,544655665.6949999,未知,544655665.6949999
19,600565,333701868.73999995,375850479.51000017,2018-09-30,三季度报告,340932509.41,2018,9,-0.3216305701163327,True,1.6869561041087602,True,0.27052909584703067,False,平均增速,534966631.86629504,未知,534966631.86629504
20,600565,1054060070.6900002,1016645336.5800004,2018-12-31,年度报告,729612521.3900001,2018,12,-0.47160744787974884,True,0.254125050060596,True,0.0,True,比例外推,1016645336.5800004,未知,1016645336.5800004
21,600565,116601268.71,140995506.23999998,2019-03-31,一季度报告,136046271.39000002,2019,3,2.17606986291865,False,0.46696703412055063,True,0.020920948844746504,True,前期平均,655729431.1149999,1426000000.0,1426000000.0
22,600565,437846964.75000006,393470381.08,2019-06-30,半年度报告,376707000.57999986,2019,6,1.084411245049648,False,0.4890161737861255,True,0.03194302256923484,True,前期平均,874189056.02,1347000000.0,1347000000.0
23,600565,599562384.9,569030252.0199999,2019-09-30,三季度报告,523403649.0500001,2019,9,0.015966219848026424,True,0.06026046289433904,True,0.26295978195812214,False,平均增速,1091371126.7894826,1464000000.0,1464000000.0
24,600565,2184867449.3099995,1432080709.57,2019-12-31,年度报告,1324462648.85,2019,12,-0.6783581547510219,True,0.758347419978915,True,0.0,True,比例外推,1432080709.57,,1432080709.57
25,600565,102245753.09,30590049.309999995,2020-03-31,一季度报告,47744692.60000001,2020,3,1.9075998047946119,False,0.30713026737649735,True,0.020157557920001692,True,前期平均,635180701.045,未知,635180701.045
