,SECURITYCODE_x,NETPROFIT_x,PARENTNETPROFIT_x,REPORTDATE_x,REPORTTIMETYPE_x,KCFJCXSYJLR,Year,Month,managesituationChangeRate,managesituationGreatChange,historyprofitextroplaterate,ifhistoryprofitextroplate,IfprofitdisStableChangeRage,IfprofitdisStable,predicttype,predict,analyst_prediction,adj_prediction
0,600562,92597712.39,94544635.75,2013-12-31,年度报告,40103154.28,2013,12,未知,未知,未知,未知,未知,未知,未知,未知,未知,未知
1,600562,16823977.9,16823977.9,2014-03-31,一季度报告,16658509.889999995,2014,3,未知,未知,未知,未知,未知,未知,未知,未知,未知,未知
2,600562,55668692.43000002,55668692.43000002,2014-06-30,半年度报告,52282471.10999999,2014,6,未知,未知,未知,未知,未知,未知,未知,未知,未知,未知
3,600562,89323306.26,89323306.26,2014-09-30,三季度报告,85235453.31000002,2014,9,未知,未知,未知,未知,未知,未知,未知,未知,未知,未知
4,600562,145874446.08,145874446.08,2014-12-31,年度报告,135504485.64000002,2014,12,0.0,True,未知,未知,未知,未知,未知,未知,未知,未知
5,600562,13814956.98,13814956.98,2015-03-31,一季度报告,13844024.8,2015,3,4.503913101906774,False,未知,未知,未知,未知,未知,未知,197333332.99999997,未知
6,600562,56737304.44999999,56737304.44999999,2015-06-30,半年度报告,54798373.97,2015,6,0.6633714274219026,False,未知,未知,未知,未知,未知,未知,175946619.0,未知
7,600562,106239375.01,106239375.01,2015-09-30,三季度报告,104121724.28,2015,9,0.036657914570122796,True,未知,未知,未知,未知,未知,未知,197774876.0,未知
8,600562,186785694.5,186785694.5,2015-12-31,年度报告,176958800.66000003,2015,12,-0.36522321161570787,True,未知,未知,未知,未知,未知,未知,194171429.0,未知
9,600562,23515267.17,23515267.17,2016-03-31,一季度报告,23382306.96,2016,3,5.702714494446438,False,未知,未知,未知,未知,未知,未知,237706000.0,未知
10,600562,83263462.88000001,83263462.88000001,2016-06-30,半年度报告,81323458.69999999,2016,6,0.6320428558886184,False,未知,未知,未知,未知,未知,未知,247367857.0,未知
11,600562,133197560.96,133197560.96,2016-09-30,三季度报告,130599490.49999996,2016,9,-0.12840495926031148,True,未知,未知,未知,未知,未知,未知,244216667.00000003,未知
12,600562,228378170.13,228378170.13,2016-12-31,年度报告,218488420.05,2016,12,-0.5042569366038896,True,0.5665199300277879,True,0.0,True,比例外推,228378170.13,252454444.0,228378170.13
13,600562,23548364.6,23548364.6,2017-03-31,一季度报告,20410633.24,2017,3,2.9377699483735014,False,0.5349924703387733,True,0.024496467444776585,True,前期平均,164528740.405,287546000.0,287546000.0
14,600562,78910229.80000001,78910229.80000001,2017-06-30,半年度报告,75835170.88999999,2017,6,0.11210498803601993,True,0.48147723771159,True,0.04623678845413792,True,比例外推,216152540.50721008,275152422.0,275152422.0
15,600562,129225123.49,129225123.49,2017-09-30,三季度报告,121125595.03,2017,9,-0.30480924933897524,True,0.362198146343711,True,0.023969973535313827,True,比例外推,208289540.27387673,278273069.0,278273069.0
16,600562,439067740.53,439067740.53,2017-12-31,年度报告,158813709.80999997,2017,12,-0.5945421914130826,True,0.373041986526055,True,0.0,True,比例外推,439067740.53,272323498.0,272323498.0
17,600562,439067740.53,439067740.53,2017-12-31,年度报告,158813709.80999997,2017,12,-0.5945421914130826,True,0.373041986526055,True,0.0,True,比例外推,439067740.53,272323498.0,272323498.0
18,600562,169359879.01,169359879.01,2017-12-31,年度报告,158813709.80999997,2017,12,-0.5945421914130826,True,0.373041986526055,True,0.0,True,比例外推,169359879.01,272323498.0,272323498.0
19,600562,169359879.01,169359879.01,2017-12-31,年度报告,158813709.80999997,2017,12,-0.5945421914130826,True,0.373041986526055,True,0.0,True,比例外推,169359879.01,272323498.0,272323498.0
20,600562,17526045.37,17526045.37,2018-03-31,一季度报告,15989924.320000002,2018,3,2.932235378672538,False,0.26162460237999924,True,0.0263572600465371,True,前期平均,196636489.845,226802031.0,226802031.0
21,600562,23710396.05,23710396.05,2018-06-30,半年度报告,20696993.56,2018,6,0.17345637726174745,True,0.12728281858624899,True,0.09104785869649207,True,比例外推,56568405.94482455,174643282.0,174643282.0
22,600562,30170791.48,30170791.48,2018-09-30,三季度报告,26068951.13000001,2018,9,-0.28343877808586027,True,0.0794084293343206,True,0.11308109208580686,False,平均增速,52708330.57271862,168893815.0,168893815.0
23,600562,258054017.25,258054017.25,2018-12-31,年度报告,28338542.410000004,2018,12,-0.7891038128234495,True,1.1151539328756537,True,0.0,True,比例外推,258054017.25,167232828.0,167232828.0
24,600562,258054017.25,258054017.25,2018-12-31,年度报告,28338542.410000004,2018,12,-0.7891038128234495,True,1.1151539328756537,True,0.0,True,比例外推,258054017.25,167232828.0,167232828.0
25,600562,258054017.25,258054017.25,2018-12-31,年度报告,28338542.410000004,2018,12,-0.7891038128234495,True,1.1151539328756537,True,0.0,True,比例外推,258054017.25,167232828.0,167232828.0
26,600562,37803794.28,37803794.28,2018-12-31,年度报告,28338542.410000004,2018,12,-0.7891038128234495,True,1.1151539328756537,True,0.0,True,比例外推,37803794.28,167232828.0,167232828.0
27,600562,37803794.28,37803794.28,2018-12-31,年度报告,28338542.410000004,2018,12,-0.7891038128234495,True,1.1151539328756537,True,0.0,True,比例外推,37803794.28,167232828.0,167232828.0
28,600562,37803794.28,37803794.28,2018-12-31,年度报告,28338542.410000004,2018,12,-0.7891038128234495,True,1.1151539328756537,True,0.0,True,比例外推,37803794.28,167232828.0,167232828.0
29,600562,22027328.54,22027328.54,2018-12-31,年度报告,28338542.410000004,2018,12,-0.7891038128234495,True,1.1151539328756537,True,0.0,True,比例外推,22027328.54,167232828.0,167232828.0
30,600562,22027328.54,22027328.54,2018-12-31,年度报告,28338542.410000004,2018,12,-0.7891038128234495,True,1.1151539328756537,True,0.0,True,比例外推,22027328.54,167232828.0,167232828.0
31,600562,22027328.54,22027328.54,2018-12-31,年度报告,28338542.410000004,2018,12,-0.7891038128234495,True,1.1151539328756537,True,0.0,True,比例外推,22027328.54,167232828.0,167232828.0
32,600562,17254112.209999993,17254112.209999993,2019-03-31,一季度报告,14225152.82,2019,3,4.2834344790926435,False,0.25521916984010945,True,0.29765173612815415,False,前期平均,184008707.04000002,170188817.00000003,184008707.04000002
33,600562,19838602.9,19838602.9,2019-06-30,半年度报告,16240622.56,2019,6,2.905363377091291,False,0.7075925736391144,True,0.20365866851562442,False,前期平均,129910353.03500003,107945000.0,107945000.0
34,600562,25625565.12,25625565.12,2019-09-30,三季度报告,21798986.610000007,2019,9,2.0691177741022257,False,0.7700595774086099,True,0.16237308600304534,False,前期平均,88414087.28500001,100500000.0,100500000.0
35,600562,41601270.37000001,41601270.37000001,2019-12-31,年度报告,30128420.28,2019,12,-0.6411692661219364,True,0.22674178348077734,True,0.0,True,比例外推,41601270.37000001,99000000.0,99000000.0
36,600562,-2940961.04,-2940961.04,2020-03-31,一季度报告,-3497638.4000000013,2020,3,4.366703963843065,False,0.1598607394432649,True,0.25978616312753505,False,盈利变化,17970882.076666676,121695000.0,121695000.0
