,SECURITYCODE_x,NETPROFIT_x,PARENTNETPROFIT_x,REPORTDATE_x,REPORTTIMETYPE_x,KCFJCXSYJLR,Year,Month,managesituationChangeRate,managesituationGreatChange,historyprofitextroplaterate,ifhistoryprofitextroplate,IfprofitdisStableChangeRage,IfprofitdisStable,predicttype,predict,analyst_prediction,adj_prediction
0,600527,239736938.89,238993544.64,2013-12-31,年度报告,233196505.6600001,2013,12,未知,未知,未知,未知,未知,未知,未知,未知,未知,未知
1,600527,48616356.69,48426114.23000002,2014-03-31,一季度报告,47360610.23000001,2014,3,未知,未知,未知,未知,未知,未知,未知,未知,未知,未知
2,600527,78778764.59,78344733.16,2014-06-30,半年度报告,76971230.95,2014,6,未知,未知,未知,未知,未知,未知,未知,未知,未知,未知
3,600527,92639469.57,92044050.64,2014-09-30,三季度报告,90109548.43,2014,9,未知,未知,未知,未知,未知,未知,未知,未知,未知,未知
4,600527,30925088.95,30168751.95000001,2014-12-31,年度报告,27496765.680000003,2014,12,0.0,True,未知,未知,未知,未知,未知,未知,未知,未知
5,600527,3949687.1199999987,3903381.0000000005,2015-03-31,一季度报告,3812296.44,2015,3,3.931199193281219,False,未知,未知,未知,未知,未知,未知,164000000.0,未知
6,600527,7645916.42,7509851.02,2015-06-30,半年度报告,6789861.260000003,2015,6,2.043167027785958,False,未知,未知,未知,未知,未知,未知,80000000.0,未知
7,600527,8460593.219999997,8283964.56,2015-09-30,三季度报告,6498215.69,2015,9,1.587848786297838,False,未知,未知,未知,未知,未知,未知,,未知
8,600527,-18458061.37,-18697148.08,2015-12-31,年度报告,-19888896.2,2015,12,6.752182678523872,False,未知,未知,未知,未知,未知,未知,,未知
9,600527,2273396.9200000004,2235859.5,2016-03-31,一季度报告,1238586.99,2016,3,59.69770379431981,False,未知,未知,未知,未知,未知,未知,105000000.0,未知
10,600527,7135424.02,7079857.3500000015,2016-06-30,半年度报告,4946498.409999998,2016,6,30.35489923260239,False,未知,未知,未知,未知,未知,未知,74497000.0,未知
11,600527,11378541.159999998,11322974.49,2016-09-30,三季度报告,8072890.16,2016,9,27.33571271613506,False,未知,未知,未知,未知,未知,未知,35500000.0,未知
12,600527,27504645.47000001,27449078.81,2016-12-31,年度报告,26223406.35,2016,12,-13.988197085510068,False,1.136391953591003,True,0.0,True,前期平均,27449078.81,未知,27449078.81
13,600527,15043729.909999995,15043729.909999995,2017-03-31,一季度报告,14820911.37,2017,3,104.4531818799156,False,0.9135032140437581,True,1.196420229638398,False,前期平均,-6738788.685000012,未知,-6738788.685000012
14,600527,23283951.270000003,23283951.270000003,2017-06-30,半年度报告,22799375.2,2017,6,32.59813491364175,False,0.8348753171753245,True,1.9171088585179663,False,前期平均,-14792660.094999999,,-14792660.094999999
15,600527,34668392.83000001,34668392.83000001,2017-09-30,三季度报告,34054434.349999994,2017,9,20.06921577370293,False,0.7749053591858803,True,2.191022602745363,False,前期平均,-9831554.489999987,未知,-9831554.489999987
16,600527,70055663.26000002,70055663.26000002,2017-12-31,年度报告,63833301.67,2017,12,7.71623446851867,False,3.412382228803895,False,0.0,True,去年同期,70055663.26000002,,70055663.26000002
17,600527,15506498.959999995,15506498.959999995,2018-03-31,一季度报告,15217898.24,2018,3,14.936003924840477,False,3.834814960975522,False,0.22092429623253138,False,去年同期,64518889.26,未知,64518889.26
18,600527,29974326.26,29974326.26,2018-06-30,半年度报告,29530843.12999999,2018,6,9.29623091502029,False,2.1504519315434973,False,0.4095262575512803,False,去年同期,71008252.73,未知,71008252.73
19,600527,53128252.95000001,53128252.95000001,2018-09-30,三季度报告,52188552.48,2018,9,5.915144294850195,False,2.4949501491304504,False,0.4982640893978821,False,去年同期,82907120.27000001,未知,82907120.27000001
20,600527,88417327.30000001,88417327.30000001,2018-12-31,年度报告,86130359.31,2018,12,2.4220922011723154,False,14.487760349235012,False,0.0,True,去年同期,88417327.30000001,未知,88417327.30000001
21,600527,9137493.2,9137493.2,2019-03-31,一季度报告,8606399.15,2019,3,14.460416919926072,False,0.7908858798835742,True,0.1048005821940511,False,前期平均,46136098.03,未知,46136098.03
22,600527,26080571.44,26080571.44,2019-06-30,半年度报告,24997010.51,2019,6,6.998075980440736,False,0.9707391078378717,True,0.10759148790498857,False,前期平均,57235988.644999996,未知,57235988.644999996
23,600527,49521818.48999999,49521818.48999999,2019-09-30,三季度报告,48373127.4,2019,9,3.5124190158411737,False,1.3075696184913352,True,0.17457138642460202,False,前期平均,73486510.24499999,未知,73486510.24499999
24,600527,82303062.35,82303062.35,2019-12-31,年度报告,78228030.33000001,2019,12,1.711424855408403,False,0.8125675994875459,True,0.0,True,前期平均,82303062.35,未知,82303062.35
25,600527,7930356.1000000015,7930356.1000000015,2020-03-31,一季度报告,9224679.56,2020,3,25.236620224242685,False,0.4018052539715718,True,0.06294411319758474,True,前期平均,67892781.785,未知,67892781.785
