,SECURITYCODE_x,NETPROFIT_x,PARENTNETPROFIT_x,REPORTDATE_x,REPORTTIMETYPE_x,KCFJCXSYJLR,Year,Month,managesituationChangeRate,managesituationGreatChange,historyprofitextroplaterate,ifhistoryprofitextroplate,IfprofitdisStableChangeRage,IfprofitdisStable,predicttype,predict,analyst_prediction,adj_prediction
0,600563,300761394.83000004,286218371.03000003,2013-12-31,年度报告,273417655.56999993,2013,12,未知,未知,未知,未知,未知,未知,未知,未知,未知,未知
1,600563,74856052.77,71094445.99000001,2014-03-31,一季度报告,70987373.17999999,2014,3,未知,未知,未知,未知,未知,未知,未知,未知,未知,未知
2,600563,161137838.29000002,154111343.91,2014-06-30,半年度报告,153355992.04999998,2014,6,未知,未知,未知,未知,未知,未知,未知,未知,未知,未知
3,600563,238954686.48,227524281.25,2014-09-30,三季度报告,224970997.59,2014,9,未知,未知,未知,未知,未知,未知,未知,未知,未知,未知
4,600563,323130716.46000004,306198846.25,2014-12-31,年度报告,298043292.52000004,2014,12,0.0,True,未知,未知,未知,未知,未知,未知,未知,未知
5,600563,69900652.01999998,66359435.91,2015-03-31,一季度报告,60332222.39000002,2015,3,3.0178634018294908,False,未知,未知,未知,未知,未知,未知,345020000.0,未知
6,600563,160261878.85,152883814.01,2015-06-30,半年度报告,149497460.31,2015,6,0.8664852279370863,False,未知,未知,未知,未知,未知,未知,327866667.0,未知
7,600563,250089251.4099999,237880044.42,2015-09-30,三季度报告,231928855.6600001,2015,9,0.25865451421130903,True,未知,未知,未知,未知,未知,未知,325840000.0,未知
8,600563,342312231.00000006,327965429.73,2015-12-31,年度报告,310206214.67000014,2015,12,-0.0692268499728625,True,未知,未知,未知,未知,未知,未知,324706667.0,未知
9,600563,86886403.34000002,84892252.75,2016-03-31,一季度报告,82523523.09999998,2016,3,3.3026979883384517,False,未知,未知,未知,未知,未知,未知,386741667.0,未知
10,600563,183083320.64,178204744.85000002,2016-06-30,半年度报告,172274738.84,2016,6,0.8766870636248008,False,未知,未知,未知,未知,未知,未知,378220000.0,未知
11,600563,280933734.04999995,273895471.84,2016-09-30,三季度报告,267884914.53,2016,9,0.20261623854008623,True,未知,未知,未知,未知,未知,未知,372600000.0,未知
12,600563,402156700.98,389554487.62,2016-12-31,年度报告,377927209.62,2016,12,-0.1213828557881708,True,0.09734431580554187,True,0.0,True,比例外推,389554487.62,355683333.0,389554487.62
13,600563,85791097.0,82505581.99,2017-03-31,一季度报告,82059050.95,2017,3,2.4615472993291467,False,0.20044737777151,True,0.0225183055084672,True,前期平均,320970537.8000001,446000000.0,446000000.0
14,600563,197076864.06,189552624.98,2017-06-30,半年度报告,182764692.12000003,2017,6,0.6427569359056611,False,0.1392873787766893,True,0.03043833260423684,True,前期平均,342250652.3950001,458000000.0,458000000.0
15,600563,306588790.14000005,296590128.98,2017-09-30,三季度报告,282642224.56,2017,9,0.070577714161131,True,0.14890999472194696,True,0.028277776624551443,True,比例外推,397397219.3677494,439411429.0,397397219.3677494
16,600563,436998308.13999987,423580819.04999983,2017-12-31,年度报告,393727671.01,2017,12,-0.2521288490354971,True,0.20868874639076032,True,0.0,True,比例外推,423580819.04999983,443750000.0,423580819.04999983
17,600563,97781701.96999995,96553235.58,2018-03-31,一季度报告,89503737.49,2018,3,2.5057413338589205,False,0.09436454180498989,True,0.01259753816533718,True,前期平均,369192074.9800001,496666667.0,496666667.0
18,600563,220008948.94,215213897.43,2018-06-30,半年度报告,209132955.17,2018,6,0.5261121403800768,False,0.1479808912589145,True,0.01460896617372448,True,前期平均,398394510.0000001,494500000.0,494500000.0
19,600563,332519372.82,324891423.59000015,2018-09-30,三季度报告,325609968.29,2018,9,-0.019007202798703087,True,0.15471005412097863,True,0.02287717309868631,True,比例外推,448533071.64771026,457250000.0,448533071.64771026
20,600563,460071139.2000001,451856142.6400001,2018-12-31,年度报告,440255838.2,2018,12,-0.3117561573404399,True,0.1739866886795478,True,0.0,True,比例外推,451856142.6400001,534000000.0,534000000.0
21,600563,100989785.43000002,98797767.28,2019-03-31,一季度报告,88550595.76000002,2019,3,2.0758453654475715,False,0.13253552752928316,True,0.008333786679102256,True,前期平均,402333920.57000005,511910000.0,511910000.0
22,600563,215454208.0,209477697.18000004,2019-06-30,半年度报告,195462870.43,2019,6,0.36704164207439827,True,0.15745392492177,True,0.010006751721960638,True,比例外推,434347716.4501188,477000000.0,434347716.4501188
23,600563,313771404.51000005,304349622.12,2019-09-30,三季度报告,287118599.54000014,2019,9,-0.09550715111925595,True,0.13193744623981737,True,0.017498753014716817,True,比例外推,414850519.39089394,449000000.0,414850519.39089394
24,600563,466478064.1599999,455945946.88,2019-12-31,年度报告,417582421.69000006,2019,12,-0.34627198012685084,True,0.0965104997286849,True,0.0,True,比例外推,455945946.88,491170000.0,455945946.88
25,600563,95463185.12999997,92896894.00000004,2020-03-31,一季度报告,85431550.67999999,2020,3,1.9781367843232973,False,0.1002696041748983,True,0.00462412548901861,True,前期平均,424107254.38500005,479000000.0,479000000.0
