,SECURITYCODE_x,NETPROFIT_x,PARENTNETPROFIT_x,REPORTDATE_x,REPORTTIMETYPE_x,KCFJCXSYJLR,Year,Month,managesituationChangeRate,managesituationGreatChange,historyprofitextroplaterate,ifhistoryprofitextroplate,IfprofitdisStableChangeRage,IfprofitdisStable,predicttype,predict,analyst_prediction,adj_prediction
0,600526,40117686.24,40098967.54,2013-12-31,年度报告,31580655.96999999,2013,12,未知,未知,未知,未知,未知,未知,未知,未知,未知,未知
1,600526,15194066.920000002,15249749.019999998,2014-03-31,一季度报告,13362154.550000004,2014,3,未知,未知,未知,未知,未知,未知,未知,未知,未知,未知
2,600526,31007583.890000004,30741289.9,2014-06-30,半年度报告,24629691.14,2014,6,未知,未知,未知,未知,未知,未知,未知,未知,未知,未知
3,600526,47789136.57000001,46826168.43,2014-09-30,三季度报告,30841656.54000001,2014,9,未知,未知,未知,未知,未知,未知,未知,未知,未知,未知
4,600526,57352270.24,55777224.49,2014-12-31,年度报告,40112891.19,2014,12,0.0,True,未知,未知,未知,未知,未知,未知,未知,未知
5,600526,21514932.8,21462138.25,2015-03-31,一季度报告,20060252.270000003,2015,3,1.6403520829036864,False,未知,未知,未知,未知,未知,未知,,未知
6,600526,47855196.67000002,45200819.41,2015-06-30,半年度报告,40156102.51000001,2015,6,0.29380239306352474,True,未知,未知,未知,未知,未知,未知,未知,未知
7,600526,68092713.24,63941341.55,2015-09-30,三季度报告,55812552.69,2015,9,-0.16052707541102168,True,未知,未知,未知,未知,未知,未知,未知,未知
8,600526,68092713.24,63941341.55,2015-09-30,三季度报告,55902838.67,2015,9,-0.16052707541102168,True,未知,未知,未知,未知,未知,未知,未知,未知
9,600526,88877460.61999999,83962231.7,2015-12-31,年度报告,71781684.58999999,2015,12,-0.30050395438365474,True,未知,未知,未知,未知,未知,未知,163700000.0,未知
10,600526,20435389.92,19642632.72,2016-03-31,一季度报告,15998436.500000002,2016,3,0.8646438086945826,False,未知,未知,未知,未知,未知,未知,未知,未知
11,600526,26358114.520000003,24007407.25,2016-06-30,半年度报告,31627220.840000004,2016,6,-0.16168589763315275,True,未知,未知,未知,未知,未知,未知,未知,未知
12,600526,55499128.47999999,52312461.92999999,2016-09-30,三季度报告,52004246.52,2016,9,-0.4108373079715452,True,未知,未知,0.0,True,未知,未知,未知,未知
13,600526,49268969.06,44431590.84,2016-12-31,年度报告,67643505.11000001,2016,12,-0.5486179965072904,True,0.8236893465369891,True,0.050084802725834154,True,比例外推,44431590.84,未知,44431590.84
14,600526,17308651.990000002,16086619.789999995,2017-03-31,一季度报告,11450392.079999998,2017,3,0.9631475786393998,False,0.11337220168743962,True,0.07943816129407705,True,前期平均,55322704.26999998,未知,55322704.26999998
15,600526,36249811.98,35827457.95,2017-06-30,半年度报告,30921897.97,2017,6,0.5220241269366788,False,0.3315448851072061,True,0.005797876176224848,True,前期平均,59381849.01499999,未知,59381849.01499999
16,600526,52593739.60999999,42354789.7,2017-09-30,三季度报告,30271306.04000001,2017,9,-0.27714745548739456,True,0.04214286238964227,True,0.0,True,比例外推,51308531.953093335,未知,51308531.953093335
17,600526,-198297424.52000004,-166739576.65999997,2017-12-31,年度报告,-188183540.85,2017,12,-0.18574130927837199,True,0.3261429290713801,True,0.21255563778660097,False,平均增速,-166739576.65999997,未知,-166739576.65999997
18,600526,5677827.52,6638215.89,2018-03-31,一季度报告,105540.36999999998,2018,3,1.317782243422412,False,0.17480243927906533,True,0.4518709361842369,False,前期平均,58321466.355000004,未知,58321466.355000004
19,600526,8924528.27,12442312.49,2018-06-30,半年度报告,3407005.0,2018,6,0.10670053301611651,True,0.02309137272709302,True,0.6226839458844599,False,平均增速,101140431.23656052,未知,101140431.23656052
20,600526,13518278.14,14760830.48,2018-09-30,三季度报告,-1020639.24,2018,9,-0.23721555954214438,True,0.14891243826348574,True,0.0,True,比例外推,13571449.120216345,未知,13571449.120216345
21,600526,-427060997.22,-421673080.29000014,2018-12-31,年度报告,-482661107.5,2018,12,-1.2023106771916434,False,3.8708295245752318,False,0.1780292343429938,False,去年同期,-421673080.29000014,未知,-421673080.29000014
22,600526,19428947.38,20473398.94,2019-03-31,一季度报告,-33481392.71,2019,3,6.06567540114357,False,0.6991404612394889,True,0.36883044594352443,False,前期平均,-53521033.22,未知,-53521033.22
23,600526,22833840.21,24501675.87,2019-06-30,半年度报告,-29198394.53,2019,6,3.4952164446446425,False,0.7149074001037233,True,0.565447853428975,False,前期平均,-67042901.40499999,未知,-67042901.40499999
24,600526,38129262.34,37521014.65,2019-09-30,三季度报告,-34350982.2,2019,9,1.9676624363345139,False,0.7498765944716269,True,0.0,True,前期平均,-63886779.50000001,未知,-63886779.50000001
25,600526,90515569.98,90649098.38,2019-12-31,年度报告,16037615.26,2019,12,-1.093939007544942,False,-4.731267842799663,True,1.3714308048417636,False,盈利变化,-255440172.70333347,未知,-255440172.70333347
26,600526,8963864.2,8274270.650000002,2020-03-31,一季度报告,-15647720.619999995,2020,3,1.0648409538283492,False,0.6904674220815468,True,未知,未知,前期平均,-332926019.75000006,未知,-332926019.75000006
