,SECURITYCODE_x,NETPROFIT_x,PARENTNETPROFIT_x,REPORTDATE_x,REPORTTIMETYPE_x,KCFJCXSYJLR,Year,Month,managesituationChangeRate,managesituationGreatChange,historyprofitextroplaterate,ifhistoryprofitextroplate,IfprofitdisStableChangeRage,IfprofitdisStable,predicttype,predict,analyst_prediction,adj_prediction
0,600503,469720.56,469720.56,2014-03-31,一季度报告,469722.54,2014,3,未知,未知,未知,未知,未知,未知,未知,未知,未知,未知
1,600503,6169988.6499999985,6169988.6499999985,2014-06-30,半年度报告,6143499.81,2014,6,未知,未知,未知,未知,未知,未知,未知,未知,未知,未知
2,600503,1822164.56,1822164.56,2014-09-30,三季度报告,2294711.69,2014,9,未知,未知,未知,未知,未知,未知,未知,未知,未知,未知
3,600503,19815377.59,19815377.59,2014-12-31,年度报告,9557473.39,2014,12,未知,未知,未知,未知,未知,未知,未知,未知,未知,未知
4,600503,2450526.75,2800216.88,2015-03-31,一季度报告,-2415271.18,2015,3,0.0,True,未知,未知,未知,未知,未知,未知,46000000.0,未知
5,600503,11338538.489999998,11930402.95,2015-06-30,半年度报告,3552854.6499999994,2015,6,-0.9238701095503636,True,未知,未知,未知,未知,未知,未知,,未知
6,600503,14976464.399999995,16527526.090000002,2015-09-30,三季度报告,8628045.23,2015,9,-0.7422183647343026,True,未知,未知,未知,未知,未知,未知,未知,未知
7,600503,18051782.81,21256240.07,2015-12-31,年度报告,11393036.43,2015,12,-0.976295149670171,True,未知,未知,未知,未知,未知,未知,未知,未知
8,600503,7506616.71,10132998.29,2016-03-31,一季度报告,11454189.13,2016,3,-0.8083185339641773,True,未知,未知,未知,未知,未知,未知,未知,未知
9,600503,78931007.92,83858956.9,2016-06-30,半年度报告,85862056.32000001,2016,6,-0.9585730947234276,True,未知,未知,未知,未知,未知,未知,未知,未知
10,600503,111661699.76,119950882.14000002,2016-09-30,三季度报告,124461170.25,2016,9,-0.9686360847624356,True,未知,未知,未知,未知,未知,未知,未知,未知
11,600503,84052625.04,105479385.85999995,2016-12-31,年度报告,127506321.68,2016,12,-0.9739792703610531,True,未知,未知,未知,未知,未知,未知,未知,未知
12,600503,83527066.11,86683548.3,2017-03-31,一季度报告,88909720.57000001,2017,3,-0.9374257967142164,True,4.141082869450533,False,0.1876567485665751,False,未知,未知,未知,未知
13,600503,55119067.56999999,63245959.73,2017-06-30,半年度报告,65195054.04999998,2017,6,-0.9940489729907405,True,8.016293293988637,False,0.23083369496174522,False,未知,未知,未知,未知
14,600503,99247671.79000004,112443258.74000002,2017-09-30,三季度报告,138141610.8,2017,9,-0.995793360113543,True,12.294144424034,False,0.41774473112344523,False,未知,未知,未知,未知
15,600503,204598944.11,225338117.94,2017-12-31,年度报告,230300202.7,2017,12,-0.9944115896466473,True,3.439341326475592,False,0.0,True,比例外推,225338117.94,未知,225338117.94
16,600503,4992287.76,9619269.58,2018-03-31,一季度报告,7598285.3900000015,2018,3,-0.994376426925119,True,15.777314989092261,False,0.29996106843048004,False,未知,未知,未知,未知
17,600503,1356048.61,11393697.61,2018-06-30,半年度报告,7939331.480000001,2018,6,-0.9914780749982124,True,0.22121069091566725,True,0.25061911421606037,False,平均增速,557947220.2679554,未知,557947220.2679554
18,600503,21455999.44,36038687.91,2018-09-30,三季度报告,31120738.74,2018,9,-0.9952671881211088,True,0.5674212027364254,True,0.19836461341951528,False,平均增速,345883954.4432502,未知,345883954.4432502
19,600503,-2724155.5,19825488.760000005,2018-12-31,年度报告,10026624.15,2018,12,-0.9977041887383961,True,3.0076417545180445,False,0.0,True,比例外推,19825488.760000005,未知,19825488.760000005
20,600503,-14920034.53,-10798512.28,2019-03-31,一季度报告,-13029805.48,2019,3,-0.9059107602403113,True,0.8903199869465636,True,0.3465764781973585,False,平均增速,-11757673.4274625,未知,-11757673.4274625
21,600503,-22646696.44,-12803001.78,2019-06-30,半年度报告,-28347515.02,2019,6,-0.6536108244674208,True,0.9797680291481647,True,0.2996816532966677,False,平均增速,-15564129.667231387,未知,-15564129.667231387
22,600503,-49882344.55,-35862136.88,2019-09-30,三季度报告,-53937763.9,2019,9,-0.9781077287351011,True,0.7965382070761758,True,1.5438900208959738,False,平均增速,-27336785.696241852,未知,-27336785.696241852
23,600503,123912341.64999998,196500482.61,2019-12-31,年度报告,181492847.24,2019,12,-1.1724279542779406,False,1.0188750437631218,True,0.0,True,前期平均,196500482.61,未知,196500482.61
24,600503,110067978.27000004,113593531.12,2020-03-31,一季度报告,117174732.73,2020,3,-1.0314825383986561,False,1.3371022014442546,True,0.42915193989685096,False,前期平均,185502941.565,未知,185502941.565
