,SECURITYCODE_x,NETPROFIT_x,PARENTNETPROFIT_x,REPORTDATE_x,REPORTTIMETYPE_x,KCFJCXSYJLR,Year,Month,managesituationChangeRate,managesituationGreatChange,historyprofitextroplaterate,ifhistoryprofitextroplate,IfprofitdisStableChangeRage,IfprofitdisStable,predicttype,predict,analyst_prediction,adj_prediction
0,600581,33380354.390000004,33380354.390000004,2013-12-31,年度报告,33074201.54,2013,12,未知,未知,未知,未知,未知,未知,未知,未知,未知,未知
1,600581,-185602944.12000003,-185602944.12000003,2014-03-31,一季度报告,-185861549.78,2014,3,未知,未知,未知,未知,未知,未知,未知,未知,未知,未知
2,600581,-719747649.91,-719747649.91,2014-06-30,半年度报告,-720280087.8000001,2014,6,未知,未知,未知,未知,未知,未知,未知,未知,未知,未知
3,600581,-1240816248.92,-1240816248.92,2014-09-30,三季度报告,-1241318364.59,2014,9,未知,未知,未知,未知,未知,未知,未知,未知,未知,未知
4,600581,-2034662677.83,-2034662677.83,2014-12-31,年度报告,-2061795768.16,2014,12,0.0,True,未知,未知,未知,未知,未知,未知,未知,未知
5,600581,-420877924.61,-420877924.61,2015-03-31,一季度报告,-421439940.05,2015,3,-1.1798481944791686,False,未知,未知,未知,未知,未知,未知,16866667.0,未知
6,600581,-811103012.4300001,-811103012.4300001,2015-06-30,半年度报告,-853777161.1600001,2015,6,-1.046377858120376,False,未知,未知,未知,未知,未知,未知,8600000.0,未知
7,600581,-1729137512.0800002,-1729137512.0800002,2015-09-30,三季度报告,-1772675368.0200005,2015,9,-1.0269019320298667,False,未知,未知,未知,未知,未知,未知,-2071500000.0,未知
8,600581,-2508625002.24,-2508625002.24,2015-12-31,年度报告,-2562420294.61,2015,12,-1.0164058419873316,False,未知,未知,未知,未知,未知,未知,6400000.0,未知
9,600581,-227140050.32,-227140050.32,2016-03-31,一季度报告,-227447049.49,2016,3,-1.0793112502180564,False,未知,未知,未知,未知,未知,未知,13000000.0,未知
10,600581,-313799118.39000005,-313799118.39000005,2016-06-30,半年度报告,-318929942.21000004,2016,6,-1.0411542724887621,False,未知,未知,未知,未知,未知,未知,7500000.0,未知
11,600581,-551839195.52,-551839195.52,2016-09-30,三季度报告,-577688639.1399999,2016,9,-1.0193046268193249,False,未知,未知,未知,未知,未知,未知,,未知
12,600581,37103243.85000001,37103243.85000001,2016-12-31,年度报告,-315987508.96000004,2016,12,-1.0133062352325253,False,-1.5070175985244598,True,0.0,True,盈利变化,-1759814073.6899996,5700000.0,5700000.0
13,600581,272693044.73999995,272693044.73999995,2017-03-31,一季度报告,270998621.36999995,2017,3,-1.1469593510390308,False,-0.25095724521156904,True,0.3949934133062341,False,盈利变化,701697471.6633333,1053666667.0,1053666667.0
14,600581,401453823.33,401453823.33,2017-06-30,半年度报告,399114642.23000014,2017,6,-1.1063749145034683,False,-0.5900330109138946,True,0.44536201484214033,False,盈利变化,515799633.4766668,984255000.0,984255000.0
15,600581,865263878.1899999,865263878.1899999,2017-09-30,三季度报告,866138787.38,2017,9,-1.0604892777841661,False,-0.6283853285754909,True,0.7875158575852543,False,盈利变化,678804322.3033334,1249492222.0,1249492222.0
16,600581,1167959575.37,1167959575.37,2017-12-31,年度报告,1169969023.78,2017,12,-0.10033865165673388,True,-1.0163332135064924,True,0.0,True,比例外推,1167959575.37,1249492222.0,1167959575.37
17,600581,144192961.54,144192961.54,2018-03-31,一季度报告,142141519.72,2018,3,-0.8775900044615124,True,-1.8416218539908762,True,0.3478322749108679,False,平均增速,2083335988.0894773,1933645000.0,2083335988.0894773
18,600581,215593776.43000007,215593776.43000007,2018-06-30,半年度报告,210847846.29,2018,6,-0.9168513227421403,True,-1.7137577791542793,True,0.44809979300065994,False,平均增速,1879837898.532646,944665000.0,944665000.0
19,600581,577487795.5699997,577487795.5699997,2018-09-30,三季度报告,570539702.68,2018,9,-0.9614217636591665,True,-1.7586783988692405,True,0.7414317696531894,False,平均增速,1253259142.9620323,874000000.0,874000000.0
20,600581,700516526.8000001,700516526.8000001,2018-12-31,年度报告,695711665.34,2018,12,-0.9714199403010798,True,-1.9451339616211452,True,0.0,True,比例外推,700516526.8000001,1866534000.0,1866534000.0
21,600581,-194147125.47,-194147125.47,2019-03-31,一季度报告,-195528719.07000005,2019,3,-0.7685021929399787,True,5.33077861843885,False,0.334551781728663,False,未知,未知,340000000.0,未知
22,600581,123646391.38,123646391.38,2019-06-30,半年度报告,120077409.37,2019,6,-0.8451701392185683,True,3.9191603936736774,False,0.45814107098592183,False,未知,未知,412985000.0,未知
23,600581,240242275.04000005,240242275.04000005,2019-09-30,三季度报告,233830348.08,2019,9,-0.9421972989800547,True,2.685017980399634,False,0.6986706300627925,False,未知,未知,284240000.0,未知
24,600581,111139007.10000002,111139007.10000002,2019-12-31,年度报告,109454544.38,2019,12,-0.952348940941503,True,0.1626224220467161,True,0.0,True,比例外推,111139007.10000002,334120000.0,334120000.0
25,600581,-190875070.17,-190875070.17,2020-03-31,一季度报告,-211402282.04,2020,3,-1.1719332918743524,False,1.931415890892734,True,1.336241262088773,False,前期平均,535395203.84500015,-90695000.0,-90695000.0
