,SECURITYCODE_x,NETPROFIT_x,PARENTNETPROFIT_x,REPORTDATE_x,REPORTTIMETYPE_x,KCFJCXSYJLR,Year,Month,managesituationChangeRate,managesituationGreatChange,historyprofitextroplaterate,ifhistoryprofitextroplate,IfprofitdisStableChangeRage,IfprofitdisStable,predicttype,predict,analyst_prediction,adj_prediction
0,600551,98810769.67,97269621.85,2014-03-31,一季度报告,94305891.9,2014,3,未知,未知,未知,未知,未知,未知,未知,未知,未知,未知
1,600551,214278586.25,209358238.78,2014-06-30,半年度报告,194393655.90000004,2014,6,未知,未知,未知,未知,未知,未知,未知,未知,未知,未知
2,600551,288955920.79999995,284266498.05,2014-09-30,三季度报告,255738953.45,2014,9,未知,未知,未知,未知,未知,未知,未知,未知,未知,未知
3,600551,392503432.59000015,389904514.96,2014-12-31,年度报告,322837904.84000003,2014,12,未知,未知,未知,未知,未知,未知,未知,未知,未知,未知
4,600551,108265408.91,107196476.03,2015-03-31,一季度报告,102514287.82,2015,3,0.0,True,未知,未知,未知,未知,未知,未知,445000000.0,未知
5,600551,234407015.59000003,231645952.8,2015-06-30,半年度报告,210417657.71,2015,6,-0.5388677356928381,True,未知,未知,未知,未知,未知,未知,,未知
6,600551,289893504.35999995,287858067.5900001,2015-09-30,三季度报告,256572228.9100001,2015,9,-0.6580420660824887,True,未知,未知,未知,未知,未知,未知,422100000.0,未知
7,600551,396241883.46,393018303.70000017,2015-12-31,年度报告,281367850.13,2015,12,-0.7482550177511048,True,未知,未知,未知,未知,未知,未知,未知,未知
8,600551,113887277.68,112873823.52,2016-03-31,一季度报告,101058235.37999998,2016,3,-0.0873283473935756,True,未知,未知,未知,未知,未知,未知,410500000.0,未知
9,600551,238777174.8300001,234737997.57,2016-06-30,半年度报告,206434569.19000003,2016,6,-0.578464964364252,True,未知,未知,未知,未知,未知,未知,410493333.0,未知
10,600551,307997499.46000016,303607707.67000014,2016-09-30,三季度报告,267306395.08,2016,9,-0.6591480382144288,True,未知,未知,未知,未知,未知,未知,456179937.0,未知
11,600551,406087629.89000016,402590289.28,2016-12-31,年度报告,243009917.32,2016,12,-0.7506301736525669,True,未知,未知,未知,未知,未知,未知,468000000.0,未知
12,600551,116585075.27,115970987.45000002,2017-03-31,一季度报告,110377678.29,2017,3,-0.13238096754197526,True,0.0999553735342069,True,0.06532417152374198,True,比例外推,314394341.5806333,,314394341.5806333
13,600551,156180340.20999998,153145756.60000005,2017-06-30,半年度报告,132116900.0,2017,6,-0.5861800034264188,True,0.06434070471977098,True,0.13101612342090807,False,平均增速,180716315.97290787,439420000.0,439420000.0
14,600551,237154532.48,229373042.36000004,2017-09-30,三季度报告,192490054.77,2017,9,-0.6791832081648681,True,0.06417139267216695,True,0.1653097089495087,False,平均增速,210085046.68905148,,210085046.68905148
15,600551,304460330.91,300192307.67,2017-12-31,年度报告,53204501.88999999,2017,12,-0.7566762383361306,True,0.029705334856802962,True,0.0,True,比例外推,300192307.67,508473333.0,508473333.0
16,600551,118287859.21,117629226.36,2018-03-31,一季度报告,113522820.60000002,2018,3,-0.1524578129647932,True,0.04959410628390721,True,1.1229941826464938,False,平均增速,72753975.43033512,未知,72753975.43033512
17,600551,173070604.7,170924177.92,2018-06-30,半年度报告,146441441.44000003,2018,6,-0.36732901505311677,True,0.339875070334139,True,1.1230172898493345,False,平均增速,105832113.28537561,未知,105832113.28537561
18,600551,241521319.2,238485020.05,2018-09-30,三季度报告,202211792.19000003,2018,9,-0.5833485928491245,True,0.2066964347521869,True,1.7413332564799189,False,平均增速,127626837.95502421,未知,127626837.95502421
19,600551,332283825.23,329592899.27000004,2018-12-31,年度报告,49629318.37,2018,12,-0.6754560130225669,True,0.24105912634629628,True,0.0,True,比例外推,329592899.27000004,未知,329592899.27000004
20,600551,118673057.78999996,117917950.87,2019-03-31,一季度报告,110833469.43,2019,3,-0.16465839918044106,True,0.026481985330900397,True,1.1767620718899119,False,平均增速,68330799.61090231,未知,68330799.61090231
21,600551,156482733.71,153603013.46999997,2019-06-30,半年度报告,146025290.42,2019,6,-0.42907248841431933,True,0.12359887780602463,True,1.2449712987392827,False,平均增速,77458848.12410434,未知,77458848.12410434
22,600551,226210973.0,223218553.36,2019-09-30,三季度报告,192685597.92,2019,9,-0.5908817904883321,True,0.11393040821837386,True,1.8308024560804121,False,平均增速,106587460.82398655,未知,106587460.82398655
23,600551,224790934.47,232879277.99000007,2019-12-31,年度报告,115439004.11,2019,12,-0.702631418783008,True,0.06471105805191714,True,0.0,True,比例外推,232879277.99000007,未知,232879277.99000007
24,600551,63054804.14,63585768.78000001,2020-03-31,一季度报告,55053933.92,2020,3,-0.1673698183049065,True,0.01052986843918592,True,0.8139329838787069,False,平均增速,68481775.208926,未知,68481775.208926
