,SECURITYCODE_x,NETPROFIT_x,PARENTNETPROFIT_x,REPORTDATE_x,REPORTTIMETYPE_x,KCFJCXSYJLR,Year,Month,managesituationChangeRate,managesituationGreatChange,historyprofitextroplaterate,ifhistoryprofitextroplate,IfprofitdisStableChangeRage,IfprofitdisStable,predicttype,predict,analyst_prediction,adj_prediction
0,600582,1936600098.03,1652261943.19,2013-12-31,年度报告,1552890559.36,2013,12,未知,未知,未知,未知,未知,未知,未知,未知,未知,未知
1,600582,195053235.06000003,143424266.06,2014-03-31,一季度报告,111953567.17000002,2014,3,未知,未知,未知,未知,未知,未知,未知,未知,未知,未知
2,600582,815331612.88,675758136.34,2014-06-30,半年度报告,310428831.82,2014,6,未知,未知,未知,未知,未知,未知,未知,未知,未知,未知
3,600582,1267080925.23,1039659837.41,2014-09-30,三季度报告,511480474.48,2014,9,未知,未知,未知,未知,未知,未知,未知,未知,未知,未知
4,600582,1960970287.05,1685120994.8499994,2014-12-31,年度报告,1458473956.71,2014,12,0.0,True,未知,未知,未知,未知,未知,未知,未知,未知
5,600582,81035832.96,82174104.95000002,2015-03-31,一季度报告,62103228.01,2015,3,8.928572050775191,False,未知,未知,未知,未知,未知,未知,1698366667.0,未知
6,600582,620249631.4,533862635.8100002,2015-06-30,半年度报告,504070874.91,2015,6,1.3752299891688704,False,未知,未知,未知,未知,未知,未知,1590466667.0,未知
7,600582,818642414.9400003,705210913.04,2015-09-30,三季度报告,644043222.6300001,2015,9,0.5283949584186733,False,未知,未知,未知,未知,未知,未知,1377770695.0000002,未知
8,600582,818642414.9400003,705210913.04,2015-09-30,三季度报告,657310985.12,2015,9,0.5283949584186733,False,未知,未知,未知,未知,未知,未知,1377770695.0000002,未知
9,600582,1385511937.9399998,1227392704.95,2015-12-31,年度报告,1110831467.67,2015,12,-0.012427617685457873,True,未知,未知,未知,未知,未知,未知,1377770695.0000002,未知
10,600582,-6624730.82,21421427.4,2016-03-31,一季度报告,5851286.270000001,2016,3,22.898071103753853,False,未知,未知,未知,未知,未知,未知,1344000000.0,未知
11,600582,257653205.47,289080359.54999995,2016-06-30,半年度报告,267786525.01,2016,6,2.122291412989303,False,未知,未知,未知,未知,未知,未知,,未知
12,600582,350572287.22,364636804.9999999,2016-09-30,三季度报告,323503162.67000014,2016,9,1.365623943601721,False,未知,未知,0.0,True,未知,未知,1127400000.0,未知
13,600582,1008165447.0999998,931879576.7899996,2016-12-31,年度报告,863494950.5399997,2016,12,0.39775056785823615,True,0.2890381437401232,True,0.03970505601921964,True,比例外推,931879576.7899996,1111415334.0,1111415334.0
14,600582,-2024362.52,11555132.659999998,2017-03-31,一季度报告,7381000.789999999,2017,3,-293.3288735269699,False,1.0479898089954078,True,0.12819721327255945,False,前期平均,1209179447.26,1458703000.0,1458703000.0
15,600582,410963361.27,335269716.03,2017-06-30,半年度报告,327781412.85999995,2017,6,6.516305083405955,False,0.6410468491468441,True,0.14474334482883416,False,前期平均,1212672574.855,1317993333.0,1212672574.855
16,600582,596816253.56,458826450.10000014,2017-09-30,三季度报告,442353745.2200001,2017,9,4.524110628900611,False,0.6638362524231751,True,0.0,True,前期平均,1165717313.7350001,1297256667.0,1297256667.0
17,600582,1177527234.94,942006444.59,2017-12-31,年度报告,892715687.5600002,2017,12,0.9209149684713495,False,0.3974774827300853,True,0.03225654590986762,True,前期平均,942006444.59,1297256667.0,1297256667.0
18,600582,60209393.92,49332670.63,2018-03-31,一季度报告,38722485.99,2018,3,-957.646884585672,False,1.054410228091805,True,0.07675441558091572,True,前期平均,1002518622.5949999,1254940000.0,1254940000.0
19,600582,646688014.2499999,475334217.34,2018-06-30,半年度报告,452313294.2800001,2018,6,3.7123424629517463,False,0.0637611726254041,True,0.10867053692268208,False,前期平均,1076568726.485,1263666667.0,1263666667.0
20,600582,929883159.72,678594856.19,2018-09-30,三季度报告,637586163.6700003,2018,9,2.244884981731328,False,0.02088393595709176,True,0.0,True,前期平均,1181984872.645,1274600000.0,1181984872.645
21,600582,1350998428.2300005,961626415.26,2018-12-31,年度报告,863694224.0499997,2018,12,0.644632956730447,False,0.016135388754301143,True,0.02487426805514446,True,前期平均,961626415.26,1283500000.0,1283500000.0
22,600582,112848701.72000004,71054851.32000001,2019-03-31,一季度报告,66903352.80999998,2019,3,31.1644177419084,False,-14.922706474110038,True,0.12336648445524773,False,前期平均,942544026.84,1295333333.0,1295333333.0
23,600582,731833766.5999999,554465575.8000001,2019-06-30,半年度报告,535782449.71,2019,6,1.9946435612789006,False,0.9344061945790005,True,0.20208591961122802,False,前期平均,1134786925.915,1190500000.0,1134786925.915
24,600582,1075382005.97,806611985.0800003,2019-09-30,三季度报告,782505713.43,2019,9,1.0826273470885692,False,0.9630449803718599,True,0.0,True,前期平均,1301788850.1850002,,1301788850.1850002
25,600582,1291149128.2300005,1107406379.9299998,2019-12-31,年度报告,1022888074.93,2019,12,0.4334584390058993,True,0.2362199309456956,True,0.031234608448015205,True,比例外推,1107406379.9299998,,1107406379.9299998
26,600582,102864044.4,70430026.33999999,2020-03-31,一季度报告,62007715.3,2020,3,16.16103126144143,False,2.878959897579433,False,未知,未知,去年同期,1026414748.46,1201405000.0,1201405000.0
