,SECURITYCODE_x,NETPROFIT_x,PARENTNETPROFIT_x,REPORTDATE_x,REPORTTIMETYPE_x,KCFJCXSYJLR,Year,Month,managesituationChangeRate,managesituationGreatChange,historyprofitextroplaterate,ifhistoryprofitextroplate,IfprofitdisStableChangeRage,IfprofitdisStable,predicttype,predict,analyst_prediction,adj_prediction
0,600587,266473533.07000005,231680197.8099999,2013-12-31,年度报告,210103644.57,2013,12,未知,未知,未知,未知,未知,未知,未知,未知,未知,未知
1,600587,96066261.63,86703761.62,2014-03-31,一季度报告,64867132.48,2014,3,未知,未知,未知,未知,未知,未知,未知,未知,未知,未知
2,600587,180455517.72000003,157201596.10999998,2014-06-30,半年度报告,134751586.96,2014,6,未知,未知,未知,未知,未知,未知,未知,未知,未知,未知
3,600587,284940011.6,240400209.29,2014-09-30,三季度报告,216826366.14999995,2014,9,未知,未知,未知,未知,未知,未知,未知,未知,未知,未知
4,600587,391286716.92000014,326441336.54,2014-12-31,年度报告,290521455.59000003,2014,12,0.0,True,未知,未知,未知,未知,未知,未知,未知,未知
5,600587,103474111.8,79962593.0,2015-03-31,一季度报告,71466954.9,2015,3,1.77385138703872,False,未知,未知,未知,未知,未知,未知,436758461.0,未知
6,600587,175573148.21000004,138527067.89000002,2015-06-30,半年度报告,124563914.32,2015,6,0.47667157223459383,True,未知,未知,未知,未知,未知,未知,425959352.0,未知
7,600587,263107131.91000003,204783141.72000003,2015-09-30,三季度报告,174416474.35999998,2015,9,-0.0648083027241653,True,未知,未知,未知,未知,未知,未知,312500000.0,未知
8,600587,263107131.91000003,204783141.72000003,2015-09-30,三季度报告,174416474.37,2015,9,-0.0648083027241653,True,未知,未知,未知,未知,未知,未知,312500000.0,未知
9,600587,362379766.35,280833881.67,2015-12-31,年度报告,208889549.7,2015,12,-0.3189813976627235,True,未知,未知,未知,未知,未知,未知,465991321.0,未知
10,600587,60077079.58000001,42879054.7,2016-03-31,一季度报告,36399214.54,2016,3,1.5752676532759573,False,未知,未知,未知,未知,未知,未知,331000000.0,未知
11,600587,138337302.19000003,94192382.12,2016-06-30,半年度报告,63191592.42,2016,6,0.5177351194459168,False,未知,未知,未知,未知,未知,未知,264970000.0,未知
12,600587,211657928.23,146633820.32,2016-09-30,三季度报告,107215581.48,2016,9,0.012794792507378923,True,未知,未知,0.0,True,未知,未知,224680000.0,未知
13,600587,120628377.95,34636290.86000001,2016-12-31,年度报告,-47709901.21,2016,12,-0.2646567004719853,True,0.1018597318871403,True,0.6970873447214645,False,平均增速,34636290.86000001,,34636290.86000001
14,600587,60539228.07,44079680.01,2017-03-31,一季度报告,31385589.60999999,2017,3,3.435527408005208,False,0.39784537287061433,True,1.2363780510483213,False,前期平均,225618138.96499997,256000000.0,256000000.0
15,600587,116646493.68000002,84059988.44999999,2017-06-30,半年度报告,51054847.48,2017,6,0.9262594314873274,False,0.22288671992946227,True,2.025261418558146,False,前期平均,204107740.45499998,,204107740.45499998
16,600587,69836645.18,12451599.249999998,2017-09-30,三季度报告,-80985177.21,2017,9,0.2589820532516703,True,0.22759225830674198,True,0.0,True,比例外推,458270653.822713,未知,458270653.822713
17,600587,148948782.0,65528722.78999999,2017-12-31,年度报告,-136373089.99999997,2017,12,1.2090451484015836,False,0.6798892331615469,True,0.559109615107357,False,前期平均,65528722.78999999,,65528722.78999999
18,600587,47294223.59,28617313.81,2018-03-31,一季度报告,20295769.27,2018,3,3.4016671762296564,False,0.25969077254422135,True,0.9638340368191423,False,前期平均,55274053.33499999,未知,55274053.33499999
19,600587,104360860.47999996,56974428.08,2018-06-30,半年度报告,29903654.18,2018,6,1.2844538628055573,False,0.2568167543873526,True,1.9744330876842902,False,前期平均,43686498.955,未知,43686498.955
20,600587,230958711.17,153693496.92999998,2018-09-30,三季度报告,102056467.2,2018,9,2.8156691574055364,False,0.7058054560316364,True,0.0,True,前期平均,93467293.25499998,未知,93467293.25499998
21,600587,122213645.69000004,22784139.99,2018-12-31,年度报告,-65363569.93,2018,12,0.7890279429743846,False,0.3832452568025984,True,0.328401643459906,False,前期平均,22784139.99,未知,22784139.99
22,600587,570589875.37,561995312.9,2019-03-31,一季度报告,19482505.19,2019,3,4.634378003117146,False,0.21579055914666773,True,0.6057064266203323,False,前期平均,436061415.22,未知,436061415.22
23,600587,704988797.8299999,693290039.4399999,2019-06-30,半年度报告,44466598.55,2019,6,1.5533857410179928,False,0.18143143077839433,True,1.6654353602530025,False,前期平均,544125323.885,未知,544125323.885
24,600587,811238654.16,802406445.1199999,2019-09-30,三季度报告,23418091.98,2019,9,0.15377130275834863,True,0.6409460997573553,True,0.0,True,比例外推,757134662.6294775,未知,757134662.6294775
25,600587,860086401.2600003,861314742.1899999,2019-12-31,年度报告,-29346878.8,2019,12,1.1803909994299748,False,0.09329376633637877,True,0.26236288179974004,False,前期平均,861314742.1899999,未知,861314742.1899999
26,600587,30347755.56,33395940.12,2020-03-31,一季度报告,22619653.99,2020,3,-0.5329858720377665,True,9.582799058850048,False,未知,未知,True,True,未知,True
