,SECURITYCODE_x,NETPROFIT_x,PARENTNETPROFIT_x,REPORTDATE_x,REPORTTIMETYPE_x,KCFJCXSYJLR,Year,Month,managesituationChangeRate,managesituationGreatChange,historyprofitextroplaterate,ifhistoryprofitextroplate,IfprofitdisStableChangeRage,IfprofitdisStable,predicttype,predict,analyst_prediction,adj_prediction
0,600559,65559675.88999999,65559675.88999999,2013-12-31,年度报告,56323768.97,2013,12,未知,未知,未知,未知,未知,未知,未知,未知,未知,未知
1,600559,15594766.249999994,15594766.249999994,2014-03-31,一季度报告,12157567.249999998,2014,3,未知,未知,未知,未知,未知,未知,未知,未知,未知,未知
2,600559,14196069.310000004,14196069.310000004,2014-06-30,半年度报告,8473465.47,2014,6,未知,未知,未知,未知,未知,未知,未知,未知,未知,未知
3,600559,45490070.01,45490070.01,2014-09-30,三季度报告,29425559.23,2014,9,未知,未知,未知,未知,未知,未知,未知,未知,未知,未知
4,600559,59137573.82,59137573.82,2014-12-31,年度报告,40544572.28000001,2014,12,0.0,True,未知,未知,未知,未知,未知,未知,未知,未知
5,600559,21768631.13,21768631.13,2015-03-31,一季度报告,21768631.13,2015,3,3.2039537392873725,False,未知,未知,未知,未知,未知,未知,134305000.0,未知
6,600559,17597946.34,17597946.34,2015-06-30,半年度报告,14408492.96,2015,6,3.6181569319204723,False,未知,未知,未知,未知,未知,未知,141478333.0,未知
7,600559,57290340.56000001,57290340.56000001,2015-09-30,三季度报告,53360004.19,2015,9,0.44118652434670097,True,未知,未知,未知,未知,未知,未知,104333333.0,未知
8,600559,57290340.56000001,57290340.56000001,2015-09-30,三季度报告,45490070.01,2015,9,0.44118652434670097,True,未知,未知,未知,未知,未知,未知,104333333.0,未知
9,600559,75041933.89,75041933.89,2015-12-31,年度报告,60141707.10999999,2015,12,0.10859596792975083,True,未知,未知,未知,未知,未知,未知,109200000.0,未知
10,600559,30541409.56,30541409.56,2016-03-31,一季度报告,25227896.74,2016,3,2.011658174484396,False,未知,未知,未知,未知,未知,未知,147075000.0,未知
11,600559,24683106.9,24683106.9,2016-06-30,半年度报告,12975993.65,2016,6,2.725416285705074,False,未知,未知,未知,未知,未知,未知,137895044.0,未知
12,600559,83071471.07,83071471.07,2016-09-30,三季度报告,68796450.60000001,2016,9,0.1443408303942535,True,未知,未知,0.0,True,未知,未知,124113209.0,未知
13,600559,110843259.72,110843259.72,2016-12-31,年度报告,96550177.83,2016,12,-0.1263594567525345,True,0.20358603039794348,True,0.05425378708184925,True,比例外推,110843259.72,222000000.0,222000000.0
14,600559,41314935.48,41314935.48,2017-03-31,一季度报告,39750764.74,2017,3,1.146583174597918,False,0.6348304330777108,True,0.05992478080155081,True,前期平均,74694975.98499998,192123332.99999997,192123332.99999997
15,600559,47485421.6,47485421.6,2017-06-30,半年度报告,42232828.57,2017,6,1.656054448720959,False,0.5526888564011885,True,0.11205717076209765,False,前期平均,86387582.08000001,198193332.99999997,198193332.99999997
16,600559,116676226.00999998,116676226.00999998,2017-09-30,三季度报告,106754228.63,2017,9,-0.2108039613893887,True,0.616484515080294,True,0.0,True,比例外推,147637267.3842026,164644444.0,164644444.0
17,600559,163523345.90000004,163523345.90000004,2017-12-31,年度报告,153240471.11000004,2017,12,-0.40853709954390005,True,0.6521637560269447,True,0.06773899406018025,True,比例外推,163523345.90000004,164311110.99999997,163523345.90000004
18,600559,74767241.79,74767241.79,2018-03-31,一季度报告,71394137.68,2018,3,0.586827502653043,False,0.5796177917291541,True,0.08212712590131907,True,前期平均,129614920.325,398478000.0,398478000.0
19,600559,146260088.49,146260088.49,2018-06-30,半年度报告,124231402.45,2018,6,0.38062743640039604,True,1.24617969332308,True,0.12176155409762468,False,平均增速,398128227.39373165,416775556.0,398128227.39373165
20,600559,244106465.31,244106465.31,2018-09-30,三季度报告,220585226.45,2018,9,-0.43810596098316495,True,0.6625066982971654,True,0.0,True,比例外推,311688491.5097938,511417767.0,511417767.0
21,600559,350455694.56999993,350417975.55999994,2018-12-31,年度报告,309236389.32000005,2018,12,-0.5990806356782113,True,0.7594015179399745,True,0.01964986504978941,True,比例外推,350417975.55999994,313376667.0,313376667.0
22,600559,117432351.17,117488139.90000004,2019-03-31,一季度报告,111996715.12999998,2019,3,-0.12314973348704579,True,1.0810198945793754,True,0.13618056489896904,False,平均增速,518404585.9180671,501160000.0,518404585.9180671
23,600559,194169538.74000004,194043837.49000004,2019-06-30,半年度报告,182966483.68,2019,6,-0.5517596319895405,True,3.053292800337477,False,0.010859384830345653,True,比例外推,687286071.1565975,443502500.0,443502500.0
24,600559,271061737.2099999,271350522.77000004,2019-09-30,三季度报告,244252878.98,2019,9,-0.7314299897516304,True,1.4441479814631766,True,0.0,True,比例外推,372329189.674649,428940000.0,428940000.0
25,600559,404368230.76,404302861.13000005,2019-12-31,年度报告,363255626.24,2019,12,-0.8129302022886516,True,1.5546526974597188,True,0.042117991169005664,True,比例外推,404302861.13000005,397410000.0,404302861.13000005
26,600559,65743925.23,65738401.9,2020-03-31,一季度报告,62873298.22000001,2020,3,-0.4417238926342107,True,1.023262380698797,True,未知,未知,True,True,354000000.0,354000000.0
