,SECURITYCODE_x,NETPROFIT_x,PARENTNETPROFIT_x,REPORTDATE_x,REPORTTIMETYPE_x,KCFJCXSYJLR,Year,Month,managesituationChangeRate,managesituationGreatChange,historyprofitextroplaterate,ifhistoryprofitextroplate,IfprofitdisStableChangeRage,IfprofitdisStable,predicttype,predict,analyst_prediction,adj_prediction
0,600546,708525165.9699999,244008067.63000005,2013-12-31,年度报告,64764785.05000001,2013,12,未知,未知,未知,未知,未知,未知,未知,未知,未知,未知
1,600546,122197958.58000004,52964238.68000001,2014-03-31,一季度报告,31451541.2,2014,3,未知,未知,未知,未知,未知,未知,未知,未知,未知,未知
2,600546,193297569.19,62058573.95000001,2014-06-30,半年度报告,41316110.02,2014,6,未知,未知,未知,未知,未知,未知,未知,未知,未知,未知
3,600546,252883679.44,71598343.03999999,2014-09-30,三季度报告,36717153.14,2014,9,未知,未知,未知,未知,未知,未知,未知,未知,未知,未知
4,600546,-1590565094.88,-1724339373.1799998,2014-12-31,年度报告,-1709661844.1,2014,12,0.0,True,未知,未知,未知,未知,未知,未知,未知,未知
5,600546,38565340.93000001,5836762.76,2015-03-31,一季度报告,11195399.000000002,2015,3,4.79817514304992,False,未知,未知,未知,未知,未知,未知,-126283333.0,未知
6,600546,60948314.28999999,8924355.76,2015-06-30,半年度报告,12711705.23,2015,6,2.6654634041132814,False,未知,未知,未知,未知,未知,未知,122900000.0,未知
7,600546,-9033331.65,-88719319.06,2015-09-30,三季度报告,-82997341.63000001,2015,9,1.8017828890302385,False,未知,未知,未知,未知,未知,未知,-229750000.0,未知
8,600546,-2264075211.2899995,-2380214078.51,2015-12-31,年度报告,-2332829952.82,2015,12,-1.4454549947378634,False,未知,未知,未知,未知,未知,未知,-668493333.0,未知
9,600546,-26621437.690000005,-49924314.37,2016-03-31,一季度报告,-51140883.12,2016,3,17.37207059198685,False,未知,未知,未知,未知,未知,未知,-505875000.0,未知
10,600546,-401999849.2,-442276537.5200001,2016-06-30,半年度报告,-443573481.8900001,2016,6,10.625016609954875,False,未知,未知,未知,未知,未知,未知,146000000.0,未知
11,600546,-413148028.29,-498482998.18,2016-09-30,三季度报告,-500830407.0899999,2016,9,-79.43453483411072,False,未知,未知,未知,未知,未知,未知,400690000.0,未知
12,600546,654157264.39,307680268.34,2016-12-31,年度报告,-1783598195.3100004,2016,12,-1.3129424157099023,False,-4.133724987003432,True,0.0,True,盈利变化,-2197136826.006667,845000000.0,845000000.0
13,600546,127647064.64,23137057.18,2017-03-31,一季度报告,26594556.009999994,2017,3,-27.61483478918752,False,1.3311879983944228,True,0.02684705331486444,True,前期平均,-2019432311.3799999,764850000.0,764850000.0
14,600546,413231982.17,100095189.81000002,2017-06-30,半年度报告,123975441.95,2017,6,-2.7625010740178153,False,4.162291901820491,False,0.1756690033909442,False,前期平均,-1948164616.275,532700000.0,532700000.0
15,600546,800852222.25,205618520.11,2017-09-30,三季度报告,241822424.53,2017,9,-2.714942629407072,False,4.38853753570035,False,0.18249795144276132,False,盈利变化,637748193.5044444,669580000.0,637748193.5044444
16,600546,1197007081.6700006,415048276.1,2017-12-31,年度报告,-1191159643.65,2017,12,0.08311136257226748,True,-1.3394128699079453,True,0.0,True,比例外推,415048276.1,792225000.0,792225000.0
17,600546,330051486.12999994,82373166.94999999,2018-03-31,一季度报告,83177508.67,2018,3,4.550657729327632,False,20.374430464659387,False,0.028157139068154487,True,去年同期,-1135381032.71,639000000.0,639000000.0
18,600546,1036605074.23,330796797.68999994,2018-06-30,半年度报告,326957991.29999995,2018,6,0.7145942147297758,False,-3.4232817616789073,True,0.20230679415363714,False,前期平均,-1511986388.0450006,645375000.0,645375000.0
19,600546,1449773676.63,403475333.41,2018-09-30,三季度报告,381650847.66,2018,9,-0.11528600872281601,True,-4.7938776944762145,True,0.24301062464740403,False,平均增速,-1647140069.47999,731000000.0,731000000.0
20,600546,1412063715.4899998,220105428.2,2018-12-31,年度报告,507043647.18000007,2018,12,-0.4080860699825574,True,-2.487041105386662,True,0.0,True,比例外推,220105428.2,673000000.0,673000000.0
21,600546,447037053.46,220542194.69,2019-03-31,一季度报告,222319829.37,2019,3,1.1467110306872776,False,5.534015102788729,False,0.1072472991043388,False,去年同期,644408333.2,898875000.0,898875000.0
22,600546,1045509226.68,506134995.52,2019-06-30,半年度报告,556120553.83,2019,6,-0.31649459993595047,True,183.57849047882084,False,0.3816826165134753,False,未知,未知,1017787500.0,未知
23,600546,1458375616.88,797700430.1499999,2019-09-30,三季度报告,851628613.6400001,2019,9,-0.5112856734873493,True,6.4787618974252075,False,0.4798415207569897,False,未知,未知,1049757143.0000001,未知
24,600546,1579862048.04,1172715112.81,2019-12-31,年度报告,1267125822.2099998,2019,12,-0.49823428065061864,True,0.5255951947166895,True,0.0,True,比例外推,1172715112.81,1048787500.0,1048787500.0
25,600546,325548924.50999993,204990294.07,2020-03-31,一季度报告,225112367.45,2020,3,0.5849361042582959,False,0.9534125799958781,True,0.12804978456217644,False,前期平均,-191953736.50500005,1120700000.0,1120700000.0
