,SECURITYCODE_x,NETPROFIT_x,PARENTNETPROFIT_x,REPORTDATE_x,REPORTTIMETYPE_x,KCFJCXSYJLR,Year,Month,managesituationChangeRate,managesituationGreatChange,historyprofitextroplaterate,ifhistoryprofitextroplate,IfprofitdisStableChangeRage,IfprofitdisStable,predicttype,predict,analyst_prediction,adj_prediction
0,600557,300682912.40999985,297017573.33,2013-12-31,年度报告,263168908.0600001,2013,12,未知,未知,未知,未知,未知,未知,未知,未知,未知,未知
1,600557,72618713.71000001,72245423.66,2014-03-31,一季度报告,70409049.95,2014,3,未知,未知,未知,未知,未知,未知,未知,未知,未知,未知
2,600557,162321887.51999998,160377221.87000003,2014-06-30,半年度报告,158336662.49,2014,6,未知,未知,未知,未知,未知,未知,未知,未知,未知,未知
3,600557,252197165.4700001,249984680.92,2014-09-30,三季度报告,244258618.16000003,2014,9,未知,未知,未知,未知,未知,未知,未知,未知,未知,未知
4,600557,323110529.89,319614208.39000005,2014-12-31,年度报告,312133787.83,2014,12,0.0,True,未知,未知,未知,未知,未知,未知,未知,未知
5,600557,81898748.57,81617680.52999999,2015-03-31,一季度报告,79790293.62,2015,3,3.1405706194516925,False,未知,未知,未知,未知,未知,未知,395732953.0,未知
6,600557,191702291.34,189915984.17,2015-06-30,半年度报告,187204731.41,2015,6,0.8523867421942845,False,未知,未知,未知,未知,未知,未知,403949963.0,未知
7,600557,290287824.08,288286593.05,2015-09-30,三季度报告,278510175.7,2015,9,0.19225333817547344,True,未知,未知,未知,未知,未知,未知,378795000.0,未知
8,600557,365243434.86,362336257.61,2015-12-31,年度报告,346072075.71,2015,12,-0.06941159573980896,True,未知,未知,未知,未知,未知,未知,468874035.0,未知
9,600557,82922482.91999999,82365842.76999998,2016-03-31,一季度报告,80065470.38000001,2016,3,2.6713981307419123,False,未知,未知,未知,未知,未知,未知,467240000.0,未知
10,600557,193012558.77,190968294.89000005,2016-06-30,半年度报告,186484896.35,2016,6,0.5684888809008215,False,未知,未知,未知,未知,未知,未知,396282500.0,未知
11,600557,294176421.33000004,292992018.14,2016-09-30,三季度报告,277575829.58,2016,9,0.03580959126668398,True,未知,未知,未知,未知,未知,未知,399500000.0,未知
12,600557,376145934.29,373740970.95,2016-12-31,年度报告,337379845.88,2016,12,-0.1767602543622628,True,0.17103967465032813,True,0.0,True,比例外推,373740970.95,391000000.0,373740970.95
13,600557,87903354.63999999,86844327.43999998,2017-03-31,一季度报告,82835934.43,2017,3,2.6260722282048126,False,0.0733088894475466,True,0.006165986620643132,True,前期平均,340847587.42499995,436671250.0,436671250.0
14,600557,194095990.79999995,191382082.1,2017-06-30,半年度报告,186347916.81000003,2017,6,0.5578411805228866,False,0.09039195792515313,True,0.026380838500779435,True,前期平均,347714316.91999996,422764444.0,422764444.0
15,600557,301707902.11999995,300996122.87,2017-09-30,三季度报告,295394578.40000004,2017,9,0.022117649846249844,True,0.08455137744557344,True,0.020808539035647944,True,比例外推,373303560.68596536,413576000.0,373303560.68596536
16,600557,378181465.78,373782724.75000006,2017-12-31,年度报告,354996275.3,2017,12,-0.20062166037349718,True,0.0928852118302556,True,0.0,True,比例外推,373782724.75000006,449173333.0,449173333.0
17,600557,95086207.0,94617166.68,2018-03-31,一季度报告,91127480.48,2018,3,2.4206079351740186,False,0.06665086585441816,True,0.0035760518931176044,True,前期平均,356415245.475,422610000.0,422610000.0
18,600557,203812385.37,201336505.69,2018-06-30,半年度报告,191020104.25000003,2018,6,0.5491454056865553,False,0.009038204501348695,True,0.014609214598583775,True,前期平均,356217652.605,404800000.0,404800000.0
19,600557,312145915.48,308030013.59000015,2018-09-30,三季度报告,294077600.3,2018,9,-0.0033972915617981494,True,0.032425522996201994,True,0.015098607059312319,True,比例外推,372638893.7829157,,372638893.7829157
20,600557,420270159.21,414054211.44000006,2018-12-31,年度报告,396069153.52,2018,12,-0.20492425034674613,True,0.020196624112869297,True,0.0,True,比例外推,414054211.44000006,,414054211.44000006
21,600557,109079895.67,108481593.99,2019-03-31,一季度报告,105607728.19999996,2019,3,2.1622137626122773,False,0.11325322162231365,True,0.003736063716136634,True,前期平均,373218952.175,519000000.0,519000000.0
22,600557,245550645.73,242491076.17,2019-06-30,半年度报告,236530824.57,2019,6,0.47529264163285057,True,0.05299862581900991,True,0.037698095058095404,True,比例外推,460837829.86737907,526963333.0,526963333.0
23,600557,379720300.21,373494819.13,2019-09-30,三季度报告,359479949.29999983,2019,9,-0.03672321981972125,True,0.04767285594212084,True,0.05662161973678681,True,比例外推,463864048.333138,520667500.0,520667500.0
24,600557,516512894.89,506993260.36,2019-12-31,年度报告,486478211.9299999,2019,12,-0.28454850809487275,True,0.1142911133043817,True,0.0,True,比例外推,506993260.36,未知,506993260.36
25,600557,81334498.6,80298659.39999999,2020-03-31,一季度报告,120302216.68999998,2020,3,1.756538320495442,False,0.19219801055751642,True,0.009750113468526167,True,前期平均,368849666.3549999,586141536.0,586141536.0
