,SECURITYCODE_x,NETPROFIT_x,PARENTNETPROFIT_x,REPORTDATE_x,REPORTTIMETYPE_x,KCFJCXSYJLR,Year,Month,managesituationChangeRate,managesituationGreatChange,historyprofitextroplaterate,ifhistoryprofitextroplate,IfprofitdisStableChangeRage,IfprofitdisStable,predicttype,predict,analyst_prediction,adj_prediction
0,600552,147093279.48,144816161.27,2013-12-31,年度报告,114747380.54000002,2013,12,未知,未知,未知,未知,未知,未知,未知,未知,未知,未知
1,600552,23901203.99000001,23615465.41,2014-03-31,一季度报告,22495496.67,2014,3,未知,未知,未知,未知,未知,未知,未知,未知,未知,未知
2,600552,72601286.13,71514268.77999999,2014-06-30,半年度报告,70309840.09,2014,6,未知,未知,未知,未知,未知,未知,未知,未知,未知,未知
3,600552,77401215.39000002,77018486.43,2014-09-30,三季度报告,74198799.47000001,2014,9,未知,未知,未知,未知,未知,未知,未知,未知,未知,未知
4,600552,111049893.28000002,109616216.03000002,2014-12-31,年度报告,104258020.14000002,2014,12,0.0,True,未知,未知,未知,未知,未知,未知,未知,未知
5,600552,24388543.2,24085597.13000001,2015-03-31,一季度报告,23545740.8,2015,3,5.1542204962370155,False,未知,未知,未知,未知,未知,未知,213908000.0,未知
6,600552,43540745.62000001,43379943.58,2015-06-30,半年度报告,40508425.74,2015,6,1.0260423378260062,False,未知,未知,未知,未知,未知,未知,132000000.0,未知
7,600552,54414114.06,54334643.04,2015-09-30,三季度报告,47610394.98,2015,9,0.9004001260037573,False,未知,未知,未知,未知,未知,未知,97500000.0,未知
8,600552,122558578.94000004,111233953.34000002,2015-12-31,年度报告,58865671.77,2015,12,0.32456930065768336,True,未知,未知,未知,未知,未知,未知,97500000.0,未知
9,600552,12903381.019999998,10348357.900000002,2016-03-31,一季度报告,6297959.53,2016,3,5.031245010157064,False,未知,未知,未知,未知,未知,未知,221055000.0,未知
10,600552,35239652.160000004,27806827.440000005,2016-06-30,半年度报告,16391581.31,2016,6,2.3782903206056756,False,未知,未知,未知,未知,未知,未知,,未知
11,600552,74940812.71,63158485.63000001,2016-09-30,三季度报告,47883305.72000001,2016,9,1.7032192294412223,False,未知,未知,未知,未知,未知,未知,未知,未知
12,600552,100342939.27000004,75575850.91,2016-12-31,年度报告,19918612.099999994,2016,12,0.20018754094734723,True,0.05046042760197423,True,0.0,True,比例外推,75575850.91,250000000.0,250000000.0
13,600552,15138571.04,11986504.259999998,2017-03-31,一季度报告,7064383.760000003,2017,3,10.399592033437452,False,0.4655850663607504,True,0.09488020202712255,True,前期平均,70527731.48,159790000.0,159790000.0
14,600552,43520420.42,35172972.65,2017-06-30,半年度报告,27733135.209999993,2017,6,3.1740843187709826,False,0.39316280886398386,True,0.09444083329172004,True,前期平均,61325685.690000005,127000000.0,127000000.0
15,600552,107258529.35999998,90428116.90000002,2017-09-30,三季度报告,61315399.16,2017,9,0.9627926914698655,False,0.1370576248254407,True,1.0958047301978004,False,前期平均,111085365.63000003,147443333.0,147443333.0
16,600552,104405237.69999996,77410673.86000003,2017-12-31,年度报告,-23017251.97,2017,12,0.4659056287379166,True,0.14093064933447802,True,0.0,True,比例外推,77410673.86000003,147443333.0,147443333.0
17,600552,14786204.81,13828205.559999995,2018-03-31,一季度报告,-27060558.910000004,2018,3,8.716457325552176,False,0.18810459065123566,True,0.4433365002716386,False,前期平均,38298497.33,未知,38298497.33
18,600552,53664963.57,47482792.60000001,2018-06-30,半年度报告,-13562774.560000002,2018,6,2.3798680725152788,False,0.10485404101497273,True,1.3069491861149403,False,前期平均,58424931.010000005,未知,58424931.010000005
19,600552,80490597.08000001,72766621.98,2018-09-30,三季度报告,-2608780.66,2018,9,0.37139004569323897,True,0.6583601728709013,True,2.8468409087022812,False,平均增速,91789640.93439227,未知,91789640.93439227
20,600552,57308299.17,43077350.95,2018-12-31,年度报告,-81311654.92999998,2018,12,0.4088687763219378,True,0.0632164505794201,True,0.0,True,比例外推,43077350.95,,43077350.95
21,600552,22661157.97000001,16604702.47,2019-03-31,一季度报告,-10296729.920000002,2019,3,8.94800771192618,False,0.05457742587696323,True,0.4209396541988488,False,前期平均,8374210.889999997,未知,8374210.889999997
22,600552,66740764.62000001,51504187.12000001,2019-06-30,半年度报告,21594708.55,2019,6,1.7409555451972516,False,0.36274540670312805,True,1.1331657362665317,False,前期平均,27892508.925000012,未知,27892508.925000012
23,600552,96548955.98,76550455.28,2019-09-30,三季度报告,33905683.09,2019,9,0.8274591668614811,False,0.11645567798948511,True,2.587936391212226,False,前期平均,20401782.904999994,未知,20401782.904999994
24,600552,139260423.73999998,96510265.67999998,2019-12-31,年度报告,20419376.92,2019,12,1.566701186570915,False,0.4402069896974282,True,0.0,True,前期平均,96510265.67999998,未知,96510265.67999998
25,600552,18023885.27,8791338.929999998,2020-03-31,一季度报告,-10514674.88,2020,3,5.4909868981421655,False,0.514541534652799,True,0.4922601942991274,False,前期平均,-33375026.944999993,未知,-33375026.944999993
