,SECURITYCODE_x,NETPROFIT_x,PARENTNETPROFIT_x,REPORTDATE_x,REPORTTIMETYPE_x,KCFJCXSYJLR,Year,Month,managesituationChangeRate,managesituationGreatChange,historyprofitextroplaterate,ifhistoryprofitextroplate,IfprofitdisStableChangeRage,IfprofitdisStable,predicttype,predict,analyst_prediction,adj_prediction
0,600593,42684549.38999999,32528980.91,2013-12-31,年度报告,26573556.33,2013,12,未知,未知,未知,未知,未知,未知,未知,未知,未知,未知
1,600593,-6491703.23,-5718984.489999997,2014-03-31,一季度报告,-5729607.310000001,2014,3,未知,未知,未知,未知,未知,未知,未知,未知,未知,未知
2,600593,-2469961.0300000003,-2241910.86,2014-06-30,半年度报告,-2460801.0700000008,2014,6,未知,未知,未知,未知,未知,未知,未知,未知,未知,未知
3,600593,60442239.67000001,59763977.42,2014-09-30,三季度报告,61498246.82,2014,9,未知,未知,未知,未知,未知,未知,未知,未知,未知,未知
4,600593,38983425.17,38511198.22000001,2014-12-31,年度报告,40209477.42,2014,12,0.0,True,未知,未知,未知,未知,未知,未知,未知,未知
5,600593,-7108986.31,-6440143.08,2015-03-31,一季度报告,-7261476.08,2015,3,-7.575246568996344,False,未知,未知,未知,未知,未知,未知,26000000.0,未知
6,600593,10886561.230000002,8470832.370000001,2015-06-30,半年度报告,4024886.65,2015,6,-18.281466740388204,False,未知,未知,未知,未知,未知,未知,35540000.0,未知
7,600593,78413713.71000001,75203171.14000002,2015-09-30,三季度报告,70539766.40999998,2015,9,-0.2937960336505183,True,未知,未知,未知,未知,未知,未知,46940000.0,未知
8,600593,46468208.68,42987222.6,2015-12-31,年度报告,35113183.97,2015,12,0.09494097052426836,True,未知,未知,未知,未知,未知,未知,49164000.0,未知
9,600593,-11008211.340000002,-9641285.54,2016-03-31,一季度报告,-8992824.05,2016,3,-7.0043088463902246,False,未知,未知,未知,未知,未知,未知,51257143.0,未知
10,600593,847262.4700000002,2472946.9199999995,2016-06-30,半年度报告,4670898.339999999,2016,6,2.920847776281692,False,未知,未知,未知,未知,未知,未知,46800000.0,未知
11,600593,67873856.15,69237674.08,2016-09-30,三季度报告,71670459.67000002,2016,9,-0.45564943464020013,True,未知,未知,未知,未知,未知,未知,46790000.0,未知
12,600593,32596158.14,33548554.66,2016-12-31,年度报告,38764808.44000001,2016,12,-0.08142468576862745,True,0.137978722512841,True,0.0,True,比例外推,33548554.66,47634286.0,47634286.0
13,600593,-11102946.369999995,-9507181.28,2017-03-31,一季度报告,-10706188.06,2017,3,-4.877519069324117,False,-0.6187725346754739,True,0.05126610203179113,True,前期平均,34649691.11,60003333.0,60003333.0
14,600593,3511313.16,6109323.590000003,2017-06-30,半年度报告,4124638.93,2017,6,49.379369913552274,False,0.7986687142392721,True,0.11917280102187308,False,前期平均,42988611.49500001,53357500.0,53357500.0
15,600593,86838582.59,89533936.27,2017-09-30,三季度报告,83126132.71000001,2017,9,-0.3711194293179998,True,0.022384643973412128,True,0.266295322609827,False,平均增速,54185628.48537973,50333333.0,54185628.48537973
16,600593,52488687.77,55459773.85,2017-12-31,年度报告,48622857.13,2017,12,0.309496327962041,True,0.23708519845931528,True,0.0,True,比例外推,55459773.85,56352500.0,55459773.85
17,600593,-9855230.05,-8878437.540000001,2018-03-31,一季度报告,-10261674.85,2018,3,-4.844434438171569,False,-0.22568032700134438,True,0.012856212387603011,True,前期平均,36187708.730000004,66650000.0,66650000.0
18,600593,6864946.29,8261646.250000001,2018-06-30,半年度报告,5320511.19,2018,6,11.156292374104275,False,0.4015057240036768,True,0.021820303415090087,True,前期平均,40852749.960000016,70950000.0,70950000.0
19,600593,90150387.39,91320100.7,2018-09-30,三季度报告,87902469.24,2018,9,-0.5084610075738917,True,0.18723118680700182,True,0.15312894981240088,False,平均增速,52734934.892401576,67000000.0,67000000.0
20,600593,53116308.48,57656065.79000001,2018-12-31,年度报告,40872850.38,2018,12,-0.18678573987143152,True,0.32774573125962353,True,0.0,True,比例外推,57656065.79000001,,57656065.79000001
21,600593,-10073393.180000003,-8517026.9,2019-03-31,一季度报告,-8723726.96,2019,3,-5.3311570783677436,False,-0.10857403495042937,True,0.016651367293646552,True,前期平均,45026311.94000001,70000000.0,70000000.0
22,600593,5089709.17,7593516.479999999,2019-06-30,半年度报告,8021990.37,2019,6,5.21775431108289,False,2.150087034281885,False,0.02700236231982507,True,去年同期,43145855.67,64420000.0,64420000.0
23,600593,69869859.7,73040680.99000001,2019-09-30,三季度报告,66815335.99000002,2019,9,-0.5265184030175913,True,0.165392881454103,True,0.2476001819599134,False,平均增速,30536145.051545948,,30536145.051545948
24,600593,38135890.39,41761693.49000001,2019-12-31,年度报告,42798155.13999999,2019,12,-0.19639465521079835,True,0.2485492078386018,True,0.0,True,比例外推,41761693.49000001,,41761693.49000001
25,600593,-25073961.61,-23953494.15,2020-03-31,一季度报告,-30195963.94,2020,3,-5.237355638490026,False,-0.03871472611642362,True,0.026034714894491523,True,前期平均,31278291.06000001,未知,31278291.06000001
