,SECURITYCODE_x,NETPROFIT_x,PARENTNETPROFIT_x,REPORTDATE_x,REPORTTIMETYPE_x,KCFJCXSYJLR,Year,Month,managesituationChangeRate,managesituationGreatChange,historyprofitextroplaterate,ifhistoryprofitextroplate,IfprofitdisStableChangeRage,IfprofitdisStable,predicttype,predict,analyst_prediction,adj_prediction
0,600567,208237359.42999995,207871415.84,2013-12-31,年度报告,105080257.08,2013,12,未知,未知,未知,未知,未知,未知,未知,未知,未知,未知
1,600567,43112276.88,42907384.23,2014-03-31,一季度报告,29346311.129999995,2014,3,未知,未知,未知,未知,未知,未知,未知,未知,未知,未知
2,600567,98771634.84000003,98138082.41,2014-06-30,半年度报告,69279871.72999997,2014,6,未知,未知,未知,未知,未知,未知,未知,未知,未知,未知
3,600567,173279509.08,172969313.91,2014-09-30,三季度报告,130973680.34,2014,9,未知,未知,未知,未知,未知,未知,未知,未知,未知,未知
4,600567,110694573.3,109948396.06000005,2014-12-31,年度报告,42011776.51999999,2014,12,0.0,True,未知,未知,未知,未知,未知,未知,未知,未知
5,600567,53912497.12,54787646.11000001,2015-03-31,一季度报告,38560165.53,2015,3,3.8301174166610137,False,未知,未知,未知,未知,未知,未知,未知,未知
6,600567,133521724.32,133988821.16,2015-06-30,半年度报告,98158345.25,2015,6,1.1082708590105166,False,未知,未知,未知,未知,未知,未知,未知,未知
7,600567,205339411.98,206194095.7,2015-09-30,三季度报告,148730904.35,2015,9,0.20174255187819426,True,未知,未知,未知,未知,未知,未知,未知,未知
8,600567,207511417.36,209061869.64,2015-12-31,年度报告,142372262.58,2015,12,0.8811885101688174,False,未知,未知,未知,未知,未知,未知,未知,未知
9,600567,61191576.86,60503519.60000001,2016-03-31,一季度报告,40838978.06,2016,3,2.862506293605714,False,未知,未知,未知,未知,未知,未知,未知,未知
10,600567,152076927.98,149963625.20999998,2016-06-30,半年度报告,117002046.92999998,2016,6,0.5595766193891822,False,未知,未知,未知,未知,未知,未知,245000000.0,未知
11,600567,210467417.41000003,207019107.73,2016-09-30,三季度报告,150480618.64000002,2016,9,0.014112962641006383,True,未知,未知,未知,未知,未知,未知,324780000.0,未知
12,600567,358889645.66,352804009.83000004,2016-12-31,年度报告,281018057.54,2016,12,0.003498323510269976,True,0.30128968638379744,True,0.0,True,比例外推,352804009.83000004,323570769.0,352804009.83000004
13,600567,434665536.04,432878109.50000006,2017-03-31,一季度报告,430184093.2799999,2017,3,2.403039603088273,False,0.2613598432087046,True,0.3269620418361825,False,前期平均,491116890.72,967336364.0,967336364.0
14,600567,830185458.3399999,826230518.68,2017-06-30,半年度报告,804883720.78,2017,6,0.36928962332396503,True,0.30935235109542486,True,0.7307725295112971,False,平均增速,1610274073.7560234,1574564167.0,1610274073.7560234
15,600567,1436148027.64,1430813643.13,2017-09-30,三季度报告,1403567183.07,2017,9,-0.01059573974652725,True,0.11176386441948108,True,1.551649251611433,False,平均增速,2214597934.724923,1988348571.0,1988348571.0
16,600567,2020230712.49,2014518332.4,2017-12-31,年度报告,2000332070.51,2017,12,-0.4197732870028883,True,1.2557064052478515,True,0.0,True,比例外推,2014518332.4,1985712857.0,2014518332.4
17,600567,605766863.13,605396067.7799999,2018-03-31,一季度报告,489219785.26000017,2018,3,-0.5209250741912123,True,6.552565621882779,False,0.06508218980048758,True,比例外推,2441284787.7907715,2564237500.0,2441284787.7907715
18,600567,1707143582.6800005,1706002303.9800005,2018-06-30,半年度报告,1485814750.1400006,2018,6,-0.7491676620710972,True,4.813651091518124,False,0.1867237818590528,False,未知,未知,2973657692.0,未知
19,600567,2313938033.71,2317115430.220001,2018-09-30,三季度报告,1938563497.91,2018,9,-0.8550028580464694,True,5.9077654628562435,False,0.2840577569017474,False,未知,未知,2871839375.0,未知
20,600567,3436700872.9999995,3203863329.150001,2018-12-31,年度报告,2676772800.4600005,2018,12,-0.8969239710382678,True,6.133569636039558,False,0.0,True,比例外推,3203863329.150001,2871839375.0,2871839375.0
21,600567,450389474.06,458101888.9200001,2019-03-31,一季度报告,344713356.08,2019,3,-0.6562417456213491,True,1.443312185589906,True,0.035723637294134386,True,比例外推,2017369506.0090592,3114190000.0,3114190000.0
22,600567,912915595.67,925163014.9400002,2019-06-30,半年度报告,805479873.39,2019,6,-0.8780200086608453,True,2.475942083205963,False,0.09714270459462931,True,比例外推,1878625540.087688,1843225000.0,1878625540.087688
23,600567,1298800944.16,1324647436.5900002,2019-09-30,三季度报告,1079435156.35,2019,9,-0.910007374270033,True,1.8105384783873886,True,0.1183053853009528,False,平均增速,3090807771.537346,1918397000.0,1918397000.0
24,600567,1352133763.44,1362183452.27,2019-12-31,年度报告,1258676987.51,2019,12,-0.9394077729993932,True,1.889051712938451,True,0.0,True,比例外推,1362183452.27,1918330833.0,1918330833.0
25,600567,229203781.07,230448805.84,2020-03-31,一季度报告,271029828.63000005,2020,3,-0.5376504749259328,True,0.1342263573889163,True,0.04997269055155176,True,比例外推,1169930708.0224173,1562467143.0,1562467143.0
