,SECURITYCODE_x,NETPROFIT_x,PARENTNETPROFIT_x,REPORTDATE_x,REPORTTIMETYPE_x,KCFJCXSYJLR,Year,Month,managesituationChangeRate,managesituationGreatChange,historyprofitextroplaterate,ifhistoryprofitextroplate,IfprofitdisStableChangeRage,IfprofitdisStable,predicttype,predict,analyst_prediction,adj_prediction
0,600590,19649336.259999994,14673950.88,2013-12-31,年度报告,-3901044.1,2013,12,未知,未知,未知,未知,未知,未知,未知,未知,未知,未知
1,600590,-28104545.48,-27769663.02,2014-03-31,一季度报告,-28632336.91,2014,3,未知,未知,未知,未知,未知,未知,未知,未知,未知,未知
2,600590,-39433017.219999984,-38870285.95,2014-06-30,半年度报告,-46509479.17,2014,6,未知,未知,未知,未知,未知,未知,未知,未知,未知,未知
3,600590,-28134864.9,-26491093.08000001,2014-09-30,三季度报告,-36544873.47000001,2014,9,未知,未知,未知,未知,未知,未知,未知,未知,未知,未知
4,600590,58178899.76000001,58595890.60999999,2014-12-31,年度报告,38567766.24,2014,12,0.0,True,未知,未知,未知,未知,未知,未知,未知,未知
5,600590,2819167.2700000005,3360516.22,2015-03-31,一季度报告,936697.76,2015,3,-1.6991515402368995,False,未知,未知,未知,未知,未知,未知,121000000.0,未知
6,600590,12108137.8,13409867.11,2015-06-30,半年度报告,9859066.07,2015,6,-1.4982965455160269,False,未知,未知,未知,未知,未知,未知,123570000.0,未知
7,600590,36435024.7,30174789.58000001,2015-09-30,三季度报告,23737533.38,2015,9,-1.6983981024909773,False,未知,未知,未知,未知,未知,未知,120025800.0,未知
8,600590,100856975.22,86000978.61,2015-12-31,年度报告,77448799.66,2015,12,-0.6622600918708059,True,未知,未知,未知,未知,未知,未知,120683866.99999999,未知
9,600590,22488670.37,17606183.969999995,2016-03-31,一季度报告,11104552.37,2016,3,5.969907911849442,False,未知,未知,未知,未知,未知,未知,171236667.00000003,未知
10,600590,44176033.04,36769495.03,2016-06-30,半年度报告,11387127.47,2016,6,0.6228206669402121,False,未知,未知,未知,未知,未知,未知,173275000.0,未知
11,600590,74789037.43,67332026.35,2016-09-30,三季度报告,24811149.79000001,2016,9,-0.46070199150983443,True,未知,未知,未知,未知,未知,未知,168500000.0,未知
12,600590,137358560.71,123829229.3,2016-12-31,年度报告,102933061.59,2016,12,-0.805176228841498,True,1.591783660472072,True,0.0,True,比例外推,123829229.3,234326667.00000003,234326667.00000003
13,600590,24750093.23,24456460.49,2017-03-31,一季度报告,19108097.41,2017,3,-0.12625620204686236,True,-2.7787885301320947,True,0.534918794068571,False,平均增速,180074977.0487884,未知,180074977.0487884
14,600590,69134613.94,67573110.88000001,2017-06-30,半年度报告,20891316.57,2017,6,-0.5552036951301593,True,-4.233392715919258,True,0.883252003624871,False,平均增速,227926241.27907127,221950000.0,227926241.27907127
15,600590,122359099.16,120512479.34000002,2017-09-30,三季度报告,32359785.37,2017,9,-0.7372698334513116,True,17.02110784180323,False,0.8142113802567086,False,未知,未知,214395000.0,未知
16,600590,259325322.37,251934744.63,2017-12-31,年度报告,151376547.78999996,2017,12,-0.8569485865428883,True,0.7273908887195911,True,0.0,True,比例外推,251934744.63,205596667.00000003,205596667.00000003
17,600590,42992130.14,45412104.83999999,2018-03-31,一季度报告,37490774.02,2018,3,-0.20609041439154233,True,0.9559231872802547,True,0.06997379605964134,True,比例外推,464745897.912099,309000000.0,309000000.0
18,600590,111417526.88,115343463.78,2018-06-30,半年度报告,102960617.19,2018,6,-0.7157815001751062,True,1.4566272509025735,True,0.014684577322682496,True,比例外推,834022835.5614109,317997500.0,317997500.0
19,600590,161098086.24999997,161043266.33999997,2018-09-30,三季度报告,146492321.01000002,2018,9,-0.839412545573697,True,1.2002271238211966,True,0.052724913138904206,True,比例外推,591818896.885458,314746667.0,314746667.0
20,600590,274164137.72,262178814.1900001,2018-12-31,年度报告,239472747.82,2018,12,-0.9242290105708816,True,1.1772326591343996,True,0.0,True,比例外推,262178814.1900001,244000000.0,262178814.1900001
21,600590,52131005.36,55333960.28,2019-03-31,一季度报告,74186100.9,2019,3,-0.5429550432599245,True,0.8202055627044396,True,0.026333590479442115,True,比例外推,550837747.505904,312290000.0,312290000.0
22,600590,111981326.30000004,110143230.26,2019-06-30,半年度报告,127282192.28000002,2019,6,-0.8236423226198252,True,0.9665853094928645,True,0.20375292098705242,False,平均增速,298702061.0432147,,298702061.0432147
23,600590,162718242.23999998,143297081.08,2019-09-30,三季度报告,156526324.11,2019,9,-0.8780287418839527,True,0.634284645408831,True,0.25621513295157916,False,平均增速,263929617.6173147,313290000.0,313290000.0
24,600590,150755481.39,144049459.20999998,2019-12-31,年度报告,80814795.27000001,2019,12,-0.9283300273208323,True,0.3822801954608718,True,0.0,True,比例外推,144049459.20999998,310720000.0,310720000.0
25,600590,14590375.46,11942687.09,2020-03-31,一季度报告,-6010533.020000001,2020,3,-0.6230777418484839,True,0.5390993317496127,True,0.5177230124508851,False,平均增速,14855000.085239349,未知,14855000.085239349
