,SECURITYCODE_x,NETPROFIT_x,PARENTNETPROFIT_x,REPORTDATE_x,REPORTTIMETYPE_x,KCFJCXSYJLR,Year,Month,managesituationChangeRate,managesituationGreatChange,historyprofitextroplaterate,ifhistoryprofitextroplate,IfprofitdisStableChangeRage,IfprofitdisStable,predicttype,predict,analyst_prediction,adj_prediction
0,600560,65910603.48,62537801.68,2013-12-31,年度报告,47399022.74,2013,12,未知,未知,未知,未知,未知,未知,未知,未知,未知,未知
1,600560,13096071.589999998,12223257.34,2014-03-31,一季度报告,10730426.750000002,2014,3,未知,未知,未知,未知,未知,未知,未知,未知,未知,未知
2,600560,20797015.93,19074801.5,2014-06-30,半年度报告,15556149.419999998,2014,6,未知,未知,未知,未知,未知,未知,未知,未知,未知,未知
3,600560,32888216.53,30051660.19,2014-09-30,三季度报告,26090150.270000003,2014,9,未知,未知,未知,未知,未知,未知,未知,未知,未知,未知
4,600560,20498790.06,17591460.810000002,2014-12-31,年度报告,14599253.13,2014,12,0.0,True,未知,未知,未知,未知,未知,未知,未知,未知
5,600560,8596953.059999999,7925579.699999997,2015-03-31,一季度报告,6928387.32,2015,3,4.0328530221481484,False,未知,未知,未知,未知,未知,未知,36000000.0,未知
6,600560,14901951.849999998,13492629.71,2015-06-30,半年度报告,9492926.09,2015,6,2.1692336872677482,False,未知,未知,未知,未知,未知,未知,,未知
7,600560,20882750.97,19273078.870000005,2015-09-30,三季度报告,13781219.82,2015,9,1.0040795894139656,False,未知,未知,未知,未知,未知,未知,未知,未知
8,600560,20882750.97,19273078.870000005,2015-09-30,三季度报告,13781219.83,2015,9,1.0040795894139656,False,未知,未知,未知,未知,未知,未知,未知,未知
9,600560,19685069.17,18195330.26,2015-12-31,年度报告,7713088.949999997,2015,12,2.2153411634091347,False,未知,未知,未知,未知,未知,未知,未知,未知
10,600560,8536009.53,7986216.04,2016-03-31,一季度报告,7307700.72,2016,3,6.6667399507704195,False,未知,未知,未知,未知,未知,未知,未知,未知
11,600560,14921726.88,14616978.409999998,2016-06-30,半年度报告,12318625.159999998,2016,6,3.4229510431547934,False,未知,未知,未知,未知,未知,未知,21000000.0,未知
12,600560,15180216.529999996,14688017.329999998,2016-09-30,三季度报告,11578594.22,2016,9,2.156222260883476,False,未知,未知,0.0,True,未知,未知,,未知
13,600560,20526653.790000007,19854084.28,2016-12-31,年度报告,13466942.84,2016,12,2.348253588077181,False,0.5443766386142374,True,0.1826607135156887,False,前期平均,19854084.28,未知,19854084.28
14,600560,6557784.03,6374774.449999997,2017-03-31,一季度报告,6291291.360000001,2017,3,6.721477260346967,False,0.21301803987946882,True,0.16041200898214325,False,前期平均,8701538.454999994,22000000.0,22000000.0
15,600560,12196043.19,11391638.1,2017-06-30,半年度报告,10581559.46,2017,6,3.41708952389028,False,0.16402474312662044,True,0.6180872281506474,False,前期平均,10023271.385,,10023271.385
16,600560,17175277.68,16501501.06,2017-09-30,三季度报告,13753148.519999996,2017,9,3.3418750549271654,False,0.43537499004458136,True,0.0,True,前期平均,7721987.054999998,未知,7721987.054999998
17,600560,22091154.26,20206690.25,2017-12-31,年度报告,14532087.870000005,2017,12,2.210976526145228,False,0.02163675581838855,True,0.273654411686995,False,前期平均,20206690.25,未知,20206690.25
18,600560,4701332.6,4427260.21,2018-03-31,一季度报告,4232002.73,2018,3,9.050743235592648,False,0.23448335387977967,True,0.272876289200761,False,前期平均,7899232.084999998,未知,7899232.084999998
19,600560,10924254.739999998,10169645.249999998,2018-06-30,半年度报告,8542749.93,2018,6,4.404261238927279,False,0.18212348648110582,True,0.5890951949778231,False,前期平均,9853885.519999998,未知,9853885.519999998
20,600560,18366460.720000006,17243599.659999996,2018-09-30,三季度报告,14917501.55,2018,9,2.837527678329798,False,0.047483949844116226,True,0.0,True,前期平均,15153708.534999995,未知,15153708.534999995
21,600560,23320432.2,21006003.05,2018-12-31,年度报告,13201848.170000002,2018,12,1.9835744526642038,False,0.0987419903382323,True,0.11148042207795245,False,前期平均,21006003.05,未知,21006003.05
22,600560,6991078.16,5640456.97,2019-03-31,一季度报告,4410472.01,2019,3,13.019557663288914,False,0.37705089428823485,True,0.1514074963984301,False,前期平均,12840476.285,未知,12840476.285
23,600560,21711537.8,20898514.700000007,2019-06-30,半年度报告,13347118.04,2019,6,5.0334187593285655,False,0.19431024661682308,True,0.15124448681430736,False,前期平均,23447937.74500001,未知,23447937.74500001
24,600560,25908711.45,25232064.809999995,2019-09-30,三季度报告,15187775.42,2019,9,2.5886393401983643,False,0.1352916200750568,True,0.0,True,前期平均,26565708.794999998,未知,26565708.794999998
25,600560,27717329.639999993,27849735.53,2019-12-31,年度报告,12919750.54,2019,12,1.8263028281268305,False,0.09439848115323203,True,0.06797082079077937,True,前期平均,27849735.53,未知,27849735.53
26,600560,7450261.57,6941824.520000001,2020-03-31,一季度报告,5778265.3,2020,3,8.427816707459039,False,0.2418519835512177,True,未知,未知,前期平均,15547145.495000003,未知,15547145.495000003
