,SECURITYCODE_x,NETPROFIT_x,PARENTNETPROFIT_x,REPORTDATE_x,REPORTTIMETYPE_x,KCFJCXSYJLR,Year,Month,managesituationChangeRate,managesituationGreatChange,historyprofitextroplaterate,ifhistoryprofitextroplate,IfprofitdisStableChangeRage,IfprofitdisStable,predicttype,predict,analyst_prediction,adj_prediction
0,600535,1164075662.0,1098019929.97,2013-12-31,年度报告,1020384030.8900002,2013,12,未知,未知,未知,未知,未知,未知,未知,未知,未知,未知
1,600535,346230340.43000007,284467639.5,2014-03-31,一季度报告,277021552.98,2014,3,未知,未知,未知,未知,未知,未知,未知,未知,未知,未知
2,600535,818721065.4199997,744496202.21,2014-06-30,半年度报告,736881981.07,2014,6,未知,未知,未知,未知,未知,未知,未知,未知,未知,未知
3,600535,1226480772.89,1140188413.72,2014-09-30,三季度报告,1125852129.67,2014,9,未知,未知,未知,未知,未知,未知,未知,未知,未知,未知
4,600535,1450376522.62,1368270769.27,2014-12-31,年度报告,1346020383.83,2014,12,0.0,True,未知,未知,未知,未知,未知,未知,未知,未知
5,600535,357530316.86,345517791.15000004,2015-03-31,一季度报告,334321041.58,2015,3,2.3621422679314543,False,未知,未知,未知,未知,未知,未知,1734297000.0,未知
6,600535,860637982.8299999,830078837.1800001,2015-06-30,半年度报告,812012217.6300001,2015,6,0.4218220480290624,True,未知,未知,未知,未知,未知,未知,1621773333.0,未知
7,600535,1263419084.3500006,1218649015.62,2015-09-30,三季度报告,1195838153.7999995,2015,9,-0.05088144247296493,True,未知,未知,未知,未知,未知,未知,1575666667.0,未知
8,600535,1523669909.51,1478548986.2000005,2015-12-31,年度报告,1419130378.6599998,2015,12,-0.19739761100298162,True,未知,未知,未知,未知,未知,未知,1541857143.0,未知
9,600535,284951397.14,277042938.29,2016-03-31,一季度报告,269806347.47,2016,3,2.2558795914804146,False,未知,未知,未知,未知,未知,未知,1649150178.0,未知
10,600535,706671182.58,684784938.6599997,2016-06-30,半年度报告,671006327.5800003,2016,6,0.35257295776351705,True,未知,未知,未知,未知,未知,未知,1601818571.0,未知
11,600535,1035209364.86,1003107879.2600002,2016-09-30,三季度报告,984770806.67,2016,9,-0.0786306171725358,True,未知,未知,未知,未知,未知,未知,1497264174.0,未知
12,600535,1219233299.3200002,1176424939.73,2016-12-31,年度报告,1155186396.18,2016,12,-0.23600534818308685,True,0.16557489058187483,True,0.0,True,比例外推,1176424939.73,1463925333.0,1463925333.0
13,600535,322624371.35,318149783.72,2017-03-31,一季度报告,310794426.05999994,2017,3,3.085172677458661,False,0.19020367453539114,True,0.019175604880054847,True,前期平均,1395053867.685,1473154118.0,1395053867.685
14,600535,768913315.8100001,756227406.3600001,2017-06-30,半年度报告,740876914.7800001,2017,6,0.647266353426289,False,0.15840369774837965,True,0.019383161339592614,True,前期平均,1364355688.2549999,1390752857.0,1364355688.2549999
15,600535,1154015142.41,1138535922.9300005,2017-09-30,三季度报告,1114320356.5100002,2017,9,0.1244833185579109,True,0.16847309191984383,True,0.008623288972636312,True,比例外推,1344727912.875167,1422736000.0,1344727912.875167
16,600535,1402261843.56,1376542191.2800002,2017-12-31,年度报告,1315819455.7000005,2017,12,-0.045239608654687416,True,0.18008455675200055,True,0.0,True,比例外推,1376542191.2800002,1725911332.9999998,1725911332.9999998
17,600535,376500695.1900001,371514660.95,2018-03-31,一季度报告,359290352.68,2018,3,2.6081454638067285,False,0.004306782029285969,True,0.0015527512971242885,True,前期平均,1356609353.845,1594111500.0,1594111500.0
18,600535,941267737.43,925001185.38,2018-06-30,半年度报告,832645884.8199997,2018,6,0.5139231407037375,False,0.018810924124397145,True,0.008982290726995523,True,前期平均,1470650300.1949997,1604530000.0,1470650300.1949997
19,600535,1392587758.2,1369017520.7999995,2018-09-30,三季度报告,1249394385.5900002,2018,9,0.008717840191411976,True,0.004090193703654415,True,0.0051453052649731434,True,比例外推,1594126155.8379726,1614664375.0,1594126155.8379726
20,600535,1591931837.1500006,1545167982.9400005,2018-12-31,年度报告,1343882921.7100005,2018,12,-0.16985856290242018,True,0.022465422072361244,True,0.0,True,比例外推,1545167982.9400005,1621066395.0,1545167982.9400005
21,600535,452646421.99000007,448188108.6999999,2019-03-31,一季度报告,396225252.04999983,2019,3,2.0918287187027698,False,0.23935388709036998,True,0.021648527865522404,True,前期平均,1393390647.8750002,1768696154.0,1768696154.0
22,600535,904247361.4599998,898503656.5100002,2019-06-30,半年度报告,836338930.1199999,2019,6,0.23671046580045968,True,0.27578967989567604,True,0.03174885946623618,True,比例外推,1484913195.8602295,1657926000.0,1657926000.0
23,600535,1147015795.78,1132040955.8499994,2019-09-30,三季度报告,1069685845.3199996,2019,9,-0.16409170255479275,True,0.2722201433205958,True,0.05334593105715857,True,比例外推,1282978378.7111773,1531612375.0,1531612375.0
24,600535,1003167394.61,1001424997.62,2019-12-31,年度报告,946361127.0000002,2019,12,-0.26876538628436614,True,0.2145220573638666,True,0.0,True,比例外推,1001424997.62,1448990576.0,1448990576.0
25,600535,292398899.13,294865469.78,2020-03-31,一季度报告,281705650.84000003,2020,3,1.571710733694294,False,0.2948939857933189,True,0.1112716875610914,False,前期平均,1289674269.1150005,1123002784.0,1123002784.0
