,SECURITYCODE_x,NETPROFIT_x,PARENTNETPROFIT_x,REPORTDATE_x,REPORTTIMETYPE_x,KCFJCXSYJLR,Year,Month,managesituationChangeRate,managesituationGreatChange,historyprofitextroplaterate,ifhistoryprofitextroplate,IfprofitdisStableChangeRage,IfprofitdisStable,predicttype,predict,analyst_prediction,adj_prediction
0,600529,122333707.19,122333707.19,2013-12-31,年度报告,119348682.23000002,2013,12,未知,未知,未知,未知,未知,未知,未知,未知,未知,未知
1,600529,29899737.94,29899737.94,2014-03-31,一季度报告,29779983.27,2014,3,未知,未知,未知,未知,未知,未知,未知,未知,未知,未知
2,600529,67418001.79,67418001.79,2014-06-30,半年度报告,67402981.88000001,2014,6,未知,未知,未知,未知,未知,未知,未知,未知,未知,未知
3,600529,96590839.37,97060882.81999996,2014-09-30,三季度报告,97355480.81,2014,9,未知,未知,未知,未知,未知,未知,未知,未知,未知,未知
4,600529,123636422.26000002,124702667.08,2014-12-31,年度报告,126377897.68,2014,12,0.0,True,未知,未知,未知,未知,未知,未知,未知,未知
5,600529,32196707.39,32394698.17999999,2015-03-31,一季度报告,32188025.0,2015,3,3.091464193950056,False,未知,未知,未知,未知,未知,未知,未知,未知
6,600529,72600584.83000001,72793398.32,2015-06-30,半年度报告,72381856.67999999,2015,6,0.8145555184364058,False,未知,未知,未知,未知,未知,未知,未知,未知
7,600529,113033057.51,113344265.31999998,2015-09-30,三季度报告,115362255.18000002,2015,9,0.2665145886287373,True,未知,未知,未知,未知,未知,未知,未知,未知
8,600529,144672474.35,145407381.83,2015-12-31,年度报告,147177391.74,2015,12,-0.010536661011271344,True,未知,未知,未知,未知,未知,未知,未知,未知
9,600529,38498722.27,38646015.52,2016-03-31,一季度报告,40071516.62000001,2016,3,2.7995719782202237,False,未知,未知,未知,未知,未知,未知,179000000.0,未知
10,600529,85611680.67,86169998.97,2016-06-30,半年度报告,95422521.41,2016,6,0.6850237153936708,False,未知,未知,未知,未知,未知,未知,177480000.0,未知
11,600529,129166797.51000002,129915896.9,2016-09-30,三季度报告,141687768.60999998,2016,9,0.08228256303849134,True,未知,未知,未知,未知,未知,未知,165000000.0,未知
12,600529,189046608.35,189604926.65000004,2016-12-31,年度报告,201597553.01,2016,12,-0.15440924239642687,True,0.17634181576026312,True,0.0,True,比例外推,189604926.65000004,179666667.00000003,189604926.65000004
13,600529,64779717.18999999,64779717.18999999,2017-03-31,一季度报告,63453609.24000001,2017,3,2.177604345724692,False,0.23996541397517077,True,0.01893495461001407,True,前期平均,170573357.765,267390000.0,267390000.0
14,600529,132114235.44,132114235.44,2017-06-30,半年度报告,127532910.6,2017,6,0.42893710569179505,True,0.22286166053573608,True,0.03385251673953721,True,比例外推,259906462.9792451,274083333.0,259906462.9792451
15,600529,199570402.81000003,199570402.81000003,2017-09-30,三季度报告,190079419.68000004,2017,9,-0.052901290824919685,True,0.2323671053967864,True,0.04951126300911124,True,比例外推,262143245.96620432,277940000.0,262143245.96620432
16,600529,262758070.99000004,262758070.99000004,2017-12-31,年度报告,244976050.29,2017,12,-0.3528912882503983,True,0.40917137477396737,True,0.0,True,比例外推,262758070.99000004,283000000.0,262758070.99000004
17,600529,83066487.36,83066487.36,2018-03-31,一季度报告,77422719.88999999,2018,3,0.8884569506716615,False,0.8326422938950703,True,0.0335223975807728,True,前期平均,221324188.925,337782000.0,337782000.0
18,600529,167592596.44000003,167592596.44000003,2018-06-30,半年度报告,168925520.03,2018,6,-0.0740308432125155,True,0.6700884096751651,True,0.025351638500970608,True,比例外推,339764171.21120125,333000000.0,339764171.21120125
19,600529,262405360.36999995,262405360.36999995,2018-09-30,三季度报告,260475866.73,2018,9,-0.38701478041076476,True,0.6479811913472878,True,0.05136396266399301,True,比例外推,347301719.6128342,342666667.0,347301719.6128342
20,600529,358209968.42000014,358209968.42000014,2018-12-31,年度报告,342897951.96000016,2018,12,-0.5344245498184688,True,0.5747260771791642,True,0.0,True,比例外推,358209968.42000014,342000000.0,358209968.42000014
21,600529,110877096.5,110877096.5,2019-03-31,一季度报告,102316516.4,2019,3,0.4727203602557632,True,0.6085929995518932,True,0.03116001320801895,True,比例外推,457593680.9518262,466500000.0,457593680.9518262
22,600529,217940336.96,217940336.96,2019-06-30,半年度报告,219739375.07,2019,6,-0.27005303462914726,True,0.5394822943845462,True,0.02507140806778746,True,比例外推,441651275.90653694,463400000.0,441651275.90653694
23,600529,341150751.93999994,341150751.93999994,2019-09-30,三季度报告,332935302.31,2019,9,-0.5337987493185903,True,0.5964445770942185,True,0.04329712978865674,True,比例外推,454436462.15200293,461920000.0,454436462.15200293
24,600529,458687262.41,458687262.41,2019-12-31,年度报告,450719074.05,2019,12,-0.6584860334021635,True,0.5856850749898216,True,0.0,True,比例外推,458687262.41,462085714.0,458687262.41
25,600529,135967095.99,135967095.99,2020-03-31,一季度报告,132939946.61,2020,3,0.10332711670529718,True,0.49989777333110463,True,0.021747534643673766,True,比例外推,563311909.3001443,583792857.0,563311909.3001443
