,SECURITYCODE_x,NETPROFIT_x,PARENTNETPROFIT_x,REPORTDATE_x,REPORTTIMETYPE_x,KCFJCXSYJLR,Year,Month,managesituationChangeRate,managesituationGreatChange,historyprofitextroplaterate,ifhistoryprofitextroplate,IfprofitdisStableChangeRage,IfprofitdisStable,predicttype,predict,analyst_prediction,adj_prediction
0,600561,169635386.27000004,135641211.67000002,2013-12-31,年度报告,97189634.91,2013,12,未知,未知,未知,未知,未知,未知,未知,未知,未知,未知
1,600561,51525365.29999999,42533492.21,2014-03-31,一季度报告,36017327.17,2014,3,未知,未知,未知,未知,未知,未知,未知,未知,未知,未知
2,600561,78395796.04999998,63089887.91,2014-06-30,半年度报告,49565000.92000001,2014,6,未知,未知,未知,未知,未知,未知,未知,未知,未知,未知
3,600561,110289996.99,86316220.14,2014-09-30,三季度报告,65029409.95000001,2014,9,未知,未知,未知,未知,未知,未知,未知,未知,未知,未知
4,600561,191673193.29,148828863.95,2014-12-31,年度报告,124332043.21,2014,12,0.0,True,未知,未知,未知,未知,未知,未知,未知,未知
5,600561,47319908.45999999,36237327.74,2015-03-31,一季度报告,26170604.72,2015,3,2.2922694537402935,False,未知,未知,未知,未知,未知,未知,143000000.0,未知
6,600561,59828666.17999998,45186003.09,2015-06-30,半年度报告,28794116.21,2015,6,1.163832690235181,False,未知,未知,未知,未知,未知,未知,,未知
7,600561,75867065.52999999,49691337.25,2015-09-30,三季度报告,32670123.34,2015,9,0.5380849659954284,False,未知,未知,未知,未知,未知,未知,119250000.0,未知
8,600561,117148229.57,77137029.28999999,2015-12-31,年度报告,24330209.029999994,2015,12,-0.11497594755807572,True,未知,未知,未知,未知,未知,未知,,未知
9,600561,20618618.25,13619329.069999995,2016-03-31,一季度报告,12347979.819999995,2016,3,2.5848629422729035,False,未知,未知,未知,未知,未知,未知,90000000.0,未知
10,600561,9567973.569999997,47536.75000000001,2016-06-30,半年度报告,-2103519.160000001,2016,6,1.8353529687530818,False,未知,未知,未知,未知,未知,未知,,未知
11,600561,14725679.770000005,32585.67,2016-09-30,三季度报告,-12832080.21,2016,9,1.2359555504742885,False,未知,未知,未知,未知,未知,未知,未知,未知
12,600561,-75942636.23999998,-97636711.18,2016-12-31,年度报告,-148075547.10000002,2016,12,0.4480405456630244,True,0.3515336407861525,True,0.0,True,比例外推,-97636711.18,164000000.0,164000000.0
13,600561,2812647.7299999995,-6044148.540000001,2017-03-31,一季度报告,-6277259.060000001,2017,3,7.2272916746009415,False,0.5828102353166066,True,0.648329316878623,False,盈利变化,-122470363.02,74790000.0,74790000.0
14,600561,45095812.31,9150024.06,2017-06-30,半年度报告,-2840996.01,2017,6,16.729499880924116,False,0.8615588960790562,True,0.6513625407269078,False,前期平均,44301591.614999995,,44301591.614999995
15,600561,52521065.22,10732429.85,2017-09-30,三季度报告,-7893774.64,2017,9,10.5196981680663,False,0.8417929508485026,True,0.6919570836535766,False,前期平均,36213789.32499999,未知,36213789.32499999
16,600561,73627438.75999998,20351377.9,2017-12-31,年度报告,-17341875.8,2017,12,-3.2337305454330654,False,1.4918223323802737,True,0.0,True,前期平均,20351377.9,未知,20351377.9
17,600561,11380147.120000005,3824726.24,2018-03-31,一季度报告,4337235.06,2018,3,59.311636064712616,False,0.9172002141875708,True,0.6242344612761612,False,前期平均,-77307235.06500001,未知,-77307235.06500001
18,600561,44907272.94000001,33060058.33,2018-06-30,半年度报告,-35648279.370000005,2018,6,2.7616660523572247,False,0.29965406026737834,True,0.7296383334432974,False,前期平均,-42157909.23000002,未知,-42157909.23000002
19,600561,28324479.83,17490475.380000006,2018-09-30,三季度报告,-53856166.70000001,2018,9,2.229854260560636,False,0.1594982588523013,True,0.714571892968512,False,前期平均,-54301215.22,未知,-54301215.22
20,600561,44970161.27,25154099.56000001,2018-12-31,年度报告,-86214217.83999999,2018,12,1.3039696766167952,False,2.5736623506593226,False,0.0,True,去年同期,25154099.56000001,未知,25154099.56000001
21,600561,15645952.05,2299113.25,2019-03-31,一季度报告,601730.91,2019,3,13.906255998384665,False,0.028635744247566725,True,0.28587990739878394,False,前期平均,-83444958.58000001,未知,-83444958.58000001
22,600561,28568934.03,14485634.169999994,2019-06-30,半年度报告,-32597218.15,2019,6,2.7774590876771237,False,0.6430355935676373,True,0.21631375168134281,False,前期平均,-65750819.695000015,未知,-65750819.695000015
23,600561,22322659.99,5272860.739999998,2019-09-30,三季度报告,-57216857.8,2019,9,4.989002703249293,False,0.15759551382860193,True,0.302182069074282,False,前期平均,-67072923.28500001,未知,-67072923.28500001
24,600561,-219911002.29,-239778366.59,2019-12-31,年度报告,-349901872.45,2019,12,2.7721765161461698,False,-39.84779735506616,True,0.0,True,盈利变化,-62741785.309999995,未知,-62741785.309999995
25,600561,-184257973.34000003,-159034812.36,2020-03-31,一季度报告,-158799274.76000002,2020,3,9.842126176016244,False,1.2047739314712909,True,0.2586565686674308,False,盈利变化,-452313040.8166667,未知,-452313040.8166667
