,SECURITYCODE_x,NETPROFIT_x,PARENTNETPROFIT_x,REPORTDATE_x,REPORTTIMETYPE_x,KCFJCXSYJLR,Year,Month,managesituationChangeRate,managesituationGreatChange,historyprofitextroplaterate,ifhistoryprofitextroplate,IfprofitdisStableChangeRage,IfprofitdisStable,predicttype,predict,analyst_prediction,adj_prediction
0,600611,479961111.66000015,408210065.5,2013-12-31,年度报告,260212048.76,2013,12,未知,未知,未知,未知,未知,未知,未知,未知,未知,未知
1,600611,92948616.35,75094432.56,2014-03-31,一季度报告,63880980.57000001,2014,3,未知,未知,未知,未知,未知,未知,未知,未知,未知,未知
2,600611,245052963.07,208283675.31000003,2014-06-30,半年度报告,151336271.01000002,2014,6,未知,未知,未知,未知,未知,未知,未知,未知,未知,未知
3,600611,412188066.64,357477348.99,2014-09-30,三季度报告,210963731.21,2014,9,未知,未知,未知,未知,未知,未知,未知,未知,未知,未知
4,600611,496449283.6400001,423293139.3799999,2014-12-31,年度报告,257669104.24000004,2014,12,0.0,True,未知,未知,未知,未知,未知,未知,未知,未知
5,600611,139530084.89,128522791.96,2015-03-31,一季度报告,62779411.69999998,2015,3,4.163725190407315,False,未知,未知,未知,未知,未知,未知,,未知
6,600611,275075276.90000004,248131751.92,2015-06-30,半年度报告,136605363.32999998,2015,6,0.9586015433035104,False,未知,未知,未知,未知,未知,未知,未知,未知
7,600611,459830375.2000001,413124072.82000005,2015-09-30,三季度报告,204936654.11999995,2015,9,0.16442262769143268,True,未知,未知,未知,未知,未知,未知,未知,未知
8,600611,561567193.6300001,511960908.87,2015-12-31,年度报告,299379810.68999994,2015,12,-0.03321219815065006,True,未知,未知,未知,未知,未知,未知,574000000.0,未知
9,600611,109006025.1,92508935.24,2016-03-31,一季度报告,57796319.26,2016,3,2.4398396018921837,False,未知,未知,未知,未知,未知,未知,589400000.0,未知
10,600611,276621608.94000006,259721785.42,2016-06-30,半年度报告,167994811.92,2016,6,0.7448355121877552,False,未知,未知,未知,未知,未知,未知,544000000.0,未知
11,600611,457850724.66,433990342.96,2016-09-30,三季度报告,199501425.04,2016,9,0.043778613910062616,True,未知,未知,未知,未知,未知,未知,,未知
12,600611,620236655.5000002,558851620.9100001,2016-12-31,年度报告,351068089.27,2016,12,-0.145318463926808,True,0.15026877291174207,True,0.0,True,比例外推,558851620.9100001,未知,558851620.9100001
13,600611,196793047.01999995,185183473.61000004,2017-03-31,一季度报告,111008044.66,2017,3,3.4030695662895076,False,0.06222785555337952,True,0.04278566524280503,True,前期平均,400377734.94000006,584600000.0,584600000.0
14,600611,300089513.0700002,273613315.48,2017-06-30,半年度报告,197358180.24,2017,6,0.7350817728925326,False,0.0636669485815846,True,0.07994551827006902,True,前期平均,408166955.77500004,,408166955.77500004
15,600611,609148585.79,568247403.37,2017-09-30,三季度报告,232135405.15,2017,9,0.04829169379696689,True,0.050094132628464474,True,0.12822356018628,False,平均增速,744886360.1158534,未知,744886360.1158534
16,600611,927289421.5099998,872602305.4899999,2017-12-31,年度报告,302733298.33,2017,12,-0.22616454960553364,True,0.17245178846438536,True,0.0,True,比例外推,872602305.4899999,未知,872602305.4899999
17,600611,166702282.14999998,156026030.70000005,2018-03-31,一季度报告,144048416.35000002,2018,3,1.4389129541310575,False,0.5836173425899203,True,0.1196812424562089,False,前期平均,420962115.20000005,未知,420962115.20000005
18,600611,302420037.1,279361636.91,2018-06-30,半年度报告,272504165.09,2018,6,0.5993931502299528,False,0.08787821998701782,True,0.1230075090571855,False,前期平均,452285499.265,未知,452285499.265
19,600611,615015476.67,577613508.54,2018-09-30,三季度报告,414626534.0,2018,9,-0.21207875573158821,True,0.3275822851378995,True,0.10493197586198055,False,平均增速,676578582.4423254,未知,676578582.4423254
20,600611,938756061.74,881552442.2500002,2018-12-31,年度报告,495897133.7200002,2018,12,-0.48240419816454866,True,0.5692780526863835,True,0.0,True,比例外推,881552442.2500002,未知,881552442.2500002
21,600611,476942585.0599999,450990003.7199999,2019-03-31,一季度报告,50029957.85,2019,3,1.8791514157444318,False,0.09027330262521926,True,0.10930216498486728,False,前期平均,693488515.56,未知,693488515.56
22,600611,585173080.5900003,545214164.63,2019-06-30,半年度报告,182164757.35,2019,6,0.5870678287804499,False,0.04877476975294411,True,0.0919331702795616,True,前期平均,689438362.3499999,922000000.0,922000000.0
23,600611,747345855.0200001,692485974.2,2019-09-30,三季度报告,252548159.41000003,2019,9,-0.2195950673326977,True,0.1527945156977115,True,0.1554575335308056,False,平均增速,768038834.228892,,768038834.228892
24,600611,1032318933.26,981224852.43,2019-12-31,年度报告,255633848.07,2019,12,-0.4887264847372764,True,0.21323456281109743,True,0.0,True,比例外推,981224852.43,未知,981224852.43
25,600611,-16162984.710000005,-25990639.14,2020-03-31,一季度报告,6052312.81,2020,3,0.006328909798693124,True,1.6242020008842686,True,0.08858249825117379,True,比例外推,-10753875.66689524,未知,-10753875.66689524
