,SECURITYCODE_x,NETPROFIT_x,PARENTNETPROFIT_x,REPORTDATE_x,REPORTTIMETYPE_x,KCFJCXSYJLR,Year,Month,managesituationChangeRate,managesituationGreatChange,historyprofitextroplaterate,ifhistoryprofitextroplate,IfprofitdisStableChangeRage,IfprofitdisStable,predicttype,predict,analyst_prediction,adj_prediction
0,600660,1917116624.0,1917548483.0,2013-12-31,年度报告,1828765004.9999995,2013,12,未知,未知,未知,未知,未知,未知,未知,未知,未知,未知
1,600660,472145743.00000006,472283267.00000006,2014-03-31,一季度报告,472944787.0,2014,3,未知,未知,未知,未知,未知,未知,未知,未知,未知,未知
2,600660,1047680582.0,1047890771.0000002,2014-06-30,半年度报告,1035667122.0,2014,6,未知,未知,未知,未知,未知,未知,未知,未知,未知,未知
3,600660,1576134779.9999995,1576454398.9999995,2014-09-30,三季度报告,1542802558.9999998,2014,9,未知,未知,未知,未知,未知,未知,未知,未知,未知,未知
4,600660,2217281166.0,2219748934.0,2014-12-31,年度报告,2175129790.0,2014,12,0.0,True,未知,未知,未知,未知,未知,未知,未知,未知
5,600660,579472145.0,579367617.0,2015-03-31,一季度报告,592084755.0000001,2015,3,3.060433991882883,False,未知,未知,未知,未知,未知,未知,2614500000.0,未知
6,600660,1218130117.0,1215507222.9999998,2015-06-30,半年度报告,1221266104.0,2015,6,0.8298674776812843,False,未知,未知,未知,未知,未知,未知,2563088889.0,未知
7,600660,1850735709.0,1848767879.0000005,2015-09-30,三季度报告,1849180800.0,2015,9,0.21634053656248903,True,未知,未知,未知,未知,未知,未知,2561398555.0,未知
8,600660,2607498597.0,2605379627.0,2015-12-31,年度报告,2610571775.9999995,2015,12,-0.1353750469731812,True,未知,未知,未知,未知,未知,未知,2583424723.0,未知
9,600660,582375015.0000001,583071294.0,2016-03-31,一季度报告,580994264.0000001,2016,3,2.3083844332155086,False,未知,未知,未知,未知,未知,未知,2898260569.0000005,未知
10,600660,1457511283.0000002,1456809592.0,2016-06-30,半年度报告,1440204597.0000002,2016,6,0.5738192474228104,False,未知,未知,未知,未知,未知,未知,3054000000.0,未知
11,600660,2174622620.0,2175402903.0000005,2016-09-30,三季度报告,2131238531.0,2016,9,0.03586731194367418,True,未知,未知,未知,未知,未知,未知,3045333333.0,未知
12,600660,3142716561.9999995,3144227339.0000005,2016-12-31,年度报告,3069187169.0000005,2016,12,-0.2647679173420472,True,0.26136802961090977,True,0.0,True,比例外推,3144227339.0000005,,3144227339.0000005
13,600660,692032056.0000001,692879062.9999999,2017-03-31,一季度报告,685237596.9999999,2017,3,2.2918936675193726,False,0.10757913429483261,True,0.02187916099543677,True,前期平均,2553215074.9999995,3665811250.0,3665811250.0
14,600660,1384671779.9999998,1386186828.0000002,2017-06-30,半年度报告,1347936745.9999998,2017,6,0.3153357002176975,True,0.2865252014594713,True,0.00507297865749895,True,比例外推,2899702064.8569326,3456186429.0,3456186429.0
15,600660,2143576777.0,2143549923.0000005,2017-09-30,三季度报告,2085025580.0,2017,9,-0.1184141071796632,True,0.26915950105519165,True,0.009612893586666948,True,比例外推,3020161070.9144583,3344968381.0,3020161070.9144583
16,600660,3148242514.0000005,3148748042.9999995,2017-12-31,年度报告,3030258584.999999,2017,12,-0.3899810605955625,True,0.30273990373641,True,0.0,True,比例外推,3148748042.9999995,3675031849.0,3675031849.0
17,600660,562688035.0,562617916.0,2018-03-31,一季度报告,594857072.0,2018,3,1.770271416444327,False,0.19126177663506122,True,0.024778767524894274,True,前期平均,2815957879.0,3627676250.0,3627676250.0
18,600660,1869094142.0,1868620621.0,2018-06-30,半年度报告,1829703951.0000007,2018,6,0.3845278366256589,True,0.03502044780739284,True,0.015803506886216734,True,比例外推,4011101066.0503664,3915230716.0000005,4011101066.0503664
19,600660,3257787581.9999995,3262092870.0,2018-09-30,三季度报告,2814773512.0,2018,9,-0.1056459257395659,True,0.0650365019963419,True,0.011406511636203875,True,比例外推,4486098641.456499,4144319248.0,4486098641.456499
20,600660,4107172649.0,4120487402.000001,2018-12-31,年度报告,3467787869.999999,2018,12,-0.3910517962086069,True,0.09499990068110788,True,0.0,True,比例外推,4120487402.000001,4144319248.0,4120487402.000001
21,600660,605850936.0000001,606046927.0,2019-03-31,一季度报告,516237613.0,2019,3,2.4070684015877464,False,0.1169414423313414,True,0.03047549160915697,True,前期平均,3022653873.5,4085679076.0,4085679076.0
22,600660,1505873171.0000002,1505572431.0000002,2019-06-30,半年度报告,1340250400.9999998,2019,6,0.025692917719283077,True,0.31525246655092043,True,0.047061742800517836,True,比例外推,2954216993.799409,3483844524.0,3483844524.0
23,600660,2346142267.9999995,2346531432.0,2019-09-30,三季度报告,2125541387.0,2019,9,-0.4115280460296136,True,0.5088638955687388,True,0.08030528765475642,True,比例外推,3127172453.190515,3262779263.0,3127172453.190515
24,600660,2898182172.0,2898433273.0,2019-12-31,年度报告,2802907097.0,2019,12,-0.5332271643202598,True,0.30573815514675906,True,0.0,True,比例外推,2898433273.0,3273200316.0,3273200316.0
25,600660,459291539.00000006,459956420.0,2020-03-31,一季度报告,380185709.0,2020,3,2.1643371497572463,False,0.034285112120675976,True,0.03218206287251896,True,前期平均,3068932312.999999,2701923333.0,2701923333.0
