,SECURITYCODE_x,NETPROFIT_x,PARENTNETPROFIT_x,REPORTDATE_x,REPORTTIMETYPE_x,KCFJCXSYJLR,Year,Month,managesituationChangeRate,managesituationGreatChange,historyprofitextroplaterate,ifhistoryprofitextroplate,IfprofitdisStableChangeRage,IfprofitdisStable,predicttype,predict,analyst_prediction,adj_prediction
0,600648,584547745.5999999,544513881.8700001,2013-12-31,年度报告,562927222.16,2013,12,未知,未知,未知,未知,未知,未知,未知,未知,未知,未知
1,600648,38484061.35,33753309.81,2014-03-31,一季度报告,27545454.04000001,2014,3,未知,未知,未知,未知,未知,未知,未知,未知,未知,未知
2,600648,151532770.70000002,132299041.69999996,2014-06-30,半年度报告,117479174.75,2014,6,未知,未知,未知,未知,未知,未知,未知,未知,未知,未知
3,600648,580649918.04,545381888.6999999,2014-09-30,三季度报告,428171233.25,2014,9,未知,未知,未知,未知,未知,未知,未知,未知,未知,未知
4,600648,750631749.58,697980981.54,2014-12-31,年度报告,506094450.6499999,2014,12,0.0,True,未知,未知,未知,未知,未知,未知,未知,未知
5,600648,250646501.45,240608530.76,2015-03-31,一季度报告,239132090.67,2015,3,14.189346578671325,False,未知,未知,未知,未知,未知,未知,888000000.0,未知
6,600648,333027649.56,311961654.6300002,2015-06-30,半年度报告,305435437.32,2015,6,2.857566537585918,False,未知,未知,未知,未知,未知,未知,852927666.9999999,未知
7,600648,333027649.56,311961654.6300002,2015-06-30,半年度报告,305482250.52,2015,6,2.857566537585918,False,未知,未知,未知,未知,未知,未知,852927666.9999999,未知
8,600648,438575680.88,407966314.61,2015-09-30,三季度报告,388930335.0899999,2015,9,0.0067128702491807265,True,未知,未知,未知,未知,未知,未知,842990000.0,未知
9,600648,438575680.88,407966314.61,2015-09-30,三季度报告,388718769.39000016,2015,9,0.0067128702491807265,True,未知,未知,未知,未知,未知,未知,842990000.0,未知
10,600648,580279977.3199999,539180297.4,2015-12-31,年度报告,493342226.97,2015,12,-0.2212589649624185,True,未知,未知,未知,未知,未知,未知,,未知
11,600648,35127698.559999995,26379426.84,2016-03-31,一季度报告,23641738.78,2016,3,1.332160003105441,False,未知,未知,未知,未知,未知,未知,未知,未知
12,600648,381484307.33,366932926.07000005,2016-06-30,半年度报告,316125237.93999994,2016,6,0.7552528937831774,False,未知,未知,0.0,True,未知,未知,未知,未知
13,600648,646159228.1300001,623114040.6000003,2016-09-30,三季度报告,563596740.03,2016,9,0.3328320996438007,True,未知,未知,0.2922665719183588,False,未知,未知,未知,未知
14,600648,756829799.9400003,722553205.29,2016-12-31,年度报告,618736044.9499999,2016,12,0.007354670929213326,True,0.13078356967761773,True,0.22192593954666526,False,平均增速,722553205.29,,722553205.29
15,600648,103518828.86000004,92370142.48,2017-03-31,一季度报告,89664349.16999999,2017,3,15.640650243612203,False,0.7570115160444049,True,0.062459849485786645,True,前期平均,458749708.935,922800000.0,922800000.0
16,600648,295804831.13,275327031.35,2017-06-30,半年度报告,238325955.87000003,2017,6,0.5322982737907002,False,0.5745582650985296,True,0.0,True,前期平均,563588064.125,,563588064.125
17,600648,384031103.32000005,351098603.44,2017-09-30,三季度报告,302783176.99999994,2017,9,-0.09535030971902278,True,0.26794152112091485,True,0.2580692738656777,False,平均增速,396635980.26044977,,396635980.26044977
18,600648,807072928.72,758799742.53,2017-12-31,年度报告,571039975.9100001,2017,12,-0.22763645717129335,True,0.13731028834321143,True,0.2580692738656777,False,平均增速,758799742.53,未知,758799742.53
19,600648,382878456.85,369517774.12,2018-03-31,一季度报告,366207485.63000005,2018,3,4.646777035997466,False,0.27552012143589133,True,0.1033180702453218,False,前期平均,794169995.355,768890000.0,794169995.355
20,600648,382878456.85,369517774.12,2018-03-31,一季度报告,366207485.63000005,2018,3,4.646777035997466,False,0.27552012143589133,True,0.21292659067416542,False,前期平均,794169995.355,768890000.0,794169995.355
21,600648,379243678.88000005,367164169.04,2018-03-31,一季度报告,366207485.63000005,2018,3,4.646777035997466,False,0.27552012143589133,True,0.1033180702453218,False,前期平均,791816390.275,768890000.0,791816390.275
22,600648,379243678.88000005,367164169.04,2018-03-31,一季度报告,366207485.63000005,2018,3,4.646777035997466,False,0.27552012143589133,True,0.21292659067416542,False,前期平均,791816390.275,768890000.0,791816390.275
23,600648,559348859.1800001,532545946.7900001,2018-06-30,半年度报告,530444441.3099999,2018,6,0.9761264323066565,False,0.17200873049759327,True,0.0,True,前期平均,777804745.1200001,,777804745.1200001
24,600648,707890573.0200001,663700704.81,2018-09-30,三季度报告,646283961.38,2018,9,0.5221364638085477,False,0.29193556853352887,True,0.38340567722092345,False,前期平均,743476303.21,未知,743476303.21
25,600648,874450577.0600001,818069625.6999999,2018-12-31,年度报告,544365873.3699999,2018,12,-0.2757188045855041,True,0.2071902284251492,True,0.3401924747934173,False,平均增速,818069625.6999999,未知,818069625.6999999
26,600648,599765059.32,584121034.88,2019-03-31,一季度报告,580194009.1,2019,3,0.526718819358927,False,4.523087580695786,False,0.34588173019914215,False,去年同期,762279422.6199999,876950000.0,876950000.0
27,600648,719388465.5000001,690165676.19,2019-06-30,半年度报告,664229291.8299999,2019,6,0.04505039387573107,True,0.6517284197169644,True,0.0,True,比例外推,1073230350.417899,,1073230350.417899
28,600648,787915403.1499999,740757913.36,2019-09-30,三季度报告,701962342.8700001,2019,9,-0.174239963238662,True,0.374290849776544,True,0.3372490874885019,False,平均增速,637603930.6582427,未知,637603930.6582427
29,600648,921028883.43,875221196.08,2019-12-31,年度报告,888419706.4100002,2019,12,-0.33152569060527776,True,0.11829279537002414,True,未知,未知,True,True,未知,True
30,600648,113241098.82,101828113.04,2020-03-31,一季度报告,65971123.07000001,2020,3,-0.025372124440281984,True,1.4661529862137932,True,未知,未知,True,True,1027000000.0,1027000000.0
