,SECURITYCODE_x,NETPROFIT_x,PARENTNETPROFIT_x,REPORTDATE_x,REPORTTIMETYPE_x,KCFJCXSYJLR,Year,Month,managesituationChangeRate,managesituationGreatChange,historyprofitextroplaterate,ifhistoryprofitextroplate,IfprofitdisStableChangeRage,IfprofitdisStable,predicttype,predict,analyst_prediction,adj_prediction
0,600663,1574430239.96,1416337411.62,2013-12-31,年度报告,1144580368.81,2013,12,未知,未知,未知,未知,未知,未知,未知,未知,未知,未知
1,600663,293836333.37999994,267154132.08,2014-03-31,一季度报告,227643490.0,2014,3,未知,未知,未知,未知,未知,未知,未知,未知,未知,未知
2,600663,632794624.9200001,577084262.5699999,2014-06-30,半年度报告,529195431.13,2014,6,未知,未知,未知,未知,未知,未知,未知,未知,未知,未知
3,600663,1075155099.1700003,986703250.12,2014-09-30,三季度报告,929626119.3400002,2014,9,未知,未知,未知,未知,未知,未知,未知,未知,未知,未知
4,600663,1747623360.2399998,1601500375.2199998,2014-12-31,年度报告,1445281333.8300006,2014,12,0.0,True,未知,未知,未知,未知,未知,未知,未知,未知
5,600663,337839912.41,302185935.24,2015-03-31,一季度报告,299670527.2,2015,3,4.358187742983741,False,未知,未知,未知,未知,未知,未知,1780750000.0,未知
6,600663,747873593.58,673850574.3900001,2015-06-30,半年度报告,660683312.6800003,2015,6,1.4880588076408592,False,未知,未知,未知,未知,未知,未知,1784500000.0,未知
7,600663,1323219908.94,1126876549.35,2015-09-30,三季度报告,1069078744.7600002,2015,9,0.4643749921992007,True,未知,未知,未知,未知,未知,未知,1899536667.0,未知
8,600663,2653294703.8099995,2166031126.3,2015-12-31,年度报告,1713744820.54,2015,12,-0.09910208585001705,True,未知,未知,未知,未知,未知,未知,,未知
9,600663,394034324.78,352538496.70000005,2016-03-31,一季度报告,344929473.23000014,2016,3,3.660284892713573,False,未知,未知,未知,未知,未知,未知,2132486667.0,未知
10,600663,1341694159.06,974448180.26,2016-06-30,半年度报告,861533623.16,2016,6,1.1052090265994707,False,未知,未知,未知,未知,未知,未知,2327876074.0,未知
11,600663,2167071773.0800014,1637411658.14,2016-09-30,三季度报告,1309450433.27,2016,9,0.1898477564634276,True,未知,未知,未知,未知,未知,未知,2499550000.0,未知
12,600663,3269140491.82,2648735992.74,2016-12-31,年度报告,2156586809.45,2016,12,-0.4066131298196177,True,0.5973822358858155,True,0.0,True,比例外推,2648735992.74,2499550000.0,2648735992.74
13,600663,560847352.2800001,449854554.5500001,2017-03-31,一季度报告,438762429.75,2017,3,2.9956677399590683,False,0.2475831643382589,True,0.010758523650136409,True,前期平均,1765710623.1350002,3287720000.0,3287720000.0
14,600663,1473790111.6099994,1153682662.7900002,2017-06-30,半年度报告,1109674670.48,2017,6,0.17346433188846597,True,0.9435431931904065,True,0.017567272021447533,True,比例外推,2935885436.2917013,3293351429.0,3293351429.0
15,600663,1904748621.03,1463482846.4,2017-09-30,三季度报告,1360878324.5100002,2017,9,-0.2734757290838114,True,0.8071167067303008,True,0.018472224614952792,True,比例外推,2280907581.19457,2869657500.0,2869657500.0
16,600663,3675459923.730001,3129917746.2699995,2017-12-31,年度报告,2942586528.5,2017,12,-0.5183962745255156,True,0.48566296588195657,True,0.0,True,比例外推,3129917746.2699995,3077415000.0,3129917746.2699995
17,600663,1153250591.36,685548589.7900003,2018-03-31,一季度报告,668113113.63,2018,3,1.8072348626760995,False,0.5326331322532942,True,0.01355863714659336,True,前期平均,2298414404.57,3506043333.0,3506043333.0
18,600663,2410689641.28,1838651204.74,2018-06-30,半年度报告,1803287691.84,2018,6,0.0682866084913945,True,0.41061720515928213,True,0.012116671725825423,True,比例外推,4690537836.404647,3484847500.0,3484847500.0
19,600663,2793769641.97,2149223385.7700005,2018-09-30,三季度报告,2110687267.53,2018,9,-0.17341835947432213,True,0.09145526767415002,True,0.1020195985196991,False,平均增速,4412971778.276135,3324666667.0,3324666667.0
20,600663,4105083015.730001,3350247652.73,2018-12-31,年度报告,3303193249.86,2018,12,-0.5716372174826473,True,0.24119886577805733,True,0.0,True,比例外推,3350247652.73,3444203333.0,3350247652.73
21,600663,1006892234.1500002,871735222.66,2019-03-31,一季度报告,741028909.33,2019,3,0.3652108672264485,True,1.4154837590155902,True,0.03182518304579693,True,比例外推,4478507727.369774,3898655000.0,3898655000.0
22,600663,2630825254.3700004,2047083376.36,2019-06-30,半年度报告,1910604906.91,2019,6,-0.34689633497407524,True,0.7124511519336812,True,0.10508236227438766,False,平均增速,3774238187.7559223,3852333333.0,3774238187.7559223
23,600663,3311346939.75,2494772931.87,2019-09-30,三季度报告,2382552277.400001,2019,9,-0.43644951383686537,True,0.3722460086949136,True,0.10707219530323187,False,平均增速,3909269941.9793983,3564000000.0,3909269941.9793983
24,600663,4957584876.370001,3703492088.809999,2019-12-31,年度报告,3439188741.630001,2019,12,-0.6164681118683731,True,0.18223735566933552,True,0.0,True,比例外推,3703492088.809999,4360260000.0,4360260000.0
25,600663,4957584876.370001,3703492088.809999,2019-12-31,年度报告,3439188741.630001,2019,12,-0.6164681118683731,True,0.18223735566933552,True,0.0,True,比例外推,3703492088.809999,4360260000.0,4360260000.0
26,600663,4968083411.44,3677355264.27,2019-12-31,年度报告,3439188741.630001,2019,12,-0.6164681118683731,True,0.18223735566933552,True,0.0,True,比例外推,3677355264.27,4360260000.0,4360260000.0
27,600663,4968083411.44,3677355264.27,2019-12-31,年度报告,3439188741.630001,2019,12,-0.6164681118683731,True,0.18223735566933552,True,0.0,True,比例外推,3677355264.27,4360260000.0,4360260000.0
28,600663,1327766426.92,761025918.5299999,2020-03-31,一季度报告,735385252.8399997,2020,3,0.5636531761406471,False,0.17483628970675766,True,0.039837837246766705,True,前期平均,3330478036.0199995,3850000000.0,3850000000.0
