,SECURITYCODE_x,NETPROFIT_x,PARENTNETPROFIT_x,REPORTDATE_x,REPORTTIMETYPE_x,KCFJCXSYJLR,Year,Month,managesituationChangeRate,managesituationGreatChange,historyprofitextroplaterate,ifhistoryprofitextroplate,IfprofitdisStableChangeRage,IfprofitdisStable,predicttype,predict,analyst_prediction,adj_prediction
0,600649,1430485520.1100006,1378645384.75,2013-12-31,年度报告,791419620.2,2013,12,未知,未知,未知,未知,未知,未知,未知,未知,未知,未知
1,600649,682321907.39,660653363.27,2014-06-30,半年度报告,640367264.8299999,2014,6,未知,未知,未知,未知,未知,未知,未知,未知,未知,未知
2,600649,1076455593.0,1049583542.56,2014-09-30,三季度报告,865736950.1899999,2014,9,未知,未知,未知,未知,未知,未知,未知,未知,未知,未知
3,600649,1991302068.4300003,1968420447.3500004,2014-12-31,年度报告,1274531175.53,2014,12,0.0,True,未知,未知,未知,未知,未知,未知,未知,未知
4,600649,1082468233.2200005,1077693189.7500002,2015-03-31,一季度报告,254121048.4100001,2015,3,未知,未知,未知,未知,未知,未知,未知,未知,未知,未知
5,600649,2964388946.4399986,2956806501.47,2015-06-30,半年度报告,823238317.74,2015,6,1.096496543078701,False,未知,未知,未知,未知,未知,未知,3724000000.0,未知
6,600649,2964388946.4399986,2956806501.47,2015-06-30,半年度报告,824066418.11,2015,6,1.096496543078701,False,未知,未知,未知,未知,未知,未知,3724000000.0,未知
7,600649,3138100161.53,3127954587.06,2015-09-30,三季度报告,946458686.52,2015,9,0.32888484152267355,True,未知,未知,未知,未知,未知,未知,3724000000.0,未知
8,600649,3713830209.27,3651139828.559999,2015-12-31,年度报告,1445132088.7900002,2015,12,-0.28163308681849736,True,未知,未知,未知,未知,未知,未知,未知,未知
9,600649,3713830209.27,3651139828.559999,2015-12-31,年度报告,1405943710.62,2015,12,-0.28163308681849736,True,未知,未知,未知,未知,未知,未知,未知,未知
10,600649,738155600.07,721050235.2899997,2016-03-31,一季度报告,271520527.43,2016,3,0.32150346422154,True,未知,未知,未知,未知,未知,未知,4004800000.0,未知
11,600649,1519250723.13,1494774696.9899998,2016-06-30,半年度报告,1111854635.2800002,2016,6,-0.5174433767107711,True,未知,未知,0.0,True,未知,未知,,未知
12,600649,1997911749.66,1933031227.91,2016-09-30,三季度报告,1507247841.4900002,2016,9,-0.544155557032138,True,未知,未知,未知,未知,未知,未知,2376000000.0,未知
13,600649,2179417330.66,2094742867.25,2016-12-31,年度报告,1607950217.61,2016,12,-0.6148220463769719,True,1.1706959378238946,True,0.10361666068282505,False,平均增速,2094742867.25,2376000000.0,2376000000.0
14,600649,614971999.1700001,607192318.1899999,2017-03-31,一季度报告,197778814.30000004,2017,3,0.9379186718550211,False,未知,未知,0.18018547595222956,False,未知,未知,3392680000.0,未知
15,600649,910805540.37,903008564.3,2017-06-30,半年度报告,310408406.53000003,2017,6,-0.05842696117802275,True,0.16678300856543632,True,0.0,True,比例外推,1120634355.858733,,1120634355.858733
16,600649,1026756110.1300002,1018997292.89,2017-09-30,三季度报告,428521653.37,2017,9,-0.284009656405776,True,0.051899243467095305,True,0.08261363168449723,True,比例外推,1156414841.5189898,未知,1156414841.5189898
17,600649,1766588579.47,1758594324.6799998,2017-12-31,年度报告,667553263.8900001,2017,12,-0.3436385496316109,True,0.23598008790126687,True,0.11609644962010812,False,平均增速,1758594324.6799998,,1758594324.6799998
18,600649,502644414.44,397568737.1900002,2018-03-31,一季度报告,187907789.48,2018,3,1.3260986224424238,False,0.3244381536424241,True,0.19262892873728676,False,前期平均,1661289102.4700003,未知,1661289102.4700003
19,600649,812972346.6800001,707493101.2799999,2018-06-30,半年度报告,469924478.33,2018,6,0.5705718253853496,False,0.593720455927115,True,0.0,True,前期平均,1266487777.9699998,未知,1266487777.9699998
20,600649,982575188.1100004,876098909.8199999,2018-09-30,三季度报告,636088159.95,2018,9,0.39320867535804893,True,0.6001737815704935,True,0.08135929684388885,True,比例外推,1094114680.6738677,未知,1094114680.6738677
21,600649,1170068236.2,1028301786.87,2018-12-31,年度报告,658110411.28,2018,12,-0.19025542407889606,True,0.4004702610910576,True,0.15851199545690997,False,平均增速,1028301786.87,未知,1028301786.87
22,600649,309747452.92,308840578.79000014,2019-03-31,一季度报告,219766524.57,2019,3,1.8459194591940615,False,0.25706280069622994,True,0.20668392998553042,False,前期平均,1211942648.675,1551840000.0,1551840000.0
23,600649,404065757.8,373916262.51000017,2019-06-30,半年度报告,294871521.35,2019,6,0.7595746349205951,False,0.3309024495514525,True,0.0,True,前期平均,800536482.355,1551840000.0,1551840000.0
24,600649,524669097.93,492009938.2799999,2019-09-30,三季度报告,441293391.0,2019,9,0.455853493371396,True,0.35029217510300814,True,0.12320352598342504,False,平均增速,507362393.94314176,1548780000.0,1548780000.0
25,600649,637837571.08,605847279.3100001,2019-12-31,年度报告,461980194.2200001,2019,12,0.22256589475136165,True,0.4069607279622891,True,未知,未知,True,True,1548780000.0,1548780000.0
26,600649,43207153.21,43877918.07,2020-03-31,一季度报告,48435291.68,2020,3,3.6182317453291826,False,0.44569988567099106,True,未知,未知,前期平均,513866453.765,1142110000.0,1142110000.0
