,SECURITYCODE_x,NETPROFIT_x,PARENTNETPROFIT_x,REPORTDATE_x,REPORTTIMETYPE_x,KCFJCXSYJLR,Year,Month,managesituationChangeRate,managesituationGreatChange,historyprofitextroplaterate,ifhistoryprofitextroplate,IfprofitdisStableChangeRage,IfprofitdisStable,predicttype,predict,analyst_prediction,adj_prediction
0,600653,-31250602.070000004,-41687685.17,2014-03-31,一季度报告,-52077010.76999998,2014,3,未知,未知,未知,未知,未知,未知,未知,未知,未知,未知
1,600653,-67524329.38,-80908852.35999998,2014-06-30,半年度报告,-98172775.65,2014,6,未知,未知,未知,未知,未知,未知,未知,未知,未知,未知
2,600653,-154748236.08,-166586912.54999998,2014-09-30,三季度报告,-193483058.61,2014,9,未知,未知,未知,未知,未知,未知,未知,未知,未知,未知
3,600653,-180344706.1,-198949923.81,2014-12-31,年度报告,-238427977.42999995,2014,12,未知,未知,未知,未知,未知,未知,未知,未知,未知,未知
4,600653,40723684.74999999,43599872.48,2015-03-31,一季度报告,-108529645.51,2015,3,-0.0,False,未知,未知,未知,未知,未知,未知,101997297.99999999,未知
5,600653,56538170.40999998,54844702.31,2015-06-30,半年度报告,-173301285.32,2015,6,-0.5371949287473248,False,未知,未知,未知,未知,未知,未知,,未知
6,600653,13439210.06,2742850.28,2015-09-30,三季度报告,-233126282.39000008,2015,9,-0.7980551968692915,False,未知,未知,未知,未知,未知,未知,未知,未知
7,600653,55255155.55,52984516.71999999,2015-12-31,年度报告,-351058198.70000005,2015,12,-0.8267173861334652,False,未知,未知,未知,未知,未知,未知,未知,未知
8,600653,-88113400.79,-87546250.79,2016-03-31,一季度报告,-89967660.67999999,2016,3,-1.767381494622733,False,未知,未知,未知,未知,未知,未知,未知,未知
9,600653,-73319333.53,-81429950.1,2016-06-30,半年度报告,-150504236.73,2016,6,-1.5527345834394506,False,未知,未知,未知,未知,未知,未知,未知,未知
10,600653,-164589395.87999997,-168741256.32,2016-09-30,三季度报告,-239708083.69,2016,9,-3.325330278377984,False,未知,未知,未知,未知,未知,未知,36000000.0,未知
11,600653,75026846.04000002,66602836.02,2016-12-31,年度报告,-388509331.95,2016,12,-1.565568981915571,False,未知,未知,未知,未知,未知,未知,未知,未知
12,600653,-82044793.8,-82457199.39000002,2017-03-31,一季度报告,-97457679.84999998,2017,3,-0.6453365573248123,False,19.602899133569075,False,0.05610346229887647,True,去年同期,-380998870.65999997,未知,-380998870.65999997
13,600653,-167101024.82999998,-174486928.1,2017-06-30,半年度报告,-198098279.19,2017,6,-0.5737740570539525,False,-12.347582850423636,True,0.06272292842944072,True,前期平均,-333492985.67999995,未知,-333492985.67999995
14,600653,-279868433.79999995,-289910253.11000013,2017-09-30,三季度报告,-315324080.90000004,2017,9,-0.8101299181340672,False,-1.3294958647115012,True,0.11397593905952508,False,前期平均,-371348670.6750001,未知,-371348670.6750001
15,600653,-553865948.5699999,-570794171.7900001,2017-12-31,年度报告,-596374420.3599999,2017,12,-1.4165256000943844,False,-2.1995701592997694,True,0.0,True,盈利变化,-2685526.783333294,,-2685526.783333294
16,600653,-114887799.71,-127841321.44999996,2018-03-31,一季度报告,-133490498.70999998,2018,3,-0.6191031676406016,False,-2.4625568860023903,True,0.07443721887188007,True,前期平均,-398376433.67999995,未知,-398376433.67999995
17,600653,-199626997.77,-221167593.77000007,2018-06-30,半年度报告,-232314710.47,2018,6,-0.8129837797117477,False,-18.91530904444242,True,0.08924934466641687,True,前期平均,-429048598.0700001,未知,-429048598.0700001
18,600653,-83773419.67,-107168345.6,2018-09-30,三季度报告,-358190668.52000016,2018,9,-0.8883382393445187,False,-2.703183456661926,True,0.07453052174659258,True,前期平均,-240534927.885,未知,-240534927.885
19,600653,356735881.03000015,341073558.82,2018-12-31,年度报告,-913330252.52,2018,12,-0.9435773183914187,False,9.502570451949714,False,0.0,True,前期平均,341073558.82,未知,341073558.82
20,600653,24391705.980000004,11398662.5,2019-03-31,一季度报告,-41345596.41,2019,3,-0.7279902465807263,False,-0.35036458263822945,True,0.05118931571302937,True,盈利变化,463933428.5533333,未知,463933428.5533333
21,600653,45982728.19,16249518.95,2019-06-30,半年度报告,-50653994.30000001,2019,6,-0.8434550315383427,False,-0.6606496981514608,True,0.0702799711051052,True,盈利变化,462180702.93333334,未知,462180702.93333334
22,600653,18393924.46,-24083356.12,2019-09-30,三季度报告,-99589301.46,2019,9,-0.6269627980676653,False,-0.6230309645785065,True,0.12045590559776786,False,前期平均,-239009149.97999993,未知,-239009149.97999993
23,600653,-199380270.4,-252732520.97,2019-12-31,年度报告,-287892172.95000017,2019,12,-1.0876015106183612,False,-2.490003131094124,True,0.0,True,盈利变化,549552918.6766666,未知,549552918.6766666
24,600653,-31470253.72,-40203338.35,2020-03-31,一季度报告,-43907902.37000001,2020,3,-2.281197883232274,False,-1.2477162926182803,True,0.01235367618117536,True,盈利变化,-256148928.9166667,未知,-256148928.9166667
