,SECURITYCODE_x,NETPROFIT_x,PARENTNETPROFIT_x,REPORTDATE_x,REPORTTIMETYPE_x,KCFJCXSYJLR,Year,Month,managesituationChangeRate,managesituationGreatChange,historyprofitextroplaterate,ifhistoryprofitextroplate,IfprofitdisStableChangeRage,IfprofitdisStable,predicttype,predict,analyst_prediction,adj_prediction
0,600698,59022096.42999999,59022096.42999999,2013-12-31,年度报告,45820890.8,2013,12,未知,未知,未知,未知,未知,未知,未知,未知,未知,未知
1,600698,11495669.8,11495669.8,2014-03-31,一季度报告,5199607.48,2014,3,未知,未知,未知,未知,未知,未知,未知,未知,未知,未知
2,600698,23739286.04000001,23739286.04000001,2014-06-30,半年度报告,15549773.72,2014,6,未知,未知,未知,未知,未知,未知,未知,未知,未知,未知
3,600698,21647666.4,21647666.4,2014-09-30,三季度报告,9920141.78,2014,9,未知,未知,未知,未知,未知,未知,未知,未知,未知,未知
4,600698,14362819.22,14362819.22,2014-12-31,年度报告,2214387.33,2014,12,0.0,True,未知,未知,未知,未知,未知,未知,未知,未知
5,600698,3724162.270000002,3724162.270000002,2015-03-31,一季度报告,1188280.84,2015,3,4.134289472197609,False,未知,未知,未知,未知,未知,未知,64000000.0,未知
6,600698,4916928.710000001,4916928.710000001,2015-06-30,半年度报告,2015595.45,2015,6,1.486262490394592,False,未知,未知,未知,未知,未知,未知,,未知
7,600698,1701495.4700000002,1701495.4700000002,2015-09-30,三季度报告,-2393105.4799999995,2015,9,1.7264877118579394,False,未知,未知,未知,未知,未知,未知,未知,未知
8,600698,-46914702.76,-46914702.76,2015-12-31,年度报告,-54483269.72,2015,12,3.1093670766121355,False,未知,未知,未知,未知,未知,未知,,未知
9,600698,3285844.4600000004,3285844.4600000004,2016-03-31,一季度报告,2999954.03,2016,3,14.84842231646366,False,未知,未知,未知,未知,未知,未知,未知,未知
10,600698,7284521.97,7284521.97,2016-06-30,半年度报告,5972164.150000001,2016,6,11.003854420333864,False,未知,未知,未知,未知,未知,未知,未知,未知
11,600698,7883760.13,7883760.13,2016-09-30,三季度报告,5561940.050000002,2016,9,33.688365306079824,False,未知,未知,未知,未知,未知,未知,未知,未知
12,600698,9996272.98,9996272.98,2016-12-31,年度报告,2257840.46,2016,12,-2.2580724795793206,False,2.278592537565995,False,0.0,True,前期平均,9996272.98,未知,9996272.98
13,600698,3445273.74,3445273.74,2017-03-31,一季度报告,2535150.04,2017,3,16.962535095163933,False,0.56821541198516,True,1.2401350028344476,False,前期平均,-25883111.615000002,未知,-25883111.615000002
14,600698,5778000.4300000025,5778000.4300000025,2017-06-30,半年度报告,727509.8700000001,2017,6,7.102398025988793,False,0.4915921705953856,True,3.8120763836615,False,前期平均,-29139125.349999998,未知,-29139125.349999998
15,600698,-9363606.64,-9363606.64,2017-09-30,三季度报告,-15478940.34,2017,9,6.486541378320701,False,0.3247072272748777,True,2.2851334672061183,False,盈利变化,644770.5844444446,未知,644770.5844444446
16,600698,-84038747.67000003,-84038747.67000003,2017-12-31,年度报告,-93619204.09,2017,12,4.904410228500981,False,-1.6141747814817846,True,0.0,True,盈利变化,-21962741.869999997,未知,-21962741.869999997
17,600698,-2292008.12,-2292008.12,2018-03-31,一季度报告,-2953211.2,2018,3,16.131322758115584,False,0.017041246121599917,True,0.902085070449532,False,盈利变化,-91356562.6566667,未知,-91356562.6566667
18,600698,-3360124.82,-3360124.82,2018-06-30,半年度报告,-5336959.94,2018,6,9.214969199993634,False,0.05289943277466042,True,1.7783072418474801,False,盈利变化,-88081727.54333337,未知,-88081727.54333337
19,600698,-2310471.6,-2310471.6,2018-09-30,三季度报告,-13600894.680000005,2018,9,-7.303350695859645,False,2.9537521023435205,False,1.5725051901198506,False,去年同期,-80450735.35,未知,-80450735.35
20,600698,-88940788.19,-88940788.19,2018-12-31,年度报告,-101100200.71999995,2018,12,-1.7023200376779242,False,-3.5526718319708572,True,0.0,True,前期平均,-88940788.19,未知,-88940788.19
21,600698,3023932.3699999987,3023932.3699999987,2019-03-31,一季度报告,1954102.2700000003,2019,3,-26.75125974248293,False,1.681018532700852,True,0.885078154239151,False,前期平均,-45424301.48000001,未知,-45424301.48000001
22,600698,3802007.56,3802007.56,2019-06-30,半年度报告,1901849.76,2019,6,-18.565447592509376,False,1.514467989735275,True,1.7483793832553207,False,前期平均,-45228511.26500001,未知,-45228511.26500001
23,600698,1163850.69,1163850.69,2019-09-30,三季度报告,-5674902.6099999985,2019,9,-26.545475837054216,False,-2.1225827602891045,True,1.5423034623057457,False,盈利变化,-85418125.04777777,未知,-85418125.04777777
24,600698,11751304.25,11751304.25,2019-12-31,年度报告,-3059659.64,2019,12,-1.6636111241100529,False,-1.4024261361435046,True,0.0,True,盈利变化,-56260607.83000001,未知,-56260607.83000001
25,600698,2216860.41,2216860.41,2020-03-31,一季度报告,-7088556.919999997,2020,3,18.51832554707565,False,4.244121245893029,False,0.4264881524006162,False,去年同期,-2796901.5,未知,-2796901.5
