,SECURITYCODE_x,NETPROFIT_x,PARENTNETPROFIT_x,REPORTDATE_x,REPORTTIMETYPE_x,KCFJCXSYJLR,Year,Month,managesituationChangeRate,managesituationGreatChange,historyprofitextroplaterate,ifhistoryprofitextroplate,IfprofitdisStableChangeRage,IfprofitdisStable,predicttype,predict,analyst_prediction,adj_prediction
0,600644,-655673116.74,-298593187.90000004,2013-12-31,年度报告,-307448956.87999994,2013,12,未知,未知,未知,未知,未知,未知,未知,未知,未知,未知
1,600644,-17352359.169999998,10569125.630000005,2014-03-31,一季度报告,-4743406.3100000005,2014,3,未知,未知,未知,未知,未知,未知,未知,未知,未知,未知
2,600644,-18295551.5,28510905.29000001,2014-06-30,半年度报告,11752424.58,2014,6,未知,未知,未知,未知,未知,未知,未知,未知,未知,未知
3,600644,-19371031.180000003,46785155.81,2014-09-30,三季度报告,29466614.78,2014,9,未知,未知,未知,未知,未知,未知,未知,未知,未知,未知
4,600644,-1838382518.2800004,-1139314897.75,2014-12-31,年度报告,-1662060162.4799998,2014,12,-0.0,False,未知,未知,未知,未知,未知,未知,未知,未知
5,600644,13755324.88,12480910.329999998,2015-03-31,一季度报告,10173918.46,2015,3,36.785819802161235,False,未知,未知,未知,未知,未知,未知,159000000.0,未知
6,600644,41442370.17,37088036.99999999,2015-06-30,半年度报告,36521366.6,2015,6,34.83784379169986,False,未知,未知,未知,未知,未知,未知,96000000.0,未知
7,600644,63401908.71000001,56790204.35000002,2015-09-30,三季度报告,70117617.03,2015,9,32.848126650942696,False,未知,未知,未知,未知,未知,未知,,未知
8,600644,126648972.31000005,115516687.73,2015-12-31,年度报告,30083516.86000001,2015,12,-0.6433423891816318,False,未知,未知,未知,未知,未知,未知,,未知
9,600644,35170336.69,32027396.87999999,2016-03-31,一季度报告,29124817.099999994,2016,3,-48.6668579230242,False,未知,未知,未知,未知,未知,未知,121940000.0,未知
10,600644,170683334.09000003,165213764.98000002,2016-06-30,半年度报告,44870457.0,2016,6,-16.821322816488898,False,未知,未知,未知,未知,未知,未知,208466667.00000003,未知
11,600644,255136334.55,246346462.72,2016-09-30,三季度报告,111440433.09,2016,9,-11.341535926608225,False,未知,未知,未知,未知,未知,未知,228370000.0,未知
12,600644,224806369.88000008,211471966.05,2016-12-31,年度报告,71962243.63999999,2016,12,-6.177089910647691,False,-1.1015606633081256,True,0.0,True,前期平均,211471966.05,未知,211471966.05
13,600644,32616418.91,29527803.430000003,2017-03-31,一季度报告,28410212.510000005,2017,3,-19.642787600223002,False,-20.555185663798618,True,0.24573495060695755,False,前期平均,-789175775.4549999,,-789175775.4549999
14,600644,66564763.24999999,60641819.47000001,2017-06-30,半年度报告,57675967.40999999,2017,6,-4.841459508836806,False,13.747887087500134,False,0.6172230007535708,False,去年同期,87733606.11,157000000.0,157000000.0
15,600644,112049715.40999998,103413429.0,2017-09-30,三季度报告,106373420.86,2017,9,-3.5698931431951935,False,10.58897341422121,False,1.304939700508383,False,去年同期,63935239.54999998,,63935239.54999998
16,600644,55512732.23,42856263.3,2017-12-31,年度报告,120495711.54,2017,12,-3.916612714710857,False,-1.262665144828493,True,0.0,True,前期平均,42856263.3,180000000.0,180000000.0
17,600644,19757577.0,16525636.779999996,2018-03-31,一季度报告,15522517.3,2018,3,-21.102547693823446,False,0.3333051761940641,True,0.0904523787966825,True,前期平均,47899149.25,未知,47899149.25
18,600644,62487357.60999999,57987972.28999999,2018-06-30,半年度报告,64292034.13,2018,6,-10.850153215109648,False,0.37240266584183196,True,0.44193831512141935,False,前期平均,68314940.74,未知,68314940.74
19,600644,140707314.54000002,136416060.33999997,2018-09-30,三季度报告,88236091.20999998,2018,9,-6.851626792097,False,0.2964755863330243,True,0.7433787752416257,False,前期平均,96659915.52999997,未知,96659915.52999997
20,600644,84768837.06000002,80894636.38,2018-12-31,年度报告,27941935.85,2018,12,-12.811220424594117,False,0.6840979460770906,True,0.0,True,前期平均,80894636.38,未知,80894636.38
21,600644,55214278.2,53252517.86,2019-03-31,一季度报告,17923530.049999993,2019,3,-34.185907196008905,False,0.417066746295201,True,0.1628985435372558,False,前期平均,120713980.645,未知,120713980.645
22,600644,117410160.57,113205474.87,2019-06-30,半年度报告,63540034.42,2019,6,-11.492892351637401,False,0.4732319600401312,True,1.1665491750907204,False,前期平均,158161240.255,未知,158161240.255
23,600644,169567020.92999998,164519374.42,2019-09-30,三季度报告,117550219.68999998,2019,9,-5.659836760324257,False,0.23359117507144836,True,1.2947602065368427,False,前期平均,151841425.03499997,未知,151841425.03499997
24,600644,98351219.39,89234940.80000001,2019-12-31,年度报告,55992775.61999999,2019,12,-8.734836757001982,False,0.39519757004118927,True,0.0,True,前期平均,89234940.80000001,未知,89234940.80000001
25,600644,42327228.86,40754115.82,2020-03-31,一季度报告,21482489.37,2020,3,-12.875064532492612,False,1.1084615462559235,True,0.1850577103625325,False,前期平均,93006574.61,未知,93006574.61
