,SECURITYCODE_x,NETPROFIT_x,PARENTNETPROFIT_x,REPORTDATE_x,REPORTTIMETYPE_x,KCFJCXSYJLR,Year,Month,managesituationChangeRate,managesituationGreatChange,historyprofitextroplaterate,ifhistoryprofitextroplate,IfprofitdisStableChangeRage,IfprofitdisStable,predicttype,predict,analyst_prediction,adj_prediction
0,600687,89409487.11999999,89409487.11999999,2013-12-31,年度报告,136169258.0,2013,12,未知,未知,未知,未知,未知,未知,未知,未知,未知,未知
1,600687,36703269.16,36703269.16,2014-03-31,一季度报告,35985950.25,2014,3,未知,未知,未知,未知,未知,未知,未知,未知,未知,未知
2,600687,50439790.45,50439790.45,2014-06-30,半年度报告,49871541.94,2014,6,未知,未知,未知,未知,未知,未知,未知,未知,未知,未知
3,600687,86313009.35,86313009.35,2014-09-30,三季度报告,78855516.80000001,2014,9,未知,未知,未知,未知,未知,未知,未知,未知,未知,未知
4,600687,251174570.43,251174570.43,2014-12-31,年度报告,211888887.38,2014,12,0.0,True,未知,未知,未知,未知,未知,未知,未知,未知
5,600687,95772711.18,95772711.18,2015-03-31,一季度报告,91678668.10999998,2015,3,1.4360088124640502,False,未知,未知,未知,未知,未知,未知,465116667.0,未知
6,600687,138821040.20000002,138821040.20000002,2015-06-30,半年度报告,129107897.89,2015,6,0.7725983062643748,False,未知,未知,未知,未知,未知,未知,429395000.0,未知
7,600687,187436212.5,187436212.5,2015-09-30,三季度报告,169065394.70000002,2015,9,0.03587498331153942,True,未知,未知,未知,未知,未知,未知,464000000.0,未知
8,600687,347551480.16,347551480.16,2015-12-31,年度报告,314558342.41,2015,12,-0.6440344778257814,True,未知,未知,未知,未知,未知,未知,464000000.0,未知
9,600687,206452974.0900001,204471905.48,2016-03-31,一季度报告,191534172.99000004,2016,3,-0.06644088886698275,True,未知,未知,未知,未知,未知,未知,777077500.0,未知
10,600687,250942145.53,247516798.51000008,2016-06-30,半年度报告,364744979.58,2016,6,-0.3559370611890864,True,未知,未知,未知,未知,未知,未知,767915000.0,未知
11,600687,337298111.55,332712862.7,2016-09-30,三季度报告,451289401.2,2016,9,-0.5229871222456547,True,未知,未知,未知,未知,未知,未知,803950000.0,未知
12,600687,509920287.82,496067082.84,2016-12-31,年度报告,550770349.9000001,2016,12,-0.7427446228143263,True,1.040914555191575,True,0.0,True,比例外推,496067082.84,655700000.0,655700000.0
13,600687,105174077.83,105835675.25,2017-03-31,一季度报告,73428225.92999998,2017,3,-0.5669256521292677,True,2.116836328519901,False,0.09984692663254327,True,比例外推,304685545.5323466,684425000.0,684425000.0
14,600687,252276999.18,254365783.76999995,2017-06-30,半年度报告,213254889.63,2017,6,-0.6437047793181033,True,1.6518127883953673,True,0.22622731723594086,False,平均增速,459217528.1832738,630000000.0,630000000.0
15,600687,343999816.79,347868168.13,2017-09-30,三季度报告,303902240.1,2017,9,-0.7349244361045104,True,1.4642854454199792,True,0.24304430356267126,False,平均增速,461830897.7376722,,461830897.7376722
16,600687,562458130.7,545153119.1500001,2017-12-31,年度报告,474850025.55,2017,12,-0.8246598747772098,True,0.7033509309224526,True,0.0,True,比例外推,545153119.1500001,863850000.0,863850000.0
17,600687,108871895.15999998,110054091.94,2018-03-31,一季度报告,109443290.79,2018,3,-0.14989045813628513,True,0.3040030483442175,True,0.1099799257464687,False,平均增速,671447302.5020413,未知,671447302.5020413
18,600687,105182404.32,108107071.06,2018-06-30,半年度报告,73793391.31,2018,6,-0.6455900164873682,True,0.2945142507879614,True,0.1549829914441303,False,平均增速,324260247.6240691,未知,324260247.6240691
19,600687,42673971.09,46832074.84,2018-09-30,三季度报告,7447939.64,2018,9,-0.7400885618070506,True,0.31113899367185877,True,0.15376389623711462,False,平均增速,160602259.69960493,未知,160602259.69960493
20,600687,-1174539643.2399998,-1164942185.98,2018-12-31,年度报告,-1216394698.89,2018,12,-0.841037968446244,True,0.3118988909104679,True,0.0,True,比例外推,-1164942185.98,未知,-1164942185.98
21,600687,-90980293.27,-90179571.46,2019-03-31,一季度报告,-97269030.99,2019,3,-0.17876429919216255,True,0.30126800937712406,True,0.2274461454495209,False,平均增速,1062307587.7024379,未知,1062307587.7024379
22,600687,-222086616.22,-220607742.46000004,2019-06-30,半年度报告,-223978006.89,2019,6,-0.14995775483524337,True,0.581961833425016,True,0.4108919704919046,False,平均增速,2285547759.466229,未知,2285547759.466229
23,600687,-336226846.79000014,-333808654.0,2019-09-30,三季度报告,-336193149.53000003,2019,9,1.095176165617072,False,0.8747274303505481,True,0.49054023932190766,False,盈利变化,-1317671558.9444444,未知,-1317671558.9444444
24,600687,-3417953124.0600014,-3374538836.0,2019-12-31,年度报告,-3378688046.07,2019,12,-1.0761230049871806,False,3.190532041592171,False,0.0,True,去年同期,-3374538836.0,未知,-3374538836.0
25,600687,-151110949.7,-150571938.51000002,2020-03-31,一季度报告,-152925474.10000002,2020,3,-1.9827346550165719,False,1.850100490087244,True,0.12348454416783897,False,前期平均,-612780033.5400001,未知,-612780033.5400001
