,SECURITYCODE_x,NETPROFIT_x,PARENTNETPROFIT_x,REPORTDATE_x,REPORTTIMETYPE_x,KCFJCXSYJLR,Year,Month,managesituationChangeRate,managesituationGreatChange,historyprofitextroplaterate,ifhistoryprofitextroplate,IfprofitdisStableChangeRage,IfprofitdisStable,predicttype,predict,analyst_prediction,adj_prediction
0,600636,129003211.08,70461928.69,2013-12-31,年度报告,-48556162.47000001,2013,12,未知,未知,未知,未知,未知,未知,未知,未知,未知,未知
1,600636,48159729.44999999,27163257.05,2014-03-31,一季度报告,-1732988.6,2014,3,未知,未知,未知,未知,未知,未知,未知,未知,未知,未知
2,600636,52397127.14000001,22258660.53,2014-06-30,半年度报告,-6701390.21,2014,6,未知,未知,未知,未知,未知,未知,未知,未知,未知,未知
3,600636,63169813.34,19063512.31,2014-09-30,三季度报告,-20446822.09,2014,9,未知,未知,未知,未知,未知,未知,未知,未知,未知,未知
4,600636,49137586.16999999,6466825.2799999975,2014-12-31,年度报告,-81815080.75,2014,12,0.0,True,未知,未知,未知,未知,未知,未知,未知,未知
5,600636,-26786991.82,-30848493.83,2015-03-31,一季度报告,-39512207.05999999,2015,3,1.6786531517776213,False,未知,未知,未知,未知,未知,未知,7000000.0,未知
6,600636,-14293912.97,-34877841.940000005,2015-06-30,半年度报告,-67454043.55000001,2015,6,1.4620283233337588,False,未知,未知,未知,未知,未知,未知,7000000.0,未知
7,600636,-74824382.14,-99971659.42000002,2015-09-30,三季度报告,-132974085.81,2015,9,1.0421654625709234,False,未知,未知,未知,未知,未知,未知,,未知
8,600636,-307512033.34000003,-311013572.94000006,2015-12-31,年度报告,-309777456.19999987,2015,12,1.6253469316480271,False,未知,未知,未知,未知,未知,未知,,未知
9,600636,17895692.33,8548741.12,2016-03-31,一季度报告,3731964.67,2016,3,-5.815890188299614,False,未知,未知,未知,未知,未知,未知,-113050000.0,未知
10,600636,75817475.84,43882014.64000001,2016-06-30,半年度报告,40518329.03,2016,6,-10.025045230844162,False,未知,未知,未知,未知,未知,未知,90000000.0,未知
11,600636,-134311443.74,-187230808.44,2016-09-30,三季度报告,-56683163.5,2016,9,-2.7240798706313245,False,未知,未知,未知,未知,未知,未知,84000000.0,未知
12,600636,-230267675.21,-307875658.35000014,2016-12-31,年度报告,-62971218.23,2016,12,-1.4195062212000265,False,4.452460504130814,False,0.0,True,去年同期,-307875658.35000014,78930000.0,78930000.0
13,600636,73213636.23,38092497.35999999,2017-03-31,一季度报告,38120569.53999999,2017,3,6.20861806859193,False,0.6746279900877639,True,0.09772781080768855,True,前期平均,-137081173.28499994,未知,-137081173.28499994
14,600636,177985672.13,105199820.22,2017-06-30,半年度报告,121154008.54,2017,6,0.7014970447214508,False,2.979584268231825,False,0.5288476899901353,False,去年同期,1710272.9600000083,未知,1710272.9600000083
15,600636,220586677.75,120647515.90000002,2017-09-30,三季度报告,150286697.54,2017,9,-1.9604781803233706,False,-22.048719527057926,True,0.3737053600071468,False,盈利变化,-215889053.44333348,未知,-215889053.44333348
16,600636,155495877.27999997,47807168.92,2017-12-31,年度报告,139942230.18,2017,12,-1.5602315260374753,False,-0.7824338105578459,True,0.0,True,盈利变化,-240237842.2133335,,-240237842.2133335
17,600636,67702956.82000001,66372119.11,2018-03-31,一季度报告,-239064905.01,2018,3,0.762010708971448,False,-17.4686019883467,True,0.17282723498106026,False,前期平均,-102112096.90999992,未知,-102112096.90999992
18,600636,240404702.28,239626225.69,2018-06-30,半年度报告,8270004.059999999,2018,6,-0.27520451766602544,True,4.785935138577256,False,0.7901257006536022,False,未知,未知,未知,未知
19,600636,544510902.23,543670219.6700001,2018-09-30,三季度报告,93920958.92999998,2018,9,-0.41518131377723244,True,-3.1095063633580446,True,0.3718499674657335,False,平均增速,524871911.8570475,未知,524871911.8570475
20,600636,544765973.12,543099514.99,2018-12-31,年度报告,135631253.19000003,2018,12,-0.17037536083541865,True,-1.5782883764776436,True,0.0,True,比例外推,543099514.99,未知,543099514.99
21,600636,1301429.5,-1139167.74,2019-03-31,一季度报告,-2899342.59,2019,3,0.9054294987880263,False,0.48619154350181076,True,1.2461187098427253,False,盈利变化,857986931.55,229420000.0,229420000.0
22,600636,-10546042.97,-16805885.729999997,2019-06-30,半年度报告,11966245.19,2019,6,-0.4633914817117445,True,0.8944186012099131,True,0.7713179650386858,False,平均增速,240635970.02395442,203075000.0,203075000.0
23,600636,21246924.97,12327194.29,2019-09-30,三季度报告,40404612.2,2019,9,-0.7630842457852031,True,11.622646776406004,False,0.19637262169776415,False,未知,未知,188575000.0,未知
24,600636,126028053.45,119412171.48,2019-12-31,年度报告,142119588.13,2019,12,-0.7631951747258204,True,-15.571429020069834,True,0.0,True,比例外推,119412171.48,236140000.0,236140000.0
25,600636,17683824.459999993,17601868.68,2020-03-31,一季度报告,-5668363.52,2020,3,98.12424075218827,False,0.9815290808295624,True,1.2590733381766683,False,前期平均,255860778.10000002,262470000.0,255860778.10000002
