,SECURITYCODE_x,NETPROFIT_x,PARENTNETPROFIT_x,REPORTDATE_x,REPORTTIMETYPE_x,KCFJCXSYJLR,Year,Month,managesituationChangeRate,managesituationGreatChange,historyprofitextroplaterate,ifhistoryprofitextroplate,IfprofitdisStableChangeRage,IfprofitdisStable,predicttype,predict,analyst_prediction,adj_prediction
0,600621,295963392.31999993,296024307.22,2013-12-31,年度报告,298137264.08,2013,12,未知,未知,未知,未知,未知,未知,未知,未知,未知,未知
1,600621,42709503.69,42709503.69,2014-03-31,一季度报告,41241546.06000001,2014,3,未知,未知,未知,未知,未知,未知,未知,未知,未知,未知
2,600621,88252583.5,88252583.5,2014-06-30,半年度报告,86823223.52000001,2014,6,未知,未知,未知,未知,未知,未知,未知,未知,未知,未知
3,600621,94416490.57999995,94416490.57999995,2014-09-30,三季度报告,100981249.92,2014,9,未知,未知,未知,未知,未知,未知,未知,未知,未知,未知
4,600621,152209229.59,154744885.51999998,2014-12-31,年度报告,149038981.91000003,2014,12,0.0,True,未知,未知,未知,未知,未知,未知,未知,未知
5,600621,46905713.34,49981361.56,2015-03-31,一季度报告,49378184.68,2015,3,5.929684654455416,False,未知,未知,未知,未知,未知,未知,未知,未知
6,600621,149441533.99,156906492.64999998,2015-06-30,半年度报告,155847939.43,2015,6,2.3535946550505225,False,未知,未知,未知,未知,未知,未知,未知,未知
7,600621,173339629.0,185707948.4,2015-09-30,三季度报告,181732321.11,2015,9,2.1346578389209188,False,未知,未知,未知,未知,未知,未知,未知,未知
8,600621,112801581.07,130387303.66,2015-12-31,年度报告,113347766.99,2015,12,0.9444510238782815,False,未知,未知,未知,未知,未知,未知,未知,未知
9,600621,113940914.55,119825176.71,2016-03-31,一季度报告,118433830.61999996,2016,3,5.30975144061203,False,未知,未知,未知,未知,未知,未知,未知,未知
10,600621,252787292.76999995,258578197.92,2016-06-30,半年度报告,140594726.15,2016,6,0.98046275635664,False,未知,未知,未知,未知,未知,未知,171430000.0,未知
11,600621,315492385.55000013,326606707.16000015,2016-09-30,三季度报告,129814053.94,2016,9,0.7074190941068642,False,未知,未知,未知,未知,未知,未知,170605000.0,未知
12,600621,390883573.69999987,397786443.76000017,2016-12-31,年度报告,108040286.13,2016,12,1.6237521629802094,False,0.49661547557605024,True,0.0,True,前期平均,397786443.76000017,未知,397786443.76000017
13,600621,38526183.11,45777676.92000001,2017-03-31,一季度报告,8987677.909999998,2017,3,1.597516383722935,False,1.5428921186868658,True,0.49335012940144607,False,前期平均,131661186.00000003,380695000.0,380695000.0
14,600621,49159462.88999999,67651785.02,2017-06-30,半年度报告,21786911.42000001,2017,6,0.17080011845881832,True,1.1269966243959313,True,0.5037212650393454,False,平均增速,51182293.89804979,,51182293.89804979
15,600621,82263369.57,115054161.40000002,2017-09-30,三季度报告,65310494.79000001,2017,9,-0.06190004616420509,True,1.3565652657715455,True,0.48325052683930536,False,平均增速,100248458.5214262,未知,100248458.5214262
16,600621,748871566.08,777388723.1100003,2017-12-31,年度报告,726444931.9699999,2017,12,-0.2428349200799378,True,1.9499443643564445,True,0.0,True,比例外推,777388723.1100003,453900000.0,453900000.0
17,600621,748871566.08,777388723.1100003,2017-12-31,年度报告,726444931.9699999,2017,12,-0.2428349200799378,True,1.9499443643564445,True,0.0,True,比例外推,777388723.1100003,453900000.0,453900000.0
18,600621,748871566.08,777388723.1100003,2017-12-31,年度报告,726444931.9699999,2017,12,-0.2428349200799378,True,1.9499443643564445,True,0.0,True,比例外推,777388723.1100003,453900000.0,453900000.0
19,600621,737411665.3799999,776803329.0499997,2017-12-31,年度报告,726444931.9699999,2017,12,-0.2428349200799378,True,1.9499443643564445,True,0.0,True,比例外推,776803329.0499997,453900000.0,453900000.0
20,600621,737411665.3799999,776803329.0499997,2017-12-31,年度报告,726444931.9699999,2017,12,-0.2428349200799378,True,1.9499443643564445,True,0.0,True,比例外推,776803329.0499997,453900000.0,453900000.0
21,600621,737411665.3799999,776803329.0499997,2017-12-31,年度报告,726444931.9699999,2017,12,-0.2428349200799378,True,1.9499443643564445,True,0.0,True,比例外推,776803329.0499997,453900000.0,453900000.0
22,600621,56632010.41,81341995.71000002,2017-12-31,年度报告,726444931.9699999,2017,12,-0.2428349200799378,True,1.9499443643564445,True,0.0,True,比例外推,81341995.71000002,453900000.0,453900000.0
23,600621,56632010.41,81341995.71000002,2017-12-31,年度报告,726444931.9699999,2017,12,-0.2428349200799378,True,1.9499443643564445,True,0.0,True,比例外推,81341995.71000002,453900000.0,453900000.0
24,600621,56632010.41,81341995.71000002,2017-12-31,年度报告,726444931.9699999,2017,12,-0.2428349200799378,True,1.9499443643564445,True,0.0,True,比例外推,81341995.71000002,453900000.0,453900000.0
25,600621,3915875.68,22599316.33,2018-03-31,一季度报告,18021360.05,2018,3,6.6821363661945155,False,0.5209575281074921,True,0.5814649176850473,False,前期平均,49387335.24000001,未知,49387335.24000001
26,600621,5793474.710000001,38435085.62,2018-06-30,半年度报告,24036798.5,2018,6,5.020476525186054,False,0.7555646954198426,True,0.8720963641412005,False,前期平均,907779.3899999857,未知,907779.3899999857
27,600621,2723061.8,39016334.63,2018-09-30,三季度报告,15005630.17,2018,9,2.5977543087164348,False,0.6634288789545485,True,0.8750138506080476,False,前期平均,-6062826.335000008,未知,-6062826.335000008
28,600621,-23407309.93,21846336.34,2018-12-31,年度报告,-56361269.47000001,2018,12,-0.6047875153422732,True,1.973570132008202,True,0.0,True,比例外推,21846336.34,未知,21846336.34
29,600621,47207093.1,66969341.09,2019-03-31,一季度报告,64642560.60999999,2019,3,74.58038520773466,False,0.9486331708270282,True,0.8332587906292408,False,前期平均,420501195.875,未知,420501195.875
30,600621,34457380.36,72912820.41,2019-06-30,半年度报告,66692432.83000001,2019,6,50.08564499455628,False,0.9616258522312218,True,0.9997071010936724,False,前期平均,408964610.67499995,未知,408964610.67499995
31,600621,41357933.14,85635069.64,2019-09-30,三季度报告,78745299.14999999,2019,9,107.68772508945626,False,0.9863078697670711,True,0.8598011372952732,False,前期平均,405315404.3249999,417000000.0,405315404.3249999
32,600621,15443668.92,64237614.08,2019-12-31,年度报告,73817879.00999999,2019,12,-13.644058339257437,False,1.0410742783480986,True,0.0,True,前期平均,64237614.08,未知,64237614.08
33,600621,81261304.09,97698758.41999996,2020-03-31,一季度报告,96514242.72,2020,3,5.269468693889985,False,1.2245430332952048,True,0.6862605683512457,False,前期平均,419236070.68999994,未知,419236070.68999994
