,SECURITYCODE_x,NETPROFIT_x,PARENTNETPROFIT_x,REPORTDATE_x,REPORTTIMETYPE_x,KCFJCXSYJLR,Year,Month,managesituationChangeRate,managesituationGreatChange,historyprofitextroplaterate,ifhistoryprofitextroplate,IfprofitdisStableChangeRage,IfprofitdisStable,predicttype,predict,analyst_prediction,adj_prediction
0,600682,130034764.4,135240812.13,2013-12-31,年度报告,132560197.95,2013,12,未知,未知,未知,未知,未知,未知,未知,未知,未知,未知
1,600682,61070574.3,60289622.55000001,2014-03-31,一季度报告,57804037.49,2014,3,未知,未知,未知,未知,未知,未知,未知,未知,未知,未知
2,600682,90413949.7,91014696.78,2014-06-30,半年度报告,89199797.15,2014,6,未知,未知,未知,未知,未知,未知,未知,未知,未知,未知
3,600682,90677128.56999998,94259217.26000002,2014-09-30,三季度报告,93093176.01999998,2014,9,未知,未知,未知,未知,未知,未知,未知,未知,未知,未知
4,600682,431683758.8,398164414.98,2014-12-31,年度报告,447916838.68,2014,12,0.0,True,未知,未知,未知,未知,未知,未知,未知,未知
5,600682,-180473380.75,-155788708.07000002,2015-03-31,一季度报告,-154139266.84,2015,3,1.129253996551986,False,未知,未知,未知,未知,未知,未知,416134211.0,未知
6,600682,105914552.85,135503373.95999998,2015-06-30,半年度报告,-174659191.6,2015,6,0.43821572701408046,True,未知,未知,未知,未知,未知,未知,483833333.0,未知
7,600682,-145917017.05999997,-92767449.78,2015-09-30,三季度报告,-361092449.28,2015,9,0.43404148819751315,True,未知,未知,未知,未知,未知,未知,259370000.0,未知
8,600682,359085650.15000004,366504058.47,2015-12-31,年度报告,112320712.39,2015,12,-0.6987730908351235,True,未知,未知,未知,未知,未知,未知,342613333.0,未知
9,600682,-191951994.08,-165806739.96999997,2016-03-31,一季度报告,-161942176.32000002,2016,3,-1.720520466007838,False,未知,未知,未知,未知,未知,未知,740342869.0000001,未知
10,600682,-273736566.94,-242930145.15000007,2016-06-30,半年度报告,-254422757.26,2016,6,0.22773274211108577,True,未知,未知,未知,未知,未知,未知,699195000.0,未知
11,600682,-447800073.72,-398606130.71,2016-09-30,三季度报告,-429688001.47,2016,9,-1.8911555829470574,False,未知,未知,未知,未知,未知,未知,433857500.0,未知
12,600682,485117579.91,464264442.52,2016-12-31,年度报告,417886928.00999993,2016,12,-0.6378725678798891,True,0.2785252232892718,True,0.0,True,比例外推,464264442.52,589960000.0,589960000.0
13,600682,-55752887.67999999,-60406968.2,2017-03-31,一季度报告,-63473176.67999999,2017,3,-1.6774337772485202,False,-2.2152007107199787,True,0.8287173929180943,False,前期平均,267879422.01000005,615735000.0,615735000.0
14,600682,117656147.87999998,88726428.50999999,2017-06-30,半年度报告,88103381.02,2017,6,-1.475036148270619,False,3.7885565609128617,False,0.9001068984054865,False,前期平均,411574901.27000004,601000000.0,601000000.0
15,600682,416661424.89999986,374782922.73,2017-09-30,三季度报告,327033313.16,2017,9,-1.2903857592513661,False,-15.21292460795118,True,1.8697546834354353,False,盈利变化,800585026.8,540000000.0,540000000.0
16,600682,1053467890.5699998,943662038.72,2017-12-31,年度报告,678486353.61,2017,12,-0.7319520673232985,True,0.22695080112962177,True,0.0,True,比例外推,943662038.72,1194500000.0,1194500000.0
17,600682,259315468.03000003,227471779.32,2018-03-31,一季度报告,-65846163.52,2018,3,-3.332341333535031,False,-0.7005956551405803,True,0.7545167356018136,False,盈利变化,940498056.2666667,1596022500.0,1596022500.0
18,600682,-1263510772.4499998,-1305878374.53,2018-06-30,半年度报告,-1785893661.6499996,2018,6,0.10521011220446586,True,-2.402153925013712,True,0.8770099600487984,False,平均增速,-6500772325.156288,1111666667.0,1111666667.0
19,600682,-699658286.23,-781037362.89,2018-09-30,三季度报告,-1407702462.5700006,2018,9,-0.6879126393061015,True,-2.403568909739849,True,1.9611441542684682,False,平均增速,-1067896144.941299,,-1067896144.941299
20,600682,-811392756.7,-891636180.7599998,2018-12-31,年度报告,-1367875183.3200002,2018,12,-0.8765650424051918,True,1.4957684430919,True,0.0,True,比例外推,-891636180.7599998,1761495000.0,1761495000.0
21,600682,370974021.59,326416834.9,2019-03-31,一季度报告,326720807.91,2019,3,-0.49854605516645706,True,-3.0937453165032855,True,0.24321300387080202,False,平均增速,-4078121069.593288,未知,-4078121069.593288
22,600682,1075475087.24,978957169.9299998,2019-06-30,半年度报告,979240754.1700004,2019,6,-1.1029154378698784,False,-15.190509739268249,True,1.0300575422578988,False,盈利变化,951786763.1200004,1457150000.0,1457150000.0
23,600682,1469342892.29,1363171218.0900002,2019-09-30,三季度报告,1360410017.76,2019,9,-1.1858546764316509,False,-43.938256009401,True,1.189200056607818,False,盈利变化,338636032.72000074,1427300000.0,1427300000.0
24,600682,1859783134.83,1687207443.3999994,2019-12-31,年度报告,1597107142.77,2019,12,-1.1602611846436266,False,2.0547256194312897,False,0.0,True,前期平均,1687207443.3999994,,1687207443.3999994
25,600682,256095161.39,216106248.71,2020-03-31,一季度报告,215095039.62,2020,3,-0.6494774382241939,True,2.644815475930372,False,0.151518115186961,False,未知,未知,未知,未知
