,SECURITYCODE_x,NETPROFIT_x,PARENTNETPROFIT_x,REPORTDATE_x,REPORTTIMETYPE_x,KCFJCXSYJLR,Year,Month,managesituationChangeRate,managesituationGreatChange,historyprofitextroplaterate,ifhistoryprofitextroplate,IfprofitdisStableChangeRage,IfprofitdisStable,predicttype,predict,analyst_prediction,adj_prediction
0,600671,2503024.05,2108420.84,2013-12-31,年度报告,-3286175.33,2013,12,未知,未知,未知,未知,未知,未知,未知,未知,未知,未知
1,600671,-1950971.1,-631450.02,2014-06-30,半年度报告,-1036466.48,2014,6,未知,未知,未知,未知,未知,未知,未知,未知,未知,未知
2,600671,2215899.88,2197554.53,2014-09-30,三季度报告,1751842.11,2014,9,未知,未知,未知,未知,未知,未知,未知,未知,未知,未知
3,600671,2607615.6300000004,2713428.12,2014-12-31,年度报告,2524535.79,2014,12,0.0,True,未知,未知,未知,未知,未知,未知,未知,未知
4,600671,-3485478.8500000006,-3383633.75,2015-03-31,一季度报告,-3426561.3399999994,2015,3,未知,未知,未知,未知,未知,未知,未知,未知,未知,未知
5,600671,-6177119.6099999985,-5581115.329999999,2015-06-30,半年度报告,-6219520.56,2015,6,-2.282963161268765,False,未知,未知,未知,未知,未知,未知,未知,未知
6,600671,-13394062.7,-12534822.569999995,2015-09-30,三季度报告,-12685966.87,2015,9,0.12957452301500189,True,未知,未知,未知,未知,未知,未知,未知,未知
7,600671,-22491900.27,-21543685.67000001,2015-12-31,年度报告,-21589223.820000004,2015,12,-0.04011004489952399,True,未知,未知,未知,未知,未知,未知,未知,未知
8,600671,-4852194.319999998,-4944817.86,2016-03-31,一季度报告,-6472362.039999999,2016,3,-1.7181291747043592,False,未知,未知,未知,未知,未知,未知,未知,未知
9,600671,-8284699.189999999,-8252334.45,2016-06-30,半年度报告,-11416657.409999998,2016,6,-1.4052089336181723,False,未知,未知,未知,未知,未知,未知,未知,未知
10,600671,-562785.97,-475340.26,2016-09-30,三季度报告,-12393730.21,2016,9,-1.1868756408016516,False,未知,未知,未知,未知,未知,未知,未知,未知
11,600671,2626944.81,1217184.6499999994,2016-12-31,年度报告,-14157930.61,2016,12,-1.1112855748048363,False,9.801990231485073,False,0.0,True,未知,未知,未知,未知
12,600671,-3181890.89,-3093781.7,2017-03-31,一季度报告,-3668755.56,2017,3,-1.5158540414762285,False,未知,未知,未知,未知,未知,未知,未知,未知
13,600671,-7429995.589999999,-7228433.44,2017-06-30,半年度报告,-8265527.7,2017,6,-1.3021261234229555,False,-1.0385351211219442,True,0.6385259871451472,False,前期平均,-13132783.935000002,未知,-13132783.935000002
14,600671,8441058.56,8538979.98,2017-09-30,三季度报告,-12450596.070000006,2017,9,-5.447559433651127,False,-0.899306177757035,True,0.15641662137584367,False,盈利变化,1191910.9344444417,未知,1191910.9344444417
15,600671,8991972.309999999,8141575.8900000015,2017-12-31,年度报告,-15979803.89,2017,12,-0.04717295906951324,True,-1.2642232152234973,True,0.0,True,比例外推,8141575.8900000015,未知,8141575.8900000015
16,600671,-1607169.7399999998,-1882756.79,2018-03-31,一季度报告,-2295818.27,2018,3,-1.7866467256518652,False,-0.23674367533406193,True,0.1753352490318016,False,前期平均,-14806872.315000001,未知,-14806872.315000001
17,600671,10818110.51,9880341.87,2018-06-30,半年度报告,-6854469.55,2018,6,-1.336880960382912,False,-0.027532662765765045,True,0.269141684706959,False,盈利变化,9082281.323333334,未知,9082281.323333334
18,600671,9841905.81,7573684.59,2018-09-30,三季度报告,-10758154.09,2018,9,-0.7034703607126735,True,-2.209593764263405,True,0.15977474316975893,False,平均增速,3614446.22083034,未知,3614446.22083034
19,600671,-6664769.010000003,-9876351.57,2018-12-31,年度报告,-26822931.870000005,2018,12,-0.7216379272858325,True,-1.9053100902346547,True,0.0,True,比例外推,-9876351.57,未知,-9876351.57
20,600671,-1005525.92,-1874831.33,2019-03-31,一季度报告,-3304521.97,2019,3,-2.5574111356775546,False,-0.5999121995869396,True,0.19971013545673483,False,前期平均,-11873139.78,未知,-11873139.78
21,600671,3945158.72,2114420.91,2019-06-30,半年度报告,-10530473.44,2019,6,-0.7686265038902805,True,-2.376814588059088,True,0.2799881392134198,False,平均增速,-8469762.023137072,未知,-8469762.023137072
22,600671,101439.19000000002,-2244814.36,2019-09-30,三季度报告,-15263914.720000004,2019,9,-0.7456768944631873,True,1.4984933429423264,True,0.28412538810336596,False,平均增速,-11703434.802031634,未知,-11703434.802031634
23,600671,51460020.14000001,50110243.21999999,2019-12-31,年度报告,-31696065.11000001,2019,12,-1.3755605102358976,False,2.1472272228412286,False,0.0,True,前期平均,50110243.21999999,未知,50110243.21999999
24,600671,-351748.2,-24694.68,2020-03-31,一季度报告,-3170341.37,2020,3,-3.4892685511279504,False,-0.5800738400758146,True,0.08977529371597112,True,前期平均,-18443775.645000003,未知,-18443775.645000003
