,SECURITYCODE_x,NETPROFIT_x,PARENTNETPROFIT_x,REPORTDATE_x,REPORTTIMETYPE_x,KCFJCXSYJLR,Year,Month,managesituationChangeRate,managesituationGreatChange,historyprofitextroplaterate,ifhistoryprofitextroplate,IfprofitdisStableChangeRage,IfprofitdisStable,predicttype,predict,analyst_prediction,adj_prediction
0,600694,1257625654.05,1179072104.0499995,2013-12-31,年度报告,1226914360.8399994,2013,12,未知,未知,未知,未知,未知,未知,未知,未知,未知,未知
1,600694,460133312.2500001,425201731.3200002,2014-03-31,一季度报告,414939854.37,2014,3,未知,未知,未知,未知,未知,未知,未知,未知,未知,未知
2,600694,819464504.8200003,750260495.24,2014-06-30,半年度报告,732698687.1399997,2014,6,未知,未知,未知,未知,未知,未知,未知,未知,未知,未知
3,600694,1099296759.69,1028167977.61,2014-09-30,三季度报告,1005368528.4600004,2014,9,未知,未知,未知,未知,未知,未知,未知,未知,未知,未知
4,600694,1324211205.43,1227808894.2900007,2014-12-31,年度报告,1217706887.06,2014,12,0.0,True,未知,未知,未知,未知,未知,未知,未知,未知
5,600694,318795135.04,292701119.04999995,2015-03-31,一季度报告,286447861.73,2015,3,1.7331767132884859,False,未知,未知,未知,未知,未知,未知,1324000000.0,未知
6,600694,648155433.7500002,615005687.12,2015-06-30,半年度报告,603834607.58,2015,6,0.5346920417574939,False,未知,未知,未知,未知,未知,未知,1107000000.0,未知
7,600694,656257447.53,635715537.31,2015-09-30,三季度报告,614550537.23,2015,9,0.14402743659923858,True,未知,未知,未知,未知,未知,未知,787500000.0,未知
8,600694,617616524.22,662111706.4999999,2015-12-31,年度报告,638278426.6099999,2015,12,-0.050283180739569666,True,未知,未知,未知,未知,未知,未知,1555500000.0,未知
9,600694,306758568.46000004,294480328.99000007,2016-03-31,一季度报告,282189711.97,2016,3,2.944933644900831,False,未知,未知,未知,未知,未知,未知,715500000.0,未知
10,600694,525363987.6,512391487.5699998,2016-06-30,半年度报告,488947748.87,2016,6,0.9403149130044604,False,未知,未知,未知,未知,未知,未知,727783333.0,未知
11,600694,645917091.24,648071903.72,2016-09-30,三季度报告,621370987.7199999,2016,9,0.9163602009903425,False,未知,未知,未知,未知,未知,未知,746587500.0,未知
12,600694,653327577.6400001,702992437.7900001,2016-12-31,年度报告,663030220.3200003,2016,12,1.036256487208272,False,0.5215681254590251,True,0.0,True,前期平均,702992437.7900001,,702992437.7900001
13,600694,332558410.18,329282369.73,2017-03-31,一季度报告,321272086.63000005,2017,3,3.0997246152359352,False,0.2123575162076683,True,0.06429262028065302,True,前期平均,906581168.5149999,765870000.0,765870000.0
14,600694,523679734.31000006,519882101.75000006,2017-06-30,半年度报告,507858496.8700002,2017,6,1.393817779165189,False,0.284059893446396,True,0.18430831710213658,False,前期平均,779608111.225,756000000.0,779608111.225
15,600694,641271163.4700001,646523550.6899997,2017-09-30,三季度报告,629553293.8799999,2017,9,0.9470388244963015,False,0.26414452076323053,True,0.08291492752071594,True,前期平均,764556674.6799994,未知,764556674.6799994
16,600694,849997637.1899999,876556293.0900003,2017-12-31,年度报告,850922739.49,2017,12,0.9249541839223926,False,0.32710037284537336,True,0.0,True,前期平均,876556293.0900003,,876556293.0900003
17,600694,375697363.84,351933033.43,2018-03-31,一季度报告,338641569.96999985,2018,3,2.781668469515775,False,0.06324495664983304,True,0.039757836719996664,True,前期平均,718268570.0450001,887000000.0,887000000.0
18,600694,653542749.6299999,612662497.38,2018-06-30,半年度报告,606973163.42,2018,6,1.401516750895557,False,0.1075056368345976,True,0.18593197698041686,False,前期平均,716925642.6200001,850000000.0,850000000.0
19,600694,832498926.6600003,785190250.6899999,2018-09-30,三季度报告,784540161.3100003,2018,9,0.9611448723888144,False,0.015076482641523432,True,0.1400993511873101,False,前期平均,817883811.6800001,830000000.0,817883811.6800001
20,600694,1050999774.01,987789826.36,2018-12-31,年度报告,983962699.13,2018,12,0.4795637058563763,True,0.33758461280247676,True,0.0,True,比例外推,987789826.36,,987789826.36
21,600694,417833202.61,387776397.3600001,2019-03-31,一季度报告,377435084.05,2019,3,2.3474433815447027,False,0.17530857584670986,True,0.04316464679588816,True,前期平均,843021977.9650002,865000000.0,843021977.9650002
22,600694,685921352.4499999,633424225.3599999,2019-06-30,半年度报告,611005967.99,2019,6,0.9243204132583503,False,0.24597809601317805,True,0.08706318926529832,True,前期平均,891997582.395,973500000.0,891997582.395
23,600694,905167122.3299998,836582784.1599997,2019-09-30,三季度报告,751864437.1600001,2019,9,0.5106633940005366,False,0.29351541798765096,True,0.11238731389231305,False,前期平均,968097123.265,933500000.0,968097123.265
24,600694,964041246.4,893351500.7600002,2019-12-31,年度报告,831614908.11,2019,12,0.1965993572497514,True,0.39823341435652015,True,0.0,True,比例外推,893351500.7600002,861000000.0,893351500.7600002
25,600694,60160175.24,54446960.12000001,2020-03-31,一季度报告,30159091.33,2020,3,2.0098748644057642,False,0.17989352981455847,True,0.06199924512348154,True,前期平均,641932851.13,未知,641932851.13
