,SECURITYCODE_x,NETPROFIT_x,PARENTNETPROFIT_x,REPORTDATE_x,REPORTTIMETYPE_x,KCFJCXSYJLR,Year,Month,managesituationChangeRate,managesituationGreatChange,historyprofitextroplaterate,ifhistoryprofitextroplate,IfprofitdisStableChangeRage,IfprofitdisStable,predicttype,predict,analyst_prediction,adj_prediction
0,600622,365139212.3699998,338907575.26,2013-12-31,年度报告,268097493.35,2013,12,未知,未知,未知,未知,未知,未知,未知,未知,未知,未知
1,600622,111758235.85,111006975.03999998,2014-03-31,一季度报告,107113696.63,2014,3,未知,未知,未知,未知,未知,未知,未知,未知,未知,未知
2,600622,286455683.48,276465391.75,2014-06-30,半年度报告,173558707.31000003,2014,6,未知,未知,未知,未知,未知,未知,未知,未知,未知,未知
3,600622,297867541.04,288605733.35999995,2014-09-30,三季度报告,174246808.46,2014,9,未知,未知,未知,未知,未知,未知,未知,未知,未知,未知
4,600622,399660156.76,358646268.52999985,2014-12-31,年度报告,237334921.7200001,2014,12,0.0,True,未知,未知,未知,未知,未知,未知,未知,未知
5,600622,118821016.49,115052535.12999998,2015-03-31,一季度报告,60237519.38,2015,3,2.2672241968823084,False,未知,未知,未知,未知,未知,未知,未知,未知
6,600622,191362683.06,183844267.09,2015-06-30,半年度报告,82085554.7,2015,6,0.2746795872021628,True,未知,未知,未知,未知,未知,未知,未知,未知
7,600622,226091129.43,217775405.05000004,2015-09-30,三季度报告,122840276.20000002,2015,9,0.22584424974645367,True,未知,未知,未知,未知,未知,未知,275983546.0,未知
8,600622,294035906.39000005,274637474.5200001,2015-12-31,年度报告,166403758.42999998,2015,12,-0.0863757465088779,True,未知,未知,未知,未知,未知,未知,273172786.0,未知
9,600622,102416785.29999998,104005791.26,2016-03-31,一季度报告,102107367.94999996,2016,3,2.073018756751084,False,未知,未知,未知,未知,未知,未知,341170000.0,未知
10,600622,130998866.44,133406905.17,2016-06-30,半年度报告,117774330.07000004,2016,6,0.9081004014534736,False,未知,未知,未知,未知,未知,未知,379589237.99999994,未知
11,600622,168644319.35,172363263.13999996,2016-09-30,三季度报告,142295547.51999998,2016,9,0.615009015570646,False,未知,未知,未知,未知,未知,未知,358231647.0,未知
12,600622,290771663.42999995,295754272.96000004,2016-12-31,年度报告,249994601.96,2016,12,0.2418184460971599,True,0.23107701638278916,True,0.0,True,比例外推,295754272.96000004,359508482.0,359508482.0
13,600622,157822266.73,142578060.23999998,2017-03-31,一季度报告,138302796.55,2017,3,2.565228212352413,False,0.11165654098850485,True,0.04525491067682469,True,前期平均,260771792.31000003,490537949.0,490537949.0
14,600622,310789869.55000013,271187671.64,2017-06-30,半年度报告,257327617.22,2017,6,1.7873463511017527,False,0.4516792337281008,True,0.16605487491439364,False,前期平均,345234880.71,499072500.0,499072500.0
15,600622,398566274.53000015,334751249.84,2017-09-30,三季度报告,310602406.85999995,2017,9,1.1651438588464962,False,0.35626861867283116,True,0.11133275223438532,False,前期平均,388077047.585,503908889.0,503908889.0
16,600622,678425697.9100001,545357887.4599999,2017-12-31,年度报告,505010130.51,2017,12,0.2557592719412394,True,0.16167417151068517,True,0.0,True,比例外推,545357887.4599999,441830000.0,441830000.0
17,600622,244788819.08,152024104.03,2018-03-31,一季度报告,153963947.11999995,2018,3,1.3136102397684772,False,0.4267206187467518,True,0.07423719252748401,True,前期平均,279050840.56000006,639520000.0,639520000.0
18,600622,462522814.01000017,318988728.97,2018-06-30,半年度报告,281333898.9500001,2018,6,0.17487488539666166,True,0.9282068226316187,True,0.020208633937871034,True,比例外推,610267622.0830982,684536667.0,684536667.0
19,600622,628909456.54,434022047.52,2018-09-30,三季度报告,389743667.42000014,2018,9,-0.08386826557118611,True,1.0194095856444616,True,0.0973919556212215,True,比例外推,652479129.8523843,680333333.0,652479129.8523843
20,600622,1169629054.03,881461781.3999999,2018-12-31,年度报告,836209154.7,2018,12,-0.4617845204052999,True,1.3201672923584598,True,0.0,True,比例外推,881461781.3999999,656000000.0,656000000.0
21,600622,129835736.94,163819377.82000002,2019-03-31,一季度报告,131825679.74000002,2019,3,0.49164987903580604,True,0.8812612263264863,True,0.1196312717289213,False,平均增速,1082860528.2126231,1047991250.0,1082860528.2126231
22,600622,217040963.76,235734663.44,2019-06-30,半年度报告,185663864.85,2019,6,-0.21054875281869842,True,1.0938642221085029,True,0.10259254932703332,False,平均增速,928745181.5392785,1061250000.0,1061250000.0
23,600622,311473316.22,302847200.48,2019-09-30,三季度报告,244389484.71000004,2019,9,-0.41940893307783134,True,1.2175518698899794,True,0.0840228364910634,True,比例外推,502715975.94180954,1145375000.0,1145375000.0
24,600622,438716545.21000016,451294772.4000001,2019-12-31,年度报告,365063914.16999984,2019,12,-0.6878162259120537,True,1.4136034634120043,True,0.0,True,比例外推,451294772.4000001,997000000.0,997000000.0
25,600622,80142668.17,88310414.07000001,2020-03-31,一季度报告,88902039.23,2020,3,1.812316708601876,False,0.35503148563935966,True,0.08890725708640801,True,前期平均,612786684.8400002,523044832.0,523044832.0
