,SECURITYCODE_x,NETPROFIT_x,PARENTNETPROFIT_x,REPORTDATE_x,REPORTTIMETYPE_x,KCFJCXSYJLR,Year,Month,managesituationChangeRate,managesituationGreatChange,historyprofitextroplaterate,ifhistoryprofitextroplate,IfprofitdisStableChangeRage,IfprofitdisStable,predicttype,predict,analyst_prediction,adj_prediction
0,600628,251791198.6,243226581.01,2013-12-31,年度报告,192307972.73,2013,12,未知,未知,未知,未知,未知,未知,未知,未知,未知,未知
1,600628,52988686.21,50381193.40000001,2014-03-31,一季度报告,49738592.13,2014,3,未知,未知,未知,未知,未知,未知,未知,未知,未知,未知
2,600628,137937188.16,132975432.84,2014-06-30,半年度报告,102874708.04999998,2014,6,未知,未知,未知,未知,未知,未知,未知,未知,未知,未知
3,600628,169204597.51999998,161782456.62999997,2014-09-30,三季度报告,130835366.46999995,2014,9,未知,未知,未知,未知,未知,未知,未知,未知,未知,未知
4,600628,247994769.71000007,239651165.89999995,2014-12-31,年度报告,192026215.66,2014,12,0.0,True,未知,未知,未知,未知,未知,未知,未知,未知
5,600628,44869275.2,42274494.43,2015-03-31,一季度报告,41971009.13999999,2015,3,3.7517916862879694,False,未知,未知,未知,未知,未知,未知,未知,未知
6,600628,40423150.98,35211728.97,2015-06-30,半年度报告,34212778.48,2015,6,0.8254047509503764,False,未知,未知,未知,未知,未知,未知,140857956.0,未知
7,600628,44256344.64000001,36283194.06,2015-09-30,三季度报告,11187498.99,2015,9,0.4880872168395914,True,未知,未知,未知,未知,未知,未知,102350000.0,未知
8,600628,62080702.58,52207500.94000001,2015-12-31,年度报告,5145526.969999999,2015,12,0.01530850386255884,True,未知,未知,未知,未知,未知,未知,未知,未知
9,600628,13972652.8,13830152.8,2016-03-31,一季度报告,13933522.939999998,2016,3,4.611661821539742,False,未知,未知,未知,未知,未知,未知,62000000.0,未知
10,600628,32694147.21,32409147.210000005,2016-06-30,半年度报告,-3669173.849999999,2016,6,5.228885984780794,False,未知,未知,未知,未知,未知,未知,60270000.0,未知
11,600628,41504755.36999999,41077255.37,2016-09-30,三季度报告,-19070995.870000005,2016,9,4.689380825465299,False,未知,未知,未知,未知,未知,未知,59083333.0,未知
12,600628,253290532.28,252720532.28,2016-12-31,年度报告,7686001.6499999985,2016,12,3.055869024283842,False,0.7515708462567582,True,0.0,True,前期平均,252720532.28,105000000.0,105000000.0
13,600628,270284301.2,270141801.20000005,2017-03-31,一季度报告,63654776.98,2017,3,17.020285925948148,False,0.7144299227436768,True,4.74724208658154,False,前期平均,322872871.88000005,377695000.0,377695000.0
14,600628,362408819.8499999,362123819.85,2017-06-30,半年度报告,114259384.11,2017,6,6.701415087621121,False,0.6333921838493763,True,4.4132390913360044,False,前期平均,392165947.90000004,384175000.0,392165947.90000004
15,600628,420572727.04,420145227.04,2017-09-30,三季度报告,166991288.7,2017,9,5.0665626469876015,False,0.6111255300382772,True,2.6060288737782846,False,前期平均,447719665.62500006,300000000.0,300000000.0
16,600628,448865056.92,448295056.92,2017-12-31,年度报告,177626078.60000002,2017,12,-0.005919422516521734,True,0.6337347189016511,True,0.0,True,比例外推,448295056.92,131000000.0,131000000.0
17,600628,126711707.29,126569207.28999998,2018-03-31,一季度报告,95149586.73,2018,3,-0.06842092758586008,True,8.186792832485025,False,4.714127381762747,False,未知,未知,271500000.0,未知
18,600628,196010038.03,195725038.03,2018-06-30,半年度报告,151096959.02000004,2018,6,-0.3052288332711777,True,8.913080182701972,False,4.377397321182324,False,未知,未知,256000000.0,未知
19,600628,242257825.78,241830325.78,2018-09-30,三季度报告,193313019.74000004,2018,9,-0.40131353649079454,True,8.80800682339569,False,2.692291222990627,False,未知,未知,,未知
20,600628,273425920.95,272855920.95000005,2018-12-31,年度报告,232680607.79999995,2018,12,-0.43904923157144743,True,1.8465821058110181,True,0.0,True,比例外推,272855920.95000005,259370000.0,272855920.95000005
21,600628,80527699.23000002,80385199.23000002,2019-03-31,一季度报告,55644909.50000002,2019,3,0.9871186647634348,False,0.1084706600352862,True,0.9527988199365339,False,前期平均,134247089.39500004,161570000.0,161570000.0
22,600628,74582028.64,74297028.64,2019-06-30,半年度报告,28787582.579999994,2019,6,0.28458318324218934,True,0.007802753350449319,True,0.7491335975686941,False,平均增速,580142772.5664579,,580142772.5664579
23,600628,51686575.09,51259075.09,2019-09-30,三季度报告,1783504.9,2019,9,0.039352176918558954,True,0.04855932176779532,True,2.2444879405432085,False,平均增速,291782577.62446177,未知,291782577.62446177
24,600628,37194681.47999999,36624681.48,2019-12-31,年度报告,-18940443.219999995,2019,12,-0.07912462093875959,True,0.22118138727193665,True,0.0,True,比例外推,36624681.48,275000000.0,275000000.0
25,600628,-13779591.13,-13922091.13,2020-03-31,一季度报告,-29309097.91,2020,3,2.1267650883808806,False,0.5943148167343428,True,2.2143562348531916,False,盈利变化,-76647328.40000004,,-76647328.40000004
