,SECURITYCODE_x,NETPROFIT_x,PARENTNETPROFIT_x,REPORTDATE_x,REPORTTIMETYPE_x,KCFJCXSYJLR,Year,Month,managesituationChangeRate,managesituationGreatChange,historyprofitextroplaterate,ifhistoryprofitextroplate,IfprofitdisStableChangeRage,IfprofitdisStable,predicttype,predict,analyst_prediction,adj_prediction
0,600652,3450793.07,4474286.7700000005,2013-12-31,年度报告,-33450980.34,2013,12,未知,未知,未知,未知,未知,未知,未知,未知,未知,未知
1,600652,-30295410.5,-19184172.64,2014-03-31,一季度报告,-19281055.94,2014,3,未知,未知,未知,未知,未知,未知,未知,未知,未知,未知
2,600652,-94993054.71000002,-52458589.87000001,2014-06-30,半年度报告,-54984058.2,2014,6,未知,未知,未知,未知,未知,未知,未知,未知,未知,未知
3,600652,-160313703.55,-95241226.25,2014-09-30,三季度报告,-101628454.92999998,2014,9,未知,未知,未知,未知,未知,未知,未知,未知,未知,未知
4,600652,-212150517.75,-137290077.9,2014-12-31,年度报告,-154389008.51000002,2014,12,0.0,True,未知,未知,未知,未知,未知,未知,未知,未知
5,600652,-31132050.74,2791899.160000001,2015-03-31,一季度报告,443300.76,2015,3,-1.1139048130739142,False,未知,未知,未知,未知,未知,未知,未知,未知
6,600652,-14104035.81,23090929.23,2015-06-30,半年度报告,16535107.27,2015,6,-1.0363267933696285,False,未知,未知,未知,未知,未知,未知,未知,未知
7,600652,-64598681.85,6588017.849999998,2015-09-30,三季度报告,-2406128.0300000003,2015,9,-1.021525253260235,False,未知,未知,未知,未知,未知,未知,未知,未知
8,600652,-21440159.009999994,74616735.69999999,2015-12-31,年度报告,-64755854.07000002,2015,12,-1.0162657772726553,False,未知,未知,未知,未知,未知,未知,未知,未知
9,600652,8194913.92,8194913.92,2016-03-31,一季度报告,8177480.77,2016,3,-1.1108437442434926,False,未知,未知,未知,未知,未知,未知,未知,未知
10,600652,23232905.190000005,23232905.190000005,2016-06-30,半年度报告,19762429.560000006,2016,6,-1.2446670666812494,False,未知,未知,未知,未知,未知,未知,72908800.0,未知
11,600652,28318592.19,28318592.19,2016-09-30,三季度报告,20708775.47,2016,9,-1.0534189393835132,False,未知,未知,未知,未知,未知,未知,,未知
12,600652,117320036.35,117320036.35,2016-12-31,年度报告,22563946.06,2016,12,-1.1609499756224058,False,-0.7945358189343636,True,0.0,True,前期平均,117320036.35,未知,117320036.35
13,600652,14442929.639999995,14442929.639999995,2017-03-31,一季度报告,14575082.989999998,2017,3,-0.5789103944608609,True,-1.266815973005366,True,0.2022622385477412,False,平均增速,41394897.601923406,未知,41394897.601923406
14,600652,42163036.93,42163036.93,2017-06-30,半年度报告,41641062.77000001,2017,6,-0.8514695841187652,True,-1.4259124616295955,True,0.580890491062708,False,平均增速,47866348.59534906,未知,47866348.59534906
15,600652,42583658.26,42583658.26,2017-09-30,三季度报告,41969950.22000001,2017,9,-0.8781439046529099,True,-1.2518188772898053,True,0.5005766821213132,False,平均增速,46285819.37324056,未知,46285819.37324056
16,600652,-422314603.45999986,-422314603.45999986,2017-12-31,年度报告,-442247902.02,2017,12,-0.970586498458752,True,-2.0044924564394244,True,0.0,True,比例外推,-422314603.45999986,未知,-422314603.45999986
17,600652,24483815.69,24483815.69,2018-03-31,一季度报告,17875592.12,2018,3,-0.7610738848686933,True,-2.2593489547837993,True,0.25487657599464664,False,平均增速,1714547840.9557579,未知,1714547840.9557579
18,600652,16900164.400000002,16900164.400000002,2018-06-30,半年度报告,5626982.909999998,2018,6,-0.9181559650048671,True,8.237296575274248,False,0.7003950493889696,False,未知,未知,未知,未知
19,600652,4756504.49,4756504.49,2018-09-30,三季度报告,-6284465.24,2018,9,-0.918964381854402,True,-3.3474946539037855,True,0.6311025923517988,False,平均增速,2129357596.2723446,未知,2129357596.2723446
20,600652,-905216337.13,-905216337.13,2018-12-31,年度报告,-934522992.68,2018,12,-1.0081711431281983,False,9.809243715705401,False,0.0,True,去年同期,-905216337.13,未知,-905216337.13
21,600652,17697001.61,17697001.61,2019-03-31,一季度报告,15718873.87,2019,3,-0.8590581993553636,True,1.163087276851913,True,0.25897068066166823,False,平均增速,4292581443.877038,未知,4292581443.877038
22,600652,4141653.2600000007,4141653.2600000007,2019-06-30,半年度报告,-5416681.17,2019,6,-0.7958130472387595,True,0.4831433311568904,True,0.6172870057890429,False,平均增速,5089913856.310195,未知,5089913856.310195
23,600652,-11277686.3,-11277686.3,2019-09-30,三季度报告,-26576449.34000001,2019,9,-0.27451070901858865,True,0.8658292378644802,True,0.6412466373906178,False,平均增速,5597766696.787461,未知,5597766696.787461
24,600652,17179187.49,17179187.49,2019-12-31,年度报告,-96314760.94,2019,12,-1.0038121197424925,False,-4.935950569267177,True,0.0,True,盈利变化,-625813593.2166667,未知,-625813593.2166667
25,600652,-12996123.45,-12996123.45,2020-03-31,一季度报告,-10976739.27,2020,3,-0.8050069076080058,True,0.09075359576176516,True,0.0914404918544897,True,比例外推,150939510.9118821,未知,150939510.9118821
