,SECURITYCODE_x,NETPROFIT_x,PARENTNETPROFIT_x,REPORTDATE_x,REPORTTIMETYPE_x,KCFJCXSYJLR,Year,Month,managesituationChangeRate,managesituationGreatChange,historyprofitextroplaterate,ifhistoryprofitextroplate,IfprofitdisStableChangeRage,IfprofitdisStable,predicttype,predict,analyst_prediction,adj_prediction
0,600667,113385154.18000002,12456796.86,2013-12-31,年度报告,-30698275.51,2013,12,未知,未知,未知,未知,未知,未知,未知,未知,未知,未知
1,600667,17001196.759999998,-8862804.75,2014-03-31,一季度报告,-8917062.37,2014,3,未知,未知,未知,未知,未知,未知,未知,未知,未知,未知
2,600667,41849194.54,5290563.16,2014-06-30,半年度报告,-25674633.76000001,2014,6,未知,未知,未知,未知,未知,未知,未知,未知,未知,未知
3,600667,66087503.2,5656550.809999999,2014-09-30,三季度报告,-28713817.340000004,2014,9,未知,未知,未知,未知,未知,未知,未知,未知,未知,未知
4,600667,107531958.62000003,14193821.14,2014-12-31,年度报告,-21831316.4,2014,12,0.0,True,未知,未知,未知,未知,未知,未知,未知,未知
5,600667,18774392.75,-8014151.47,2015-03-31,一季度报告,-10082703.92,2015,3,5.669245452577188,False,未知,未知,未知,未知,未知,未知,24000000.0,未知
6,600667,42545204.77,-8624354.719999999,2015-06-30,半年度报告,-11358911.190000005,2015,6,1.709374826118219,False,未知,未知,未知,未知,未知,未知,181550000.0,未知
7,600667,87702068.11,2275512.68,2015-09-30,三季度报告,-1349032.41,2015,9,0.7156822196302919,False,未知,未知,未知,未知,未知,未知,,未知
8,600667,291856636.4,115257771.43,2015-12-31,年度报告,-9984940.91,2015,12,0.054432148685063964,True,未知,未知,未知,未知,未知,未知,100000000.0,未知
9,600667,80588788.6,48496973.9,2016-03-31,一季度报告,-6294848.0,2016,3,5.039351348927119,False,未知,未知,未知,未知,未知,未知,360066667.0,未知
10,600667,151837492.04,78621375.01,2016-06-30,半年度报告,-2647949.7299999995,2016,6,1.6650513211291806,False,未知,未知,未知,未知,未知,未知,388620000.0,未知
11,600667,257434732.51,133024693.05,2016-09-30,三季度报告,8821982.750000002,2016,9,0.29284470279295016,True,未知,未知,未知,未知,未知,未知,130800000.0,未知
12,600667,414913949.03000015,232520805.98,2016-12-31,年度报告,87315546.16000001,2016,12,-0.6115039370747712,True,1.6422275096834407,True,0.0,True,比例外推,232520805.98,205250000.0,205250000.0
13,600667,59384972.48000001,42132249.57999999,2017-03-31,一季度报告,39246199.07999999,2017,3,0.40695940650980367,True,3.5052388907511256,False,0.561074127855155,False,未知,未知,425500000.0,未知
14,600667,222262858.72000003,166907784.33999994,2017-06-30,半年度报告,162759866.81999996,2017,6,-0.25324666090948145,True,2.5982836131640923,False,0.791434245447844,False,未知,未知,434150000.0,未知
15,600667,389691275.4400001,296934478.21,2017-09-30,三季度报告,273662055.28,2017,9,-0.5595576670075177,True,2.3478828286877547,False,0.7981246668780609,False,未知,未知,458550000.0,未知
16,600667,552135652.32,417789999.2499999,2017-12-31,年度报告,391304072.68,2017,12,-0.7267260971941877,True,1.0777456051754444,True,0.0,True,比例外推,417789999.2499999,780162863.0000001,780162863.0000001
17,600667,109950549.37999997,79652307.1,2018-03-31,一季度报告,72918913.84,2018,3,0.9093240165798928,False,0.19531141562024906,True,0.6637930912131027,False,前期平均,126506385.685,603200000.0,603200000.0
18,600667,257592657.31000003,205045164.52,2018-06-30,半年度报告,197033086.05,2018,6,-0.48986009253647195,True,1.2868584742113294,True,0.6298641774064755,False,平均增速,1213346081.9140737,623066667.0,623066667.0
19,600667,451695998.51,367950096.2099999,2018-09-30,三季度报告,358640895.5599999,2018,9,-0.7090385099025455,True,1.2581844343458184,True,0.3875252693225463,False,平均增速,892847208.0833149,499000000.0,499000000.0
20,600667,674662927.0699999,572925113.0300001,2018-12-31,年度报告,507574373.7000001,2018,12,-0.7946425779542206,True,0.5624183114074564,True,0.0,True,比例外推,572925113.0300001,,572925113.0300001
21,600667,117102002.93,95987007.84,2019-03-31,一季度报告,94174007.09,2019,3,0.031237722952431306,True,0.5710165752731227,True,0.12938121293468793,False,平均增速,1004591653.7006603,576459478.0,576459478.0
22,600667,337297158.18999994,286726703.21,2019-06-30,半年度报告,285135881.43,2019,6,-0.5598276932111982,True,0.37713133273834215,True,0.2882600811259914,False,平均增速,960051917.2559149,665133333.0,665133333.0
23,600667,526170242.93,452615822.23000014,2019-09-30,三季度报告,448776364.93,2019,9,-0.7489790599119293,True,0.396006320132014,True,0.4012886005004485,False,平均增速,760955758.769069,610000000.0,610000000.0
24,600667,721427796.96,622165813.1,2019-12-31,年度报告,625523999.9399997,2019,12,-0.8319380691741556,True,0.39530159803214077,True,0.0,True,比例外推,622165813.1,,622165813.1
25,600667,129182834.54000004,107450249.46,2020-03-31,一季度报告,97160345.91,2020,3,-0.031740266237989145,True,0.3830766474008375,True,0.031207299513417983,True,比例外推,749133802.0092962,683666667.0,749133802.0092962
