,SECURITYCODE_x,NETPROFIT_x,PARENTNETPROFIT_x,REPORTDATE_x,REPORTTIMETYPE_x,KCFJCXSYJLR,Year,Month,managesituationChangeRate,managesituationGreatChange,historyprofitextroplaterate,ifhistoryprofitextroplate,IfprofitdisStableChangeRage,IfprofitdisStable,predicttype,predict,analyst_prediction,adj_prediction
0,600600,1974923792.9999995,1973372097.0,2013-12-31,年度报告,1655872156.0000002,2013,12,未知,未知,未知,未知,未知,未知,未知,未知,未知,未知
1,600600,581403673.9999999,585666303.0,2014-03-31,一季度报告,485076315.00000006,2014,3,未知,未知,未知,未知,未知,未知,未知,未知,未知,未知
2,600600,1437756806.0000002,1404661148.0,2014-06-30,半年度报告,1246759795.0000002,2014,6,未知,未知,未知,未知,未知,未知,未知,未知,未知,未知
3,600600,2227073970.0000005,2179491491.0,2014-09-30,三季度报告,1983812958.0000007,2014,9,未知,未知,未知,未知,未知,未知,未知,未知,未知,未知
4,600600,2019532067.0000005,1990098044.0,2014-12-31,年度报告,1671409467.0000002,2014,12,0.0,True,未知,未知,未知,未知,未知,未知,未知,未知
5,600600,522726463.9999998,520970884.0000001,2015-03-31,一季度报告,474779429.0,2015,3,2.396820283939244,False,未知,未知,未知,未知,未知,未知,2171784739.0,未知
6,600600,1219544500.0,1198721948.0,2015-06-30,半年度报告,1039972912.0,2015,6,0.37361463688317204,True,未知,未知,未知,未知,未知,未知,1810724677.0,未知
7,600600,1738725767.0000005,1745316491.9999998,2015-09-30,三季度报告,1521868697.0,2015,9,-0.11322038710730425,True,未知,未知,未知,未知,未知,未知,1697694408.0,未知
8,600600,1612043513.9999998,1713128882.0,2015-12-31,年度报告,1052706472.0,2015,12,-0.022088420743061637,True,未知,未知,未知,未知,未知,未知,1682686141.0,未知
9,600600,531822517.0,533859403.0000001,2016-03-31,一季度报告,503561459.00000006,2016,3,2.7781209275067433,False,未知,未知,未知,未知,未知,未知,1687137143.0,未知
10,600600,1074520373.0,1069028886.0,2016-06-30,半年度报告,977023050.0,2016,6,0.6193946124967146,False,未知,未知,未知,未知,未知,未知,1528587500.0,未知
11,600600,1923386412.0,1840050057.0,2016-09-30,三季度报告,1386315680.0,2016,9,0.13584547401487895,True,未知,未知,未知,未知,未知,未知,1643551667.0,未知
12,600600,1105698452.0,1043486428.0000002,2016-12-31,年度报告,819399167.0000001,2016,12,0.22510575914888103,True,0.1928595180420896,True,0.0,True,比例外推,1043486428.0000002,1669862000.0,1669862000.0
13,600600,605785085.9999999,579311982.9999999,2017-03-31,一季度报告,544488988.9999999,2017,3,2.7135016473926385,False,0.036666967603414674,True,0.16262366168144,False,前期平均,1461442080.5,1405238571.0,1461442080.5
14,600600,1224911527.0,1148467992.9999998,2017-06-30,半年度报告,1032122966.0,2017,6,0.8379584441811226,False,0.19126945026985961,True,0.22946759907607184,False,前期平均,1367159608.9999998,1290810000.0,1367159608.9999998
15,600600,1996502696.0,1869488697.0,2017-09-30,三季度报告,1688935744.9999998,2017,9,0.026795125866782676,True,0.030013344317290455,True,0.254573512787968,False,平均增速,1324570363.7007785,1272300000.0,1324570363.7007785
16,600600,1382255640.9999998,1263017188.0,2017-12-31,年度报告,975265769.0,2017,12,0.7861323667657623,False,0.3910640561717115,True,0.0,True,前期平均,1263017188.0,1343590000.0,1263017188.0
17,600600,703862680.0000001,667158070.0,2018-03-31,一季度报告,566293224.9999999,2018,3,2.2601063291941124,False,0.14889890733297292,True,0.09027698639565718,True,前期平均,1114040445.5,1523306667.0,1523306667.0
18,600600,1396211017.9999998,1302224985.0,2018-06-30,半年度报告,1106423093.0000002,2018,6,0.61229913301322,False,0.06789615360628906,True,0.11284241164643039,False,前期平均,1229779823.5,1533336667.0,1533336667.0
19,600600,2250881662.0000005,2099747416.9999995,2018-09-30,三季度报告,1801819365.0,2018,9,-0.010808351545547063,True,0.09035583751297191,True,0.17743115910854756,False,平均增速,1367830917.255504,1479988889.0,1367830917.255504
20,600600,1561011454.0,1422199704.9999998,2018-12-31,年度报告,1053742611.9999998,2018,12,0.4287688430565789,True,0.01720888759312021,True,0.0,True,比例外推,1422199704.9999998,1480211111.0,1422199704.9999998
21,600600,843674582.0000001,807528602.0,2019-03-31,一季度报告,717639148.0,2019,3,1.8058367762871008,False,0.2374436987654347,True,0.04446329056106457,True,前期平均,1180835846.0,1737991429.0,1737991429.0
22,600600,1725540784.0,1630516035.9999998,2019-06-30,半年度报告,1444985679.9999998,2019,6,0.41448804481501367,True,0.21439649332515545,True,0.09214584133709547,True,比例外推,1498891797.2896712,1791615735.0,1791615735.0
23,600600,2727104089.999999,2585748594.9999995,2019-09-30,三季度报告,2298208475.0,2019,9,-0.1225999010338025,True,0.1484414992282483,True,0.02058244064555681,True,比例外推,1630589170.7457743,1774302609.0,1630589170.7457743
24,600600,1929116393.0,1852103376.0,2019-12-31,年度报告,1346981071.0000002,2019,12,0.26515650345766106,True,0.2548555123199373,True,0.0,True,比例外推,1852103376.0,1774302609.0,1852103376.0
25,600600,554101447.9999999,537178217.0,2020-03-31,一季度报告,461265005.0,2020,3,1.3408596574265401,False,0.2883992229098341,True,0.015469605803738573,True,前期平均,996291300.5,1943655517.0,1943655517.0
