,SECURITYCODE_x,NETPROFIT_x,PARENTNETPROFIT_x,REPORTDATE_x,REPORTTIMETYPE_x,KCFJCXSYJLR,Year,Month,managesituationChangeRate,managesituationGreatChange,historyprofitextroplaterate,ifhistoryprofitextroplate,IfprofitdisStableChangeRage,IfprofitdisStable,predicttype,predict,analyst_prediction,adj_prediction
0,600606,68174436.07000001,69630661.53999999,2013-12-31,年度报告,6791693191.849999,2013,12,未知,未知,未知,未知,未知,未知,未知,未知,未知,未知
1,600606,-15555107.279999996,-14047793.83,2014-03-31,一季度报告,-17368917.68,2014,3,未知,未知,未知,未知,未知,未知,未知,未知,未知,未知
2,600606,4072096162.56,4326391943.709999,2014-06-30,半年度报告,4338162898.529999,2014,6,未知,未知,未知,未知,未知,未知,未知,未知,未知,未知
3,600606,4171572933.75,4412627953.75,2014-09-30,三季度报告,4417875636.68,2014,9,未知,未知,未知,未知,未知,未知,未知,未知,未知,未知
4,600606,5400584799.64,5569793594.339999,2014-12-31,年度报告,5508856013.69,2014,12,0.0,True,未知,未知,未知,未知,未知,未知,未知,未知
5,600606,1693362553.1599998,1799065987.3299997,2015-03-31,一季度报告,1804212361.06,2015,3,-5.382768620159593,False,未知,未知,未知,未知,未知,未知,13860000000.0,未知
6,600606,3935286799.64,3934533703.29,2015-06-30,半年度报告,3871250782.25,2015,6,-0.9832581468245236,True,未知,未知,未知,未知,未知,未知,7435170000.0,未知
7,600606,4827791436.440001,4943130334.580001,2015-09-30,三季度报告,4914296414.110001,2015,9,-0.9836573788466129,True,未知,未知,未知,未知,未知,未知,7527004000.0,未知
8,600606,7384772224.9299965,6886426698.710001,2015-12-31,年度报告,5625477604.6,2015,12,-0.9873764715120215,True,未知,未知,未知,未知,未知,未知,7533788000.0,未知
9,600606,2405646837.24,2251905866.16,2016-03-31,一季度报告,2389069536.3,2016,3,-0.9597402009730409,True,未知,未知,未知,未知,未知,未知,7966033333.000001,未知
10,600606,4783114838.259999,4598724059.68,2016-06-30,半年度报告,4955829848.81,2016,6,-0.9826761200540106,True,未知,未知,未知,未知,未知,未知,8280793965.0,未知
11,600606,6159520538.259996,5919756957.940001,2016-09-30,三季度报告,6364241562.45,2016,9,-0.985878752848472,True,未知,未知,未知,未知,未知,未知,8543500000.0,未知
12,600606,9397360529.12,7207299216.949999,2016-12-31,年度报告,6832543815.77,2016,12,-0.9907682411869316,True,1.7007121383983341,True,0.0,True,比例外推,7207299216.949999,9078333333.0,9078333333.0
13,600606,3011214516.460001,2678320694.9100013,2017-03-31,一季度报告,2768280673.6600013,2017,3,-0.9716606631469576,True,1.867607773642049,True,0.22556259355365546,False,平均增速,7736323305.981018,9090500000.0,9090500000.0
14,600606,6248200715.6799965,4657664440.309999,2017-06-30,半年度报告,4030643344.29,2017,6,-0.9857468535932539,True,0.19467617843167465,True,0.05382888318732182,True,比例外推,6120905614.323322,8541666666.999999,8541666666.999999
15,600606,8525297081.6,6562632355.469999,2017-09-30,三季度报告,5921620552.66,2017,9,-0.9889318599318676,True,0.3688790196479071,True,0.06704031261423382,True,比例外推,7455311575.405793,8594250000.0,8594250000.0
16,600606,13572123373.280005,9037766488.39,2017-12-31,年度报告,9133184325.72,2017,12,-0.9927453633540243,True,0.4700192589164021,True,0.0,True,比例外推,9037766488.39,9693000000.0,9037766488.39
17,600606,4099857095.180001,3489977985.5399995,2018-03-31,一季度报告,3567874843.7600007,2018,3,-0.9773598208638599,True,0.4692401161667762,True,0.025165887182835023,True,比例外推,10917283198.431465,11107927064.0,10917283198.431465
18,600606,8296272178.8099985,6056017673.23,2018-06-30,半年度报告,6322907894.579999,2018,6,-0.9890889490955509,True,0.433336286898799,True,0.17695136570813552,False,平均增速,13312734136.888577,11152000000.0,11152000000.0
19,600606,11473113148.54,8893304820.33,2018-09-30,三季度报告,9104899047.01,2018,9,-0.9920032773735077,True,0.5518439999211507,True,0.169437393384264,False,平均增速,13410712058.628319,11206285714.0,11206285714.0
20,600606,16023308488.09,11374784738.829998,2018-12-31,年度报告,11012489192.969995,2018,12,-0.9949768776635042,True,0.6174491731397694,True,0.0,True,比例外推,11374784738.829998,11476166667.0,11374784738.829998
21,600606,5767765076.760002,4407421317.41,2019-03-31,一季度报告,4296720127.389999,2019,3,-0.983371509180125,True,0.5137389818477016,True,0.024078293783602878,True,比例外推,13307744111.044973,14227056667.0,13307744111.044973
22,600606,11338422784.7,8987209197.03,2019-06-30,半年度报告,8857519677.460001,2019,6,-0.9917825217639161,True,0.5041310600251779,True,0.14505931895044333,False,平均增速,15252733813.22001,14431733333.0,15252733813.22001
23,600606,15693679509.510004,11812660964.28,2019-09-30,三季度报告,10337558403.520002,2019,9,-0.9940578956045008,True,0.562581633022608,True,0.15383768103169126,False,平均增速,14108089482.071379,14511460000.0,14108089482.071379
24,600606,20950109568.84,14743013139.839996,2019-12-31,年度报告,12695369083.870005,2019,12,-0.9957452959155924,True,0.3951822823860468,True,0.0,True,比例外推,14743013139.839996,14496075000.0,14743013139.839996
25,600606,4500361852.54,3663585405.91,2020-03-31,一季度报告,3697215365.06,2020,3,-0.9881800948612324,True,0.6221929384929378,True,0.01874316841182455,True,比例外推,11453951570.977362,17487888889.0,17487888889.0
