,SECURITYCODE_x,NETPROFIT_x,PARENTNETPROFIT_x,REPORTDATE_x,REPORTTIMETYPE_x,KCFJCXSYJLR,Year,Month,managesituationChangeRate,managesituationGreatChange,historyprofitextroplaterate,ifhistoryprofitextroplate,IfprofitdisStableChangeRage,IfprofitdisStable,predicttype,predict,analyst_prediction,adj_prediction
0,600608,-2715236.47,-3139635.709999998,2013-12-31,年度报告,-28002094.77000001,2013,12,未知,未知,未知,未知,未知,未知,未知,未知,未知,未知
1,600608,-7692470.63,-7412418.780000001,2014-03-31,一季度报告,-7414155.2799999975,2014,3,未知,未知,未知,未知,未知,未知,未知,未知,未知,未知
2,600608,-13767048.989999998,-12874418.96,2014-06-30,半年度报告,-12872184.09,2014,6,未知,未知,未知,未知,未知,未知,未知,未知,未知,未知
3,600608,-6025875.62,-4096954.65,2014-09-30,三季度报告,-19905316.720000006,2014,9,未知,未知,未知,未知,未知,未知,未知,未知,未知,未知
4,600608,-15478858.68,-12565081.249999994,2014-12-31,年度报告,-29028083.64,2014,12,-0.0,False,未知,未知,未知,未知,未知,未知,未知,未知
5,600608,-6364779.129999999,-6201845.6000000015,2015-03-31,一季度报告,-6219105.08,2015,3,-0.6470267355443904,False,未知,未知,未知,未知,未知,未知,未知,未知
6,600608,-12387936.49,-11977380.22,2015-06-30,半年度报告,-12035359.7,2015,6,-0.8027728039631243,False,未知,未知,未知,未知,未知,未知,未知,未知
7,600608,-17952627.979999997,-17677230.79,2015-09-30,三季度报告,-17667019.57,2015,9,-0.5494038308742921,False,未知,未知,未知,未知,未知,未知,未知,未知
8,600608,34976048.5,34991576.550000004,2015-12-31,年度报告,-22400053.92,2015,12,-0.8245841940847799,False,未知,未知,未知,未知,未知,未知,未知,未知
9,600608,-8490442.209999999,-7442100.91,2016-03-31,一季度报告,-7644244.449999997,2016,3,-0.5733965916897417,False,未知,未知,未知,未知,未知,未知,未知,未知
10,600608,-17051682.189999998,-15402902.89,2016-06-30,半年度报告,-15515269.38,2016,6,-0.7808160808548026,False,未知,未知,未知,未知,未知,未知,未知,未知
11,600608,-23413465.49,-21461307.39,2016-09-30,三季度报告,-21719110.45,2016,9,-0.8487554873289364,False,未知,未知,未知,未知,未知,未知,未知,未知
12,600608,-25464340.54000001,-23796342.67,2016-12-31,年度报告,-30919352.13000001,2016,12,-1.0776313101807369,False,-4.844769218984766,True,0.0,True,盈利变化,32151810.48,未知,32151810.48
13,600608,-6245083.799999999,-6150307.159999997,2017-03-31,一季度报告,-6100307.159999997,2017,3,-0.6802008184212114,False,-0.20798055878036847,True,0.017543667787787043,True,前期平均,-25047745.759999998,未知,-25047745.759999998
14,600608,-14453782.720000004,-13130405.470000004,2017-06-30,半年度报告,-12606243.88,2017,6,-0.8407643046741536,False,-0.303895366567032,True,0.05073719360791201,True,前期平均,-26390702.355000004,未知,-26390702.355000004
15,600608,-25883559.180000003,-23081621.89,2017-09-30,三季度报告,-22627302.82,2017,9,-0.8840309875887579,False,-0.9528712784228954,True,0.06307952867198197,True,前期平均,-30009522.525,未知,-30009522.525
16,600608,60161301.66000002,62321205.03,2017-12-31,年度报告,-34123127.75999999,2017,12,-0.8933710273888759,False,3.612103669820045,False,0.0,True,盈利变化,-24864267.879999995,未知,-24864267.879999995
17,600608,-1142787.24,-1098048.65,2018-03-31,一季度报告,-1098048.65,2018,3,-0.5652201704643257,False,-0.15920690011071895,True,0.055774296712160054,True,前期平均,-20826076.910000008,未知,-20826076.910000008
18,600608,-1471795.7699999998,-1396476.87,2018-06-30,半年度报告,-1396476.87,2018,6,-0.8121435389890793,False,-0.018072694683421455,True,0.10007384774214867,False,前期平均,-14280865.355000004,未知,-14280865.355000004
19,600608,-2128217.72,-1996939.13,2018-09-30,三季度报告,-1996939.13,2018,9,-0.8950980253095162,False,-0.251438412900729,True,0.0706190779371596,True,前期平均,-8963577.145000007,未知,-8963577.145000007
20,600608,-2603914.44,-2526340.83,2018-12-31,年度报告,-2526340.83,2018,12,-1.0451326084223558,False,11.649947183618131,False,0.0,True,前期平均盈利变化,-255300636.26999995,未知,-255300636.26999995
21,600608,722335.94,734915.74,2019-03-31,一季度报告,734915.74,2019,3,1.3759772378977562,False,-0.8448935939952916,True,0.14775826515912172,False,盈利变化,-82388.31000000006,未知,-82388.31000000006
22,600608,999651.31,1027976.97,2019-06-30,半年度报告,1027976.97,2019,6,0.8448459530495869,False,-0.9065688588183415,True,0.10523220274512257,False,盈利变化,-910038.2700000003,未知,-910038.2700000003
23,600608,1089857.54,1147505.4400000002,2019-09-30,三季度报告,1147505.4400000002,2019,9,0.27582645538728057,False,-0.9136573562300551,True,0.07178101473574838,True,盈利变化,-1128809.91,未知,-1128809.91
24,600608,4370017.950000001,4445718.23,2019-12-31,年度报告,1996831.76,2019,12,0.04275180024732313,False,1.1500946685788602,True,0.0,True,盈利变化,-1018616.6333333335,未知,-1018616.6333333335
25,600608,689920.2599999999,664566.0000000001,2020-03-31,一季度报告,664566.0000000001,2020,3,-4.758966319743139,False,-1.1955464398577265,True,0.14837802135378092,False,前期平均,-14060990.389999997,未知,-14060990.389999997
