,SECURITYCODE_x,NETPROFIT_x,PARENTNETPROFIT_x,REPORTDATE_x,REPORTTIMETYPE_x,KCFJCXSYJLR,Year,Month,managesituationChangeRate,managesituationGreatChange,historyprofitextroplaterate,ifhistoryprofitextroplate,IfprofitdisStableChangeRage,IfprofitdisStable,predicttype,predict,analyst_prediction,adj_prediction
0,600664,136528793.05999997,168668871.30999997,2013-12-31,年度报告,137115570.64,2013,12,未知,未知,未知,未知,未知,未知,未知,未知,未知,未知
1,600664,166500879.96,171231884.35999995,2014-03-31,一季度报告,159013647.43000004,2014,3,未知,未知,未知,未知,未知,未知,未知,未知,未知,未知
2,600664,311292460.96,320366012.97,2014-06-30,半年度报告,300207598.81,2014,6,未知,未知,未知,未知,未知,未知,未知,未知,未知,未知
3,600664,308878244.08,325608343.33,2014-09-30,三季度报告,295469166.32,2014,9,未知,未知,未知,未知,未知,未知,未知,未知,未知,未知
4,600664,197683581.75,247105656.17,2014-12-31,年度报告,229268005.94000003,2014,12,0.0,True,未知,未知,未知,未知,未知,未知,未知,未知
5,600664,175047299.37000003,162059107.56000003,2015-03-31,一季度报告,154998720.64,2015,3,-0.18001158256461167,True,未知,未知,未知,未知,未知,未知,未知,未知
6,600664,401313486.26,375167064.35000014,2015-06-30,半年度报告,356210503.82000005,2015,6,-0.5614131076642314,True,未知,未知,未知,未知,未知,未知,467405000.0,未知
7,600664,438935006.02,402468748.5199999,2015-09-30,三季度报告,381867411.3100001,2015,9,-0.5579850776908756,True,未知,未知,未知,未知,未知,未知,,未知
8,600664,614479200.63,580132712.53,2015-12-31,年度报告,549542733.3,2015,12,-0.3093569438019353,True,未知,未知,未知,未知,未知,未知,未知,未知
9,600664,108910560.62000003,97383313.17,2016-03-31,一季度报告,75861180.03000002,2016,3,-0.22004627577020158,True,未知,未知,未知,未知,未知,未知,未知,未知
10,600664,409707144.41,378658441.67,2016-06-30,半年度报告,338505499.59,2016,6,-0.6597951533292188,True,未知,未知,未知,未知,未知,未知,未知,未知
11,600664,659385113.54,611108304.27,2016-09-30,三季度报告,550685009.22,2016,9,-0.6889544210703052,True,未知,未知,未知,未知,未知,未知,702000000.0,未知
12,600664,843795610.36,788103136.9499999,2016-12-31,年度报告,712414364.9600003,2016,12,-0.7778138089620892,True,2.6771780277695103,False,0.0,True,比例外推,788103136.9499999,715500000.0,715500000.0
13,600664,62766381.08000001,46552355.78,2017-03-31,一季度报告,39564422.51000001,2017,3,0.2535863582262031,True,0.36225360162279263,True,0.332869027629516,False,平均增速,800294285.4374797,1102945000.0,1102945000.0
14,600664,381083229.5,347551163.6,2017-06-30,半年度报告,300819358.59000003,2017,6,-0.6667649199610403,True,0.1498841568986029,True,0.49849620250076254,False,平均增速,858933179.5476587,1109000000.0,1109000000.0
15,600664,313575564.6,263776568.81,2017-09-30,三季度报告,194388892.92000005,2017,9,-0.7929452906101773,True,0.7635020867892484,True,0.36987798527124294,False,平均增速,441650992.70121384,,441650992.70121384
16,600664,464363787.06,406975865.8,2017-12-31,年度报告,289940302.31999993,2017,12,-0.8381968436624708,True,1.0778977531752973,True,0.0,True,比例外推,406975865.8,1108333333.0,1108333333.0
17,600664,158312018.98,140227002.06,2018-03-31,一季度报告,132143703.65,2018,3,1.1751898183517187,False,0.5579176355096463,True,0.10705297933464833,False,前期平均,655775600.8550001,未知,655775600.8550001
18,600664,398593682.96,362976596.5500001,2018-06-30,半年度报告,290534395.55999994,2018,6,-0.6417349741705178,True,0.060237890162720874,True,0.3172321698298409,False,平均增速,353090309.49590945,未知,353090309.49590945
19,600664,287101135.67,242912783.89999995,2018-09-30,三季度报告,149541658.19000003,2018,9,-0.5646064028166308,True,0.4289905847748248,True,0.06021388172104902,True,比例外推,303174572.5790651,未知,303174572.5790651
20,600664,403634960.89000016,346139970.92999995,2018-12-31,年度报告,244126120.64,2018,12,-0.7059874243760544,True,0.36313267765387697,True,0.0,True,比例外推,346139970.92999995,未知,346139970.92999995
21,600664,-126462418.82,-145155449.90000004,2019-03-31,一季度报告,-163481850.16000003,2019,3,-0.13759679183140197,True,0.8443014817522223,True,0.27988125773388844,False,平均增速,-179459411.03140742,未知,-179459411.03140742
22,600664,-7960532.160000001,-42347051.96,2019-06-30,半年度报告,-67764024.99999999,2019,6,-0.6574737661517305,True,0.008089365046732237,True,0.4257720687441319,False,平均增速,-51425574.50270274,未知,-51425574.50270274
23,600664,58420254.85,4257068.339999999,2019-09-30,三季度报告,-32966874.38000001,2019,9,-0.5244574956438731,True,0.40984020809792926,True,0.08765490872824899,True,比例外推,-10879760.734889533,未知,-10879760.734889533
24,600664,121868304.81,55812116.14000001,2019-12-31,年度报告,-12148243.03,2019,12,-0.6617518146620426,True,0.3828963631097803,True,0.0,True,比例外推,55812116.14000001,未知,55812116.14000001
25,600664,-174811612.15,-186635649.27,2020-03-31,一季度报告,-202975002.5,2020,3,-2.0795997287884234,False,2.1440504254208324,False,8.745578242983688,False,去年同期,-35302042.139999986,未知,-35302042.139999986
