,SECURITYCODE_x,NETPROFIT_x,PARENTNETPROFIT_x,REPORTDATE_x,REPORTTIMETYPE_x,KCFJCXSYJLR,Year,Month,managesituationChangeRate,managesituationGreatChange,historyprofitextroplaterate,ifhistoryprofitextroplate,IfprofitdisStableChangeRage,IfprofitdisStable,predicttype,predict,analyst_prediction,adj_prediction
0,600642,3307035550.4799995,2448672312.7699995,2013-12-31,年度报告,2418420414.220001,2013,12,未知,未知,未知,未知,未知,未知,未知,未知,未知,未知
1,600642,736803362.3299999,543884068.64,2014-03-31,一季度报告,541297663.45,2014,3,未知,未知,未知,未知,未知,未知,未知,未知,未知,未知
2,600642,1502211727.62,1131051549.67,2014-06-30,半年度报告,1122808350.8099997,2014,6,未知,未知,未知,未知,未知,未知,未知,未知,未知,未知
3,600642,2764972450.0600004,2104302314.94,2014-12-31,年度报告,1875743579.8,2014,12,0.0,True,未知,未知,未知,未知,未知,未知,未知,未知
4,600642,790233303.3300003,687039570.52,2015-03-31,一季度报告,497134422.47,2015,3,3.4883556720237148,False,未知,未知,未知,未知,未知,未知,2318000000.0,未知
5,600642,1850841536.69,1550905603.0999994,2015-06-30,半年度报告,1336616472.59,2015,6,1.2014443701084916,False,未知,未知,未知,未知,未知,未知,2765633333.0,未知
6,600642,2448348593.53,1983135064.27,2015-09-30,三季度报告,1765446243.05,2015,9,未知,未知,未知,未知,未知,未知,未知,未知,2394900000.0,未知
7,600642,2624013795.3,2131480616.91,2015-12-31,年度报告,1888763212.26,2015,12,0.196046474317759,True,未知,未知,未知,未知,未知,未知,2312000000.0,未知
8,600642,753972710.1900003,582351474.1499999,2016-03-31,一季度报告,578738497.1100001,2016,3,3.1848850669091404,False,未知,未知,未知,未知,未知,未知,1938200000.0,未知
9,600642,1477157187.08,1157898952.4499993,2016-06-30,半年度报告,1120981976.15,2016,6,0.7867740078895255,False,未知,未知,未知,未知,未知,未知,1921522031.0000002,未知
10,600642,2293111269.08,1822444898.69,2016-09-30,三季度报告,1782319496.44,2016,9,0.350720873334444,True,未知,未知,未知,未知,未知,未知,,未知
11,600642,3111429959.24,2460909072.8899994,2016-12-31,年度报告,1999974660.37,2016,12,0.26029655652092726,True,0.13570146973895963,True,0.0,True,比例外推,2460909072.8899994,,2460909072.8899994
12,600642,647116583.29,505934662.25,2017-03-31,一季度报告,380644182.02,2017,3,3.3861475432534287,False,0.012502152508399861,True,0.017179303533531698,True,前期平均,1868972015.3200002,,1868972015.3200002
13,600642,1170771403.81,967858541.9700004,2017-06-30,半年度报告,842194016.25,2017,6,1.2387837796851182,False,0.1189181497336141,True,0.08541443926224634,True,前期平均,1620399526.3000007,1814000000.0,1814000000.0
14,600642,1785316217.23,1469026730.18,2017-09-30,三季度报告,1156038275.68,2017,9,0.4421609605567844,True,未知,未知,未知,未知,未知,未知,1984000000.0,未知
15,600642,2185274601.9900007,1737638978.89,2017-12-31,年度报告,1243484131.0999994,2017,12,0.06286678273412863,True,0.15473664900109493,True,0.0,True,比例外推,1737638978.89,1954095000.0,1954095000.0
16,600642,460144791.14,336711995.55,2018-03-31,一季度报告,325588426.74000007,2018,3,4.1104169416687295,False,0.16187791314851196,True,0.02302375844766741,True,前期平均,1743144472.0749996,2109000000.0,2109000000.0
17,600642,1123030951.0,913169984.08,2018-06-30,半年度报告,890936699.56,2018,6,1.8246637556384029,False,0.29641114616550396,True,0.08798569593696459,True,前期平均,1628739696.0249999,1974000000.0,1974000000.0
18,600642,1580569421.12,1251022301.66,2018-09-30,三季度报告,1179579010.59,2018,9,0.8523528317078847,False,0.24693395327098747,True,0.02734828841724113,True,前期平均,1421508368.23,1771000000.0,1771000000.0
19,600642,2367449125.9500003,1825934190.1,2018-12-31,年度报告,1484673306.28,2018,12,0.5133272255434064,False,0.23797540503811762,True,0.0,True,前期平均,1825934190.1,2306440000.0,2306440000.0
20,600642,673792140.05,550820764.65,2019-03-31,一季度报告,409157132.08,2019,3,6.186945531398675,False,0.3431613626893106,True,0.05229483406022298,True,前期平均,1692858820.8199997,2294500000.0,2294500000.0
21,600642,1506646296.2699995,1296307772.5900002,2019-06-30,半年度报告,1194886595.69,2019,6,1.944741235791639,False,0.15176643746081073,True,0.06466130454741537,True,前期平均,1936449172.1249998,2218820000.0,2218820000.0
22,600642,2018447616.53,1675559654.15,2019-09-30,三季度报告,1612474368.5100002,2019,9,1.0923064221605758,False,0.2249123337730167,True,0.07727986865076109,True,前期平均,1828110163.8249998,2213550000.0,2213550000.0
23,600642,2825975883.05,2286499089.13,2019-12-31,年度报告,1923405608.9899995,2019,12,0.3968771342247812,True,0.1060671409619904,True,0.0,True,比例外推,2286499089.13,2171500000.0,2286499089.13
24,600642,575192744.2800001,453072167.28,2020-03-31,一季度报告,470862159.27,2020,3,3.9080945797833064,False,0.21704261633231306,True,0.060065652252713125,True,前期平均,1464034581.5899997,2477475000.0,2477475000.0
