,SECURITYCODE_x,NETPROFIT_x,PARENTNETPROFIT_x,REPORTDATE_x,REPORTTIMETYPE_x,KCFJCXSYJLR,Year,Month,managesituationChangeRate,managesituationGreatChange,historyprofitextroplaterate,ifhistoryprofitextroplate,IfprofitdisStableChangeRage,IfprofitdisStable,predicttype,predict,analyst_prediction,adj_prediction
0,600655,1028359602.82,980848546.97,2013-12-31,年度报告,477030297.3999999,2013,12,未知,未知,未知,未知,未知,未知,未知,未知,未知,未知
1,600655,173318178.96,166684913.35000002,2014-03-31,一季度报告,159230018.59000003,2014,3,未知,未知,未知,未知,未知,未知,未知,未知,未知,未知
2,600655,344214787.71000004,330248870.66,2014-06-30,半年度报告,273941510.60999995,2014,6,未知,未知,未知,未知,未知,未知,未知,未知,未知,未知
3,600655,605840110.8100001,583742902.81,2014-09-30,三季度报告,483381686.11,2014,9,未知,未知,未知,未知,未知,未知,未知,未知,未知,未知
4,600655,1026364563.6900002,1002964085.0600002,2014-12-31,年度报告,846928729.72,2014,12,0.0,True,未知,未知,未知,未知,未知,未知,未知,未知
5,600655,249443151.95,241172299.2499999,2015-03-31,一季度报告,225831824.52,2015,3,4.933362610839192,False,未知,未知,未知,未知,未知,未知,1132168978.0,未知
6,600655,426039515.45,413591753.71,2015-06-30,半年度报告,315100493.88,2015,6,1.9875520736964678,False,未知,未知,未知,未知,未知,未知,1078366667.0,未知
7,600655,549506792.79,533036438.3900001,2015-09-30,三季度报告,431939596.12000006,2015,9,0.6974108918689736,False,未知,未知,未知,未知,未知,未知,919455788.9999999,未知
8,600655,857138141.62,849080266.32,2015-12-31,年度报告,690031671.49,2015,12,0.0019437919045327166,True,未知,未知,未知,未知,未知,未知,1040750000.0,未知
9,600655,22956669.15,34241096.56,2016-03-31,一季度报告,31389684.61000001,2016,3,3.1226211053736654,False,未知,未知,未知,未知,未知,未知,941580000.0,未知
10,600655,122393302.81,142893822.03000003,2016-06-30,半年度报告,113659915.20000002,2016,6,1.4137657788240734,False,未知,未知,未知,未知,未知,未知,762700000.0,未知
11,600655,394471996.03000015,423212387.19000006,2016-09-30,三季度报告,243507661.53,2016,9,0.8714229128974552,False,未知,未知,未知,未知,未知,未知,676683333.0,未知
12,600655,445220206.08,478844533.55,2016-12-31,年度报告,165613438.26000002,2016,12,0.19975947036540656,True,0.1656903095894664,True,0.0,True,比例外推,478844533.55,713925000.0,713925000.0
13,600655,191243608.02,196381446.10999995,2017-03-31,一季度报告,170479934.82000002,2017,3,43.79567990027857,False,0.8913965518057887,True,0.09233678037715959,True,前期平均,772330725.1599998,706950000.0,772330725.1599998
14,600655,319133897.21000004,328325112.63000005,2017-06-30,半年度报告,257731167.69,2017,6,7.402090467453085,False,0.6822002751354288,True,0.19749787809868785,False,前期平均,802284310.99,757750000.0,802284310.99
15,600655,795808261.91,738830231.3199999,2017-09-30,三季度报告,387771607.16,2017,9,1.606926760757415,False,0.31713670621205414,True,0.5813192932955507,False,前期平均,1049649790.81,707395000.0,707395000.0
16,600655,75838329.99999999,75838329.99999999,2017-12-31,年度报告,607033522.5699999,2017,12,1.3097774736558516,False,0.5272422972105872,True,0.0,True,前期平均,75838329.99999999,704916000.0,704916000.0
17,600655,75838329.99999999,75838329.99999999,2017-12-31,年度报告,607033522.5699999,2017,12,1.3097774736558516,False,0.5272422972105872,True,0.0,True,前期平均,75838329.99999999,704916000.0,704916000.0
18,600655,75838329.99999999,75838329.99999999,2017-12-31,年度报告,607033522.5699999,2017,12,1.3097774736558516,False,0.5272422972105872,True,0.0,True,前期平均,75838329.99999999,704916000.0,704916000.0
19,600655,3345190979.1000013,2885859467.7900004,2017-12-31,年度报告,607033522.5699999,2017,12,1.3097774736558516,False,0.5272422972105872,True,0.0,True,前期平均,2885859467.7900004,704916000.0,704916000.0
20,600655,3345190979.1000013,2885859467.7900004,2017-12-31,年度报告,607033522.5699999,2017,12,1.3097774736558516,False,0.5272422972105872,True,0.0,True,前期平均,2885859467.7900004,704916000.0,704916000.0
21,600655,3345190979.1000013,2885859467.7900004,2017-12-31,年度报告,607033522.5699999,2017,12,1.3097774736558516,False,0.5272422972105872,True,0.0,True,前期平均,2885859467.7900004,704916000.0,704916000.0
22,600655,128843547.07,33199542.57,2017-12-31,年度报告,607033522.5699999,2017,12,1.3097774736558516,False,0.5272422972105872,True,0.0,True,前期平均,33199542.57,704916000.0,704916000.0
23,600655,128843547.07,33199542.57,2017-12-31,年度报告,607033522.5699999,2017,12,1.3097774736558516,False,0.5272422972105872,True,0.0,True,前期平均,33199542.57,704916000.0,704916000.0
24,600655,128843547.07,33199542.57,2017-12-31,年度报告,607033522.5699999,2017,12,1.3097774736558516,False,0.5272422972105872,True,0.0,True,前期平均,33199542.57,704916000.0,704916000.0
25,600655,162209289.74000004,166350487.67,2018-03-31,一季度报告,169071178.58999997,2018,3,4.377223393068674,False,0.4041390133644257,True,0.07634894067589207,True,前期平均,465562287.98,2712172500.0,2712172500.0
26,600655,941301112.15,934466041.41,2018-06-30,半年度报告,214526478.51,2018,6,2.2223452657656964,False,0.16380306423860158,True,0.16379054397020432,False,前期平均,1147908391.745,3065000000.0,3065000000.0
27,600655,68825334.00000001,68825334.00000001,2018-08-31,其他报告,,2018,8,未知,未知,未知,未知,未知,未知,未知,未知,未知,未知
28,600655,1247592315.24,1136542828.88,2018-09-30,三季度报告,368974367.03,2018,9,0.2922203149183942,True,0.6860723383515481,True,0.5586355965860851,False,平均增速,1454934280.1605413,3117666667.0,3117666667.0
29,600655,1247592315.24,1136542828.88,2018-09-30,三季度报告,368974367.03,2018,9,0.2922203149183942,True,0.6860723383515481,True,0.5586355965860851,False,平均增速,1454934280.1605413,3117666667.0,3117666667.0
30,600655,-840478933.2600001,19609898.7,2018-09-30,三季度报告,368974367.03,2018,9,0.2922203149183942,True,0.6860723383515481,True,0.5586355965860851,False,平均增速,338001349.9805412,3117666667.0,3117666667.0
31,600655,-840478933.2600001,19609898.7,2018-09-30,三季度报告,368974367.03,2018,9,0.2922203149183942,True,0.6860723383515481,True,0.5586355965860851,False,平均增速,338001349.9805412,3117666667.0,3117666667.0
32,600655,3434279032.8,3032726656.03,2018-12-31,年度报告,1938284106.67,2018,12,12.559892508445271,False,0.8835369234067835,True,0.0,True,前期平均,3032726656.03,3117666667.0,3032726656.03
33,600655,388913805.35,402016510.48,2019-03-31,一季度报告,267877633.79,2019,3,5.339708437589018,False,0.5145572347813786,True,0.09864080800015129,True,前期平均,687405181.18,3476498571.0,3476498571.0
34,600655,1382759412.63,1021447397.3400002,2019-06-30,半年度报告,886918688.5200002,2019,6,0.09248739807727643,True,3.263842010672781,False,0.296504733324217,False,未知,未知,3465657143.0,未知
35,600655,1629219135.86,1239018557.9599998,2019-09-30,三季度报告,1090649676.62,2019,9,-0.17572464156917,True,1.0963001056561066,True,0.7038387094066394,False,平均增速,6249117544.448785,3414332222.0,3414332222.0
36,600655,3906150573.8200006,3208213531.61,2019-12-31,年度报告,2728003604.81,2019,12,-0.7005602651973306,True,12.181931760053628,False,0.0,True,比例外推,3208213531.61,3414332222.0,3208213531.61
37,600655,486713721.34,325236119.73,2020-03-31,一季度报告,363799595.48,2020,3,1.644183849155305,False,1.2006542190754848,True,0.1254197943443088,False,前期平均,1428119377.645,3618382726.9999995,3618382726.9999995
