,SECURITYCODE_x,NETPROFIT_x,PARENTNETPROFIT_x,REPORTDATE_x,REPORTTIMETYPE_x,KCFJCXSYJLR,Year,Month,managesituationChangeRate,managesituationGreatChange,historyprofitextroplaterate,ifhistoryprofitextroplate,IfprofitdisStableChangeRage,IfprofitdisStable,predicttype,predict,analyst_prediction,adj_prediction
0,600676,339024597.61,300377925.19000006,2013-12-31,年度报告,232410261.58,2013,12,未知,未知,未知,未知,未知,未知,未知,未知,未知,未知
1,600676,84231050.12999998,79471438.44000001,2014-03-31,一季度报告,75102449.38,2014,3,未知,未知,未知,未知,未知,未知,未知,未知,未知,未知
2,600676,178240067.23000002,160059862.41000003,2014-06-30,半年度报告,150020792.01000002,2014,6,未知,未知,未知,未知,未知,未知,未知,未知,未知,未知
3,600676,265197062.61,238587116.33,2014-09-30,三季度报告,201800947.13000005,2014,9,未知,未知,未知,未知,未知,未知,未知,未知,未知,未知
4,600676,355554933.02,320706431.79000014,2014-12-31,年度报告,233512074.06000003,2014,12,0.0,True,未知,未知,未知,未知,未知,未知,未知,未知
5,600676,89285750.11,80352146.32000001,2015-03-31,一季度报告,76711161.00999999,2015,3,3.0249361380008724,False,未知,未知,未知,未知,未知,未知,未知,未知
6,600676,194583151.61000007,170223153.58,2015-06-30,半年度报告,154265732.79,2015,6,0.9020672673587163,False,未知,未知,未知,未知,未知,未知,未知,未知
7,600676,300032774.0,255048138.78,2015-09-30,三季度报告,224834722.96,2015,9,0.2783874537425443,True,未知,未知,未知,未知,未知,未知,未知,未知
8,600676,393859356.73,341851211.28,2015-12-31,年度报告,273750424.24,2015,12,-0.04649164974198272,True,未知,未知,未知,未知,未知,未知,,未知
9,600676,82800115.67999999,77353308.05999999,2016-03-31,一季度报告,66248338.34,2016,3,2.797073969724417,False,未知,未知,未知,未知,未知,未知,未知,未知
10,600676,175959607.95000002,150964184.13,2016-06-30,半年度报告,130318271.28,2016,6,0.7423121930386946,False,未知,未知,未知,未知,未知,未知,327970000.0,未知
11,600676,242382020.6,208367278.17,2016-09-30,三季度报告,179416139.71,2016,9,0.1299585478285116,True,未知,未知,未知,未知,未知,未知,,未知
12,600676,354515229.19,307670366.16,2016-12-31,年度报告,245416832.93,2016,12,-0.13922421337216204,True,0.1340943386936851,True,0.0,True,比例外推,307670366.16,未知,307670366.16
13,600676,95508066.6,84368361.0,2017-03-31,一季度报告,74586439.49,2017,3,3.0944942507114144,False,0.04562422122267229,True,0.03102581290933276,True,前期平均,262092804.95500004,未知,262092804.95500004
14,600676,195505556.78000003,166818321.95999998,2017-06-30,半年度报告,146205784.15999997,2017,6,0.9267183051824933,False,0.056069477123878296,True,0.06345780948778501,True,前期平均,268306308.70999998,未知,268306308.70999998
15,600676,256650485.85,219125414.99,2017-09-30,三季度报告,193360406.42,2017,9,0.39872007325777703,True,0.1423594265522119,True,0.07445934920017871,True,比例外推,265807329.3761016,未知,265807329.3761016
16,600676,498573921.5299999,445992415.2299999,2017-12-31,年度报告,258811510.66,2017,12,-0.04369525003310333,True,0.05388719153390016,True,0.0,True,比例外推,445992415.2299999,未知,445992415.2299999
17,600676,102578523.93,82582834.80000001,2018-03-31,一季度报告,51118261.43000001,2018,3,2.5496959542682234,False,0.11000477769104525,True,0.009509007332355213,True,前期平均,270686713.71000004,未知,270686713.71000004
18,600676,226594517.54,199566317.74000004,2018-06-30,半年度报告,110062485.81,2018,6,0.7340918754115013,False,0.05523884483481768,True,0.022141127173355812,True,前期平均,316857944.29,未知,316857944.29
19,600676,245620782.38,210093836.2200001,2018-09-30,三季度报告,113704600.56,2018,9,0.32095833166723003,True,0.05367446314120141,True,0.0548165366428669,True,比例外推,244732558.9350275,未知,244732558.9350275
20,600676,373978195.1,326102097.59000015,2018-12-31,年度报告,154158319.08999997,2018,12,-0.3200113704912253,True,0.3324180989312659,True,0.0,True,比例外推,326102097.59000015,未知,326102097.59000015
21,600676,47174309.40000001,42182996.49,2019-03-31,一季度报告,37529061.57,2019,3,2.3050251126771113,False,0.15057562270383573,True,0.03502045289436839,True,前期平均,223879779.37,未知,223879779.37
22,600676,57822969.71000001,49929727.78,2019-06-30,半年度报告,28319798.73,2019,6,0.4961729934624438,True,0.22000412988766005,True,0.11066495910987872,False,平均增速,73794742.71346821,未知,73794742.71346821
23,600676,112331130.83,100824621.91,2019-09-30,三季度报告,39476800.68,2019,9,0.3802765153866131,True,0.015612092577741932,True,0.008522573722002602,True,比例外推,114796950.25712422,未知,114796950.25712422
24,600676,138525204.24,126767292.63,2019-12-31,年度报告,7449224.4,2019,12,-0.09346426595982041,True,0.1232377183923494,True,0.0,True,比例外推,126767292.63,未知,126767292.63
25,600676,-172170264.12999997,-150141073.37,2020-03-31,一季度报告,-154500499.94000003,2020,3,6.1866361568824555,False,0.5237001225193433,True,3.152060237048791,False,盈利变化,-129272122.7166667,未知,-129272122.7166667
