,SECURITYCODE_x,NETPROFIT_x,PARENTNETPROFIT_x,REPORTDATE_x,REPORTTIMETYPE_x,KCFJCXSYJLR,Year,Month,managesituationChangeRate,managesituationGreatChange,historyprofitextroplaterate,ifhistoryprofitextroplate,IfprofitdisStableChangeRage,IfprofitdisStable,predicttype,predict,analyst_prediction,adj_prediction
0,600645,16902566.020000003,7215733.92,2013-12-31,年度报告,-5258035.619999999,2013,12,未知,未知,未知,未知,未知,未知,未知,未知,未知,未知
1,600645,8343460.410000001,8471365.680000003,2014-03-31,一季度报告,2582742.2099999995,2014,3,未知,未知,未知,未知,未知,未知,未知,未知,未知,未知
2,600645,25913502.73,19174509.19,2014-06-30,半年度报告,12347807.210000005,2014,6,未知,未知,未知,未知,未知,未知,未知,未知,未知,未知
3,600645,63182154.71999999,50778754.49,2014-09-30,三季度报告,19588723.57,2014,9,未知,未知,未知,未知,未知,未知,未知,未知,未知,未知
4,600645,46874313.56999999,35464991.49,2014-12-31,年度报告,36726974.86,2014,12,0.0,True,未知,未知,未知,未知,未知,未知,未知,未知
5,600645,163552528.26,160705805.87000003,2015-03-31,一季度报告,11348626.44,2015,3,1.025846014651372,False,未知,未知,未知,未知,未知,未知,127500000.0,未知
6,600645,294599779.58000004,288608920.82,2015-06-30,半年度报告,40420015.89,2015,6,-0.34773132771310217,True,未知,未知,未知,未知,未知,未知,,未知
7,600645,91855201.37,83961307.93,2015-09-30,三季度报告,45796591.59,2015,9,-0.7324787972979722,True,未知,未知,未知,未知,未知,未知,115876594.0,未知
8,600645,217038846.32,208353113.61,2015-12-31,年度报告,52582103.22000001,2015,12,-0.6394066444352626,True,未知,未知,未知,未知,未知,未知,116358297.0,未知
9,600645,-2211588.76,-6185003.809999998,2016-03-31,一季度报告,15216884.04,2016,3,-0.8966535938036375,True,未知,未知,未知,未知,未知,未知,168788934.99999997,未知
10,600645,25106327.6,15995284.06,2016-06-30,半年度报告,29349083.020000003,2016,6,-0.9426253269975376,True,未知,未知,未知,未知,未知,未知,,未知
11,600645,17288165.43,5525726.83,2016-09-30,三季度报告,38444788.86000001,2016,9,-0.8159868383292184,True,未知,未知,未知,未知,未知,未知,未知,未知
12,600645,50084158.08,37859920.79999999,2016-12-31,年度报告,48564600.97,2016,12,-0.9221219320569045,True,5.806192078234915,False,0.0,True,比例外推,37859920.79999999,183756667.00000003,183756667.00000003
13,600645,34082790.18,27680157.250000004,2017-03-31,一季度报告,1976129.1,2017,3,-8.642725594246556,False,1.0257317087747257,True,0.12950470106277612,False,前期平均,65369011.96500002,未知,65369011.96500002
14,600645,15610807.649999995,8387960.64,2017-06-30,半年度报告,-9030661.95,2017,6,-0.32676071589219596,True,0.8433367414975509,True,0.2335409641876352,False,平均增速,16746238.453883704,未知,16746238.453883704
15,600645,41507293.20999999,27492477.04000001,2017-09-30,三季度报告,-3747582.7500000005,2017,9,-0.0223042411041989,True,0.7769806469098437,True,0.19861809516250584,False,平均增速,32958033.155516364,未知,32958033.155516364
16,600645,24874672.5,10366521.83,2017-12-31,年度报告,-18797100.51,2017,12,-0.6625167185000627,True,0.620449710799755,True,0.0,True,比例外推,10366521.83,未知,10366521.83
17,600645,138037230.46999997,133476798.34,2018-03-31,一季度报告,3859716.55,2018,3,-0.5040732894597774,True,0.5775059909081538,True,0.24647284982825363,False,平均增速,110403543.34838486,未知,110403543.34838486
18,600645,320781880.09,311234834.95,2018-06-30,半年度报告,8405991.239999998,2018,6,0.08274769627310147,True,0.9023427623094429,True,0.1508821979041295,False,平均增速,295612933.7464155,未知,295612933.7464155
19,600645,347241687.10999995,334556709.91000015,2018-09-30,三季度报告,14609441.420000006,2018,9,-0.5927808172293004,True,0.23939870233140015,True,0.4212783645097662,False,平均增速,288154268.5843935,未知,288154268.5843935
20,600645,65853062.33999999,59252904.3,2018-12-31,年度报告,-262480237.68,2018,12,-0.3204909121919091,True,0.8137586648078297,True,0.0,True,比例外推,59252904.3,未知,59252904.3
21,600645,37888824.89,30843567.35,2019-03-31,一季度报告,30565735.19999999,2019,3,-0.8775506726522343,True,7.662191842154908,False,0.2488333068319567,False,未知,未知,未知,未知
22,600645,72785673.47000001,63131576.01,2019-06-30,半年度报告,51077941.65,2019,6,-0.9473082269632632,True,14.756603607813984,False,0.38293656694982464,False,未知,未知,未知,未知
23,600645,104980318.51999997,93502355.08,2019-09-30,三季度报告,71669807.52,2019,9,-0.9513233386213633,True,10.8118540153291,False,0.47984407342312085,False,未知,未知,未知,未知
24,600645,53954697.59000001,49694801.50000001,2019-12-31,年度报告,28437655.06,2019,12,-0.7433290811483922,True,0.7570461500121228,True,0.0,True,比例外推,49694801.50000001,未知,49694801.50000001
25,600645,5889050.84,6117082.039999999,2020-03-31,一季度报告,2343106.78,2020,3,-0.5538904658808488,True,0.5597394800800588,True,0.7565002038914843,False,平均增速,11278852.356624,未知,11278852.356624
