,SECURITYCODE_x,NETPROFIT_x,PARENTNETPROFIT_x,REPORTDATE_x,REPORTTIMETYPE_x,KCFJCXSYJLR,Year,Month,managesituationChangeRate,managesituationGreatChange,historyprofitextroplaterate,ifhistoryprofitextroplate,IfprofitdisStableChangeRage,IfprofitdisStable,predicttype,predict,analyst_prediction,adj_prediction
0,600613,113128306.57999998,111540028.32,2013-12-31,年度报告,87793092.32999998,2013,12,未知,未知,未知,未知,未知,未知,未知,未知,未知,未知
1,600613,28717692.230000004,28198242.86,2014-03-31,一季度报告,28990767.18,2014,3,未知,未知,未知,未知,未知,未知,未知,未知,未知,未知
2,600613,89289348.48,87755242.68,2014-06-30,半年度报告,88014193.26,2014,6,未知,未知,未知,未知,未知,未知,未知,未知,未知,未知
3,600613,136418959.23999998,134894543.23000002,2014-09-30,三季度报告,133779787.61999996,2014,9,未知,未知,未知,未知,未知,未知,未知,未知,未知,未知
4,600613,180900595.92,180170055.67,2014-12-31,年度报告,178155226.75,2014,12,0.0,True,未知,未知,未知,未知,未知,未知,未知,未知
5,600613,47509057.41,47075262.81,2015-03-31,一季度报告,46976915.84,2015,3,2.9393244301789765,False,未知,未知,未知,未知,未知,未知,222500000.0,未知
6,600613,95002188.46,94267399.02000004,2015-06-30,半年度报告,91267356.83,2015,6,0.2669854636170818,True,未知,未知,未知,未知,未知,未知,,未知
7,600613,148367050.75,146972941.79,2015-09-30,三季度报告,143093257.08,2015,9,-0.17072885462368229,True,未知,未知,未知,未知,未知,未知,未知,未知
8,600613,148367050.75,146972941.79,2015-09-30,三季度报告,143659385.60999998,2015,9,-0.17072885462368229,True,未知,未知,未知,未知,未知,未知,未知,未知
9,600613,218265667.75000003,216730448.67999992,2015-12-31,年度报告,213040961.51,2015,12,-0.3746382868189725,True,未知,未知,未知,未知,未知,未知,238100000.0,未知
10,600613,38432212.17999999,37749697.79999999,2016-03-31,一季度报告,35916296.169999994,2016,3,1.3811945078958365,False,未知,未知,未知,未知,未知,未知,未知,未知
11,600613,69220112.4,69188018.52000001,2016-06-30,半年度报告,68250975.38,2016,6,0.1907968480918928,True,未知,未知,未知,未知,未知,未知,未知,未知
12,600613,99517478.65,98033181.8,2016-09-30,三季度报告,96956339.33,2016,9,-0.23751057928203792,True,未知,未知,0.0,True,未知,未知,未知,未知
13,600613,176652050.26,182059820.34,2016-12-31,年度报告,167045848.22999996,2016,12,-0.4816944517835194,True,0.4846545077315998,True,0.0366866560860383,True,比例外推,182059820.34,未知,182059820.34
14,600613,21167404.19,21406717.24,2017-03-31,一季度报告,21458617.290000007,2017,3,1.9435804020376328,False,0.008365497978223696,True,0.05036090241945629,True,前期平均,179020969.85999998,未知,179020969.85999998
15,600613,46264332.35,51190591.28,2017-06-30,半年度报告,52182784.27,2017,6,0.6343271147303132,False,0.24879770878967628,True,0.08725069631081794,True,前期平均,157147910.365,未知,157147910.365
16,600613,70845375.36,80570636.19999999,2017-09-30,三季度报告,77856377.13,2017,9,0.13676821513805482,True,0.30110697043373397,True,0.0,True,比例外推,119323637.15743797,未知,119323637.15743797
17,600613,119635718.07,129601273.6,2017-12-31,年度报告,120770362.19,2017,12,-0.359598111578691,True,0.11489488798060185,True,0.02671760044801283,True,比例外推,129601273.6,未知,129601273.6
18,600613,25707907.520000003,30173087.989999995,2018-03-31,一季度报告,20436863.52,2018,3,4.3444581850732815,False,0.5073983828495126,True,0.01444431655840589,True,前期平均,178769886.85499996,未知,178769886.85499996
19,600613,52011052.91000001,58570939.07999999,2018-06-30,半年度报告,48585691.08,2018,6,1.4452596813493188,False,0.4365645578253044,True,0.05183323082922875,True,前期平均,168855177.84499997,未知,168855177.84499997
20,600613,54534558.55000001,64719408.77,2018-09-30,三季度报告,52584784.96000001,2018,9,0.5968340347572404,False,0.4284001867201641,True,0.0,True,前期平均,134738015.43499997,未知,134738015.43499997
21,600613,98441616.15,106091390.95,2018-12-31,年度报告,96664626.04999998,2018,12,-0.054393550646742984,True,0.3941233192937137,True,0.023688866105256196,True,比例外推,106091390.95,未知,106091390.95
22,600613,21158809.18,23732711.47000001,2019-03-31,一季度报告,23341543.47000001,2019,3,3.400525655072839,False,0.1373129867010247,True,0.054861136599338944,True,前期平均,138953359.95,未知,138953359.95
23,600613,53278311.71999999,57149229.91000001,2019-06-30,半年度报告,56235803.84,2019,6,1.1750820306552405,False,0.09925439702995131,True,0.054973215478161586,True,前期平均,140840455.295,未知,140840455.295
24,600613,77523464.14,82479016.69,2019-09-30,三季度报告,80892001.44,2019,9,1.074433342598314,False,0.3597834590538272,True,0.0,True,前期平均,138980763.67,未知,138980763.67
25,600613,80568415.84999998,83974764.44000001,2019-12-31,年度报告,82210889.86999999,2019,12,0.14919188656575075,True,0.33549996542309163,True,0.05958136370977152,True,比例外推,83974764.44000001,未知,83974764.44000001
26,600613,11008981.12,8677484.05,2020-03-31,一季度报告,11264906.48,2020,3,4.346629180196613,False,0.09723014490435285,True,未知,未知,前期平均,96447237.76499997,未知,96447237.76499997
