,SECURITYCODE_x,NETPROFIT_x,PARENTNETPROFIT_x,REPORTDATE_x,REPORTTIMETYPE_x,KCFJCXSYJLR,Year,Month,managesituationChangeRate,managesituationGreatChange,historyprofitextroplaterate,ifhistoryprofitextroplate,IfprofitdisStableChangeRage,IfprofitdisStable,predicttype,predict,analyst_prediction,adj_prediction
0,600605,6658666.7799999975,6658666.7799999975,2013-12-31,年度报告,1606274.15,2013,12,未知,未知,未知,未知,未知,未知,未知,未知,未知,未知
1,600605,2400805.28,2400805.28,2014-03-31,一季度报告,777725.5500000002,2014,3,未知,未知,未知,未知,未知,未知,未知,未知,未知,未知
2,600605,3216513.5600000005,3216513.5600000005,2014-06-30,半年度报告,2107273.83,2014,6,未知,未知,未知,未知,未知,未知,未知,未知,未知,未知
3,600605,7958237.13,7958237.13,2014-12-31,年度报告,3636100.9499999993,2014,12,0.0,True,未知,未知,未知,未知,未知,未知,未知,未知
4,600605,3116070.1699999995,3116070.1699999995,2015-03-31,一季度报告,3130610.17,2015,3,1.7735138853076824,False,未知,未知,未知,未知,未知,未知,未知,未知
5,600605,7478499.289999999,7478499.289999999,2015-06-30,半年度报告,6427661.260000003,2015,6,1.070150383572453,False,未知,未知,未知,未知,未知,未知,未知,未知
6,600605,5582800.25,5582800.25,2015-09-30,三季度报告,4531617.22,2015,9,未知,未知,未知,未知,未知,未知,未知,未知,未知,未知
7,600605,10275127.41,10275127.41,2015-12-31,年度报告,8914378.77,2015,12,-0.16329877192287212,True,未知,未知,未知,未知,未知,未知,未知,未知
8,600605,3333313.2000000007,3333313.2000000007,2016-03-31,一季度报告,3780397.6999999993,2016,3,1.1368796005001385,False,未知,未知,未知,未知,未知,未知,未知,未知
9,600605,14337571.719999995,14337571.719999995,2016-06-30,半年度报告,14768674.05,2016,6,-0.10962527082087906,True,未知,未知,未知,未知,未知,未知,未知,未知
10,600605,22459181.57,22459181.57,2016-09-30,三季度报告,22844045.93,2016,9,0.19271091241353253,True,未知,未知,未知,未知,未知,未知,未知,未知
11,600605,24822581.78,24822581.78,2016-12-31,年度报告,22949286.29,2016,12,-0.35196260695321174,True,0.4059239183983939,True,0.0,True,比例外推,24822581.78,未知,24822581.78
12,600605,5342351.69,5342351.69,2017-03-31,一季度报告,5323859.99,2017,3,0.9976120995770803,False,0.2084061821624054,True,0.10791828110086013,False,前期平均,9663423.69,未知,9663423.69
13,600605,11251028.670000004,11251028.670000004,2017-06-30,半年度报告,11186567.359999998,2017,6,-0.5355791824419205,True,1.681169610749929,True,0.07300368105880162,True,比例外推,17326602.704054564,未知,17326602.704054564
14,600605,14198175.740000002,14198175.740000002,2017-09-30,三季度报告,12256697.8,2017,9,-0.7035213968395734,True,未知,未知,未知,未知,未知,未知,未知,未知
15,600605,29375313.06,29375313.06,2017-12-31,年度报告,26217837.33,2017,12,-0.7317496286641302,True,1.72276482220763,True,0.0,True,比例外推,29375313.06,未知,29375313.06
16,600605,10437945.260000002,10437945.260000002,2018-03-31,一季度报告,10402216.91,2018,3,0.24639244407363173,True,0.6567015429259558,True,0.11152743518269201,False,平均增速,50265051.23338266,未知,50265051.23338266
17,600605,22044802.52,22044802.52,2018-06-30,半年度报告,19495000.0,2018,6,-0.40817262356154005,True,0.03144408219452405,True,0.1704079919471687,False,平均增速,49109609.21445958,未知,49109609.21445958
18,600605,21331269.78,21331269.78,2018-09-30,三季度报告,18038934.230000004,2018,9,-0.5310195547699288,True,0.012637111823075987,True,0.3383282120591291,False,平均增速,44577823.48806444,未知,44577823.48806444
19,600605,22546749.08,22546749.08,2018-12-31,年度报告,16790833.560000002,2018,12,-0.7733243977213294,True,0.6739162605159189,True,0.0,True,比例外推,22546749.08,未知,22546749.08
20,600605,-5053008.659999998,-5053008.659999998,2019-03-31,一季度报告,-5267878.38,2019,3,-0.362071115134398,True,1.4062582850638439,True,0.2904147836100858,False,平均增速,-3823163.5197187085,未知,-3823163.5197187085
21,600605,-1146182.21,-1146182.21,2019-06-30,半年度报告,-2199412.69,2019,6,-0.6979484495740451,True,0.7230174518349262,True,0.41729578909714393,False,平均增速,-2198928.9437678675,未知,-2198928.9437678675
22,600605,5475368.03,5475368.03,2019-09-30,三季度报告,4416677.65,2019,9,-0.6878448002076697,True,0.16381929006000132,True,0.3782524174084871,False,平均增速,4766277.351991555,未知,4766277.351991555
23,600605,23069497.8,23069497.8,2019-12-31,年度报告,17258869.150000006,2019,12,-0.704672866302196,True,0.16798432313427483,True,0.0,True,比例外推,23069497.8,未知,23069497.8
24,600605,12183790.750000002,12183790.750000002,2020-03-31,一季度报告,9765525.129999997,2020,3,-2.31776278808119,False,1.6404199713111225,True,0.47767825185473967,False,前期平均,25825087.745000005,未知,25825087.745000005
