,SECURITYCODE_x,NETPROFIT_x,PARENTNETPROFIT_x,REPORTDATE_x,REPORTTIMETYPE_x,KCFJCXSYJLR,Year,Month,managesituationChangeRate,managesituationGreatChange,historyprofitextroplaterate,ifhistoryprofitextroplate,IfprofitdisStableChangeRage,IfprofitdisStable,predicttype,predict,analyst_prediction,adj_prediction
0,600651,67208058.97,57439046.63,2013-12-31,年度报告,35894301.07,2013,12,未知,未知,未知,未知,未知,未知,未知,未知,未知,未知
1,600651,6699488.3900000015,4920080.18,2014-03-31,一季度报告,4488299.129999999,2014,3,未知,未知,未知,未知,未知,未知,未知,未知,未知,未知
2,600651,25582322.17,19036279.9,2014-06-30,半年度报告,13003914.279999996,2014,6,未知,未知,未知,未知,未知,未知,未知,未知,未知,未知
3,600651,37069120.77,26807742.28,2014-09-30,三季度报告,21131967.22,2014,9,未知,未知,未知,未知,未知,未知,未知,未知,未知,未知
4,600651,77739395.67000002,64627836.65999999,2014-12-31,年度报告,49587013.16,2014,12,0.0,True,未知,未知,未知,未知,未知,未知,未知,未知
5,600651,43896475.89000001,41867428.38999999,2015-03-31,一季度报告,39179529.17000001,2015,3,9.031819604362354,False,未知,未知,未知,未知,未知,未知,409000000.0,未知
6,600651,75519991.75999998,70792357.25999999,2015-06-30,半年度报告,68904759.39999999,2015,6,1.6271289417507948,False,未知,未知,未知,未知,未知,未知,433000000.0,未知
7,600651,203019496.14,195850953.4,2015-09-30,三季度报告,191560700.07,2015,9,0.8130470206455882,False,未知,未知,未知,未知,未知,未知,408890000.0,未知
8,600651,387774788.79000014,376138128.42,2015-12-31,年度报告,364698297.63999987,2015,12,-0.1354697526168718,True,未知,未知,未知,未知,未知,未知,419945000.0,未知
9,600651,25327445.65,20596194.360000007,2016-03-31,一季度报告,20099976.39,2016,3,0.5310581910588081,False,未知,未知,未知,未知,未知,未知,,未知
10,600651,63845365.55000001,55623710.24,2016-06-30,半年度报告,41254607.1,2016,6,-0.11006268136806771,True,未知,未知,未知,未知,未知,未知,未知,未知
11,600651,123835560.14,109994270.79999998,2016-09-30,三季度报告,109377221.17,2016,9,-0.6689576112254063,True,未知,未知,未知,未知,未知,未知,未知,未知
12,600651,328005483.42,351092147.28000003,2016-12-31,年度报告,308603403.83000016,2016,12,-0.8266827526881936,True,4.350556720752363,False,0.0,True,比例外推,351092147.28000003,726000000.0,726000000.0
13,600651,-53762608.3,-58114760.52,2017-03-31,一季度报告,-45800660.87000001,2017,3,1.6535664077123389,False,0.0011646585026798576,True,0.022559816757133172,True,盈利变化,263224630.93333334,未知,263224630.93333334
14,600651,105571093.17000002,113207579.63000004,2017-06-30,半年度报告,-79249357.09,2017,6,0.05266934241869943,True,0.26298524867006523,True,0.06729024747051945,True,比例外推,-214045691.59051305,748700000.0,748700000.0
15,600651,154812363.85999998,169682530.10000002,2017-09-30,三季度报告,-29079807.14,2017,9,-0.45727980804528867,True,0.0315821027568433,True,0.08997673702858544,True,比例外推,131955402.70860483,748700000.0,748700000.0
16,600651,30813653.32,55239058.96999999,2017-12-31,年度报告,-179667738.75000003,2017,12,-0.7951008066412648,True,0.40921799751596727,True,0.0,True,比例外推,55239058.96999999,未知,55239058.96999999
17,600651,-199033602.25000003,-197774286.87,2018-03-31,一季度报告,-200374911.36000004,2018,3,-2.250089255249173,False,2.5532956557202287,False,0.11242509995832375,False,去年同期,-331641364.75,未知,-331641364.75
18,600651,-411005393.74,-411114567.55000013,2018-06-30,半年度报告,-413682140.75000006,2018,6,-0.36338578154366963,True,0.5150263337706075,True,0.1865196170460336,False,平均增速,-256068070.4612997,未知,-256068070.4612997
19,600651,-836538633.0999997,-827736045.5399997,2018-09-30,三季度报告,-832892309.4499999,2018,9,-0.5658740859303871,True,0.0527155025720014,True,0.18532599921891227,False,平均增速,1168277444.4859028,未知,1168277444.4859028
20,600651,-3330228561.9300003,-3294953607.7500005,2018-12-31,年度报告,-3302154969.41,2018,12,1.1811129719687519,False,0.9139019206973625,True,0.0,True,盈利变化,-985590017.9166666,,-985590017.9166666
21,600651,-144293471.89,-140702229.70999998,2019-03-31,一季度报告,-140630801.58,2019,3,-1.3376719217772184,False,-12.99911825368089,True,0.1280084101943387,False,前期平均,-63384054.92999992,未知,-63384054.92999992
22,600651,-334733189.33,-329292461.8,2019-06-30,半年度报告,-336469565.03000003,2019,6,-1.1635211118725988,False,5.852012571214013,False,0.20773958962654546,False,去年同期,-3217765290.46,未知,-3217765290.46
23,600651,-743318465.65,-657495226.57,2019-09-30,三季度报告,-664700120.33,2019,9,-1.080340651717356,False,7.00426962520632,False,0.09825761062151245,True,去年同期,-3126757886.53,未知,-3126757886.53
24,600651,-1736413794.9000006,-1651133799.0700002,2019-12-31,年度报告,-1651646961.75,2019,12,-1.0201812151088663,False,19.562156924997456,False,0.0,True,去年同期,-1651133799.0700002,未知,-1651133799.0700002
25,600651,-158454307.76,-156299389.45000002,2020-03-31,一季度报告,-156795105.78,2020,3,-1.4657733859313822,False,-0.14157938978646592,True,0.12133716464107969,False,前期平均,-1774122957.415,未知,-1774122957.415
