,SECURITYCODE_x,NETPROFIT_x,PARENTNETPROFIT_x,REPORTDATE_x,REPORTTIMETYPE_x,KCFJCXSYJLR,Year,Month,managesituationChangeRate,managesituationGreatChange,historyprofitextroplaterate,ifhistoryprofitextroplate,IfprofitdisStableChangeRage,IfprofitdisStable,predicttype,predict,analyst_prediction,adj_prediction
0,600688,-72539000.0,-72970000.00000001,2014-03-31,一季度报告,-66157000.0,2014,3,未知,未知,未知,未知,未知,未知,未知,未知,未知,未知
1,600688,-145476999.99999997,-152105999.99999997,2014-09-30,三季度报告,-268292000.0,2014,9,未知,未知,未知,未知,未知,未知,未知,未知,未知,未知
2,600688,-699965000.0000001,-716427000.0000001,2014-12-31,年度报告,-806028000.0000001,2014,12,未知,未知,未知,未知,未知,未知,未知,未知,未知,未知
3,600688,63302000.00000001,52175999.99999999,2015-03-31,一季度报告,56322999.99999999,2015,3,-0.0,False,未知,未知,未知,未知,未知,未知,2869000000.0,未知
4,600688,1748460000.0000002,1731166000.0000002,2015-06-30,半年度报告,1736231000.0000002,2015,6,未知,未知,未知,未知,未知,未知,未知,未知,3127833333.0,未知
5,600688,2275776000.0,2245704000.0,2015-09-30,三季度报告,2218531999.9999995,2015,9,-0.5013713507977205,False,未知,未知,未知,未知,未知,未知,2979950000.0,未知
6,600688,3281952000.0000005,3245848999.9999995,2015-12-31,年度报告,3130327000.0000005,2015,12,-0.8963676755266335,False,未知,未知,未知,未知,未知,未知,2181805000.0,未知
7,600688,1151535000.0000002,1145236999.9999995,2016-03-31,一季度报告,1153846000.0000002,2016,3,-2.1459195602034686,False,未知,未知,未知,未知,未知,未知,4275032000.0,未知
8,600688,3101763000.0,3096675000.0,2016-06-30,半年度报告,3117585000.0000005,2016,6,-1.041487366024959,False,未知,未知,未知,未知,未知,未知,4833131000.0,未知
9,600688,4136298000.000001,4130061000.0,2016-09-30,三季度报告,4089899999.999999,2016,9,-1.0318744024016424,False,未知,未知,未知,未知,未知,未知,4986944000.0,未知
10,600688,5968582999.999999,5955576000.0,2016-12-31,年度报告,5921988000.0,2016,12,-1.0221023951599535,False,未知,未知,未知,未知,未知,未知,3760950000.0,未知
11,600688,1928538000.0,1928852000.0,2017-03-31,一季度报告,1938530000.0,2017,3,-1.0629933089311223,False,-250.33095160766507,True,0.0965371652168157,True,前期平均,3095918500.0,6183941666.999999,6183941666.999999
12,600688,2580152999.9999995,2575479000.0,2017-06-30,半年度报告,2571583000.0000005,2017,6,-1.0233863773602303,False,未知,未知,未知,未知,未知,未知,5553751250.0,未知
13,600688,4110994000.000001,4101491000.000001,2017-09-30,三季度报告,4124953999.999999,2017,9,-1.017537179381176,False,2.883302766419175,False,0.2445459477872185,False,去年同期,5933579000.000002,5619833333.000001,5933579000.000002
14,600688,6152495000.000001,6141558000.0,2017-12-31,年度报告,6293745000.0,2017,12,-1.0121534709327156,False,3.6232479094588768,False,0.0,True,去年同期,6141558000.0,5728865714.0,6141558000.0
15,600688,1773683000.0000005,1771512999.9999995,2018-03-31,一季度报告,1768368000.0000005,2018,3,-1.0376134667815724,False,2.174974091174371,False,0.15562153161514714,False,去年同期,6126728000.0,6339942857.0,6126728000.0
16,600688,3531485000.0,3524131000.0,2018-06-30,半年度报告,3515331000.0000005,2018,6,-1.0281142242339891,False,0.06393169963525369,True,0.08796794716197637,True,前期平均,5623380500.0,6475666666.999999,6475666666.999999
17,600688,4665174000.0,4660414000.0,2018-09-30,三季度报告,4672075000.0,2018,9,-1.0176451242692157,False,0.2822665490136266,True,0.029513678486912664,True,前期平均,6032355500.000001,5860585000.0,6032355500.000001
18,600688,5277073000.000001,5277186000.0,2018-12-31,年度报告,5067583000.000001,2018,12,-1.0117901761805577,False,0.3301922537453241,True,0.0,True,前期平均,5277186000.0,7103200000.0,7103200000.0
19,600688,610997000.0,610653000.0,2019-03-31,一季度报告,624528999.9999999,2019,3,-1.0408973869626084,False,0.15171491065309198,True,0.0890946314719249,True,前期平均,5172331500.0,4889000000.0,5172331500.0
20,600688,1143717000.0,1137241000.0,2019-06-30,半年度报告,1137729000.0,2019,6,-1.0205406507460741,False,0.24306131945632423,True,0.15078132914637288,False,前期平均,4400523500.0,2675428571.0,2675428571.0
21,600688,1712502000.0,1672132000.0000002,2019-09-30,三季度报告,1522252999.9999995,2019,9,-1.0155490449016478,False,0.13132262080692642,True,0.16595725290305763,False,前期平均,3672571500.000001,2361000000.0,2361000000.0
22,600688,2225153000.0,2213715999.9999995,2019-12-31,年度报告,2073020000.0,2019,12,-1.0137460671853507,False,0.12927332040929018,True,0.0,True,前期平均,2213715999.9999995,5750000000.0,5750000000.0
23,600688,-1201386000.0,-1202367000.0,2020-03-31,一季度报告,-1218291999.9999998,2020,3,-1.118722350518906,False,0.6699294828698773,True,0.029546497112548364,True,盈利变化,-243378666.6666665,2149000000.0,2149000000.0
