,SECURITYCODE_x,NETPROFIT_x,PARENTNETPROFIT_x,REPORTDATE_x,REPORTTIMETYPE_x,KCFJCXSYJLR,Year,Month,managesituationChangeRate,managesituationGreatChange,historyprofitextroplaterate,ifhistoryprofitextroplate,IfprofitdisStableChangeRage,IfprofitdisStable,predicttype,predict,analyst_prediction,adj_prediction
0,600602,122120370.41,114068453.16,2013-12-31,年度报告,9867205.81,2013,12,未知,未知,未知,未知,未知,未知,未知,未知,未知,未知
1,600602,21737348.009999994,20403245.05,2014-03-31,一季度报告,-8328644.250000001,2014,3,未知,未知,未知,未知,未知,未知,未知,未知,未知,未知
2,600602,49800676.44,43931516.51999999,2014-06-30,半年度报告,-5685437.27,2014,6,未知,未知,未知,未知,未知,未知,未知,未知,未知,未知
3,600602,71491754.67000002,59186713.27000001,2014-09-30,三季度报告,-3237248.92,2014,9,未知,未知,未知,未知,未知,未知,未知,未知,未知,未知
4,600602,203160775.49,156034227.42000005,2014-12-31,年度报告,-18065692.94,2014,12,0.0,True,未知,未知,未知,未知,未知,未知,未知,未知
5,600602,12115651.12,12986011.819999995,2015-03-31,一季度报告,-6053887.460000001,2015,3,4.617997667140447,False,未知,未知,未知,未知,未知,未知,未知,未知
6,600602,36927189.08000001,36041712.12000001,2015-06-30,半年度报告,-5087707.619999999,2015,6,1.4521829649669715,False,未知,未知,未知,未知,未知,未知,未知,未知
7,600602,128945049.23,101967517.24,2015-09-30,三季度报告,45748446.9,2015,9,0.708174193984991,False,未知,未知,未知,未知,未知,未知,未知,未知
8,600602,128945049.23,101967517.24,2015-09-30,三季度报告,2130193.74,2015,9,0.708174193984991,False,未知,未知,未知,未知,未知,未知,未知,未知
9,600602,218977320.4,160473746.86,2015-12-31,年度报告,4158002.48,2015,12,-0.3988978919997723,True,未知,未知,未知,未知,未知,未知,245060000.0,未知
10,600602,33458192.89,30567915.71,2016-03-31,一季度报告,22224519.510000005,2016,3,9.079554883221167,False,未知,未知,未知,未知,未知,未知,317620000.0,未知
11,600602,87557153.57000001,70737282.56,2016-06-30,半年度报告,57080022.09,2016,6,2.30705838847997,False,未知,未知,未知,未知,未知,未知,257840000.0,未知
12,600602,247281505.12,226561565.42,2016-09-30,三季度报告,22108192.82,2016,9,-0.0529270325673907,True,未知,未知,0.0,True,未知,未知,308300000.0,未知
13,600602,308764880.85,237720644.2200001,2016-12-31,年度报告,21982355.9,2016,12,-0.4423149840954945,True,0.3463880286951487,True,1.4613190772579,False,平均增速,237720644.2200001,308300000.0,308300000.0
14,600602,61622416.64999999,59113511.54000002,2017-03-31,一季度报告,24472180.73000001,2017,3,2.649939218519461,False,0.976675257723318,True,2.0340476828907827,False,前期平均,59350932.16500002,343995000.0,343995000.0
15,600602,134355661.03,130479210.68,2017-06-30,半年度报告,77966134.42,2017,6,0.3947503479811899,True,1.019123912367214,True,6.940031403599533,False,平均增速,40552518.59209362,364530000.0,364530000.0
16,600602,176589519.62,164181818.39000005,2017-09-30,三季度报告,106022515.15,2017,9,-0.5061483860237028,True,1.4674261443858512,True,0.0,True,比例外推,84257316.83537498,309680000.0,309680000.0
17,600602,305668031.03000003,277673326.92,2017-12-31,年度报告,150480066.62000003,2017,12,-0.6044874984686912,True,0.46286195847369077,True,1.3618549023216644,False,平均增速,277673326.92,,277673326.92
18,600602,61417209.27000002,60099344.2,2018-03-31,一季度报告,23646212.02,2018,3,0.9817523727382089,False,1.7042887423092312,True,1.96624536069357,False,前期平均,65084207.365,未知,65084207.365
19,600602,150523474.99999997,143888825.24999997,2018-06-30,半年度报告,75871253.79,2018,6,-0.09106643163527,True,1.15859534090571,True,6.764908510467115,False,平均增速,399110921.3700292,276005000.0,276005000.0
20,600602,193895183.39999995,181504097.79,2018-09-30,三季度报告,106807258.54000002,2018,9,-0.30845063357786606,True,0.06125967144934466,True,0.0,True,比例外推,99901512.61261627,,99901512.61261627
21,600602,299131276.47,272238536.87,2018-12-31,年度报告,159955536.73999998,2018,12,-0.6004803969898495,True,0.15839904523837825,True,0.5705250819375332,False,平均增速,272238536.87,,272238536.87
22,600602,48698549.09,44036891.62,2019-03-31,一季度报告,17916217.53,2019,3,0.9883738102319015,False,0.29189767644815257,True,1.4002715853894863,False,前期平均,106919752.76,320630000.0,320630000.0
23,600602,136611865.73999998,121758661.49,2019-06-30,半年度报告,67700916.03999999,2019,6,-0.18869551470293905,True,0.3566001158727131,True,0.21305204001838607,False,平均增速,325517743.31019664,284750000.0,284750000.0
24,600602,204300583.33,185006269.26,2019-09-30,三季度报告,125630952.76000002,2019,9,-0.3701732643968296,True,0.08512178430250518,True,0.0,True,比例外推,217865697.91589594,,217865697.91589594
25,600602,278739459.99999994,241790818.42,2019-12-31,年度报告,167733579.01000002,2019,12,-0.5917499104369065,True,0.026317533822403965,True,0.032276738629623866,True,比例外推,241790818.42,未知,241790818.42
26,600602,22834195.489999995,22962897.56,2020-03-31,一季度报告,17642047.12,2020,3,1.5076798527263882,False,0.2084086939330643,True,未知,未知,前期平均,154121502.865,280666667.0,280666667.0
