,SECURITYCODE_x,NETPROFIT_x,PARENTNETPROFIT_x,REPORTDATE_x,REPORTTIMETYPE_x,KCFJCXSYJLR,Year,Month,managesituationChangeRate,managesituationGreatChange,historyprofitextroplaterate,ifhistoryprofitextroplate,IfprofitdisStableChangeRage,IfprofitdisStable,predicttype,predict,analyst_prediction,adj_prediction
0,600681,-5401068.67,-5670766.659999997,2013-12-31,年度报告,3590350.99,2013,12,未知,未知,未知,未知,未知,未知,未知,未知,未知,未知
1,600681,8499.31,-37093.09,2014-03-31,一季度报告,-36566.37,2014,3,未知,未知,未知,未知,未知,未知,未知,未知,未知,未知
2,600681,134134.71000000002,96895.84,2014-06-30,半年度报告,96193.55,2014,6,未知,未知,未知,未知,未知,未知,未知,未知,未知,未知
3,600681,436985.6999999999,291916.04000000004,2014-09-30,三季度报告,281547.58,2014,9,未知,未知,未知,未知,未知,未知,未知,未知,未知,未知
4,600681,3122262.08,2096897.1,2014-12-31,年度报告,267765876.89,2014,12,-0.0,False,未知,未知,未知,未知,未知,未知,未知,未知
5,600681,37470129.2,37250437.17000001,2015-03-31,一季度报告,30462421.02,2015,3,-636.4714288571661,False,未知,未知,未知,未知,未知,未知,未知,未知
6,600681,108387589.92000002,107913097.85,2015-06-30,半年度报告,100289750.08999996,2015,6,-41.26600325896257,False,未知,未知,未知,未知,未知,未知,430000000.0,未知
7,600681,222191599.7,220946776.32,2015-09-30,三季度报告,221673004.49,2015,9,-13.359829326222807,False,未知,未知,未知,未知,未知,未知,396000000.0,未知
8,600681,222191599.7,220946776.32,2015-09-30,三季度报告,213994967.14,2015,9,-13.359829326222807,False,未知,未知,未知,未知,未知,未知,396000000.0,未知
9,600681,409967280.45,407837140.84,2015-12-31,年度报告,408563369.01000017,2015,12,-2.729857562117271,False,未知,未知,未知,未知,未知,未知,,未知
10,600681,409967280.45,407837140.84,2015-12-31,年度报告,402398275.8000001,2015,12,-2.729857562117271,False,未知,未知,未知,未知,未知,未知,,未知
11,600681,58236925.77999999,57973393.96999999,2016-03-31,一季度报告,57605643.37999999,2016,3,-1.1441433158976138,False,未知,未知,未知,未知,未知,未知,535666667.0,未知
12,600681,137119499.66,136301969.92999998,2016-06-30,半年度报告,135709294.69,2016,6,-1.0498310616001931,False,未知,未知,0.0,True,未知,未知,533674286.0,未知
13,600681,286590619.58000004,284768800.39000005,2016-09-30,三季度报告,278802810.0300001,2016,9,-1.0243081587120866,False,未知,未知,0.06002233773850952,True,未知,未知,534521667.0,未知
14,600681,553604576.02,551174052.18,2016-12-31,年度报告,547404997.05,2016,12,-1.0131743895856067,False,-360.80875450250477,True,0.16422155057593218,False,前期平均,551174052.18,540276667.0,551174052.18
15,600681,85019709.85000002,83693013.92999999,2017-03-31,一季度报告,83649005.51,2017,3,-1.092743025110966,False,2.107740496131617,False,0.3499271077394784,False,去年同期,573492367.5999999,793695000.0,793695000.0
16,600681,186642456.97000003,182060743.39,2017-06-30,半年度报告,181826361.43,2017,6,-1.03938950100746,False,1.5270423986994832,True,0.0,True,前期平均,470032394.5200001,819751875.0,819751875.0
17,600681,383006156.62,378279187.94,2017-09-30,三季度报告,375015396.71000016,2017,9,-1.0188459366810934,False,1.5746075605257839,True,0.017979629171976097,True,前期平均,605466534.855,809532143.0000001,809532143.0000001
18,600681,866000979.8900003,858037995.6400003,2017-12-31,年度报告,855092349.91,2017,12,-1.0097561850171644,False,1.6803127120062369,True,0.02270141823337335,True,前期平均,858037995.6400003,725968000.0,725968000.0
19,600681,293966818.02,292529579.39,2018-03-31,一季度报告,270764651.8,2018,3,-1.0635272536160036,False,0.776665468763336,True,0.05825000139660175,True,前期平均,726479730.22,1021025000.0,1021025000.0
20,600681,503176802.35000014,502322326.9600001,2018-06-30,半年度报告,452298453.5500001,2018,6,-1.028938049561082,False,0.5204649062419962,True,0.0,True,前期平均,862306987.6000001,1053722222.0,1053722222.0
21,600681,723664219.51,720234121.9399999,2018-09-30,三季度报告,670954051.1600001,2018,9,-1.0141017802890273,False,0.5055799597792894,True,0.11622031738902075,False,前期平均,947980397.7099999,1079233333.0,1079233333.0
22,600681,1010688520.67,1006420610.0199996,2018-12-31,年度报告,981530064.8399998,2018,12,-1.0062367927928741,False,0.7974808501828894,True,0.1536886111195221,False,前期平均,1006420610.0199996,1077914286.0,1006420610.0199996
23,600681,329354811.73,326449599.04999995,2019-03-31,一季度报告,306745774.48999995,2019,3,-1.0183730555250374,False,3.1040586598620235,False,0.13975835525102953,False,去年同期,1037215012.0899997,1308335000.0,1308335000.0
24,600681,520869282.33,513926522.21,2019-06-30,半年度报告,462827059.39,2019,6,-1.010733938140183,False,2.1083133274057775,False,0.0,True,去年同期,1043158133.4999998,1184670000.0,1184670000.0
25,600681,665274731.1,657474183.0000001,2019-09-30,三季度报告,598470515.57,2019,9,-1.0074635010608333,False,1.1614925436673569,True,0.17985640554911758,False,前期平均,1031813753.1099999,1096975000.0,1031813753.1099999
26,600681,740684395.88,728290026.5300001,2019-12-31,年度报告,671764787.4899999,2019,12,-1.0053439497526098,False,0.423900486247569,True,未知,未知,前期平均,728290026.5300001,1327000000.0,1327000000.0
27,600681,193800370.36,193732210.03000003,2020-03-31,一季度报告,181075521.64,2020,3,-1.01639893658037,False,0.7380818974281605,True,未知,未知,前期平均,934836588.75,749000000.0,749000000.0
