,SECURITYCODE_x,NETPROFIT_x,PARENTNETPROFIT_x,REPORTDATE_x,REPORTTIMETYPE_x,KCFJCXSYJLR,Year,Month,managesituationChangeRate,managesituationGreatChange,historyprofitextroplaterate,ifhistoryprofitextroplate,IfprofitdisStableChangeRage,IfprofitdisStable,predicttype,predict,analyst_prediction,adj_prediction
0,600633,491914232.53,411083366.63,2013-12-31,年度报告,379289274.59,2013,12,未知,未知,未知,未知,未知,未知,未知,未知,未知,未知
1,600633,178119663.80999997,132413297.56000002,2014-03-31,一季度报告,104803858.9,2014,3,未知,未知,未知,未知,未知,未知,未知,未知,未知,未知
2,600633,344999472.48,282576935.31000006,2014-06-30,半年度报告,257790173.42,2014,6,未知,未知,未知,未知,未知,未知,未知,未知,未知,未知
3,600633,478120915.3400001,404884647.49000007,2014-09-30,三季度报告,362716159.53,2014,9,未知,未知,未知,未知,未知,未知,未知,未知,未知,未知
4,600633,611465019.51,517301122.49000007,2014-12-31,年度报告,453667049.66,2014,12,0.0,True,未知,未知,未知,未知,未知,未知,未知,未知
5,600633,175402813.91000003,142205705.4,2015-03-31,一季度报告,120409181.76999998,2015,3,1.761706495554159,False,未知,未知,未知,未知,未知,未知,653908000.0,未知
6,600633,365759066.11,282961768.39,2015-06-30,半年度报告,229133857.0,2015,6,0.4258405353315917,True,未知,未知,未知,未知,未知,未知,618836667.0,未知
7,600633,492441320.76,397557154.59999985,2015-09-30,三季度报告,331444093.36999995,2015,9,0.028849014438515435,True,未知,未知,未知,未知,未知,未知,592000000.0,未知
8,600633,881579362.3800004,609702397.9000001,2015-12-31,年度报告,409109930.98,2015,12,-0.19551533311881444,True,未知,未知,未知,未知,未知,未知,601771334.0,未知
9,600633,175880606.30999997,170806768.5,2016-03-31,一季度报告,79774979.13000001,2016,3,1.80448312979975,False,未知,未知,未知,未知,未知,未知,659216250.0,未知
10,600633,330998517.63000005,304997845.60999995,2016-06-30,半年度报告,207128660.33,2016,6,0.34491329978970225,True,未知,未知,未知,未知,未知,未知,703838401.0,未知
11,600633,451803028.1800001,398234925.15,2016-09-30,三季度报告,284654773.36,2016,9,-0.0010703574370780815,True,未知,未知,未知,未知,未知,未知,639882500.0,未知
12,600633,1025130081.65,611632155.6300001,2016-12-31,年度报告,249059412.82,2016,12,-0.4420079989146084,True,0.5979625514075574,True,0.0,True,比例外推,611632155.6300001,639882500.0,611632155.6300001
13,600633,1266993256.12,1259751305.36,2017-03-31,一季度报告,84316251.76,2017,3,1.79686454834578,False,0.00498204558691472,True,0.05086501276229932,True,前期平均,1578533275.345,659995193.0,659995193.0
14,600633,1342357666.68,1319493189.67,2017-06-30,半年度报告,125990349.66999996,2017,6,0.486152373286083,True,0.06860487870709622,True,0.17832390479040272,False,平均增速,1348080633.853499,1113934351.0,1113934351.0
15,600633,1578448035.32,1551809789.2099998,2017-09-30,三季度报告,201075783.38000005,2017,9,0.08878029107414345,True,0.06898700284182618,True,0.2253862295336957,False,平均增速,1525795475.4578838,1253860000.0,1253860000.0
16,600633,1730638467.4699998,1656936412.4099994,2017-12-31,年度报告,198282380.29,2017,12,-0.5201445735176959,True,0.37320778147575007,True,0.0,True,比例外推,1656936412.4099994,1644200000.0,1656936412.4099994
17,600633,104540228.68999998,88548449.35999998,2018-03-31,一季度报告,76616954.80000001,2018,3,-0.611746763328147,True,6.213510135642118,False,0.07861384035448032,True,比例外推,232972102.66102916,602796000.0,602796000.0
18,600633,352053332.92,305986110.00999993,2018-06-30,半年度报告,141253982.17000002,2018,6,-0.6335445874521416,True,2.8531555249807234,False,0.15593316892279085,False,未知,未知,634069842.0,未知
19,600633,479690887.6400001,400176557.52999985,2018-09-30,三季度报告,203655709.50000003,2018,9,-0.6883557636851353,True,2.343304171408494,False,0.178896384860175,False,未知,未知,613233333.0,未知
20,600633,572613511.72,478292043.97,2018-12-31,年度报告,248642906.91,2018,12,-0.7157614130413248,True,0.8153143079966513,True,0.0,True,比例外推,478292043.97,811400000.0,811400000.0
21,600633,394934195.24,250593822.15,2019-03-31,一季度报告,106459872.59000002,2019,3,3.7055017833250163,False,0.8550944314509382,True,0.07400695684826647,True,前期平均,392219103.26,624825483.0,624825483.0
22,600633,466343955.19,325033340.98,2019-06-30,半年度报告,198928092.00000003,2019,6,0.39727190891779374,True,0.5792248700892484,True,0.15325955405588754,False,平均增速,455691035.74322855,626620000.0,626620000.0
23,600633,535194167.2900001,414092350.67,2019-09-30,三季度报告,313897263.13999987,2019,9,0.025481711670898532,True,0.5274565828198123,True,0.17295635296533585,False,平均增速,471819195.6739671,559530000.0,559530000.0
24,600633,690207443.24,508352099.33,2019-12-31,年度报告,278517850.95,2019,12,-0.14093149661732202,True,0.5844255411777213,True,0.0,True,比例外推,508352099.33,572060000.0,572060000.0
25,600633,241422308.95000005,191748261.16,2020-03-31,一季度报告,202379919.77,2020,3,0.24555999064873468,True,0.4240983547044633,True,0.06372977430855753,True,比例外推,533590137.25364137,612043333.0,612043333.0
