,SECURITYCODE_x,NETPROFIT_x,PARENTNETPROFIT_x,REPORTDATE_x,REPORTTIMETYPE_x,KCFJCXSYJLR,Year,Month,managesituationChangeRate,managesituationGreatChange,historyprofitextroplaterate,ifhistoryprofitextroplate,IfprofitdisStableChangeRage,IfprofitdisStable,predicttype,predict,analyst_prediction,adj_prediction
0,600684,449822343.3,449571230.79,2013-12-31,年度报告,448649854.0999999,2013,12,未知,未知,未知,未知,未知,未知,未知,未知,未知,未知
1,600684,116264278.97,116290674.10999998,2014-03-31,一季度报告,116150868.96999998,2014,3,未知,未知,未知,未知,未知,未知,未知,未知,未知,未知
2,600684,161525079.95,161581241.58,2014-06-30,半年度报告,161662748.83,2014,6,未知,未知,未知,未知,未知,未知,未知,未知,未知,未知
3,600684,179835305.52999997,180743224.21,2014-09-30,三季度报告,182122136.54,2014,9,未知,未知,未知,未知,未知,未知,未知,未知,未知,未知
4,600684,267097005.6,269209759.71,2014-12-31,年度报告,272292385.8800001,2014,12,0.0,True,未知,未知,未知,未知,未知,未知,未知,未知
5,600684,30180804.13,30873969.750000004,2015-03-31,一季度报告,30776555.57,2015,3,2.868964287957,False,未知,未知,未知,未知,未知,未知,未知,未知
6,600684,115639677.34000002,117020559.78,2015-06-30,半年度报告,117349648.89999998,2015,6,1.7848451982765916,False,未知,未知,未知,未知,未知,未知,未知,未知
7,600684,174471571.39,176182501.38,2015-09-30,三季度报告,177155656.74,2015,9,1.5013016324815098,False,未知,未知,未知,未知,未知,未知,未知,未知
8,600684,364921312.85,286790703.44,2015-12-31,年度报告,285923661.68,2015,12,0.6841160097977528,False,未知,未知,未知,未知,未知,未知,未知,未知
9,600684,35357291.919999994,37480671.1,2016-03-31,一季度报告,36535188.40000001,2016,3,13.904253092874766,False,未知,未知,未知,未知,未知,未知,未知,未知
10,600684,166677638.46000004,158502968.39999998,2016-06-30,半年度报告,156968504.05000004,2016,6,2.8898616257588388,False,未知,未知,未知,未知,未知,未知,未知,未知
11,600684,269069254.68,256750832.01,2016-09-30,三季度报告,244687760.54,2016,9,1.5781984979919887,False,未知,未知,未知,未知,未知,未知,未知,未知
12,600684,349857027.38,333170995.79,2016-12-31,年度报告,314126563.47000015,2016,12,0.2326557190834681,True,0.018026123607667737,True,0.0,True,比例外推,333170995.79,未知,333170995.79
13,600684,222613256.62000003,115886475.76999997,2017-03-31,一季度报告,100466312.42999998,2017,3,11.722194457589557,False,0.5171255849422234,True,0.2097290482265125,False,前期平均,321530787.28000003,未知,321530787.28000003
14,600684,370150356.96,229795595.45999995,2017-06-30,半年度报告,203606097.91,2017,6,1.6987563986152237,False,0.20273327741740052,True,0.09243299297400731,True,前期平均,369397420.375,未知,369397420.375
15,600684,464435287.72,328393006.96,2017-09-30,三季度报告,225204063.76,2017,9,0.6717716181841992,False,0.51884861518369,True,0.08981812529770161,True,前期平均,427862134.1,未知,427862134.1
16,600684,525904752.0,359783218.34,2017-12-31,年度报告,244599914.69,2017,12,0.28573190788425096,True,0.10711040223647482,True,0.0,True,比例外推,359783218.34,未知,359783218.34
17,600684,228783511.01,149638859.50000003,2018-03-31,一季度报告,92300938.76999998,2018,3,1.020644907359875,False,5.793400175988177,False,0.19917611450233705,False,去年同期,293772461.76000005,未知,293772461.76000005
18,600684,280227654.49,237892149.51000005,2018-06-30,半年度报告,163396799.32,2018,6,0.21524222479301763,True,1.6222292168732775,True,0.2515626474196333,False,平均增速,273580681.5947081,未知,273580681.5947081
19,600684,319759860.63,298480328.06000006,2018-09-30,三季度报告,168867913.63000005,2018,9,-0.03146389778377458,True,1.0942166331570229,True,0.15348956019719573,False,平均增速,314855239.40303606,未知,314855239.40303606
20,600684,276295044.29,245450392.48,2018-12-31,年度报告,127593707.31,2018,12,-0.14466955928932163,True,0.4715184341785605,True,0.0,True,比例外推,245450392.48,未知,245450392.48
21,600684,67198133.32000001,69510975.80999999,2019-03-31,一季度报告,-51457076.8,2019,3,0.9661484401309784,False,0.7737180643667594,True,0.30658332954973905,False,前期平均,280373464.475,未知,280373464.475
22,600684,108057614.34,51273405.54,2019-06-30,半年度报告,-118575946.36000004,2019,6,0.60520325561249,False,0.044012819304467564,True,0.40970058991627545,False,前期平均,150349343.64000005,未知,150349343.64000005
23,600684,114044270.6,46309552.73,2019-09-30,三季度报告,-164546229.95,2019,9,0.4067504983700806,True,0.12813120533989497,True,0.31577095104167574,False,平均增速,53001201.13059707,未知,53001201.13059707
24,600684,266905358.78,219266683.61,2019-12-31,年度报告,-172889865.67999998,2019,12,0.6280507109923595,False,0.3690178064505064,True,0.0,True,前期平均,219266683.61,未知,219266683.61
25,600684,-82432373.16,-79764713.35000001,2020-03-31,一季度报告,-98426779.19000004,2020,3,5.6939708154976465,False,0.702265775305326,True,0.2461426622269947,False,盈利变化,156640413.75666663,未知,156640413.75666663
