,SECURITYCODE_x,NETPROFIT_x,PARENTNETPROFIT_x,REPORTDATE_x,REPORTTIMETYPE_x,KCFJCXSYJLR,Year,Month,managesituationChangeRate,managesituationGreatChange,historyprofitextroplaterate,ifhistoryprofitextroplate,IfprofitdisStableChangeRage,IfprofitdisStable,predicttype,predict,analyst_prediction,adj_prediction
0,600666,32010766.88,32745802.6,2013-12-31,年度报告,56343926.08999998,2013,12,未知,未知,未知,未知,未知,未知,未知,未知,未知,未知
1,600666,21023470.339999992,20314263.78,2014-03-31,一季度报告,19854062.83,2014,3,未知,未知,未知,未知,未知,未知,未知,未知,未知,未知
2,600666,21528810.05,21846004.79,2014-06-30,半年度报告,17592351.19,2014,6,未知,未知,未知,未知,未知,未知,未知,未知,未知,未知
3,600666,45680598.05,46289668.35,2014-09-30,三季度报告,26856041.55,2014,9,未知,未知,未知,未知,未知,未知,未知,未知,未知,未知
4,600666,130569731.68,131703528.98999998,2014-12-31,年度报告,114013902.76,2014,12,0.0,True,未知,未知,未知,未知,未知,未知,未知,未知
5,600666,37838680.51,38792878.97,2015-03-31,一季度报告,32499588.98,2015,3,0.5226204980580771,False,未知,未知,未知,未知,未知,未知,未知,未知
6,600666,110212642.38,111194689.20000002,2015-06-30,半年度报告,106414485.9,2015,6,0.4868804548721446,True,未知,未知,未知,未知,未知,未知,307170000.0,未知
7,600666,205017290.06,205948811.29999992,2015-09-30,三季度报告,200270554.06,2015,9,-0.29924807803605363,True,未知,未知,未知,未知,未知,未知,,未知
8,600666,299665120.3,300612304.36,2015-12-31,年度报告,288317422.8099999,2015,12,-0.7548377677726112,True,未知,未知,未知,未知,未知,未知,329695000.0,未知
9,600666,30568160.44,30720563.89,2016-03-31,一季度报告,23708420.7,2016,3,-0.1540200015288535,True,未知,未知,未知,未知,未知,未知,799000000.0,未知
10,600666,66356613.65000001,66496422.44,2016-06-30,半年度报告,48955937.3,2016,6,-0.7095544922184998,True,未知,未知,未知,未知,未知,未知,811050000.0,未知
11,600666,107864661.13,107102798.11,2016-09-30,三季度报告,76464696.03999999,2016,9,-0.8438630865200112,True,未知,未知,未知,未知,未知,未知,,未知
12,600666,327033619.96000004,325647750.49,2016-12-31,年度报告,289653368.29,2016,12,-0.8931782022280289,True,2.686359962654552,False,0.0,True,比例外推,325647750.49,651230000.0,651230000.0
13,600666,47460112.99,47382435.40000001,2017-03-31,一季度报告,28381827.910000004,2017,3,0.04719310613511022,True,0.038635523798566884,True,0.051233950281788884,True,比例外推,249928803.9693879,未知,249928803.9693879
14,600666,77260420.55,75351305.48,2017-06-30,半年度报告,30794182.210000005,2017,6,-0.5175949295899611,True,0.007376378900303845,True,0.13828674828961837,False,平均增速,363674458.09444535,未知,363674458.09444535
15,600666,81373334.79999998,77216973.32,2017-09-30,三季度报告,39768111.62,2017,9,-0.7032321193553821,True,0.13948488403163845,True,0.29656636071399617,False,平均增速,320976614.2382935,未知,320976614.2382935
16,600666,-19114158.52,-24076685.92,2017-12-31,年度报告,-109481129.06,2017,12,-0.9021178101385562,True,0.5202562900469188,True,0.0,True,比例外推,-24076685.92,未知,-24076685.92
17,600666,52777893.41,52825410.13,2018-03-31,一季度报告,31443615.38000001,2018,3,-0.32552274187074165,True,0.38758382439234684,True,0.23768382386239076,False,平均增速,-45140612.46316431,未知,-45140612.46316431
18,600666,42044435.53,41729821.81,2018-06-30,半年度报告,-12903895.359999998,2018,6,-0.5856770303329653,True,0.12487120026293745,True,0.36688377019036944,False,平均增速,49143824.83516086,未知,49143824.83516086
19,600666,-5850381.31,-4537048.57,2018-09-30,三季度报告,-67219324.48,2018,9,-0.6066184707966521,True,0.47984641178240806,True,0.5616961979101153,False,平均增速,98217448.83282787,未知,98217448.83282787
20,600666,-1742362627.0299995,-1741329871.2399998,2018-12-31,年度报告,-3299694586.4,2018,12,-2.6747149421464567,False,1.0609995115422446,True,0.0,True,前期平均,-1741329871.2399998,未知,-1741329871.2399998
21,600666,-50395587.3,-50341486.26,2019-03-31,一季度报告,-60567471.63000001,2019,3,-0.3934815353214758,True,0.3527889594365459,True,0.19693355459010856,False,平均增速,26906739339.126713,未知,26906739339.126713
22,600666,-39466205.28,-39597092.9,2019-06-30,半年度报告,-27337835.38,2019,6,-0.23864438952547407,True,0.4144923578988655,True,0.24515799867317264,False,平均增速,23587915881.36492,未知,23587915881.36492
23,600666,-26081630.460000005,-26065036.26,2019-09-30,三季度报告,40494450.61000001,2019,9,-6.471569318957775,False,1.0618309370826786,True,0.3369472284487523,False,前期平均,5904679.52500001,未知,5904679.52500001
24,600666,68094658.5,67140349.92999999,2019-12-31,年度报告,-354813407.30999994,2019,12,-1.0183720463142423,False,12.317002302366713,False,0.0,True,盈利变化,-759702811.543333,未知,-759702811.543333
25,600666,-20689385.23,-20315419.97,2020-03-31,一季度报告,-26535371.63,2020,3,-1.635189876634298,False,2.005518547503754,False,0.226550657819644,False,去年同期,-314561355.65,未知,-314561355.65
