,SECURITYCODE_x,NETPROFIT_x,PARENTNETPROFIT_x,REPORTDATE_x,REPORTTIMETYPE_x,KCFJCXSYJLR,Year,Month,managesituationChangeRate,managesituationGreatChange,historyprofitextroplaterate,ifhistoryprofitextroplate,IfprofitdisStableChangeRage,IfprofitdisStable,predicttype,predict,analyst_prediction,adj_prediction
0,600620,115483047.12,118385333.97,2013-12-31,年度报告,-22144089.74,2013,12,未知,未知,未知,未知,未知,未知,未知,未知,未知,未知
1,600620,49976420.72000001,50379992.65,2014-03-31,一季度报告,50343364.35,2014,3,未知,未知,未知,未知,未知,未知,未知,未知,未知,未知
2,600620,41170204.01,42407118.47,2014-06-30,半年度报告,42219225.57999999,2014,6,未知,未知,未知,未知,未知,未知,未知,未知,未知,未知
3,600620,92368952.79,94133934.32,2014-09-30,三季度报告,36790616.88,2014,9,未知,未知,未知,未知,未知,未知,未知,未知,未知,未知
4,600620,77732300.01999998,80187845.19000001,2014-12-31,年度报告,16671282.9,2014,12,0.0,True,未知,未知,未知,未知,未知,未知,未知,未知
5,600620,57924919.14,57373149.83,2015-03-31,一季度报告,57306559.99000001,2015,3,1.3107506591360385,False,未知,未知,未知,未知,未知,未知,,未知
6,600620,70349892.38999999,70322831.99,2015-06-30,半年度报告,52629513.44999998,2015,6,1.8050151777715229,False,未知,未知,未知,未知,未知,未知,未知,未知
7,600620,65768278.17,66263091.04000001,2015-09-30,三季度报告,42757488.56,2015,9,0.250236617736153,True,未知,未知,未知,未知,未知,未知,未知,未知
8,600620,65768278.17,66263091.04000001,2015-09-30,三季度报告,48007270.24,2015,9,0.250236617736153,True,未知,未知,未知,未知,未知,未知,未知,未知
9,600620,65768278.17,66263091.04000001,2015-09-30,三季度报告,42757488.56,2015,9,0.250236617736153,True,未知,未知,未知,未知,未知,未知,未知,未知
10,600620,65768278.17,66263091.04000001,2015-09-30,三季度报告,48007270.24,2015,9,0.250236617736153,True,未知,未知,未知,未知,未知,未知,未知,未知
11,600620,52138156.76000001,61013309.35999999,2015-09-30,三季度报告,42757488.56,2015,9,0.250236617736153,True,未知,未知,未知,未知,未知,未知,未知,未知
12,600620,52138156.76000001,61013309.35999999,2015-09-30,三季度报告,48007270.24,2015,9,0.250236617736153,True,未知,未知,未知,未知,未知,未知,未知,未知
13,600620,52138156.76000001,61013309.35999999,2015-09-30,三季度报告,42757488.56,2015,9,0.250236617736153,True,未知,未知,未知,未知,未知,未知,未知,未知
14,600620,52138156.76000001,61013309.35999999,2015-09-30,三季度报告,48007270.24,2015,9,0.250236617736153,True,未知,未知,未知,未知,未知,未知,未知,未知
15,600620,49119191.52000001,49689481.44999999,2015-12-31,年度报告,32063751.62,2015,12,0.4856507152147437,True,未知,未知,未知,未知,未知,未知,82401254.00000001,未知
16,600620,-5186552.44,-4961101.930000002,2016-03-31,一季度报告,-5103651.93,2016,3,0.9936678174877812,False,未知,未知,未知,未知,未知,未知,76100000.0,未知
17,600620,52715726.18000001,53293883.49,2016-06-30,半年度报告,37537233.37,2016,6,0.6415525766520654,False,未知,未知,0.0,True,未知,未知,68666667.0,未知
18,600620,51102265.16,52118994.72999999,2016-09-30,三季度报告,34390554.60000001,2016,9,0.7559080202996289,False,未知,未知,1.7414610769971932,False,未知,未知,80000000.0,未知
19,600620,58469748.92999999,60185159.44,2016-12-31,年度报告,24457510.930000003,2016,12,1.351077929956938,False,0.4915601452258425,True,0.6295694349390619,False,前期平均,60185159.44,未知,60185159.44
20,600620,-6171219.1800000025,-5651975.91,2017-03-31,一季度报告,-6011196.12,2017,3,-23.26585934605917,False,1.0961350887158483,True,0.5580006761396421,False,前期平均,-35109420.82000001,未知,-35109420.82000001
21,600620,60863440.19000001,62035920.41,2017-06-30,半年度报告,52033000.76999999,2017,6,1.1906754490240428,False,0.05459683264764433,True,0.0,True,前期平均,38979068.155000016,未知,38979068.155000016
22,600620,62250656.85,63878903.81,2017-09-30,三季度报告,52558951.96,2017,9,1.2598420394560845,False,0.3536972305664559,True,1.303067270745312,False,前期平均,48472368.35,未知,48472368.35
23,600620,60518257.55000002,62549635.2,2017-12-31,年度报告,47712098.09,2017,12,0.9750905251578275,False,0.07813856628461058,True,0.33169064418522565,False,前期平均,62549635.2,,62549635.2
24,600620,-4650953.88,-4269046.3100000005,2018-03-31,一季度报告,-5276139.740000001,2018,3,-19.71316570545141,False,1.2340314866065052,True,0.17882622531061543,False,前期平均,-2109869.065000003,未知,-2109869.065000003
25,600620,60012320.20999999,60943835.54,2018-06-30,半年度报告,58880747.93999998,2018,6,0.8974124163782333,False,0.010878246951145747,True,0.0,True,前期平均,44121093.405000016,未知,44121093.405000016
26,600620,59237273.68,60629784.81,2018-09-30,三季度报告,57890140.88,2018,9,0.8551297763535165,False,0.06529250359051963,True,0.06164857705167351,True,前期平均,50316394.504999995,未知,50316394.504999995
27,600620,65037135.32999999,67661104.33,2018-12-31,年度报告,49581361.35,2018,12,0.9082348335060412,False,0.12499030656640354,True,0.263822422517888,False,前期平均,67661104.33,未知,67661104.33
28,600620,957448.66,2530716.21,2019-03-31,一季度报告,-7188236.860000002,2019,3,-25.829970388783988,False,-0.1810094381876647,True,0.18103508930929113,False,盈利变化,65111641.50333333,未知,65111641.50333333
29,600620,85485215.50000001,88755682.13999999,2019-06-30,半年度报告,78176017.14999999,2019,6,0.924322317748961,False,0.056748735318261925,True,0.0,True,前期平均,80055369.58,未知,80055369.58
30,600620,77770830.13000001,82631868.4,2019-09-30,三季度报告,75431731.83999999,2019,9,0.9494996975019463,False,0.04518300242448253,True,0.011752220141264272,True,前期平均,75241919.63000001,未知,75241919.63000001
31,600620,61679113.05999999,67130915.64999999,2019-12-31,年度报告,58873995.52999999,2019,12,0.7756478131153263,False,0.09317127421462755,True,未知,未知,前期平均,67130915.64999999,未知,67130915.64999999
32,600620,-6500481.19,-6128831.46,2020-03-31,一季度报告,-3864496.11,2020,3,119.61539374863192,False,-1.176942034597255,True,未知,未知,盈利变化,71562569.98333333,未知,71562569.98333333
