,SECURITYCODE_x,NETPROFIT_x,PARENTNETPROFIT_x,REPORTDATE_x,REPORTTIMETYPE_x,KCFJCXSYJLR,Year,Month,managesituationChangeRate,managesituationGreatChange,historyprofitextroplaterate,ifhistoryprofitextroplate,IfprofitdisStableChangeRage,IfprofitdisStable,predicttype,predict,analyst_prediction,adj_prediction
0,600634,126010862.23000002,117127096.44999996,2013-12-31,年度报告,92369124.81999998,2013,12,未知,未知,未知,未知,未知,未知,未知,未知,未知,未知
1,600634,11015821.089999998,10041894.38,2014-03-31,一季度报告,8320701.43,2014,3,未知,未知,未知,未知,未知,未知,未知,未知,未知,未知
2,600634,47580550.45,44782665.45,2014-06-30,半年度报告,28816207.29,2014,6,未知,未知,未知,未知,未知,未知,未知,未知,未知,未知
3,600634,94678555.49,88827251.10999998,2014-09-30,三季度报告,67998953.02,2014,9,未知,未知,未知,未知,未知,未知,未知,未知,未知,未知
4,600634,145331441.60999998,134798505.32999998,2014-12-31,年度报告,114350864.39999998,2014,12,0.0,True,未知,未知,未知,未知,未知,未知,未知,未知
5,600634,8680879.5,7837864.570000002,2015-03-31,一季度报告,3137682.5500000007,2015,3,10.439080319159398,False,未知,未知,未知,未知,未知,未知,未知,未知
6,600634,41660137.58,38548740.63,2015-06-30,半年度报告,30213021.56,2015,6,1.6483691558469562,False,未知,未知,未知,未知,未知,未知,未知,未知
7,600634,100550878.59999998,93224847.77000004,2015-09-30,三季度报告,60155810.8,2015,9,0.33093351052772835,True,未知,未知,未知,未知,未知,未知,未知,未知
8,600634,132793687.36,122487521.84,2015-12-31,年度报告,94412869.79,2015,12,-0.1329414968018218,True,未知,未知,未知,未知,未知,未知,未知,未知
9,600634,1701263.1700000004,812533.3400000002,2016-03-31,一季度报告,-10483010.3,2016,3,13.5159096183745,False,未知,未知,未知,未知,未知,未知,未知,未知
10,600634,34726152.06,31678999.83,2016-06-30,半年度报告,7002561.83,2016,6,2.0247346636343013,False,未知,未知,未知,未知,未知,未知,未知,未知
11,600634,46407636.6,41666720.37000001,2016-09-30,三季度报告,9378518.14,2016,9,0.2532049842277564,True,未知,未知,未知,未知,未知,未知,101000000.0,未知
12,600634,185278683.25000003,172310419.87,2016-12-31,年度报告,-34495125.11,2016,12,-0.05107791842252207,True,0.021209111290635654,True,0.0,True,比例外推,172310419.87,117000000.0,117000000.0
13,600634,81557985.67999999,28715231.969999995,2017-03-31,一季度报告,10502630.209999997,2017,3,73.06900028876778,False,0.827253994929107,True,0.16726611185938275,False,前期平均,127367907.07499999,,127367907.07499999
14,600634,155731428.10999998,56535900.37,2017-06-30,半年度报告,23686625.039999995,2017,6,2.628702138154492,False,0.22174172282656252,True,0.3260035692136617,False,前期平均,131403153.03999999,294893333.0,294893333.0
15,600634,212643522.1,67632666.8,2017-09-30,三季度报告,19473950.61,2017,9,1.7153044512074984,False,0.524583607832349,True,0.5918559292257412,False,前期平均,107937151.98499998,,107937151.98499998
16,600634,193449965.73,32394501.31,2017-12-31,年度报告,-25697926.46000001,2017,12,-0.3198847270521068,True,0.3323404752109627,True,0.0,True,比例外推,32394501.31,201000000.0,201000000.0
17,600634,-2094129.99,-2093096.09,2018-03-31,一季度报告,-9460331.27,2018,3,0.5450462781709058,False,14.711204954959456,False,0.3848410671042833,False,前期平均盈利变化,11575478.645000007,未知,11575478.645000007
18,600634,-475677628.08,-475676172.9,2018-06-30,半年度报告,-63521153.59000002,2018,6,-0.19084500951861186,True,3.07747067815297,False,0.6534913116398091,False,未知,未知,未知,未知
19,600634,-449528639.86,-449526898.88000005,2018-09-30,三季度报告,-37374879.57000001,2018,9,-0.4074079427129653,True,1.8939258376502706,True,0.7679985730646747,False,平均增速,-416226349.38501215,未知,-416226349.38501215
20,600634,-5508942030.960001,-5508939746.789999,2018-12-31,年度报告,-1859563871.51,2018,12,-0.3486126412352297,True,0.2163896245310534,True,0.0,True,比例外推,-5508939746.789999,未知,-5508939746.789999
21,600634,-15932472.03,-15932187.89,2019-03-31,一季度报告,-15932187.89,2019,3,-61.173371677848905,False,1.0503038405684584,True,0.3754589873397518,False,前期平均,-46038523.63,未知,-46038523.63
22,600634,-457189791.88,-457188934.8,2019-06-30,半年度报告,-356955594.27,2019,6,-1.2649081116945178,False,5.9951031369338645,False,0.558207845181817,False,去年同期,-2253231652.7200003,未知,-2253231652.7200003
23,600634,-662379475.0800003,-662378403.26,2019-09-30,三季度报告,-463495861.43,2019,9,-1.2803177618877508,False,4.470578106007136,False,0.42127467736471935,False,去年同期,-2484567395.2,未知,-2484567395.2
24,600634,-141027475.89,-141025928.4,2019-12-31,年度报告,-610168375.03,2019,12,-1.0228738769661805,False,30.09176290622217,False,0.0,True,去年同期,-141025928.4,未知,-141025928.4
25,600634,-340285633.68,-340285230.35,2020-03-31,一季度报告,-263899889.36999995,2020,3,-8.909059058301075,False,1.4009992188688876,True,0.28286326110265936,False,前期平均,-1283437278.805,未知,-1283437278.805
