,SECURITYCODE_x,NETPROFIT_x,PARENTNETPROFIT_x,REPORTDATE_x,REPORTTIMETYPE_x,KCFJCXSYJLR,Year,Month,managesituationChangeRate,managesituationGreatChange,historyprofitextroplaterate,ifhistoryprofitextroplate,IfprofitdisStableChangeRage,IfprofitdisStable,predicttype,predict,analyst_prediction,adj_prediction
0,600603,124001353.22,123111178.42999998,2013-12-31,年度报告,-12523426.47,2013,12,未知,未知,未知,未知,未知,未知,未知,未知,未知,未知
1,600603,-3155165.4200000013,-2533319.91,2014-03-31,一季度报告,-5861304.3999999985,2014,3,未知,未知,未知,未知,未知,未知,未知,未知,未知,未知
2,600603,778669.9599999998,644929.18,2014-06-30,半年度报告,-5254623.6499999985,2014,6,未知,未知,未知,未知,未知,未知,未知,未知,未知,未知
3,600603,-2925997.1500000013,-2691187.89,2014-09-30,三季度报告,-8556828.579999998,2014,9,未知,未知,未知,未知,未知,未知,未知,未知,未知,未知
4,600603,-24853338.47,-23600842.53,2014-12-31,年度报告,282899270.17,2014,12,0.0,True,未知,未知,未知,未知,未知,未知,未知,未知
5,600603,-8548519.399999999,-7670936.65,2015-03-31,一季度报告,-7670936.65,2015,3,-40.30106245269383,False,未知,未知,未知,未知,未知,未知,未知,未知
6,600603,-10903132.31,-9939077.849999998,2015-06-30,半年度报告,-9939077.849999998,2015,6,158.2476396803596,False,未知,未知,未知,未知,未知,未知,未知,未知
7,600603,-10321441.94,-9920145.9,2015-09-30,三季度报告,-9918505.9,2015,9,-43.37917771724417,False,未知,未知,未知,未知,未知,未知,未知,未知
8,600603,593039159.9399997,593039159.9399997,2015-12-31,年度报告,260392569.7100001,2015,12,-5.989323803306333,False,未知,未知,未知,未知,未知,未知,未知,未知
9,600603,593039159.9399997,593039159.9399997,2015-12-31,年度报告,273843040.12,2015,12,-5.989323803306333,False,未知,未知,未知,未知,未知,未知,未知,未知
10,600603,50032389.37,50032389.37,2016-03-31,一季度报告,50055636.98,2016,3,-15.505594175758674,False,未知,未知,未知,未知,未知,未知,未知,未知
11,600603,96625199.56999998,96625199.56999998,2016-06-30,半年度报告,95926937.16999996,2016,6,-12.373002701826334,False,未知,未知,未知,未知,未知,未知,未知,未知
12,600603,151004104.98,151849826.61,2016-09-30,三季度报告,153311001.0,2016,9,-13.013956377494287,False,未知,未知,0.0,True,未知,未知,未知,未知
13,600603,243832440.87000003,243832440.87000003,2016-12-31,年度报告,277790603.22,2016,12,-0.7909052865369872,True,10.962703669565904,False,0.136853922302162,False,未知,未知,未知,未知
14,600603,60439346.13,60439346.13,2017-03-31,一季度报告,61056629.87000001,2017,3,1.4784215741323887,False,-9.549852484834771,True,0.24912861213259513,False,前期平均,338851386.595,369500000.0,338851386.595
15,600603,107334555.83,107334555.83,2017-06-30,半年度报告,129454166.80999996,2017,6,0.2833231265946044,True,-20.087472742688398,True,0.3907085800518948,False,平均增速,320400265.9295317,,320400265.9295317
16,600603,147105365.23000002,147431949.4,2017-09-30,三季度报告,174660344.50000003,2017,9,-0.1788213092854424,True,-23.79747866045859,True,0.0,True,比例外推,1056369690.9224826,未知,1056369690.9224826
17,600603,358141671.22,348567272.08,2017-12-31,年度报告,399405373.86,2017,12,-0.49144850136610135,True,0.1417158554250392,True,0.1306596809544617,False,平均增速,348567272.08,348210000.0,348567272.08
18,600603,103349344.0,99156602.33,2018-03-31,一季度报告,97587870.02,2018,3,1.0516660281744843,False,1.9138721230062714,True,0.24859248333349016,False,前期平均,347055838.63000005,,347055838.63000005
19,600603,200448381.28000003,189837175.16,2018-06-30,半年度报告,189807735.1,2018,6,0.15527895244097736,True,1.5042456221791316,True,0.3551254113245265,False,平均增速,556770988.253318,未知,556770988.253318
20,600603,276553397.76,262282033.36999995,2018-09-30,三季度报告,257702258.14000005,2018,9,-0.1570575755267442,True,1.0913076572651155,True,0.0,True,比例外推,817431356.7728579,未知,817431356.7728579
21,600603,552365295.8900001,546184247.0,2018-12-31,年度报告,586550770.1400001,2018,12,-0.6537645206222646,True,0.14409409789181932,True,0.013713098209267027,True,比例外推,546184247.0,502395000.0,546184247.0
22,600603,114055174.28,114423113.1,2019-03-31,一季度报告,112206756.12000002,2019,3,0.19982719213002453,True,0.8710549541425463,True,0.014308327186154879,True,比例外推,676216322.4798892,未知,676216322.4798892
23,600603,203320404.05,203512473.7,2019-06-30,半年度报告,202184877.59,2019,6,-0.3813801217641842,True,0.9655679708664727,True,0.07571176624867931,True,比例外推,612134601.3982196,未知,612134601.3982196
24,600603,281564693.47,283357701.3,2019-09-30,三季度报告,277860900.12,2019,9,-0.5516187679327972,True,0.8553814983816844,True,0.0,True,比例外推,589014642.3984699,未知,589014642.3984699
25,600603,814427412.8300003,818608623.3299999,2019-12-31,年度报告,854508480.46,2019,12,-0.7755084286745377,True,0.8351795693414038,True,0.018873910733856414,True,比例外推,818608623.3299999,未知,818608623.3299999
26,600603,138743344.54999998,138886192.61,2020-03-31,一季度报告,136434899.44000003,2020,3,0.08720497779068404,True,0.3927112328631943,True,未知,未知,True,True,未知,True
