,SECURITYCODE_x,NETPROFIT_x,PARENTNETPROFIT_x,REPORTDATE_x,REPORTTIMETYPE_x,KCFJCXSYJLR,Year,Month,managesituationChangeRate,managesituationGreatChange,historyprofitextroplaterate,ifhistoryprofitextroplate,IfprofitdisStableChangeRage,IfprofitdisStable,predicttype,predict,analyst_prediction,adj_prediction
0,600685,-378695982.20999986,-218566980.38,2013-12-31,年度报告,-164165500.7,2013,12,未知,未知,未知,未知,未知,未知,未知,未知,未知,未知
1,600685,-169654867.29,-166687890.89000002,2014-03-31,一季度报告,-148658577.42999998,2014,3,未知,未知,未知,未知,未知,未知,未知,未知,未知,未知
2,600685,-222869306.8100001,-219947405.10999995,2014-06-30,半年度报告,-260829594.36,2014,6,未知,未知,未知,未知,未知,未知,未知,未知,未知,未知
3,600685,-384329376.83,-381438012.14999986,2014-09-30,三季度报告,-455846145.2000001,2014,9,未知,未知,未知,未知,未知,未知,未知,未知,未知,未知
4,600685,422399228.6,423698774.72000015,2014-12-31,年度报告,-605663205.66,2014,12,-0.0,False,未知,未知,未知,未知,未知,未知,未知,未知
5,600685,-203400346.55,-203676106.34,2015-03-31,一季度报告,-152094829.4,2015,3,1.2321551291698274,False,未知,未知,未知,未知,未知,未知,334789220.0,未知
6,600685,-523592777.49,-524993554.1100001,2015-06-30,半年度报告,-589332813.8,2015,6,0.699184098655831,False,未知,未知,未知,未知,未知,未知,1024745000.0,未知
7,600685,-941820371.28,-947086292.9600004,2015-09-30,三季度报告,-980277490.44,2015,9,-0.014657725793602132,False,未知,未知,未知,未知,未知,未知,,未知
8,600685,103897638.65,98320709.38,2015-12-31,年度报告,-1619637867.6799998,2015,12,-1.8965356860739302,False,未知,未知,未知,未知,未知,未知,310673532.0,未知
9,600685,2936005.88,1035997.51,2016-03-31,一季度报告,-59136993.41,2016,3,0.8618256489396322,False,未知,未知,未知,未知,未知,未知,174000000.0,未知
10,600685,43777147.16,37072739.65000001,2016-06-30,半年度报告,-67233326.03,2016,6,-0.2767356646411485,False,未知,未知,未知,未知,未知,未知,113000000.0,未知
11,600685,12453749.42,6604409.9300000025,2016-09-30,三季度报告,-152380256.36,2016,9,-0.5979106061431594,False,未知,未知,未知,未知,未知,未知,,未知
12,600685,86688161.93,71224250.42999999,2016-12-31,年度报告,-95996520.6,2016,12,-4.64489498635973,False,3.754687453780232,False,0.0,True,去年同期,71224250.42999999,119065000.0,119065000.0
13,600685,19289807.710000005,18410735.37,2017-03-31,一季度报告,-32362963.01,2017,3,-129.9833868486666,False,-1.015740328890078,True,0.29757035547591604,False,前期平均,-943863097.8849998,163838333.0,163838333.0
14,600685,51955996.73999999,43972225.89,2017-06-30,半年度报告,-18554794.390000004,2017,6,-9.65054044809986,False,-1.1172923530363965,True,0.2020756071503162,False,前期平均,-643597106.6999999,123666667.0,123666667.0
15,600685,-176893416.80000004,-187055705.12,2017-09-30,三季度报告,-408071142.28999984,2017,9,-31.408190291819754,False,-1.0187818147049363,True,0.6056064088005684,False,盈利变化,-42416143.3166666,114333333.0,114333333.0
16,600685,-45856889.17000001,-50507587.08000001,2017-12-31,年度报告,-1036245149.98,2017,12,-5.368485543802322,False,0.6705731410374455,True,0.0,True,盈利变化,-242191959.36333334,240940000.0,240940000.0
17,600685,32843252.209999993,-33548813.77,2018-03-31,一季度报告,-588027169.3199999,2018,3,-20.631921059206853,False,-1.1924512623594683,True,0.3689758902456881,False,盈利变化,-791393195.4933333,159000000.0,159000000.0
18,600685,-426878655.70000017,-361945458.9900001,2018-06-30,半年度报告,-484093600.2300001,2018,6,-8.288782931161604,False,-1.2165665036975413,True,0.34280932127785324,False,盈利变化,-360866790.97333336,52000000.0,52000000.0
19,600685,-840287916.0500001,-687213004.1600003,2018-09-30,三季度报告,-574436086.34,2018,9,1.1408144466911545,False,-0.6193247903696562,True,0.7252203335753801,False,前期平均,-978701324.9000002,-173000000.0,-173000000.0
20,600685,-2474150150.26,-1869014160.08,2018-12-31,年度报告,-1757531417.3799994,2018,12,7.258213521769946,False,1.481220416530991,True,0.0,True,前期平均,-1869014160.08,270000000.0,270000000.0
21,600685,-283721719.67,-208674332.21,2019-03-31,一季度报告,-359529918.99000007,2019,3,-12.530404473607394,False,1.955415069689693,True,0.29604877215896674,False,前期平均,-729045189.29,238500000.0,238500000.0
22,600685,609624862.86,390750329.92,2019-06-30,半年度报告,-421908383.84,2019,6,-0.11287206058824807,False,9.918095412094793,False,0.3691332499912077,False,前期平均,-132476445.16000003,1945500000.0,1945500000.0
23,600685,-13137951.82,-76594445.83999999,2019-09-30,三季度报告,-571625932.7399999,2019,9,-0.54932592153632,False,-9.220014786434675,True,0.8180210958834183,False,前期平均,-362489581.80500007,,-362489581.80500007
24,600685,928546285.12,548320338.54,2019-12-31,年度报告,-1017092770.2599998,2019,12,-0.846938965215913,False,122.18898006450488,False,0.0,True,盈利变化,-1622201277.7066667,392000000.0,392000000.0
25,600685,3117673226.6899986,3222717345.1199994,2020-03-31,一季度报告,-192174378.21,2020,3,0.3347444201679924,False,11.884522032866702,False,0.2085338245993825,False,盈利变化,771461059.58,272000000.0,272000000.0
