,SECURITYCODE_x,NETPROFIT_x,PARENTNETPROFIT_x,REPORTDATE_x,REPORTTIMETYPE_x,KCFJCXSYJLR,Year,Month,managesituationChangeRate,managesituationGreatChange,historyprofitextroplaterate,ifhistoryprofitextroplate,IfprofitdisStableChangeRage,IfprofitdisStable,predicttype,predict,analyst_prediction,adj_prediction
0,600729,817472113.69,818469753.07,2013-12-31,年度报告,802787243.88,2013,12,未知,未知,未知,未知,未知,未知,未知,未知,未知,未知
1,600729,318037054.11,316877686.34000003,2014-03-31,一季度报告,310888255.31000006,2014,3,未知,未知,未知,未知,未知,未知,未知,未知,未知,未知
2,600729,425826474.6399999,423723096.96,2014-06-30,半年度报告,423662907.1900001,2014,6,未知,未知,未知,未知,未知,未知,未知,未知,未知,未知
3,600729,481123325.91,478935441.0,2014-09-30,三季度报告,476735616.7,2014,9,未知,未知,未知,未知,未知,未知,未知,未知,未知,未知
4,600729,492846468.15,491663681.75,2014-12-31,年度报告,493941037.1100001,2014,12,0.0,True,未知,未知,未知,未知,未知,未知,未知,未知
5,600729,337731521.07,337914389.90000004,2015-03-31,一季度报告,317391093.42,2015,3,1.5703675188969006,False,未知,未知,未知,未知,未知,未知,541018333.0,未知
6,600729,421456551.7199999,419939010.4599999,2015-06-30,半年度报告,402234488.92,2015,6,0.9197306000785959,False,未知,未知,未知,未知,未知,未知,544483733.0,未知
7,600729,384786374.28,387424511.27,2015-09-30,三季度报告,362273519.89,2015,9,0.6990905858572282,False,未知,未知,未知,未知,未知,未知,456280000.0,未知
8,600729,384786374.28,387424511.27,2015-09-30,三季度报告,358392467.84999985,2015,9,0.6990905858572282,False,未知,未知,未知,未知,未知,未知,456280000.0,未知
9,600729,356992528.78000003,358252298.80999994,2015-12-31,年度报告,306388216.07000005,2015,12,0.6586749962083503,False,未知,未知,未知,未知,未知,未知,471133465.0,未知
10,600729,356992528.78000003,358252298.80999994,2015-12-31,年度报告,305704760.22,2015,12,0.6586749962083503,False,未知,未知,未知,未知,未知,未知,471133465.0,未知
11,600729,322010686.69,319580554.36,2016-03-31,一季度报告,293879666.74999994,2016,3,1.4204791755892,False,未知,未知,未知,未知,未知,未知,411491245.0,未知
12,600729,393556581.23000014,382282125.04,2016-06-30,半年度报告,346533603.76,2016,6,0.9396355575772333,False,未知,未知,0.0,True,未知,未知,455853076.0,未知
13,600729,413672818.31,395385921.5,2016-09-30,三季度报告,335426666.29,2016,9,1.1244830075379564,False,未知,未知,0.21233628918060699,False,未知,未知,446148589.0,未知
14,600729,439819017.18000007,418710893.02,2016-12-31,年度报告,341758507.66000015,2016,12,1.2898857757154207,False,0.45510575255874447,True,0.2513202476494709,False,前期平均,418710893.02,543634528.0,543634528.0
15,600729,375445061.24,364439689.41,2017-03-31,一季度报告,354451242.38,2017,3,1.5386490184314325,False,0.017913639421918953,True,0.13938693025091053,False,前期平均,450464641.63500005,492516667.0,450464641.63500005
16,600729,490453235.56999993,466811875.45,2017-06-30,半年度报告,450475705.6799998,2017,6,1.0771399912437434,False,0.07101507055852928,True,0.0,True,前期平均,454027803.985,559830000.0,559830000.0
17,600729,534434144.8499999,501702791.73,2017-09-30,三季度报告,482414813.44,2017,9,0.9761320480994212,False,0.04453589509568749,True,0.22875370720141852,False,前期平均,482362850.0250001,560335556.0,560335556.0
18,600729,650238976.5,605430823.37,2017-12-31,年度报告,586085414.93,2017,12,0.8586556782637753,False,0.03506433281791912,True,0.28102083324690286,False,前期平均,605430823.37,459388000.0,459388000.0
19,600729,534205503.76,522899680.8600001,2018-03-31,一季度报告,517334354.43,2018,3,1.1773415023494957,False,0.13815686437505856,True,0.18673811776306248,False,前期平均,541337662.6400002,805772727.0,805772727.0
20,600729,725827028.7199999,695765650.7800001,2018-06-30,半年度报告,676256508.5699999,2018,6,0.6667687241168712,False,0.20354682824500836,True,0.0,True,前期平均,645454966.3050002,868847273.0,868847273.0
21,600729,808235271.3199999,768875008.2599996,2018-09-30,三季度报告,745046492.49,2018,9,0.5296030793830373,False,0.3386636406963531,True,0.15358523067575924,False,前期平均,744098277.0349997,890111000.0,890111000.0
22,600729,874171105.25,831141123.67,2018-12-31,年度报告,790697689.2499998,2018,12,0.25718719306885485,True,0.6321022951960137,True,0.13468695407349485,False,平均增速,831141123.67,,831141123.67
23,600729,481312906.31999993,472767307.2199999,2019-03-31,一季度报告,461458467.00999993,2019,3,0.5302577527491404,False,0.5318692414407211,True,0.09250347943507264,True,前期平均,612523813.9499999,1030387500.0,1030387500.0
24,600729,692207451.5,674999129.93,2019-06-30,半年度报告,650131204.7399999,2019,6,0.12626298187271529,True,0.642124363160126,True,0.0,True,比例外推,764253984.0480671,958102839.0,958102839.0
25,600729,926872269.5499998,904691396.6199998,2019-09-30,三季度报告,868303801.9000001,2019,9,0.011428407912605233,True,0.7049453336492466,True,0.07354004162136818,True,比例外推,984714053.7711672,993360000.0,984714053.7711672
26,600729,1024163897.9399998,985306683.49,2019-12-31,年度报告,888759152.6600002,2019,12,-0.0648602901874512,True,0.6038983436079891,True,未知,未知,True,True,1002250000.0,1002250000.0
27,600729,171055216.89,173414957.04,2020-03-31,一季度报告,132002604.8,2020,3,0.6984213449420892,False,0.05823692050364402,True,未知,未知,前期平均,425913710.7249999,1012036250.0,1012036250.0
