,SECURITYCODE_x,NETPROFIT_x,PARENTNETPROFIT_x,REPORTDATE_x,REPORTTIMETYPE_x,KCFJCXSYJLR,Year,Month,managesituationChangeRate,managesituationGreatChange,historyprofitextroplaterate,ifhistoryprofitextroplate,IfprofitdisStableChangeRage,IfprofitdisStable,predicttype,predict,analyst_prediction,adj_prediction
0,600705,1869800191.1,840790330.4299997,2013-12-31,年度报告,770763756.0900003,2013,12,未知,未知,未知,未知,未知,未知,未知,未知,未知,未知
1,600705,548134906.4899999,290520811.39999986,2014-03-31,一季度报告,288625490.91,2014,3,未知,未知,未知,未知,未知,未知,未知,未知,未知,未知
2,600705,1619797422.2800002,1126059497.7600002,2014-06-30,半年度报告,1089226370.69,2014,6,未知,未知,未知,未知,未知,未知,未知,未知,未知,未知
3,600705,2249891584.76,1486284218.7299998,2014-09-30,三季度报告,1453019264.34,2014,9,未知,未知,未知,未知,未知,未知,未知,未知,未知,未知
4,600705,2783793542.66,1810356465.65,2014-12-31,年度报告,1715005511.65,2014,12,0.0,True,未知,未知,未知,未知,未知,未知,未知,未知
5,600705,704418075.9399997,427463427.74000007,2015-03-31,一季度报告,427062584.49,2015,3,2.4112043749837566,False,未知,未知,未知,未知,未知,未知,2421083740.0,未知
6,600705,2151381904.86,1442453060.9,2015-06-30,半年度报告,1410240436.4700005,2015,6,0.15434199695669346,True,未知,未知,未知,未知,未知,未知,2855302120.0,未知
7,600705,2767522221.49,1808081555.43,2015-09-30,三季度报告,1775776680.2899997,2015,9,-0.16893764847809115,True,未知,未知,未知,未知,未知,未知,2661011567.0,未知
8,600705,3536665371.1300006,2312270412.57,2015-12-31,年度报告,2191433885.76,2015,12,-0.32832655782607045,True,未知,未知,未知,未知,未知,未知,2614868710.0,未知
9,600705,716810139.4200003,548957259.96,2016-03-31,一季度报告,527894023.3400001,2016,3,1.6543898502389711,False,未知,未知,未知,未知,未知,未知,3106950000.0,未知
10,600705,1477165745.12,1129269762.29,2016-06-30,半年度报告,1024411374.16,2016,6,-0.13088411365918037,True,未知,未知,未知,未知,未知,未知,2616500000.0,未知
11,600705,2169444235.45,1670087489.82,2016-09-30,三季度报告,1585210826.6200006,2016,9,-0.3243775328772888,True,未知,未知,未知,未知,未知,未知,2691700000.0,未知
12,600705,2987647562.08,2324144882.05,2016-12-31,年度报告,2187088197.26,2016,12,-0.4713098371241779,True,0.5199716921882881,True,0.0,True,比例外推,2324144882.05,2913000000.0,2913000000.0
13,600705,690336033.1700001,531590867.6099999,2017-03-31,一季度报告,529410039.72,2017,3,1.6085013147455334,False,0.144558592690206,True,0.03985482777153196,True,前期平均,2126966528.615,2908550000.0,2908550000.0
14,600705,1623169641.21,1275571201.8300002,2017-06-30,半年度报告,1215258883.2700002,2017,6,0.2658025663518915,True,0.21660275633709639,True,0.11395280067213831,False,平均增速,2626722655.54434,2773166667.0,2626722655.54434
15,600705,2482826964.1399994,1961715923.66,2017-09-30,三季度报告,1897873929.0700004,2017,9,-0.13812018739806228,True,0.13523407905977128,True,0.06931890058131007,True,比例外推,2453740741.392681,2772374286.0,2772374286.0
16,600705,3497109192.550001,2783606158.670001,2017-12-31,年度报告,2530195443.1800003,2017,12,-0.37415637144354297,True,0.054610558242364556,True,0.0,True,比例外推,2783606158.670001,2772231429.0,2783606158.670001
17,600705,1037744865.2400002,792365823.56,2018-03-31,一季度报告,722911493.4499999,2018,3,1.7085362798084576,False,0.028535986396616128,True,0.026207290937491384,True,前期平均,2504148561.155,3461487500.0,3461487500.0
18,600705,2049501298.64,1573597397.2999995,2018-06-30,半年度报告,1435858278.89,2018,6,0.15194379171985245,True,0.10533370494999746,True,0.1127850767767603,False,平均增速,3058800078.018502,3591607842.0,3591607842.0
19,600705,2877870577.65,2200344515.5799994,2018-09-30,三季度报告,1986448808.27,2018,9,-0.2469067647057472,True,0.005810748683469908,True,0.04858621568966037,True,比例外推,2821673149.15645,3457902336.0,3457902336.0
20,600705,3939061934.04,3165964775.5000005,2018-12-31,年度报告,2802869151.41,2018,12,-0.4653297657724578,True,0.07202374513614954,True,0.0,True,比例外推,3165964775.5000005,3470482804.0,3165964775.5000005
21,600705,3939061934.04,3165964775.5000005,2018-12-31,年度报告,2802869151.41,2018,12,-0.4653297657724578,True,0.07202374513614954,True,0.0,True,比例外推,3165964775.5000005,3470482804.0,3165964775.5000005
22,600705,151044645.95,151044645.95,2018-12-31,年度报告,2802869151.41,2018,12,-0.4653297657724578,True,0.07202374513614954,True,0.0,True,比例外推,151044645.95,3470482804.0,3470482804.0
23,600705,151044645.95,151044645.95,2018-12-31,年度报告,2802869151.41,2018,12,-0.4653297657724578,True,0.07202374513614954,True,0.0,True,比例外推,151044645.95,3470482804.0,3470482804.0
24,600705,1147519862.58,785686565.8400003,2019-03-31,一季度报告,759046958.2800001,2019,3,0.8017918023304981,False,0.4749638459093724,True,0.026937725116462502,True,前期平均,2615676354.53,3929824840.0,3929824840.0
25,600705,2404518252.57,1471954953.8399994,2019-06-30,半年度报告,1391302339.85,2019,6,-0.08768040676980568,True,0.32211586377181134,True,0.025290098427699415,True,比例外推,2937586154.3584185,3234916667.0,2937586154.3584185
26,600705,3461080575.48,2102204313.3800008,2019-09-30,三季度报告,1959740699.04,2019,9,-0.35028343330615175,True,0.23718951633929872,True,0.022218558016388834,True,比例外推,2834891123.7721367,3106166667.0,2834891123.7721367
27,600705,4723554686.77,3063526570.97,2019-12-31,年度报告,2722339760.76,2019,12,-0.5253184076792907,True,0.2148680615437363,True,0.0,True,比例外推,3063526570.97,3195755683.0,3063526570.97
28,600705,1125725103.63,768922481.1500001,2020-03-31,一季度报告,716191507.6400001,2020,3,0.629427299755908,False,0.3280858131535716,True,0.03942209757154669,True,前期平均,2809294011.86,3200333333.0,3200333333.0
