,SECURITYCODE_x,NETPROFIT_x,PARENTNETPROFIT_x,REPORTDATE_x,REPORTTIMETYPE_x,KCFJCXSYJLR,Year,Month,managesituationChangeRate,managesituationGreatChange,historyprofitextroplaterate,ifhistoryprofitextroplate,IfprofitdisStableChangeRage,IfprofitdisStable,predicttype,predict,analyst_prediction,adj_prediction
0,600715,-27341946.94,-27312736.33,2013-12-31,年度报告,-34396050.21,2013,12,未知,未知,未知,未知,未知,未知,未知,未知,未知,未知
1,600715,-6082935.29,-6082759.49,2014-03-31,一季度报告,-4762143.32,2014,3,未知,未知,未知,未知,未知,未知,未知,未知,未知,未知
2,600715,-6837546.43,-6835126.8999999985,2014-06-30,半年度报告,-11609361.16,2014,6,未知,未知,未知,未知,未知,未知,未知,未知,未知,未知
3,600715,-13577005.01,-13599585.470000004,2014-09-30,三季度报告,-16995621.34,2014,9,未知,未知,未知,未知,未知,未知,未知,未知,未知,未知
4,600715,-47782669.24999999,-47805249.71000001,2014-12-31,年度报告,-49823791.97,2014,12,-0.0,False,未知,未知,未知,未知,未知,未知,未知,未知
5,600715,-8471439.51,-8471439.51,2015-03-31,一季度报告,-7092982.79,2015,3,3.494860727015888,False,未知,未知,未知,未知,未知,未知,未知,未知
6,600715,-11349162.28,-11349162.28,2015-06-30,半年度报告,-8392248.84,2015,6,2.998795067779891,False,未知,未知,未知,未知,未知,未知,未知,未知
7,600715,28989480.320000004,28989480.320000004,2015-09-30,三季度报告,33150486.039999995,2015,9,1.0138422958422406,False,未知,未知,未知,未知,未知,未知,146980000.0,未知
8,600715,137816063.8,137816063.8,2015-12-31,年度报告,121033568.93999998,2015,12,-0.427785275097414,False,未知,未知,未知,未知,未知,未知,306110000.0,未知
9,600715,180182255.62000003,180182255.62000003,2016-03-31,一季度报告,179814673.35,2016,3,2.2275443751589745,False,未知,未知,未知,未知,未知,未知,546244020.0,未知
10,600715,241952877.97,241388969.59000003,2016-06-30,半年度报告,240795425.98000005,2016,6,1.40915992435699,False,未知,未知,未知,未知,未知,未知,580247800.0,未知
11,600715,366885449.58,365159984.11,2016-09-30,三季度报告,366294805.4,2016,9,-1.9431678884266386,False,未知,未知,未知,未知,未知,未知,552090000.0,未知
12,600715,608627384.7500001,601086366.2599999,2016-12-31,年度报告,535517588.56000006,2016,12,-1.1983944845477439,False,-4.66899881262475,True,0.0,True,前期平均,601086366.2599999,548000000.0,601086366.2599999
13,600715,225380173.5,226334502.33000004,2017-03-31,一季度报告,224260243.4,2017,3,-1.151746057601052,False,-25.759875720666482,True,0.21152613892956829,False,前期平均,267866953.87000003,721400000.0,721400000.0
14,600715,354191589.35,350359176.95,2017-06-30,半年度报告,349144721.6,2017,6,-1.113005256103588,False,-27.60765967367825,True,0.27377821945240366,False,前期平均,395964870.435,741546667.0,741546667.0
15,600715,386278673.7,378025706.3299999,2017-09-30,三季度报告,372524141.33,2017,9,-1.0745244788838049,False,46.60889373064629,False,0.2509977839624263,False,去年同期,547248489.49,783530000.0,783530000.0
16,600715,440862774.62000006,433943550.99,2017-12-31,年度报告,405708354.88999987,2017,12,-1.044923951213978,False,12.520036377435467,False,0.0,True,去年同期,433943550.99,,433943550.99
17,600715,87683053.51,88260309.43,2018-03-31,一季度报告,81713494.58,2018,3,-1.1213147834407893,False,1.6251132992766015,True,0.33524880447598326,False,前期平均,330175042.90000004,未知,330175042.90000004
18,600715,6242182.72,7203942.49,2018-06-30,半年度报告,6595431.69,2018,6,-1.0771953591280272,False,2.0718636799949826,False,0.48296894404517077,False,去年同期,63767575.779999845,未知,63767575.779999845
19,600715,24283505.939999994,25175531.0,2018-09-30,三季度报告,24366200.87,2018,9,-1.0707829574905159,False,0.9515187475881635,True,0.35147274348761165,False,前期平均,153728464.03000003,未知,153728464.03000003
20,600715,-668357509.9599999,-658372572.98,2018-12-31,年度报告,-702995665.0,2018,12,-1.0620191781072177,False,0.18123556573882654,True,0.0,True,盈利变化,64375544.360000074,未知,64375544.360000074
21,600715,2604100.3100000005,3292333.51,2019-03-31,一季度报告,4208905.699999998,2019,3,-1.3118270389258482,False,0.5675977496226315,True,0.3736706008160224,False,前期平均,271867846.85999995,未知,271867846.85999995
22,600715,39279415.70999999,29785734.0,2019-06-30,半年度报告,28952990.89,2019,6,-5.3801900979918775,False,0.9790581543159761,True,0.44299807955380005,False,前期平均,205428631.93499994,未知,205428631.93499994
23,600715,34228512.34,44776669.7,2019-09-30,三季度报告,41399737.84,2019,9,-2.125947258503646,False,0.9355160311294535,True,0.5571764104499721,False,前期平均,145980168.05999994,未知,145980168.05999994
24,600715,-4071591.16,12966317.110000005,2019-12-31,年度报告,4770629.12,2019,12,-0.9590908360682049,False,2.273680375166565,False,0.0,True,前期平均,12966317.110000005,未知,12966317.110000005
25,600715,-175170948.63999996,-169414175.37999997,2020-03-31,一季度报告,-169938686.4,2020,3,-11.499575164214773,False,0.9833637419835526,True,0.5558294217387512,False,盈利变化,-219230472.35666665,未知,-219230472.35666665
