,SECURITYCODE_x,NETPROFIT_x,PARENTNETPROFIT_x,REPORTDATE_x,REPORTTIMETYPE_x,KCFJCXSYJLR,Year,Month,managesituationChangeRate,managesituationGreatChange,historyprofitextroplaterate,ifhistoryprofitextroplate,IfprofitdisStableChangeRage,IfprofitdisStable,predicttype,predict,analyst_prediction,adj_prediction
0,600736,283911891.17,230009666.16,2013-12-31,年度报告,95207527.75,2013,12,未知,未知,未知,未知,未知,未知,未知,未知,未知,未知
1,600736,16057568.350000005,17922771.67,2014-03-31,一季度报告,-9121615.27,2014,3,未知,未知,未知,未知,未知,未知,未知,未知,未知,未知
2,600736,70090090.46,58467424.51999999,2014-06-30,半年度报告,19203341.430000003,2014,6,未知,未知,未知,未知,未知,未知,未知,未知,未知,未知
3,600736,120484998.36,102763670.35,2014-09-30,三季度报告,33858987.97000001,2014,9,未知,未知,未知,未知,未知,未知,未知,未知,未知,未知
4,600736,220267640.25,169944883.85,2014-12-31,年度报告,-41029189.82000001,2014,12,0.0,True,未知,未知,未知,未知,未知,未知,未知,未知
5,600736,-4222153.62,15697581.01,2015-03-31,一季度报告,13408131.13,2015,3,16.680877015852772,False,未知,未知,未知,未知,未知,未知,266000000.0,未知
6,600736,21952952.1,36303061.59,2015-06-30,半年度报告,-111580956.0,2015,6,3.050670919479365,False,未知,未知,未知,未知,未知,未知,239895000.0,未知
7,600736,49960669.92000001,66965270.05,2015-09-30,三季度报告,-213308591.51,2015,9,1.356408640366105,False,未知,未知,未知,未知,未知,未知,290790000.0,未知
8,600736,234467482.04,191416296.59,2015-12-31,年度报告,-557689401.44,2015,12,0.28894054000744224,True,未知,未知,未知,未知,未知,未知,,未知
9,600736,115174927.92,80009815.78000002,2016-03-31,一季度报告,-28340030.520000003,2016,3,-68.24338257734924,False,未知,未知,未知,未知,未知,未知,214820000.0,未知
10,600736,341135539.17999995,263845935.01,2016-06-30,半年度报告,157473835.72999996,2016,6,11.932743162592697,False,未知,未知,未知,未知,未知,未知,396600000.0,未知
11,600736,375165618.46,292235725.35999995,2016-09-30,三季度报告,187106606.18000004,2016,9,4.6827078504875255,False,未知,未知,未知,未知,未知,未知,,未知
12,600736,402609086.0700002,307112831.98,2016-12-31,年度报告,142771037.13,2016,12,0.210879601298251,True,0.0699047960966111,True,0.0,True,比例外推,307112831.98,405940000.0,405940000.0
13,600736,141795654.84,104138824.3,2017-03-31,一季度报告,7227083.760000003,2017,3,1.4650494365162872,False,18.46276164333448,False,0.22239414370516372,False,去年同期,275249891.95,456420000.0,456420000.0
14,600736,362607151.3,258690737.67,2017-06-30,半年度报告,-50664070.51000001,2017,6,-0.1677446100970615,True,6.41252200474847,False,0.8246423480276193,False,未知,未知,未知,未知
15,600736,425236490.3100001,312363567.64000005,2017-09-30,三季度报告,-5973572.6800000025,2017,9,-0.24323584784923302,True,3.402172519206482,False,1.1145018046114539,False,未知,未知,,未知
16,600736,1831379.59,1831379.59,2017-12-31,年度报告,251021218.61,2017,12,-0.29481996061897797,True,0.7707411032712919,True,0.0,True,比例外推,1831379.59,未知,1831379.59
17,600736,1831379.59,1831379.59,2017-12-31,年度报告,251021218.61,2017,12,-0.29481996061897797,True,0.7707411032712919,True,0.0,True,比例外推,1831379.59,未知,1831379.59
18,600736,984598062.99,606260751.47,2017-12-31,年度报告,251021218.61,2017,12,-0.29481996061897797,True,0.7707411032712919,True,0.0,True,比例外推,606260751.47,未知,606260751.47
19,600736,984598062.99,606260751.47,2017-12-31,年度报告,251021218.61,2017,12,-0.29481996061897797,True,0.7707411032712919,True,0.0,True,比例外推,606260751.47,未知,606260751.47
20,600736,239827219.1,139583957.35,2018-03-31,一季度报告,8720255.879999999,2018,3,1.00226086963216,False,1.5559641159869582,True,0.13391605066641138,False,前期平均,-60409275.110000044,718890000.0,718890000.0
21,600736,491669070.0500001,324824413.91,2018-06-30,半年度报告,19422821.100000005,2018,6,-0.21702622203634403,True,0.9973486354342816,True,0.7359059691736232,False,平均增速,987094703.578335,712660000.0,712660000.0
22,600736,684731676.7600001,426684815.44999987,2018-09-30,三季度报告,117175472.84,2018,9,-0.33234353673875344,True,1.0005184432626835,True,0.7541276767686623,False,平均增速,3462146674.1818504,,3462146674.1818504
23,600736,5530139.449999998,5530139.449999998,2018-10-31,其他报告,,2018,10,未知,未知,未知,未知,未知,未知,未知,未知,未知,未知
24,600736,1074725381.44,611331529.99,2018-12-31,年度报告,304278298.37000006,2018,12,154.0262396284541,False,0.9942506766637703,True,0.0,True,前期平均,611331529.99,未知,611331529.99
25,600736,285477150.55,139933413.53,2019-03-31,一季度报告,131288329.71,2019,3,0.18381846829328483,True,0.8665733371044172,True,0.15148308660940335,False,平均增速,2584308415.6251416,715000000.0,715000000.0
26,600736,444862896.18,219938720.64,2019-06-30,半年度报告,125179438.11,2019,6,-0.4225549084445607,True,0.39729783826144915,True,0.7813209079903232,False,平均增速,1349412311.168538,715000000.0,715000000.0
27,600736,553158297.43,286391282.08000004,2019-09-30,三季度报告,87967960.43,2019,9,-0.5853676691088563,True,0.710969197250732,True,0.7532587652102204,False,平均增速,495564939.1049711,,495564939.1049711
28,600736,536367716.75999993,353335279.67,2019-12-31,年度报告,50584489.95999999,2019,12,-0.7358284301524609,True,4.314628345539917,False,0.0,True,比例外推,353335279.67,861430000.0,861430000.0
29,600736,18063169.32,6218620.15,2020-03-31,一季度报告,-23711497.03,2020,3,-0.00548295853795783,True,0.4961218000516587,True,1.7111345374700009,False,平均增速,-14304230.348861298,未知,-14304230.348861298
