,SECURITYCODE_x,NETPROFIT_x,PARENTNETPROFIT_x,REPORTDATE_x,REPORTTIMETYPE_x,KCFJCXSYJLR,Year,Month,managesituationChangeRate,managesituationGreatChange,historyprofitextroplaterate,ifhistoryprofitextroplate,IfprofitdisStableChangeRage,IfprofitdisStable,predicttype,predict,analyst_prediction,adj_prediction
0,600725,1041478.08,38565513.51,2013-12-31,年度报告,-578595485.04,2013,12,未知,未知,未知,未知,未知,未知,未知,未知,未知,未知
1,600725,-190467307.56,-151067344.76,2014-03-31,一季度报告,-157402644.63000005,2014,3,未知,未知,未知,未知,未知,未知,未知,未知,未知,未知
2,600725,-474479640.00000006,-362699226.07,2014-06-30,半年度报告,-371250914.92,2014,6,未知,未知,未知,未知,未知,未知,未知,未知,未知,未知
3,600725,-688458679.8899999,-567693715.58,2014-09-30,三季度报告,-577715740.5500001,2014,9,未知,未知,未知,未知,未知,未知,未知,未知,未知,未知
4,600725,-1293057649.1800005,-1047825259.95,2014-12-31,年度报告,-1061534167.04,2014,12,0.0,True,未知,未知,未知,未知,未知,未知,未知,未知
5,600725,-297144303.31000006,-201868596.23,2015-03-31,一季度报告,-205853166.51000005,2015,3,-1.005468014922571,False,未知,未知,未知,未知,未知,未知,未知,未知
6,600725,-610178823.8499999,-409717373.3299999,2015-06-30,半年度报告,-475113180.72,2015,6,-1.002194990031606,False,未知,未知,未知,未知,未知,未知,未知,未知
7,600725,-1080339082.4399998,-722327309.6400001,2015-09-30,三季度报告,-785416536.12,2015,9,-1.001512767738169,False,未知,未知,未知,未知,未知,未知,-1071000000.0,未知
8,600725,-3712424001.89,-2600331810.130001,2015-12-31,年度报告,-2611265097.79,2015,12,-1.0008054382421854,False,未知,未知,未知,未知,未知,未知,未知,未知
9,600725,-231038605.6600001,-147417087.31,2016-03-31,一季度报告,-148720356.24,2016,3,-1.0035049572493855,False,未知,未知,未知,未知,未知,未知,未知,未知
10,600725,-515757931.8600001,-282439722.08,2016-06-30,半年度报告,-267688185.26,2016,6,-1.0017068407478134,False,未知,未知,未知,未知,未知,未知,未知,未知
11,600725,-1642675543.8,-993017889.48,2016-09-30,三季度报告,-918413455.27,2016,9,-1.0009640288840127,False,未知,未知,未知,未知,未知,未知,未知,未知
12,600725,1619682076.7199993,1544563352.81,2016-12-31,年度报告,-1533242149.3800006,2016,12,-1.0002805385590303,False,-4.74671445285287,True,0.0,True,盈利变化,-2240990827.326668,,-2240990827.326668
13,600725,485234.75,485234.75,2017-03-31,一季度报告,485216.83,2017,3,-1.0045078097533737,False,-0.05236626647269789,True,0.04024228941542625,True,盈利变化,1743504116.9033332,未知,1743504116.9033332
14,600725,2111465.94,2111465.94,2017-06-30,半年度报告,2111448.02,2017,6,-1.0020193156821535,False,-0.04899477752782186,True,0.11430797738744922,False,盈利变化,1724429774.9966667,未知,1724429774.9966667
15,600725,5346604.1,5346604.1,2017-09-30,三季度报告,5337261.16,2017,9,-1.0006340132620413,False,-0.8573921550377115,True,0.1805559747831189,False,盈利变化,1955119226.7788887,未知,1955119226.7788887
16,600725,8181346.43,8181346.43,2017-12-31,年度报告,7974955.480000001,2017,12,-0.9993569861055023,True,-1.6471633259803347,True,0.0,True,比例外推,8181346.43,未知,8181346.43
17,600725,4504195.5200000005,4504195.5200000005,2018-03-31,一季度报告,1349643.87,2018,3,1.1463386123932797,False,-1.0018373739163438,True,0.018106433511473036,True,前期平均,-1890462666.69,未知,-1890462666.69
18,600725,14765569.529999996,14765569.529999996,2018-06-30,半年度报告,18746501.54,2018,6,-0.5067511815985059,True,-1.0037505942128493,True,0.05766085260132936,True,比例外推,86538586.37178972,未知,86538586.37178972
19,600725,15654098.79,15654098.79,2018-09-30,三季度报告,23249727.6,2018,9,-0.8052075559512626,True,-1.0039269742060715,True,0.22223117800546005,False,平均增速,23653083.83634517,未知,23653083.83634517
20,600725,13007741.54,13007741.54,2018-12-31,年度报告,25683769.06,2018,12,-0.8727008947841364,True,-1.0078187819831967,True,0.0,True,比例外推,13007741.54,未知,13007741.54
21,600725,5008344.23,5008344.23,2019-03-31,一季度报告,5008344.23,2019,3,-0.768776005531838,True,-1.0390729096887357,True,0.026867840497454623,True,比例外推,71415692.00740655,未知,71415692.00740655
22,600725,7285225.009999998,7285225.009999998,2019-06-30,半年度报告,3654332.47,2019,6,-0.9294657698178203,True,-1.057493122253078,True,0.3401480565609965,False,平均增速,17024494.52429272,未知,17024494.52429272
23,600725,11028939.760000002,11028939.760000002,2019-09-30,三季度报告,7398047.22,2019,9,-0.9334693044951711,True,-1.0191215074875157,True,0.1807356747679395,False,平均增速,14596120.783558138,未知,14596120.783558138
24,600725,12598591.87,12598591.87,2019-12-31,年度报告,8281179.580000001,2019,12,-0.919933981099074,True,0.9840186328226119,True,0.0,True,比例外推,12598591.87,未知,12598591.87
25,600725,6865918.89,6865918.89,2020-03-31,一季度报告,1220028.4999999998,2020,3,-0.792051418159011,True,1.0075816111164932,True,0.3653938591459066,False,平均增速,10163447.899161125,未知,10163447.899161125
