,SECURITYCODE_x,NETPROFIT_x,PARENTNETPROFIT_x,REPORTDATE_x,REPORTTIMETYPE_x,KCFJCXSYJLR,Year,Month,managesituationChangeRate,managesituationGreatChange,historyprofitextroplaterate,ifhistoryprofitextroplate,IfprofitdisStableChangeRage,IfprofitdisStable,predicttype,predict,analyst_prediction,adj_prediction
0,600720,552572109.5600001,477679682.81000006,2013-12-31,年度报告,476847899.55,2013,12,未知,未知,未知,未知,未知,未知,未知,未知,未知,未知
1,600720,-105149112.65999997,-84935174.62,2014-03-31,一季度报告,-87791057.48999996,2014,3,未知,未知,未知,未知,未知,未知,未知,未知,未知,未知
2,600720,279257274.29,266362814.47000003,2014-06-30,半年度报告,261463108.42,2014,6,未知,未知,未知,未知,未知,未知,未知,未知,未知,未知
3,600720,680146186.48,635213718.53,2014-09-30,三季度报告,629017679.7100003,2014,9,未知,未知,未知,未知,未知,未知,未知,未知,未知,未知
4,600720,555776067.4399999,561903861.3,2014-12-31,年度报告,562462580.03,2014,12,0.0,True,未知,未知,未知,未知,未知,未知,未知,未知
5,600720,-185410790.78000003,-163722289.79,2015-03-31,一季度报告,-166408951.17999998,2015,3,-6.2551286033838815,False,未知,未知,未知,未知,未知,未知,584435000.0,未知
6,600720,-64656240.91000002,-35070623.879999995,2015-06-30,半年度报告,-39732538.21,2015,6,0.978720557825724,False,未知,未知,未知,未知,未知,未知,226962857.0,未知
7,600720,37520534.21000001,63043501.9,2015-09-30,三季度报告,58162742.59000002,2015,9,-0.18756861312454234,True,未知,未知,未知,未知,未知,未知,32854000.0,未知
8,600720,134981544.43999997,179223871.07999998,2015-12-31,年度报告,60250310.78,2015,12,-0.005764835997271089,True,未知,未知,未知,未知,未知,未知,713000000.0,未知
9,600720,-226423713.68,-192541752.57,2016-03-31,一季度报告,-193680323.71,2016,3,-3.98025863130942,False,未知,未知,未知,未知,未知,未知,166030000.0,未知
10,600720,-43531542.78,-18637600.700000007,2016-06-30,半年度报告,-21933075.66,2016,6,-9.546307390947264,False,未知,未知,未知,未知,未知,未知,211580000.0,未知
11,600720,196404195.28,203794151.40000004,2016-09-30,三季度报告,195849943.1,2016,9,13.727191954871687,False,未知,未知,未知,未知,未知,未知,255382500.0,未知
12,600720,135216894.00000003,166579141.35000002,2016-12-31,年度报告,163081021.98,2016,12,3.093686376552177,False,0.7564275428225837,True,0.0,True,前期平均,166579141.35000002,168000000.0,166579141.35000002
13,600720,-142891912.65999997,-120641205.57,2017-03-31,一季度报告,-122372108.12999997,2017,3,-3.4404339129466748,False,-0.5585337894136244,True,1.393401402537836,False,前期平均,317815244.17,525723333.0,525723333.0
14,600720,181191510.68000004,184970149.13000005,2017-06-30,半年度报告,198712755.84,2017,6,-13.693602713613727,False,1.4056974199459469,True,0.5745527214529661,False,盈利变化,313676362.35,568869091.0,568869091.0
15,600720,587012630.7399999,579835377.85,2017-09-30,三季度报告,523498816.3900001,2017,9,1.8134435151562618,False,0.4526590418149323,True,0.1295203359281234,False,前期平均,547601612.1049998,670361250.0,670361250.0
16,600720,529047697.7799999,574691757.8499999,2017-12-31,年度报告,533721697.10000014,2017,12,3.0865611774812693,False,0.608496839775715,True,0.0,True,前期平均,574691757.8499999,546000000.0,574691757.8499999
17,600720,-164110407.09000003,-138630085.04999998,2018-03-31,一季度报告,-139694149.37,2018,3,-4.867063567654817,False,-0.3060711955285984,True,1.3690022791466823,False,前期平均,153080218.775,855161429.0000001,855161429.0000001
18,600720,209220342.45,219475025.03,2018-06-30,半年度报告,215036587.34,2018,6,2.0496578315740765,False,-4.349574314216178,True,0.5189130120119823,False,前期平均,361973498.345,747798750.0,747798750.0
19,600720,570003803.46,551121826.7600001,2018-09-30,三季度报告,544146471.7300001,2018,9,-0.05867083496411894,True,4.018816369007228,False,0.15189170120422713,False,未知,未知,724327500.0,未知
20,600720,688751046.38,654773597.5500001,2018-12-31,年度报告,685757014.51,2018,12,0.044465578205356036,True,2.91599374766542,False,0.0,True,比例外推,654773597.5500001,682385234.0,654773597.5500001
21,600720,7841988.710000001,12878117.359999998,2019-03-31,一季度报告,-4308433.99,2019,3,-4.367075369308926,False,-0.1112728767186448,True,0.6474254458252852,False,盈利变化,835287884.7233334,853513570.9999999,835287884.7233334
22,600720,534238140.93,502187321.4,2019-06-30,半年度报告,417273909.08,2019,6,1.6411012575990558,False,2.0396686217736644,False,0.31829152566713165,False,去年同期,972907748.5699999,1028746429.0000001,972907748.5699999
23,600720,1116013071.72,1041502437.13,2019-09-30,三季度报告,917340069.97,2019,9,-0.030581715059070206,True,0.4551737581532322,True,0.20917645159270282,False,平均增速,1322219289.8613775,1196805000.0,1196805000.0
24,600720,1306946243.06,1234148686.5200002,2019-12-31,年度报告,1081137514.94,2019,12,-0.19771866414685174,True,1.0737250032683054,True,0.0,True,比例外推,1234148686.5200002,1208482308.0,1234148686.5200002
25,600720,9271103.42,12551927.26,2020-03-31,一季度报告,20861521.91,2020,3,69.46326257207784,False,-1.0510874883055343,True,0.1416728328904108,False,前期平均,753324411.8149999,1608243333.0,1608243333.0
