,SECURITYCODE_x,NETPROFIT_x,PARENTNETPROFIT_x,REPORTDATE_x,REPORTTIMETYPE_x,KCFJCXSYJLR,Year,Month,managesituationChangeRate,managesituationGreatChange,historyprofitextroplaterate,ifhistoryprofitextroplate,IfprofitdisStableChangeRage,IfprofitdisStable,predicttype,predict,analyst_prediction,adj_prediction
0,600765,137834456.54000002,153308572.31000003,2013-12-31,年度报告,129586955.83999996,2013,12,未知,未知,未知,未知,未知,未知,未知,未知,未知,未知
1,600765,23746941.11,37284626.49999999,2014-03-31,一季度报告,35870222.99,2014,3,未知,未知,未知,未知,未知,未知,未知,未知,未知,未知
2,600765,77971519.94999997,94999004.5,2014-06-30,半年度报告,87679840.16,2014,6,未知,未知,未知,未知,未知,未知,未知,未知,未知,未知
3,600765,89300014.41999999,118669271.65,2014-09-30,三季度报告,108351528.97,2014,9,未知,未知,未知,未知,未知,未知,未知,未知,未知,未知
4,600765,128226572.3,156478104.07000002,2014-12-31,年度报告,139937197.01999998,2014,12,0.0,True,未知,未知,未知,未知,未知,未知,未知,未知
5,600765,20211397.8,35401341.75,2015-03-31,一季度报告,34821105.660000004,2015,3,4.804303632266852,False,未知,未知,未知,未知,未知,未知,387000000.0,未知
6,600765,-38038770.95,14162345.819999995,2015-06-30,半年度报告,11398356.14,2015,6,0.7677538751121917,False,未知,未知,未知,未知,未知,未知,387150000.0,未知
7,600765,76946905.99000001,121074861.96,2015-09-30,三季度报告,62610344.58000001,2015,9,0.5434987041741179,False,未知,未知,未知,未知,未知,未知,,未知
8,600765,-539423592.8199999,-300082652.15,2015-12-31,年度报告,-269377996.08000004,2015,12,0.07492896415823497,True,未知,未知,未知,未知,未知,未知,392000000.0,未知
9,600765,33062666.05,46449102.34,2016-03-31,一季度报告,43079959.26,2016,3,5.819639982544899,False,未知,未知,未知,未知,未知,未知,未知,未知
10,600765,47369941.05,73424465.22,2016-06-30,半年度报告,102956733.82000002,2016,6,-4.62352550036846,False,未知,未知,未知,未知,未知,未知,160030000.0,未知
11,600765,87085683.02000001,108706462.43999998,2016-09-30,三季度报告,135964242.87,2016,9,0.7912930320799765,False,未知,未知,未知,未知,未知,未知,,未知
12,600765,225413861.4,242463086.23000008,2016-12-31,年度报告,166806483.40999997,2016,12,-1.2555217427910943,False,5.054886167822728,False,0.0,True,前期平均,242463086.23000008,未知,242463086.23000008
13,600765,46474744.20999999,49059883.57,2017-03-31,一季度报告,47526392.8,2017,3,3.1688851205028588,False,0.5042727668892256,True,0.25770788691924856,False,前期平均,-51006180.28500005,未知,-51006180.28500005
14,600765,112611894.9,108476124.16,2017-06-30,半年度报告,102261802.62000002,2017,6,1.9097451566281827,False,1.372485853653603,True,0.44280516164121825,False,前期平均,-5783373.520000026,271000000.0,271000000.0
15,600765,166069856.88000005,162833410.30000004,2017-09-30,三季度报告,151364509.75,2017,9,0.5827453119744734,False,0.04766672134711831,True,0.684746572190124,False,前期平均,12632073.994999975,203700000.0,203700000.0
16,600765,101737968.9,164520742.65999997,2017-12-31,年度报告,137317060.76,2017,12,-0.38852714875678884,True,-2.0963788653669795,True,0.0,True,比例外推,164520742.65999997,,164520742.65999997
17,600765,22444379.36,27265999.26,2018-03-31,一季度报告,24961243.05,2018,3,1.965792687683951,False,0.7447418443937609,True,0.28763325705670323,False,前期平均,-62970289.535000026,244545000.0,244545000.0
18,600765,36285508.13,68506189.44999999,2018-06-30,半年度报告,66693699.56,2018,6,0.22397777483806477,True,23.136714622745988,False,0.4821876188947036,False,未知,未知,262050000.0,未知
19,600765,172257474.95999998,209031493.09,2018-09-30,三季度报告,120742371.77999996,2018,9,-0.17002122402262665,True,1.0248397941201286,True,0.7940840852786153,False,平均增速,191339343.60354307,,191339343.60354307
20,600765,228840577.74,333144996.67,2018-12-31,年度报告,13150276.830000002,2018,12,0.3547985872951707,True,-1.6479924583223926,True,0.0,True,比例外推,333144996.67,未知,333144996.67
21,600765,37576145.35999999,29496188.15,2019-03-31,一季度报告,26546946.72,2019,3,5.1411569609113945,False,0.4356271020987099,True,1.0639789271036801,False,前期平均,136254784.20499998,,136254784.20499998
22,600765,121585204.82,103399339.04999998,2019-06-30,半年度报告,100044858.31999998,2019,6,2.7986089665929677,False,0.5463796509831215,True,2.9271264281185108,False,前期平均,152851842.91499996,381000000.0,381000000.0
23,600765,238761425.7,203481459.64,2019-09-30,三季度报告,195226426.46,2019,9,-0.19983468600125104,True,0.36088252327437953,True,5.482023734649568,False,平均增速,91780803.18162033,294325000.0,294325000.0
24,600765,320378557.86,275255465.73999995,2019-12-31,年度报告,256785998.1900001,2019,12,-0.3976834969513042,True,0.3989869934712085,True,0.0,True,比例外推,275255465.73999995,296825000.0,275255465.73999995
25,600765,60252085.48,40063279.23,2020-03-31,一季度报告,40184558.09,2020,3,2.6681371976681127,False,0.09044176459483075,True,1.115606094098052,False,前期平均,79053130.1,348306667.0,348306667.0
