,SECURITYCODE_x,NETPROFIT_x,PARENTNETPROFIT_x,REPORTDATE_x,REPORTTIMETYPE_x,KCFJCXSYJLR,Year,Month,managesituationChangeRate,managesituationGreatChange,historyprofitextroplaterate,ifhistoryprofitextroplate,IfprofitdisStableChangeRage,IfprofitdisStable,predicttype,predict,analyst_prediction,adj_prediction
0,600758,17557943.830000006,17557943.830000006,2013-12-31,年度报告,9761220.839999998,2013,12,未知,未知,未知,未知,未知,未知,未知,未知,未知,未知
1,600758,12917139.739999995,12917139.739999995,2014-03-31,一季度报告,12917182.25,2014,3,未知,未知,未知,未知,未知,未知,未知,未知,未知,未知
2,600758,9903810.79,9903810.79,2014-06-30,半年度报告,9858853.3,2014,6,未知,未知,未知,未知,未知,未知,未知,未知,未知,未知
3,600758,7474978.990000001,7474978.990000001,2014-09-30,三季度报告,7216615.630000001,2014,9,未知,未知,未知,未知,未知,未知,未知,未知,未知,未知
4,600758,-63032414.93,-63032414.93,2014-12-31,年度报告,-10695789.999999998,2014,12,0.0,True,未知,未知,未知,未知,未知,未知,未知,未知
5,600758,114801461.21999998,114801461.21999998,2015-03-31,一季度报告,5907624.23,2015,3,0.35927490012583957,True,未知,未知,未知,未知,未知,未知,未知,未知
6,600758,-78443775.56999998,-78443775.56999998,2015-06-30,半年度报告,-2772527.4,2015,6,0.7728472607461847,False,未知,未知,未知,未知,未知,未知,未知,未知
7,600758,-256739187.31,-256739187.31,2015-09-30,三季度报告,-257384186.69000003,2015,9,1.348895408734788,False,未知,未知,未知,未知,未知,未知,未知,未知
8,600758,-256739187.31,-256739187.31,2015-09-30,三季度报告,-25287351.99,2015,9,1.348895408734788,False,未知,未知,未知,未知,未知,未知,未知,未知
9,600758,-465366695.5500001,-465366695.5500001,2015-12-31,年度报告,-264440261.07,2015,12,-1.2785541986531659,False,未知,未知,未知,未知,未知,未知,未知,未知
10,600758,23498425.37,23498425.37,2016-03-31,一季度报告,19305396.2,2016,3,-0.8470581851188044,True,未知,未知,未知,未知,未知,未知,未知,未知
11,600758,-224498482.25,-224498482.25,2016-06-30,半年度报告,-244228684.27000004,2016,6,-1.2238283879430563,False,未知,未知,未知,未知,未知,未知,未知,未知
12,600758,-306916269.09,-306916269.09,2016-09-30,三季度报告,-339825941.05999994,2016,9,-1.0683882504029258,False,未知,未知,0.0,True,未知,未知,未知,未知
13,600758,173615684.63000005,173615684.63000005,2016-12-31,年度报告,94145455.84999998,2016,12,-1.0377292659700301,False,-19.467162532870013,True,0.8660320250748945,False,前期平均,173615684.63000005,未知,173615684.63000005
14,600758,368900301.4,368900301.4,2017-03-31,一季度报告,367332989.5,2017,3,-0.2528033877361032,True,0.6320281432246593,True,1.4256867460884748,False,平均增速,699828110.1751533,983000000.0,983000000.0
15,600758,450339049.03999984,450339049.03999984,2017-06-30,半年度报告,420319440.82,2017,6,-1.078209632662227,False,-5.550878249517539,True,2.5059232080042637,False,盈利变化,616647768.0233334,,616647768.0233334
16,600758,475974868.77,475974868.77,2017-09-30,三季度报告,436785280.9,2017,9,-1.0572076021973644,False,-1.462577930129363,True,0.0,True,盈利变化,518776227.72333336,未知,518776227.72333336
17,600758,464627981.2799999,464657049.2,2017-12-31,年度报告,447096282.9099999,2017,12,-0.8988689076829751,True,-1.6571384439776473,True,0.48682499117286,False,平均增速,464657049.2,未知,464657049.2
18,600758,87066313.84999998,87097810.31,2018-03-31,一季度报告,80137317.91000001,2018,3,-0.9524046367992477,True,4.334788198252565,False,2.0463068392564345,False,未知,未知,392000000.0,未知
19,600758,48099520.42,48155840.38,2018-06-30,半年度报告,936189.94,2018,6,-0.9610117224623786,True,-3.973101555924753,True,3.0564743346758987,False,平均增速,95748111.50530744,,95748111.50530744
20,600758,4096774.65,4152108.42,2018-09-30,三季度报告,-45266873.99,2018,9,-0.9631116157973367,True,-2.6888858729763556,True,0.0,True,比例外推,131259651.95055537,未知,131259651.95055537
21,600758,112878078.30000004,113350184.16999996,2018-12-31,年度报告,-89470063.89999999,2018,12,-0.9622107480879009,True,-4.185099375079141,True,0.9393445126561766,False,平均增速,113350184.16999996,未知,113350184.16999996
22,600758,94573953.15,94705253.9,2019-03-31,一季度报告,93124252.01,2019,3,-0.7983382659308482,True,0.5562354925731811,True,2.0393240939610537,False,平均增速,-196722553.72741684,144000000.0,144000000.0
23,600758,131101321.40000002,131330512.71999995,2019-06-30,半年度报告,58640590.06,2019,6,-0.6349663431841759,True,0.5740400309504551,True,2.9006834725966426,False,平均增速,-2802891823.8091793,,-2802891823.8091793
24,600758,10119379.26,10441879.230000002,2019-09-30,三季度报告,-64484884.79000002,2019,9,3.285796835322637,False,0.9515342649500881,True,0.0,True,前期平均,232583078.6899999,未知,232583078.6899999
25,600758,25387124.92,26212918.9,2019-12-31,年度报告,-63166549.25,2019,12,-0.8444521372579036,True,0.6462853160036931,True,1.3377160113986308,False,平均增速,26212918.9,未知,26212918.9
26,600758,-85978298.47,-85867630.95,2020-03-31,一季度报告,-88690063.66,2020,3,-0.8143469396679226,True,0.5851715893798651,True,未知,未知,True,True,139000000.0,139000000.0
