,SECURITYCODE_x,NETPROFIT_x,PARENTNETPROFIT_x,REPORTDATE_x,REPORTTIMETYPE_x,KCFJCXSYJLR,Year,Month,managesituationChangeRate,managesituationGreatChange,historyprofitextroplaterate,ifhistoryprofitextroplate,IfprofitdisStableChangeRage,IfprofitdisStable,predicttype,predict,analyst_prediction,adj_prediction
0,600735,13265241.53,10245359.62,2014-03-31,一季度报告,10298045.32,2014,3,未知,未知,未知,未知,未知,未知,未知,未知,未知,未知
1,600735,33457386.62000001,22252872.36,2014-06-30,半年度报告,22357397.55,2014,6,未知,未知,未知,未知,未知,未知,未知,未知,未知,未知
2,600735,54652545.31999999,36612230.84,2014-09-30,三季度报告,36747614.92,2014,9,未知,未知,未知,未知,未知,未知,未知,未知,未知,未知
3,600735,76191791.75,57710500.44999999,2014-12-31,年度报告,51437245.27000002,2014,12,未知,未知,未知,未知,未知,未知,未知,未知,未知,未知
4,600735,14110757.42,10436185.29,2015-03-31,一季度报告,10456214.930000003,2015,3,0.0,True,未知,未知,未知,未知,未知,未知,74700000.0,未知
5,600735,32762814.02,22311009.69,2015-06-30,半年度报告,22381548.48,2015,6,-0.6035182998402404,True,未知,未知,未知,未知,未知,未知,,未知
6,600735,43624314.53,31002798.82,2015-09-30,三季度报告,31099015.43000001,2015,9,-0.7572804440794157,True,未知,未知,未知,未知,未知,未知,52000000.0,未知
7,600735,58602070.63,39152748.98,2015-12-31,年度报告,39055944.84,2015,12,-0.8258967111112727,True,未知,未知,未知,未知,未知,未知,54500000.0,未知
8,600735,17485650.18,12361026.1,2016-03-31,一季度报告,12335951.23,2016,3,-0.05991995077469063,True,未知,未知,未知,未知,未知,未知,106461826.0,未知
9,600735,37153717.14999999,25250268.52,2016-06-30,半年度报告,25047327.18000001,2016,6,-0.5951128763877774,True,未知,未知,未知,未知,未知,未知,106460000.0,未知
10,600735,64593776.06,43445528.47000001,2016-09-30,三季度报告,43205387.27,2016,9,-0.6959209176598607,True,未知,未知,未知,未知,未知,未知,88230000.0,未知
11,600735,84222064.20999998,55652886.06000001,2016-12-31,年度报告,55523142.38,2016,12,-0.7736386890873928,True,未知,未知,未知,未知,未知,未知,78230000.0,未知
12,600735,26160447.58000001,17952700.209999993,2017-03-31,一季度报告,17961438.400000002,2017,3,-0.24136412467105645,True,0.27744380849342487,True,0.03768843566822436,True,比例外推,78072388.72519118,,78072388.72519118
13,600735,52222615.36999999,34644738.89999999,2017-06-30,半年度报告,33395963.049999993,2017,6,-0.6429632739990861,True,0.12212638412205169,True,0.08678622099641115,True,比例外推,69925523.31655852,未知,69925523.31655852
14,600735,75965502.04999998,50905636.4,2017-09-30,三季度报告,49231870.39999999,2017,9,-0.7946359178989915,True,0.3145266578234084,True,0.04852882070746578,True,比例外推,66202469.88121039,,66202469.88121039
15,600735,111207835.2,73822414.08999999,2017-12-31,年度报告,70248610.87,2017,12,-0.8424968367324227,True,0.24964242025453534,True,0.0,True,比例外推,73822414.08999999,51000000.0,51000000.0
16,600735,25121765.41,16832526.870000005,2018-03-31,一季度报告,16500319.649999995,2018,3,-0.4929275774264106,True,0.6559127804136827,True,0.026351475755863135,True,比例外推,66724343.211593926,,66724343.211593926
17,600735,51344499.41,34213119.3,2018-06-30,半年度报告,33743961.58,2018,6,-0.7459866489639582,True,0.49385601648406263,True,0.07320525159720054,True,比例外推,67976177.73437668,未知,67976177.73437668
18,600735,86283235.22000001,58337447.31,2018-09-30,三季度报告,57409968.37,2018,9,-0.8253780838403607,True,0.4039335130723448,True,0.057590863039832296,True,比例外推,76624853.15406722,未知,76624853.15406722
19,600735,114375825.16,76443226.25,2018-12-31,年度报告,72014813.98,2018,12,-0.8807166643776193,True,0.5572695094506483,True,0.0,True,比例外推,76443226.25,88000000.0,88000000.0
20,600735,28600112.730000004,19889417.08,2019-03-31,一季度报告,19792738.5,2019,3,-0.4719622083279378,True,0.1511574550439259,True,0.020022358777734423,True,比例外推,84084667.76050046,未知,84084667.76050046
21,600735,59986764.18,41499809.18000001,2019-06-30,半年度报告,41381200.93000001,2019,6,-0.7416424021573687,True,0.14895068889765645,True,0.013912108930662082,True,比例外推,89105233.83364771,未知,89105233.83364771
22,600735,101397258.57999998,68998780.63000001,2019-09-30,三季度报告,68825680.97,2019,9,-0.8462593399960369,True,0.22771312403121197,True,0.057900273151905934,True,比例外推,90885546.4913579,未知,90885546.4913579
23,600735,121481920.64999998,78423648.60999998,2019-12-31,年度报告,71038878.68999998,2019,12,-0.8840205829208813,True,0.17050487673891204,True,0.0,True,比例外推,78423648.60999998,未知,78423648.60999998
24,600735,19363870.360000007,10761418.78,2020-03-31,一季度报告,10862464.839999998,2020,3,-0.5361821942720714,True,0.11540087927083034,True,0.02535145438688924,True,比例外推,42584667.57937343,未知,42584667.57937343
