,SECURITYCODE_x,NETPROFIT_x,PARENTNETPROFIT_x,REPORTDATE_x,REPORTTIMETYPE_x,KCFJCXSYJLR,Year,Month,managesituationChangeRate,managesituationGreatChange,historyprofitextroplaterate,ifhistoryprofitextroplate,IfprofitdisStableChangeRage,IfprofitdisStable,predicttype,predict,analyst_prediction,adj_prediction
0,600737,68270868.34,80317195.05,2013-12-31,年度报告,-326072254.0700002,2013,12,未知,未知,未知,未知,未知,未知,未知,未知,未知,未知
1,600737,-42106338.3,-40714960.89,2014-03-31,一季度报告,-64053923.51000001,2014,3,未知,未知,未知,未知,未知,未知,未知,未知,未知,未知
2,600737,3243442.73,6776630.510000003,2014-06-30,半年度报告,-32548276.53,2014,6,未知,未知,未知,未知,未知,未知,未知,未知,未知,未知
3,600737,34117502.26999999,40483902.06,2014-09-30,三季度报告,-72091932.47999999,2014,9,未知,未知,未知,未知,未知,未知,未知,未知,未知,未知
4,600737,26463860.95000001,32371818.23,2014-12-31,年度报告,-147467031.17,2014,12,0.0,True,未知,未知,未知,未知,未知,未知,未知,未知
5,600737,-114110548.65999998,-113218710.38000004,2015-03-31,一季度报告,33624984.71,2015,3,-2.621391721445415,False,未知,未知,未知,未知,未知,未知,242000000.0,未知
6,600737,-25457038.65,-23791927.660000004,2015-06-30,半年度报告,74141971.19,2015,6,20.04888972095401,False,未知,未知,未知,未知,未知,未知,,未知
7,600737,70659795.22,74153997.8,2015-09-30,三季度报告,86606227.11000001,2015,9,1.0010511848058574,False,未知,未知,未知,未知,未知,未知,未知,未知
8,600737,68457521.58,76084698.72999999,2015-12-31,年度报告,30985685.559999995,2015,12,1.5797773223260523,False,未知,未知,未知,未知,未知,未知,154000000.0,未知
9,600737,-21526663.77,-19062306.6,2016-03-31,一季度报告,-61885774.62,2016,3,-1.5982870921374468,False,未知,未知,未知,未知,未知,未知,149300000.0,未知
10,600737,89802915.03999999,94593328.41999996,2016-06-30,半年度报告,438690.07000000007,2016,6,-3.6818071527734437,False,未知,未知,未知,未知,未知,未知,,未知
11,600737,330615070.34,332228346.14000005,2016-09-30,三季度报告,167757243.95,2016,9,-0.03380885654369712,True,未知,未知,未知,未知,未知,未知,391617500.0,未知
12,600737,510455475.75000006,515047856.49,2016-12-31,年度报告,370135292.06,2016,12,-0.002726555617148222,True,0.4452465762674896,True,0.0,True,比例外推,515047856.49,436192500.0,436192500.0
13,600737,186570676.94,188845074.87000003,2017-03-31,一季度报告,174057781.18,2017,3,-4.171456063486423,False,-0.7244002977026166,True,0.6343975885840731,False,盈利变化,829639264.2233334,606000000.0,606000000.0
14,600737,295232597.72,350129925.36999995,2017-06-30,半年度报告,371937210.97,2017,6,-0.23977001960804045,True,-9.085400973657396,True,1.5212206373695332,False,平均增速,158379472791.13043,616000000.0,616000000.0
15,600737,464540888.7199999,504536578.49000007,2017-09-30,三季度报告,571891482.88,2017,9,-0.7935034592652078,True,5.310815000197044,False,1.5493264705428305,False,未知,未知,606000000.0,未知
16,600737,754003227.95,740090178.6300001,2017-12-31,年度报告,787838678.62,2017,12,-0.8662549985585105,True,9.755331668050033,False,0.0,True,比例外推,740090178.6300001,800000000.0,740090178.6300001
17,600737,352258663.94000006,345040764.36000013,2018-03-31,一季度报告,306645383.2,2018,3,-0.6340750354786165,True,-3.7510249377365503,True,0.7055410008708116,False,平均增速,3045272985.354385,833280000.0,833280000.0
18,600737,536212812.6,509436674.43,2018-06-30,半年度报告,244973477.9100001,2018,6,-0.768755656159797,True,8.176426347217557,False,1.4374264471846092,False,未知,未知,841269224.0,未知
19,600737,834043046.1599997,798249713.0000001,2018-09-30,三季度报告,572133706.88,2018,9,-0.8530358252680099,True,1.3153251229513663,True,1.4703161085792367,False,平均增速,1666072740.4435353,997570000.0,997570000.0
20,600737,556708004.83,503802619.1,2018-12-31,年度报告,384532803.13000005,2018,12,-0.9094554694074503,True,1.6048930717656444,True,0.0,True,比例外推,503802619.1,,503802619.1
21,600737,205928729.79,200925273.48,2019-03-31,一季度报告,175115944.39000002,2019,3,-0.8061910881725579,True,3.2686633362115805,False,0.5137218038031528,False,未知,未知,767749337.0,未知
22,600737,306219475.01,299144423.08,2019-06-30,半年度报告,255119126.88000005,2019,6,-0.8726795280982437,True,1.7852641890423844,True,0.36893186119428684,False,平均增速,463106803.34231216,588684286.0,588684286.0
23,600737,626070468.1299999,589279779.8599999,2019-09-30,三季度报告,586900257.9000001,2019,9,-0.9181446705247115,True,1.0978099620757933,True,0.5988675833734436,False,平均增速,370339189.8090683,602165000.0,602165000.0
24,600737,611107785.51,579580723.8100001,2019-12-31,年度报告,484445133.0800001,2019,12,-0.8773668283055357,True,0.11945245313115081,True,0.0,True,比例外推,579580723.8100001,573553333.0,579580723.8100001
25,600737,139048640.73,132842844.51000002,2020-03-31,一季度报告,112194724.60999998,2020,3,-0.6684733188534664,True,0.235643963063766,True,0.33749678153747514,False,平均增速,367104800.6110543,811680000.0,811680000.0
