,SECURITYCODE_x,NETPROFIT_x,PARENTNETPROFIT_x,REPORTDATE_x,REPORTTIMETYPE_x,KCFJCXSYJLR,Year,Month,managesituationChangeRate,managesituationGreatChange,historyprofitextroplaterate,ifhistoryprofitextroplate,IfprofitdisStableChangeRage,IfprofitdisStable,predicttype,predict,analyst_prediction,adj_prediction
0,600710,-216512559.99,-216236347.79,2013-12-31,年度报告,-216236347.79,2013,12,未知,未知,未知,未知,未知,未知,未知,未知,未知,未知
1,600710,-39654398.72,-39131780.13000001,2014-03-31,一季度报告,-52607624.74,2014,3,未知,未知,未知,未知,未知,未知,未知,未知,未知,未知
2,600710,-55449420.75,-54969116.03,2014-06-30,半年度报告,-72714916.69999999,2014,6,未知,未知,未知,未知,未知,未知,未知,未知,未知,未知
3,600710,-88100606.8,-87644645.21,2014-09-30,三季度报告,-108567444.51000004,2014,9,未知,未知,未知,未知,未知,未知,未知,未知,未知,未知
4,600710,-180292623.15,-180215934.7,2014-12-31,年度报告,-287338866.73999995,2014,12,-0.0,False,未知,未知,未知,未知,未知,未知,未知,未知
5,600710,-66523153.02,-65829383.18000002,2015-03-31,一季度报告,-68588845.83,2015,3,4.459988474892705,False,未知,未知,未知,未知,未知,未知,未知,未知
6,600710,-205047163.63000005,-203616762.59000003,2015-06-30,半年度报告,-206624860.06,2015,6,2.9046856948456043,False,未知,未知,未知,未知,未知,未知,未知,未知
7,600710,-339676315.2,-337568057.67,2015-09-30,三季度报告,-343023702.35,2015,9,1.457560371650017,False,未知,未知,未知,未知,未知,未知,未知,未知
8,600710,508843484.48,-261860222.73,2015-12-31,年度报告,-534267000.00000006,2015,12,0.20089527905900903,False,未知,未知,未知,未知,未知,未知,未知,未知
9,600710,65792759.13,-9047370.490000002,2016-03-31,一季度报告,-47744609.76000001,2016,3,2.2546947966357833,False,未知,未知,未知,未知,未知,未知,未知,未知
10,600710,235461833.85,7628459.72,2016-06-30,半年度报告,-87502600.17999999,2016,6,0.05591589835735955,False,未知,未知,未知,未知,未知,未知,未知,未知
11,600710,295476157.22,2339643.72,2016-09-30,三季度报告,-108559312.84,2016,9,-0.36259153110949666,False,未知,未知,未知,未知,未知,未知,未知,未知
12,600710,1028338159.0000004,206655583.5300001,2016-12-31,年度报告,53711600.0,2016,12,-1.425499326597961,False,-3.564701803809205,True,0.0,True,盈利变化,-65867356.06333333,未知,-65867356.06333333
13,600710,167703457.45,72048027.98,2017-03-31,一季度报告,54520675.37999999,2017,3,-4.290826571996966,False,-2.2392969710039763,True,0.6964262398083101,False,盈利变化,343009297.0500001,未知,343009297.0500001
14,600710,377828616.27,164622960.01000005,2017-06-30,半年度报告,139158400.0,2017,6,-1.919522949642567,False,-2.807792101462025,True,1.2993487668567631,False,前期平均,-106510084.97999996,未知,-106510084.97999996
15,600710,728259356.79,273302003.07000005,2017-09-30,三季度报告,244143051.07,2017,9,-1.7327581420682725,False,-2.3814497324378805,True,1.6873957694264285,False,前期平均,88294643.13000008,398340000.0,398340000.0
16,600710,1097370462.6400003,358099598.74,2017-12-31,年度报告,233964700.0,2017,12,-1.2105460719269097,False,5.259841504217676,False,0.0,True,去年同期,358099598.74,398340000.0,398340000.0
17,600710,211133109.72000003,77515609.56,2018-03-31,一季度报告,42321611.70999999,2018,3,-2.291044104171509,False,-460.2137468455544,True,0.7130741856155338,False,前期平均,-104595362.64500001,560000000.0,560000000.0
18,600710,545393873.6,205429611.1,2018-06-30,半年度报告,162638000.00000003,2018,6,-1.5730443663252813,False,23.845156205017748,False,1.4132555871535017,False,去年同期,300235911.1,418670000.0,418670000.0
19,600710,930867375.04,347969032.20000005,2018-09-30,三季度报告,363962507.25,2018,9,-1.2973014462105061,False,-33.95279429179998,True,1.9092844798854105,False,前期平均,333482839.795,440340000.0,440340000.0
20,600710,1238162619.13,455470190.34,2018-12-31,年度报告,447978200.0000001,2018,12,-1.1973012463531456,False,0.42776940811715813,True,0.0,True,前期平均,455470190.34,,455470190.34
21,600710,293595651.67,83687052.43,2019-03-31,一季度报告,73963496.83,2019,3,-2.0254789515350486,False,0.808449942465445,True,0.7017718984600987,False,前期平均,224137169.62,582630000.0,582630000.0
22,600710,630766848.65,225265219.00000003,2019-06-30,半年度报告,209773819.00000003,2019,6,-1.3969838505167984,False,0.778582638921852,True,1.4053570365922583,False,前期平均,343275469.09000003,589060000.0,589060000.0
23,600710,1147918467.24,409811154.96,2019-09-30,三季度报告,379925425.49000007,2019,9,-1.2325922744694928,False,0.8185700550599578,True,1.9660879413643098,False,前期平均,485857435.84499997,,485857435.84499997
24,600710,1452374458.23,440859660.64,2019-12-31,年度报告,378823360.64000016,2019,12,-1.1748660124646093,False,0.1649410521511156,True,0.0,True,前期平均,440859660.64,520670000.0,520670000.0
25,600710,166870457.04,78863059.01,2020-03-31,一季度报告,67947194.7,2020,3,-1.7374515213643524,False,0.5499858097819328,True,0.0797766248859744,True,前期平均,371413365.4650001,481560000.0,481560000.0
