,SECURITYCODE_x,NETPROFIT_x,PARENTNETPROFIT_x,REPORTDATE_x,REPORTTIMETYPE_x,KCFJCXSYJLR,Year,Month,managesituationChangeRate,managesituationGreatChange,historyprofitextroplaterate,ifhistoryprofitextroplate,IfprofitdisStableChangeRage,IfprofitdisStable,predicttype,predict,analyst_prediction,adj_prediction
0,600789,4108584.73,10857943.47,2013-12-31,年度报告,-169850730.77,2013,12,未知,未知,未知,未知,未知,未知,未知,未知,未知,未知
1,600789,-19270214.82,-18756485.49,2014-03-31,一季度报告,-19824206.739999995,2014,3,未知,未知,未知,未知,未知,未知,未知,未知,未知,未知
2,600789,-52376764.69,-50018651.39999999,2014-06-30,半年度报告,-53427658.88,2014,6,未知,未知,未知,未知,未知,未知,未知,未知,未知,未知
3,600789,-84287093.24000001,-78729564.76,2014-09-30,三季度报告,-80218124.97999999,2014,9,未知,未知,未知,未知,未知,未知,未知,未知,未知,未知
4,600789,-136690338.59,-125214530.49,2014-12-31,年度报告,-133358907.79,2014,12,0.0,True,未知,未知,未知,未知,未知,未知,未知,未知
5,600789,3499058.1699999995,2891742.35,2015-03-31,一季度报告,1525587.26,2015,3,-1.2132090777595181,False,未知,未知,未知,未知,未知,未知,未知,未知
6,600789,1395344.5699999998,570368.31,2015-06-30,半年度报告,-9443756.0,2015,6,-1.0784428888328115,False,未知,未知,未知,未知,未知,未知,未知,未知
7,600789,1879103.72,748478.2000000002,2015-09-30,三季度报告,-16768048.590000005,2015,9,-1.0487451230320777,False,未知,未知,未知,未知,未知,未知,未知,未知
8,600789,7569518.98,7897231.86,2015-12-31,年度报告,-23583415.34,2015,12,-1.0300576088433258,False,未知,未知,未知,未知,未知,未知,未知,未知
9,600789,5720066.24,4194756.78,2016-03-31,一季度报告,3169192.15,2016,3,0.1741973212180124,True,未知,未知,未知,未知,未知,未知,未知,未知
10,600789,14208023.57,12853444.95,2016-06-30,半年度报告,8671343.15,2016,6,1.9444947279222942,False,未知,未知,未知,未知,未知,未知,未知,未知
11,600789,23368889.85,21597861.48,2016-09-30,三季度报告,12624439.62,2016,9,1.186459792650509,False,未知,未知,未知,未知,未知,未知,未知,未知
12,600789,29506638.92,29102001.63000001,2016-12-31,年度报告,18113681.33,2016,12,-0.45721983908678965,True,-1.1141864360610745,True,0.0,True,比例外推,29102001.63000001,未知,29102001.63000001
13,600789,15246087.819999995,13157683.680000005,2017-03-31,一季度报告,11721799.410000002,2017,3,-0.2817242742279852,True,-1.7253832254592438,True,0.15099741760957913,False,平均增速,57948444.06746494,未知,57948444.06746494
14,600789,37803012.74,32004486.26,2017-06-30,半年度报告,25731123.1,2017,6,-0.7108264418511236,True,-1.5573804549405321,True,0.05212153579318751,True,比例外推,66590624.11911805,未知,66590624.11911805
15,600789,53701229.90000001,43569305.72999999,2017-09-30,三季度报告,42130654.32999999,2017,9,-0.8241857120140433,True,-1.5671510732422003,True,0.06830836931734985,True,比例外推,64336284.58041063,未知,64336284.58041063
16,600789,128927917.95000003,114236705.32,2017-12-31,年度报告,74669401.03999999,2017,12,-0.8607572776709873,True,-1.4570392134920247,True,0.0,True,比例外推,114236705.32,未知,114236705.32
17,600789,96301174.92999998,90676614.45000002,2018-03-31,一季度报告,75284554.43,2018,3,-0.7305154752807923,True,2.307491501787857,False,0.1537739504222626,False,未知,未知,,未知
18,600789,131933198.62000003,122979098.29,2018-06-30,半年度报告,105535351.42000005,2018,6,-0.8913159446243649,True,3.8454939216732473,False,0.07079818949887723,True,比例外推,276159747.89820814,283470000.0,276159747.89820814
19,600789,156964049.39000002,144023176.64000002,2018-09-30,三季度报告,120770322.26,2018,9,-0.9234917945519904,True,3.2539007902638666,False,0.09316929500980764,True,比例外推,206962321.77648002,,206962321.77648002
20,600789,173432130.32999998,161386660.3,2018-12-31,年度报告,105887367.39,2018,12,-0.9681326992995158,True,5.95476150995678,False,0.0,True,比例外推,161386660.3,281200000.0,281200000.0
21,600789,50732617.7,48304560.11000001,2019-03-31,一季度报告,40207021.53,2019,3,-0.9573360892742329,True,8.186346208695177,False,0.36334345485720926,False,未知,未知,未知,未知
22,600789,85222931.81,81708391.92000003,2019-06-30,半年度报告,67987696.47000003,2019,6,-0.9688585983438958,True,4.073277057339988,False,0.3900108689381687,False,未知,未知,未知,未知
23,600789,107135453.52,101644484.61,2019-09-30,三季度报告,66328635.95000002,2019,9,-0.9738246767589971,True,3.0732789802107447,False,0.33997465174747143,False,未知,未知,未知,未知
24,600789,128787691.85999995,121251309.89,2019-12-31,年度报告,63315770.38000001,2019,12,-0.9763101293734769,True,1.1893219983858176,True,0.0,True,比例外推,121251309.89,未知,121251309.89
25,600789,7492362.99,6039821.369999999,2020-03-31,一季度报告,-4553556.659999998,2020,3,-0.9190149273531376,True,0.09038345810955337,True,0.34401521831516885,False,平均增速,16378276.203113154,未知,16378276.203113154
