,SECURITYCODE_x,NETPROFIT_x,PARENTNETPROFIT_x,REPORTDATE_x,REPORTTIMETYPE_x,KCFJCXSYJLR,Year,Month,managesituationChangeRate,managesituationGreatChange,historyprofitextroplaterate,ifhistoryprofitextroplate,IfprofitdisStableChangeRage,IfprofitdisStable,predicttype,predict,analyst_prediction,adj_prediction
0,600707,21968062.85,74795629.9,2013-12-31,年度报告,-225809646.24,2013,12,未知,未知,未知,未知,未知,未知,未知,未知,未知,未知
1,600707,-54237834.31,-42996880.98,2014-03-31,一季度报告,-45813591.56,2014,3,未知,未知,未知,未知,未知,未知,未知,未知,未知,未知
2,600707,-82964302.00999999,-68062649.52,2014-06-30,半年度报告,-73273930.08999999,2014,6,未知,未知,未知,未知,未知,未知,未知,未知,未知,未知
3,600707,-133327658.21,-113198657.28,2014-09-30,三季度报告,-120623613.68000002,2014,9,未知,未知,未知,未知,未知,未知,未知,未知,未知,未知
4,600707,-1144224580.8300002,-1024332779.38,2014-12-31,年度报告,-938647079.96,2014,12,0.0,True,未知,未知,未知,未知,未知,未知,未知,未知
5,600707,-81507522.14999998,-73024491.36999999,2015-03-31,一季度报告,-73852367.02000001,2015,3,-1.4050320800871223,False,未知,未知,未知,未知,未知,未知,47383333.0,未知
6,600707,-175053538.74,-157065906.08999997,2015-06-30,半年度报告,-159053927.52,2015,6,-1.2647893409306583,False,未知,未知,未知,未知,未知,未知,26500000.0,未知
7,600707,-262839949.97,-230445945.65,2015-09-30,三季度报告,-283598236.08,2015,9,-1.1647674844434666,False,未知,未知,未知,未知,未知,未知,-327000000.0,未知
8,600707,42556334.46000001,50215832.47000001,2015-12-31,年度报告,-325023937.04,2015,12,-1.019199083132845,False,未知,未知,未知,未知,未知,未知,81666667.0,未知
9,600707,-55011166.85,-47701422.67,2016-03-31,一季度报告,-50983855.6,2016,3,-1.2695219075556206,False,未知,未知,未知,未知,未知,未知,未知,未知
10,600707,-124893674.96,-108452307.38,2016-06-30,半年度报告,-112342973.9,2016,6,-1.1254933948100774,False,未知,未知,未知,未知,未知,未知,-253320000.0,未知
11,600707,-108521774.63,-92197520.64,2016-09-30,三季度报告,-146819889.79,2016,9,-1.083579618899286,False,未知,未知,未知,未知,未知,未知,-169200000.0,未知
12,600707,-306989971.32,-272512517.2099999,2016-12-31,年度报告,-310200656.1,2016,12,-0.48378865029720897,True,-1.0758406545708445,True,0.0,True,比例外推,-272512517.2099999,,-272512517.2099999
13,600707,-53539428.16999999,-47107256.5,2017-03-31,一季度报告,-64285768.76000001,2017,3,-1.399338245449342,False,-0.18949467908745568,True,0.09798758625256132,True,前期平均,-619109785.71,未知,-619109785.71
14,600707,-84763569.80999997,-73900398.02999999,2017-06-30,半年度报告,-106148396.14000005,2017,6,-1.1758941183933915,False,-0.03189892143146312,True,0.23179874649094762,False,前期平均,-589571977.725,未知,-589571977.725
15,600707,-62890748.67999999,-51320183.53,2017-09-30,三季度报告,-117290762.28,2017,9,-1.2024300001073434,False,-0.45214211162517465,True,0.38109241506569286,False,前期平均,-481044767.15,未知,-481044767.15
16,600707,25623738.5,59687172.33999999,2017-12-31,年度报告,-328062110.62,2017,12,-1.0715595455953868,False,-0.44268163790409176,True,0.0,True,盈利变化,-278466335.38333327,,-278466335.38333327
17,600707,-31968065.63000001,-27256994.430000003,2018-03-31,一季度报告,-59643518.07,2018,3,-1.4103156047958962,False,-0.21564690428575684,True,0.031487359103227586,True,前期平均,-282451179.69000006,,-282451179.69000006
18,600707,-140645143.71,-133764636.76000002,2018-06-30,半年度报告,-190891631.07,2018,6,-1.2591686841321343,False,-0.434810086985649,True,0.09766571858144468,True,前期平均,-315678482.62,未知,-315678482.62
19,600707,-273241658.70000005,-266887298.68,2018-09-30,三季度报告,-377026530.52,2018,9,-1.3493051571349175,False,-0.6612965498922072,True,0.3047530370852225,False,前期平均,-369290532.31500006,未知,-369290532.31500006
20,600707,48200773.45999999,61021939.52999998,2018-12-31,年度报告,-896344919.6100003,2018,12,-0.14266753658916706,True,-1.193800900704369,True,0.0,True,比例外推,61021939.52999998,89000000.0,89000000.0
21,600707,-334152288.99,-333108844.34000003,2019-03-31,一季度报告,-344876827.91,2019,3,-1.6871877424258153,False,-0.41100155878261135,True,0.0757440445753071,True,前期平均,-594605415.52,未知,-594605415.52
22,600707,-238814981.48,-241478099.3,2019-06-30,半年度报告,-729220794.0400001,2019,6,-1.156194961806122,False,-0.34166738539650054,True,0.08659691118739479,True,前期平均,-451363797.64,未知,-451363797.64
23,600707,-699276700.91,-700397368.52,2019-09-30,三季度报告,-1495674346.35,2019,9,-1.08039792670897,False,-2.188117804039811,True,0.05962687732285299,True,前期平均,-887473425.845,未知,-887473425.845
24,600707,63583212.20999999,64896436.01,2019-12-31,年度报告,-2136641973.4700005,2019,12,-0.5442383747590592,True,-1.3426194606005601,True,0.0,True,比例外推,64896436.01,未知,64896436.01
25,600707,-582066697.85,-581178753.32,2020-03-31,一季度报告,-583519381.5399997,2020,3,-1.0657426675615485,False,-6.815742787914573,True,0.07476171522656351,True,前期平均,-1131417625.0200002,-263230000.0,-263230000.0
