,SECURITYCODE_x,NETPROFIT_x,PARENTNETPROFIT_x,REPORTDATE_x,REPORTTIMETYPE_x,KCFJCXSYJLR,Year,Month,managesituationChangeRate,managesituationGreatChange,historyprofitextroplaterate,ifhistoryprofitextroplate,IfprofitdisStableChangeRage,IfprofitdisStable,predicttype,predict,analyst_prediction,adj_prediction
0,600745,104247539.74,53837095.13,2013-12-31,年度报告,13902270.52,2013,12,未知,未知,未知,未知,未知,未知,未知,未知,未知,未知
1,600745,12770591.43,3492085.6999999993,2014-03-31,一季度报告,2602766.06,2014,3,未知,未知,未知,未知,未知,未知,未知,未知,未知,未知
2,600745,25543641.02000001,20067698.55,2014-06-30,半年度报告,20722552.6,2014,6,未知,未知,未知,未知,未知,未知,未知,未知,未知,未知
3,600745,18354389.91,11518259.15,2014-09-30,三季度报告,13962533.85,2014,9,未知,未知,未知,未知,未知,未知,未知,未知,未知,未知
4,600745,50646168.88,16892332.56,2014-12-31,年度报告,2936265.91,2014,12,0.0,True,未知,未知,未知,未知,未知,未知,未知,未知
5,600745,-31394623.28,-30026556.85,2015-03-31,一季度报告,-30017948.85,2015,3,7.1630941144281834,False,未知,未知,未知,未知,未知,未知,119140000.0,未知
6,600745,19768093.05,6132300.290000001,2015-06-30,半年度报告,7288986.96,2015,6,3.0811542746931364,False,未知,未知,未知,未知,未知,未知,96130000.0,未知
7,600745,3807366.25,-9518258.99,2015-09-30,三季度报告,-9436864.009999998,2015,9,4.679706067658666,False,未知,未知,未知,未知,未知,未知,,未知
8,600745,-143846636.41000003,-146460194.76,2015-12-31,年度报告,-154209639.97000006,2015,12,1.058349961020783,False,未知,未知,未知,未知,未知,未知,5252500.0,未知
9,600745,31832186.5,5767250.03,2016-03-31,一季度报告,1945886.19,2016,3,-4.3205539308513075,False,未知,未知,未知,未知,未知,未知,429263333.0,未知
10,600745,74814618.42,16828641.419999998,2016-06-30,半年度报告,7683945.300000003,2016,6,4.2735253459361875,False,未知,未知,未知,未知,未知,未知,371110000.0,未知
11,600745,133849049.84,33394534.37,2016-09-30,三季度报告,3939509.77,2016,9,26.380486376901615,False,未知,未知,未知,未知,未知,未知,,未知
12,600745,191657040.24000004,47981520.13,2016-12-31,年度报告,12378449.13,2016,12,-1.724713085698213,False,2.8573593168060594,False,0.0,True,前期平均,47981520.13,486432500.0,486432500.0
13,600745,138040550.86,137942750.32,2017-03-31,一季度报告,82088670.29999998,2017,3,2.274909806776861,False,-4.41839906164035,True,0.4736615217200981,False,前期平均,76013654.68499996,422443333.0,422443333.0
14,600745,173615940.73999998,174742567.11999995,2017-06-30,半年度报告,116194844.73,2017,6,0.39341136721124764,True,2.302218286522531,False,4.513805585743437,False,未知,未知,581772857.0,未知
15,600745,278530276.25,281717883.56999993,2017-09-30,三季度报告,219143363.42000008,2017,9,-0.22115592255144847,True,11.079281883047305,False,3.0436503138288993,False,未知,未知,628596000.0,未知
16,600745,334847616.72,329386787.48,2017-12-31,年度报告,231668280.32,2017,12,-0.4560724739907422,True,-5.112791390843787,True,0.0,True,比例外推,329386787.48,588830000.0,588830000.0
17,600745,-56925160.73,-57213055.14,2018-03-31,一季度报告,-60385242.27,2018,3,-0.244804957017831,True,629.9513439452263,False,0.11893931927026366,False,未知,未知,682000000.0,未知
18,600745,-175514995.01,-177308908.20999998,2018-06-30,半年度报告,-193980534.43,2018,6,-0.39955087478910256,True,2.6711982145926942,False,0.40561410853317736,False,未知,未知,870990000.0,未知
19,600745,-160992860.87000003,-169388348.63000005,2018-09-30,三季度报告,-193728059.88,2018,9,-0.6257227718884295,True,3.046746009541559,False,0.5041404735705867,False,未知,未知,214705000.0,未知
20,600745,72139732.24,61019266.49000001,2018-12-31,年度报告,41405426.17,2018,12,-0.6886716986038102,True,13.007311793919223,False,0.0,True,比例外推,61019266.49000001,26105713.999999996,26105713.999999996
21,600745,88925451.33999999,42949602.04000001,2019-03-31,一季度报告,38912102.64,2019,3,-2.8313086586518983,False,1.6702094946449504,True,1.1427719330780017,False,前期平均,122955688.52000001,870544219.0,870544219.0
22,600745,221802681.41000003,196198196.84,2019-06-30,半年度报告,138555109.06999996,2019,6,-1.5939523271733023,False,2.412990379311273,False,3.49737369462681,False,前期平均,256282166.55,741771528.0,741771528.0
23,600745,517952258.24000007,530498906.35,2019-09-30,三季度报告,500597533.44,2019,9,-1.6475289598349254,False,1.7807998640303517,True,3.5406028353494694,False,前期平均,540980834.48,929727143.0000001,929727143.0000001
24,600745,1379335892.19,1253563979.3200006,2019-12-31,年度报告,1105672169.87,2019,12,0.4450779965911335,True,0.7259673536164727,True,0.0,True,比例外推,1253563979.3200006,925292500.0,925292500.0
25,600745,695263800.4,635456922.9499997,2020-03-31,一季度报告,652220574.8699999,2020,3,0.17230262168045812,True,1.1925666928922645,True,1.10210314986382,False,平均增速,16744879749.352413,3406606667.0,3406606667.0
