,SECURITYCODE_x,NETPROFIT_x,PARENTNETPROFIT_x,REPORTDATE_x,REPORTTIMETYPE_x,KCFJCXSYJLR,Year,Month,managesituationChangeRate,managesituationGreatChange,historyprofitextroplaterate,ifhistoryprofitextroplate,IfprofitdisStableChangeRage,IfprofitdisStable,predicttype,predict,analyst_prediction,adj_prediction
0,600795,9213656046.46,6279156091.940001,2013-12-31,年度报告,5857063807.440001,2013,12,未知,未知,未知,未知,未知,未知,未知,未知,未知,未知
1,600795,2179580218.27,1464981990.9799993,2014-03-31,一季度报告,1411323051.4899998,2014,3,未知,未知,未知,未知,未知,未知,未知,未知,未知,未知
2,600795,4516853994.28,2967195211.49,2014-06-30,半年度报告,2837087320.34,2014,6,未知,未知,未知,未知,未知,未知,未知,未知,未知,未知
3,600795,7407707474.310001,5116491204.98,2014-09-30,三季度报告,4904461099.309999,2014,9,未知,未知,未知,未知,未知,未知,未知,未知,未知,未知
4,600795,9115029967.73,6074634737.94,2014-12-31,年度报告,5487999182.88,2014,12,0.0,True,未知,未知,未知,未知,未知,未知,未知,未知
5,600795,2291841567.3300004,1693103310.82,2015-03-31,一季度报告,1522839686.92,2015,3,3.2272617310562497,False,未知,未知,未知,未知,未知,未知,6715500000.0,未知
6,600795,4810793966.67,3427777017.67,2015-06-30,半年度报告,3180431477.01,2015,6,1.0398392461053378,False,未知,未知,未知,未知,未知,未知,6603917406.0,未知
7,600795,7196575380.590001,5039027132.740001,2015-09-30,三季度报告,4730045226.790001,2015,9,0.2437931814144989,True,未知,未知,未知,未知,未知,未知,6463900000.0,未知
8,600795,7393209690.040002,4492326334.379999,2015-12-31,年度报告,3741928969.36,2015,12,0.010820159569322986,True,未知,未知,未知,未知,未知,未知,6985001512.0,未知
9,600795,2710821240.05,1860025392.07,2016-03-31,一季度报告,1731619238.0099998,2016,3,3.0201976339899996,False,未知,未知,未知,未知,未知,未知,5501250000.0,未知
10,600795,5323948387.919999,3746574440.520001,2016-06-30,半年度报告,3493374441.25,2016,6,0.9152048726870818,False,未知,未知,未知,未知,未知,未知,6711600000.0,未知
11,600795,7060288612.26,4843368784.380002,2016-09-30,三季度报告,4584310415.929999,2016,9,0.2802834069257856,True,未知,未知,未知,未知,未知,未知,,未知
12,600795,7018484695.920001,4727283683.88,2016-12-31,年度报告,4259452256.3,2016,12,0.2462322093843043,True,0.1932635340780886,True,0.0,True,比例外推,4727283683.88,4521000000.0,4727283683.88
13,600795,1318378938.25,1023656925.72,2017-03-31,一季度报告,956404439.52,2017,3,2.398843092394413,False,0.21250974299945047,True,0.0997238376956861,True,前期平均,4171539632.635,3621333333.0,3621333333.0
14,600795,2268658165.06,1772526482.8400004,2017-06-30,半年度报告,1647950478.0999994,2017,6,0.730605816421083,False,0.14154144972207258,True,0.21205555720982716,False,前期平均,3378731160.285,3921918301.0,3921918301.0
15,600795,3242014561.6800003,2431223515.96,2017-09-30,三季度报告,2248873262.61,2017,9,0.30499708332896397,True,0.03312080676509967,True,0.18606475793455468,False,平均增速,2203720497.715005,3040760000.0,3040760000.0
16,600795,2764203680.43,2223242270.16,2017-12-31,年度报告,1562169482.8400002,2017,12,0.31276998464014594,True,0.14969919974276819,True,0.0,True,比例外推,2223242270.16,2973173333.0,2973173333.0
17,600795,2216641165.17,1338847132.56,2018-03-31,一季度报告,1124535407.2900002,2018,3,5.988625029682356,False,0.4729291223445609,True,0.13698484844092712,False,前期平均,3712308282.925,3431620000.0,3712308282.925
18,600795,3530641728.6599994,2092872149.7200005,2018-06-30,半年度报告,1710487670.4899998,2018,6,3.0612800061115966,False,0.5523007718035318,True,0.14657737624863065,False,前期平均,2756659803.42,3397066667.0,3397066667.0
19,600795,5201481226.7,3006765350.7699995,2018-09-30,三季度报告,2465982383.1699986,2018,9,1.8419539367169022,False,0.5451994823958605,True,0.18370474507365953,False,前期平均,2350278142.24,3345840000.0,3345840000.0
20,600795,3221492288.86,1612038074.85,2018-12-31,年度报告,377190303.06,2018,12,2.3332044637993974,False,0.6163943521973501,True,0.0,True,前期平均,1612038074.85,3336050000.0,3336050000.0
21,600795,2553579535.56,1418105321.25,2019-03-31,一季度报告,898817852.39,2019,3,3.156584381465901,False,0.10028842801513284,True,1.6479770686390773,False,前期平均,2984904352.0550003,3813582500.0,3813582500.0
22,600795,4203712556.18,2331403573.7200003,2019-06-30,半年度报告,1953418765.85,2019,6,1.6096264516640435,False,0.06997901075902101,True,2.3981897013290783,False,前期平均,2671551983.6150007,3971500000.0,3971500000.0
23,600795,6142272972.31,3084283275.03,2019-09-30,三季度报告,2684122971.09,2019,9,0.7713523600094703,False,0.009770560792136257,True,3.519894453646325,False,前期平均,2578502305.330001,3688666667.0,3688666667.0
24,600795,4919134935.110001,1868693329.39,2019-12-31,年度报告,-597886896.8199999,2019,12,1.8600583891884668,False,0.3413891631981096,True,0.0,True,前期平均,1868693329.39,3848500000.0,3848500000.0
25,600795,353369956.93000007,-730616493.24,2020-03-31,一季度报告,-3146238988.599999,2020,3,2.608133570211842,False,0.4447326809199795,True,2.284597028698818,False,盈利变化,-3524715791.9299984,3732250000.0,3732250000.0
