,SECURITYCODE_x,NETPROFIT_x,PARENTNETPROFIT_x,REPORTDATE_x,REPORTTIMETYPE_x,KCFJCXSYJLR,Year,Month,managesituationChangeRate,managesituationGreatChange,historyprofitextroplaterate,ifhistoryprofitextroplate,IfprofitdisStableChangeRage,IfprofitdisStable,predicttype,predict,analyst_prediction,adj_prediction
0,600718,384531414.00000006,410938749.0,2013-12-31,年度报告,215672470.0,2013,12,未知,未知,未知,未知,未知,未知,未知,未知,未知,未知
1,600718,25053512.0,27601036.0,2014-03-31,一季度报告,24725985.000000004,2014,3,未知,未知,未知,未知,未知,未知,未知,未知,未知,未知
2,600718,125218314.0,134277008.0,2014-06-30,半年度报告,93992537.0,2014,6,未知,未知,未知,未知,未知,未知,未知,未知,未知,未知
3,600718,196890232.0,214280729.0,2014-09-30,三季度报告,132127694.0,2014,9,未知,未知,未知,未知,未知,未知,未知,未知,未知,未知
4,600718,244330106.00000003,255692006.00000003,2014-12-31,年度报告,118083194.0,2014,12,0.0,True,未知,未知,未知,未知,未知,未知,未知,未知
5,600718,1389880.0,23245042.0,2015-03-31,一季度报告,4872878.000000001,2015,3,14.348403609042919,False,未知,未知,未知,未知,未知,未知,467000000.0,未知
6,600718,54096638.0,90120472.0,2015-06-30,半年度报告,38249346.99999999,2015,6,2.0708879693109434,False,未知,未知,未知,未知,未知,未知,292000000.0,未知
7,600718,106752719.0,162132314.99999997,2015-09-30,三季度报告,96243146.0,2015,9,0.9530243328678696,False,未知,未知,未知,未知,未知,未知,,未知
8,600718,306447734.0,386357188.0,2015-12-31,年度报告,221190577.0,2015,12,0.5738192083459417,False,未知,未知,未知,未知,未知,未知,342912221.99999994,未知
9,600718,-21452134.000000004,26799405.000000004,2016-03-31,一季度报告,11572786.0,2016,3,275.6651898005584,False,未知,未知,未知,未知,未知,未知,485916615.0,未知
10,600718,1897509.0,93477532.0,2016-06-30,半年度报告,68437901.0,2016,6,6.108231273078376,False,未知,未知,未知,未知,未知,未知,868052500.0,未知
11,600718,1917536251.0,2044497967.0,2016-09-30,三季度报告,90378856.0,2016,9,2.6020760651539008,False,未知,未知,未知,未知,未知,未知,,未知
12,600718,1704646736.9999998,1850977215.0,2016-12-31,年度报告,226061753.0,2016,12,0.2548026019993349,True,0.025388820101443187,True,0.0,True,比例外推,1850977215.0,420780000.0,420780000.0
13,600718,-3494081.0,27772418.0,2017-03-31,一季度报告,11908441.0,2017,3,-18.92508913099275,False,2.6224948750901547,False,0.11518865906264174,False,去年同期,242261385.0,538458125.0,538458125.0
14,600718,46985612.99999999,121927924.0,2017-06-30,半年度报告,70551708.0,2017,6,201.65064039221951,False,0.9788360203224994,True,0.372102252018042,False,前期平均,225443867.5,510177778.00000006,510177778.00000006
15,600718,37865638.0,165306974.00000003,2017-09-30,三季度报告,97154263.0,2017,9,-0.7994658959905108,True,11.630204288852402,False,0.4676544434209664,False,未知,未知,478161000.0,未知
16,600718,890223697.0000002,1058488436.0,2017-12-31,年度报告,236452446.0000001,2017,12,-0.7744216407695502,True,5.189961226472001,False,0.0,True,比例外推,1058488436.0,474623333.0,474623333.0
17,600718,-11889821.000000002,28098170.0,2018-03-31,一季度报告,11592889.0,2018,3,-111.05223233233576,False,-0.6516761277172546,True,0.01916517463652972,True,前期平均,243501503.0,497766000.0,497766000.0
18,600718,28697028.0,113973886.0,2018-06-30,半年度报告,54939968.0,2018,6,7.184024628985901,False,0.6782330124611057,True,0.08508867933130748,True,前期平均,284256427.0,493800000.0,493800000.0
19,600718,-23836067.000000004,124536866.0,2018-09-30,三季度报告,36532625.00000001,2018,9,9.155154760630207,False,0.962588702936024,True,0.019849393315860497,True,前期平均,254852030.0,478333333.0,478333333.0
20,600718,-103289428.0,110117245.0,2018-12-31,年度报告,11176533.0,2018,12,-0.5680507997081548,True,0.11468734081164868,True,0.0,True,比例外推,110117245.0,478333333.0,478333333.0
21,600718,-60557709.99999999,3946364.0,2019-03-31,一季度报告,-24170133.0,2019,3,-33.34122818165219,False,-0.04676352705209988,True,0.6576498073943831,False,前期平均,223462850.00000006,430600000.0,430600000.0
22,600718,-96701329.0,25779610.0,2019-06-30,半年度报告,-27220436.000000004,2019,6,12.39969470009229,False,0.17410782396427152,True,3.076730686602449,False,前期平均,187541905.00000006,130885000.0,130885000.0
23,600718,-136964925.0,35954806.0,2019-09-30,三季度报告,-51394513.99999999,2019,9,-17.13233483527295,False,1.0243797115407205,True,1.908900171453049,False,前期平均,173445346.00000006,,173445346.00000006
24,600718,-167357767.0,37181353.0,2019-12-31,年度报告,-80520963.0,2019,12,-4.722853552834081,False,1.079610470447096,True,0.0,True,前期平均,37181353.0,384800000.0,384800000.0
25,600718,-125322306.0,-63909479.99999999,2020-03-31,一季度报告,-108175176.0,2020,3,-7.349834133424135,False,-6.872867364859707,True,0.5746568400339687,False,盈利变化,-74825371.0,-30000000.0,-30000000.0
