,SECURITYCODE_x,NETPROFIT_x,PARENTNETPROFIT_x,REPORTDATE_x,REPORTTIMETYPE_x,KCFJCXSYJLR,Year,Month,managesituationChangeRate,managesituationGreatChange,historyprofitextroplaterate,ifhistoryprofitextroplate,IfprofitdisStableChangeRage,IfprofitdisStable,predicttype,predict,analyst_prediction,adj_prediction
0,600767,-58455970.04000002,-58453835.13000001,2013-12-31,年度报告,-67787902.75999999,2013,12,未知,未知,未知,未知,未知,未知,未知,未知,未知,未知
1,600767,-10701475.88,-10701375.88,2014-03-31,一季度报告,-10701375.88,2014,3,未知,未知,未知,未知,未知,未知,未知,未知,未知,未知
2,600767,-17815674.830000002,-17815574.83,2014-06-30,半年度报告,-18104996.129999995,2014,6,未知,未知,未知,未知,未知,未知,未知,未知,未知,未知
3,600767,13507543.890000002,13507643.89,2014-09-30,三季度报告,13243110.37,2014,9,未知,未知,未知,未知,未知,未知,未知,未知,未知,未知
4,600767,28934231.9,25983746.460000005,2014-12-31,年度报告,25836357.47,2014,12,-0.0,False,未知,未知,未知,未知,未知,未知,未知,未知
5,600767,-10268505.26,-8624029.78,2015-03-31,一季度报告,-8731836.06,2015,3,4.462421323515613,False,未知,未知,未知,未知,未知,未知,59273333.0,未知
6,600767,-18864438.610000007,-16214839.289999995,2015-06-30,半年度报告,-19634644.74,2015,6,2.281153848944605,False,未知,未知,未知,未知,未知,未知,62537500.0,未知
7,600767,-34826513.49,-30568239.88000001,2015-09-30,三季度报告,-34202912.7,2015,9,-5.327653533169457,False,未知,未知,未知,未知,未知,未知,,未知
8,600767,-70964228.57,-70243806.27999999,2015-12-31,年度报告,-76621699.02,2015,12,-3.020304884609708,False,未知,未知,未知,未知,未知,未知,37250000.0,未知
9,600767,-20448281.07,-17613837.229999997,2016-03-31,一季度报告,-18825437.15,2016,3,4.692743837577781,False,未知,未知,未知,未知,未知,未知,未知,未知
10,600767,-34209448.489999995,-29588978.35,2016-06-30,半年度报告,-31205373.79000001,2016,6,2.098738915507012,False,未知,未知,未知,未知,未知,未知,未知,未知
11,600767,-50339314.28,-44036733.94,2016-09-30,三季度报告,-45926909.38,2016,9,0.6784904425412818,False,未知,未知,未知,未知,未知,未知,未知,未知
12,600767,-69764743.64999999,-56880587.31999999,2016-12-31,年度报告,-54215719.51000001,2016,12,-0.176261459922187,False,-3.8075914929851717,True,0.0,True,前期平均,-56880587.31999999,未知,-56880587.31999999
13,600767,-12165601.819999995,-10169514.81,2017-03-31,一季度报告,-10166236.23,2017,3,1.8587229332328432,False,-0.9502431531514481,True,0.4298630263008972,False,前期平均,-25845579.614999995,未知,-25845579.614999995
14,600767,-34305210.7,-31567986.94,2017-06-30,半年度报告,-29471442.22000001,2017,6,0.7087668062549356,False,-0.8652858610134104,True,0.744448462668842,False,前期平均,-38090837.28,未知,-38090837.28
15,600767,520867.33,4206601.88,2017-09-30,三季度报告,-34549725.20999999,2017,9,0.16123890196145954,False,-3.722490366513774,True,0.24508841127050118,False,盈利变化,-51824061.02222221,未知,-51824061.02222221
16,600767,34557480.15,43422184.97000001,2017-12-31,年度报告,-34763255.29,2017,12,-0.16209869080483566,False,-2.31975965631215,True,0.0,True,盈利变化,-50396432.57999999,未知,-50396432.57999999
17,600767,-7940926.11,-6604765.610000001,2018-03-31,一季度报告,-6961030.499999999,2018,3,3.8050208205811598,False,-0.2078857671306401,True,0.1372511267140129,False,前期平均,-58244838.27,未知,-58244838.27
18,600767,-17341321.45,-14193646.420000002,2018-06-30,半年度报告,-11816698.94,2018,6,0.7039968228500056,False,-0.29273405715934464,True,0.303614972517361,False,前期平均,-54192346.42,未知,-54192346.42
19,600767,-23100342.56,-18357042.18,2018-09-30,三季度报告,-16366029.080000002,2018,9,-113.22813694228051,False,-1.012231838605659,True,0.3160661061337704,False,盈利变化,51503827.694444455,未知,51503827.694444455
20,600767,17171589.919999998,20408340.320000004,2018-12-31,年度报告,4637196.81,2018,12,-2.6915576536907895,False,-1.4911210478532693,True,0.0,True,前期平均,20408340.320000004,未知,20408340.320000004
21,600767,-4900933.069999998,-2184967.44,2019-03-31,一季度报告,-5958209.37,2019,3,6.361354233782188,False,-0.513033996179901,True,1.213977347877127,False,前期平均,-32178618.150000006,未知,-32178618.150000006
22,600767,-14544028.62,-9738647.839999998,2019-06-30,半年度报告,-16054564.26,2019,6,2.3709063180995367,False,-0.4937923750912845,True,2.1732791096357937,False,前期平均,-23889727.234999992,未知,-23889727.234999992
23,600767,-37296407.93999999,-28039453.49,2019-09-30,三季度报告,-34691151.24,2019,9,1.5305239473470398,False,-0.07261892032947055,True,2.966519693934473,False,前期平均,-32290623.595000006,未知,-32290623.595000006
24,600767,-82244401.69999999,-70288272.18,2019-12-31,年度报告,-79840911.41999999,2019,12,-4.404225835367494,False,-1.9754572331359976,True,0.0,True,盈利变化,-7751029.089999992,未知,-7751029.089999992
25,600767,-2076086.0400000003,-1619473.05,2020-03-31,一季度报告,-3011063.12,2020,3,10.927518536791615,False,-0.512503293749932,True,1.1231086602769575,False,前期平均,-8118868.925,未知,-8118868.925
