,SECURITYCODE_x,NETPROFIT_x,PARENTNETPROFIT_x,REPORTDATE_x,REPORTTIMETYPE_x,KCFJCXSYJLR,Year,Month,managesituationChangeRate,managesituationGreatChange,historyprofitextroplaterate,ifhistoryprofitextroplate,IfprofitdisStableChangeRage,IfprofitdisStable,predicttype,predict,analyst_prediction,adj_prediction
0,600751,-130185611.0,-130239283.87,2013-12-31,年度报告,-144021097.36,2013,12,未知,未知,未知,未知,未知,未知,未知,未知,未知,未知
1,600751,-9580366.37,-9566020.56,2014-03-31,一季度报告,-9068577.400000002,2014,3,未知,未知,未知,未知,未知,未知,未知,未知,未知,未知
2,600751,6773823.1099999985,6792888.250000001,2014-06-30,半年度报告,4204376.08,2014,6,未知,未知,未知,未知,未知,未知,未知,未知,未知,未知
3,600751,3490305.8800000013,3551044.69,2014-09-30,三季度报告,958065.41,2014,9,未知,未知,未知,未知,未知,未知,未知,未知,未知,未知
4,600751,78926828.61,78939766.13,2014-12-31,年度报告,-47635000.0,2014,12,-0.0,False,未知,未知,未知,未知,未知,未知,未知,未知
5,600751,-2175401.8,-2176531.86,2015-03-31,一季度报告,-12323078.51,2015,3,12.588792533828746,False,未知,未知,未知,未知,未知,未知,未知,未知
6,600751,88809865.55,92557733.11,2015-06-30,半年度报告,4204376.08,2015,6,-20.218926872744987,False,未知,未知,未知,未知,未知,未知,未知,未知
7,600751,113474095.26,120601449.93,2015-09-30,三季度报告,-33482968.01999999,2015,9,-38.299198258234014,False,未知,未知,未知,未知,未知,未知,未知,未知
8,600751,113474095.26,120601449.93,2015-09-30,三季度报告,-33482735.87,2015,9,-38.299198258234014,False,未知,未知,未知,未知,未知,未知,未知,未知
9,600751,247734000.0,246710000.0,2015-12-31,年度报告,51139999.99999999,2015,12,-2.649446877477927,False,未知,未知,未知,未知,未知,未知,未知,未知
10,600751,9154000.0,15910000.0,2016-03-31,一季度报告,15298000.0,2016,3,58.844397940647106,False,未知,未知,未知,未知,未知,未知,,未知
11,600751,96703000.0,90570000.0,2016-06-30,半年度报告,24236000.000000004,2016,6,-2.4658913195483385,False,未知,未知,未知,未知,未知,未知,1049530000.0,未知
12,600751,214598000.00000003,214981000.0,2016-09-30,三季度报告,67756000.0,2016,9,-2.1472716367705718,False,未知,未知,0.0,True,未知,未知,231593332.99999997,未知
13,600751,409431000.0,321508000.0,2016-12-31,年度报告,181570000.00000003,2016,12,-1.5255056270031566,False,-10.666011889050647,True,0.25218845931427114,False,前期平均,321508000.0,307240000.0,321508000.0
14,600751,-37382000.0,-15794000.000000002,2017-03-31,一季度报告,6108999.999999999,2017,3,-15.221718483722963,False,-2.5573631374188626,True,0.13073930793975297,False,盈利变化,309256000.0,1302473333.0,1302473333.0
15,600751,13455000.000000002,24864000.0,2017-06-30,半年度报告,279015000.0,2017,6,-2.3462416988097576,False,1.0234205512612407,True,0.5541725675937947,False,前期平均,22412123.919999998,,22412123.919999998
16,600751,137756000.0,121193999.99999996,2017-09-30,三季度报告,536459000.0,2017,9,-1.606648761871033,False,2.669458363543245,False,0.0,True,去年同期,235008000.0,754000000.0,754000000.0
17,600751,1193297000.0000002,820574000.0000001,2017-12-31,年度报告,1231772000.0000005,2017,12,-1.3179671568591533,False,1.5067652080734737,True,0.19038285011650244,False,前期平均,820574000.0000001,1398377624.0,1398377624.0
18,600751,-76071000.00000001,-51499000.0,2018-03-31,一季度报告,88707000.0,2018,3,2.4825747953560535,False,11.71332635256175,False,0.07911233478948088,True,去年同期,1174164000.0000005,未知,1174164000.0000005
19,600751,18835000.0,-830000.0,2018-06-30,半年度报告,203105000.0,2018,6,-10.675630694908953,False,0.8549426751604614,True,0.7060494792623667,False,盈利变化,769967333.3333335,未知,769967333.3333335
20,600751,88614000.0,43617000.0,2018-09-30,三季度报告,-191819000.00000003,2018,9,-1.9450449417811202,False,0.16020897851231666,True,0.0,True,前期平均,142835484.01,未知,142835484.01
21,600751,208476000.0,60243000.00000001,2018-12-31,年度报告,20719000.0,2018,12,-1.1090974091110595,False,2.631651107408338,False,2.8245504915627917,False,去年同期,60243000.00000001,,60243000.00000001
22,600751,77390000.0,52598000.0,2019-03-31,一季度报告,1807000.0,2019,3,0.7113697861208604,False,-4.389754853337113,True,6.415226871614495,False,盈利变化,-55623666.666666664,未知,-55623666.666666664
23,600751,197716000.0,139214000.0,2019-06-30,半年度报告,78276999.99999999,2019,6,-7.91189864613751,False,0.6580366382831933,True,6.441642201307417,False,前期平均,694259500.0000002,未知,694259500.0000002
24,600751,409891000.0,275844000.0,2019-09-30,三季度报告,214126000.0000001,2019,9,-2.4691314126436,False,0.4970172042888686,True,0.0,True,前期平均,680407500.0000002,未知,680407500.0000002
25,600751,869334000.0000001,521918000.0,2019-12-31,年度报告,119142000.00000004,2019,12,-1.6244633003319326,False,0.739848558208255,True,2.8475795685424616,False,前期平均,521918000.0,未知,521918000.0
26,600751,209575000.0,149438000.00000003,2020-03-31,一季度报告,119212000.0,2020,3,-2.6822019769996124,False,-2.364265378614933,True,未知,未知,前期平均,728275500.0000002,未知,728275500.0000002
