,SECURITYCODE_x,NETPROFIT_x,PARENTNETPROFIT_x,REPORTDATE_x,REPORTTIMETYPE_x,KCFJCXSYJLR,Year,Month,managesituationChangeRate,managesituationGreatChange,historyprofitextroplaterate,ifhistoryprofitextroplate,IfprofitdisStableChangeRage,IfprofitdisStable,predicttype,predict,analyst_prediction,adj_prediction
0,600753,-33051.79,-436654.78,2013-12-31,年度报告,-715749.12,2013,12,未知,未知,未知,未知,未知,未知,未知,未知,未知,未知
1,600753,53164.12,31898.47,2014-03-31,一季度报告,60398.47,2014,3,未知,未知,未知,未知,未知,未知,未知,未知,未知,未知
2,600753,-1477307.16,-1399350.3,2014-06-30,半年度报告,-1353953.2999999998,2014,6,未知,未知,未知,未知,未知,未知,未知,未知,未知,未知
3,600753,-2001787.96,-1801744.19,2014-09-30,三季度报告,-1756347.19,2014,9,未知,未知,未知,未知,未知,未知,未知,未知,未知,未知
4,600753,853998.23,357059.81,2014-12-31,年度报告,-1293927.6,2014,12,-0.0,False,未知,未知,未知,未知,未知,未知,未知,未知
5,600753,-11750.33,-137066.33,2015-03-31,一季度报告,-137066.33,2015,3,-1.6216935406811963,False,未知,未知,未知,未知,未知,未知,未知,未知
6,600753,-1320482.79,-1256846.01,2015-06-30,半年度报告,-1256559.01,2015,6,-0.9776270020921038,False,未知,未知,未知,未知,未知,未知,未知,未知
7,600753,44427600.87000001,44220536.58999999,2015-09-30,三季度报告,5947225.58,2015,9,-0.9834888656239095,False,未知,未知,未知,未知,未知,未知,未知,未知
8,600753,44427600.87000001,44220536.58999999,2015-09-30,三季度报告,-6810544.76,2015,9,-0.9834888656239095,False,未知,未知,未知,未知,未知,未知,未知,未知
9,600753,38867391.16,38613414.15,2015-12-31,年度报告,-4560260.54,2015,12,-1.0387024104253706,False,未知,未知,未知,未知,未知,未知,未知,未知
10,600753,23401.21,23401.21,2016-03-31,一季度报告,-545230.03,2016,3,1.8128392989813902,False,未知,未知,未知,未知,未知,未知,未知,未知
11,600753,-3557219.02,-3557219.02,2016-06-30,半年度报告,-4135340.6,2016,6,-0.9749699199033105,False,未知,未知,未知,未知,未知,未知,未知,未知
12,600753,-4467880.65,-4467880.65,2016-09-30,三季度报告,-5151254.030000001,2016,9,-1.0007439472164323,False,未知,未知,0.0,True,未知,未知,未知,未知
13,600753,2622865.01,2622865.01,2016-12-31,年度报告,-5522742.77,2016,12,-1.0008503732566958,False,93.68922518258317,False,0.07404599677301033,True,去年同期,2622865.01,未知,2622865.01
14,600753,-931506.73,-931506.73,2017-03-31,一季度报告,-931506.73,2017,3,-2.4123966239352583,False,0.13011680408868634,True,0.41469442449758026,False,盈利变化,2107829.4099999997,未知,2107829.4099999997
15,600753,2042978.1400000004,2042978.1400000004,2017-06-30,半年度报告,1633580.88,2017,6,-0.9907085310704316,False,-1.542877831125242,True,1.6327982313562948,False,盈利变化,6468812.663333334,未知,6468812.663333334
16,600753,7141141.1400000015,7141141.1400000015,2017-09-30,三季度报告,6496653.9700000025,2017,9,-0.9926023561081472,False,1.210620862326336,True,0.0,True,前期平均,2118607.875000001,未知,2118607.875000001
17,600753,18975034.87,18975034.87,2017-12-31,年度报告,10160188.319999997,2017,12,-1.0126014071917486,False,0.8679368949435431,True,0.10404841941721589,False,前期平均,18975034.87,未知,18975034.87
18,600753,3885313.52,3885313.52,2018-03-31,一季度报告,3876057.17,2018,3,-0.9645179267786932,False,160.90323992694113,False,0.3537465732854669,False,盈利变化,25385120.07,未知,25385120.07
19,600753,4268190.3599999985,4268190.3599999985,2018-06-30,半年度报告,2908934.0099999993,2018,6,-1.016178239675144,False,-1.837680620742989,True,1.3934801923098386,False,前期平均,1922638.5099999988,未知,1922638.5099999988
20,600753,5849190.4,5849190.4,2018-09-30,三季度报告,4482434.05,2018,9,-1.004628362519663,False,0.642583026073049,True,0.0,True,前期平均,409702.97000000067,未知,409702.97000000067
21,600753,20565709.37,20930602.12,2018-12-31,年度报告,7390473.240000001,2018,12,-1.0017418566145697,False,0.08532573082929684,True,0.34729698254505725,False,前期平均,20930602.12,未知,20930602.12
22,600753,1479031.71,1808416.41,2019-03-31,一季度报告,1733416.41,2019,3,-1.0085068527494276,False,-9.556964877826093,True,0.31439308130158367,False,前期平均,4865507.564999999,未知,4865507.564999999
23,600753,8488344.3,8160918.1499999985,2019-06-30,半年度报告,4616504.300000002,2019,6,-1.0077437478678903,False,-6.637399460513837,True,0.20651057439620013,False,前期平均,11730520.784999996,未知,11730520.784999996
24,600753,16253451.250000002,13861525.379999995,2019-09-30,三季度报告,10797768.02,2019,9,-1.0056506606452749,False,3.376072157487352,False,0.0,True,去年同期,16769564.569999997,未知,16769564.569999997
25,600753,23678106.91,19389151.32,2019-12-31,年度报告,10948119.070000002,2019,12,-1.0016071310454389,False,0.9044175113566643,True,0.32742846138338055,False,前期平均,19389151.32,未知,19389151.32
26,600753,3743488.02,3152984.3000000007,2020-03-31,一季度报告,3134495.4099999988,2020,3,-1.0223469110070669,False,0.001441065818661717,True,未知,未知,前期平均,10456039.86,未知,10456039.86
