,SECURITYCODE_x,NETPROFIT_x,PARENTNETPROFIT_x,REPORTDATE_x,REPORTTIMETYPE_x,KCFJCXSYJLR,Year,Month,managesituationChangeRate,managesituationGreatChange,historyprofitextroplaterate,ifhistoryprofitextroplate,IfprofitdisStableChangeRage,IfprofitdisStable,predicttype,predict,analyst_prediction,adj_prediction
0,600770,-865675309.8499997,-679323025.9900001,2013-12-31,年度报告,-684166394.4800001,2013,12,未知,未知,未知,未知,未知,未知,未知,未知,未知,未知
1,600770,6223755.8999999985,2402453.26,2014-03-31,一季度报告,1015358.56,2014,3,未知,未知,未知,未知,未知,未知,未知,未知,未知,未知
2,600770,44195903.24,11871952.430000005,2014-06-30,半年度报告,10009549.26,2014,6,未知,未知,未知,未知,未知,未知,未知,未知,未知,未知
3,600770,75258815.35000001,19499287.93,2014-09-30,三季度报告,17722932.760000005,2014,9,未知,未知,未知,未知,未知,未知,未知,未知,未知,未知
4,600770,141078421.26000002,41530195.23,2014-12-31,年度报告,21613007.13,2014,12,-0.0,False,未知,未知,未知,未知,未知,未知,未知,未知
5,600770,47703776.16,14714244.78,2015-03-31,一季度报告,13907569.939999998,2015,3,-140.09210511453378,False,未知,未知,未知,未知,未知,未知,161960000.0,未知
6,600770,93663747.16,23400405.2,2015-06-30,半年度报告,25941455.86,2015,6,-20.58722972916889,False,未知,未知,未知,未知,未知,未知,,未知
7,600770,99521227.7,23703612.06,2015-09-30,三季度报告,25407639.969999995,2015,9,-12.502643322567256,False,未知,未知,未知,未知,未知,未知,未知,未知
8,600770,-179356973.9,-246314655.48,2015-12-31,年度报告,-236568903.85,2015,12,-7.136128417928679,False,未知,未知,未知,未知,未知,未知,未知,未知
9,600770,5062520.89,18044945.140000004,2016-03-31,一季度报告,-23686860.6,2016,3,-19.146892752190034,False,未知,未知,未知,未知,未知,未知,未知,未知
10,600770,42156706.52,32269920.919999994,2016-06-30,半年度报告,-7439364.830000001,2016,6,-10.242373235091907,False,未知,未知,未知,未知,未知,未知,未知,未知
11,600770,51537779.2,40907233.97,2016-09-30,三季度报告,-32097750.72000001,2016,9,-9.69839862164401,False,未知,未知,未知,未知,未知,未知,未知,未知
12,600770,99623398.04000002,51232568.81,2016-12-31,年度报告,30261692.36,2016,12,3.826549484117939,False,-0.50494688364171,True,0.0,True,盈利变化,-157371123.41,未知,-157371123.41
13,600770,34508769.8,10297331.319999997,2017-03-31,一季度报告,13544889.119999995,2017,3,-171.99688646420572,False,0.8122472623309586,True,0.517886240922773,False,前期平均,-104642081.29,未知,-104642081.29
14,600770,72971864.86000001,20108080.05,2017-06-30,半年度报告,25030782.99,2017,6,-21.534699726585746,False,0.3884112371142354,True,0.42724794061881965,False,前期平均,-105345370.86999999,未知,-105345370.86999999
15,600770,109491639.45999998,35694658.07,2017-09-30,三季度报告,41286042.73,2017,9,-17.796907497519793,False,0.4102555612112261,True,0.944652381492959,False,前期平均,-93348576.655,未知,-93348576.655
16,600770,142233444.61,44716721.48,2017-12-31,年度报告,12689207.469999995,2017,12,-9.689477842368118,False,-6.205181030585594,True,0.0,True,前期平均,44716721.48,未知,44716721.48
17,600770,1781921.97,3176549.98,2018-03-31,一季度报告,-1313414.2700000005,2018,3,-26.08566126428534,False,0.307985275802104,True,0.9921301532874095,False,前期平均,-95087410.43499999,未知,-95087410.43499999
18,600770,57624118.60999999,70608341.7,2018-06-30,半年度报告,-16606604.310000004,2018,6,-12.863138094536009,False,0.07453425287365761,True,1.4335665754396154,False,前期平均,-41796309.55999999,未知,-41796309.55999999
19,600770,75943150.95,85128899.25999998,2018-09-30,三季度报告,-6022008.130000001,2018,9,-8.906314254854614,False,0.44965390289481605,True,2.558447402923811,False,前期平均,-14679651.110000014,未知,-14679651.110000014
20,600770,30936928.05,53767148.07000001,2018-12-31,年度报告,-105132661.24,2018,12,-7.086299268246342,False,-4.56771769172225,True,0.0,True,前期平均,53767148.07000001,未知,53767148.07000001
21,600770,40899249.56,22902591.35,2019-03-31,一季度报告,7508139.8900000015,2019,3,-486.8098864171924,False,0.9099386479981404,True,0.9683696240020907,False,前期平均,49449027.005,未知,49449027.005
22,600770,35453520.2,12373663.15,2019-06-30,半年度报告,19027354.75,2019,6,-16.02279480765493,False,0.0010394104483845532,True,1.3443613595120758,False,前期平均,25053403.985,未知,25053403.985
23,600770,29982961.340000004,16146088.769999998,2019-09-30,三季度报告,-1687827.3100000003,2019,9,-12.398991206197769,False,0.0567791701422265,True,2.5035538432854403,False,前期平均,33027392.68,,33027392.68
24,600770,146504996.57,55772318.45,2019-12-31,年度报告,34699973.95,2019,12,-28.981941466550996,False,0.7441715709919362,True,0.0,True,前期平均,55772318.45,未知,55772318.45
25,600770,29283359.53,34793821.910000004,2020-03-31,一季度报告,-17432892.79,2020,3,-22.166043855646713,False,1.2539801566312223,True,0.6353338779342457,False,前期平均,-17543642.39999999,未知,-17543642.39999999
