,SECURITYCODE_x,NETPROFIT_x,PARENTNETPROFIT_x,REPORTDATE_x,REPORTTIMETYPE_x,KCFJCXSYJLR,Year,Month,managesituationChangeRate,managesituationGreatChange,historyprofitextroplaterate,ifhistoryprofitextroplate,IfprofitdisStableChangeRage,IfprofitdisStable,predicttype,predict,analyst_prediction,adj_prediction
0,600771,-25404504.430000003,-19564002.23,2013-12-31,年度报告,-66510436.94000001,2013,12,未知,未知,未知,未知,未知,未知,未知,未知,未知,未知
1,600771,-9451625.53,-8389326.12,2014-03-31,一季度报告,-10100383.42,2014,3,未知,未知,未知,未知,未知,未知,未知,未知,未知,未知
2,600771,10511856.05,3767773.23,2014-06-30,半年度报告,2191246.93,2014,6,未知,未知,未知,未知,未知,未知,未知,未知,未知,未知
3,600771,11235394.96,1871234.9,2014-09-30,三季度报告,174950.8,2014,9,未知,未知,未知,未知,未知,未知,未知,未知,未知,未知
4,600771,25310325.36000001,36646383.08000001,2014-12-31,年度报告,-24289636.19,2014,12,-0.0,False,未知,未知,未知,未知,未知,未知,未知,未知
5,600771,-1022330.12,-1165208.36,2015-03-31,一季度报告,-9921419.79,2015,3,1.687845000774169,False,未知,未知,未知,未知,未知,未知,61301380.0,未知
6,600771,5198565.95,771739.3500000002,2015-06-30,半年度报告,-8019106.79,2015,6,-3.4167477474161188,False,未知,未知,未知,未知,未知,未知,65828278.0,未知
7,600771,961971.0499999998,1155182.36,2015-09-30,三季度报告,-7513896.670000001,2015,9,-3.2611136075273315,False,未知,未知,未知,未知,未知,未知,29750000.0,未知
8,600771,9327020.08,2030309.27,2015-12-31,年度报告,-5244528.94,2015,12,-2.0037209742925244,False,未知,未知,未知,未知,未知,未知,38500000.0,未知
9,600771,18368118.06,8092569.260000003,2016-03-31,一季度报告,8415707.930000003,2016,3,23.84960966424427,False,未知,未知,未知,未知,未知,未知,83000000.0,未知
10,600771,43372274.3,21526535.33,2016-06-30,半年度报告,22044203.62,2016,6,-5.8868293053010134,False,未知,未知,未知,未知,未知,未知,75635000.0,未知
11,600771,85831355.55000001,45070498.64999999,2016-09-30,三季度报告,43926281.48,2016,9,-27.408803497776788,False,未知,未知,未知,未知,未知,未知,91297500.0,未知
12,600771,153906658.76999998,122810065.80999996,2016-12-31,年度报告,109540501.73,2016,12,-3.7237535903321444,False,-199.0699125612667,True,0.0,True,前期平均,122810065.80999996,76730000.0,76730000.0
13,600771,27010759.46,24250041.190000005,2017-03-31,一季度报告,23457560.59,2017,3,-2.383076064026562,False,-4.5073889318979505,True,1.0969576610277998,False,前期平均,19493860.230000004,249024444.0,249024444.0
14,600771,84112191.32000001,78675848.58,2017-06-30,半年度报告,72656150.22,2017,6,-1.5857314341941255,False,4.521465215892991,False,0.9823518095661862,False,去年同期,166172146.69,231388571.0,231388571.0
15,600771,109811253.11999996,103593685.26000002,2017-09-30,三季度报告,94915556.15,2017,9,-1.2959816289421284,False,13.073752559303582,False,0.8238735546620727,False,去年同期,169207905.51000002,217357500.0,217357500.0
16,600771,250312150.34,236804798.41,2017-12-31,年度报告,207503805.99,2017,12,-1.1650643619517775,False,7.886746765083505,False,0.0,True,去年同期,236804798.41,254153100.0,236804798.41
17,600771,55416844.23,51641880.15000001,2018-03-31,一季度报告,51044808.39,2018,3,-1.9405327705657929,False,2.114388294545241,False,1.1978858533423575,False,去年同期,235688125.55,421338333.0,421338333.0
18,600771,151909366.05000004,144248976.95000002,2018-06-30,半年度报告,141143735.16000003,2018,6,-1.3020311803951228,False,2.4634851234635584,False,0.8355661611075502,False,去年同期,279096632.72,418015714.0,418015714.0
19,600771,236744929.27,225978885.45,2018-09-30,三季度报告,223636211.67,2018,9,-1.2313470041384407,False,1.5304077495746073,True,0.6690006645569505,False,前期平均,259920679.44,417768333.0,417768333.0
20,600771,394051802.67000014,374108052.45,2018-12-31,年度报告,376468010.55000013,2018,12,-1.1014912955503475,False,2.0669179559448496,False,0.0,True,去年同期,374108052.45,394080000.0,374108052.45
21,600771,61446575.03,57315049.87000001,2019-03-31,一季度报告,41927083.99,2019,3,-1.4584256787442116,False,1.442407007779156,True,0.03166012839379653,True,前期平均,199900569.47,460516667.0,460516667.0
22,600771,124170107.46999998,117282562.57999998,2019-06-30,半年度报告,99978204.87,2019,6,-1.1672346155512114,False,1.3831823792995248,True,0.1075247757723092,False,前期平均,228454539.51999998,418375000.0,418375000.0
23,600771,183297151.39000005,173805818.31000003,2019-09-30,三季度报告,155705387.55000004,2019,9,-1.107307491266379,False,1.4201775970931707,True,0.10988486663873809,False,前期平均,262907053.35500002,321010000.0,321010000.0
24,600771,137345148.45,130068245.23000002,2019-12-31,年度报告,111812101.46,2019,12,-1.0644699612027282,False,0.9496955301887838,True,0.0,True,前期平均,130068245.23000002,,130068245.23000002
25,600771,26892619.399999995,27573010.12,2020-03-31,一季度报告,28300739.219999995,2020,3,-1.4134405280944755,False,0.49092227067750155,True,0.16710699732762987,False,前期平均,282307733.9000001,165910000.0,165910000.0
