,SECURITYCODE_x,NETPROFIT_x,PARENTNETPROFIT_x,REPORTDATE_x,REPORTTIMETYPE_x,KCFJCXSYJLR,Year,Month,managesituationChangeRate,managesituationGreatChange,historyprofitextroplaterate,ifhistoryprofitextroplate,IfprofitdisStableChangeRage,IfprofitdisStable,predicttype,predict,analyst_prediction,adj_prediction
0,600785,193784731.07,188937289.42,2013-12-31,年度报告,185675372.38000005,2013,12,未知,未知,未知,未知,未知,未知,未知,未知,未知,未知
1,600785,103078175.16,110707298.72,2014-03-31,一季度报告,100491660.82,2014,3,未知,未知,未知,未知,未知,未知,未知,未知,未知,未知
2,600785,185649238.06000003,201723146.17,2014-06-30,半年度报告,129430858.96,2014,6,未知,未知,未知,未知,未知,未知,未知,未知,未知,未知
3,600785,206558978.89,231004995.94,2014-09-30,三季度报告,157535063.48000002,2014,9,未知,未知,未知,未知,未知,未知,未知,未知,未知,未知
4,600785,158506660.63,193920860.08,2014-12-31,年度报告,141922751.61,2014,12,0.0,True,未知,未知,未知,未知,未知,未知,未知,未知
5,600785,72794892.77,80039437.59000003,2015-03-31,一季度报告,79252381.63000001,2015,3,0.8799782860843576,False,未知,未知,未知,未知,未知,未知,197195000.0,未知
6,600785,109748389.5,123538997.56999998,2015-06-30,半年度报告,122266148.88,2015,6,0.04382184971516365,True,未知,未知,未知,未知,未知,未知,198596667.00000003,未知
7,600785,114619996.51000002,134643554.7,2015-09-30,三季度报告,132940096.08,2015,9,-0.061843101126108566,True,未知,未知,未知,未知,未知,未知,128000000.0,未知
8,600785,108047616.84,136727811.18000004,2015-12-31,年度报告,136520690.51,2015,12,0.2225652240718712,True,未知,未知,未知,未知,未知,未知,151650000.0,未知
9,600785,47467436.04,55102379.98,2016-03-31,一季度报告,52697629.34,2016,3,1.662064929228963,False,未知,未知,未知,未知,未知,未知,,未知
10,600785,23708012.66,37979163.13,2016-06-30,半年度报告,61911749.89000001,2016,6,0.7657182210405009,False,未知,未知,未知,未知,未知,未知,112570000.0,未知
11,600785,27955705.99,49038426.96000001,2016-09-30,三季度报告,69942844.59,2016,9,0.6906712351286213,False,未知,未知,未知,未知,未知,未知,72940000.0,未知
12,600785,35013450.690000005,62958290.13,2016-12-31,年度报告,79486266.06,2016,12,0.7935123118630368,False,0.3866008685672917,True,0.0,True,前期平均,62958290.13,208230000.0,208230000.0
13,600785,65462061.45999999,71908385.02,2017-03-31,一季度报告,69915683.26,2017,3,3.082477319961013,False,0.4602080170809016,True,0.07000655697957159,True,前期平均,121258084.855,89390000.0,89390000.0
14,600785,96351870.83,108628099.37,2017-06-30,半年度报告,119695581.73,2017,6,7.173807473831507,False,0.8394840686038718,True,0.08325685934915117,True,前期平均,122001316.51000002,135860000.0,135860000.0
15,600785,102504811.36,122440035.44,2017-09-30,三季度报告,137513781.68,2017,9,5.931848944874384,False,0.8259182067868319,True,0.12210088921088746,False,前期平均,116424176.72,132720000.0,132720000.0
16,600785,79346480.35,106954757.92,2017-12-31,年度报告,162302801.66000006,2017,12,4.534579633002176,False,0.7372883975276616,True,0.0,True,前期平均,106954757.92,83950000.0,83950000.0
17,600785,90826616.42,97050919.16,2018-03-31,一季度报告,93005808.23,2018,3,1.9602601376739475,False,0.08865447905008006,True,0.12731570033699002,False,前期平均,139079391.95999998,132000000.0,139079391.95999998
18,600785,126038774.66,138565499.59000003,2018-06-30,半年度报告,131659988.58,2018,6,1.011219184440199,False,0.4439452775668923,True,0.09159734716658152,True,前期平均,154480028.49,132500000.0,132500000.0
19,600785,145702319.92000002,164307413.02999997,2018-09-30,三季度报告,154373083.04,2018,9,0.890494002173441,False,0.4379001409444218,True,0.07344732304353563,True,前期平均,170869420.97999996,151000000.0,151000000.0
20,600785,112434888.05,137342735.43,2018-12-31,年度报告,170455812.86,2018,12,1.4422599492152521,False,0.10926727613522084,True,0.0,True,前期平均,137342735.43,130690000.0,137342735.43
21,600785,107278299.79,112915557.14,2019-03-31,一季度报告,109829652.44999996,2019,3,1.1335676556957883,False,0.6085543357704217,True,0.11651748551560237,False,前期平均,172503434.70000002,159000000.0,172503434.70000002
22,600785,153923739.10000002,165862462.59,2019-06-30,半年度报告,140329012.34,2019,6,0.537500912657635,False,1.099598483626681,True,0.025443975601455615,True,前期平均,195953330.64000002,159000000.0,159000000.0
23,600785,152363018.84999996,170557394.98999998,2019-09-30,三季度报告,143595118.32999998,2019,9,0.3300044307901228,True,1.2336615380592009,True,0.030350410093913927,True,比例外推,190581574.84712732,159000000.0,159000000.0
24,600785,155853201.17,182106590.16,2019-12-31,年度报告,145342718.41999996,2019,12,0.7235284743986544,False,0.9663336105138667,True,0.0,True,前期平均,182106590.16,159000000.0,159000000.0
25,600785,47608653.98,55066188.75000002,2020-03-31,一季度报告,46361254.1,2020,3,0.8063739959464171,False,0.3728224110049655,True,0.17830550277731805,False,前期平均,139984750.26500008,163000000.0,163000000.0
