,SECURITYCODE_x,NETPROFIT_x,PARENTNETPROFIT_x,REPORTDATE_x,REPORTTIMETYPE_x,KCFJCXSYJLR,Year,Month,managesituationChangeRate,managesituationGreatChange,historyprofitextroplaterate,ifhistoryprofitextroplate,IfprofitdisStableChangeRage,IfprofitdisStable,predicttype,predict,analyst_prediction,adj_prediction
0,600793,7253290.489999997,7253290.489999997,2013-12-31,年度报告,-5760850.43,2013,12,未知,未知,未知,未知,未知,未知,未知,未知,未知,未知
1,600793,-2006253.8300000003,-2006253.8300000003,2014-03-31,一季度报告,-2010153.8300000003,2014,3,未知,未知,未知,未知,未知,未知,未知,未知,未知,未知
2,600793,-4176765.2,-4176765.2,2014-06-30,半年度报告,-4181515.2,2014,6,未知,未知,未知,未知,未知,未知,未知,未知,未知,未知
3,600793,-7033282.650000001,-7033282.650000001,2014-09-30,三季度报告,-7008032.65,2014,9,未知,未知,未知,未知,未知,未知,未知,未知,未知,未知
4,600793,8348678.62,8348678.62,2014-12-31,年度报告,-12905171.38,2014,12,0.0,True,未知,未知,未知,未知,未知,未知,未知,未知
5,600793,-2721322.76,-2721322.76,2015-03-31,一季度报告,-2721522.76,2015,3,-4.61534038292652,False,未知,未知,未知,未知,未知,未知,未知,未知
6,600793,-11216055.15,-11216055.15,2015-06-30,半年度报告,-11817755.15,2015,6,-2.7365808568793852,False,未知,未知,未知,未知,未知,未知,未知,未知
7,600793,-12275232.980000002,-12275232.980000002,2015-09-30,三季度报告,-12882982.979999995,2015,9,-2.0312809609606686,False,未知,未知,未知,未知,未知,未知,未知,未知
8,600793,8876604.950000001,8876604.950000001,2015-12-31,年度报告,-22788395.05,2015,12,-0.13120497025432304,True,未知,未知,未知,未知,未知,未知,未知,未知
9,600793,-12207850.980000002,-12207850.980000002,2016-03-31,一季度报告,-12210250.98,2016,3,-3.6653547299181803,False,未知,未知,未知,未知,未知,未知,,未知
10,600793,-21945991.180000003,-21945991.180000003,2016-06-30,半年度报告,-22541640.96,2016,6,-1.646688197677059,False,未知,未知,未知,未知,未知,未知,未知,未知
11,600793,-46625873.32,-46625873.32,2016-09-30,三季度报告,-50175646.1,2016,9,-1.5908882138382026,False,未知,未知,未知,未知,未知,未知,未知,未知
12,600793,3178241.12,3178241.12,2016-12-31,年度报告,-105263291.28,2016,12,-0.18287560042874315,True,0.13788264640398362,True,0.0,True,比例外推,3178241.12,144800000.0,144800000.0
13,600793,-49310086.68,-49310086.68,2017-03-31,一季度报告,-50482584.00999999,2017,3,-1.5941496584356238,False,-4.164528061088483,True,0.025367937977289562,True,前期平均,-64791031.6,未知,-64791031.6
14,600793,131943106.4,131943106.4,2017-06-30,半年度报告,-74851821.47,2017,6,-1.330506397752047,False,-1.8514581059214403,True,0.1663364029065033,False,盈利变化,-31695212.55333333,未知,-31695212.55333333
15,600793,100648431.4,100648431.4,2017-09-30,三季度报告,-110741927.47,2017,9,-1.1555636382447922,False,-3.829565795058477,True,0.051678480714422326,True,盈利变化,-23740106.155555554,未知,-23740106.155555554
16,600793,92464659.4,92464659.4,2017-12-31,年度报告,-112229332.82,2017,12,1.2821712438230606,False,0.6309795299352509,True,0.0,True,前期平均,92464659.4,未知,92464659.4
17,600793,1695619.83,1695619.83,2018-03-31,一季度报告,332244.84,2018,3,-1.1470954723132114,False,-5.605869492680979,True,0.22140318554095484,False,盈利变化,160217764.53333333,未知,160217764.53333333
18,600793,217789230.76,217789230.76,2018-06-30,半年度报告,-3039043.51,2018,6,-0.9450271356503397,True,-8.95747675442078,True,0.25241669439575465,False,平均增速,196918946.22298375,未知,196918946.22298375
19,600793,210174342.09,210174342.09,2018-09-30,三季度报告,-11825845.34,2018,9,-0.9279343911364724,True,-4.417539592121379,True,0.31049819034666093,False,平均增速,209393050.55700555,未知,209393050.55700555
20,600793,174462541.89,174462541.89,2018-12-31,年度报告,-41108515.74999999,2018,12,-0.9215560784296796,True,14.340661981592604,False,0.0,True,比例外推,174462541.89,未知,174462541.89
21,600793,39713104.6,39713104.6,2019-03-31,一季度报告,-54712246.49,2019,3,3.277663165805272,False,-1.0551260297239295,True,0.2639058392870254,False,前期平均,-37686789.955000006,未知,-37686789.955000006
22,600793,17131832.929999996,17131832.929999996,2019-06-30,半年度报告,-79065684.89,2019,6,-0.9666958257546122,True,2.959908045304826,False,0.3486118914326645,False,未知,未知,未知,未知
23,600793,8913399.71,8913399.71,2019-09-30,三季度报告,-89778343.09999998,2019,9,-0.9654891723800708,True,6.780984446488469,False,0.4030505243267446,False,未知,未知,未知,未知
24,600793,12352896.310000002,12352896.310000002,2019-12-31,年度报告,-90205447.16,2019,12,-0.9584249408989279,True,2.6482068390119116,False,0.0,True,比例外推,12352896.310000002,未知,12352896.310000002
25,600793,-33544861.67000001,-33544861.67000001,2020-03-31,一季度报告,-28340829.31,2020,3,-0.8173577572678618,True,-2.668110859042413,True,0.35750329574223205,False,平均增速,-72617452.26250967,未知,-72617452.26250967
