,SECURITYCODE_x,NETPROFIT_x,PARENTNETPROFIT_x,REPORTDATE_x,REPORTTIMETYPE_x,KCFJCXSYJLR,Year,Month,managesituationChangeRate,managesituationGreatChange,historyprofitextroplaterate,ifhistoryprofitextroplate,IfprofitdisStableChangeRage,IfprofitdisStable,predicttype,predict,analyst_prediction,adj_prediction
0,600784,107400488.53,95485775.95000002,2013-12-31,年度报告,45764899.28,2013,12,未知,未知,未知,未知,未知,未知,未知,未知,未知,未知
1,600784,20628239.63,18129241.14,2014-03-31,一季度报告,18325246.470000006,2014,3,未知,未知,未知,未知,未知,未知,未知,未知,未知,未知
2,600784,32190830.96000001,28441315.120000005,2014-06-30,半年度报告,28721463.480000004,2014,6,未知,未知,未知,未知,未知,未知,未知,未知,未知,未知
3,600784,34677412.61,29038486.58,2014-09-30,三季度报告,29153800.52,2014,9,未知,未知,未知,未知,未知,未知,未知,未知,未知,未知
4,600784,41539511.16000001,36029516.6,2014-12-31,年度报告,34193315.53,2014,12,0.0,True,未知,未知,未知,未知,未知,未知,未知,未知
5,600784,-7354157.59,-7930738.26,2015-03-31,一季度报告,-7071234.039999999,2015,3,4.206478616517797,False,未知,未知,未知,未知,未知,未知,未知,未知
6,600784,2901572.88,803923.2199999999,2015-06-30,半年度报告,1481003.5599999996,2015,6,2.33636893882779,False,未知,未知,未知,未知,未知,未知,未知,未知
7,600784,8761216.68,5860123.300000003,2015-09-30,三季度报告,6529276.3199999975,2015,9,2.097130969310804,False,未知,未知,未知,未知,未知,未知,未知,未知
8,600784,-81465967.62,-64849798.9,2015-12-31,年度报告,-65624023.52000001,2015,12,1.5855019842751557,False,未知,未知,未知,未知,未知,未知,未知,未知
9,600784,72622457.86,71598707.40999998,2016-03-31,一季度报告,71448009.00000001,2016,3,-15.604050459299446,False,未知,未知,未知,未知,未知,未知,未知,未知
10,600784,26238132.140000004,66758994.35999999,2016-06-30,半年度报告,70739780.78,2016,6,36.01457553256426,False,未知,未知,未知,未知,未知,未知,149000000.0,未知
11,600784,27500125.13,64256434.85,2016-09-30,三季度报告,68282810.57,2016,9,11.258627135106993,False,未知,未知,未知,未知,未知,未知,,未知
12,600784,12585578.750000002,41716670.62,2016-12-31,年度报告,-177121545.52000004,2016,12,-2.318347914689631,False,2.0939434374857155,False,0.0,True,前期平均,41716670.62,未知,41716670.62
13,600784,750479.8300000002,1327109.14,2017-03-31,一季度报告,1262794.7500000002,2017,3,0.4788880973574915,True,9.94199322275697,False,0.48348417994139736,False,未知,未知,,未知
14,600784,4724819.65,5729261.22,2017-06-30,半年度报告,2858442.59,2017,6,3.09329779867478,False,0.49537388544996275,True,0.7006332090337167,False,前期平均,-25087326.29500001,未知,-25087326.29500001
15,600784,1621961.91,6019774.36,2017-09-30,三季度报告,3215178.14,2017,9,2.9054545396535802,False,0.266159894061427,True,0.730080993756876,False,前期平均,-27537118.055,未知,-27537118.055
16,600784,-187680710.4,-136632686.47,2017-12-31,年度报告,-165509134.01,2017,12,7.533615391346225,False,-1.6304380536554133,True,0.0,True,盈利变化,45587474.45666668,85590000.0,85590000.0
17,600784,77647643.40999998,78002585.06,2018-03-31,一季度报告,-29426856.66,2018,3,142.1090939912402,False,0.9770032365820639,True,0.3022973706923041,False,前期平均,-75558586.94000003,未知,-75558586.94000003
18,600784,72565350.52,72989196.91,2018-06-30,半年度报告,-27487426.43000001,2018,6,21.731129754338873,False,0.6757125958030717,True,0.25297747670405385,False,前期平均,-84493979.78000003,未知,-84493979.78000003
19,600784,64651909.24999999,65028354.35,2018-09-30,三季度报告,-33676915.18,2018,9,65.2164061115344,False,0.9105404362310331,True,0.21736883917484437,False,前期平均,-93750473.61500001,未知,-93750473.61500001
20,600784,62487354.32000001,62822106.52,2018-12-31,年度报告,-34230718.239999995,2018,12,-1.572251076315193,False,-4.449467213497164,True,0.0,True,盈利变化,-92873214.54666667,未知,-92873214.54666667
21,600784,7275047.31,7410960.469999999,2019-03-31,一季度报告,7170541.920000001,2019,3,0.38317769623602316,True,1.1165199555743721,True,0.7101127822627569,False,平均增速,-1411436.8669568114,未知,-1411436.8669568114
22,600784,-20829571.01,-20325616.56,2019-06-30,半年度报告,-27031820.64,2019,6,0.4800519498682635,True,3.687237251290503,False,0.6742218181084225,False,未知,未知,未知,未知
23,600784,22230032.84,21615795.29,2019-09-30,三季度报告,-24322571.76,2019,9,0.6612113977128992,False,3.440060161979379,False,0.7908609214842032,False,去年同期,21061992.230000004,未知,21061992.230000004
24,600784,2601788.81,13064009.74,2019-12-31,年度报告,-65587374.53,2019,12,0.7187555738077532,False,-1.713753189265214,True,0.0,True,前期平均,13064009.74,未知,13064009.74
25,600784,-6192168.94,-5661984.030000001,2020-03-31,一季度报告,-9471243.670000002,2020,3,13.76285774559451,False,0.8144076156586322,True,0.6120941216219543,False,盈利变化,-9125037.713333337,未知,-9125037.713333337
