,SECURITYCODE_x,NETPROFIT_x,PARENTNETPROFIT_x,REPORTDATE_x,REPORTTIMETYPE_x,KCFJCXSYJLR,Year,Month,managesituationChangeRate,managesituationGreatChange,historyprofitextroplaterate,ifhistoryprofitextroplate,IfprofitdisStableChangeRage,IfprofitdisStable,predicttype,predict,analyst_prediction,adj_prediction
0,600733,42461754.41,38867221.17,2013-12-31,年度报告,30445664.93,2013,12,未知,未知,未知,未知,未知,未知,未知,未知,未知,未知
1,600733,7419312.260000003,7746991.580000001,2014-03-31,一季度报告,-3250390.9000000013,2014,3,未知,未知,未知,未知,未知,未知,未知,未知,未知,未知
2,600733,6185080.800000003,6974591.439999999,2014-06-30,半年度报告,-3743536.540000002,2014,6,未知,未知,未知,未知,未知,未知,未知,未知,未知,未知
3,600733,7912544.209999999,8059962.919999999,2014-09-30,三季度报告,-2658165.06,2014,9,未知,未知,未知,未知,未知,未知,未知,未知,未知,未知
4,600733,12022189.12,13021984.64,2014-12-31,年度报告,1170394.24,2014,12,0.0,True,未知,未知,未知,未知,未知,未知,未知,未知
5,600733,-4751006.7700000005,-4283371.0200000005,2015-03-31,一季度报告,-4251976.62,2015,3,4.723138873521409,False,未知,未知,未知,未知,未知,未知,未知,未知
6,600733,-7219387.8900000015,-6624350.28,2015-06-30,半年度报告,-6589332.36,2015,6,5.865189927672405,False,未知,未知,未知,未知,未知,未知,未知,未知
7,600733,-9729771.92,-8778401.49,2015-09-30,三季度报告,-8742183.569999997,2015,9,4.366384475468226,False,未知,未知,未知,未知,未知,未知,未知,未知
8,600733,-37766816.77,-30290092.20000001,2015-12-31,年度报告,-9856398.45,2015,12,2.531948631498487,False,未知,未知,未知,未知,未知,未知,未知,未知
9,600733,-2743894.25,-2167797.09,2016-03-31,一季度报告,-2160000.84,2016,3,-9.937422417101711,False,未知,未知,未知,未知,未知,未知,未知,未知
10,600733,-5372901.47,-4101206.1799999992,2016-06-30,半年度报告,-4365128.209999999,2016,6,-6.881628062791344,False,未知,未知,未知,未知,未知,未知,未知,未知
11,600733,-8217180.549999999,-6243412.839999999,2016-09-30,三季度报告,-5403202.6499999985,2016,9,-5.364105835072853,False,未知,未知,未知,未知,未知,未知,未知,未知
12,600733,-43315147.33,-33402099.37,2016-12-31,年度报告,-14191741.93,2016,12,-2.124313830010937,False,2.3863466674068774,False,0.0,True,去年同期,-33402099.37,未知,-33402099.37
13,600733,-138831.68999999994,359751.49,2017-03-31,一季度报告,-1875289.41,2017,3,-16.474996680356757,False,3.0566567510978646,False,2.0459819851290133,False,盈利变化,-33022484.130000003,未知,-33022484.130000003
14,600733,-2956398.7,-1660860.83,2017-06-30,半年度报告,-4103331.660000001,2017,6,-8.902946787148137,False,-9.389373759392882,True,2.4577226595674446,False,前期平均,-837428.4849999986,未知,-837428.4849999986
15,600733,67990353.32,84869231.9,2017-09-30,三季度报告,-5762044.96,2017,9,-6.167435977781941,False,-8.043644343283754,True,1.936675045493835,False,盈利变化,-33561584.841111116,未知,-33561584.841111116
16,600733,40868059.02000001,59401341.88,2017-12-31,年度报告,-7296442.92,2017,12,-1.9802980487749848,False,-2.364985341320327,True,0.0,True,盈利变化,-31103666.366666667,未知,-31103666.366666667
17,600733,-229162560.89999995,-224759220.99,2018-03-31,一季度报告,-2475524.11,2018,3,-306.8505908125156,False,-0.9629530290981748,True,0.15118986889215674,False,盈利变化,58601028.94666667,,58601028.94666667
18,600733,77848895.56999998,86821197.80000001,2018-06-30,半年度报告,-5409010.46,2018,6,-15.362661710681985,False,-0.5304430170750143,True,0.20524773163877347,False,盈利变化,58530889.34666667,未知,58530889.34666667
19,600733,126092395.54,132508922.12,2018-09-30,三季度报告,25999517.64,2018,9,-0.37547383802887996,True,-8.576813214795347,True,0.3050679709027447,False,平均增速,126727915.65810783,167920000.0,167920000.0
20,600733,-33707648.19,73289904.63000001,2018-12-31,年度报告,-729355104.89,2018,12,0.03899611158973963,True,-2.008067810730303,True,0.0,True,比例外推,73289904.63000001,188830000.0,188830000.0
21,600733,3523189.28,21092077.910000004,2019-03-31,一季度报告,21399780.89,2019,3,-1.1852909752938618,False,-157.99018198032377,True,0.13414239656225874,False,盈利变化,105123644.63000001,202500000.0,202500000.0
22,600733,90295363.38,95244207.11,2019-06-30,半年度报告,-123410022.06000005,2019,6,-0.4545618907101984,True,-19.6927818618884,True,0.285041405721817,False,平均增速,25090528148.473507,60200000.0,60200000.0
23,600733,-277181484.77,-269717052.06,2019-09-30,三季度报告,-943764019.0900002,2019,9,-0.663248888022514,True,3.21902969832933,False,0.4139097365683772,False,未知,未知,60970000.0,未知
24,600733,3888884.11,92010083.32,2019-12-31,年度报告,-873597479.9599999,2019,12,-2.2597068229339436,False,-26.549188194193263,True,0.0,True,前期平均,92010083.32,,92010083.32
25,600733,-432942901.67000014,-430860074.01999986,2020-03-31,一季度报告,-476981646.4399998,2020,3,11.05207868082523,False,-1.0307297678413982,True,0.17837680709733506,False,盈利变化,-572498486.4533331,未知,-572498486.4533331
