,SECURITYCODE_x,NETPROFIT_x,PARENTNETPROFIT_x,REPORTDATE_x,REPORTTIMETYPE_x,KCFJCXSYJLR,Year,Month,managesituationChangeRate,managesituationGreatChange,historyprofitextroplaterate,ifhistoryprofitextroplate,IfprofitdisStableChangeRage,IfprofitdisStable,predicttype,predict,analyst_prediction,adj_prediction
0,600790,369911728.48000014,365053584.21,2013-12-31,年度报告,322447461.3,2013,12,未知,未知,未知,未知,未知,未知,未知,未知,未知,未知
1,600790,99200629.4,97725364.54999998,2014-03-31,一季度报告,84000617.64,2014,3,未知,未知,未知,未知,未知,未知,未知,未知,未知,未知
2,600790,191163469.2,189674821.62,2014-06-30,半年度报告,154206166.51,2014,6,未知,未知,未知,未知,未知,未知,未知,未知,未知,未知
3,600790,251696651.86,250268450.96000004,2014-09-30,三季度报告,198937628.09,2014,9,未知,未知,未知,未知,未知,未知,未知,未知,未知,未知
4,600790,330685637.63,329934506.78,2014-12-31,年度报告,261234459.17000005,2014,12,0.0,True,未知,未知,未知,未知,未知,未知,未知,未知
5,600790,85624915.48,84049182.3,2015-03-31,一季度报告,72443793.16999999,2015,3,2.7289252166781126,False,未知,未知,未知,未知,未知,未知,363633333.0,未知
6,600790,172044055.30999997,170747357.89999998,2015-06-30,半年度报告,141462468.56,2015,6,0.9350544851903125,False,未知,未知,未知,未知,未知,未知,363633333.0,未知
7,600790,228348994.01999995,227211716.01,2015-09-30,三季度报告,186721656.73000005,2015,9,0.4696728214158141,True,未知,未知,未知,未知,未知,未知,331700000.0,未知
8,600790,297056520.6,295498862.87000006,2015-12-31,年度报告,297949977.23000014,2015,12,0.1186204853985516,True,未知,未知,未知,未知,未知,未知,未知,未知
9,600790,81346538.94,80236011.63000003,2016-03-31,一季度报告,72050456.67000002,2016,3,3.32014123933825,False,未知,未知,未知,未知,未知,未知,493000000.0,未知
10,600790,211492434.71,210638196.61,2016-06-30,半年度报告,192838189.14,2016,6,1.150098867487572,False,未知,未知,未知,未知,未知,未知,374882500.0,未知
11,600790,278072583.6,276961645.83000004,2016-09-30,三季度报告,249095036.97,2016,9,0.6199402588460775,False,未知,未知,未知,未知,未知,未知,439500000.0,未知
12,600790,392890740.91000015,372626611.96,2016-12-31,年度报告,313408236.88999987,2016,12,0.2452570565791516,True,0.1519907582599748,True,0.0,True,比例外推,372626611.96,,372626611.96
13,600790,96559817.34000002,93306385.05,2017-03-31,一季度报告,85344540.14999999,2017,3,3.547356695198078,False,0.11974787908440766,True,0.05669036172163722,True,前期平均,294676397.8450001,337000000.0,337000000.0
14,600790,251853688.49000004,243840543.01,2017-06-30,半年度报告,228470840.95,2017,6,0.7490541871496531,False,0.16458179105910622,True,0.08533998546916832,True,前期平均,375598443.6750001,,375598443.6750001
15,600790,331662026.76999986,319684285.06,2017-09-30,三季度报告,300017652.03999984,2017,9,0.3302704052698279,True,0.15852559433280045,True,0.10098244376006571,False,平均增速,393665193.57903004,未知,393665193.57903004
16,600790,399757078.51000017,380591418.06,2017-12-31,年度报告,353910444.48999983,2017,12,-0.05848702969374336,True,0.2517583398183938,True,0.0,True,比例外推,380591418.06,,380591418.06
17,600790,96402019.45,92804648.71999995,2018-03-31,一季度报告,86920077.32999997,2018,3,2.830907500347598,False,0.1566026980529671,True,0.008167150131292905,True,前期平均,326236630.86,未知,326236630.86
18,600790,236431509.82,227436536.83,2018-06-30,半年度报告,218211858.62,2018,6,0.4687564462439376,True,0.3133232171826301,True,0.10376105810180147,False,平均增速,355739547.65184355,474790000.0,474790000.0
19,600790,318191857.64999986,306312166.19000006,2018-09-30,三季度报告,296173742.52000016,2018,9,0.11532734718685653,True,0.30982581085384464,True,0.1297134121668304,False,平均增速,362299892.46175826,641870000.0,641870000.0
20,600790,531043150.04000014,513986015.68,2018-12-31,年度报告,377133150.74000007,2018,12,-0.07465871559108223,True,0.1588047400466594,True,0.0,True,比例外推,513986015.68,未知,513986015.68
21,600790,531043150.04000014,513986015.68,2018-12-31,年度报告,377133150.74000007,2018,12,-0.07465871559108223,True,0.1588047400466594,True,0.0,True,比例外推,513986015.68,未知,513986015.68
22,600790,194870860.07,194552584.69,2018-12-31,年度报告,377133150.74000007,2018,12,-0.07465871559108223,True,0.1588047400466594,True,0.0,True,比例外推,194552584.69,未知,194552584.69
23,600790,194870860.07,194552584.69,2018-12-31,年度报告,377133150.74000007,2018,12,-0.07465871559108223,True,0.1588047400466594,True,0.0,True,比例外推,194552584.69,未知,194552584.69
24,600790,91160085.01,86797402.14999999,2019-03-31,一季度报告,84413896.74,2019,3,2.8371782104819814,False,0.08373890023666766,True,0.007308470710952475,True,前期平均,341759244.4299999,未知,341759244.4299999
25,600790,174864200.11000004,166230823.79,2019-06-30,半年度报告,161312827.73,2019,6,0.5645618841651914,False,0.020539497286118518,True,0.034547076701402335,True,前期平均,289235649.4349998,未知,289235649.4349998
26,600790,271218495.35,255543701.11000004,2019-09-30,三季度报告,242306831.17,2019,9,0.16254303680797003,True,0.043706072243182306,True,0.03844012002203612,True,比例外推,312646571.5657113,未知,312646571.5657113
27,600790,360966486.34,339128749.22,2019-12-31,年度报告,304989263.28999984,2019,12,-0.30342434799858164,True,0.33992206129722863,True,0.0,True,比例外推,339128749.22,,339128749.22
28,600790,68310135.85,64515226.77000001,2020-03-31,一季度报告,57860206.87000002,2020,3,3.057825620055333,False,0.05514907479649105,True,0.027310041444698452,True,前期平均,343904715.645,未知,343904715.645
