,SECURITYCODE_x,NETPROFIT_x,PARENTNETPROFIT_x,REPORTDATE_x,REPORTTIMETYPE_x,KCFJCXSYJLR,Year,Month,managesituationChangeRate,managesituationGreatChange,historyprofitextroplaterate,ifhistoryprofitextroplate,IfprofitdisStableChangeRage,IfprofitdisStable,predicttype,predict,analyst_prediction,adj_prediction
0,600757,371701818.59,378207523.68000007,2013-12-31,年度报告,298200723.74000007,2013,12,未知,未知,未知,未知,未知,未知,未知,未知,未知,未知
1,600757,91267100.03000002,96358780.38,2014-03-31,一季度报告,93880920.97999996,2014,3,未知,未知,未知,未知,未知,未知,未知,未知,未知,未知
2,600757,205110822.82,208834218.5,2014-06-30,半年度报告,136942848.43,2014,6,未知,未知,未知,未知,未知,未知,未知,未知,未知,未知
3,600757,248334505.42000005,253655938.53,2014-09-30,三季度报告,163650643.38000005,2014,9,未知,未知,未知,未知,未知,未知,未知,未知,未知,未知
4,600757,203535906.74000004,210490762.14,2014-12-31,年度报告,94374639.89,2014,12,0.0,True,未知,未知,未知,未知,未知,未知,未知,未知
5,600757,60129106.33000001,64985133.08000001,2015-03-31,一季度报告,53111674.23000002,2015,3,3.0726813766167593,False,未知,未知,未知,未知,未知,未知,,未知
6,600757,249923591.63,251213617.38000005,2015-06-30,半年度报告,165174086.70999998,2015,6,0.8121999291875299,False,未知,未知,未知,未知,未知,未知,未知,未知
7,600757,343742268.89,344251544.63000005,2015-09-30,三季度报告,248031887.28,2015,9,0.4967787821565626,True,未知,未知,未知,未知,未知,未知,未知,未知
8,600757,330267648.44,324615506.06000006,2015-12-31,年度报告,233751732.7,2015,12,0.8262223336583933,False,未知,未知,未知,未知,未知,未知,524190000.0,未知
9,600757,134491705.55999997,138793690.08999997,2016-03-31,一季度报告,138446029.01999998,2016,3,5.18172863820775,False,未知,未知,未知,未知,未知,未知,470107048.99999994,未知
10,600757,297602004.43,300912057.21,2016-06-30,半年度报告,298767849.04,2016,6,0.4872618313691925,True,未知,未知,未知,未知,未知,未知,517815000.0,未知
11,600757,407097488.03,407791584.33,2016-09-30,三季度报告,375075118.22,2016,9,0.08133870120275272,True,未知,未知,未知,未知,未知,未知,542972404.0,未知
12,600757,602461612.5100001,592197053.0200003,2016-12-31,年度报告,479582242.36,2016,12,0.12545633926214653,True,0.14828229755109817,True,0.0,True,比例外推,592197053.0200003,527694809.0,527694809.0
13,600757,135388458.17999998,139678651.94,2017-03-31,一季度报告,137268780.73000002,2017,3,1.7637527313844263,False,0.7766852788926112,True,0.49121417815121804,False,前期平均,230245540.63,724665000.0,724665000.0
14,600757,384218351.48999983,380746142.99000007,2017-06-30,半年度报告,315250800.65000004,2017,6,0.24898963399767438,True,0.3080417435666333,True,0.5241713633343432,False,平均增速,680846596.8790956,724780000.0,680846596.8790956
15,600757,528165353.9600001,522399435.74000007,2017-09-30,三季度报告,441934371.0499999,2017,9,-0.08694642065045513,True,0.3751510131584777,True,0.5416426838624013,False,平均增速,702283206.2249181,709270000.0,702283206.2249181
16,600757,633742809.62,613365764.8000001,2017-12-31,年度报告,492673243.44,2017,12,-0.3830282114715978,True,1.2572409144290857,True,0.0,True,比例外推,613365764.8000001,724540000.0,724540000.0
17,600757,169994433.74999997,178875250.33999994,2018-03-31,一季度报告,182123194.94,2018,3,1.745446868859527,False,0.3913050394273534,True,0.03762424442624274,True,前期平均,439763386.2449999,651220000.0,651220000.0
18,600757,486736577.8099999,484274366.59,2018-06-30,半年度报告,399861115.65,2018,6,-0.032576613926588116,True,0.40347174362199395,True,0.05013015574914659,True,比例外推,693501083.0646131,,693501083.0646131
19,600757,640831830.7200001,634268663.4599997,2018-09-30,三季度报告,552860732.12,2018,9,-0.2962396798595193,True,0.4068657102723844,True,0.14769397675557372,False,平均增速,705061745.0944934,709030000.0,705061745.0944934
20,600757,754637828.5799997,732691347.03,2018-12-31,年度报告,598941379.8200003,2018,12,-0.4134816001890783,True,0.35889981402432375,True,0.0,True,比例外推,732691347.03,,732691347.03
21,600757,237708106.11,238256123.8899999,2019-03-31,一季度报告,222494298.8100001,2019,3,1.1865528793527338,False,0.2597771647550283,True,0.013616504919455374,True,前期平均,586526461.9149998,842750000.0,842750000.0
22,600757,489608154.4700001,488262756.99,2019-06-30,半年度报告,454190401.5,2019,6,-0.23633884212602638,True,0.4277560755816162,True,0.02412431325769482,True,比例外推,739897236.5620984,814000000.0,739897236.5620984
23,600757,643906563.2800001,642050919.34,2019-09-30,三季度报告,601210548.7699999,2019,9,-0.41996979430254244,True,0.3703780412284401,True,0.08530065786849494,True,比例外推,733968092.8657945,833000000.0,833000000.0
24,600757,803453768.63,786358054.9699997,2019-12-31,年度报告,715123714.2099999,2019,12,-0.5074434324483436,True,0.2208948861058862,True,0.0,True,比例外推,786358054.9699997,,786358054.9699997
25,600757,116121141.22,122192652.07,2020-03-31,一季度报告,127788440.12,2020,3,0.5636901268229955,False,0.5567873144936201,True,0.019320502125820704,True,前期平均,508303975.8650001,未知,508303975.8650001
