,SECURITYCODE_x,NETPROFIT_x,PARENTNETPROFIT_x,REPORTDATE_x,REPORTTIMETYPE_x,KCFJCXSYJLR,Year,Month,managesituationChangeRate,managesituationGreatChange,historyprofitextroplaterate,ifhistoryprofitextroplate,IfprofitdisStableChangeRage,IfprofitdisStable,predicttype,predict,analyst_prediction,adj_prediction
0,600703,1030214724.06,1035987729.59,2013-12-31,年度报告,759195505.83,2013,12,未知,未知,未知,未知,未知,未知,未知,未知,未知,未知
1,600703,225594550.96000004,228028274.62,2014-03-31,一季度报告,135029828.12,2014,3,未知,未知,未知,未知,未知,未知,未知,未知,未知,未知
2,600703,661843552.91,665903059.19,2014-06-30,半年度报告,502940483.0299999,2014,6,未知,未知,未知,未知,未知,未知,未知,未知,未知,未知
3,600703,1045135513.8200004,1049710264.31,2014-09-30,三季度报告,827479683.25,2014,9,未知,未知,未知,未知,未知,未知,未知,未知,未知,未知
4,600703,1510461796.33,1462327646.6900005,2014-12-31,年度报告,1124255416.7700002,2014,12,0.0,True,未知,未知,未知,未知,未知,未知,未知,未知
5,600703,393788882.4900001,354331533.67999995,2015-03-31,一季度报告,227470234.86,2015,3,3.5666649290774153,False,未知,未知,未知,未知,未知,未知,2027064684.0000002,未知
6,600703,943663770.3100002,904005921.34,2015-06-30,半年度报告,709330755.24,2015,6,0.5565834547006496,False,未知,未知,未知,未知,未知,未知,2034102029.0,未知
7,600703,1486544509.0,1446658409.7100005,2015-09-30,三季度报告,1077231944.6,2015,9,-0.01427641637156176,True,未知,未知,未知,未知,未知,未知,1948555455.0,未知
8,600703,1747504725.7999995,1694554662.92,2015-12-31,年度报告,1419864510.05,2015,12,-0.3179471824026706,True,未知,未知,未知,未知,未知,未知,1970485385.0,未知
9,600703,457206799.9400001,457172563.11,2016-03-31,一季度报告,263588430.11000004,2016,3,1.616160003161494,False,未知,未知,未知,未知,未知,未知,2397590000.0,未知
10,600703,966351359.08,966317122.25,2016-06-30,半年度报告,642047162.37,2016,6,0.09171800006857014,True,未知,未知,未知,未知,未知,未知,2457800000.0,未知
11,600703,1495755198.8799994,1495720962.0499995,2016-09-30,三季度报告,1090139484.2800002,2016,9,-0.3069735094894492,True,未知,未知,未知,未知,未知,未知,2069733333.0,未知
12,600703,2166674669.37,2166652341.55,2016-12-31,年度报告,1740022684.5800002,2016,12,-0.4104652715097108,True,0.37562158092581843,True,0.0,True,比例外推,2166652341.55,2133880000.0,2166652341.55
13,600703,690954871.3800001,690954871.3800001,2017-03-31,一季度报告,611601557.41,2017,3,1.2532795317024954,False,0.47632879811890616,True,0.02382640279772051,True,前期平均,1781764803.3000002,2908386904.0,2908386904.0
14,600703,1514805592.9,1514817882.91,2017-06-30,半年度报告,1303643048.11,2017,6,0.06608710628895895,True,0.20379564154449187,True,0.06965167817073264,True,比例外推,3183189618.6111298,3154287647.0,3183189618.6111298
15,600703,2377469559.3499994,2377536202.4100003,2017-09-30,三季度报告,1960824387.18,2017,9,-0.31124108755803737,True,0.1816305262889423,True,0.08056450569532458,True,比例外推,3189867632.07592,3202055333.0,3189867632.07592
16,600703,3164043614.0199995,3164210889.13,2017-12-31,年度报告,2653353360.57,2017,12,-0.5245180374220401,True,0.33007792109138523,True,0.0,True,比例外推,3164210889.13,3178305294.0,3164210889.13
17,600703,968231246.47,968289567.63,2018-03-31,一季度报告,643251875.4099997,2018,3,0.49100146294998653,True,0.6238739764389708,True,0.049770499506787136,True,比例外推,3884207801.169005,4126742000.0,3884207801.169005
18,600703,1852923213.33,1852921224.2300005,2018-06-30,半年度报告,1435156018.86,2018,6,-0.31990301007027666,True,0.5861713026155788,True,0.08430659784090005,True,比例外推,3583822384.1880293,3888346667.0,3583822384.1880293
19,600703,2593497335.9799995,2593610676.0600004,2018-09-30,三季度报告,2099051550.3100004,2018,9,-0.5666759559513936,True,0.5943867432693746,True,0.08155582325300481,True,比例外推,3459050711.9690943,3566821793.0,3459050711.9690943
20,600703,2830044726.16,2830158066.15,2018-12-31,年度报告,2248030054.09,2018,12,-0.6743993289172505,True,0.6167085330449347,True,0.0,True,比例外推,2830158066.15,3480034000.0,3480034000.0
21,600703,621145508.8600001,621145508.8600001,2019-03-31,一季度报告,283436615.24999994,2019,3,0.06401722503377237,True,0.6865764999050341,True,0.0712234499232309,True,比例外推,1610385414.7472024,3191384000.0,3191384000.0
22,600703,883070626.43,883070626.43,2019-06-30,半年度报告,480649690.10999984,2019,6,-0.44400571127362637,True,0.49359613212000936,True,0.13883508945237927,False,平均增速,1501253032.7857785,1923762500.0,1923762500.0
23,600703,1152433239.2800002,1152433239.2800002,2019-09-30,三季度报告,688559571.8399997,2019,9,-0.6027700858729763,True,0.33919279043604283,True,0.16731708464447703,False,平均增速,1265217575.1947124,1547135713.9999998,1547135713.9999998
24,600703,1298466700.52,1298466700.52,2019-12-31,年度报告,690165688.35,2019,12,-0.6359722818028157,True,0.061787389882577155,True,0.0,True,比例外推,1298466700.52,1546770000.0,1546770000.0
25,600703,391602875.51000017,391602875.51000017,2020-03-31,一季度报告,120882651.96,2020,3,0.6585722819613912,False,0.25126481932612793,True,0.10157218948950336,False,前期平均,2214867866.4300003,1812365000.0,1812365000.0
