,SECURITYCODE_x,NETPROFIT_x,PARENTNETPROFIT_x,REPORTDATE_x,REPORTTIMETYPE_x,KCFJCXSYJLR,Year,Month,managesituationChangeRate,managesituationGreatChange,historyprofitextroplaterate,ifhistoryprofitextroplate,IfprofitdisStableChangeRage,IfprofitdisStable,predicttype,predict,analyst_prediction,adj_prediction
0,600741,6327836845.42,3448020499.4300003,2013-12-31,年度报告,3249301342.21,2013,12,未知,未知,未知,未知,未知,未知,未知,未知,未知,未知
1,600741,1596194666.2899995,1130781942.08,2014-03-31,一季度报告,1096780287.62,2014,3,未知,未知,未知,未知,未知,未知,未知,未知,未知,未知
2,600741,3226691104.8500004,2293214443.94,2014-06-30,半年度报告,2271440671.3900003,2014,6,未知,未知,未知,未知,未知,未知,未知,未知,未知,未知
3,600741,4861518180.410001,3465013287.6600013,2014-09-30,三季度报告,3389017722.5200005,2014,9,未知,未知,未知,未知,未知,未知,未知,未知,未知,未知
4,600741,6195514212.400001,4455720981.580003,2014-12-31,年度报告,4061368217.41,2014,12,0.0,True,未知,未知,未知,未知,未知,未知,未知,未知
5,600741,1912519768.24,1384658061.8,2015-03-31,一季度报告,1266823667.43,2015,3,2.964326519225662,False,未知,未知,未知,未知,未知,未知,5221041045.0,未知
6,600741,3942636447.2600007,2889639202.77,2015-06-30,半年度报告,2385412914.52,2015,6,0.9610916074081913,False,未知,未知,未知,未知,未知,未知,5007107389.0,未知
7,600741,5519763303.46,3984348094.02,2015-09-30,三季度报告,3773724930.46,2015,9,0.30161743936671565,True,未知,未知,未知,未知,未知,未知,4767287387.0,未知
8,600741,5519763303.46,3984348094.02,2015-09-30,三季度报告,3423456030.9100013,2015,9,0.30161743936671565,True,未知,未知,未知,未知,未知,未知,4767287387.0,未知
9,600741,7385394325.549998,5232566344.839999,2015-12-31,年度报告,4325162163.29,2015,12,0.021357812843873815,True,未知,未知,未知,未知,未知,未知,4781817760.0,未知
10,600741,2072163132.83,1427070674.38,2016-03-31,一季度报告,1348895428.44,2016,3,2.3086386611539207,False,未知,未知,未知,未知,未知,未知,5399700529.0,未知
11,600741,4338899501.929999,3063672965.2,2016-06-30,半年度报告,2808982566.81,2016,6,0.604975992604551,False,未知,未知,未知,未知,未知,未知,5331050793.0,未知
12,600741,6382289528.1399975,4466911568.49,2016-09-30,三季度报告,4136247423.5700006,2016,9,0.1463964118630718,True,未知,未知,0.0,True,未知,未知,5340233333.000001,未知
13,600741,8582326894.61,6075758559.599999,2016-12-31,年度报告,5739044475.960001,2016,12,-0.14319580424722153,True,0.17945976144113773,True,0.03095716179231575,True,比例外推,6075758559.599999,5411500000.0,5411500000.0
14,600741,2259168624.36,1528658172.1599998,2017-03-31,一季度报告,1493166727.6799994,2017,3,2.0537348846555004,False,0.18115234026309177,True,0.04396567408644342,True,前期平均,4540121384.985,6494560146.0,6494560146.0
15,600741,4582693744.27,3232817994.300001,2017-06-30,半年度报告,3076754913.2499995,2017,6,0.458396730001535,True,0.2104062676430568,True,0.08850530510699717,True,比例外推,5924074367.7163925,6596535820.000001,6596535820.000001
16,600741,6826734221.590002,4816418683.94,2017-09-30,三季度报告,4559820415.889999,2017,9,-0.008531841509212549,True,0.22957643293971575,True,0.0,True,比例外推,5891391394.265913,6638583750.0,6638583750.0
17,600741,9130859207.620005,6553922925.32,2017-12-31,年度报告,6308241741.739999,2017,12,-0.2626898365530562,True,0.263881112317023,True,0.03801772748642718,True,比例外推,6553922925.32,6636932263.0,6553922925.32
18,600741,3680867237.49,2911319807.36,2018-03-31,一季度报告,1601740076.6300006,2018,3,1.800958183107121,False,0.13392642799925167,True,0.041950920749475706,True,前期平均,6635563579.050001,7770843750.0,7770843750.0
19,600741,6201468144.24,4773848889.52,2018-06-30,半年度报告,3338768000.04,2018,6,0.38081163580526195,True,0.10672555728463004,True,0.10048457181248238,False,平均增速,8487146009.482394,8085515714.0,8487146009.482394
20,600741,8285385990.889997,6363981088.31,2018-09-30,三季度报告,4851849051.550001,2018,9,-0.07307994715719351,True,0.14715239768806856,True,0.0,True,比例外推,7796745586.565027,8001370000.0,7796745586.565027
21,600741,10445509693.490005,8027176945.720001,2018-12-31,年度报告,6312895265.17,2018,12,-0.3069834172736767,True,0.14366465718249966,True,0.0119036545172084,True,比例外推,8027176945.720001,7998370000.0,8027176945.720001
22,600741,2332971635.28,1845346333.0199995,2019-03-31,一季度报告,1359675087.11,2019,3,0.7191157510301787,False,0.6996468725258779,True,0.026858085208885774,True,前期平均,6447958363.809999,7446315225.0,7446315225.0
23,600741,4377874775.880001,3364161054.8699994,2019-06-30,半年度报告,2808518825.13,2019,6,0.020377223302738903,True,0.3902153960855385,True,0.031189094582031784,True,比例外推,6150050043.414375,6997248107.0,6997248107.0
24,600741,6382083804.419997,4926772146.040001,2019-09-30,三季度报告,4177361975.1500006,2019,9,-0.2362652926034314,True,0.2545039130631217,True,0.0,True,比例外推,6414608961.949716,6818129473.999999,6414608961.949716
25,600741,8516294451.89,6463163298.95,2019-12-31,年度报告,5565389457.849999,2019,12,-0.39420506695200125,True,0.1794049510014426,True,0.00881340992105209,True,比例外推,6463163298.95,6835999894.0,6463163298.95
26,600741,127886706.12,134693276.12,2020-03-31,一季度报告,11412395.78,2020,3,1.7123505274253115,False,0.21449240727196367,True,未知,未知,前期平均,4897808377.419999,5836835517.0,5836835517.0
