,SECURITYCODE_x,NETPROFIT_x,PARENTNETPROFIT_x,REPORTDATE_x,REPORTTIMETYPE_x,KCFJCXSYJLR,Year,Month,managesituationChangeRate,managesituationGreatChange,historyprofitextroplaterate,ifhistoryprofitextroplate,IfprofitdisStableChangeRage,IfprofitdisStable,predicttype,predict,analyst_prediction,adj_prediction
0,600858,253533503.86,267129938.8,2013-12-31,年度报告,251146677.4899999,2013,12,未知,未知,未知,未知,未知,未知,未知,未知,未知,未知
1,600858,136339434.55,139073758.43,2014-03-31,一季度报告,136511643.13,2014,3,未知,未知,未知,未知,未知,未知,未知,未知,未知,未知
2,600858,156135860.36999995,161107182.95,2014-06-30,半年度报告,163480530.63000005,2014,6,未知,未知,未知,未知,未知,未知,未知,未知,未知,未知
3,600858,189733733.45999995,198283827.45,2014-09-30,三季度报告,197934464.04,2014,9,未知,未知,未知,未知,未知,未知,未知,未知,未知,未知
4,600858,170824997.54999998,180687170.06000003,2014-12-31,年度报告,182878325.34,2014,12,0.0,True,未知,未知,未知,未知,未知,未知,未知,未知
5,600858,106751462.89,109836419.24,2015-03-31,一季度报告,104687380.91000004,2015,3,0.859575732412336,False,未知,未知,未知,未知,未知,未知,412543194.0,未知
6,600858,90893739.48,96329985.34999998,2015-06-30,半年度报告,102990625.0,2015,6,0.6238006007024516,False,未知,未知,未知,未知,未知,未知,424551915.0,未知
7,600858,104728358.9,113251348.46,2015-09-30,三季度报告,119158430.51000002,2015,9,0.3362595002825392,True,未知,未知,未知,未知,未知,未知,208470000.0,未知
8,600858,98423319.43,103719038.28999998,2015-12-31,年度报告,109095310.85,2015,12,0.48417097905001577,True,未知,未知,未知,未知,未知,未知,366655327.00000006,未知
9,600858,39396755.98,49960996.54,2016-03-31,一季度报告,44184623.53,2016,3,1.3749885668662805,False,未知,未知,未知,未知,未知,未知,217580827.0,未知
10,600858,34952813.75,55178443.03999998,2016-06-30,半年度报告,43433489.31999999,2016,6,1.7893395662941867,False,未知,未知,未知,未知,未知,未知,118960000.0,未知
11,600858,4402445.580000001,36051219.63,2016-09-30,三季度报告,21142909.42,2016,9,1.4208677241098255,False,未知,未知,未知,未知,未知,未知,47550000.0,未知
12,600858,-23867738.77,22075755.51,2016-12-31,年度报告,12426692.91,2016,12,1.5759495344019205,False,0.5361312705979847,True,0.0,True,前期平均,22075755.51,,22075755.51
13,600858,28201876.090000004,37314162.13000001,2017-03-31,一季度报告,30880904.48,2017,3,5.435390365356676,False,0.6758681102839407,True,1.801728983688882,False,前期平均,62701468.205,64588000.0,62701468.205
14,600858,30433587.7,49979225.69000001,2017-06-30,半年度报告,39273753.85,2017,6,6.253593535370239,False,0.7170151773615481,True,1.7174601517234094,False,前期平均,62730465.969999984,67850000.0,62730465.969999984
15,600858,5903270.33,32082884.71,2017-09-30,三季度报告,15718283.609999998,2017,9,56.58924199126612,False,0.9700983882528572,True,0.4094171066577632,False,前期平均,19523255.529999994,45280000.0,45280000.0
16,600858,4682158.98,49127866.46000001,2017-12-31,年度报告,15021765.52,2017,12,-11.622435007486887,False,1.1772916468909473,True,0.0,True,前期平均,49127866.46000001,74787500.0,74787500.0
17,600858,58373513.31000001,65319579.1,2018-03-31,一季度报告,56802938.94,2018,3,7.989951698635379,False,0.6140647308868568,True,1.3653015061812317,False,前期平均,51644578.759999976,74000000.0,74000000.0
18,600858,57319847.61000001,71132162.2,2018-06-30,半年度报告,57695683.22,2018,6,7.330713629928029,False,0.5163381607380396,True,1.4071827198298197,False,前期平均,58681106.92,74000000.0,74000000.0
19,600858,16042377.62,36100994.24,2018-09-30,三季度报告,16442208.420000002,2018,9,41.94797454413713,False,0.8918129421270441,True,0.4214042608520807,False,前期平均,26711326.154999986,52000000.0,52000000.0
20,600858,-734329.3400000002,46267810.71999999,2018-12-31,年度报告,58828709.82000001,2018,12,53.14884563787281,False,0.8743981620543655,True,0.0,True,前期平均,46267810.71999999,25740000.0,25740000.0
21,600858,63884994.3,69529651.99000001,2019-03-31,一季度报告,61506124.19999999,2019,3,3.343296976379988,False,0.7270619692289881,True,1.3633117322525536,False,前期平均,45721117.20000001,53000000.0,53000000.0
22,600858,57855189.06999999,67841550.41,2019-06-30,半年度报告,59144298.87,2019,6,3.4231363904702463,False,0.7532650930127003,True,1.3827176489030313,False,前期平均,40212158.04,46000000.0,46000000.0
23,600858,31267383.05,48078505.61,2019-09-30,三季度报告,34162595.59,2019,9,14.803985535405943,False,2.113297079038151,False,0.7295973974163596,False,去年同期,90465007.01,53000000.0,53000000.0
24,600858,37566356.98,52812990.06000001,2019-12-31,年度报告,52062174.35000001,2019,12,-346.25857820143744,False,-0.923449867240108,True,0.0,True,前期平均,52812990.06000001,,52812990.06000001
25,600858,-118473983.52,-110179395.57,2020-03-31,一季度报告,-122013293.04,2020,3,2.9685924157623353,False,0.47582343533761784,True,0.6548418536904921,False,盈利变化,-191879566.26000002,28000000.0,28000000.0
