,SECURITYCODE_x,NETPROFIT_x,PARENTNETPROFIT_x,REPORTDATE_x,REPORTTIMETYPE_x,KCFJCXSYJLR,Year,Month,managesituationChangeRate,managesituationGreatChange,historyprofitextroplaterate,ifhistoryprofitextroplate,IfprofitdisStableChangeRage,IfprofitdisStable,predicttype,predict,analyst_prediction,adj_prediction
0,600860,-109172195.28,-107597719.91,2013-12-31,年度报告,-76005574.45999998,2013,12,未知,未知,未知,未知,未知,未知,未知,未知,未知,未知
1,600860,45563218.38000001,47337245.00999999,2014-03-31,一季度报告,-19581959.55,2014,3,未知,未知,未知,未知,未知,未知,未知,未知,未知,未知
2,600860,17275548.04,20818005.76,2014-06-30,半年度报告,-45140213.05,2014,6,未知,未知,未知,未知,未知,未知,未知,未知,未知,未知
3,600860,87749056.13999999,90546441.99,2014-09-30,三季度报告,-77396434.28,2014,9,未知,未知,未知,未知,未知,未知,未知,未知,未知,未知
4,600860,13012018.14,21416206.700000007,2014-12-31,年度报告,-156817432.32000002,2014,12,-0.0,False,未知,未知,未知,未知,未知,未知,未知,未知
5,600860,-33024650.9,-25520328.32,2015-03-31,一季度报告,-24913669.16,2015,3,-3.3960597859768655,False,未知,未知,未知,未知,未知,未知,43000000.0,未知
6,600860,-66774862.03999999,-47824744.92999999,2015-06-30,半年度报告,-65371188.26000001,2015,6,-7.3194634999261075,False,未知,未知,未知,未知,未知,未知,,未知
7,600860,-119555593.59000003,-82464282.27000003,2015-09-30,三季度报告,-100210784.83000004,2015,9,-2.244140963816412,False,未知,未知,未知,未知,未知,未知,未知,未知
8,600860,-296719217.58000004,-207817373.56,2015-12-31,年度报告,-216232928.23,2015,12,-9.390104755879168,False,未知,未知,未知,未知,未知,未知,未知,未知
9,600860,-43664095.66,-30331649.3,2016-03-31,一季度报告,-32787270.49,2016,3,2.3057789349712703,False,未知,未知,未知,未知,未知,未知,未知,未知
10,600860,-81277417.71000001,-62164227.60000001,2016-06-30,半年度报告,-70312199.06,2016,6,0.6349295520012131,False,未知,未知,未知,未知,未知,未知,800000.0,未知
11,600860,-123024543.62,-91707896.04,2016-09-30,三季度报告,-103998142.79999998,2016,9,-0.08684995823456418,False,未知,未知,未知,未知,未知,未知,,未知
12,600860,-180657891.58000004,-148787585.19,2016-12-31,年度报告,-164874525.61999995,2016,12,-0.6320690106613486,False,-5.171353389834241,True,0.0,True,前期平均,-148787585.19,未知,-148787585.19
13,600860,-25852607.460000005,-18848577.87,2017-03-31,一季度报告,-20698394.36,2017,3,1.500273820625832,False,7.964766227026751,False,0.052545344011868944,True,去年同期,-150935832.99999994,未知,-150935832.99999994
14,600860,-48342697.75000001,-44049991.7,2017-06-30,半年度报告,-46841842.65,2017,6,0.34320452538895,False,-2.2839815804316004,True,0.08758243104825963,True,前期平均,-175319471.32,未知,-175319471.32
15,600860,-82902451.03000002,-68959329.42,2017-09-30,三季度报告,-75922899.89,2017,9,-0.11259825017345594,False,-6.735802352795861,True,0.10151966428089265,False,前期平均,-166680900.14,未知,-166680900.14
16,600860,23145632.899999995,20868364.009999994,2017-12-31,年度报告,-60775640.60000001,2017,12,-0.39569650500622777,False,-0.27355168946431024,True,0.0,True,盈利变化,-114087956.85000002,未知,-114087956.85000002
17,600860,-25533674.04,-21650195.02,2018-03-31,一季度报告,-21696484.220000006,2018,3,3.2228697994550366,False,-0.32577832812084484,True,0.12235412133328802,False,前期平均,-183353452.11999997,未知,-183353452.11999997
18,600860,-41124505.08000001,-28682450.33,2018-06-30,半年度报告,-30049827.550000004,2018,6,1.2582975373979823,False,-0.34695098472470487,True,0.27089681794804693,False,前期平均,-151394483.59499997,未知,-151394483.59499997
19,600860,-60020523.04999999,-44148603.58000001,2018-09-30,三季度报告,-58593950.40000001,2018,9,0.3168753628344923,False,-0.3164943182612523,True,0.4680847709223164,False,前期平均,-132597866.68999997,未知,-132597866.68999997
20,600860,-132644631.71999998,-93936155.29999997,2018-12-31,年度报告,-109732045.40000002,2018,12,-5.716751352260496,False,-1.0969700157627056,True,0.0,True,盈利变化,4549562.409999991,未知,4549562.409999991
21,600860,-30308926.81,-22586691.7,2019-03-31,一季度报告,-24280858.47000001,2019,3,3.2756163922581356,False,-0.2653945629175287,True,0.09485225689636606,True,前期平均,-108668942.38499998,未知,-108668942.38499998
22,600860,-48526476.74,-35573865.71000001,2019-06-30,半年度报告,-36309230.68000001,2019,6,1.6546749940850587,False,-0.36546106390885313,True,0.28038716777603373,False,前期平均,-89821927.96499999,未知,-89821927.96499999
23,600860,-81179643.46000001,-63858836.73,2019-09-30,三季度报告,-64624690.50999999,2019,9,0.8189144268045498,False,-0.4170698877821944,True,0.4445734545273585,False,前期平均,-86723398.49499997,未知,-86723398.49499997
24,600860,-162526740.29,-130036755.55,2019-12-31,年度报告,-135372524.72000003,2019,12,-0.1769573041564775,False,-0.6842451861410886,True,0.0,True,前期平均,-130036755.55,未知,-130036755.55
25,600860,-37776160.64,-25633092.04000001,2020-03-31,一季度报告,-25852569.17,2020,3,2.6019815536319215,False,-0.17965051859220438,True,0.1013518191250567,False,前期平均,-89689495.75000003,未知,-89689495.75000003
