,SECURITYCODE_x,NETPROFIT_x,PARENTNETPROFIT_x,REPORTDATE_x,REPORTTIMETYPE_x,KCFJCXSYJLR,Year,Month,managesituationChangeRate,managesituationGreatChange,historyprofitextroplaterate,ifhistoryprofitextroplate,IfprofitdisStableChangeRage,IfprofitdisStable,predicttype,predict,analyst_prediction,adj_prediction
0,600863,2055041352.9100003,1379732044.8499994,2013-12-31,年度报告,1424595762.24,2013,12,未知,未知,未知,未知,未知,未知,未知,未知,未知,未知
1,600863,1339002232.08,904238142.3200002,2014-06-30,半年度报告,825919404.85,2014,6,未知,未知,未知,未知,未知,未知,未知,未知,未知,未知
2,600863,2135382655.5100007,1433352786.57,2014-09-30,三季度报告,1314994437.0400002,2014,9,未知,未知,未知,未知,未知,未知,未知,未知,未知,未知
3,600863,2069030338.58,1362501284.1799998,2014-12-31,年度报告,1190991842.74,2014,12,0.0,True,未知,未知,未知,未知,未知,未知,未知,未知
4,600863,108927242.4,11859068.36,2015-03-31,一季度报告,18366354.630000006,2015,3,未知,未知,未知,未知,未知,未知,未知,未知,1720000000.0,未知
5,600863,779403491.71,472958960.23,2015-06-30,半年度报告,476535484.21,2015,6,0.5347557335417645,False,未知,未知,未知,未知,未知,未知,1250000000.0,未知
6,600863,1489148411.35,929432564.9400004,2015-09-30,三季度报告,931645832.1,2015,9,-0.03762384338595847,True,未知,未知,未知,未知,未知,未知,,未知
7,600863,1219408978.16,699146530.3900001,2015-12-31,年度报告,704443512.41,2015,12,-0.006761131245470478,True,未知,未知,未知,未知,未知,未知,未知,未知
8,600863,11180869.85,3737596.8200000008,2016-03-31,一季度报告,2705209.42,2016,3,17.86618358852349,False,未知,未知,未知,未知,未知,未知,未知,未知
9,600863,584898209.41,372959829.7,2016-06-30,半年度报告,369979620.11000013,2016,6,1.6366848170018704,False,未知,未知,未知,未知,未知,未知,未知,未知
10,600863,878170205.1500001,545280181.1399999,2016-09-30,三季度报告,539757461.6200001,2016,9,0.38001111054269293,True,未知,未知,未知,未知,未知,未知,568700000.0,未知
11,600863,646938367.2499999,384288280.49,2016-12-31,年度报告,300048525.04,2016,12,0.6852765476689445,False,0.4086383218428312,True,0.0,True,前期平均,384288280.49,未知,384288280.49
12,600863,-188564050.13,-126983955.53,2017-03-31,一季度报告,-164066180.76000002,2017,3,182.79977412133104,False,未知,未知,未知,未知,未知,未知,未知,未知
13,600863,360479833.48,322009801.43,2017-06-30,半年度报告,-23386635.97,2017,6,2.5135025545435794,False,0.44779396803784166,True,0.3653963847047129,False,前期平均,618500034.475,未知,618500034.475
14,600863,743714017.0200003,557003653.4,2017-09-30,三季度报告,203882075.66000003,2017,9,1.3401401469308323,False,0.5154296161623051,True,0.3903855575223285,False,前期平均,381401196.40499985,未知,381401196.40499985
15,600863,797115905.4800001,514139060.61,2017-12-31,年度报告,130130518.81,2017,12,2.176564348232356,False,0.6065377494079207,True,0.0,True,前期平均,514139060.61,,514139060.61
16,600863,32026447.4,4790599.05,2018-03-31,一季度报告,2094692.43,2018,3,-11.898373001074235,False,4.139905316928332,False,0.8522171717123608,False,前期平均,496500835.75,未知,496500835.75
17,600863,467040800.3300001,292644529.77,2018-06-30,半年度报告,286296864.73,2018,6,4.700849706545421,False,0.4715540804734461,True,0.7563234362124248,False,前期平均,371632996.3349999,未知,371632996.3349999
18,600863,824600972.2099999,537880335.5,2018-09-30,三季度报告,528099985.72,2018,9,1.7632144962715353,False,0.37168236515661235,True,0.24019882133119008,False,前期平均,304424707.3649999,未知,304424707.3649999
19,600863,1093502974.94,782659036.84,2018-12-31,年度报告,699497733.07,2018,12,1.5780960319346709,False,0.14580112063235534,True,0.0,True,前期平均,782659036.84,812830000.0,782659036.84
20,600863,227914076.06,176587530.69,2019-03-31,一季度报告,176862922.25000003,2019,3,63.167009448259954,False,-1.361099032607783,True,0.8445246449406039,False,前期平均,472357538.2850001,1273250000.0,1273250000.0
21,600863,861237864.8000003,739584948.5100003,2019-06-30,半年度报告,734824253.9800001,2019,6,3.4001323898425064,False,0.011949126928595469,True,0.7455198244702348,False,前期平均,781377978.3650002,1401666667.0,1401666667.0
22,600863,1187083561.7999995,1010616228.3499998,2019-09-30,三季度报告,1000822340.6699998,2019,9,1.4921646010218939,False,0.01684320118328146,True,0.6185702336778802,False,前期平均,853885981.6349998,1347302500.0,1347302500.0
23,600863,1193836469.51,1104058503.7899997,2019-12-31,年度报告,1091689249.12,2019,12,0.8793193983059436,False,0.5144901346023802,True,0.0,True,前期平均,1104058503.7899997,1347302500.0,1347302500.0
24,600863,103437849.49,128007185.68999998,2020-03-31,一季度报告,120982695.27,2020,3,8.01673730923489,False,-3.911940288917187,True,0.8955221714151513,False,前期平均,623807055.795,1313000000.0,1313000000.0
