,SECURITYCODE_x,NETPROFIT_x,PARENTNETPROFIT_x,REPORTDATE_x,REPORTTIMETYPE_x,KCFJCXSYJLR,Year,Month,managesituationChangeRate,managesituationGreatChange,historyprofitextroplaterate,ifhistoryprofitextroplate,IfprofitdisStableChangeRage,IfprofitdisStable,predicttype,predict,analyst_prediction,adj_prediction
0,600870,-347527429.00999993,-349117873.28,2013-12-31,年度报告,-435770315.47,2013,12,未知,未知,未知,未知,未知,未知,未知,未知,未知,未知
1,600870,-39801243.14,-39544781.83000001,2014-03-31,一季度报告,-35822334.17,2014,3,未知,未知,未知,未知,未知,未知,未知,未知,未知,未知
2,600870,-230315704.01999995,-228704899.01000005,2014-06-30,半年度报告,-152351378.42,2014,6,未知,未知,未知,未知,未知,未知,未知,未知,未知,未知
3,600870,-228606792.3,-226995987.29,2014-09-30,三季度报告,-153888007.86,2014,9,未知,未知,未知,未知,未知,未知,未知,未知,未知,未知
4,600870,-232302762.01,-230691957.0,2014-12-31,年度报告,-210892692.53000003,2014,12,-0.0,False,未知,未知,未知,未知,未知,未知,未知,未知
5,600870,2685886.49,2685886.49,2015-03-31,一季度报告,-687965.77,2015,3,7.73157222219366,False,未知,未知,未知,未知,未知,未知,未知,未知
6,600870,1396715.2499999998,1396715.2499999998,2015-06-30,半年度报告,-2020705.02,2015,6,0.5089176419330124,False,未知,未知,未知,未知,未知,未知,未知,未知
7,600870,6649639.949999997,6649639.949999997,2015-09-30,三季度报告,-2818249.3200000008,2015,9,0.5201973025978193,False,未知,未知,未知,未知,未知,未知,未知,未知
8,600870,13990274.45,13990274.45,2015-12-31,年度报告,3297590.9699999993,2015,12,0.49601074908889736,False,未知,未知,未知,未知,未知,未知,未知,未知
9,600870,1200201.89,1200201.89,2016-03-31,一季度报告,-340732.41,2016,3,-130.39021447998718,False,未知,未知,未知,未知,未知,未知,40976667.0,未知
10,600870,1217258.9799999995,1217258.9799999995,2016-06-30,半年度报告,-323605.78,2016,6,-249.81766631387464,False,未知,未知,未知,未知,未知,未知,22450000.0,未知
11,600870,903410.62,903410.62,2016-09-30,三季度报告,-116807.55,2016,9,-53.26259340703102,False,未知,未知,未知,未知,未知,未知,,未知
12,600870,-5102095.17,-5102095.17,2016-12-31,年度报告,-5811945.44,2016,12,-25.840644138328532,False,-1.04825645392969,True,0.0,True,盈利变化,10953762.313333333,未知,10953762.313333333
13,600870,305142.92,305142.92,2017-03-31,一季度报告,321073.21000000014,2017,3,-290.5574752094416,False,-1.064674140211987,True,0.21524675146384029,False,前期平均,-85237257.89,未知,-85237257.89
14,600870,-2650414.28,-2650414.28,2017-06-30,半年度报告,-1756819.62,2017,6,-286.49999196555535,False,-1.0106348449863458,True,0.6678852163104211,False,盈利变化,-6057571.0633333335,未知,-6057571.0633333335
15,600870,-5896167.539999999,-5470887.23,2017-09-30,三季度报告,-4599541.97,2017,9,-385.68379861418936,False,-1.008140405573193,True,0.8196912235079865,False,盈利变化,-7094421.5788888885,未知,-7094421.5788888885
16,600870,-13283561.53,-12302196.540000005,2017-12-31,年度报告,-12157771.26,2017,12,67.11465043879217,False,-0.9532587876486198,True,0.0,True,前期平均,-12302196.540000005,未知,-12302196.540000005
17,600870,-3053330.38,-2628575.61,2018-03-31,一季度报告,-2641575.61,2018,3,-1139.900515895961,False,0.8429562633879161,True,0.14982362876087513,False,盈利变化,-16252394.96666667,112900000.0,112900000.0
18,600870,-6984049.49,-6486190.129999999,2018-06-30,半年度报告,-7897301.02,2018,6,130.12192747844688,False,3.0278809558118716,False,0.47524852994393774,False,去年同期,-16887141.77,,-16887141.77
19,600870,-8398575.44,-8318835.869999999,2018-09-30,三季度报告,-9988624.28,2018,9,57.941240501113704,False,2.561267857365875,False,0.7025655554644142,False,去年同期,-15877065.16,未知,-15877065.16
20,600870,5187036.21,4553842.73,2018-12-31,年度报告,-11902951.15,2018,12,25.162217732430676,False,3.98903996229923,False,0.0,True,盈利变化,-12217256.503333338,未知,-12217256.503333338
21,600870,-414717.61,-414156.62,2019-03-31,一季度报告,-192907.59,2019,3,112.81913705977666,False,5.056652482164535,False,0.13721162600945525,False,去年同期,-9675532.16,未知,-9675532.16
22,600870,185493.17,422277.2300000001,2019-06-30,半年度报告,-1396817.92,2019,6,48.76016128001405,False,-8.746395927922116,True,0.37558906570786743,False,盈利变化,8887498.129999999,未知,8887498.129999999
23,600870,-1286457.92,-691567.78,2019-09-30,三季度报告,-2510662.5900000003,2019,9,40.379330517747896,False,-2.3643037602559676,True,0.4266417245512537,False,前期平均,-7318251.37,未知,-7318251.37
24,600870,1150060.0499999998,1878727.12,2019-12-31,年度报告,-2238224.4400000004,2019,12,-67.99922941351511,False,-1.5642481304461644,True,0.0,True,前期平均,1878727.12,未知,1878727.12
25,600870,-578256.22,-569973.38,2020-03-31,一季度报告,-641093.0099999999,2020,3,836.9857055262253,False,-0.6981882669677854,True,0.1280244412132903,False,前期平均,-11440083.385000002,未知,-11440083.385000002
