,SECURITYCODE_x,NETPROFIT_x,PARENTNETPROFIT_x,REPORTDATE_x,REPORTTIMETYPE_x,KCFJCXSYJLR,Year,Month,managesituationChangeRate,managesituationGreatChange,historyprofitextroplaterate,ifhistoryprofitextroplate,IfprofitdisStableChangeRage,IfprofitdisStable,predicttype,predict,analyst_prediction,adj_prediction
0,600859,696939457.7900001,694084547.3500001,2013-12-31,年度报告,589135586.12,2013,12,未知,未知,未知,未知,未知,未知,未知,未知,未知,未知
1,600859,222782602.38000005,222967149.45,2014-03-31,一季度报告,183550402.82999995,2014,3,未知,未知,未知,未知,未知,未知,未知,未知,未知,未知
2,600859,377479003.08,378048814.32,2014-06-30,半年度报告,316292304.00999993,2014,6,未知,未知,未知,未知,未知,未知,未知,未知,未知,未知
3,600859,486088540.4,486885973.5100001,2014-09-30,三季度报告,400453659.6300002,2014,9,未知,未知,未知,未知,未知,未知,未知,未知,未知,未知
4,600859,636165012.0000001,636078541.6300001,2014-12-31,年度报告,488463329.34,2014,12,0.0,True,未知,未知,未知,未知,未知,未知,未知,未知
5,600859,225445020.35,225657926.76000005,2015-03-31,一季度报告,187356795.6,2015,3,2.1283387946121177,False,未知,未知,未知,未知,未知,未知,670533570.0,未知
6,600859,462937234.50999993,463684163.5400001,2015-06-30,半年度报告,391814725.71,2015,6,0.8462999321906551,False,未知,未知,未知,未知,未知,未知,713505000.0,未知
7,600859,602975475.2099999,603182111.54,2015-09-30,三季度报告,500205722.9100001,2015,9,0.433770599110384,True,未知,未知,未知,未知,未知,未知,731529771.9999999,未知
8,600859,661354179.46,661245328.11,2015-12-31,年度报告,567056572.22,2015,12,0.09553251851895299,True,未知,未知,未知,未知,未知,未知,731529771.9999999,未知
9,600859,186760378.91,187254305.37000003,2016-03-31,一季度报告,148696232.71999997,2016,3,2.0913943306798797,False,未知,未知,未知,未知,未知,未知,692735128.0,未知
10,600859,429951201.41,413039266.3199998,2016-06-30,半年度报告,369066682.55,2016,6,0.5054728931616008,False,未知,未知,未知,未知,未知,未知,617219091.0,未知
11,600859,577403605.4100001,552181510.29,2016-09-30,三季度报告,474935184.5100001,2016,9,0.15583383809644177,True,未知,未知,未知,未知,未知,未知,602393960.0,未知
12,600859,803770487.7799999,767129800.4399999,2016-12-31,年度报告,350877160.86,2016,12,0.05380668851152593,True,0.007798421733322814,True,0.0,True,比例外推,767129800.4399999,567135544.0,567135544.0
13,600859,227017784.76,218661560.53,2017-03-31,一季度报告,181886892.63,2017,3,2.7317307978147545,False,0.1666717112501596,True,0.04713173457969988,True,前期平均,560967912.095,650740000.0,650740000.0
14,600859,324324060.32999986,308043726.64999986,2017-06-30,半年度报告,453517707.33,2017,6,0.6209733930372274,False,0.023186326439716572,True,0.25506426130428994,False,前期平均,481750162.56999993,839234443.9999999,839234443.9999999
15,600859,545879769.5300001,524167561.1399999,2017-09-30,三季度报告,657321866.8,2017,9,0.20702304464330548,True,0.060366694948759826,True,0.33506612848690076,False,平均增速,383122367.6815143,882153636.0,882153636.0
16,600859,741917798.5799999,719644449.83,2017-12-31,年度报告,750160629.2900001,2017,12,-0.13291235696531384,True,0.23893425711195504,True,0.0,True,比例外推,719644449.83,872933333.0,872933333.0
17,600859,462439904.4999999,454409189.42,2018-03-31,一季度报告,442724580.2499999,2018,3,2.0699773523329665,False,0.10147894795918348,True,0.09156745883256351,True,前期平均,745349541.8000001,1125496429.0,1125496429.0
18,600859,772088720.19,755989595.15,2018-06-30,半年度报告,731181309.3299999,2018,6,1.1488984106848683,False,0.27353956601346713,True,0.2693857217180462,False,前期平均,834515757.56,1156087500.0,1156087500.0
19,600859,1009367697.8499998,988838153.46,2018-09-30,三季度报告,948359340.0200002,2018,9,0.27672703165032414,True,0.07507718750272316,True,0.31626009349333817,False,平均增速,1119793081.988102,1164657895.0,1119793081.988102
20,600859,1226200603.57,1201427365.8799994,2018-12-31,年度报告,1065365982.67,2018,12,-0.060624426150830364,True,0.012770879051028269,True,0.0,True,比例外推,1201427365.8799994,1161251667.0,1201427365.8799994
21,600859,407279975.93,403205757.66,2019-03-31,一季度报告,394196697.63000005,2019,3,0.5070919507769258,False,1.235206906030977,True,0.11813915732885755,False,前期平均,788433090.0600002,1257474737.0,1257474737.0
22,600859,702201877.79,699475643.0799999,2019-06-30,半年度报告,544378838.94,2019,6,-0.09733241845769591,True,1.0472333095186157,True,0.27093337252834704,False,平均增速,1121148281.9391797,1152000000.0,1121148281.9391797
23,600859,845102904.4999999,847182698.4200001,2019-09-30,三季度报告,747509702.4899999,2019,9,-0.3095286690127754,True,0.7971737503974274,True,0.3135723202998897,False,平均增速,997377366.8473201,1136806000.0,1136806000.0
24,600859,945115498.13,961336746.95,2019-12-31,年度报告,919963292.99,2019,12,-0.4316268840833155,True,0.5866078748097736,True,0.0,True,比例外推,961336746.95,1129208000.0,1129208000.0
25,600859,-222163078.92,-202240261.09,2020-03-31,一季度报告,-135835119.07,2020,3,0.711204819727706,False,0.18145023914995181,True,0.11970831254497905,False,盈利变化,254627658.01666665,693965000.0,693965000.0
