,SECURITYCODE_x,NETPROFIT_x,PARENTNETPROFIT_x,REPORTDATE_x,REPORTTIMETYPE_x,KCFJCXSYJLR,Year,Month,managesituationChangeRate,managesituationGreatChange,historyprofitextroplaterate,ifhistoryprofitextroplate,IfprofitdisStableChangeRage,IfprofitdisStable,predicttype,predict,analyst_prediction,adj_prediction
0,600808,207935078.0,157220198.0,2013-12-31,年度报告,-445730363.00000006,2013,12,未知,未知,未知,未知,未知,未知,未知,未知,未知,未知
1,600808,-478449376.0,-445984347.0000001,2014-03-31,一季度报告,479705744.00000006,2014,3,未知,未知,未知,未知,未知,未知,未知,未知,未知,未知
2,600808,-763495494.9999998,-730266177.9999999,2014-06-30,半年度报告,-792094000.0,2014,6,未知,未知,未知,未知,未知,未知,未知,未知,未知,未知
3,600808,-357860159.0,-326318337.99999994,2014-09-30,三季度报告,-400623000.00000006,2014,9,未知,未知,未知,未知,未知,未知,未知,未知,未知,未知
4,600808,264047515.00000003,220616025.0,2014-12-31,年度报告,-154967146.99999997,2014,12,0.0,True,未知,未知,未知,未知,未知,未知,未知,未知
5,600808,-669116733.9999999,-595419113.9999999,2015-03-31,一季度报告,-667837279.0000001,2015,3,-1.4346020465914455,False,未知,未知,未知,未知,未知,未知,374369545.0,未知
6,600808,-1360303539.0000002,-1236592426.9999998,2015-06-30,半年度报告,-1345735510.0,2015,6,-1.2723461754021221,False,未知,未知,未知,未知,未知,未知,-1132086000.0,未知
7,600808,-2784890815.0,-2575382047.0000005,2015-09-30,三季度报告,-2762562000.0000005,2015,9,-1.5810512088885535,False,未知,未知,未知,未知,未知,未知,-2145066667.0,未知
8,600808,-5104484381.0,-4804299674.0,2015-12-31,年度报告,-5129504672.000001,2015,12,-0.21250886227806395,True,未知,未知,未知,未知,未知,未知,,未知
9,600808,-392851868.9999998,-348162808.0,2016-03-31,一季度报告,-403012000.0,2016,3,-1.3107605406263836,False,未知,未知,未知,未知,未知,未知,131000000.0,未知
10,600808,430918335.9999999,452752971.0,2016-06-30,半年度报告,469788228.0,2016,6,-1.1528593229661517,False,未知,未知,未知,未知,未知,未知,1161105200.0,未知
11,600808,767366444.9999999,759428563.0,2016-09-30,三季度报告,710186910.0,2016,9,-1.0746654327990235,False,未知,未知,未知,未知,未知,未知,895833333.0,未知
12,600808,1256695305.9999998,1228892407.0,2016-12-31,年度报告,1409936905.9999998,2016,12,-1.0407357653544753,False,22.629968802684214,False,0.0,True,前期平均,1228892407.0,939125000.0,939125000.0
13,600808,1009514668.9999996,901746797.0,2017-03-31,一季度报告,894603238.0000002,2017,3,-1.5292963949218223,False,-0.31533030545839347,True,2.0118073779741135,False,盈利变化,2959046057.666667,2204963349.0,2204963349.0
14,600808,1904133798.0000005,1643396514.0000002,2017-06-30,半年度报告,1531119148.0,2017,6,-0.5174605937399701,True,-1.405799540447479,True,3.209061502731589,False,平均增速,-3599668976.535018,3914714286.0,3914714286.0
15,600808,3321229860.9999995,2739863800.999999,2017-09-30,三季度报告,2636058869.0,2017,9,-0.729027664221101,True,-1.4883405979973774,True,1.3760535392418263,False,平均增速,-1004177007.3237886,3776333333.0,3776333333.0
16,600808,5072238129.000001,4128939861.000001,2017-12-31,年度报告,3969088696.000001,2017,12,-0.834538191551103,True,-1.51924871278757,True,0.0,True,比例外推,4128939861.000001,3776333333.0,4128939861.000001
17,600808,1629994828.9999998,1417961086.0,2018-03-31,一季度报告,894603238.0000002,2018,3,-0.7940247087187199,True,-2.9012137762795986,True,0.30908722958224244,False,平均增速,6867448538.153368,4521958571.0,4521958571.0
18,600808,3856245283.0,3428518932.9999995,2018-06-30,半年度报告,3056663762.999999,2018,6,-0.8907980740542477,True,-5.097620215715872,True,0.06475168234194423,True,比例外推,9716489529.072464,6561754545.0,6561754545.0
19,600808,6389633672.000001,5583446438.0,2018-09-30,三季度报告,5176626148.000001,2018,9,-0.9373921448672655,True,-4.292381406029807,True,0.0953433167715606,True,比例外推,9507719442.055874,7230342857.0,7230342857.0
20,600808,7057988694.0,5943286585.0,2018-12-31,年度报告,5092357115.000001,2018,12,-0.9590052610481451,True,-3.636442918327066,True,0.0,True,比例外推,5943286585.0,7145300000.0,7145300000.0
21,600808,168498986.0,83745945.99999999,2019-03-31,一季度报告,55940412.00000001,2019,3,-0.8724320627890777,True,4.286502863477416,False,0.3242473600957484,False,未知,未知,4252495000.0,未知
22,600808,1417679701.0000002,1144660010.9999998,2019-06-30,半年度报告,840593124.0,2019,6,-0.9460783578999323,True,2.302920073475327,False,0.16051060096430575,False,未知,未知,3597792500.0,未知
23,600808,1885266250.0,1464511184.9999998,2019-09-30,三季度报告,1452959100.0,2019,9,-0.9674574336066883,True,2.125587949401235,False,0.2884159827282362,False,未知,未知,2366600000.0,未知
24,600808,1713917868.9999998,1128148980.0,2019-12-31,年度报告,1635501579.0,2019,12,-0.9705390463182854,True,1.2303880318817095,True,0.0,True,比例外推,1128148980.0,1964250000.0,1964250000.0
25,600808,435700741.0,377406202.0,2020-03-31,一季度报告,355877293.99999994,2020,3,0.23404349744870276,True,0.8723255315976892,True,0.11088687321900959,False,平均增速,6035241877.473431,1285285714.0,1285285714.0
