,SECURITYCODE_x,NETPROFIT_x,PARENTNETPROFIT_x,REPORTDATE_x,REPORTTIMETYPE_x,KCFJCXSYJLR,Year,Month,managesituationChangeRate,managesituationGreatChange,historyprofitextroplaterate,ifhistoryprofitextroplate,IfprofitdisStableChangeRage,IfprofitdisStable,predicttype,predict,analyst_prediction,adj_prediction
0,600864,339318558.51,330435069.11,2013-12-31,年度报告,42062293.21,2013,12,未知,未知,未知,未知,未知,未知,未知,未知,未知,未知
1,600864,19267314.200000007,10827988.070000002,2014-03-31,一季度报告,12525476.79,2014,3,未知,未知,未知,未知,未知,未知,未知,未知,未知,未知
2,600864,67786751.35,62819306.42,2014-06-30,半年度报告,57606565.74,2014,6,未知,未知,未知,未知,未知,未知,未知,未知,未知,未知
3,600864,25466381.87,32570419.38,2014-09-30,三季度报告,21198957.6,2014,9,未知,未知,未知,未知,未知,未知,未知,未知,未知,未知
4,600864,307912149.16,291427773.0,2014-12-31,年度报告,25291964.969999995,2014,12,0.0,True,未知,未知,未知,未知,未知,未知,未知,未知
5,600864,64627290.7,55295088.43000001,2015-03-31,一季度报告,51271727.62,2015,3,16.611097996730646,False,未知,未知,未知,未知,未知,未知,未知,未知
6,600864,104246660.21999998,95167628.12999998,2015-06-30,半年度报告,88681064.82000001,2015,6,4.005676651444958,False,未知,未知,未知,未知,未知,未知,未知,未知
7,600864,834970964.6500001,375844151.42,2015-09-30,三季度报告,65899662.53999999,2015,9,12.324176172419893,False,未知,未知,未知,未知,未知,未知,未知,未知
8,600864,834970964.6500001,375844151.42,2015-09-30,三季度报告,65899662.53999999,2015,9,12.324176172419893,False,未知,未知,未知,未知,未知,未知,未知,未知
9,600864,834970964.6500001,835944039.92,2015-09-30,三季度报告,65899662.53999999,2015,9,12.324176172419893,False,未知,未知,未知,未知,未知,未知,未知,未知
10,600864,834970964.6500001,835944039.92,2015-09-30,三季度报告,65899662.53999999,2015,9,12.324176172419893,False,未知,未知,未知,未知,未知,未知,未知,未知
11,600864,978542663.91,458144700.04,2015-12-31,年度报告,71266215.42,2015,12,0.10199795440250813,True,未知,未知,未知,未知,未知,未知,未知,未知
12,600864,114238858.55999996,75599929.28,2016-03-31,一季度报告,40520317.22000001,2016,3,4.250391202148909,False,未知,未知,未知,未知,未知,未知,未知,未知
13,600864,279722273.53,182532398.89,2016-06-30,半年度报告,85321291.28999999,2016,6,2.2549585549686597,False,未知,未知,未知,未知,未知,未知,495300000.0,未知
14,600864,369134320.06,268043699.31000003,2016-09-30,三季度报告,155885476.97,2016,9,-0.5936163377223133,True,未知,未知,未知,未知,未知,未知,,未知
15,600864,453590812.63,342555588.3,2016-12-31,年度报告,236956186.57,2016,12,-0.653240915266615,True,2.0237831805994104,False,0.0,True,比例外推,342555588.3,未知,342555588.3
16,600864,114026887.75999998,106295970.65000002,2017-03-31,一季度报告,103958974.55,2017,3,1.9702551547447826,False,1.7233898698532388,True,0.29088934869295585,False,前期平均,122676458.64000002,未知,122676458.64000002
17,600864,259920119.35000005,255381047.88,2017-06-30,半年度报告,251097691.53,2017,6,0.21305520017378368,True,2.2519528733077716,False,0.9836300338578023,False,未知,未知,未知,未知
18,600864,312715009.94,321869463.36999995,2017-09-30,三季度报告,312029725.77,2017,9,-0.08077211987537133,True,0.14198443023667662,True,0.14904475395066985,False,平均增速,527505430.3144464,531000000.0,527505430.3144464
19,600864,362361820.17,358193485.00999993,2017-12-31,年度报告,339749016.11000013,2017,12,-0.25192806145571867,True,0.29482045071206286,True,0.0,True,比例外推,358193485.00999993,未知,358193485.00999993
20,600864,31461941.79000001,30120139.33,2018-03-31,一季度报告,28246091.459999993,2018,3,1.9757767240318482,False,0.2749968424070047,True,0.3206293135521549,False,前期平均,138335317.90499997,未知,138335317.90499997
21,600864,-122112587.71,-114861203.83,2018-06-30,半年度报告,-125104340.26,2018,6,0.3054724634574539,True,0.35386015119250563,True,0.4631954813080328,False,平均增速,-31478208.697746962,未知,-31478208.697746962
22,600864,-263230590.73999995,-240885899.45,2018-09-30,三季度报告,-259070908.5299999,2018,9,0.08507282261604379,True,0.48058527122017386,True,0.17579235117568304,False,平均增速,-219415946.4743137,未知,-219415946.4743137
23,600864,-175875095.02000004,-142058936.54000002,2018-12-31,年度报告,-262707479.75,2018,12,-0.06359185868199196,True,0.4939552407566682,True,0.0,True,比例外推,-142058936.54000002,,-142058936.54000002
24,600864,469864962.94,467903810.7399999,2019-03-31,一季度报告,461258437.1,2019,3,9.78504819489083,False,0.724339351854445,True,0.2306764438077919,False,前期平均,684016766.1949999,未知,684016766.1949999
25,600864,503328564.64,508092103.44,2019-06-30,半年度报告,470736384.51,2019,6,-3.7787353038151417,False,1.4525685502886505,True,0.21395093571331725,False,前期平均,628235213.37,856000000.0,856000000.0
26,600864,581982036.51,593707244.18,2019-09-30,三季度报告,549365258.3900001,2019,9,-2.2890544277399516,False,1.7721077931982423,True,0.1962790975764208,False,前期平均,648102244.15,,648102244.15
27,600864,245530909.76,245769868.14000005,2019-12-31,年度报告,188945886.34,2019,12,-2.9293155660920247,False,1.4310914333751754,True,0.0,True,前期平均,245769868.14000005,未知,245769868.14000005
28,600864,147257386.38,148228822.79999998,2020-03-31,一季度报告,141233247.65,2020,3,-0.2778381337760447,True,5.4591208052646,False,1.5613237300219018,False,未知,未知,未知,未知
