,SECURITYCODE_x,NETPROFIT_x,PARENTNETPROFIT_x,REPORTDATE_x,REPORTTIMETYPE_x,KCFJCXSYJLR,Year,Month,managesituationChangeRate,managesituationGreatChange,historyprofitextroplaterate,ifhistoryprofitextroplate,IfprofitdisStableChangeRage,IfprofitdisStable,predicttype,predict,analyst_prediction,adj_prediction
0,600816,250715307.20999995,250715307.20999995,2014-03-31,一季度报告,250715307.20999995,2014,3,未知,未知,未知,未知,未知,未知,未知,未知,未知,未知
1,600816,548444622.6800002,548444622.6800002,2014-06-30,半年度报告,548473197.68,2014,6,未知,未知,未知,未知,未知,未知,未知,未知,未知,未知
2,600816,820897634.4400003,820897634.4400003,2014-09-30,三季度报告,820926209.4399997,2014,9,未知,未知,未知,未知,未知,未知,未知,未知,未知,未知
3,600816,1023527923.64,1023527923.64,2014-12-31,年度报告,1028401788.98,2014,12,未知,未知,未知,未知,未知,未知,未知,未知,未知,未知
4,600816,205848067.97000003,205848067.97000003,2015-03-31,一季度报告,205870703.32000005,2015,3,0.0,True,未知,未知,未知,未知,未知,未知,,未知
5,600816,831605099.2900001,831605099.2900001,2015-06-30,半年度报告,790002963.3900001,2015,6,-0.5428612172640732,True,未知,未知,未知,未知,未知,未知,1484200000.0,未知
6,600816,1213557961.63,1213557961.63,2015-09-30,三季度报告,1171955825.7299998,2015,9,-0.6945839570106292,True,未知,未知,未知,未知,未知,未知,1524000000.0,未知
7,600816,1722148466.8099995,1722148466.8099995,2015-12-31,年度报告,1631997993.1599998,2015,12,-0.7550479069311814,True,未知,未知,未知,未知,未知,未知,1547333333.0,未知
8,600816,608183308.5400001,608183308.5400001,2016-03-31,一季度报告,608438308.5400001,2016,3,0.21796288730064156,True,未知,未知,未知,未知,未知,未知,2426600000.0,未知
9,600816,1392890350.2500002,1392890350.2500002,2016-06-30,半年度报告,1295403100.25,2016,6,-0.6985163902625738,True,未知,未知,未知,未知,未知,未知,2613400000.0,未知
10,600816,2310682001.92,2310682001.92,2016-09-30,三季度报告,2213194751.9200006,2016,9,-0.7934047526883268,True,未知,未知,未知,未知,未知,未知,2804757822.0,未知
11,600816,3033947447.7000003,3033947447.7000003,2016-12-31,年度报告,2935978113.3099995,2016,12,-0.8544171353156274,True,未知,未知,未知,未知,未知,未知,2813405822.0,未知
12,600816,1020135560.33,1020135560.33,2017-03-31,一季度报告,1020179435.33,2017,3,-0.5877635842853611,True,1.6641791330731426,True,0.06624455443888805,True,比例外推,5302592807.612613,3997536250.0,3997536250.0
13,600816,1612017249.5100002,1612017249.5100002,2017-06-30,半年度报告,1478696874.51,2017,6,-0.8200035579505588,True,1.0186089357152583,True,0.04712122153458337,True,比例外推,3174626374.696991,3657835114.0,3657835114.0
14,600816,2825288323.79,2825288323.79,2017-09-30,三季度报告,2692044802.99,2017,9,-0.8914972692037785,True,1.2715482278242807,True,0.04152636634917373,True,比例外推,3690723664.3062215,3730131105.0,3690723664.3062215
15,600816,3668212257.980001,3668212257.980001,2017-12-31,年度报告,3538433031.5100007,2017,12,-0.9173633322488614,True,1.2099818159581108,True,0.0,True,比例外推,3668212257.980001,3717005427.0,3668212257.980001
16,600816,1055975607.62,1055975607.62,2018-03-31,一季度报告,1056712540.35,2018,3,-0.754233342156118,True,1.5063789671195016,True,0.08108545488276647,True,比例外推,5098442640.686536,4004000000.0,4004000000.0
17,600816,1078505583.8200002,1078505583.8200002,2018-06-30,半年度报告,916800266.55,2018,6,-0.844471076667319,True,0.4493329261189062,True,0.03634307874886361,True,比例外推,2209377897.3912754,2123100000.0,2209377897.3912754
18,600816,24087323.590000004,24087323.590000004,2018-09-30,三季度报告,-137618256.18,2018,9,-0.9112602755977569,True,0.6033461699606064,True,0.02613260157140862,True,比例外推,-23204633.599671274,,-23204633.599671274
19,600816,-1833903571.58,-1832796150.45,2018-12-31,年度报告,-1997225417.68,2018,12,-0.931651908456338,True,0.5425308168361112,True,0.0,True,比例外推,-1832796150.45,4193511250.0,4193511250.0
20,600816,311884676.34,312107126.23,2019-03-31,一季度报告,312107126.23,2019,3,-0.7625747172559486,True,0.2970132912023705,True,0.5179099161107037,False,平均增速,-628103350.6350911,1763000000.0,1763000000.0
21,600816,10974000.64,11575714.02,2019-06-30,半年度报告,-93102906.94,2019,6,-0.7675345302135741,True,0.28217055066442664,True,0.5923955810420032,False,平均增速,-307259139.09200877,,-307259139.09200877
22,600816,-346182427.15000015,-345314377.27000004,2019-09-30,三季度报告,-449617558.2300001,2019,9,9.40859962183951,False,0.9906201469002178,True,0.45893683582795397,False,盈利变化,-1971462506.9166667,未知,-1971462506.9166667
23,600816,-3994103142.23,-3992827810.2599993,2019-12-31,年度报告,-3988170584.24,2019,12,-1.1367112813865106,False,1.547257496721777,True,0.0,True,前期平均,-3992827810.2599993,未知,-3992827810.2599993
24,600816,-665452527.7900001,-665452527.7900001,2020-03-31,一季度报告,-665302527.7900003,2020,3,-0.1961281645761796,True,0.6995491559847807,True,0.4227454094509964,False,平均增速,4521315936.329595,未知,4521315936.329595
