,SECURITYCODE_x,NETPROFIT_x,PARENTNETPROFIT_x,REPORTDATE_x,REPORTTIMETYPE_x,KCFJCXSYJLR,Year,Month,managesituationChangeRate,managesituationGreatChange,historyprofitextroplaterate,ifhistoryprofitextroplate,IfprofitdisStableChangeRage,IfprofitdisStable,predicttype,predict,analyst_prediction,adj_prediction
0,600867,179463060.36,183913362.89,2013-12-31,年度报告,182573557.78000003,2013,12,未知,未知,未知,未知,未知,未知,未知,未知,未知,未知
1,600867,79622002.35000002,80341053.72000001,2014-03-31,一季度报告,79301440.32,2014,3,未知,未知,未知,未知,未知,未知,未知,未知,未知,未知
2,600867,147979225.2,149115733.45000002,2014-06-30,半年度报告,146890436.10999998,2014,6,未知,未知,未知,未知,未知,未知,未知,未知,未知,未知
3,600867,217951896.96000004,219328706.07999995,2014-09-30,三季度报告,214833461.65,2014,9,未知,未知,未知,未知,未知,未知,未知,未知,未知,未知
4,600867,276539223.79,279780914.89000005,2014-12-31,年度报告,283467323.66,2014,12,0.0,True,未知,未知,未知,未知,未知,未知,未知,未知
5,600867,121229214.87,121972883.59,2015-03-31,一季度报告,120790491.87999998,2015,3,1.2539380455558207,False,未知,未知,未知,未知,未知,未知,391400000.0,未知
6,600867,261449294.32,262503090.24,2015-06-30,半年度报告,230252047.18,2015,6,0.21275848091141397,True,未知,未知,未知,未知,未知,未知,416833759.99999994,未知
7,600867,387478343.61,389089271.06000006,2015-09-30,三季度报告,356387264.67,2015,9,-0.17659326271917583,True,未知,未知,未知,未知,未知,未知,436373463.0,未知
8,600867,490064346.46,492958977.12,2015-12-31,年度报告,461746374.6300001,2015,12,-0.35103940084723123,True,未知,未知,未知,未知,未知,未知,441846739.0,未知
9,600867,160868327.02999997,161563137.53,2016-03-31,一季度报告,160066578.28,2016,3,0.4803614834299389,True,未知,未知,未知,未知,未知,未知,606298186.0,未知
10,600867,314289186.87000006,315173554.0,2016-06-30,半年度报告,312124810.57999986,2016,6,-0.3135836880846701,True,未知,未知,未知,未知,未知,未知,619889286.0,未知
11,600867,500137654.4799999,500469547.03,2016-09-30,三季度报告,495247903.33,2016,9,-0.5368436370197995,True,未知,未知,未知,未知,未知,未知,622381808.0,未知
12,600867,639205974.8900001,640923429.97,2016-12-31,年度报告,623056668.38,2016,12,-0.6337969459391224,True,1.1493942618006507,True,0.0,True,比例外推,640923429.97,621320046.0,640923429.97
13,600867,209984531.61,210294626.66,2017-03-31,一季度报告,209987099.05,2017,3,0.11558977253820979,True,0.6018655924180408,True,0.013670019362077068,True,比例外推,789480180.0575825,834797362.0,789480180.0575825
14,600867,410246006.46,410390679.13,2017-06-30,半年度报告,405770058.63000005,2017,6,-0.428987480774413,True,0.5352579113856649,True,0.012257137440439214,True,比例外推,806641330.4273391,838463500.0,806641330.4273391
15,600867,648596317.8599999,648588687.7799999,2017-09-30,三季度报告,641473697.2000003,2017,9,-0.6411726676596861,True,0.6521726896533303,True,0.020011416154888884,True,比例外推,834976021.5774959,841821203.0,834976021.5774959
16,600867,840097956.16,836553622.8899999,2017-12-31,年度报告,834872869.26,2017,12,-0.7192406400911951,True,0.6676310930342947,True,0.0,True,比例外推,836553622.8899999,841169283.0,836553622.8899999
17,600867,273188319.13,273802171.73,2018-03-31,一季度报告,269265395.8000001,2018,3,-0.1453510456983894,True,0.4887370531178672,True,0.005153505974828054,True,比例外推,1053595391.7734288,1083181818.0,1053595391.7734288
18,600867,535518243.46,536705028.0499999,2018-06-30,半年度报告,520304920.5799999,2018,6,-0.5625476969085423,True,0.4251123378519292,True,0.00918660397735982,True,比例外推,1067069543.9741359,1085659565.0,1067069543.9741359
19,600867,686136406.19,687607884.8600001,2018-09-30,三季度报告,665066592.0499997,2018,9,-0.7233054591612139,True,0.46143449251854385,True,0.016520878094576363,True,比例外推,877001266.3039889,958158667.0,877001266.3039889
20,600867,838924393.1700003,838605479.74,2018-12-31,年度报告,814320928.6900003,2018,12,-0.7863784109411396,True,0.4878597980963398,True,0.0,True,比例外推,838605479.74,939241429.0000001,939241429.0000001
21,600867,273388540.5299999,273628615.74,2019-03-31,一季度报告,270372598.3699999,2019,3,-0.3430793053981187,True,0.47329763147487874,True,0.05096660837525102,True,比例外推,969922330.4185683,988569443.9999999,969922330.4185683
22,600867,530655630.8900001,532144473.7100001,2019-06-30,半年度报告,525532028.78,2019,6,-0.6648796515306675,True,0.4782394240885148,True,0.09696771448156927,True,比例外推,976272370.6288879,989643684.0000001,976272370.6288879
23,600867,686108687.0400001,688124696.4300001,2019-09-30,三季度报告,687657261.4499997,2019,9,-0.7384440488203677,True,0.1945958293412758,True,0.02496112296080044,True,比例外推,867287711.1707295,951806923.0,867287711.1707295
24,600867,809644781.7700001,811206148.0299999,2019-12-31,年度报告,809336530.9699997,2019,12,-0.7860795778247999,True,0.13421505285196844,True,0.0,True,比例外推,811206148.0299999,953326429.0000001,953326429.0000001
25,600867,277081601.8099999,277469039.4700001,2020-03-31,一季度报告,279433921.95000005,2020,3,-0.34356041400972004,True,0.1316386676581418,True,0.05389658879254311,True,比例外推,912962692.5727916,982455000.0,912962692.5727916
