,SECURITYCODE_x,NETPROFIT_x,PARENTNETPROFIT_x,REPORTDATE_x,REPORTTIMETYPE_x,KCFJCXSYJLR,Year,Month,managesituationChangeRate,managesituationGreatChange,historyprofitextroplaterate,ifhistoryprofitextroplate,IfprofitdisStableChangeRage,IfprofitdisStable,predicttype,predict,analyst_prediction,adj_prediction
0,600886,5877018770.040002,3305278967.24,2013-12-31,年度报告,3278140201.28,2013,12,未知,未知,未知,未知,未知,未知,未知,未知,未知,未知
1,600886,1508056428.79,842657787.9999999,2014-03-31,一季度报告,836786510.6299998,2014,3,未知,未知,未知,未知,未知,未知,未知,未知,未知,未知
2,600886,3432534943.52,2015893650.34,2014-06-30,半年度报告,1801382725.45,2014,6,未知,未知,未知,未知,未知,未知,未知,未知,未知,未知
3,600886,8399467010.099997,4641548483.51,2014-09-30,三季度报告,4463963682.34,2014,9,未知,未知,未知,未知,未知,未知,未知,未知,未知,未知
4,600886,10164421537.330002,5599833222.7300005,2014-12-31,年度报告,5431682000.52,2014,12,0.0,True,未知,未知,未知,未知,未知,未知,未知,未知
5,600886,2290774318.9600005,1226128409.2800002,2015-03-31,一季度报告,1223998953.7,2015,3,2.897081473771821,False,未知,未知,未知,未知,未知,未知,6221333333.000001,未知
6,600886,4553369526.809999,2450054443.45,2015-06-30,半年度报告,2427072725.41,2015,6,0.7121511846907026,False,未知,未知,未知,未知,未知,未知,6659441505.0,未知
7,600886,8448487310.1900015,4536107583.69,2015-09-30,三季度报告,4509776093.820001,2015,9,-0.30031051220593635,True,未知,未知,未知,未知,未知,未知,6177900000.0,未知
8,600886,10102582821.57,5427522203.84,2015-12-31,年度报告,5603740502.410003,2015,12,-0.4218048957871358,True,未知,未知,未知,未知,未知,未知,6273133333.000001,未知
9,600886,2308556528.7100005,1241174650.3,2016-03-31,一季度报告,1239578265.95,2016,3,1.5655162629499608,False,未知,未知,未知,未知,未知,未知,5445966666.999999,未知
10,600886,3232389460.610001,1486337963.33,2016-06-30,半年度报告,2029627635.3,2016,6,0.29069664463567596,True,未知,未知,未知,未知,未知,未知,4768031667.0,未知
11,600886,6772476389.209998,3409231824.67,2016-09-30,三季度报告,3822036595.339999,2016,9,-0.3043702908860934,True,未知,未知,未知,未知,未知,未知,4241550000.0,未知
12,600886,7859609801.91,3916447642.38,2016-12-31,年度报告,4325075420.599999,2016,12,-0.41826571740723634,True,0.2595605666317279,True,0.0,True,比例外推,3916447642.38,6231566666.999999,6231566666.999999
13,600886,1853382893.0,930007096.7100002,2017-03-31,一季度报告,923927597.13,2017,3,1.5457547592841594,False,0.21540372920132303,True,0.0669078110276041,True,前期平均,5417325616.010002,3913533333.0,3913533333.0
14,600886,2652979952.03,1290029977.9800005,2017-06-30,半年度报告,1265733273.39,2017,6,0.8181654289056242,False,0.19047630168397703,True,0.0796997238158822,True,前期平均,4693513504.015003,4082300000.0,4082300000.0
15,600886,5870924161.660001,2952819231.0,2017-09-30,三季度报告,2934228838.1900005,2017,9,-0.13222011679459697,True,0.19604763160428296,True,0.04692238361475021,True,比例外推,3525203349.704967,3755575714.0,3525203349.704967
16,600886,6559490691.400001,3232300015.74,2017-12-31,年度报告,3213090035.220001,2017,12,-0.2522505673739935,True,0.22439353515424193,True,0.0,True,比例外推,3232300015.74,3838128750.0,3838128750.0
17,600886,1975281942.83,989237776.21,2018-03-31,一季度报告,977851802.2499998,2018,3,2.1709684988659284,False,0.19406411307031113,True,0.04576770348704726,True,前期平均,4721857127.890001,3756701667.0,3756701667.0
18,600886,3092647847.08,1570506929.0499995,2018-06-30,半年度报告,1557096650.36,2018,6,1.2152518587797998,False,0.3185044755902136,True,0.03817532737556106,True,前期平均,4306564710.200001,3798982222.0,3798982222.0
19,600886,6994561198.369998,3595335877.63,2018-09-30,三季度报告,3565884276.98,2018,9,0.0010381003419873544,True,0.22857392243942756,True,0.06244805086187011,True,比例外推,4141271875.256607,3897333750.0,4141271875.256607
20,600886,8376852234.419998,4364098425.7,2018-12-31,年度报告,4185306141.52,2018,12,-0.10404343164245544,True,0.26963363227432496,True,0.0,True,比例外推,4364098425.7,3895074444.0,3895074444.0
21,600886,2026846508.38,1049957150.74,2019-03-31,一季度报告,1039683959.8699998,2019,3,1.9752809675463123,False,0.05078774932364431,True,0.03562509801120842,True,前期平均,3737286947.1100006,4693492308.0,4693492308.0
22,600886,4103117740.319999,2276029341.2200003,2019-06-30,半年度报告,2250127066.77,2019,6,0.9003194222675351,False,0.05096133487829111,True,0.05752355094094841,True,前期平均,4397431614.785,4935700000.0,4935700000.0
23,600886,7953832843.480001,4332672876.790001,2019-09-30,三季度报告,4248741923.2399993,2019,9,-0.15977305747077122,True,0.10643670114345916,True,0.030967241943685275,True,比例外推,4895817240.318756,4980115625.0,4895817240.318756
24,600886,8731062250.95,4755460882.370001,2019-12-31,年度报告,4224542774.73,2019,12,-0.2984215782281949,True,0.16191051422473796,True,0.0,True,比例外推,4755460882.370001,4989167152.0,4755460882.370001
25,600886,2198984413.8,1477728662.4899995,2020-03-31,一季度报告,900313146.9200002,2020,3,1.8995874851605479,False,0.058774583458992544,True,0.03178576129732763,True,前期平均,4226037051.17,5091133333.0,5091133333.0
