,SECURITYCODE_x,NETPROFIT_x,PARENTNETPROFIT_x,REPORTDATE_x,REPORTTIMETYPE_x,KCFJCXSYJLR,Year,Month,managesituationChangeRate,managesituationGreatChange,historyprofitextroplaterate,ifhistoryprofitextroplate,IfprofitdisStableChangeRage,IfprofitdisStable,predicttype,predict,analyst_prediction,adj_prediction
0,600853,18103732.21,17217450.5,2013-12-31,年度报告,16472748.62,2013,12,未知,未知,未知,未知,未知,未知,未知,未知,未知,未知
1,600853,-8794979.42,-10639909.7,2014-03-31,一季度报告,-17841720.919999998,2014,3,未知,未知,未知,未知,未知,未知,未知,未知,未知,未知
2,600853,4637647.68,3399286.5300000007,2014-06-30,半年度报告,-4223108.72,2014,6,未知,未知,未知,未知,未知,未知,未知,未知,未知,未知
3,600853,15937997.23,13503936.65,2014-09-30,三季度报告,6172398.420000001,2014,9,未知,未知,未知,未知,未知,未知,未知,未知,未知,未知
4,600853,18827167.76,18013318.119999994,2014-12-31,年度报告,16150544.25,2014,12,0.0,True,未知,未知,未知,未知,未知,未知,未知,未知
5,600853,-9004337.799999999,-9818846.270000003,2015-03-31,一季度报告,-9695064.05,2015,3,-3.0584166654024987,False,未知,未知,未知,未知,未知,未知,未知,未知
6,600853,1101780.83,1051231.58,2015-06-30,半年度报告,2785457.54,2015,6,2.903645438197669,False,未知,未知,未知,未知,未知,未知,未知,未知
7,600853,1101780.83,1051231.58,2015-06-30,半年度报告,-378409.58,2015,6,2.903645438197669,False,未知,未知,未知,未知,未知,未知,未知,未知
8,600853,11772889.68,11411745.4,2015-09-30,三季度报告,10045456.57,2015,9,0.13588501420513802,True,未知,未知,未知,未知,未知,未知,未知,未知
9,600853,11772889.68,11411745.4,2015-09-30,三季度报告,9993414.65,2015,9,0.13588501420513802,True,未知,未知,未知,未知,未知,未知,未知,未知
10,600853,25310268.83000001,25185988.879999995,2015-12-31,年度报告,19641714.37,2015,12,-0.03842508651444665,True,未知,未知,未知,未知,未知,未知,22400000.0,未知
11,600853,-12340982.51,-11906286.21,2016-03-31,一季度报告,-11888678.67,2016,3,-3.0105567574330676,False,未知,未知,未知,未知,未知,未知,30700000.0,未知
12,600853,632799.0700000001,1965870.1900000004,2016-06-30,半年度报告,286181.2,2016,6,15.431337083619436,False,未知,未知,0.0,True,未知,未知,,未知
13,600853,7021398.099999998,7856007.790000001,2016-09-30,三季度报告,15262695.54,2016,9,0.5377475455966391,False,未知,未知,0.43226430779053127,False,未知,未知,31100000.0,未知
14,600853,27616039.69,29307233.95,2016-12-31,年度报告,28371358.39,2016,12,-0.2847277786104813,True,0.3706824827209869,True,0.22495610440849284,False,平均增速,29307233.95,,29307233.95
15,600853,-11376622.470000004,-6177752.670000001,2017-03-31,一季度报告,-6113734.38,2017,3,-2.466960365216497,False,-0.38668043919495926,True,0.09501275473615978,True,前期平均,25486769.125,66940000.0,66940000.0
16,600853,16209305.080000002,18991962.02,2017-06-30,半年度报告,15141570.49,2017,6,27.608974109269784,False,0.779490564645085,True,0.0,True,前期平均,37606916.92,,37606916.92
17,600853,29894028.75000001,37811245.36,2017-09-30,三季度报告,34254769.480000004,2017,9,1.5783657260510562,False,0.49323902025913197,True,0.2710827664171578,False,前期平均,47598447.175,,47598447.175
18,600853,134368808.47,139287083.83,2017-12-31,年度报告,123030880.78000002,2017,12,-0.3444486460324898,True,0.2513658165756198,True,0.08157023689665925,True,比例外推,139287083.83,未知,139287083.83
19,600853,-8882296.929999998,-6092667.190000001,2018-03-31,一季度报告,-6374018.07,2018,3,-2.591309921528933,False,-0.06595940513201932,True,0.1641826311229791,False,前期平均,28705740.55,未知,28705740.55
20,600853,19315851.37,21143766.23,2018-06-30,半年度报告,20762254.73,2018,6,0.11687281599366373,True,17.689603263591376,False,0.0,True,比例外推,226902198.3396735,183740000.0,183740000.0
21,600853,84274606.87,87447604.40000002,2018-09-30,三季度报告,87149942.96999998,2018,9,-0.3944030641905369,True,2.1811823996663326,False,0.24806673876467883,False,未知,未知,,未知
22,600853,147580556.67000002,146285507.41,2018-12-31,年度报告,144263385.63,2018,12,-0.8652683430318432,True,4.077580969744911,False,0.08227214536379919,True,比例外推,146285507.41,未知,146285507.41
23,600853,-9404916.19,-5975617.8199999975,2019-03-31,一季度报告,-6609468.259999999,2019,3,-3.038181379509456,False,-0.250995457805285,True,0.1950720233765008,False,前期平均,78726708.29,未知,78726708.29
24,600853,23788732.4,31219844.980000004,2019-06-30,半年度报告,30495060.8,2019,6,-0.06275256196486255,True,1.2937575017905347,True,0.0,True,比例外推,330903985.53731716,未知,330903985.53731716
25,600853,97089059.15,103685148.02,2019-09-30,三季度报告,102768738.71,2019,9,-0.7851816474453998,True,3.56582052876899,False,0.01122056846507652,True,比例外推,217958790.20313606,未知,217958790.20313606
26,600853,226072769.79999995,223208401.51,2019-12-31,年度报告,219531965.51,2019,12,-0.8773298284103836,True,0.8221526068194701,True,未知,未知,True,True,未知,True
27,600853,-7338955.590000003,-4389023.51,2020-03-31,一季度报告,-4642383.23,2020,3,-2.9249222262341075,False,-0.07152834716347226,True,未知,未知,前期平均,135501985.92000002,未知,135501985.92000002
