,SECURITYCODE_x,NETPROFIT_x,PARENTNETPROFIT_x,REPORTDATE_x,REPORTTIMETYPE_x,KCFJCXSYJLR,Year,Month,managesituationChangeRate,managesituationGreatChange,historyprofitextroplaterate,ifhistoryprofitextroplate,IfprofitdisStableChangeRage,IfprofitdisStable,predicttype,predict,analyst_prediction,adj_prediction
0,600887,3201196795.150001,3187239562.47,2013-12-31,年度报告,2200828027.44,2013,12,未知,未知,未知,未知,未知,未知,未知,未知,未知,未知
1,600887,1087975791.0400002,1084216403.49,2014-03-31,一季度报告,997986719.85,2014,3,未知,未知,未知,未知,未知,未知,未知,未知,未知,未知
2,600887,2306323515.11,2292872763.54,2014-06-30,半年度报告,2090900516.59,2014,6,未知,未知,未知,未知,未知,未知,未知,未知,未知,未知
3,600887,3576957195.660001,3558062782.140001,2014-09-30,三季度报告,3286692980.400001,2014,9,未知,未知,未知,未知,未知,未知,未知,未知,未知,未知
4,600887,4166538132.55,4144280536.11,2014-12-31,年度报告,3767648982.96,2014,12,0.0,True,未知,未知,未知,未知,未知,未知,未知,未知
5,600887,1310314839.85,1302767938.39,2015-03-31,一季度报告,1259420160.5500007,2015,3,1.9423419358347715,False,未知,未知,未知,未知,未知,未知,5429748782.0,未知
6,600887,2674276708.63,2662178434.37,2015-06-30,半年度报告,2477251890.7100005,2015,6,0.38800856609109324,True,未知,未知,未知,未知,未知,未知,5033870468.0,未知
7,600887,3655691898.109999,3637308160.0299993,2015-09-30,三季度报告,3326076788.53,2015,9,-0.10505029273649624,True,未知,未知,未知,未知,未知,未知,4505611875.0,未知
8,600887,3655691898.109999,3637308160.0299993,2015-09-30,三季度报告,3426791662.0000005,2015,9,-0.10505029273649624,True,未知,未知,未知,未知,未知,未知,4505611875.0,未知
9,600887,4654425081.050001,4631791823.05,2015-12-31,年度报告,4018368911.660001,2015,12,-0.23168906816393206,True,未知,未知,未知,未知,未知,未知,4542807000.0,未知
10,600887,1556893471.4999998,1553738790.5900002,2016-03-31,一季度报告,1412145214.6099994,2016,3,1.4430745175079163,False,未知,未知,未知,未知,未知,未知,5180156758.0,未知
11,600887,3222103211.22,3211489121.3700004,2016-06-30,半年度报告,2549679214.0400014,2016,6,0.19703274714228647,True,未知,未知,未知,未知,未知,未知,5542032593.0,未知
12,600887,4405051174.920001,4389943211.6,2016-09-30,三季度报告,3599289739.99,2016,9,-0.12432533036905356,True,未知,未知,0.0,True,未知,未知,5508679125.0,未知
13,600887,5669035236.870001,5661807747.14,2016-12-31,年度报告,4526898436.24,2016,12,-0.3122250891558369,True,0.26346160026769083,True,0.03186496166603048,True,比例外推,5661807747.14,5517697089.0,5661807747.14
14,600887,1736359693.3000002,1733653346.7000005,2017-03-31,一季度报告,1655772676.22,2017,3,1.056143759191042,False,0.2983359493192366,True,0.03825785710768892,True,前期平均,4497958853.81,6142310009.0,6142310009.0
15,600887,3367763211.15,3364111100.93,2017-06-30,半年度报告,3118513161.059999,2017,6,-0.006488437737561749,True,0.29386140885665346,True,0.04062800497291774,True,比例外推,5638858468.426519,6218523478.0,5638858468.426519
16,600887,4939016206.400001,4937267331.789999,2017-09-30,三季度报告,4562628012.070001,2017,9,-0.2732895333030638,True,0.21810172671432038,True,0.0,True,比例外推,5860427561.129412,6448622667.0,5860427561.129412
17,600887,6002814975.110001,6000884926.879997,2017-12-31,年度报告,5328249297.18,2017,12,-0.43531894557115997,True,0.2853551476395649,True,0.0013775021827133749,True,比例外推,6000884926.879997,6462631276.0,6000884926.879997
18,600887,2106241749.01,2100235524.4000003,2018-03-31,一季度报告,1997947007.12,2018,3,0.8436253775656569,False,0.21118489118947253,True,0.028152011548272626,True,前期平均,5037086510.77,7491104091.000001,7491104091.000001
19,600887,3468664059.28,3445830923.470001,2018-06-30,半年度报告,3228022428.26,2018,6,-0.049459063941470253,True,0.14231554171484714,True,0.03128267252459427,True,比例外推,5704563857.048859,6725333943.0,6725333943.0
20,600887,5055670258.03,5047818747.67,2018-09-30,三季度报告,4687573759.18,2018,9,-0.35185537739238937,True,0.2254493566294613,True,0.0,True,比例外推,6032717400.830824,6345445625.0,6032717400.830824
21,600887,6451996108.27,6439749610.82,2018-12-31,年度报告,5878050473.249998,2018,12,-0.4667173970173319,True,0.1629462971228747,True,0.019033393451427072,True,比例外推,6439749610.82,6338516000.0,6439749610.82
22,600887,2280462693.72,2275767650.2000003,2019-03-31,一季度报告,2181704582.46,2019,3,0.5198619990581159,False,0.27912531688884745,True,0.019388024781894164,True,前期平均,5669382571.495001,7160660278.0,7160660278.0
23,600887,3798421658.68,3780531530.8600006,2019-06-30,半年度报告,3518686976.399999,2019,6,-0.07710959019349889,True,0.05272666757106107,True,0.040019224178936774,True,比例外推,6479802193.232588,7020046286.000001,6479802193.232588
24,600887,5648477049.169999,5630691954.670001,2019-09-30,三季度报告,5263866601.48,2019,9,-0.36681060437723556,True,0.08211339916853297,True,0.0,True,比例外推,6815352008.703872,7074300857.000001,6815352008.703872
25,600887,6950726155.120003,6933763430.469999,2019-12-31,年度报告,6268158933.700001,2019,12,-0.503843966823416,True,0.10556526876050272,True,0.02215128535391131,True,比例外推,6933763430.469999,7078164545.0,6933763430.469999
26,600887,1152255410.95,1142854815.45,2020-03-31,一季度报告,1368567137.93,2020,3,0.4037488111362417,True,0.1869368853143861,True,未知,未知,True,True,6289263158.0,6289263158.0
