,SECURITYCODE_x,NETPROFIT_x,PARENTNETPROFIT_x,REPORTDATE_x,REPORTTIMETYPE_x,KCFJCXSYJLR,Year,Month,managesituationChangeRate,managesituationGreatChange,historyprofitextroplaterate,ifhistoryprofitextroplate,IfprofitdisStableChangeRage,IfprofitdisStable,predicttype,predict,analyst_prediction,adj_prediction
0,600885,472181954.8400001,328184589.90000004,2013-12-31,年度报告,285504258.07000005,2013,12,未知,未知,未知,未知,未知,未知,未知,未知,未知,未知
1,600885,110049740.84,78506464.75,2014-03-31,一季度报告,68683516.01,2014,3,未知,未知,未知,未知,未知,未知,未知,未知,未知,未知
2,600885,281629088.94000006,208100841.34,2014-06-30,半年度报告,192791348.39,2014,6,未知,未知,未知,未知,未知,未知,未知,未知,未知,未知
3,600885,591580736.1599997,429869391.8,2014-12-31,年度报告,399423007.24,2014,12,0.0,True,未知,未知,未知,未知,未知,未知,未知,未知
4,600885,160363917.48000002,114460233.89,2015-03-31,一季度报告,105521887.56,2015,3,3.290623051320946,False,未知,未知,未知,未知,未知,未知,568811522.0,未知
5,600885,374128760.62,273190144.93,2015-06-30,半年度报告,256963325.16000003,2015,6,0.6766093183669551,False,未知,未知,未知,未知,未知,未知,565092290.0,未知
6,600885,553023241.98,401396090.8000001,2015-09-30,三季度报告,380715488.67,2015,9,未知,未知,未知,未知,未知,未知,未知,未知,537574320.0,未知
7,600885,660206799.5699999,472302442.71,2015-12-31,年度报告,447097517.71,2015,12,-0.2018300698819694,True,未知,未知,未知,未知,未知,未知,532698600.0,未知
8,600885,187103811.81,134141291.95000003,2016-03-31,一季度报告,131762460.24,2016,3,1.944440135037789,False,未知,未知,未知,未知,未知,未知,590600000.0,未知
9,600885,453587888.93000007,326541090.64,2016-06-30,半年度报告,318215087.42,2016,6,0.26208408585725396,True,未知,未知,未知,未知,未知,未知,603682727.0,未知
10,600885,665557325.84,478360592.19,2016-09-30,三季度报告,464907187.2,2016,9,-0.14618063221097594,True,未知,未知,未知,未知,未知,未知,602180000.0,未知
11,600885,811023323.0799999,581768473.46,2016-12-31,年度报告,565539257.68,2016,12,-0.28479689220477966,True,0.24126707047671797,True,0.0,True,比例外推,581768473.46,601248333.0,581768473.46
12,600885,224982222.71,165754478.65999997,2017-03-31,一季度报告,161236793.16999996,2017,3,1.5236362117490743,False,0.3838340339198882,True,0.04169574264969242,True,前期平均,501912039.34999996,752607910.0,752607910.0
13,600885,549794731.23,403644389.39,2017-06-30,半年度报告,398901415.1,2017,6,0.04099330331297614,True,0.3834005623702351,True,0.05735430147772036,True,比例外推,743409736.301343,756763636.0,743409736.301343
14,600885,798821972.4,583369918.96,2017-09-30,三季度报告,568413227.6800001,2017,9,-0.2905465291903156,True,未知,未知,未知,未知,未知,未知,738761312.9999999,未知
15,600885,957674073.4699998,684991715.06,2017-12-31,年度报告,633358517.61,2017,12,-0.41779485077345463,True,0.2957843083283921,True,0.0,True,比例外推,684991715.06,739012067.0,684991715.06
16,600885,226580349.68000004,166856452.38000005,2018-03-31,一季度报告,159083097.59,2018,3,1.0987522887470014,False,0.2949819723962199,True,0.013382559060375582,True,前期平均,554532666.175,840059252.0,840059252.0
17,600885,500608887.62000006,367317823.28999984,2018-06-30,半年度报告,344112886.08999985,2018,6,-0.14116682460081917,True,0.328461210799381,True,0.04074214832955869,True,比例外推,607360829.1451473,736173570.9999999,736173570.9999999
18,600885,799001154.9799997,588417534.26,2018-09-30,三季度报告,552857934.9300001,2018,9,-0.40890214446484835,True,0.31106960589247823,True,0.04044368635140694,True,比例外推,680656602.4708291,719593333.0,680656602.4708291
19,600885,960333275.3400002,698846322.9499997,2018-12-31,年度报告,645218860.4000001,2018,12,-0.5069492138080819,True,0.30186849592914006,True,0.0,True,比例外推,698846322.9499997,717732500.0,698846322.9499997
20,600885,217996981.34000003,157495547.55999997,2019-03-31,一季度报告,149963585.03000003,2019,3,1.0839492723303843,False,0.09967497415398724,True,0.011720013169432997,True,前期平均,610444808.5,824132941.0,824132941.0
21,600885,482604061.9299998,354754960.48,2019-06-30,半年度报告,333915283.19,2019,6,-0.0567847145406219,True,0.0021575467588373707,True,0.05454523415296908,True,比例外推,601285252.4762869,784850526.0,784850526.0
22,600885,758683179.14,555822408.6200001,2019-09-30,三季度报告,526299479.04,2019,9,-0.4090347030201482,True,0.09124890790288923,True,0.038668151073787516,True,比例外推,642360795.1331036,732142500.0,732142500.0
23,600885,964240792.6,704054276.3299999,2019-12-31,年度报告,667603833.11,2019,12,-0.5083144914739866,True,0.08592151174442267,True,0.0,True,比例外推,704054276.3299999,732633809.9999999,704054276.3299999
24,600885,194167624.99,142736793.42000002,2020-03-31,一季度报告,142621980.70999998,2020,3,1.1660022626806894,False,0.034477192446662454,True,0.01729062607101739,True,前期平均,621865537.0450001,840739500.0,840739500.0
