,SECURITYCODE_x,NETPROFIT_x,PARENTNETPROFIT_x,REPORTDATE_x,REPORTTIMETYPE_x,KCFJCXSYJLR,Year,Month,managesituationChangeRate,managesituationGreatChange,historyprofitextroplaterate,ifhistoryprofitextroplate,IfprofitdisStableChangeRage,IfprofitdisStable,predicttype,predict,analyst_prediction,adj_prediction
0,600820,1312187507.78,1289309009.86,2013-12-31,年度报告,1072418154.4,2013,12,未知,未知,未知,未知,未知,未知,未知,未知,未知,未知
1,600820,272378531.57,266700264.06000003,2014-03-31,一季度报告,266700264.06000003,2014,3,未知,未知,未知,未知,未知,未知,未知,未知,未知,未知
2,600820,637465253.52,625413456.0999997,2014-06-30,半年度报告,534903717.38,2014,6,未知,未知,未知,未知,未知,未知,未知,未知,未知,未知
3,600820,949539731.0200002,935769789.01,2014-09-30,三季度报告,803572583.1900003,2014,9,未知,未知,未知,未知,未知,未知,未知,未知,未知,未知
4,600820,1415227604.36,1393668007.99,2014-12-31,年度报告,1105224096.14,2014,12,0.0,True,未知,未知,未知,未知,未知,未知,未知,未知
5,600820,297938448.18,295121338.49,2015-03-31,一季度报告,261024425.26,2015,3,3.8175144355779524,False,未知,未知,未知,未知,未知,未知,1603790310.0,未知
6,600820,648735046.2299999,639334028.9900001,2015-06-30,半年度报告,567333973.08,2015,6,1.0584455396341552,False,未知,未知,未知,未知,未知,未知,1553866667.0,未知
7,600820,950489121.4,934442788.38,2015-09-30,三季度报告,827794302.0,2015,9,0.3819195394493306,True,未知,未知,未知,未知,未知,未知,1545500000.0,未知
8,600820,1504304885.15,1480636569.3200002,2015-12-31,年度报告,1318383201.44,2015,12,-0.07280814496732287,True,未知,未知,未知,未知,未知,未知,1548666667.0,未知
9,600820,324193251.76,320261874.3,2016-03-31,一季度报告,305691109.41000015,2016,3,3.404223475673202,False,未知,未知,未知,未知,未知,未知,1693075000.0,未知
10,600820,711122083.5500001,702492288.9500003,2016-06-30,半年度报告,649939707.47,2016,6,1.0226863268841844,False,未知,未知,未知,未知,未知,未知,1691067143.0,未知
11,600820,1062516440.8,1049041260.05,2016-09-30,三季度报告,975497507.8799998,2016,9,0.38053921737394014,True,未知,未知,未知,未知,未知,未知,1700371250.0,未知
12,600820,1676554916.3699994,1652987316.7299998,2016-12-31,年度报告,1509323428.0300002,2016,12,-0.12771172869710076,True,0.10309932540462012,True,0.0,True,比例外推,1652987316.7299998,1687281429.0,1652987316.7299998
13,600820,359237824.59,353632352.03,2017-03-31,一季度报告,296385789.67000014,2017,3,3.0475472597172115,False,0.1368879527385314,True,0.027364686909897074,True,前期平均,1301573656.16,1919572308.0,1919572308.0
14,600820,774403103.0200003,763612512.0600001,2017-06-30,半年度报告,700127104.91,2017,6,0.8452352108507373,False,0.10577191388965088,True,0.03567102803503058,True,前期平均,1424297315.62,1891236154.0,1891236154.0
15,600820,1178640921.7599998,1159422179.03,2017-09-30,三季度报告,1075742702.39,2017,9,0.2349808976057023,True,0.11842137496671173,True,0.05997824186184508,True,比例外推,1696271191.8076272,1858333333.0,1696271191.8076272
16,600820,1833054219.05,1810028775.13,2017-12-31,年度报告,1659020345.2599995,2017,12,-0.21733103105200466,True,0.14850916877543227,True,0.0,True,比例外推,1810028775.13,1879457500.0,1810028775.13
17,600820,389429986.31,388239626.02,2018-03-31,一季度报告,363640339.83,2018,3,2.6526986245883393,False,0.15486101937787697,True,0.014407099197659756,True,前期平均,1518735173.42,2008266667.0,2008266667.0
18,600820,846835284.3400003,838365233.1900003,2018-06-30,半年度报告,794679688.65,2018,6,0.6944502193531505,False,0.1389477409958274,True,0.005639133610877867,True,前期平均,1643581707.6500003,2038632000.0,2038632000.0
19,600820,1291683963.47,1279627636.07,2018-09-30,三季度报告,1218736830.28,2018,9,0.11330557386433049,True,0.17102599604530777,True,0.012987649366997478,True,比例外推,1962571281.6095192,2052306000.0,1962571281.6095192
20,600820,1997509888.59,1978762763.14,2018-12-31,年度报告,1849272572.0,2018,12,-0.28415237577639396,True,0.15255266401496867,True,0.0,True,比例外推,1978762763.14,2058750000.0,1978762763.14
21,600820,434721973.26,427611972.69,2019-03-31,一季度报告,397100175.43,2019,3,2.369508137299557,False,0.13963207055151367,True,0.013957560290091764,True,前期平均,1710745409.7949998,2228936000.0,2228936000.0
22,600820,891619356.33,878730802.4700003,2019-06-30,半年度报告,851738420.5100001,2019,6,0.5495191710188153,False,0.1401156870255407,True,0.005439137219962309,True,前期平均,1787869282.9250002,2164900000.0,2164900000.0
23,600820,1406582492.66,1388990981.6200006,2019-09-30,三季度报告,1371720495.6499994,2019,9,0.015873499160676194,True,0.1526936796571504,True,0.007778911170794767,True,比例外推,2123536872.727381,2167666667.0,2123536872.727381
24,600820,2181034537.17,2136785823.11,2019-12-31,年度报告,2008745524.6000004,2019,12,-0.3430883545181118,True,0.1383090318694167,True,0.0,True,比例外推,2136785823.11,2273420000.0,2136785823.11
25,600820,261898240.32999995,259633955.48,2020-03-31,一季度报告,221194384.84,2020,3,2.0184522257751216,False,0.16132139496529274,True,0.012341048261624687,True,前期平均,1683767349.3599997,2282798333.0,2282798333.0
