,SECURITYCODE_x,NETPROFIT_x,PARENTNETPROFIT_x,REPORTDATE_x,REPORTTIMETYPE_x,KCFJCXSYJLR,Year,Month,managesituationChangeRate,managesituationGreatChange,historyprofitextroplaterate,ifhistoryprofitextroplate,IfprofitdisStableChangeRage,IfprofitdisStable,predicttype,predict,analyst_prediction,adj_prediction
0,600819,97043275.72,115443763.79,2013-12-31,年度报告,59431935.95,2013,12,未知,未知,未知,未知,未知,未知,未知,未知,未知,未知
1,600819,-61926.77,8534608.94,2014-03-31,一季度报告,-9553541.7,2014,3,未知,未知,未知,未知,未知,未知,未知,未知,未知,未知
2,600819,1815820.9,35604454.4,2014-09-30,三季度报告,-3408358.21,2014,9,未知,未知,未知,未知,未知,未知,未知,未知,未知,未知
3,600819,13093833.150000002,53354016.9,2014-12-31,年度报告,-31756298.959999993,2014,12,0.0,True,未知,未知,未知,未知,未知,未知,未知,未知
4,600819,-50655738.98,-42413691.3,2015-03-31,一季度报告,-53676393.53,2015,3,-1568.0650305191116,False,未知,未知,未知,未知,未知,未知,未知,未知
5,600819,-92911808.29,-79538246.63000001,2015-06-30,半年度报告,-110786761.64,2015,6,未知,未知,未知,未知,未知,未知,未知,未知,未知,未知
6,600819,-115558231.56,-89389132.09,2015-09-30,三季度报告,-153681786.92000002,2015,9,52.443197905696536,False,未知,未知,未知,未知,未知,未知,未知,未知
7,600819,-488908349.51,-364267244.39000016,2015-12-31,年度报告,-492840610.29,2015,12,6.411372560524798,False,未知,未知,未知,未知,未知,未知,未知,未知
8,600819,225538.82,4483509.01,2016-03-31,一季度报告,-42919744.97000001,2016,3,-2.915740993499568,False,未知,未知,未知,未知,未知,未知,未知,未知
9,600819,8365878.8999999985,9712482.2,2016-06-30,半年度报告,-67568458.6,2016,6,-2.044466548504843,False,未知,未知,未知,未知,未知,未知,未知,未知
10,600819,48939934.05999999,41771230.03,2016-09-30,三季度报告,-89714566.8,2016,9,-1.8397781309902905,False,未知,未知,未知,未知,未知,未知,未知,未知
11,600819,211234105.76000005,225774569.68,2016-12-31,年度报告,-339260365.78,2016,12,-1.198489708382481,False,9.878176566030644,False,0.0,True,未知,未知,未知,未知
12,600819,10401141.569999997,6292866.989999997,2017-03-31,一季度报告,-26269445.889999993,2017,3,429.27304887025656,False,-1.0088938959104206,True,0.12208550108736982,False,前期平均,-224390620.01999998,未知,-224390620.01999998
13,600819,24866006.579999994,17177127.919999998,2017-06-30,半年度报告,-58967010.38,2017,6,10.599890086862244,False,未知,未知,未知,未知,未知,未知,未知,未知
14,600819,41951222.42,28471305.58000001,2017-09-30,三季度报告,-74966011.30000001,2017,9,0.9829057309522665,False,-1.8605397718585681,True,0.12053769098622852,False,前期平均,-155282076.48,未知,-155282076.48
15,600819,70851220.34,47947535.20999999,2017-12-31,年度报告,-90833539.62,2017,12,-0.5405889812592166,True,-1.8878842426916664,True,0.0,True,比例外推,47947535.20999999,未知,47947535.20999999
16,600819,35292921.62,27949882.21,2018-03-31,一季度报告,-14468010.720000004,2018,3,8.330060077242083,False,-1.4124965412391888,True,0.11432882451404316,False,前期平均,-339802536.575,未知,-339802536.575
17,600819,81656188.10000001,60973513.51,2018-06-30,半年度报告,-6283323.22,2018,6,2.9026481959533053,False,-1.5882248089153093,True,0.291465649335365,False,前期平均,-265899364.40500003,未知,-265899364.40500003
18,600819,115242894.39999996,89921295.2,2018-09-30,三季度报告,87389.06,2018,9,1.313240714381071,False,-2.2594504511316877,True,0.358117935577476,False,前期平均,-204431015.97499996,未知,-204431015.97499996
19,600819,106840138.81000002,90681852.23,2018-12-31,年度报告,-19469828.58,2018,12,0.36967684189926253,True,-1.510318993819174,True,0.0,True,比例外推,90681852.23,未知,90681852.23
20,600819,35891540.18,33942823.79,2019-03-31,一季度报告,12052263.580000002,2019,3,1.749652657404451,False,5.642322969120558,False,0.35682801799767583,False,去年同期,28941005.930000007,未知,28941005.930000007
21,600819,85887469.53,82614513.88999999,2019-06-30,半年度报告,41341965.61000001,2019,6,0.18843749601874923,True,3.9143277259512286,False,0.25882272927388356,False,未知,未知,未知,未知
22,600819,141398228.89999998,136241291.71,2019-09-30,三季度报告,77883395.5,2019,9,-0.15792399847951033,True,1.5358439448475587,True,0.46355694006741316,False,平均增速,-8595908513.458395,未知,-8595908513.458395
23,600819,222231544.43000004,208497447.62,2019-12-31,年度报告,137354316.2,2019,12,-0.09169646538387922,True,0.2424977201960169,True,0.0,True,比例外推,208497447.62,未知,208497447.62
24,600819,-47939534.01,-25340047.36,2020-03-31,一季度报告,-43627145.18000001,2020,3,1.7037924600983227,False,0.5709498203633049,True,0.36974933744778843,False,盈利变化,134258235.94,未知,134258235.94
