,SECURITYCODE_x,NETPROFIT_x,PARENTNETPROFIT_x,REPORTDATE_x,REPORTTIMETYPE_x,KCFJCXSYJLR,Year,Month,managesituationChangeRate,managesituationGreatChange,historyprofitextroplaterate,ifhistoryprofitextroplate,IfprofitdisStableChangeRage,IfprofitdisStable,predicttype,predict,analyst_prediction,adj_prediction
0,600831,141783086.06,137047386.63000005,2013-12-31,年度报告,147535974.05,2013,12,未知,未知,未知,未知,未知,未知,未知,未知,未知,未知
1,600831,41690170.51,43214548.35999999,2014-03-31,一季度报告,40981946.95,2014,3,未知,未知,未知,未知,未知,未知,未知,未知,未知,未知
2,600831,79323767.03,77550998.72000003,2014-06-30,半年度报告,74101881.87,2014,6,未知,未知,未知,未知,未知,未知,未知,未知,未知,未知
3,600831,93836458.52000004,89565038.64000002,2014-09-30,三季度报告,83164672.18,2014,9,未知,未知,未知,未知,未知,未知,未知,未知,未知,未知
4,600831,130821428.51,116903625.13,2014-12-31,年度报告,113671421.15,2014,12,0.0,True,未知,未知,未知,未知,未知,未知,未知,未知
5,600831,44824386.13,44915008.49,2015-03-31,一季度报告,43466022.45,2015,3,2.4008756578721897,False,未知,未知,未知,未知,未知,未知,未知,未知
6,600831,90807814.78,90068563.44999999,2015-06-30,半年度报告,86871041.21,2015,6,0.7873972879575687,False,未知,未知,未知,未知,未知,未知,123000000.0,未知
7,600831,100086878.08,100223999.4,2015-09-30,三季度报告,95548831.54,2015,9,0.5109594745605276,False,未知,未知,未知,未知,未知,未知,123000000.0,未知
8,600831,132391749.54,133228408.29000002,2015-12-31,年度报告,123474819.53,2015,12,0.08379099414253902,True,未知,未知,未知,未知,未知,未知,未知,未知
9,600831,45948495.7,49994005.74,2016-03-31,一季度报告,50717527.27,2016,3,2.1630792588837626,False,未知,未知,未知,未知,未知,未知,161853333.0,未知
10,600831,113137299.71999998,111802978.94,2016-06-30,半年度报告,109138905.64,2016,6,0.5613533527207734,False,未知,未知,未知,未知,未知,未知,172341667.00000003,未知
11,600831,120015311.18000002,122894822.09,2016-09-30,三季度报告,120021822.19000004,2016,9,0.4166001455922323,True,未知,未知,未知,未知,未知,未知,177010000.0,未知
12,600831,133922310.56000002,133273704.18999998,2016-12-31,年度报告,124077937.36,2016,12,0.07093596506300838,True,0.02868997053235405,True,0.0,True,比例外推,133273704.18999998,191996667.00000003,191996667.00000003
13,600831,34318043.1,36460260.51000001,2017-03-31,一季度报告,35236548.38,2017,3,2.085695927581803,False,0.06221420959708689,True,0.03498584174299907,True,前期平均,112809396.15000004,158000000.0,158000000.0
14,600831,117407821.73000002,118139768.26,2017-06-30,半年度报告,110562230.07,2017,6,0.253194891613063,True,0.32999762320848525,True,0.13458369677896032,False,平均增速,133516553.3691028,,133516553.3691028
15,600831,124555709.91,123376409.14,2017-09-30,三季度报告,116275684.95000002,2017,9,0.18137498179171888,True,0.23776037772650419,True,0.1430546498336528,False,平均增速,127461630.55798635,未知,127461630.55798635
16,600831,176204978.51,176084275.70000002,2017-12-31,年度报告,169178737.03000003,2017,12,0.05869653433494333,True,0.017595787203026108,True,0.0,True,比例外推,176084275.70000002,,176084275.70000002
17,600831,43963578.90000001,45970421.55,2018-03-31,一季度报告,44525206.27999999,2018,3,3.1314443730621693,False,0.24387014253285394,True,0.11473958788056637,False,前期平均,122655025.135,未知,122655025.135
18,600831,107536488.09000002,112751444.96,2018-06-30,半年度报告,111681266.78000005,2018,6,0.20761192883771576,True,0.1513668470837532,True,0.13404111141834651,False,平均增速,177062763.38569444,未知,177062763.38569444
19,600831,108896383.29,118609650.79999998,2018-09-30,三季度报告,116368479.47000004,2018,9,0.1383106094650174,True,0.13179891875465288,True,0.1578308145808056,False,平均增速,176405816.17644605,未知,176405816.17644605
20,600831,92786293.75,105063754.55,2018-12-31,年度报告,74103295.83000001,2018,12,-0.1953514182236711,True,0.3232870877627386,True,0.0,True,比例外推,105063754.55,未知,105063754.55
21,600831,39804087.16000001,43727283.79,2019-03-31,一季度报告,44597546.75999999,2019,3,2.225012376324075,False,0.095439757519481,True,0.19768288086948632,False,前期平均,147378583.16000003,191000000.0,191000000.0
22,600831,75914320.65,81206154.52,2019-06-30,半年度报告,80576124.01,2019,6,0.31846490970895514,True,0.06711113717214576,True,0.4936941008881828,False,平均增速,50725992.957406975,,50725992.957406975
23,600831,78403493.33,87141081.92,2019-09-30,三季度报告,86761710.63,2019,9,0.3019999542355783,True,0.10949070904089594,True,0.49536836812006046,False,平均增速,52349858.970708504,未知,52349858.970708504
24,600831,-112945626.44999996,-99980261.05,2019-12-31,年度报告,-116945582.09,2019,12,0.5280606685510596,False,0.40162444892711874,True,0.0,True,盈利变化,41380795.243333325,未知,41380795.243333325
25,600831,-29921930.09,-28402070.82,2020-03-31,一季度报告,-32210178.52,2020,3,2.5620233040410207,False,0.016945897211991946,True,0.5239464090505483,False,盈利变化,-202390561.42333332,未知,-202390561.42333332
