,SECURITYCODE_x,NETPROFIT_x,PARENTNETPROFIT_x,REPORTDATE_x,REPORTTIMETYPE_x,KCFJCXSYJLR,Year,Month,managesituationChangeRate,managesituationGreatChange,historyprofitextroplaterate,ifhistoryprofitextroplate,IfprofitdisStableChangeRage,IfprofitdisStable,predicttype,predict,analyst_prediction,adj_prediction
0,600833,34266800.989999995,34266800.989999995,2013-12-31,年度报告,31521165.65000001,2013,12,未知,未知,未知,未知,未知,未知,未知,未知,未知,未知
1,600833,10311330.230000002,10311330.230000002,2014-03-31,一季度报告,10178975.079999996,2014,3,未知,未知,未知,未知,未知,未知,未知,未知,未知,未知
2,600833,19387343.789999995,19387343.789999995,2014-06-30,半年度报告,19224506.62,2014,6,未知,未知,未知,未知,未知,未知,未知,未知,未知,未知
3,600833,29121952.94,29121952.94,2014-09-30,三季度报告,27446131.31,2014,9,未知,未知,未知,未知,未知,未知,未知,未知,未知,未知
4,600833,37024839.49,37024839.49,2014-12-31,年度报告,33641200.18,2014,12,0.0,True,未知,未知,未知,未知,未知,未知,未知,未知
5,600833,12030521.01,12030521.01,2015-03-31,一季度报告,11954520.749999998,2015,3,2.3232182682214404,False,未知,未知,未知,未知,未知,未知,未知,未知
6,600833,23193586.96,23193586.96,2015-06-30,半年度报告,23049150.270000003,2015,6,0.7674830219741001,False,未知,未知,未知,未知,未知,未知,未知,未知
7,600833,32473784.70000001,32473784.70000001,2015-09-30,三季度报告,30744015.8,2015,9,0.1766656261206084,True,未知,未知,未知,未知,未知,未知,未知,未知
8,600833,41168494.78000001,41168494.78000001,2015-12-31,年度报告,37686863.11000001,2015,12,-0.07449157209026991,True,未知,未知,未知,未知,未知,未知,未知,未知
9,600833,13233492.760000002,13233492.760000002,2016-03-31,一季度报告,13180162.35,2016,3,1.848322276443121,False,未知,未知,未知,未知,未知,未知,未知,未知
10,600833,24112595.910000004,24112595.910000004,2016-06-30,半年度报告,23892866.759999994,2016,6,0.4774256801717225,True,未知,未知,未知,未知,未知,未知,未知,未知
11,600833,41583966.96999999,41583966.96999999,2016-09-30,三季度报告,40290880.57,2016,9,0.05521426918864753,True,未知,未知,未知,未知,未知,未知,未知,未知
12,600833,46034162.49000001,46034162.49000001,2016-12-31,年度报告,44553367.92999999,2016,12,-0.16764503601314357,True,0.1549318967221503,True,0.0,True,比例外推,46034162.49000001,未知,46034162.49000001
13,600833,14026908.929999998,14026908.929999998,2017-03-31,一季度报告,13932809.689999998,2017,3,1.5893996098729108,False,0.18463708471098034,True,0.012003278478169843,True,前期平均,38624192.660000004,未知,38624192.660000004
14,600833,24528603.58,24528603.58,2017-06-30,半年度报告,24208319.68,2017,6,0.42111621319829884,True,0.1325537269990278,True,0.0384867992039617,True,比例外推,42560579.86713414,未知,42560579.86713414
15,600833,36926722.07000001,36926722.07000001,2017-09-30,三季度报告,35435901.89000001,2017,9,-0.17596123008848183,True,0.3502222252143478,True,0.05901095101382503,True,比例外推,43411045.02712155,未知,43411045.02712155
16,600833,43476771.21,43476771.21,2017-12-31,年度报告,41261272.01,2017,12,-0.2556223652935195,True,0.17744467401901476,True,0.0,True,比例外推,43476771.21,未知,43476771.21
17,600833,11513280.85,11513280.85,2018-03-31,一季度报告,11438005.580000002,2018,3,1.4429331623243096,False,0.11042600417328667,True,0.021074033424451022,True,前期平均,40066054.82,未知,40066054.82
18,600833,21198614.66,21198614.66,2018-06-30,半年度报告,20853434.83,2018,6,0.39701393429262627,True,0.037014702598429955,True,0.04191800770131726,True,比例外推,36411730.21092108,未知,36411730.21092108
19,600833,29206820.88000001,29206820.88000001,2018-09-30,三季度报告,26415993.48,2018,9,-0.07203241801310561,True,0.0027587595544403907,True,0.044688040997340694,True,比例外推,33519945.695057172,未知,33519945.695057172
20,600833,47186332.48999998,47186332.48999998,2018-12-31,年度报告,18661168.13,2018,12,-0.21183657304067788,True,0.0028567346202385845,True,0.0,True,比例外推,47186332.48999998,未知,47186332.48999998
21,600833,14117679.489999998,14117679.489999998,2019-03-31,一季度报告,7392218.629999999,2019,3,1.9762846434863086,False,0.1553109905769697,True,0.19745341336474032,False,前期平均,43468513.44,未知,43468513.44
22,600833,30187623.14,30187623.14,2019-06-30,半年度报告,23344527.03,2019,6,0.6164641670976058,False,0.12836793161903173,True,0.370657228433537,False,前期平均,49044349.89,未知,49044349.89
23,600833,38183322.58,38183322.58,2019-09-30,三季度报告,28796613.02,2019,9,0.1732465211051064,True,0.25597848555068514,True,0.3559909909604193,False,平均增速,31284207.16972119,未知,31284207.16972119
24,600833,53089382.56,53089382.56,2019-12-31,年度报告,37469040.76000001,2019,12,-0.27379817032268766,True,0.05431438461243468,True,0.0,True,比例外推,53089382.56,未知,53089382.56
25,600833,18638693.76,18638693.76,2020-03-31,一季度报告,18588227.1,2020,3,1.4272261609475028,False,0.10552659252792755,True,0.23030005827428668,False,前期平均,35914506.195,未知,35914506.195
