,SECURITYCODE_x,NETPROFIT_x,PARENTNETPROFIT_x,REPORTDATE_x,REPORTTIMETYPE_x,KCFJCXSYJLR,Year,Month,managesituationChangeRate,managesituationGreatChange,historyprofitextroplaterate,ifhistoryprofitextroplate,IfprofitdisStableChangeRage,IfprofitdisStable,predicttype,predict,analyst_prediction,adj_prediction
0,600811,1019987954.03,1041061087.57,2013-12-31,年度报告,996578121.6699998,2013,12,未知,未知,未知,未知,未知,未知,未知,未知,未知,未知
1,600811,210997994.51,224254291.53,2014-03-31,一季度报告,223873240.99000004,2014,3,未知,未知,未知,未知,未知,未知,未知,未知,未知,未知
2,600811,449010039.35,477534218.3299999,2014-06-30,半年度报告,465656527.39,2014,6,未知,未知,未知,未知,未知,未知,未知,未知,未知,未知
3,600811,1092369684.76,1127887138.28,2014-09-30,三季度报告,661099202.25,2014,9,未知,未知,未知,未知,未知,未知,未知,未知,未知,未知
4,600811,1004318895.58,1042122398.41,2014-12-31,年度报告,668065220.2499999,2014,12,0.0,True,未知,未知,未知,未知,未知,未知,未知,未知
5,600811,246897422.7,256096240.02,2015-03-31,一季度报告,253502363.33,2015,3,3.834112079589737,False,未知,未知,未知,未知,未知,未知,未知,未知
6,600811,402366124.64000016,424959745.26,2015-06-30,半年度报告,436679692.09,2015,6,1.2716373012651658,False,未知,未知,未知,未知,未知,未知,未知,未知
7,600811,443997131.1000001,474161021.3900001,2015-09-30,三季度报告,602762934.3100003,2015,9,-0.06626120418739258,True,未知,未知,未知,未知,未知,未知,未知,未知
8,600811,396596263.12,549135477.11,2015-12-31,年度报告,555759846.6899999,2015,12,0.015601676438588718,True,未知,未知,未知,未知,未知,未知,未知,未知
9,600811,223609654.73999995,230710344.86,2016-03-31,一季度报告,230277000.91,2016,3,3.131221552966012,False,未知,未知,未知,未知,未知,未知,未知,未知
10,600811,416316590.86,432112355.38000005,2016-06-30,半年度报告,393775150.0,2016,6,1.534974719709793,False,未知,未知,未知,未知,未知,未知,未知,未知
11,600811,534057855.75,526127961.29,2016-09-30,三季度报告,473324232.4500001,2016,9,1.2972850106102853,False,未知,未知,未知,未知,未知,未知,未知,未知
12,600811,720480077.16,762270149.9100001,2016-12-31,年度报告,582864077.5500001,2016,12,1.5718546766069186,False,0.6081658635928564,True,0.0,True,前期平均,762270149.9100001,未知,762270149.9100001
13,600811,70652467.99999999,85461662.13,2017-03-31,一季度报告,81979452.99,2017,3,3.5614665217205466,False,0.023315602927521335,True,0.0606959299602679,True,前期平均,458686393.4399999,未知,458686393.4399999
14,600811,388897286.7400001,403787242.39999986,2017-06-30,半年度报告,207300069.06,2017,6,1.450029560251189,False,0.022014924850797635,True,0.06628662881820502,True,前期平均,564531666.1299999,未知,564531666.1299999
15,600811,469862405.28,490026484.96,2017-09-30,三季度报告,288873438.60999995,2017,9,0.909882877010746,False,0.30477819458622635,True,0.15000495019039428,False,前期平均,470007950.14999974,未知,470007950.14999974
16,600811,742630413.7400001,769030335.8499999,2017-12-31,年度报告,564889307.5000001,2017,12,0.41570598044932067,True,0.028584882797014082,True,0.0,True,比例外推,769030335.8499999,未知,769030335.8499999
17,600811,150698111.54,166366735.77999997,2018-03-31,一季度报告,164661248.86000004,2018,3,13.436692487939702,False,0.699675216855756,True,0.18698843080257158,False,前期平均,493789015.78,未知,493789015.78
18,600811,494250896.68000007,525384756.24,2018-06-30,半年度报告,500201577.00999993,2018,6,1.6227695301765366,False,0.04994381980451128,True,0.24245724928703505,False,前期平均,679469297.315,未知,679469297.315
19,600811,725999586.53,773549205.7500001,2018-09-30,三季度报告,748043127.72,2018,9,1.170822654819914,False,0.039190205873239646,True,0.2912931550143667,False,前期平均,804817584.49,未知,804817584.49
20,600811,644169199.82,655688433.7099999,2018-12-31,年度报告,491770589.85999984,2018,12,0.37347991027351674,True,0.32959653152058815,True,0.0,True,比例外推,655688433.7099999,未知,655688433.7099999
21,600811,140643910.46,170575477.86,2019-03-31,一季度报告,177602787.41,2019,3,5.768418951018264,False,0.024244032067638834,True,0.1465540774218286,False,前期平均,588323943.4350002,未知,588323943.4350002
22,600811,275643050.99,351794634.24,2019-06-30,半年度报告,330918856.83000004,2019,6,1.063704812437367,False,0.22762637463018304,True,0.33057567934849785,False,前期平均,625133717.2350001,未知,625133717.2350001
23,600811,385134535.52999985,474046038.06000006,2019-09-30,三季度报告,483457168.06,2019,9,0.4049428855809021,True,0.4463291851190262,True,0.5729324750923458,False,平均增速,273364524.8506352,496000000.0,496000000.0
24,600811,505569679.35,583628763.4200001,2019-12-31,年度报告,181749017.55,2019,12,0.5834162116335503,False,0.11945242163665493,True,0.0,True,前期平均,583628763.4200001,,583628763.4200001
25,600811,228169107.05,227362579.19,2020-03-31,一季度报告,218446096.23,2020,3,6.252272428247726,False,0.27077969032002863,True,0.4914719471640329,False,前期平均,632372176.9449999,未知,632372176.9449999
