,SECURITYCODE_x,NETPROFIT_x,PARENTNETPROFIT_x,REPORTDATE_x,REPORTTIMETYPE_x,KCFJCXSYJLR,Year,Month,managesituationChangeRate,managesituationGreatChange,historyprofitextroplaterate,ifhistoryprofitextroplate,IfprofitdisStableChangeRage,IfprofitdisStable,predicttype,predict,analyst_prediction,adj_prediction
0,600897,460084263.94,440017556.19,2013-12-31,年度报告,428807340.91000015,2013,12,未知,未知,未知,未知,未知,未知,未知,未知,未知,未知
1,600897,119134605.79999998,113406684.25999998,2014-03-31,一季度报告,109950011.7,2014,3,未知,未知,未知,未知,未知,未知,未知,未知,未知,未知
2,600897,250664846.4499999,237867408.55,2014-06-30,半年度报告,229016059.03,2014,6,未知,未知,未知,未知,未知,未知,未知,未知,未知,未知
3,600897,379460263.1,361714997.31999993,2014-09-30,三季度报告,349433816.23,2014,9,未知,未知,未知,未知,未知,未知,未知,未知,未知,未知
4,600897,477296462.16,458245717.54,2014-12-31,年度报告,439654567.68000007,2014,12,0.0,True,未知,未知,未知,未知,未知,未知,未知,未知
5,600897,93962951.86,90399295.17,2015-03-31,一季度报告,89011882.46000001,2015,3,2.86188598057207,False,未知,未知,未知,未知,未知,未知,,未知
6,600897,207312769.01999992,199473792.91,2015-06-30,半年度报告,195529086.41000003,2015,6,0.8354558704815156,False,未知,未知,未知,未知,未知,未知,413000000.0,未知
7,600897,306528597.73,295132156.45,2015-09-30,三季度报告,289282831.67,2015,9,0.212470207503,True,未知,未知,未知,未知,未知,未知,397500000.0,未知
8,600897,385782662.28999984,369523241.35,2015-12-31,年度报告,358484860.38,2015,12,-0.03606186004837834,True,未知,未知,未知,未知,未知,未知,387000000.0,未知
9,600897,104635031.82,101947547.65,2016-03-31,一季度报告,100823384.37,2016,3,3.8964432771918664,False,未知,未知,未知,未知,未知,未知,424722550.0,未知
10,600897,220711373.09,213220681.42,2016-06-30,半年度报告,208514401.95,2016,6,1.2192760538334937,False,未知,未知,未知,未知,未知,未知,423178039.99999994,未知
11,600897,336902912.75,324260498.6,2016-09-30,三季度报告,311453067.79,2016,9,0.5009505388637723,False,未知,未知,未知,未知,未知,未知,409333232.99999994,未知
12,600897,413088834.83,398529944.16,2016-12-31,年度报告,386757651.48,2016,12,0.19259963941600436,True,0.17689226682724765,True,0.0,True,比例外推,398529944.16,422000000.0,398529944.16
13,600897,106413588.44,101745616.62,2017-03-31,一季度报告,99911601.45,2017,3,3.3970385055309866,False,0.0179612289414729,True,0.007664867270494147,True,前期平均,401334383.57,472390000.0,472390000.0
14,600897,231914339.48,221170346.64,2017-06-30,半年度报告,217698555.77,2017,6,1.0845516816770033,False,0.036147769521465235,True,0.014255489671665122,True,前期平均,407967487.95000005,460000000.0,460000000.0
15,600897,343406082.64,328242577.05999994,2017-09-30,三季度报告,323148296.64000005,2017,9,0.3656286322505236,True,0.01775981510145718,True,0.00755626786151764,True,比例外推,407847569.35394317,435350000.0,407847569.35394317
16,600897,429867396.03,410804367.22,2017-12-31,年度报告,399717583.71,2017,12,0.11376591461093404,True,0.04275558722789805,True,0.0,True,比例外推,410804367.22,418000000.0,410804367.22
17,600897,116163953.7,111745471.81,2018-03-31,一季度报告,109603522.01999998,2018,3,3.3235480607762127,False,0.07164822591012515,True,0.007707280990483012,True,前期平均,389449094.325,458000000.0,458000000.0
18,600897,262259325.21,251088186.18,2018-06-30,半年度报告,242446857.3299999,2018,6,0.9838543186747497,False,0.0836507414593416,True,0.003931265678424389,True,前期平均,421687697.93,,421687697.93
19,600897,396234372.84,379740226.14,2018-09-30,三季度报告,368416640.69,2018,9,0.33976736929938506,True,0.06742078075666201,True,0.0016053532560590389,True,比例外推,467907528.18596274,468000000.0,467907528.18596274
20,600897,526793448.81,505655028.7500001,2018-12-31,年度报告,490961264.97,2018,12,0.07029346302851781,True,0.07618658965730714,True,0.0,True,比例外推,505655028.7500001,468000000.0,505655028.7500001
21,600897,123321201.34,118626854.95,2019-03-31,一季度报告,114549364.36999996,2019,3,2.960645701920526,False,0.10082646886667695,True,0.021386286016153666,True,前期平均,411496979.635,568000000.0,568000000.0
22,600897,270584693.37,260169781.27000004,2019-06-30,半年度报告,251586187.99,2019,6,0.7543104084920328,False,0.15883529338577193,True,0.03204131842642499,True,前期平均,440300920.005,,440300920.005
23,600897,412690011.22000015,397682005.52,2019-09-30,三季度报告,379972539.56999993,2019,9,0.1611417269086413,True,0.1648658933661494,True,0.03764564582532126,True,比例外推,499881052.99929804,530000000.0,499881052.99929804
24,600897,537148103.2399999,518327930.5400001,2019-12-31,年度报告,492440476.2399999,2019,12,-0.12663252555758372,True,0.24987141567849935,True,0.0,True,比例外推,518327930.5400001,525500000.0,518327930.5400001
25,600897,3731489.02,3039369.72,2020-03-31,一季度报告,-4399712.51,2020,3,2.7307799384108726,False,0.1081189966814503,True,0.014684200485162863,True,前期平均,343621232.32500005,298000000.0,298000000.0
