,SECURITYCODE_x,NETPROFIT_x,PARENTNETPROFIT_x,REPORTDATE_x,REPORTTIMETYPE_x,KCFJCXSYJLR,Year,Month,managesituationChangeRate,managesituationGreatChange,historyprofitextroplaterate,ifhistoryprofitextroplate,IfprofitdisStableChangeRage,IfprofitdisStable,predicttype,predict,analyst_prediction,adj_prediction
0,600830,23186838.870000005,21036392.13,2014-03-31,一季度报告,5504925.409999998,2014,3,未知,未知,未知,未知,未知,未知,未知,未知,未知,未知
1,600830,50462977.12000001,45765663.75000001,2014-06-30,半年度报告,10483719.04,2014,6,未知,未知,未知,未知,未知,未知,未知,未知,未知,未知
2,600830,75766219.2,67644273.68999998,2014-09-30,三季度报告,20389132.840000004,2014,9,未知,未知,未知,未知,未知,未知,未知,未知,未知,未知
3,600830,108084025.27000004,99920873.81,2014-12-31,年度报告,30478195.53,2014,12,未知,未知,未知,未知,未知,未知,未知,未知,未知,未知
4,600830,26030361.87,23268803.64,2015-03-31,一季度报告,12196302.300000004,2015,3,0.0,True,未知,未知,未知,未知,未知,未知,未知,未知
5,600830,46661105.8,41720687.34,2015-06-30,半年度报告,21243602.040000007,2015,6,-0.5405178173522712,True,未知,未知,未知,未知,未知,未知,未知,未知
6,600830,76204287.19000001,69661303.99000002,2015-09-30,三季度报告,39260619.97000001,2015,9,-0.693968643086258,True,未知,未知,未知,未知,未知,未知,未知,未知
7,600830,77717077.19999999,73901323.17999999,2015-12-31,年度报告,32199111.07,2015,12,-0.785473951288565,True,未知,未知,未知,未知,未知,未知,未知,未知
8,600830,17873655.929999996,16435546.1,2016-03-31,一季度报告,7218518.8500000015,2016,3,-0.10923870417941278,True,未知,未知,未知,未知,未知,未知,未知,未知
9,600830,56788352.44,54067181.95,2016-06-30,半年度报告,21397093.76,2016,6,-0.5030799533687861,True,未知,未知,未知,未知,未知,未知,175000000.0,未知
10,600830,85295415.17999999,80597160.64999999,2016-09-30,三季度报告,36796492.43000001,2016,9,-0.6957278950436436,True,未知,未知,未知,未知,未知,未知,,未知
11,600830,146547324.11,133256486.75000004,2016-12-31,年度报告,46489487.50000001,2016,12,-0.7016506576755307,True,未知,未知,未知,未知,未知,未知,未知,未知
12,600830,16978320.439999998,15993032.89,2017-03-31,一季度报告,10297375.6,2017,3,0.2972633556787959,True,0.2736825475133679,True,0.1405548893819075,False,平均增速,68550553.1996192,未知,68550553.1996192
13,600830,33254127.7,30218105.07,2017-06-30,半年度报告,10912860.8,2017,6,-0.5916972781610776,True,0.16939796459701775,True,0.1717612691793906,False,平均增速,52301347.737431675,未知,52301347.737431675
14,600830,58027908.84,52795128.87000001,2017-09-30,三季度报告,24240015.42,2017,9,-0.7281584382810199,True,0.1225259059295023,True,0.32604646008068194,False,平均增速,62046594.22514847,未知,62046594.22514847
15,600830,89519723.53999999,82694451.9,2017-12-31,年度报告,37725669.04,2017,12,-0.8417791726268866,True,0.5774645269789178,True,0.0,True,比例外推,82694451.9,未知,82694451.9
16,600830,19915573.04,16665931.28,2018-03-31,一季度报告,19529393.470000006,2018,3,0.3656732980120387,True,0.22657099323606786,True,0.11372918728985876,False,平均增速,58140134.681190655,未知,58140134.681190655
17,600830,193326.17,5575276.989999998,2018-06-30,半年度报告,-5312972.04,2018,6,-0.302738021602052,True,0.35709421265694197,True,0.1899964535977543,False,平均增速,14166050.770828579,未知,14166050.770828579
18,600830,28650627.230000004,29647958.559999995,2018-09-30,三季度报告,17596697.62,2018,9,-0.6004191890848086,True,0.281386801480828,True,0.3348600146443397,False,平均增速,42146370.45608069,未知,42146370.45608069
19,600830,35558952.66,30752916.29,2018-12-31,年度报告,19280674.329999994,2018,12,-0.740986254725871,True,0.20165908617607883,True,0.0,True,比例外推,30752916.29,未知,30752916.29
20,600830,9566900.95,7789635.150000002,2019-03-31,一季度报告,6690961.420000001,2019,3,0.16425667609110411,True,0.14286620813521486,True,0.5325245607544715,False,平均增速,7664791.604059009,未知,7664791.604059009
21,600830,6344675.0,3088763.2400000007,2019-06-30,半年度报告,-6456926.17,2019,6,118.93636903891492,False,0.9957058897156228,True,0.4335481188984639,False,前期平均,29041364.230000004,未知,29041364.230000004
22,600830,32353931.27,21441867.24,2019-09-30,三季度报告,-151362.84,2019,9,-0.19070397014830026,True,0.6001958868048306,True,0.1396979102240078,False,平均增速,21991416.351140115,未知,21991416.351140115
23,600830,45841067.78,26677581.9,2019-12-31,年度报告,9991955.34,2019,12,-0.34793245763723774,True,0.6987385320062057,True,0.0,True,比例外推,26677581.9,未知,26677581.9
24,600830,11064928.390000002,5409879.68,2020-03-31,一季度报告,5886704.83,2020,3,1.4236520259990784,False,0.4813829581209058,True,0.3788755276405972,False,前期平均,18999666.829999994,未知,18999666.829999994
