,SECURITYCODE_x,NETPROFIT_x,PARENTNETPROFIT_x,REPORTDATE_x,REPORTTIMETYPE_x,KCFJCXSYJLR,Year,Month,managesituationChangeRate,managesituationGreatChange,historyprofitextroplaterate,ifhistoryprofitextroplate,IfprofitdisStableChangeRage,IfprofitdisStable,predicttype,predict,analyst_prediction,adj_prediction
0,600846,209915603.9,160589265.23,2013-12-31,年度报告,148088353.84,2013,12,未知,未知,未知,未知,未知,未知,未知,未知,未知,未知
1,600846,46963962.42,30454441.239999995,2014-03-31,一季度报告,27291341.24000001,2014,3,未知,未知,未知,未知,未知,未知,未知,未知,未知,未知
2,600846,92390608.47,58310274.40999998,2014-06-30,半年度报告,48339256.54,2014,6,未知,未知,未知,未知,未知,未知,未知,未知,未知,未知
3,600846,118367670.85,78725689.06,2014-09-30,三季度报告,67597589.91000001,2014,9,未知,未知,未知,未知,未知,未知,未知,未知,未知,未知
4,600846,268832340.75000006,182084531.6,2014-12-31,年度报告,167303641.68,2014,12,0.0,True,未知,未知,未知,未知,未知,未知,未知,未知
5,600846,35809136.730000004,25451166.44,2015-03-31,一季度报告,23611341.44,2015,3,3.4697166312910106,False,未知,未知,未知,未知,未知,未知,未知,未知
6,600846,61809214.91,42698441.05,2015-06-30,半年度报告,40300459.34,2015,6,1.2720448255101746,False,未知,未知,未知,未知,未知,未知,未知,未知
7,600846,105870755.88,69791582.3,2015-09-30,三季度报告,63805793.03,2015,9,0.7734200765512488,False,未知,未知,未知,未知,未知,未知,未知,未知
8,600846,230402117.83,160253316.97,2015-12-31,年度报告,137652800.4,2015,12,-0.21915792082764893,True,未知,未知,未知,未知,未知,未知,未知,未知
9,600846,38901683.99,26069834.910000004,2016-03-31,一季度报告,23880531.58,2016,3,4.862068261593638,False,未知,未知,未知,未知,未知,未知,未知,未知
10,600846,83914862.49,45025517.81000001,2016-06-30,半年度报告,39197232.55,2016,6,2.3961862192499415,False,未知,未知,未知,未知,未知,未知,未知,未知
11,600846,164028732.20000002,87858758.91,2016-09-30,三季度报告,79674456.96,2016,9,0.9827534256762125,False,未知,未知,未知,未知,未知,未知,196300000.0,未知
12,600846,300340543.69,181612571.07,2016-12-31,年度报告,160270419.68,2016,12,-0.08891634383810562,True,0.03748049300372086,True,0.0,True,比例外推,181612571.07,未知,181612571.07
13,600846,39743362.06,30407708.56,2017-03-31,一季度报告,27931483.69999999,2017,3,4.396054421550505,False,0.060040414350004456,True,0.012216619424957192,True,前期平均,157434588.26,未知,157434588.26
14,600846,68742618.92999999,53769758.19,2017-06-30,半年度报告,54906512.1,2017,6,1.5015306904067838,False,0.08839116220263983,True,0.030853829223211365,True,前期平均,161928121.29000002,未知,161928121.29000002
15,600846,135625452.54000002,100863755.02000004,2017-09-30,三季度报告,100284376.83,2017,9,0.27974898717165103,True,0.4629850431255746,True,0.050856490074761285,True,比例外推,221034098.1691833,未知,221034098.1691833
16,600846,302022630.16,255059487.78,2017-12-31,年度报告,239681042.01,2017,12,-0.3010747023330062,True,0.2032043803397509,True,0.0,True,比例外推,255059487.78,,255059487.78
17,600846,90398193.79000002,77081920.0,2018-03-31,一季度报告,74897206.88000001,2018,3,4.281777711284046,False,0.06392518987174642,True,0.029152536054358483,True,前期平均,202297593.53,未知,202297593.53
18,600846,141571151.29,117205036.15,2018-06-30,半年度报告,111638469.85999995,2018,6,2.0536457174224805,False,0.05653725648497393,True,0.03729562439614453,True,前期平均,226417800.245,504000000.0,504000000.0
19,600846,192492364.75,146939702.20000002,2018-09-30,三季度报告,135051560.13,2018,9,0.5477596569721276,False,0.005007112127605929,True,0.04127897248635165,True,前期平均,224161187.245,,224161187.245
20,600846,377726712.57,301242990.63,2018-12-31,年度报告,281578381.45,2018,12,-0.30496730066619593,True,0.1381132592395492,True,0.0,True,比例外推,301242990.63,未知,301242990.63
21,600846,66807863.25,50465803.51000001,2019-03-31,一季度报告,48387498.72999999,2019,3,1.3221216608336832,False,1.2988909875525467,True,0.08881456037991792,True,前期平均,224535526.71500003,未知,224535526.71500003
22,600846,174682937.7,135350669.79999998,2019-06-30,半年度报告,129297902.52,2019,6,0.4827569175445957,True,0.8547554954152735,True,0.10643226744201795,False,平均增速,347208459.71280813,未知,347208459.71280813
23,600846,524225276.74000007,322516505.90000004,2019-09-30,三季度报告,309726513.44,2019,9,0.0905139233580952,True,0.28476340096514413,True,0.04664440654951357,True,比例外推,678793985.2544829,未知,678793985.2544829
24,600846,958654207.05,607176494.68,2019-12-31,年度报告,594313840.2099999,2019,12,-0.4442659284757399,True,0.2541494200442645,True,0.0,True,比例外推,607176494.68,未知,607176494.68
25,600846,119676611.64000002,72095722.36999999,2020-03-31,一季度报告,70012694.27,2020,3,2.142079295583518,False,0.026695321316154187,True,0.11134258467670871,False,前期平均,281311088.81,未知,281311088.81
