,SECURITYCODE_x,NETPROFIT_x,PARENTNETPROFIT_x,REPORTDATE_x,REPORTTIMETYPE_x,KCFJCXSYJLR,Year,Month,managesituationChangeRate,managesituationGreatChange,historyprofitextroplaterate,ifhistoryprofitextroplate,IfprofitdisStableChangeRage,IfprofitdisStable,predicttype,predict,analyst_prediction,adj_prediction
0,600890,14828752.849999998,14829208.65,2013-12-31,年度报告,987740.3000000002,2013,12,未知,未知,未知,未知,未知,未知,未知,未知,未知,未知
1,600890,-4499767.15,-4499513.1499999985,2014-03-31,一季度报告,-4499513.1499999985,2014,3,未知,未知,未知,未知,未知,未知,未知,未知,未知,未知
2,600890,-2973955.05,-2973701.05,2014-06-30,半年度报告,-14003048.62,2014,6,未知,未知,未知,未知,未知,未知,未知,未知,未知,未知
3,600890,-7780183.669999999,-7779929.669999997,2014-09-30,三季度报告,-18809277.24,2014,9,未知,未知,未知,未知,未知,未知,未知,未知,未知,未知
4,600890,-13425959.15,-13425453.71,2014-12-31,年度报告,-28445476.24,2014,12,0.0,True,未知,未知,未知,未知,未知,未知,未知,未知
5,600890,-4418914.03,-4418914.03,2015-03-31,一季度报告,-4418914.03,2015,3,-4.295448932285307,False,未知,未知,未知,未知,未知,未知,未知,未知
6,600890,-12353714.78,-12353464.43,2015-06-30,半年度报告,-12353464.43,2015,6,-5.986206112967309,False,未知,未知,未知,未知,未知,未知,未知,未知
7,600890,-14824988.990000002,-14824557.739999998,2015-09-30,三季度报告,-17723294.22,2015,9,-2.905964367805214,False,未知,未知,未知,未知,未知,未知,未知,未知
8,600890,12132921.659999998,12133533.81,2015-12-31,年度报告,-17505849.56,2015,12,-2.104483685994233,False,未知,未知,未知,未知,未知,未知,未知,未知
9,600890,-8302647.039999999,-8302527.04,2016-03-31,一季度报告,-8682325.04,2016,3,-4.355745947834156,False,未知,未知,未知,未知,未知,未知,未知,未知
10,600890,-16832438.000000004,-16831528.330000002,2016-06-30,半年度报告,-17212146.330000002,2016,6,-2.200347677931415,False,未知,未知,未知,未知,未知,未知,2825640000.0,未知
11,600890,-19938165.41,-19937840.51,2016-09-30,三季度报告,-23433093.47000001,2016,9,-2.0002538861919246,False,未知,未知,未知,未知,未知,未知,,未知
12,600890,-42019278.69,-42018822.59,2016-12-31,年度报告,-50992045.43000001,2016,12,0.22219142804553474,True,16.298226617356523,False,0.0,True,比例外推,-42018822.59,未知,-42018822.59
13,600890,-8865409.809999999,-8864899.809999999,2017-03-31,一季度报告,-8340804.860000001,2017,3,-2.7860271282831746,False,-0.8618553287045516,True,0.0588004996598325,True,前期平均,-27381349.119999997,未知,-27381349.119999997
14,600890,-18216964.64,-18216504.64,2017-06-30,半年度报告,-18453166.25,2017,6,-1.8809628676487622,False,-1.1963466315088294,True,0.19384340419419754,False,前期平均,-28013911.015,未知,-28013911.015
15,600890,-25620123.18,-25619613.180000003,2017-09-30,三季度报告,-25856274.79,2017,9,-1.7437370763592235,False,-0.7640356665163379,True,0.30135291677288323,False,前期平均,-30328990.35,未知,-30328990.35
16,600890,8049894.930000002,8055564.3500000015,2017-12-31,年度报告,-1089224.42,2017,12,-1.352903555517935,False,-63.99313285958929,True,0.0,True,盈利变化,-25384548.92,未知,-25384548.92
17,600890,-8930619.79,-8930569.790000001,2018-03-31,一季度报告,-8925517.189999998,2018,3,-2.6726528347593668,False,-0.3937613098295646,True,4.964144407906863,False,前期平均,-36628897.75,未知,-36628897.75
18,600890,-20881929.26,-20881879.26,2018-06-30,半年度报告,-20742105.56,2018,6,-1.8140078845758794,False,-0.24832928665290155,True,10.946635933882018,False,前期平均,-40348021.37500001,未知,-40348021.37500001
19,600890,-33135298.04,-33135248.04000001,2018-09-30,三季度报告,-32904972.969999995,2018,9,-1.5787931910325812,False,-0.4739814969150208,True,15.334840721141305,False,前期平均,-46806001.69000001,未知,-46806001.69000001
20,600890,-42022489.22,-42021979.21999999,2018-12-31,年度报告,-42184723.06999999,2018,12,0.842105142855572,False,-1.5387003121136171,True,0.0,True,盈利变化,-5642935.1999999955,未知,-5642935.1999999955
21,600890,-9334446.08,-9334396.080000002,2019-03-31,一季度报告,-9334396.080000002,2019,3,-2.660439387040572,False,-0.040376306768811786,True,4.977758826403072,False,前期平均,-26863466.055000007,未知,-26863466.055000007
22,600890,-14680817.65,-14680767.65,2019-06-30,半年度报告,-15125867.24,2019,6,-1.7101236990781759,False,-0.19157119306613102,True,11.017962361793266,False,前期平均,-22888746.285000004,未知,-22888746.285000004
23,600890,-21732886.25,-21732836.25,2019-09-30,三季度报告,-22656709.42000001,2019,9,-1.4475213360718575,False,-0.4546331333119112,True,15.412307449077877,False,前期平均,-23128787.045,未知,-23128787.045
24,600890,28486289.42,28486375.590000004,2019-12-31,年度报告,23506986.53,2019,12,-1.352876593586999,False,-1.4741390374872083,True,0.0,True,盈利变化,-20124742.68666666,未知,-20124742.68666666
25,600890,-12181557.67,-12181557.67,2020-03-31,一季度报告,-12687846.98,2020,3,-2.588605550121727,False,-0.04904816296776684,True,5.166878330984595,False,前期平均,-25185370.39,未知,-25185370.39
