,SECURITYCODE_x,NETPROFIT_x,PARENTNETPROFIT_x,REPORTDATE_x,REPORTTIMETYPE_x,KCFJCXSYJLR,Year,Month,managesituationChangeRate,managesituationGreatChange,historyprofitextroplaterate,ifhistoryprofitextroplate,IfprofitdisStableChangeRage,IfprofitdisStable,predicttype,predict,analyst_prediction,adj_prediction
0,600883,6618483.920000001,6618483.920000001,2013-12-31,年度报告,-4410749.83,2013,12,未知,未知,未知,未知,未知,未知,未知,未知,未知,未知
1,600883,-5297803.2700000005,-5297803.2700000005,2014-03-31,一季度报告,-5731786.7,2014,3,未知,未知,未知,未知,未知,未知,未知,未知,未知,未知
2,600883,-12455978.97,-12455978.97,2014-06-30,半年度报告,-13143114.97,2014,6,未知,未知,未知,未知,未知,未知,未知,未知,未知,未知
3,600883,-4730935.47,-4730935.47,2014-09-30,三季度报告,-10978948.71,2014,9,未知,未知,未知,未知,未知,未知,未知,未知,未知,未知
4,600883,-48530004.91,-48530004.91,2014-12-31,年度报告,-84105924.65999998,2014,12,0.0,True,未知,未知,未知,未知,未知,未知,未知,未知
5,600883,27263933.919999994,27263933.919999994,2015-03-31,一季度报告,8096101.37,2015,3,-2.249288352679808,False,未知,未知,未知,未知,未知,未知,未知,未知
6,600883,119603770.27,119603770.27,2015-06-30,半年度报告,32560070.06000001,2015,6,-1.5313499594002606,False,未知,未知,未知,未知,未知,未知,未知,未知
7,600883,118572188.64,118878741.13,2015-09-30,三季度报告,31107507.760000005,2015,9,-2.3989799611449785,False,未知,未知,未知,未知,未知,未知,未知,未知
8,600883,69826317.41999999,70712083.04999998,2015-12-31,年度报告,-15013269.27,2015,12,-1.1363792138961069,False,未知,未知,未知,未知,未知,未知,未知,未知
9,600883,-1769728.88,-1506874.97,2016-03-31,一季度报告,-2112693.7,2016,3,-0.7572439861606002,True,未知,未知,未知,未知,未知,未知,未知,未知
10,600883,-3980262.89,-3357958.689999998,2016-06-30,半年度报告,-4660680.38,2016,6,-0.9446632501211368,True,未知,未知,未知,未知,未知,未知,未知,未知
11,600883,21400847.03,22325516.360000007,2016-09-30,三季度报告,1597363.6100000003,2016,9,-0.9441818187223098,True,未知,未知,未知,未知,未知,未知,未知,未知
12,600883,12991040.700000005,14227660.38,2016-12-31,年度报告,-7407382.78,2016,12,-0.9052150512221585,True,-4.332082242334294,True,0.0,True,比例外推,14227660.38,未知,14227660.38
13,600883,38257226.26,38557796.25999999,2017-03-31,一季度报告,11094058.1,2017,3,-4.739829300858785,False,1.1611325096985163,True,0.47729677185553837,False,盈利变化,31836662.78,未知,31836662.78
14,600883,39627973.3,40603251.45,2017-06-30,半年度报告,11293796.36,2017,6,-2.662825824050029,False,1.0742948191784145,True,1.7076560602528599,False,盈利变化,24863978.206666667,未知,24863978.206666667
15,600883,42552344.39,43527622.54,2017-09-30,三季度报告,15942587.260000002,2017,9,-0.6907372913454257,True,0.6240229893105278,True,1.352964733459069,False,平均增速,-8900783.358152479,未知,-8900783.358152479
16,600883,26323882.86000001,27299161.0,2017-12-31,年度报告,-4259713.96,2017,12,-0.49053474060780994,True,0.22002724123247858,True,0.0,True,比例外推,27299161.0,未知,27299161.0
17,600883,1951861.66,1951861.66,2018-03-31,一季度报告,1164004.7000000002,2018,3,-0.8270004240500837,True,2.0012488092862695,False,1.6515930929969698,False,未知,未知,未知,未知
18,600883,7134992.79,7134992.79,2018-06-30,半年度报告,4808940.639999999,2018,6,-0.8329845468024477,True,0.31453431576398183,True,2.0261482117502965,False,平均增速,-7575342.721080034,未知,-7575342.721080034
19,600883,10754586.97,10754586.97,2018-09-30,三季度报告,7370138.16,2018,9,-0.8444625316212806,True,0.3919922621336688,True,1.7944513300323865,False,平均增速,-8721101.114324035,未知,-8721101.114324035
20,600883,10750660.120000003,10750660.120000003,2018-12-31,年度报告,4816774.329999999,2018,12,-0.7485749364864026,True,0.36429068838787504,True,0.0,True,比例外推,10750660.120000003,未知,10750660.120000003
21,600883,1542365.6800000004,1542365.6800000004,2019-03-31,一季度报告,-776226.0700000002,2019,3,2.390857075393346,False,0.8930120287685238,True,1.911899600796903,False,前期平均,-8781864.89,未知,-8781864.89
22,600883,3678429.28,3678429.28,2019-06-30,半年度报告,-750103.49,2019,6,-0.07239094491082158,True,0.5996941902895132,True,2.3100584888604034,False,平均增速,3686740.3330941917,未知,3686740.3330941917
23,600883,7253059.4,7253059.4,2019-09-30,三季度报告,194682.56,2019,9,-0.3845896696486522,True,0.663673173106519,True,2.9332462797410557,False,平均增速,4311238.971798984,未知,4311238.971798984
24,600883,7147673.289999997,7147673.289999997,2019-12-31,年度报告,-2502749.1300000004,2019,12,-0.38436488121438267,True,0.45310029136427,True,0.0,True,比例外推,7147673.289999997,未知,7147673.289999997
25,600883,3795178.7800000007,3795178.7800000007,2020-03-31,一季度报告,937138.62,2020,3,3.2911249944306324,False,0.9232827323480358,True,1.920211192086977,False,前期平均,-2055322.4349999991,未知,-2055322.4349999991
