,SECURITYCODE_x,NETPROFIT_x,PARENTNETPROFIT_x,REPORTDATE_x,REPORTTIMETYPE_x,KCFJCXSYJLR,Year,Month,managesituationChangeRate,managesituationGreatChange,historyprofitextroplaterate,ifhistoryprofitextroplate,IfprofitdisStableChangeRage,IfprofitdisStable,predicttype,predict,analyst_prediction,adj_prediction
0,600834,120549077.08,120549077.08,2013-12-31,年度报告,120550186.17999996,2013,12,未知,未知,未知,未知,未知,未知,未知,未知,未知,未知
1,600834,14247855.049999995,14247855.049999995,2014-03-31,一季度报告,14247285.05,2014,3,未知,未知,未知,未知,未知,未知,未知,未知,未知,未知
2,600834,42679967.09,42679967.09,2014-06-30,半年度报告,42376472.09,2014,6,未知,未知,未知,未知,未知,未知,未知,未知,未知,未知
3,600834,83239191.16000001,83239191.16000001,2014-09-30,三季度报告,75360696.16000001,2014,9,未知,未知,未知,未知,未知,未知,未知,未知,未知,未知
4,600834,105174739.65,105174739.65,2014-12-31,年度报告,93321845.45999998,2014,12,0.0,True,未知,未知,未知,未知,未知,未知,未知,未知
5,600834,13935128.71,13935128.71,2015-03-31,一季度报告,13947128.710000005,2015,3,7.460857908573406,False,未知,未知,未知,未知,未知,未知,103000000.0,未知
6,600834,31171096.169999994,31171096.169999994,2015-06-30,半年度报告,31184020.02,2015,6,1.8244885200074317,False,未知,未知,未知,未知,未知,未知,116550000.0,未知
7,600834,47358070.27,47358070.27,2015-09-30,三季度报告,47358676.81,2015,9,0.44822499354041034,True,未知,未知,未知,未知,未知,未知,,未知
8,600834,68965233.43,68965233.43,2015-12-31,年度报告,61853644.52999999,2015,12,0.14617899203898804,True,未知,未知,未知,未知,未知,未知,136500000.0,未知
9,600834,18709713.91,18709713.91,2016-03-31,一季度报告,18709713.91,2016,3,7.65073294898903,False,未知,未知,未知,未知,未知,未知,78300000.0,未知
10,600834,35143882.75,35143882.75,2016-06-30,半年度报告,34770885.25,2016,6,2.867335188424335,False,未知,未知,未知,未知,未知,未知,71150000.0,未知
11,600834,61316523.25999999,61316523.25999999,2016-09-30,三季度报告,55761870.14000001,2016,9,1.5454811902748586,False,未知,未知,未知,未知,未知,未知,70000000.0,未知
12,600834,51942158.00000001,51942158.00000001,2016-12-31,年度报告,46168761.53,2016,12,0.7479688110148689,False,0.3889414557215918,True,0.0,True,前期平均,51942158.00000001,72500000.0,72500000.0
13,600834,24642495.64,24642495.64,2017-03-31,一季度报告,24641070.640000004,2017,3,5.443127760257666,False,0.3277312345156744,True,0.14411270232327023,False,前期平均,88133033.755,63275000.0,63275000.0
14,600834,45842089.9,45842089.9,2017-06-30,半年度报告,42166039.9,2017,6,2.4301581853530396,False,0.04824978277502989,True,0.18266796780408057,False,前期平均,86649588.83999997,,86649588.83999997
15,600834,64322634.84000001,64322634.84000001,2017-09-30,三季度报告,60648220.89,2017,9,0.9660129223054063,False,0.0609830162041249,True,0.2807915453110482,False,前期平均,80550693.35,未知,80550693.35
16,600834,51670168.85999999,51670168.85999999,2017-12-31,年度报告,47997215.91,2017,12,1.3208330520268328,False,0.40344359676525565,True,0.0,True,前期平均,51670168.85999999,85000000.0,85000000.0
17,600834,21284802.220000006,21284802.220000006,2018-03-31,一季度报告,18239127.220000006,2018,3,3.891918369027659,False,0.5097328498010691,True,0.1558865529636825,False,前期平均,58967583.94,未知,58967583.94
18,600834,17853343.73,17853343.73,2018-06-30,半年度报告,14790487.73,2018,6,1.6296592791246196,False,0.38255611768503306,True,0.20777319404711436,False,前期平均,38887094.125,未知,38887094.125
19,600834,25195438.12,25195438.12,2018-09-30,三季度报告,22132581.37,2018,9,0.8741315149769754,False,0.18376582328313054,True,0.3133491335109051,False,前期平均,27646367.67499999,未知,27646367.67499999
20,600834,35676987.17,33210260.22000001,2018-12-31,年度报告,27162659.36000001,2018,12,1.3330497991331707,False,0.1452934638836416,True,0.0,True,前期平均,33210260.22000001,未知,33210260.22000001
21,600834,42628886.02,40683532.95999999,2019-03-31,一季度报告,34301276.40000001,2019,3,4.663622139120819,False,0.01805225427085491,True,0.14144144693362248,False,前期平均,66091129.404999994,49600000.0,49600000.0
22,600834,12034712.32,12034712.32,2019-06-30,半年度报告,7677212.3999999985,2019,6,5.7521848513695755,False,0.55910034427425,True,0.1808683372923493,False,前期平均,20649238.465,,20649238.465
23,600834,51496222.2,51496222.2,2019-09-30,三季度报告,35018262.35,2019,9,3.7845596693279484,False,0.5989237989011962,True,0.28057618396444006,False,前期平均,40374165.405,未知,40374165.405
24,600834,72864868.11000001,68157233.88000001,2019-12-31,年度报告,47438841.95000001,2019,12,2.378902946753505,False,0.3113370145966047,True,0.0,True,前期平均,68157233.88000001,未知,68157233.88000001
25,600834,23151623.05,21260980.07,2020-03-31,一季度报告,18902314.58,2020,3,1.8278730301195891,False,0.8563637751972895,True,0.1225900797264673,False,前期平均,37400818.775,未知,37400818.775
