,SECURITYCODE_x,NETPROFIT_x,PARENTNETPROFIT_x,REPORTDATE_x,REPORTTIMETYPE_x,KCFJCXSYJLR,Year,Month,managesituationChangeRate,managesituationGreatChange,historyprofitextroplaterate,ifhistoryprofitextroplate,IfprofitdisStableChangeRage,IfprofitdisStable,predicttype,predict,analyst_prediction,adj_prediction
0,600805,1365055340.24,1292272010.2099998,2013-12-31,年度报告,1252117882.89,2013,12,未知,未知,未知,未知,未知,未知,未知,未知,未知,未知
1,600805,249251364.29000005,244348094.04999995,2014-03-31,一季度报告,206254994.05,2014,3,未知,未知,未知,未知,未知,未知,未知,未知,未知,未知
2,600805,509439010.69,491943466.4700001,2014-06-30,半年度报告,405047820.81999993,2014,6,未知,未知,未知,未知,未知,未知,未知,未知,未知,未知
3,600805,772176949.51,750839219.1200001,2014-09-30,三季度报告,647819792.01,2014,9,未知,未知,未知,未知,未知,未知,未知,未知,未知,未知
4,600805,1083564331.24,1065515991.2199998,2014-12-31,年度报告,1012594435.1,2014,12,0.0,True,未知,未知,未知,未知,未知,未知,未知,未知
5,600805,136703466.99,140532291.76,2015-03-31,一季度报告,135499082.48000002,2015,3,4.476621338175624,False,未知,未知,未知,未知,未知,未知,1304500000.0,未知
6,600805,275487891.23999995,280796427.61,2015-06-30,半年度报告,237357012.55,2015,6,1.6795265215184967,False,未知,未知,未知,未知,未知,未知,830333333.0,未知
7,600805,147101734.65,146240727.64000002,2015-09-30,三季度报告,99954212.37,2015,9,0.7678012029577193,False,未知,未知,未知,未知,未知,未知,,未知
8,600805,125295696.35,129822707.91999996,2015-12-31,年度报告,91403284.54,2015,12,0.2597824613494519,True,未知,未知,未知,未知,未知,未知,1313500000.0,未知
9,600805,30093722.86,31564044.430000003,2016-03-31,一季度报告,26964001.97,2016,3,8.985520998818963,False,未知,未知,未知,未知,未知,未知,350500000.0,未知
10,600805,79723802.79,80880879.39,2016-06-30,半年度报告,73938046.25,2016,6,3.9550466051184405,False,未知,未知,未知,未知,未知,未知,352430000.0,未知
11,600805,81466100.00999999,88818303.18,2016-09-30,三季度报告,82586323.47,2016,9,8.279668546994934,False,未知,未知,未知,未知,未知,未知,230800000.0,未知
12,600805,134258662.93,110154597.9,2016-12-31,年度报告,123940131.96,2016,12,9.89467060725586,False,0.8976601406830417,True,0.0,True,前期平均,110154597.9,未知,110154597.9
13,600805,10069302.44,8273234.85,2017-03-31,一季度报告,9774888.2,2017,3,44.360135287695016,False,0.844055726623783,True,0.8478720441176147,False,前期平均,389395056.405,未知,389395056.405
14,600805,28413519.320000004,8545383.509999998,2017-06-30,半年度报告,-47679928.82,2017,6,16.122305917038155,False,0.79686311529399,True,1.3990161880844163,False,前期平均,239341826.64500004,未知,239341826.64500004
15,600805,-257940477.41000003,-277282195.0300001,2017-09-30,三季度报告,-334706475.78,2017,9,15.756114998415772,False,0.8227608201653442,True,0.29366683214616174,False,盈利变化,-75308868.43333334,未知,-75308868.43333334
16,600805,-305802224.3,-274253430.00000006,2017-12-31,年度报告,-389881402.3199999,2017,12,9.167353900669447,False,0.7778755854841856,True,0.0,True,盈利变化,-61119246.859999955,-348400000.0,-348400000.0
17,600805,45471035.31,40661574.13,2018-03-31,一季度报告,25999708.879999995,2018,3,134.5660283692899,False,0.8792629246445306,True,0.924125736837489,False,前期平均,67101740.154999994,133000000.0,133000000.0
18,600805,88958329.49000001,100180156.9,2018-06-30,半年度报告,62088552.59000001,2018,6,47.04245911484646,False,0.8400192347406205,True,1.4915883564386059,False,前期平均,52204335.75,133000000.0,133000000.0
19,600805,125065099.49,148698868.28,2018-09-30,三季度报告,108673709.25,2018,9,-6.292133107399911,False,3.2570146651972487,False,0.22076001620423613,False,前期平均,165100308.61,,165100308.61
20,600805,46019230.14,80553637.49000001,2018-12-31,年度报告,-47679818.99,2018,12,-5.46385026585302,False,3.3563636160709525,False,0.0,True,前期平均,80553637.49000001,未知,80553637.49000001
21,600805,20390520.220000006,27244887.2,2019-03-31,一季度报告,15937059.999999998,2019,3,29.020326806585746,False,1.2643232162095124,True,0.4276937274353915,False,前期平均,-124095193.06499992,未知,-124095193.06499992
22,600805,153615913.49999997,203019292.4100001,2019-06-30,半年度报告,-127093105.02,2019,6,14.344885049729365,False,0.6452844911308114,True,1.1077504967222627,False,前期平均,56919598.515000135,未知,56919598.515000135
23,600805,25566354.9,93090607.36,2019-09-30,三季度报告,-237096778.86000004,2019,9,9.91475836029817,False,-2.4173740271260473,True,2.0277671699605633,False,前期平均,86180048.33500004,未知,86180048.33500004
24,600805,70559379.43000002,106729975.02,2019-12-31,年度报告,-295300243.92,2019,12,28.66271569705142,False,-1.5365311268167243,True,0.0,True,前期平均,106729975.02,未知,106729975.02
25,600805,-223095003.27,-204387014.91,2020-03-31,一季度报告,-211181909.73,2020,3,65.94558674874257,False,0.2657401432529097,True,0.3371851706123016,False,盈利变化,-196095317.95333332,未知,-196095317.95333332
