,SECURITYCODE_x,NETPROFIT_x,PARENTNETPROFIT_x,REPORTDATE_x,REPORTTIMETYPE_x,KCFJCXSYJLR,Year,Month,managesituationChangeRate,managesituationGreatChange,historyprofitextroplaterate,ifhistoryprofitextroplate,IfprofitdisStableChangeRage,IfprofitdisStable,predicttype,predict,analyst_prediction,adj_prediction
0,600844,-281772713.04999995,-174252431.11,2013-12-31,年度报告,-181460398.76,2013,12,未知,未知,未知,未知,未知,未知,未知,未知,未知,未知
1,600844,-40484459.71,-23034922.49,2014-03-31,一季度报告,-23435895.379999995,2014,3,未知,未知,未知,未知,未知,未知,未知,未知,未知,未知
2,600844,-4301923.12,-5401761.58,2014-06-30,半年度报告,-36959767.96,2014,6,未知,未知,未知,未知,未知,未知,未知,未知,未知,未知
3,600844,20389118.61,6523670.59,2014-09-30,三季度报告,-26471981.39,2014,9,未知,未知,未知,未知,未知,未知,未知,未知,未知,未知
4,600844,45352484.50000001,17430398.62,2014-12-31,年度报告,-15490701.53,2014,12,-0.0,False,未知,未知,未知,未知,未知,未知,未知,未知
5,600844,-1415486.53,-2048532.69,2015-03-31,一季度报告,-2517576.63,2015,3,5.9600215753997015,False,未知,未知,未知,未知,未知,未知,64333333.0,未知
6,600844,28898469.72,11946425.060000002,2015-06-30,半年度报告,-3005430.9200000013,2015,6,64.49924421940854,False,未知,未知,未知,未知,未知,未知,44666667.0,未知
7,600844,7489358.51,-793962.5100000001,2015-09-30,三季度报告,-16507314.73,2015,9,-14.81975937458142,False,未知,未知,未知,未知,未知,未知,78000000.0,未知
8,600844,-49251746.71999998,-30667760.800000004,2015-12-31,年度报告,-53339083.87,2015,12,-7.212949878192449,False,未知,未知,未知,未知,未知,未知,67500000.0,未知
9,600844,-63406339.52999999,-34834917.9,2016-03-31,一季度报告,-35626658.8,2016,3,198.0642136665193,False,未知,未知,未知,未知,未知,未知,未知,未知
10,600844,-125766096.35,-69764839.36,2016-06-30,半年度报告,-70971728.87000002,2016,6,-10.750437160864308,False,未知,未知,未知,未知,未知,未知,未知,未知
11,600844,-181246384.48,-105646721.33000004,2016-09-30,三季度报告,-111300345.8,2016,9,-38.623077153239386,False,未知,未知,未知,未知,未知,未知,未知,未知
12,600844,-253904433.13,-164305314.94,2016-12-31,年度报告,-171088600.43999997,2016,12,4.721070455671345,False,-0.5833542076998387,True,0.0,True,前期平均,-164305314.94,,-164305314.94
13,600844,57450204.91000001,43519290.79000001,2017-03-31,一季度报告,37773531.90000001,2017,3,3.4439202000721463,False,-2.026559469399452,True,0.923455689848575,False,盈利变化,-66438394.006666645,,-66438394.006666645
14,600844,62953443.41,46998309.83000001,2017-06-30,半年度报告,37923931.14999999,2017,6,1.2404504968162666,False,11.226321474739061,False,1.4335649314434717,False,盈利变化,-91708208.25999999,未知,-91708208.25999999
15,600844,99229615.0,73745353.03,2017-09-30,三季度报告,66027622.83000001,2017,9,0.5546390834686843,False,14.002602954231957,False,0.8192563131176045,False,盈利变化,-85492884.43777777,未知,-85492884.43777777
16,600844,350871343.08,266083794.43,2017-12-31,年度报告,34425559.31999999,2017,12,0.1097589340069982,False,-129.2320381674675,True,0.0,True,盈利变化,-95800595.02000001,196700000.0,196700000.0
17,600844,9503754.430000003,6345236.77,2018-03-31,一季度报告,1804598.78,2018,3,-5.904642437593003,False,-2.7725574363432246,True,0.6463568124133936,False,前期平均,-86796487.67,未知,-86796487.67
18,600844,-46645478.68,-37651266.72999999,2018-06-30,半年度报告,-42613166.77,2018,6,-5.4758904007027045,False,-2.2997829223267714,True,0.5773575099905882,False,盈利变化,212392395.8166667,未知,212392395.8166667
19,600844,7687693.99,2909833.06,2018-09-30,三季度报告,-7500534.759999999,2018,9,-3.8396030061186868,False,-2.142165209677708,True,0.9586480713118178,False,前期平均,-45400178.829999976,未知,-45400178.829999976
20,600844,8672105.48,2056765.46,2018-12-31,年度报告,-11967624.42,2018,12,-1.803065621080815,False,-3.31478931588074,True,0.0,True,前期平均,2056765.46,未知,2056765.46
21,600844,-86026957.08000001,-66814436.01,2019-03-31,一季度报告,-66553977.05,2019,3,-30.648568376361116,False,-4.1912490352677905,True,0.7123533226166656,False,盈利变化,-89088002.31333333,未知,-89088002.31333333
22,600844,-143043825.73,-111416146.8,2019-06-30,半年度报告,-111882369.76999998,2019,6,5.040729370214707,False,-0.4852255555757776,True,1.8683206678148514,False,前期平均,-163223768.49999997,821610000.0,821610000.0
23,600844,-288932020.1,-224715770.55,2019-09-30,三季度报告,-223711561.85,2019,9,-37.65243614229759,False,-1.187466393488582,True,0.8528958408739824,False,盈利变化,-94037024.35777779,,-94037024.35777779
24,600844,-505343740.45,-432800708.10000014,2019-12-31,年度报告,-432132619.26,2019,12,-33.49184568843597,False,0.8211326836243067,True,0.0,True,盈利变化,-137998232.82,未知,-137998232.82
25,600844,-75115677.28000002,-58611040.57000002,2020-03-31,一季度报告,-59068334.97000001,2020,3,2.2754002072625665,False,3.5697347230249696,False,0.7304274189447857,False,去年同期,-424189682.78,未知,-424189682.78
