,SECURITYCODE_x,NETPROFIT_x,PARENTNETPROFIT_x,REPORTDATE_x,REPORTTIMETYPE_x,KCFJCXSYJLR,Year,Month,managesituationChangeRate,managesituationGreatChange,historyprofitextroplaterate,ifhistoryprofitextroplate,IfprofitdisStableChangeRage,IfprofitdisStable,predicttype,predict,analyst_prediction,adj_prediction
0,600869,294628231.68,302894499.52000004,2013-12-31,年度报告,117603431.09000002,2013,12,未知,未知,未知,未知,未知,未知,未知,未知,未知,未知
1,600869,30206553.24,33541480.88,2014-03-31,一季度报告,32189160.89000001,2014,3,未知,未知,未知,未知,未知,未知,未知,未知,未知,未知
2,600869,100664630.57,102706427.21999995,2014-06-30,半年度报告,94875352.01,2014,6,未知,未知,未知,未知,未知,未知,未知,未知,未知,未知
3,600869,187647356.02,190360608.75,2014-09-30,三季度报告,174158115.37,2014,9,未知,未知,未知,未知,未知,未知,未知,未知,未知,未知
4,600869,199343110.08,182714079.89,2014-12-31,年度报告,130146090.88999996,2014,12,0.0,True,未知,未知,未知,未知,未知,未知,未知,未知
5,600869,84316048.28000002,83296345.48999998,2015-03-31,一季度报告,43671580.03,2015,3,8.753785191547395,False,未知,未知,未知,未知,未知,未知,436000000.0,未知
6,600869,162702501.46999997,162310810.29,2015-06-30,半年度报告,118891195.35000002,2015,6,1.9268297118035111,False,未知,未知,未知,未知,未知,未知,427843333.0,未知
7,600869,257146066.06,249921125.79,2015-09-30,三季度报告,209328938.07,2015,9,0.5701166162373088,False,未知,未知,未知,未知,未知,未知,409360000.0,未知
8,600869,451290588.52,422276884.65,2015-12-31,年度报告,268443456.61,2015,12,0.4779955603269175,True,未知,未知,未知,未知,未知,未知,428815000.0,未知
9,600869,85117446.53999998,86668775.64,2016-03-31,一季度报告,84913185.52000003,2016,3,2.494331597486484,False,未知,未知,未知,未知,未知,未知,688396667.0,未知
10,600869,211989304.42000005,207438666.24,2016-06-30,半年度报告,198175066.07,2016,6,0.810840208466772,False,未知,未知,未知,未知,未知,未知,707207778.0,未知
11,600869,287857038.44,284062968.5,2016-09-30,三季度报告,270298468.62,2016,9,0.14576215842732074,True,未知,未知,未知,未知,未知,未知,601741747.0,未知
12,600869,308101864.68000007,286722917.49999994,2016-12-31,年度报告,269778428.17,2016,12,-0.3471429735633787,True,0.8271934032127037,True,0.0,True,比例外推,286722917.49999994,573476310.0,573476310.0
13,600869,15518698.590000005,11866411.87,2017-03-31,一季度报告,7058559.330000001,2017,3,2.461431747033704,False,0.4864742052709172,True,0.07890454408860945,True,前期平均,173230815.16,470395000.0,470395000.0
14,600869,125064868.05,107501447.37,2017-06-30,半年度报告,82729241.84,2017,6,0.3898259277094143,True,0.6098387279989312,True,0.19259789913338748,False,平均增速,177359753.9287268,217210000.0,217210000.0
15,600869,181896216.03,146049335.58,2017-09-30,三季度报告,115042037.54,2017,9,0.023522764205091255,True,0.294340357345601,True,0.2982108422162981,False,平均增速,145539848.44022727,210880000.0,210880000.0
16,600869,89454631.7,51081631.01,2017-12-31,年度报告,21887176.98,2017,12,-0.043731098524814216,True,0.05291759297756098,True,0.0,True,比例外推,51081631.01,771346200.0,771346200.0
17,600869,80766453.21,70364968.82000001,2018-03-31,一季度报告,56972965.82000001,2018,3,17.985369808641916,False,0.8168166382156432,True,0.10396004095282049,False,前期平均,275183528.435,357350000.0,357350000.0
18,600869,256470936.29,221899845.05,2018-06-30,半年度报告,180304800.42,2018,6,1.3558033224982882,False,0.33243873453311723,True,2.12737756038256,False,前期平均,332477656.73,400240000.0,400240000.0
19,600869,333817306.02,297932276.83000004,2018-09-30,三季度报告,253517235.88,2018,9,0.619760092378212,False,0.33249475267897305,True,2.9101872944026597,False,前期平均,327229515.87500006,,327229515.87500006
20,600869,183397880.28,148238627.21,2018-12-31,年度报告,69066737.74,2018,12,2.2936051055252404,False,0.7644047387538615,True,0.0,True,前期平均,148238627.21,395880000.0,395880000.0
21,600869,81322833.19,79591443.00000001,2019-03-31,一季度报告,67275000.00000001,2019,3,2.6479035536442375,False,0.6051181830477972,True,0.3375151858744147,False,前期平均,179438373.14999998,400700000.0,400700000.0
22,600869,209330151.03,197322140.15000004,2019-06-30,半年度报告,183766096.19000003,2019,6,0.14877824342191479,True,0.5218380737466025,True,1.640407690833392,False,平均增速,50624052.350629866,,50624052.350629866
23,600869,336294379.33000004,321664996.66,2019-09-30,三季度报告,303234022.35,2019,9,-0.11739677252578402,True,0.4212453148265251,True,2.307631979316231,False,平均增速,62100426.49715677,未知,62100426.49715677
24,600869,54772094.8,44899275.56,2019-12-31,年度报告,5835738.9300000025,2019,12,0.6064974754897969,False,0.07737450173772972,True,0.0,True,前期平均,44899275.56,未知,44899275.56
25,600869,-63460216.19999999,-67325745.43,2020-03-31,一季度报告,-75826756.86,2020,3,2.6229459811322644,False,0.6892081836028221,True,7.302937134062322,False,盈利变化,-145903066.92000002,未知,-145903066.92000002
