,SECURITYCODE_x,NETPROFIT_x,PARENTNETPROFIT_x,REPORTDATE_x,REPORTTIMETYPE_x,KCFJCXSYJLR,Year,Month,managesituationChangeRate,managesituationGreatChange,historyprofitextroplaterate,ifhistoryprofitextroplate,IfprofitdisStableChangeRage,IfprofitdisStable,predicttype,predict,analyst_prediction,adj_prediction
0,600837,4280993726.16,4035024048.18,2013-12-31,年度报告,3927304277.28,2013,12,未知,未知,未知,未知,未知,未知,未知,未知,未知,未知
1,600837,1263981926.9699993,1210342495.02,2014-03-31,一季度报告,1211484747.35,2014,3,未知,未知,未知,未知,未知,未知,未知,未知,未知,未知
2,600837,3016926490.22,2877517753.7,2014-06-30,半年度报告,2763322943.53,2014,6,未知,未知,未知,未知,未知,未知,未知,未知,未知,未知
3,600837,5187769142.059999,4949056981.970001,2014-09-30,三季度报告,4827126663.89,2014,9,未知,未知,未知,未知,未知,未知,未知,未知,未知,未知
4,600837,8119023085.669998,7710623597.599998,2014-12-31,年度报告,7534032724.490002,2014,12,0.0,True,未知,未知,未知,未知,未知,未知,未知,未知
5,600837,4358038531.79,4101658309.08,2015-03-31,一季度报告,4099862336.23,2015,3,2.386910552132926,False,未知,未知,未知,未知,未知,未知,12337255563.999998,未知
6,600837,10928654864.13,10154713712.240002,2015-06-30,半年度报告,7534032724.490002,2015,6,0.4189917255318415,True,未知,未知,未知,未知,未知,未知,16417134286.0,未知
7,600837,10928654864.13,10154713712.240002,2015-06-30,半年度报告,10009200254.070002,2015,6,0.4189917255318415,True,未知,未知,未知,未知,未知,未知,16417134286.0,未知
8,600837,10928654864.13,10154713712.240002,2015-06-30,半年度报告,1015325857765.8304,2015,6,0.4189917255318415,True,未知,未知,未知,未知,未知,未知,16417134286.0,未知
9,600837,11691715825.09,11064922102.63,2015-09-30,三季度报告,10914994368.799995,2015,9,-0.17479101152522183,True,未知,未知,未知,未知,未知,未知,13910028000.0,未知
10,600837,16841315655.08,15838850897.61,2015-12-31,年度报告,15737911809.89,2015,12,-0.4727205870721177,True,未知,未知,未知,未知,未知,未知,10186839138.0,未知
11,600837,1944677893.92,1754176498.1199994,2016-03-31,一季度报告,1763295328.17,2016,3,-0.01767878027419714,True,未知,未知,未知,未知,未知,未知,11006222222.0,未知
12,600837,4665709232.71,4264300426.67,2016-06-30,半年度报告,3997920510.460001,2016,6,-0.6082780745312888,True,未知,未知,0.0,True,未知,未知,9097133636.0,未知
13,600837,6987334383.92,6364406654.52,2016-09-30,三季度报告,6051097092.120003,2016,9,-0.6338438437775624,True,未知,未知,0.0562287522653826,True,未知,未知,8852250000.0,未知
14,600837,8930518254.41,8043334519.3,2016-12-31,年度报告,7673813008.179998,2016,12,-0.7458040800471141,True,1.7163375518995856,True,0.08871450475515064,True,比例外推,8043334519.3,13148000000.0,13148000000.0
15,600837,2590686686.7300005,2240164455.28,2017-03-31,一季度报告,1936143339.42,2017,3,1.201389618067058,False,0.3081925232449542,True,0.08871450475515064,True,前期平均,11220463180.680002,9623933571.0,9623933571.0
16,600837,3481782098.9300003,3481782098.9300003,2017-06-30,半年度报告,3625284443.48,2017,6,-0.08245595414580616,True,0.3308691672069102,True,0.08093988834479937,True,比例外推,7815527951.43804,8853683750.0,8853683750.0
17,600837,3481782098.9300003,3481782098.9300003,2017-06-30,半年度报告,3625284443.48,2017,6,-0.08245595414580616,True,0.3308691672069102,True,0.0,True,比例外推,7815527951.43804,8853683750.0,8853683750.0
18,600837,4516934146.44,4023477712.72,2017-06-30,半年度报告,3625284443.48,2017,6,-0.08245595414580616,True,0.3308691672069102,True,0.08093988834479937,True,比例外推,8357223565.228039,8853683750.0,8357223565.228039
19,600837,4516934146.44,4023477712.72,2017-06-30,半年度报告,3625284443.48,2017,6,-0.08245595414580616,True,0.3308691672069102,True,0.0,True,比例外推,8357223565.228039,8853683750.0,8357223565.228039
20,600837,6940069535.059998,6145264097.33,2017-09-30,三季度报告,5726593207.27,2017,9,-0.38732090222962856,True,0.17209151848905377,True,0.017360872659630655,True,比例外推,8511667420.119455,8790500000.0,8511667420.119455
21,600837,9875602870.26,8618423293.06,2017-12-31,年度报告,8095806771.879998,2017,12,-0.5206332259557286,True,0.28442331274694405,True,0.03848267897923585,True,比例外推,8618423293.06,,8618423293.06
22,600837,1991894846.3100004,1732104646.7699995,2018-03-31,一季度报告,1469448087.81,2018,3,0.6524552150933881,False,0.1779142478433305,True,0.03848267897923585,True,前期平均,10506388223.605,9410077000.0,9410077000.0
23,600837,3459368944.8,3030926355.46,2018-06-30,半年度报告,2636779691.070001,2018,6,0.2295409662412844,True,0.55345635419202,True,0.05872540268954618,True,比例外推,5858979686.698433,7074573143.0,7074573143.0
24,600837,3459368944.8,3030926355.46,2018-06-30,半年度报告,2636779691.070001,2018,6,0.2295409662412844,True,0.55345635419202,True,0.0,True,比例外推,5858979686.698433,7074573143.0,7074573143.0
25,600837,3071366156.670001,3071366156.670001,2018-06-30,半年度报告,2636779691.070001,2018,6,0.2295409662412844,True,0.55345635419202,True,0.05872540268954618,True,比例外推,5899419487.908434,7074573143.0,7074573143.0
26,600837,3071366156.670001,3071366156.670001,2018-06-30,半年度报告,2636779691.070001,2018,6,0.2295409662412844,True,0.55345635419202,True,0.0,True,比例外推,5899419487.908434,7074573143.0,7074573143.0
27,600837,4092431891.06,3587702798.700001,2018-09-30,三季度报告,3157297751.2499995,2018,9,-0.3831482949078276,True,0.25691408745050703,True,0.04776786308712361,True,比例外推,4756578022.7607765,5904856000.0,5904856000.0
28,600837,5770708488.4800005,5211093198.870001,2018-12-31,年度报告,4800248866.51,2018,12,-0.5665081127298012,True,0.2336127180593467,True,0.05822909859711867,True,比例外推,5211093198.870001,5354627500.0,5211093198.870001
29,600837,4099170745.1100006,3770023176.200001,2019-03-31,一季度报告,3481373615.23,2019,3,1.1492066883402865,False,0.12161643859531773,True,0.07066258709903073,True,前期平均,9805113732.434998,7920222091.0,7920222091.0
30,600837,6068149177.13,5526505264.79,2019-06-30,半年度报告,5229634374.349999,2019,6,0.23750712759187964,True,0.15081371578368594,True,0.0,True,比例外推,10631567350.39612,9089600000.0,9089600000.0
31,600837,8074809386.860002,7385648377.249998,2019-09-30,三季度报告,7067153703.009998,2019,9,0.046075741788621345,True,0.41231949401813317,True,0.07472565476733589,True,比例外推,10163028327.236284,9060128333.0,9060128333.0
32,600837,10540662761.47,9523247834.58,2019-12-31,年度报告,9048992920.81,2019,12,-0.2581511031607126,True,0.3862946590395033,True,未知,未知,True,True,9154252071.0,9154252071.0
33,600837,2283573668.81,2282724851.44,2020-03-31,一季度报告,1957239747.0700004,2020,3,0.04435603988121262,True,0.7890225042611235,True,未知,未知,True,True,10517271417.0,10517271417.0
