,SECURITYCODE_x,NETPROFIT_x,PARENTNETPROFIT_x,REPORTDATE_x,REPORTTIMETYPE_x,KCFJCXSYJLR,Year,Month,managesituationChangeRate,managesituationGreatChange,historyprofitextroplaterate,ifhistoryprofitextroplate,IfprofitdisStableChangeRage,IfprofitdisStable,predicttype,predict,analyst_prediction,adj_prediction
0,600909,189412777.22,187193507.17,2013-12-31,年度报告,180443651.58,2013,12,未知,未知,未知,未知,未知,未知,未知,未知,未知,未知
1,600909,687893803.81,686113287.1,2014-12-31,年度报告,683426949.58,2014,12,0.0,True,未知,未知,未知,未知,未知,未知,未知,未知
2,600909,1177437593.4299998,1177208863.5100002,2015-06-30,半年度报告,1180228682.35,2015,6,未知,未知,未知,未知,未知,未知,未知,未知,未知,未知
3,600909,1865133143.78,1865072011.2000003,2015-12-31,年度报告,1866716498.8400009,2015,12,-0.7246482288822638,True,未知,未知,未知,未知,未知,未知,未知,未知
4,600909,147593965.51999998,147803989.69,2016-03-31,一季度报告,147702664.56,2016,3,未知,未知,未知,未知,未知,未知,未知,未知,未知,未知
5,600909,266174037.83,266171492.38000008,2016-06-30,半年度报告,265808191.4700001,2016,6,-0.8391313660469931,True,未知,未知,未知,未知,未知,未知,未知,未知
6,600909,514755621.46,513934087.96,2016-09-30,三季度报告,510511042.2499999,2016,9,未知,未知,未知,未知,未知,未知,未知,未知,740000000.0,未知
7,600909,604418759.85,602013378.58,2016-12-31,年度报告,599018427.05,2016,12,-0.8984454392161388,True,3.2519529298190015,False,0.0,True,比例外推,602013378.58,740000000.0,740000000.0
8,600909,165972778.65000004,165222461.12,2017-03-31,一季度报告,163820016.04,2017,3,0.28333686646784545,True,未知,未知,未知,未知,未知,未知,755985714.0,未知
9,600909,416601355.95000017,406471266.1,2017-06-30,半年度报告,407934902.11,2017,6,-0.28838748224958694,True,未知,未知,未知,未知,未知,未知,854000000.0,未知
10,600909,631827185.7099999,602795438.8800001,2017-09-30,三季度报告,602385767.6600003,2017,9,-0.6320335916239845,True,未知,未知,未知,未知,未知,未知,825333333.0,未知
11,600909,652215848.87,649726827.6199999,2017-12-31,年度报告,651021926.2900001,2017,12,-0.6866199565562673,True,0.5265081236838822,True,0.0,True,比例外推,649726827.6199999,826333333.0,826333333.0
12,600909,159637035.21,158678898.03000003,2018-03-31,一季度报告,157529982.36,2018,3,0.14122796979515387,True,未知,未知,未知,未知,未知,未知,682000000.0,未知
13,600909,245504462.22000003,244969445.79,2018-06-30,半年度报告,235824819.79,2018,6,-0.5453380683601687,True,0.4228345810896716,True,0.1237921051535601,False,平均增速,400781979.6342697,,400781979.6342697
14,600909,359836551.1,357577417.08000004,2018-09-30,三季度报告,348222227.94999987,2018,9,-0.7002142650649763,True,未知,未知,未知,未知,未知,未知,未知,未知
15,600909,577849527.06,553744956.32,2018-12-31,年度报告,549676731.9599999,2018,12,-0.7095857490305271,True,0.4717941761731702,True,0.0,True,比例外推,553744956.32,856000000.0,856000000.0
16,600909,514918170.81,478060050.49000007,2019-03-31,一季度报告,477003506.38000005,2019,3,0.1865215172082748,True,0.018201312339760675,True,0.024987840309935117,True,比例外推,1824473130.8820662,622500000.0,622500000.0
17,600909,579587796.87,558136887.31,2019-06-30,半年度报告,556163974.49,2019,6,-0.2284752158587467,True,0.2808631814897975,True,0.12681662157226808,False,平均增速,1079750825.0001462,899000000.0,899000000.0
18,600909,919856542.69,873400148.04,2019-09-30,三季度报告,870080326.4899997,2019,9,-0.47361440453734943,True,0.3723322051406823,True,0.170177074926246,False,平均增速,1222340201.7415338,,1222340201.7415338
19,600909,1214177010.8,1108359114.76,2019-12-31,年度报告,1108623558.3100002,2019,12,-0.672210898598983,True,0.08032211901501937,True,0.0,True,比例外推,1108359114.76,未知,1108359114.76
20,600909,323695008.94000006,318182692.06,2020-03-31,一季度报告,318546263.97,2020,3,-0.6321497512468024,True,2.162792697835548,False,0.10743703397185483,False,未知,未知,1177000000.0,未知
