,SECURITYCODE_x,NETPROFIT_x,PARENTNETPROFIT_x,REPORTDATE_x,REPORTTIMETYPE_x,KCFJCXSYJLR,Year,Month,managesituationChangeRate,managesituationGreatChange,historyprofitextroplaterate,ifhistoryprofitextroplate,IfprofitdisStableChangeRage,IfprofitdisStable,predicttype,predict,analyst_prediction,adj_prediction
0,600975,9833499.02,13631603.340000002,2013-12-31,年度报告,4353409.3100000005,2013,12,未知,未知,未知,未知,未知,未知,未知,未知,未知,未知
1,600975,-23987001.7,-22237439.660000004,2014-03-31,一季度报告,-21485880.34,2014,3,未知,未知,未知,未知,未知,未知,未知,未知,未知,未知
2,600975,-44001217.34000001,-40001616.14,2014-06-30,半年度报告,-42863473.54,2014,6,未知,未知,未知,未知,未知,未知,未知,未知,未知,未知
3,600975,-48023799.92,-39270640.12000001,2014-09-30,三季度报告,-45564954.28999999,2014,9,未知,未知,未知,未知,未知,未知,未知,未知,未知,未知
4,600975,-68803957.88000001,-48963311.37999999,2014-12-31,年度报告,-53667974.83000001,2014,12,0.0,True,未知,未知,未知,未知,未知,未知,未知,未知
5,600975,-27520689.809999995,-21513881.440000005,2015-03-31,一季度报告,-19915439.200000007,2015,3,-1.409951153670031,False,未知,未知,未知,未知,未知,未知,未知,未知
6,600975,-38420894.01000001,-24786238.01,2015-06-30,半年度报告,-24655627.919999994,2015,6,-1.2234824310431227,False,未知,未知,未知,未知,未知,未知,未知,未知
7,600975,-11899980.990000002,8890679.729999999,2015-09-30,三季度报告,5723796.889999999,2015,9,-1.2047630349197906,False,未知,未知,未知,未知,未知,未知,未知,未知
8,600975,5847798.3999999985,36962714.34,2015-12-31,年度报告,29214975.009999994,2015,12,-1.1429205429889726,False,未知,未知,未知,未知,未知,未知,,未知
9,600975,47614707.89,53884621.58000001,2016-03-31,一季度报告,53816971.66,2016,3,-1.3573129557394625,False,未知,未知,未知,未知,未知,未知,253866667.00000003,未知
10,600975,129699399.23,142639175.56,2016-06-30,半年度报告,142088951.34000003,2016,6,-1.2559414421080515,False,未知,未知,未知,未知,未知,未知,254300000.0,未知
11,600975,190326037.48,205591065.08000004,2016-09-30,三季度报告,203993990.75,2016,9,-1.8263457755322008,False,未知,未知,未知,未知,未知,未知,244080000.0,未知
12,600975,173554554.63000005,196621129.71000004,2016-12-31,年度报告,188013789.17,2016,12,0.6815728497069944,False,-1.1983297574089793,True,0.0,True,前期平均,196621129.71000004,136750000.0,136750000.0
13,600975,29223293.419999994,33384920.2,2017-03-31,一季度报告,33266977.32999999,2017,3,-0.7934776993126273,True,-2.848838745986347,True,0.6833199117981893,False,平均增速,376130091.76668096,156000000.0,156000000.0
14,600975,37048708.81999999,41133212.92000001,2017-06-30,半年度报告,39914541.97,2017,6,-0.9241823857444247,True,-4.147199146094186,True,1.0807638944086975,False,平均增速,150683674.01912388,88000000.0,88000000.0
15,600975,48225805.11000002,52599766.67,2017-09-30,三季度报告,50494971.24,2017,9,-0.9483334011982815,True,-7.352270654144877,True,0.51405687584605,False,平均增速,14746838.16255068,,14746838.16255068
16,600975,37433854.06,44911986.58999999,2017-12-31,年度报告,33523868.14,2017,12,-0.9433405879726753,True,-6.513505145914597,True,0.0,True,比例外推,44911986.58999999,184700000.0,184700000.0
17,600975,-6160198.44,-4739962.370000001,2018-03-31,一季度报告,-4715354.14,2018,3,-0.663504763865181,True,1.9086560292375319,True,0.8806495175721435,False,平均增速,-4333410.328192422,未知,-4333410.328192422
18,600975,-55602956.39999999,-56093708.76999999,2018-06-30,半年度报告,-57565818.25,2018,6,-0.734579170686467,True,0.1882270917845341,True,1.211414483017482,False,平均增速,-62052021.47623865,未知,-62052021.47623865
19,600975,-42698465.81,-43453727.31,2018-09-30,三季度报告,-48489454.32,2018,9,-0.796094663477978,True,0.45943091431040095,True,0.7331314379132172,False,平均增速,-63366209.703423336,未知,-63366209.703423336
20,600975,-37405504.86,-35838303.85999999,2018-12-31,年度报告,-45689105.06,2018,12,-0.7373100027520918,True,0.582682685842585,True,0.0,True,比例外推,-35838303.85999999,未知,-35838303.85999999
21,600975,-28963998.28,-29446589.75,2019-03-31,一季度报告,-27237661.079999994,2019,3,-2.596295819976864,False,1.1603424955094006,True,0.5317431472497269,False,前期平均,37780264.41,230716667.00000003,230716667.00000003
22,600975,7630397.409999997,6010842.09,2019-06-30,半年度报告,8256608.379999999,2019,6,-1.1768520894691132,False,1.6669095925613413,True,0.31303437380192056,False,前期平均,25777924.08999997,219000000.0,219000000.0
23,600975,-39113864.06,-41737460.42999999,2019-09-30,三季度报告,-32141641.91,2019,9,-1.2303009916973875,False,1.357980599490787,True,0.28873085773332163,False,前期平均,-58213112.769999996,,-58213112.769999996
24,600975,67876040.88000001,63297284.54,2019-12-31,年度报告,60070850.94,2019,12,-1.262889086962052,False,1.3545740270022035,True,0.0,True,前期平均,63297284.54,213000000.0,213000000.0
25,600975,100902947.75,100491171.41,2020-03-31,一季度报告,100906198.6,2020,3,-1.3395076510134358,False,3.511718249880789,False,0.7782981751464185,False,盈利变化,234155764.1133333,601000000.0,601000000.0
