,SECURITYCODE_x,NETPROFIT_x,PARENTNETPROFIT_x,REPORTDATE_x,REPORTTIMETYPE_x,KCFJCXSYJLR,Year,Month,managesituationChangeRate,managesituationGreatChange,historyprofitextroplaterate,ifhistoryprofitextroplate,IfprofitdisStableChangeRage,IfprofitdisStable,predicttype,predict,analyst_prediction,adj_prediction
0,600967,260498641.69,258524914.62,2013-12-31,年度报告,260587939.03,2013,12,未知,未知,未知,未知,未知,未知,未知,未知,未知,未知
1,600967,89133822.33000001,87502886.64999999,2014-03-31,一季度报告,87337150.54,2014,3,未知,未知,未知,未知,未知,未知,未知,未知,未知,未知
2,600967,220479323.29,216835726.09000003,2014-06-30,半年度报告,218119558.7,2014,6,未知,未知,未知,未知,未知,未知,未知,未知,未知,未知
3,600967,197753424.76,194980435.53,2014-09-30,三季度报告,197188884.22000003,2014,9,未知,未知,未知,未知,未知,未知,未知,未知,未知,未知
4,600967,203186812.17,201162168.09000003,2014-12-31,年度报告,385980899.15,2014,12,0.0,True,未知,未知,未知,未知,未知,未知,未知,未知
5,600967,-22926442.91,-22902996.4,2015-03-31,一季度报告,-27033558.98,2015,3,1.9225566107280385,False,未知,未知,未知,未知,未知,未知,185000000.0,未知
6,600967,-26943260.28,-29589226.72000001,2015-06-30,半年度报告,-33860283.43,2015,6,0.18151052807506105,True,未知,未知,未知,未知,未知,未知,,未知
7,600967,-63214645.93999999,-68246273.83999999,2015-09-30,三季度报告,-73617452.92999998,2015,9,0.3172901658019306,True,未知,未知,未知,未知,未知,未知,382040333.0,未知
8,600967,365831558.57,365455556.72,2015-12-31,年度报告,289009407.59000003,2015,12,0.28206471132609245,True,未知,未知,未知,未知,未知,未知,281500000.0,未知
9,600967,60901048.47,60867875.66,2016-03-31,一季度报告,-49185622.03,2016,3,-12.362366273416812,False,未知,未知,未知,未知,未知,未知,411600000.0,未知
10,600967,181425831.2,181272421.62,2016-06-30,半年度报告,180866474.3,2016,6,-10.668415736731324,False,未知,未知,未知,未知,未知,未知,338280000.0,未知
11,600967,298801427.04,298422778.76999986,2016-09-30,三季度报告,297391640.35,2016,9,-5.12085898475571,False,未知,未知,未知,未知,未知,未知,455000000.0,未知
12,600967,496150569.37,496508713.07,2016-12-31,年度报告,20554969.660000004,2016,12,-0.2879273655114286,True,0.5779298467294817,True,0.0,True,比例外推,496508713.07,454500000.0,496508713.07
13,600967,69759165.12,69563152.86000001,2017-03-31,一季度报告,68155641.0,2017,3,3.277408160194849,False,0.839705754963107,True,1.6394996871495544,False,前期平均,376906510.45000005,619437143.0,619437143.0
14,600967,196580942.85,196164765.1,2017-06-30,半年度报告,194827405.63,2017,6,0.43584097130486243,True,0.8748529692951926,True,5.716791994183938,False,平均增速,76962478.41439846,611464682.0,611464682.0
15,600967,321045836.41,320282359.26000005,2017-09-30,三季度报告,318941698.23,2017,9,-0.12818809377664886,True,3.4418632257658253,False,9.560024560741752,False,未知,未知,581782500.0,未知
16,600967,526380980.68000007,525021591.7199999,2017-12-31,年度报告,495547918.47000015,2017,12,-0.47496051043380866,True,0.7438824294012283,True,0.0,True,比例外推,525021591.7199999,575645556.0,525021591.7199999
17,600967,60708885.37000001,60365491.26000001,2018-03-31,一季度报告,53880487.32000001,2018,3,2.7342568713643454,False,2.6739902411773726,False,1.6099205802645415,False,去年同期,487757768.73000014,662606875.0,662606875.0
18,600967,290632103.63000005,288906124.66,2018-06-30,半年度报告,264130262.08,2018,6,0.32514697464225745,True,1.5450242273842139,True,5.774108330313027,False,平均增速,2310573004.957205,669314315.0000001,669314315.0000001
19,600967,351828235.04,349305079.51,2018-09-30,三季度报告,316139012.89,2018,9,-0.18859361453508042,True,1.7254995794838337,True,9.515778917182182,False,平均增速,1504396781.6053038,653708717.0,653708717.0
20,600967,536918689.04,533793474.0,2018-12-31,年度报告,501365540.1599999,2018,12,-0.5051138790131107,True,0.2213269013777971,True,0.0,True,比例外推,533793474.0,648485990.0,648485990.0
21,600967,138305778.3,137005880.73,2019-03-31,一季度报告,122047045.8,2019,3,3.2909475293830446,False,0.0707364743716242,True,1.6769226316060113,False,前期平均,385572315.31000006,645897500.0,645897500.0
22,600967,336190614.5,334146739.0700002,2019-06-30,半年度报告,309802198.27999985,2019,6,-0.10368249606162772,True,0.5377084411273401,True,5.559447820856356,False,平均增速,1963122324.8062277,632091176.0,632091176.0
23,600967,424391533.87000006,421013722.34,2019-09-30,三季度报告,381515068.9,2019,9,-0.2595857417174508,True,0.13520944847530245,True,9.220685815140392,False,平均增速,1696009134.8705103,637913125.0,637913125.0
24,600967,576329883.84,572042411.8000001,2019-12-31,年度报告,526026912.9200001,2019,12,-0.5148266450628373,True,0.050175300730320824,True,0.0,True,比例外推,572042411.8000001,637913125.0,637913125.0
25,600967,144068834.16,146955399.10000002,2020-03-31,一季度报告,134896640.46000004,2020,3,0.883497890630069,False,1.1201478489264425,True,0.07301002311341806,True,前期平均,584394064.2550001,698682727.0,698682727.0
