,SECURITYCODE_x,NETPROFIT_x,PARENTNETPROFIT_x,REPORTDATE_x,REPORTTIMETYPE_x,KCFJCXSYJLR,Year,Month,managesituationChangeRate,managesituationGreatChange,historyprofitextroplaterate,ifhistoryprofitextroplate,IfprofitdisStableChangeRage,IfprofitdisStable,predicttype,predict,analyst_prediction,adj_prediction
0,600984,-99851526.27,-99851526.27,2013-12-31,年度报告,-103989768.15,2013,12,未知,未知,未知,未知,未知,未知,未知,未知,未知,未知
1,600984,-10545558.61,-10545558.61,2014-03-31,一季度报告,-10475062.16,2014,3,未知,未知,未知,未知,未知,未知,未知,未知,未知,未知
2,600984,-27083200.289999995,-27083200.289999995,2014-06-30,半年度报告,-27757325.66,2014,6,未知,未知,未知,未知,未知,未知,未知,未知,未知,未知
3,600984,-46062234.8,-46062234.8,2014-09-30,三季度报告,-46934382.32000001,2014,9,未知,未知,未知,未知,未知,未知,未知,未知,未知,未知
4,600984,-127843502.41999996,-127843502.41999996,2014-12-31,年度报告,-129348410.89,2014,12,-0.0,False,未知,未知,未知,未知,未知,未知,未知,未知
5,600984,-17672318.709999993,-17672318.709999993,2015-03-31,一季度报告,-17640376.96,2015,3,8.468585777458403,False,未知,未知,未知,未知,未知,未知,未知,未知
6,600984,-34571999.10000001,-34571999.10000001,2015-06-30,半年度报告,-35005117.47,2015,6,2.68684369649138,False,未知,未知,未知,未知,未知,未知,未知,未知
7,600984,2643910.56,2643910.56,2015-09-30,三季度报告,755180.67,2015,9,1.1677525353155467,False,未知,未知,未知,未知,未知,未知,61450000.0,未知
8,600984,6086223.28,6086223.28,2015-12-31,年度报告,-10661319.59,2015,12,-0.21895501625134506,False,未知,未知,未知,未知,未知,未知,61450000.0,未知
9,600984,-22457646.09,-22408728.87,2016-03-31,一季度报告,-25080506.6,2016,3,4.650165544688733,False,未知,未知,未知,未知,未知,未知,184150000.0,未知
10,600984,31269101.61,31278401.430000003,2016-06-30,半年度报告,-14053912.45,2016,6,1.8882196248234882,False,未知,未知,未知,未知,未知,未知,160750000.0,未知
11,600984,70494889.53999999,70482262.1,2016-09-30,三季度报告,16605021.66,2016,9,-38.76660518727986,False,未知,未知,未知,未知,未知,未知,175220540.0,未知
12,600984,82313871.62,82200449.38000001,2016-12-31,年度报告,16531404.609999998,2016,12,-17.406155620041595,False,-1.0534594304936382,True,0.0,True,前期平均,82200449.38000001,184730000.0,184730000.0
13,600984,-10318775.86,-10174545.889999997,2017-03-31,一季度报告,-11593809.62,2017,3,3.44621514961277,False,-0.5917317830340617,True,1.589961435545228,False,前期平均,-66121691.56999999,168910000.0,168910000.0
14,600984,57075938.76000001,56533016.74,2017-06-30,半年度报告,50529559.22,2017,6,-4.19329693303587,False,-2.0143216442203773,True,2.4007640276384565,False,前期平均,17909373.064999998,172570000.0,172570000.0
15,600984,89894216.35000001,89173245.07,2017-09-30,三季度报告,81476355.45,2017,9,-2.416436381722998,False,-4.247241379023799,True,0.5722958718473041,False,前期平均,42257980.654999994,168910000.0,168910000.0
16,600984,23271258.430000003,22518332.620000005,2017-12-31,年度报告,67718496.16999999,2017,12,-2.213058313317616,False,-2.3520977505641074,True,0.0,True,前期平均,22518332.620000005,170220000.0,170220000.0
17,600984,-5941950.579999999,-6146208.21,2018-03-31,一季度报告,-7470237.96,2018,3,8.676683322201749,False,-0.48573212503789687,True,1.6658595401923115,False,前期平均,18149276.08,239623332.99999997,239623332.99999997
18,600984,59998750.67,59244188.32999999,2018-06-30,半年度报告,57847133.75000001,2018,6,-2.7494504416277423,False,-35.56113241952286,True,2.2235716135304653,False,前期平均,86708745.79999998,245208332.99999997,245208332.99999997
19,600984,116528175.56999996,116488080.48999998,2018-09-30,三季度报告,113908500.14000005,2018,9,-2.1107669694925817,False,1.4581813272050115,True,0.7830943533175014,False,前期平均,110743021.83499998,229883332.99999997,229883332.99999997
20,600984,163798836.80999997,163767013.07,2018-12-31,年度报告,107740172.54,2018,12,-5.290766078265754,False,0.4735015057093564,True,0.0,True,前期平均,163767013.07,228937500.0,228937500.0
21,600984,21784640.350000005,21905886.61,2019-03-31,一季度报告,20556021.3,2019,3,15.804502986963586,False,-0.6374253059675417,True,0.9312481963316709,False,盈利变化,201135358.75,432380000.0,432380000.0
22,600984,187947266.13,188090353.61999995,2019-06-30,半年度报告,187448660.81,2019,6,-2.6642267573069116,False,0.35828226278957553,True,0.9944508149267476,False,前期平均,211977480.62499994,480177500.0,480177500.0
23,600984,381696524.25,381949602.63,2019-09-30,三季度报告,380542521.1,2019,9,-1.85688740754392,False,0.4530684602720928,True,0.11487332122924854,False,前期平均,375033864.465,535886667.0,535886667.0
24,600984,504748327.83,505468869.65,2019-12-31,年度报告,476286046.6899999,2019,12,-1.6095985064034597,False,2.1026875987638176,False,0.0,True,去年同期,505468869.65,535886667.0,505468869.65
25,600984,-61204182.04000001,-61131372.93999998,2020-03-31,一季度报告,-60548958.68999998,2020,3,-5.583574696012825,False,-3.679417851395821,True,0.10895319876433752,False,盈利变化,397328896.33,767594000.0,767594000.0
