,SECURITYCODE_x,NETPROFIT_x,PARENTNETPROFIT_x,REPORTDATE_x,REPORTTIMETYPE_x,KCFJCXSYJLR,Year,Month,managesituationChangeRate,managesituationGreatChange,historyprofitextroplaterate,ifhistoryprofitextroplate,IfprofitdisStableChangeRage,IfprofitdisStable,predicttype,predict,analyst_prediction,adj_prediction
0,600908,917762608.07,925617136.63,2014-12-31,年度报告,881782000.0,2014,12,未知,未知,未知,未知,未知,未知,未知,未知,未知,未知
1,600908,420028760.87,427708358.69,2015-06-30,半年度报告,456301000.0,2015,6,未知,未知,未知,未知,未知,未知,未知,未知,未知,未知
2,600908,420028760.87,427708358.69,2015-06-30,半年度报告,456300523.05,2015,6,未知,未知,未知,未知,未知,未知,未知,未知,未知,未知
3,600908,420028760.87,427708358.69,2015-06-30,半年度报告,456300358.69000006,2015,6,未知,未知,未知,未知,未知,未知,未知,未知,未知,未知
4,600908,632994550.0000001,639281460.0000001,2015-09-30,三季度报告,685308410.0,2015,9,未知,未知,未知,未知,未知,未知,未知,未知,未知,未知
5,600908,819013999.9999999,833336000.0000001,2015-12-31,年度报告,889389000.0,2015,12,0.0,True,未知,未知,未知,未知,未知,未知,未知,未知
6,600908,212332000.0,215508000.0,2016-03-31,一季度报告,217729000.0,2016,3,未知,未知,未知,未知,未知,未知,未知,未知,未知,未知
7,600908,469105000.00000006,472632000.00000006,2016-06-30,半年度报告,473960000.0,2016,6,1.1849994418692913,False,未知,未知,未知,未知,未知,未知,未知,未知
8,600908,698494999.9999999,698196000.0,2016-09-30,三季度报告,699971000.0,2016,9,0.44987442320001,True,未知,未知,未知,未知,未知,未知,885200000.0,未知
9,600908,883527000.0,892768000.0,2016-12-31,年度报告,894422000.0000002,2016,12,0.12057010999811991,True,未知,未知,未知,未知,未知,未知,885000000.0,未知
10,600908,236213000.00000003,238059000.0,2017-03-31,一季度报告,236911000.00000003,2017,3,3.322300021051938,False,未知,未知,未知,未知,未知,未知,982383750.0,未知
11,600908,521259000.0000001,521820000.0000001,2017-06-30,半年度报告,526903000.0,2017,6,0.9564119079310601,False,未知,未知,0.0,True,未知,未知,989000000.0,未知
12,600908,771204999.9999999,771281999.9999996,2017-09-30,三季度报告,782109000.0000001,2017,9,0.31391435596532574,True,未知,未知,未知,未知,未知,未知,,未知
13,600908,992916000.0,994948000.0,2017-12-31,年度报告,1014524000.0,2017,12,0.03874879666382584,True,0.01743309518870475,True,0.009134380401165432,True,比例外推,994948000.0,940000000.0,994948000.0
14,600908,266039000.0,266639000.0,2018-03-31,一季度报告,269372000.0,2018,3,2.8853179463873704,False,未知,未知,0.007913704985029968,True,未知,未知,1109500000.0,未知
15,600908,577147000.0,578535000.0,2018-06-30,半年度报告,581919000.0000001,2018,6,0.760665250998064,False,0.17250974586761458,True,0.0,True,前期平均,1005310000.0000001,1119000000.0,1119000000.0
16,600908,861607000.0,862353999.9999999,2018-09-30,三季度报告,867478000.0,2018,9,0.1900371601195534,True,0.1584093919475371,True,0.006489412320138999,True,比例外推,1114661627.1254144,1110500000.0,1114661627.1254144
17,600908,1075753000.0,1095517000.0,2018-12-31,年度报告,1108175000.0,2018,12,-0.07568957689270789,True,0.16639305602625723,True,0.005433848121025986,True,比例外推,1095517000.0,1120000000.0,1095517000.0
18,600908,304158000.00000006,303472000.0,2019-03-31,一季度报告,306320000.0,2019,3,2.449729581264401,False,0.18623103590498166,True,0.007856705470751346,True,前期平均,1030625000.0000001,1213800000.0,1213800000.0
19,600908,649236000.0,644103000.0,2019-06-30,半年度报告,650063000.0,2019,6,0.5901713221588262,False,0.16552499888929698,True,0.0,True,前期平均,1098144500.0,1200000000.0,1098144500.0
20,600908,965882000.0,959716000.0,2019-09-30,三季度报告,965752000.0,2019,9,0.06517543157147059,True,0.17249370619854412,True,0.006802347238794693,True,比例外推,1234064761.8252115,1198500000.0,1234064761.8252115
21,600908,1251952000.0000002,1249624000.0,2019-12-31,年度报告,1253516000.0,2019,12,-0.14686493268436152,True,0.14658745296286643,True,未知,未知,True,True,1197000000.0,1197000000.0
22,600908,344075000.0,342324000.0,2020-03-31,一季度报告,344207000.0,2020,3,2.0173877000440554,False,0.21117685942514935,True,未知,未知,前期平均,1150532000.0,1373250000.0,1373250000.0
