,SECURITYCODE_x,NETPROFIT_x,PARENTNETPROFIT_x,REPORTDATE_x,REPORTTIMETYPE_x,KCFJCXSYJLR,Year,Month,managesituationChangeRate,managesituationGreatChange,historyprofitextroplaterate,ifhistoryprofitextroplate,IfprofitdisStableChangeRage,IfprofitdisStable,predicttype,predict,analyst_prediction,adj_prediction
0,600993,177675578.89000002,186324387.2,2013-12-31,年度报告,169257833.91,2013,12,未知,未知,未知,未知,未知,未知,未知,未知,未知,未知
1,600993,69388691.42,72155965.99000001,2014-03-31,一季度报告,67614807.44,2014,3,未知,未知,未知,未知,未知,未知,未知,未知,未知,未知
2,600993,124557617.98000003,130576217.9,2014-06-30,半年度报告,123740033.08000004,2014,6,未知,未知,未知,未知,未知,未知,未知,未知,未知,未知
3,600993,171043176.07999998,179916436.29,2014-09-30,三季度报告,167315732.93,2014,9,未知,未知,未知,未知,未知,未知,未知,未知,未知,未知
4,600993,192269979.98,201477739.26,2014-12-31,年度报告,181725165.22,2014,12,0.0,True,未知,未知,未知,未知,未知,未知,未知,未知
5,600993,69665209.72999999,73851526.24000001,2015-03-31,一季度报告,65814021.37000001,2015,3,1.5605840844375447,False,未知,未知,未知,未知,未知,未知,264400000.0,未知
6,600993,137312437.51000002,143769061.84,2015-06-30,半年度报告,125061971.05,2015,6,0.42645292814229174,True,未知,未知,未知,未知,未知,未知,242675000.0,未知
7,600993,176369976.18,185367534.0,2015-09-30,三季度报告,176582739.51999998,2015,9,0.03877619067888413,True,未知,未知,未知,未知,未知,未知,230400000.0,未知
8,600993,210943538.7,223256086.63,2015-12-31,年度报告,192667946.29,2015,12,-0.0759057711012301,True,未知,未知,未知,未知,未知,未知,,未知
9,600993,78003783.72000001,80253028.32999997,2016-03-31,一季度报告,70942971.13,2016,3,1.5504204979589322,False,未知,未知,未知,未知,未知,未知,247503332.99999997,未知
10,600993,152081768.43000004,158260983.26999998,2016-06-30,半年度报告,139848010.95999998,2016,6,0.29395109512246825,True,未知,未知,未知,未知,未知,未知,247490000.0,未知
11,600993,196068392.01999992,206846498.5,2016-09-30,三季度报告,179686563.04999998,2016,9,0.007402635858313741,True,未知,未知,未知,未知,未知,未知,,未知
12,600993,232997399.62000003,250243913.86,2016-12-31,年度报告,218578294.49,2016,12,-0.15771025751735895,True,0.14040314117746275,True,0.0,True,比例外推,250243913.86,,250243913.86
13,600993,85677075.21,86696427.08999997,2017-03-31,一季度报告,80296218.29999998,2017,3,1.2777815436207405,False,0.1219215437308143,True,0.02599503063197539,True,前期平均,207178568.43999997,295500000.0,295500000.0
14,600993,171873397.32000002,174342742.49,2017-06-30,半年度报告,160375281.27999997,2017,6,0.168289800442321,True,0.161505603574499,True,0.024307799854704992,True,比例外推,258214582.003073,292000000.0,292000000.0
15,600993,227134070.29,235680970.23,2017-09-30,三季度报告,191980933.79,2017,9,-0.09380815000575794,True,0.1287332718668325,True,0.06436058434729186,True,比例外推,260277658.8813795,,260277658.8813795
16,600993,308845773.55,320051428.15,2017-12-31,年度报告,245411410.7800001,2017,12,-0.23743535687619452,True,0.15570232061049738,True,0.0,True,比例外推,320051428.15,未知,320051428.15
17,600993,63741914.30999999,68313142.5,2018-03-31,一季度报告,94655136.87,2018,3,1.0737820292593532,False,0.1603935695411893,True,0.010476755572865759,True,前期平均,205557766.64,未知,205557766.64
18,600993,98122843.37,102633536.01999998,2018-06-30,半年度报告,183769419.72,2018,6,0.033758462103342754,True,0.18781505498167742,True,0.007662358683459769,True,比例外推,202691146.6604059,未知,202691146.6604059
19,600993,113312329.41,120685978.29000002,2018-09-30,三季度报告,224091082.18,2018,9,-0.21775020954299112,True,0.21971359389067388,True,0.07622502088309402,True,比例外推,163278463.94086578,未知,163278463.94086578
20,600993,164558137.12999997,176207926.66,2018-12-31,年度报告,284121647.39000005,2018,12,-0.4247109913542801,True,0.39138226232868306,True,0.0,True,比例外推,176207926.66,未知,176207926.66
21,600993,130108908.40000002,132847243.81,2019-03-31,一季度报告,110333019.43,2019,3,1.7874214449522083,False,0.22114394161066875,True,0.004848113877360172,True,前期平均,289222501.7300001,未知,289222501.7300001
22,600993,213834756.53,216902611.76,2019-06-30,半年度报告,206141949.01,2019,6,0.8107463337565939,False,0.39421960972388054,True,0.006893061798971645,True,前期平均,298785818.2750001,未知,298785818.2750001
23,600993,289260966.47,293265429.20000005,2019-09-30,三季度报告,266599879.04,2019,9,0.5680162945650278,False,0.4645006137653443,True,0.024380612144117908,True,前期平均,339426533.41500014,未知,339426533.41500014
24,600993,353395164.73,359967239.61999995,2019-12-31,年度报告,320754861.85,2019,12,0.07971311530852679,True,0.3925986511290018,True,0.0,True,比例外推,359967239.61999995,未知,359967239.61999995
25,600993,103641430.69,109372598.65999998,2020-03-31,一季度报告,86976491.78999999,2020,3,0.36559118875829405,True,0.7415310974591316,True,0.009206080449272958,True,比例外推,282203336.305388,未知,282203336.305388
