,SECURITYCODE_x,NETPROFIT_x,PARENTNETPROFIT_x,REPORTDATE_x,REPORTTIMETYPE_x,KCFJCXSYJLR,Year,Month,managesituationChangeRate,managesituationGreatChange,historyprofitextroplaterate,ifhistoryprofitextroplate,IfprofitdisStableChangeRage,IfprofitdisStable,predicttype,predict,analyst_prediction,adj_prediction
0,600960,60808610.46000001,60025542.07,2013-12-31,年度报告,54034202.35,2013,12,未知,未知,未知,未知,未知,未知,未知,未知,未知,未知
1,600960,18500575.13,18120837.18,2014-03-31,一季度报告,17692906.14,2014,3,未知,未知,未知,未知,未知,未知,未知,未知,未知,未知
2,600960,80850742.96000001,79069854.83999999,2014-06-30,半年度报告,34924309.39000001,2014,6,未知,未知,未知,未知,未知,未知,未知,未知,未知,未知
3,600960,86318265.59,84736642.3,2014-09-30,三季度报告,37848444.8,2014,9,未知,未知,未知,未知,未知,未知,未知,未知,未知,未知
4,600960,98098706.27,97547056.06000002,2014-12-31,年度报告,37546752.98,2014,12,0.0,True,未知,未知,未知,未知,未知,未知,未知,未知
5,600960,18346411.399999995,18591040.75,2015-03-31,一季度报告,14369630.239999998,2015,3,2.2868497348168666,False,未知,未知,未知,未知,未知,未知,未知,未知
6,600960,23076860.440000005,24784160.98,2015-06-30,半年度报告,13190700.87,2015,6,-0.24789051734398557,True,未知,未知,未知,未知,未知,未知,未知,未知
7,600960,24418419.99,25557035.82,2015-09-30,三季度报告,10645928.32,2015,9,-0.29553020969127647,True,未知,未知,未知,未知,未知,未知,未知,未知
8,600960,51310435.74,38274040.61000001,2015-12-31,年度报告,3168701.86,2015,12,-0.38012831389809915,True,未知,未知,未知,未知,未知,未知,未知,未知
9,600960,19863191.750000004,16586557.96,2016-03-31,一季度报告,10418379.74,2016,3,2.3144689244240992,False,未知,未知,未知,未知,未知,未知,28000000.0,未知
10,600960,72163472.63000001,62434117.29,2016-06-30,半年度报告,33279836.280000005,2016,6,1.635046938820071,False,未知,未知,未知,未知,未知,未知,19000000.0,未知
11,600960,125682573.84,112484605.53,2016-09-30,三季度报告,44871544.12000001,2016,9,1.4902762129942386,False,未知,未知,未知,未知,未知,未知,,未知
12,600960,142585447.99,117915953.48,2016-12-31,年度报告,79949127.51,2016,12,0.18511194814499554,True,0.35420927373430205,True,0.0,True,比例外推,117915953.48,未知,117915953.48
13,600960,61831865.27000001,62779988.09,2017-03-31,一季度报告,62639421.76,2017,3,2.0613715673363524,False,0.07814470710259232,True,2.8227303155128123,False,前期平均,67106447.32,304150000.0,304150000.0
14,600960,116457616.71999995,120341302.89,2017-06-30,半年度报告,119637443.28,2017,6,-0.15734916511320335,True,0.38872581045200943,True,2.3264000833347005,False,平均增速,499588287.2107186,264820000.0,264820000.0
15,600960,155342826.35999998,162927318.51,2017-09-30,三季度报告,165162542.25,2017,9,-0.5161730970165179,True,1.269935625790472,True,1.716713124894145,False,平均增速,449483483.60091937,221060000.0,221060000.0
16,600960,233161576.33,238334470.47000003,2017-12-31,年度报告,199645010.93,2017,12,-0.5735286362163359,True,0.9086576105290362,True,0.0,True,比例外推,238334470.47000003,未知,238334470.47000003
17,600960,30036467.56,34280470.5,2018-03-31,一季度报告,31794684.65,2018,3,-0.01654898822042284,True,2.236456815699747,False,2.875220092018645,False,未知,未知,253560000.0,未知
18,600960,69098121.14,77120807.35000001,2018-06-30,半年度报告,71621444.74000001,2018,6,-0.4778477168547707,True,1.4455524873984973,True,2.436701548564426,False,平均增速,655682250.9360023,,655682250.9360023
19,600960,55685126.75000001,68413542.23,2018-09-30,三季度报告,62086813.43000001,2018,9,-0.6085521817462056,True,1.0698440749291336,True,1.7769644607273123,False,平均增速,313927465.7638685,未知,313927465.7638685
20,600960,124209326.33999996,139307362.31,2018-12-31,年度报告,124571686.16999996,2018,12,-0.7391996939755807,True,1.4050183206021791,True,0.0,True,比例外推,139307362.31,,139307362.31
21,600960,19329255.26,22347202.89,2019-03-31,一季度报告,16045472.27,2019,3,1.024492738319859,False,0.26466866771029535,True,0.10278693693640356,False,前期平均,125615371.36,未知,125615371.36
22,600960,10242755.46,16902281.35,2019-06-30,半年度报告,8941660.459999999,2019,6,-0.11996723707153453,True,0.26733408890685095,True,0.1138890468014484,False,平均增速,61523566.2076208,未知,61523566.2076208
23,600960,615768.8899999999,7164653.460000003,2019-09-30,三季度报告,-6137287.28,2019,9,0.09200811794865853,True,0.6037004006728927,True,0.19830289572848903,False,平均增速,52831977.957730815,未知,52831977.957730815
24,600960,73440252.32,72377825.95,2019-12-31,年度报告,41734083.33000001,2019,12,-0.5104344234703622,True,0.3388672787773366,True,0.0,True,比例外推,72377825.95,未知,72377825.95
25,600960,-14635661.2,-10031543.36,2020-03-31,一季度报告,-11674464.510000002,2020,3,2.1459365424097565,False,0.579196559585591,True,0.06665082966615882,True,盈利变化,35417910.24333333,32000000.0,32000000.0
