,SECURITYCODE_x,NETPROFIT_x,PARENTNETPROFIT_x,REPORTDATE_x,REPORTTIMETYPE_x,KCFJCXSYJLR,Year,Month,managesituationChangeRate,managesituationGreatChange,historyprofitextroplaterate,ifhistoryprofitextroplate,IfprofitdisStableChangeRage,IfprofitdisStable,predicttype,predict,analyst_prediction,adj_prediction
0,600997,321052716.1,251771919.32,2013-12-31,年度报告,250442263.85,2013,12,未知,未知,未知,未知,未知,未知,未知,未知,未知,未知
1,600997,67365237.16999999,50093713.46,2014-03-31,一季度报告,49185199.8,2014,3,未知,未知,未知,未知,未知,未知,未知,未知,未知,未知
2,600997,140777474.12999997,103324215.36999996,2014-06-30,半年度报告,103238237.08,2014,6,未知,未知,未知,未知,未知,未知,未知,未知,未知,未知
3,600997,191528390.99000004,130736994.25999996,2014-09-30,三季度报告,128654010.94,2014,9,未知,未知,未知,未知,未知,未知,未知,未知,未知,未知
4,600997,159899922.99999997,98874399.62,2014-12-31,年度报告,99347611.4,2014,12,0.0,True,未知,未知,未知,未知,未知,未知,未知,未知
5,600997,-58420597.34,-57697729.12000001,2015-03-31,一季度报告,-57150089.69,2015,3,3.7658514923625273,False,未知,未知,未知,未知,未知,未知,-38050000.0,未知
6,600997,-200783515.14,-175430821.07,2015-06-30,半年度报告,-171737789.68000004,2015,6,1.2805688060827556,False,未知,未知,未知,未知,未知,未知,-368700000.0,未知
7,600997,-465766979.0000001,-380187315.53,2015-09-30,三季度报告,-377030350.64000016,2015,9,0.6762669724341945,False,未知,未知,未知,未知,未知,未知,-458300000.0,未知
8,600997,-532217605.73,-416909917.64999986,2015-12-31,年度报告,-419644736.45999986,2015,12,1.0078353389826216,False,未知,未知,未知,未知,未知,未知,,未知
9,600997,15435347.04,15662308.990000002,2016-03-31,一季度报告,15218673.200000005,2016,3,-6.495539770528475,False,未知,未知,未知,未知,未知,未知,-81195000.0,未知
10,600997,78638134.08,54090088.76000001,2016-06-30,半年度报告,49188548.54,2016,6,-2.5989993793869988,False,未知,未知,未知,未知,未知,未知,154133333.0,未知
11,600997,281408721.51,203826308.33000004,2016-09-30,三季度报告,198521715.45000005,2016,9,-1.689299006961161,False,未知,未知,未知,未知,未知,未知,424650000.0,未知
12,600997,564310311.45,431701672.59,2016-12-31,年度报告,423879734.92,2016,12,-1.6032358055116156,False,3.2131809349291913,False,0.0,True,前期平均,431701672.59,424650000.0,431701672.59
13,600997,133218866.55,147866957.04000005,2017-03-31,一季度报告,147725673.20999998,2017,3,19.799837883010113,False,2.451306555291456,False,0.27269119745816106,False,去年同期,556528018.7600001,505500000.0,505500000.0
14,600997,203677236.11000004,226635835.06,2017-06-30,半年度报告,224103617.92,2017,6,3.082659384738037,False,-3.621007243817166,True,0.5176780594218131,False,前期平均,100737048.8300001,,100737048.8300001
15,600997,333021101.62,327410222.24999994,2017-09-30,三季度报告,334375604.51000005,2017,9,0.14087692228327495,True,-3.0522912078276776,True,0.41891695808784457,False,平均增速,448807363.5231256,417333333.0,448807363.5231256
16,600997,574477679.9999999,516523763.9500001,2017-12-31,年度报告,526404908.48,2017,12,-0.43107061915092,True,-4.0313376862050925,True,0.0,True,比例外推,516523763.9500001,417333333.0,417333333.0
17,600997,296867323.67,254545619.35,2018-03-31,一季度报告,253561713.56,2018,3,1.409964327233649,False,-7.198352486969233,True,0.12972413433294203,False,前期平均,277628826.82500005,769500000.0,769500000.0
18,600997,675735287.61,582276654.0600001,2018-06-30,半年度报告,581264946.8499999,2018,6,0.5762817791115791,False,-4.33499694122613,True,0.2009610560752207,False,前期平均,645668773.8600001,1213700000.0,1213700000.0
19,600997,1160120618.89,991108797.7999998,2018-09-30,三季度报告,988087478.02,2018,9,-0.035938820278291955,True,-4.612760352088526,True,0.23111734411888007,False,平均增速,1478959743.1017787,1399608333.0,1478959743.1017787
20,600997,1614013152.4400005,1363207340.2600002,2018-12-31,年度报告,1371313970.6999998,2018,12,-0.4411397913666549,True,34.80113718127468,False,0.0,True,比例外推,1363207340.2600002,1399608333.0,1363207340.2600002
21,600997,425142570.91000015,368443553.17,2019-03-31,一季度报告,366696810.58,2019,3,0.08146869157241662,True,2.9940653749483803,False,0.1312429665603,False,未知,未知,1208900000.0,未知
22,600997,826982249.43,722565418.6599997,2019-06-30,半年度报告,720809822.6799997,2019,6,-0.5248838976050407,True,3.7870952768545747,False,0.20583731538219746,False,未知,未知,1341766667.0,未知
23,600997,1162028123.0199995,1011374409.5,2019-09-30,三季度报告,1009141463.55,2019,9,-0.7232591931628779,True,2.776251006112194,False,0.1396859608532155,False,未知,未知,1275300000.0,未知
24,600997,1279583030.48,1149638717.63,2019-12-31,年度报告,1143383799.8799994,2019,12,-0.8010842008228711,True,1.8346156871304982,True,0.0,True,比例外推,1149638717.63,,1149638717.63
25,600997,358439956.60999995,324313194.66,2020-03-31,一季度报告,323487017.08000016,2020,3,-0.24483517279203557,True,0.9770110297776774,True,0.0771782589559834,True,比例外推,1235120977.7568233,906716667.0,906716667.0
