,SECURITYCODE_x,NETPROFIT_x,PARENTNETPROFIT_x,REPORTDATE_x,REPORTTIMETYPE_x,KCFJCXSYJLR,Year,Month,managesituationChangeRate,managesituationGreatChange,historyprofitextroplaterate,ifhistoryprofitextroplate,IfprofitdisStableChangeRage,IfprofitdisStable,predicttype,predict,analyst_prediction,adj_prediction
0,600901,605996186.27,605996186.27,2014-12-31,年度报告,551388939.01,2014,12,未知,未知,未知,未知,未知,未知,未知,未知,未知,未知
1,600901,732443614.3499999,732443614.3499999,2015-12-31,年度报告,659447500.0,2015,12,0.0,True,未知,未知,未知,未知,未知,未知,未知,未知
2,600901,413556704.89000016,413556704.89000016,2016-06-30,半年度报告,,2016,6,未知,未知,未知,未知,未知,未知,未知,未知,未知,未知
3,600901,824042957.5900003,824042957.5900003,2016-12-31,年度报告,812266600.0000001,2016,12,-0.17263776433113487,True,未知,未知,未知,未知,未知,未知,未知,未知
4,600901,297702612.09000003,297702612.09000003,2017-03-31,一季度报告,292208399.99999994,2017,3,未知,未知,未知,未知,未知,未知,未知,未知,未知,未知
5,600901,584028688.4300001,584028688.4300001,2017-06-30,半年度报告,575933200.0,2017,6,0.4653279202212084,True,未知,未知,未知,未知,未知,未知,未知,未知
6,600901,1010629099.0,1010629099.0,2017-12-31,年度报告,1004847800.0,2017,12,-0.2646060733990141,True,0.2313485555469619,True,0.0,True,比例外推,1010629099.0,未知,1010629099.0
7,600901,325178586.20000017,325178586.20000017,2018-03-31,一季度报告,302445200.0,2018,3,1.0355756438132901,False,未知,未知,未知,未知,未知,未知,1210333333.0,未知
8,600901,642611190.22,642611190.22,2018-06-30,半年度报告,587497600.0,2018,6,0.03761373075533921,True,未知,未知,未知,未知,未知,未知,1199160000.0,未知
9,600901,955673133.44,955673133.44,2018-09-30,三季度报告,898040899.9999998,2018,9,未知,未知,未知,未知,未知,未知,未知,未知,,未知
10,600901,1251034775.2300005,1251034775.2300005,2018-12-31,年度报告,1187195299.9999998,2018,12,-0.4003772631624968,True,0.29860304254389425,True,0.0,True,比例外推,1251034775.2300005,1271260000.0,1251034775.2300005
11,600901,379777715.36,379777715.36,2019-03-31,一季度报告,377684300.0,2019,3,0.8635796205143833,False,未知,未知,未知,未知,未知,未知,1432770000.0,未知
12,600901,785854574.98,785854574.98,2019-06-30,半年度报告,782247074.9799999,2019,6,-0.056978472375286186,True,0.2883331983868906,True,,False,平均增速,1547701319.8267927,1561425000.0,1547701319.8267927
13,600901,1207000493.1,1207000493.1,2019-09-30,三季度报告,1203180993.1,2019,9,-0.3658959689609751,True,未知,未知,未知,未知,未知,未知,1609000000.0,未知
14,600901,1583267672.7699995,1583267672.7699995,2019-12-31,年度报告,1576174972.7699995,2019,12,-0.5156040437336454,True,0.3637693676495266,True,0.0,True,比例外推,1583267672.7699995,未知,1583267672.7699995
15,600901,476642603.18,476642603.18,2020-03-31,一季度报告,476601903.18000007,2020,3,0.595660202693995,False,0.2194226327672315,True,0.029073491670881246,True,前期平均,1275337353.1799998,未知,1275337353.1799998
