,SECURITYCODE_x,NETPROFIT_x,PARENTNETPROFIT_x,REPORTDATE_x,REPORTTIMETYPE_x,KCFJCXSYJLR,Year,Month,managesituationChangeRate,managesituationGreatChange,historyprofitextroplaterate,ifhistoryprofitextroplate,IfprofitdisStableChangeRage,IfprofitdisStable,predicttype,predict,analyst_prediction,adj_prediction
0,600983,362658996.5,362658996.5,2013-12-31,年度报告,344605096.5,2013,12,未知,未知,未知,未知,未知,未知,未知,未知,未知,未知
1,600983,121964486.16999996,121964486.16999996,2014-03-31,一季度报告,119619249.79999997,2014,3,未知,未知,未知,未知,未知,未知,未知,未知,未知,未知
2,600983,196655750.21,196655750.21,2014-06-30,半年度报告,188012769.35,2014,6,未知,未知,未知,未知,未知,未知,未知,未知,未知,未知
3,600983,303363595.54,303363595.54,2014-09-30,三季度报告,288439946.75,2014,9,未知,未知,未知,未知,未知,未知,未知,未知,未知,未知
4,600983,293624134.63,293624134.63,2014-12-31,年度报告,265776354.20000005,2014,12,0.0,True,未知,未知,未知,未知,未知,未知,未知,未知
5,600983,113045068.95999998,113045068.95999998,2015-03-31,一季度报告,109501948.289,2015,3,1.973480296506218,False,未知,未知,未知,未知,未知,未知,408408333.0,未知
6,600983,203052682.27,203052682.27,2015-06-30,半年度报告,170246025.35,2015,6,0.8441311587010929,False,未知,未知,未知,未知,未知,未知,382966667.0,未知
7,600983,349193586.60999995,349193586.60999995,2015-09-30,三季度报告,272963989.68999994,2015,9,0.19545984367192,True,未知,未知,未知,未知,未知,未知,366450000.0,未知
8,600983,440646449.09,440646449.09,2015-12-31,年度报告,217302893.41,2015,12,0.23511303645727838,True,未知,未知,未知,未知,未知,未知,516366667.0,未知
9,600983,440646449.09,440646449.09,2015-12-31,年度报告,217302893.41,2015,12,0.23511303645727838,True,未知,未知,未知,未知,未知,未知,516366667.0,未知
10,600983,340396910.5699999,340396910.5699999,2015-12-31,年度报告,217302893.41,2015,12,0.23511303645727838,True,未知,未知,未知,未知,未知,未知,516366667.0,未知
11,600983,340396910.5699999,340396910.5699999,2015-12-31,年度报告,217302893.41,2015,12,0.23511303645727838,True,未知,未知,未知,未知,未知,未知,516366667.0,未知
12,600983,153340409.03000003,153340409.03000003,2016-03-31,一季度报告,120530507.03,2016,3,2.2080921338402097,False,未知,未知,未知,未知,未知,未知,439038000.0,未知
13,600983,194515132.37,194515132.37,2016-06-30,半年度报告,95561368.73,2016,6,0.7860340107094512,False,未知,未知,未知,未知,未知,未知,421043333.0,未知
14,600983,241559050.55,241559050.55,2016-09-30,三季度报告,173365019.23,2016,9,0.03856144673424089,True,未知,未知,未知,未知,未知,未知,384316667.0,未知
15,600983,283257641.27000004,283257641.27000004,2016-12-31,年度报告,74245176.92000002,2016,12,-0.17698418482902922,True,0.342854716778373,True,0.0,True,比例外推,283257641.27000004,360302500.0,360302500.0
16,600983,87226303.80999999,87226303.80999999,2017-03-31,一季度报告,82461706.03000002,2017,3,1.3650582308610393,False,0.3049716973863204,True,0.7642783836586619,False,前期平均,214205328.57050002,444000000.0,444000000.0
17,600983,-85874667.21999998,-85874667.21999998,2017-06-30,半年度报告,-127761828.21,2017,6,0.8644256211910676,False,0.02671489233726463,True,0.3611169279528553,False,盈利变化,134375509.97666672,36000000.0,36000000.0
18,600983,-56609379.9,-56609379.9,2017-09-30,三季度报告,-290184333.27000004,2017,9,0.5013264693426739,False,0.25965399766460906,True,0.7762165989793284,False,盈利变化,77235706.8255556,-53000000.0,-53000000.0
19,600983,-96975651.32,-96975651.32,2017-12-31,年度报告,-488469692.49,2017,12,0.2803149629927014,True,0.2284652346143424,True,0.0,True,比例外推,-96975651.32,471312500.0,471312500.0
20,600983,57619380.12,57619380.12,2018-03-31,一季度报告,23684721.14,2018,3,3.157679285482039,False,0.34511217001645694,True,0.9705754708221395,False,前期平均,88377187.6255,未知,88377187.6255
21,600983,289130922.83000004,289130922.83000004,2018-06-30,半年度报告,61519249.38,2018,6,-5.223119672428118,False,1.4320000968778621,True,0.5158150606928578,False,前期平均,302001260.95500004,未知,302001260.95500004
22,600983,354319433.16,354319433.16,2018-09-30,三季度报告,107736328.84,2018,9,-7.406341089420765,False,1.191651721343625,True,0.9399515741598876,False,前期平均,276928963.86500007,未知,276928963.86500007
23,600983,261839479.47000003,261839479.47000003,2018-12-31,年度报告,6811766.94,2018,12,-4.739691268515422,False,1.2679240319578071,True,0.0,True,前期平均,261839479.47000003,,261839479.47000003
24,600983,-15272896.69,-15272896.69,2019-03-31,一季度报告,-37624836.52,2019,3,5.294045436530462,False,0.5209696350772983,True,1.8331551330253513,False,盈利变化,180093402.59000003,未知,180093402.59000003
25,600983,-59939074.19000001,-59939074.19000001,2019-06-30,半年度报告,-89742511.35000001,2019,6,0.2543071939532119,True,4.322711430419534,False,5.504660002853898,False,未知,未知,未知,未知
26,600983,-69208627.46,-69208627.46,2019-09-30,三季度报告,-90363778.35,2019,9,0.023536849970727056,True,2.8315227263152742,False,9.567771814999727,False,未知,未知,未知,未知
27,600983,-322839167.01000005,-322839167.01000005,2019-12-31,年度报告,-381938744.70000017,2019,12,0.3850432227946407,True,1.8112162591808298,True,0.0,True,比例外推,-322839167.01000005,未知,-322839167.01000005
28,600983,-107334040.23,-107334040.23,2020-03-31,一季度报告,-108139088.59,2020,3,-24.74526613130649,False,1.2108850781826674,True,2.3414557368591513,False,前期平均,-401236216.59000003,未知,-401236216.59000003
