,SECURITYCODE_x,NETPROFIT_x,PARENTNETPROFIT_x,REPORTDATE_x,REPORTTIMETYPE_x,KCFJCXSYJLR,Year,Month,managesituationChangeRate,managesituationGreatChange,historyprofitextroplaterate,ifhistoryprofitextroplate,IfprofitdisStableChangeRage,IfprofitdisStable,predicttype,predict,analyst_prediction,adj_prediction
0,600939,84789122.01,58509876.36999999,2014-12-31,年度报告,15359957.349999998,2014,12,未知,未知,未知,未知,未知,未知,未知,未知,未知,未知
1,600939,24990676.78,18197949.11,2015-03-31,一季度报告,,2015,3,未知,未知,未知,未知,未知,未知,未知,未知,未知,未知
2,600939,513508556.5500001,492137081.9500001,2015-06-30,半年度报告,,2015,6,未知,未知,未知,未知,未知,未知,未知,未知,未知,未知
3,600939,707028079.9200001,679435621.12,2015-09-30,三季度报告,151643455.87000003,2015,9,未知,未知,未知,未知,未知,未知,未知,未知,未知,未知
4,600939,839374859.8300003,798912133.22,2015-12-31,年度报告,246968169.24,2015,12,0.0,True,未知,未知,未知,未知,未知,未知,未知,未知
5,600939,43003595.47,40209813.98,2016-03-31,一季度报告,38810954.45,2016,3,2.392830164481844,False,未知,未知,未知,未知,未知,未知,未知,未知
6,600939,202942045.23,191372173.26,2016-06-30,半年度报告,174782125.02000004,2016,6,-0.83488274746646,True,未知,未知,未知,未知,未知,未知,未知,未知
7,600939,364770889.78,332171485.23,2016-12-31,年度报告,303995940.89,2016,12,-0.8989853925013046,True,未知,未知,未知,未知,未知,未知,未知,未知
8,600939,53697148.63,48686441.72000002,2017-03-31,一季度报告,38376595.05,2017,3,0.9716751839773552,False,未知,未知,未知,未知,未知,未知,,未知
9,600939,175711165.6,159081497.78,2017-06-30,半年度报告,124303776.1,2017,6,-0.5822003177611318,True,未知,未知,未知,未知,未知,未知,未知,未知
10,600939,237015799.11000004,214675417.95,2017-09-30,三季度报告,170279811.61999995,2017,9,未知,未知,未知,未知,未知,未知,未知,未知,未知,未知
11,600939,393208081.14000016,363203419.99000007,2017-12-31,年度报告,318869267.03,2017,12,-0.7675551301225328,True,0.2105927152587246,True,0.0,True,比例外推,363203419.99000007,988000000.0,988000000.0
12,600939,58831691.27000001,58317621.37,2018-03-31,一季度报告,56243285.97999999,2018,3,0.5790246628222129,False,0.5794609414324602,True,,False,前期平均,,未知,
13,600939,195015245.50000003,185840228.78,2018-06-30,半年度报告,161596543.32000002,2018,6,-0.5174517127555837,True,0.509495378569155,True,,False,平均增速,423203502.22222114,未知,423203502.22222114
14,600939,234997511.21,208519452.73,2018-09-30,三季度报告,182364315.61,2018,9,-0.642263839252973,True,未知,未知,未知,未知,未知,未知,未知,未知
15,600939,446697758.92,394315342.53999984,2018-12-31,年度报告,361486160.75,2018,12,-0.7843657694822117,True,0.3469094895408587,True,0.0,True,比例外推,394315342.53999984,未知,394315342.53999984
16,600939,66084551.61000001,35663491.65,2019-03-31,一季度报告,36964729.27,2019,3,0.4412151032828873,True,0.21677846054961256,True,0.02105221342839378,True,比例外推,273454227.1669071,未知,273454227.1669071
17,600939,443195658.76,345479031.93,2019-06-30,半年度报告,172509002.01000002,2019,6,-0.5652179818423478,True,0.030046701954702337,True,0.1043457183979763,False,平均增速,561241593.5256387,未知,561241593.5256387
18,600939,494534416.8900001,387687920.18,2019-09-30,三季度报告,191928695.56,2019,9,-0.6391914043113834,True,未知,未知,未知,未知,未知,未知,未知,未知
19,600939,629667664.9599999,459131578.06,2019-12-31,年度报告,281403841.8099999,2019,12,-0.8101868202450843,True,0.17865475443947681,True,0.0,True,比例外推,459131578.06,未知,459131578.06
20,600939,-16774132.29,-33131734.16,2020-03-31,一季度报告,-30482448.1,2020,3,0.2830399835408673,True,0.1745353754420071,True,0.019822553952544453,True,比例外推,-227170434.15446603,未知,-227170434.15446603
