,SECURITYCODE_x,NETPROFIT_x,PARENTNETPROFIT_x,REPORTDATE_x,REPORTTIMETYPE_x,KCFJCXSYJLR,Year,Month,managesituationChangeRate,managesituationGreatChange,historyprofitextroplaterate,ifhistoryprofitextroplate,IfprofitdisStableChangeRage,IfprofitdisStable,predicttype,predict,analyst_prediction,adj_prediction
0,600987,474154687.6500001,411106972.28,2013-12-31,年度报告,393933024.8,2013,12,未知,未知,未知,未知,未知,未知,未知,未知,未知,未知
1,600987,74164990.43999998,62399477.13999999,2014-03-31,一季度报告,51990902.75999999,2014,3,未知,未知,未知,未知,未知,未知,未知,未知,未知,未知
2,600987,208696703.49000004,177364461.14,2014-06-30,半年度报告,159179302.24,2014,6,未知,未知,未知,未知,未知,未知,未知,未知,未知,未知
3,600987,325705613.11000013,276075490.47,2014-09-30,三季度报告,250102581.82,2014,9,未知,未知,未知,未知,未知,未知,未知,未知,未知,未知
4,600987,518399670.6300002,444872754.8800001,2014-12-31,年度报告,407316687.58,2014,12,0.0,True,未知,未知,未知,未知,未知,未知,未知,未知
5,600987,92305725.26,77905957.51,2015-03-31,一季度报告,70977031.71000002,2015,3,5.393241404562637,False,未知,未知,未知,未知,未知,未知,548379400.0,未知
6,600987,251307231.14,213108715.79,2015-06-30,半年度报告,199164809.17,2015,6,1.2719797664303778,False,未知,未知,未知,未知,未知,未知,523250000.0,未知
7,600987,398656781.76,338382987.11,2015-09-30,三季度报告,318501771.40000004,2015,9,0.4557768382390894,True,未知,未知,未知,未知,未知,未知,497080000.0,未知
8,600987,563463193.11,484333231.56999993,2015-12-31,年度报告,454789958.21,2015,12,-0.0853491726301255,True,未知,未知,未知,未知,未知,未知,497080000.0,未知
9,600987,108017912.51000002,91861184.59,2016-03-31,一季度报告,86201274.36,2016,3,4.136785246141947,False,未知,未知,未知,未知,未知,未知,603934100.0,未知
10,600987,278497669.24999994,236634743.04,2016-06-30,半年度报告,222599265.12000003,2016,6,0.8867530611797425,False,未知,未知,未知,未知,未知,未知,542435000.0,未知
11,600987,415224550.1100001,357117452.34000003,2016-09-30,三季度报告,332461621.71000004,2016,9,0.18938071379769347,True,未知,未知,未知,未知,未知,未知,621450000.0,未知
12,600987,633388245.2299999,542810484.77,2016-12-31,年度报告,511695482.8500001,2016,12,-0.15849927120717006,True,0.13538001905795208,True,0.0,True,比例外推,542810484.77,535900000.0,542810484.77
13,600987,110880171.57000002,93606737.26000004,2017-03-31,一季度报告,86326529.38,2017,3,3.3895931390648206,False,0.29774071140129094,True,0.02308088848185494,True,前期平均,463176092.92,628207273.0,628207273.0
14,600987,285467156.98,243270457.5600001,2017-06-30,半年度报告,227156237.75,2017,6,0.7025445452628333,False,0.21084907447153478,True,0.0304500768857337,True,前期平均,495151724.7500001,606248000.0,606248000.0
15,600987,439864646.5599999,376454242.85,2017-09-30,三季度报告,343074136.52000004,2017,9,0.14192353878013336,True,0.14645529102741342,True,0.04563465041240711,True,比例外推,557403396.9041959,585240000.0,557403396.9041959
16,600987,716076409.8800001,597312289.68,2017-12-31,年度报告,532428094.66,2017,12,-0.25139960960623436,True,0.17092150300894246,True,0.0,True,比例外推,597312289.68,586575000.0,597312289.68
17,600987,143007029.03,113834455.79,2018-03-31,一季度报告,95576161.58000004,2018,3,3.276280248634539,False,0.10701036387234733,True,0.006240384666016313,True,前期平均,518488023.285,620520000.0,620520000.0
18,600987,371962441.56000006,301211775.79,2018-06-30,半年度报告,276491781.18,2018,6,0.6609780707040132,False,0.07763124414237002,True,0.006555249873709534,True,前期平均,573572459.1750001,630782857.0,573572459.1750001
19,600987,554317594.5299999,452142846.74000007,2018-09-30,三季度报告,385237404.39,2018,9,0.07795589247321533,True,0.08090609609966755,True,0.035523715465173744,True,比例外推,646381064.527571,633416000.0,646381064.527571
20,600987,799162034.8999999,661906018.91,2018-12-31,年度报告,575566089.34,2018,12,-0.33784344644245606,True,0.1966003247206327,True,0.0,True,比例外推,661906018.91,633416000.0,661906018.91
21,600987,148172557.19,125472719.95000002,2019-03-31,一季度报告,107223702.39,2019,3,2.3156040711154975,False,0.3066083207721054,True,0.003414367700682014,True,前期平均,561270606.835,749256912.0,749256912.0
22,600987,371998426.57,323250109.5900001,2019-06-30,半年度报告,338674324.63000005,2019,6,0.27473807748279266,True,0.31909801555001155,True,0.03303321612806681,True,比例外推,741645177.4043353,721808000.0,741645177.4043353
23,600987,571697264.1200001,497839838.08,2019-09-30,三季度报告,455745049.27,2019,9,-0.14461548338181301,True,0.2965140869249567,True,0.014851690336914358,True,比例外推,738454927.2841899,726975000.0,738454927.2841899
24,600987,844095939.7400002,736972121.13,2019-12-31,年度报告,689838731.0400001,2019,12,-0.4066851690354239,True,0.1844134366525621,True,0.0,True,比例外推,736972121.13,,736972121.13
25,600987,84929834.99000001,74149069.45,2020-03-31,一季度报告,60279386.24,2020,3,2.2000169035484545,False,0.16723140701721523,True,0.0057757913778257175,True,前期平均,537194815.97,672333333.0,672333333.0
