,SECURITYCODE_x,NETPROFIT_x,PARENTNETPROFIT_x,REPORTDATE_x,REPORTTIMETYPE_x,KCFJCXSYJLR,Year,Month,managesituationChangeRate,managesituationGreatChange,historyprofitextroplaterate,ifhistoryprofitextroplate,IfprofitdisStableChangeRage,IfprofitdisStable,predicttype,predict,analyst_prediction,adj_prediction
0,601003,216706286.86,216706286.86,2013-12-31,年度报告,183656938.11,2013,12,未知,未知,未知,未知,未知,未知,未知,未知,未知,未知
1,601003,118090619.13,118090619.13,2014-03-31,一季度报告,116862948.33999996,2014,3,未知,未知,未知,未知,未知,未知,未知,未知,未知,未知
2,601003,199987171.58000007,199987171.58000007,2014-06-30,半年度报告,197244249.91,2014,6,未知,未知,未知,未知,未知,未知,未知,未知,未知,未知
3,601003,204056828.8100001,204056828.8100001,2014-09-30,三季度报告,199452314.56000003,2014,9,未知,未知,未知,未知,未知,未知,未知,未知,未知,未知
4,601003,168725791.17000002,168725791.17000002,2014-12-31,年度报告,133125027.87,2014,12,0.0,True,未知,未知,未知,未知,未知,未知,未知,未知
5,601003,-346987013.55,-346987013.55,2015-03-31,一季度报告,-353011724.48999995,2015,3,0.8350846871370792,False,未知,未知,未知,未知,未知,未知,150400000.0,未知
6,601003,-631501400.8199999,-631501400.8199999,2015-06-30,半年度报告,-640402146.6299998,2015,6,0.08360093873977242,True,未知,未知,未知,未知,未知,未知,-326200000.0,未知
7,601003,-985367446.13,-985367446.13,2015-09-30,三季度报告,-994411981.84,2015,9,0.061989878622381187,True,未知,未知,未知,未知,未知,未知,-1348100000.0,未知
8,601003,-1189439416.7900002,-1189439416.7900002,2015-12-31,年度报告,-1090922925.8100002,2015,12,0.28436965894358823,True,未知,未知,未知,未知,未知,未知,258900000.0,未知
9,601003,15416400.0,15416400.0,2016-03-31,一季度报告,19470800.0,2016,3,-1.624537168244117,False,未知,未知,未知,未知,未知,未知,214866667.00000003,未知
10,601003,78993661.7,78993661.7,2016-06-30,半年度报告,78855868.83000001,2016,6,-1.343160421463212,False,未知,未知,未知,未知,未知,未知,138940000.0,未知
11,601003,123606567.71,123606567.71,2016-09-30,三季度报告,119752315.71,2016,9,-1.2199243416363177,False,未知,未知,未知,未知,未知,未知,,未知
12,601003,196438068.13,196438068.13,2016-12-31,年度报告,202991747.09,2016,12,-1.1821919500909395,False,7.171979368553857,False,0.0,True,前期平均,196438068.13,20600000.0,20600000.0
13,601003,202598382.85,202598382.85,2017-03-31,一季度报告,195832349.43,2017,3,13.056867158350848,False,-1.1347019907330875,True,0.44539265724020866,False,前期平均,-158226178.04500005,未知,-158226178.04500005
14,601003,395609973.68000007,395609973.68000007,2017-06-30,半年度报告,387152851.86,2017,6,1.7433376576845028,False,-1.3661230909540425,True,0.6625990232356284,False,前期平均,138289973.06999987,2569010000.0,2569010000.0
15,601003,1255211356.8700006,1255211356.8700006,2017-09-30,三季度报告,1405533759.9,2017,9,0.7531939513798835,False,-1.316408263166798,True,0.4983321482229761,False,前期平均,1173792241.5400004,2188267500.0,2188267500.0
16,601003,2646176293.670001,2646176293.670001,2017-12-31,年度报告,2601324537.94,2017,12,0.10317867062603564,True,-1.3849033915084261,True,0.0,True,比例外推,2646176293.670001,2116000000.0,2116000000.0
17,601003,1046005250.1300002,1046005250.1300002,2018-03-31,一季度报告,1038119966.27,2018,3,0.06963483030585316,True,-2.222052706546316,True,0.15865966683658353,False,平均增速,16443037857.914215,3820661429.0,3820661429.0
18,601003,2040573358.16,2040573358.16,2018-06-30,半年度报告,2029489542.6300008,2018,6,-0.452222387509146,True,-2.4320522435037857,True,0.22594598585356757,False,平均增速,16147713322.559347,4243060000.0,4243060000.0
19,601003,3254418983.96,3254418983.96,2018-09-30,三季度报告,3227427201.61,2018,9,-0.8273547433474634,True,-3.9131314458632063,True,0.2309379977527588,False,平均增速,9111838299.621067,4385028000.0,4385028000.0
20,601003,4609698845.79,4609698845.79,2018-12-31,年度报告,4564211032.6,2018,12,-0.9181058770050998,True,-6.329652970241919,True,0.0,True,比例外推,4609698845.79,3010000000.0,3010000000.0
21,601003,383701180.48,383701180.48,2019-03-31,一季度报告,377209524.9,2019,3,-0.792824857396206,True,8.59572774337674,False,0.09456491256473523,True,比例外推,2845152093.4419513,3236057143.0,3236057143.0
22,601003,1265197321.77,1265197321.77,2019-06-30,半年度报告,1243869915.8400002,2019,6,-0.893801276002444,True,7.599063327975471,False,0.17848765761761304,False,未知,未知,2575888906.0,未知
23,601003,1483719818.1,1483719818.1,2019-09-30,三季度报告,1450563962.74,2019,9,-0.9334116818000151,True,3.7205928004617768,False,0.09466024078137769,True,比例外推,2401594152.9898577,1829000000.0,1829000000.0
24,601003,2346853393.59,2346853393.59,2019-12-31,年度报告,2304022544.85,2019,12,-0.9529890576131853,True,2.243281190538308,False,0.0,True,比例外推,2346853393.59,3109500000.0,3109500000.0
25,601003,164426083.98000002,164426083.98000002,2020-03-31,一季度报告,157576378.33,2020,3,-0.43522121409971637,True,0.38539153604057147,True,0.08020069647472648,True,比例外推,1020316810.3810315,1957291667.0,1957291667.0
