,SECURITYCODE_x,NETPROFIT_x,PARENTNETPROFIT_x,REPORTDATE_x,REPORTTIMETYPE_x,KCFJCXSYJLR,Year,Month,managesituationChangeRate,managesituationGreatChange,historyprofitextroplaterate,ifhistoryprofitextroplate,IfprofitdisStableChangeRage,IfprofitdisStable,predicttype,predict,analyst_prediction,adj_prediction
0,601005,-2499018000.0,-2499018000.0,2013-12-31,年度报告,-2499318000.0000005,2013,12,未知,未知,未知,未知,未知,未知,未知,未知,未知,未知
1,601005,-396855000.0,-396855000.0,2014-03-31,一季度报告,-698502000.0,2014,3,未知,未知,未知,未知,未知,未知,未知,未知,未知,未知
2,601005,-945237000.0,-945237000.0,2014-06-30,半年度报告,-1377763999.9999998,2014,6,未知,未知,未知,未知,未知,未知,未知,未知,未知,未知
3,601005,-1582266000.0,-1582266000.0,2014-09-30,三季度报告,-2018531000.0,2014,9,未知,未知,未知,未知,未知,未知,未知,未知,未知,未知
4,601005,51643000.00000001,51431000.00000001,2014-12-31,年度报告,-2536940000.0,2014,12,-0.0,False,未知,未知,未知,未知,未知,未知,未知,未知
5,601005,-829116000.0000001,-829116000.0000001,2015-03-31,一季度报告,-830261000.0,2015,3,5.297055599652266,False,未知,未知,未知,未知,未知,未知,未知,未知
6,601005,-2227545000.0,-2227578000.0,2015-06-30,半年度报告,-2223022000.0,2015,6,1.6438004436982472,False,未知,未知,未知,未知,未知,未知,未知,未知
7,601005,-3200093999.9999995,-3200093999.9999995,2015-09-30,三季度报告,-3208441999.999999,2015,9,0.5793918342427885,False,未知,未知,未知,未知,未知,未知,-4510000000.0,未知
8,601005,-5987186000.000001,-5987248000.000001,2015-12-31,年度报告,-9302935000.000002,2015,12,-49.39025618186395,False,未知,未知,未知,未知,未知,未知,,未知
9,601005,-992483000.0,-992488000.0,2016-03-31,一季度报告,-1042525000.0,2016,3,2.01407523193377,False,未知,未知,未知,未知,未知,未知,26000000.0,未知
10,601005,-1790332999.9999995,-1790343000.0,2016-06-30,半年度报告,-1907504999.9999995,2016,6,0.12187093863423634,False,未知,未知,未知,未知,未知,未知,27880000.0,未知
11,601005,-3091260000.0000005,-3091264000.0,2016-09-30,三季度报告,-3659065000.000001,2016,9,-0.21907981453044806,False,未知,未知,未知,未知,未知,未知,,未知
12,601005,-4685684000.0,-4685956000.0,2016-12-31,年度报告,-5392375000.0,2016,12,-0.5826055846603062,False,-3.8927409980080707,True,0.0,True,前期平均,-4685956000.0,未知,-4685956000.0
13,601005,-593939000.0000001,-593873999.9999999,2017-03-31,一季度报告,-595254000.0,2017,3,1.5179453955382611,False,-0.6190970259492272,True,0.09672374819316461,True,前期平均,-5749430000.000001,未知,-5749430000.000001
14,601005,-998823000.0,-998482000.0,2017-06-30,半年度报告,-1004337000.0,2017,6,0.3958397683559431,False,-0.1285572094143244,True,0.16448723226348677,False,前期平均,-5118026500.000001,未知,-5118026500.000001
15,601005,-882932999.9999998,-882075000.0,2017-09-30,三季度报告,-936187000.0,2017,9,-0.1915859552415521,False,-0.2927759516222118,True,0.2614829113358684,False,前期平均,-4188526000.000002,未知,-4188526000.000002
16,601005,319808000.0,320086000.0,2017-12-31,年度报告,-1870066000.0000005,2017,12,-0.46666954066898236,False,-0.5788560541133302,True,0.0,True,盈利变化,-3511853000.0,未知,-3511853000.0
17,601005,350488999.99999994,350389000.0,2018-03-31,一季度报告,353864999.99999994,2018,3,3.207533096833176,False,-0.3478927030592352,True,0.11801081198115015,False,盈利变化,1585578000.0,1263883659.0,1263883659.0
18,601005,762087000.0,761960000.0,2018-06-30,半年度报告,736095999.9999999,2018,6,1.501962810227638,False,-0.5028106876316304,True,0.160472978894662,False,盈利变化,1480374666.6666667,1416895170.0,1480374666.6666667
19,601005,1480016999.9999998,1480016999.9999998,2018-09-30,三季度报告,1435306000.0,2018,9,1.8303597215190741,False,-0.7193186077273668,True,0.17054118652758343,False,盈利变化,1374082888.8888888,,1374082888.8888888
20,601005,1788033000.0,1787906000.0000005,2018-12-31,年度报告,1677588000.0,2018,12,-8.8141197218331,False,-1.059929147455183,True,0.0,True,前期平均,1787906000.0000005,未知,1787906000.0000005
21,601005,150436999.99999997,150436999.99999997,2019-03-31,一季度报告,128191000.0,2019,3,-8.130089674711618,False,-1.4418609928505781,True,0.07744762437500663,True,前期平均,-2661894000.0,1367500000.0,1367500000.0
22,601005,615728000.0,615728000.0,2019-06-30,半年度报告,589097000.0,2019,6,-4.2791767869022825,False,-1.5464642350589213,True,0.09386526661079614,True,前期平均,-1559571500.0,1195462500.0,1195462500.0
23,601005,719901000.0,719901000.0,2019-09-30,三季度报告,689193999.9999999,2019,9,-2.688506280671101,False,-1.7448138527746389,True,0.1776352594232974,False,前期平均,-613693499.9999995,1223000000.0,1223000000.0
24,601005,925723000.0000002,925723000.0000002,2019-12-31,年度报告,726508000.0,2019,12,-2.397635278543517,False,-1.8190947246325824,True,0.0,True,前期平均,925723000.0000002,未知,925723000.0000002
25,601005,4173000.0,4173000.0,2020-03-31,一季度报告,253000.0,2020,3,-17.611724509263016,False,-2.2358759498870393,True,0.08307596389288585,True,前期平均,28628499.99999976,507000000.0,507000000.0
