,SECURITYCODE_x,NETPROFIT_x,PARENTNETPROFIT_x,REPORTDATE_x,REPORTTIMETYPE_x,KCFJCXSYJLR,Year,Month,managesituationChangeRate,managesituationGreatChange,historyprofitextroplaterate,ifhistoryprofitextroplate,IfprofitdisStableChangeRage,IfprofitdisStable,predicttype,predict,analyst_prediction,adj_prediction
0,601000,1021996868.4200002,887576216.1699998,2013-12-31,年度报告,854182401.98,2013,12,未知,未知,未知,未知,未知,未知,未知,未知,未知,未知
1,601000,248412228.51999995,222476080.74,2014-03-31,一季度报告,221708741.28,2014,3,未知,未知,未知,未知,未知,未知,未知,未知,未知,未知
2,601000,579197918.69,507775130.52,2014-06-30,半年度报告,505040181.36,2014,6,未知,未知,未知,未知,未知,未知,未知,未知,未知,未知
3,601000,851310641.5300001,754044271.37,2014-09-30,三季度报告,750313618.1999997,2014,9,未知,未知,未知,未知,未知,未知,未知,未知,未知,未知
4,601000,1188919994.07,1088987910.6699998,2014-12-31,年度报告,1074479537.79,2014,12,0.0,True,未知,未知,未知,未知,未知,未知,未知,未知
5,601000,265898894.76,245455987.35000008,2015-03-31,一季度报告,242423123.35,2015,3,3.1141165815744776,False,未知,未知,未知,未知,未知,未知,1274000000.0,未知
6,601000,616723637.9099997,572010043.4399999,2015-06-30,半年度报告,586772841.9499999,2015,6,0.7645036963038471,False,未知,未知,未知,未知,未知,未知,1215000000.0,未知
7,601000,912750179.5800002,832300398.0900003,2015-09-30,三季度报告,846680821.3500001,2015,9,0.20049817136461243,True,未知,未知,未知,未知,未知,未知,,未知
8,601000,912750179.5800002,832300398.0900003,2015-09-30,三季度报告,674852256.29,2015,9,0.20049817136461243,True,未知,未知,未知,未知,未知,未知,,未知
9,601000,912750179.5800002,832300398.0900003,2015-09-30,三季度报告,846680821.3500001,2015,9,0.20049817136461243,True,未知,未知,未知,未知,未知,未知,,未知
10,601000,912750179.5800002,832300398.0900003,2015-09-30,三季度报告,674852256.29,2015,9,0.20049817136461243,True,未知,未知,未知,未知,未知,未知,,未知
11,601000,660471833.03,660471833.03,2015-09-30,三季度报告,846680821.3500001,2015,9,0.20049817136461243,True,未知,未知,未知,未知,未知,未知,,未知
12,601000,660471833.03,660471833.03,2015-09-30,三季度报告,674852256.29,2015,9,0.20049817136461243,True,未知,未知,未知,未知,未知,未知,,未知
13,601000,660471833.03,660471833.03,2015-09-30,三季度报告,846680821.3500001,2015,9,0.20049817136461243,True,未知,未知,未知,未知,未知,未知,,未知
14,601000,660471833.03,660471833.03,2015-09-30,三季度报告,674852256.29,2015,9,0.20049817136461243,True,未知,未知,未知,未知,未知,未知,,未知
15,601000,1293837373.2899995,1199790316.2300005,2015-12-31,年度报告,1207850068.0400002,2015,12,-0.14039895576032496,True,未知,未知,未知,未知,未知,未知,1119680000.0,未知
16,601000,308273600.29,275161985.24,2016-03-31,一季度报告,270909573.48999995,2016,3,2.843554405679096,False,未知,未知,未知,未知,未知,未知,1449000000.0,未知
17,601000,689760082.47,634291544.7800001,2016-06-30,半年度报告,662184919.3100001,2016,6,0.6571391229358767,False,未知,未知,0.0,True,未知,未知,1460200000.0,未知
18,601000,1043150897.17,960995497.5900002,2016-09-30,三季度报告,973463002.81,2016,9,0.11968958350714282,True,未知,未知,0.0031520816670113083,True,未知,未知,,未知
19,601000,1417514938.9699998,1314468958.6700006,2016-12-31,年度报告,1337701987.35,2016,12,-0.21010407527397124,True,0.17040798343981275,True,0.013583800591066564,True,比例外推,1314468958.6700006,1286648715.0,1314468958.6700006
20,601000,383102655.6599999,352942481.77,2017-03-31,一季度报告,342969547.97,2017,3,2.315226692972036,False,0.19878255140194773,True,0.018713283880586795,True,前期平均,1262041352.37,1512883333.0,1512883333.0
21,601000,713322568.74,695447543.6899999,2017-06-30,半年度报告,733694377.9399997,2017,6,0.4816700681783079,True,0.1535206112196608,True,0.0,True,比例外推,1478853704.5047662,1571187500.0,1478853704.5047662
22,601000,1050403397.9,1039766910.37,2017-09-30,三季度报告,1102983891.1700006,2017,9,-0.02027897287668472,True,0.18266999038459233,True,0.0141728634552028,True,比例外推,1492473394.993599,1534000000.0,1492473394.993599
23,601000,1540286044.0499995,1463340040.8099995,2017-12-31,年度报告,1538864971.25,2017,12,-0.279022153260263,True,0.14188761061036878,True,0.009152606828778442,True,比例外推,1463340040.8099995,未知,1463340040.8099995
24,601000,379180990.65,373099959.76,2018-03-31,一季度报告,366585480.0,2018,3,1.6676841136987914,False,0.3344514373738458,True,0.014167012334293627,True,前期平均,1389209639.035,1589765000.0,1589765000.0
25,601000,773513639.09,781368824.4999999,2018-06-30,半年度报告,763508939.03,2018,6,0.4327275109565604,True,0.09197314534087773,True,0.0,True,比例外推,1589305145.671205,1553765000.0,1589305145.671205
26,601000,1063539953.93,1105666096.7299998,2018-09-30,三季度报告,1079632967.4299998,2018,9,-0.027043447818991276,True,0.0740864253169597,True,0.016224168506852127,True,比例外推,1535695266.2444272,,1535695266.2444272
27,601000,1538067792.69,1609965008.310001,2018-12-31,年度报告,1588063817.7699995,2018,12,-0.336488912323856,True,0.13617550702300402,True,0.010825821606960273,True,比例外推,1609965008.310001,,1609965008.310001
28,601000,446653972.16,429612095.97000015,2019-03-31,一季度报告,460703867.96,2019,3,1.6952745354351013,False,0.09688751207973854,True,0.028259956958777144,True,前期平均,1560956014.5400004,1684000000.0,1560956014.5400004
29,601000,893020800.3599998,880539150.2900002,2019-06-30,半年度报告,866165083.5500003,2019,6,0.32123962238381243,True,0.10259169468446074,True,0.0,True,比例外推,1803265584.3041291,,1803265584.3041291
30,601000,1211021127.1699998,1253119979.31,2019-09-30,三季度报告,1258437956.37,2019,9,-0.039061142326143425,True,0.01601372979384755,True,0.022143057656961757,True,比例外推,1771880067.317475,1753000000.0,1771880067.317475
31,601000,1764903638.1900003,1777658752.0800004,2019-12-31,年度报告,1771464638.8200004,2019,12,-0.3355319750681593,True,0.0400076283155392,True,未知,未知,True,True,未知,True
32,601000,442076509.66,413928909.41,2020-03-31,一季度报告,384723839.78,2020,3,1.2881177200275773,False,0.1718839157107092,True,未知,未知,前期平均,1622615789.9349997,1756000000.0,1622615789.9349997
