,SECURITYCODE_x,NETPROFIT_x,PARENTNETPROFIT_x,REPORTDATE_x,REPORTTIMETYPE_x,KCFJCXSYJLR,Year,Month,managesituationChangeRate,managesituationGreatChange,historyprofitextroplaterate,ifhistoryprofitextroplate,IfprofitdisStableChangeRage,IfprofitdisStable,predicttype,predict,analyst_prediction,adj_prediction
0,601015,6482848.520000001,11672371.91,2014-03-31,一季度报告,11292601.72,2014,3,未知,未知,未知,未知,未知,未知,未知,未知,未知,未知
1,601015,234540073.89,191322139.53000003,2014-12-31,年度报告,186357454.31,2014,12,未知,未知,未知,未知,未知,未知,未知,未知,未知,未知
2,601015,14165097.05,37964134.36000001,2015-03-31,一季度报告,35287552.65,2015,3,0.0,True,未知,未知,未知,未知,未知,未知,200100000.0,未知
3,601015,-25515040.68,31742711.92,2015-06-30,半年度报告,26308497.33,2015,6,未知,未知,未知,未知,未知,未知,未知,未知,60100000.0,未知
4,601015,-49213083.75000002,33973832.910000004,2015-09-30,三季度报告,12028176.8,2015,9,未知,未知,未知,未知,未知,未知,未知,未知,31800000.0,未知
5,601015,-519997028.6699999,-280928227.65,2015-12-31,年度报告,-351114993.96000004,2015,12,-0.9723593140716734,True,未知,未知,未知,未知,未知,未知,,未知
6,601015,-519997028.6699999,-280928227.65,2015-12-31,年度报告,-351322323.74,2015,12,-0.9723593140716734,True,未知,未知,未知,未知,未知,未知,,未知
7,601015,949751.22,10338627.67,2016-03-31,一季度报告,6839881.72,2016,3,-0.542336455788702,True,未知,未知,未知,未知,未知,未知,25010000.0,未知
8,601015,-25631099.74,37268988.42999999,2016-06-30,半年度报告,-28342051.16,2016,6,-1.2540794898705214,False,未知,未知,未知,未知,未知,未知,,未知
9,601015,28936603.74000001,70931016.97,2016-09-30,三季度报告,3922894.46,2016,9,-1.131730182829683,False,未知,未知,未知,未知,未知,未知,未知,未知
10,601015,230483486.15,214124154.56000003,2016-12-31,年度报告,143887412.38000005,2016,12,-1.0124670876227528,False,未知,未知,0.1030452091885566,False,未知,未知,,未知
11,601015,36970744.74,29753729.140000004,2017-03-31,一季度报告,26902234.809999995,2017,3,5.8258385811812925,False,0.9080052572997943,True,未知,未知,前期平均,-75915117.87,235000000.0,235000000.0
12,601015,116413907.66,92546327.97,2017-06-30,半年度报告,86314361.33999999,2017,6,-1.2529290036620178,False,未知,未知,未知,未知,未知,未知,513990000.0,未知
13,601015,212965293.22,168316079.51000002,2017-09-30,三季度报告,138537767.02,2017,9,-0.7759637385835108,True,未知,未知,0.0,True,未知,未知,295333333.0,未知
14,601015,317000315.35999995,247628116.98,2017-12-31,年度报告,244416585.6600001,2017,12,-0.9718728285991781,True,-2.614838820988841,True,0.11953543675383513,False,平均增速,247628116.98,295333333.0,295333333.0
15,601015,105714010.20000002,76206137.67999999,2018-03-31,一季度报告,69216622.69,2018,3,-0.824649231017898,True,3.891976959289714,False,0.3260637154726091,False,未知,未知,304900000.0,未知
16,601015,131928642.2,104980585.34,2018-06-30,半年度报告,82599393.11000003,2018,6,-0.9443120787686821,True,-5.552206938941493,True,0.38020448832792786,False,平均增速,343018778.4478252,283025000.0,283025000.0
17,601015,267171797.84,203280339.97,2018-09-30,三季度报告,140698770.82,2018,9,-0.9695591313402273,True,-22.00614042624451,True,0.0,True,比例外推,816571968.869343,268000000.0,268000000.0
18,601015,454734956.8999999,325266142.56,2018-12-31,年度报告,305361125.16,2018,12,-0.979549394098748,True,-3.189882466987542,True,0.09857974707656825,True,比例外推,325266142.56,304000000.0,325266142.56
19,601015,37611398.81,27099206.63,2019-03-31,一季度报告,8912876.02,2019,3,-0.9386755974185909,True,4.57556052597578,False,0.3391964907010493,False,未知,未知,433000000.0,未知
20,601015,-15189221.199999996,-20934829.91,2019-06-30,半年度报告,-28782642.05,2019,6,-0.9508609471613284,True,1.9064675398949702,True,0.32434820871347725,False,平均增速,104429408.85267831,,104429408.85267831
21,601015,45556549.57,13414415.21,2019-09-30,三季度报告,5925367.27,2019,9,-0.9757352812968592,True,1.2089268517326142,True,0.0,True,比例外推,24341060.49146212,未知,24341060.49146212
22,601015,68619859.79,28792629.51,2019-12-31,年度报告,21002011.58,2019,12,-0.9857436767909936,True,0.6611814108319112,True,0.17067517589521786,False,平均增速,28792629.51,,28792629.51
23,601015,-89737660.68999998,-60487038.83000001,2020-03-31,一季度报告,-47694187.64,2020,3,-0.8276360697790276,True,0.4728042414087494,True,未知,未知,True,True,未知,True
