,SECURITYCODE_x,NETPROFIT_x,PARENTNETPROFIT_x,REPORTDATE_x,REPORTTIMETYPE_x,KCFJCXSYJLR,Year,Month,managesituationChangeRate,managesituationGreatChange,historyprofitextroplaterate,ifhistoryprofitextroplate,IfprofitdisStableChangeRage,IfprofitdisStable,predicttype,predict,analyst_prediction,adj_prediction
0,601010,383372963.23,384642818.63000005,2013-12-31,年度报告,363629256.03,2013,12,未知,未知,未知,未知,未知,未知,未知,未知,未知,未知
1,601010,136430230.10999998,136646709.17,2014-03-31,一季度报告,136348374.5,2014,3,未知,未知,未知,未知,未知,未知,未知,未知,未知,未知
2,601010,250164719.97,251182398.87,2014-06-30,半年度报告,250287970.61,2014,6,未知,未知,未知,未知,未知,未知,未知,未知,未知,未知
3,601010,323541474.41,324979108.85999995,2014-09-30,三季度报告,318955830.29,2014,9,未知,未知,未知,未知,未知,未知,未知,未知,未知,未知
4,601010,440920953.7199999,443695029.57000005,2014-12-31,年度报告,368635911.5500001,2014,12,0.0,True,未知,未知,未知,未知,未知,未知,未知,未知
5,601010,118513376.12999998,118538803.40999997,2015-03-31,一季度报告,112864633.84,2015,3,1.8100294408423765,False,未知,未知,未知,未知,未知,未知,462000000.0,未知
6,601010,204025174.75000003,204725380.76,2015-06-30,半年度报告,202755737.98,2015,6,0.532482131277242,False,未知,未知,未知,未知,未知,未知,462000000.0,未知
7,601010,253285959.51,254461973.16,2015-09-30,三季度报告,245205366.68,2015,9,0.18492679780577373,True,未知,未知,未知,未知,未知,未知,375000000.0,未知
8,601010,255054125.32999992,257215067.02000004,2015-12-31,年度报告,257946597.42000005,2015,12,-0.13051770392056455,True,未知,未知,未知,未知,未知,未知,418925333.0,未知
9,601010,52876486.34,53141663.34000001,2016-03-31,一季度报告,58406311.44000001,2016,3,2.2348497338348507,False,未知,未知,未知,未知,未知,未知,未知,未知
10,601010,147766418.03000003,148670812.53,2016-06-30,半年度报告,154134065.35000002,2016,6,0.8790473464843827,False,未知,未知,未知,未知,未知,未知,未知,未知
11,601010,183625466.34,184790685.73000005,2016-09-30,三季度报告,183591874.7,2016,9,0.5135973741760607,False,未知,未知,未知,未知,未知,未知,未知,未知
12,601010,251052102.07000005,252529166.21,2016-12-31,年度报告,224116092.98,2016,12,0.5031043420057437,False,0.3811573272947712,True,0.0,True,前期平均,252529166.21,,252529166.21
13,601010,90720026.13,90511511.32,2017-03-31,一季度报告,91360140.15,2017,3,6.250348685517442,False,0.5851907241774645,True,0.0954027784479709,True,前期平均,279196261.63500005,未知,279196261.63500005
14,601010,171771376.19,171525150.51999998,2017-06-30,半年度报告,170850838.22,2017,6,1.5944525714372149,False,0.3493187772436223,True,0.06845871134878745,True,前期平均,258294550.71000004,未知,258294550.71000004
15,601010,215097281.98,214985862.46,2017-09-30,三季度报告,203993791.68,2017,9,1.0877984457784768,False,0.36332616813274893,True,0.07226521240136485,True,前期平均,246196518.46000004,未知,246196518.46000004
16,601010,300445850.38,300453895.6,2017-12-31,年度报告,288169280.5,2017,12,0.5270653385053329,False,0.27856008174119085,True,0.0,True,前期平均,300453895.6,未知,300453895.6
17,601010,84810161.88999999,84637038.25999999,2018-03-31,一季度报告,81035687.29,2018,3,3.225891234650155,False,0.05863934800554031,True,0.09915233961551007,True,前期平均,240032910.82,未知,240032910.82
18,601010,164146562.29000002,163931910.09,2018-06-30,半年度报告,155740070.53,2018,6,1.2318792090595059,False,0.023448088496983134,True,0.09714988161262628,True,前期平均,226518353.625,未知,226518353.625
19,601010,196315595.65,196287063.79,2018-09-30,三季度报告,187781775.46,2018,9,0.782323605863353,False,0.015373509349023231,True,0.12471086901180295,False,前期平均,222919788.3,未知,222919788.3
20,601010,242142448.51,242274034.74,2018-12-31,年度报告,220464346.65,2018,12,0.2760135070766159,True,0.18728375235953482,True,0.0,True,比例外推,242274034.74,未知,242274034.74
21,601010,93313539.31000002,93147305.28,2019-03-31,一季度报告,88643595.7,2019,3,3.520365893502719,False,0.18122871414051114,True,0.054463262711507976,True,前期平均,274406766.225,未知,274406766.225
22,601010,188171536.37,187971559.58000004,2019-06-30,半年度报告,167725274.13,2019,6,1.3355528003851196,False,0.027399983721399845,True,0.06946442718408585,True,前期平均,281621794.535,未知,281621794.535
23,601010,244116813.08,244109171.6,2019-09-30,三季度报告,206987774.74,2019,9,0.9528400785513447,False,0.015277676143802873,True,0.08504879880992144,True,前期平均,306459025.15,未知,306459025.15
24,601010,334082169.75000006,334331702.89,2019-12-31,年度报告,279293692.1,2019,12,0.5832538474317422,False,0.1218736264231076,True,0.0,True,前期平均,334331702.89,未知,334331702.89
25,601010,22139712.85,22395369.23,2020-03-31,一季度报告,12301331.37,2020,3,3.1084387760321035,False,0.0632192714266088,True,0.03357173143275255,True,前期平均,190514269.085,未知,190514269.085
