,SECURITYCODE_x,NETPROFIT_x,PARENTNETPROFIT_x,REPORTDATE_x,REPORTTIMETYPE_x,KCFJCXSYJLR,Year,Month,managesituationChangeRate,managesituationGreatChange,historyprofitextroplaterate,ifhistoryprofitextroplate,IfprofitdisStableChangeRage,IfprofitdisStable,predicttype,predict,analyst_prediction,adj_prediction
0,601001,-855963762.6199999,-1400602869.45,2013-12-31,年度报告,-1409849475.49,2013,12,未知,未知,未知,未知,未知,未知,未知,未知,未知,未知
1,601001,1130546785.7,1038929011.62,2014-03-31,一季度报告,-219708947.57,2014,3,未知,未知,未知,未知,未知,未知,未知,未知,未知,未知
2,601001,1062637484.82,816822299.52,2014-06-30,半年度报告,-442221223.12,2014,6,未知,未知,未知,未知,未知,未知,未知,未知,未知,未知
3,601001,914250000.75,564459576.6600001,2014-09-30,三季度报告,-693613323.3799999,2014,9,未知,未知,未知,未知,未知,未知,未知,未知,未知,未知
4,601001,664146830.11,148993873.37,2014-12-31,年度报告,-1228807363.36,2014,12,-0.0,False,未知,未知,未知,未知,未知,未知,未知,未知
5,601001,-231139021.72,-298157873.24000007,2015-03-31,一季度报告,-297903582.92,2015,3,-1.757123697530141,False,未知,未知,未知,未知,未知,未知,-1117000000.0,未知
6,601001,-549694095.1999999,-711169575.1399997,2015-06-30,半年度报告,-711678250.89,2015,6,-1.8055087222572348,False,未知,未知,未知,未知,未知,未知,-1397000000.0,未知
7,601001,-937697512.83,-1139299853.65,2015-09-30,三季度报告,-1146853528.4199998,2015,9,-1.9362469367435764,False,未知,未知,未知,未知,未知,未知,,未知
8,601001,-1828833297.64,-1801020894.72,2015-12-31,年度报告,-1809942047.13,2015,12,-2.2888170564304735,False,未知,未知,未知,未知,未知,未知,未知,未知
9,601001,475491793.8699999,438483164.56,2016-03-31,一季度报告,-294299388.87,2016,3,2.703242127834683,False,未知,未知,未知,未知,未知,未知,未知,未知
10,601001,435499284.4499999,386168457.9699999,2016-06-30,半年度报告,-339620200.58,2016,6,0.5571638300181617,False,未知,未知,未知,未知,未知,未知,未知,未知
11,601001,371846363.36,257748172.5,2016-09-30,三季度报告,-468008445.05,2016,9,-0.08716430308461114,False,未知,未知,未知,未知,未知,未知,未知,未知
12,601001,457558488.52,185711886.46,2016-12-31,年度报告,-549036001.6400001,2016,12,-0.5319618448961041,False,-18.06852824418573,True,0.0,True,盈利变化,-1380718879.5566666,未知,-1380718879.5566666
13,601001,164321437.04,18159676.950000007,2017-03-31,一季度报告,18962482.040000007,2017,3,-2.800165163005992,False,0.05734420562678914,True,0.24288906879923222,False,前期平均,-1242408763.0499997,419500000.0,419500000.0
14,601001,935393882.6,599764243.87,2017-06-30,半年度报告,79615508.74999999,2017,6,-2.965476851933321,False,0.6980403423178043,True,0.16135584746102366,False,前期平均,-342660724.37000024,820500000.0,820500000.0
15,601001,1190497176.9299998,655488099.93,2017-09-30,三季度报告,132280231.4,2017,9,-3.301928556959708,False,-32.71734059385965,True,0.1689117977308976,False,前期平均,56346820.5849998,732250000.0,732250000.0
16,601001,1380615282.64,599170480.3599999,2017-12-31,年度报告,68173184.13999999,2017,12,-2.8707198841150676,False,-1.78571959282804,True,0.0,True,前期平均,599170480.3599999,未知,599170480.3599999
17,601001,422231889.19,124843859.53,2018-03-31,一季度报告,125246861.22,2018,3,-6.209081529707147,False,0.34495250939186095,True,0.2097713693062916,False,前期平均,-758543678.96,627700000.0,627700000.0
18,601001,789634334.7700003,475041653.0900001,2018-06-30,半年度报告,478787117.9,2018,6,-1.915083772240184,False,-17.382423622519994,True,0.44130119030178894,False,前期平均,-178798145.56,700500000.0,700500000.0
19,601001,1109608576.2900002,657762577.33,2018-09-30,三季度报告,663793110.85,2018,9,-1.7189968856770583,False,-5.207810404008438,True,0.7982173412003764,False,前期平均,285704539.6799998,878000000.0,878000000.0
20,601001,1177001816.5500002,659711219.09,2018-12-31,年度报告,656277725.93,2018,12,-1.6199871704905613,False,-3.0136230512773645,True,0.0,True,前期平均,659711219.09,,659711219.09
21,601001,385286222.24,236055053.54,2019-03-31,一季度报告,218677743.14,2019,3,-3.0272361811943225,False,0.3198598240597928,True,0.2010208985954947,False,前期平均,133292098.20499992,872923333.0,872923333.0
22,601001,716732880.5500003,454938324.39,2019-06-30,半年度报告,453394380.9000001,2019,6,-2.0840001820200986,False,0.1519998111438546,True,0.32918633901479155,False,前期平均,344509261.55499995,710500000.0,710500000.0
23,601001,1073067603.3999996,677144572.3800001,2019-09-30,三季度报告,677364303.98,2019,9,-1.7714105504500812,False,0.42044121241610694,True,0.6722805047515215,False,前期平均,604577270.455,702000000.0,702000000.0
24,601001,1366946222.24,897462176.0799998,2019-12-31,年度报告,884564845.1400002,2019,12,-1.727240816950462,False,0.28062083685074024,True,0.0,True,前期平均,897462176.0799998,未知,897462176.0799998
25,601001,447668860.75,291778093.24,2020-03-31,一季度报告,293340641.61999995,2020,3,-3.2216308635267223,False,0.31372956220836806,True,0.04789269440060612,True,前期平均,581898876.645,751000000.0,751000000.0
