,SECURITYCODE_x,NETPROFIT_x,PARENTNETPROFIT_x,REPORTDATE_x,REPORTTIMETYPE_x,KCFJCXSYJLR,Year,Month,managesituationChangeRate,managesituationGreatChange,historyprofitextroplaterate,ifhistoryprofitextroplate,IfprofitdisStableChangeRage,IfprofitdisStable,predicttype,predict,analyst_prediction,adj_prediction
0,601020,203499264.41000003,204101630.24,2014-12-31,年度报告,207320946.47,2014,12,未知,未知,未知,未知,未知,未知,未知,未知,未知,未知
1,601020,2783655.6,2872237.59,2015-03-31,一季度报告,2778130.45,2015,3,未知,未知,未知,未知,未知,未知,未知,未知,未知,未知
2,601020,73764237.82,74101783.1,2015-06-30,半年度报告,78007232.71999998,2015,6,未知,未知,未知,未知,未知,未知,未知,未知,未知,未知
3,601020,135532561.82,137085531.81,2015-09-30,三季度报告,142503832.70000002,2015,9,未知,未知,未知,未知,未知,未知,未知,未知,未知,未知
4,601020,159301181.66000003,162533710.56,2015-12-31,年度报告,168323804.44999996,2015,12,0.0,True,未知,未知,未知,未知,未知,未知,未知,未知
5,601020,-6899996.48,-5983911.17,2016-03-31,一季度报告,-6080135.6000000015,2016,3,72.10504374535414,False,未知,未知,未知,未知,未知,未知,197542500.0,未知
6,601020,45857628.2,48166768.68999999,2016-06-30,半年度报告,52877179.76999999,2016,6,1.7587794631130107,False,未知,未知,未知,未知,未知,未知,,未知
7,601020,102438337.60999995,105828117.99,2016-09-30,三季度报告,105871941.62,2016,9,0.5014787714281252,False,未知,未知,未知,未知,未知,未知,未知,未知
8,601020,181622712.48,187165906.47,2016-12-31,年度报告,193217259.74,2016,12,0.2774498110399013,True,未知,未知,未知,未知,未知,未知,未知,未知
9,601020,20262153.790000007,20838860.99,2017-03-31,一季度报告,20314537.51,2017,3,-30.49266206147398,False,未知,未知,未知,未知,未知,未知,340000000.0,未知
10,601020,122221057.26,124222559.29,2017-06-30,半年度报告,117049955.46,2017,6,3.4376316961373075,False,未知,未知,未知,未知,未知,未知,329010000.0,未知
11,601020,203291332.77,206422296.81,2017-09-30,三季度报告,209497655.46,2017,9,0.9865537567073382,False,未知,未知,未知,未知,未知,未知,,未知
12,601020,299451268.21,304466035.79,2017-12-31,年度报告,282690460.63000005,2017,12,0.1204505297343197,True,0.0012265114192116242,True,0.0,True,比例外推,304466035.79,未知,304466035.79
13,601020,38513003.81,39566956.72000001,2018-03-31,一季度报告,33643164.18000001,2018,3,9.043318519792951,False,-10.844740453079291,True,0.05289534249999818,True,前期平均,221988491.39,423000000.0,423000000.0
14,601020,114970165.66,117287764.53000005,2018-06-30,半年度报告,115528793.74,2018,6,0.6650098515929007,False,1.043456791412457,True,0.1100528633384959,False,前期平均,232616090.38000005,337000000.0,337000000.0
15,601020,183948016.48,188202051.26999995,2018-09-30,三季度报告,171930655.36,2018,9,0.0010228258980192995,True,0.7085394328208515,True,0.16393513315231212,False,平均增速,266011892.6578467,,266011892.6578467
16,601020,217481938.87,224609903.77,2018-12-31,年度报告,205702885.33,2018,12,-0.32042610596897014,True,0.7567044924520936,True,0.0,True,比例外推,224609903.77,423000000.0,423000000.0
17,601020,16153876.099999998,18662154.17,2019-03-31,一季度报告,3648348.7,2019,3,4.2839104790149065,False,4.764488909463376,False,0.0994497938204494,True,去年同期,190721875.32,,190721875.32
18,601020,33503211.299999993,39055881.67,2019-06-30,半年度报告,23734092.86,2019,6,0.7700180150371024,False,0.3680516996589794,True,0.14517830908218216,False,前期平均,192046174.24000007,243500000.0,243500000.0
19,601020,64164689.07000001,74850897.3,2019-09-30,三季度报告,61416650.59,2019,9,0.10628681028547962,True,0.2033376822822975,True,0.16034013084824017,False,平均增速,99379387.55572046,121000000.0,121000000.0
20,601020,107209103.96,125149564.34,2019-12-31,年度报告,113454605.59000002,2019,12,-0.06429349734810913,True,0.09584825785810457,True,0.0,True,比例外推,125149564.34,345800000.0,345800000.0
21,601020,969262.17,2411106.61,2020-03-31,一季度报告,7102589.4700000025,2020,3,11.597550157636784,False,0.4503161961746915,True,0.07436204164461506,True,前期平均,219628928.74500006,292100000.0,292100000.0
