,SECURITYCODE_x,NETPROFIT_x,PARENTNETPROFIT_x,REPORTDATE_x,REPORTTIMETYPE_x,KCFJCXSYJLR,Year,Month,managesituationChangeRate,managesituationGreatChange,historyprofitextroplaterate,ifhistoryprofitextroplate,IfprofitdisStableChangeRage,IfprofitdisStable,predicttype,predict,analyst_prediction,adj_prediction
0,601158,1878787203.7000003,1877203525.25,2013-12-31,年度报告,1774143519.35,2013,12,未知,未知,未知,未知,未知,未知,未知,未知,未知,未知
1,601158,290763036.95000005,291318234.07000005,2014-03-31,一季度报告,272755230.22,2014,3,未知,未知,未知,未知,未知,未知,未知,未知,未知,未知
2,601158,887983550.02,887896215.6099998,2014-06-30,半年度报告,818352884.29,2014,6,未知,未知,未知,未知,未知,未知,未知,未知,未知,未知
3,601158,1433679228.6599998,1432546595.4399998,2014-09-30,三季度报告,1307470514.7299998,2014,9,未知,未知,未知,未知,未知,未知,未知,未知,未知,未知
4,601158,1449239962.74,1450004306.7500002,2014-12-31,年度报告,1255421093.3400002,2014,12,0.0,True,未知,未知,未知,未知,未知,未知,未知,未知
5,601158,319423220.85999995,319332045.55,2015-03-31,一季度报告,245273182.60999992,2015,3,5.461575114250436,False,未知,未知,未知,未知,未知,未知,1669000000.0,未知
6,601158,876893622.56,876969603.5799999,2015-06-30,半年度报告,729594469.2600001,2015,6,1.115790550013775,False,未知,未知,未知,未知,未知,未知,1490366000.0,未知
7,601158,1355276033.8900006,1355184067.0099995,2015-09-30,三季度报告,1172783403.69,2015,9,0.31046552544115763,True,未知,未知,未知,未知,未知,未知,1434000000.0,未知
8,601158,1551802512.4899998,1551564577.81,2015-12-31,年度报告,1320650643.8,2015,12,0.29639483591652993,True,未知,未知,未知,未知,未知,未知,未知,未知
9,601158,304803158.24999994,304439560.0,2016-03-31,一季度报告,270125763.75,2016,3,4.881811593539263,False,未知,未知,未知,未知,未知,未知,1659000000.0,未知
10,601158,757988894.6899999,756916563.8300003,2016-06-30,半年度报告,656804233.33,2016,6,1.1425486003821945,False,未知,未知,未知,未知,未知,未知,1572915000.0,未知
11,601158,1259165636.64,1257805756.76,2016-09-30,三季度报告,1120402840.4,2016,9,0.3862764165521205,True,未知,未知,未知,未知,未知,未知,1636000000.0,未知
12,601158,1069064102.26,1068097794.03,2016-12-31,年度报告,883909045.82,2016,12,0.21071282497495486,True,0.0674339872351661,True,0.0,True,比例外推,1068097794.03,,1068097794.03
13,601158,559490988.0600001,559147807.5699999,2017-03-31,一季度报告,543852999.1099999,2017,3,5.163936143204318,False,0.0009504332530881814,True,0.06940790981493192,True,前期平均,1588169469.725,1952900000.0,1952900000.0
14,601158,1023789836.8700002,1022704089.78,2017-06-30,半年度报告,953203356.8100004,2017,6,1.4786474008545745,False,0.14102929488069954,True,0.09667380476476117,True,前期平均,1536766281.575,1877000000.0,1877000000.0
15,601158,1497388562.7700002,1496349182.51,2017-09-30,三季度报告,1393307877.9900002,2017,9,0.4920890064260483,True,0.09703418082890394,True,0.2018715355930425,False,平均增速,1247533371.3525987,1877000000.0,1877000000.0
16,601158,2064774355.1,2063854313.14,2017-12-31,年度报告,1909907100.64,2017,12,0.7574130491597715,False,0.2875381730956227,True,0.0,True,前期平均,2063854313.14,,2063854313.14
17,601158,317407353.07,316446690.05000013,2018-03-31,一季度报告,287894536.87,2018,3,2.3580294299548545,False,0.79259001792812,True,0.07297142292676867,True,前期平均,1161027061.68,1749000000.0,1749000000.0
18,601158,797638885.2499999,796271296.4100001,2018-06-30,半年度报告,727165645.4499999,2018,6,0.8351297659331685,False,0.2524323014868306,True,0.14486697963860107,False,前期平均,1205351789.925,,1205351789.925
19,601158,1393190514.03,1391756497.2699995,2018-09-30,三季度报告,1257081125.07,2018,9,0.25470919867616426,True,0.14547482902263334,True,0.3058527637799351,False,平均增速,1990301853.6151774,未知,1990301853.6151774
20,601158,1391583154.3299994,1421522203.18,2018-12-31,年度报告,1266012345.6999998,2018,12,-0.09007625987828195,True,0.5756424561857798,True,0.0,True,比例外推,1421522203.18,,1421522203.18
21,601158,338633813.0,338584192.42,2019-03-31,一季度报告,310667825.97,2019,3,4.919167232668547,False,0.2655108115098718,True,0.04518398486941769,True,前期平均,1328502884.2200003,1768500000.0,1768500000.0
22,601158,842952854.57,843009438.46,2019-06-30,半年度报告,791426367.5800003,2019,6,1.3554358224538432,False,0.10467122418545949,True,0.13755895553322062,False,前期平均,1434913716.62,1842500000.0,1842500000.0
23,601158,1442266321.12,1441981808.3599994,2019-09-30,三季度报告,1368893240.44,2019,9,0.3485500976211383,True,0.010820330924885718,True,0.2708824839501016,False,平均增速,1453149201.861617,1716970000.0,1716970000.0
24,601158,1665969422.6899998,1665104884.3,2019-12-31,年度报告,1539709853.0100005,2019,12,0.35010775163096397,True,0.11189860405102474,True,0.0,True,比例外推,1665104884.3,1721246667.0,1665104884.3
25,601158,268918200.4700001,268543628.03000003,2020-03-31,一季度报告,237830023.32,2020,3,4.548138229480351,False,0.22765548270139205,True,0.046778093588739994,True,前期平均,1440629583.2099998,1754532500.0,1754532500.0
