,SECURITYCODE_x,NETPROFIT_x,PARENTNETPROFIT_x,REPORTDATE_x,REPORTTIMETYPE_x,KCFJCXSYJLR,Year,Month,managesituationChangeRate,managesituationGreatChange,historyprofitextroplaterate,ifhistoryprofitextroplate,IfprofitdisStableChangeRage,IfprofitdisStable,predicttype,predict,analyst_prediction,adj_prediction
0,601163,1013437197.9900004,1013126679.73,2014-12-31,年度报告,1004444042.1699996,2014,12,未知,未知,未知,未知,未知,未知,未知,未知,未知,未知
1,601163,380631247.24,380641932.9599999,2015-06-30,半年度报告,370931683.06999993,2015,6,未知,未知,未知,未知,未知,未知,未知,未知,未知,未知
2,601163,569041192.26,569005019.29,2015-09-30,三季度报告,553489493.55,2015,9,未知,未知,未知,未知,未知,未知,未知,未知,未知,未知
3,601163,805412906.22,805583718.77,2015-12-31,年度报告,768366525.2399999,2015,12,0.0,True,未知,未知,未知,未知,未知,未知,未知,未知
4,601163,160546598.1,161103007.29999998,2016-03-31,一季度报告,156703353.81,2016,3,未知,未知,未知,未知,未知,未知,未知,未知,未知,未知
5,601163,386717966.61,387773622.71000016,2016-06-30,半年度报告,376459955.38,2016,6,1.6625170827107536,False,未知,未知,未知,未知,未知,未知,未知,未知
6,601163,566853722.65,567430446.28,2016-09-30,三季度报告,546269762.0699999,2016,9,0.780955775741015,False,未知,未知,未知,未知,未知,未知,835250000.0,未知
7,601163,825040319.6100001,825082866.2200001,2016-12-31,年度报告,745302819.33,2016,12,0.2582827890681679,True,未知,未知,未知,未知,未知,未知,,未知
8,601163,156931151.55,156869235.65,2017-03-31,一季度报告,130791172.19000004,2017,3,5.3124177652070745,False,未知,未知,未知,未知,未知,未知,,未知
9,601163,272146971.16,271918470.52,2017-06-30,半年度报告,212137296.47000003,2017,6,1.6206105883154853,False,未知,未知,未知,未知,未知,未知,708110000.0,未知
10,601163,369143189.47,368735041.73,2017-09-30,三季度报告,302517944.72,2017,9,0.7878284246811595,False,未知,未知,未知,未知,未知,未知,543760000.0,未知
11,601163,484081848.2099999,483465259.9600001,2017-12-31,年度报告,389111298.0500001,2017,12,0.22834869266638533,True,0.09278910043183772,True,0.0,True,比例外推,483465259.9600001,549880000.0,549880000.0
12,601163,98935661.07,98939284.76,2018-03-31,一季度报告,67462909.5,2018,3,5.457845927850137,False,未知,未知,未知,未知,未知,未知,590000000.0,未知
13,601163,200949008.72,201066629.2200001,2018-06-30,半年度报告,153543044.51000005,2018,6,2.7238599190368453,False,0.2906828696818114,True,0.03416819466076604,True,前期平均,584205482.2800002,590000000.0,584205482.2800002
14,601163,329734462.90000004,329765488.64,2018-09-30,三季度报告,264307195.03000003,2018,9,1.745376934747327,False,0.35003989431672333,True,0.03387385250373398,True,前期平均,536720533.115,443000000.0,443000000.0
15,601163,483119143.66,483041240.1900001,2018-12-31,年度报告,398929005.5299999,2018,12,1.0935244767747632,False,0.40619964983837825,True,0.0,True,前期平均,483041240.1900001,806000000.0,806000000.0
16,601163,151626749.90000004,151631843.67,2019-03-31,一季度报告,119440655.7,2019,3,9.24339643592175,False,0.37673955936080195,True,0.09763039029802292,True,前期平均,575091639.36,626000000.0,575091639.36
17,601163,376475146.9,376403047.95000017,2019-06-30,半年度报告,294104719.59000003,2019,6,4.04325552260928,False,0.3900145623164172,True,0.09350596208665118,True,前期平均,649311480.7150002,,649311480.7150002
18,601163,617994666.5,617842606.76,2019-09-30,三季度报告,508030139.6600001,2019,9,2.0734949239969187,False,0.29543685747175574,True,0.061774954362812995,True,前期平均,760655812.0550001,700260000.0,760655812.0550001
19,601163,847394186.2099997,847170439.7900001,2019-12-31,年度报告,709932360.3399999,2019,12,1.0976962128067047,False,0.2619189323414967,True,0.0,True,前期平均,847170439.7900001,,847170439.7900001
20,601163,159484953.95,159747832.97999996,2020-03-31,一季度报告,119682249.34000002,2020,3,5.683762585812704,False,0.18520059985417606,True,0.11163449252252544,False,前期平均,454640943.9249999,877500000.0,877500000.0
