,SECURITYCODE_x,NETPROFIT_x,PARENTNETPROFIT_x,REPORTDATE_x,REPORTTIMETYPE_x,KCFJCXSYJLR,Year,Month,managesituationChangeRate,managesituationGreatChange,historyprofitextroplaterate,ifhistoryprofitextroplate,IfprofitdisStableChangeRage,IfprofitdisStable,predicttype,predict,analyst_prediction,adj_prediction
0,601155,1557658300.0000002,967461299.9999998,2012-12-31,年度报告,,2012,12,未知,未知,未知,未知,未知,未知,未知,未知,未知,未知
1,601155,1885219228.41,1204391794.9,2013-12-31,年度报告,1085187906.0,2013,12,0.0,True,未知,未知,未知,未知,未知,未知,未知,未知
2,601155,1792345648.9999993,1167206741.9999998,2014-12-31,年度报告,937220296.0,2014,12,-0.17375216816893269,True,未知,未知,未知,未知,未知,未知,未知,未知
3,601155,76709478.82000001,32646195.120000005,2015-03-31,一季度报告,2552555.89,2015,3,未知,未知,未知,未知,未知,未知,未知,未知,未知,未知
4,601155,827394445.0000001,459073676.0,2015-06-30,半年度报告,215697018.00000003,2015,6,未知,未知,未知,未知,未知,未知,未知,未知,未知,未知
5,601155,873331411.9999998,448199488.9999999,2015-09-30,三季度报告,171184166.00000003,2015,9,未知,未知,未知,未知,未知,未知,未知,未知,未知,未知
6,601155,2399604653.0,1836274416.9999995,2015-12-31,年度报告,1241199536.0000002,2015,12,-0.1309386663955905,True,0.041190477564123834,True,,False,平均增速,,1583860000.0,
7,601155,-202282818.0,-193697085.0,2016-03-31,一季度报告,-205484726.0000001,2016,3,19.30594294161573,False,未知,未知,未知,未知,未知,未知,2416295000.0,未知
8,601155,860378546.0,852353640.9999998,2016-06-30,半年度报告,717311721.0000001,2016,6,0.8826066689389002,False,未知,未知,未知,未知,未知,未知,2492984681.0,未知
9,601155,897466600.0,882965993.9999998,2016-09-30,三季度报告,740007495.0,2016,9,0.7835821299875569,False,未知,未知,未知,未知,未知,未知,2515524469.0,未知
10,601155,3155938309.0,3019228519.000001,2016-12-31,年度报告,2545341242.0,2016,12,-0.3508687782995392,True,0.3049965033873017,True,0.0,True,比例外推,3019228519.000001,2534020635.0,2534020635.0
11,601155,38590040.99999999,42271476.0,2017-03-31,一季度报告,31341682.0,2017,3,-8.700398458953643,False,未知,未知,未知,未知,未知,未知,4105199948.0,未知
12,601155,1146488564.0,1139229359.0000005,2017-06-30,半年度报告,979418821.0,2017,6,0.8104336832220363,False,未知,未知,未知,未知,未知,未知,4103875333.0,未知
13,601155,2049289136.0,1991843230.0000005,2017-09-30,三季度报告,1813890760.0,2017,9,0.7356170134910873,False,未知,未知,未知,未知,未知,未知,4440535294.0,未知
14,601155,6260362659.000002,6028907738.0,2017-12-31,年度报告,5001952802.999999,2017,12,-0.5064357577719685,True,0.5057136090064269,True,0.0,True,比例外推,6028907738.0,4807031053.0,4807031053.0
15,601155,371331175.0,360409816.00000006,2018-03-31,一季度报告,346496280.99999994,2018,3,39.36425615614144,False,-1.6146215630163987,True,0.05659396140016515,True,前期平均,2355146290.0550003,8515355238.0,8515355238.0
16,601155,2597382434.0,2538328487.0,2018-06-30,半年度报告,2000569450.0,2018,6,0.35863396191712926,True,0.3585814799900421,True,0.06467958909612143,True,比例外推,9751284132.872232,8908159000.0,9751284132.872232
17,601155,4128056267.0,3120956858.0,2018-09-30,三季度报告,2580773197.0,2018,9,-0.23990310950440707,True,1.3145374256270626,True,0.12584334452679008,False,平均增速,8589612955.03484,9377218947.0,8589612955.03484
18,601155,12208810565.000002,10491286266.999998,2018-12-31,年度报告,7596526220.999998,2018,12,-0.7511872099357241,True,1.253735666098158,True,0.0,True,比例外推,10491286266.999998,9552008889.0,10491286266.999998
19,601155,218640848.00000003,206766951.00000003,2019-03-31,一季度报告,165798315.0,2019,3,3.194795387163494,False,-5.53692804050847,True,0.07111260836418695,True,前期平均,4067485495.4999995,13571333169.0,13571333169.0
20,601155,2916510077.0,2592460805.0,2019-06-30,半年度报告,2051436934.0,2019,6,-0.40029689905880056,True,1.5884946950971757,True,0.05118406434097175,True,比例外推,8846727294.910698,13054666667.0,13054666667.0
21,601155,4179255752.0,3731803076.0,2019-09-30,三季度报告,3067385248.0,2019,9,-0.6226654388284286,True,1.8017634557002862,True,0.04030229385768269,True,比例外推,9930533910.131641,12917976667.0,12917976667.0
22,601155,13329902604.0,12654028070.999996,2019-12-31,年度报告,9981582101.0,2019,12,-0.8724152290096574,True,1.5931224174949288,True,0.0,True,比例外推,12654028070.999996,12987982500.0,12654028070.999996
23,601155,295477666.0,272856661.0,2020-03-31,一季度报告,221196285.0,2020,3,6.124278533716628,False,0.06674570364272157,True,0.022782871660630904,True,前期平均,6383177191.499998,15900048333.0,15900048333.0
