,SECURITYCODE_x,NETPROFIT_x,PARENTNETPROFIT_x,REPORTDATE_x,REPORTTIMETYPE_x,KCFJCXSYJLR,Year,Month,managesituationChangeRate,managesituationGreatChange,historyprofitextroplaterate,ifhistoryprofitextroplate,IfprofitdisStableChangeRage,IfprofitdisStable,predicttype,predict,analyst_prediction,adj_prediction
0,601113,79543223.06,79543223.06,2013-12-31,年度报告,66584662.30000001,2013,12,未知,未知,未知,未知,未知,未知,未知,未知,未知,未知
1,601113,-3395179.5900000012,-3395179.5900000012,2014-03-31,一季度报告,-7901484.349999999,2014,3,未知,未知,未知,未知,未知,未知,未知,未知,未知,未知
2,601113,-26127882.12,-26127882.12,2014-06-30,半年度报告,-30989579.64,2014,6,未知,未知,未知,未知,未知,未知,未知,未知,未知,未知
3,601113,1872060.95,1872060.95,2014-09-30,三季度报告,-26353243.61,2014,9,未知,未知,未知,未知,未知,未知,未知,未知,未知,未知
4,601113,-73992254.92999999,-73992254.92999999,2014-12-31,年度报告,-91820101.46999998,2014,12,0.0,True,未知,未知,未知,未知,未知,未知,未知,未知
5,601113,-20522629.77,-20522629.77,2015-03-31,一季度报告,-22406800.720000006,2015,3,-24.428281465370134,False,未知,未知,未知,未知,未知,未知,,未知
6,601113,-15607676.08,-15607676.08,2015-06-30,半年度报告,-19074420.8,2015,6,-4.044380814896297,False,未知,未知,未知,未知,未知,未知,57600000.0,未知
7,601113,-72733608.88,-72733608.88,2015-09-30,三季度报告,-79074299.31000003,2015,9,41.489654548907716,False,未知,未知,未知,未知,未知,未知,8330500.0,未知
8,601113,100236491.89000005,100236491.89000005,2015-12-31,年度报告,-91614679.47000004,2015,12,-2.0750209347620436,False,未知,未知,未知,未知,未知,未知,78240000.0,未知
9,601113,-21076968.090000004,-21076968.090000004,2016-03-31,一季度报告,-32441102.02,2016,3,-4.875878674002898,False,未知,未知,未知,未知,未知,未知,未知,未知
10,601113,-16342565.89,-17131459.399999995,2016-06-30,半年度报告,-32268016.8,2016,6,-6.0964168305573905,False,未知,未知,未知,未知,未知,未知,46360000.0,未知
11,601113,30676650.00000001,28686424.47000001,2016-09-30,三季度报告,341132.12000000005,2016,9,-2.093624038252177,False,未知,未知,未知,未知,未知,未知,69000000.0,未知
12,601113,79690012.29999998,72733075.18,2016-12-31,年度报告,31458539.31000001,2016,12,-0.206444463885557,True,35.11495852346026,False,0.0,True,比例外推,72733075.18,,72733075.18
13,601113,38499539.27,38243479.71,2017-03-31,一季度报告,23893525.17,2017,3,-4.773940479500911,False,-0.7624497104027427,True,0.7976992194974163,False,盈利变化,147845911.43333334,未知,147845911.43333334
14,601113,25194617.840000004,23188900.559999995,2017-06-30,半年度报告,94188.61,2017,6,-5.867241998312665,False,-0.216851692186065,True,0.8657230062859018,False,盈利变化,94307878.78666668,未知,94307878.78666668
15,601113,63211620.56999999,58042558.54,2017-09-30,三季度报告,19261717.34,2017,9,1.5929566318356134,False,-1.8658193589082668,True,0.4761276857903557,False,前期平均,19038939.53,未知,19038939.53
16,601113,105300880.51999998,93688826.3,2017-12-31,年度报告,55996079.96000002,2017,12,-0.001842002978332829,True,5.072953267527563,False,0.0,True,比例外推,93688826.3,,93688826.3
17,601113,28144811.939999994,27978003.89,2018-03-31,一季度报告,27602478.73,2018,3,1.0660824666538924,False,-2.8509572808644457,True,0.9112478830353846,False,前期平均,25323885.17999999,未知,25323885.17999999
18,601113,130949482.76,128933382.47999996,2018-06-30,半年度报告,122519038.98,2018,6,2.1571514029363024,False,-2.577115933184903,True,0.7537826196578141,False,前期平均,124526531.19999994,未知,124526531.19999994
19,601113,246512530.46000004,236801694.01,2018-09-30,三季度报告,227568433.64,2018,9,0.2583639264858672,True,-4.0060005408550845,True,0.4571364213358939,False,平均增速,491668979.1694473,未知,491668979.1694473
20,601113,279333391.85,260999626.60999992,2018-12-31,年度报告,136581583.20000002,2018,12,-0.24461008619113855,True,0.17048770545559683,True,0.0,True,比例外推,260999626.60999992,未知,260999626.60999992
21,601113,95655769.24,94351129.16,2019-03-31,一季度报告,45233568.74,2019,3,1.8262126330626325,False,2.230844821837599,False,0.8970874296532351,False,去年同期,203330233.63,未知,203330233.63
22,601113,132379328.57999995,127656636.42000002,2019-06-30,半年度报告,95697510.71,2019,6,-0.39256558037892936,True,28.58624361891594,False,0.9833948084444796,False,未知,未知,未知,未知
23,601113,270010787.89000005,259365266.21000004,2019-09-30,三季度报告,165972854.98,2019,9,-0.6773258425785907,True,4.251189077472854,False,0.9925057233852055,False,未知,未知,未知,未知
24,601113,-1303923741.94,-1321455853.29,2019-12-31,年度报告,-678685171.3200003,2019,12,-0.7152391179114235,True,2.019969119472247,False,0.0,True,比例外推,-1321455853.29,未知,-1321455853.29
25,601113,31486659.94,26980168.01,2020-03-31,一季度报告,20411346.480000004,2020,3,-0.16844301507391227,True,1.8706339698193906,True,0.2540309278516287,False,平均增速,321518879.84111255,未知,321518879.84111255
