,SECURITYCODE_x,NETPROFIT_x,PARENTNETPROFIT_x,REPORTDATE_x,REPORTTIMETYPE_x,KCFJCXSYJLR,Year,Month,managesituationChangeRate,managesituationGreatChange,historyprofitextroplaterate,ifhistoryprofitextroplate,IfprofitdisStableChangeRage,IfprofitdisStable,predicttype,predict,analyst_prediction,adj_prediction
0,601101,530680777.74,526333322.46,2013-12-31,年度报告,530418973.37000006,2013,12,未知,未知,未知,未知,未知,未知,未知,未知,未知,未知
1,601101,68510465.07000001,66678878.99,2014-03-31,一季度报告,66814571.81,2014,3,未知,未知,未知,未知,未知,未知,未知,未知,未知,未知
2,601101,83426840.89000002,81006078.69,2014-06-30,半年度报告,81976177.26,2014,6,未知,未知,未知,未知,未知,未知,未知,未知,未知,未知
3,601101,155435794.31000006,147433899.6,2014-09-30,三季度报告,148903970.56,2014,9,未知,未知,未知,未知,未知,未知,未知,未知,未知,未知
4,601101,195089653.29000008,182826791.09,2014-12-31,年度报告,105619737.2,2014,12,0.0,True,未知,未知,未知,未知,未知,未知,未知,未知
5,601101,19239334.49,19104571.44,2015-03-31,一季度报告,19366833.06,2015,3,6.745981248233847,False,未知,未知,未知,未知,未知,未知,127233333.0,未知
6,601101,23791975.86,31275531.9,2015-06-30,半年度报告,33062261.46,2015,6,5.361031678518349,False,未知,未知,未知,未知,未知,未知,59900000.0,未知
7,601101,34157326.72000001,40648021.09,2015-09-30,三季度报告,44559546.67,2015,9,2.414147816439333,False,未知,未知,未知,未知,未知,未知,49900000.0,未知
8,601101,54189804.90000001,57600434.28,2015-12-31,年度报告,-45263337.97,2015,12,1.7201892503809257,False,未知,未知,未知,未知,未知,未知,,未知
9,601101,-105441151.46,-101176450.83,2016-03-31,一季度报告,-103064436.37,2016,3,26.5831151028551,False,未知,未知,未知,未知,未知,未知,20500000.0,未知
10,601101,-147662944.94,-142830264.5,2016-06-30,半年度报告,-142739260.39000002,2016,6,21.305031783097984,False,未知,未知,未知,未知,未知,未知,-5700000.0,未知
11,601101,-113339793.6,-115754856.03,2016-09-30,三季度报告,-119989550.67000002,2016,9,14.536367412186049,False,未知,未知,未知,未知,未知,未知,500000.0,未知
12,601101,12635198.35,-8354910.069999997,2016-12-31,年度报告,-38689222.98,2016,12,8.79300033870393,False,0.8506695710292445,True,0.0,True,盈利变化,59791805.943333335,,59791805.943333335
13,601101,331970341.88,310787310.90000004,2017-03-31,一季度报告,270817507.95000005,2017,3,-6.032956965965213,False,3.40322261677426,False,1.707695268849343,False,前期平均,297874808.08000004,949000000.0,949000000.0
14,601101,524107072.63,480362113.36,2017-06-30,半年度报告,445946061.16,2017,6,-4.593865596786195,False,3.7544222071449034,False,2.4443528947755424,False,前期平均,453021093.615,,453021093.615
15,601101,698433241.75,629292404.56,2017-09-30,三季度报告,595874850.1500003,2017,9,-5.682210553628536,False,2.195610821576863,False,2.1600277293401864,False,前期平均,562738845.56,未知,562738845.56
16,601101,724682898.0899999,625648799.22,2017-12-31,年度报告,641301222.41,2017,12,41.000193668506995,False,0.898626237061463,True,0.0,True,前期平均,625648799.22,,625648799.22
17,601101,298365461.80999994,268826980.58000004,2018-03-31,一季度报告,254074093.95,2018,3,0.5985788812779832,False,-8.702165767469438,True,1.7777958513065033,False,前期平均,268699501.76000005,852800000.0,852800000.0
18,601101,706400801.3000001,638175666.59,2018-06-30,半年度报告,630980901.82,2018,6,0.01254267582578647,True,-9.462145352096409,True,2.4712754227180844,False,平均增速,1739529530.5866323,1231000000.0,1231000000.0
19,601101,1017050832.8399996,909906609.98,2018-09-30,三季度报告,913113559.86,2018,9,-0.24018396316543877,True,-18.641108423875366,True,2.086007852210342,False,平均增速,1168674889.9366918,1153000000.0,1168674889.9366918
20,601101,825543709.88,721174170.06,2018-12-31,年度报告,787229026.82,2018,12,-0.2677062213849931,True,20.688974570756933,False,0.0,True,比例外推,721174170.06,1300500000.0,1300500000.0
21,601101,260406128.16,218642028.43,2019-03-31,一季度报告,206996866.91,2019,3,0.778626703374733,False,1.6342341245895131,True,1.5275908462229046,False,前期平均,436071492.35499996,896333333.0,896333333.0
22,601101,552051614.5400001,446451533.9200001,2019-06-30,半年度报告,428844777.43,2019,6,-0.24875399806543233,True,2.7530180408696285,False,1.9606208251242954,False,未知,未知,654000000.0,未知
23,601101,765374423.1899999,601750744.4699999,2019-09-30,三季度报告,492405157.1500001,2019,9,-0.47821607278159944,True,2.4765415201821197,False,1.3712213245639415,False,未知,未知,,未知
24,601101,408017342.49,262166994.98,2019-12-31,年度报告,221172834.74,2019,12,-0.35717422180209074,True,1.2393149276166708,True,0.0,True,比例外推,262166994.98,,262166994.98
25,601101,25032314.03,24989345.430000003,2020-03-31,一季度报告,3743026.98,2020,3,1.0378966558495757,False,0.17375428577727403,True,0.3755907866394679,False,前期平均,476808669.09499997,110000000.0,110000000.0
