,SECURITYCODE_x,NETPROFIT_x,PARENTNETPROFIT_x,REPORTDATE_x,REPORTTIMETYPE_x,KCFJCXSYJLR,Year,Month,managesituationChangeRate,managesituationGreatChange,historyprofitextroplaterate,ifhistoryprofitextroplate,IfprofitdisStableChangeRage,IfprofitdisStable,predicttype,predict,analyst_prediction,adj_prediction
0,601108,432599600.0000001,326433600.0,2013-12-31,年度报告,311689200.0,2013,12,未知,未知,未知,未知,未知,未知,未知,未知,未知,未知
1,601108,1014066000.0,855682799.9999998,2014-01-01,其他报告,,2014,1,未知,未知,未知,未知,未知,未知,未知,未知,未知,未知
2,601108,569611015.71,468027284.1600001,2014-09-30,三季度报告,,2014,9,未知,未知,未知,未知,未知,未知,未知,未知,未知,未知
3,601108,1014066000.0,855682799.9999998,2014-12-31,年度报告,819842195.0300001,2014,12,0.0,True,未知,未知,未知,未知,未知,未知,未知,未知
4,601108,3321067100.0,3075405899.9999995,2015-01-01,其他报告,,2015,1,-0.5734009423449754,True,未知,未知,未知,未知,未知,未知,未知,未知
5,601108,397200300.00000006,353061000.0,2015-03-31,一季度报告,,2015,3,未知,未知,未知,未知,未知,未知,未知,未知,未知,未知
6,601108,1285922300.0,1189729400.0,2015-06-30,半年度报告,1151941200.0,2015,6,未知,未知,未知,未知,未知,未知,未知,未知,未知,未知
7,601108,1852122646.45,1667759457.5200002,2015-09-30,三季度报告,,2015,9,-0.24053505274862008,True,未知,未知,未知,未知,未知,未知,未知,未知
8,601108,3321067067.1000013,3075405936.630001,2015-12-31,年度报告,2284489551.6600003,2015,12,-0.5734009423449754,True,未知,未知,未知,未知,未知,未知,未知,未知
9,601108,1777257400.0000012,1785885400.0000005,2016-01-01,其他报告,,2016,1,-0.8697407830151941,True,未知,未知,未知,未知,未知,未知,未知,未知
10,601108,881276287.6100003,887776237.7099998,2016-06-30,半年度报告,,2016,6,-0.6635880721564591,True,未知,未知,未知,未知,未知,未知,未知,未知
11,601108,1365964351.46,1374158194.48,2016-09-30,三季度报告,1376421494.48,2016,9,-0.766430370672713,True,未知,未知,未知,未知,未知,未知,未知,未知
12,601108,1777257360.33,1785885436.5100005,2016-12-31,年度报告,1777797124.7300005,2016,12,-0.8697407817247872,True,3.5913403444444953,False,0.0,True,比例外推,1785885436.5100005,未知,1785885436.5100005
13,601108,384769727.81,384916782.1900001,2017-03-31,一季度报告,382608701.35000014,2017,3,未知,未知,未知,未知,未知,未知,未知,未知,未知,未知
14,601108,797189629.9299997,820850288.7399997,2017-06-30,半年度报告,810158950.94,2017,6,-0.5091214797425224,True,未知,未知,未知,未知,未知,未知,未知,未知
15,601108,1476811970.05,1503931618.18,2017-12-31,年度报告,1490095163.08,2017,12,-0.7565914708494018,True,0.18006790895629834,True,0.0,True,比例外推,1503931618.18,未知,1503931618.18
16,601108,359544241.33,359276790.64,2018-03-31,一季度报告,357216580.57000005,2018,3,0.12430778393673059,True,未知,未知,未知,未知,未知,未知,1723000000.0,未知
17,601108,584657943.3299999,584506772.3900001,2018-06-30,半年度报告,572087414.1299999,2018,6,-0.4573441703726299,True,0.2643132618417352,True,,False,平均增速,1099330165.0551133,1320000000.0,1320000000.0
18,601108,666855795.5600001,672797512.83,2018-09-30,三季度报告,658541904.06,2018,9,未知,未知,未知,未知,未知,未知,未知,未知,,未知
19,601108,813044382.1699997,818836066.5099999,2018-12-31,年度报告,792889466.09,2018,12,-0.7070719842652997,True,0.42066771502242684,True,0.0,True,比例外推,818836066.5099999,,818836066.5099999
20,601108,391048191.4,391042213.84,2019-03-31,一季度报告,390930219.3,2019,3,0.20318878811619692,True,未知,未知,未知,未知,未知,未知,未知,未知
21,601108,736344204.37,732334174.34,2019-06-30,半年度报告,726113541.0799999,2019,6,-0.2600808644862166,True,0.30334249004366004,True,,False,平均增速,948098992.1291578,1212500000.0,1212500000.0
22,601108,999176680.84,994999623.32,2019-09-30,三季度报告,986567942.56,2019,9,-0.3512846362282576,True,未知,未知,未知,未知,未知,未知,,未知
23,601108,1875759492.16,1873062523.33,2019-12-31,年度报告,1856366829.37,2019,12,-0.4679262172067407,True,0.5002906824514062,True,0.0,True,比例外推,1873062523.33,未知,1873062523.33
24,601108,193704581.92,193671928.88000005,2020-03-31,一季度报告,197019472.27,2020,3,0.10625649092312908,True,0.05076139267365191,True,0.14456442917662593,False,平均增速,1615631540.4651272,1976000000.0,1976000000.0
