,SECURITYCODE_x,NETPROFIT_x,PARENTNETPROFIT_x,REPORTDATE_x,REPORTTIMETYPE_x,KCFJCXSYJLR,Year,Month,managesituationChangeRate,managesituationGreatChange,historyprofitextroplaterate,ifhistoryprofitextroplate,IfprofitdisStableChangeRage,IfprofitdisStable,predicttype,predict,analyst_prediction,adj_prediction
0,601126,370503263.1299998,370503263.1299998,2013-12-31,年度报告,362819134.01,2013,12,未知,未知,未知,未知,未知,未知,未知,未知,未知,未知
1,601126,8034679.740000001,9052325.07,2014-03-31,一季度报告,8614306.590000002,2014,3,未知,未知,未知,未知,未知,未知,未知,未知,未知,未知
2,601126,97194634.24000002,99337659.92999998,2014-06-30,半年度报告,95935008.88,2014,6,未知,未知,未知,未知,未知,未知,未知,未知,未知,未知
3,601126,169355182.79,172680641.35999995,2014-09-30,三季度报告,167560785.24000004,2014,9,未知,未知,未知,未知,未知,未知,未知,未知,未知,未知
4,601126,335676175.21999985,340779138.20000005,2014-12-31,年度报告,321230366.56,2014,12,0.0,True,未知,未知,未知,未知,未知,未知,未知,未知
5,601126,9713537.86,9677868.449999996,2015-03-31,一季度报告,8000067.0299999975,2015,3,45.113009493767294,False,未知,未知,未知,未知,未知,未知,488000000.0,未知
6,601126,73106252.96000001,76546401.24999999,2015-06-30,半年度报告,72922594.92999998,2015,6,2.8119723997841937,False,未知,未知,未知,未知,未知,未知,396095018.0,未知
7,601126,145286684.94,147126725.02999997,2015-09-30,三季度报告,140689531.98,2015,9,1.1877291088836823,False,未知,未知,未知,未知,未知,未知,367095120.0,未知
8,601126,338793804.38,344116049.77,2015-12-31,年度报告,325683074.35999995,2015,12,0.10375203985559754,True,未知,未知,未知,未知,未知,未知,367095120.0,未知
9,601126,7263935.369999999,9949830.27,2016-03-31,一季度报告,8709307.78,2016,3,37.14297822997313,False,未知,未知,未知,未知,未知,未知,435776000.0,未知
10,601126,72665376.51999998,76775341.27,2016-06-30,半年度报告,73270778.23,2016,6,4.068010575411658,False,未知,未知,未知,未知,未知,未知,,未知
11,601126,140398590.99000004,150202061.64999998,2016-09-30,三季度报告,135153619.34,2016,9,1.5501529151347144,False,未知,未知,未知,未知,未知,未知,未知,未知
12,601126,283493765.17,295935970.43,2016-12-31,年度报告,261319967.15000004,2016,12,0.0935951553424326,True,0.04048805167253945,True,0.0,True,比例外推,295935970.43,519000000.0,519000000.0
13,601126,-20063314.88,-19154225.96,2017-03-31,一季度报告,-30167495.33,2017,3,50.00585898109386,False,0.18144621237909564,True,0.005091903559799809,True,盈利变化,244100232.95000002,376307500.0,376307500.0
14,601126,30432688.89999999,32697712.30000001,2017-06-30,半年度报告,15437080.45,2017,6,4.098759283632484,False,0.1466236293336238,True,0.043740871807338044,True,前期平均,271725630.855,,271725630.855
15,601126,138495149.43,142711232.57,2017-09-30,三季度报告,120390636.04,2017,9,1.6389386141089486,False,0.10756574131146046,True,0.058283968848325374,True,前期平均,312042794.41999996,304960000.0,312042794.41999996
16,601126,230241468.77,238011929.35,2017-12-31,年度报告,213064855.52,2017,12,0.3069185592417655,True,0.15935838882516792,True,0.0,True,比例外推,238011929.35,391073333.0,391073333.0
17,601126,-20233800.49,-18448569.45,2018-03-31,一季度报告,-21554578.470000006,2018,3,-19.4667023044798,False,3.363521898482181,False,0.11368958139547204,False,去年同期,224783781.40000004,未知,224783781.40000004
18,601126,31066145.300000004,33727136.34,2018-06-30,半年度报告,25965174.38000001,2018,6,11.17451617066936,False,0.5824607434442464,True,0.11979628050206247,False,前期平均,254131970.51500002,未知,254131970.51500002
19,601126,139855393.82999998,144387960.32000002,2018-09-30,三季度报告,131423506.88,2018,9,1.6752075047744854,False,0.030435509991528355,True,0.0727574135072756,True,前期平均,299967905.41499996,未知,299967905.41499996
20,601126,200816247.05,216997146.83,2018-12-31,年度报告,199388345.79,2018,12,0.6091943172066648,False,0.26001585107510194,True,0.0,True,前期平均,216997146.83,,216997146.83
21,601126,-27732941.26000001,-23390190.58,2019-03-31,一季度报告,-26796894.95000001,2019,3,-19.311105880139074,False,-2.1616845916931484,True,0.10544936628152282,False,前期平均,224531314.53000003,未知,224531314.53000003
22,601126,33173439.85,39292090.38,2019-06-30,半年度报告,30911894.61000001,2019,6,10.92627085053902,False,0.39734765781602166,True,0.11936593508801308,False,前期平均,232130572.375,未知,232130572.375
23,601126,110383247.62,118281443.66,2019-09-30,三季度报告,104042831.18999998,2019,9,1.6491882292388513,False,0.0029296004950468157,True,0.07867618835310175,True,前期平均,227701727.305,未知,227701727.305
24,601126,179134647.60999998,187878181.1,2019-12-31,年度报告,164845860.06000006,2019,12,0.844986491744119,False,0.21821111816732564,True,0.0,True,前期平均,187878181.1,未知,187878181.1
25,601126,-61854689.98000001,-61049395.53999998,2020-03-31,一季度报告,-64135072.74999999,2020,3,-14.35968153022366,False,-0.3764231511542068,True,0.0293128664754832,True,前期平均,171038242.015,未知,171038242.015
