,SECURITYCODE_x,NETPROFIT_x,PARENTNETPROFIT_x,REPORTDATE_x,REPORTTIMETYPE_x,KCFJCXSYJLR,Year,Month,managesituationChangeRate,managesituationGreatChange,historyprofitextroplaterate,ifhistoryprofitextroplate,IfprofitdisStableChangeRage,IfprofitdisStable,predicttype,predict,analyst_prediction,adj_prediction
0,601198,234520090.31,234520090.31,2014-03-31,一季度报告,234023484.94000003,2014,3,未知,未知,未知,未知,未知,未知,未知,未知,未知,未知
1,601198,492356304.4999999,492356304.4999999,2014-06-30,半年度报告,490012794.49,2014,6,未知,未知,未知,未知,未知,未知,未知,未知,未知,未知
2,601198,1040597716.24,1040597699.34,2014-12-31,年度报告,1000885569.65,2014,12,未知,未知,未知,未知,未知,未知,未知,未知,未知,未知
3,601198,681222374.4499999,681235189.7800001,2015-03-31,一季度报告,681231734.76,2015,3,0.0,True,未知,未知,未知,未知,未知,未知,2285500000.0,未知
4,601198,1514799201.9500005,1514375964.7800002,2015-06-30,半年度报告,1513167980.77,2015,6,-0.5236781002567622,True,未知,未知,未知,未知,未知,未知,2737173333.0,未知
5,601198,1514799201.9500005,1514375964.7800002,2015-06-30,半年度报告,1514155523.6699998,2015,6,-0.5236781002567622,True,未知,未知,未知,未知,未知,未知,2737173333.0,未知
6,601198,1768969354.26,1768586047.6099997,2015-09-30,三季度报告,1765675001.11,2015,9,未知,未知,未知,未知,未知,未知,未知,未知,2103000000.0,未知
7,601198,1768969354.26,1768586047.6099997,2015-09-30,三季度报告,1766569388.9999995,2015,9,未知,未知,未知,未知,未知,未知,未知,未知,2103000000.0,未知
8,601198,2045015336.04,2044690319.02,2015-12-31,年度报告,2044180032.33,2015,12,-0.7746294397441181,True,未知,未知,未知,未知,未知,未知,2692260000.0,未知
9,601198,278853269.07000005,278858698.5,2016-03-31,一季度报告,279067721.67,2016,3,-0.6557363658242361,True,未知,未知,未知,未知,未知,未知,1605282500.0,未知
10,601198,761212999.2899997,760416533.6600001,2016-06-30,半年度报告,757037464.46,2016,6,-0.845180740781945,True,未知,未知,未知,未知,未知,未知,1360026667.0,未知
11,601198,1097928313.38,1096992362.65,2016-09-30,三季度报告,1093446455.41,2016,9,-0.8674255776420134,True,未知,未知,0.07530572123137536,True,未知,未知,1498742000.0,未知
12,601198,1352868018.55,1352929314.5900006,2016-12-31,年度报告,1349620469.95,2016,12,-0.885321109246971,True,未知,未知,0.14331969029376557,False,未知,未知,2944040000.0,未知
13,601198,307289063.94,302451040.4300001,2017-03-31,一季度报告,300206833.69999987,2017,3,-0.15898389467641913,True,0.39097884001025857,True,未知,未知,True,True,1701589399.0,1701589399.0
14,601198,572344788.14,564588702.2500001,2017-06-30,半年度报告,558422488.97,2017,6,-0.6919126571291582,True,0.24150072394108035,True,0.0,True,比例外推,941684291.6065567,1293750000.0,1293750000.0
15,601198,938435704.1899998,926891165.76,2017-09-30,三季度报告,920423185.8,2017,9,-0.7863976295610559,True,未知,未知,0.07551258947555256,True,未知,未知,1217000000.0,未知
16,601198,1309660386.8499994,1309249598.89,2017-12-31,年度报告,1287359414.8099995,2017,12,-0.8266496900700203,True,0.12311233091890889,True,0.16192157968763776,False,平均增速,1309249598.89,,1309249598.89
17,601198,277034497.87,277336619.69,2018-03-31,一季度报告,275498085.54,2018,3,-0.2368095131566692,True,0.3598648897843878,True,0.08133515751993448,True,比例外推,1070730765.9927571,1425000000.0,1425000000.0
18,601198,575960672.12,575843620.48,2018-06-30,半年度报告,571463133.61,2018,6,-0.5902468316831522,True,0.4970635150126354,True,0.0,True,比例外推,992539905.0921273,1425000000.0,1425000000.0
19,601198,778284006.51,778434849.1400001,2018-09-30,三季度报告,775268480.1599997,2018,9,-0.7500946636376934,True,0.34533017011206396,True,0.03621156222528035,True,比例外推,976748676.2020779,,976748676.2020779
20,601198,1008384426.96,1008047034.4000002,2018-12-31,年度报告,1004357781.42,2018,12,-0.8209306071522339,True,0.22913163862387656,True,0.08745422500158556,True,比例外推,1008047034.4000002,未知,1008047034.4000002
21,601198,554978904.27,554613876.7399999,2019-03-31,一季度报告,504501535.75,2019,3,-0.15346250335923914,True,0.05471936671984548,True,0.05071768946351296,True,比例外推,2169054977.984149,1797000000.0,1797000000.0
22,601198,864227600.5300001,863774970.74,2019-06-30,半年度报告,810080509.52,2019,6,-0.5928192641230575,True,0.13620440366520986,True,0.0,True,比例外推,1607871958.29257,,1607871958.29257
23,601198,1107709442.91,1107426824.86,2019-09-30,三季度报告,1051201619.19,2019,9,-0.6986702947145983,True,0.23561406527038428,True,0.11737204020491121,False,平均增速,1362052455.8619375,未知,1362052455.8619375
24,601198,1221446096.5100005,1220698859.37,2019-12-31,年度报告,1173785303.6899998,2019,12,-0.7674298769002085,True,0.24253621113311094,True,未知,未知,True,True,未知,True
25,601198,309512125.97,309296746.72,2020-03-31,一季度报告,313951807.41,2020,3,-0.5774252165161492,True,0.8995602455286862,True,未知,未知,True,True,未知,True
