,SECURITYCODE_x,NETPROFIT_x,PARENTNETPROFIT_x,REPORTDATE_x,REPORTTIMETYPE_x,KCFJCXSYJLR,Year,Month,managesituationChangeRate,managesituationGreatChange,historyprofitextroplaterate,ifhistoryprofitextroplate,IfprofitdisStableChangeRage,IfprofitdisStable,predicttype,predict,analyst_prediction,adj_prediction
0,601222,371536293.56000006,371514771.45000017,2013-12-31,年度报告,368651364.14,2013,12,未知,未知,未知,未知,未知,未知,未知,未知,未知,未知
1,601222,63427591.11,63569962.48,2014-03-31,一季度报告,61925028.64999999,2014,3,未知,未知,未知,未知,未知,未知,未知,未知,未知,未知
2,601222,135116999.32999998,135177431.42000002,2014-06-30,半年度报告,132899715.69,2014,6,未知,未知,未知,未知,未知,未知,未知,未知,未知,未知
3,601222,252364023.01,252405419.42,2014-09-30,三季度报告,249712385.32,2014,9,未知,未知,未知,未知,未知,未知,未知,未知,未知,未知
4,601222,409603265.88,409920975.35,2014-12-31,年度报告,404005673.06000006,2014,12,0.0,True,未知,未知,未知,未知,未知,未知,未知,未知
5,601222,86029935.96999998,79511646.03000002,2015-03-31,一季度报告,78383697.35000001,2015,3,4.857644710417255,False,未知,未知,未知,未知,未知,未知,594738739.0,未知
6,601222,184035321.73,169097385.61999995,2015-06-30,半年度报告,167296164.28,2015,6,1.7497376007632222,False,未知,未知,未知,未知,未知,未知,573431123.0,未知
7,601222,341067331.83000004,316270468.13,2015-09-30,三季度报告,312782343.59,2015,9,0.4722236915096168,True,未知,未知,未知,未知,未知,未知,546352927.0,未知
8,601222,524439054.76,495158650.56,2015-12-31,年度报告,488871260.1799998,2015,12,-0.09293620312869351,True,未知,未知,未知,未知,未知,未知,522053000.0,未知
9,601222,110110167.62,103947959.41000004,2016-03-31,一季度报告,92246846.68,2016,3,3.318686156985642,False,未知,未知,未知,未知,未知,未知,679212500.0,未知
10,601222,176369962.67000002,162215528.77,2016-06-30,半年度报告,200941020.3,2016,6,1.0188314398965463,False,未知,未知,未知,未知,未知,未知,653106154.0,未知
11,601222,319160616.39000016,298604219.58,2016-09-30,三季度报告,331376670.71,2016,9,0.08933415453927679,True,未知,未知,未知,未知,未知,未知,592328333.0,未知
12,601222,492366757.3900001,466484137.9000001,2016-12-31,年度报告,463489619.11,2016,12,-0.2915548714616098,True,0.34275379712165904,True,0.0,True,比例外推,466484137.9000001,678385000.0,678385000.0
13,601222,137700780.14000002,133197632.66,2017-03-31,一季度报告,134004000.04,2017,3,2.3742233037207328,False,0.47346433158982276,True,0.02814662263215359,True,前期平均,509481736.28,727300000.0,727300000.0
14,601222,351379384.4400001,336741857.11,2017-06-30,半年度报告,339564602.60999984,2017,6,1.106573522698813,False,0.10524004390269089,True,0.06530490872899625,True,前期平均,633082383.745,717496095.0,717496095.0
15,601222,568769210.9699999,549356486.14,2017-09-30,三季度报告,549064509.56,2017,9,0.16410444923442288,True,0.07564460080155931,True,0.05734138368014574,True,比例外推,835220089.946931,727942106.0,727942106.0
16,601222,714395403.49,686022146.2899997,2017-12-31,年度报告,678666134.71,2017,12,-0.24540743666472006,True,0.05427076805820419,True,0.0,True,比例外推,686022146.2899997,727058656.0,686022146.2899997
17,601222,153059122.28,146717516.63000005,2018-03-31,一季度报告,141132781.79,2018,3,1.6981422558554868,False,0.404106326239552,True,0.02526888620710574,True,前期平均,537582684.26,958874406.0,958874406.0
18,601222,402883681.53,396633124.47999984,2018-06-30,半年度报告,394007233.02,2018,6,0.05736508745988154,True,0.9499124993407013,True,0.08315416764040573,True,比例外推,928910127.1568587,882150625.0,928910127.1568587
19,601222,652223716.91,647131472.0999997,2018-09-30,三季度报告,630130430.2100003,2018,9,-0.34677143840756003,True,0.7229479985008916,True,0.08776804814337713,True,比例外推,890645144.7834775,840605385.0,890645144.7834775
20,601222,782158814.1699997,777590285.7900001,2018-12-31,年度报告,742936407.6800001,2018,12,-0.47992905365158783,True,0.40517568832427514,True,0.0,True,比例外推,777590285.7900001,848403333.0,777590285.7900001
21,601222,162894350.85,161992873.82000002,2019-03-31,一季度报告,153015915.71,2019,3,1.4274037902839074,False,0.23528943062059324,True,0.005515489150939634,True,前期平均,619945327.3700001,971790919.0,971790919.0
22,601222,418902631.84,417646220.91000015,2019-06-30,半年度报告,404140258.96,2019,6,-0.07780753951352504,True,0.5267993555509825,True,0.05453336247421586,True,比例外推,841538735.1105194,906688889.0,841538735.1105194
23,601222,687961419.02,686152335.4399999,2019-09-30,三季度报告,678532230.56,2019,9,-0.4303545180475733,True,0.46908842751503593,True,0.07575873751649831,True,比例外推,865740638.5268466,879851733.0,865740638.5268466
24,601222,703460342.74,700405103.05,2019-12-31,年度报告,678754544.52,2019,12,-0.5249861194056072,True,0.29629323743401204,True,0.0,True,比例外推,700405103.05,887800000.0,887800000.0
25,601222,132082555.2,131665320.63,2020-03-31,一季度报告,102068809.82,2020,3,1.2808421017750726,False,0.12047328049175499,True,0.021151473084520866,True,前期平均,704898200.9100001,999623333.0,999623333.0
