,SECURITYCODE_x,NETPROFIT_x,PARENTNETPROFIT_x,REPORTDATE_x,REPORTTIMETYPE_x,KCFJCXSYJLR,Year,Month,managesituationChangeRate,managesituationGreatChange,historyprofitextroplaterate,ifhistoryprofitextroplate,IfprofitdisStableChangeRage,IfprofitdisStable,predicttype,predict,analyst_prediction,adj_prediction
0,601228,879624443.3699998,786440561.4300001,2013-12-31,年度报告,789598561.4300003,2013,12,未知,未知,未知,未知,未知,未知,未知,未知,未知,未知
1,601228,492757118.22,492757118.22,2014-09-30,三季度报告,,2014,9,未知,未知,未知,未知,未知,未知,未知,未知,未知,未知
2,601228,912546140.8400002,806800133.7700001,2014-12-31,年度报告,764653498.77,2014,12,0.0,True,未知,未知,未知,未知,未知,未知,未知,未知
3,601228,154995225.11,138060252.92999998,2015-03-31,一季度报告,,2015,3,未知,未知,未知,未知,未知,未知,未知,未知,未知,未知
4,601228,439247187.93,379369921.24,2015-06-30,半年度报告,,2015,6,未知,未知,未知,未知,未知,未知,未知,未知,未知,未知
5,601228,643925000.9799999,85597366.77000001,2015-09-30,三季度报告,,2015,9,0.7851075323832787,False,未知,未知,未知,未知,未知,未知,未知,未知
6,601228,786475116.3900001,672492450.75,2015-12-31,年度报告,652151206.5100001,2015,12,-0.036076748338112426,True,未知,未知,未知,未知,未知,未知,未知,未知
7,601228,145200955.06,125382749.75000004,2016-03-31,一季度报告,118137508.67999998,2016,3,4.675171236699265,False,未知,未知,未知,未知,未知,未知,未知,未知
8,601228,369147809.14000016,320656926.33,2016-06-30,半年度报告,306179656.29999995,2016,6,1.0025727370397641,False,未知,未知,未知,未知,未知,未知,未知,未知
9,601228,592531806.65,517192236.34,2016-09-30,三季度报告,491886517.5299999,2016,9,0.36603555077266,True,未知,未知,未知,未知,未知,未知,未知,未知
10,601228,791026681.54,670878813.5799999,2016-12-31,年度报告,617086200.5600001,2016,12,0.11843900085175542,True,0.12232114139214796,True,0.0,True,比例外推,670878813.5799999,未知,670878813.5799999
11,601228,189024295.8,162936688.88999996,2017-03-31,一季度报告,155984586.24,2017,3,5.057979735784251,False,未知,未知,未知,未知,未知,未知,729124000.0,未知
12,601228,421834578.38,354464081.64999986,2017-06-30,半年度报告,338285520.55,2017,6,1.382851588417257,False,未知,未知,未知,未知,未知,未知,,未知
13,601228,671280081.78,562747348.7500001,2017-09-30,三季度报告,537823362.3899999,2017,9,0.4845185245719329,True,0.042563785673035114,True,,False,平均增速,687505125.348305,771000000.0,771000000.0
14,601228,842878623.4599997,697036402.21,2017-12-31,年度报告,642251004.8499999,2017,12,0.11200350619970796,True,0.06884427940630888,True,0.0,True,比例外推,697036402.21,未知,697036402.21
15,601228,297495268.46,259773488.39000005,2018-03-31,一季度报告,199352907.98,2018,3,3.653499380316166,False,0.25933844789734656,True,,False,前期平均,,未知,
16,601228,577415686.01,486265691.9800001,2018-06-30,半年度报告,401709778.54,2018,6,1.0852355128118736,False,0.04363480701618614,True,,False,前期平均,,未知,
17,601228,846163379.7500001,717717921.56,2018-09-30,三季度报告,621026382.7399997,2018,9,0.31036875254445717,True,0.0858124240776154,True,,False,平均增速,829884130.7640386,未知,829884130.7640386
18,601228,894304032.6199998,718705100.3000001,2018-12-31,年度报告,607615239.12,2018,12,0.04359562443185383,True,0.06862461211267856,True,0.0,True,比例外推,718705100.3000001,,718705100.3000001
19,601228,312352106.88000005,265737124.38,2019-03-31,一季度报告,219308793.64,2019,3,1.9567678434800742,False,0.7802082140383495,True,0.07395520438655556,True,前期平均,758344679.625,未知,758344679.625
20,601228,617253455.58,513422993.85000014,2019-06-30,半年度报告,426289264.28,2019,6,0.523381620351003,False,0.45999631627802806,True,0.09978731925415085,True,前期平均,820859008.1300001,未知,820859008.1300001
21,601228,884792028.5699998,736799913.7199999,2019-09-30,三季度报告,622452413.6000001,2019,9,0.0395444478226956,True,0.33906539018424103,True,0.13654277688735494,False,平均增速,723417457.0802127,未知,723417457.0802127
22,601228,1033919217.0900002,850224314.1400001,2019-12-31,年度报告,718664999.5699997,2019,12,-0.01641453992664431,True,0.0946828189899292,True,0.0,True,比例外推,850224314.1400001,未知,850224314.1400001
23,601228,268031592.32,236821980.87,2020-03-31,一季度报告,225350693.2,2020,3,1.8161309752520267,False,0.2840269120732689,True,0.049169562419362545,True,前期平均,684086355.7449999,未知,684086355.7449999
