,SECURITYCODE_x,NETPROFIT_x,PARENTNETPROFIT_x,REPORTDATE_x,REPORTTIMETYPE_x,KCFJCXSYJLR,Year,Month,managesituationChangeRate,managesituationGreatChange,historyprofitextroplaterate,ifhistoryprofitextroplate,IfprofitdisStableChangeRage,IfprofitdisStable,predicttype,predict,analyst_prediction,adj_prediction
0,601218,20023414.03,19972150.000000004,2013-12-31,年度报告,19261683.74,2013,12,未知,未知,未知,未知,未知,未知,未知,未知,未知,未知
1,601218,2381239.67,2341339.1,2014-03-31,一季度报告,2625418.09,2014,3,未知,未知,未知,未知,未知,未知,未知,未知,未知,未知
2,601218,34318999.300000004,33848750.25,2014-06-30,半年度报告,37040295.72,2014,6,未知,未知,未知,未知,未知,未知,未知,未知,未知,未知
3,601218,61018203.76000001,60343061.48999999,2014-09-30,三季度报告,63557993.75000002,2014,9,未知,未知,未知,未知,未知,未知,未知,未知,未知,未知
4,601218,93261426.94,92857421.98,2014-12-31,年度报告,96363402.84000002,2014,12,0.0,True,未知,未知,未知,未知,未知,未知,未知,未知
5,601218,15438399.52,15757201.750000006,2015-03-31,一季度报告,15435503.3,2015,3,7.40881927269421,False,未知,未知,未知,未知,未知,未知,226000000.0,未知
6,601218,55152770.60999999,55526673.84,2015-06-30,半年度报告,55228213.02000001,2015,6,-0.41655017808167855,True,未知,未知,未知,未知,未知,未知,120000000.0,未知
7,601218,92843198.55,92833450.07,2015-09-30,三季度报告,93390856.95,2015,9,-0.6718452396803233,True,未知,未知,未知,未知,未知,未知,,未知
8,601218,92843198.55,92833450.07,2015-09-30,三季度报告,93689317.77,2015,9,-0.6718452396803233,True,未知,未知,未知,未知,未知,未知,,未知
9,601218,128382254.0,128625111.96000002,2015-12-31,年度报告,134882999.42000002,2015,12,-0.7852980091878486,True,未知,未知,未知,未知,未知,未知,,未知
10,601218,28384220.36,28555544.03,2016-03-31,一季度报告,28237775.75000001,2016,3,0.2969876834745887,True,未知,未知,未知,未知,未知,未知,未知,未知
11,601218,60414312.54,60733169.87000001,2016-06-30,半年度报告,60158913.12000001,2016,6,-0.636946361741445,True,未知,未知,未知,未知,未知,未知,未知,未知
12,601218,93254067.75,94343370.8,2016-09-30,三季度报告,93979642.45,2016,9,-0.7843308466024408,True,未知,未知,0.0,True,未知,未知,117430000.0,未知
13,601218,116275646.31000002,117407073.85,2016-12-31,年度报告,123231610.31,2016,12,-0.8440328518457075,True,1.2665389808685539,True,0.10553555116471752,False,平均增速,117407073.85,未知,117407073.85
14,601218,16147497.77,16986663.41,2017-03-31,一季度报告,16244534.119999995,2017,3,-0.2945582518723089,True,2.185723353582672,False,0.06084037606383175,True,比例外推,132161487.68812509,163145000.0,163145000.0
15,601218,30749600.70000001,32880008.56,2017-06-30,半年度报告,32070106.68,2017,6,-0.6685650603614399,True,0.3504664678204308,True,0.05776744068618567,True,比例外推,75856268.21240947,,75856268.21240947
16,601218,18015893.86,20682104.899999995,2017-09-30,三季度报告,19673516.36,2017,9,-0.785281065876078,True,0.21218273524001394,True,0.0,True,比例外推,28919881.22448205,未知,28919881.22448205
17,601218,2005655.44,6074031.89,2017-12-31,年度报告,3104278.5699999994,2017,12,-0.8277935692860738,True,0.049212373814314966,True,3.374106518454826,False,平均增速,6074031.89,,6074031.89
18,601218,-55648809.63,-55424091.67999999,2018-03-31,一季度报告,-58786415.03000002,2018,3,0.24003200466148766,True,0.2630519209386894,True,6.5880812916320775,False,平均增速,-34731880.256289035,未知,-34731880.256289035
19,601218,-74941454.63,-73224709.47,2018-06-30,半年度报告,-88852217.33,2018,6,-0.34882360830135933,True,0.46784845888878845,True,3.7400289799101856,False,平均增速,-39897244.98677057,未知,-39897244.98677057
20,601218,-89995283.55,-86932499.08,2018-09-30,三季度报告,-102522658.39000002,2018,9,0.11143050606316138,True,0.8063819612378691,True,0.0,True,比例外推,-23879285.65655692,未知,-23879285.65655692
21,601218,-66278170.93,-59258763.48,2018-12-31,年度报告,-115206915.82000002,2018,12,8.983476538721925,False,0.9836044089525932,True,3.2421625622797743,False,盈利变化,-33363032.906666674,未知,-33363032.906666674
22,601218,7164081.200000001,7123172.940000001,2019-03-31,一季度报告,5029015.8900000015,2019,3,-1.359817472523356,False,3.499288685316216,False,6.467485433713293,False,前期平均,48049962.44499999,未知,48049962.44499999
23,601218,25879379.070000004,25883535.62,2019-06-30,半年度报告,23142754.01,2019,6,-1.2671874215527221,False,2.6441035046994434,False,3.674190308742231,False,前期平均,42936970.16,未知,42936970.16
24,601218,33957757.67,35066109.0,2019-09-30,三季度报告,37129146.7,2019,9,-1.222494037911168,False,2.61760249123537,False,0.0,True,前期平均,41407474.035000004,未知,41407474.035000004
25,601218,64886213.01999999,65396509.7,2019-12-31,年度报告,66661995.76,2019,12,-1.3021117473375636,False,2.120687208365121,False,3.2933970316638543,False,前期平均,65396509.7,未知,65396509.7
26,601218,21022202.77,21014941.66,2020-03-31,一季度报告,19693523.53,2020,3,1.7949730706569877,False,-1.3627262418722113,True,未知,未知,前期平均,-13765436.509999994,未知,-13765436.509999994
