,SECURITYCODE_x,NETPROFIT_x,PARENTNETPROFIT_x,REPORTDATE_x,REPORTTIMETYPE_x,KCFJCXSYJLR,Year,Month,managesituationChangeRate,managesituationGreatChange,historyprofitextroplaterate,ifhistoryprofitextroplate,IfprofitdisStableChangeRage,IfprofitdisStable,predicttype,predict,analyst_prediction,adj_prediction
0,601208,68007983.76,67560825.18,2013-12-31,年度报告,53808493.40999999,2013,12,未知,未知,未知,未知,未知,未知,未知,未知,未知,未知
1,601208,33210628.9,32956280.97,2014-03-31,一季度报告,28977608.83999999,2014,3,未知,未知,未知,未知,未知,未知,未知,未知,未知,未知
2,601208,69542847.72,69121675.27,2014-06-30,半年度报告,61021622.42000001,2014,6,未知,未知,未知,未知,未知,未知,未知,未知,未知,未知
3,601208,103317930.61,102592565.23,2014-09-30,三季度报告,93651372.38,2014,9,未知,未知,未知,未知,未知,未知,未知,未知,未知,未知
4,601208,166812510.1,165453491.61,2014-12-31,年度报告,155430292.14000002,2014,12,0.0,True,未知,未知,未知,未知,未知,未知,未知,未知
5,601208,23730123.52,23681225.980000004,2015-03-31,一季度报告,21318506.93,2015,3,1.0477776547013842,False,未知,未知,未知,未知,未知,未知,207530000.0,未知
6,601208,46268203.44,45615903.53,2015-06-30,半年度报告,41322689.27,2015,6,-0.022070766589539274,True,未知,未知,未知,未知,未知,未知,207530000.0,未知
7,601208,62445281.0,60814968.56999999,2015-09-30,三季度报告,49783897.62000001,2015,9,-0.3417601053517655,True,未知,未知,未知,未知,未知,未知,124000000.0,未知
8,601208,68067532.21,61105609.11000002,2015-12-31,年度报告,36659331.49,2015,12,-0.5923088519006704,True,未知,未知,未知,未知,未知,未知,,未知
9,601208,19782397.09,13944785.26,2016-03-31,一季度报告,9792020.73,2016,3,1.86589253118224,False,未知,未知,未知,未知,未知,未知,110518333.0,未知
10,601208,37798368.19,26174193.239999995,2016-06-30,半年度报告,18268135.31,2016,6,0.46986437128884573,True,未知,未知,未知,未知,未知,未知,,未知
11,601208,57148803.24999999,40056840.62,2016-09-30,三季度报告,28915100.85,2016,9,0.08908123513768808,True,未知,未知,未知,未知,未知,未知,43000000.0,未知
12,601208,63719286.38000001,41679431.28,2016-12-31,年度报告,35639820.29000001,2016,12,-0.0008748436746064323,True,0.42025901495137935,True,0.0,True,比例外推,41679431.28,未知,41679431.28
13,601208,52736030.92,46410422.5,2017-03-31,一季度报告,11300769.26,2017,3,2.437802984673583,False,0.30515856397248503,True,0.23395870728966706,False,前期平均,117307176.43,未知,117307176.43
14,601208,73029566.81,66687755.74000001,2017-06-30,半年度报告,26739692.83000001,2017,6,0.7992306815507532,False,0.3472407371939098,True,0.44974711164291115,False,前期平均,111560411.71000001,未知,111560411.71000001
15,601208,93998676.59000002,87319337.24,2017-09-30,三季度报告,43410475.49,2017,9,0.1900158864656543,True,0.3104766408066822,True,0.4340614980027587,False,平均增速,94398218.8538041,未知,94398218.8538041
16,601208,105006844.86,99297125.82000002,2017-12-31,年度报告,48765789.92999999,2017,12,0.06730611128353937,True,0.45743124231984045,True,0.0,True,比例外推,99297125.82000002,,99297125.82000002
17,601208,6629096.1099999985,6828597.4700000025,2018-03-31,一季度报告,649598.9,2018,3,0.2895923825433013,True,1.4239474147071252,True,0.21885842874037958,False,平均增速,29826969.40199314,未知,29826969.40199314
18,601208,9388101.07,8813256.490000002,2018-06-30,半年度报告,-3156347.14,2018,6,-0.06876095901081515,True,0.7374222688995365,True,0.3978368068850373,False,平均增速,20401214.29237649,未知,20401214.29237649
19,601208,28251673.51,27775296.3,2018-09-30,三季度报告,12570201.44,2018,9,-0.27650062503927864,True,0.5719619775423803,True,0.3381770871097889,False,平均增速,31684162.819034446,未知,31684162.819034446
20,601208,32734961.120000005,32154270.210000005,2018-12-31,年度报告,9607807.67,2018,12,-0.35234713650646865,True,0.5935864600644959,True,0.0,True,比例外推,32154270.210000005,未知,32154270.210000005
21,601208,2444412.78,2441397.45,2019-03-31,一季度报告,-1699185.9999999998,2019,3,9.259013088890036,False,0.817174853567265,True,0.12375396923418021,False,前期平均,34097807.565000005,未知,34097807.565000005
22,601208,27070882.49,27370923.739999995,2019-06-30,半年度报告,19690618.110000007,2019,6,6.244061738674912,False,0.8305824056001765,True,0.5726477992257812,False,前期平均,47069814.77999999,未知,47069814.77999999
23,601208,40289486.63,40793730.99,2019-09-30,三季度报告,28183815.55,2019,9,1.4072196550030143,False,0.6261707632848877,True,0.305055477006833,False,前期平均,46833747.93,未知,46833747.93
24,601208,71925552.73,72871524.03000002,2019-12-31,年度报告,54206158.88,2019,12,1.077533665327903,False,0.6119752064552819,True,0.0,True,前期平均,72871524.03000002,未知,72871524.03000002
25,601208,24112466.520000003,24213063.930000003,2020-03-31,一季度报告,18923299.53,2020,3,26.821808295405823,False,0.9176481917148186,True,0.14240211867935415,False,前期平均,47424678.65,未知,47424678.65
