,SECURITYCODE_x,NETPROFIT_x,PARENTNETPROFIT_x,REPORTDATE_x,REPORTTIMETYPE_x,KCFJCXSYJLR,Year,Month,managesituationChangeRate,managesituationGreatChange,historyprofitextroplaterate,ifhistoryprofitextroplate,IfprofitdisStableChangeRage,IfprofitdisStable,predicttype,predict,analyst_prediction,adj_prediction
0,601298,1521800781.9999995,1500498950.0,2013-12-31,年度报告,,2013,12,未知,未知,未知,未知,未知,未知,未知,未知,未知,未知
1,601298,1620844968.0,1585335770.0000002,2014-12-31,年度报告,1567169984.9999995,2014,12,0.0,True,未知,未知,未知,未知,未知,未知,未知,未知
2,601298,1979136704.0,1911916280.9999995,2015-12-31,年度报告,1750904738.0000002,2015,12,-0.06110651416724543,True,未知,未知,未知,未知,未知,未知,未知,未知
3,601298,1252820674.0,1200341762.0,2016-06-30,半年度报告,,2016,6,未知,未知,未知,未知,未知,未知,未知,未知,未知,未知
4,601298,2299092196.0,2186153537.0,2016-12-31,年度报告,2056249628.0,2016,12,-0.2310784904729858,True,0.25953534788322885,True,,False,平均增速,,未知,
5,601298,1652631572.9999998,1550465172.9999998,2017-06-30,半年度报告,1497261473.0,2017,6,0.2146996083176063,True,未知,未知,未知,未知,未知,未知,未知,未知
6,601298,3240362585.9999995,3042959443.0,2017-12-31,年度报告,2846048408.0,2017,12,-0.33808623044884645,True,0.2772799449963422,True,0.0,True,比例外推,3042959443.0,未知,3042959443.0
7,601298,995399401.0,933145470.0,2018-03-31,一季度报告,899481159.9999998,2018,3,未知,未知,未知,未知,未知,未知,未知,未知,未知,未知
8,601298,2059883556.0,1907922809.0,2018-06-30,半年度报告,1835827847.0,2018,6,-0.07916512859699568,True,未知,未知,未知,未知,未知,未知,未知,未知
9,601298,3056218827.9999995,2844621320.0,2018-09-30,三季度报告,2748399998.0,2018,9,未知,未知,未知,未知,未知,未知,未知,未知,未知,未知
10,601298,3843526348.000001,3593485631.0,2018-12-31,年度报告,3444710091.0,2018,12,-0.5303609575746411,True,0.5148149674740402,True,0.0,True,比例外推,3593485631.0,未知,3593485631.0
11,601298,1067792324.0,978338636.0,2019-03-31,一季度报告,926324260.0,2019,3,0.5288343357160605,False,未知,未知,未知,未知,未知,未知,3973000000.0,未知
12,601298,2177986262.0,2008021219.0000005,2019-06-30,半年度报告,1937610363.0000005,2019,6,-0.26121999587436895,True,0.4179434944263257,True,,False,平均增速,3900601579.4834805,3976000000.0,3900601579.4834805
13,601298,3218081002.9999995,2945087296.0,2019-09-30,三季度报告,2852738645.0000005,2019,9,-0.502064195123138,True,未知,未知,未知,未知,未知,未知,3875223333.0,未知
14,601298,4132601980.000001,3790143318.0,2019-12-31,年度报告,3666793625.0,2019,12,-0.6040613113549029,True,0.3876912076218121,True,0.0,True,比例外推,3790143318.0,3872335000.0,3790143318.0
15,601298,1142467525.0,992582151.0,2020-03-31,一季度报告,943565436.9999998,2020,3,0.4251842308617303,True,未知,未知,未知,未知,未知,未知,4008500000.0,未知
