,SECURITYCODE_x,NETPROFIT_x,PARENTNETPROFIT_x,REPORTDATE_x,REPORTTIMETYPE_x,KCFJCXSYJLR,Year,Month,managesituationChangeRate,managesituationGreatChange,historyprofitextroplaterate,ifhistoryprofitextroplate,IfprofitdisStableChangeRage,IfprofitdisStable,predicttype,predict,analyst_prediction,adj_prediction
0,601212,344225429.5,120929357.95000002,2014-12-31,年度报告,33911267.49,2014,12,未知,未知,未知,未知,未知,未知,未知,未知,未知,未知
1,601212,344225429.5,120929357.95000002,2014-12-31,年度报告,21353750.19,2014,12,未知,未知,未知,未知,未知,未知,未知,未知,未知,未知
2,601212,9612026.57,-31424179.99,2015-09-30,三季度报告,-51027674.7,2015,9,未知,未知,未知,未知,未知,未知,未知,未知,未知,未知
3,601212,159498872.91,110693015.64,2015-12-31,年度报告,22604069.93,2015,12,0.0,True,未知,未知,未知,未知,未知,未知,未知,未知
4,601212,58222165.82000001,43040432.42,2016-03-31,一季度报告,7816095.620000001,2016,3,未知,未知,未知,未知,未知,未知,未知,未知,未知,未知
5,601212,164799712.84,126069633.99,2016-06-30,半年度报告,100734737.14,2016,6,未知,未知,未知,未知,未知,未知,未知,未知,未知,未知
6,601212,487559401.0,251524387.88,2016-12-31,年度报告,217384183.36,2016,12,1.1581684134798569,False,未知,未知,未知,未知,未知,未知,未知,未知
7,601212,88131674.26,23519934.56,2017-03-31,一季度报告,10616968.81,2017,3,4.912274554749636,False,未知,未知,未知,未知,未知,未知,777000000.0,未知
8,601212,211958880.12,134867261.05999997,2017-06-30,半年度报告,70183908.98,2017,6,1.0887501778246422,False,未知,未知,未知,未知,未知,未知,391000000.0,未知
9,601212,343507185.95000005,229285599.17,2017-09-30,三季度报告,125044831.61999996,2017,9,未知,未知,未知,未知,0.0,True,未知,未知,,未知
10,601212,378445111.49,239330108.64999995,2017-12-31,年度报告,74283238.52000001,2017,12,-0.2939825818269885,True,0.935818457308249,True,未知,未知,未知,未知,835000000.0,未知
11,601212,58500560.89999999,34310647.37,2018-03-31,一季度报告,17053259.95,2018,3,2.9058083531295438,False,未知,未知,未知,未知,未知,未知,未知,未知
12,601212,-9048399.34,-96998419.27,2018-06-30,半年度报告,-133873141.64999998,2018,6,0.6240198537806843,False,未知,未知,未知,未知,未知,未知,未知,未知
13,601212,-103470541.53,-245959245.24,2018-09-30,三季度报告,-276645910.43000007,2018,9,0.002090912735969657,True,未知,未知,0.0,True,未知,未知,未知,未知
14,601212,225877959.13000005,25900703.489999995,2018-12-31,年度报告,-96058056.91999996,2018,12,-0.09042178363798002,True,0.16974042910589024,True,0.177980745689204,False,平均增速,25900703.489999995,未知,25900703.489999995
15,601212,382691182.47,307442898.56999993,2019-03-31,一季度报告,44115967.55,2019,3,4.884138958742874,False,0.20055994611385142,True,0.47056466529593827,False,前期平均,444060077.29499996,230000000.0,230000000.0
16,601212,39053245.21,4782319.49,2019-06-30,半年度报告,-23322060.419999994,2019,6,-39.04268761418304,False,1.0480328757409956,True,未知,未知,前期平均,65156707.37000002,178910000.0,178910000.0
17,601212,71717550.28999999,7871548.46,2019-09-30,三季度报告,-22374187.7,2019,9,-4.32679644283292,False,未知,未知,0.0,True,未知,未知,264000000.0,未知
18,601212,249294753.17999995,58043486.3,2019-12-31,年度报告,-784282216.8099997,2019,12,0.523944305260378,False,0.4783446139777284,True,0.17321062471259877,False,前期平均,58043486.3,,58043486.3
19,601212,-375781281.82,-358975550.22,2020-03-31,一季度报告,-357593306.66,2020,3,-0.10051382088746046,True,4.219741512531957,False,未知,未知,True,True,348000000.0,348000000.0
