,SECURITYCODE_x,NETPROFIT_x,PARENTNETPROFIT_x,REPORTDATE_x,REPORTTIMETYPE_x,KCFJCXSYJLR,Year,Month,managesituationChangeRate,managesituationGreatChange,historyprofitextroplaterate,ifhistoryprofitextroplate,IfprofitdisStableChangeRage,IfprofitdisStable,predicttype,predict,analyst_prediction,adj_prediction
0,601333,1271081715.0,1273839358.0,2013-12-31,年度报告,1371876522.9999998,2013,12,未知,未知,未知,未知,未知,未知,未知,未知,未知,未知
1,601333,97107795.0,97179218.0,2014-03-31,一季度报告,111643464.0,2014,3,未知,未知,未知,未知,未知,未知,未知,未知,未知,未知
2,601333,328663544.99999994,328720540.00000006,2014-06-30,半年度报告,402658834.0,2014,6,未知,未知,未知,未知,未知,未知,未知,未知,未知,未知
3,601333,649337582.0000001,649778044.0000001,2014-09-30,三季度报告,741753429.0,2014,9,未知,未知,未知,未知,未知,未知,未知,未知,未知,未知
4,601333,661125786.9999999,662020979.0000001,2014-12-31,年度报告,754728921.0000001,2014,12,0.0,True,未知,未知,未知,未知,未知,未知,未知,未知
5,601333,262238782.0,262276663.00000003,2015-03-31,一季度报告,273343101.0,2015,3,12.089389116496776,False,未知,未知,未知,未知,未知,未知,935723055.0,未知
6,601333,462881200.0,464738170.0,2015-06-30,半年度报告,475556449.9999999,2015,6,2.867425317888542,False,未知,未知,未知,未知,未知,未知,1056009953.0,未知
7,601333,877007937.0,882816553.9999998,2015-09-30,三季度报告,901794311.9999998,2015,9,0.9575052333872148,False,未知,未知,未知,未知,未知,未知,1041673184.0,未知
8,601333,1063308396.9999996,1070822950.0,2015-12-31,年度报告,1090473637.0,2015,12,0.9226019314233771,False,未知,未知,未知,未知,未知,未知,1290600000.0,未知
9,601333,325306930.0,326589658.0,2016-03-31,一季度报告,338065803.00000006,2016,3,3.847039424550103,False,未知,未知,未知,未知,未知,未知,1184807464.0,未知
10,601333,679674724.0,681822673.9999999,2016-06-30,半年度报告,703836690.0,2016,6,1.7460214737604378,False,未知,未知,未知,未知,未知,未知,1395563641.0,未知
11,601333,1086205973.0,1089435736.9999998,2016-09-30,三季度报告,1120000467.0000002,2016,9,0.4493388957778611,True,未知,未知,未知,未知,未知,未知,1377714020.0,未知
12,601333,1153700533.0,1158253789.0,2016-12-31,年度报告,1263802059.9999998,2016,12,0.19540268710959915,True,0.10061512120140774,True,0.0,True,比例外推,1158253789.0,1373259768.0,1373259768.0
13,601333,281432126.0,282500245.0,2017-03-31,一季度报告,283941537.00000006,2017,3,2.9073305785400883,False,0.8105469806659659,True,0.07410435978604354,True,前期平均,1012608241.5,1296377129.0,1296377129.0
14,601333,506218867.0,508715711.0,2017-06-30,半年度报告,512934861.0,2017,6,0.8701323885041221,False,0.717337467763746,True,0.07274430222775097,True,前期平均,992209348.0000001,1035661818.0,992209348.0000001
15,601333,886223949.0,888485481.0,2017-09-30,三季度报告,899332780.0000002,2017,9,0.17020320877944572,True,0.4232766558801684,True,0.0841418351389629,True,比例外推,989894767.7063485,974945000.0,989894767.7063485
16,601333,1011768049.0,1015360963.0000002,2017-12-31,年度报告,1060977686.0,2017,12,0.10174319820653147,True,0.33806270335452865,True,0.0,True,比例外推,1015360963.0000002,1028040909.0,1015360963.0000002
17,601333,444644636.0000001,446044695.00000006,2018-03-31,一季度报告,446625913.0,2018,3,3.51647696752289,False,0.04200772722174168,True,0.011264138174737204,True,前期平均,1317478091.5,1687113000.0,1687113000.0
18,601333,651585901.0000001,654086142.0,2018-06-30,半年度报告,668587456.0,2018,6,1.5109331118628575,False,0.1138834321076086,True,0.06476145052221033,True,前期平均,1241527420.5,1304439722.0,1241527420.5
19,601333,960023784.0,963776130.0,2018-09-30,三季度报告,993147009.0,2018,9,0.4342669439640702,True,0.09717026302039598,True,0.03260332708767477,True,比例外推,1134093640.0485985,1152177778.0,1134093640.0485985
20,601333,779034156.0000002,784059550.9999999,2018-12-31,年度报告,895910488.0000002,2018,12,0.256297543944284,True,0.08726750234605486,True,0.0,True,比例外推,784059550.9999999,1506012500.0,1506012500.0
21,601333,388486964.0,390328251.0,2019-03-31,一季度报告,385364461.00000006,2019,3,1.8586462358673312,False,0.46568654713402896,True,0.15397030007646134,False,前期平均,1241714454.0,1527635000.0,1527635000.0
22,601333,760088731.0,762161024.0,2019-06-30,半年度报告,757443071.0000001,2019,6,0.9507507959414851,False,0.09889437963915958,True,0.15071896132491924,False,前期平均,1316165121.5,1534098182.0,1534098182.0
23,601333,874714058.9999999,874807572.9999999,2019-09-30,三季度报告,877491883.0,2019,9,0.3240106507611274,True,0.02655727000272104,True,0.1610690211768182,False,平均增速,790916134.496509,1404930000.0,1404930000.0
24,601333,747964686.0,748439305.0000001,2019-12-31,年度报告,782244266.0,2019,12,0.6316123050707415,False,0.2804936885480057,True,0.0,True,前期平均,748439305.0000001,1346576000.0,1346576000.0
25,601333,-461261102.00000006,-462072653.0000001,2020-03-31,一季度报告,-462654348.0,2020,3,2.2718773930339653,False,0.07009887750683842,True,0.1519702341082158,False,盈利变化,-382252440.33333313,714184286.0,714184286.0
