,SECURITYCODE_x,NETPROFIT_x,PARENTNETPROFIT_x,REPORTDATE_x,REPORTTIMETYPE_x,KCFJCXSYJLR,Year,Month,managesituationChangeRate,managesituationGreatChange,historyprofitextroplaterate,ifhistoryprofitextroplate,IfprofitdisStableChangeRage,IfprofitdisStable,predicttype,predict,analyst_prediction,adj_prediction
0,601318,12992999999.999998,10808999999.999998,2014-03-31,一季度报告,10806999999.999998,2014,3,未知,未知,未知,未知,未知,未知,未知,未知,未知,未知
1,601318,25864000000.0,21361999999.999992,2014-06-30,半年度报告,21289000000.000004,2014,6,未知,未知,未知,未知,未知,未知,未知,未知,未知,未知
2,601318,38673999999.999985,31687000000.000008,2014-09-30,三季度报告,31672000000.000008,2014,9,未知,未知,未知,未知,未知,未知,未知,未知,未知,未知
3,601318,47929999999.999985,39278999999.999985,2014-12-31,年度报告,39215000000.0,2014,12,未知,未知,未知,未知,未知,未知,未知,未知,未知,未知
4,601318,22436000000.0,19964000000.0,2015-03-31,一季度报告,19939000000.000004,2015,3,0.0,True,未知,未知,未知,未知,未知,未知,55793927412.0,未知
5,601318,39911000000.000015,34649000000.0,2015-06-30,半年度报告,34569000000.0,2015,6,-0.49764150943396235,True,未知,未知,未知,未知,未知,未知,59378175607.0,未知
6,601318,56404999999.999985,48276000000.0,2015-09-30,三季度报告,48113000000.000015,2015,9,-0.6640378548895898,True,未知,未知,未知,未知,未知,未知,58388397736.0,未知
7,601318,65177999999.999985,54203000000.0,2015-12-31,年度报告,53891999999.99999,2015,12,-0.7289171708741914,True,未知,未知,未知,未知,未知,未知,58410754879.0,未知
8,601318,23389000000.0,20700000000.0,2016-03-31,一季度报告,20508000000.000004,2016,3,-0.42088607594936717,True,未知,未知,未知,未知,未知,未知,60751128619.0,未知
9,601318,46307999999.999985,40776000000.0,2016-06-30,半年度报告,40542999999.999985,2016,6,-0.6744506527022627,True,未知,未知,未知,未知,未知,未知,62356542555.0,未知
10,601318,64813000000.0,56508000000.000015,2016-09-30,三季度报告,56073000000.000015,2016,9,-0.7696480808438968,True,未知,未知,未知,未知,未知,未知,63343312706.00001,未知
11,601318,72368000000.0,62393999999.999985,2016-12-31,年度报告,61515999999.999985,2016,12,-0.8006535947712418,True,未知,未知,未知,未知,未知,未知,63416663635.0,未知
12,601318,25740000000.000004,23053000000.0,2017-03-31,一季度报告,23104000000.0,2017,3,-0.4444824490144941,True,0.32033080244997036,True,0.05073024640594831,True,比例外推,70752062412.40517,71726271429.0,70752062412.40517
13,601318,49093000000.0,43427000000.000015,2017-06-30,半年度报告,43402000000.0,2017,6,-0.7194221300855143,True,0.40807297605473125,True,0.07158529116861401,True,比例外推,70658884827.4459,73551684211.0,70658884827.4459
14,601318,75219000000.0,66317999999.999985,2017-09-30,三季度报告,66304999999.999985,2017,9,-0.7995309582954037,True,0.3633504769717818,True,0.06299523405872798,True,比例外推,76169150875.96558,76535777793.0,76169150875.96558
15,601318,99978000000.0,89088000000.0,2017-12-31,年度报告,89137000000.0,2017,12,-0.8204593190360381,True,0.2796265516143866,True,0.0,True,比例外推,89088000000.0,76691789488.0,76691789488.0
16,601318,28951000000.0,25702000000.000004,2018-03-31,一季度报告,25699000000.0,2018,3,-0.49522144522144534,True,0.1234042553191491,True,0.06165478306477035,True,比例外推,80099293632.43866,110442275996.0,110442275996.0
17,601318,64770000000.0,58094999999.999985,2018-06-30,半年度报告,58084000000.0,2018,6,-0.7353390503737803,True,0.1387977128011227,True,0.10889568944763406,False,平均增速,118316926469.52502,113412443959.0,118316926469.52502
18,601318,89488999999.99997,79396999999.99997,2018-09-30,三季度报告,79378000000.0,2018,9,-0.8272643879870777,True,0.2410533089145178,True,0.10552534675734349,False,平均增速,107850252638.08585,110737287914.0,107850252638.08585
19,601318,120452000000.00005,107404000000.00003,2018-12-31,年度报告,107597000000.0,2018,12,-0.8700414091100042,True,0.4537391127331947,True,0.0,True,比例外推,107404000000.00003,110878554761.0,107404000000.00003
20,601318,49324000000.000015,45517000000.0,2019-03-31,一季度报告,45581000000.0,2019,3,-0.5512072121861076,True,0.17857070162225977,True,0.05623729934989402,True,比例外推,164405587410.1135,139712177021.0,139712177021.0
21,601318,105738000000.00003,97675999999.99997,2019-06-30,半年度报告,87446000000.0,2019,6,-0.7993978693839741,True,0.35784740201884696,True,0.09712867886259546,True,比例外推,165845688687.8495,151977593538.0,165845688687.8495
22,601318,141748000000.0,129567000000.00005,2019-09-30,三季度报告,119387000000.00005,2019,9,-0.8548089709349752,True,0.27812214351005443,True,0.11381620685320892,False,平均增速,169526266375.41693,160272842941.0,169526266375.41693
23,601318,164365000000.0,149407000000.0,2019-12-31,年度报告,139255000000.00006,2019,12,-0.8921313054162654,True,0.3977928121337315,True,0.0,True,比例外推,149407000000.0,160272842941.0,149407000000.0
24,601318,30334000000.0,26063000000.000004,2020-03-31,一季度报告,26162000000.0,2020,3,-0.7365785418863029,True,0.8037337039000938,True,0.05219976666993831,True,比例外推,94993837114.0253,150608816782.0,150608816782.0
