,SECURITYCODE_x,NETPROFIT_x,PARENTNETPROFIT_x,REPORTDATE_x,REPORTTIMETYPE_x,KCFJCXSYJLR,Year,Month,managesituationChangeRate,managesituationGreatChange,historyprofitextroplaterate,ifhistoryprofitextroplate,IfprofitdisStableChangeRage,IfprofitdisStable,predicttype,predict,analyst_prediction,adj_prediction
0,601390,10075375000.000002,9374634000.0,2013-12-31,年度报告,8030347000.000002,2013,12,未知,未知,未知,未知,未知,未知,未知,未知,未知,未知
1,601390,1928492000.0,1817936000.0,2014-03-31,一季度报告,1746146000.0000002,2014,3,未知,未知,未知,未知,未知,未知,未知,未知,未知,未知
2,601390,4298530000.0,4060894000.000001,2014-06-30,半年度报告,4085510000.0000014,2014,6,未知,未知,未知,未知,未知,未知,未知,未知,未知,未知
3,601390,7561036000.000002,7073617999.999998,2014-09-30,三季度报告,7025743999.999999,2014,9,未知,未知,未知,未知,未知,未知,未知,未知,未知,未知
4,601390,10676384000.0,10359972000.0,2014-12-31,年度报告,9804427000.000002,2014,12,0.0,True,未知,未知,未知,未知,未知,未知,未知,未知
5,601390,2150440999.9999995,2071940999.9999995,2015-03-31,一季度报告,1979951000.0,2015,3,4.224483689846783,False,未知,未知,未知,未知,未知,未知,12036200000.0,未知
6,601390,4405021000.0,4804349000.0,2015-06-30,半年度报告,4475736000.000001,2015,6,1.3439117558793359,False,未知,未知,未知,未知,未知,未知,11758380000.0,未知
7,601390,7572316999.999998,7908431000.000003,2015-09-30,三季度报告,7407255000.0,2015,9,0.33253895365661523,True,未知,未知,未知,未知,未知,未知,11829666667.0,未知
8,601390,11786117000.000002,12257673999.999998,2015-12-31,年度报告,11155095000.000002,2015,12,-0.05629331054409415,True,未知,未知,未知,未知,未知,未知,11733200000.0,未知
9,601390,2354164000.0000005,2274163000.0000005,2016-03-31,一季度报告,2199140999.9999995,2016,3,3.6852599071539296,False,未知,未知,未知,未知,未知,未知,13543142856.999998,未知
10,601390,5394298000.0,5462612999.999999,2016-06-30,半年度报告,5216789999.999999,2016,6,1.2872478928023277,False,未知,未知,未知,未知,未知,未知,13714222222.0,未知
11,601390,9325631000.0,9245403000.000002,2016-09-30,三季度报告,8845179000.000002,2016,9,0.33055377898204796,True,未知,未知,未知,未知,未知,未知,13986900000.0,未知
12,601390,12702738000.000002,12509164999.999998,2016-12-31,年度报告,10794709000.0,2016,12,-0.1451489069724999,True,0.1359149843634944,True,0.0,True,比例外推,12509164999.999998,13969162500.0,13969162500.0
13,601390,2809939000.0000005,2622583000.0,2017-03-31,一季度报告,2547327000.0000005,2017,3,3.2798101576610637,False,0.15430383387027968,True,0.017285753188680336,True,前期平均,11239295500.000002,14155548791.0,14155548791.0
14,601390,7549543000.000002,7707374000.000002,2017-06-30,半年度报告,7586471000.0,2017,6,0.8677824250718077,False,0.23956256475087007,True,0.0495390812189227,True,前期平均,13906512000.000004,15117590000.0,13906512000.000004
15,601390,11081466000.0,11035798000.000002,2017-09-30,三季度报告,10976131000.000002,2017,9,0.08039606113516629,True,0.2324606450401309,True,0.08606188319582753,True,比例外推,15027031235.127178,15062350000.0,15027031235.127178
16,601390,14203541000.0,16066832999.999996,2017-12-31,年度报告,15796817999.999996,2017,12,-0.2068343848389221,True,0.1310172451411356,True,0.0,True,比例外推,16066832999.999996,16599980000.0,16066832999.999996
17,601390,3473931000.0,3197425999.9999995,2018-03-31,一季度报告,3043652000.0,2018,3,2.58562054194059,False,0.2475850823768124,True,0.02289975546487258,True,前期平均,12082782000.0,18034778000.0,18034778000.0
18,601390,9412452000.0,9552400999.999998,2018-06-30,半年度报告,9228146000.0,2018,6,0.3345675360747001,True,0.5408301331959908,True,0.053690021226309004,True,比例外推,20609551250.85016,18477778568.0,18477778568.0
19,601390,13199200000.0,13044816999.999998,2018-09-30,三季度报告,12204884000.000002,2018,9,-0.09079042429945623,True,0.3115753463083211,True,0.09331427509228163,True,比例外推,17649095101.334095,18756156000.0,17649095101.334095
20,601390,17436278000.000004,17198137999.999996,2018-12-31,年度报告,15863468999.999996,2018,12,-0.2906434388438769,True,0.16000041651600272,True,0.0,True,比例外推,17198137999.999996,18827232727.0,17198137999.999996
21,601390,4188339000.000001,3843742000.0000014,2019-03-31,一季度报告,3702500000.0,2019,3,1.9002806906642653,False,0.34541507014867806,True,0.024359346523576825,True,前期平均,14766271500.0,19818928462.0,19818928462.0
22,601390,11262884000.0,10513691000.0,2019-06-30,半年度报告,9939492000.0,2019,6,0.07043042556817308,True,0.45435222821417515,True,0.06664005745851276,True,比例外推,19871072748.84414,19631419865.0,19871072748.84414
23,601390,16721623000.0,15477530999.999996,2019-09-30,三季度报告,14763476999.999996,2019,9,-0.23666775259106598,True,0.293589186154209,True,0.0663687930064295,True,比例外推,20109043614.26653,19676528000.0,20109043614.26653
24,601390,25378268000.0,23677567000.000004,2019-12-31,年度报告,17893515000.0,2019,12,-0.42216022249702606,True,0.29607501654167817,True,0.0,True,比例外推,23677567000.000004,20144464444.0,20144464444.0
25,601390,3848383000.0,3585324000.000001,2020-03-31,一季度报告,3484270000.000001,2020,3,1.4055777242482044,False,0.333044445540726,True,0.025424202353916098,True,前期平均,16619977999.999996,23991711919.0,23991711919.0
