,SECURITYCODE_x,NETPROFIT_x,PARENTNETPROFIT_x,REPORTDATE_x,REPORTTIMETYPE_x,KCFJCXSYJLR,Year,Month,managesituationChangeRate,managesituationGreatChange,historyprofitextroplaterate,ifhistoryprofitextroplate,IfprofitdisStableChangeRage,IfprofitdisStable,predicttype,predict,analyst_prediction,adj_prediction
0,601399,-3207534724.9100013,-3207480789.34,2013-12-31,年度报告,-3091742977.34,2013,12,未知,未知,未知,未知,未知,未知,未知,未知,未知,未知
1,601399,-298125722.31000006,-298093589.11,2014-03-31,一季度报告,-306556912.14000005,2014,3,未知,未知,未知,未知,未知,未知,未知,未知,未知,未知
2,601399,-936698627.1,-936654376.64,2014-06-30,半年度报告,-948324281.0800004,2014,6,未知,未知,未知,未知,未知,未知,未知,未知,未知,未知
3,601399,-1417617008.82,-1417573017.86,2014-09-30,三季度报告,-1429794198.51,2014,9,未知,未知,未知,未知,未知,未知,未知,未知,未知,未知
4,601399,-7897660831.519999,-7897527527.73,2014-12-31,年度报告,-6566795056.2300005,2014,12,-0.0,False,未知,未知,未知,未知,未知,未知,未知,未知
5,601399,-298102248.53,-298102248.53,2015-03-31,一季度报告,-299786160.65,2015,3,9.75900026356904,False,未知,未知,未知,未知,未知,未知,未知,未知
6,601399,-906961243.0,-906961243.0,2015-06-30,半年度报告,-916485936.72,2015,6,2.4242974550314695,False,未知,未知,未知,未知,未知,未知,未知,未知
7,601399,-1224277872.87,-1224277872.87,2015-09-30,三季度报告,-1255873053.68,2015,9,1.2626243230390541,False,未知,未知,未知,未知,未知,未知,未知,未知
8,601399,93792516.96,93876039.04,2015-12-31,年度报告,-3245965759.690001,2015,12,-0.5938626900627899,False,未知,未知,未知,未知,未知,未知,未知,未知
9,601399,-61514446.39000001,-61514446.39000001,2016-03-31,一季度报告,-63827628.11,2016,3,9.759847470882816,False,未知,未知,未知,未知,未知,未知,未知,未知
10,601399,124556122.64,124556122.64,2016-06-30,半年度报告,-87169264.05999999,2016,6,2.536573089165621,False,未知,未知,未知,未知,未知,未知,未知,未知
11,601399,124888439.48999998,124888439.48999998,2016-09-30,三季度报告,-103085270.38000004,2016,9,1.6199401263299593,False,未知,未知,未知,未知,未知,未知,未知,未知
12,601399,358316191.39000005,358316191.39000005,2016-12-31,年度报告,67599938.44,2016,12,-35.19819436424687,False,-1.0168916461638884,True,0.0,True,前期平均,358316191.39000005,未知,358316191.39000005
13,601399,35181612.59,34997712.11,2017-03-31,一季度报告,30094894.96,2017,3,51.14278780262954,False,-0.7936546106572795,True,0.6758108343517695,False,盈利变化,483546222.15000004,未知,483546222.15000004
14,601399,510715250.49000007,504851795.76,2017-06-30,半年度报告,9692216.78,2017,6,-26.751722652611956,False,-1.1351183313799027,True,1.001910950031086,False,前期平均,-3469123503.3,未知,-3469123503.3
15,601399,682598181.7300001,663586621.0900003,2017-09-30,三季度报告,52928125.67,2017,9,-26.68319964608761,False,-1.0945445939999776,True,1.218165496716172,False,前期平均,-2899960160.7750006,未知,-2899960160.7750006
16,601399,739834202.4300001,720369830.39,2017-12-31,年度报告,75134048.21999998,2017,12,-9.95168792810382,False,-1.091830404344849,True,0.0,True,前期平均,720369830.39,未知,720369830.39
17,601399,-143909046.32999998,-144465893.33999997,2018-03-31,一季度报告,-125787848.39,2018,3,-92.17077043312418,False,-1.1956617314322766,True,0.7937663274915836,False,盈利变化,512526172.59000003,未知,512526172.59000003
18,601399,109486517.73,97147480.13,2018-06-30,半年度报告,116051061.24,2018,6,-7.28047570898376,False,-2.3055007877632754,True,0.996773268126472,False,前期平均,-990207830.1050006,未知,-990207830.1050006
19,601399,317321305.64,293129175.9000001,2018-09-30,三季度报告,309727833.2,2018,9,-5.699008597972991,False,-2.2417768645117815,True,1.380404954448072,False,前期平均,-616574572.6950003,未知,-616574572.6950003
20,601399,507639449.93,481502347.86,2018-12-31,年度报告,393399518.89000016,2018,12,-5.335477752143372,False,2.2728155364672045,False,0.0,True,去年同期,481502347.86,未知,481502347.86
21,601399,12807729.12,15706219.59,2019-03-31,一季度报告,6047188.67,2019,3,21.28862470226337,False,-9.930008325195898,True,0.6883470247375052,False,盈利变化,657282397.2733333,未知,657282397.2733333
22,601399,167766159.77,169649759.12,2019-06-30,半年度报告,89714848.36999999,2019,6,-30.296161677367113,False,0.6553078814473984,True,1.0009896954953632,False,前期平均,279755276.09,未知,279755276.09
23,601399,301167939.73,287045676.67,2019-09-30,三季度报告,200221662.36,2019,9,-11.10816061796033,False,0.2140518559661792,True,1.513874428419735,False,前期平均,383491242.355,未知,383491242.355
24,601399,515238935.15,498426771.55,2019-12-31,年度报告,95820384.47000004,2019,12,-7.318529273783387,False,0.07546461252153754,True,0.0,True,前期平均,498426771.55,未知,498426771.55
