,SECURITYCODE_x,NETPROFIT_x,PARENTNETPROFIT_x,REPORTDATE_x,REPORTTIMETYPE_x,KCFJCXSYJLR,Year,Month,managesituationChangeRate,managesituationGreatChange,historyprofitextroplaterate,ifhistoryprofitextroplate,IfprofitdisStableChangeRage,IfprofitdisStable,predicttype,predict,analyst_prediction,adj_prediction
0,601368,39085879.78,39022690.06000001,2014-03-31,一季度报告,20345684.06,2014,3,未知,未知,未知,未知,未知,未知,未知,未知,未知,未知
1,601368,108920879.0,108697383.0,2014-06-30,半年度报告,74681594.0,2014,6,未知,未知,未知,未知,未知,未知,未知,未知,未知,未知
2,601368,198129429.0,197689111.00000003,2014-09-30,三季度报告,163257061.00000003,2014,9,未知,未知,未知,未知,未知,未知,未知,未知,未知,未知
3,601368,235483935.0,235043616.0,2014-12-31,年度报告,206069128.0,2014,12,未知,未知,未知,未知,未知,未知,未知,未知,未知,未知
4,601368,54623273.99999999,54623273.99999999,2015-03-31,一季度报告,43375102.0,2015,3,0.0,True,未知,未知,未知,未知,未知,未知,268796000.0,未知
5,601368,142829361.99999997,142829361.99999997,2015-06-30,半年度报告,130473969.0,2015,6,-0.6411534671878658,True,未知,未知,未知,未知,未知,未知,260494279.0,未知
6,601368,191883563.00000003,191883563.00000003,2015-09-30,三季度报告,178442123.0,2015,9,-0.8027255215074587,True,未知,未知,未知,未知,未知,未知,,未知
7,601368,236903344.07000005,236903344.07000005,2015-12-31,年度报告,222672817.04,2015,12,-0.834018911820885,True,未知,未知,未知,未知,未知,未知,未知,未知
8,601368,67086456.02,67086456.02,2016-03-31,一季度报告,60953429.90000001,2016,3,-0.2844464105172457,True,未知,未知,未知,未知,未知,未知,未知,未知
9,601368,111196360.83,111196360.83,2016-06-30,半年度报告,103619915.57000002,2016,6,-0.7263456250683245,True,未知,未知,未知,未知,未知,未知,未知,未知
10,601368,204074018.19,204074018.19,2016-09-30,三季度报告,193136733.69000003,2016,9,-0.7963041796341879,True,未知,未知,未知,未知,未知,未知,未知,未知
11,601368,289967670.80999994,289967670.80999994,2016-12-31,年度报告,273462495.6399999,2016,12,-0.8350133893911986,True,未知,未知,未知,未知,未知,未知,未知,未知
12,601368,66202513.31,66202513.31,2017-03-31,一季度报告,64704175.28,2017,3,-0.4173804654646296,True,0.43180155436038137,True,0.07340778591177814,True,比例外推,377379212.29789525,未知,377379212.29789525
13,601368,161991402.71,161991402.71,2017-06-30,半年度报告,159203294.51000002,2017,6,-0.6484967719424239,True,0.1166136692596055,True,0.1435203057212674,False,平均增速,390493211.8687089,303420000.0,303420000.0
14,601368,280476169.12,280476169.12,2017-09-30,三季度报告,276602062.78000003,2017,9,-0.8084720430034866,True,0.04649856479652861,True,0.06036022170833233,True,比例外推,364679350.46705276,,364679350.46705276
15,601368,349051242.75999993,349051242.75999993,2017-12-31,年度报告,338704622.04000014,2017,12,-0.8652060773850515,True,0.22766926061542603,True,0.0,True,比例外推,349051242.75999993,未知,349051242.75999993
16,601368,70852705.05,70852705.05,2018-03-31,一季度报告,69661024.94,2018,3,-0.40960127001559,True,0.08787544429062903,True,0.019987614334037118,True,比例外推,344506025.2521231,未知,344506025.2521231
17,601368,159004706.6,159004706.6,2018-06-30,半年度报告,155605412.72,2018,6,-0.7587163323107198,True,0.275393695609389,True,0.10764517401785118,False,平均增速,357419660.0782002,未知,357419660.0782002
18,601368,221383859.38,221383859.38,2018-09-30,三季度报告,214345053.38,2018,9,-0.8606445606318969,True,0.41669806284332084,True,0.06849445539896726,True,比例外推,283699272.2529033,未知,283699272.2529033
19,601368,281106966.51,281106966.51,2018-12-31,年度报告,272047845.18,2018,12,-0.8880225164908677,True,0.32499694574961485,True,0.0,True,比例外推,281106966.51,未知,281106966.51
20,601368,89752104.91999999,89752104.91999999,2019-03-31,一季度报告,87947526.34999998,2019,3,-0.44835021115400586,True,0.06314431578476952,True,0.03273136140309646,True,比例外推,395604810.1428063,未知,395604810.1428063
21,601368,165501153.92000002,165501153.92000002,2019-06-30,半年度报告,162827650.12,2019,6,-0.7541841331884197,True,0.16406902373369736,True,0.0983340790177335,True,比例外推,346449924.3986759,未知,346449924.3986759
22,601368,202980910.98,202980910.98,2019-09-30,三季度报告,186492418.68,2019,9,-0.823447473138003,True,0.0862293930417344,True,0.06400447126935094,True,比例外推,258602002.05968538,未知,258602002.05968538
23,601368,262555542.32,262555542.32,2019-12-31,年度报告,244405103.19,2019,12,-0.8609572709447256,True,0.12019203018720434,True,0.0,True,比例外推,262555542.32,未知,262555542.32
24,601368,48051987.77,48051987.77,2020-03-31,一季度报告,44033706.83,2020,3,-0.5645129457984415,True,0.3097218186067173,True,0.09086353464162455,True,比例外推,167724703.82491878,未知,167724703.82491878
