,SECURITYCODE_x,NETPROFIT_x,PARENTNETPROFIT_x,REPORTDATE_x,REPORTTIMETYPE_x,KCFJCXSYJLR,Year,Month,managesituationChangeRate,managesituationGreatChange,historyprofitextroplaterate,ifhistoryprofitextroplate,IfprofitdisStableChangeRage,IfprofitdisStable,predicttype,predict,analyst_prediction,adj_prediction
0,601388,89959637.36,89959637.36,2013-12-31,年度报告,87844323.97999999,2013,12,未知,未知,未知,未知,未知,未知,未知,未知,未知,未知
1,601388,16217983.72,16217983.72,2014-03-31,一季度报告,14419584.62,2014,3,未知,未知,未知,未知,未知,未知,未知,未知,未知,未知
2,601388,27527451.37,27513369.7,2014-09-30,三季度报告,19132525.98,2014,9,未知,未知,未知,未知,未知,未知,未知,未知,未知,未知
3,601388,30077329.94,30090245.73,2014-12-31,年度报告,-33038595.42,2014,12,0.0,True,未知,未知,未知,未知,未知,未知,未知,未知
4,601388,20051724.24,20070224.579999994,2015-03-31,一季度报告,12292507.15,2015,3,4.546906379555794,False,未知,未知,未知,未知,未知,未知,111000000.0,未知
5,601388,39395223.04,39428931.76000001,2015-06-30,半年度报告,20942011.91,2015,6,未知,未知,未知,未知,未知,未知,未知,未知,81655000.0,未知
6,601388,17681154.27,17721856.79,2015-09-30,三季度报告,-391689.27,2015,9,2.267997322049215,False,未知,未知,未知,未知,未知,未知,102000000.0,未知
7,601388,9706196.75,9750346.800000004,2015-12-31,年度报告,-33470583.250000004,2015,12,1.9909449256119707,False,未知,未知,未知,未知,未知,未知,,未知
8,601388,-15435845.490000002,-15435835.8,2016-03-31,一季度报告,-9290499.07,2016,3,3.4863791404304694,False,未知,未知,未知,未知,未知,未知,137500000.0,未知
9,601388,-11924629.94,-11924586.18,2016-06-30,半年度报告,-5516852.17,2016,6,1.2835163864578034,False,未知,未知,未知,未知,未知,未知,,未知
10,601388,-6459519.01,-6459491.619999999,2016-09-30,三季度报告,-9029727.42,2016,9,4.087882611410528,False,未知,未知,未知,未知,未知,未知,未知,未知
11,601388,25848518.669999994,25848405.67,2016-12-31,年度报告,-10332257.55,2016,12,8.268268476012501,False,0.8382798738035095,True,0.0,True,前期平均,25848405.67,211205000.0,211205000.0
12,601388,103519355.66,103519432.71,2017-03-31,一季度报告,51896794.27,2017,3,-6.827969541304341,False,1.8511701007917352,True,0.8673526675987819,False,前期平均,56908797.48999999,未知,56908797.48999999
13,601388,179044275.1,179044410.75000003,2017-06-30,半年度报告,131042909.29,2017,6,-8.544019211719036,False,未知,未知,未知,未知,未知,未知,395670000.0,未知
14,601388,242067768.85999992,242067962.27000004,2017-09-30,三季度报告,201070588.03,2017,9,-14.926677392036966,False,1.2857650183435296,True,0.7717549600822656,False,前期平均,199442954.58000004,484000000.0,484000000.0
15,601388,322931679.8,322931912.11000013,2017-12-31,年度报告,265423587.42,2017,12,2.4802627766986083,False,0.29945838494490673,True,0.0,True,前期平均,322931912.11000013,,322931912.11000013
16,601388,76893276.11999997,76893388.8,2018-03-31,一季度报告,82437870.82000001,2018,3,-0.13098727492601162,True,43.85358531568884,False,0.6566956393395537,False,未知,未知,未知,未知
17,601388,81961095.80999999,81961091.57,2018-06-30,半年度报告,84562803.89999999,2018,6,-0.49755647138253567,True,12.035341060765083,False,0.7596750300302626,False,未知,未知,未知,未知
18,601388,78090741.22000001,78090622.60000001,2018-09-30,三季度报告,85315670.28,2018,9,-0.6283700313195012,True,42.14304702503758,False,0.5360255427562528,False,未知,未知,未知,未知
19,601388,97523087.36999996,97522967.14,2018-12-31,年度报告,110179488.75000004,2018,12,-0.7214282679986233,True,17.165336214073406,False,0.0,True,比例外推,97522967.14,未知,97522967.14
20,601388,8544894.620000001,8544960.68,2019-03-31,一季度报告,761561.3500000002,2019,3,0.16992852820588117,True,0.7459176177606226,True,0.4187798776092231,False,平均增速,203585264.11402866,未知,203585264.11402866
21,601388,33644949.15000001,33644960.120000005,2019-06-30,半年度报告,30315748.83,2019,6,0.09758949012275307,True,0.019132720973281066,True,0.1691146530665777,False,平均增速,218219167.34211025,未知,218219167.34211025
22,601388,47141999.64,47141936.51000001,2019-09-30,三季度报告,41109906.40000001,2019,9,0.15198851944000005,True,0.33711369385650536,True,0.07199719786180603,True,比例外推,57295204.04719887,未知,57295204.04719887
23,601388,114943476.68999998,114943444.2,2019-12-31,年度报告,119317800.21,2019,12,-0.07755548161949012,True,0.4407762378838814,True,0.0,True,比例外推,114943444.2,未知,114943444.2
24,601388,48881158.47999999,48881117.42,2020-03-31,一季度报告,67356863.57,2020,3,9.52788142634812,False,0.9052738764941927,True,0.4315071924913659,False,前期平均,169515322.96,未知,169515322.96
