,SECURITYCODE_x,NETPROFIT_x,PARENTNETPROFIT_x,REPORTDATE_x,REPORTTIMETYPE_x,KCFJCXSYJLR,Year,Month,managesituationChangeRate,managesituationGreatChange,historyprofitextroplaterate,ifhistoryprofitextroplate,IfprofitdisStableChangeRage,IfprofitdisStable,predicttype,predict,analyst_prediction,adj_prediction
0,601366,333970117.45,333917995.79999995,2014-12-31,年度报告,301922209.45000005,2014,12,未知,未知,未知,未知,未知,未知,未知,未知,未知,未知
1,601366,338180436.30000013,338165025.86,2015-12-31,年度报告,322228104.72,2015,12,0.0,True,未知,未知,未知,未知,未知,未知,未知,未知
2,601366,103336701.01,103329858.73,2016-03-31,一季度报告,101970080.28,2016,3,未知,未知,未知,未知,未知,未知,未知,未知,未知,未知
3,601366,195660860.16000003,195647232.26999995,2016-06-30,半年度报告,187252521.93000004,2016,6,未知,未知,未知,未知,未知,未知,未知,未知,未知,未知
4,601366,253360262.38,253341107.76,2016-09-30,三季度报告,244036759.22,2016,9,未知,未知,未知,未知,未知,未知,未知,未知,未知,未知
5,601366,361903258.56999993,361865254.53,2016-12-31,年度报告,330267256.58,2016,12,-0.012449918440181933,True,未知,未知,未知,未知,未知,未知,未知,未知
6,601366,114446189.84999998,114444372.91,2017-03-31,一季度报告,112347944.65999997,2017,3,2.2318635507599702,False,未知,未知,未知,未知,未知,未知,414553835.00000006,未知
7,601366,208706747.32,208700619.7,2017-06-30,半年度报告,204010020.12000003,2017,6,0.7068825986806903,False,未知,未知,未知,未知,未知,未知,421950000.0,未知
8,601366,274169113.6399999,274159439.01,2017-09-30,三季度报告,261380824.70000005,2017,9,0.31816297596462884,True,未知,未知,未知,未知,未知,未知,398270000.0,未知
9,601366,394493176.61,394530604.18,2017-12-31,年度报告,360045075.63,2017,12,-0.07718400002910465,True,0.07685177539735046,True,0.0,True,比例外推,394530604.18,未知,394530604.18
10,601366,157476397.98999998,157469827.92,2018-03-31,一季度报告,146099438.76999998,2018,3,1.918140987373378,False,未知,未知,未知,未知,未知,未知,449213333.0,未知
11,601366,281131320.04999995,281123625.12,2018-06-30,半年度报告,258497681.39000005,2018,6,0.6001884066447536,False,未知,未知,未知,未知,未知,未知,472468633.0,未知
12,601366,297118009.20000005,297131176.51,2018-09-30,三季度报告,277457328.0,2018,9,0.21811721610816553,True,未知,未知,未知,未知,未知,未知,412045000.0,未知
13,601366,202087372.1200001,202105143.98,2018-12-31,年度报告,185194605.34,2018,12,-0.1534197870799518,True,0.12698861436347036,True,0.0,True,比例外推,202105143.98,,202105143.98
14,601366,96988706.18,96928248.44000004,2019-03-31,一季度报告,68742880.66,2019,3,1.1207629950439155,False,0.4461778642770652,True,0.3190016427560269,False,前期平均,334925402.07500005,247250000.0,247250000.0
15,601366,170138188.84,170118004.74,2019-06-30,半年度报告,127256172.92000002,2019,6,0.18795058974788906,True,0.3904739887648131,True,0.5526788957340522,False,平均增速,122670562.7831894,257500000.0,257500000.0
16,601366,215382423.71000004,215366601.76,2019-09-30,三季度报告,170526400.48,2019,9,0.1240318900534688,True,0.1264510478701212,True,0.5105042860322023,False,平均增速,150004552.73090973,250000000.0,250000000.0
17,601366,267205898.14,267290104.06000003,2019-12-31,年度报告,227284158.49,2019,12,0.6526026042423251,False,0.465657523698114,True,0.0,True,前期平均,267290104.06000003,255600000.0,267290104.06000003
18,601366,-68105208.3,-68070908.52999999,2020-03-31,一季度报告,-71347060.82,2020,3,2.44339181956082,False,0.2866447252475514,True,0.3211005540704543,False,盈利变化,80503515.42000005,413900000.0,413900000.0
