,SECURITYCODE_x,NETPROFIT_x,PARENTNETPROFIT_x,REPORTDATE_x,REPORTTIMETYPE_x,KCFJCXSYJLR,Year,Month,managesituationChangeRate,managesituationGreatChange,historyprofitextroplaterate,ifhistoryprofitextroplate,IfprofitdisStableChangeRage,IfprofitdisStable,predicttype,predict,analyst_prediction,adj_prediction
0,601336,1560000000.0000002,1560000000.0000002,2014-03-31,一季度报告,1569000000.0,2014,3,未知,未知,未知,未知,未知,未知,未知,未知,未知,未知
1,601336,3749000000.0,3747999999.999999,2014-06-30,半年度报告,3747999999.999999,2014,6,未知,未知,未知,未知,未知,未知,未知,未知,未知,未知
2,601336,6326000000.000001,6324999999.999999,2014-09-30,三季度报告,6340999999.999999,2014,9,未知,未知,未知,未知,未知,未知,未知,未知,未知,未知
3,601336,6407000000.0,6406000000.000001,2014-12-31,年度报告,6009999999.999999,2014,12,未知,未知,未知,未知,未知,未知,未知,未知,未知,未知
4,601336,3625000000.0,3624000000.000001,2015-03-31,一季度报告,3635000000.000001,2015,3,0.0,True,未知,未知,未知,未知,未知,未知,8698230038.0,未知
5,601336,6753000000.000001,6751999999.999999,2015-06-30,半年度报告,6785999999.999999,2015,6,-0.5838890370765537,True,未知,未知,未知,未知,未知,未知,9970591656.0,未知
6,601336,8645000000.0,8644000000.000002,2015-09-30,三季度报告,8692000000.0,2015,9,-0.7533986721466962,True,未知,未知,未知,未知,未知,未知,9518000144.0,未知
7,601336,8602000000.0,8601000000.0,2015-12-31,年度报告,8084000000.0,2015,12,-0.756516310285625,True,未知,未知,未知,未知,未知,未知,9516857287.0,未知
8,601336,1994000000.0,1994000000.0,2016-03-31,一季度报告,1959000000.0,2016,3,-0.569655172413793,True,未知,未知,未知,未知,未知,未知,7877413436.0,未知
9,601336,3334000000.0000005,3333000000.0,2016-06-30,半年度报告,3276999999.999999,2016,6,-0.7689915593069747,True,未知,未知,未知,未知,未知,未知,6162799031.0,未知
10,601336,4787000000.0,4786000000.0,2016-09-30,三季度报告,4726000000.0,2016,9,-0.8195488721804511,True,未知,未知,未知,未知,未知,未知,5992906173.0,未知
11,601336,4943000000.000001,4942000000.0,2016-12-31,年度报告,4904999999.999999,2016,12,-0.8186468263194606,True,未知,未知,未知,未知,未知,未知,5980971385.999999,未知
12,601336,1837000000.0,1837000000.0,2017-03-31,一季度报告,1899000000.0,2017,3,-0.21765295887662978,True,0.23085824493731918,True,0.10897074410816937,False,平均增速,4702419427.143087,5656190543.0,5656190543.0
13,601336,3237000000.0,3237000000.0,2017-06-30,半年度报告,3307000000.0,2017,6,-0.5320935812837433,True,0.3650733193677394,True,0.12905025863738417,False,平均增速,4852853095.434165,5468265556.0,5468265556.0
14,601336,5043000000.000001,5041999999.999999,2017-09-30,三季度报告,5122000000.0,2017,9,-0.6741174012951744,True,0.36049696079086235,True,0.06775730511959277,True,比例外推,4886720784.053761,5737333654.0,5737333654.0
15,601336,5384000000.0,5383000000.0,2017-12-31,年度报告,5495000000.000001,2017,12,-0.6844021849079507,True,0.34132853621160625,True,0.0,True,比例外推,5383000000.0,5717365384.0,5383000000.0
16,601336,2610000000.0000005,2608999999.9999995,2018-03-31,一季度报告,2624000000.0,2018,3,-0.15078933043004886,True,0.34614700124577324,True,0.05262274055328148,True,比例外推,6574493953.339365,7544985908.999999,7544985908.999999
17,601336,5800000000.0,5799000000.0,2018-06-30,半年度报告,5830000000.000001,2018,6,-0.5180722891566264,True,0.35818380093189267,True,0.13631940918366314,False,平均增速,8672332883.295193,8419735509.0,8672332883.295193
18,601336,7703000000.0,7701999999.999998,2018-09-30,三季度报告,7748999999.999998,2018,9,-0.6906603212373588,True,0.24910661107802248,True,0.08493128292908392,True,比例外推,7778067409.821431,8371412937.0,7778067409.821431
19,601336,7922999999.999998,7922000000.0,2018-12-31,年度报告,7969000000.000002,2018,12,-0.7102526002971769,True,0.2050203026947213,True,0.0,True,比例外推,7922000000.0,8487870732.0,7922000000.0
20,601336,3368000000.0000005,3367000000.0,2019-03-31,一季度报告,3349000000.0,2019,3,-0.40229885057471265,True,0.36256851996867684,True,0.041304638982143815,True,比例外推,9370560934.257233,10957781600.0,10957781600.0
21,601336,10545999999.999998,10545000000.0,2019-06-30,半年度报告,8694000000.0,2019,6,-0.7310344827586207,True,0.7653325216861969,True,0.06534633362671805,True,比例外推,14882236284.1569,14463394777.0,14882236284.1569
22,601336,13004000000.0,13003000000.000006,2019-09-30,三季度报告,11177999999.999998,2019,9,-0.7974815007140075,True,0.5672431332655138,True,0.023886476825195513,True,比例外推,13517388068.778759,13451108947.0,13517388068.778759
23,601336,14560000000.0,14559000000.0,2019-12-31,年度报告,12763000000.0,2019,12,-0.8031048845134419,True,0.5344243245860363,True,0.0,True,比例外推,14559000000.0,13374506018.999998,14559000000.0
24,601336,4636000000.000001,4635000000.0,2020-03-31,一季度报告,4643999999.999999,2020,3,-0.5368171021377672,True,0.514729030807286,True,0.050021532178871064,True,比例外推,14855574191.862968,14943703194.0,14855574191.862968
