,SECURITYCODE_x,NETPROFIT_x,PARENTNETPROFIT_x,REPORTDATE_x,REPORTTIMETYPE_x,KCFJCXSYJLR,Year,Month,managesituationChangeRate,managesituationGreatChange,historyprofitextroplaterate,ifhistoryprofitextroplate,IfprofitdisStableChangeRage,IfprofitdisStable,predicttype,predict,analyst_prediction,adj_prediction
0,601398,73460999999.99997,73302000000.0,2014-03-31,一季度报告,73083000000.00003,2014,3,未知,未知,未知,未知,未知,未知,未知,未知,未知,未知
1,601398,148380999999.99994,148099999999.99994,2014-06-30,半年度报告,147676000000.0,2014,6,未知,未知,未知,未知,未知,未知,未知,未知,未知,未知
2,601398,220855000000.0,220464000000.00006,2014-09-30,三季度报告,219956000000.00006,2014,9,未知,未知,未知,未知,未知,未知,未知,未知,未知,未知
3,601398,276286000000.0,275810999999.99994,2014-12-31,年度报告,274375000000.0001,2014,12,未知,未知,未知,未知,未知,未知,未知,未知,未知,未知
4,601398,74457000000.0,74324000000.0,2015-03-31,一季度报告,73857999999.99997,2015,3,0.0,True,未知,未知,未知,未知,未知,未知,282215914323.0,未知
5,601398,149425999999.99994,149020999999.99994,2015-06-30,半年度报告,148176000000.00006,2015,6,-0.5049163976519905,True,未知,未知,未知,未知,未知,未知,279018000000.0,未知
6,601398,222291000000.0,221761000000.0,2015-09-30,三季度报告,220692000000.00006,2015,9,-0.6673790496026807,True,未知,未知,未知,未知,未知,未知,277126293510.0,未知
7,601398,277720000000.0,277131000000.0,2015-12-31,年度报告,274467000000.0,2015,12,-0.7341124776499716,True,未知,未知,未知,未知,未知,未知,277343940265.0,未知
8,601398,74904000000.0,74764000000.0,2016-03-31,一季度报告,74466000000.0,2016,3,-0.013376848382288174,True,未知,未知,未知,未知,未知,未知,273408062983.00003,未知
9,601398,150656000000.0,150216999999.99994,2016-06-30,半年度报告,149495000000.00006,2016,6,-0.5083787292706758,True,未知,未知,未知,未知,未知,未知,272392965869.0,未知
10,601398,223468000000.00006,222792000000.00006,2016-09-30,三季度报告,221802000000.00006,2016,9,-0.6695277811517337,True,未知,未知,未知,未知,未知,未知,273625111111.0,未知
11,601398,279106000000.0001,278248999999.99994,2016-12-31,年度报告,275987999999.99994,2016,12,-0.7354853809592397,True,未知,未知,未知,未知,未知,未知,277996880529.0,未知
12,601398,76027000000.00003,75786000000.0,2017-03-31,一季度报告,75497000000.0,2017,3,-0.019264658763217327,True,0.01277734961262342,True,0.002062906391126218,True,比例外推,281548576898.26324,287459000000.0,281548576898.26324
13,601398,153687000000.0,152995000000.0,2017-06-30,半年度报告,152153000000.0,2017,6,-0.5123924702633816,True,0.011769367409094223,True,0.0017497144086292549,True,比例外推,282647317922.3953,285227272727.0,282647317922.3953
14,601398,229086000000.0,227999000000.0,2017-09-30,三季度报告,226538000000.0,2017,9,-0.6712683695204685,True,0.008552486088106678,True,0.001472088522481152,True,比例外推,283528483877.03156,287527238889.0,283528483877.03156
15,601398,287451000000.0,286049000000.0,2017-12-31,年度报告,283963000000.0,2017,12,-0.7367989222732584,True,0.007591975538171507,True,0.0,True,比例外推,286049000000.0,287173456250.0,286049000000.0
16,601398,79068999999.99997,78802000000.00003,2018-03-31,一季度报告,77795000000.0,2018,3,-0.03375116734844279,True,0.01803014173713393,True,0.0023912972467787785,True,比例外推,291005030908.0735,302566665926.0,291005030908.0735
17,601398,160657000000.00006,160442000000.0,2018-06-30,半年度报告,158923000000.00006,2018,6,-0.522009018329462,True,0.024300024659926495,True,0.003300222513172635,True,比例外推,296301221304.465,303751705882.0,296301221304.465
18,601398,240120000000.0001,239627000000.0,2018-09-30,三季度报告,238024000000.0,2018,9,-0.6793300332626176,True,0.02784688587330808,True,0.00406476165916958,True,比例外推,298451098747.36676,302116000000.0,298451098747.36676
19,601398,298723000000.0,297676000000.0,2018-12-31,年度报告,295539000000.0001,2018,12,-0.7444399219345211,True,0.0324625646072559,True,0.0,True,比例外推,297676000000.0,302116000000.0,297676000000.0
20,601398,82690000000.0,82005000000.0,2019-03-31,一季度报告,81535000000.00003,2019,3,-0.07092539427588565,True,0.04775029649309888,True,0.0035107008977430243,True,比例外推,306641060431.80457,312858666667.0,306641060431.80457
21,601398,168689999999.99994,167931000000.00006,2019-06-30,半年度报告,167132999999.99994,2019,6,-0.5427463478093084,True,0.055762741380613726,True,0.003261625288453085,True,比例外推,311217294064.2631,319142222222.0,311217294064.2631
22,601398,252688000000.0,251711999999.99994,2019-09-30,三季度报告,250508000000.0001,2019,9,-0.6940654672663671,True,0.06117722967866844,True,0.004502984331366089,True,比例外推,313450684090.84717,312783588235.0,313450684090.84717
23,601398,313361000000.0,312224000000.0,2019-12-31,年度报告,310502000000.0,2019,12,-0.754083214215176,True,0.0545205513302278,True,0.0,True,比例外推,312224000000.0,312779621695.0,312224000000.0
24,601398,85012999999.99997,84494000000.00003,2020-03-31,一季度报告,84109000000.0,2020,3,-0.11160962631515335,True,0.06630731933770052,True,0.0019721594529762965,True,比例外推,319104063235.74023,323400818182.0,319104063235.74023
