,SECURITYCODE_x,NETPROFIT_x,PARENTNETPROFIT_x,REPORTDATE_x,REPORTTIMETYPE_x,KCFJCXSYJLR,Year,Month,managesituationChangeRate,managesituationGreatChange,historyprofitextroplaterate,ifhistoryprofitextroplate,IfprofitdisStableChangeRage,IfprofitdisStable,predicttype,predict,analyst_prediction,adj_prediction
0,601579,47284744.05,46961390.59,2014-03-31,一季度报告,47296181.69000001,2014,3,未知,未知,未知,未知,未知,未知,未知,未知,未知,未知
1,601579,74140676.93,73483840.30000001,2014-09-30,三季度报告,70491412.38000001,2014,9,未知,未知,未知,未知,未知,未知,未知,未知,未知,未知
2,601579,111998790.38,109935123.34,2014-12-31,年度报告,104477002.59,2014,12,未知,未知,未知,未知,未知,未知,未知,未知,未知,未知
3,601579,50438723.60999999,50093440.28999999,2015-03-31,一季度报告,49523927.56,2015,3,0.0,True,未知,未知,未知,未知,未知,未知,130300000.0,未知
4,601579,70225613.36,69480815.85,2015-06-30,半年度报告,65875644.12999999,2015,6,未知,未知,未知,未知,未知,未知,未知,未知,131910000.0,未知
5,601579,72283898.0,71401321.53,2015-09-30,三季度报告,68891689.07000001,2015,9,-0.36222939946119004,True,未知,未知,未知,未知,未知,未知,,未知
6,601579,115655085.69,113688452.78000002,2015-12-31,年度报告,107768463.46,2015,12,-0.577810225542902,True,未知,未知,未知,未知,未知,未知,108920000.0,未知
7,601579,58828194.40000001,58544006.45,2016-03-31,一季度报告,58048516.82,2016,3,-0.06253091542099781,True,未知,未知,未知,未知,未知,未知,179000000.0,未知
8,601579,69583283.63000001,69299095.68,2016-06-30,半年度报告,68415756.63000001,2016,6,-0.3266738190294961,True,未知,未知,未知,未知,未知,未知,133213333.0,未知
9,601579,75035404.28,74080778.8,2016-09-30,三季度报告,72755133.60000001,2016,9,-0.34584678803569785,True,未知,未知,未知,未知,未知,未知,,未知
10,601579,143410978.27,141465621.48999998,2016-12-31,年度报告,136459227.77999997,2016,12,-0.5911572433853773,True,未知,未知,未知,未知,未知,未知,187000000.0,未知
11,601579,83107584.91,82664670.49999999,2017-03-31,一季度报告,81886002.92,2017,3,-0.1962230945167342,True,0.20397271625021285,True,0.020484297505437177,True,比例外推,184430952.35429734,191142000.0,184430952.35429734
12,601579,85027246.91000001,84430169.28999999,2017-06-30,半年度报告,82523992.72,2017,6,-0.320458282747471,True,未知,未知,未知,未知,未知,未知,172565000.0,未知
13,601579,99274162.33,98421220.94,2017-09-30,三季度报告,90749743.61,2017,9,-0.36983422020952167,True,0.024901787365564285,True,0.0825453816257552,True,比例外推,155062050.82036012,175065000.0,175065000.0
14,601579,183625635.91000003,181948508.43,2017-12-31,年度报告,165739797.97,2017,12,-0.6702850463722732,True,0.2599036813755228,True,0.0,True,比例外推,181948508.43,207500000.0,207500000.0
15,601579,86859012.36999997,86192444.79,2018-03-31,一季度报告,84855843.94000001,2018,3,-0.43104177433135327,True,0.5211847542436233,True,0.034398741498641194,True,比例外推,185940319.20846263,210885000.0,210885000.0
16,601579,85396243.34000002,84363034.82999998,2018-06-30,半年度报告,78948155.24,2018,6,-0.443887156548181,True,0.2163352796650943,True,0.07442108022314997,True,比例外推,152473262.7226473,195640000.0,195640000.0
17,601579,98536514.64000002,98437713.33,2018-09-30,三季度报告,92170774.51000002,2018,9,-0.5236953610062257,True,0.34774141329173824,True,0.06593520167316214,True,比例外推,167033296.7118141,191000000.0,191000000.0
18,601579,173441787.01,172978478.96999997,2018-12-31,年度报告,165436981.32000002,2018,12,-0.7424937764508243,True,0.4175969874491316,True,0.0,True,比例外推,172978478.96999997,212555000.0,212555000.0
19,601579,66100660.24999999,66253772.24999999,2019-03-31,一季度报告,64998874.28999999,2019,3,-0.45561499308122966,True,0.22391989943976548,True,0.05206706846443232,True,比例外推,137390171.61570364,142000000.0,137390171.61570364
20,601579,67914144.43999998,67437986.75999999,2019-06-30,半年度报告,62717169.99,2019,6,-0.44629011534220975,True,0.10466270365596803,True,0.01495245606836254,True,比例外推,132152703.7782535,,132152703.7782535
21,601579,83167258.87,81686413.64999998,2019-09-30,三季度报告,69371761.78,2019,9,-0.5201297283270746,True,0.1305921591838442,True,0.01278364247035968,True,比例外推,139381369.50304437,140000000.0,139381369.50304437
22,601579,168205600.53999996,166450677.18,2019-12-31,年度报告,127199531.39000005,2019,12,-0.7273739802549789,True,0.06068727163704123,True,0.0,True,比例外推,166450677.18,,166450677.18
23,601579,34071590.92,34119789.45,2020-03-31,一季度报告,32904317.47,2020,3,-0.2846554955553564,True,0.22219234475692973,True,0.011930514172975137,True,比例外推,66244522.501448795,153000000.0,153000000.0
