,SECURITYCODE_x,NETPROFIT_x,PARENTNETPROFIT_x,REPORTDATE_x,REPORTTIMETYPE_x,KCFJCXSYJLR,Year,Month,managesituationChangeRate,managesituationGreatChange,historyprofitextroplaterate,ifhistoryprofitextroplate,IfprofitdisStableChangeRage,IfprofitdisStable,predicttype,predict,analyst_prediction,adj_prediction
0,601588,697084692.0000001,664535000.9999999,2013-12-31,年度报告,654734470.0000001,2013,12,未知,未知,未知,未知,未知,未知,未知,未知,未知,未知
1,601588,79645726.00000001,66965336.00000001,2014-03-31,一季度报告,66740075.00000001,2014,3,未知,未知,未知,未知,未知,未知,未知,未知,未知,未知
2,601588,274877467.0,237960039.0,2014-06-30,半年度报告,237695791.0000001,2014,6,未知,未知,未知,未知,未知,未知,未知,未知,未知,未知
3,601588,367267609.0,320963580.0,2014-09-30,三季度报告,321037929.0,2014,9,未知,未知,未知,未知,未知,未知,未知,未知,未知,未知
4,601588,587190276.0,530825009.0,2014-12-31,年度报告,533634454.0,2014,12,0.0,True,未知,未知,未知,未知,未知,未知,未知,未知
5,601588,111128263.0,101420371.0,2015-03-31,一季度报告,98376945.0,2015,3,7.7523176322104215,False,未知,未知,未知,未知,未知,未知,727068000.0,未知
6,601588,411849116.00000006,379731658.00000006,2015-06-30,半年度报告,377282038.0000001,2015,6,1.5359833951030992,False,未知,未知,未知,未知,未知,未知,755657143.0000001,未知
7,601588,574173684.0,532522127.0,2015-09-30,三季度报告,530163123.0,2015,9,0.898029324987383,False,未知,未知,未知,未知,未知,未知,817851667.0,未知
8,601588,635336414.0,611971850.0,2015-12-31,年度报告,602357563.0000002,2015,12,0.1871529902514941,True,未知,未知,未知,未知,未知,未知,817775000.0,未知
9,601588,187981398.0,183918951.0,2016-03-31,一季度报告,175963094.00000003,2016,3,5.272793915621628,False,未知,未知,未知,未知,未知,未知,842015000.0,未知
10,601588,388070165.0,396233385.0,2016-06-30,半年度报告,376254946.0,2016,6,0.69257299559191,False,未知,未知,未知,未知,未知,未知,824065000.0,未知
11,601588,428847146.0,424424909.00000006,2016-09-30,三季度报告,405973569.0,2016,9,0.21406590274868836,True,未知,未知,未知,未知,未知,未知,691550000.0,未知
12,601588,524604334.0,600585443.9999999,2016-12-31,年度报告,573948287.0,2016,12,0.09718989284942846,True,0.010591298856492234,True,0.0,True,比例外推,600585443.9999999,1069223333.0,1069223333.0
13,601588,297282296.00000006,298309361.0,2017-03-31,一季度报告,295890023.99999994,2017,3,2.708264218781904,False,0.9707235665130428,True,0.10826006428629323,False,前期平均,783746859.5000001,756283333.0,783746859.5000001
14,601588,674095767.9999999,623069190.0000001,2017-06-30,半年度报告,618126325.0,2017,6,0.7962851949724095,False,0.13020283357809087,True,0.13034719064250205,False,前期平均,883576284.0000001,863905000.0,883576284.0000001
15,601588,902960581.0,835381620.0,2017-09-30,三季度报告,844586087.0,2017,9,0.6254852072631029,False,0.0889561586290012,True,0.15045084566607236,False,前期平均,977777102.5000001,1031195000.0,977777102.5000001
16,601588,1310609068.9999998,1140410658.0,2017-12-31,年度报告,1265232627.0000002,2017,12,0.32878180148622277,True,0.14177033795474844,True,0.0,True,比例外推,1140410658.0,,1140410658.0
17,601588,179230192.99999997,180163696.0,2018-03-31,一季度报告,155618027.0,2018,3,1.3448577375088626,False,0.98778130406159,True,0.07199502307315006,True,前期平均,631146601.5000001,1398666667.0,1398666667.0
18,601588,852300678.9999996,637773468.0,2018-06-30,半年度报告,592299826.0,2018,6,0.03410335013407211,True,0.685409475709337,True,0.10160089009107409,False,平均增速,1458580788.823855,1435866667.0,1458580788.823855
19,601588,1626925876.9999998,1184573061.0,2018-09-30,三季度报告,1123135982.0,2018,9,-0.22800097073119063,True,0.8004822113215735,True,0.12847491882136663,False,平均增速,1796286298.045596,,1796286298.045596
20,601588,1993141529.0,1189511662.0,2018-12-31,年度报告,1130538395.0,2018,12,-0.46812157149814426,True,1.2597862369431991,True,0.0,True,比例外推,1189511662.0,1431653333.0,1431653333.0
21,601588,904104220.0,819720918.0,2019-03-31,一季度报告,814516131.0000002,2019,3,2.8893262364561543,False,0.2613080466720432,True,0.08838223882549734,True,前期平均,1503384816.0,1471800000.0,1503384816.0
22,601588,1445567693.0,1284724613.0,2019-06-30,半年度报告,1280806792.9999998,2019,6,-0.18211411867243107,True,0.6048352757704191,True,0.09955129207474411,True,比例外推,2307509799.910493,,2307509799.910493
23,601588,1501804919.0,1304141278.0,2019-09-30,三季度报告,1294731079.0,2019,9,-0.5715326052312829,True,1.4431843186024702,True,0.20401188073696963,False,平均增速,1314141091.8550172,未知,1314141091.8550172
24,601588,1843840456.0,1653948716.0000002,2019-12-31,年度报告,1629287967.9999998,2019,12,-0.6502583073718093,True,1.1721087321418175,True,0.0,True,比例外推,1653948716.0000002,未知,1653948716.0000002
25,601588,244145638.0,197102141.0,2020-03-31,一季度报告,191722289.0,2020,3,-0.2289775043855009,True,2.7946716649434973,False,0.20944380702618132,False,未知,未知,1812000000.0,未知
