,SECURITYCODE_x,NETPROFIT_x,PARENTNETPROFIT_x,REPORTDATE_x,REPORTTIMETYPE_x,KCFJCXSYJLR,Year,Month,managesituationChangeRate,managesituationGreatChange,historyprofitextroplaterate,ifhistoryprofitextroplate,IfprofitdisStableChangeRage,IfprofitdisStable,predicttype,predict,analyst_prediction,adj_prediction
0,601616,6292145.740000001,6267226.84,2014-03-31,一季度报告,6050583.92,2014,3,未知,未知,未知,未知,未知,未知,未知,未知,未知,未知
1,601616,22150494.72,21553392.700000007,2014-06-30,半年度报告,17385004.47,2014,6,未知,未知,未知,未知,未知,未知,未知,未知,未知,未知
2,601616,41914705.73,40104803.17,2014-09-30,三季度报告,34240171.54000001,2014,9,未知,未知,未知,未知,未知,未知,未知,未知,未知,未知
3,601616,41615171.48,38765570.24999999,2014-12-31,年度报告,25628260.590000004,2014,12,未知,未知,未知,未知,未知,未知,未知,未知,未知,未知
4,601616,4321919.64,3506895.23,2015-03-31,一季度报告,2560250.51,2015,3,0.0,True,未知,未知,未知,未知,未知,未知,未知,未知
5,601616,18106443.36,14915564.090000002,2015-06-30,半年度报告,13216666.910000002,2015,6,-0.7159365594521583,True,未知,未知,未知,未知,未知,未知,未知,未知
6,601616,33373506.82,30351770.75,2015-09-30,三季度报告,20975050.950000007,2015,9,-0.8498821444546976,True,未知,未知,未知,未知,未知,未知,未知,未知
7,601616,9301354.14,7949761.14,2015-12-31,年度报告,-8008848.789999999,2015,12,-0.8488016385316598,True,未知,未知,未知,未知,未知,未知,未知,未知
8,601616,-14354113.939999998,-14200370.51,2016-03-31,一季度报告,-15373705.150000002,2016,3,0.45586828634324206,True,未知,未知,未知,未知,未知,未知,,未知
9,601616,-73309909.03999999,-71507024.00999999,2016-06-30,半年度报告,-74980571.6,2016,6,-0.6524913471465993,True,未知,未知,未知,未知,未知,未知,未知,未知
10,601616,-85025398.49,-83559725.50999999,2016-09-30,三季度报告,-92534342.83000004,2016,9,-0.8114628536360686,True,未知,未知,未知,未知,未知,未知,-57650000.0,未知
11,601616,-113335938.63,-112366191.29,2016-12-31,年度报告,-117154130.73,2016,12,-0.3235236885626203,True,未知,未知,未知,未知,未知,未知,49000000.0,未知
12,601616,1093943.1399999994,1465907.55,2017-03-31,一季度报告,-2697917.76,2017,3,-1.4383513859720696,False,3.7047344115756706,False,0.33555735402338066,False,前期平均,5970196.235000002,未知,5970196.235000002
13,601616,9093386.95,9290762.15,2017-06-30,半年度报告,3964878.5500000007,2017,6,-1.0858294031788638,False,4.642100593657469,False,1.5396284569036005,False,前期平均,2799632.3600000013,未知,2799632.3600000013
14,601616,12814908.69,13937996.37,2017-09-30,三季度报告,5761926.55,2017,9,-1.07400313143772,False,3.2586642878135375,False,2.4546173819350114,False,前期平均,-4859908.975000007,未知,-4859908.975000007
15,601616,23647528.1,22138399.879999995,2017-12-31,年度报告,6601145.85,2017,12,-1.0555176567650049,False,5.451833162217246,False,0.0,True,前期平均,22138399.879999995,,22138399.879999995
16,601616,1515907.3899999997,2241570.14,2018-03-31,一季度报告,-549960.82,2018,3,4.75180327928196,False,-1.2180865137350858,True,0.33027827168109536,False,前期平均,-53933192.300000004,未知,-53933192.300000004
17,601616,18204479.06,18364643.1,2018-06-30,半年度报告,4678300.739999998,2018,6,-0.30805256890558236,True,-1.3294498574677167,True,1.5137224610190534,False,平均增速,12952472.328789625,未知,12952472.328789625
18,601616,191212632.31,190206791.65,2018-09-30,三季度报告,7056462.3599999985,2018,9,-0.5089980044173065,True,-1.4962028795333762,True,2.3002293207352777,False,平均增速,188502673.12790677,未知,188502673.12790677
19,601616,126016652.44,124599895.62,2018-12-31,年度报告,-57150262.59,2018,12,-0.7339195152494606,True,-1.454608978656959,True,0.0,True,比例外推,124599895.62,未知,124599895.62
20,601616,11848978.3,10481079.62,2019-03-31,一季度报告,8402339.09,2019,3,3.1507454752892277,False,-1.228640703481738,True,0.3194194359085626,False,前期平均,-35759601.365,未知,-35759601.365
21,601616,21696787.0,19256549.96,2019-06-30,半年度报告,15056255.44,2019,6,-0.6543627686756777,True,-1.5669718155862216,True,0.46812355361873936,False,平均增速,21801529.838369288,未知,21801529.838369288
22,601616,39847149.14999999,35689083.730000004,2019-09-30,三季度报告,27142774.79000001,2019,9,-0.9670934620585162,True,-6.2959793747306785,True,0.6365543718291173,False,平均增速,18164751.014590044,未知,18164751.014590044
23,601616,179850588.01999998,176026848.22000003,2019-12-31,年度报告,18750055.180000003,2019,12,-0.9500689343974134,True,-3.8100989123416005,True,0.0,True,比例外推,176026848.22000003,未知,176026848.22000003
24,601616,14732398.550000004,11095284.44,2020-03-31,一季度报告,9917927.69,2020,3,-0.4689714521630949,True,8.080196864760683,False,0.43177608653571403,False,未知,未知,未知,未知
