,SECURITYCODE_x,NETPROFIT_x,PARENTNETPROFIT_x,REPORTDATE_x,REPORTTIMETYPE_x,KCFJCXSYJLR,Year,Month,managesituationChangeRate,managesituationGreatChange,historyprofitextroplaterate,ifhistoryprofitextroplate,IfprofitdisStableChangeRage,IfprofitdisStable,predicttype,predict,analyst_prediction,adj_prediction
0,601699,1166054885.61,1528859757.1599994,2013-12-31,年度报告,1527591644.9400005,2013,12,未知,未知,未知,未知,未知,未知,未知,未知,未知,未知
1,601699,171928655.82000002,234011538.76,2014-03-31,一季度报告,232069986.98,2014,3,未知,未知,未知,未知,未知,未知,未知,未知,未知,未知
2,601699,338379961.67000014,475840157.97,2014-06-30,半年度报告,485341127.7400002,2014,6,未知,未知,未知,未知,未知,未知,未知,未知,未知,未知
3,601699,413220999.33,635024254.6899999,2014-09-30,三季度报告,648049628.36,2014,9,未知,未知,未知,未知,未知,未知,未知,未知,未知,未知
4,601699,747356156.3900001,981993012.2800002,2014-12-31,年度报告,982603611.76,2014,12,0.0,True,未知,未知,未知,未知,未知,未知,未知,未知
5,601699,19937128.12,71412329.16999999,2015-03-31,一季度报告,74426556.69999999,2015,3,5.7822020712521365,False,未知,未知,未知,未知,未知,未知,859249590.9999999,未知
6,601699,7256693.71,113703329.08,2015-06-30,半年度报告,113400784.49,2015,6,2.445992723254627,False,未知,未知,未知,未知,未知,未知,215650000.0,未知
7,601699,10014052.35,171498765.09,2015-09-30,三季度报告,174561439.35,2015,9,1.821867445024941,False,未知,未知,未知,未知,未知,未知,210100000.0,未知
8,601699,-41599405.59000001,103019497.45,2015-12-31,年度报告,100343647.58999996,2015,12,0.560239887823318,False,未知,未知,未知,未知,未知,未知,206235000.0,未知
9,601699,-29031984.41,21155621.05,2016-03-31,一季度报告,19356699.529999994,2016,3,57.486602412925656,False,未知,未知,未知,未知,未知,未知,135725000.0,未知
10,601699,-27945159.88,51491584.88,2016-06-30,半年度报告,50232894.22,2016,6,159.6867992792822,False,未知,未知,未知,未知,未知,未知,336492857.0,未知
11,601699,-32358524.46,90275152.55,2016-09-30,三季度报告,86379867.35,2016,9,115.44186038332424,False,未知,未知,未知,未知,未知,未知,714887500.0,未知
12,601699,710000290.3399999,857140868.23,2016-12-31,年度报告,810345766.21,2016,12,-29.03056603987402,False,1.0434819332353367,True,0.0,True,前期平均,857140868.23,786056667.0,857140868.23
13,601699,464130115.84,509396216.43000007,2017-03-31,一季度报告,509316658.73,2017,3,-41.164491312152784,False,1.302628053984642,True,0.40778924848758985,False,前期平均,897621574.2650001,2581321432.0,2581321432.0
14,601699,1078111300.84,1142521949.13,2017-06-30,半年度报告,1144147470.73,2017,6,-42.726541934889084,False,1.1617025245732489,True,0.5681083838873846,False,前期平均,1384624622.69,2655970000.0,2655970000.0
15,601699,1824120088.28,1901097499.77,2017-09-30,三季度报告,1905009411.5,2017,9,-37.035477669923395,False,1.1529104186033519,True,0.9043843657540589,False,前期平均,2031265595.59,2683271667.0,2683271667.0
16,601699,2465952707.13,2782240108.7,2017-12-31,年度报告,2779917037.920001,2017,12,0.6423301532054413,False,1.012025501804098,True,0.0,True,前期平均,2782240108.7,2772000000.0,2782240108.7
17,601699,693897090.0,713459023.5500001,2018-03-31,一季度报告,717152147.3400003,2018,3,1.5123448055070299,False,-103.06430998812407,True,0.4254444963582285,False,前期平均,1121912102.335,3344205533.9999995,3344205533.9999995
18,601699,1324734100.7000005,1391323897.5699995,2018-06-30,半年度报告,1387893217.62,2018,6,0.08157189772658871,True,-105.22341530599802,True,0.5955609408553717,False,平均增速,7088836744.306893,3155737104.0,3155737104.0
19,601699,2108192981.9500003,2229044589.91,2018-09-30,三季度报告,2217973520.96,2018,9,-0.3607576095993237,True,-164.27260534954746,True,0.8958001361743033,False,平均增速,5255089185.345791,3055348323.0,3055348323.0
20,601699,1624581065.14,2346166445.03,2018-12-31,年度报告,2352068291.63,2018,12,-0.5271381798043023,True,6.378663803092761,False,0.0,True,比例外推,2346166445.03,3002448882.0,3002448882.0
21,601699,879278597.7299999,906093317.48,2019-03-31,一季度报告,918310939.72,2019,3,0.6804435447481123,False,2.189611905339274,False,0.14678058216353032,False,去年同期,2541009461.77,3034165385.0000005,3034165385.0000005
22,601699,1510123814.65,1502667206.5799994,2019-06-30,半年度报告,1509711386.6699998,2019,6,-0.11978193586633967,True,1.5229038511735042,True,0.2925569090029588,False,平均增速,3057922321.4116697,3226604680.0,3057922321.4116697
23,601699,2145072760.94,2112559475.47,2019-09-30,三季度报告,2093817554.64,2019,9,-0.4468936688464628,True,1.353207061162061,True,0.47169052991595256,False,平均增速,2319221995.0025415,3021025000.0,3021025000.0
24,601699,2297366926.13,2378709408.9799995,2019-12-31,年度报告,2184118155.0,2019,12,-0.28224272051975824,True,0.023051075651408934,True,0.0,True,比例外推,2378709408.9799995,2999260000.0,2999260000.0
25,601699,631067875.4200001,695066717.66,2020-03-31,一季度报告,726926988.75,2020,3,0.3261495146366117,True,0.5185802082986406,True,0.11964209079138555,False,平均增速,1757670851.8871098,2134887500.0,2134887500.0
