,SECURITYCODE_x,NETPROFIT_x,PARENTNETPROFIT_x,REPORTDATE_x,REPORTTIMETYPE_x,KCFJCXSYJLR,Year,Month,managesituationChangeRate,managesituationGreatChange,historyprofitextroplaterate,ifhistoryprofitextroplate,IfprofitdisStableChangeRage,IfprofitdisStable,predicttype,predict,analyst_prediction,adj_prediction
0,601666,738402379.9199997,666762853.6700001,2013-12-31,年度报告,664849070.7399999,2013,12,未知,未知,未知,未知,未知,未知,未知,未知,未知,未知
1,601666,68019525.02999999,48482490.88,2014-03-31,一季度报告,47795326.38,2014,3,未知,未知,未知,未知,未知,未知,未知,未知,未知,未知
2,601666,87538998.32000002,66275693.15999999,2014-06-30,半年度报告,66339440.07,2014,6,未知,未知,未知,未知,未知,未知,未知,未知,未知,未知
3,601666,116236526.8,86440687.98,2014-09-30,三季度报告,86318182.35,2014,9,未知,未知,未知,未知,未知,未知,未知,未知,未知,未知
4,601666,225753839.22,198617713.8,2014-12-31,年度报告,137769922.83999997,2014,12,0.0,True,未知,未知,未知,未知,未知,未知,未知,未知
5,601666,-18259135.44,-25248122.09,2015-03-31,一季度报告,-31364303.590000004,2015,3,9.85574148884938,False,未知,未知,未知,未知,未知,未知,159000000.0,未知
6,601666,-692352308.5799999,-697923420.27,2015-06-30,半年度报告,-706021644.86,2015,6,7.4351248482506,False,未知,未知,未知,未知,未知,未知,,未知
7,601666,-1334488090.21,-1331242826.4,2015-09-30,三季度报告,-1344511419.62,2015,9,5.352584684421247,False,未知,未知,未知,未知,未知,未知,未知,未知
8,601666,-2141005456.5600004,-2137553004.51,2015-12-31,年度报告,-2111917357.85,2015,12,2.2708297784491593,False,未知,未知,未知,未知,未知,未知,,未知
9,601666,9835882.79,3933059.750000002,2016-03-31,一季度报告,2434058.58,2016,3,-41.44016116460768,False,未知,未知,未知,未知,未知,未知,-1117000000.0,未知
10,601666,363903367.34,354023734.23,2016-06-30,半年度报告,-360671349.45,2016,6,-2.066512483268016,False,未知,未知,未知,未知,未知,未知,291000000.0,未知
11,601666,397795045.45,377871866.98,2016-09-30,三季度报告,-352252690.7800001,2016,9,-1.5533225701578213,False,未知,未知,未知,未知,未知,未知,,未知
12,601666,795085770.3799999,839872270.3499999,2016-12-31,年度报告,107571701.32,2016,12,-1.3448858001073976,False,5.4412003242995555,False,0.0,True,前期平均,839872270.3499999,未知,839872270.3499999
13,601666,381940709.0500001,334674375.43000007,2017-03-31,一季度报告,333021046.76000005,2017,3,74.07230369507076,False,0.6046701856218324,True,0.21878808836800084,False,前期平均,-660614853.47,1255400000.0,1255400000.0
14,601666,722064270.7,625946229.82,2017-06-30,半年度报告,603292502.1800001,2017,6,1.029116645216696,False,-2.2033576681160127,True,2.507173013057742,False,前期平均,-41286385.28999984,1329233333.0,1329233333.0
15,601666,1156709673.68,1026704925.68,2017-09-30,三季度报告,990610541.52,2017,9,0.8562382522504586,False,-1.6530589533356057,True,2.6041131873090517,False,前期平均,668727826.81,1391215000.0,1391215000.0
16,601666,1540277237.24,1376994881.26,2017-12-31,年度报告,1357561446.03,2017,12,-0.07129217069613653,True,-1.8302676924343297,True,0.0,True,比例外推,1376994881.26,1045000000.0,1045000000.0
17,601666,104465263.15,64368710.99,2018-03-31,一季度报告,60660533.04,2018,3,0.9332905930782441,False,-91.68722616316155,True,0.1510460395745553,False,前期平均,-923338994.77,1208100000.0,1208100000.0
18,601666,364570517.72000015,310328317.16999984,2018-06-30,半年度报告,306522146.72,2018,6,0.022626945942306225,True,-5.3968128986744555,True,2.494796633959007,False,平均增速,3268412901.9745245,871213333.0,871213333.0
19,601666,613771948.75,530195123.39,2018-09-30,三季度报告,524842928.8499999,2018,9,-0.36163551086175466,True,-3.469773166675691,True,2.638499799553808,False,平均增速,1973287528.8705945,830870000.0,830870000.0
20,601666,883697365.4700001,714714384.5999999,2018-12-31,年度报告,705250420.4,2018,12,-0.5206042379467141,True,-3.288810027902373,True,0.0,True,比例外推,714714384.5999999,1765875000.0,1765875000.0
21,601666,371341711.6,322934733.58000004,2019-03-31,一季度报告,315458768.54,2019,3,6.068401090032574,False,0.4667100315546,True,0.1273254884563746,False,前期平均,887773754.585,1165066667.0,1165066667.0
22,601666,686396426.28,595412162.0,2019-06-30,半年度报告,584717295.4399999,2019,6,1.0254034378257442,False,0.3285794070659558,True,2.528238357690113,False,前期平均,1206668159.31,1215696667.0,1206668159.31
23,601666,1020379833.55,887374585.3399998,2019-09-30,三季度报告,866131872.52,2019,9,0.20305657732292987,True,0.2103311862655446,True,2.6743541381586255,False,平均增速,1628853730.4177487,1167020000.0,1167020000.0
24,601666,1328832613.23,1155028533.25,2019-12-31,年度报告,1132715295.02,2019,12,-0.16441713105337183,True,0.24320342269137155,True,0.0,True,比例外推,1155028533.25,,1155028533.25
25,601666,372678841.22,299699136.06,2020-03-31,一季度报告,299576278.99,2020,3,0.9884714182482905,False,0.5268797376003929,True,0.1172601995591227,False,前期平均,1134264279.375,1143070000.0,1134264279.375
