,SECURITYCODE_x,NETPROFIT_x,PARENTNETPROFIT_x,REPORTDATE_x,REPORTTIMETYPE_x,KCFJCXSYJLR,Year,Month,managesituationChangeRate,managesituationGreatChange,historyprofitextroplaterate,ifhistoryprofitextroplate,IfprofitdisStableChangeRage,IfprofitdisStable,predicttype,predict,analyst_prediction,adj_prediction
0,601600,723479000.0000001,947891000.0,2013-12-31,年度报告,-7794691000.0,2013,12,未知,未知,未知,未知,未知,未知,未知,未知,未知,未知
1,601600,-2233537999.9999995,-2156527000.0,2014-03-31,一季度报告,-2233123000.0,2014,3,未知,未知,未知,未知,未知,未知,未知,未知,未知,未知
2,601600,-4245788000.0,-4123432000.0,2014-06-30,半年度报告,-4582319000.0,2014,6,未知,未知,未知,未知,未知,未知,未知,未知,未知,未知
3,601600,-5486092000.0,-5412039000.0,2014-09-30,三季度报告,-6153671999.999999,2014,9,未知,未知,未知,未知,未知,未知,未知,未知,未知,未知
4,601600,-17040722999.999996,-16208170000.0,2014-12-31,年度报告,-17394729999.999996,2014,12,0.0,True,未知,未知,未知,未知,未知,未知,未知,未知
5,601600,73172000.0,47994000.0,2015-03-31,一季度报告,-896702000.0,2015,3,-1.3239161366406125,False,未知,未知,未知,未知,未知,未知,342944433.0,未知
6,601600,179069000.0,1543000.0,2015-06-30,半年度报告,-1493838000.0,2015,6,-1.1703992286002034,False,未知,未知,未知,未知,未知,未知,167666667.00000003,未知
7,601600,-768049999.9999998,-974615000.0000002,2015-09-30,三季度报告,-2924879000.0,2015,9,-1.131875112557354,False,未知,未知,未知,未知,未知,未知,129000000.0,未知
8,601600,-768049999.9999998,-974615000.0000002,2015-09-30,三季度报告,-2924879999.9999995,2015,9,-1.131875112557354,False,未知,未知,未知,未知,未知,未知,129000000.0,未知
9,601600,367013000.0,148622000.0,2015-12-31,年度报告,-6527738000.0,2015,12,-1.0424558864081062,False,未知,未知,未知,未知,未知,未知,-750300000.0,未知
10,601600,37327000.0,18018000.0,2016-03-31,一季度报告,-609488000.0,2016,3,8.887374952167498,False,未知,未知,未知,未知,未知,未知,-1106050000.0,未知
11,601600,361517000.0,67923000.0,2016-06-30,半年度报告,-749758000.0000001,2016,6,3.040224717846194,False,未知,未知,未知,未知,未知,未知,313400000.0,未知
12,601600,524149000.0,124272000.0,2016-09-30,三季度报告,-851079000.0000001,2016,9,-1.9419686218345167,False,未知,未知,0.0,True,未知,未知,416480000.0,未知
13,601600,1221373000.0000002,368412000.00000006,2016-12-31,年度报告,-402403000.0000001,2016,12,0.97126259832758,False,-1.0449846800109137,True,0.9211648642521272,False,前期平均,368412000.00000006,572392500.0,572392500.0
14,601600,650073999.9999999,382928000.0,2017-03-31,一季度报告,343651000.0,2017,3,18.382189835775716,False,-1.0345561816840294,True,1.0780425048417526,False,前期平均,-10013393499.999998,2536196000.0,2536196000.0
15,601600,1230505000.0000002,736876999.9999999,2017-06-30,半年度报告,543377999.9999999,2017,6,1.001230924133582,False,-1.1777929579102957,True,1.1427158724825972,False,前期平均,-8186278499.999998,2741227500.0,2741227500.0
16,601600,2210021000.0,1347839000.0,2017-09-30,三季度报告,1265561000.0000002,2017,9,0.38029262671492287,True,-1.1676165971287509,True,0.0,True,比例外推,1383926133.7226486,2752586250.0,2752586250.0
17,601600,2405276000.0000005,1413027999.9999998,2017-12-31,年度报告,814723000.0000001,2017,12,-0.4076510615512215,True,-1.146502847896479,True,0.8233576161466092,False,平均增速,1413027999.9999998,2758521111.0,2758521111.0
18,601600,486693999.9999999,304507999.99999994,2018-03-31,一季度报告,22262000.0,2018,3,0.11291791396056487,True,10.766151729879907,False,0.9435369382280936,False,未知,未知,2800632807.0,未知
19,601600,1334977000.0000002,821627000.0,2018-06-30,半年度报告,70856000.0,2018,6,-0.4120470863588527,True,3.552485635958017,False,0.9240722073714224,False,未知,未知,2078910000.0,未知
20,601600,2302985000.0,1460652000.0,2018-09-30,三季度报告,722114999.9999999,2018,9,-0.6726370473402742,True,-19.122279121446834,True,0.0,True,比例外推,1264805607.004302,2052301175.0,2052301175.0
21,601600,1568811000.0000005,831213000.0,2018-12-31,年度报告,119144000.0,2018,12,-0.6992116497233583,True,2.0285786956067358,False,0.806863757925963,False,未知,未知,3791468000.0,未知
22,601600,540869999.9999999,444926000.0,2019-03-31,一季度报告,33476000.0,2019,3,0.48651719560956225,True,0.4160410008132079,True,0.8215821845352365,False,平均增速,618788978.1891468,1992925556.0,1992925556.0
23,601600,1170015000.0,705762000.0,2019-06-30,半年度报告,114715000.0,2019,6,-0.4580588279798079,True,0.6770836081410936,True,2.817787677877994,False,平均增速,795201742.482833,1498755713.9999998,1498755713.9999998
24,601600,1460288000.0,808371000.0,2019-09-30,三季度报告,92555000.0,2019,9,-0.6858516230023209,True,0.6845953250895153,True,0.0,True,比例外推,744355303.3766452,1174179421.0,1174179421.0
25,601600,1488081000.0,850999000.0,2019-12-31,年度报告,230494000.00000003,2019,12,-0.5388360994409143,True,0.1348426605386956,True,0.17050554910847665,False,平均增速,850999000.0,2365200000.0,2365200000.0
26,601600,133776000.0,30718000.00000001,2020-03-31,一季度报告,-291276000.0,2020,3,0.33762087007968694,True,0.04840741470555119,True,未知,未知,True,True,664326688.0,664326688.0
