,SECURITYCODE_x,NETPROFIT_x,PARENTNETPROFIT_x,REPORTDATE_x,REPORTTIMETYPE_x,KCFJCXSYJLR,Year,Month,managesituationChangeRate,managesituationGreatChange,historyprofitextroplaterate,ifhistoryprofitextroplate,IfprofitdisStableChangeRage,IfprofitdisStable,predicttype,predict,analyst_prediction,adj_prediction
0,601619,11769500.0,11834900.0,2012-12-31,年度报告,14031400.0,2012,12,未知,未知,未知,未知,未知,未知,未知,未知,未知,未知
1,601619,42876299.99999999,42962400.0,2013-12-31,年度报告,43657500.0,2013,12,0.0,True,未知,未知,未知,未知,未知,未知,未知,未知
2,601619,50461197.43000002,50461584.15000001,2014-12-31,年度报告,54588348.13,2014,12,-0.7255010343709695,True,未知,未知,未知,未知,未知,未知,未知,未知
3,601619,56546300.00000001,56546300.00000001,2015-09-30,三季度报告,61608499.99999999,2015,9,未知,未知,未知,未知,未知,未知,未知,未知,未知,未知
4,601619,52019375.25999999,52019400.37000001,2015-12-31,年度报告,32496982.92,2015,12,-0.7667613810328877,True,0.8468463241456811,True,0.0,True,比例外推,52019400.37000001,未知,52019400.37000001
5,601619,43958824.86,43958824.86,2016-06-30,半年度报告,43952692.42,2016,6,未知,未知,未知,未知,未知,未知,未知,未知,未知,未知
6,601619,88496029.71,88497893.25999999,2016-09-30,三季度报告,86200198.0,2016,9,-0.7918608290904976,True,未知,未知,未知,未知,未知,未知,未知,未知
7,601619,136966836.16,136968710.73000002,2016-12-31,年度报告,136240485.11000004,2016,12,-0.7737477633828853,True,0.11465116790843417,True,0.0,True,比例外推,136968710.73000002,未知,136968710.73000002
8,601619,28898184.14000001,28898288.85,2017-03-31,一季度报告,28852609.11000001,2017,3,未知,未知,未知,未知,未知,未知,未知,未知,未知,未知
9,601619,90151090.41,90151228.25,2017-06-30,半年度报告,89702218.04999997,2017,6,-0.7322608136708958,True,未知,未知,未知,未知,未知,未知,218000000.0,未知
10,601619,128474411.51999998,128474624.99999996,2017-09-30,三季度报告,127911240.07,2017,9,-0.86700533302377,True,未知,未知,未知,未知,未知,未知,,未知
11,601619,164962318.70000002,164962775.88000005,2017-12-31,年度报告,146154134.72999996,2017,12,-0.914070439750457,True,1.6730302644642645,True,0.0,True,比例外推,164962775.88000005,未知,164962775.88000005
12,601619,49422411.72999999,49422599.23,2018-03-31,一季度报告,49422599.23,2018,3,-0.5927252749521723,True,未知,未知,未知,未知,未知,未知,未知,未知
13,601619,157429331.06,157429075.63000005,2018-06-30,半年度报告,157429075.63000005,2018,6,-0.869446947935147,True,未知,未知,未知,未知,未知,未知,未知,未知
14,601619,246753914.72,246753449.57,2018-09-30,三季度报告,246929446.68,2018,9,-0.9083903178792315,True,0.7715436835146513,True,0.7612525564300316,False,平均增速,288375160.40017396,未知,288375160.40017396
15,601619,269312020.27000004,269312456.63,2018-12-31,年度报告,269466454.01,2018,12,-0.9286534034393396,True,0.7457603648489503,True,0.0,True,比例外推,269312456.63,未知,269312456.63
16,601619,45401472.89,45401472.89,2019-03-31,一季度报告,45401109.44,2019,3,-0.761859051632323,True,未知,未知,未知,未知,未知,未知,未知,未知
17,601619,154600350.76,154600350.76,2019-06-30,半年度报告,154603528.65999997,2019,6,-0.9252394714456713,True,1.3477657225127857,True,0.18425124902303064,False,平均增速,291302306.7465402,未知,291302306.7465402
18,601619,234684077.8,234684148.93,2019-09-30,三季度报告,234662980.24,2019,9,-0.952302681749324,True,1.274539456353209,True,0.175377465004804,False,平均增速,261825061.31342334,未知,261825061.31342334
19,601619,293209569.39,293209604.92,2019-12-31,年度报告,290637294.6,2019,12,-0.9562979031229262,True,0.7839418018102687,True,0.0,True,比例外推,293209604.92,未知,293209604.92
20,601619,48239964.98,48239981.7,2020-03-31,一季度报告,49674735.77,2020,3,-0.740768322020841,True,0.15937506311518307,True,0.022798923711511515,True,比例外推,276060394.3696867,未知,276060394.3696867
