,SECURITYCODE_x,NETPROFIT_x,PARENTNETPROFIT_x,REPORTDATE_x,REPORTTIMETYPE_x,KCFJCXSYJLR,Year,Month,managesituationChangeRate,managesituationGreatChange,historyprofitextroplaterate,ifhistoryprofitextroplate,IfprofitdisStableChangeRage,IfprofitdisStable,predicttype,predict,analyst_prediction,adj_prediction
0,601788,283622910.82000005,205836529.58,2013-12-31,年度报告,554464121.6,2013,12,未知,未知,未知,未知,未知,未知,未知,未知,未知,未知
1,601788,246149142.85,229925393.98,2014-03-31,一季度报告,227952279.41,2014,3,未知,未知,未知,未知,未知,未知,未知,未知,未知,未知
2,601788,408306130.19000006,381081640.32999986,2014-06-30,半年度报告,376411924.71,2014,6,未知,未知,未知,未知,未知,未知,未知,未知,未知,未知
3,601788,944587682.36,898579936.89,2014-09-30,三季度报告,893406323.3199998,2014,9,未知,未知,未知,未知,未知,未知,未知,未知,未知,未知
4,601788,2136623106.82,2068307502.08,2014-12-31,年度报告,2060488904.46,2014,12,0.0,True,未知,未知,未知,未知,未知,未知,未知,未知
5,601788,1535348356.67,1512749998.7299993,2015-03-31,一季度报告,1509695523.98,2015,3,0.15224009125571514,True,未知,未知,未知,未知,未知,未知,4793777778.0,未知
6,601788,4956189276.09,4878026226.81,2015-06-30,半年度报告,4787668010.990001,2015,6,-0.30536700321393717,True,未知,未知,未知,未知,未知,未知,6835416250.0,未知
7,601788,6085997480.739999,5999694420.940002,2015-09-30,三季度报告,5900946421.790001,2015,9,-0.6997389272413717,True,未知,未知,未知,未知,未知,未知,7168500000.0,未知
8,601788,7746855227.1900015,7646516077.129998,2015-12-31,年度报告,7537978317.1900015,2015,12,-0.8672564618838535,True,未知,未知,未知,未知,未知,未知,3062666667.0,未知
9,601788,604789203.3100003,596717370.17,2016-03-31,一季度报告,591595673.9499999,2016,3,-0.8152712968442245,True,未知,未知,未知,未知,未知,未知,4002866000.0,未知
10,601788,1531565444.31,1514708628.0800002,2016-06-30,半年度报告,1391766534.3000002,2016,6,-0.9427739952975014,True,未知,未知,未知,未知,未知,未知,3770192500.0,未知
11,601788,2411075025.3500004,2386337934.74,2016-09-30,三季度报告,2262992196.68,2016,9,-0.9533974649648534,True,未知,未知,未知,未知,未知,未知,3666197500.0,未知
12,601788,3076689539.09,3013019180.7499995,2016-12-31,年度报告,2885600649.86,2016,12,-0.9633886393249564,True,5.401708893002554,False,0.0,True,比例外推,3013019180.7499995,5333121111.0,5333121111.0
13,601788,614321117.3900001,587211411.32,2017-03-31,一季度报告,435332584.34,2017,3,-0.5310384026901654,True,0.3210327789144218,True,0.061344888513299,True,比例外推,2683248997.538808,3533500000.0,3533500000.0
14,601788,1286674216.44,1237488072.86,2017-06-30,半年度报告,976837152.38,2017,6,-0.8148150234952724,True,0.42899925218798496,True,0.2506973662912656,False,平均增速,3270928652.387108,2796333333.0,2796333333.0
15,601788,2348187977.8499994,2269674812.76,2017-09-30,三季度报告,2005194661.73,2017,9,-0.8823666174474067,True,0.3141182506387892,True,0.2332953051501973,False,平均增速,3174529588.889061,3011000000.0,3174529588.889061
16,601788,3126998582.7699995,3016470221.54,2017-12-31,年度报告,2746836892.35,2017,12,-0.9078155572031203,True,0.37740754112794184,True,0.0,True,比例外推,3016470221.54,3080600000.0,3016470221.54
17,601788,770016205.0899999,731457446.7700001,2018-03-31,一季度报告,680861848.6300002,2018,3,-0.5383148929911474,True,0.4259050176235018,True,0.02944164813502992,True,比例外推,3673613788.734599,3314584286.0,3314584286.0
18,601788,1040688719.5199996,968792385.26,2018-06-30,半年度报告,827879159.8500001,2018,6,-0.7795689793141776,True,0.6033530021120556,True,0.1441140601219466,False,平均增速,2309452031.601617,2568881250.0,2568881250.0
19,601788,1280893617.09,1176776113.91,2018-09-30,三季度报告,1033339773.8400002,2018,9,-0.8792162665445186,True,0.44729482391329195,True,0.03568738991537124,True,比例外推,1492992248.5240273,2234000000.0,2234000000.0
20,601788,243847428.42,103322859.82000002,2018-12-31,年度报告,1005721054.86,2018,12,-0.9092986762505157,True,0.42218586418897713,True,0.0,True,比例外推,103322859.82000002,,103322859.82000002
21,601788,1357112348.4499998,1317249830.09,2019-03-31,一季度报告,1230631433.5200002,2019,3,-0.6316663091696232,True,0.26324286164334126,True,0.3301586638914121,False,平均增速,1717880181.6909363,2603200000.0,2603200000.0
22,601788,1682118675.99,1609064928.56,2019-06-30,半年度报告,1743095513.8200006,2019,6,-0.7274661428531517,True,0.2614618735135905,True,0.26946754663317196,False,平均增速,1854888654.8357377,2510250000.0,2510250000.0
23,601788,2367002341.8399987,2267122981.6800003,2019-09-30,三季度报告,2411087206.28,2019,9,-0.7785741867741138,True,0.4617260629518639,True,0.18022858741742342,False,平均增速,2225800953.1806493,2704500000.0,2704500000.0
24,601788,694088301.0799999,567944886.3000001,2019-12-31,年度报告,1990064011.4900005,2019,12,0.1631162676503245,True,0.9213863032344414,True,0.0,True,比例外推,567944886.3000001,2389830000.0,2389830000.0
25,601788,1146978359.4800005,1103792187.0,2020-03-31,一季度报告,970925446.9400004,2020,3,-0.7910099991766086,True,0.9606671385826289,True,0.3261355071261044,False,平均增速,1848569978.3367956,2542500000.0,2542500000.0
