,SECURITYCODE_x,NETPROFIT_x,PARENTNETPROFIT_x,REPORTDATE_x,REPORTTIMETYPE_x,KCFJCXSYJLR,Year,Month,managesituationChangeRate,managesituationGreatChange,historyprofitextroplaterate,ifhistoryprofitextroplate,IfprofitdisStableChangeRage,IfprofitdisStable,predicttype,predict,analyst_prediction,adj_prediction
0,601778,33807547.3,22248731.06,2015-12-31,年度报告,29737031.06000001,2015,12,未知,未知,未知,未知,未知,未知,未知,未知,未知,未知
1,601778,107934167.78,96973323.06,2016-12-31,年度报告,128147814.69,2016,12,0.0,True,未知,未知,未知,未知,未知,未知,未知,未知
2,601778,679470821.5,671556868.0600001,2017-12-31,年度报告,663573179.2500001,2017,12,-0.6867762267004344,True,未知,未知,未知,未知,未知,未知,未知,未知
3,601778,294605055.85999995,290112332.89,2018-06-30,半年度报告,296874432.89000005,2018,6,未知,未知,未知,未知,未知,未知,未知,未知,未知,未知
4,601778,910443848.6699998,902058483.52,2018-12-31,年度报告,932515536.2400002,2018,12,-0.950244298606721,True,8.587450259318537,False,0.0,True,比例外推,902058483.52,未知,902058483.52
5,601778,-74067871.20999998,-74806251.53999999,2019-03-31,一季度报告,-45120876.43,2019,3,未知,未知,未知,未知,未知,未知,未知,未知,未知,未知
6,601778,241249792.03,236524817.8,2019-06-30,半年度报告,242442117.79999992,2019,6,-0.8852445108203921,True,未知,未知,未知,未知,未知,未知,未知,未知
7,601778,505191588.62,497884222.5900001,2019-09-30,三季度报告,560994273.82,2019,9,未知,未知,未知,未知,未知,未知,未知,未知,未知,未知
8,601778,734538046.9800001,728700165.51,2019-12-31,年度报告,798655836.54,2019,12,-0.9628669606045591,True,1.3125173476548735,True,0.0,True,比例外推,728700165.51,未知,728700165.51
9,601778,-22950728.53,-24302848.390000004,2020-03-31,一季度报告,-30845338.070000004,2020,3,-1.4564401102354836,False,未知,未知,未知,未知,未知,未知,未知,未知
