,SECURITYCODE_x,NETPROFIT_x,PARENTNETPROFIT_x,REPORTDATE_x,REPORTTIMETYPE_x,KCFJCXSYJLR,Year,Month,managesituationChangeRate,managesituationGreatChange,historyprofitextroplaterate,ifhistoryprofitextroplate,IfprofitdisStableChangeRage,IfprofitdisStable,predicttype,predict,analyst_prediction,adj_prediction
0,601727,4424749000.0,2462791999.9999995,2013-12-31,年度报告,1762821000.0,2013,12,未知,未知,未知,未知,未知,未知,未知,未知,未知,未知
1,601727,1026022000.0,669784000.0000001,2014-03-31,一季度报告,604645000.0,2014,3,未知,未知,未知,未知,未知,未知,未知,未知,未知,未知
2,601727,2270830000.0,1295934000.0,2014-06-30,半年度报告,1108128000.0,2014,6,未知,未知,未知,未知,未知,未知,未知,未知,未知,未知
3,601727,3346517000.000001,1788819000.0000005,2014-09-30,三季度报告,1395835000.0,2014,9,未知,未知,未知,未知,未知,未知,未知,未知,未知,未知
4,601727,4725785999.999998,2554487000.0,2014-12-31,年度报告,2152671000.0,2014,12,0.0,True,未知,未知,未知,未知,未知,未知,未知,未知
5,601727,1050069000.0,651206000.0000001,2015-03-31,一季度报告,638995000.0000001,2015,3,3.3125283863308974,False,未知,未知,未知,未知,未知,未知,3186666667.0,未知
6,601727,2540878000.0,1419325000.0,2015-06-30,半年度报告,1155596000.0,2015,6,0.9485161813081561,False,未知,未知,未知,未知,未知,未知,2584000000.0,未知
7,601727,3852163000.0,1898506999.9999995,2015-09-30,三季度报告,1313625999.9999998,2015,9,0.32219528542660886,True,未知,未知,未知,未知,未知,未知,2105000000.0,未知
8,601727,3852163000.0,1898506999.9999995,2015-09-30,三季度报告,1307339000.0,2015,9,0.32219528542660886,True,未知,未知,未知,未知,未知,未知,2105000000.0,未知
9,601727,4894995000.0,2142615000.0,2015-12-31,年度报告,1117697000.0,2015,12,-0.06370093779108876,True,未知,未知,未知,未知,未知,未知,2105000000.0,未知
10,601727,929887000.0,504877000.0,2016-03-31,一季度报告,445484000.00000006,2016,3,3.213769761796606,False,未知,未知,未知,未知,未知,未知,2459000000.0,未知
11,601727,2430429999.9999995,1249356000.0000002,2016-06-30,半年度报告,999673000.0,2016,6,0.741425208136715,False,未知,未知,未知,未知,未知,未知,2078000000.0,未知
12,601727,3997844000.0,2043869000.0,2016-09-30,三季度报告,1413199999.9999998,2016,9,0.1486401276373819,True,未知,未知,0.0,True,未知,未知,2254500000.0,未知
13,601727,4812077000.0,2396852000.0,2016-12-31,年度报告,1384510000.0,2016,12,-0.09606669669734086,True,0.06988170637017421,True,0.18025647452556764,False,平均增速,2396852000.0,2864000000.0,2864000000.0
14,601727,897278000.0000002,536458000.0,2017-03-31,一季度报告,451797000.0,2017,3,3.7583727915327345,False,0.10419437298268718,True,0.2770021201253716,False,前期平均,1549822000.0,2149503333.0,2149503333.0
15,601727,2592330000.0,1562508999.9999998,2017-06-30,半年度报告,1152843999.9999998,2017,6,0.8205622050419065,False,0.010215083708321254,True,0.29972637642113853,False,前期平均,2065830999.9999998,,2065830999.9999998
16,601727,3549849000.0,1877448000.0,2017-09-30,三季度报告,1361922999.9999998,2017,9,0.10678380647168824,True,0.11071585346202345,True,0.0,True,比例外推,1951930798.7669756,2141500000.0,1951930798.7669756
17,601727,5006213000.0,2659576000.0,2017-12-31,年度报告,1696802000.0,2017,12,-0.08049081508878599,True,0.00035059523753860607,True,0.0,True,比例外推,2659576000.0,2139000000.0,2139000000.0
18,601727,5006213000.0,2659576000.0,2017-12-31,年度报告,1696802000.0,2017,12,-0.08049081508878599,True,0.00035059523753860607,True,0.18512895989932754,False,平均增速,2659576000.0,2139000000.0,2139000000.0
19,601727,1553654.0000000002,1553654.0000000002,2017-12-31,年度报告,1696802000.0,2017,12,-0.08049081508878599,True,0.00035059523753860607,True,0.0,True,比例外推,1553654.0000000002,2139000000.0,2139000000.0
20,601727,1553654.0000000002,1553654.0000000002,2017-12-31,年度报告,1696802000.0,2017,12,-0.08049081508878599,True,0.00035059523753860607,True,0.18512895989932754,False,平均增速,1553654.0000000002,2139000000.0,2139000000.0
21,601727,1123471000.0000002,657420000.0,2018-03-31,一季度报告,572484000.0,2018,3,3.9313022274033234,False,0.09363844449068541,True,0.18512895989932754,False,前期平均,1366284000.0,3126000000.0,3126000000.0
22,601727,1123471000.0000002,657420000.0,2018-03-31,一季度报告,572484000.0,2018,3,3.9313022274033234,False,0.09363844449068541,True,0.22211786017556656,False,前期平均,1366284000.0,3126000000.0,3126000000.0
23,601727,-2304970.0,-2304970.0,2018-03-31,一季度报告,572484000.0,2018,3,3.9313022274033234,False,0.09363844449068541,True,0.18512895989932754,False,盈利变化,2820492000.0,3126000000.0,2820492000.0
24,601727,-2304970.0,-2304970.0,2018-03-31,一季度报告,572484000.0,2018,3,3.9313022274033234,False,0.09363844449068541,True,0.22211786017556656,False,盈利变化,2820492000.0,3126000000.0,2820492000.0
25,601727,2937635999.9999995,1766022999.9999995,2018-06-30,半年度报告,1412752000.0,2018,6,0.7068617807146467,False,0.04291667303655296,True,0.19691234082478404,False,前期平均,1939491999.9999995,1777000000.0,1939491999.9999995
26,601727,3971972000.0,2169116000.0,2018-09-30,三季度报告,1661768000.0,2018,9,0.24646118750403187,True,0.09558067910003137,True,0.0,True,比例外推,2169858432.5695333,2480500000.0,2480500000.0
27,601727,5478621999.999998,3016524999.9999995,2018-12-31,年度报告,1900974000.0,2018,12,-0.116148473906324,True,0.03145685949377938,True,0.030129420403253282,True,比例外推,3016524999.9999995,2542000000.0,2542000000.0
28,601727,1134434999.9999998,762298000.0,2019-03-31,一季度报告,360712000.0,2019,3,2.9384630310884745,False,0.22974225097350276,True,0.03545681282510216,True,前期平均,1854313500.0,2601000000.0,2601000000.0
29,601727,2899908000.0,1846457000.0,2019-06-30,半年度报告,1345419000.0,2019,6,0.5062277967726433,False,0.1697297899959383,True,0.12154552268416363,False,前期平均,2310854500.0,,2310854500.0
30,601727,3735103000.000001,2211836999.9999995,2019-09-30,三季度报告,1509612000.0000002,2019,9,0.1139929989435978,True,0.0524996180952246,True,0.0,True,比例外推,2381107638.980216,2773000000.0,2773000000.0
31,601727,5812609999.999999,3501036999.9999995,2019-12-31,年度报告,996307000.0,2019,12,-0.19236096230037378,True,0.11600329588960971,True,0.05222709198116704,True,比例外推,3501036999.9999995,2773000000.0,2773000000.0
32,601727,136981000.0,113524000.0,2020-03-31,一季度报告,62720000.0,2020,3,2.900398876974001,False,0.12278664990060566,True,未知,未知,前期平均,1400271500.0,3669000000.0,3669000000.0
