,SECURITYCODE_x,NETPROFIT_x,PARENTNETPROFIT_x,REPORTDATE_x,REPORTTIMETYPE_x,KCFJCXSYJLR,Year,Month,managesituationChangeRate,managesituationGreatChange,historyprofitextroplaterate,ifhistoryprofitextroplate,IfprofitdisStableChangeRage,IfprofitdisStable,predicttype,predict,analyst_prediction,adj_prediction
0,601878,403230607.25999993,403230607.25999993,2013-12-31,年度报告,391606171.51000017,2013,12,未知,未知,未知,未知,未知,未知,未知,未知,未知,未知
1,601878,750242395.43,750242395.43,2014-12-31,年度报告,739138528.22,2014,12,0.0,True,未知,未知,未知,未知,未知,未知,未知,未知
2,601878,982039283.03,982039283.03,2015-06-30,半年度报告,,2015,6,未知,未知,未知,未知,未知,未知,未知,未知,未知,未知
3,601878,1834338303.77,1834457999.29,2015-12-31,年度报告,1823885436.83,2015,12,-0.4625328964129132,True,未知,未知,未知,未知,未知,未知,未知,未知
4,601878,198146510.47,198146510.47,2016-03-31,一季度报告,190135057.82,2016,3,未知,未知,未知,未知,未知,未知,未知,未知,未知,未知
5,601878,518610419.37,518610419.37,2016-06-30,半年度报告,509152419.95,2016,6,-0.5893946258281383,True,未知,未知,未知,未知,未知,未知,未知,未知
6,601878,979509043.02,979509043.02,2016-09-30,三季度报告,966679959.39,2016,9,未知,未知,未知,未知,未知,未知,未知,未知,未知,未知
7,601878,1240999462.0800002,1240892309.0400002,2016-12-31,年度报告,1225483854.0400002,2016,12,-0.7801765320872025,True,2.1805483084426993,False,0.0,True,比例外推,1240892309.0400002,未知,1240892309.0400002
8,601878,263921256.39,263921256.39,2017-03-31,一季度报告,259993549.55000007,2017,3,1.0350124072513016,False,未知,未知,未知,未知,未知,未知,未知,未知
9,601878,526780112.7000001,526780112.7000001,2017-06-30,半年度报告,513932623.37000006,2017,6,-0.22247877751889694,True,未知,未知,未知,未知,未知,未知,1273714286.0,未知
10,601878,811777417.32,811777417.32,2017-09-30,三季度报告,796935473.1000001,2017,9,-0.5883339616582114,True,未知,未知,未知,未知,未知,未知,1194333341.0,未知
11,601878,1063507778.68,1063507778.68,2017-12-31,年度报告,1047108572.4299996,2017,12,-0.6750759209966475,True,0.0396899098843195,True,0.0,True,比例外推,1063507778.68,未知,1063507778.68
12,601878,200005835.44000003,200005835.44000003,2018-03-31,一季度报告,193581655.5000001,2018,3,0.527844375915446,False,未知,未知,未知,未知,未知,未知,1154333333.0,未知
13,601878,401136356.98000014,401136356.98000014,2018-06-30,半年度报告,391579950.98,2018,6,-0.23453714834971626,True,0.2979306071796545,True,,False,平均增速,807711078.5487328,,807711078.5487328
14,601878,561896499.64,561896499.64,2018-09-30,三季度报告,550395987.75,2018,9,-0.5032744214649079,True,未知,未知,未知,未知,未知,未知,未知,未知
15,601878,736957357.88,736957357.88,2018-12-31,年度报告,712299574.2,2018,12,-0.6208484645401654,True,0.30836359473116,True,0.0,True,比例外推,736957357.88,1426000000.0,1426000000.0
16,601878,273183310.85,273183310.85,2019-03-31,一季度报告,264973882.10000005,2019,3,1.0160942123159478,False,0.1343008546164227,True,0.06992154299437936,True,前期平均,1184415220.3999999,未知,1184415220.3999999
17,601878,481335091.55,481335091.55,2019-06-30,半年度报告,469698653.0700001,2019,6,0.005220793985782265,True,0.23256171799126313,True,0.06987023208044374,True,比例外推,979407321.9852931,1011000000.0,979407321.9852931
18,601878,708902225.34,708902225.34,2019-09-30,三季度报告,697702858.25,2019,9,-0.2823756554483883,True,0.3726335657856224,True,0.01461497108143106,True,比例外推,912391431.3091323,,912391431.3091323
19,601878,967557059.4300004,967557059.4300004,2019-12-31,年度报告,949593775.18,2019,12,-0.4528440445727137,True,0.3604208788365882,True,0.0,True,比例外推,967557059.4300004,未知,967557059.4300004
20,601878,319193627.46,319193627.46,2020-03-31,一季度报告,312693928.42,2020,3,0.47604407460090603,True,0.17769932241898234,True,0.018071965671469403,True,比例外推,1180414009.268217,1063000000.0,1063000000.0
