,SECURITYCODE_x,NETPROFIT_x,PARENTNETPROFIT_x,REPORTDATE_x,REPORTTIMETYPE_x,KCFJCXSYJLR,Year,Month,managesituationChangeRate,managesituationGreatChange,historyprofitextroplaterate,ifhistoryprofitextroplate,IfprofitdisStableChangeRage,IfprofitdisStable,predicttype,predict,analyst_prediction,adj_prediction
0,601869,485758198.0000001,488065272.0,2014-12-31,年度报告,462969972.0,2014,12,未知,未知,未知,未知,未知,未知,未知,未知,未知,未知
1,601869,550481673.9999999,563261053.0,2015-12-31,年度报告,497208824.00000006,2015,12,0.0,True,未知,未知,未知,未知,未知,未知,未知,未知
2,601869,693700171.0000001,717093240.0,2016-12-31,年度报告,688182964.0,2016,12,-0.11757607756439095,True,未知,未知,未知,未知,未知,未知,未知,未知
3,601869,215870155.00000003,221191200.00000003,2017-03-31,一季度报告,220075300.0,2017,3,未知,未知,未知,未知,未知,未知,未知,未知,未知,未知
4,601869,553169801.9999999,560524051.9999999,2017-06-30,半年度报告,554287912.0,2017,6,未知,未知,未知,未知,未知,未知,未知,未知,未知,未知
5,601869,923799055.0,930116503.0,2017-09-30,三季度报告,914448295.0,2017,9,未知,未知,未知,未知,未知,未知,未知,未知,未知,未知
6,601869,1234579084.0,1268353170.0,2017-12-31,年度报告,1235569866.0000002,2017,12,-0.2997577075701773,True,0.3388795195867548,True,0.0,True,比例外推,1268353170.0,未知,1268353170.0
7,601869,377081967.0,372066325.0,2018-03-31,一季度报告,367303873.0,2018,3,1.2502332385873354,False,未知,未知,未知,未知,未知,未知,未知,未知
8,601869,814231038.9999999,808683310.0000001,2018-06-30,半年度报告,794950001.0000001,2018,6,-0.12186421557408113,True,未知,未知,未知,未知,未知,未知,1747400000.0,未知
9,601869,1239717930.9999998,1237139624.0,2018-09-30,三季度报告,1217472769.9999998,2018,9,-0.47417331142431174,True,未知,未知,未知,未知,未知,未知,1720500000.0,未知
10,601869,1488030884.0,1489185053.0,2018-12-31,年度报告,1461405280.0000002,2018,12,-0.6065394236016394,True,0.9845637339291026,True,0.0,True,比例外推,1489185053.0,1642980000.0,1489185053.0
11,601869,246288766.0,253418943.0,2019-03-31,一季度报告,151722513.0,2019,3,0.28820320384082465,True,未知,未知,未知,未知,未知,未知,1175895000.0,未知
12,601869,425088107.0000001,436797231.0,2019-06-30,半年度报告,270137995.00000006,2019,6,-0.4034147867949306,True,未知,未知,未知,未知,未知,未知,975000000.0,未知
13,601869,637514316.0,653231470.0000002,2019-09-30,三季度报告,477606741.00000006,2019,9,-0.6081703863005591,True,未知,未知,未知,未知,未知,未知,,未知
14,601869,784284972.0000001,801225042.0,2019-12-31,年度报告,612937102.0,2019,12,-0.673556373578601,True,0.5433769565705358,True,0.0,True,比例外推,801225042.0,898000000.0,898000000.0
15,601869,-9396939.0,-7174583.0,2020-03-31,一季度报告,-15628419.999999998,2020,3,0.9723116319483289,False,0.16927941780769948,True,0.04754559502510863,True,盈利变化,578090464.6666666,919873333.0,919873333.0
