,SECURITYCODE_x,NETPROFIT_x,PARENTNETPROFIT_x,REPORTDATE_x,REPORTTIMETYPE_x,KCFJCXSYJLR,Year,Month,managesituationChangeRate,managesituationGreatChange,historyprofitextroplaterate,ifhistoryprofitextroplate,IfprofitdisStableChangeRage,IfprofitdisStable,predicttype,predict,analyst_prediction,adj_prediction
0,601865,391994605.34,391994605.34,2014-12-31,年度报告,378807192.27,2014,12,未知,未知,未知,未知,未知,未知,未知,未知,未知,未知
1,601865,430480439.79,430480439.79,2015-12-31,年度报告,415261485.09,2015,12,0.0,True,未知,未知,未知,未知,未知,未知,未知,未知
2,601865,603278528.14,603278528.14,2016-12-31,年度报告,575937174.5100001,2016,12,-0.08940205150499864,True,未知,未知,未知,未知,未知,未知,未知,未知
3,601865,426526763.03,426526763.03,2017-12-31,年度报告,407799972.35999984,2017,12,-0.35022616079412056,True,0.46698317891127283,True,0.0,True,比例外推,426526763.03,未知,426526763.03
4,601865,98487897.87,98487897.87,2018-03-31,一季度报告,94544349.91,2018,3,未知,未知,未知,未知,未知,未知,未知,未知,未知,未知
5,601865,212885131.1,212885131.1,2018-06-30,半年度报告,202876268.76999995,2018,6,未知,未知,未知,未知,未知,未知,未知,未知,未知,未知
6,601865,289876191.39000005,289876191.39000005,2018-09-30,三季度报告,273726498.75,2018,9,未知,未知,未知,未知,未知,未知,未知,未知,未知,未知
7,601865,407314716.31000006,407314716.31000006,2018-12-31,年度报告,370579172.93,2018,12,-0.08096129172455038,True,0.1748042314272203,True,0.0,True,比例外推,407314716.31000006,未知,407314716.31000006
8,601865,109214788.73,109214788.73,2019-03-31,一季度报告,97346860.13,2019,3,2.980129679053733,False,未知,未知,未知,未知,未知,未知,754333333.0,未知
9,601865,261419486.89999995,261419486.89999995,2019-06-30,半年度报告,235887709.92999995,2019,6,0.8413432789529376,False,未知,未知,未知,未知,未知,未知,704517143.0000001,未知
10,601865,507523407.12,507523407.12,2019-09-30,三季度报告,477219919.89,2019,9,0.3522828606941699,True,未知,未知,未知,未知,未知,未知,739887500.0,未知
11,601865,717243708.67,717243708.67,2019-12-31,年度报告,687927044.5500001,2019,12,-0.037612466126414695,True,0.20894809960194569,True,0.0,True,比例外推,717243708.67,744160000.0,717243708.67
12,601865,215166975.36,215166975.36,2020-03-31,一季度报告,208906472.92999995,2020,3,2.589208109069241,False,未知,未知,未知,未知,未知,未知,1025230769.0,未知
