,SECURITYCODE_x,NETPROFIT_x,PARENTNETPROFIT_x,REPORTDATE_x,REPORTTIMETYPE_x,KCFJCXSYJLR,Year,Month,managesituationChangeRate,managesituationGreatChange,historyprofitextroplaterate,ifhistoryprofitextroplate,IfprofitdisStableChangeRage,IfprofitdisStable,predicttype,predict,analyst_prediction,adj_prediction
0,601886,282514996.04,290832167.7,2013-12-31,年度报告,264310796.32,2013,12,未知,未知,未知,未知,未知,未知,未知,未知,未知,未知
1,601886,50768725.31000001,43663730.1,2014-03-31,一季度报告,26354979.82,2014,3,未知,未知,未知,未知,未知,未知,未知,未知,未知,未知
2,601886,213156168.58,177101276.52,2014-06-30,半年度报告,154498015.70999995,2014,6,未知,未知,未知,未知,未知,未知,未知,未知,未知,未知
3,601886,340345836.82000005,273559087.01,2014-09-30,三季度报告,235217838.80000004,2014,9,未知,未知,未知,未知,未知,未知,未知,未知,未知,未知
4,601886,379267005.95,276900851.20000005,2014-12-31,年度报告,230110199.32,2014,12,0.0,True,未知,未知,未知,未知,未知,未知,未知,未知
5,601886,56628928.29000001,50978870.74999999,2015-03-31,一季度报告,33827164.66,2015,3,4.564744718622126,False,未知,未知,未知,未知,未知,未知,456130000.0,未知
6,601886,220464424.04,200530361.23,2015-06-30,半年度报告,182170585.83,2015,6,0.32538972680008943,True,未知,未知,未知,未知,未知,未知,432680000.0,未知
7,601886,307915232.82,282017798.49,2015-09-30,三季度报告,259927472.25,2015,9,-0.16991787330304628,True,未知,未知,未知,未知,未知,未知,362280000.0,未知
8,601886,344470365.04,312528053.74999994,2015-12-31,年度报告,263542306.56000003,2015,12,-0.25510262794321503,True,未知,未知,未知,未知,未知,未知,332066667.0,未知
9,601886,100247248.65999997,75710451.28999999,2016-03-31,一季度报告,50215350.27,2016,3,3.9888812056132235,False,未知,未知,未知,未知,未知,未知,459020909.0,未知
10,601886,284764496.81999993,226357343.94000003,2016-06-30,半年度报告,175411217.37,2016,6,0.28145390019362887,True,未知,未知,未知,未知,未知,未知,447566000.0,未知
11,601886,414739590.19000006,321281718.43000007,2016-09-30,三季度报告,273695410.68000007,2016,9,-0.08249100425261635,True,未知,未知,未知,未知,未知,未知,399745000.0,未知
12,601886,468965960.67,351561761.84000003,2016-12-31,年度报告,294689123.02000004,2016,12,-0.17985689129689203,True,0.04103878317683596,True,0.0,True,比例外推,351561761.84000003,408600000.0,408600000.0
13,601886,85950722.52000001,79699092.44999997,2017-03-31,一季度报告,49587046.72,2017,3,1.8181820430621694,False,0.8668424364906226,True,0.03263815847404128,True,前期平均,296434273.15,453276667.0,453276667.0
14,601886,287931106.60999995,241507331.1600001,2017-06-30,半年度报告,220330673.41,2017,6,-0.007899512773257773,True,0.31342699893199516,True,0.05738805142509651,True,比例外推,358781119.5945051,430465000.0,430465000.0
15,601886,423635571.79,344173154.36,2017-09-30,三季度报告,320880047.09,2017,9,-0.31881353330514084,True,0.27954495376474814,True,0.050320187024697205,True,比例外推,351029402.2120984,,351029402.2120984
16,601886,591550545.3,466460034.18000007,2017-12-31,年度报告,415028068.71000016,2017,12,-0.39757888688471577,True,0.29595618374245813,True,0.0,True,比例外推,466460034.18000007,,466460034.18000007
17,601886,111889531.15,95406958.24,2018-03-31,一季度报告,92918391.83,2018,3,2.2869414910882355,False,0.09577788279981433,True,0.030989230071253288,True,前期平均,332501415.56500006,606056667.0,606056667.0
18,601886,366257737.42,315076251.98999995,2018-06-30,半年度报告,289931818.75000006,2018,6,-0.018810439183759346,True,0.13980453106241056,True,0.08545134189711667,True,比例外推,503747883.37107337,609685000.0,609685000.0
19,601886,511675877.6400001,442380112.5500001,2018-09-30,三季度报告,417995501.81,2018,9,-0.3331178615471761,True,0.17244238411216642,True,0.12291272819017962,False,平均增速,563168520.4992924,609000000.0,563168520.4992924
20,601886,738605897.18,608606499.0300001,2018-12-31,年度报告,566044104.9300003,2018,12,-0.5224161345388924,True,0.45444831169463884,True,0.0,True,比例外推,608606499.0300001,610370000.0,608606499.0300001
21,601886,115100902.23000003,114818690.4,2019-03-31,一季度报告,114265375.96000002,2019,3,1.524945749046514,False,0.20183405265823176,True,0.031865839945954114,True,前期平均,419776087.7700001,773168333.0,773168333.0
22,601886,371228128.01,330054609.48,2019-06-30,半年度报告,314661091.92,2019,6,-0.22864429286846544,True,0.27906600025005235,True,0.04913155075689846,True,比例外推,591579777.9091914,729040000.0,729040000.0
23,601886,566553130.0500001,465677034.99,2019-09-30,三季度报告,484119434.4700001,2019,9,-0.447863367444558,True,0.2206370151319117,True,0.11530551569987879,False,平均增速,654017593.861923,729040000.0,729040000.0
24,601886,539816704.3699999,352843338.36000013,2019-12-31,年度报告,365589435.71,2019,12,-0.6175023823684006,True,0.3929173059016843,True,0.0,True,比例外推,352843338.36000013,751596667.0,751596667.0
25,601886,35800315.98,22141943.96,2020-03-31,一季度报告,34295222.62,2020,3,1.454498536210127,False,0.16357414727126016,True,0.11382313976830874,False,前期平均,441425311.5050002,552350000.0,552350000.0
