,SECURITYCODE_x,NETPROFIT_x,PARENTNETPROFIT_x,REPORTDATE_x,REPORTTIMETYPE_x,KCFJCXSYJLR,Year,Month,managesituationChangeRate,managesituationGreatChange,historyprofitextroplaterate,ifhistoryprofitextroplate,IfprofitdisStableChangeRage,IfprofitdisStable,predicttype,predict,analyst_prediction,adj_prediction
0,601828,3269326098.26,3013180793.720001,2013-12-31,年度报告,1541541393.7200005,2013,12,未知,未知,未知,未知,未知,未知,未知,未知,未知,未知
1,601828,3506918486.1699986,3243054851.6600018,2014-12-31,年度报告,2188734651.66,2014,12,0.0,True,未知,未知,未知,未知,未知,未知,未知,未知
2,601828,1047521801.78,979438170.5399998,2015-03-31,一季度报告,,2015,3,未知,未知,未知,未知,未知,未知,未知,未知,未知,未知
3,601828,2258362613.1400003,2134117445.6099992,2015-06-30,半年度报告,,2015,6,未知,未知,未知,未知,未知,未知,未知,未知,未知,未知
4,601828,3491270981.65,3310837619.3,2015-09-30,三季度报告,,2015,9,未知,未知,未知,未知,未知,未知,未知,未知,未知,未知
5,601828,3341746181.36,3224867375.3499994,2015-12-31,年度报告,2386942269.65,2015,12,-0.06774961803274747,True,未知,未知,未知,未知,未知,未知,未知,未知
6,601828,1142772904.64,1052519495.42,2016-03-31,一季度报告,,2016,3,2.121010076071546,False,未知,未知,未知,未知,未知,未知,未知,未知
7,601828,1929216800.4100003,1856425762.55,2016-06-30,半年度报告,,2016,6,0.4476533038750444,True,未知,未知,未知,未知,未知,未知,未知,未知
8,601828,2689104650.03,2506415962.76,2016-09-30,三季度报告,1589434062.7599998,2016,9,-0.06357137115867961,True,未知,未知,未知,未知,未知,未知,未知,未知
9,601828,3673441821.08,3397183234.32,2016-12-31,年度报告,2072651764.43,2016,12,-0.021671329649137774,True,0.01368785033573286,True,0.0,True,比例外推,3397183234.32,未知,3397183234.32
10,601828,976907246.5600002,904190486.04,2017-03-31,一季度报告,583156163.0000001,2017,3,1.8608712063311594,False,未知,未知,未知,未知,未知,未知,未知,未知
11,601828,976907246.5600002,904190486.04,2017-03-31,一季度报告,583156163.0000001,2017,3,1.8608712063311594,False,未知,未知,未知,未知,未知,未知,未知,未知
12,601828,1264342520.13,1182330231.7900002,2017-03-31,一季度报告,583156163.0000001,2017,3,1.8608712063311594,False,未知,未知,未知,未知,未知,未知,未知,未知
13,601828,1264342520.13,1182330231.7900002,2017-03-31,一季度报告,583156163.0000001,2017,3,1.8608712063311594,False,未知,未知,未知,未知,未知,未知,未知,未知
14,601828,2156490581.8700004,2045171145.99,2017-06-30,半年度报告,1286401391.8700006,2017,6,0.6946390356776894,False,未知,未知,未知,未知,未知,未知,未知,未知
15,601828,4278013820.289999,4077897749.46,2017-12-31,年度报告,2305431475.69,2017,12,-0.11001010564560644,True,0.07274687823337186,True,0.0,True,比例外推,4077897749.46,未知,4077897749.46
16,601828,1264342520.13,1182330231.7900002,2018-03-31,一季度报告,800974751.6999997,2018,3,2.346608503286604,False,0.10796730348973115,True,,False,前期平均,,4586198000.0,
17,601828,1264342520.13,1182330231.7900002,2018-03-31,一季度报告,800974751.6999997,2018,3,2.346608503286604,False,0.10796730348973115,True,,False,前期平均,,4586198000.0,
18,601828,976907246.5600002,904190486.04,2018-03-31,一季度报告,800974751.6999997,2018,3,2.346608503286604,False,0.10796730348973115,True,,False,前期平均,,4586198000.0,
19,601828,976907246.5600002,904190486.04,2018-03-31,一季度报告,800974751.6999997,2018,3,2.346608503286604,False,0.10796730348973115,True,,False,前期平均,,4586198000.0,
20,601828,3213608490.55,3038609713.21,2018-06-30,半年度报告,1614825675.2799995,2018,6,0.5160400540330692,False,0.029946118701469907,True,,False,前期平均,,4716597500.0,
21,601828,4391527017.559999,4160235624.1500006,2018-09-30,三季度报告,2199292949.38,2018,9,未知,未知,未知,未知,未知,未知,未知,未知,5063970000.0,未知
22,601828,4705447303.110001,4477411242.46,2018-12-31,年度报告,2566153840.4400005,2018,12,-0.23578411954770676,True,0.219643384839304,True,0.0,True,比例外推,4477411242.46,5053865556.0,5053865556.0
23,601828,1393222665.87,1313999492.97,2019-03-31,一季度报告,847689668.62,2019,3,1.5857914656890975,False,0.1929559461263308,True,,False,前期平均,,5134018462.0,
24,601828,2861354229.8300004,2705544357.4400005,2019-06-30,半年度报告,1713037155.5800006,2019,6,0.017338019822216777,True,0.573097723291514,True,,False,平均增速,3739409238.528753,4974318889.0,4974318889.0
25,601828,4051302936.03,3783470202.91,2019-09-30,三季度报告,2312145285.73,2019,9,-0.25553774685041364,True,未知,未知,未知,未知,未知,未知,4794546000.0,未知
26,601828,4686241681.089997,4479681652.610001,2019-12-31,年度报告,2613622255.3099995,2019,12,-0.3052039715545886,True,0.1835436215297238,True,0.0,True,比例外推,4479681652.610001,4794546000.0,4479681652.610001
27,601828,400692425.40000015,393105082.68,2020-03-31,一季度报告,204824179.65,2020,3,1.346592672046765,False,0.2432551575254255,True,0.04352266864558718,True,前期平均,2136832283.3950005,4789868125.0,4789868125.0
