,SECURITYCODE_x,NETPROFIT_x,PARENTNETPROFIT_x,REPORTDATE_x,REPORTTIMETYPE_x,KCFJCXSYJLR,Year,Month,managesituationChangeRate,managesituationGreatChange,historyprofitextroplaterate,ifhistoryprofitextroplate,IfprofitdisStableChangeRage,IfprofitdisStable,predicttype,predict,analyst_prediction,adj_prediction
0,601827,340051488.29,232281396.2,2015-12-31,年度报告,226747296.2,2015,12,未知,未知,未知,未知,未知,未知,未知,未知,未知,未知
1,601827,333621094.11,301272082.79000014,2016-12-31,年度报告,288675882.79,2016,12,0.0,True,未知,未知,未知,未知,未知,未知,未知,未知
2,601827,467436082.9599999,452233027.04,2017-12-31,年度报告,436663587.3200002,2017,12,0.019274543167464728,True,未知,未知,未知,未知,未知,未知,未知,未知
3,601827,363137963.98,343674197.92,2018-06-30,半年度报告,300635997.92,2018,6,未知,未知,未知,未知,未知,未知,未知,未知,未知,未知
4,601827,534009564.41,513442604.1000001,2018-12-31,年度报告,452802943.6,2018,12,-0.27251767527946835,True,0.3877248241118261,True,0.0,True,比例外推,513442604.1000001,未知,513442604.1000001
5,601827,108356774.29,96323363.36999996,2019-03-31,一季度报告,92577515.23,2019,3,未知,未知,未知,未知,未知,未知,未知,未知,未知,未知
6,601827,278907629.68000007,264900033.28,2019-06-30,半年度报告,258993233.28000003,2019,6,-0.0635749439055386,True,未知,未知,未知,未知,未知,未知,未知,未知
7,601827,571348442.76,553519241.05,2019-12-31,年度报告,506314376.0999999,2019,12,-0.36321086558495336,True,0.33326204344920535,True,0.0,True,比例外推,553519241.05,未知,553519241.05
8,601827,132690186.25,120653741.08,2020-03-31,一季度报告,113080643.87999998,2020,3,2.1382577648528485,False,未知,未知,未知,未知,未知,未知,未知,未知
