,SECURITYCODE_x,NETPROFIT_x,PARENTNETPROFIT_x,REPORTDATE_x,REPORTTIMETYPE_x,KCFJCXSYJLR,Year,Month,managesituationChangeRate,managesituationGreatChange,historyprofitextroplaterate,ifhistoryprofitextroplate,IfprofitdisStableChangeRage,IfprofitdisStable,predicttype,predict,analyst_prediction,adj_prediction
0,601816,7903188041.400002,7903188041.400002,2016-12-31,年度报告,7903218962.710002,2016,12,未知,未知,未知,未知,未知,未知,未知,未知,未知,未知
1,601816,7903188041.400002,7903188041.400002,2016-12-31,年度报告,7903218962.710002,2016,12,未知,未知,未知,未知,未知,未知,未知,未知,未知,未知
2,601816,7903188000.000002,7903188000.000002,2016-12-31,年度报告,7903218962.710002,2016,12,未知,未知,未知,未知,未知,未知,未知,未知,未知,未知
3,601816,7903188000.000002,7903188000.000002,2016-12-31,年度报告,7903218962.710002,2016,12,未知,未知,未知,未知,未知,未知,未知,未知,未知,未知
4,601816,9053442247.06,9053442247.06,2017-12-31,年度报告,9028262631.13,2017,12,0.0,True,未知,未知,未知,未知,未知,未知,未知,未知
5,601816,9053442247.06,9053442247.06,2017-12-31,年度报告,9028262631.13,2017,12,0.0,True,未知,未知,未知,未知,未知,未知,未知,未知
6,601816,9053442200.000002,9053442200.000002,2017-12-31,年度报告,9028262631.13,2017,12,0.0,True,未知,未知,未知,未知,未知,未知,未知,未知
7,601816,9053442200.000002,9053442200.000002,2017-12-31,年度报告,9028262631.13,2017,12,0.0,True,未知,未知,未知,未知,未知,未知,未知,未知
8,601816,10247974582.180002,10247974582.180002,2018-12-31,年度报告,10247199592.71,2018,12,-0.12705158703956274,True,未知,未知,未知,未知,未知,未知,未知,未知
9,601816,10247974582.180002,10247974582.180002,2018-12-31,年度报告,10247199592.71,2018,12,-0.12705158703956274,True,未知,未知,未知,未知,未知,未知,未知,未知
10,601816,10247974600.0,10247974600.0,2018-12-31,年度报告,10247199592.71,2018,12,-0.12705158703956274,True,未知,未知,未知,未知,未知,未知,未知,未知
11,601816,10247974600.0,10247974600.0,2018-12-31,年度报告,10247199592.71,2018,12,-0.12705158703956274,True,未知,未知,未知,未知,未知,未知,未知,未知
12,601816,2266524103.0200005,2367472004.280001,2019-03-31,一季度报告,2555548169.57,2019,3,未知,未知,未知,未知,未知,未知,未知,未知,未知,未知
13,601816,9519964986.77,9519964986.77,2019-09-30,三季度报告,9496186038.46,2019,9,未知,未知,未知,未知,未知,未知,未知,未知,未知,未知
14,601816,9519964986.77,9519964986.77,2019-09-30,三季度报告,9496186038.46,2019,9,未知,未知,未知,未知,未知,未知,未知,未知,未知,未知
15,601816,9519964999.999998,9519964999.999998,2019-09-30,三季度报告,9496186038.46,2019,9,未知,未知,未知,未知,未知,未知,未知,未知,未知,未知
16,601816,9519964999.999998,9519964999.999998,2019-09-30,三季度报告,9496186038.46,2019,9,未知,未知,未知,未知,未知,未知,未知,未知,未知,未知
17,601816,11937249779.209995,11937249779.209995,2019-12-31,年度报告,11913464045.03,2019,12,-0.22880487475615943,True,0.20872772571498013,True,0.0,True,比例外推,11937249779.209995,11891000000.0,11937249779.209995
18,601816,112757866.23,323585702.98999995,2020-03-31,一季度报告,427543058.78,2020,3,2.4869199188614415,False,未知,未知,未知,未知,未知,未知,8732022500.0,未知
