,SECURITYCODE_x,NETPROFIT_x,PARENTNETPROFIT_x,REPORTDATE_x,REPORTTIMETYPE_x,KCFJCXSYJLR,Year,Month,managesituationChangeRate,managesituationGreatChange,historyprofitextroplaterate,ifhistoryprofitextroplate,IfprofitdisStableChangeRage,IfprofitdisStable,predicttype,predict,analyst_prediction,adj_prediction
0,601808,1417686396.9999998,1409964296.9999998,2014-03-31,一季度报告,1370400000.0,2014,3,未知,未知,未知,未知,未知,未知,未知,未知,未知,未知
1,601808,4438989890.0,4424022037.000001,2014-06-30,半年度报告,4302600000.0,2014,6,未知,未知,未知,未知,未知,未知,未知,未知,未知,未知
2,601808,6569418475.0,6548709997.999999,2014-09-30,三季度报告,6397100000.000001,2014,9,未知,未知,未知,未知,未知,未知,未知,未知,未知,未知
3,601808,7520182569.000002,7492057527.0,2014-12-31,年度报告,7210400000.000002,2014,12,未知,未知,未知,未知,未知,未知,未知,未知,未知,未知
4,601808,983679167.0,970047646.0,2015-03-31,一季度报告,926300000.0,2015,3,0.0,True,未知,未知,未知,未知,未知,未知,5042931600.0,未知
5,601808,921925062.0000002,894747766.9999998,2015-06-30,半年度报告,815399999.9999999,2015,6,-0.6806286042250932,True,未知,未知,未知,未知,未知,未知,2765723829.0000005,未知
6,601808,921925062.0000002,894747766.9999998,2015-06-30,半年度报告,815428745.0000001,2015,6,-0.6806286042250932,True,未知,未知,未知,未知,未知,未知,2765723829.0000005,未知
7,601808,1289838647.0000002,1249106039.0,2015-09-30,三季度报告,1128853706.0,2015,9,-0.784199103406942,True,未知,未知,未知,未知,未知,未知,1293455000.0,未知
8,601808,1289838647.0000002,1249106039.0,2015-09-30,三季度报告,1128800000.0,2015,9,-0.784199103406942,True,未知,未知,未知,未知,未知,未知,1293455000.0,未知
9,601808,1108706023.9999998,1073907130.0,2015-12-31,年度报告,840928974.0,2015,12,-0.8114824495293447,True,未知,未知,未知,未知,未知,未知,1384164000.0,未知
10,601808,1108706023.9999998,1073907130.0,2015-12-31,年度报告,840900000.0000001,2015,12,-0.8114824495293447,True,未知,未知,未知,未知,未知,未知,1384164000.0,未知
11,601808,-922714308.0000002,-926611688.0,2016-03-31,一季度报告,-936600000.0,2016,3,0.4412081139459567,True,未知,未知,未知,未知,未知,未知,647956667.0,未知
12,601808,-8399529393.000002,-8403179781.999998,2016-06-30,半年度报告,-8536800000.000002,2016,6,0.5377458054177503,False,未知,未知,0.6442440599998351,False,未知,未知,-7807842000.0,未知
13,601808,-9088533330.0,-9091736008.999998,2016-09-30,三季度报告,-9246800000.0,2016,9,0.09911918075749789,True,未知,未知,0.20370699213239096,False,未知,未知,-9875250000.0,未知
14,601808,-11459456594.0,-11456186317.999998,2016-12-31,年度报告,-11671200000.0,2016,12,0.27868557247056147,True,未知,未知,0.33509939023557545,False,未知,未知,-10872000000.0,未知
15,601808,-545637375.0,-557215767.0,2017-03-31,一季度报告,-606800000.0,2017,3,-2.536430490682279,False,1.7684913299606226,True,0.0,True,前期平均,2320098720.000001,521946000.0,521946000.0
16,601808,-366094923.00000006,-385241639.00000006,2017-06-30,半年度报告,-610100000.0000001,2017,6,-1.1687816460504885,False,4.133617850015093,False,0.7423868199070957,False,去年同期,-3519641638.999998,395665000.0,395665000.0
17,601808,-145700434.00000003,-173477673.00000003,2017-09-30,三季度报告,-502900000.0,2017,9,-1.155986268138602,False,3.3128224942683073,False,0.2950606439151314,False,去年同期,-2597877673.0,73000000.0,73000000.0
18,601808,80915448.0,42771736.99999999,2017-12-31,年度报告,-471800000.0,2017,12,-1.1237132306729343,False,3.6560678053709568,False,0.27552833410280186,False,前期平均,42771736.99999999,923250080.0,923250080.0
19,601808,-643988131.0,-651134585.0,2018-03-31,一季度报告,-903300000.0,2018,3,-3.598220836686636,False,18.900061902874313,False,0.0,True,去年同期,-516134585.0,904985000.0,904985000.0
20,601808,-363262356.0,-375004499.0,2018-06-30,半年度报告,-767699999.9999999,2018,6,-4.87245577016647,False,-0.9020822962022006,True,0.9045735759072763,False,前期平均,-1929440011.999999,542651429.0,542651429.0
21,601808,-263076657.0,-276759271.0,2018-09-30,三季度报告,-763800000.0,2018,9,-10.730145326814878,False,-0.9626346613318238,True,0.3933110778691975,False,前期平均,-1632921637.0,168000000.0,168000000.0
22,601808,88671982.00000001,70802323.99999999,2018-12-31,年度报告,-568800000.0,2018,12,16.520590097950144,False,-1.0156347015518894,True,0.2758204149872465,False,前期平均,70802323.99999999,180000000.0,180000000.0
23,601808,38618240.99999999,30952844.000000004,2019-03-31,一季度报告,-47100000.0,2019,3,-3.2014169652452797,False,-0.12284211138810688,True,0.0,True,盈利变化,1212402324.0,803276667.0,803276667.0
24,601808,986355731.0,973043330.0,2019-06-30,半年度报告,794564868.0,2019,6,-4.9026515508257065,False,-0.9171166039281576,True,0.9726992833878926,False,盈利变化,1112312236.0,1908815858.0,1908815858.0
25,601808,2138195114.0,2118752920.0,2019-09-30,三季度报告,1889563172.0,2019,9,-6.388871871668948,False,-0.9430214430945827,True,未知,未知,盈利变化,1250074844.8888888,2549527857.0,2549527857.0
26,601808,2528015268.999999,2502238023.0,2019-12-31,年度报告,2146788988.0,2019,12,14.987985889387243,False,-1.0155858261375048,True,未知,未知,前期平均,2502238023.0,2578025294.0,2502238023.0
27,601808,1141680599.0,1139467126.0000002,2020-03-31,一季度报告,1064122675.0,2020,3,35.71027888090501,False,-1.0649250386869227,True,未知,未知,前期平均,1374217126.0000002,3127021429.0,3127021429.0
