,SECURITYCODE_x,NETPROFIT_x,PARENTNETPROFIT_x,REPORTDATE_x,REPORTTIMETYPE_x,KCFJCXSYJLR,Year,Month,managesituationChangeRate,managesituationGreatChange,historyprofitextroplaterate,ifhistoryprofitextroplate,IfprofitdisStableChangeRage,IfprofitdisStable,predicttype,predict,analyst_prediction,adj_prediction
0,601857,142229000000.0,129576999999.99995,2013-12-31,年度报告,116652999999.99995,2013,12,未知,未知,未知,未知,未知,未知,未知,未知,未知,未知
1,601857,37270000000.0,34248000000.0,2014-03-31,一季度报告,34758000000.000015,2014,3,未知,未知,未知,未知,未知,未知,未知,未知,未知,未知
2,601857,74052999999.99997,68121999999.99998,2014-06-30,半年度报告,68572999999.999985,2014,6,未知,未知,未知,未知,未知,未知,未知,未知,未知,未知
3,601857,106019999999.99997,96044000000.0,2014-09-30,三季度报告,97307000000.00003,2014,9,未知,未知,未知,未知,未知,未知,未知,未知,未知,未知
4,601857,119034000000.00005,107172999999.99997,2014-12-31,年度报告,110076000000.00003,2014,12,0.0,True,未知,未知,未知,未知,未知,未知,未知,未知
5,601857,7725000000.000002,6149000000.0,2015-03-31,一季度报告,6435000000.000001,2015,3,2.8161792326267774,False,未知,未知,未知,未知,未知,未知,61064944645.99999,未知
6,601857,28589000000.0,25404000000.0,2015-06-30,半年度报告,25848000000.0,2015,6,0.9206379214886643,False,未知,未知,未知,未知,未知,未知,52712945909.0,未知
7,601857,35889000000.0,30598000000.0,2015-09-30,三季度报告,31310000000.0,2015,9,0.34152990001886474,True,未知,未知,未知,未知,未知,未知,44049788894.0,未知
8,601857,42363999999.99999,35653000000.0,2015-12-31,年度报告,18394000000.000004,2015,12,0.19486029201740634,True,未知,未知,未知,未知,未知,未知,38855955561.0,未知
9,601857,-10941999999.999996,-13785999999.999996,2016-03-31,一季度报告,-13584999999.999998,2016,3,17.4115210355987,False,未知,未知,未知,未知,未知,未知,15212350000.0,未知
10,601857,16900999999.999996,528000000.0,2016-06-30,半年度报告,-9490999999.999998,2016,6,3.974955402427507,False,未知,未知,未知,未知,未知,未知,3011461512.0,未知
11,601857,20786000000.0,1724000000.0000002,2016-09-30,三季度报告,-9043000000.0,2016,9,2.9630248822759064,False,未知,未知,未知,未知,未知,未知,6227236593.000001,未知
12,601857,29414000000.0,7900000000.0,2016-12-31,年度报告,2634000000.0,2016,12,2.3573080917760367,False,0.6756984341449038,True,0.0,True,前期平均,7900000000.0,30522272540.0,30522272540.0
13,601857,10617000000.0,5699000000.0,2017-03-31,一季度报告,6865000000.0,2017,3,-13.99844635350028,False,1.4863651516835201,True,3.660238697601727,False,前期平均,49337500000.00001,37999314000.0,37999314000.0
14,601857,20961000000.0,12674000000.000004,2017-06-30,半年度报告,15301999999.999996,2017,6,7.415419205964146,False,0.6706806180705753,True,3.0782437772764353,False,前期平均,29698500000.000027,32584695713.999996,29698500000.000027
15,601857,29889999999.999992,17362000000.0,2017-09-30,三季度报告,21956000000.0,2017,9,5.84253824689695,False,0.7070517021471506,True,3.1508489232624752,False,前期平均,17288500000.0,31003630000.0,31003630000.0
16,601857,36788000000.000015,22793000000.0,2017-12-31,年度报告,27529000000.0,2017,12,3.8354185081933774,False,0.6355097337017808,True,0.0,True,前期平均,22793000000.0,47896374113.0,47896374113.0
17,601857,15209000000.0,10150000000.0,2018-03-31,一季度报告,12348000000.000002,2018,3,12.396345483658283,False,-7.600559527510113,True,3.6381086088887082,False,前期平均,24239000000.0,63602000000.0,63602000000.0
18,601857,38614999999.99999,27439000000.000004,2018-06-30,半年度报告,30580000000.0,2018,6,5.785411001383522,False,0.078434820839745,True,3.0558736753838835,False,前期平均,29774500000.000004,61612600000.0,61612600000.0
19,601857,65257999999.999985,48657999999.99999,2018-09-30,三季度报告,58715000000.000015,2018,9,3.7584141853462705,False,0.0547860608734007,True,3.1220357930690517,False,前期平均,48038499999.99999,65515475000.0,65515475000.0
20,601857,73974000000.0,53030000000.0,2018-12-31,年度报告,66644999999.999985,2018,12,2.866179188865933,False,0.025049458051213887,True,0.0,True,前期平均,53030000000.0,64691080000.0,64691080000.0
21,601857,16028999999.999996,10245000000.0,2019-03-31,一季度报告,13735000000.000002,2019,3,8.351633900979683,False,-94.59384615384725,True,3.5832545676143015,False,前期平均,28686500000.0,67375379091.0,67375379091.0
22,601857,39135000000.0,28420000000.0,2019-06-30,半年度报告,30386000000.0,2019,6,2.683257801372524,False,1.0397760287359354,True,2.7404097709044786,False,前期平均,40596000000.0,61434750000.0,61434750000.0
23,601857,53537000000.0,37281999999.999985,2019-09-30,三季度报告,40658000000.0,2019,9,1.1794875724049163,False,1.5754992501381322,True,2.848311070872927,False,前期平均,45906999999.999985,53548612500.0,53548612500.0
24,601857,67009999999.999985,45676999999.99999,2019-12-31,年度报告,53485000000.0,2019,12,0.9226890529104821,False,1.2347965318268326,True,0.0,True,前期平均,45676999999.99999,53548612500.0,53548612500.0
25,601857,-13352999999.999998,-16233999999.999996,2020-03-31,一季度报告,-15187000000.000006,2020,3,7.873229771039992,False,0.24130720978858486,True,0.045204642719419014,True,盈利变化,7114333333.333313,15415500000.0,15415500000.0
