,SECURITYCODE_x,NETPROFIT_x,PARENTNETPROFIT_x,REPORTDATE_x,REPORTTIMETYPE_x,KCFJCXSYJLR,Year,Month,managesituationChangeRate,managesituationGreatChange,historyprofitextroplaterate,ifhistoryprofitextroplate,IfprofitdisStableChangeRage,IfprofitdisStable,predicttype,predict,analyst_prediction,adj_prediction
0,601838,3552348000.0,3548141999.999999,2014-12-31,年度报告,3526129000.0,2014,12,未知,未知,未知,未知,未知,未知,未知,未知,未知,未知
1,601838,2821181999.9999995,2816189999.9999995,2015-12-31,年度报告,2631879000.0,2015,12,0.0,True,未知,未知,未知,未知,未知,未知,未知,未知
2,601838,2208640999.9999995,2205544999.9999995,2016-09-30,三季度报告,2196701000.0,2016,9,未知,未知,未知,未知,未知,未知,未知,未知,未知,未知
3,601838,2208640999.9999995,2205544999.9999995,2016-09-30,三季度报告,2196701000.0,2016,9,未知,未知,未知,未知,未知,未知,未知,未知,未知,未知
4,601838,706352000.0,705528000.0000001,2016-09-30,三季度报告,2196701000.0,2016,9,未知,未知,未知,未知,未知,未知,未知,未知,未知,未知
5,601838,706352000.0,705528000.0000001,2016-09-30,三季度报告,2196701000.0,2016,9,未知,未知,未知,未知,未知,未知,未知,未知,未知,未知
6,601838,2583062000.0,2577484999.9999995,2016-12-31,年度报告,2527124999.9999995,2016,12,0.2591700925356821,True,未知,未知,未知,未知,未知,未知,未知,未知
7,601838,857547000.0,856483000.0000001,2017-03-31,一季度报告,854070000.0000001,2017,3,未知,未知,未知,未知,未知,未知,未知,未知,未知,未知
8,601838,1652016999.9999998,1652265000.0,2017-06-30,半年度报告,1651030000.0,2017,6,未知,未知,未知,未知,未知,未知,未知,未知,未知,未知
9,601838,2811410000.000001,2809977999.9999995,2017-09-30,三季度报告,2790579000.0,2017,9,0.6083863334964807,False,未知,未知,未知,未知,未知,未知,未知,未知
10,601838,2811410000.000001,2809977999.9999995,2017-09-30,三季度报告,2790579000.0,2017,9,0.6083863334964807,False,未知,未知,未知,未知,未知,未知,未知,未知
11,601838,1159393000.0000002,1157713000.0,2017-09-30,三季度报告,2790579000.0,2017,9,0.6083863334964807,False,未知,未知,未知,未知,未知,未知,未知,未知
12,601838,1159393000.0000002,1157713000.0,2017-09-30,三季度报告,2790579000.0,2017,9,0.6083863334964807,False,未知,未知,未知,未知,未知,未知,未知,未知
13,601838,3912821000.0,3908578000.0,2017-12-31,年度报告,3852351999.999999,2017,12,0.37524689689988083,True,0.1894407024051036,True,0.0,True,比例外推,3908578000.0,未知,3908578000.0
14,601838,1031265000.0,1031629000.0,2018-03-31,一季度报告,1031770000.0,2018,3,3.14245283348901,False,未知,未知,未知,未知,未知,未知,4109000000.0,未知
15,601838,2123727000.0,2122984000.0,2018-06-30,半年度报告,2123544000.0,2018,6,1.1503095912451267,False,未知,未知,未知,未知,未知,未知,4489833333.0,未知
16,601838,3398639000.0,3395795000.0000005,2018-09-30,三季度报告,3397976000.0000005,2018,9,0.2635467612336866,True,未知,未知,未知,未知,未知,未知,4558000000.0,未知
17,601838,4653526000.0,4649130000.0,2018-12-31,年度报告,4651537000.0,2018,12,-0.09212611565926476,True,0.4480548990756154,True,0.0,True,比例外推,4649130000.0,3647000000.0,3647000000.0
18,601838,1267716000.0,1266595999.9999998,2019-03-31,一季度报告,1267768999.9999998,2019,3,2.444650986894736,False,未知,未知,未知,未知,未知,未知,5558000000.0,未知
19,601838,2507365000.0,2504800999.9999995,2019-06-30,半年度报告,2514101000.0000005,2019,6,0.6726952193007858,False,未知,未知,未知,未知,未知,未知,5508333333.000001,未知
20,601838,4011463000.0,4007412999.999999,2019-09-30,三季度报告,4011233000.0,2019,9,0.04522663336706252,True,0.35402568619322794,True,0.09453628217105925,True,比例外推,5173883502.255896,5504500000.0,5173883502.255896
21,601838,5555752999.999999,5550899999.999999,2019-12-31,年度报告,5549424999.999999,2019,12,-0.23663303911915395,True,0.4327616430283612,True,0.0,True,比例外推,5550899999.999999,5439000000.0,5550899999.999999
22,601838,1413791000.0,1413521000.0000002,2020-03-31,一季度报告,1421555999.9999998,2020,3,1.8021638915971716,False,0.34234217063423994,True,0.004462467233972978,True,前期平均,4722545500.0,6439500000.0,6439500000.0
