,SECURITYCODE_x,NETPROFIT_x,PARENTNETPROFIT_x,REPORTDATE_x,REPORTTIMETYPE_x,KCFJCXSYJLR,Year,Month,managesituationChangeRate,managesituationGreatChange,historyprofitextroplaterate,ifhistoryprofitextroplate,IfprofitdisStableChangeRage,IfprofitdisStable,predicttype,predict,analyst_prediction,adj_prediction
0,601992,3243157968.88,3215183494.65,2013-12-31,年度报告,2554195178.0600014,2013,12,未知,未知,未知,未知,未知,未知,未知,未知,未知,未知
1,601992,233708393.13,213510398.62,2014-03-31,一季度报告,188243176.58,2014,3,未知,未知,未知,未知,未知,未知,未知,未知,未知,未知
2,601992,1516799849.62,1380649065.77,2014-06-30,半年度报告,1091628268.82,2014,6,未知,未知,未知,未知,未知,未知,未知,未知,未知,未知
3,601992,1920946584.59,1740806322.1199994,2014-09-30,三季度报告,1426478582.3100002,2014,9,未知,未知,未知,未知,未知,未知,未知,未知,未知,未知
4,601992,2708972088.2700005,2422721815.8300004,2014-12-31,年度报告,1669560187.2899995,2014,12,0.0,True,未知,未知,未知,未知,未知,未知,未知,未知
5,601992,92694576.76999998,146272200.55,2015-03-31,一季度报告,106739159.52,2015,3,12.87694265253023,False,未知,未知,未知,未知,未知,未知,3198454545.0,未知
6,601992,1021601684.89,1047743415.43,2015-06-30,半年度报告,796449875.6299999,2015,6,1.1381581556014133,False,未知,未知,未知,未知,未知,未知,2192150000.0,未知
7,601992,1033370161.5399998,1061771081.46,2015-09-30,三季度报告,775065905.4200001,2015,9,0.6883124158146273,False,未知,未知,未知,未知,未知,未知,2494446852.0,未知
8,601992,1033370161.5399998,1061771081.46,2015-09-30,三季度报告,775065905.41,2015,9,0.6883124158146273,False,未知,未知,未知,未知,未知,未知,2494446852.0,未知
9,601992,1951067797.8,2017453761.3900003,2015-12-31,年度报告,1253791453.94,2015,12,0.19719135642742655,True,未知,未知,未知,未知,未知,未知,2337517481.0,未知
10,601992,81515348.04,150670145.82999998,2016-03-31,一季度报告,121099696.84,2016,3,33.98756973589881,False,未知,未知,未知,未知,未知,未知,2888302915.0,未知
11,601992,1601282994.2799995,1821145314.54,2016-06-30,半年度报告,1426616015.0700006,2016,6,2.174581656283392,False,未知,未知,未知,未知,未知,未知,2955901705.0,未知
12,601992,1601282994.2799995,1821145314.54,2016-06-30,半年度报告,1426616015.0700006,2016,6,2.174581656283392,False,未知,未知,未知,未知,未知,未知,2955901705.0,未知
13,601992,-1027938985.45,-927693950.18,2016-06-30,半年度报告,1426616015.0700006,2016,6,2.174581656283392,False,未知,未知,未知,未知,未知,未知,2955901705.0,未知
14,601992,-1027938985.45,-927693950.18,2016-06-30,半年度报告,1426616015.0700006,2016,6,2.174581656283392,False,未知,未知,未知,未知,未知,未知,2955901705.0,未知
15,601992,2098553318.46,2270454634.5000005,2016-09-30,三季度报告,775065905.41,2016,9,2.138428115678143,False,未知,未知,0.0,True,未知,未知,2863937313.0,未知
16,601992,2690347761.2200003,2686653868.2,2016-12-31,年度报告,2152074630.88,2016,12,0.662247704839855,False,0.34441358671043204,True,0.0,True,前期平均,2686653868.2,2742800000.0,2686653868.2
17,601992,2690347761.2200003,2686653868.2,2016-12-31,年度报告,2152074630.88,2016,12,0.662247704839855,False,0.34441358671043204,True,0.02844699343588327,True,前期平均,2686653868.2,2742800000.0,2686653868.2
18,601992,-23653370.97000001,52885484.51000001,2016-12-31,年度报告,2152074630.88,2016,12,0.662247704839855,False,0.34441358671043204,True,0.0,True,前期平均,52885484.51000001,2742800000.0,2742800000.0
19,601992,-23653370.97000001,52885484.51000001,2016-12-31,年度报告,2152074630.88,2016,12,0.662247704839855,False,0.34441358671043204,True,0.02844699343588327,True,前期平均,52885484.51000001,2742800000.0,2742800000.0
20,601992,59987555.96999999,440588271.85,2017-03-31,一季度报告,396175302.21,2017,3,38.785856858374274,False,0.5005232454534722,True,0.02844699343588327,True,前期平均,1754772924.415,3738662515.0,3738662515.0
21,601992,59987555.96999999,440588271.85,2017-03-31,一季度报告,396175302.21,2017,3,38.785856858374274,False,0.5005232454534722,True,0.015426072376914512,True,前期平均,1754772924.415,3738662515.0,3738662515.0
22,601992,-411917754.36,-368916666.7799999,2017-03-31,一季度报告,396175302.21,2017,3,38.785856858374274,False,0.5005232454534722,True,0.02844699343588327,True,盈利变化,3053421342.0266666,3738662515.0,3738662515.0
23,601992,-411917754.36,-368916666.7799999,2017-03-31,一季度报告,396175302.21,2017,3,38.785856858374274,False,0.5005232454534722,True,0.015426072376914512,True,盈利变化,3053421342.0266666,3738662515.0,3738662515.0
24,601992,1782023068.06,1846371188.87,2017-06-30,半年度报告,1617918669.56,2017,6,1.025349660531587,False,0.2616467272890324,True,0.25076166839931263,False,前期平均,2364007937.2599998,3837000000.0,3837000000.0
25,601992,2923091348.420001,2604374836.45,2017-09-30,三季度报告,2302328117.67,2017,9,0.545425575014675,False,0.4206691419997501,True,0.0,True,前期平均,2965278413.1999993,3325000000.0,3325000000.0
26,601992,2950348722.4600005,2836664933.59,2017-12-31,年度报告,2090105614.6700003,2017,12,0.20547908921979488,True,0.1546458086172644,True,0.07923057262445671,True,比例外推,2836664933.59,,2836664933.59
27,601992,-638463383.92,-212606749.03,2018-03-31,一季度报告,-231125501.06000003,2018,3,53.063845683293316,False,0.31131873186416087,True,0.08334449783713627,True,前期平均,1376406865.2000003,3735236667.0,3735236667.0
28,601992,2927743230.61,2410206116.0600004,2018-06-30,半年度报告,2169779772.5000005,2018,6,0.8199304077531753,False,0.3588268536639692,True,0.4082491785169793,False,前期平均,3001606213.1200004,4732500000.0,4732500000.0
29,601992,4339926368.63,3103194348.1299987,2018-09-30,三季度报告,2800395004.9,2018,9,0.10949593505964245,True,0.8666428902790442,True,0.0,True,比例外推,4342097283.541204,4141340600.0,4342097283.541204
30,601992,4281425234.819999,3260449276.97,2018-12-31,年度报告,2903344151.62,2018,12,0.09924563974114059,True,0.27131418634833215,True,0.13501080792825354,False,平均增速,3260449276.97,4241425750.0,4241425750.0
31,601992,387302905.89000016,421935712.03,2019-03-31,一季度报告,405370003.72,2019,3,-6.079630328943611,False,10.024032240000952,False,0.06520581202803555,True,盈利变化,4109109950.0099998,4333000000.0,4109109950.0099998
32,601992,3964972722.38,3045574008.22,2019-06-30,半年度报告,2420113642.52,2019,6,0.10773306039009534,True,0.7306996036800066,True,0.4485938088460693,False,平均增速,3887529961.19555,5008750000.0,5008750000.0
33,601992,5313987155.26,3716227625.609999,2019-09-30,三季度报告,3123063182.3900003,2019,9,-0.2527159003612821,True,0.7284880378947404,True,0.0,True,比例外推,4454795182.439207,4385500000.0,4454795182.439207
34,601992,5178147669.78,3693582654.45,2019-12-31,年度报告,3204906605.1900005,2019,12,-0.2425050559089467,True,0.5180484350495632,True,0.15841515603397255,False,平均增速,3693582654.45,,3693582654.45
35,601992,-215699604.76,136736522.36,2020-03-31,一季度报告,85432296.76999998,2020,3,7.373699033905791,False,-2.3390461180116118,True,未知,未知,前期平均,2550936504.9300003,4330000000.0,4330000000.0
