,SECURITYCODE_x,NETPROFIT_x,PARENTNETPROFIT_x,REPORTDATE_x,REPORTTIMETYPE_x,KCFJCXSYJLR,Year,Month,managesituationChangeRate,managesituationGreatChange,historyprofitextroplaterate,ifhistoryprofitextroplate,IfprofitdisStableChangeRage,IfprofitdisStable,predicttype,predict,analyst_prediction,adj_prediction
0,601985,4572512766.57,2109179600.5100005,2012-12-31,年度报告,1975269624.05,2012,12,未知,未知,未知,未知,未知,未知,未知,未知,未知,未知
1,601985,1226544712.8100002,585445286.96,2014-03-31,一季度报告,583460286.96,2014,3,未知,未知,未知,未知,未知,未知,未知,未知,未知,未知
2,601985,2069733675.1600003,987370185.05,2014-06-30,半年度报告,937725280.1199998,2014,6,未知,未知,未知,未知,未知,未知,未知,未知,未知,未知
3,601985,3705590509.750001,1766343680.05,2014-09-30,三季度报告,1720918348.64,2014,9,未知,未知,未知,未知,未知,未知,未知,未知,未知,未知
4,601985,5156965465.440001,2471741965.73,2014-12-31,年度报告,2367619340.8500004,2014,12,未知,未知,未知,未知,未知,未知,未知,未知,未知,未知
5,601985,2159145861.5900006,1155598706.05,2015-03-31,一季度报告,1153480151.3,2015,3,2.7279625592241348,False,未知,未知,未知,未知,未知,未知,3525772500.0,未知
6,601985,4483152988.940001,2472884452.88,2015-06-30,半年度报告,2418826700.2,2015,6,1.209227603264716,False,未知,未知,未知,未知,未知,未知,3929535890.0,未知
7,601985,6298988051.9,3444174638.06,2015-09-30,三季度报告,3357445701.1200013,2015,9,0.23394982649566587,True,未知,未知,未知,未知,未知,未知,3924057500.0,未知
8,601985,7108763610.34,3781151703.980001,2015-12-31,年度报告,3716121718.91,2015,12,-0.11333267651039707,True,未知,未知,未知,未知,未知,未知,3891000000.0,未知
9,601985,1828953768.73,1009757245.98,2016-03-31,一季度报告,941411665.89,2016,3,1.1177414865352309,False,未知,未知,未知,未知,未知,未知,3752500000.0,未知
10,601985,4449051834.35,2497395677.6,2016-06-30,半年度报告,2226161422.3700004,2016,6,0.019932350702831454,True,未知,未知,未知,未知,未知,未知,3874947500.0,未知
11,601985,6767236384.549999,3761461651.98,2016-09-30,三季度报告,3492172103.7500005,2016,9,-0.2740877218856183,True,未知,未知,未知,未知,未知,未知,3810000000.0,未知
12,601985,8108361253.510003,4488673837.74,2016-12-31,年度报告,4227629200.42,2016,12,-0.3567780535114313,True,未知,未知,未知,未知,未知,未知,4172380000.0,未知
13,601985,2182431302.26,1226458595.2899995,2017-03-31,一季度报告,1222143555.4799998,2017,3,1.5000701738596098,False,0.08040219774314158,True,0.050561252773397236,True,前期平均,3399858906.0399995,5235710000.0,5235710000.0
14,601985,4529973293.52,2561388909.7699995,2017-06-30,半年度报告,2532187655.6400003,2017,6,0.027749942418469658,True,0.35789067090817783,True,0.12845007191453772,False,平均增速,5054288193.270498,4873534660.0,5054288193.270498
15,601985,7298679549.8099985,4116263392.59,2017-09-30,三季度报告,4054516727.47,2017,9,-0.3243160861043192,True,0.35282787632663964,True,0.09193488020082963,True,比例外推,5013580855.226902,4931836650.0,5013580855.226902
16,601985,7298679549.8099985,4116263392.59,2017-09-30,三季度报告,4054516727.47,2017,9,-0.3243160861043192,True,0.35282787632663964,True,0.09193488020082963,True,比例外推,5013580855.226902,4931836650.0,5013580855.226902
17,601985,9984998703.46,5346494029.400001,2017-09-30,三季度报告,4054516727.47,2017,9,-0.3243160861043192,True,0.35282787632663964,True,0.09193488020082963,True,比例外推,6243811492.036903,4931836650.0,4931836650.0
18,601985,9984998703.46,5346494029.400001,2017-09-30,三季度报告,4054516727.47,2017,9,-0.3243160861043192,True,0.35282787632663964,True,0.09193488020082963,True,比例外推,6243811492.036903,4931836650.0,4931836650.0
19,601985,8113928930.7199955,4533315975.94,2017-12-31,年度报告,4496299520.77,2017,12,-0.4360743652620782,True,0.3221164764711513,True,0.0,True,比例外推,4533315975.94,4874224433.0,4533315975.94
20,601985,2182585586.72,1218730110.1,2018-03-31,一季度报告,1220480735.2700002,2018,3,1.0951462535544503,False,0.0944718059036476,True,0.04561612615713914,True,前期平均,4143159661.17,5559101517.0,5559101517.0
21,601985,4677597180.410001,2579053513.0,2018-06-30,半年度报告,2573332453.14,2018,6,0.00939066751471819,True,0.014301257783176187,True,0.07068524913390817,True,比例外推,4440852674.992464,5329650000.0,5329650000.0
22,601985,6920268341.98,3799720494.149999,2018-09-30,三季度报告,3877440243.03,2018,9,-0.37351506729884687,True,0.11718263914851264,True,0.05105173156626175,True,比例外推,4343094722.306385,5102474444.0,5102474444.0
23,601985,8536410163.910002,4736862826.82,2018-12-31,年度报告,4805155556.920001,2018,12,-0.43646132402539367,True,0.06642075994205049,True,0.0,True,比例外推,4736862826.82,5097762433.0,4736862826.82
24,601985,2601380501.33,1387594865.9900002,2019-03-31,一季度报告,1401783663.9900002,2019,3,1.0949981500801507,False,0.08819549761217159,True,0.02681449146521675,True,前期平均,4667781615.900001,5847170000.0,5847170000.0
25,601985,4775852709.549999,2598128951.43,2019-06-30,半年度报告,2607747574.21,2019,6,-0.022465468869380122,True,0.04189421764534425,True,0.021410936928523916,True,比例外推,4803850367.450531,5388137913.0,5388137913.0
26,601985,6731423854.860001,3683912278.25,2019-09-30,三季度报告,3691988479.07,2019,9,-0.339257881254106,True,0.016023076737537216,True,0.05684052682772911,True,比例外推,4361633644.03158,4944033333.0,4944033333.0
27,601985,8407376510.799997,4612558849.59,2019-12-31,年度报告,4394971421.539999,2019,12,-0.46435179674220173,True,0.05242972070717985,True,0.0,True,比例外推,4612558849.59,4944033333.0,4612558849.59
28,601985,1929093455.93,1036297149.3400002,2020-03-31,一季度报告,1016898844.79,2020,3,0.7577254708537351,False,0.19192230751614828,True,0.03736614669748939,True,前期平均,4465712542.810001,5384750000.0,5384750000.0
