,SECURITYCODE_x,NETPROFIT_x,PARENTNETPROFIT_x,REPORTDATE_x,REPORTTIMETYPE_x,KCFJCXSYJLR,Year,Month,managesituationChangeRate,managesituationGreatChange,historyprofitextroplaterate,ifhistoryprofitextroplate,IfprofitdisStableChangeRage,IfprofitdisStable,predicttype,predict,analyst_prediction,adj_prediction
0,601958,182713438.51,178022588.51999998,2013-12-31,年度报告,152260282.76999995,2013,12,未知,未知,未知,未知,未知,未知,未知,未知,未知,未知
1,601958,11748100.24,6322619.34,2014-03-31,一季度报告,4507198.369999999,2014,3,未知,未知,未知,未知,未知,未知,未知,未知,未知,未知
2,601958,102264598.57,92082981.49,2014-06-30,半年度报告,79159419.87999998,2014,6,未知,未知,未知,未知,未知,未知,未知,未知,未知,未知
3,601958,187090478.17,174600561.08,2014-09-30,三季度报告,157939997.47,2014,9,未知,未知,未知,未知,未知,未知,未知,未知,未知,未知
4,601958,201625933.2,192221920.39,2014-12-31,年度报告,103840348.4,2014,12,0.0,True,未知,未知,未知,未知,未知,未知,未知,未知
5,601958,2487633.69,2610875.65,2015-03-31,一季度报告,-4353030.3,2015,3,14.552594443133554,False,未知,未知,未知,未知,未知,未知,212540000.0,未知
6,601958,4722017.899999999,5575116.430000002,2015-06-30,半年度报告,-17723337.06,2015,6,0.7866734047260047,False,未知,未知,未知,未知,未知,未知,112000000.0,未知
7,601958,710582.4700000002,3090048.98,2015-09-30,三季度报告,-38593703.53,2015,9,-0.023395309600004303,True,未知,未知,未知,未知,未知,未知,,未知
8,601958,27667184.710000005,33991916.54,2015-12-31,年度报告,-24776373.7,2015,12,-0.09379991149868612,True,未知,未知,未知,未知,未知,未知,1240000.0,未知
9,601958,-83393619.97,-81280907.07000001,2016-03-31,一季度报告,-87203814.77,2016,3,72.4486911173807,False,未知,未知,未知,未知,未知,未知,99180000.0,未知
10,601958,-97497824.83,-96886937.92999998,2016-06-30,半年度报告,-110549956.3,2016,6,37.693931784968456,False,未知,未知,未知,未知,未知,未知,40996511.0,未知
11,601958,-29083182.63000001,-34951273.230000004,2016-09-30,三季度报告,-53428095.04999998,2016,9,256.1319251796346,False,未知,未知,未知,未知,未知,未知,39213209.0,未知
12,601958,67267173.95,53898117.92999999,2016-12-31,年度报告,21516749.42,2016,12,5.603976531228354,False,0.8560273198818878,True,0.0,True,前期平均,53898117.92999999,37933333.0,37933333.0
13,601958,4684735.24,4501006.25,2017-03-31,一季度报告,-4163879.13,2017,3,-3.1909762230699337,False,12.716097024581016,False,2.7749219925571333,False,前期平均,43955909.565,174845000.0,174845000.0
14,601958,21110052.15,15325335.99,2017-06-30,半年度报告,-3216182.4300000006,2017,6,-2.8740257931762514,False,2.8226172216099434,False,3.917787441293463,False,前期平均,24139281.930000015,179117500.0,179117500.0
15,601958,55489089.53,37896750.35,2017-09-30,三季度报告,9772619.64,2017,9,-7.282443047396285,False,1.3097233054050765,True,2.6816189585757826,False,前期平均,17755590.730000004,201150000.0,201150000.0
16,601958,120999664.45,107274126.51,2017-12-31,年度报告,50724717.43,2017,12,1.7162347959765891,False,0.41326478035504677,True,0.0,True,前期平均,107274126.51,,107274126.51
17,601958,77900469.48,64265609.82999998,2018-03-31,一季度报告,45769611.06,2018,3,38.00187078875347,False,-1.115806887855913,True,2.7330910421266132,False,前期平均,108414220.22499998,257088000.0,257088000.0
18,601958,177983188.28,148517130.19,2018-06-30,半年度报告,122392951.26,2018,6,7.655281247611698,False,-1.455076659498692,True,3.642546390736542,False,前期平均,211023964.73,367877500.0,367877500.0
19,601958,277369611.03000003,226924875.98,2018-09-30,三季度报告,190844473.14,2018,9,2.2927813387750136,False,-4.9114560679728685,True,2.2388426931482943,False,前期平均,271305963.13,338152000.0,338152000.0
20,601958,457271293.66,381362334.15,2018-12-31,年度报告,349572866.44999987,2018,12,0.5100326049705833,False,1.549122702421172,True,0.0,True,前期平均,381362334.15,344642500.0,344642500.0
21,601958,99677145.52,77683856.51999998,2019-03-31,一季度报告,72453134.55000001,2019,3,1.3454728800692202,False,-2.979458094145962,True,2.718170145068936,False,前期平均,159488436.89499998,498602000.0,498602000.0
22,601958,321694782.75,272422880.22,2019-06-30,半年度报告,256318434.92,2019,6,0.026576949630537257,True,-5.65999156764522,True,3.5208094781949884,False,平均增速,1035603822.2642299,573125000.0,573125000.0
23,601958,525831364.9600001,446387652.75000006,2019-09-30,三季度报告,426030251.0899999,2019,9,-0.3412636740142456,True,20.008148826730896,False,1.901594189425658,False,未知,未知,605080000.0,未知
24,601958,648816512.2300001,568927501.4599999,2019-12-31,年度报告,548599509.4,2019,12,-0.6004266153522094,True,3.8576934477272236,False,0.0,True,比例外推,568927501.4599999,721000000.0,721000000.0
25,601958,103431914.06000002,77336998.71000001,2020-03-31,一季度报告,75295364.74000001,2020,3,0.8330524771432078,False,1.4139225871740382,True,0.14239163853602219,False,前期平均,256682924.68499994,518387143.0,518387143.0
