,SECURITYCODE_x,NETPROFIT_x,PARENTNETPROFIT_x,REPORTDATE_x,REPORTTIMETYPE_x,KCFJCXSYJLR,Year,Month,managesituationChangeRate,managesituationGreatChange,historyprofitextroplaterate,ifhistoryprofitextroplate,IfprofitdisStableChangeRage,IfprofitdisStable,predicttype,predict,analyst_prediction,adj_prediction
0,601989,3171439105.55,3290775068.0800004,2013-12-31,年度报告,2599610094.4799995,2013,12,未知,未知,未知,未知,未知,未知,未知,未知,未知,未知
1,601989,675263524.9200001,732500879.74,2014-03-31,一季度报告,596794498.16,2014,3,未知,未知,未知,未知,未知,未知,未知,未知,未知,未知
2,601989,1168288558.3200002,1295202621.45,2014-06-30,半年度报告,1291294708.81,2014,6,未知,未知,未知,未知,未知,未知,未知,未知,未知,未知
3,601989,1973581464.22,2136048238.45,2014-09-30,三季度报告,2119891211.95,2014,9,未知,未知,未知,未知,未知,未知,未知,未知,未知,未知
4,601989,1858908665.5,2123365009.4300003,2014-12-31,年度报告,2033825358.84,2014,12,0.0,True,未知,未知,未知,未知,未知,未知,未知,未知
5,601989,330576605.03000003,371816280.72,2015-03-31,一季度报告,205359317.45,2015,3,3.6965947197069875,False,未知,未知,未知,未知,未知,未知,2760365400.0,未知
6,601989,14951852.4,182065084.42,2015-06-30,半年度报告,-67345901.1,2015,6,1.7146025551346082,False,未知,未知,未知,未知,未知,未知,2240199282.0,未知
7,601989,-711285542.3299999,-441446664.21,2015-09-30,三季度报告,-667302337.89,2015,9,0.6069461347537626,False,未知,未知,未知,未知,未知,未知,,未知
8,601989,-3248290028.95,-2621484487.75,2015-12-31,年度报告,-3330392300.0000005,2015,12,0.7060758091075778,False,未知,未知,未知,未知,未知,未知,2240000000.0,未知
9,601989,125216155.67,211316316.79,2016-03-31,一季度报告,12348412.88,2016,3,8.593658647629313,False,未知,未知,未知,未知,未知,未知,669000000.0,未知
10,601989,636495435.4700003,776910374.5200001,2016-06-30,半年度报告,96160500.0,2016,6,211.11011322918088,False,未知,未知,未知,未知,未知,未知,837500000.0,未知
11,601989,679606785.8999999,899642776.4000002,2016-09-30,三季度报告,141615100.0,2016,9,-5.458742539826032,False,未知,未知,未知,未知,未知,未知,996979967.9999999,未知
12,601989,37130856.56999999,698033610.17,2016-12-31,年度报告,-405670800.00000006,2016,12,-1.9763411140276654,False,2.291477319975424,False,0.0,True,前期平均,698033610.17,965749976.0,965749976.0
13,601989,213784750.27,277070740.38,2017-03-31,一季度报告,257108000.0,2017,3,24.327715010738277,False,0.7510217539715294,True,0.2263235544416857,False,前期平均,-772289638.0050002,957738560.0,957738560.0
14,601989,-41421083.12,627775449.6200001,2017-06-30,半年度报告,13750699.999999998,2017,6,3.9826580503411617,False,0.07585141566064942,True,0.49554592809253384,False,前期平均,-632482424.8150003,1147000000.0,1147000000.0
15,601989,330554817.67,1105222783.25,2017-09-30,三季度报告,-82161700.0,2017,9,3.666579515314991,False,0.07677886637301937,True,0.7444518964274129,False,前期平均,-269355124.3600004,1114750000.0,1114750000.0
16,601989,-242299779.78,837639909.3900001,2017-12-31,年度报告,-787292400.0,2017,12,84.4124951190158,False,-1.053449481253728,True,0.0,True,前期平均,837639909.3900001,1049200000.0,1049200000.0
17,601989,257931694.0300001,274312641.38,2018-03-31,一季度报告,255482000.00000003,2018,3,13.834730267451832,False,0.061921255872197586,True,0.1870143959680788,False,前期平均,-1702572773.7850003,1235393798.0,1235393798.0
18,601989,617183905.1,955522093.68,2018-06-30,半年度报告,890640900.0,2018,6,-77.56581785565824,False,1.1271663383707748,True,0.15894574957076057,False,前期平均,-926916755.7700003,1255590000.0,1255590000.0
19,601989,764340537.02,1419378067.53,2018-09-30,三季度报告,1277808000.0000002,2018,9,8.594290979949099,False,-21.869178902298174,True,0.33430158491966017,False,前期平均,-185809863.52500033,1219860000.0,1219860000.0
20,601989,-194619312.45,658386089.83,2018-12-31,年度报告,-174832899.99999997,2018,12,-14.088906264915138,False,-0.8490889010647107,True,0.0,True,前期平均,658386089.83,1140475000.0,1140475000.0
21,601989,516925143.93,525880115.8899999,2019-03-31,一季度报告,-534875400.0,2019,3,11.295654930956756,False,0.5217168421116349,True,0.8551910017887578,False,前期平均,-205329690.55000013,1098000000.0,1098000000.0
22,601989,1142417241.12,1148927798.06,2019-06-30,半年度报告,29451498.06,2019,6,4.138564177295168,False,1.0743085386311382,True,3.311325051013652,False,前期平均,497490598.05999994,1416000000.0,1416000000.0
23,601989,1218878643.35,1221942820.7600002,2019-09-30,三季度报告,7848920.760000003,2019,9,3.1492488647988788,False,0.51330348395495,True,4.790916237457049,False,前期平均,595734520.7600002,,595734520.7600002
24,601989,454854230.71,501162530.8300001,2019-12-31,年度报告,-952102069.1700002,2019,12,-17.2956032760869,False,-0.8971617085575675,True,0.0,True,前期平均,501162530.8300001,1392050000.0,1392050000.0
25,601989,100407593.4,101110394.33,2020-03-31,一季度报告,78357894.33,2020,3,5.135199927476277,False,1.1916774374787253,True,1.0525987241773203,False,前期平均,-636247255.67,551000000.0,551000000.0
