,SECURITYCODE_x,NETPROFIT_x,PARENTNETPROFIT_x,REPORTDATE_x,REPORTTIMETYPE_x,KCFJCXSYJLR,Year,Month,managesituationChangeRate,managesituationGreatChange,historyprofitextroplaterate,ifhistoryprofitextroplate,IfprofitdisStableChangeRage,IfprofitdisStable,predicttype,predict,analyst_prediction,adj_prediction
0,601919,2879421706.97,235469909.18,2013-12-31,年度报告,-7179599662.120002,2013,12,未知,未知,未知,未知,未知,未知,未知,未知,未知,未知
1,601919,-1625401748.4900002,-1880148936.01,2014-03-31,一季度报告,-1463225504.7900002,2014,3,未知,未知,未知,未知,未知,未知,未知,未知,未知,未知
2,601919,-1673729907.28,-2276731914.2900004,2014-06-30,半年度报告,-2063966211.1100008,2014,6,未知,未知,未知,未知,未知,未知,未知,未知,未知,未知
3,601919,297740697.34000003,-654306183.05,2014-09-30,三季度报告,-1989281874.56,2014,9,未知,未知,未知,未知,未知,未知,未知,未知,未知,未知
4,601919,1550821243.67,362528625.89,2014-12-31,年度报告,-1382177139.18,2014,12,0.0,True,未知,未知,未知,未知,未知,未知,未知,未知
5,601919,-673501612.55,-1008081555.5499998,2015-03-31,一季度报告,-1002747484.17,2015,3,-2.7715138485885014,False,未知,未知,未知,未知,未知,未知,981033553.0,未知
6,601919,2738434852.48,1974102405.3800008,2015-06-30,半年度报告,-2002090444.86,2015,6,-2.720362224780571,False,未知,未知,未知,未知,未知,未知,526460000.0,未知
7,601919,1467014987.58,322131436.45,2015-09-30,三季度报告,-3680557297.97,2015,9,8.670904020493685,False,未知,未知,未知,未知,未知,未知,-606050000.0,未知
8,601919,1467014987.58,322131436.45,2015-09-30,三季度报告,-3814469963.16,2015,9,8.670904020493685,False,未知,未知,未知,未知,未知,未知,-606050000.0,未知
9,601919,2208604003.05,469301789.49,2015-12-31,年度报告,-4616430386.549999,2015,12,0.8567076758349547,False,未知,未知,未知,未知,未知,未知,1765566667.0,未知
10,601919,-4340806730.4,-4460323575.190001,2016-03-31,一季度报告,-2143780233.0,2016,3,-5.275300390251456,False,未知,未知,未知,未知,未知,未知,-1793600000.0,未知
11,601919,-6744489964.51,-7168688632.52,2016-06-30,半年度报告,-4820924872.62,2016,6,0.05148446542824208,True,未知,未知,未知,未知,未知,未知,-7349500000.0,未知
12,601919,-8537745191.8099985,-9176711777.68,2016-09-30,三季度报告,-6818599207.9,2016,9,0.9627759302717948,False,未知,未知,0.0,True,未知,未知,-7254450000.0,未知
13,601919,-9101232179.169998,-9906003612.8,2016-12-31,年度报告,-7094385641.209998,2016,12,0.30372928012157235,True,0.0029422640440330615,True,0.5326279379392654,False,平均增速,-9906003612.8,,-9906003612.8
14,601919,479306762.24,270140451.23,2017-03-31,一季度报告,90920120.98,2017,3,-1.6633379198397678,False,-2.7764151412056433,True,0.6244382821913504,False,盈利变化,-6926403140.826666,2357017273.0,2357017273.0
15,601919,3401360097.1399994,1863466833.9600003,2017-06-30,半年度报告,750036787.01,2017,6,-1.426929496836933,False,13.669218819572738,False,0.3733588287689933,False,盈利变化,-6192029173.046665,3657300000.0,3657300000.0
16,601919,4566517478.19,2735876568.43,2017-09-30,三季度报告,1110459842.25,2017,9,-1.337257864023881,False,10.67583815115692,False,0.0,True,前期平均,2571492391.83,3012977778.0,3012977778.0
17,601919,4830685403.420001,2661935871.48,2017-12-31,年度报告,950068952.5099998,2017,12,-1.3163771289738257,False,5.8418210667232096,False,0.10933189231019613,False,盈利变化,-7224518748.226667,3071730000.0,3071730000.0
18,601919,495683560.8,180872936.58,2018-03-31,一季度报告,150070050.43,2018,3,5.00747148551225,False,-1.1911756236187168,True,0.2005399893411493,False,前期平均,-4101271218.714999,2596647273.0,2596647273.0
19,601919,769137725.82,40795567.48,2018-06-30,半年度报告,-112890237.19,2018,6,-0.15344990687956456,True,-2.6981094877730816,True,0.19308033062227925,False,平均增速,155620225.25592583,1648525000.0,1648525000.0
20,601919,2129590266.94,862585991.6399997,2018-09-30,三季度报告,-383142725.9699999,2018,9,-0.3694490997303054,True,-2.2916678606852012,True,0.0,True,比例外推,853059817.2792686,980631667.0,980631667.0
21,601919,3026361828.49,1230026418.28,2018-12-31,年度报告,190381878.46,2018,12,-0.40393102292866284,True,-2.401696212239115,True,0.39287928336815275,False,平均增速,1230026418.28,980631667.0,980631667.0
22,601919,1092388324.2900002,687356113.0700003,2019-03-31,一季度报告,542725584.5400001,2019,3,4.808991733199314,False,-1.2567310966656269,True,0.8849768842498225,False,前期平均,-1358372175.269999,2727600000.0,2727600000.0
23,601919,2168084798.04,1237231471.4099998,2019-06-30,半年度报告,1052701299.91,2019,6,2.743701043789218,False,-1.4601303307580278,True,2.0516459707412125,False,前期平均,200517169.86500072,5306000000.0,5306000000.0
24,601919,3524258726.71,2116273910.6400008,2019-09-30,三季度报告,1888777480.68,2019,9,0.3521012711555212,True,-2.0725097730539144,True,0.0,True,比例外推,48471890304.95369,4934062000.0,4934062000.0
25,601919,10349754763.849998,6764104771.480002,2019-12-31,年度报告,1585437943.57,2019,12,-0.04855338847348455,True,-2.417318197133437,True,0.37949954820482507,False,平均增速,6764104771.480002,4934062000.0,4934062000.0
26,601919,674234222.4,291519466.59,2020-03-31,一季度报告,75758739.44000001,2020,3,1.6358957185316725,False,1.2408188029681273,True,未知,未知,前期平均,741249796.3699999,1444081667.0,1444081667.0
