,SECURITYCODE_x,NETPROFIT_x,PARENTNETPROFIT_x,REPORTDATE_x,REPORTTIMETYPE_x,KCFJCXSYJLR,Year,Month,managesituationChangeRate,managesituationGreatChange,historyprofitextroplaterate,ifhistoryprofitextroplate,IfprofitdisStableChangeRage,IfprofitdisStable,predicttype,predict,analyst_prediction,adj_prediction
0,601990,272585700.0,270930200.00000006,2013-12-31,年度报告,270097569.88000005,2013,12,未知,未知,未知,未知,未知,未知,未知,未知,未知,未知
1,601990,555474900.0,554444199.9999999,2014-12-31,年度报告,535252658.32,2014,12,0.0,True,未知,未知,未知,未知,未知,未知,未知,未知
2,601990,835142664.5400001,834765685.7499999,2015-05-31,其他报告,,2015,5,未知,未知,未知,未知,未知,未知,未知,未知,未知,未知
3,601990,1055815705.45,1054093910.34,2015-06-30,半年度报告,1052009233.2200004,2015,6,未知,未知,未知,未知,未知,未知,未知,未知,未知,未知
4,601990,1413154059.14,1413026763.5700002,2015-12-31,年度报告,1420469863.3400006,2015,12,-0.5092744964713977,True,未知,未知,未知,未知,未知,未知,未知,未知
5,601990,294132623.76,294317874.92,2016-06-30,半年度报告,286639671.28000003,2016,6,-0.741824545142733,True,未知,未知,未知,未知,未知,未知,764820000.0,未知
6,601990,482958700.0,483171499.9999999,2016-09-30,三季度报告,473556000.0,2016,9,未知,未知,未知,未知,未知,未知,未知,未知,,未知
7,601990,493719756.2099999,493557293.51,2016-12-31,年度报告,484444696.4199999,2016,12,-0.8071082920952817,True,2.4131657976239906,False,0.0,True,比例外推,493557293.51,未知,493557293.51
8,601990,243673714.83000004,242529889.43000007,2017-06-30,半年度报告,238509151.37,2017,6,-0.07325581054069469,True,未知,未知,未知,未知,未知,未知,未知,未知
9,601990,320246497.9,318966865.19,2017-09-30,三季度报告,313438666.2,2017,9,-0.43559211170644613,True,未知,未知,未知,未知,未知,未知,未知,未知
10,601990,412211555.24,410602756.36,2017-12-31,年度报告,406744610.6,2017,12,-0.4478938779106547,True,0.4984125841309553,True,0.0,True,比例外推,410602756.36,未知,410602756.36
11,601990,412211555.24,410602756.36,2017-12-31,年度报告,406744610.6,2017,12,-0.4478938779106547,True,0.4984125841309553,True,0.0,True,比例外推,410602756.36,未知,410602756.36
12,601990,4361278048.03,3017962505.6600013,2017-12-31,年度报告,406744610.6,2017,12,-0.4478938779106547,True,0.4984125841309553,True,0.0,True,比例外推,3017962505.6600013,未知,3017962505.6600013
13,601990,4361278048.03,3017962505.6600013,2017-12-31,年度报告,406744610.6,2017,12,-0.4478938779106547,True,0.4984125841309553,True,0.0,True,比例外推,3017962505.6600013,未知,3017962505.6600013
14,601990,110726950.65,110403256.41,2018-03-31,一季度报告,110068678.98,2018,3,未知,未知,未知,未知,未知,未知,未知,未知,未知,未知
15,601990,187871451.28,186344485.29000005,2018-06-30,半年度报告,184315894.04,2018,6,0.11865040589285768,True,0.6389880863475719,True,0.1010468056034054,False,平均增速,301006289.0075786,444333333.0,444333333.0
16,601990,229563197.1200001,226018990.69,2018-09-30,三季度报告,225096422.92,2018,9,-0.14882535238490732,True,未知,未知,未知,未知,未知,未知,,未知
17,601990,235682637.69,231780216.69,2018-12-31,年度报告,217696631.64,2018,12,-0.33872377779100904,True,0.5676572283684749,True,0.0,True,比例外推,231780216.69,未知,231780216.69
18,601990,211153812.17999995,211015891.41000003,2019-03-31,一季度报告,211250434.15,2019,3,1.461782776459039,False,未知,未知,未知,未知,未知,未知,438000000.0,未知
19,601990,385296939.83,383854900.18,2019-06-30,半年度报告,382914795.81,2019,6,0.4509160287144613,True,0.30134162504460565,True,0.17175177540726894,False,平均增速,430002192.72655255,659000000.0,659000000.0
20,601990,655705996.45,651925414.55,2019-09-30,三季度报告,650101718.3000001,2019,9,0.18741027925966136,True,0.4283821924454702,True,0.15676946752190601,False,平均增速,638696375.5866964,,638696375.5866964
21,601990,715145844.86,709811700.4100001,2019-12-31,年度报告,710797751.0899999,2019,12,0.15657946920358062,True,0.47968982921503145,True,0.0,True,比例外推,709811700.4100001,未知,709811700.4100001
22,601990,231629329.85,230832848.2700001,2020-03-31,一季度报告,233986656.39,2020,3,0.2909343060670479,True,未知,未知,未知,未知,未知,未知,未知,未知
