,SECURITYCODE_x,NETPROFIT_x,PARENTNETPROFIT_x,REPORTDATE_x,REPORTTIMETYPE_x,KCFJCXSYJLR,Year,Month,managesituationChangeRate,managesituationGreatChange,historyprofitextroplaterate,ifhistoryprofitextroplate,IfprofitdisStableChangeRage,IfprofitdisStable,predicttype,predict,analyst_prediction,adj_prediction
0,601998,10931000000.0,10705999999.999998,2014-03-31,一季度报告,10688000000.000002,2014,3,未知,未知,未知,未知,未知,未知,未知,未知,未知,未知
1,601998,22425000000.0,22034000000.0,2014-06-30,半年度报告,21997000000.0,2014,6,未知,未知,未知,未知,未知,未知,未知,未知,未知,未知
2,601998,32853000000.0,32280000000.0,2014-09-30,三季度报告,32199000000.000008,2014,9,未知,未知,未知,未知,未知,未知,未知,未知,未知,未知
3,601998,41454000000.0,40692000000.000015,2014-12-31,年度报告,40498999999.99999,2014,12,未知,未知,未知,未知,未知,未知,未知,未知,未知,未知
4,601998,11097000000.0,10928000000.000002,2015-03-31,一季度报告,10936000000.0,2015,3,0.0,True,未知,未知,未知,未知,未知,未知,42718308935.0,未知
5,601998,22969000000.0,22586000000.000004,2015-06-30,半年度报告,22442000000.0,2015,6,-0.5125529542920847,True,未知,未知,未知,未知,未知,未知,42054454157.0,未知
6,601998,33433999999.999992,32926000000.000008,2015-09-30,三季度报告,32754000000.0,2015,9,-0.6672754390771011,True,未知,未知,未知,未知,未知,未知,41744229104.0,未知
7,601998,41740000000.0,41158000000.000015,2015-12-31,年度报告,40892999999.99999,2015,12,-0.7363101268876345,True,未知,未知,未知,未知,未知,未知,41728274178.0,未知
8,601998,11202999999.999998,11200000000.0,2016-03-31,一季度报告,11150000000.0,2016,3,-0.014958997927367757,True,未知,未知,未知,未知,未知,未知,42096065785.0,未知
9,601998,23677000000.0,23600000000.000004,2016-06-30,半年度报告,23494000000.0,2016,6,-0.5240976968958161,True,未知,未知,未知,未知,未知,未知,42185241167.0,未知
10,601998,34623000000.0,34543000000.0,2016-09-30,三季度报告,34411000000.000015,2016,9,-0.6730573667524077,True,未知,未知,未知,未知,未知,未知,42992270164.0,未知
11,601998,41785999999.99999,41628999999.99999,2016-12-31,年度报告,41601000000.000015,2016,12,-0.7381169142309535,True,未知,未知,未知,未知,未知,未知,43030770164.0,未知
12,601998,11392000000.000002,11389000000.000002,2017-03-31,一季度报告,11389000000.000002,2017,3,-0.02427921092564475,True,0.017159978209551306,True,0.00254551170796119,True,比例外推,42742955715.505554,43031437500.0,42742955715.505554
13,601998,24164000000.0,24011000000.0,2017-06-30,半年度报告,23854000000.0,2017,6,-0.5383283355154792,True,0.043177512446578845,True,0.012514927718344171,True,比例外推,43352682894.19115,42553571429.0,43352682894.19115
14,601998,34895000000.0,34738000000.000015,2017-09-30,三季度报告,34543000000.0,2017,9,-0.6842850128527279,True,0.044639220359950035,True,0.019436727787927266,True,比例外推,42960481049.61998,42273800000.0,42960481049.61998
15,601998,42878000000.000015,42566000000.000015,2017-12-31,年度报告,42388999999.99999,2017,12,-0.7384052074857608,True,0.004543596894006596,True,0.0,True,比例外推,42566000000.000015,44109655246.0,42566000000.000015
16,601998,12428999999.999996,12166000000.0,2018-03-31,一季度报告,12094000000.000002,2018,3,-0.040466994382022635,True,0.021704035874439632,True,0.0006347842960591765,True,比例外推,45191557226.19516,45792250000.0,45191557226.19516
17,601998,26175000000.000008,25721000000.0,2018-06-30,半年度报告,25576000000.0,2018,6,-0.5476328422446615,True,0.03605882605153711,True,0.009963402577617297,True,比例外推,45917660910.314415,45710818182.0,45917660910.314415
18,601998,37471999999.99999,36799000000.0,2018-09-30,三季度报告,36625000000.0,2018,9,-0.6867459521421407,True,0.025463949336585624,True,0.013378554860098979,True,比例外推,45148688786.632225,45549000000.0,45148688786.632225
19,601998,45375999999.99999,44513000000.000015,2018-12-31,年度报告,44377000000.0,2018,12,-0.7450674005317414,True,0.026698273591456916,True,0.0,True,比例外推,44513000000.000015,45155333333.0,44513000000.000015
20,601998,13401999999.999998,13216000000.0,2019-03-31,一季度报告,13257000000.0,2019,3,-0.12052457961219701,True,0.10015490152688614,True,0.0027855086878823543,True,比例外推,49105770723.65955,46863700000.0,49105770723.65955
21,601998,28837000000.000008,28307000000.0,2019-06-30,半年度报告,28289999999.999992,2019,6,-0.5823877745940784,True,0.09424970213833354,True,0.008394267379338238,True,比例外推,49828571719.70066,48627000000.0,49828571719.70066
22,601998,41544000000.0,40752000000.000015,2019-09-30,三季度报告,40720999999.99999,2019,9,-0.7082888556789069,True,0.07805172761011514,True,0.007557637042258647,True,比例外推,49542075108.69818,49151000000.0,49542075108.69818
23,601998,48994000000.0,48014999999.999985,2019-12-31,年度报告,47946000000.000015,2019,12,-0.7591017277856135,True,0.07190777662288558,True,0.0,True,比例外推,48014999999.999985,46974600000.0,48014999999.999985
24,601998,14559000000.0,14452999999.999996,2020-03-31,一季度报告,14411000000.000004,2020,3,-0.1843754663483061,True,0.12522564124092173,True,0.00393012161810441,True,比例外推,52913124914.43257,50593888889.0,52913124914.43257
