,SECURITYCODE_x,NETPROFIT_x,PARENTNETPROFIT_x,REPORTDATE_x,REPORTTIMETYPE_x,KCFJCXSYJLR,Year,Month,managesituationChangeRate,managesituationGreatChange,historyprofitextroplaterate,ifhistoryprofitextroplate,IfprofitdisStableChangeRage,IfprofitdisStable,predicttype,predict,analyst_prediction,adj_prediction
0,601900,275651765.57,256646502.34000003,2012-12-31,年度报告,256639415.78000003,2012,12,未知,未知,未知,未知,未知,未知,未知,未知,未知,未知
1,601900,347354354.94,287776375.91,2014-09-30,三季度报告,239915175.91000003,2014,9,未知,未知,未知,未知,未知,未知,未知,未知,未知,未知
2,601900,351442776.19000006,308763751.54,2014-12-31,年度报告,218566819.78,2014,12,未知,未知,未知,未知,未知,未知,未知,未知,未知,未知
3,601900,123149482.76999998,105721620.74,2015-03-31,一季度报告,88182090.07000001,2015,3,未知,未知,未知,未知,未知,未知,未知,未知,未知,未知
4,601900,203121896.32,175869554.37,2015-06-30,半年度报告,141401818.18,2015,6,未知,未知,未知,未知,未知,未知,未知,未知,未知,未知
5,601900,449645098.03,376982379.16,2015-12-31,年度报告,287502418.63000005,2015,12,-0.21565676051632732,True,未知,未知,未知,未知,未知,未知,未知,未知
6,601900,130990168.29,110870888.61,2016-03-31,一季度报告,98280989.95,2016,3,1.2383509810172793,False,未知,未知,未知,未知,未知,未知,,未知
7,601900,216452046.54999995,188937955.57,2016-06-30,半年度报告,155355122.57999992,2016,6,0.3570755815302936,True,未知,未知,未知,未知,未知,未知,未知,未知
8,601900,410248542.22,346839349.47,2016-09-30,三季度报告,295377362.19000006,2016,9,未知,未知,未知,未知,未知,未知,未知,未知,未知,未知
9,601900,502526393.16,422261959.62,2016-12-31,年度报告,319332681.15000004,2016,12,-0.3869570317174708,True,未知,未知,未知,未知,未知,未知,426930000.0,未知
10,601900,133698111.1,111160779.6,2017-03-31,一季度报告,97562414.06,2017,3,1.1043698864462308,False,未知,未知,未知,未知,未知,未知,509310000.0,未知
11,601900,255397468.87000003,219921397.38,2017-06-30,半年度报告,169603940.33,2017,6,0.27350038940992427,True,未知,未知,未知,未知,未知,未知,496155000.0,未知
12,601900,476970149.65,445894087.7699999,2017-09-30,三季度报告,369833198.64,2017,9,-0.32808593522757995,True,未知,未知,未知,未知,未知,未知,534666667.0,未知
13,601900,649796018.36,611423556.9100003,2017-12-31,年度报告,434267590.1999999,2017,12,-0.45146808342415784,True,0.2546099106775218,True,0.0,True,比例外推,611423556.9100003,534666667.0,534666667.0
14,601900,167892178.10000002,167553071.67000002,2018-03-31,一季度报告,156567621.87999997,2018,3,1.061747644017388,False,0.0521625456110752,True,0.05505609953132956,True,前期平均,377739081.5500001,713766667.0,713766667.0
15,601900,259624742.43000004,255555034.74,2018-06-30,半年度报告,220710217.42,2018,6,0.07930500168860172,True,0.21741339380139696,True,0.06574139585646854,True,比例外推,518547562.9949188,682500000.0,682500000.0
16,601900,489445121.16,483488502.76,2018-09-30,三季度报告,429482865.09999985,2018,9,-0.42207753300227935,True,未知,未知,未知,未知,未知,未知,685000000.0,未知
17,601900,662802763.8200003,655293807.8499999,2018-12-31,年度报告,536739242.09,2018,12,-0.5757872350992409,True,0.3648718206168959,True,0.0,True,比例外推,655293807.8499999,671655000.0,655293807.8499999
18,601900,273267323.51,274908250.14000005,2019-03-31,一季度报告,127152963.63,2019,3,0.6418380456403165,False,0.26860304118432415,True,0.05005067602453922,True,前期平均,553786683.81,724540000.0,724540000.0
19,601900,391959539.04999983,389956058.8100001,2019-06-30,半年度报告,183043362.94,2019,6,0.06173149365500539,True,0.10045569167917599,True,0.05708040862169711,True,比例外推,633170997.4386053,768470000.0,768470000.0
20,601900,609975300.73,607609707.9000001,2019-09-30,三季度报告,437207497.3200002,2019,9,-0.43680761406570606,True,0.10332463832201616,True,0.06605693899671083,True,比例外推,679418551.1984978,764682500.0,764682500.0
21,601900,741824641.4499999,733104601.3299999,2019-12-31,年度报告,519862586.28,2019,12,-0.5841119249694925,True,0.15037728537400147,True,0.0,True,比例外推,733104601.3299999,764162500.0,733104601.3299999
22,601900,112713980.96,113603332.29,2020-03-31,一季度报告,120798846.71,2020,3,0.008725675757250742,True,0.8121758776442722,True,0.038051229684808396,True,比例外推,469046298.5125735,730436667.0,730436667.0
