,SECURITYCODE_x,NETPROFIT_x,PARENTNETPROFIT_x,REPORTDATE_x,REPORTTIMETYPE_x,KCFJCXSYJLR,Year,Month,managesituationChangeRate,managesituationGreatChange,historyprofitextroplaterate,ifhistoryprofitextroplate,IfprofitdisStableChangeRage,IfprofitdisStable,predicttype,predict,analyst_prediction,adj_prediction
0,601988,47199000000.0,45363000000.0,2014-03-31,一季度报告,45195999999.999985,2014,3,未知,未知,未知,未知,未知,未知,未知,未知,未知,未知
1,601988,93408999999.99997,89724000000.00003,2014-06-30,半年度报告,88784999999.99997,2014,6,未知,未知,未知,未知,未知,未知,未知,未知,未知,未知
2,601988,136798000000.00005,131133000000.0,2014-09-30,三季度报告,130278999999.99995,2014,9,未知,未知,未知,未知,未知,未知,未知,未知,未知,未知
3,601988,177198000000.0,169595000000.0,2014-12-31,年度报告,168356000000.0,2014,12,未知,未知,未知,未知,未知,未知,未知,未知,未知,未知
4,601988,47769000000.000015,45838000000.0,2015-03-31,一季度报告,45655000000.0,2015,3,0.0,True,未知,未知,未知,未知,未知,未知,176504406507.0,未知
5,601988,94986000000.00003,90746000000.0,2015-06-30,半年度报告,90128999999.99997,2015,6,-0.4947060775728247,True,未知,未知,未知,未知,未知,未知,174196000000.0,未知
6,601988,137874000000.0,131545000000.0,2015-09-30,三季度报告,130993000000.00005,2015,9,-0.6549730259214317,True,未知,未知,未知,未知,未知,未知,172075200000.0,未知
7,601988,179417000000.0,170845000000.00006,2015-12-31,年度报告,169647000000.00006,2015,12,-0.7336369484982901,True,未知,未知,未知,未知,未知,未知,172231966138.99997,未知
8,601988,48633000000.0,46618999999.999985,2016-03-31,一季度报告,46347000000.000015,2016,3,-0.011932424794322993,True,未知,未知,未知,未知,未知,未知,173517828517.99997,未知
9,601988,107307999999.99997,93037000000.00003,2016-06-30,半年度报告,74064999999.99997,2016,6,-0.5030951929758071,True,未知,未知,未知,未知,未知,未知,171234880864.0,未知
10,601988,151558000000.00006,134813000000.0,2016-09-30,三季度报告,115307000000.00005,2016,9,-0.6576656947647852,True,未知,未知,未知,未知,未知,未知,171945768769.0,未知
11,601988,184051000000.0,164578000000.0,2016-12-31,年度报告,143840999999.99994,2016,12,-0.7369312829887915,True,未知,未知,未知,未知,未知,未知,172000739865.0,未知
12,601988,50327000000.0,46648999999.99999,2017-03-31,一季度报告,45064000000.000015,2017,3,-0.02948615137869348,True,0.02419762446297684,True,0.03561576705777447,True,比例外推,158824763512.98172,169216275000.0,158824763512.98172
13,601988,110549000000.0,103690000000.00003,2017-06-30,半年度报告,101717000000.0,2017,6,-0.5601539493793565,True,0.1391809761405554,True,0.009606916264619292,True,比例外推,195898543883.4603,172527571429.0,172527571429.0
14,601988,155134999999.99994,145506000000.0,2017-09-30,三季度报告,143485000000.00006,2017,9,-0.6885746710830178,True,0.10355624162637639,True,0.01909183747048615,True,比例外推,185379894631.85422,177209000000.0,185379894631.85422
15,601988,184986000000.0,172407000000.0,2017-12-31,年度报告,170095000000.0,2017,12,-0.7435547755785081,True,0.03221120816566886,True,0.0,True,比例外推,172407000000.0,175944200000.0,172407000000.0
16,601988,52183000000.0,49000999999.999985,2018-03-31,一季度报告,48668999999.999985,2018,3,-0.06215351600532518,True,0.04410696873508832,True,0.03678931349146064,True,比例外推,170848758270.40997,182166700000.0,170848758270.40997
17,601988,115575000000.0,109087999999.99997,2018-06-30,半年度报告,108271000000.00003,2018,6,-0.5730490551701055,True,0.09295381968817662,True,0.04993988284388551,True,比例外推,198369742737.22305,182707700000.0,198369742737.22305
18,601988,162748000000.0,153273999999.99994,2018-09-30,三季度报告,152270000000.00006,2018,9,-0.6957553098913848,True,0.07199618563254861,True,0.037779143429387596,True,比例外推,189976441442.81216,182912625000.0,189976441442.81216
19,601988,192435000000.00006,180086000000.00006,2018-12-31,年度报告,178849000000.0,2018,12,-0.7448509616943985,True,0.017894285053979993,True,0.0,True,比例外推,180086000000.00006,183314571429.0,180086000000.00006
20,601988,54787999999.99999,50964999999.999985,2019-03-31,一季度报告,50797000000.0,2019,3,-0.09551003200275952,True,0.054628132578819724,True,0.03578738916510632,True,比例外推,177517862385.85388,184200051413.99997,177517862385.85388
21,601988,121442000000.00005,114048000000.0,2019-06-30,半年度报告,113459000000.00005,2019,6,-0.5916158338741078,True,0.06101708919153404,True,0.05785335791962387,True,比例外推,198679942091.22217,198156796598.99997,198679942091.22217
22,601988,171246000000.0,159579000000.00006,2019-09-30,三季度报告,158704999999.99994,2019,9,-0.7099872195050015,True,0.061308865869126455,True,0.030563413300130016,True,比例外推,191581284240.91837,180270000000.0,191581284240.91837
23,601988,201891000000.00006,187405000000.0,2019-12-31,年度报告,186426000000.00006,2019,12,-0.7547275703484294,True,0.04290355709590128,True,0.0,True,比例外推,187405000000.0,180270000000.0,187405000000.0
24,601988,56322000000.0,52582999999.999985,2020-03-31,一季度报告,52743999999.999985,2020,3,-0.1385157333722712,True,0.06892986050141435,True,0.004910965450048599,True,比例外推,195299163566.40564,187247428571.0,195299163566.40564
