,SECURITYCODE_x,NETPROFIT_x,PARENTNETPROFIT_x,REPORTDATE_x,REPORTTIMETYPE_x,KCFJCXSYJLR,Year,Month,managesituationChangeRate,managesituationGreatChange,historyprofitextroplaterate,ifhistoryprofitextroplate,IfprofitdisStableChangeRage,IfprofitdisStable,predicttype,predict,analyst_prediction,adj_prediction
0,601949,265284671.36,259766088.81,2012-12-31,年度报告,191554582.17000008,2012,12,未知,未知,未知,未知,未知,未知,未知,未知,未知,未知
1,601949,680642968.12,674919678.1899999,2013-12-31,年度报告,620939213.0099999,2013,12,0.0,True,未知,未知,未知,未知,未知,未知,未知,未知
2,601949,480849406.7999999,476722785.5500001,2014-12-31,年度报告,333412742.86,2014,12,-0.6102440136967238,True,未知,未知,未知,未知,未知,未知,未知,未知
3,601949,96099551.3,102670736.77999996,2015-06-30,半年度报告,39184660.95999999,2015,6,未知,未知,未知,未知,未知,未知,未知,未知,未知,未知
4,601949,657759289.35,656596747.78,2015-12-31,年度报告,476880039.78,2015,12,-0.4482998884714438,True,0.016672706729099884,True,0.0,True,比例外推,656596747.78,未知,656596747.78
5,601949,-10581994.47,-4008300.0,2016-03-31,一季度报告,-126335792.57,2016,3,未知,未知,未知,未知,未知,未知,未知,未知,未知,未知
6,601949,73379918.14999999,79137811.0,2016-06-30,半年度报告,-96959389.0,2016,6,1.7605193548910982,False,未知,未知,未知,未知,未知,未知,未知,未知
7,601949,154146440.08,162147607.27,2016-09-30,三季度报告,-64409611.34,2016,9,未知,未知,未知,未知,未知,未知,未知,未知,未知,未知
8,601949,571062092.92,580989698.9699999,2016-12-31,年度报告,265095431.9,2016,12,-0.5966842648134164,True,0.1326106026228619,True,0.0,True,比例外推,580989698.9699999,未知,580989698.9699999
9,601949,-112454941.64,-97811453.27,2017-03-31,一季度报告,-113289915.58,2017,3,-26.069439613872717,False,未知,未知,未知,未知,未知,未知,未知,未知
10,601949,27206942.72,38677459.84,2017-06-30,半年度报告,-11016889.750000002,2017,6,2.6152216852806625,False,未知,未知,未知,未知,未知,未知,583265000.0,未知
11,601949,140538605.76999998,149423617.28,2017-09-30,三季度报告,61849342.22000001,2017,9,0.7209912290048391,False,未知,未知,未知,未知,未知,未知,,未知
12,601949,525587455.2600001,530652216.9,2017-12-31,年度报告,376645068.47,2017,12,-0.5354538943330568,True,0.003087531038439327,True,0.0,True,比例外推,530652216.9,未知,530652216.9
13,601949,-62491165.27,-55510721.87,2018-03-31,一季度报告,-72693694.48999998,2018,3,-3.35903080372627,False,未知,未知,未知,未知,未知,未知,未知,未知
14,601949,85099613.27000001,86552103.56,2018-06-30,半年度报告,44425032.98,2018,6,8.750624099523963,False,0.6789352384888528,True,0.2614747623950775,False,前期平均,486427203.41999996,未知,486427203.41999996
15,601949,235205892.96000004,234754490.04,2018-09-30,三季度报告,163655977.17,2018,9,0.8876284555871757,False,未知,未知,未知,未知,未知,未知,未知,未知
16,601949,619570924.3000001,602366074.51,2018-12-31,年度报告,479286025.36,2018,12,-0.4952606484323951,True,0.1445665532136442,True,0.0,True,比例外推,602366074.51,未知,602366074.51
17,601949,55670426.5,58320728.20999999,2019-03-31,一季度报告,26765803.20000001,2019,3,-5.245154818506075,False,-0.015811466796123285,True,0.16689223429292682,False,盈利变化,734978738.0966667,593100000.0,593100000.0
18,601949,237512734.23000005,231847102.51,2019-06-30,半年度报告,177549167.88000005,2019,6,2.1173428546416235,False,0.6920622143678201,True,0.2649818366704952,False,前期平均,606705492.0699999,685233333.0,685233333.0
19,601949,374503978.79,358187210.41000015,2019-09-30,三季度报告,271172404.93,2019,9,0.12788275846947117,True,0.5963205209925994,True,0.330534780484447,False,平均增速,832203290.223042,668000000.0,668000000.0
20,601949,741925761.42,702771582.8800001,2019-12-31,年度报告,567977765.7299999,2019,12,-0.5718251761737813,True,0.12993421704908403,True,0.0,True,比例外推,702771582.8800001,未知,702771582.8800001
21,601949,-51454377.74000002,-43374575.49000001,2020-03-31,一季度报告,-68248642.75,2020,3,3.7652710431453227,False,-1.6364294408521969,True,0.18223573635269255,False,盈利变化,576085654.9466667,772000000.0,772000000.0
