,SECURITYCODE_x,NETPROFIT_x,PARENTNETPROFIT_x,REPORTDATE_x,REPORTTIMETYPE_x,KCFJCXSYJLR,Year,Month,managesituationChangeRate,managesituationGreatChange,historyprofitextroplaterate,ifhistoryprofitextroplate,IfprofitdisStableChangeRage,IfprofitdisStable,predicttype,predict,analyst_prediction,adj_prediction
0,603013,397290523.28,390659890.11,2015-12-31,年度报告,281350414.33,2015,12,未知,未知,未知,未知,未知,未知,未知,未知,未知,未知
1,603013,388131525.91,376444898.23,2016-12-31,年度报告,344305375.95000005,2016,12,0.0,True,未知,未知,未知,未知,未知,未知,未知,未知
2,603013,47103924.60000001,39261234.32,2017-03-31,一季度报告,38746934.32000001,2017,3,未知,未知,未知,未知,未知,未知,未知,未知,未知,未知
3,603013,192950851.27,178284276.16000003,2017-06-30,半年度报告,175355360.1,2017,6,未知,未知,未知,未知,未知,未知,未知,未知,未知,未知
4,603013,261378553.53,243236486.68000007,2017-09-30,三季度报告,239475506.15,2017,9,未知,未知,未知,未知,未知,未知,未知,未知,未知,未知
5,603013,358989948.51,334765410.81,2017-12-31,年度报告,330651112.71000004,2017,12,0.02359766408700265,True,未知,未知,未知,未知,未知,未知,未知,未知
6,603013,78900392.49999999,72082565.41,2018-03-31,一季度报告,65102881.12,2018,3,7.434340167061151,False,未知,未知,未知,未知,未知,未知,未知,未知
7,603013,200243482.11999995,186393283.32,2018-06-30,半年度报告,177145991.26,2018,6,1.0590244648574436,False,未知,未知,未知,未知,未知,未知,未知,未知
8,603013,252609756.66,233625655.67000008,2018-09-30,三季度报告,219285836.72,2018,9,0.5199813370854871,False,未知,未知,未知,未知,未知,未知,未知,未知
9,603013,357026289.39,333524316.98999995,2018-12-31,年度报告,297009927.96,2018,12,0.10668982496297688,True,0.0858674036965892,True,0.0,True,比例外推,333524316.98999995,未知,333524316.98999995
10,603013,66488187.12000001,63023542.37999999,2019-03-31,一季度报告,59265513.39,2019,3,4.035342799847289,False,未知,未知,未知,未知,未知,未知,未知,未知
11,603013,177197971.38000005,164437832.82,2019-06-30,半年度报告,157210719.59999996,2019,6,0.984037228447294,False,未知,未知,未知,未知,未知,未知,未知,未知
12,603013,315093735.11,290302559.12,2019-09-30,三季度报告,280119134.99000007,2019,9,0.5727441747815505,False,未知,未知,未知,未知,未知,未知,未知,未知
13,603013,418099996.33,384037522.28999984,2019-12-31,年度报告,361416134.42,2019,12,0.11277666403444338,True,0.044261738916916975,True,0.0,True,比例外推,384037522.28999984,未知,384037522.28999984
14,603013,84953575.63,79170690.80999999,2020-03-31,一季度报告,75675201.05000001,2020,3,4.975355029051361,False,0.055331891005502946,True,0.05240782442738695,True,前期平均,341076303.42499995,未知,341076303.42499995
