,SECURITYCODE_x,NETPROFIT_x,PARENTNETPROFIT_x,REPORTDATE_x,REPORTTIMETYPE_x,KCFJCXSYJLR,Year,Month,managesituationChangeRate,managesituationGreatChange,historyprofitextroplaterate,ifhistoryprofitextroplate,IfprofitdisStableChangeRage,IfprofitdisStable,predicttype,predict,analyst_prediction,adj_prediction
0,603095,99051975.93,96724002.74,2015-12-31,年度报告,85354885.2,2015,12,未知,未知,未知,未知,未知,未知,未知,未知,未知,未知
1,603095,105113194.14000002,104774660.28000002,2016-12-31,年度报告,93163172.79,2016,12,0.0,True,未知,未知,未知,未知,未知,未知,未知,未知
2,603095,109233739.31000002,109013949.57000002,2017-12-31,年度报告,150999675.89999998,2017,12,-0.05766372394627344,True,未知,未知,未知,未知,未知,未知,未知,未知
3,603095,148772984.75000003,148772984.75000003,2018-09-30,三季度报告,139312217.2,2018,9,未知,未知,未知,未知,未知,未知,未知,未知,未知,未知
4,603095,166654767.79999998,166654767.79999998,2018-12-31,年度报告,155256410.04,2018,12,-0.09321079223613012,True,0.07005263701490477,True,0.0,True,比例外推,166654767.79999998,未知,166654767.79999998
5,603095,37359102.54,37359102.54,2019-03-31,一季度报告,35201299.99000001,2019,3,未知,未知,未知,未知,未知,未知,未知,未知,未知,未知
6,603095,100929579.7,100929579.7,2019-06-30,半年度报告,94147187.17,2019,6,未知,未知,未知,未知,未知,未知,未知,未知,未知,未知
7,603095,172718570.48000002,172718570.48000002,2019-12-31,年度报告,150176957.84,2019,12,-0.40564571156541485,True,0.555000252325746,True,0.0,True,比例外推,172718570.48000002,未知,172718570.48000002
8,603095,33728918.300000004,33728918.300000004,2020-03-31,一季度报告,29256471.399999995,2020,3,1.6513478428435506,False,未知,未知,未知,未知,未知,未知,未知,未知
