,SECURITYCODE_x,NETPROFIT_x,PARENTNETPROFIT_x,REPORTDATE_x,REPORTTIMETYPE_x,KCFJCXSYJLR,Year,Month,managesituationChangeRate,managesituationGreatChange,historyprofitextroplaterate,ifhistoryprofitextroplate,IfprofitdisStableChangeRage,IfprofitdisStable,predicttype,predict,analyst_prediction,adj_prediction
0,603018,104255849.77,104307094.55000004,2014-09-30,三季度报告,103698289.40999998,2014,9,未知,未知,未知,未知,未知,未知,未知,未知,未知,未知
1,603018,165961003.63,165925375.43,2014-12-31,年度报告,158832901.94,2014,12,未知,未知,未知,未知,未知,未知,未知,未知,未知,未知
2,603018,35754562.41,35777500.49999999,2015-03-31,一季度报告,35298000.49999999,2015,3,未知,未知,未知,未知,未知,未知,未知,未知,238666667.00000003,未知
3,603018,74583934.80999999,74602739.52,2015-06-30,半年度报告,73994519.94000001,2015,6,未知,未知,未知,未知,未知,未知,未知,未知,203156667.00000003,未知
4,603018,94395661.94,94438172.96,2015-09-30,三季度报告,93783430.64000002,2015,9,0.0,True,未知,未知,未知,未知,未知,未知,189000000.0,未知
5,603018,160316089.96,160265232.97,2015-12-31,年度报告,153051359.69,2015,12,-0.3718051380164457,True,未知,未知,未知,未知,未知,未知,,未知
6,603018,41335700.72000001,41331208.14000001,2016-03-31,一季度报告,40346672.42,2016,3,1.9158754224003942,False,未知,未知,未知,未知,未知,未知,236000000.0,未知
7,603018,92429455.44,92384503.15000002,2016-06-30,半年度报告,88614805.38,2016,6,0.3978325229902149,True,未知,未知,未知,未知,未知,未知,218136667.00000003,未知
8,603018,124818910.2,124107981.93999998,2016-09-30,三季度报告,117921805.04999998,2016,9,0.10445594243798359,True,未知,未知,未知,未知,未知,未知,220942000.0,未知
9,603018,212434134.81000003,209869825.51,2016-12-31,年度报告,201344927.14,2016,12,-0.34968567536787754,True,未知,未知,未知,未知,未知,未知,221951667.00000003,未知
10,603018,50423946.39000002,49056088.23000001,2017-03-31,一季度报告,48451602.07000002,2017,3,1.52217448728422,False,未知,未知,未知,未知,未知,未知,288832308.0,未知
11,603018,122073353.52,120646083.02,2017-06-30,半年度报告,116059646.74,2017,6,0.12795049233712114,True,未知,未知,未知,未知,未知,未知,291935000.0,未知
12,603018,181138627.23,179208610.10000002,2017-09-30,三季度报告,170103748.49999997,2017,9,-0.1647431498724943,True,0.25666207244590233,True,0.0357749153736,True,比例外推,284754312.9971744,296934167.0,284754312.9971744
13,603018,301212956.91000015,296656658.56999993,2017-12-31,年度报告,277858148.45,2017,12,-0.5092321209901324,True,0.3021700817094128,True,0.0,True,比例外推,296656658.56999993,297242500.0,296656658.56999993
14,603018,61452818.75000001,59259985.37999998,2018-03-31,一季度报告,55900098.71000001,2018,3,1.0675860822879941,False,0.3081793820049195,True,0.028831926519534312,True,前期平均,198635792.33499998,391794545.0,391794545.0
15,603018,170965486.04,167647651.46,2018-06-30,半年度报告,156400511.96999997,2018,6,-0.14595735462515047,True,0.46183911765721425,True,0.03637191755738378,True,比例外推,361065912.382444,395773125.0,361065912.382444
16,603018,247197648.1200001,242227582.65,2018-09-30,三季度报告,223918659.99,2018,9,-0.42444164801126827,True,0.6526148372501164,True,0.017871021099495787,True,比例外推,389316738.44663405,395226000.0,389316738.44663405
17,603018,405829546.23999983,396169215.81000006,2018-12-31,年度报告,357594339.06999993,2018,12,-0.6538799298691831,True,0.6161651255655666,True,0.0,True,比例外推,396169215.81000006,395226000.0,396169215.81000006
18,603018,77614435.83000001,76488201.27999999,2019-03-31,一季度报告,73743090.14,2019,3,0.6965185957397598,False,0.3394301457225815,True,0.02335790159567261,True,前期平均,271690601.83,516895000.0,516895000.0
19,603018,212292529.12000003,206574562.11000004,2019-06-30,半年度报告,180599078.45,2019,6,-0.3901935871102794,True,0.5940629110538246,True,0.0140317340079254,True,比例外推,444294607.337971,500528571.0,500528571.0
20,603018,299208396.19000006,291862500.64,2019-09-30,三季度报告,260396552.06,2019,9,-0.5782490223394445,True,0.61589513496824,True,0.022345273195844118,True,比例外推,459738567.62231594,491851667.0,459738567.62231594
21,603018,532813549.0500001,517967351.81000006,2019-12-31,年度报告,463336198.8600001,2019,12,-0.7431043384200886,True,0.5801882373403023,True,0.0,True,比例外推,517967351.81000006,511000000.0,517967351.81000006
22,603018,60185722.31,59447796.56,2020-03-31,一季度报告,51763354.42,2020,3,0.34325333496404,True,0.38749874887560576,True,0.011090401322794319,True,比例外推,324696916.58377373,636636154.0,636636154.0
