,SECURITYCODE_x,NETPROFIT_x,PARENTNETPROFIT_x,REPORTDATE_x,REPORTTIMETYPE_x,KCFJCXSYJLR,Year,Month,managesituationChangeRate,managesituationGreatChange,historyprofitextroplaterate,ifhistoryprofitextroplate,IfprofitdisStableChangeRage,IfprofitdisStable,predicttype,predict,analyst_prediction,adj_prediction
0,603045,12615399.999999994,12615399.999999994,2013-12-31,年度报告,9464945.21,2013,12,未知,未知,未知,未知,未知,未知,未知,未知,未知,未知
1,603045,19176215.19,19176215.19,2014-06-30,半年度报告,,2014,6,未知,未知,未知,未知,未知,未知,未知,未知,未知,未知
2,603045,45978230.31,45978230.31,2014-12-31,年度报告,41218809.7,2014,12,0.0,True,未知,未知,未知,未知,未知,未知,未知,未知
3,603045,18818959.129999995,18818959.129999995,2015-06-30,半年度报告,18928239.11,2015,6,-0.34213295611228517,True,未知,未知,未知,未知,未知,未知,未知,未知
4,603045,41059563.33,41059563.33,2015-12-31,年度报告,38013384.61000001,2015,12,-0.725622323544362,True,未知,未知,未知,未知,未知,未知,未知,未知
5,603045,20368574.8,20368574.8,2016-06-30,半年度报告,19572440.110000007,2016,6,-0.3296441151259359,True,未知,未知,未知,未知,未知,未知,未知,未知
6,603045,46268553.64999999,46268553.64999999,2016-12-31,年度报告,41665715.09,2016,12,-0.6927536735203756,True,0.4015026245264919,True,0.0,True,比例外推,46268553.64999999,未知,46268553.64999999
7,603045,4667211.0200000005,4667211.0200000005,2017-03-31,一季度报告,4017647.2600000007,2017,3,未知,未知,未知,未知,未知,未知,未知,未知,未知,未知
8,603045,23195820.47,23195820.47,2017-06-30,半年度报告,20570397.16,2017,6,-0.38064395158369185,True,0.07216640873671899,True,,False,平均增速,45953494.26782013,未知,45953494.26782013
9,603045,54757990.47,54757990.47,2017-12-31,年度报告,47347253.63999999,2017,12,-0.7273439732862712,True,0.06318305451015775,True,0.0,True,比例外推,54757990.47,未知,54757990.47
10,603045,5445487.539999999,5445487.539999999,2018-03-31,一季度报告,4184349.3,2018,3,1.7029847045570254,False,未知,未知,未知,未知,未知,未知,未知,未知
11,603045,25425358.71,25425358.71,2018-06-30,半年度报告,21596424.970000006,2018,6,-0.45613478012920683,True,0.18383670232652496,True,0.032923096433140286,True,比例外推,50036239.07169631,未知,50036239.07169631
12,603045,37143964.92000001,37143964.92000001,2018-09-30,三季度报告,31276325.02000001,2018,9,未知,未知,未知,未知,未知,未知,未知,未知,未知,未知
13,603045,57830849.86,57830849.86,2018-12-31,年度报告,42339822.65,2018,12,-0.7696153585674125,True,0.25407468667945177,True,0.0,True,比例外推,57830849.86,未知,57830849.86
14,603045,14911602.340000002,14911602.340000002,2019-03-31,一季度报告,4777929.840000002,2019,3,1.3166704371891733,False,未知,未知,未知,未知,未知,未知,65960000.0,未知
15,603045,34201325.50000001,34201325.50000001,2019-06-30,半年度报告,20130444.72,2019,6,-0.5038260760097653,True,0.1672540638941826,True,0.038646595527279115,True,比例外推,56771967.752571665,,56771967.752571665
16,603045,50695878.55999998,50695878.55999998,2019-09-30,三季度报告,34568138.72,2019,9,-0.6603647449277208,True,未知,未知,未知,未知,未知,未知,67950000.0,未知
17,603045,73178765.05,73178765.05,2019-12-31,年度报告,49334187.84999998,2019,12,-0.7818569149417651,True,0.14486445842011852,True,0.0,True,比例外推,73178765.05,,73178765.05
18,603045,-10148088.39,-10148088.39,2020-03-31,一季度报告,-11283181.88,2020,3,-0.15398763242502128,True,1.949084708008938,True,0.008655388618880822,True,比例外推,-119527349.54969747,未知,-119527349.54969747
