,SECURITYCODE_x,NETPROFIT_x,PARENTNETPROFIT_x,REPORTDATE_x,REPORTTIMETYPE_x,KCFJCXSYJLR,Year,Month,managesituationChangeRate,managesituationGreatChange,historyprofitextroplaterate,ifhistoryprofitextroplate,IfprofitdisStableChangeRage,IfprofitdisStable,predicttype,predict,analyst_prediction,adj_prediction
0,603080,60067000.0,60067000.0,2013-12-31,年度报告,60093705.54000001,2013,12,未知,未知,未知,未知,未知,未知,未知,未知,未知,未知
1,603080,42380358.08000001,42380358.08000001,2014-06-30,半年度报告,31649671.21,2014,6,未知,未知,未知,未知,未知,未知,未知,未知,未知,未知
2,603080,89074579.6,89074579.6,2014-12-31,年度报告,78099327.23,2014,12,0.0,True,未知,未知,未知,未知,未知,未知,未知,未知
3,603080,34013286.35,34013286.35,2015-06-30,半年度报告,34043796.2,2015,6,0.4173311109503486,True,未知,未知,未知,未知,未知,未知,未知,未知
4,603080,99027779.93999998,99027779.93999998,2015-12-31,年度报告,95338898.22,2015,12,-0.32565497059050946,True,未知,未知,未知,未知,未知,未知,未知,未知
5,603080,60366709.13,60366709.13,2016-06-30,半年度报告,32817263.44,2016,6,0.765986367265567,False,未知,未知,未知,未知,未知,未知,未知,未知
6,603080,79289334.25999998,79289334.25999998,2016-09-30,三季度报告,47984426.26,2016,9,未知,未知,未知,未知,未知,未知,未知,未知,未知,未知
7,603080,118509528.24000002,118509528.24000002,2016-12-31,年度报告,83708715.52,2016,12,-0.3934328323184258,True,0.32797011008726085,True,0.0,True,比例外推,118509528.24000002,未知,118509528.24000002
8,603080,23047375.87,23047375.87,2017-03-31,一季度报告,24102607.02,2017,3,未知,未知,未知,未知,未知,未知,未知,未知,未知,未知
9,603080,36878935.84,36878935.84,2017-06-30,半年度报告,37809858.15,2017,6,-0.004964808158658734,True,0.5804118151560216,True,0.027708770692679352,True,比例外推,97329923.67938125,未知,97329923.67938125
10,603080,49455988.73,49455988.73,2017-09-30,三季度报告,50368322.08,2017,9,-0.24243278669697815,True,未知,未知,未知,未知,未知,未知,未知,未知
11,603080,85259463.67,85259463.67,2017-12-31,年度报告,84434245.87000002,2017,12,-0.4931462398672697,True,0.2600536062366509,True,0.0,True,比例外推,85259463.67,104220000.0,104220000.0
12,603080,21025196.090000004,21025196.090000004,2018-03-31,一季度报告,20995671.539999995,2018,3,1.6062403086065518,False,未知,未知,未知,未知,未知,未知,,未知
13,603080,39046941.09,39046941.09,2018-06-30,半年度报告,37080199.19000001,2018,6,0.6287617479149039,False,0.21850100431897157,True,0.048827237833929726,True,前期平均,95140218.14000002,未知,95140218.14000002
14,603080,57921862.54,57921862.54,2018-09-30,三季度报告,56094015.63000001,2018,9,0.21455462811449902,True,未知,未知,未知,未知,未知,未知,未知,未知
15,603080,92052627.76,92052627.76,2018-12-31,年度报告,90143218.03,2018,12,-0.29547996885728006,True,0.2161393888403497,True,0.0,True,比例外推,92052627.76,未知,92052627.76
16,603080,29429385.62,29429385.62,2019-03-31,一季度报告,29407673.31,2019,3,1.8569055785676618,False,未知,未知,未知,未知,未知,未知,未知,未知
17,603080,46679679.66000001,46679679.66000001,2019-06-30,半年度报告,46088834.33,2019,6,0.5383279284682116,False,0.19694211289264682,True,0.030738665298355894,True,前期平均,95437599.56000002,未知,95437599.56000002
18,603080,33074397.67000001,33074397.67000001,2019-09-30,三季度报告,71015082.60999998,2019,9,0.03703502211308554,True,0.10021022597459393,True,0.024927748151451823,True,比例外推,80943082.66259736,未知,80943082.66259736
19,603080,87033614.40999998,87033614.40999998,2019-12-31,年度报告,120215454.33999996,2019,12,-0.34747109928673703,True,0.09650014070190338,True,0.0,True,比例外推,87033614.40999998,未知,87033614.40999998
20,603080,14772324.269999998,14772324.269999998,2020-03-31,一季度报告,15095806.62,2020,3,1.041055181226036,False,0.33549662800300956,True,0.031126946218871077,True,前期平均,79511916.94000001,未知,79511916.94000001
