,SECURITYCODE_x,NETPROFIT_x,PARENTNETPROFIT_x,REPORTDATE_x,REPORTTIMETYPE_x,KCFJCXSYJLR,Year,Month,managesituationChangeRate,managesituationGreatChange,historyprofitextroplaterate,ifhistoryprofitextroplate,IfprofitdisStableChangeRage,IfprofitdisStable,predicttype,predict,analyst_prediction,adj_prediction
0,603042,39198051.35999999,39198051.35999999,2012-12-31,年度报告,39252166.2,2012,12,未知,未知,未知,未知,未知,未知,未知,未知,未知,未知
1,603042,26625381.43,26625381.43,2013-12-31,年度报告,26930362.86,2013,12,0.0,True,未知,未知,未知,未知,未知,未知,未知,未知
2,603042,33246318.81,33246318.81,2014-12-31,年度报告,32808273.369999994,2014,12,0.4722061902870547,True,未知,未知,未知,未知,未知,未知,未知,未知
3,603042,19028202.41,19028202.41,2015-03-31,一季度报告,19225580.5,2015,3,未知,未知,未知,未知,未知,未知,未知,未知,未知,未知
4,603042,47485347.35999999,47485347.35999999,2015-12-31,年度报告,46408931.91,2015,12,0.17901929485828671,True,0.0101666656027346,True,0.0,True,比例外推,47485347.35999999,未知,47485347.35999999
5,603042,38525451.34,38525451.34,2016-06-30,半年度报告,38551987.96000001,2016,6,未知,未知,未知,未知,未知,未知,未知,未知,未知,未知
6,603042,63034829.25,63034829.25,2016-09-30,三季度报告,61745627.08,2016,9,未知,未知,未知,未知,未知,未知,未知,未知,未知,未知
7,603042,83953189.39,83953189.39,2016-12-31,年度报告,66624735.38,2016,12,-0.17452322581051455,True,0.5862368086976512,True,0.0,True,比例外推,83953189.39,未知,83953189.39
8,603042,27104211.19,27104211.19,2017-03-31,一季度报告,26976878.07,2017,3,未知,未知,未知,未知,未知,未知,未知,未知,105470000.0,未知
9,603042,45511759.62999999,45511759.62999999,2017-06-30,半年度报告,40260013.66,2017,6,0.017458588974443624,True,未知,未知,未知,未知,未知,未知,,未知
10,603042,60779086.21,60779086.21,2017-09-30,三季度报告,55050971.31000001,2017,9,-0.37815249400394,True,未知,未知,未知,未知,未知,未知,未知,未知
11,603042,73545759.08,73545759.08,2017-12-31,年度报告,66653917.12000001,2017,12,-0.5330963404152811,True,1.0798081687851286,True,0.0,True,比例外推,73545759.08,未知,73545759.08
12,603042,8325626.210000001,8325626.210000001,2018-03-31,一季度报告,7589646.970000002,2018,3,0.4461978282718653,True,未知,未知,未知,未知,未知,未知,未知,未知
13,603042,-2403420.74,-5588934.35,2018-06-30,半年度报告,-6428551.010000003,2018,6,-0.13872696466427523,True,未知,未知,未知,未知,未知,未知,未知,未知
14,603042,-20425014.92,-22209873.65,2018-09-30,三季度报告,-23458267.57,2018,9,-0.35507336808971757,True,未知,未知,未知,未知,未知,未知,未知,未知
15,603042,-106131866.27,-110343600.95000002,2018-12-31,年度报告,-114365632.03,2018,12,-0.46702499436626943,True,0.11908974184468009,True,0.0,True,比例外推,-110343600.95000002,未知,-110343600.95000002
16,603042,-12270892.949999996,-8864637.299999999,2019-03-31,一季度报告,-16574827.3,2019,3,3.708120491035111,False,未知,未知,未知,未知,未知,未知,未知,未知
17,603042,-17937438.169999998,-13354347.89,2019-06-30,半年度报告,-21134335.17,2019,6,-17.309275653500432,False,1.0571989648932538,True,0.3567461528321851,False,前期平均,13878977.550000004,未知,13878977.550000004
18,603042,-2226424.2300000004,-2503484.7800000003,2019-09-30,三季度报告,-13063394.329999998,2019,9,-2.9191198397420797,False,1.3299308457230499,True,0.44748567378013127,False,前期平均,5737542.274999999,未知,5737542.274999999
19,603042,28076364.930000003,23657423.47,2019-12-31,年度报告,5538052.779999998,2019,12,-1.3693334786017985,False,2.3477152362095386,False,0.0,True,前期平均,23657423.47,未知,23657423.47
20,603042,-21808347.96,-13629825.58,2020-03-31,一季度报告,-18097983.9,2020,3,-4.194392740586984,False,1.6926869469629569,True,2.108054548171769,False,前期平均,-54768945.55499999,未知,-54768945.55499999
