,SECURITYCODE_x,NETPROFIT_x,PARENTNETPROFIT_x,REPORTDATE_x,REPORTTIMETYPE_x,KCFJCXSYJLR,Year,Month,managesituationChangeRate,managesituationGreatChange,historyprofitextroplaterate,ifhistoryprofitextroplate,IfprofitdisStableChangeRage,IfprofitdisStable,predicttype,predict,analyst_prediction,adj_prediction
0,603021,49091251.85,43369286.38999999,2012-12-31,年度报告,27896674.96,2012,12,未知,未知,未知,未知,未知,未知,未知,未知,未知,未知
1,603021,2908206.3999999994,2070056.86,2014-03-31,一季度报告,726819.2999999998,2014,3,未知,未知,未知,未知,未知,未知,未知,未知,未知,未知
2,603021,31280534.05,29531024.870000005,2014-06-30,半年度报告,20710597.19,2014,6,未知,未知,未知,未知,未知,未知,未知,未知,未知,未知
3,603021,62673377.28,57873257.32,2014-12-31,年度报告,40137302.24,2014,12,未知,未知,未知,未知,未知,未知,未知,未知,未知,未知
4,603021,7436383.15,7240738.6000000015,2015-03-31,一季度报告,3253153.26,2015,3,15.880250263530131,False,未知,未知,未知,未知,未知,未知,61359000.0,未知
5,603021,29551180.29000001,28135178.899999995,2015-06-30,半年度报告,21033180.53,2015,6,0.5693866278475511,False,未知,未知,未知,未知,未知,未知,,未知
6,603021,45238432.33,42758292.74999999,2015-09-30,三季度报告,33095964.89,2015,9,未知,未知,未知,未知,未知,未知,未知,未知,未知,未知
7,603021,52525774.32999999,50086361.97,2015-12-31,年度报告,37618075.61,2015,12,-0.21671283756291615,True,未知,未知,未知,未知,未知,未知,未知,未知
8,603021,8964224.389999999,8884079.68,2016-03-31,一季度报告,4413051.14,2016,3,5.601495762089666,False,未知,未知,未知,未知,未知,未知,未知,未知
9,603021,31104798.04,30042383.260000005,2016-06-30,半年度报告,21563831.520000003,2016,6,0.6612281258563559,False,未知,未知,未知,未知,未知,未知,66390000.0,未知
10,603021,50042364.65999998,48754228.18,2016-09-30,三季度报告,38254167.78,2016,9,0.08516695476746207,True,未知,未知,未知,未知,未知,未知,,未知
11,603021,52175752.3,51361040.07000001,2016-12-31,年度报告,29138553.81,2016,12,-0.0653873745567682,True,未知,未知,未知,未知,未知,未知,未知,未知
12,603021,9814334.03,9771460.030000003,2017-03-31,一季度报告,4414709.409999998,2017,3,4.476352410897203,False,0.7331232615217678,True,0.06723746670771275,True,前期平均,46659162.675000004,66000000.0,66000000.0
13,603021,23955566.01,23534085.21,2017-06-30,半年度报告,18759583.640000004,2017,6,0.5782533545747466,False,0.02265071361130387,True,0.13499042810784045,False,前期平均,41539885.275,,41539885.275
14,603021,33838923.13,34514918.28,2017-09-30,三季度报告,27228746.51,2017,9,-0.019006152416299115,True,未知,未知,未知,未知,未知,未知,未知,未知
15,603021,21266971.83,26364739.32,2017-12-31,年度报告,-7648395.8599999985,2017,12,-0.05911750792331164,True,0.0941642959899919,True,0.0,True,比例外推,26364739.32,未知,26364739.32
16,603021,793273.5200000001,2641079.49,2018-03-31,一季度报告,398130.0,2018,3,4.001995214340591,False,0.19682566710574428,True,0.46411450504071594,False,前期平均,32186292.0,未知,32186292.0
17,603021,1209056.41,2981653.34,2018-06-30,半年度报告,-9272006.83,2018,6,1.0492628656533254,False,0.2101169029153471,True,2.0682213111598315,False,前期平均,15061462.024999995,未知,15061462.024999995
18,603021,1812910.17,4033159.29,2018-09-30,三季度报告,-13846079.190000005,2018,9,0.45073327722057444,True,0.28970108985231297,True,3.1042484415358307,False,平均增速,8435646.593785936,未知,8435646.593785936
19,603021,11220398.09,19747763.58,2018-12-31,年度报告,-44836271.39,2018,12,1.3083329513207902,False,0.5937600431528685,True,0.0,True,前期平均,19747763.58,未知,19747763.58
20,603021,-10931272.510000002,-10302900.150000002,2019-03-31,一季度报告,-10597139.31,2019,3,60.88439499404946,False,0.9155128415869103,True,0.43232847121144,False,盈利变化,5087404.499999998,未知,5087404.499999998
21,603021,-13639068.31,-11951826.93,2019-06-30,半年度报告,-13759345.200000005,2019,6,39.602945771570745,False,0.956082513043246,True,1.9507788779264614,False,盈利变化,16756204.666666662,未知,16756204.666666662
22,603021,-27253917.180000003,-24920177.46,2019-09-30,三季度报告,-27822722.76,2019,9,26.078700678258098,False,0.9567743839474975,True,2.913923559907388,False,盈利变化,13535921.993333332,未知,13535921.993333332
23,603021,-85817243.5,-97448967.88,2019-12-31,年度报告,-102263805.21999995,2019,12,3.3751791564108404,False,0.6944449372509952,True,0.0,True,盈利变化,605252.3033333458,未知,605252.3033333458
24,603021,3104647.83,1566401.4200000004,2020-03-31,一季度报告,-16103669.85,2020,3,-5.490900012335342,False,3.061025063092573,False,0.4163867792853744,False,前期平均,-27082351.909999996,未知,-27082351.909999996
