,SECURITYCODE_x,NETPROFIT_x,PARENTNETPROFIT_x,REPORTDATE_x,REPORTTIMETYPE_x,KCFJCXSYJLR,Year,Month,managesituationChangeRate,managesituationGreatChange,historyprofitextroplaterate,ifhistoryprofitextroplate,IfprofitdisStableChangeRage,IfprofitdisStable,predicttype,predict,analyst_prediction,adj_prediction
0,603038,71373171.61,71373171.61,2014-12-31,年度报告,69884686.41999999,2014,12,未知,未知,未知,未知,未知,未知,未知,未知,未知,未知
1,603038,50238601.62,50238601.62,2015-09-30,三季度报告,48942888.83000001,2015,9,未知,未知,未知,未知,未知,未知,未知,未知,未知,未知
2,603038,69778305.00999999,69778305.00999999,2015-12-31,年度报告,67498496.78000002,2015,12,0.0,True,未知,未知,未知,未知,未知,未知,未知,未知
3,603038,8276334.949999997,8276334.949999997,2016-03-31,一季度报告,4649049.24,2016,3,未知,未知,未知,未知,未知,未知,未知,未知,未知,未知
4,603038,41044791.06,41044791.06,2016-06-30,半年度报告,33401832.29,2016,6,未知,未知,未知,未知,未知,未知,未知,未知,未知,未知
5,603038,98991279.34999998,98991279.34999998,2016-12-31,年度报告,76480523.94000001,2016,12,0.022856195772761278,True,未知,未知,未知,未知,未知,未知,未知,未知
6,603038,7646537.200000001,7646537.200000001,2017-03-31,一季度报告,6893463.760000003,2017,3,7.623765476045652,False,未知,未知,未知,未知,未知,未知,93900000.0,未知
7,603038,40749703.69,40749703.69,2017-06-30,半年度报告,36882358.74,2017,6,0.7389093662497985,False,未知,未知,未知,未知,未知,未知,,未知
8,603038,72156701.02,72156701.02,2017-09-30,三季度报告,55776758.01000001,2017,9,未知,未知,未知,未知,未知,未知,未知,未知,105000000.0,未知
9,603038,90900809.39000005,90900809.39000005,2017-12-31,年度报告,70489112.47,2017,12,-0.27899536122118,True,0.402624779002471,True,0.0,True,比例外推,90900809.39000005,未知,90900809.39000005
10,603038,8463421.610000001,8463421.610000001,2018-03-31,一季度报告,6645862.42,2018,3,8.334051446189262,False,未知,未知,未知,未知,未知,未知,99000000.0,未知
11,603038,36543746.33,36606826.31,2018-06-30,半年度报告,26699987.86,2018,6,0.7515016097531777,False,未知,未知,未知,未知,未知,未知,,未知
12,603038,56914204.18,57100076.66,2018-09-30,三季度报告,44279412.42,2018,9,-0.010858719965354598,True,未知,未知,未知,未知,未知,未知,未知,未知
13,603038,82896968.5,82976609.65999998,2018-12-31,年度报告,67145366.21,2018,12,-0.2148235853018518,True,0.07721790907656496,True,0.0,True,比例外推,82976609.65999998,,82976609.65999998
14,603038,11141508.98,11282096.85,2019-03-31,一季度报告,5826134.84,2019,3,7.433134363254295,False,0.0630521340962977,True,0.025065746313693828,True,前期平均,78995658.55499999,95350000.0,95350000.0
15,603038,37403039.28,37797686.53,2019-06-30,半年度报告,21788971.390000004,2019,6,0.9530885247911035,False,0.10644973254755637,True,0.0706962259395546,True,前期平均,76140409.22000001,,76140409.22000001
16,603038,63806375.20000001,64330939.72999998,2019-09-30,三季度报告,46222920.94,2019,9,0.2540484864599226,True,未知,未知,未知,未知,未知,未知,未知,未知
17,603038,92750741.6,93761715.99000002,2019-12-31,年度报告,71785530.46000001,2019,12,-0.13901348986000617,True,0.12690445347091403,True,0.0,True,比例外推,93761715.99000002,未知,93761715.99000002
18,603038,-20492913.750000004,-19983808.26,2020-03-31,一季度报告,-2346971.3200000003,2020,3,5.406059694258757,False,0.38318280157042794,True,0.01148379040022482,True,盈利变化,82864241.11000003,未知,82864241.11000003
