,SECURITYCODE_x,NETPROFIT_x,PARENTNETPROFIT_x,REPORTDATE_x,REPORTTIMETYPE_x,KCFJCXSYJLR,Year,Month,managesituationChangeRate,managesituationGreatChange,historyprofitextroplaterate,ifhistoryprofitextroplate,IfprofitdisStableChangeRage,IfprofitdisStable,predicttype,predict,analyst_prediction,adj_prediction
0,603000,290806077.97,272866529.28,2013-12-31,年度报告,271732486.5999999,2013,12,未知,未知,未知,未知,未知,未知,未知,未知,未知,未知
1,603000,51874278.56999999,45049485.38999999,2014-03-31,一季度报告,44392025.08000001,2014,3,未知,未知,未知,未知,未知,未知,未知,未知,未知,未知
2,603000,126671751.0,96207058.04,2014-06-30,半年度报告,91737454.15,2014,6,未知,未知,未知,未知,未知,未知,未知,未知,未知,未知
3,603000,247384051.54,179630624.36999995,2014-09-30,三季度报告,176149344.48000002,2014,9,未知,未知,未知,未知,未知,未知,未知,未知,未知,未知
4,603000,445615297.7699999,330222551.16,2014-12-31,年度报告,264094495.0,2014,12,0.0,True,未知,未知,未知,未知,未知,未知,未知,未知
5,603000,63075486.56,17749253.080000002,2015-03-31,一季度报告,16572472.929999994,2015,3,4.605978261029338,False,未知,未知,未知,未知,未知,未知,504905415.0,未知
6,603000,124585235.32,58279632.45,2015-06-30,半年度报告,43531794.62000001,2015,6,1.2957453076495329,False,未知,未知,未知,未知,未知,未知,344125000.0,未知
7,603000,244964379.78,147635692.54,2015-09-30,三季度报告,102406277.53999998,2015,9,0.17552476062903774,True,未知,未知,未知,未知,未知,未知,307000000.0,未知
8,603000,392283758.54,274280594.31000006,2015-12-31,年度报告,184337212.1,2015,12,-0.3474055324732213,True,未知,未知,未知,未知,未知,未知,,未知
9,603000,115360466.32,38769656.29000001,2016-03-31,一季度报告,-20034070.47,2016,3,3.6104452590052287,False,未知,未知,未知,未知,未知,未知,282000000.0,未知
10,603000,112607128.41,31571878.76,2016-06-30,半年度报告,-33650297.32999999,2016,6,1.3341937527593704,False,未知,未知,未知,未知,未知,未知,224259919.0,未知
11,603000,161697544.89,75122957.89,2016-09-30,三季度报告,5557836.5,2016,9,0.18713617968118462,True,未知,未知,未知,未知,未知,未知,250060000.0,未知
12,603000,203391392.82,106002915.63,2016-12-31,年度报告,10690005.71,2016,12,-0.25868437925566734,True,0.06537852230541234,True,0.0,True,比例外推,106002915.63,,106002915.63
13,603000,-58864132.92,-45177892.59,2017-03-31,一季度报告,-46493955.81,2017,3,1.520846935234546,False,1.0071457508336015,True,1.335393838810628,False,盈利变化,70723068.50999999,未知,70723068.50999999
14,603000,-28180380.1,-28609852.410000004,2017-06-30,半年度报告,-35126876.83,2017,6,1.5824837386065091,False,0.10364977261500731,True,2.29305823438761,False,盈利变化,105018529.29666665,未知,105018529.29666665
15,603000,24633461.5,16120127.01,2017-09-30,三季度报告,6803101.72,2017,9,0.7984569782295107,False,0.3431580782882386,True,0.08617997388936183,True,前期平均,101058169.55,未知,101058169.55
16,603000,107666629.36999996,89408428.42,2017-12-31,年度报告,69990479.16000001,2017,12,0.4297855673143526,True,0.5145205349300437,True,0.0,True,比例外推,89408428.42,未知,89408428.42
17,603000,-60565468.69,-57874099.38000001,2018-03-31,一季度报告,-58956145.11000002,2018,3,-5.940293240456349,False,1.6597788390727148,True,1.0579334507018805,False,前期平均,41370308.29499999,153333333.0,153333333.0
18,603000,-14245194.079999998,-23237580.04000001,2018-06-30,半年度报告,-31866781.55,2018,6,-11.319451935639435,False,1.2376162508509607,True,2.0099759644163497,False,前期平均,69335280.21999998,,69335280.21999998
19,603000,88411178.95,67759171.32000001,2018-09-30,三季度报告,58222528.67000001,2018,9,10.805327398668679,False,0.8788504160059258,True,0.29368218400365903,False,前期平均,111290723.20500001,未知,111290723.20500001
20,603000,262131487.43,213891289.28000003,2018-12-31,年度报告,195079813.64,2018,12,1.7009861799484338,False,0.6385055541625877,True,0.0,True,前期平均,213891289.28000003,未知,213891289.28000003
21,603000,-29270658.24,-23362481.18,2019-03-31,一季度报告,-23504466.35,2019,3,-5.8015161817449155,False,3.1440495354340996,False,0.9272272729172899,False,去年同期,230673477.57,327700000.0,327700000.0
22,603000,59762150.89999998,43031884.49,2019-06-30,半年度报告,37437006.06999999,2019,6,-21.41432895451292,False,1.337456892872249,True,1.87680743744257,False,盈利变化,260093814.36,313800000.0,313800000.0
23,603000,123729905.43,93668347.3,2019-09-30,三季度报告,82563958.31,2019,9,2.289245561745787,False,0.05103095117780832,True,0.21472129417310493,False,前期平均,127828120.625,287000000.0,287000000.0
24,603000,434577262.4999999,336834293.8800002,2019-12-31,年度报告,274959814.26,2019,12,0.10939010349780023,True,0.6854185954405978,True,0.0,True,比例外推,336834293.8800002,未知,336834293.8800002
25,603000,-36453474.32999999,-23725054.6,2020-03-31,一季度报告,-24713120.33,2020,3,-10.935071346383225,False,-0.5098257409317335,True,0.3136268843707057,False,前期平均,161535142.26000002,423000000.0,423000000.0
