,SECURITYCODE_x,NETPROFIT_x,PARENTNETPROFIT_x,REPORTDATE_x,REPORTTIMETYPE_x,KCFJCXSYJLR,Year,Month,managesituationChangeRate,managesituationGreatChange,historyprofitextroplaterate,ifhistoryprofitextroplate,IfprofitdisStableChangeRage,IfprofitdisStable,predicttype,predict,analyst_prediction,adj_prediction
0,603036,82035577.30000001,81298245.66,2014-12-31,年度报告,78990048.00000001,2014,12,未知,未知,未知,未知,未知,未知,未知,未知,未知,未知
1,603036,51511975.33,51397075.71000001,2015-09-30,三季度报告,50066120.65000001,2015,9,未知,未知,未知,未知,未知,未知,未知,未知,未知,未知
2,603036,62922478.78000001,62894077.1,2015-12-31,年度报告,60596399.92,2015,12,0.0,True,未知,未知,未知,未知,未知,未知,未知,未知
3,603036,11050865.9,11053660.27,2016-03-31,一季度报告,10542099.4,2016,3,未知,未知,未知,未知,未知,未知,未知,未知,未知,未知
4,603036,27406783.53999999,27386352.45,2016-06-30,半年度报告,22199379.09,2016,6,未知,未知,未知,未知,未知,未知,未知,未知,未知,未知
5,603036,66363711.65,66202896.56999999,2016-12-31,年度报告,50607473.88999999,2016,12,0.3037562869515421,True,未知,未知,未知,未知,未知,未知,71975000.0,未知
6,603036,5827944.97,5836490.12,2017-03-31,一季度报告,5291928.97,2017,3,6.423452428284376,False,未知,未知,未知,未知,未知,未知,60000000.0,未知
7,603036,15086512.37,14675946.63,2017-06-30,半年度报告,13595321.89,2017,6,1.993258117293104,False,未知,未知,未知,未知,未知,未知,,未知
8,603036,28439772.42,29065458.340000004,2017-09-30,三季度报告,20915479.340000004,2017,9,未知,未知,未知,未知,未知,未知,未知,未知,未知,未知
9,603036,35577896.68,36218726.77,2017-12-31,年度报告,24125374.9,2017,12,0.23615113230334236,True,0.08437359820312523,True,0.0,True,比例外推,36218726.77,85000000.0,85000000.0
10,603036,4090317.94,4128460.95,2018-03-31,一季度报告,1628810.91,2018,3,13.076244323219822,False,未知,未知,未知,未知,未知,未知,未知,未知
11,603036,15043748.03,14937154.23,2018-06-30,半年度报告,8786743.920000002,2018,6,4.437676733234271,False,未知,未知,未知,未知,未知,未知,未知,未知
12,603036,25620034.48,25503765.59000001,2018-09-30,三季度报告,18504747.74,2018,9,1.8845370521428386,False,未知,未知,未知,未知,未知,未知,未知,未知
13,603036,38500643.12000001,39078425.91,2018-12-31,年度报告,25134838.84,2018,12,1.3058017745640385,False,0.4496257247325561,True,0.0,True,前期平均,39078425.91,未知,39078425.91
14,603036,6507940.88,6422645.1800000025,2019-03-31,一季度报告,5865071.96,2019,3,19.05603928676508,False,0.5153310299518749,True,0.09935214664996227,True,前期平均,35872055.39,未知,35872055.39
15,603036,25523620.87,25113437.58,2019-06-30,半年度报告,21022461.76,2019,6,4.4531342280132575,False,0.29194722565826015,True,0.11293781094054967,False,前期平均,44582511.48499999,未知,44582511.48499999
16,603036,48925517.79999999,48265856.13,2019-09-30,三季度报告,41608776.13000001,2019,9,2.2020088561566995,False,未知,未知,未知,未知,未知,未知,未知,未知
17,603036,65030127.35,64823672.76,2019-12-31,年度报告,55455028.51000001,2019,12,1.1307586225068749,False,0.24465301753200203,True,0.0,True,前期平均,64823672.76,未知,64823672.76
18,603036,11953929.67,11901318.27,2020-03-31,一季度报告,8047688.56,2020,3,11.605458287445293,False,0.3123146540990412,True,0.08937891006482288,True,前期平均,33071055.2,未知,33071055.2
