,SECURITYCODE_x,NETPROFIT_x,PARENTNETPROFIT_x,REPORTDATE_x,REPORTTIMETYPE_x,KCFJCXSYJLR,Year,Month,managesituationChangeRate,managesituationGreatChange,historyprofitextroplaterate,ifhistoryprofitextroplate,IfprofitdisStableChangeRage,IfprofitdisStable,predicttype,predict,analyst_prediction,adj_prediction
0,603005,153732160.73999998,153732160.73999998,2013-12-31,年度报告,145032038.73000002,2013,12,未知,未知,未知,未知,未知,未知,未知,未知,未知,未知
1,603005,41905751.69000001,41905751.69000001,2014-03-31,一季度报告,39422501.37,2014,3,未知,未知,未知,未知,未知,未知,未知,未知,未知,未知
2,603005,86303878.94,86303878.94,2014-06-30,半年度报告,79359685.91000003,2014,6,未知,未知,未知,未知,未知,未知,未知,未知,未知,未知
3,603005,135569865.0,135569865.0,2014-09-30,三季度报告,124212998.49999996,2014,9,未知,未知,未知,未知,未知,未知,未知,未知,未知,未知
4,603005,196310877.99,196310877.99,2014-12-31,年度报告,167551525.91999996,2014,12,0.0,True,未知,未知,未知,未知,未知,未知,未知,未知
5,603005,49400777.35999999,49400777.35999999,2015-03-31,一季度报告,40871535.95,2015,3,2.6685217312707255,False,未知,未知,未知,未知,未知,未知,337500000.0,未知
6,603005,69044797.25,69044797.25,2015-06-30,半年度报告,53927190.81999999,2015,6,0.7812891219741969,False,未知,未知,未知,未知,未知,未知,228665000.0,未知
7,603005,95653930.39,95653930.39,2015-09-30,三季度报告,70500989.05,2015,9,0.13397000683005755,True,未知,未知,未知,未知,未知,未知,,未知
8,603005,113275303.59,113275303.59,2015-12-31,年度报告,77364485.88000001,2015,12,-0.21689433456748622,True,未知,未知,未知,未知,未知,未知,359903528.0,未知
9,603005,16089538.45,16089538.45,2016-03-31,一季度报告,10529213.150000002,2016,3,2.1119380899555953,False,未知,未知,未知,未知,未知,未知,146760000.0,未知
10,603005,25922973.65,25922973.65,2016-06-30,半年度报告,14702484.419999998,2016,6,1.2265567698513298,False,未知,未知,未知,未知,未知,未知,,未知
11,603005,30262473.61,30262473.61,2016-09-30,三季度报告,15456008.04,2016,9,0.6071703495423925,False,未知,未知,未知,未知,未知,未知,132000000.0,未知
12,603005,52753271.75,52753271.75,2016-12-31,年度报告,33712978.49,2016,12,0.35715514209905436,True,0.35279213664138565,True,0.0,True,比例外推,52753271.75,未知,52753271.75
13,603005,23283752.02,23283752.02,2017-03-31,一季度报告,17359069.35,2017,3,8.554789978453359,False,0.6475709104835369,True,0.1696639096944968,False,前期平均,105594739.25999998,168832500.0,168832500.0
14,603005,52519917.1,52519917.1,2017-06-30,半年度报告,42914182.47000001,2017,6,4.930344366183467,False,0.666260771758431,True,0.16145203859211998,False,前期平均,108334484.63499996,161420000.0,161420000.0
15,603005,64676678.87000001,64676678.87000001,2017-09-30,三季度报告,44249624.63999999,2017,9,4.079960175139166,False,0.7382408366841573,True,0.24523610977556276,False,前期平均,89777690.99500002,,89777690.99500002
16,603005,95691736.99,95691736.99,2017-12-31,年度报告,67568042.49000001,2017,12,1.9141730103213925,False,0.6592013798499075,True,0.0,True,前期平均,95691736.99,,95691736.99
17,603005,10457458.809999997,10457458.809999997,2018-03-31,一季度报告,5070243.65,2018,3,5.602551023904952,False,0.2889406095536126,True,0.162455049203797,False,前期平均,40295816.445,137490000.0,137490000.0
18,603005,24218183.219999995,24218183.219999995,2018-06-30,半年度报告,12176600.38,2018,6,1.9271211614307744,False,0.10605769941263302,True,0.15332130166616587,False,前期平均,45442077.78500001,117000000.0,117000000.0
19,603005,30403526.44,30403526.44,2018-09-30,三季度报告,15510400.45,2018,9,1.3769334391612982,False,0.027295520129371104,True,0.2364062378719589,False,前期平均,42963760.08000001,94820000.0,94820000.0
20,603005,71124803.74000001,71124803.74000001,2018-12-31,年度报告,24641362.06,2018,12,0.6065353767803937,False,0.152714064961873,True,0.0,True,前期平均,71124803.74000001,,71124803.74000001
21,603005,3350883.2599999993,3350883.2599999993,2019-03-31,一季度报告,-6238256.8199999975,2019,3,13.700718743734647,False,0.468804426291578,True,0.05398821235848106,True,前期平均,40047252.5,119250000.0,119250000.0
22,603005,21555714.83,21555714.83,2019-06-30,半年度报告,676888.77,2019,6,5.347799062526046,False,0.3825270081597549,True,0.11333014314283596,False,前期平均,43387891.875,,43387891.875
23,603005,51916059.93,51916059.93,2019-09-30,三季度报告,19956758.7,2019,9,4.056392423536248,False,0.35951552871920067,True,0.12247273315387375,False,前期平均,72703754.08000001,91260000.0,91260000.0
24,603005,108304952.46,108304952.46,2019-12-31,年度报告,65644204.67000001,2019,12,1.1614423190814693,False,0.04173532887758574,True,0.0,True,前期平均,108304952.46,91260000.0,91260000.0
25,603005,62113482.86000001,62113482.86000001,2020-03-31,一季度报告,52489378.97,2020,3,44.878101029398444,False,0.8013774148839578,True,0.21757886815597766,False,前期平均,97003528.63500002,363237143.0,363237143.0
