,SECURITYCODE_x,NETPROFIT_x,PARENTNETPROFIT_x,REPORTDATE_x,REPORTTIMETYPE_x,KCFJCXSYJLR,Year,Month,managesituationChangeRate,managesituationGreatChange,historyprofitextroplaterate,ifhistoryprofitextroplate,IfprofitdisStableChangeRage,IfprofitdisStable,predicttype,predict,analyst_prediction,adj_prediction
0,603002,67310485.80999999,67310485.80999999,2013-12-31,年度报告,53028240.09,2013,12,未知,未知,未知,未知,未知,未知,未知,未知,未知,未知
1,603002,15680253.940000005,15680253.940000005,2014-03-31,一季度报告,10378983.340000002,2014,3,未知,未知,未知,未知,未知,未知,未知,未知,未知,未知
2,603002,31735994.06000001,31735994.06000001,2014-06-30,半年度报告,19805765.76,2014,6,未知,未知,未知,未知,未知,未知,未知,未知,未知,未知
3,603002,49100560.84999998,49100560.84999998,2014-09-30,三季度报告,31473680.75,2014,9,未知,未知,未知,未知,未知,未知,未知,未知,未知,未知
4,603002,62723368.68000001,62723368.68000001,2014-12-31,年度报告,40729066.09,2014,12,0.0,True,未知,未知,未知,未知,未知,未知,未知,未知
5,603002,16786686.550000004,16786686.550000004,2015-03-31,一季度报告,14117154.25,2015,3,3.2926910538286833,False,未知,未知,未知,未知,未知,未知,,未知
6,603002,28824003.47000001,28824003.47000001,2015-06-30,半年度报告,24345408.97000001,2015,6,1.1209509203569585,False,未知,未知,未知,未知,未知,未知,未知,未知
7,603002,40535076.68,40535076.68,2015-09-30,三季度报告,34317522.96,2015,9,0.37086999913566193,True,未知,未知,未知,未知,未知,未知,未知,未知
8,603002,62219751.23999999,62219751.23999999,2015-12-31,年度报告,53040583.44,2015,12,0.07313250589907538,True,未知,未知,未知,未知,未知,未知,70000000.0,未知
9,603002,8366203.55,8366203.55,2016-03-31,一季度报告,8304312.079999999,2016,3,3.0097541351899473,False,未知,未知,未知,未知,未知,未知,,未知
10,603002,16742393.660000002,16742393.660000002,2016-06-30,半年度报告,16179302.420000002,2016,6,1.3352233453641047,False,未知,未知,未知,未知,未知,未知,75000000.0,未知
11,603002,19051900.79,19051900.79,2016-09-30,三季度报告,21766552.870000005,2016,9,0.6605491175303727,False,未知,未知,未知,未知,未知,未知,,未知
12,603002,26679217.719999995,26679217.719999995,2016-12-31,年度报告,33133613.63000001,2016,12,0.08181862621667405,True,0.04302227317602312,True,0.0,True,比例外推,26679217.719999995,未知,26679217.719999995
13,603002,9515420.329999998,9515420.329999998,2017-03-31,一季度报告,8171083.91,2017,3,7.045523325810067,False,0.48463246467114235,True,0.008951421938446225,True,前期平均,44152176.3,未知,44152176.3
14,603002,17465832.43,17465832.43,2017-06-30,半年度报告,14899011.619999995,2017,6,3.020362152325594,False,0.44708076806950964,True,0.018864639433401387,True,前期平均,42275069.82999999,未知,42275069.82999999
15,603002,36791083.69,36791083.69,2017-09-30,三季度报告,34405179.15000001,2017,9,2.5330063153241933,False,0.5749034353970304,True,0.08052560646560891,True,前期平均,50780306.599999994,65000000.0,65000000.0
16,603002,78449430.19000001,78449430.19000001,2017-12-31,年度报告,75853717.32,2017,12,1.5229557521673838,False,0.5729381859988373,True,0.0,True,前期平均,78449430.19000001,64925000.0,64925000.0
17,603002,19928285.2,19928285.2,2018-03-31,一季度报告,19625770.55,2018,3,6.0738321036418155,False,0.24339347946341988,True,0.10044847848079146,False,前期平均,51804650.57000001,161060000.0,161060000.0
18,603002,34769035.779999994,34769035.779999994,2018-06-30,半年度报告,32795004.87,2018,6,2.8538378333680137,False,0.23338979905870844,True,0.18482176595096458,False,前期平均,57593778.61999999,145000000.0,145000000.0
19,603002,48128858.95999999,48128858.95999999,2018-09-30,三季度报告,39763281.87,2018,9,0.8295325676502244,False,0.23486994145736112,True,0.13226405447156492,False,前期平均,63173919.58,,63173919.58
20,603002,50007535.73,50007535.73,2018-12-31,年度报告,40505488.24,2018,12,-0.14198885005311246,True,0.7649120368380936,True,0.0,True,比例外推,50007535.73,205610000.0,205610000.0
21,603002,3861487.2999999993,3861487.2999999993,2019-03-31,一季度报告,-2332863.01,2019,3,2.3776356136251997,False,1.2289122435115216,True,0.20356329823674346,False,前期平均,50117454.78,未知,50117454.78
22,603002,21190750.7,21190750.7,2019-06-30,半年度报告,14400408.84,2019,6,0.9359319089521211,False,1.032788001840524,True,0.31152149974301596,False,前期平均,60145259.155,未知,60145259.155
23,603002,45013149.01000001,45013149.01000001,2019-09-30,三季度报告,38001082.72000001,2019,9,0.3985473012344192,True,0.7237208723053549,True,0.2842824639726713,False,平均增速,45891678.00390844,未知,45891678.00390844
24,603002,76190211.76000002,76190211.76000002,2019-12-31,年度报告,67426117.25999999,2019,12,0.3460068533155051,True,0.04864113209538963,True,0.0,True,比例外推,76190211.76000002,未知,76190211.76000002
25,603002,16258514.990000002,16258514.990000002,2020-03-31,一季度报告,16210842.06,2020,3,16.43123324787317,False,0.7377037142240432,True,0.2986399132477012,False,前期平均,60539690.54,未知,60539690.54
