,SECURITYCODE_x,NETPROFIT_x,PARENTNETPROFIT_x,REPORTDATE_x,REPORTTIMETYPE_x,KCFJCXSYJLR,Year,Month,managesituationChangeRate,managesituationGreatChange,historyprofitextroplaterate,ifhistoryprofitextroplate,IfprofitdisStableChangeRage,IfprofitdisStable,predicttype,predict,analyst_prediction,adj_prediction
0,603001,274234726.91,274234726.91,2013-12-31,年度报告,248264757.16,2013,12,未知,未知,未知,未知,未知,未知,未知,未知,未知,未知
1,603001,100322925.17,100322925.17,2014-03-31,一季度报告,88737857.82000001,2014,3,未知,未知,未知,未知,未知,未知,未知,未知,未知,未知
2,603001,158159882.96999997,158159882.96999997,2014-06-30,半年度报告,138063715.27,2014,6,未知,未知,未知,未知,未知,未知,未知,未知,未知,未知
3,603001,185547542.94,185547542.94,2014-09-30,三季度报告,156068017.20999998,2014,9,未知,未知,未知,未知,未知,未知,未知,未知,未知,未知
4,603001,258256285.18,258256285.18,2014-12-31,年度报告,216103193.62,2014,12,0.0,True,未知,未知,未知,未知,未知,未知,未知,未知
5,603001,108595762.04999998,108944034.87999998,2015-03-31,一季度报告,98737193.53,2015,3,1.73352004484819,False,未知,未知,未知,未知,未知,未知,330401667.0,未知
6,603001,217670403.59,218175413.81000003,2015-06-30,半年度报告,199356192.66,2015,6,0.733908256381407,False,未知,未知,未知,未知,未知,未知,359019309.0,未知
7,603001,269919144.97,270012062.99000007,2015-09-30,三季度报告,250429130.02,2015,9,0.47797552349522926,True,未知,未知,未知,未知,未知,未知,381080000.0,未知
8,603001,389926451.43,390227750.8,2015-12-31,年度报告,350520241.57999986,2015,12,0.06187048543218738,True,未知,未知,未知,未知,未知,未知,380783846.0,未知
9,603001,112603173.60999995,112775099.81,2016-03-31,一季度报告,104737058.68,2016,3,1.525280192644498,False,未知,未知,未知,未知,未知,未知,437530000.0,未知
10,603001,211393647.14,211504076.67000005,2016-06-30,半年度报告,194374961.74,2016,6,0.25986226141493973,True,未知,未知,未知,未知,未知,未知,406370000.0,未知
11,603001,255374766.98,255819094.67000008,2016-09-30,三季度报告,230138758.46,2016,9,0.01598842475764233,True,未知,未知,未知,未知,未知,未知,374545000.0,未知
12,603001,305209171.5699999,305204697.36000013,2016-12-31,年度报告,320965679.63000005,2016,12,-0.29670140124045696,True,0.4645372131242501,True,0.0,True,比例外推,305204697.36000013,377272500.0,377272500.0
13,603001,113972809.26,113920369.59000002,2017-03-31,一季度报告,101151074.89,2017,3,1.435408506866862,False,0.07796171906272972,True,0.07108278410320573,True,前期平均,303494561.5149999,385536667.0,385536667.0
14,603001,174860298.84999996,175011504.03000006,2017-06-30,半年度报告,152906527.03,2017,6,0.29727042709274126,True,0.12494205336616349,True,0.035661796920011146,True,比例外推,275091619.30810106,340550000.0,340550000.0
15,603001,191175396.67,191849149.15,2017-09-30,三季度报告,157175633.91,2017,9,0.07385208865007825,True,0.12137626640419379,True,0.004304836140402557,True,比例外推,253615463.1699195,,253615463.1699195
16,603001,225269594.77,226467907.17,2017-12-31,年度报告,181947751.02,2017,12,-0.10148595633829387,True,0.058261955058396486,True,0.0,True,比例外推,226467907.17,442250000.0,442250000.0
17,603001,119648573.44,119336448.35,2018-03-31,一季度报告,110673897.43,2018,3,1.406141681428622,False,0.03050052135137871,True,0.16795444836520818,False,前期平均,353342282.85,275000000.0,275000000.0
18,603001,168462888.12,167919484.48999998,2018-06-30,半年度报告,138168645.6,2018,6,0.5683075501617793,False,0.18492216463953787,True,0.1688120211724905,False,前期平均,306796867.895,261000000.0,261000000.0
19,603001,172249081.39,172183543.11999995,2018-09-30,三季度报告,133173731.16999996,2018,9,0.4344666295285582,True,0.27212026516615345,True,0.09874369585333775,True,比例外推,213068846.95833296,,213068846.95833296
20,603001,136286680.82,136946493.7,2018-12-31,年度报告,90902611.95000002,2018,12,0.21736236614618745,True,0.35186865032811,True,0.0,True,比例外推,136946493.7,未知,136946493.7
21,603001,78871611.40999998,79139159.27,2019-03-31,一季度报告,71039854.98,2019,3,1.2920016430243535,False,0.056145244738048584,True,0.5175819952092936,False,前期平均,227651807.81,164000000.0,164000000.0
22,603001,94736427.81,95491167.88,2019-06-30,半年度报告,78331637.17999999,2019,6,0.6278643324377551,False,0.12770916714797015,True,0.5313152056853673,False,前期平均,173307138.82000002,,173307138.82000002
23,603001,105031649.77,105932255.05,2019-09-30,三季度报告,83472360.05000001,2019,9,0.5920823768522047,False,0.22853423686120736,True,0.4497202300337426,False,前期平均,163731774.19000003,未知,163731774.19000003
24,603001,20816787.36,22497156.13,2019-12-31,年度报告,-30078528.55,2019,12,1.0121902247527348,False,0.4861747935349038,True,0.0,True,前期平均,22497156.13,未知,22497156.13
25,603001,2004778.96,2554714.2300000004,2020-03-31,一季度报告,-7467996.34,2020,3,2.4769763417719437,False,0.32479115996602664,True,2.1656866865873443,False,前期平均,33067409.55500001,79000000.0,79000000.0
