,SECURITYCODE_x,NETPROFIT_x,PARENTNETPROFIT_x,REPORTDATE_x,REPORTTIMETYPE_x,KCFJCXSYJLR,Year,Month,managesituationChangeRate,managesituationGreatChange,historyprofitextroplaterate,ifhistoryprofitextroplate,IfprofitdisStableChangeRage,IfprofitdisStable,predicttype,predict,analyst_prediction,adj_prediction
0,603056,123001496.35,123001496.35,2010-12-31,年度报告,,2010,12,未知,未知,未知,未知,未知,未知,未知,未知,未知,未知
1,603056,271789510.0,271789510.0,2013-12-31,年度报告,206787410.0,2013,12,未知,未知,未知,未知,未知,未知,未知,未知,未知,未知
2,603056,471550708.79,471550708.79,2014-12-31,年度报告,327129564.29,2014,12,-0.5474383969050167,True,未知,未知,未知,未知,未知,未知,未知,未知
3,603056,-15254018.390000002,-15254018.390000002,2015-03-31,一季度报告,,2015,3,未知,未知,未知,未知,未知,未知,未知,未知,未知,未知
4,603056,337195423.88000005,337195423.88000005,2015-12-31,年度报告,209652715.61000004,2015,12,-0.7391553144610428,True,未知,未知,未知,未知,未知,未知,未知,未知
5,603056,379937778.71,379937778.71,2016-12-31,年度报告,202303996.67999992,2016,12,-0.6352219287715679,True,0.09275614219049629,True,0.0,True,比例外推,379937778.71,未知,379937778.71
6,603056,-117445890.01000002,-117445890.01000002,2017-03-31,一季度报告,-132387934.17000002,2017,3,未知,未知,未知,未知,未知,未知,未知,未知,未知,未知
7,603056,118181230.77,118181230.77,2017-06-30,半年度报告,29255100.44,2017,6,未知,未知,未知,未知,未知,未知,未知,未知,未知,未知
8,603056,546622606.9699999,546622606.9699999,2017-12-31,年度报告,314139800.0,2017,12,-0.6762588422566819,True,0.06042758447407775,True,0.0,True,比例外推,546622606.9699999,未知,546622606.9699999
9,603056,99830957.41,99830957.41,2018-03-31,一季度报告,68251185.17000002,2018,3,-2.047303539864417,False,未知,未知,未知,未知,未知,未知,712890000.0,未知
10,603056,306769434.23000014,306769434.23000014,2018-06-30,半年度报告,200469804.4,2018,6,0.04078706532834324,True,未知,未知,未知,未知,未知,未知,817500000.0,未知
11,603056,459032252.39,459032252.39,2018-09-30,三季度报告,311735122.80999994,2018,9,未知,未知,未知,未知,未知,未知,未知,未知,698884000.0,未知
12,603056,700872846.8700001,700872846.8700001,2018-12-31,年度报告,456424600.0,2018,12,-0.774979126765698,True,0.5244660406067279,True,0.0,True,比例外推,700872846.8700001,691308570.9999999,700872846.8700001
13,603056,-49083612.17,-49083612.17,2019-03-31,一季度报告,-72447398.11,2019,3,0.23209773341990428,True,未知,未知,未知,未知,未知,未知,872845556.0000001,未知
14,603056,105497006.41,105497006.41,2019-06-30,半年度报告,1030032.2099999998,2019,6,-0.5990425295833752,True,未知,未知,未知,未知,未知,未知,692588570.9999999,未知
15,603056,111534841.18000004,111534841.18000004,2019-09-30,三季度报告,-91175407.67,2019,9,-0.7320417122989077,True,未知,未知,未知,未知,未知,未知,423287500.0,未知
16,603056,323632050.21000004,323632050.21000004,2019-12-31,年度报告,36778667.12999999,2019,12,-0.8245024088187929,True,0.5128487202820174,True,0.0,True,比例外推,323632050.21000004,423287500.0,423287500.0
17,603056,-94386443.39000005,-92430144.53,2020-03-31,一季度报告,-162967152.45999998,2020,3,-3.5059585248939507,False,-4.572954865578076,True,1.2225822712363277,False,前期平均,324920429.97,408277500.0,408277500.0
