,SECURITYCODE_x,NETPROFIT_x,PARENTNETPROFIT_x,REPORTDATE_x,REPORTTIMETYPE_x,KCFJCXSYJLR,Year,Month,managesituationChangeRate,managesituationGreatChange,historyprofitextroplaterate,ifhistoryprofitextroplate,IfprofitdisStableChangeRage,IfprofitdisStable,predicttype,predict,analyst_prediction,adj_prediction
0,603085,28207485.67,28207485.67,2012-12-31,年度报告,18960378.29,2012,12,未知,未知,未知,未知,未知,未知,未知,未知,未知,未知
1,603085,15040157.44,15040157.44,2014-06-30,半年度报告,15865768.85,2014,6,未知,未知,未知,未知,未知,未知,未知,未知,未知,未知
2,603085,22743319.36,22743319.36,2014-09-30,三季度报告,22747276.15,2014,9,未知,未知,未知,未知,未知,未知,未知,未知,未知,未知
3,603085,32252420.45,32252420.45,2014-12-31,年度报告,31636485.51000001,2014,12,未知,未知,未知,未知,未知,未知,未知,未知,未知,未知
4,603085,5896817.46,5896817.46,2015-03-31,一季度报告,5779027.03,2015,3,未知,未知,未知,未知,未知,未知,未知,未知,未知,未知
5,603085,16488547.93,16488547.93,2015-06-30,半年度报告,15171213.01,2015,6,0.8754780847560065,False,未知,未知,未知,未知,未知,未知,40450000.0,未知
6,603085,24758137.73,24758137.73,2015-09-30,三季度报告,23424892.22000001,2015,9,0.2402536860828745,True,未知,未知,未知,未知,未知,未知,,未知
7,603085,33408191.690000005,33408191.690000005,2015-12-31,年度报告,32343718.21,2015,12,-0.1254149215334317,True,未知,未知,未知,未知,未知,未知,未知,未知
8,603085,5780281.830000001,5780281.830000001,2016-03-31,一季度报告,3281583.04,2016,3,3.7835100647663595,False,未知,未知,未知,未知,未知,未知,未知,未知
9,603085,16387799.010000002,16387799.010000002,2016-06-30,半年度报告,13678259.079999998,2016,6,0.7107319449687891,False,未知,未知,未知,未知,未知,未知,42668750.0,未知
10,603085,25729830.25,25729830.25,2016-09-30,三季度报告,23298300.40000001,2016,9,0.13932178492651115,True,未知,未知,未知,未知,未知,未知,42807500.0,未知
11,603085,35221308.93,35221308.93,2016-12-31,年度报告,32832081.439999994,2016,12,-0.15567158103791406,True,未知,未知,未知,未知,未知,未知,42280000.0,未知
12,603085,7275018.089999999,7275018.089999999,2017-03-31,一季度报告,6102573.370000001,2017,3,3.8799498881873715,False,未知,未知,未知,未知,未知,未知,78952500.0,未知
13,603085,27861337.88000001,27861337.88000001,2017-06-30,半年度报告,23555983.430000003,2017,6,0.721249183785297,False,0.0395478544192443,True,0.045779719610140046,True,前期平均,44332948.81000002,72396000.0,72396000.0
14,603085,49089622.07,49089622.07,2017-09-30,三季度报告,43601624.96,2017,9,0.096295055036362,True,0.08332804196933312,True,0.0080096630195442,True,比例外推,66245835.708003476,72000000.0,66245835.708003476
15,603085,70121183.16,70121183.16,2017-12-31,年度报告,64704700.32,2017,12,-0.19913579231082817,True,0.07282913704495961,True,0.0,True,比例外推,70121183.16,87560484.0,87560484.0
16,603085,11383850.88,11383850.88,2018-03-31,一季度报告,11106512.48,2018,3,2.8773079765633964,False,0.2460317257437653,True,0.054362030638707634,True,前期平均,39441445.67,125641667.0,125641667.0
17,603085,30008249.06,30008249.06,2018-06-30,半年度报告,23817435.03,2018,6,0.012423947173350583,True,0.6949168915176321,True,0.052522464424519966,True,比例外推,63365081.17518495,84420000.0,84420000.0
18,603085,40674606.58,40674606.58,2018-09-30,三季度报告,33677097.099999994,2018,9,-0.4253880050293082,True,0.9446067660891428,True,0.02871911345839928,True,比例外推,54931339.47756181,,54931339.47756181
19,603085,36545959.95999999,36545959.95999999,2018-12-31,年度报告,19938483.86,2018,12,-0.5977323199804376,True,1.043470592865287,True,0.0,True,比例外推,36545959.95999999,131579250.0,131579250.0
20,603085,22960914.44,22960914.44,2019-03-31,一季度报告,20310047.72,2019,3,1.4778509458128108,False,0.7439432184258852,True,0.3066044045696355,False,前期平均,67037227.114999995,117728667.0,117728667.0
21,603085,31050924.430000003,31050924.430000003,2019-06-30,半年度报告,24474279.97,2019,6,-0.06000894575353131,True,0.35633149792721247,True,0.5361418710990867,False,平均增速,26848004.07475861,92520000.0,92520000.0
22,603085,25314074.86,25314074.86,2019-09-30,三季度报告,15785149.830000002,2019,9,-0.30650870305234057,True,0.08727357174538597,True,0.6648748422465485,False,平均增速,14266980.460230755,,14266980.460230755
23,603085,-535138770.67,-535138770.67,2019-12-31,年度报告,-543807235.3399999,2019,12,-0.22816405148822347,True,0.3061496982855365,True,0.0,True,比例外推,-535138770.67,未知,-535138770.67
24,603085,3322933.29,3322933.29,2020-03-31,一季度报告,-448160.69,2020,3,0.2285000993192151,True,1.461126071137205,True,0.35237053230483295,False,平均增速,3812558478.5379124,未知,3812558478.5379124
25,603085,32547174.66,32547174.66,2020-06-30,半年度报告,22405037.180000003,2020,6,-0.09157340118520914,True,0.07313447604849957,True,0.6900145514087218,False,平均增速,3603514782.5953174,未知,3603514782.5953174
