,SECURITYCODE_x,NETPROFIT_x,PARENTNETPROFIT_x,REPORTDATE_x,REPORTTIMETYPE_x,KCFJCXSYJLR,Year,Month,managesituationChangeRate,managesituationGreatChange,historyprofitextroplaterate,ifhistoryprofitextroplate,IfprofitdisStableChangeRage,IfprofitdisStable,predicttype,predict,analyst_prediction,adj_prediction
0,603060,94913963.02,85142112.98,2014-12-31,年度报告,76885596.35999998,2014,12,未知,未知,未知,未知,未知,未知,未知,未知,未知,未知
1,603060,78883496.67999999,68857786.69,2015-09-30,三季度报告,,2015,9,未知,未知,未知,未知,未知,未知,未知,未知,未知,未知
2,603060,118339162.06000002,104879188.44,2015-12-31,年度报告,96130119.34000002,2015,12,0.0,True,未知,未知,未知,未知,未知,未知,未知,未知
3,603060,8834269.59,6613940.630000001,2016-03-31,一季度报告,4147372.21,2016,3,未知,未知,未知,未知,未知,未知,未知,未知,未知,未知
4,603060,48290108.96999999,43355787.44,2016-06-30,半年度报告,37313381.38,2016,6,未知,未知,未知,未知,未知,未知,未知,未知,未知,未知
5,603060,127774062.51,115773356.06000002,2016-12-31,年度报告,101269729.34000002,2016,12,-0.197949678130415,True,未知,未知,未知,未知,未知,未知,未知,未知
6,603060,16933743.39,15660461.680000005,2017-03-31,一季度报告,14284311.32,2017,3,9.743838192060425,False,未知,未知,未知,未知,未知,未知,127000000.0,未知
7,603060,61958088.25,56706784.86,2017-06-30,半年度报告,56293645.01,2017,6,0.9654949024647027,False,未知,未知,未知,未知,未知,未知,146000000.0,未知
8,603060,114667336.39,106673425.17,2017-09-30,三季度报告,104735289.76999997,2017,9,未知,未知,未知,未知,未知,未知,未知,未知,143000000.0,未知
9,603060,155224216.04999998,144224161.14000002,2017-12-31,年度报告,122214487.43,2017,12,-0.25717347358685,True,0.19833238047101726,True,0.0,True,比例外推,144224161.14000002,,144224161.14000002
10,603060,19591430.169999994,19430501.17,2018-03-31,一季度报告,9359539.16,2018,3,4.60501956561183,False,未知,未知,未知,未知,未知,未知,未知,未知
11,603060,84201561.46,79623230.11000001,2018-06-30,半年度报告,62322218.47000001,2018,6,0.5319059335243449,False,未知,未知,未知,未知,未知,未知,174550000.0,未知
12,603060,147641073.69999996,140010193.34,2018-09-30,三季度报告,113360552.17999998,2018,9,-0.17226678487425537,True,未知,未知,未知,未知,未知,未知,,未知
13,603060,223869943.92,200979354.72000003,2018-12-31,年度报告,153035201.67000002,2018,12,-0.3885363673576111,True,0.2614049189855769,True,0.0,True,比例外推,200979354.72000003,185800000.0,200979354.72000003
14,603060,24233637.5,23346263.36,2019-03-31,一季度报告,14241678.239999998,2019,3,3.8446673977553734,False,0.5206007684958869,True,0.04388165383852739,True,前期平均,125872529.98000002,234066000.0,234066000.0
15,603060,90267067.36,85322148.32,2019-06-30,半年度报告,68416297.48,2019,6,0.12722331242145593,True,0.5274909446723376,True,0.048510181399577745,True,比例外推,182923185.32349735,228434000.0,228434000.0
16,603060,131398482.59000002,126466320.51000004,2019-09-30,三季度报告,101529180.25999998,2019,9,-0.3571303659518156,True,未知,未知,未知,未知,未知,未知,218614000.0,未知
17,603060,237103630.09,208350331.37000003,2019-12-31,年度报告,161513507.11999995,2019,12,-0.5760307911011157,True,0.5821293688366808,True,0.0,True,比例外推,208350331.37000003,218776000.0,208350331.37000003
18,603060,-46604897.62,-36905831.79,2020-03-31,一季度报告,-41107884.72,2020,3,2.9166205659385636,False,0.32695536464413194,True,0.028140763561845222,True,盈利变化,134550914.09000003,250971817.99999997,250971817.99999997
