,SECURITYCODE_x,NETPROFIT_x,PARENTNETPROFIT_x,REPORTDATE_x,REPORTTIMETYPE_x,KCFJCXSYJLR,Year,Month,managesituationChangeRate,managesituationGreatChange,historyprofitextroplaterate,ifhistoryprofitextroplate,IfprofitdisStableChangeRage,IfprofitdisStable,predicttype,predict,analyst_prediction,adj_prediction
0,603066,54134192.91,54134192.91,2012-12-31,年度报告,51882903.81,2012,12,未知,未知,未知,未知,未知,未知,未知,未知,未知,未知
1,603066,50604445.88,50604445.88,2013-12-31,年度报告,47414394.9,2013,12,0.0,True,未知,未知,未知,未知,未知,未知,未知,未知
2,603066,18723214.200000007,18738645.56,2014-06-30,半年度报告,17009018.84,2014,6,未知,未知,未知,未知,未知,未知,未知,未知,未知,未知
3,603066,32447707.07,32551024.31,2014-09-30,三季度报告,29964735.26,2014,9,未知,未知,未知,未知,未知,未知,未知,未知,未知,未知
4,603066,61224492.02,61390400.10999999,2014-12-31,年度报告,59261832.71000001,2014,12,0.06975171783068626,True,未知,未知,未知,未知,未知,未知,未知,未知
5,603066,5999738.9700000025,5929645.59,2015-03-31,一季度报告,5732872.92,2015,3,未知,未知,未知,未知,未知,未知,未知,未知,未知,未知
6,603066,24932775.870000005,24984091.11000001,2015-06-30,半年度报告,23429982.0,2015,6,1.8912873789586822,False,未知,未知,未知,未知,未知,未知,70405000.0,未知
7,603066,39229375.75000001,39302534.32000001,2015-09-30,三季度报告,36615152.45,2015,9,0.6683518743933236,False,未知,未知,未知,未知,未知,未知,,未知
8,603066,67928118.86000001,67893401.11999999,2015-12-31,年度报告,65015197.35,2015,12,-0.11580821458974036,True,0.1690908479869506,True,0.0,True,比例外推,67893401.11999999,未知,67893401.11999999
9,603066,8785685.290000003,8895354.33,2016-03-31,一季度报告,8395386.430000003,2016,3,8.022758020087661,False,未知,未知,未知,未知,未知,未知,78700000.0,未知
10,603066,33206256.12,33306878.3,2016-06-30,半年度报告,32433876.49000001,2016,6,1.1712060138131737,False,未知,未知,未知,未知,未知,未知,79238889.0,未知
11,603066,58197664.84,58415593.71,2016-09-30,三季度报告,57171155.89,2016,9,0.3799402074349854,True,未知,未知,未知,未知,未知,未知,84217143.0,未知
12,603066,81858301.22,81832481.35,2016-12-31,年度报告,73515931.36999997,2016,12,-0.20306650885518154,True,0.2148576233594008,True,0.0,True,比例外推,81832481.35,84240000.0,81832481.35
13,603066,11538500.569999995,11568052.77,2017-03-31,一季度报告,10372875.640000002,2017,3,5.161635788572615,False,未知,未知,未知,未知,未知,未知,99693333.0,未知
14,603066,42526530.56,42712981.52,2017-06-30,半年度报告,37520643.99999999,2017,6,0.6302407809652224,False,0.521269180552569,True,0.07832382498341578,True,前期平均,84631996.13,103127500.0,103127500.0
15,603066,62144562.88,62403011.97,2017-09-30,三季度报告,54947321.3,2017,9,-0.0698219067925064,True,0.623884861111037,True,0.1621764243592433,False,平均增速,79360872.13906118,98460000.0,98460000.0
16,603066,83028629.15,83334208.67,2017-12-31,年度报告,56254334.99,2017,12,-0.33868413950455056,True,0.2676213150047313,True,0.0,True,比例外推,83334208.67,97666667.0,97666667.0
17,603066,11736552.21,11816446.39,2018-03-31,一季度报告,9321566.15,2018,3,3.6916141817203223,False,0.5607939775141753,True,0.05546977159206226,True,前期平均,74017881.07499999,107000000.0,107000000.0
18,603066,56418222.19,56701483.11999999,2018-06-30,半年度报告,48430942.36000002,2018,6,0.27295107776598254,True,0.46292530523434317,True,0.17746864374370358,False,平均增速,77671562.8978354,107000000.0,107000000.0
19,603066,71383267.04999998,71925277.6,2018-09-30,三季度报告,55450361.25,2018,9,-0.12889896716254778,True,0.27571488374611625,True,0.20935985251043654,False,平均增速,73204275.15574475,89000000.0,89000000.0
20,603066,91722787.96,92600988.0,2018-12-31,年度报告,75924511.41999999,2018,12,-0.3480057003928025,True,0.10862692499967516,True,0.0,True,比例外推,92600988.0,,92600988.0
21,603066,14144197.19,14386933.459999995,2019-03-31,一季度报告,12909633.39,2019,3,3.6124442631350924,False,0.15493454850742064,True,0.043937536398767824,True,前期平均,69887935.60499997,126000000.0,126000000.0
22,603066,57599015.96,58123675.17,2019-06-30,半年度报告,51289275.08999999,2019,6,-0.04048389317033177,True,0.489928594028596,True,0.14083396464865178,False,平均增速,87218069.53122576,109000000.0,109000000.0
23,603066,71509965.95000002,72296894.57000001,2019-09-30,三季度报告,62305576.54999999,2019,9,-0.24164030105147716,True,0.1863378034863585,True,0.14850875097948546,False,平均增速,94624570.83280793,101000000.0,94624570.83280793
24,603066,76973158.64999999,78125950.27000001,2019-12-31,年度报告,64898384.15000003,2019,12,-0.4098065037708215,True,0.11255376947314798,True,0.0,True,比例外推,78125950.27000001,98985000.0,98985000.0
25,603066,16570599.119999995,18665409.91,2020-03-31,一季度报告,9138490.63,2020,3,2.827307565272992,False,0.2153954986649017,True,0.04592164021011241,True,前期平均,74907612.22,100087500.0,100087500.0
