,SECURITYCODE_x,NETPROFIT_x,PARENTNETPROFIT_x,REPORTDATE_x,REPORTTIMETYPE_x,KCFJCXSYJLR,Year,Month,managesituationChangeRate,managesituationGreatChange,historyprofitextroplaterate,ifhistoryprofitextroplate,IfprofitdisStableChangeRage,IfprofitdisStable,predicttype,predict,analyst_prediction,adj_prediction
0,603041,62455763.87999999,62455763.87999999,2012-12-31,年度报告,61405363.87999997,2012,12,未知,未知,未知,未知,未知,未知,未知,未知,未知,未知
1,603041,65421768.32,65421768.32,2013-12-31,年度报告,63342168.31999999,2013,12,0.0,True,未知,未知,未知,未知,未知,未知,未知,未知
2,603041,68517087.42999999,68517087.42999999,2014-12-31,年度报告,64838161.31,2014,12,-0.04533665958847644,True,未知,未知,未知,未知,未知,未知,未知,未知
3,603041,67340418.96999998,67340418.96999998,2015-12-31,年度报告,63490849.76999999,2015,12,-0.08846440760040353,True,0.07160478078102915,True,0.0,True,比例外推,67340418.96999998,未知,67340418.96999998
4,603041,19059716.8,19059716.8,2016-03-31,一季度报告,18677444.45,2016,3,未知,未知,未知,未知,未知,未知,未知,未知,未知,未知
5,603041,37087329.12,37087329.12,2016-06-30,半年度报告,35445636.86,2016,6,未知,未知,未知,未知,未知,未知,未知,未知,未知,未知
6,603041,56588244.89000001,56588244.89000001,2016-09-30,三季度报告,54026086.93,2016,9,未知,未知,未知,未知,未知,未知,未知,未知,未知,未知
7,603041,68258042.19,68258042.19,2016-12-31,年度报告,64561341.20999999,2016,12,-0.07253674932102962,True,0.00553970829334913,True,0.0,True,比例外推,68258042.19,未知,68258042.19
8,603041,17446513.45,17446513.45,2017-03-31,一季度报告,16835432.49,2017,3,2.2768463737089726,False,未知,未知,未知,未知,未知,未知,未知,未知
9,603041,29852078.419999994,29852078.419999994,2017-06-30,半年度报告,27350046.32,2017,6,0.6840189186424755,False,未知,未知,未知,未知,未知,未知,,未知
10,603041,42158256.61000001,42158256.61000001,2017-09-30,三季度报告,36389490.24,2017,9,0.10368794793699032,True,未知,未知,未知,未知,未知,未知,未知,未知
11,603041,50574345.72000001,50574345.72000001,2017-12-31,年度报告,42258118.32000001,2017,12,-0.0850050503038023,True,0.0048475641681586116,True,0.0,True,比例外推,50574345.72000001,62000000.0,62000000.0
12,603041,10844899.95,10844899.95,2018-03-31,一季度报告,7036034.249999997,2018,3,2.579842130577671,False,未知,未知,未知,未知,未知,未知,76000000.0,未知
13,603041,21675656.86,21675656.86,2018-06-30,半年度报告,14866423.09,2018,6,1.0921747223522134,False,未知,未知,未知,未知,未知,未知,,未知
14,603041,31378073.379999995,31378073.379999995,2018-09-30,三季度报告,19797217.720000006,2018,9,0.4814598349682558,True,未知,未知,未知,未知,未知,未知,未知,未知
15,603041,40823561.44000001,40823561.44000001,2018-12-31,年度报告,25484396.15,2018,12,0.23492974532543237,True,0.2540572321049484,True,0.0,True,比例外推,40823561.44000001,未知,40823561.44000001
16,603041,16171485.33,16171485.33,2019-03-31,一季度报告,12146569.84,2019,3,4.758998623126993,False,0.4058603216090766,True,0.07713364591071642,True,前期平均,51824776.625,未知,51824776.625
17,603041,34350324.34,34350324.34,2019-06-30,半年度报告,26474433.94,2019,6,1.881378141543434,False,0.3523797817586719,True,0.054017151754775394,True,前期平均,56362212.51500001,未知,56362212.51500001
18,603041,55633222.07999999,55633222.07999999,2019-09-30,三季度报告,44514562.67,2019,9,0.990426981403152,False,0.3644722009721025,True,0.04808949475362023,True,前期平均,63835163.25999999,70780000.0,63835163.25999999
19,603041,72040655.4,72040655.4,2019-12-31,年度报告,57947863.93999999,2019,12,0.5298950330875387,False,0.3129219708869518,True,0.0,True,前期平均,72040655.4,,72040655.4
20,603041,20883492.32,20883492.32,2020-03-31,一季度报告,17616208.28,2020,3,2.8620919850904003,False,0.14320801872698244,True,0.10369551749324196,False,前期平均,42819016.18500001,未知,42819016.18500001
