,SECURITYCODE_x,NETPROFIT_x,PARENTNETPROFIT_x,REPORTDATE_x,REPORTTIMETYPE_x,KCFJCXSYJLR,Year,Month,managesituationChangeRate,managesituationGreatChange,historyprofitextroplaterate,ifhistoryprofitextroplate,IfprofitdisStableChangeRage,IfprofitdisStable,predicttype,predict,analyst_prediction,adj_prediction
0,603068,66100893.6,66100893.6,2014-12-31,年度报告,73899369.08000001,2014,12,未知,未知,未知,未知,未知,未知,未知,未知,未知,未知
1,603068,93843663.95,93843663.95,2015-12-31,年度报告,99040099.16,2015,12,0.0,True,未知,未知,未知,未知,未知,未知,未知,未知
2,603068,104120991.83000004,104120991.83000004,2016-12-31,年度报告,103143600.0,2016,12,-0.2956275275524342,True,未知,未知,未知,未知,未知,未知,未知,未知
3,603068,8334428.54,8334428.54,2017-03-31,一季度报告,8120241.479999999,2017,3,未知,未知,未知,未知,未知,未知,未知,未知,未知,未知
4,603068,87427341.3,87427341.3,2017-12-31,年度报告,83588126.66000001,2017,12,-0.3651530547468857,True,0.30196354818076193,True,0.0,True,比例外推,87427341.3,未知,87427341.3
5,603068,15659286.709999995,15659286.709999995,2018-03-31,一季度报告,14669286.710000005,2018,3,6.9310648933826,False,未知,未知,未知,未知,未知,未知,未知,未知
6,603068,52785468.59000001,52785468.59000001,2018-06-30,半年度报告,48560180.16,2018,6,未知,未知,未知,未知,未知,未知,未知,未知,未知,未知
7,603068,73297913.51999998,73297913.51999998,2018-09-30,三季度报告,67264698.51,2018,9,未知,未知,未知,未知,未知,未知,未知,未知,未知,未知
8,603068,123911671.02,123911671.02,2018-12-31,年度报告,112422366.22000004,2018,12,-0.24393338951964672,True,0.11673787469255302,True,0.0,True,比例外推,123911671.02,未知,123911671.02
9,603068,16382548.26,16382548.26,2019-03-31,一季度报告,15382478.329999994,2019,3,3.2211944147997547,False,未知,未知,未知,未知,未知,未知,未知,未知
10,603068,55012192.84,55012192.84,2019-06-30,半年度报告,51535772.91,2019,6,0.252255504510621,True,未知,未知,未知,未知,未知,未知,330122000.0,未知
11,603068,163833216.45000005,163833216.45000005,2019-09-30,三季度报告,160207517.19999996,2019,9,-0.09818860557383,True,未知,未知,未知,未知,未知,未知,353321667.0,未知
12,603068,252370195.33000004,252370195.33000004,2019-12-31,年度报告,239832135.52,2019,12,-0.4665482835000186,True,0.2937901259198492,True,0.0,True,比例外推,252370195.33000004,353321667.0,353321667.0
13,603068,15657077.749999998,15657077.749999998,2020-03-31,一季度报告,14148382.81,2020,3,3.0348358845609775,False,0.3655699494058139,True,0.03322767146362916,True,前期平均,102267560.09500003,,102267560.09500003
