,SECURITYCODE_x,NETPROFIT_x,PARENTNETPROFIT_x,REPORTDATE_x,REPORTTIMETYPE_x,KCFJCXSYJLR,Year,Month,managesituationChangeRate,managesituationGreatChange,historyprofitextroplaterate,ifhistoryprofitextroplate,IfprofitdisStableChangeRage,IfprofitdisStable,predicttype,predict,analyst_prediction,adj_prediction
0,603117,21874239.55,21874239.55,2014-03-31,一季度报告,21306039.55,2014,3,未知,未知,未知,未知,未知,未知,未知,未知,未知,未知
1,603117,54751072.74,54751072.74,2014-06-30,半年度报告,51609574.04000001,2014,6,未知,未知,未知,未知,未知,未知,未知,未知,未知,未知
2,603117,111090277.96999998,111090277.96999998,2014-12-31,年度报告,105902148.62,2014,12,未知,未知,未知,未知,未知,未知,未知,未知,未知,未知
3,603117,19020191.13,19020191.13,2015-03-31,一季度报告,18713241.200000007,2015,3,0.0,True,未知,未知,未知,未知,未知,未知,未知,未知
4,603117,41469276.9,41469276.9,2015-06-30,半年度报告,41071906.38,2015,6,-0.6004783384998568,True,未知,未知,未知,未知,未知,未知,132037500.0,未知
5,603117,55376386.64,55376386.64,2015-09-30,三季度报告,51935093.99,2015,9,未知,未知,未知,未知,未知,未知,未知,未知,,未知
6,603117,73594130.33,73594130.33,2015-12-31,年度报告,68092287.25,2015,12,-0.803094924689025,True,未知,未知,未知,未知,未知,未知,未知,未知
7,603117,17594984.049999993,17594984.049999993,2016-03-31,一季度报告,16885425.359999996,2016,3,0.15005361410371915,True,未知,未知,未知,未知,未知,未知,未知,未知
8,603117,47238362.86,47238362.86,2016-06-30,半年度报告,44389411.47,2016,6,-0.47251938820278777,True,未知,未知,未知,未知,未知,未知,91060450.0,未知
9,603117,70438171.31000002,70438171.31000002,2016-09-30,三季度报告,66208450.39000002,2016,9,-0.6049897640992056,True,未知,未知,未知,未知,未知,未知,94310000.0,未知
10,603117,80225910.19000003,80225910.19000003,2016-12-31,年度报告,69726194.00999999,2016,12,-0.7027719540686908,True,未知,未知,未知,未知,未知,未知,未知,未知
11,603117,19608140.82,19608140.82,2017-03-31,一季度报告,16885425.359999996,2017,3,0.2432088308713192,True,0.13949240728248752,True,0.038205720901645535,True,比例外推,73257396.93298888,,73257396.93298888
12,603117,48246584.07999999,48246584.07999999,2017-06-30,半年度报告,41983712.95,2017,6,-0.5369390845565811,True,0.01812115551984188,True,0.08837977897337002,True,比例外推,79187670.57962438,130000000.0,130000000.0
13,603117,91555581.22,82007312.45,2017-09-30,三季度报告,73350945.38999999,2017,9,-0.6894547495599941,True,未知,未知,未知,未知,未知,未知,,未知
14,603117,124395924.31999998,104191835.72,2017-12-31,年度报告,86933045.79000002,2017,12,-0.7273419584995052,True,0.13121079436568728,True,0.0,True,比例外推,104191835.72,,104191835.72
15,603117,33809722.78,29811725.24,2018-03-31,一季度报告,30015561.4,2018,3,0.11556928067798324,True,0.0710390281410094,True,0.04283989649628725,True,比例外推,126404182.58054109,未知,126404182.58054109
16,603117,81304034.71000001,62995662.75000001,2018-06-30,半年度报告,63043065.56999999,2018,6,-0.5466157870631988,True,0.08776615431392233,True,0.0913061541658508,True,比例外推,109736053.10881546,未知,109736053.10881546
17,603117,103131088.82,82636360.54999998,2018-09-30,三季度报告,81504513.75,2018,9,-0.76108240198445,True,0.45540520448174393,True,0.09753948180945793,True,比例外推,96793332.65363766,未知,96793332.65363766
18,603117,130156620.27000004,98292725.06999998,2018-12-31,年度报告,91515035.28,2018,12,-0.8241563003806297,True,0.6174215518273216,True,0.0,True,比例外推,98292725.06999998,未知,98292725.06999998
19,603117,28877336.520000003,23260027.7,2019-03-31,一季度报告,22544714.41,2019,3,-0.35301925743858464,True,0.817574351517102,True,0.07318920721132754,True,比例外推,89196805.44579531,未知,89196805.44579531
20,603117,59963083.02,47362190.32,2019-06-30,半年度报告,46240746.08000001,2019,6,-0.7309575148635328,True,0.7029707260787218,True,0.11987350311867478,False,平均增速,74171695.66963932,未知,74171695.66963932
21,603117,80319282.17,66519474.85,2019-09-30,三季度报告,66519529.75000002,2019,9,-0.7878986850591849,True,0.27327242204480556,True,0.05490710932401188,True,比例外推,74353177.39722718,未知,74353177.39722718
22,603117,91801670.45999998,73447713.21,2019-12-31,年度报告,53147734.99000001,2019,12,-0.8319390938038838,True,0.2721674652334251,True,0.0,True,比例外推,73447713.21,未知,73447713.21
23,603117,15115746.77,13046133.490000002,2020-03-31,一季度报告,11824767.59,2020,3,-0.2425118731137051,True,0.08118650106403741,True,0.1212349766098984,False,平均增速,33569031.67404118,未知,33569031.67404118
