,SECURITYCODE_x,NETPROFIT_x,PARENTNETPROFIT_x,REPORTDATE_x,REPORTTIMETYPE_x,KCFJCXSYJLR,Year,Month,managesituationChangeRate,managesituationGreatChange,historyprofitextroplaterate,ifhistoryprofitextroplate,IfprofitdisStableChangeRage,IfprofitdisStable,predicttype,predict,analyst_prediction,adj_prediction
0,603157,259555000.0,259905000.0,2012-12-31,年度报告,250398000.0,2012,12,未知,未知,未知,未知,未知,未知,未知,未知,未知,未知
1,603157,413372999.9999999,407298000.0,2013-12-31,年度报告,383769000.0,2013,12,0.0,True,未知,未知,未知,未知,未知,未知,未知,未知
2,603157,511211000.0,503452000.0,2014-12-31,年度报告,465112000.00000006,2014,12,-0.37210461254121563,True,未知,未知,未知,未知,未知,未知,未知,未知
3,603157,289842999.99999994,276351000.0,2015-06-30,半年度报告,274278999.99999994,2015,6,未知,未知,未知,未知,未知,未知,未知,未知,未知,未知
4,603157,658398000.0000001,615251000.0,2015-12-31,年度报告,567678000.0,2015,12,-0.49227422727601716,True,0.5193631413761951,True,0.0,True,比例外推,615251000.0,未知,615251000.0
5,603157,362931000.0,325099000.00000006,2016-09-30,三季度报告,289917000.0,2016,9,未知,未知,未知,未知,未知,未知,未知,未知,未知,未知
6,603157,572267000.0000001,531963000.0,2016-12-31,年度报告,472000000.00000006,2016,12,-0.6057779640885909,True,0.4242037500108161,True,0.0,True,比例外推,531963000.0,未知,531963000.0
7,603157,139551000.0,130256000.0,2017-03-31,一季度报告,125592000.00000004,2017,3,未知,未知,未知,未知,未知,未知,未知,未知,未知,未知
8,603157,300967000.00000006,281747000.0,2017-06-30,半年度报告,244689000.0,2017,6,未知,未知,未知,未知,未知,未知,未知,未知,未知,未知
9,603157,360701000.0,339730000.0,2017-09-30,三季度报告,295208999.99999994,2017,9,-0.28483651162342155,True,未知,未知,未知,未知,未知,未知,562606667.0,未知
10,603157,537440000.0,498527000.0,2017-12-31,年度报告,379823000.00000006,2017,12,-0.546444229703967,True,0.021438788518214003,True,0.0,True,比例外推,498527000.0,562606667.0,562606667.0
11,603157,176552999.99999997,174130999.99999997,2018-03-31,一季度报告,132641999.99999996,2018,3,0.8599293448273391,False,未知,未知,未知,未知,未知,未知,556180000.0,未知
12,603157,241469000.00000003,235827000.0,2018-06-30,半年度报告,185255000.0,2018,6,-0.13759648067728372,True,未知,未知,未知,未知,未知,未知,,未知
13,603157,233916000.0,239247000.0,2018-09-30,三季度报告,167361999.99999997,2018,9,-0.2804150806346531,True,未知,未知,未知,未知,未知,未知,未知,未知
14,603157,-199182000.0,-159512999.99999997,2018-12-31,年度报告,-244716000.0000001,2018,12,-0.5170530663888062,True,0.12658603275464908,True,0.0,True,比例外推,-159512999.99999997,,-159512999.99999997
15,603157,-10915999.999999998,9751000.0,2019-03-31,一季度报告,-38527000.0,2019,3,0.4701251182364505,True,未知,未知,未知,未知,未知,未知,351000000.0,未知
16,603157,-564687000.0,-498134000.0,2019-06-30,半年度报告,-571450000.0,2019,6,0.0748998836289543,True,未知,未知,未知,未知,未知,未知,,未知
17,603157,-886448999.9999998,-824662000.0000001,2019-09-30,三季度报告,-912507000.0,2019,9,0.10960772243027411,True,0.35349459393724986,True,0.9197548975654658,False,平均增速,282197009.11075103,未知,282197009.11075103
18,603157,-2252279000.0,-2166306000.0,2019-12-31,年度报告,-2236367000.0,2019,12,-2.3031046982157024,False,1.3589812445987994,True,0.0,True,前期平均,-2166306000.0,未知,-2166306000.0
19,603157,-348177999.99999994,-342163999.99999994,2020-03-31,一季度报告,-347888000.0,2020,3,-24.77748259435691,False,1.0690658770531218,True,0.4773117410603485,False,盈利变化,-2578787333.3333335,未知,-2578787333.3333335
