,SECURITYCODE_x,NETPROFIT_x,PARENTNETPROFIT_x,REPORTDATE_x,REPORTTIMETYPE_x,KCFJCXSYJLR,Year,Month,managesituationChangeRate,managesituationGreatChange,historyprofitextroplaterate,ifhistoryprofitextroplate,IfprofitdisStableChangeRage,IfprofitdisStable,predicttype,predict,analyst_prediction,adj_prediction
0,603178,38600899.99999999,39375699.99999999,2012-12-31,年度报告,24396700.0,2012,12,未知,未知,未知,未知,未知,未知,未知,未知,未知,未知
1,603178,42194938.34,42647881.08000001,2013-12-31,年度报告,40285991.69000001,2013,12,0.0,True,未知,未知,未知,未知,未知,未知,未知,未知
2,603178,65036357.66,66280236.35000001,2014-12-31,年度报告,69777062.86,2014,12,-0.08517700182519121,True,未知,未知,未知,未知,未知,未知,未知,未知
3,603178,77993280.23000002,68695268.22,2015-12-31,年度报告,65501442.67,2015,12,-0.40647198907110516,True,0.6098937518617743,True,0.0,True,比例外推,68695268.22,未知,68695268.22
4,603178,24997651.49,22446584.360000007,2016-03-31,一季度报告,19781535.98,2016,3,未知,未知,未知,未知,未知,未知,未知,未知,未知,未知
5,603178,33922540.239999995,30960980.14000001,2016-06-30,半年度报告,27432145.07,2016,6,未知,未知,未知,未知,未知,未知,未知,未知,未知,未知
6,603178,89134297.47000001,79701510.21000001,2016-12-31,年度报告,67575625.94,2016,12,-0.5050740283500449,True,0.45467383384044935,True,0.0,True,比例外推,79701510.21000001,未知,79701510.21000001
7,603178,27975633.77,25107311.44,2017-03-31,一季度报告,19141681.880000006,2017,3,0.5441810609865413,False,未知,未知,未知,未知,未知,未知,,未知
8,603178,41261521.31999999,35101449.04,2017-06-30,半年度报告,28621161.42000001,2017,6,0.13791301379262505,True,未知,未知,未知,未知,未知,未知,110000000.0,未知
9,603178,74428563.11,63067741.76,2017-09-30,三季度报告,51231514.15,2017,9,未知,未知,未知,未知,未知,未知,未知,未知,,未知
10,603178,109850022.16,94476537.64000002,2017-12-31,年度报告,74893545.46,2017,12,-0.5669354996263708,True,0.24637520985057154,True,0.0,True,比例外推,94476537.64000002,72150000.0,72150000.0
11,603178,22729772.62,20800403.45,2018-03-31,一季度报告,16918128.049999993,2018,3,0.3798043081831491,True,未知,未知,未知,未知,未知,未知,未知,未知
12,603178,34923195.85000001,32481466.14,2018-06-30,半年度报告,26355443.76,2018,6,-0.06448190068819307,True,未知,未知,未知,未知,未知,未知,未知,未知
13,603178,44143770.53000001,43277202.12,2018-09-30,三季度报告,35654869.260000005,2018,9,-0.48136980767785786,True,未知,未知,未知,未知,未知,未知,未知,未知
14,603178,36034990.38,38129563.25000001,2018-12-31,年度报告,22944491.16,2018,12,-0.6486036211829199,True,0.31456488117340753,True,0.0,True,比例外推,38129563.25000001,未知,38129563.25000001
15,603178,-29153687.000000004,-26702918.47000001,2019-03-31,一季度报告,-29507509.22,2019,3,0.69825280020773,False,0.14184017440341015,True,0.3087945439537222,False,盈利变化,-23771286.44333332,未知,-23771286.44333332
16,603178,-59383774.95,-48395790.65,2019-06-30,半年度报告,-57256865.92,2019,6,0.10530835052428292,True,0.07099469953136661,True,0.5030722963544586,False,平均增速,-45896994.278616786,未知,-45896994.278616786
17,603178,-130668375.18999998,-95992273.76,2019-09-30,三季度报告,-107874286.28999998,2019,9,-0.12556404818734487,True,未知,未知,未知,未知,未知,未知,未知,未知
18,603178,-245714468.76000005,-209610806.53,2019-12-31,年度报告,-229565119.34000003,2019,12,0.07120605813798443,True,0.6378107536613437,True,0.0,True,比例外推,-209610806.53,未知,-209610806.53
19,603178,24443.209999999995,653011.5599999999,2020-03-31,一季度报告,-2227092.62,2020,3,-2.3240486529199544,False,2.149924202392336,False,0.36352629954223786,False,前期平均,31542124.90499999,未知,31542124.90499999
