,SECURITYCODE_x,NETPROFIT_x,PARENTNETPROFIT_x,REPORTDATE_x,REPORTTIMETYPE_x,KCFJCXSYJLR,Year,Month,managesituationChangeRate,managesituationGreatChange,historyprofitextroplaterate,ifhistoryprofitextroplate,IfprofitdisStableChangeRage,IfprofitdisStable,predicttype,predict,analyst_prediction,adj_prediction
0,603166,14272833.32,14272833.32,2014-03-31,一季度报告,10977279.76,2014,3,未知,未知,未知,未知,未知,未知,未知,未知,未知,未知
1,603166,109296198.49999996,109296198.49999996,2014-12-31,年度报告,85006135.69999999,2014,12,未知,未知,未知,未知,未知,未知,未知,未知,未知,未知
2,603166,6928479.699999997,6928479.699999997,2015-03-31,一季度报告,3042737.97,2015,3,0.0,True,未知,未知,未知,未知,未知,未知,未知,未知
3,603166,30570426.82,30570426.82,2015-06-30,半年度报告,15792117.400000004,2015,6,未知,未知,未知,未知,未知,未知,未知,未知,未知,未知
4,603166,35412317.67,35412317.67,2015-09-30,三季度报告,17482142.330000002,2015,9,未知,未知,未知,未知,未知,未知,未知,未知,未知,未知
5,603166,50283187.13000001,50283187.13000001,2015-12-31,年度报告,15820715.24,2015,12,-0.8694114386787203,True,未知,未知,未知,未知,未知,未知,,未知
6,603166,11173783.329999998,11173783.329999998,2016-03-31,一季度报告,5414725.09,2016,3,1.0600238346660675,False,未知,未知,未知,未知,未知,未知,未知,未知
7,603166,38037808.29000001,38037808.29000001,2016-06-30,半年度报告,25970407.020000003,2016,6,-0.5331163217301785,True,未知,未知,未知,未知,未知,未知,未知,未知
8,603166,58701857.45999999,58701857.45999999,2016-09-30,三季度报告,40809914.33,2016,9,-0.5969528610636119,True,未知,未知,未知,未知,未知,未知,未知,未知
9,603166,101133437.14,101133437.14,2016-12-31,年度报告,61648383.39000002,2016,12,-0.7161509813787336,True,未知,未知,未知,未知,未知,未知,未知,未知
10,603166,35043102.370000005,35043102.370000005,2017-03-31,一季度报告,27727316.93,2017,3,0.2773501059108153,True,0.05406521940026528,True,0.05589495023067215,True,比例外推,210548680.5403864,未知,210548680.5403864
11,603166,82311037.13999999,82311037.13999999,2017-06-30,半年度报告,41833129.53,2017,6,-0.6247724576772665,True,未知,未知,未知,未知,未知,未知,128400000.0,未知
12,603166,105741186.94,105741186.94,2017-09-30,三季度报告,58882679.41,2017,9,-0.7568589149035762,True,未知,未知,未知,未知,未知,未知,158000000.0,未知
13,603166,136094605.68000004,136094605.68000004,2017-12-31,年度报告,77043863.69,2017,12,-0.8588712722159143,True,0.26750001876166546,True,0.0,True,比例外推,136094605.68000004,未知,136094605.68000004
14,603166,38644802.33,38644802.33,2018-03-31,一季度报告,31310350.53,2018,3,-0.5927063429116136,True,2.8716819341233513,False,0.146540477416348,False,未知,未知,未知,未知
15,603166,67234659.71000002,67451032.83999999,2018-06-30,半年度报告,53578448.99,2018,6,-0.8265987914145241,True,1.3994506492706067,True,0.34404668023688956,False,平均增速,135301676.8713014,未知,135301676.8713014
16,603166,79531595.46,79885824.44000001,2018-09-30,三季度报告,60183354.59,2018,9,-0.8650210600709567,True,1.2470831156717805,True,0.26125948242389563,False,平均增速,112533261.54167429,未知,112533261.54167429
17,603166,112119782.66,112119782.66,2018-12-31,年度报告,80180186.73,2018,12,-0.8951256499206164,True,0.7976177495189911,True,0.0,True,比例外推,112119782.66,,112119782.66
18,603166,46222094.91,46222094.91,2019-03-31,一季度报告,30847855.26,2019,3,-0.6306661579448685,True,0.6723239458776425,True,0.19157502284343536,False,平均增速,98279418.68685862,130000000.0,130000000.0
19,603166,73198891.72,73198891.72,2019-06-30,半年度报告,53053848.16000001,2019,6,-0.7877161365646481,True,0.1173295343179102,True,0.12406879030046358,False,平均增速,101601941.02978086,,101601941.02978086
20,603166,87267408.30999999,87267408.30999999,2019-09-30,三季度报告,59008882.91,2019,9,-0.8205388281544226,True,0.032715603749792835,True,0.06363958360580724,True,比例外推,109580740.34568879,未知,109580740.34568879
21,603166,142244447.07000002,142244447.07000002,2019-12-31,年度报告,96373759.02,2019,12,-0.8727001338980299,True,0.054751020771415464,True,0.0,True,比例外推,142244447.07000002,未知,142244447.07000002
22,603166,29512908.160000004,29512908.160000004,2020-03-31,一季度报告,24490677.46,2020,3,-0.6912118901622496,True,0.25453682251328813,True,0.036739532845909306,True,比例外推,73657181.62105234,未知,73657181.62105234
