,SECURITYCODE_x,NETPROFIT_x,PARENTNETPROFIT_x,REPORTDATE_x,REPORTTIMETYPE_x,KCFJCXSYJLR,Year,Month,managesituationChangeRate,managesituationGreatChange,historyprofitextroplaterate,ifhistoryprofitextroplate,IfprofitdisStableChangeRage,IfprofitdisStable,predicttype,predict,analyst_prediction,adj_prediction
0,603180,22199179.64,22977176.47000001,2012-12-31,年度报告,15858724.739999998,2012,12,未知,未知,未知,未知,未知,未知,未知,未知,未知,未知
1,603180,30080243.49,30759908.2,2013-12-31,年度报告,23240299.99,2013,12,0.0,True,未知,未知,未知,未知,未知,未知,未知,未知
2,603180,39285143.38999999,40027558.92,2014-12-31,年度报告,33829906.51,2014,12,-0.26200133162552397,True,未知,未知,未知,未知,未知,未知,未知,未知
3,603180,47262506.85,47337639.92999999,2015-12-31,年度报告,36827174.74999999,2015,12,-0.43492176114467773,True,0.5028912347526125,True,0.0,True,比例外推,47337639.92999999,未知,47337639.92999999
4,603180,4699322.649999999,4700250.88,2016-03-31,一季度报告,4018279.51,2016,3,未知,未知,未知,未知,未知,未知,未知,未知,未知,未知
5,603180,22241659.94,22245514.83,2016-06-30,半年度报告,14389312.4,2016,6,未知,未知,未知,未知,未知,未知,未知,未知,未知,未知
6,603180,40165088.45999999,40167064.18,2016-09-30,三季度报告,30811093.73,2016,9,未知,未知,未知,未知,未知,未知,未知,未知,未知,未知
7,603180,96223133.74,96225330.26999998,2016-12-31,年度报告,81176145.56,2016,12,-0.5303004195174214,True,0.36271154752622364,True,0.0,True,比例外推,96225330.26999998,未知,96225330.26999998
8,603180,10083193.34,10083214.25,2017-03-31,一季度报告,7924538.36,2017,3,3.72391050654928,False,未知,未知,未知,未知,未知,未知,152900000.0,未知
9,603180,46250878.26,46251180.15000001,2017-06-30,半年度报告,32865154.35,2017,6,-0.0019099428781213863,True,未知,未知,未知,未知,未知,未知,156620000.0,未知
10,603180,90592309.69,90592613.82,2017-09-30,三季度报告,70227880.07,2017,9,-0.4473016121423973,True,未知,未知,未知,未知,未知,未知,168463750.0,未知
11,603180,166743714.79000002,166748221.45000002,2017-12-31,年度报告,136655163.54,2017,12,-0.7692947758281978,True,1.2235874335853025,True,0.0,True,比例外推,166748221.45000002,未知,166748221.45000002
12,603180,18586032.06,18586032.06,2018-03-31,一季度报告,11731267.12,2018,3,1.2016021007884394,False,未知,未知,未知,未知,未知,未知,226020000.0,未知
13,603180,61298147.95,61298147.95,2018-06-30,半年度报告,36207667.83,2018,6,-0.5200268519182061,True,未知,未知,未知,未知,未知,未知,213333332.99999997,未知
14,603180,119159283.78,119159283.78,2018-09-30,三季度报告,82214409.56000002,2018,9,-0.7549551422635773,True,未知,未知,未知,未知,未知,未知,212750000.0,未知
15,603180,210121799.41000003,210190541.74000004,2018-12-31,年度报告,161723462.26,2018,12,-0.8668664682926248,True,1.3241867841878103,True,0.0,True,比例外推,210190541.74000004,211064000.0,210190541.74000004
16,603180,19009726.9,19084817.17,2019-03-31,一季度报告,1087478.15,2019,3,0.19440123466568485,True,1.5145965778184152,True,0.012529353042502196,True,比例外推,36119044.593230285,250948889.00000003,250948889.00000003
17,603180,69649055.32000001,69799995.24999999,2019-06-30,半年度报告,37675989.13,2019,6,-0.6378490968747124,True,0.7899219261230416,True,0.03662085752574132,True,比例外推,208277809.6289186,249120000.0,249120000.0
18,603180,131720196.96,132002780.49,2019-09-30,三季度报告,93496164.23000002,2019,9,-0.813701635862585,True,0.8226010224416508,True,0.0877176646039497,True,比例外推,238594224.01171082,240000000.0,238594224.01171082
19,603180,242014925.26,242496668.92,2019-12-31,年度报告,197751921.59000003,2019,12,-0.8943508969448531,True,0.5980858468251272,True,0.0,True,比例外推,242496668.92,253440000.0,242496668.92
20,603180,6190834.800000003,6394813.6,2020-03-31,一季度报告,-16494878.06,2020,3,0.16778004001730307,True,0.32614164734286816,True,0.03984331833319449,True,比例外推,-340894174.484505,280390000.0,280390000.0
