,SECURITYCODE_x,NETPROFIT_x,PARENTNETPROFIT_x,REPORTDATE_x,REPORTTIMETYPE_x,KCFJCXSYJLR,Year,Month,managesituationChangeRate,managesituationGreatChange,historyprofitextroplaterate,ifhistoryprofitextroplate,IfprofitdisStableChangeRage,IfprofitdisStable,predicttype,predict,analyst_prediction,adj_prediction
0,603186,23157476.76,23157476.76,2014-12-31,年度报告,10985053.950000003,2014,12,未知,未知,未知,未知,未知,未知,未知,未知,未知,未知
1,603186,40834810.11999999,40834810.11999999,2015-12-31,年度报告,30243176.87,2015,12,0.0,True,未知,未知,未知,未知,未知,未知,未知,未知
2,603186,25836803.66,25836803.66,2016-03-31,一季度报告,23490252.71,2016,3,未知,未知,未知,未知,未知,未知,未知,未知,未知,未知
3,603186,41797438.98,41797438.98,2016-06-30,半年度报告,39484895.62,2016,6,未知,未知,未知,未知,未知,未知,未知,未知,未知,未知
4,603186,68063117.2,68063117.2,2016-09-30,三季度报告,63965417.7,2016,9,未知,未知,未知,未知,未知,未知,未知,未知,未知,未知
5,603186,84794531.47,84794531.47,2016-12-31,年度报告,79003720.24000001,2016,12,-0.4328986300671451,True,未知,未知,未知,未知,未知,未知,未知,未知
6,603186,40834657.78,40834657.78,2017-03-31,一季度报告,38408187.86,2017,3,-0.10370194917524092,True,未知,未知,未知,未知,未知,未知,173100000.0,未知
7,603186,51814589.60999999,51814589.60999999,2017-06-30,半年度报告,48445665.44000001,2017,6,-0.4459594337566755,True,未知,未知,未知,未知,未知,未知,159396667.0,未知
8,603186,70275202.3,70275202.3,2017-09-30,三季度报告,64296662.22000001,2017,9,-0.6597646756031914,True,未知,未知,未知,未知,未知,未知,144000000.0,未知
9,603186,93597587.06000002,93597814.49,2017-12-31,年度报告,85117818.91000001,2017,12,-0.7268989360688545,True,1.6501484977090728,True,0.0,True,比例外推,93597814.49,149500000.0,149500000.0
10,603186,11394507.129999995,11412918.92,2018-03-31,一季度报告,8105702.759999998,2018,3,-0.4328965144078648,True,未知,未知,未知,未知,未知,未知,122000000.0,未知
11,603186,31252014.77,31232077.37,2018-06-30,半年度报告,25971818.58,2018,6,-0.5530703430384653,True,未知,未知,未知,未知,未知,未知,,未知
12,603186,57795178.84,57193284.66,2018-09-30,三季度报告,50798699.72999999,2018,9,-0.6704744205339697,True,未知,未知,未知,未知,未知,未知,未知,未知
13,603186,72739454.67999999,72741674.81,2018-12-31,年度报告,58604499.56999999,2018,12,-0.7525846820692602,True,0.49005934243390675,True,0.0,True,比例外推,72741674.81,,72741674.81
14,603186,15131503.54,14833441.6,2019-03-31,一季度报告,13405844.98,2019,3,1.0323368528183114,False,0.6581893696674307,True,0.1573142126924544,False,前期平均,65944990.89000001,124900000.0,124900000.0
15,603186,46684062.01000001,45978352.31,2019-06-30,半年度报告,37519607.38,2019,6,-0.25900851735710345,True,0.3323077121450509,True,0.06512128103004289,True,比例外推,82896678.55687952,118328571.0,118328571.0
16,603186,78595974.89999999,78204554.36999999,2019-09-30,三季度报告,67204129.89999999,2019,9,-0.599318191849374,True,0.16443717042550884,True,0.05619197379589369,True,比例外推,93905695.2553215,117950000.0,117950000.0
17,603186,102533095.55,102140494.39,2019-12-31,年度报告,88771948.74000002,2019,12,-0.6816380207704905,True,0.18449923371735205,True,0.0,True,比例外推,102140494.39,153900000.0,153900000.0
18,603186,17862530.54,17632520.14,2020-03-31,一季度报告,15648018.729999995,2020,3,0.5304147865268914,False,0.42057264112592146,True,0.2043815893714055,False,前期平均,66236734.07,155000000.0,155000000.0
