,SECURITYCODE_x,NETPROFIT_x,PARENTNETPROFIT_x,REPORTDATE_x,REPORTTIMETYPE_x,KCFJCXSYJLR,Year,Month,managesituationChangeRate,managesituationGreatChange,historyprofitextroplaterate,ifhistoryprofitextroplate,IfprofitdisStableChangeRage,IfprofitdisStable,predicttype,predict,analyst_prediction,adj_prediction
0,603115,68942399.32000001,63870164.57999999,2014-12-31,年度报告,53394164.58,2014,12,未知,未知,未知,未知,未知,未知,未知,未知,未知,未知
1,603115,77127001.79000002,73527001.79,2015-12-31,年度报告,65527401.79000001,2015,12,0.0,True,未知,未知,未知,未知,未知,未知,未知,未知
2,603115,78532757.73,77694718.03000002,2016-12-31,年度报告,53402718.03000002,2016,12,-0.10611850947201212,True,未知,未知,未知,未知,未知,未知,未知,未知
3,603115,42528186.96,42815586.680000015,2017-06-30,半年度报告,42045586.68000001,2017,6,未知,未知,未知,未知,未知,未知,未知,未知,未知,未知
4,603115,90829081.56,90102205.86,2017-12-31,年度报告,81860214.22000001,2017,12,-0.12211921097909464,True,0.07528006732716858,True,0.0,True,比例外推,90102205.86,未知,90102205.86
5,603115,70693332.67,69078762.19,2018-06-30,半年度报告,64694362.19000001,2018,6,0.6210989522041925,False,未知,未知,未知,未知,未知,未知,未知,未知
6,603115,110415521.85999998,108115858.68,2018-09-30,三季度报告,102139749.91000004,2018,9,未知,未知,未知,未知,未知,未知,未知,未知,未知,未知
7,603115,152289721.73,149451341.13,2018-12-31,年度报告,137104244.02,2018,12,-0.24096557913053496,True,0.16702071029898735,True,0.0,True,比例外推,149451341.13,未知,149451341.13
8,603115,33266818.370000005,33179447.89,2019-03-31,一季度报告,25251759.23,2019,3,未知,未知,未知,未知,未知,未知,未知,未知,未知,未知
9,603115,71495810.82000001,71087065.94,2019-06-30,半年度报告,61104446.06,2019,6,-0.024768012539081133,True,未知,未知,未知,未知,未知,未知,155000000.0,未知
10,603115,99731563.52,98258788.24,2019-09-30,三季度报告,85947015.69,2019,9,-0.3756095324404237,True,未知,未知,未知,未知,未知,未知,,未知
11,603115,122133472.33999996,120406127.59000002,2019-12-31,年度报告,100922969.44,2019,12,-0.5472944691419785,True,0.7983947549038214,True,0.0,True,比例外推,120406127.59000002,未知,120406127.59000002
12,603115,25007987.6,25007218.03,2020-03-31,一季度报告,15376040.96,2020,3,1.072407362592036,False,未知,未知,未知,未知,未知,未知,未知,未知
