,SECURITYCODE_x,NETPROFIT_x,PARENTNETPROFIT_x,REPORTDATE_x,REPORTTIMETYPE_x,KCFJCXSYJLR,Year,Month,managesituationChangeRate,managesituationGreatChange,historyprofitextroplaterate,ifhistoryprofitextroplate,IfprofitdisStableChangeRage,IfprofitdisStable,predicttype,predict,analyst_prediction,adj_prediction
0,603161,31750928.550000004,31750928.550000004,2014-06-30,半年度报告,32433920.0,2014,6,未知,未知,未知,未知,未知,未知,未知,未知,未知,未知
1,603161,59695450.75,59695450.75,2014-12-31,年度报告,60393937.19000001,2014,12,未知,未知,未知,未知,未知,未知,未知,未知,未知,未知
2,603161,43785088.34,43785088.34,2015-06-30,半年度报告,41076798.34,2015,6,0.0,True,未知,未知,未知,未知,未知,未知,未知,未知
3,603161,81022491.52,81022491.52,2015-12-31,年度报告,78982676.58,2015,12,-0.46811812037452444,True,未知,未知,未知,未知,未知,未知,未知,未知
4,603161,55182451.56999999,55182451.56999999,2016-06-30,半年度报告,53462351.56999999,2016,6,-0.27484607765439073,True,未知,未知,未知,未知,未知,未知,未知,未知
5,603161,75269157.72,75269157.72,2016-09-30,三季度报告,72527183.64,2016,9,未知,未知,未知,未知,未知,未知,未知,未知,未知,未知
6,603161,100338580.6,100338580.6,2016-12-31,年度报告,97235482.63,2016,12,-0.6081220417399477,True,未知,未知,未知,未知,未知,未知,未知,未知
7,603161,29095122.27,29095122.27,2017-03-31,一季度报告,27819836.22000001,2017,3,未知,未知,未知,未知,未知,未知,未知,未知,未知,未知
8,603161,57372367.64,57372367.64,2017-06-30,半年度报告,54742545.67,2017,6,-0.4246191017859483,True,0.46108979112202647,True,0.01557192861603629,True,比例外推,104829040.098471,未知,104829040.098471
9,603161,77598630.42,77598630.42,2017-09-30,三季度报告,72869514.57999998,2017,9,-0.5781681433434804,True,未知,未知,未知,未知,未知,未知,未知,未知
10,603161,106568011.57000002,106568011.57000002,2017-12-31,年度报告,100047399.74000002,2017,12,-0.6835621118004931,True,0.42609505200804,True,0.0,True,比例外推,106568011.57000002,110000000.0,106568011.57000002
11,603161,25677818.30000001,25677818.30000001,2018-03-31,一季度报告,23260875.3,2018,3,0.09128012095479003,True,未知,未知,未知,未知,未知,未知,,未知
12,603161,48136026.2,48136026.2,2018-06-30,半年度报告,41694184.99,2018,6,-0.44658151901224197,True,0.1594178796840622,True,0.018947516676337428,True,比例外推,83793525.90328437,未知,83793525.90328437
13,603161,72698731.9,72698731.9,2018-09-30,三季度报告,63090082.48,2018,9,-0.5908313281027106,True,未知,未知,未知,未知,未知,未知,未知,未知
14,603161,104584371.25,104584371.25,2018-12-31,年度报告,89250194.97999999,2018,12,-0.7020594821820039,True,0.17520270832417506,True,0.0,True,比例外推,104584371.25,未知,104584371.25
15,603161,24070362.95000001,24070362.95000001,2019-03-31,一季度报告,22207688.43,2019,3,0.23651192554781783,True,未知,未知,未知,未知,未知,未知,未知,未知
16,603161,48165152.28,48165152.28,2019-06-30,半年度报告,34273449.20000001,2019,6,-0.34039157245597473,True,0.14466521224311413,True,0.054222716912215085,True,比例外推,79627296.18958764,未知,79627296.18958764
17,603161,72899437.41,72899437.41,2019-09-30,三季度报告,56349668.50000001,2019,9,-0.5632533371603419,True,0.048867877470422164,True,0.02015393070988236,True,比例外推,94054931.34684217,未知,94054931.34684217
18,603161,82427742.59000002,82427742.59000002,2019-12-31,年度报告,61591520.22,2019,12,-0.6964084769979433,True,0.010933196019880022,True,0.0,True,比例外推,82427742.59000002,未知,82427742.59000002
19,603161,17514227.540000007,17514227.540000007,2020-03-31,一季度报告,14320164.769999998,2020,3,0.31908806759392844,True,0.12108560542817659,True,0.060812023652175584,True,比例外推,50967432.619979024,未知,50967432.619979024
