,SECURITYCODE_x,NETPROFIT_x,PARENTNETPROFIT_x,REPORTDATE_x,REPORTTIMETYPE_x,KCFJCXSYJLR,Year,Month,managesituationChangeRate,managesituationGreatChange,historyprofitextroplaterate,ifhistoryprofitextroplate,IfprofitdisStableChangeRage,IfprofitdisStable,predicttype,predict,analyst_prediction,adj_prediction
0,603187,15521287.34,15521287.34,2012-12-31,年度报告,14237400.29,2012,12,未知,未知,未知,未知,未知,未知,未知,未知,未知,未知
1,603187,25018924.82,25018924.82,2013-12-31,年度报告,22931295.07,2013,12,0.0,True,未知,未知,未知,未知,未知,未知,未知,未知
2,603187,38430866.79,38430866.79,2014-06-30,半年度报告,37721537.79,2014,6,未知,未知,未知,未知,未知,未知,未知,未知,未知,未知
3,603187,52151043.16,52151043.16,2014-12-31,年度报告,47095574.77,2014,12,-0.37961813100807745,True,未知,未知,未知,未知,未知,未知,未知,未知
4,603187,78560315.37999998,78560315.37999998,2015-06-30,半年度报告,77994530.54,2015,6,-0.5961244531690147,True,未知,未知,未知,未知,未知,未知,未知,未知
5,603187,118017951.93,118017951.93,2015-12-31,年度报告,120109171.92,2015,12,-0.702378199945483,True,1.5728056357561992,True,0.0,True,比例外推,118017951.93,未知,118017951.93
6,603187,91527130.93999998,91527130.93999998,2016-06-30,半年度报告,91266698.16000004,2016,6,-0.8024283982959742,True,未知,未知,未知,未知,未知,未知,未知,未知
7,603187,125964059.44,125964059.44,2016-12-31,年度报告,122612178.10999998,2016,12,-0.8684836748462967,True,2.0586497576514873,False,0.0,True,比例外推,125964059.44,未知,125964059.44
8,603187,88545822.85999998,88545822.85999998,2017-06-30,半年度报告,86597522.86,2017,6,-0.8304187274243865,True,0.5646842649560003,True,0.08219416416824943,True,比例外推,120322433.8320794,未知,120322433.8320794
9,603187,99294283.21999995,99294283.21999995,2017-09-30,三季度报告,97859483.22,2017,9,未知,未知,未知,未知,未知,未知,未知,未知,未知,未知
10,603187,118937517.09,118937517.09,2017-12-31,年度报告,112221930.36,2017,12,-0.8767800322647334,True,0.4804584039927998,True,0.0,True,比例外推,118937517.09,未知,118937517.09
11,603187,29822436.69,29822436.69,2018-03-31,一季度报告,28842412.57,2018,3,未知,未知,未知,未知,未知,未知,未知,未知,未知,未知
12,603187,97889686.88,97889686.88,2018-06-30,半年度报告,97211136.08,2018,6,-0.8247089830026115,True,0.04117999036108997,True,0.07242947825366108,True,比例外推,135358602.4370575,未知,135358602.4370575
13,603187,123753581.13999996,123753581.13999996,2018-09-30,三季度报告,123231662.64,2018,9,-0.8436839782043596,True,未知,未知,未知,未知,未知,未知,未知,未知
14,603187,139297780.17,139297780.17,2018-12-31,年度报告,138403774.4,2018,12,-0.8695004930340436,True,0.02503044038250318,True,0.0,True,比例外推,139297780.17,未知,139297780.17
15,603187,49005935.87000001,49418751.4,2019-03-31,一季度报告,49682227.31,2019,3,-0.4795432881175479,True,未知,未知,未知,未知,未知,未知,未知,未知
16,603187,145236560.63000005,145234584.23000002,2019-06-30,半年度报告,142907990.46,2019,6,-0.8414410359793358,True,0.08722253746914459,True,0.03708961516129072,True,比例外推,195585727.05871347,未知,195585727.05871347
17,603187,179967938.26999998,179671280.07000002,2019-09-30,三季度报告,178339491.71,2019,9,-0.8745790853321563,True,未知,未知,未知,未知,未知,未知,202700000.0,未知
18,603187,219955312.32,218836696.43000004,2019-12-31,年度报告,203457550.21,2019,12,-0.8885747689513952,True,0.1375817350276327,True,0.0,True,比例外推,218836696.43000004,200050000.0,218836696.43000004
19,603187,48889855.48,48663377.33000001,2020-03-31,一季度报告,49490216.62000002,2020,3,-0.6832774017177443,True,未知,未知,未知,未知,未知,未知,253175000.0,未知
