,SECURITYCODE_x,NETPROFIT_x,PARENTNETPROFIT_x,REPORTDATE_x,REPORTTIMETYPE_x,KCFJCXSYJLR,Year,Month,managesituationChangeRate,managesituationGreatChange,historyprofitextroplaterate,ifhistoryprofitextroplate,IfprofitdisStableChangeRage,IfprofitdisStable,predicttype,predict,analyst_prediction,adj_prediction
0,603165,55167588.00000001,54332574.20000001,2014-12-31,年度报告,51433525.39,2014,12,未知,未知,未知,未知,未知,未知,未知,未知,未知,未知
1,603165,77194446.86000001,77194446.86000001,2015-12-31,年度报告,78002414.44,2015,12,0.0,True,未知,未知,未知,未知,未知,未知,未知,未知
2,603165,28303530.97,28303530.97,2016-03-31,一季度报告,27970182.44,2016,3,未知,未知,未知,未知,未知,未知,未知,未知,未知,未知
3,603165,51904353.38,51904353.38,2016-06-30,半年度报告,50255467.47000001,2016,6,未知,未知,未知,未知,未知,未知,未知,未知,未知,未知
4,603165,71918448.56,71918448.56,2016-09-30,三季度报告,69996564.1,2016,9,未知,未知,未知,未知,未知,未知,未知,未知,未知,未知
5,603165,129071618.30000004,128038032.42000002,2016-12-31,年度报告,120224251.88,2016,12,-0.2853425311790621,True,未知,未知,未知,未知,未知,未知,未知,未知
6,603165,97253720.11000004,96933324.56,2017-03-31,一季度报告,92562923.37,2017,3,0.9491415420384918,False,未知,未知,未知,未知,未知,未知,295750000.0,未知
7,603165,183596431.72,183127924.11,2017-06-30,半年度报告,175760885.89,2017,6,0.06287015264614408,True,未知,未知,未知,未知,未知,未知,,未知
8,603165,281291513.6499999,280468582.73999995,2017-09-30,三季度报告,271522402.35,2017,9,-0.23291465396427616,True,未知,未知,未知,未知,未知,未知,388000000.0,未知
9,603165,399842712.5700002,398682250.67000014,2017-12-31,年度报告,385448878.18,2017,12,-0.5725815734968592,True,0.9502815658057802,True,0.0,True,比例外推,398682250.67000014,未知,398682250.67000014
10,603165,60028376.57999999,60028376.57999999,2018-03-31,一季度报告,55947172.51999999,2018,3,-0.4327457300594567,True,未知,未知,未知,未知,未知,未知,未知,未知
11,603165,122752479.85,122752479.85,2018-06-30,半年度报告,120859868.03,2018,6,-0.6995171012684211,True,未知,未知,未知,未知,未知,未知,未知,未知
12,603165,140757953.37,140757953.37,2018-09-30,三季度报告,137241468.80999997,2018,9,-0.8038775244793098,True,未知,未知,未知,未知,未知,未知,未知,未知
13,603165,207972626.27,207972626.27,2018-12-31,年度报告,203887921.7,2018,12,-0.8620267763656144,True,2.87696068434566,False,0.0,True,比例外推,207972626.27,,207972626.27
14,603165,69037351.28,69037351.28,2019-03-31,一季度报告,65400624.72000001,2019,3,-0.08097484651316526,True,0.043808683868806306,True,0.025336643363260275,True,比例外推,266221334.4065865,未知,266221334.4065865
15,603165,123805439.81,123805439.81,2019-06-30,半年度报告,118833847.06000002,2019,6,-0.5505786272716184,True,0.042480429930422316,True,0.10384916242498099,False,平均增速,242151927.1194873,未知,242151927.1194873
16,603165,185469478.55,185469478.55,2019-09-30,三季度报告,175505162.91000003,2019,9,-0.6080677028957288,True,0.2029785768821957,True,0.07104014969257355,True,比例外推,278626128.9783657,未知,278626128.9783657
17,603165,249170485.85,249170485.85,2019-12-31,年度报告,234226898.46,2019,12,-0.7347363016497238,True,0.21358672234155524,True,0.0,True,比例外推,249170485.85,未知,249170485.85
18,603165,52014357.59000001,52014357.59000001,2020-03-31,一季度报告,49194730.99000002,2020,3,-0.20090230900874725,True,0.12212066429822224,True,0.02444477530715572,True,比例外推,188749212.79690495,未知,188749212.79690495
