,SECURITYCODE_x,NETPROFIT_x,PARENTNETPROFIT_x,REPORTDATE_x,REPORTTIMETYPE_x,KCFJCXSYJLR,Year,Month,managesituationChangeRate,managesituationGreatChange,historyprofitextroplaterate,ifhistoryprofitextroplate,IfprofitdisStableChangeRage,IfprofitdisStable,predicttype,predict,analyst_prediction,adj_prediction
0,603101,85334177.5,85334177.5,2012-12-31,年度报告,83705679.55000001,2012,12,未知,未知,未知,未知,未知,未知,未知,未知,未知,未知
1,603101,89677737.34,89677737.34,2013-12-31,年度报告,90667955.68,2013,12,0.0,True,未知,未知,未知,未知,未知,未知,未知,未知
2,603101,105953859.59,105953859.59,2014-12-31,年度报告,102817796.63999996,2014,12,-0.0484352077654684,True,未知,未知,未知,未知,未知,未知,未知,未知
3,603101,21481333.54,21481333.54,2015-03-31,一季度报告,23128657.020000003,2015,3,未知,未知,未知,未知,未知,未知,未知,未知,未知,未知
4,603101,47373046.82000001,47373046.82000001,2015-06-30,半年度报告,47509663.48000001,2015,6,未知,未知,未知,未知,未知,未知,未知,未知,未知,未知
5,603101,66218335.19000001,66218335.19000001,2015-09-30,三季度报告,62223606.73999998,2015,9,未知,未知,未知,未知,未知,未知,未知,未知,未知,未知
6,603101,103948119.85,103948119.85,2015-12-31,年度报告,92002279.25,2015,12,-0.19461001392294824,True,0.2108188141003486,True,0.0,True,比例外推,103948119.85,未知,103948119.85
7,603101,21220947.1,21220947.1,2016-03-31,一季度报告,21634754.58,2016,3,2.972480448716128,False,未知,未知,未知,未知,未知,未知,114250000.0,未知
8,603101,38225511.83,38225511.83,2016-06-30,半年度报告,36450208.6,2016,6,0.8013233943815815,False,未知,未知,未知,未知,未知,未知,,未知
9,603101,60524908.44000001,60524908.44000001,2016-09-30,三季度报告,56241514.95,2016,9,0.28867899283711945,True,未知,未知,未知,未知,未知,未知,未知,未知
10,603101,96610080.48999998,96610080.48999998,2016-12-31,年度报告,85271802.83,2016,12,-0.1790695433150732,True,0.06269254538871069,True,0.0,True,比例外推,96610080.48999998,105850000.0,96610080.48999998
11,603101,33000984.559999995,33000984.559999995,2017-03-31,一季度报告,33675554.95,2017,3,3.021223798253566,False,未知,未知,未知,未知,未知,未知,,未知
12,603101,64498278.39000001,64498278.39000001,2017-06-30,半年度报告,63349285.79,2017,6,1.2323880940955345,False,未知,未知,未知,未知,未知,未知,未知,未知
13,603101,94092726.92,94092726.92,2017-09-30,三季度报告,90755674.03000002,2017,9,0.4099018024057664,True,未知,未知,未知,未知,未知,未知,未知,未知
14,603101,102144071.58000004,102144071.58000004,2017-12-31,年度报告,96580384.98,2017,12,-0.11671559461299837,True,0.07947432656188218,True,0.0,True,比例外推,102144071.58000004,未知,102144071.58000004
15,603101,44588030.86000001,44588030.86000001,2018-03-31,一季度报告,41879299.41,2018,3,1.5858070187224744,False,0.5456310091825576,True,0.06408353930499155,True,前期平均,110843366.1,149660000.0,149660000.0
16,603101,80057653.91,80057653.91,2018-06-30,半年度报告,71858703.67000002,2018,6,0.32304581812265004,True,0.506994496337819,True,0.12266336445812365,False,平均增速,116014644.70467949,,116014644.70467949
17,603101,95959996.10999998,95959996.10999998,2018-09-30,三季度报告,86122167.36999999,2018,9,-0.09308423410288386,True,0.4847770062550037,True,0.1811661497685534,False,平均增速,101722605.5466748,124000000.0,124000000.0
18,603101,70156301.75,70156301.75,2018-12-31,年度报告,30613618.38000001,2018,12,-0.16457043291870738,True,0.018597807587407835,True,0.0,True,比例外推,70156301.75,149000000.0,149000000.0
19,603101,8748367.000000002,8748367.000000002,2019-03-31,一季度报告,7401686.54,2019,3,0.9138359746797751,False,0.6446492957716958,True,0.7111990726360886,False,前期平均,72019306.14000002,未知,72019306.14000002
20,603101,25727152.24,25727152.24,2019-06-30,半年度报告,28048997.77,2019,6,0.06590904594745954,True,0.5586974300411478,True,1.203725335651937,False,平均增速,2730290.3446821757,未知,2730290.3446821757
21,603101,34236637.02,34236637.02,2019-09-30,三季度报告,34199607.160000004,2019,9,-0.11073175323829207,True,0.2412555124979629,True,1.3423831520228948,False,平均增速,3099045.928294573,未知,3099045.928294573
22,603101,27772902.59,27772902.59,2019-12-31,年度报告,15338012.71,2019,12,0.21634372638520674,True,0.29403938464348284,True,0.0,True,比例外推,27772902.59,,27772902.59
23,603101,4995312.499999999,4995312.499999999,2020-03-31,一季度报告,3648632.04,2020,3,8.754297859246186,False,0.7744947025646894,True,0.6349136747904356,False,前期平均,30814887.000000007,未知,30814887.000000007
