,SECURITYCODE_x,NETPROFIT_x,PARENTNETPROFIT_x,REPORTDATE_x,REPORTTIMETYPE_x,KCFJCXSYJLR,Year,Month,managesituationChangeRate,managesituationGreatChange,historyprofitextroplaterate,ifhistoryprofitextroplate,IfprofitdisStableChangeRage,IfprofitdisStable,predicttype,predict,analyst_prediction,adj_prediction
0,603160,383575461.9,383575461.9,2014-12-31,年度报告,376376549.25,2014,12,未知,未知,未知,未知,未知,未知,未知,未知,未知,未知
1,603160,144609642.59000003,144655495.79000002,2015-06-30,半年度报告,143497804.96,2015,6,未知,未知,未知,未知,未知,未知,未知,未知,未知,未知
2,603160,224356103.19,224513588.55,2015-09-30,三季度报告,222625747.72,2015,9,未知,未知,未知,未知,未知,未知,未知,未知,未知,未知
3,603160,378077693.55000013,378353104.14,2015-12-31,年度报告,375856261.68,2015,12,0.0,True,未知,未知,未知,未知,未知,未知,未知,未知
4,603160,70020635.96000001,70129164.79,2016-03-31,一季度报告,77948378.55000001,2016,3,未知,未知,未知,未知,未知,未知,未知,未知,未知,未知
5,603160,303934424.97,304056350.75,2016-06-30,半年度报告,308249080.67,2016,6,1.652488831519488,False,未知,未知,未知,未知,未知,未知,未知,未知
6,603160,602126550.1699997,602259029.09,2016-09-30,三季度报告,603871487.3,2016,9,0.7096725092214773,False,未知,未知,未知,未知,未知,未知,774768000.0,未知
7,603160,856695982.1499999,856824030.01,2016-12-31,年度报告,851382843.1399997,2016,12,0.014541371902631897,True,未知,未知,未知,未知,未知,未知,未知,未知
8,603160,175347785.19000003,175348037.22000006,2017-03-31,一季度报告,173980316.25000003,2017,3,4.478034534263888,False,未知,未知,未知,未知,未知,未知,1152194000.0,未知
9,603160,481975235.2000001,481975737.22,2017-06-30,半年度报告,479206006.4,2017,6,0.26203361773797407,True,未知,未知,未知,未知,未知,未知,1153423333.0,未知
10,603160,762634595.7299999,762631319.4200001,2017-09-30,三季度报告,750246891.41,2017,9,-0.36296537365491643,True,未知,未知,未知,未知,未知,未知,1114400000.0,未知
11,603160,886942795.9800004,886942112.9000002,2017-12-31,年度报告,870734322.1200001,2017,12,-0.5522618643111141,True,1.2495698364010495,True,0.0,True,比例外推,886942112.9000002,,886942112.9000002
12,603160,19356247.139999993,19356247.139999993,2018-03-31,一季度报告,12044204.62,2018,3,1.1875124426828234,False,未知,未知,未知,未知,未知,未知,1222595000.0,未知
13,603160,112227548.08,112227548.08,2018-06-30,半年度报告,80791764.64999999,2018,6,-0.20415939681873538,True,1.149065253819361,True,0.11894931948127946,False,平均增速,467060028.7231118,751710000.0,751710000.0
14,603160,318734453.92,318734453.92,2018-09-30,三季度报告,268140600.41,2018,9,-0.49703899607014485,True,0.8454945004098258,True,0.1405505579948202,False,平均增速,439303749.06614417,661596667.0,661596667.0
15,603160,742498646.02,742498646.02,2018-12-31,年度报告,671962039.6899997,2018,12,-0.5675307769130928,True,0.43660787954065766,True,0.0,True,比例外推,742498646.02,638631429.0,638631429.0
16,603160,414214424.06999993,414214424.06999993,2019-03-31,一季度报告,389010631.28999984,2019,3,18.816623497606372,False,0.8422270718515402,True,0.09671283041206834,True,前期平均,1149308659.2999997,1520173889.0,1520173889.0
17,603160,1016840592.76,1016840592.76,2019-06-30,半年度报告,962016165.47,2019,6,2.417836961265277,False,0.7144008942307083,True,0.22397955805949138,False,前期平均,1484171631.855,1946800000.0,1946800000.0
18,603160,1712310161.9900005,1712310161.9900005,2019-09-30,三季度报告,1621189109.72,2019,9,0.20343269195577637,True,0.5329080771715423,True,0.25760868025383854,False,平均增速,3114229855.626436,2236107333.0,2236107333.0
19,603160,2317357060.66,2317356706.0199995,2019-12-31,年度报告,2188996931.82,2019,12,-0.4833991092696646,True,0.14833432780577713,True,0.0,True,比例外推,2317356706.0199995,2273406250.0,2317356706.0199995
20,603160,204712839.57999995,204711937.73,2020-03-31,一季度报告,180138882.86999995,2020,3,-0.07396884412895806,True,3.2548109467805584,False,0.1138908919511881,False,未知,未知,2271863636.0,未知
