,SECURITYCODE_x,NETPROFIT_x,PARENTNETPROFIT_x,REPORTDATE_x,REPORTTIMETYPE_x,KCFJCXSYJLR,Year,Month,managesituationChangeRate,managesituationGreatChange,historyprofitextroplaterate,ifhistoryprofitextroplate,IfprofitdisStableChangeRage,IfprofitdisStable,predicttype,predict,analyst_prediction,adj_prediction
0,603199,58527900.09,58527900.09,2011-12-31,年度报告,60713038.24999999,2011,12,未知,未知,未知,未知,未知,未知,未知,未知,未知,未知
1,603199,62109441.9,62109441.9,2012-12-31,年度报告,62253282.41,2012,12,0.0,True,未知,未知,未知,未知,未知,未知,未知,未知
2,603199,62842735.26,62842735.26,2013-12-31,年度报告,58190568.04000001,2013,12,-0.05766501357018304,True,未知,未知,未知,未知,未知,未知,未知,未知
3,603199,13878508.78,13878508.78,2014-03-31,一季度报告,13256704.019999998,2014,3,未知,未知,未知,未知,未知,未知,未知,未知,未知,未知
4,603199,34931759.190000005,34931759.190000005,2014-06-30,半年度报告,36430430.25,2014,6,未知,未知,未知,未知,未知,未知,未知,未知,未知,未知
5,603199,65986767.99000001,65986767.99000001,2014-12-31,年度报告,65224087.35999999,2014,12,-0.06866084285077942,True,0.041845488691374194,True,0.0,True,比例外推,65986767.99000001,未知,65986767.99000001
6,603199,14551503.58,14551503.58,2015-03-31,一季度报告,14330085.6,2015,3,3.21716057667112,False,未知,未知,未知,未知,未知,未知,74090036.0,未知
7,603199,40464019.53999999,40464019.53999999,2015-06-30,半年度报告,39160546.02,2015,6,0.675492487270865,False,未知,未知,未知,未知,未知,未知,70000000.0,未知
8,603199,47041380.58000001,47041380.58000001,2015-09-30,三季度报告,59414555.5,2015,9,未知,未知,未知,未知,未知,未知,未知,未知,74000000.0,未知
9,603199,47041380.58000001,47041380.58000001,2015-09-30,三季度报告,46080009.8,2015,9,未知,未知,未知,未知,未知,未知,未知,未知,74000000.0,未知
10,603199,47041380.58000001,47041380.58000001,2015-09-30,三季度报告,59414555.5,2015,9,未知,未知,未知,未知,0.0,True,未知,未知,74000000.0,未知
11,603199,47041380.58000001,47041380.58000001,2015-09-30,三季度报告,46080009.8,2015,9,未知,未知,未知,未知,未知,未知,未知,未知,74000000.0,未知
12,603199,60375926.27999999,60375926.27999999,2015-09-30,三季度报告,59414555.5,2015,9,未知,未知,未知,未知,未知,未知,未知,未知,74000000.0,未知
13,603199,60375926.27999999,60375926.27999999,2015-09-30,三季度报告,46080009.8,2015,9,未知,未知,未知,未知,未知,未知,未知,未知,74000000.0,未知
14,603199,60375926.27999999,60375926.27999999,2015-09-30,三季度报告,59414555.5,2015,9,未知,未知,未知,未知,0.0,True,未知,未知,74000000.0,未知
15,603199,60375926.27999999,60375926.27999999,2015-09-30,三季度报告,46080009.8,2015,9,未知,未知,未知,未知,未知,未知,未知,未知,74000000.0,未知
16,603199,70668192.03999999,70668192.03999999,2015-12-31,年度报告,71909701.60000001,2015,12,-0.11303581198476584,True,0.05619236878929484,True,未知,未知,True,True,未知,True
17,603199,26898007.03,26898007.03,2016-03-31,一季度报告,27230520.29000001,2016,3,3.0221204474321413,False,未知,未知,未知,未知,未知,未知,78500000.0,未知
18,603199,50767523.67000002,50767523.67000002,2016-06-30,半年度报告,50450146.03000001,2016,6,0.4464183428970343,True,未知,未知,0.0,True,未知,未知,84500000.0,未知
19,603199,65902004.40000001,65902004.40000001,2016-09-30,三季度报告,68298162.32,2016,9,0.24417904764647932,True,未知,未知,0.108770367388489,False,未知,未知,,未知
20,603199,74044327.38999999,74044327.38999999,2016-12-31,年度报告,74723047.81999998,2016,12,-0.17179287596785092,True,0.09708087444635849,True,0.0824005081283723,True,比例外推,74044327.38999999,,74044327.38999999
21,603199,37219867.74,37219867.74,2017-03-31,一季度报告,36549467.67000001,2017,3,1.1759195774141338,False,0.892226193179186,True,未知,未知,前期平均,91993367.41,86030000.0,91993367.41
22,603199,59541450.09,59541450.09,2017-06-30,半年度报告,58962005.89,2017,6,0.15286103908561952,True,0.3466940596715294,True,0.0,True,比例外推,100049515.22570366,86076667.0,86076667.0
23,603199,76933224.07,76933224.07,2017-09-30,三季度报告,76412523.21,2017,9,-0.11189499283272192,True,未知,未知,0.1390428923116744,False,未知,未知,,未知
24,603199,82887987.55000001,82887987.55000001,2017-12-31,年度报告,80992969.21,2017,12,-0.20955592206642887,True,0.08366834798744166,True,0.10466402039366751,False,平均增速,82887987.55000001,未知,82887987.55000001
25,603199,30367383.500000004,30367383.500000004,2018-03-31,一季度报告,29773015.87,2018,3,0.5724908132088918,False,0.7959134953463327,True,0.06832898778295393,True,前期平均,82903455.265,89000000.0,82903455.265
26,603199,60250013.92,60250013.92,2018-06-30,半年度报告,59354920.95,2018,6,-0.017022595157960823,True,0.3052820986036678,True,0.0,True,比例外推,92316760.3560801,90500000.0,92316760.3560801
27,603199,80252247.75,80252247.75,2018-09-30,三季度报告,78631992.5,2018,9,-0.23923765320498405,True,0.36233253649380714,True,0.0632737619443397,True,比例外推,89519719.45601542,,89519719.45601542
28,603199,92086086.88,92086086.88,2018-12-31,年度报告,85482486.15,2018,12,-0.2938916504071886,True,0.14555379004501967,True,0.028821587413095373,True,比例外推,92086086.88,未知,92086086.88
29,603199,38754545.20999999,38754545.20999999,2019-03-31,一季度报告,37219456.12000001,2019,3,0.9273277228510648,False,0.05276387874887756,True,0.017671515480753075,True,前期平均,84722559.74499997,108000000.0,108000000.0
30,603199,80597488.61999999,80597488.61999999,2019-06-30,半年度报告,76989917.46,2019,6,-0.028582795553983138,True,0.09238644629377778,True,0.0,True,比例外推,113724111.73463807,,113724111.73463807
31,603199,107216804.23,107216804.23,2019-09-30,三季度报告,100252243.14,2019,9,-0.2707007999037634,True,0.12370384546772449,True,0.06880862176820735,True,比例外推,115254651.38356388,108000000.0,115254651.38356388
32,603199,117024146.11,117024146.11,2019-12-31,年度报告,107009435.27000004,2019,12,-0.3644219004954638,True,0.17357711718210886,True,未知,未知,True,True,未知,True
33,603199,-27087180.45,-27087180.45,2020-03-31,一季度报告,-28751185.4,2020,3,0.5102202792692768,False,0.14680045419760995,True,未知,未知,盈利变化,29063290.749999985,未知,29063290.749999985
