,SECURITYCODE_x,NETPROFIT_x,PARENTNETPROFIT_x,REPORTDATE_x,REPORTTIMETYPE_x,KCFJCXSYJLR,Year,Month,managesituationChangeRate,managesituationGreatChange,historyprofitextroplaterate,ifhistoryprofitextroplate,IfprofitdisStableChangeRage,IfprofitdisStable,predicttype,predict,analyst_prediction,adj_prediction
0,603105,-50647829.34000001,-49945749.60999999,2013-12-31,年度报告,-50103459.51000001,2013,12,未知,未知,未知,未知,未知,未知,未知,未知,未知,未知
1,603105,11207630.969999997,12763190.369999995,2014-12-31,年度报告,20651015.88,2014,12,-0.0,False,未知,未知,未知,未知,未知,未知,未知,未知
2,603105,29293491.430000003,28506299.97000001,2015-04-30,其他报告,,2015,4,未知,未知,未知,未知,未知,未知,未知,未知,未知,未知
3,603105,34414885.379999995,34490589.66,2015-06-30,半年度报告,35871540.099999994,2015,6,未知,未知,未知,未知,未知,未知,未知,未知,未知,未知
4,603105,119709689.05,120363607.82000002,2015-12-31,年度报告,120679475.14999998,2015,12,-5.5190486263842455,False,未知,未知,未知,未知,未知,未知,未知,未知
5,603105,29143323.94,29255937.530000005,2016-06-30,半年度报告,66127857.37999999,2016,6,-2.4716838013772287,False,未知,未知,未知,未知,未知,未知,299770000.0,未知
6,603105,77600150.49,77712764.08000001,2016-12-31,年度报告,107087402.94,2016,12,-1.4230888054420188,False,-7.070440514876141,True,0.0,True,前期平均,77712764.08000001,,77712764.08000001
7,603105,-13810747.160000002,-13810747.160000002,2017-03-31,一季度报告,-11877621.839999998,2017,3,未知,未知,未知,未知,未知,未知,未知,未知,,未知
8,603105,34507397.88,34507397.88,2017-06-30,半年度报告,33868568.81999999,2017,6,-2.737887875942816,False,未知,未知,未知,未知,未知,未知,未知,未知
9,603105,54976974.48,54976974.48,2017-09-30,三季度报告,52624370.78000001,2017,9,未知,未知,未知,未知,未知,未知,未知,未知,未知,未知
10,603105,116383515.44,116383515.44,2017-12-31,年度报告,105182696.64,2017,12,-1.6526769474052345,False,0.18548333372765596,True,0.0,True,前期平均,116383515.44,309000000.0,309000000.0
11,603105,10877975.72,10877975.72,2018-03-31,一季度报告,10335284.62,2018,3,2.667276560292919,False,未知,未知,未知,未知,未知,未知,未知,未知
12,603105,53084414.45,53084414.45,2018-06-30,半年度报告,51296718.67000002,2018,6,-2.4677382953107214,False,0.08585179630419476,True,0.2052606496995903,False,前期平均,115968154.755,未知,115968154.755
13,603105,71875354.56,71875354.56,2018-09-30,三季度报告,63825610.63,2018,9,-1.9212553040441525,False,未知,未知,未知,未知,未知,未知,未知,未知
14,603105,66162719.41,66162719.41,2018-12-31,年度报告,41632648.22000001,2018,12,-1.4351804389867466,False,0.17970310767401887,True,0.0,True,前期平均,66162719.41,未知,66162719.41
15,603105,361054.31,361054.31,2019-03-31,一季度报告,-7134347.400000001,2019,3,-5.6559976454884024,False,未知,未知,未知,未知,未知,未知,未知,未知
16,603105,13163656.759999998,13163656.759999998,2019-06-30,半年度报告,8865572.9,2019,6,-1.9540998024515275,False,0.6679909648195093,True,0.5082479808521415,False,前期平均,69300493.44999999,未知,69300493.44999999
17,603105,45074420.58,45074420.58,2019-09-30,三季度报告,32110354.43,2019,9,-1.7046619755833035,False,未知,未知,未知,未知,未知,未知,未知,未知
18,603105,42118012.93000001,42118012.93000001,2019-12-31,年度报告,10212692.94,2019,12,-1.7655040450520685,False,0.31785267493733055,True,0.0,True,前期平均,42118012.93000001,未知,42118012.93000001
19,603105,8732604.209999999,8732604.209999999,2020-03-31,一季度报告,6291172.89,2020,3,-141.27759242092972,False,-1.2462205578488583,True,0.5108262698913617,False,前期平均,82911445.25,未知,82911445.25
