,SECURITYCODE_x,NETPROFIT_x,PARENTNETPROFIT_x,REPORTDATE_x,REPORTTIMETYPE_x,KCFJCXSYJLR,Year,Month,managesituationChangeRate,managesituationGreatChange,historyprofitextroplaterate,ifhistoryprofitextroplate,IfprofitdisStableChangeRage,IfprofitdisStable,predicttype,predict,analyst_prediction,adj_prediction
0,603113,90169544.02,90169544.02,2012-12-31,年度报告,50501844.01999999,2012,12,未知,未知,未知,未知,未知,未知,未知,未知,未知,未知
1,603113,113238650.09999998,113238650.09999998,2013-12-31,年度报告,102171050.1,2013,12,0.0,True,未知,未知,未知,未知,未知,未知,未知,未知
2,603113,148208129.88000005,148208129.88000005,2014-12-31,年度报告,126483239.67000005,2014,12,-0.20372113284314033,True,未知,未知,未知,未知,未知,未知,未知,未知
3,603113,90942978.85,90942978.85,2015-12-31,年度报告,68158740.92999999,2015,12,-0.3916019040722818,True,0.4572483721335746,True,0.0,True,比例外推,90942978.85,未知,90942978.85
4,603113,-1961493.89,-1961493.89,2016-03-31,一季度报告,-9467591.14,2016,3,未知,未知,未知,未知,未知,未知,未知,未知,未知,未知
5,603113,61811747.2,61811747.2,2016-06-30,半年度报告,46817660.42,2016,6,未知,未知,未知,未知,未知,未知,未知,未知,未知,未知
6,603113,208678477.72000003,208678477.72000003,2016-09-30,三季度报告,170330029.18,2016,9,未知,未知,未知,未知,未知,未知,未知,未知,未知,未知
7,603113,419803515.34,419803515.34,2016-12-31,年度报告,393310507.4699999,2016,12,-0.008504612887990948,True,0.30430981894703857,True,0.0,True,比例外推,419803515.34,未知,419803515.34
8,603113,210398656.92,210398656.92,2017-03-31,一季度报告,201445713.96,2017,3,-46.96983170821909,False,未知,未知,未知,未知,未知,未知,432601251.0,未知
9,603113,363944617.44,363944617.44,2017-06-30,半年度报告,349231753.84,2017,6,0.45877682001520886,True,未知,未知,未知,未知,未知,未知,826795000.0,未知
10,603113,598509758.08,598509758.08,2017-09-30,三季度报告,578247601.0800003,2017,9,-0.5679020423898845,True,未知,未知,未知,未知,未知,未知,828350000.0,未知
11,603113,678787868.51,678787868.51,2017-12-31,年度报告,639268047.1599997,2017,12,-0.7852101263445318,True,2.510780423050058,False,0.0,True,比例外推,678787868.51,,678787868.51
12,603113,257933947.91000003,257933947.91000003,2018-03-31,一季度报告,243624094.51000008,2018,3,-0.5714347926931624,True,未知,未知,未知,未知,未知,未知,763100000.0,未知
13,603113,522515602.73,522515602.73,2018-06-30,半年度报告,469950424.96,2018,6,-0.7522437763903312,True,未知,未知,未知,未知,未知,未知,1207530000.0,未知
14,603113,922475169.37,922475169.37,2018-09-30,三季度报告,845369722.8299999,2018,9,-0.8493432349219151,True,未知,未知,未知,未知,未知,未知,1252436000.0,未知
15,603113,1270261992.01,1270261992.01,2018-12-31,年度报告,1163663790.18,2018,12,-0.8671609376020079,True,1.6580226246545235,True,0.0,True,比例外推,1270261992.01,未知,1270261992.01
16,603113,145513324.73999998,145513324.73999998,2019-03-31,一季度报告,117634856.35,2019,3,-0.6504161443244278,True,1.4749324368119139,True,0.19087397733787514,False,平均增速,1160171393.8249328,1013440000.0,1013440000.0
17,603113,392327255.21,392327255.21,2019-06-30,半年度报告,330335293.04999995,2019,6,-0.8274318631847758,True,1.454528674735445,True,0.23736127224366893,False,平均增速,1233712939.479366,859633333.0,859633333.0
18,603113,592818324.1600001,592818324.1600001,2019-09-30,三季度报告,504757855.51,2019,9,-0.9022526058001313,True,1.2856506783841806,True,0.25496123674134413,False,平均增速,962025853.7042658,780250000.0,780250000.0
19,603113,762331122.9599999,762331122.9599999,2019-12-31,年度报告,639875568.8199999,2019,12,-0.9290150027418201,True,1.3125285901267176,True,0.0,True,比例外推,762331122.9599999,1373673333.0,1373673333.0
20,603113,237466282.44,237466282.44,2020-03-31,一季度报告,211805851.9,2020,3,-0.38033479627303574,True,0.37858981741055664,True,0.07901297250331177,True,比例外推,922738598.2494638,705333333.0,705333333.0
