,SECURITYCODE_x,NETPROFIT_x,PARENTNETPROFIT_x,REPORTDATE_x,REPORTTIMETYPE_x,KCFJCXSYJLR,Year,Month,managesituationChangeRate,managesituationGreatChange,historyprofitextroplaterate,ifhistoryprofitextroplate,IfprofitdisStableChangeRage,IfprofitdisStable,predicttype,predict,analyst_prediction,adj_prediction
0,603188,151021455.82000002,151021455.82000002,2014-03-31,一季度报告,150568984.76999998,2014,3,未知,未知,未知,未知,未知,未知,未知,未知,未知,未知
1,603188,515118517.67,515118517.67,2014-09-30,三季度报告,517153477.08,2014,9,未知,未知,未知,未知,未知,未知,未知,未知,未知,未知
2,603188,626477672.6099999,626477672.6099999,2014-12-31,年度报告,628627494.15,2014,12,未知,未知,未知,未知,未知,未知,未知,未知,未知,未知
3,603188,210472851.3,210472851.3,2015-03-31,一季度报告,205115623.29,2015,3,0.0,True,未知,未知,未知,未知,未知,未知,954000000.0,未知
4,603188,438941272.35999984,438979842.93,2015-06-30,半年度报告,430085640.59000015,2015,6,未知,未知,未知,未知,未知,未知,未知,未知,,未知
5,603188,538587687.3199999,538931738.5799999,2015-09-30,三季度报告,526484927.2000001,2015,9,-0.7068219241989108,True,未知,未知,未知,未知,未知,未知,未知,未知
6,603188,665325339.8700001,665946763.3900001,2015-12-31,年度报告,658809955.37,2015,12,-0.7589356134739454,True,未知,未知,未知,未知,未知,未知,未知,未知
7,603188,151908371.69,151740395.76000002,2016-03-31,一季度报告,151501177.68999997,2016,3,-0.2824658625223841,True,未知,未知,未知,未知,未知,未知,未知,未知
8,603188,333479871.04,333750222.23,2016-06-30,半年度报告,331338600.06,2016,6,-0.6559415454189985,True,未知,未知,未知,未知,未知,未知,776126667.0,未知
9,603188,504798190.6,505693718.85,2016-09-30,三季度报告,502007203.29,2016,9,-0.7195972738042353,True,未知,未知,未知,未知,未知,未知,,未知
10,603188,653400973.61,655394642.27,2016-12-31,年度报告,653657510.63,2016,12,-0.7730111168627538,True,未知,未知,未知,未知,未知,未知,未知,未知
11,603188,186788582.05,184505456.85,2017-03-31,一季度报告,178884143.51999998,2017,3,-0.005838492376245778,True,0.15955317304859695,True,0.050463500387272764,True,比例外推,691318726.943547,804000000.0,804000000.0
12,603188,349649012.01,333752207.24999994,2017-06-30,半年度报告,319937473.5,2017,6,-0.5471347180595335,True,未知,未知,未知,未知,未知,未知,799000000.0,未知
13,603188,517439106.9500001,485102685.65,2017-09-30,三季度报告,456782322.81000006,2017,9,-0.7008280563753668,True,0.04186159631699101,True,0.028607187424622316,True,比例外推,601732049.592468,680753000.0,680753000.0
14,603188,517439106.9500001,485102685.65,2017-09-30,三季度报告,456782322.81000006,2017,9,-0.7008280563753668,True,0.04186159631699101,True,0.028607187424622316,True,比例外推,601732049.592468,680753000.0,680753000.0
15,603188,454112928.83,452746586.2300001,2017-09-30,三季度报告,456782322.81000006,2017,9,-0.7008280563753668,True,0.04186159631699101,True,0.028607187424622316,True,比例外推,569375950.1724682,680753000.0,680753000.0
16,603188,454112928.83,452746586.2300001,2017-09-30,三季度报告,456782322.81000006,2017,9,-0.7008280563753668,True,0.04186159631699101,True,0.028607187424622316,True,比例外推,569375950.1724682,680753000.0,680753000.0
17,603188,594444325.4200001,547608762.38,2017-12-31,年度报告,482212277.4200001,2017,12,-0.7688686397487047,True,0.011610852889408498,True,0.0,True,比例外推,547608762.38,680753000.0,680753000.0
18,603188,107802523.42,113495522.7,2018-03-31,一季度报告,116112068.44999996,2018,3,-0.19148454277802568,True,0.03089547802069471,True,0.07291969108995308,True,比例外推,378460781.7641589,752000000.0,752000000.0
19,603188,187614638.7,199179673.10999995,2018-06-30,半年度报告,202446227.65,2018,6,-0.568076983967909,True,0.09466742334127552,True,0.10083390042219076,False,平均增速,320700350.18226945,561000000.0,561000000.0
20,603188,252548799.17,274103806.81,2018-09-30,三季度报告,287487955.54999995,2018,9,-0.7081367569796129,True,0.00815389991376906,True,0.10912843150642948,False,平均增速,293104087.7982016,478000000.0,478000000.0
21,603188,118124092.98,161559180.49,2018-12-31,年度报告,198619434.00000003,2018,12,-0.7459451636395099,True,0.09845686804972441,True,0.0,True,比例外推,161559180.49,810070000.0,810070000.0
22,603188,96753193.01,118810330.19,2019-03-31,一季度报告,104600797.47,2019,3,0.40090835565711674,True,0.36342785354512297,True,0.18881710295178894,False,平均增速,179686893.44090563,300000000.0,300000000.0
23,603188,60065906.35,85253401.67999999,2019-06-30,半年度报告,70540920.35000001,2019,6,-0.19504439063794635,True,0.45071964206125364,True,0.28938534662186877,False,平均增速,83486866.112661,,83486866.112661
24,603188,-15465279.94,16717111.04,2019-09-30,三季度报告,866456.3099999998,2019,9,-0.4020107942847835,True,0.5058900711698064,True,0.3932003380984499,False,平均增速,-8957757.070657276,未知,-8957757.070657276
25,603188,-258481777.84,-199066508.16,2019-12-31,年度报告,-212227106.48,2019,12,0.2784983317973073,True,0.8106751003961428,True,0.0,True,比例外推,-199066508.16,387000000.0,387000000.0
26,603188,-84494203.04,-74587284.66,2020-03-31,一季度报告,-75223784.50999999,2020,3,0.5608937661043505,False,0.3431356805180056,True,0.647101749904846,False,盈利变化,-438832617.46666664,101000000.0,101000000.0
