,SECURITYCODE_x,NETPROFIT_x,PARENTNETPROFIT_x,REPORTDATE_x,REPORTTIMETYPE_x,KCFJCXSYJLR,Year,Month,managesituationChangeRate,managesituationGreatChange,historyprofitextroplaterate,ifhistoryprofitextroplate,IfprofitdisStableChangeRage,IfprofitdisStable,predicttype,predict,analyst_prediction,adj_prediction
0,603110,32891178.5,32891178.5,2012-12-31,年度报告,28237205.93,2012,12,未知,未知,未知,未知,未知,未知,未知,未知,未知,未知
1,603110,47099351.87000001,47099351.87000001,2013-12-31,年度报告,36726311.05,2013,12,0.0,True,未知,未知,未知,未知,未知,未知,未知,未知
2,603110,55856670.16999999,55856670.16999999,2014-12-31,年度报告,40526316.26,2014,12,-0.3016638829599251,True,未知,未知,未知,未知,未知,未知,未知,未知
3,603110,29730686.809999995,29730686.809999995,2015-06-30,半年度报告,28023226.73,2015,6,未知,未知,未知,未知,未知,未知,未知,未知,未知,未知
4,603110,63613603.88999999,63613603.88999999,2015-12-31,年度报告,61551349.13999999,2015,12,-0.41115038902434436,True,0.3965820681931299,True,0.0,True,比例外推,63613603.88999999,未知,63613603.88999999
5,603110,41035265.83000001,41035265.83000001,2016-09-30,三季度报告,40207953.83,2016,9,未知,未知,未知,未知,未知,未知,未知,未知,未知,未知
6,603110,61047929.88999999,61047929.88999999,2016-12-31,年度报告,58246210.98,2016,12,-0.4829537003299625,True,0.23574323540365874,True,0.0,True,比例外推,61047929.88999999,未知,61047929.88999999
7,603110,7989799.07,7989799.07,2017-03-31,一季度报告,7821923.499999999,2017,3,未知,未知,未知,未知,未知,未知,未知,未知,未知,未知
8,603110,21771977.64,21771977.64,2017-06-30,半年度报告,21122849.83,2017,6,未知,未知,未知,未知,未知,未知,未知,未知,未知,未知
9,603110,44668541.62,44668541.62,2017-09-30,三季度报告,43416387.17000001,2017,9,-0.19846556773237822,True,未知,未知,未知,未知,未知,未知,未知,未知
10,603110,55033553.3,55033553.3,2017-12-31,年度报告,48717193.72,2017,12,-0.4612236883500325,True,0.0219768954299159,True,0.0,True,比例外推,55033553.3,未知,55033553.3
11,603110,8280812.530000001,8280812.530000001,2018-03-31,一季度报告,8057424.090000003,2018,3,3.1166465153672505,False,未知,未知,未知,未知,未知,未知,未知,未知
12,603110,17119182.560000002,17119182.560000002,2018-06-30,半年度报告,16690585.140000002,2018,6,0.510711568965216,False,未知,未知,未知,未知,未知,未知,未知,未知
13,603110,28563717.7,28563717.7,2018-09-30,三季度报告,23373944.079999994,2018,9,-0.2636612410629223,True,未知,未知,未知,未知,未知,未知,未知,未知
14,603110,32798286.43,32798286.43,2018-12-31,年度报告,25176555.8,2018,12,-0.4023431792473411,True,0.11707241791005014,True,0.0,True,比例外推,32798286.43,未知,32798286.43
15,603110,11909658.64,11909658.64,2019-03-31,一季度报告,9751769.61,2019,3,2.9719747767312388,False,未知,未知,未知,未知,未知,未知,未知,未知
16,603110,24315469.71,24315469.71,2019-06-30,半年度报告,20201147.360000007,2019,6,0.9213054352754093,False,未知,未知,未知,未知,未知,未知,未知,未知
17,603110,40374462.00000001,40374462.00000001,2019-09-30,三季度报告,34890232.230000004,2019,9,0.1515020154396779,True,0.33343176808885183,True,0.1463243512296154,False,平均增速,42329658.67047811,未知,42329658.67047811
18,603110,52528390.7,52528390.7,2019-12-31,年度报告,45946230.33,2019,12,0.0028322232686837446,True,0.4349092460109873,True,0.0,True,比例外推,52528390.7,未知,52528390.7
19,603110,10098455.500000002,10098455.500000002,2020-03-31,一季度报告,8609269.33,2020,3,1.761723026177348,False,0.4639472605934493,True,0.08909091177374967,True,前期平均,39105656.464999996,未知,39105656.464999996
