,SECURITYCODE_x,NETPROFIT_x,PARENTNETPROFIT_x,REPORTDATE_x,REPORTTIMETYPE_x,KCFJCXSYJLR,Year,Month,managesituationChangeRate,managesituationGreatChange,historyprofitextroplaterate,ifhistoryprofitextroplate,IfprofitdisStableChangeRage,IfprofitdisStable,predicttype,predict,analyst_prediction,adj_prediction
0,603126,23235886.53,21668171.180000003,2014-03-31,一季度报告,17802633.01,2014,3,未知,未知,未知,未知,未知,未知,未知,未知,未知,未知
1,603126,97754517.06,87757173.36999999,2014-09-30,三季度报告,64824972.12,2014,9,未知,未知,未知,未知,未知,未知,未知,未知,未知,未知
2,603126,121575802.44999996,106413625.45000002,2014-12-31,年度报告,58676536.98,2014,12,未知,未知,未知,未知,未知,未知,未知,未知,未知,未知
3,603126,21105335.83,19643708.4,2015-03-31,一季度报告,16453106.3,2015,3,0.0,True,未知,未知,未知,未知,未知,未知,128010000.0,未知
4,603126,46974151.78,40727202.87,2015-06-30,半年度报告,31192148.20000001,2015,6,未知,未知,未知,未知,未知,未知,未知,未知,,未知
5,603126,69519082.31,62106241.02000001,2015-09-30,三季度报告,51298304.20999999,2015,9,-0.76230370494554,True,未知,未知,未知,未知,未知,未知,未知,未知
6,603126,120512132.52,107090371.97,2015-12-31,年度报告,85200549.89,2015,12,-0.8088773747592072,True,未知,未知,未知,未知,未知,未知,,未知
7,603126,20271714.770000003,19673490.83,2016-03-31,一季度报告,13481054.15,2016,3,0.10094843868684383,True,未知,未知,未知,未知,未知,未知,未知,未知
8,603126,61600837.24000002,59223567.88,2016-06-30,半年度报告,49636969.08000001,2016,6,-0.5053473953329999,True,未知,未知,未知,未知,未知,未知,未知,未知
9,603126,101929639.81,95312072.79,2016-09-30,三季度报告,88278213.11000001,2016,9,-0.665762467542561,True,未知,未知,未知,未知,未知,未知,未知,未知
10,603126,140656104.99,130256235.59,2016-12-31,年度报告,114135805.14,2016,12,-0.8071904791316856,True,未知,未知,未知,未知,未知,未知,未知,未知
11,603126,17282081.06,15960242.67,2017-03-31,一季度报告,13496553.769999998,2017,3,0.14622205341931208,True,0.08564925858755675,True,0.09852712247126036,True,比例外推,68340447.08463381,未知,68340447.08463381
12,603126,65824154.22000001,63252393.75000002,2017-06-30,半年度报告,53632696.71000001,2017,6,-0.6227991765846981,True,未知,未知,未知,未知,未知,未知,未知,未知
13,603126,102036206.29,97206305.74,2017-09-30,三季度报告,80249020.12999998,2017,9,-0.7720399427162461,True,0.21871760031345105,True,0.27801089881430274,False,平均增速,127005530.35584164,未知,127005530.35584164
14,603126,139385181.64,133117082.16,2017-12-31,年度报告,116589837.34,2017,12,-0.8348035690903572,True,0.16202490642443954,True,0.0,True,比例外推,133117082.16,未知,133117082.16
15,603126,9108098.400000002,8385215.870000001,2018-03-31,一季度报告,6653411.41,2018,3,0.3445074380411454,True,0.16465379675950137,True,0.05078184187714613,True,比例外推,48478675.031978354,未知,48478675.031978354
16,603126,53552330.39000002,50708927.02000001,2018-06-30,半年度报告,46966801.44999999,2018,6,-0.6470006063072208,True,0.2125104467268222,True,0.054233456614716735,True,比例外推,115478422.46027179,未知,115478422.46027179
17,603126,97801892.83,91854995.5,2018-09-30,三季度报告,85983032.72,2018,9,-0.7722780239010394,True,0.1902824941276967,True,0.08585771498542893,True,比例外推,130857001.64486116,未知,130857001.64486116
18,603126,139729279.64000002,129786642.87000002,2018-12-31,年度报告,112708316.38,2018,12,-0.8332972970540514,True,0.06739765117619254,True,0.0,True,比例外推,129786642.87000002,未知,129786642.87000002
19,603126,76156.56,-3865627.99,2019-03-31,一季度报告,-6984850.209999999,2019,3,1.551123792206724,False,0.5149306109437831,True,0.03860362814585245,True,盈利变化,111602294.04333335,未知,111602294.04333335
20,603126,54725585.11000001,46850398.17,2019-06-30,半年度报告,41964651.16,2019,6,-0.5661087694824406,True,0.15946895853925755,True,0.022806180093087602,True,比例外推,100869542.11407249,未知,100869542.11407249
21,603126,78978486.46999998,67140324.23,2019-09-30,三季度报告,59324226.77,2019,9,-0.7624188463265348,True,0.04099735617452488,True,0.053241955109116,True,比例外推,87817053.64232674,未知,87817053.64232674
22,603126,141679011.72999996,123101149.8,2019-12-31,年度报告,59465495.9,2019,12,-0.8337078199367721,True,0.002080862279317704,True,0.0,True,比例外推,123101149.8,未知,123101149.8
23,603126,-17394964.7,-17357074.639999993,2020-03-31,一季度报告,-14711284.3,2020,3,304.10682901118435,False,0.994228416664204,True,0.13657140545279306,False,前期平均,87217019.63,未知,87217019.63
