,SECURITYCODE_x,NETPROFIT_x,PARENTNETPROFIT_x,REPORTDATE_x,REPORTTIMETYPE_x,KCFJCXSYJLR,Year,Month,managesituationChangeRate,managesituationGreatChange,historyprofitextroplaterate,ifhistoryprofitextroplate,IfprofitdisStableChangeRage,IfprofitdisStable,predicttype,predict,analyst_prediction,adj_prediction
0,603198,465945766.64,465945766.64,2012-12-31,年度报告,473216778.5400001,2012,12,未知,未知,未知,未知,未知,未知,未知,未知,未知,未知
1,603198,258114801.14,258114801.14,2014-06-30,半年度报告,251384659.02000004,2014,6,未知,未知,未知,未知,未知,未知,未知,未知,未知,未知
2,603198,345210211.68,345210211.68,2014-09-30,三季度报告,340580421.93,2014,9,未知,未知,未知,未知,未知,未知,未知,未知,未知,未知
3,603198,486556453.6,486556453.6,2014-12-31,年度报告,489858161.7699999,2014,12,未知,未知,未知,未知,未知,未知,未知,未知,未知,未知
4,603198,206532514.89,206532514.89,2015-03-31,一季度报告,207653670.61,2015,3,未知,未知,未知,未知,未知,未知,未知,未知,523510000.0,未知
5,603198,280623996.68999994,280623996.68999994,2015-06-30,半年度报告,293515068.0,2015,6,0.8051880968549094,False,未知,未知,未知,未知,未知,未知,516000000.0,未知
6,603198,390270159.08,390270159.08,2015-09-30,三季度报告,398068376.72999984,2015,9,0.3497450274498785,True,未知,未知,未知,未知,未知,未知,,未知
7,603198,530399115.17,530399115.17,2015-12-31,年度报告,535638702.37000006,2015,12,-0.042360319768657645,True,未知,未知,未知,未知,未知,未知,624000000.0,未知
8,603198,255215097.45,255215097.45,2016-03-31,一季度报告,263815839.03,2016,3,1.2560407347393436,False,未知,未知,未知,未知,未知,未知,,未知
9,603198,330544075.73,330532413.45,2016-06-30,半年度报告,337394734.38,2016,6,0.660391741746596,False,未知,未知,未知,未知,未知,未知,598207500.0,未知
10,603198,473676442.3900001,473583452.0,2016-09-30,三季度报告,466390958.91,2016,9,0.1939056978847505,True,未知,未知,未知,未知,未知,未知,584000000.0,未知
11,603198,683313884.4400003,683006555.0000001,2016-12-31,年度报告,655394352.5600001,2016,12,-0.12151858230257769,True,未知,未知,未知,未知,未知,未知,未知,未知
12,603198,288831570.32999986,288246519.83000004,2017-03-31,一季度报告,285050242.07999986,2017,3,0.8256982886025578,False,未知,未知,未知,未知,未知,未知,797060000.0,未知
13,603198,329491604.47,329473262.31,2017-06-30,半年度报告,339191748.51,2017,6,0.4096327868256844,True,0.22710329035668914,True,0.02265640835308802,True,比例外推,635972761.5194044,728000000.0,728000000.0
14,603198,427502588.06,427766224.02,2017-09-30,三季度报告,427447392.25000006,2017,9,-0.016320583119975154,True,0.28807364879237257,True,0.026483159816384605,True,比例外推,596743741.4198246,748000000.0,748000000.0
15,603198,667069149.51,666635739.27,2017-12-31,年度报告,643324951.6199999,2017,12,-0.31810873853110877,True,0.3438421607080892,True,0.0,True,比例外推,666635739.27,660130000.0,666635739.27
16,603198,324338922.69999987,324149709.25,2018-03-31,一季度报告,318250257.20000005,2018,3,0.6132092697056667,False,0.25103655161869537,True,0.0319910984663046,True,前期平均,683931481.895,727500000.0,683931481.895
17,603198,382223309.02,382071767.39,2018-06-30,半年度报告,369175698.2199999,2018,6,0.4141354751344628,True,0.07823565836917791,True,0.017966586627343628,True,比例外推,709446736.0149912,753883333.0,709446736.0149912
18,603198,498402359.93,498093445.69000006,2018-09-30,三季度报告,476080115.69,2018,9,0.08992501952901506,True,0.010349511572574325,True,0.041971779064159276,True,比例外推,695959790.2340167,762266667.0,695959790.2340167
19,603198,779318432.85,778692700.0799999,2018-12-31,年度报告,726924084.7499999,2018,12,-0.3015030495979862,True,0.09922057310805404,True,0.0,True,比例外推,778692700.0799999,765740000.0,778692700.0799999
20,603198,353906990.61,353399335.38,2019-03-31,一季度报告,343665123.72999984,2019,3,0.43660144999303896,True,0.19232022511405283,True,0.025277727328098076,True,比例外推,813051128.810436,839000000.0,813051128.810436
21,603198,445062846.6,444793211.19000006,2019-06-30,半年度报告,419247517.4400001,2019,6,0.21904069072778393,True,0.15818983878017312,True,0.010613096595282978,True,比例外推,837042501.6008978,876333333.0,837042501.6008978
22,603198,600721985.43,600440295.02,2019-09-30,三季度报告,562533271.26,2019,9,-0.06512126727200591,True,0.10611175602060965,True,0.03462629188699917,True,比例外推,868836825.7318648,917000000.0,868836825.7318648
23,603198,931544430.2000002,930445572.6100004,2019-12-31,年度报告,875122379.9699996,2019,12,-0.4021111948603386,True,0.15421834139965257,True,0.0,True,比例外推,930445572.6100004,,930445572.6100004
24,603198,233653201.93,233009672.7,2020-03-31,一季度报告,229858935.9,2020,3,0.3165768945023891,True,0.15435101536330745,True,0.03182753240349562,True,比例外推,544590558.5075448,882500000.0,882500000.0
