,SECURITYCODE_x,NETPROFIT_x,PARENTNETPROFIT_x,REPORTDATE_x,REPORTTIMETYPE_x,KCFJCXSYJLR,Year,Month,managesituationChangeRate,managesituationGreatChange,historyprofitextroplaterate,ifhistoryprofitextroplate,IfprofitdisStableChangeRage,IfprofitdisStable,predicttype,predict,analyst_prediction,adj_prediction
0,603109,39914371.22999999,39914371.22999999,2013-12-31,年度报告,28904472.719999995,2013,12,未知,未知,未知,未知,未知,未知,未知,未知,未知,未知
1,603109,17571259.580000002,17571259.580000002,2014-12-31,年度报告,11070620.31,2014,12,0.0,True,未知,未知,未知,未知,未知,未知,未知,未知
2,603109,49574177.69,49574177.69,2015-12-31,年度报告,39077577.15,2015,12,1.2715714288024869,False,未知,未知,未知,未知,未知,未知,未知,未知
3,603109,28203083.01,28203083.01,2016-06-30,半年度报告,25016736.1,2016,6,未知,未知,未知,未知,未知,未知,未知,未知,未知,未知
4,603109,59240013.31999999,59225960.71999998,2016-12-31,年度报告,51957190.28,2016,12,-0.19485560648943584,True,0.7247502372845583,True,0.0,True,比例外推,59225960.71999998,未知,59225960.71999998
5,603109,86929214.01,86929214.01,2017-12-31,年度报告,64266576.04999999,2017,12,-0.326226160443409,True,0.7645283351656099,True,0.0,True,比例外推,86929214.01,未知,86929214.01
6,603109,105706597.18000002,105706597.18000002,2018-09-30,三季度报告,90266997.05,2018,9,未知,未知,未知,未知,未知,未知,未知,未知,未知,未知
7,603109,139334150.57,139334150.57,2018-12-31,年度报告,121393274.46,2018,12,-0.5408405369291802,True,0.5977550943150648,True,0.0,True,比例外推,139334150.57,未知,139334150.57
8,603109,12636527.84,12636527.84,2019-03-31,一季度报告,10763408.289999995,2019,3,未知,未知,未知,未知,未知,未知,未知,未知,未知,未知
9,603109,48960448.57999999,48960448.57999999,2019-06-30,半年度报告,45695405.54,2019,6,未知,未知,未知,未知,未知,未知,未知,未知,未知,未知
10,603109,85613661.61999999,85613661.64,2019-09-30,三季度报告,77565457.07000001,2019,9,-0.6224041611893653,True,未知,未知,未知,未知,未知,未知,未知,未知
11,603109,111219387.29,111219387.29,2019-12-31,年度报告,97045245.5,2019,12,-0.7135349010510712,True,0.9064772129557922,True,0.0,True,比例外推,111219387.29,未知,111219387.29
12,603109,20155345.97,20155345.97,2020-03-31,一季度报告,16595850.160000002,2020,3,2.158650203234941,False,未知,未知,未知,未知,未知,未知,未知,未知
