,SECURITYCODE_x,NETPROFIT_x,PARENTNETPROFIT_x,REPORTDATE_x,REPORTTIMETYPE_x,KCFJCXSYJLR,Year,Month,managesituationChangeRate,managesituationGreatChange,historyprofitextroplaterate,ifhistoryprofitextroplate,IfprofitdisStableChangeRage,IfprofitdisStable,predicttype,predict,analyst_prediction,adj_prediction
0,603278,40620651.0,40620651.0,2013-12-31,年度报告,33728865.63,2013,12,未知,未知,未知,未知,未知,未知,未知,未知,未知,未知
1,603278,44773421.72000001,44773421.72000001,2014-12-31,年度报告,33036502.739999995,2014,12,0.0,True,未知,未知,未知,未知,未知,未知,未知,未知
2,603278,72552452.80999999,72552452.80999999,2015-12-31,年度报告,69236021.47,2015,12,-0.09275080082041164,True,未知,未知,未知,未知,未知,未知,未知,未知
3,603278,65734434.64000001,65734434.64000001,2016-06-30,半年度报告,62747446.99999999,2016,6,未知,未知,未知,未知,未知,未知,未知,未知,未知,未知
4,603278,111724014.28000002,111724014.28000002,2016-09-30,三季度报告,107869339.65,2016,9,未知,未知,未知,未知,未知,未知,未知,未知,未知,未知
5,603278,143001852.04999998,143001852.04999998,2016-12-31,年度报告,138762739.75,2016,12,-0.4401202243792203,True,0.699238612213599,True,0.0,True,比例外推,143001852.04999998,未知,143001852.04999998
6,603278,32195110.05,32195110.05,2017-03-31,一季度报告,31445900.4,2017,3,未知,未知,未知,未知,未知,未知,未知,未知,未知,未知
7,603278,68749293.02000001,68749293.02000001,2017-06-30,半年度报告,60440290.19000001,2017,6,-0.38204913113709266,True,未知,未知,未知,未知,未知,未知,未知,未知
8,603278,131404123.43,131404123.43,2017-12-31,年度报告,116178597.4,2017,12,-0.7159431824295732,True,1.4376865311740707,True,0.0,True,比例外推,131404123.43,未知,131404123.43
9,603278,38250878.64,38250878.64,2018-03-31,一季度报告,35819987.83,2018,3,0.2617025050361646,True,未知,未知,未知,未知,未知,未知,未知,未知
10,603278,101420385.35,101420385.35,2018-06-30,半年度报告,86509169.92,2018,6,-0.4091480913384381,True,未知,未知,未知,未知,未知,未知,195000000.0,未知
11,603278,170660667.37,170660667.37,2018-09-30,三季度报告,144261436.85,2018,9,未知,未知,未知,未知,未知,未知,未知,未知,220000000.0,未知
12,603278,205360813.96,205360813.96,2018-12-31,年度报告,179584039.17000002,2018,12,-0.6908723262277311,True,0.21922059051750764,True,0.0,True,比例外推,205360813.96,,205360813.96
13,603278,42622555.69999999,42622555.69999999,2019-03-31,一季度报告,35211680.26,2019,3,0.061953409810614465,True,未知,未知,未知,未知,未知,未知,253000000.0,未知
14,603278,121260544.51,121260544.51,2019-06-30,半年度报告,82540627.64999999,2019,6,-0.5994823835482498,True,0.508292298476581,True,0.03551999621573931,True,比例外推,209006486.65305,253000000.0,253000000.0
15,603278,136988708.74,136988708.74,2019-09-30,三季度报告,98066738.67000002,2019,9,-0.7619800061373685,True,未知,未知,未知,未知,未知,未知,186000000.0,未知
16,603278,152239509.3,152239509.3,2019-12-31,年度报告,111332023.82,2019,12,-0.8021986268134287,True,0.49676634119046476,True,0.0,True,比例外推,152239509.3,186000000.0,186000000.0
17,603278,-7231665.939999999,-7231665.939999999,2020-03-31,一季度报告,-7567642.920000001,2020,3,-0.04696819951601327,True,0.21007757837176547,True,0.06267439495033184,True,比例外推,-28533252.27016906,180000000.0,180000000.0
