,SECURITYCODE_x,NETPROFIT_x,PARENTNETPROFIT_x,REPORTDATE_x,REPORTTIMETYPE_x,KCFJCXSYJLR,Year,Month,managesituationChangeRate,managesituationGreatChange,historyprofitextroplaterate,ifhistoryprofitextroplate,IfprofitdisStableChangeRage,IfprofitdisStable,predicttype,predict,analyst_prediction,adj_prediction
0,603258,273140180.59000003,273254375.35,2014-12-31,年度报告,248637460.76,2014,12,未知,未知,未知,未知,未知,未知,未知,未知,未知,未知
1,603258,155072627.03,157824629.67999998,2015-09-30,三季度报告,154717929.67999998,2015,9,未知,未知,未知,未知,未知,未知,未知,未知,未知,未知
2,603258,214054919.79,217498698.89,2015-12-31,年度报告,206448944.32,2015,12,0.0,True,未知,未知,未知,未知,未知,未知,未知,未知
3,603258,81027332.5,81266514.7,2016-03-31,一季度报告,79956383.75000001,2016,3,未知,未知,未知,未知,未知,未知,未知,未知,未知,未知
4,603258,140184399.41,141968019.00000003,2016-06-30,半年度报告,132905036.02,2016,6,未知,未知,未知,未知,未知,未知,未知,未知,未知,未知
5,603258,250653559.98,256091758.36,2016-12-31,年度报告,227190517.07,2016,12,0.2760285110847535,True,未知,未知,未知,未知,未知,未知,未知,未知
6,603258,57704501.16,58451308.67999999,2017-03-31,一季度报告,59716855.92,2017,3,2.3709635028402305,False,未知,未知,未知,未知,未知,未知,278600000.0,未知
7,603258,86172413.08,86093052.97999999,2017-06-30,半年度报告,89457066.20999998,2017,6,0.9484349309878749,False,未知,未知,未知,未知,未知,未知,261782500.0,未知
8,603258,142130095.43,142610907.66,2017-09-30,三季度报告,143486716.56,2017,9,未知,未知,未知,未知,未知,未知,未知,未知,,未知
9,603258,161106987.55000004,164513275.11,2017-12-31,年度报告,158559928.18,2017,12,0.08971195386889491,True,0.028965848730812278,True,0.0,True,比例外推,164513275.11,,164513275.11
10,603258,21536751.39,23327792.1,2018-03-31,一季度报告,23018272.02,2018,3,3.7334293703129213,False,未知,未知,未知,未知,未知,未知,未知,未知
11,603258,48099315.74,51802241.65000001,2018-06-30,半年度报告,43550541.95999999,2018,6,2.1696939986631745,False,未知,未知,未知,未知,未知,未知,未知,未知
12,603258,83038681.84,88839213.82,2018-09-30,三季度报告,75758700.44000001,2018,9,0.9217617476695732,False,未知,未知,未知,未知,未知,未知,未知,未知
13,603258,121439225.34,129674032.28999998,2018-12-31,年度报告,98705657.15,2018,12,0.6953962378896207,False,0.3066320303441101,True,0.0,True,前期平均,129674032.28999998,未知,129674032.28999998
14,603258,40083823.33000001,40812116.72,2019-03-31,一季度报告,37155455.91,2019,3,11.68251537308571,False,0.6895196895792258,True,0.08738440223788851,True,前期平均,163850719.51,未知,163850719.51
15,603258,84244797.02999999,85349158.04,2019-06-30,半年度报告,76710141.67000002,2019,6,4.678670816575737,False,0.5750133145020768,True,0.08891526728337296,True,前期平均,167043329.55,未知,167043329.55
16,603258,140185042.11,141567920.54999998,2019-09-30,三季度报告,128762224.64999996,2019,9,2.289312577435779,False,未知,未知,未知,未知,未知,未知,未知,未知
17,603258,228576391.49,228124051.45,2019-12-31,年度报告,182219588.72,2019,12,1.2491923826529248,False,0.41014637721622815,True,0.0,True,前期平均,228124051.45,未知,228124051.45
18,603258,103321152.06999998,101531123.18,2020-03-31,一季度报告,93871230.09999998,2020,3,5.814224739524116,False,0.011690805990421327,True,0.10537807244498398,False,前期平均,188796351.875,376244000.0,376244000.0
