,SECURITYCODE_x,NETPROFIT_x,PARENTNETPROFIT_x,REPORTDATE_x,REPORTTIMETYPE_x,KCFJCXSYJLR,Year,Month,managesituationChangeRate,managesituationGreatChange,historyprofitextroplaterate,ifhistoryprofitextroplate,IfprofitdisStableChangeRage,IfprofitdisStable,predicttype,predict,analyst_prediction,adj_prediction
0,603286,27705491.96,27705491.96,2012-12-31,年度报告,29241539.649999995,2012,12,未知,未知,未知,未知,未知,未知,未知,未知,未知,未知
1,603286,36944798.55,36944798.55,2013-12-31,年度报告,36347677.79000001,2013,12,0.0,True,未知,未知,未知,未知,未知,未知,未知,未知
2,603286,47462396.89999999,47462396.89999999,2014-12-31,年度报告,47260319.71999999,2014,12,-0.2500840971563505,True,未知,未知,未知,未知,未知,未知,未知,未知
3,603286,18340814.19,18340814.19,2015-06-30,半年度报告,18475473.96,2015,6,未知,未知,未知,未知,未知,未知,未知,未知,未知,未知
4,603286,29737032.61,29737032.61,2015-12-31,年度报告,25079367.43,2015,12,-0.4162643741239287,True,0.4682810092758543,True,0.0,True,比例外推,29737032.61,未知,29737032.61
5,603286,6358049.579999999,6358049.579999999,2016-03-31,一季度报告,6663949.580000001,2016,3,未知,未知,未知,未知,未知,未知,未知,未知,未知,未知
6,603286,14974826.009999994,14974826.009999994,2016-06-30,半年度报告,14414150.46,2016,6,0.5105922601356444,False,未知,未知,未知,未知,未知,未知,未知,未知
7,603286,19571602.19,19571602.19,2016-09-30,三季度报告,18735301.63,2016,9,未知,未知,未知,未知,未知,未知,未知,未知,未知,未知
8,603286,31069463.280000005,31069463.280000005,2016-12-31,年度报告,30400598.28,2016,12,-0.0683168585327115,True,0.2953910516404913,True,0.0,True,比例外推,31069463.280000005,未知,31069463.280000005
9,603286,7164976.8,7164976.8,2017-03-31,一季度报告,7041371.7,2017,3,3.3575457554075894,False,未知,未知,未知,未知,未知,未知,未知,未知
10,603286,16839032.419999998,16839032.419999998,2017-06-30,半年度报告,16404309.749999994,2017,6,0.8501378207331847,False,未知,未知,未知,未知,未知,未知,未知,未知
11,603286,20192191.100000005,20192191.100000005,2017-09-30,三季度报告,18748558.49,2017,9,0.41559652046044365,True,未知,未知,未知,未知,未知,未知,未知,未知
12,603286,33738998.559999995,33738998.559999995,2017-12-31,年度报告,29932446.89,2017,12,-0.10827259195576305,True,0.19508567674129154,True,0.0,True,比例外推,33738998.559999995,未知,33738998.559999995
13,603286,7259610.6,7259610.6,2018-03-31,一季度报告,5438600.569999998,2018,3,2.8667943711974058,False,未知,未知,未知,未知,未知,未知,未知,未知
14,603286,12756349.17,12756349.17,2018-06-30,半年度报告,10517193.54,2018,6,0.6453137727256661,False,0.010878513449668023,True,0.1503918978126132,False,前期平均,24051519.814999998,未知,24051519.814999998
15,603286,15275455.07,15275455.07,2018-09-30,三季度报告,12970810.02,2018,9,0.3720894291655151,True,未知,未知,未知,未知,未知,未知,未知,未知
16,603286,22087685.84,22087685.84,2018-12-31,年度报告,17114548.820000004,2018,12,-0.17882885851725158,True,0.10971691646347867,True,0.0,True,比例外推,22087685.84,未知,22087685.84
17,603286,5387407.960000001,5387407.960000001,2019-03-31,一季度报告,4947616.369999999,2019,3,2.816388162748013,False,0.07366655894965432,True,0.06036874845424567,True,前期平均,28701269.905,未知,28701269.905
18,603286,9078423.180000003,9078423.180000003,2019-06-30,半年度报告,7647490.57,2019,6,1.1718982124726522,False,0.19806337240936775,True,0.07142713544738977,True,前期平均,23835715.660000008,未知,23835715.660000008
19,603286,15493273.96,15190273.880000005,2019-09-30,三季度报告,12618637.22,2019,9,0.8137261268511591,False,0.23169024853363038,True,0.09104037228243134,True,前期平均,26614866.40500001,未知,26614866.40500001
20,603286,28086505.93,26798885.910000004,2019-12-31,年度报告,19365631.200000007,2019,12,0.25434109126209853,True,0.3183703111321983,True,0.0,True,比例外推,26798885.910000004,未知,26798885.910000004
21,603286,1253152.28,771891.9700000002,2020-03-31,一季度报告,632985.8400000001,2020,3,4.142638568622525,False,0.25302432428673816,True,0.04827547149931255,True,前期平均,18055403.69,未知,18055403.69
