,SECURITYCODE_x,NETPROFIT_x,PARENTNETPROFIT_x,REPORTDATE_x,REPORTTIMETYPE_x,KCFJCXSYJLR,Year,Month,managesituationChangeRate,managesituationGreatChange,historyprofitextroplaterate,ifhistoryprofitextroplate,IfprofitdisStableChangeRage,IfprofitdisStable,predicttype,predict,analyst_prediction,adj_prediction
0,603223,23019889.72000001,23019889.72000001,2009-12-31,年度报告,25124127.44,2009,12,未知,未知,未知,未知,未知,未知,未知,未知,未知,未知
1,603223,42388970.47,42388970.47,2010-12-31,年度报告,41964833.01000001,2010,12,0.0,True,未知,未知,未知,未知,未知,未知,未知,未知
2,603223,25513567.169999994,25513567.169999994,2012-06-30,半年度报告,25835959.01,2012,6,未知,未知,未知,未知,未知,未知,未知,未知,未知,未知
3,603223,55293168.95000002,55293168.95000002,2012-12-31,年度报告,54653349.26000001,2012,12,未知,未知,未知,未知,未知,未知,未知,未知,未知,未知
4,603223,54169807.6,54178585.99000001,2013-12-31,年度报告,48983822.55,2013,12,-0.5836757024938068,True,未知,未知,未知,未知,未知,未知,未知,未知
5,603223,19897514.64,19888736.25,2014-06-30,半年度报告,20410932.25,2014,6,未知,未知,未知,未知,未知,未知,未知,未知,未知,未知
6,603223,34206984.35,34206984.35,2014-09-30,三季度报告,32005309.719999995,2014,9,未知,未知,未知,未知,未知,未知,未知,未知,未知,未知
7,603223,48939139.17999998,48920182.31000002,2014-12-31,年度报告,43405633.82,2014,12,-0.5750420623609523,True,未知,未知,未知,未知,未知,未知,未知,未知
8,603223,8167822.349999999,7501175.35,2015-03-31,一季度报告,5486289.66,2015,3,未知,未知,未知,未知,未知,未知,未知,未知,未知,未知
9,603223,18023029.73,15952779.860000005,2015-06-30,半年度报告,12980268.27,2015,6,0.1569228688352411,True,未知,未知,未知,未知,未知,未知,56860000.0,未知
10,603223,24607893.73,23596822.26,2015-09-30,三季度报告,18920471.09,2015,9,-0.3270412415059906,True,未知,未知,未知,未知,未知,未知,49000000.0,未知
11,603223,48401583.56,43686229.58,2015-12-31,年度报告,32270230.66,2015,12,-0.5296220958171741,True,0.1058321137897109,True,0.0,True,比例外推,43686229.58,42780000.0,43686229.58
12,603223,13994918.99,11641762.719999995,2016-03-31,一季度报告,8716775.3,2016,3,1.8183631736309758,False,未知,未知,未知,未知,未知,未知,,未知
13,603223,34229036.45,28117551.190000005,2016-06-30,半年度报告,23577063.070000004,2016,6,0.27724861273920837,True,未知,未知,未知,未知,未知,未知,70906667.0,未知
14,603223,53863337.52999999,44664434.42,2016-09-30,三季度报告,41173388.99999999,2016,9,-0.06453230119666932,True,未知,未知,未知,未知,未知,未知,74950000.0,未知
15,603223,69339397.7,58199942.84,2016-12-31,年度报告,50789909.10999999,2016,12,-0.5243980046342102,True,0.061156474359634304,True,0.0,True,比例外推,58199942.84,57980000.0,58199942.84
16,603223,20360786.6,16051886.310000004,2017-03-31,一季度报告,14351188.289999995,2017,3,0.6448748103828795,False,未知,未知,未知,未知,未知,未知,86375000.0,未知
17,603223,37839935.68000001,30125709.19000001,2017-06-30,半年度报告,22561213.16,2017,6,-0.32747479603680146,True,0.8053030102109792,True,0.0433237784703811,True,比例外推,58200085.749825604,75500000.0,75500000.0
18,603223,49365429.63999999,38845084.44000001,2017-09-30,三季度报告,31756728.01,2017,9,-0.5726241488994487,True,0.8316228576291554,True,0.12512922589666586,False,平均增速,48124872.17246114,60917500.0,60917500.0
19,603223,83946519.19,61954210.86000002,2017-12-31,年度报告,57129622.32000001,2017,12,-0.6680113977973015,True,0.4246739853207714,True,0.0,True,比例外推,61954210.86000002,112000000.0,112000000.0
20,603223,28837505.59,21769837.89,2018-03-31,一季度报告,14364346.590000005,2018,3,0.13059923333217432,True,0.8373888218649401,True,0.05359097881990191,True,比例外推,80094771.73613274,104000000.0,104000000.0
21,603223,52220010.0,38901972.63000001,2018-06-30,半年度报告,30070719.14,2018,6,-0.39165092893730824,True,0.4483613164557927,True,0.043755313697206755,True,比例外推,80351181.78723787,109000000.0,109000000.0
22,603223,67771253.4,53028995.75000002,2018-09-30,三季度报告,36695743.99,2018,9,-0.5336839993518993,True,0.2581790510317526,True,0.15971222164182108,False,平均增速,84807081.15549019,,84807081.15549019
23,603223,62351151.49999999,47069510.46000001,2018-12-31,年度报告,13935995.58,2018,12,-0.7257791038613758,True,0.4259524303543246,True,0.0,True,比例外推,47069510.46000001,,47069510.46000001
24,603223,7176675.33,5222786.819999998,2019-03-31,一季度报告,-7004931.829999999,2019,3,-0.20173783241562226,True,0.6787607819292643,True,0.5462153041522597,False,平均增速,5180654.569063532,未知,5180654.569063532
25,603223,16506285.500000006,11548385.1,2019-06-30,半年度报告,1278858.0,2019,6,-0.5591749270059502,True,0.4491676086569987,True,1.152142091643267,False,平均增速,5684157.643515504,未知,5684157.643515504
26,603223,5418776.2700000005,1034447.17,2019-09-30,三季度报告,-10101877.15,2019,9,-0.660329585700122,True,0.3130303743411453,True,1.299931045542529,False,平均增速,-3620967.4987845346,未知,-3620967.4987845346
27,603223,13969019.000000006,2566029.2499999995,2019-12-31,年度报告,-18135022.32,2019,12,-0.6308024925570138,True,0.18647253752940646,True,0.0,True,比例外推,2566029.2499999995,未知,2566029.2499999995
28,603223,-2745600.98,-4721457.830000001,2020-03-31,一季度报告,-5291791.209999999,2020,3,2.207598039690059,False,0.7082551035599272,True,0.47466821962147154,False,盈利变化,4850216.743333333,未知,4850216.743333333
