,SECURITYCODE_x,NETPROFIT_x,PARENTNETPROFIT_x,REPORTDATE_x,REPORTTIMETYPE_x,KCFJCXSYJLR,Year,Month,managesituationChangeRate,managesituationGreatChange,historyprofitextroplaterate,ifhistoryprofitextroplate,IfprofitdisStableChangeRage,IfprofitdisStable,predicttype,predict,analyst_prediction,adj_prediction
0,603208,37458083.01,37458083.01,2011-12-31,年度报告,34212869.28,2011,12,未知,未知,未知,未知,未知,未知,未知,未知,未知,未知
1,603208,39520900.67,39520900.67,2012-12-31,年度报告,30545428.92,2012,12,0.0,True,未知,未知,未知,未知,未知,未知,未知,未知
2,603208,52301783.52000001,52301783.52000001,2013-12-31,年度报告,44252022.65999999,2013,12,-0.05219561358746746,True,未知,未知,未知,未知,未知,未知,未知,未知
3,603208,24355793.29,24355793.29,2014-06-30,半年度报告,17490120.76,2014,6,未知,未知,未知,未知,未知,未知,未知,未知,未知,未知
4,603208,60696289.7,60696289.7,2014-12-31,年度报告,49938196.63000001,2014,12,-0.28380868702735224,True,0.3588587694900574,True,0.0,True,比例外推,60696289.7,未知,60696289.7
5,603208,93727556.51,93727556.51,2015-12-31,年度报告,87398714.0,2015,12,-0.3828604154365634,True,0.3220325725701266,True,0.0,True,比例外推,93727556.51,未知,93727556.51
6,603208,10990200.63,10990200.63,2016-03-31,一季度报告,10585204.43,2016,3,未知,未知,未知,未知,未知,未知,未知,未知,未知,未知
7,603208,54318184.58,54318184.58,2016-06-30,半年度报告,49505990.15,2016,6,未知,未知,未知,未知,未知,未知,未知,未知,未知,未知
8,603208,84113161.45999998,84113161.45999998,2016-09-30,三季度报告,78661452.35999998,2016,9,未知,未知,未知,未知,未知,未知,未知,未知,未知,未知
9,603208,109360362.79000002,109360362.79000002,2016-12-31,年度报告,102229846.46,2016,12,-0.6003514398030476,True,0.6589230920339403,True,0.0,True,比例外推,109360362.79000002,未知,109360362.79000002
10,603208,19399908.67,19385900.080000006,2017-03-31,一季度报告,18713037.42,2017,3,2.408316578657399,False,未知,未知,未知,未知,未知,未知,133000000.0,未知
11,603208,59373034.84999999,59430992.13,2017-06-30,半年度报告,52400779.72,2017,6,-0.31039515956518005,True,未知,未知,未知,未知,未知,未知,130274000.0,未知
12,603208,89175852.27000001,88991235.66000001,2017-09-30,三季度报告,77717126.64000002,2017,9,-0.5546703707265457,True,未知,未知,未知,未知,未知,未知,126456667.0,未知
13,603208,137567788.48000002,137529772.38000005,2017-12-31,年度报告,103151735.36999996,2017,12,-0.6574802601749856,True,0.4163662604450553,True,0.0,True,比例外推,137529772.38000005,128500000.0,137529772.38000005
14,603208,9457105.21,9495394.26,2018-03-31,一季度报告,8325461.619999999,2018,3,0.9308381110023027,False,未知,未知,未知,未知,未知,未知,179055000.0,未知
15,603208,57118413.99,57702073.27,2018-06-30,半年度报告,48970282.03999999,2018,6,-0.36910614212943493,True,未知,未知,未知,未知,未知,未知,161786667.0,未知
16,603208,106539937.5,107879205.3,2018-09-30,三季度报告,93089861.4,2018,9,-0.5799526210684569,True,未知,未知,未知,未知,未知,未知,174220000.0,未知
17,603208,148740136.51000002,152701512.53,2018-12-31,年度报告,123268859.57,2018,12,-0.7277118181234283,True,0.35476092279803084,True,0.0,True,比例外推,152701512.53,,152701512.53
18,603208,9144308.68,10412720.28,2019-03-31,一季度报告,9072587.89,2019,3,2.960840254837346,False,0.3776195329445558,True,0.06391440353833637,True,前期平均,98454390.26999998,204033332.99999997,204033332.99999997
19,603208,81435911.69000001,81462684.18000002,2019-06-30,半年度报告,71092562.25999999,2019,6,-0.34420302677595416,True,0.004799038595376837,True,0.06591021848668482,True,比例外推,163860012.26042485,204453332.99999997,204453332.99999997
20,603208,183141297.16,179753528.38000005,2019-09-30,三季度报告,146082410.17999998,2019,9,-0.6484127559207552,True,0.22962137306637215,True,0.010103634777047565,True,比例外推,226048543.37026322,222151429.0,226048543.37026322
21,603208,268866788.73,261285123.87,2019-12-31,年度报告,228893628.33,2019,12,-0.7481642555338005,True,0.20472401178237676,True,0.0,True,比例外推,261285123.87,224343332.99999997,224343332.99999997
22,603208,37917438.74999999,37427697.22,2020-03-31,一季度报告,18761071.73,2020,3,3.096327488586048,False,0.3662331994553555,True,0.08521656719218751,True,前期平均,137118745.16999996,369184286.0,369184286.0
