,SECURITYCODE_x,NETPROFIT_x,PARENTNETPROFIT_x,REPORTDATE_x,REPORTTIMETYPE_x,KCFJCXSYJLR,Year,Month,managesituationChangeRate,managesituationGreatChange,historyprofitextroplaterate,ifhistoryprofitextroplate,IfprofitdisStableChangeRage,IfprofitdisStable,predicttype,predict,analyst_prediction,adj_prediction
0,603297,61081400.0,61081400.0,2014-12-31,年度报告,56570499.99999999,2014,12,未知,未知,未知,未知,未知,未知,未知,未知,未知,未知
1,603297,49970298.24,49970298.24,2015-12-31,年度报告,58318978.46,2015,12,0.0,True,未知,未知,未知,未知,未知,未知,未知,未知
2,603297,78969440.83999999,78969440.83999999,2016-12-31,年度报告,77469808.52,2016,12,0.22235412137496174,True,未知,未知,未知,未知,未知,未知,未知,未知
3,603297,81103621.19999999,81103621.19999999,2017-09-30,三季度报告,74072821.2,2017,9,未知,未知,未知,未知,未知,未知,未知,未知,未知,未知
4,603297,106702357.89,106702357.89,2017-12-31,年度报告,94517690.74,2017,12,-0.22651851969223075,True,0.42221041355594097,True,0.0,True,比例外推,106702357.89,未知,106702357.89
5,603297,24035684.73,24035684.73,2018-03-31,一季度报告,22418701.34,2018,3,未知,未知,未知,未知,未知,未知,未知,未知,未知,未知
6,603297,51201760.48,51201760.48,2018-06-30,半年度报告,43607398.95,2018,6,未知,未知,未知,未知,未知,未知,未知,未知,未知,未知
7,603297,93089433.73999998,93089433.73999998,2018-09-30,三季度报告,77414383.36,2018,9,-0.2468720989735535,True,未知,未知,未知,未知,未知,未知,147240000.0,未知
8,603297,121842641.39999998,121842641.39999998,2018-12-31,年度报告,103851077.17000002,2018,12,-0.4275534186135875,True,0.6550732714574067,True,0.0,True,比例外推,121842641.39999998,,121842641.39999998
9,603297,25811322.44,25811322.44,2019-03-31,一季度报告,21690940.17,2019,3,1.5412797965252722,False,未知,未知,未知,未知,未知,未知,158446000.0,未知
10,603297,57195284.34,57195284.34,2019-06-30,半年度报告,49043995.55000001,2019,6,0.19295507473535223,True,未知,未知,未知,未知,未知,未知,150000000.0,未知
11,603297,100663346.37000002,100663346.37000002,2019-09-30,三季度报告,84904124.46000001,2019,9,-0.343841749316027,True,未知,未知,未知,未知,未知,未知,137000000.0,未知
12,603297,139049415.42000005,139049415.42000005,2019-12-31,年度报告,114145123.88000004,2019,12,-0.4986861799928115,True,0.3124517803285891,True,0.0,True,比例外推,139049415.42000005,未知,139049415.42000005
13,603297,30813869.5,30813869.5,2020-03-31,一季度报告,27252047.27,2020,3,1.3664575940263215,False,未知,未知,未知,未知,未知,未知,161333333.0,未知
