,SECURITYCODE_x,NETPROFIT_x,PARENTNETPROFIT_x,REPORTDATE_x,REPORTTIMETYPE_x,KCFJCXSYJLR,Year,Month,managesituationChangeRate,managesituationGreatChange,historyprofitextroplaterate,ifhistoryprofitextroplate,IfprofitdisStableChangeRage,IfprofitdisStable,predicttype,predict,analyst_prediction,adj_prediction
0,603232,26785839.690000005,26830750.37,2012-12-31,年度报告,21510313.67,2012,12,未知,未知,未知,未知,未知,未知,未知,未知,未知,未知
1,603232,40403134.87000001,40348521.26000001,2013-12-31,年度报告,33606965.63,2013,12,0.0,True,未知,未知,未知,未知,未知,未知,未知,未知
2,603232,41505850.04,42172423.84999999,2014-12-31,年度报告,34003117.870000005,2014,12,-0.33703560933612287,True,未知,未知,未知,未知,未知,未知,未知,未知
3,603232,47944788.49,47903891.43000001,2015-12-31,年度报告,38517844.81999999,2015,12,-0.3546490515388561,True,0.2354958625818917,True,0.0,True,比例外推,47903891.43000001,未知,47903891.43000001
4,603232,-5108660.2700000005,-5159469.429999999,2016-03-31,一季度报告,-7918016.920000001,2016,3,未知,未知,未知,未知,未知,未知,未知,未知,未知,未知
5,603232,3019077.6,2906012.6300000013,2016-06-30,半年度报告,-3259339.8000000007,2016,6,未知,未知,未知,未知,未知,未知,未知,未知,未知,未知
6,603232,3163623.79,3048840.94,2016-09-30,三季度报告,-3577877.3699999987,2016,9,未知,未知,未知,未知,未知,未知,未知,未知,未知,未知
7,603232,56621337.18999999,56377443.29000001,2016-12-31,年度报告,48219103.0,2016,12,-0.44131905607244853,True,0.17068447479066667,True,0.0,True,比例外推,56377443.29000001,未知,56377443.29000001
8,603232,4247389.7700000005,4388673.13,2017-03-31,一季度报告,2295809.05,2017,3,-6.243221955332724,False,未知,未知,未知,未知,未知,未知,未知,未知
9,603232,8975771.11,8980555.649999999,2017-06-30,半年度报告,8808086.15,2017,6,7.872193179135244,False,未知,未知,未知,未知,未知,未知,未知,未知
10,603232,10595143.19,10707355.340000002,2017-09-30,三季度报告,8698291.09,2017,9,7.466822058510315,False,未知,未知,未知,未知,未知,未知,未知,未知
11,603232,69949453.76,70245557.08999999,2017-12-31,年度报告,62259487.92,2017,12,-0.5269302877797328,True,0.2659794970834176,True,0.0,True,比例外推,70245557.08999999,未知,70245557.08999999
12,603232,1648276.0599999996,1628754.79,2018-03-31,一季度报告,-1122708.36,2018,3,5.306423742693151,False,未知,未知,未知,未知,未知,未知,未知,未知
13,603232,9728047.329999998,9710449.769999998,2018-06-30,半年度报告,3374852.7,2018,6,1.9842382745430778,False,未知,未知,未知,未知,未知,未知,未知,未知
14,603232,11467258.959999995,11239202.7,2018-09-30,三季度报告,-1390125.21,2018,9,1.5281243688411168,False,未知,未知,未知,未知,未知,未知,未知,未知
15,603232,71926180.98,71799948.76,2018-12-31,年度报告,56863292.57,2018,12,-0.61706863670582,True,0.3378989286466219,True,0.0,True,比例外推,71799948.76,未知,71799948.76
16,603232,-1929527.72,-1842141.83,2019-03-31,一季度报告,-5249099.19,2019,3,15.250821291428581,False,-4.827545608493498,True,0.1151830378525012,False,盈利变化,66298094.32000001,96000000.0,96000000.0
17,603232,7624033.79,7692786.209999999,2019-06-30,半年度报告,-1141867.9300000002,2019,6,1.7534651900177392,False,0.622037520471569,True,0.11200427320613839,False,前期平均,60157708.495000005,,60157708.495000005
18,603232,-5638914.32,-5509297.699999998,2019-09-30,三季度报告,-22975543.36,2019,9,1.3358537365759477,False,0.6669021252658783,True,0.12602259557524706,False,盈利变化,62206429.58222223,81210000.0,81210000.0
19,603232,69922867.55,70075220.16999999,2019-12-31,年度报告,49714456.07000001,2019,12,-0.6275926328210287,True,0.13653680189789494,True,0.0,True,比例外推,70075220.16999999,79210000.0,79210000.0
20,603232,-27139580.49,-27135809.24,2020-03-31,一季度报告,-29721317.9,2020,3,-14.882070421875051,False,1.6545580348810236,True,0.07610026279353736,True,前期平均,31839030.66,106531667.0,106531667.0
