,SECURITYCODE_x,NETPROFIT_x,PARENTNETPROFIT_x,REPORTDATE_x,REPORTTIMETYPE_x,KCFJCXSYJLR,Year,Month,managesituationChangeRate,managesituationGreatChange,historyprofitextroplaterate,ifhistoryprofitextroplate,IfprofitdisStableChangeRage,IfprofitdisStable,predicttype,predict,analyst_prediction,adj_prediction
0,603288,1606418791.6699994,1606418791.6699994,2013-12-31,年度报告,1546198540.36,2013,12,未知,未知,未知,未知,未知,未知,未知,未知,未知,未知
1,603288,634250836.51,634250836.51,2014-03-31,一季度报告,582301576.18,2014,3,未知,未知,未知,未知,未知,未知,未知,未知,未知,未知
2,603288,1095412034.39,1095453486.99,2014-06-30,半年度报告,1030256136.91,2014,6,未知,未知,未知,未知,未知,未知,未知,未知,未知,未知
3,603288,1532535838.65,1532800251.9199998,2014-09-30,三季度报告,1465876051.5800002,2014,9,未知,未知,未知,未知,未知,未知,未知,未知,未知,未知
4,603288,2089906049.53,2090275690.29,2014-12-31,年度报告,2007951742.2300005,2014,12,0.0,True,未知,未知,未知,未知,未知,未知,未知,未知
5,603288,733595720.0000001,733595720.0000001,2015-03-31,一季度报告,730794529.9300001,2015,3,1.5327815104027405,False,未知,未知,未知,未知,未知,未知,2557355273.0,未知
6,603288,1335207840.62,1335207840.62,2015-06-30,半年度报告,1305835127.46,2015,6,0.46649730077555934,True,未知,未知,未知,未知,未知,未知,2544134880.0,未知
7,603288,1841171295.92,1841171295.92,2015-09-30,三季度报告,1807426719.13,2015,9,0.048209608647770505,True,未知,未知,未知,未知,未知,未知,2532662778.0,未知
8,603288,2509632367.33,2509632367.33,2015-12-31,年度报告,2439404808.55,2015,12,-0.2313440156645952,True,未知,未知,未知,未知,未知,未知,2533995882.0,未知
9,603288,809763217.9699999,809763217.9699999,2016-03-31,一季度报告,796554852.9699997,2016,3,1.1897875735561805,False,未知,未知,未知,未知,未知,未知,2982081115.0,未知
10,603288,1485925576.1999998,1485925576.1999998,2016-06-30,半年度报告,1453525526.39,2016,6,0.20312264712590622,True,未知,未知,未知,未知,未知,未知,2930266190.0,未知
11,603288,2039461941.81,2039461941.81,2016-09-30,三季度报告,1990542834.65,2016,9,-0.12750171848225514,True,未知,未知,未知,未知,未知,未知,2845400000.0,未知
12,603288,2843133968.17,2843133968.17,2016-12-31,年度报告,2768077430.0199995,2016,12,-0.35989875944297384,True,0.3579068264548179,True,0.0,True,比例外推,2843133968.17,2848640833.0,2843133968.17
13,603288,975710732.9,976954484.75,2017-03-31,一季度报告,945594798.73,2017,3,0.9838129912805127,False,0.1839971583304999,True,0.007131870480842406,True,前期平均,2544084707.085,3372510000.0,3372510000.0
14,603288,1821954244.9,1823187856.0700004,2017-06-30,半年度报告,1741772377.5500007,2017,6,0.0810896705729639,True,0.22267211872764459,True,0.011411877104206436,True,比例外推,3402240008.215727,3464126190.0,3402240008.215727
15,603288,2538328659.25,2538935185.7,2017-09-30,三季度报告,2419302194.7299995,2017,9,-0.2123320574227924,True,0.209033185430864,True,0.010917209332174105,True,比例外推,3433637358.42552,3506755263.0000005,3433637358.42552
16,603288,3531478779.3299994,3531436928.160001,2017-12-31,年度报告,3383734780.3500004,2017,12,-0.43498308217112247,True,0.2362692559532715,True,0.0,True,比例外推,3531436928.160001,3226706667.0,3531436928.160001
17,603288,1203265211.4199998,1202770758.61,2018-03-31,一季度报告,1149964028.55,2018,3,0.6464088561324048,False,0.26439897925930944,True,0.010646805522439073,True,前期平均,3042837186.4449997,4303620976.0,4303620976.0
18,603288,2248834397.35,2248017782.44,2018-06-30,半年度报告,2150749511.35,2018,6,-0.1182990483066882,True,0.2916469912675871,True,0.010304946245175084,True,比例外推,4193517056.875319,4291986346.0,4193517056.875319
19,603288,3132574344.43,3131234430.2099986,2018-09-30,三季度报告,2938805974.96,2018,9,-0.36713522663190196,True,0.3082033285551153,True,0.01592409947174156,True,比例外推,4245924353.0301275,4309817692.0,4245924353.0301275
20,603288,4366673677.360001,4364813027.88,2018-12-31,年度报告,4124089122.69,2018,12,-0.5451144146547093,True,0.31949670805128666,True,0.0,True,比例外推,4364813027.88,4305386400.0,4364813027.88
21,603288,1477644518.32,1477138223.7199998,2019-03-31,一季度报告,1396705726.35,2019,3,0.33504964360619144,True,0.347838439013563,True,0.0057451979164544476,True,比例外推,5032947935.523028,5260192553.0,5032947935.523028
22,603288,2751461961.6199994,2750172033.75,2019-06-30,半年度报告,2600091553.250001,2019,6,-0.28566603500774246,True,0.3596832527018313,True,0.005704969767846513,True,比例外推,5145899974.928675,5264023611.0,5145899974.928675
23,603288,3837293135.3000026,3835135930.120001,2019-09-30,三季度报告,3637779592.960001,2019,9,-0.48718893311299794,True,0.368596608025122,True,0.003546080853981559,True,比例外推,5281174321.466343,5263640000.0,5281174321.466343
24,603288,5356242594.52,5353185029.35,2019-12-31,年度报告,5083877209.2300005,2019,12,-0.6321184246034143,True,0.37002006249635344,True,0.0,True,比例外推,5353185029.35,5263640000.0,5353185029.35
25,603288,1614152619.3900006,1612628919.4199998,2020-03-31,一季度报告,1571913391.5900002,2020,3,0.08714834437744787,True,0.35627428303815756,True,0.002942981555393853,True,比例外推,5701690765.592835,6301510500.0,5701690765.592835
