,SECURITYCODE_x,NETPROFIT_x,PARENTNETPROFIT_x,REPORTDATE_x,REPORTTIMETYPE_x,KCFJCXSYJLR,Year,Month,managesituationChangeRate,managesituationGreatChange,historyprofitextroplaterate,ifhistoryprofitextroplate,IfprofitdisStableChangeRage,IfprofitdisStable,predicttype,predict,analyst_prediction,adj_prediction
0,603380,11681790.1,11681790.1,2012-12-31,年度报告,10858490.1,2012,12,未知,未知,未知,未知,未知,未知,未知,未知,未知,未知
1,603380,34003229.63,34003229.63,2013-12-31,年度报告,31710229.63,2013,12,0.0,True,未知,未知,未知,未知,未知,未知,未知,未知
2,603380,68573303.55999999,68573303.55999999,2014-12-31,年度报告,64464018.14,2014,12,-0.6564505716923572,True,未知,未知,未知,未知,未知,未知,未知,未知
3,603380,36639490.23,36883761.78,2015-09-30,三季度报告,35716161.78,2015,9,未知,未知,未知,未知,未知,未知,未知,未知,未知,未知
4,603380,64870210.60000001,65267699.17,2015-12-31,年度报告,62226970.23,2015,12,-0.829645219151813,True,2.0020038938483777,False,0.0,True,比例外推,65267699.17,未知,65267699.17
5,603380,32441518.49,32602428.58,2016-06-30,半年度报告,32130972.19,2016,6,未知,未知,未知,未知,未知,未知,未知,未知,未知,未知
6,603380,57589574.21,57718614.49,2016-09-30,三季度报告,53782659.06,2016,9,-0.6811694151127932,True,未知,未知,未知,未知,未知,未知,未知,未知
7,603380,80918256.01,80996347.35000001,2016-12-31,年度报告,74327506.12,2016,12,-0.8199205769188608,True,0.26481581279107,True,0.0,True,比例外推,80996347.35000001,未知,80996347.35000001
8,603380,14293295.539999995,14280565.75,2017-03-31,一季度报告,13239699.840000002,2017,3,未知,未知,未知,未知,未知,未知,未知,未知,未知,未知
9,603380,38419388.7,38480773.81,2017-06-30,半年度报告,37042049.74,2017,6,-0.6399123517106367,True,未知,未知,未知,未知,未知,未知,未知,未知
10,603380,68358467.9,68251091.17,2017-09-30,三季度报告,65978072.7,2017,9,-0.7971544283796502,True,未知,未知,未知,未知,未知,未知,未知,未知
11,603380,95658055.55000004,95587777.79,2017-12-31,年度报告,92851354.47,2017,12,-0.855634677809216,True,0.21277165877059076,True,0.0,True,比例外推,95587777.79,未知,95587777.79
12,603380,21432523.95,21525406.270000003,2018-03-31,一季度报告,21296658.26,2018,3,-0.18270841967072324,True,未知,未知,未知,未知,未知,未知,未知,未知
13,603380,51824305.18,51749382.88999999,2018-06-30,半年度报告,46605705.55,2018,6,-0.6959402401943995,True,未知,未知,未知,未知,未知,未知,未知,未知
14,603380,73002253.36999999,73082710.11999999,2018-09-30,三季度报告,67933381.81,2018,9,-0.8291098314682971,True,0.4508998535908632,True,0.09541191654530234,True,比例外推,106636673.05280201,未知,106636673.05280201
15,603380,101985910.35,101569099.46999998,2018-12-31,年度报告,92503624.45,2018,12,-0.8778797035666904,True,0.3122856392460143,True,0.0,True,比例外推,101569099.46999998,未知,101569099.46999998
16,603380,15357278.5,15025623.969999995,2019-03-31,一季度报告,15096988.86,2019,3,-0.454950330289961,True,未知,未知,未知,未知,未知,未知,未知,未知
17,603380,50170199.34,49684895.79,2019-06-30,半年度报告,49012565.70999999,2019,6,-0.7745885823374583,True,0.4627051003183749,True,0.05880769259259028,True,比例外推,110808464.49294311,未知,110808464.49294311
18,603380,79755927.09000002,79174214.49,2019-09-30,三季度报告,73751384.89999999,2019,9,-0.8399804175798142,True,0.15924395722232132,True,0.012273882070562903,True,比例外推,107451266.43184341,未知,107451266.43184341
19,603380,127723871.4,127162144.37,2019-12-31,年度报告,108688403.54,2019,12,-0.8854568237915426,True,0.1551482693118268,True,0.0,True,比例外推,127162144.37,未知,127162144.37
20,603380,16286115.3,16597251.56,2020-03-31,一季度报告,15534112.470000004,2020,3,-0.23933201445816069,True,0.1402700501076734,True,0.05965280426697184,True,比例外推,92133675.27927518,140000000.0,140000000.0
