,SECURITYCODE_x,NETPROFIT_x,PARENTNETPROFIT_x,REPORTDATE_x,REPORTTIMETYPE_x,KCFJCXSYJLR,Year,Month,managesituationChangeRate,managesituationGreatChange,historyprofitextroplaterate,ifhistoryprofitextroplate,IfprofitdisStableChangeRage,IfprofitdisStable,predicttype,predict,analyst_prediction,adj_prediction
0,603331,21533288.220000006,23179586.05,2012-12-31,年度报告,21385114.31,2012,12,未知,未知,未知,未知,未知,未知,未知,未知,未知,未知
1,603331,34054993.120000005,35758426.480000004,2013-12-31,年度报告,32899064.389999993,2013,12,0.0,True,未知,未知,未知,未知,未知,未知,未知,未知
2,603331,41200299.34,42154631.84,2014-12-31,年度报告,42436215.41,2014,12,-0.36769071882872245,True,未知,未知,未知,未知,未知,未知,未知,未知
3,603331,34440224.15,35669268.67,2015-12-31,年度报告,34495078.32,2015,12,-0.4773511706238005,True,0.48233758435532864,True,0.0,True,比例外推,35669268.67,未知,35669268.67
4,603331,12694879.750000002,13007003.7,2016-03-31,一季度报告,12416700.0,2016,3,未知,未知,未知,未知,未知,未知,未知,未知,未知,未知
5,603331,25960492.87,26753918.52,2016-06-30,半年度报告,25677724.0,2016,6,未知,未知,未知,未知,未知,未知,未知,未知,未知,未知
6,603331,39534274.92,40846011.98,2016-09-30,三季度报告,39120488.34,2016,9,未知,未知,未知,未知,未知,未知,未知,未知,未知,未知
7,603331,53490856.25000001,55564693.90000001,2016-12-31,年度报告,53316136.47999998,2016,12,-0.3747634125081614,True,0.08470957924173099,True,0.0,True,比例外推,55564693.90000001,未知,55564693.90000001
8,603331,19200353.82,19472472.26,2017-03-31,一季度报告,18957889.87,2017,3,0.6962183686694632,False,未知,未知,未知,未知,未知,未知,未知,未知
9,603331,35460806.08000001,35940894.92999999,2017-06-30,半年度报告,35603460.76,2017,6,-0.17053623258116496,True,未知,未知,未知,未知,未知,未知,未知,未知
10,603331,50652606.68000002,51020812.57000002,2017-09-30,三季度报告,50317552.56000001,2017,9,-0.45532608695685156,True,未知,未知,未知,未知,未知,未知,未知,未知
11,603331,62338605.76999999,62901301.49,2017-12-31,年度报告,62013495.92,2017,12,-0.5974398293540122,True,0.41434389351024836,True,0.0,True,比例外推,62901301.49,未知,62901301.49
12,603331,19551292.970000006,19266750.68,2018-03-31,一季度报告,16337880.1,2018,3,0.12150476089507845,True,未知,未知,未知,未知,未知,未知,未知,未知
13,603331,40850210.02000001,40398284.49999999,2018-06-30,半年度报告,36034010.79000001,2018,6,-0.39275807291518855,True,未知,未知,未知,未知,未知,未知,未知,未知
14,603331,58337134.66,57885209.13999999,2018-09-30,三季度报告,54421450.3,2018,9,-0.5748829205170533,True,未知,未知,未知,未知,未知,未知,未知,未知
15,603331,70803338.09,70474425.9,2018-12-31,年度报告,64703473.79000002,2018,12,-0.6545753958718988,True,0.41789695944643446,True,0.0,True,比例外推,70474425.9,未知,70474425.9
16,603331,23979282.20000001,24045569.08,2019-03-31,一季度报告,18938681.25,2019,3,0.10137412666472868,True,0.22596957486397276,True,0.04200653913770147,True,比例外推,76926110.9453101,未知,76926110.9453101
17,603331,45881647.45,45982723.57,2019-06-30,半年度报告,39448217.08000001,2019,6,-0.47287203151569007,True,0.3301643149310179,True,0.05593638275815732,True,比例外推,79919848.33448136,未知,79919848.33448136
18,603331,62717195.98,62741324.20999999,2019-09-30,三季度报告,54034253.45,2019,9,-0.6308819700264653,True,0.29369446254365184,True,0.06166513332107315,True,比例外推,76639575.64376938,未知,76639575.64376938
19,603331,74029285.69000001,74715765.36,2019-12-31,年度报告,65325988.16000001,2019,12,-0.6958718501007894,True,0.22254453841414823,True,0.0,True,比例外推,74715765.36,未知,74715765.36
20,603331,10539591.53,10861290.97,2020-03-31,一季度报告,10410029.049999997,2020,3,-0.10200447034231921,True,0.23758777684709623,True,0.030202806939198468,True,比例外推,37273977.61471182,未知,37273977.61471182
