,SECURITYCODE_x,NETPROFIT_x,PARENTNETPROFIT_x,REPORTDATE_x,REPORTTIMETYPE_x,KCFJCXSYJLR,Year,Month,managesituationChangeRate,managesituationGreatChange,historyprofitextroplaterate,ifhistoryprofitextroplate,IfprofitdisStableChangeRage,IfprofitdisStable,predicttype,predict,analyst_prediction,adj_prediction
0,603356,33539000.000000004,33545200.0,2013-12-31,年度报告,28859800.000000004,2013,12,未知,未知,未知,未知,未知,未知,未知,未知,未知,未知
1,603356,55702924.73,55178320.0,2014-12-31,年度报告,53625137.3,2014,12,0.0,True,未知,未知,未知,未知,未知,未知,未知,未知
2,603356,50560205.06,51185327.99,2015-12-31,年度报告,47114980.58000001,2015,12,-0.39789517044987655,True,未知,未知,未知,未知,未知,未知,未知,未知
3,603356,37135600.00000001,37673300.0,2016-06-30,半年度报告,33870000.0,2016,6,未知,未知,未知,未知,未知,未知,未知,未知,未知,未知
4,603356,61971561.40000001,63914501.38,2016-12-31,年度报告,59245410.10000001,2016,12,-0.33665221570602544,True,0.13310431645146792,True,0.0,True,比例外推,63914501.38,未知,63914501.38
5,603356,7725453.989999997,7944845.790000003,2017-03-31,一季度报告,7274253.99,2017,3,未知,未知,未知,未知,未知,未知,未知,未知,未知,未知
6,603356,31476747.07,31810291.15000001,2017-06-30,半年度报告,25410896.35,2017,6,-0.09685046155171864,True,未知,未知,未知,未知,未知,未知,未知,未知
7,603356,48221679.0,48656056.82,2017-09-30,三季度报告,42189392.22,2017,9,未知,未知,未知,未知,未知,未知,未知,未知,未知,未知
8,603356,58961440.67,59681047.85,2017-12-31,年度报告,52524231.04,2017,12,-0.4588001457068339,True,0.16637937396479574,True,0.0,True,比例外推,59681047.85,未知,59681047.85
9,603356,11713130.95,11335856.18,2018-03-31,一季度报告,7819702.52,2018,3,3.341362985711085,False,未知,未知,未知,未知,未知,未知,未知,未知
10,603356,32074237.95,31329528.55,2018-06-30,半年度报告,25169738.739999995,2018,6,0.06551671065036783,True,未知,未知,未知,未知,未知,未知,未知,未知
11,603356,50504987.56,49793377.01000001,2018-09-30,三季度报告,42772817.66,2018,9,-0.3044829484265779,True,未知,未知,未知,未知,未知,未知,未知,未知
12,603356,61202818.87000001,61079967.27999999,2018-12-31,年度报告,52544225.72000001,2018,12,-0.43117061559411857,True,0.04790749358685571,True,0.0,True,比例外推,61079967.27999999,未知,61079967.27999999
13,603356,12310046.390000002,12433122.87,2019-03-31,一季度报告,12380607.16,2019,3,1.8633676293015409,False,未知,未知,未知,未知,未知,未知,未知,未知
14,603356,40796191.23,41157893.89,2019-06-30,半年度报告,36010207.03,2019,6,0.04566786753541574,True,0.06505929851730415,True,0.06018862018683846,True,比例外推,75548703.45890334,未知,75548703.45890334
15,603356,62489023.22999999,62766924.03,2019-09-30,三季度报告,56015112.31,2019,9,-0.3359269723578167,True,未知,未知,未知,未知,未知,未知,未知,未知
16,603356,67863103.78,69021258.31,2019-12-31,年度报告,66022714.56000001,2019,12,-0.4520023649361692,True,0.012177285313297618,True,0.0,True,比例外推,69021258.31,未知,69021258.31
17,603356,5961339.1800000025,3208390.92,2020-03-31,一季度报告,-4133963.35,2020,3,1.7245226327697043,False,0.2665578721904645,True,0.029242064456105943,True,前期平均,48195641.04500001,未知,48195641.04500001
