,SECURITYCODE_x,NETPROFIT_x,PARENTNETPROFIT_x,REPORTDATE_x,REPORTTIMETYPE_x,KCFJCXSYJLR,Year,Month,managesituationChangeRate,managesituationGreatChange,historyprofitextroplaterate,ifhistoryprofitextroplate,IfprofitdisStableChangeRage,IfprofitdisStable,predicttype,predict,analyst_prediction,adj_prediction
0,603326,23733549.95000001,23733549.95000001,2012-12-31,年度报告,23242049.95000001,2012,12,未知,未知,未知,未知,未知,未知,未知,未知,未知,未知
1,603326,40209026.86,40209026.86,2013-12-31,年度报告,40438326.86000001,2013,12,0.0,True,未知,未知,未知,未知,未知,未知,未知,未知
2,603326,37425402.6,37425402.6,2014-12-31,年度报告,50029366.76,2014,12,-0.4097457261864205,True,未知,未知,未知,未知,未知,未知,未知,未知
3,603326,7104427.740000001,7104427.740000001,2015-06-30,半年度报告,7078827.740000001,2015,6,未知,未知,未知,未知,未知,未知,未知,未知,未知,未知
4,603326,56453331.12,56453331.12,2015-12-31,年度报告,54599037.55,2015,12,-0.3658438306285579,True,0.17059413201962248,True,0.0,True,比例外推,56453331.12,未知,56453331.12
5,603326,-6299874.83,-6299874.83,2016-03-31,一季度报告,-6668400.000000001,2016,3,未知,未知,未知,未知,未知,未知,未知,未知,未知,未知
6,603326,690799.15,690799.15,2016-06-30,半年度报告,616373.3099999999,2016,6,2.340670187462559,False,未知,未知,未知,未知,未知,未知,未知,未知
7,603326,26894113.16,26894113.16,2016-09-30,三季度报告,26467728.36,2016,9,未知,未知,未知,未知,未知,未知,未知,未知,未知,未知
8,603326,68666430.94000001,68740984.79000002,2016-12-31,年度报告,68911727.88,2016,12,-0.5795899111860946,True,0.4543375023857615,True,0.0,True,比例外推,68740984.79000002,未知,68740984.79000002
9,603326,-1851184.57,-1756928.14,2017-03-31,一季度报告,-2071819.18,2017,3,-4.7673050005661795,False,未知,未知,未知,未知,未知,未知,90000000.0,未知
10,603326,12300639.04,12394895.47,2017-06-30,半年度报告,12538450.950000005,2017,6,33.35665772026502,False,未知,未知,未知,未知,未知,未知,96697500.0,未知
11,603326,40367340.71000001,40461597.13999999,2017-09-30,三季度报告,41209472.42999999,2017,9,-0.11751877413458424,True,未知,未知,未知,未知,未知,未知,95650000.0,未知
12,603326,83671287.44,83765543.87,2017-12-31,年度报告,77427249.32999998,2017,12,-0.654364590891026,True,0.46287509895057866,True,0.0,True,比例外推,83765543.87,95237500.0,95237500.0
13,603326,-3890082.060000002,-3890082.060000002,2018-03-31,一季度报告,-5423329.08,2018,3,-13.82073669725975,False,未知,未知,未知,未知,未知,未知,115282500.0,未知
14,603326,19900619.82,19900619.82,2018-06-30,半年度报告,16506332.559999995,2018,6,0.929456662602792,False,2.155941248042364,False,0.09123361510888839,True,去年同期,84789418.19999999,111250000.0,111250000.0
15,603326,66882303.08999999,66882303.08999999,2018-09-30,三季度报告,61203659.24,2018,9,-0.41206060313701537,True,未知,未知,未知,未知,未知,未知,115500000.0,未知
16,603326,101831164.79999998,101831164.79999998,2018-12-31,年度报告,91273762.28,2018,12,-0.7163477379618528,True,0.3374591841035666,True,0.0,True,比例外推,101831164.79999998,115186000.0,115186000.0
17,603326,631109.89,631109.89,2019-03-31,一季度报告,-5841070.8500000015,2019,3,-7.101040950791665,False,-0.04550270851909097,True,0.03578600231360917,True,盈利变化,101274175.77333331,130860000.0,130860000.0
18,603326,45624207.83,45624207.83,2019-06-30,半年度报告,33527871.38000001,2019,6,0.1926035552997168,True,2.063651541723573,False,0.1082979741887116,False,未知,未知,132485000.0,未知
19,603326,98346899.58,98346899.58,2019-09-30,三季度报告,82755452.36,2019,9,-0.6451445471597618,True,0.9887260605239719,True,0.14487397141722846,False,平均增速,135984661.64909092,125000000.0,135984661.64909092
20,603326,154007311.45000002,154007311.45000002,2019-12-31,年度报告,132732709.06,2019,12,-0.7669323532082388,True,0.33691335124222416,True,0.0,True,比例外推,154007311.45000002,136910000.0,136910000.0
21,603326,2085742.5900000003,2085742.5900000003,2020-03-31,一季度报告,-5927445.72,2020,3,36.60604979586045,False,-1.2198504025931296,True,0.016635999184087646,True,前期平均,90183822.525,190685000.0,190685000.0
