,SECURITYCODE_x,NETPROFIT_x,PARENTNETPROFIT_x,REPORTDATE_x,REPORTTIMETYPE_x,KCFJCXSYJLR,Year,Month,managesituationChangeRate,managesituationGreatChange,historyprofitextroplaterate,ifhistoryprofitextroplate,IfprofitdisStableChangeRage,IfprofitdisStable,predicttype,predict,analyst_prediction,adj_prediction
0,603320,32958202.26,32958202.26,2014-12-31,年度报告,30677417.710000005,2014,12,未知,未知,未知,未知,未知,未知,未知,未知,未知,未知
1,603320,26302921.53999999,26302921.53999999,2015-12-31,年度报告,24835940.54000001,2015,12,0.0,True,未知,未知,未知,未知,未知,未知,未知,未知
2,603320,22054903.0,22054903.0,2016-06-30,半年度报告,19868333.7,2016,6,未知,未知,未知,未知,未知,未知,未知,未知,未知,未知
3,603320,30479562.06000001,30479562.06000001,2016-09-30,三季度报告,28070993.05,2016,9,未知,未知,未知,未知,未知,未知,未知,未知,未知,未知
4,603320,45889212.64,45889212.64,2016-12-31,年度报告,43223163.8,2016,12,0.2530243916014819,True,未知,未知,未知,未知,未知,未知,未知,未知
5,603320,15055040.86,15055040.86,2017-03-31,一季度报告,14445001.13,2017,3,未知,未知,未知,未知,未知,未知,未知,未知,52000000.0,未知
6,603320,30568023.08999999,30568023.08999999,2017-06-30,半年度报告,24998445.86,2017,6,0.49437076463224533,True,未知,未知,未知,未知,未知,未知,,未知
7,603320,41468325.7,41468325.7,2017-09-30,三季度报告,35608714.47000001,2017,9,0.08132138497005659,True,未知,未知,未知,未知,未知,未知,68000000.0,未知
8,603320,51525181.18999999,51525181.18999999,2017-12-31,年度报告,43887849.57,2017,12,-0.28178758440340934,True,0.5487121977258218,True,0.0,True,比例外推,51525181.18999999,未知,51525181.18999999
9,603320,10061627.44,10061627.44,2018-03-31,一季度报告,8886534.540000001,2018,3,1.1891805254124035,False,未知,未知,未知,未知,未知,未知,未知,未知
10,603320,23425431.26,23425431.26,2018-06-30,半年度报告,21339288.419999994,2018,6,0.07819214094947263,True,未知,未知,未知,未知,未知,未知,未知,未知
11,603320,35858222.17999999,35858222.17999999,2018-09-30,三季度报告,29579283.05,2018,9,-0.2052198466262167,True,未知,未知,未知,未知,未知,未知,未知,未知
12,603320,42832828.66,42832828.66,2018-12-31,年度报告,34540559.41,2018,12,-0.3603476688715356,True,0.4274458505833854,True,0.0,True,比例外推,42832828.66,,42832828.66
13,603320,11717850.81,11717850.81,2019-03-31,一季度报告,10305794.2,2019,3,2.275633336310453,False,未知,未知,未知,未知,未知,未知,未知,未知
14,603320,22066435.710000005,22066435.710000005,2019-06-30,半年度报告,20362008.27,2019,6,0.40694111003529926,True,0.10968724088295917,True,0.08935493403882194,True,比例外推,38792101.92965826,未知,38792101.92965826
15,603320,33893013.279999994,33893809.97,2019-09-30,三季度报告,31257244.31,2019,9,-0.08087461518428216,True,0.003216819940177709,True,0.12294473788579319,False,平均增速,38750715.82489928,未知,38750715.82489928
16,603320,41003882.95999999,41021500.26,2019-12-31,年度报告,37568007.53,2019,12,-0.2305387411693766,True,0.12060575494113293,True,0.0,True,比例外推,41021500.26,未知,41021500.26
17,603320,14210837.86,14240959.809999995,2020-03-31,一季度报告,3755011.1200000006,2020,3,1.8126490765587757,False,0.06692633990790874,True,0.04222229167582098,True,前期平均,41789396.46499999,未知,41789396.46499999
