,SECURITYCODE_x,NETPROFIT_x,PARENTNETPROFIT_x,REPORTDATE_x,REPORTTIMETYPE_x,KCFJCXSYJLR,Year,Month,managesituationChangeRate,managesituationGreatChange,historyprofitextroplaterate,ifhistoryprofitextroplate,IfprofitdisStableChangeRage,IfprofitdisStable,predicttype,predict,analyst_prediction,adj_prediction
0,603329,58822158.86,34544930.940000005,2012-12-31,年度报告,26040130.940000005,2012,12,未知,未知,未知,未知,未知,未知,未知,未知,未知,未知
1,603329,70193723.07000002,56757342.51000001,2013-12-31,年度报告,57139842.51000001,2013,12,0.0,True,未知,未知,未知,未知,未知,未知,未知,未知
2,603329,81512155.78999999,66847945.33,2014-12-31,年度报告,62785506.14999999,2014,12,-0.16200257961327738,True,未知,未知,未知,未知,未知,未知,未知,未知
3,603329,47345665.65,40480849.49000001,2015-06-30,半年度报告,38789149.49,2015,6,未知,未知,未知,未知,未知,未知,未知,未知,未知,未知
4,603329,86781081.42,75683350.98,2015-12-31,年度报告,70914246.67,2015,12,-0.2783633521907616,True,0.2635987844384296,True,0.0,True,比例外推,75683350.98,未知,75683350.98
5,603329,64530904.07,64846528.96999998,2016-12-31,年度报告,60515964.29999999,2016,12,-0.3221776233080733,True,0.14407011873396022,True,0.0,True,比例外推,64846528.96999998,未知,64846528.96999998
6,603329,17168838.990000002,16217228.180000005,2017-03-31,一季度报告,16504218.680000005,2017,3,未知,未知,未知,未知,未知,未知,未知,未知,未知,未知
7,603329,36730017.76,35659214.92,2017-06-30,半年度报告,34713175.66,2017,6,未知,未知,未知,未知,未知,未知,未知,未知,未知,未知
8,603329,53148842.55000002,51189410.03,2017-09-30,三季度报告,49249508.61000001,2017,9,未知,未知,未知,未知,未知,未知,未知,未知,未知,未知
9,603329,81495609.05,77836963.02,2017-12-31,年度报告,75245346.58000001,2017,12,-0.0884652910457822,True,0.2331135209018895,True,0.0,True,比例外推,77836963.02,未知,77836963.02
10,603329,15752036.35,15413123.83,2018-03-31,一季度报告,15402724.449999996,2018,3,2.4260999764900233,False,未知,未知,未知,未知,未知,未知,未知,未知
11,603329,38895808.65,37804858.08,2018-06-30,半年度报告,34295235.260000005,2018,6,0.6014737385740921,False,未知,未知,未知,未知,未知,未知,89190000.0,未知
12,603329,46884914.47000001,46959249.48,2018-09-30,三季度报告,41201210.92,2018,9,0.10674392964743835,True,未知,未知,未知,未知,未知,未知,,未知
13,603329,42957816.26000001,44988785.85,2018-12-31,年度报告,38476567.68,2018,12,-0.2782168322233061,True,0.07718643418879628,True,0.0,True,比例外推,44988785.85,未知,44988785.85
14,603329,7397471.939999999,7189945.509999999,2019-03-31,一季度报告,5115867.569999998,2019,3,2.7342574352299533,False,未知,未知,未知,未知,未知,未知,未知,未知
15,603329,15947832.97,17756081.3,2019-06-30,半年度报告,11531486.739999998,2019,6,0.5123007054386052,False,未知,未知,未知,未知,未知,未知,未知,未知
16,603329,-19959725.74,-17564622.78,2019-09-30,三季度报告,-25432125.94,2019,9,0.2546073619828869,True,未知,未知,未知,未知,未知,未知,未知,未知
17,603329,-107863019.91,-98807436.93,2019-12-31,年度报告,-106563530.07,2019,12,0.369300490136227,True,0.41164360714826315,True,0.0,True,比例外推,-98807436.93,未知,-98807436.93
18,603329,9009550.4,9348107.45,2020-03-31,一季度报告,8967678.2,2020,3,6.951656908887175,False,0.5505908112344866,True,0.23855616422128303,False,前期平均,50255593.015,未知,50255593.015
