,SECURITYCODE_x,NETPROFIT_x,PARENTNETPROFIT_x,REPORTDATE_x,REPORTTIMETYPE_x,KCFJCXSYJLR,Year,Month,managesituationChangeRate,managesituationGreatChange,historyprofitextroplaterate,ifhistoryprofitextroplate,IfprofitdisStableChangeRage,IfprofitdisStable,predicttype,predict,analyst_prediction,adj_prediction
0,603316,35098208.49999999,35098208.49999999,2012-12-31,年度报告,33680008.5,2012,12,未知,未知,未知,未知,未知,未知,未知,未知,未知,未知
1,603316,47104178.33000001,47104178.33000001,2013-12-31,年度报告,46096978.33000001,2013,12,0.0,True,未知,未知,未知,未知,未知,未知,未知,未知
2,603316,38687788.49999999,38687788.49999999,2014-12-31,年度报告,38374424.17,2014,12,-0.25488120705320916,True,未知,未知,未知,未知,未知,未知,未知,未知
3,603316,31468003.22,31468003.22,2015-12-31,年度报告,31380837.219999995,2015,12,-0.09278328224938473,True,0.05871860922946424,True,0.0,True,比例外推,31468003.22,未知,31468003.22
4,603316,8370274.25,8370274.25,2016-03-31,一季度报告,8370274.25,2016,3,未知,未知,未知,未知,未知,未知,未知,未知,未知,未知
5,603316,26440527.88,26440527.88,2016-06-30,半年度报告,26913846.09,2016,6,未知,未知,未知,未知,未知,未知,未知,未知,未知,未知
6,603316,38949612.49,38949612.49,2016-09-30,三季度报告,38785430.7,2016,9,未知,未知,未知,未知,未知,未知,未知,未知,未知,未知
7,603316,60682827.34,60682827.34,2016-12-31,年度报告,60324459.40000001,2016,12,0.1153617932037314,True,0.266411427952106,True,0.0,True,比例外推,60682827.34,未知,60682827.34
8,603316,15829904.87,15829904.87,2017-03-31,一季度报告,15829904.87,2017,3,3.193196955284947,False,未知,未知,未知,未知,未知,未知,未知,未知
9,603316,33531710.719999995,33531710.719999995,2017-06-30,半年度报告,33542517.99,2017,6,0.3274397795419504,True,未知,未知,未知,未知,未知,未知,,未知
10,603316,45561514.93,45561514.93,2017-09-30,三季度报告,44674513.13,2017,9,-0.09888170237865207,True,未知,未知,未知,未知,未知,未知,未知,未知
11,603316,68488018.83000001,68488018.83000001,2017-12-31,年度报告,64658031.24,2017,12,-0.42161217533012874,True,0.7299449083888124,True,0.0,True,比例外推,68488018.83000001,未知,68488018.83000001
12,603316,13783692.39,13783692.39,2018-03-31,一季度报告,12427306.03,2018,3,1.2172090602083319,False,未知,未知,未知,未知,未知,未知,未知,未知
13,603316,34514591.85,34514591.85,2018-06-30,半年度报告,31776869.570000004,2018,6,0.04671690606783326,True,未知,未知,未知,未知,未知,未知,未知,未知
14,603316,42127418.40999999,42127418.40999999,2018-09-30,三季度报告,37375090.05000001,2018,9,-0.2296522941802016,True,未知,未知,未知,未知,未知,未知,未知,未知
15,603316,56103864.72,56103865.72,2018-12-31,年度报告,45400192.79,2018,12,-0.4875277588753112,True,0.4864330232033453,True,0.0,True,比例外推,56103865.72,未知,56103865.72
16,603316,-4546083.21,-4546083.21,2019-03-31,一季度报告,-6513680.929999999,2019,3,1.546357500364965,False,0.13913969988830413,True,0.08034820362573677,True,盈利变化,30849216.44,未知,30849216.44
17,603316,8793330.530000001,8797960.94,2019-06-30,半年度报告,4287635.57,2019,6,0.01690927282398071,True,0.15101895996258524,True,0.14497889226569372,False,平均增速,15758986.034261508,未知,15758986.034261508
18,603316,23021255.299999993,23025885.71,2019-09-30,三季度报告,17220912.29,2019,9,-0.1668559378974772,True,0.0030326254994365548,True,0.1041968285080862,False,平均增速,28433830.899676263,未知,28433830.899676263
19,603316,31528535.16,31533296.47000001,2019-12-31,年度报告,25128034.24,2019,12,-0.37440658187869674,True,0.13132310604883,True,0.0,True,比例外推,31533296.47000001,未知,31533296.47000001
20,603316,-3230608.95,-3230608.95,2020-03-31,一季度报告,-3592967.31,2020,3,-8.720538071717344,False,1.307026746537175,True,0.3456641456195115,False,前期平均,37669897.614999995,未知,37669897.614999995
