,SECURITYCODE_x,NETPROFIT_x,PARENTNETPROFIT_x,REPORTDATE_x,REPORTTIMETYPE_x,KCFJCXSYJLR,Year,Month,managesituationChangeRate,managesituationGreatChange,historyprofitextroplaterate,ifhistoryprofitextroplate,IfprofitdisStableChangeRage,IfprofitdisStable,predicttype,predict,analyst_prediction,adj_prediction
0,603378,66492554.14999999,66492554.14999999,2012-12-31,年度报告,14009792.22,2012,12,未知,未知,未知,未知,未知,未知,未知,未知,未知,未知
1,603378,52242071.84,52242071.84,2013-12-31,年度报告,75206537.45999998,2013,12,0.0,True,未知,未知,未知,未知,未知,未知,未知,未知
2,603378,98682412.33,98682412.33,2014-12-31,年度报告,93773419.06,2014,12,0.27277789352697285,True,未知,未知,未知,未知,未知,未知,未知,未知
3,603378,116534086.23,116534086.23,2015-12-31,年度报告,113795268.01,2015,12,-0.32619650675294765,True,0.6622347778871376,True,0.0,True,比例外推,116534086.23,未知,116534086.23
4,603378,42392411.89,42392411.89,2016-06-30,半年度报告,39677814.33000001,2016,6,未知,未知,未知,未知,未知,未知,未知,未知,未知,未知
5,603378,74265300.22,74265300.22,2016-09-30,三季度报告,71550684.92999999,2016,9,未知,未知,未知,未知,未知,未知,未知,未知,未知,未知
6,603378,122400828.67,122400828.67,2016-12-31,年度报告,109688905.22,2016,12,-0.42941540710444553,True,0.5442701278175254,True,0.0,True,比例外推,122400828.67,未知,122400828.67
7,603378,5149258.61,5149258.61,2017-03-31,一季度报告,2098194.7900000005,2017,3,未知,未知,未知,未知,未知,未知,未知,未知,未知,未知
8,603378,36284428.83,36284428.83,2017-06-30,半年度报告,31802976.120000005,2017,6,0.5685013233626607,False,未知,未知,未知,未知,未知,未知,未知,未知
9,603378,77580557.66999999,77580557.66999999,2017-09-30,三季度报告,72493633.95000002,2017,9,-0.10466188175331405,True,未知,未知,未知,未知,未知,未知,未知,未知
10,603378,113734835.71999998,113734835.71999998,2017-12-31,年度报告,102239404.57,2017,12,-0.4567638563194052,True,0.1374669645587231,True,0.0,True,比例外推,113734835.71999998,129000000.0,129000000.0
11,603378,-17187266.849999998,-17187266.849999998,2018-03-31,一季度报告,-17305785.689999998,2018,3,11.913034513525819,False,未知,未知,未知,未知,未知,未知,,未知
12,603378,19279186.39,19279186.39,2018-06-30,半年度报告,16148107.53,2018,6,0.83253688411443,False,未知,未知,未知,未知,未知,未知,未知,未知
13,603378,51824257.04,51824257.04,2018-09-30,三季度报告,44297431.65000001,2018,9,-0.14292245187466177,True,未知,未知,未知,未知,未知,未知,未知,未知
14,603378,58732137.52,58732137.52,2018-12-31,年度报告,36584593.5,2018,12,-0.4153721352911099,True,0.04798479730264,True,0.0,True,比例外推,58732137.52,161500000.0,161500000.0
15,603378,-10963354.62,-10963354.62,2019-03-31,一季度报告,-13965291.43,2019,3,-4.86871017540523,False,未知,未知,未知,未知,未知,未知,未知,未知
16,603378,35410726.58,35410726.58,2019-06-30,半年度报告,27747659.7,2019,6,2.4489294726923374,False,0.5099145768038155,True,0.06999587940311869,True,前期平均,105634486.24999999,未知,105634486.24999999
17,603378,79763064.33,79763064.33,2019-09-30,三季度报告,66565018.81,2019,9,0.28303921653287617,True,0.31740967109498014,True,0.3534269346561504,False,平均增速,71480855.26531328,121746667.0,121746667.0
18,603378,114182277.96999998,114182277.96999998,2019-12-31,年度报告,80181509.55000003,2019,12,0.13213237177613943,True,0.5025559762713486,True,0.0,True,比例外推,114182277.96999998,未知,114182277.96999998
19,603378,-53327677.67,-53327677.67,2020-03-31,一季度报告,-34413028.72,2020,3,-7.064982521745703,False,-0.8214565734505596,True,0.26414032917795716,False,前期平均,23688116.814999998,200828000.0,200828000.0
