,SECURITYCODE_x,NETPROFIT_x,PARENTNETPROFIT_x,REPORTDATE_x,REPORTTIMETYPE_x,KCFJCXSYJLR,Year,Month,managesituationChangeRate,managesituationGreatChange,historyprofitextroplaterate,ifhistoryprofitextroplate,IfprofitdisStableChangeRage,IfprofitdisStable,predicttype,predict,analyst_prediction,adj_prediction
0,603363,23538997.7,24991364.96,2013-12-31,年度报告,26307939.72,2013,12,未知,未知,未知,未知,未知,未知,未知,未知,未知,未知
1,603363,39220785.45,42745071.83,2014-12-31,年度报告,39423355.55999999,2014,12,0.0,True,未知,未知,未知,未知,未知,未知,未知,未知
2,603363,38689352.19,33776936.24,2015-12-31,年度报告,84515963.80000003,2015,12,-0.3998335976721242,True,未知,未知,未知,未知,未知,未知,未知,未知
3,603363,79315476.92999999,63271757.65,2016-09-30,三季度报告,60771776.95000001,2016,9,未知,未知,未知,未知,未知,未知,未知,未知,未知,未知
4,603363,108349955.85,91375506.76999998,2016-12-31,年度报告,87645713.62999998,2016,12,-0.3915897690816311,True,0.23293454018252113,True,0.0,True,比例外推,91375506.76999998,未知,91375506.76999998
5,603363,28132716.69,23543913.65,2017-03-31,一季度报告,20949148.83,2017,3,未知,未知,未知,未知,未知,未知,未知,未知,未知,未知
6,603363,74582917.15,64215562.62000001,2017-06-30,半年度报告,60639460.32999999,2017,6,未知,未知,未知,未知,未知,未知,未知,未知,未知,未知
7,603363,104445946.42,90460183.49,2017-09-30,三季度报告,85919569.16999999,2017,9,-0.703223146211749,True,未知,未知,未知,未知,未知,未知,125000000.0,未知
8,603363,122076689.77,108118866.97999996,2017-12-31,年度报告,100279805.21999995,2017,12,-0.7827502788041053,True,1.7814084054286623,True,0.0,True,比例外推,108118866.97999996,,108118866.97999996
9,603363,122076689.77,108118866.97999996,2017-12-31,年度报告,100279805.21999995,2017,12,-0.7827502788041053,True,1.7814084054286623,True,0.0,True,比例外推,108118866.97999996,,108118866.97999996
10,603363,122821574.06,108331473.89,2017-12-31,年度报告,100279805.21999995,2017,12,-0.7827502788041053,True,1.7814084054286623,True,0.0,True,比例外推,108331473.89,,108331473.89
11,603363,122821574.06,108331473.89,2017-12-31,年度报告,100279805.21999995,2017,12,-0.7827502788041053,True,1.7814084054286623,True,0.0,True,比例外推,108331473.89,,108331473.89
12,603363,10563744.350000003,14083557.88,2018-03-31,一季度报告,11341267.73,2018,3,-0.16328742938760962,True,未知,未知,未知,未知,未知,未知,未知,未知
13,603363,1155010.23,16850829.71,2018-06-30,半年度报告,9314307.96,2018,6,-0.684391565797048,True,未知,未知,未知,未知,未知,未知,未知,未知
14,603363,16040950.15,31691291.17,2018-09-30,三季度报告,23727093.60999999,2018,9,-0.7746298587276471,True,未知,未知,未知,未知,未知,未知,未知,未知
15,603363,10242485.009999998,30125654.31,2018-12-31,年度报告,27151724.780000005,2018,12,-0.8071786043318432,True,0.6604633332032648,True,0.0,True,比例外推,30125654.31,未知,30125654.31
16,603363,26224500.21,17409628.41,2019-03-31,一季度报告,13061050.46,2019,3,1.2282816509091297,False,未知,未知,未知,未知,未知,未知,335092500.0,未知
17,603363,40900509.57000001,21396247.59,2019-06-30,半年度报告,13754376.35,2019,6,19.379904081022726,False,未知,未知,未知,未知,未知,未知,316500000.0,未知
18,603363,79094115.82000001,40457514.77,2019-09-30,三季度报告,29002038.590000004,2019,9,0.4674316346528886,True,0.8254154777692626,True,0.1146363639295307,False,平均增速,43761893.39695425,,43761893.39695425
19,603363,100356032.88,29155731.15,2019-12-31,年度报告,19220250.09,2019,12,1.2981725310818888,False,0.9110998210954212,True,0.0,True,前期平均,29155731.15,353000000.0,353000000.0
20,603363,251003339.23999992,151061637.17000002,2020-03-31,一季度报告,149242066.02000004,2020,3,-0.10240433520162791,True,0.35539527415140576,True,0.24416199780551906,False,平均增速,187757592.2577176,1201500000.0,1201500000.0
21,603363,575402904.89,350835188.62000006,2020-06-30,半年度报告,319849733.73,2020,6,-0.42448155420377576,True,0.08005357381354848,True,0.21140944799161093,False,平均增速,415725273.25816417,1178333333.0,1178333333.0
