,SECURITYCODE_x,NETPROFIT_x,PARENTNETPROFIT_x,REPORTDATE_x,REPORTTIMETYPE_x,KCFJCXSYJLR,Year,Month,managesituationChangeRate,managesituationGreatChange,historyprofitextroplaterate,ifhistoryprofitextroplate,IfprofitdisStableChangeRage,IfprofitdisStable,predicttype,predict,analyst_prediction,adj_prediction
0,603390,29933047.209999993,29933144.919999994,2014-12-31,年度报告,30233112.789999995,2014,12,未知,未知,未知,未知,未知,未知,未知,未知,未知,未知
1,603390,29933047.209999993,29933144.919999994,2014-12-31,年度报告,30203041.17,2014,12,未知,未知,未知,未知,未知,未知,未知,未知,未知,未知
2,603390,64719828.79999999,64688367.87999999,2015-12-31,年度报告,62858895.08999999,2015,12,0.0,True,未知,未知,未知,未知,未知,未知,未知,未知
3,603390,38565916.91,38546126.3,2016-06-30,半年度报告,36780431.81,2016,6,未知,未知,未知,未知,未知,未知,未知,未知,未知,未知
4,603390,103726236.25,103705617.65,2016-12-31,年度报告,98063984.12000002,2016,12,-0.5374980471209158,True,未知,未知,未知,未知,未知,未知,未知,未知
5,603390,36331909.98,35943607.99,2017-03-31,一季度报告,34873896.83,2017,3,未知,未知,未知,未知,未知,未知,未知,未知,未知,未知
6,603390,55590647.21999999,55196259.36999999,2017-06-30,半年度报告,53029172.36999999,2017,6,-0.2238471269890003,True,未知,未知,未知,未知,未知,未知,未知,未知
7,603390,86714771.44999999,86123720.82000001,2017-09-30,三季度报告,,2017,9,未知,未知,未知,未知,0.0,True,未知,未知,未知,未知
8,603390,141539622.8,140789041.04,2017-12-31,年度报告,129301668.42,2017,12,-0.7114226034592093,True,1.1917186380906464,True,未知,未知,未知,未知,未知,未知
9,603390,30223973.59,30185564.020000003,2018-03-31,一季度报告,29850125.489999995,2018,3,-0.17612238865290736,True,未知,未知,未知,未知,未知,未知,172633800.0,未知
10,603390,54363188.97,54454237.08000001,2018-06-30,半年度报告,49347939.53999999,2018,6,-0.4615452651317414,True,未知,未知,未知,未知,未知,未知,,未知
11,603390,103569539.42999998,103647125.7,2018-09-30,三季度报告,94798025.7,2018,9,-0.6548102853818916,True,未知,未知,0.0,True,未知,未知,未知,未知
12,603390,171342019.48000002,171321493.35999998,2018-12-31,年度报告,154071764.64999998,2018,12,-0.7885182493929891,True,0.6805334426540233,True,0.0,True,比例外推,171321493.35999998,未知,171321493.35999998
13,603390,171342019.48000002,171321493.35999998,2018-12-31,年度报告,154071764.64999998,2018,12,-0.7885182493929891,True,0.6805334426540233,True,未知,未知,True,True,未知,True
14,603390,103569539.42999998,103647125.7,2018-12-31,年度报告,154071764.64999998,2018,12,-0.7885182493929891,True,0.6805334426540233,True,0.0,True,比例外推,103647125.7,未知,103647125.7
15,603390,103569539.42999998,103647125.7,2018-12-31,年度报告,154071764.64999998,2018,12,-0.7885182493929891,True,0.6805334426540233,True,未知,未知,True,True,未知,True
16,603390,53394002.01000001,53465777.53,2019-03-31,一季度报告,51845179.71000002,2019,3,-0.009625682709578042,True,未知,未知,0.048200538684452954,True,未知,未知,未知,未知
17,603390,78887928.47,78995746.75,2019-06-30,半年度报告,81886800.65999998,2019,6,-0.44938757683037384,True,0.1547402875691573,True,未知,未知,True,True,未知,True
18,603390,103801621.08,103947274.78,2019-09-30,三季度报告,102194142.25,2019,9,-0.7109859967058076,True,未知,未知,0.0,True,未知,未知,未知,未知
19,603390,143759934.42,143748762.64999998,2019-12-31,年度报告,140239222.36,2019,12,-0.8253023554826612,True,0.39719421319923826,True,0.09197691814122222,True,比例外推,143748762.64999998,未知,143748762.64999998
20,603390,-8411362.51,-7045377.209999997,2020-03-31,一季度报告,-13584901.89,2020,3,-0.43939307631606417,True,0.6044863097292668,True,未知,未知,True,True,未知,True
