,SECURITYCODE_x,NETPROFIT_x,PARENTNETPROFIT_x,REPORTDATE_x,REPORTTIMETYPE_x,KCFJCXSYJLR,Year,Month,managesituationChangeRate,managesituationGreatChange,historyprofitextroplaterate,ifhistoryprofitextroplate,IfprofitdisStableChangeRage,IfprofitdisStable,predicttype,predict,analyst_prediction,adj_prediction
0,603319,45003491.34,45003491.34,2014-12-31,年度报告,42227704.99,2014,12,未知,未知,未知,未知,未知,未知,未知,未知,未知,未知
1,603319,35978718.93,35978718.93,2015-09-30,三季度报告,34334701.97,2015,9,未知,未知,未知,未知,未知,未知,未知,未知,未知,未知
2,603319,38921547.85999999,38921547.85999999,2015-12-31,年度报告,36823938.59,2015,12,0.0,True,未知,未知,未知,未知,未知,未知,未知,未知
3,603319,11574657.39,11574657.39,2016-03-31,一季度报告,10465954.94,2016,3,未知,未知,未知,未知,未知,未知,未知,未知,未知,未知
4,603319,22533187.66,22533187.66,2016-06-30,半年度报告,21193536.45,2016,6,未知,未知,未知,未知,未知,未知,未知,未知,未知,未知
5,603319,56322985.76999999,56322985.76999999,2016-12-31,年度报告,55122996.25999999,2016,12,0.15626160351784152,True,未知,未知,未知,未知,未知,未知,未知,未知
6,603319,19384830.52,19384830.52,2017-03-31,一季度报告,18851614.730000004,2017,3,2.8881056970965773,False,未知,未知,未知,未知,未知,未知,未知,未知
7,603319,41532406.4,41532406.4,2017-06-30,半年度报告,40932385.18000001,2017,6,0.9972092727869291,False,未知,未知,未知,未知,未知,未知,未知,未知
8,603319,67162537.02,67162537.02,2017-09-30,三季度报告,64771760.62,2017,9,未知,未知,未知,未知,未知,未知,未知,未知,未知,未知
9,603319,109669137.20000002,109669137.20000002,2017-12-31,年度报告,88851558.77,2017,12,-0.2009746868929173,True,0.3422212561802413,True,0.0,True,比例外推,109669137.20000002,,109669137.20000002
10,603319,27496699.9,27496699.9,2018-03-31,一季度报告,22484953.92,2018,3,1.3215829147212996,False,未知,未知,未知,未知,未知,未知,未知,未知
11,603319,55880148.55,55903233.98999999,2018-06-30,半年度报告,50293963.45000001,2018,6,0.08357533889488294,True,未知,未知,未知,未知,未知,未知,133000000.0,未知
12,603319,73394539.06,73506847.03000002,2018-09-30,三季度报告,66754512.55,2018,9,-0.32993163545030113,True,未知,未知,未知,未知,未知,未知,119590000.0,未知
13,603319,97078024.7,97106728.37000003,2018-12-31,年度报告,90003782.48,2018,12,-0.5896430619497935,True,1.302896198243478,True,0.0,True,比例外推,97106728.37000003,113740000.0,113740000.0
14,603319,32910357.55,32989539.96,2019-03-31,一季度报告,32274555.88000001,2019,3,0.6366870025737164,False,0.7763019840595289,True,0.03253646001304639,True,前期平均,90318032.63999999,131717147.0,131717147.0
15,603319,56573088.12000001,56025694.51000001,2019-06-30,半年度报告,54213923.97,2019,6,-0.19464259656124328,True,0.7444667257019733,True,0.09081221244760002,True,比例外推,117656924.48703215,,117656924.48703215
16,603319,77514044.68999998,76931776.10000001,2019-09-30,三季度报告,73151747.58,2019,9,-0.3868277951414114,True,未知,未知,未知,未知,未知,未知,未知,未知
17,603319,93072517.29,93120482.08,2019-12-31,年度报告,77067037.98,2019,12,-0.5364193752491958,True,0.1696702586007055,True,0.0,True,比例外推,93120482.08,,93120482.08
18,603319,35246429.529999994,35393334.56,2020-03-31,一季度报告,18195660.16,2020,3,0.36745677319449244,True,0.40397965916062345,True,0.12519295094881788,False,平均增速,68951715.29470661,132440000.0,132440000.0
