,SECURITYCODE_x,NETPROFIT_x,PARENTNETPROFIT_x,REPORTDATE_x,REPORTTIMETYPE_x,KCFJCXSYJLR,Year,Month,managesituationChangeRate,managesituationGreatChange,historyprofitextroplaterate,ifhistoryprofitextroplate,IfprofitdisStableChangeRage,IfprofitdisStable,predicttype,predict,analyst_prediction,adj_prediction
0,603351,44868631.34000001,44827772.73,2014-12-31,年度报告,44805772.73,2014,12,未知,未知,未知,未知,未知,未知,未知,未知,未知,未知
1,603351,60728364.96,60671294.08,2015-12-31,年度报告,60462475.64000001,2015,12,0.0,True,未知,未知,未知,未知,未知,未知,未知,未知
2,603351,73710096.30000001,73674043.80999999,2016-12-31,年度报告,105866552.52,2016,12,-0.2611585810098186,True,未知,未知,未知,未知,未知,未知,未知,未知
3,603351,60491902.51000001,60493674.11000001,2017-06-30,半年度报告,59026874.11000001,2017,6,未知,未知,未知,未知,未知,未知,未知,未知,未知,未知
4,603351,82632695.17999998,82629482.39999999,2017-09-30,三季度报告,80184182.39999999,2017,9,未知,未知,未知,未知,未知,未知,未知,未知,未知,未知
5,603351,107435429.27000004,107432216.48999996,2017-12-31,年度报告,102929350.86,2017,12,-0.39128242137434294,True,0.39606426096799885,True,0.0,True,比例外推,107432216.48999996,未知,107432216.48999996
6,603351,27022379.96,27022379.96,2018-03-31,一季度报告,27025326.71,2018,3,未知,未知,未知,未知,未知,未知,未知,未知,未知,未知
7,603351,61153446.56,61153446.56,2018-06-30,半年度报告,57790560.12000001,2018,6,-0.2582704547508205,True,未知,未知,未知,未知,未知,未知,未知,未知
8,603351,84101557.17999999,84101557.17999999,2018-09-30,三季度报告,79541116.82000001,2018,9,-0.4570111595384608,True,未知,未知,未知,未知,未知,未知,未知,未知
9,603351,111814351.07,111814351.07,2018-12-31,年度报告,101932543.16,2018,12,-0.5823665280171315,True,0.5982841258830401,True,0.0,True,比例外推,111814351.07,未知,111814351.07
10,603351,38166687.25,38166687.25,2019-03-31,一季度报告,36710077.71,2019,3,0.6604248554870816,False,未知,未知,未知,未知,未知,未知,131020000.0,未知
11,603351,76504853.38999999,76504853.38999999,2019-06-30,半年度报告,74310374.91,2019,6,-0.2662943159552313,True,未知,未知,未知,未知,未知,未知,,未知
12,603351,110375884.96,110375884.96,2019-09-30,三季度报告,105779911.41,2019,9,-0.4664946423766084,True,未知,未知,未知,未知,未知,未知,未知,未知
13,603351,128107850.57,128107850.57,2019-12-31,年度报告,127156661.24,2019,12,-0.5987220700148718,True,0.23452512247443374,True,0.0,True,比例外推,128107850.57,未知,128107850.57
14,603351,32186509.680000003,32186509.680000003,2020-03-31,一季度报告,29072765.02,2020,3,0.1755966936847528,True,未知,未知,未知,未知,未知,未知,未知,未知
