,SECURITYCODE_x,NETPROFIT_x,PARENTNETPROFIT_x,REPORTDATE_x,REPORTTIMETYPE_x,KCFJCXSYJLR,Year,Month,managesituationChangeRate,managesituationGreatChange,historyprofitextroplaterate,ifhistoryprofitextroplate,IfprofitdisStableChangeRage,IfprofitdisStable,predicttype,predict,analyst_prediction,adj_prediction
0,603358,221240164.94,221240164.94,2014-12-31,年度报告,218945694.97000003,2014,12,未知,未知,未知,未知,未知,未知,未知,未知,未知,未知
1,603358,148453412.68000004,148453412.68000004,2015-09-30,三季度报告,144175529.32,2015,9,未知,未知,未知,未知,未知,未知,未知,未知,未知,未知
2,603358,257284403.69,257284403.69,2015-12-31,年度报告,251546909.71000004,2015,12,0.0,True,未知,未知,未知,未知,未知,未知,未知,未知
3,603358,52435079.80000001,52435079.80000001,2016-03-31,一季度报告,52320406.94,2016,3,未知,未知,未知,未知,未知,未知,未知,未知,未知,未知
4,603358,125094522.21,125094522.21,2016-06-30,半年度报告,122697361.95,2016,6,未知,未知,未知,未知,未知,未知,未知,未知,未知,未知
5,603358,200877647.59,200877647.59,2016-09-30,三季度报告,197732665.45,2016,9,0.4903002965441828,True,未知,未知,未知,未知,未知,未知,未知,未知
6,603358,290881519.76999986,290881519.76999986,2016-12-31,年度报告,286340722.55000013,2016,12,-0.14009492310085545,True,未知,未知,未知,未知,未知,未知,未知,未知
7,603358,77620140.92999999,77620140.92999999,2017-03-31,一季度报告,76451707.30000001,2017,3,3.219315881350102,False,未知,未知,未知,未知,未知,未知,352215000.0,未知
8,603358,132363246.53,132363246.53,2017-06-30,半年度报告,129287208.08,2017,6,0.7685839558074125,False,未知,未知,未知,未知,未知,未知,338038750.0,未知
9,603358,177373092.60000002,177373092.60000002,2017-09-30,三季度报告,173575504.97999996,2017,9,0.10136776089473516,True,未知,未知,未知,未知,未知,未知,287333333.0,未知
10,603358,226111764.34,226111764.34,2017-12-31,年度报告,220537821.01,2017,12,-0.2394148479596274,True,0.21574330280588946,True,0.0,True,比例外推,226111764.34,未知,226111764.34
11,603358,81662475.87,81662475.87,2018-03-31,一季度报告,80121312.86999997,2018,3,1.8502932652431092,False,未知,未知,未知,未知,未知,未知,307000000.0,未知
12,603358,143387169.35999998,143387169.35999998,2018-06-30,半年度报告,141090841.54999998,2018,6,0.6714622128118936,False,未知,未知,未知,未知,未知,未知,,未知
13,603358,181766379.29,181595348.9,2018-09-30,三季度报告,176856725.97,2018,9,0.24731525902255125,True,0.015501412688051917,True,0.11043150106783028,False,平均增速,227927436.5465295,未知,227927436.5465295
14,603358,213570440.13,205825329.39000005,2018-12-31,年度报告,200537048.51,2018,12,-0.021545094808400476,True,0.17502436885243708,True,0.0,True,比例外推,205825329.39000005,,205825329.39000005
15,603358,41799868.29,36279474.59,2019-03-31,一季度报告,35762630.2,2019,3,1.7092022692551752,False,0.2558123451196883,True,0.12691747086917438,False,前期平均,225332689.25000006,未知,225332689.25000006
16,603358,87228971.27999999,69231985.74000001,2019-06-30,半年度报告,52030537.88,2019,6,0.5429564997167612,False,0.11386943234797475,True,0.14426614182662617,False,前期平均,196678972.50500008,未知,196678972.50500008
17,603358,164102656.51000002,121834691.87,2019-09-30,三季度报告,76987083.92999999,2019,9,0.2171676951710711,True,0.03891064853596069,True,0.09595680588150401,True,比例外推,142732402.0445035,189000000.0,189000000.0
18,603358,169004165.36999995,155855648.43,2019-12-31,年度报告,148665230.55,2019,12,0.0359119211691068,True,0.1737980097839765,True,0.0,True,比例外推,155855648.43,194000000.0,194000000.0
19,603358,31153601.25,30791933.520000003,2020-03-31,一季度报告,25793207.31,2020,3,4.292843589962422,False,0.47514839811446397,True,0.08835925176015436,True,前期平均,163042858.195,230000000.0,230000000.0
