,SECURITYCODE_x,NETPROFIT_x,PARENTNETPROFIT_x,REPORTDATE_x,REPORTTIMETYPE_x,KCFJCXSYJLR,Year,Month,managesituationChangeRate,managesituationGreatChange,historyprofitextroplaterate,ifhistoryprofitextroplate,IfprofitdisStableChangeRage,IfprofitdisStable,predicttype,predict,analyst_prediction,adj_prediction
0,603322,28536747.01,28536747.01,2014-12-31,年度报告,28319014.75,2014,12,未知,未知,未知,未知,未知,未知,未知,未知,未知,未知
1,603322,-1246217.0399999998,-1246217.0399999998,2015-03-31,一季度报告,-1153017.04,2015,3,未知,未知,未知,未知,未知,未知,未知,未知,未知,未知
2,603322,8092154.830000003,8092154.830000003,2015-06-30,半年度报告,7565312.9,2015,6,未知,未知,未知,未知,未知,未知,未知,未知,未知,未知
3,603322,18502795.430000003,18502795.430000003,2015-09-30,三季度报告,17639755.310000002,2015,9,未知,未知,未知,未知,未知,未知,未知,未知,未知,未知
4,603322,42640771.7,42640771.7,2015-12-31,年度报告,41735953.93,2015,12,0.0,True,未知,未知,未知,未知,未知,未知,未知,未知
5,603322,806995.18,806995.18,2016-03-31,一季度报告,723601.37,2016,3,-23.898697493335515,False,未知,未知,未知,未知,未知,未知,未知,未知
6,603322,9493904.739999998,9493904.739999998,2016-06-30,半年度报告,9664046.9,2016,6,2.5264707126222885,False,未知,未知,未知,未知,未知,未知,54773333.0,未知
7,603322,16213214.09,16213214.09,2016-09-30,三季度报告,16236528.8,2016,9,0.5422938181401056,False,未知,未知,未知,未知,未知,未知,,未知
8,603322,30290588.050000004,30290588.050000004,2016-12-31,年度报告,28922022.910000004,2016,12,-0.3307638236293927,True,未知,未知,未知,未知,未知,未知,55000000.0,未知
9,603322,-7705255.729999999,-7705255.729999999,2017-03-31,一季度报告,-7773427.5,2017,3,34.36173166486571,False,未知,未知,未知,未知,未知,未知,,未知
10,603322,-3107644.36,-3107644.36,2017-06-30,半年度报告,-7468026.3500000015,2017,6,2.0057966444268334,False,未知,未知,未知,未知,未知,未知,未知,未知
11,603322,9342387.31,9342387.31,2017-09-30,三季度报告,5110767.899999999,2017,9,0.7600919133980302,False,未知,未知,未知,未知,未知,未知,未知,未知
12,603322,21379307.4,21379307.4,2017-12-31,年度报告,14738561.79,2017,12,-0.05790052794963822,True,0.14887204277481056,True,0.0,True,比例外推,21379307.4,未知,21379307.4
13,603322,-4623040.1400000015,-6763005.8,2018-03-31,一季度报告,-8172093.04,2018,3,-4.703543141195653,False,-34.085939165231906,True,0.35074488109876023,False,前期平均,28780690.455000002,未知,28780690.455000002
14,603322,13989596.94,2697248.34,2018-06-30,半年度报告,885293.43,2018,6,-10.18275829026974,False,1.3534213389452312,True,0.5096023821314581,False,前期平均,29411556.860000003,未知,29411556.860000003
15,603322,33301107.08,10996089.790000003,2018-09-30,三季度报告,7434667.120000001,2018,9,2.0545454885449406,False,0.4617821898788326,True,0.11778888800539683,False,前期平均,29386936.155000005,未知,29386936.155000005
16,603322,54524755.62000001,24842766.23,2018-12-31,年度报告,20200341.63,2018,12,0.33478351174276133,True,0.4137142794735841,True,0.0,True,比例外推,24842766.23,未知,24842766.23
17,603322,-15416097.329999998,-22821186.38000001,2019-03-31,一季度报告,-26885925.11,2019,3,-7.172723174754869,False,-0.34034952912876054,True,0.32733711398320614,False,前期平均,2534019.0349999927,未知,2534019.0349999927
18,603322,-35024785.879999995,-48917741.64,2019-06-30,半年度报告,-55489138.77,2019,6,1.0398548387341888,False,3.381154574846822,False,0.463788909788074,False,前期平均盈利变化,84563404.83500001,未知,84563404.83500001
19,603322,-28205648.510000005,-47745798.03,2019-09-30,三季度报告,-55591598.77,2019,9,-0.14306911955072446,True,1.6061689223247941,True,0.13599045460832115,False,平均增速,-89472075.65015492,未知,-89472075.65015492
20,603322,-57071524.06,-93341135.67000002,2019-12-31,年度报告,-100068704.48999998,2019,12,-0.4766276953374817,True,1.11050381058977,True,0.0,True,比例外推,-93341135.67000002,未知,-93341135.67000002
21,603322,41240.32,-4603975.97,2020-03-31,一季度报告,-6278269.46,2020,3,-2.851100599531568,False,-1.5009291620772882,True,0.48977419086950646,False,前期平均,20838236.009999998,未知,20838236.009999998
