,SECURITYCODE_x,NETPROFIT_x,PARENTNETPROFIT_x,REPORTDATE_x,REPORTTIMETYPE_x,KCFJCXSYJLR,Year,Month,managesituationChangeRate,managesituationGreatChange,historyprofitextroplaterate,ifhistoryprofitextroplate,IfprofitdisStableChangeRage,IfprofitdisStable,predicttype,predict,analyst_prediction,adj_prediction
0,603353,15130489.030000005,14212295.009999998,2014-12-31,年度报告,7549595.01,2014,12,未知,未知,未知,未知,未知,未知,未知,未知,未知,未知
1,603353,68016160.28,67994173.83999999,2015-12-31,年度报告,69951673.83999999,2015,12,0.0,True,未知,未知,未知,未知,未知,未知,未知,未知
2,603353,143070948.74,143366860.57999998,2016-12-31,年度报告,143253360.57999998,2016,12,-0.7775456749144205,True,未知,未知,未知,未知,未知,未知,未知,未知
3,603353,192123831.38,191843698.67,2017-12-31,年度报告,191231506.57,2017,12,-0.8942448542960574,True,2.441412249977293,False,0.0,True,比例外推,191843698.67,未知,191843698.67
4,603353,156108324.24,156029566.96,2018-12-31,年度报告,151009591.7,2018,12,-0.9212461623249979,True,0.8203274683324855,True,0.0,True,比例外推,156029566.96,未知,156029566.96
5,603353,36417297.75,36411746.28,2019-03-31,一季度报告,36392171.27,2019,3,未知,未知,未知,未知,未知,未知,未知,未知,未知,未知
6,603353,161715366.27,161736717.64000002,2019-12-31,年度报告,161226665.32,2019,12,-0.9030769877028564,True,0.06855157956747952,True,0.0,True,比例外推,161736717.64000002,未知,161736717.64000002
7,603353,18751020.380000006,18764691.980000004,2020-03-31,一季度报告,18653682.89,2020,3,-0.5845246636950155,True,未知,未知,未知,未知,未知,未知,190010000.0,未知
