,SECURITYCODE_x,NETPROFIT_x,PARENTNETPROFIT_x,REPORTDATE_x,REPORTTIMETYPE_x,KCFJCXSYJLR,Year,Month,managesituationChangeRate,managesituationGreatChange,historyprofitextroplaterate,ifhistoryprofitextroplate,IfprofitdisStableChangeRage,IfprofitdisStable,predicttype,predict,analyst_prediction,adj_prediction
0,603388,52634149.33,52634149.33,2014-12-31,年度报告,50909866.8,2014,12,未知,未知,未知,未知,未知,未知,未知,未知,未知,未知
1,603388,52634149.33,52634149.33,2014-12-31,年度报告,50909849.32999999,2014,12,未知,未知,未知,未知,未知,未知,未知,未知,未知,未知
2,603388,48857472.43,48857472.43,2015-12-31,年度报告,45733753.58000001,2015,12,0.0,True,未知,未知,未知,未知,未知,未知,未知,未知
3,603388,48857472.43,48857472.43,2015-12-31,年度报告,45733772.43,2015,12,0.0,True,未知,未知,未知,未知,未知,未知,未知,未知
4,603388,-4925742.74,-4925742.74,2016-03-31,一季度报告,-4890062.52,2016,3,未知,未知,未知,未知,未知,未知,未知,未知,未知,未知
5,603388,15117597.92,15117597.92,2016-06-30,半年度报告,14713100.16,2016,6,未知,未知,未知,未知,未知,未知,未知,未知,未知,未知
6,603388,23145497.73,23145497.73,2016-09-30,三季度报告,22731284.86000001,2016,9,未知,未知,未知,未知,未知,未知,未知,未知,未知,未知
7,603388,53037569.94000001,53037569.94000001,2016-12-31,年度报告,52633072.17999999,2016,12,0.07729988294852932,True,未知,未知,未知,未知,未知,未知,未知,未知
8,603388,2495382.21,2495382.21,2017-03-31,一季度报告,2137582.21,2017,3,-11.685525434079002,False,未知,未知,未知,未知,未知,未知,未知,未知
9,603388,30505784.14,30505784.14,2017-06-30,半年度报告,29534702.530000005,2017,6,2.4816476538489654,False,未知,未知,0.0,True,未知,未知,105000000.0,未知
10,603388,54830049.71999999,54830049.71999999,2017-09-30,三季度报告,53591585.88999999,2017,9,1.2740556260226077,False,未知,未知,未知,未知,未知,未知,,未知
11,603388,91782746.25,91782746.25,2017-12-31,年度报告,90071993.99,2017,12,-0.0076063177565713,True,0.04516154181513431,True,未知,未知,未知,未知,未知,未知
12,603388,5262467.079999999,5262467.079999999,2018-03-31,一季度报告,5297293.74,2018,3,20.092620248342637,False,未知,未知,未知,未知,未知,未知,未知,未知
13,603388,50173752.34,50153634.43000001,2018-06-30,半年度报告,48730173.32999999,2018,6,0.725382605752615,False,未知,未知,0.0,True,未知,未知,138000000.0,未知
14,603388,85280006.74,85270407.35000001,2018-09-30,三季度报告,83953116.0,2018,9,-0.04004921391123614,True,未知,未知,0.08369126662799087,True,未知,未知,139000000.0,未知
15,603388,135385344.17,135376643.29999998,2018-12-31,年度报告,127569500.86,2018,12,-0.4265354712024647,True,0.801515444033472,True,0.052178797637383256,True,比例外推,135376643.29999998,139000000.0,135376643.29999998
16,603388,8624154.360000001,8611539.629999999,2019-03-31,一季度报告,8520692.760000002,2019,3,9.001801157110517,False,-5.330606109703401,True,0.12977295924047955,False,前期平均,81340312.86999999,未知,81340312.86999999
17,603388,61825825.45,61823473.64999999,2019-06-30,半年度报告,53576200.63000001,2019,6,0.0490375320810617,True,1.1994753599816752,True,0.0,True,比例外推,170692720.5107842,未知,170692720.5107842
18,603388,94070175.04,94077538.89999998,2019-09-30,三季度报告,85754640.13000001,2019,9,-0.3828078662039749,True,1.1873525618959924,True,0.0293057760301769,True,比例外推,161004922.50647032,未知,161004922.50647032
19,603388,136523899.20999998,136548143.59,2019-12-31,年度报告,111255061.81,2019,12,-0.6112271261510507,True,0.8697009885322774,True,未知,未知,True,True,,True
20,603388,1210135.2899999998,1210897.09,2020-03-31,一季度报告,-57273.38,2020,3,5.103108447840907,False,1.2233364010091519,True,未知,未知,前期平均,106314206.54,未知,106314206.54
