,SECURITYCODE_x,NETPROFIT_x,PARENTNETPROFIT_x,REPORTDATE_x,REPORTTIMETYPE_x,KCFJCXSYJLR,Year,Month,managesituationChangeRate,managesituationGreatChange,historyprofitextroplaterate,ifhistoryprofitextroplate,IfprofitdisStableChangeRage,IfprofitdisStable,predicttype,predict,analyst_prediction,adj_prediction
0,603327,5895500.0,5895500.0,2014-12-31,年度报告,4307399.999999999,2014,12,未知,未知,未知,未知,未知,未知,未知,未知,未知,未知
1,603327,28811500.0,28811500.0,2015-12-31,年度报告,26117300.000000004,2015,12,0.0,True,未知,未知,未知,未知,未知,未知,未知,未知
2,603327,46236147.62,46236147.62,2016-12-31,年度报告,43258600.0,2016,12,-0.795376846051056,True,未知,未知,未知,未知,未知,未知,未知,未知
3,603327,37239400.0,37239400.0,2017-06-30,半年度报告,35839100.00000001,2017,6,未知,未知,未知,未知,未知,未知,未知,未知,未知,未知
4,603327,135857384.12,135857384.12,2017-12-31,年度报告,133581340.72,2017,12,-0.8724915395535715,True,1.6643701627913676,True,0.0,True,比例外推,135857384.12,未知,135857384.12
5,603327,44982437.68,44982437.68,2018-03-31,一季度报告,42854624.66999999,2018,3,未知,未知,未知,未知,未知,未知,未知,未知,未知,未知
6,603327,73101188.68,73101188.68,2018-06-30,半年度报告,66389439.48,2018,6,-0.8416864933377015,True,未知,未知,未知,未知,未知,未知,未知,未知
7,603327,123782592.2,123782592.2,2018-09-30,三季度报告,116633107.63,2018,9,未知,未知,未知,未知,未知,未知,未知,未知,未知,未知
8,603327,159310210.01,159310210.01,2018-12-31,年度报告,150268081.67000002,2018,12,-0.9566052295339896,True,2.6205634267953886,False,0.0,True,比例外推,159310210.01,未知,159310210.01
9,603327,67615173.65,67615173.65,2019-03-31,一季度报告,67515478.86,2019,3,-0.868937738725057,True,未知,未知,未知,未知,未知,未知,未知,未知
10,603327,119635331.58,119635331.58,2019-06-30,半年度报告,118006816.57999998,2019,6,-0.9193515166243396,True,未知,未知,未知,未知,未知,未知,未知,未知
11,603327,211384302.87,211384302.87,2019-09-30,三季度报告,207711647.35999995,2019,9,-0.9523721397716859,True,未知,未知,未知,未知,未知,未知,未知,未知
12,603327,263035428.96000007,263035428.96000007,2019-12-31,年度报告,255153725.23000008,2019,12,-0.9629935834016543,True,0.749762426899041,True,0.0,True,比例外推,263035428.96000007,未知,263035428.96000007
13,603327,86961430.72000001,86961430.72000001,2020-03-31,一季度报告,84151789.85,2020,3,-0.9128080328460415,True,未知,未知,未知,未知,未知,未知,341000000.0,未知
