,SECURITYCODE_x,NETPROFIT_x,PARENTNETPROFIT_x,REPORTDATE_x,REPORTTIMETYPE_x,KCFJCXSYJLR,Year,Month,managesituationChangeRate,managesituationGreatChange,historyprofitextroplaterate,ifhistoryprofitextroplate,IfprofitdisStableChangeRage,IfprofitdisStable,predicttype,predict,analyst_prediction,adj_prediction
0,603336,46252647.91,46252647.91,2014-12-31,年度报告,46784672.99,2014,12,未知,未知,未知,未知,未知,未知,未知,未知,未知,未知
1,603336,46252647.91,46252647.91,2014-12-31,年度报告,46784747.91000001,2014,12,未知,未知,未知,未知,未知,未知,未知,未知,未知,未知
2,603336,43784148.10999999,43784148.10999999,2015-09-30,三季度报告,42615148.10999999,2015,9,未知,未知,未知,未知,未知,未知,未知,未知,未知,未知
3,603336,62552233.91000001,62552233.91000001,2015-12-31,年度报告,60019569.43999999,2015,12,0.0,True,未知,未知,未知,未知,未知,未知,未知,未知
4,603336,14558124.39,14558124.39,2016-03-31,一季度报告,14467866.35,2016,3,未知,未知,未知,未知,未知,未知,未知,未知,未知,未知
5,603336,28209961.190000005,28209961.190000005,2016-06-30,半年度报告,28026608.11,2016,6,未知,未知,未知,未知,未知,未知,未知,未知,未知,未知
6,603336,60618410.85,60618410.85,2016-12-31,年度报告,59077864.56999999,2016,12,-0.260575601879412,True,未知,未知,未知,未知,未知,未知,76269143.0,未知
7,603336,18924776.019999992,18924776.019999992,2017-03-31,一季度报告,16853970.409999996,2017,3,2.1771021232495453,False,未知,未知,未知,未知,未知,未知,87030000.0,未知
8,603336,34928060.46000001,34928060.46000001,2017-06-30,半年度报告,31278012.4,2017,6,0.6395856626132419,False,未知,未知,未知,未知,未知,未知,75000000.0,未知
9,603336,51760870.92999999,51760870.92999999,2017-09-30,三季度报告,46458781.19000001,2017,9,未知,未知,未知,未知,0.0,True,未知,未知,73000000.0,未知
10,603336,63326139.45,63326139.45,2017-12-31,年度报告,57175168.88,2017,12,-0.23698679557186056,True,0.11425902654410874,True,未知,未知,未知,未知,85983333.0,未知
11,603336,14820523.79,14820523.79,2018-03-31,一季度报告,14510712.840000002,2018,3,1.4440261729449,False,未知,未知,未知,未知,未知,未知,149800000.0,未知
12,603336,33524316.34,33524316.34,2018-06-30,半年度报告,32091351.99,2018,6,0.32422606067602944,True,未知,未知,未知,未知,未知,未知,,未知
13,603336,55015079.95,55015079.95,2018-09-30,三季度报告,52191529.25000001,2018,9,-0.10641673760569385,True,未知,未知,0.0,True,未知,未知,未知,未知
14,603336,64169890.12999999,64169890.12999999,2018-12-31,年度报告,60940846.12000001,2018,12,-0.26961206996489356,True,0.02826675257553458,True,0.03551642562635737,True,比例外推,64169890.12999999,,64169890.12999999
15,603336,15633348.23,15633342.27,2019-03-31,一季度报告,15520831.009999998,2019,3,2.1208510957762847,False,0.11474074178032044,True,0.041617312958895814,True,前期平均,58098940.614999995,未知,58098940.614999995
16,603336,41125711.67000001,41125702.32,2019-06-30,半年度报告,40980227.67,2019,6,0.37967460517048673,True,0.06193749705491422,True,未知,未知,True,True,未知,True
17,603336,63605432.52999999,63605424.48999999,2019-09-30,三季度报告,63429386.53,2019,9,-0.15927327649007636,True,未知,未知,0.0,True,未知,未知,未知,未知
18,603336,79020991.73000002,78976900.87,2019-12-31,年度报告,76475916.49,2019,12,-0.2792157222601122,True,0.035461260292296716,True,0.04949786041077478,True,比例外推,78976900.87,未知,78976900.87
19,603336,16902745.38,16902741.279999994,2020-03-31,一季度报告,16563762.61,2020,3,1.9585887315707797,False,0.07345032831106998,True,未知,未知,前期平均,60278407.155,未知,60278407.155
