,SECURITYCODE_x,NETPROFIT_x,PARENTNETPROFIT_x,REPORTDATE_x,REPORTTIMETYPE_x,KCFJCXSYJLR,Year,Month,managesituationChangeRate,managesituationGreatChange,historyprofitextroplaterate,ifhistoryprofitextroplate,IfprofitdisStableChangeRage,IfprofitdisStable,predicttype,predict,analyst_prediction,adj_prediction
0,603387,21957307.360000007,21960307.77,2012-12-31,年度报告,19063095.950000007,2012,12,未知,未知,未知,未知,未知,未知,未知,未知,未知,未知
1,603387,65627761.99,65627761.99,2013-12-31,年度报告,60304523.95000002,2013,12,0.0,True,未知,未知,未知,未知,未知,未知,未知,未知
2,603387,74562057.5,75135877.91999999,2014-12-31,年度报告,81319080.84999998,2014,12,-0.6654265406255093,True,未知,未知,未知,未知,未知,未知,未知,未知
3,603387,21189346.42,21497538.1,2015-03-31,一季度报告,21118470.95,2015,3,未知,未知,未知,未知,未知,未知,未知,未知,未知,未知
4,603387,104788047.45,105066842.78,2015-12-31,年度报告,100507081.61999996,2015,12,-0.7055163430810636,True,0.7026202765688623,True,0.0,True,比例外推,105066842.78,未知,105066842.78
5,603387,62853790.92,62876952.58,2016-06-30,半年度报告,60067709.39000001,2016,6,未知,未知,未知,未知,未知,未知,未知,未知,未知,未知
6,603387,95805699.82,96021630.09,2016-09-30,三季度报告,87212889.66999999,2016,9,未知,未知,未知,未知,未知,未知,未知,未知,未知,未知
7,603387,138321801.99999997,138356904.48999998,2016-12-31,年度报告,127759176.18,2016,12,-0.7904598101183533,True,0.4949451797742663,True,0.0,True,比例外推,138356904.48999998,未知,138356904.48999998
8,603387,40844132.45000001,40897469.23,2017-03-31,一季度报告,38586508.65,2017,3,未知,未知,未知,未知,未知,未知,未知,未知,未知,未知
9,603387,89563089.88999999,89597808.04,2017-06-30,半年度报告,83628414.46,2017,6,-0.6506605721213036,True,未知,未知,未知,未知,未知,未知,176752500.0,未知
10,603387,137816202.62000003,137982108.28,2017-09-30,三季度报告,129279746.67000002,2017,9,-0.7708141853641959,True,未知,未知,未知,未知,未知,未知,192023332.99999997,未知
11,603387,193780792.14,193988370.3,2017-12-31,年度报告,172882222.71999997,2017,12,-0.8412592444392821,True,0.542478071463208,True,0.0,True,比例外推,193988370.3,193767500.0,193988370.3
12,603387,66575147.34000001,66536153.49000001,2018-03-31,一季度报告,59153613.75000001,2018,3,-0.4624121986951396,True,未知,未知,未知,未知,未知,未知,256890000.0,未知
13,603387,131001530.68000002,130552017.80999996,2018-06-30,半年度报告,116006168.20999996,2018,6,-0.7548397739853813,True,未知,未知,未知,未知,未知,未知,264086000.0,未知
14,603387,180717277.6,180232445.23,2018-09-30,三季度报告,157485008.55,2018,9,-0.8406768802029556,True,未知,未知,未知,未知,未知,未知,251825000.0,未知
15,603387,250644366.91,249612047.46000004,2018-12-31,年度报告,212967491.42,2018,12,-0.88668997005577,True,0.5941829800676551,True,0.0,True,比例外推,249612047.46000004,258333332.99999997,249612047.46000004
16,603387,86996212.83000001,84999724.84,2019-03-31,一季度报告,66001470.56,2019,3,-0.6701876265047707,True,未知,未知,未知,未知,未知,未知,326950000.0,未知
17,603387,159040592.83,153853804.57999995,2019-06-30,半年度报告,129427857.22,2019,6,-0.8323889251825954,True,0.718989786220649,True,0.04517731455750218,True,比例外推,283522249.0002959,,283522249.0002959
18,603387,205114152.66000003,198868020.86,2019-09-30,三季度报告,172132565.91,2019,9,-0.8784991249779649,True,0.5470919097271946,True,0.04066663092897749,True,比例外推,264717163.1087576,未知,264717163.1087576
19,603387,349946971.27,339672020.51000017,2019-12-31,年度报告,294908891.88999987,2019,12,-0.9123965655773771,True,0.5094393800750575,True,0.0,True,比例外推,339672020.51000017,,339672020.51000017
20,603387,44456989.22999999,43247242.43,2020-03-31,一季度报告,36232783.46,2020,3,-0.7476061699041203,True,0.6197504395872657,True,0.036173168949353074,True,比例外推,156993453.9810179,442000000.0,442000000.0
