,SECURITYCODE_x,NETPROFIT_x,PARENTNETPROFIT_x,REPORTDATE_x,REPORTTIMETYPE_x,KCFJCXSYJLR,Year,Month,managesituationChangeRate,managesituationGreatChange,historyprofitextroplaterate,ifhistoryprofitextroplate,IfprofitdisStableChangeRage,IfprofitdisStable,predicttype,predict,analyst_prediction,adj_prediction
0,603360,48920508.18000001,48920508.18000001,2013-12-31,年度报告,45693405.37,2013,12,未知,未知,未知,未知,未知,未知,未知,未知,未知,未知
1,603360,64032319.04999998,64032319.04999998,2014-12-31,年度报告,58847908.57,2014,12,0.0,True,未知,未知,未知,未知,未知,未知,未知,未知
2,603360,47578363.32999999,48157696.41,2015-09-30,三季度报告,46474948.96,2015,9,未知,未知,未知,未知,未知,未知,未知,未知,未知,未知
3,603360,56693611.66,57338554.73999999,2015-12-31,年度报告,53745134.84000001,2015,12,-0.23600286689913316,True,未知,未知,未知,未知,未知,未知,未知,未知
4,603360,18522224.69,18609228.45,2016-03-31,一季度报告,18171458.55,2016,3,未知,未知,未知,未知,未知,未知,未知,未知,未知,未知
5,603360,43322379.96,43512428.83,2016-06-30,半年度报告,41360755.41,2016,6,未知,未知,未知,未知,未知,未知,未知,未知,未知,未知
6,603360,97945999.65,98273387.87,2016-12-31,年度报告,93064938.11,2016,12,-0.13710721988601546,True,0.0038458186541490045,True,0.0,True,比例外推,98273387.87,未知,98273387.87
7,603360,27423967.33,27484750.63,2017-03-31,一季度报告,26412449.17,2017,3,1.641178853985709,False,未知,未知,未知,未知,未知,未知,133000000.0,未知
8,603360,54466387.23,54607121.92,2017-06-30,半年度报告,51467381.41,2017,6,0.1292202373269616,True,未知,未知,未知,未知,未知,未知,116000000.0,未知
9,603360,81328742.13,81469476.82,2017-09-30,三季度报告,76344571.42999999,2017,9,未知,未知,未知,未知,未知,未知,未知,未知,115300000.0,未知
10,603360,99882266.64,100266398.87,2017-12-31,年度报告,91726600.68,2017,12,-0.5005359243377736,True,0.6226174289810124,True,0.0,True,比例外推,100266398.87,未知,100266398.87
11,603360,27313356.520000003,27313356.520000003,2018-03-31,一季度报告,26609445.74000001,2018,3,0.7838596287446792,False,未知,未知,未知,未知,未知,未知,112180000.0,未知
12,603360,62964282.92999999,63086840.98,2018-06-30,半年度报告,61207392.72999999,2018,6,-0.10182204717527746,True,未知,未知,未知,未知,未知,未知,121010000.0,未知
13,603360,108459317.5,108581895.05999996,2018-09-30,三季度报告,103795996.37,2018,9,-0.39848438696121746,True,未知,未知,未知,未知,未知,未知,142710000.0,未知
14,603360,145064930.82999998,145187507.2,2018-12-31,年度报告,137738034.86,2018,12,-0.5102182817264107,True,0.29180700590057634,True,0.0,True,比例外推,145187507.2,,145187507.2
15,603360,31934044.93,31934044.93,2019-03-31,一季度报告,31028540.29000001,2019,3,0.7910837192118195,False,0.18892797505876988,True,0.06248353148700894,True,前期平均,102037860.465,297780000.0,297780000.0
16,603360,112557286.63,112557286.63,2019-06-30,半年度报告,108578554.24,2019,6,-0.223043511281039,True,0.2877610535300582,True,0.07779553364905045,True,比例外推,228639533.92121708,360340000.0,360340000.0
17,603360,234170945.04999992,234170945.04999992,2019-09-30,三季度报告,230838441.62,2019,9,-0.5489506175437624,True,未知,未知,未知,未知,未知,未知,400873333.0,未知
18,603360,306801352.58000004,306801352.58000004,2019-12-31,年度报告,297626223.4,2019,12,-0.6627681969715381,True,0.4665743531042898,True,0.0,True,比例外推,306801352.58000004,204235000.0,204235000.0
19,603360,89960059.62,89960059.62,2020-03-31,一季度报告,90380865.41,2020,3,0.5319233215596283,False,0.16681060321877605,True,0.09281763367670123,True,前期平均,178181429.935,430150000.0,430150000.0
