,SECURITYCODE_x,NETPROFIT_x,PARENTNETPROFIT_x,REPORTDATE_x,REPORTTIMETYPE_x,KCFJCXSYJLR,Year,Month,managesituationChangeRate,managesituationGreatChange,historyprofitextroplaterate,ifhistoryprofitextroplate,IfprofitdisStableChangeRage,IfprofitdisStable,predicttype,predict,analyst_prediction,adj_prediction
0,603389,73170062.33,72747286.63,2014-12-31,年度报告,71975746.6,2014,12,未知,未知,未知,未知,未知,未知,未知,未知,未知,未知
1,603389,30424080.07,31038166.64999999,2015-06-30,半年度报告,31318448.9,2015,6,未知,未知,未知,未知,未知,未知,未知,未知,未知,未知
2,603389,76104246.16999999,77204442.28999999,2015-12-31,年度报告,74244966.76,2015,12,0.0,True,未知,未知,未知,未知,未知,未知,未知,未知
3,603389,-3312414.2,-2634165.65,2016-03-31,一季度报告,-2085914.34,2016,3,未知,未知,未知,未知,未知,未知,未知,未知,未知,未知
4,603389,21715267.870000005,21665006.93,2016-06-30,半年度报告,21525079.17,2016,6,1.4050049224709393,False,未知,未知,未知,未知,未知,未知,未知,未知
5,603389,76666863.93,75523668.19999999,2016-12-31,年度报告,68507089.88,2016,12,-0.038554798025929767,True,未知,未知,未知,未知,未知,未知,71616667.0,未知
6,603389,-2658119.7500000005,-2540882.49,2017-03-31,一季度报告,-2895451.1699999995,2017,3,-23.08964758392836,False,未知,未知,未知,未知,未知,未知,,未知
7,603389,23413864.1,22958922.02,2017-06-30,半年度报告,22164062.110000007,2017,6,2.3695215167520742,False,未知,未知,未知,未知,未知,未知,未知,未知
8,603389,42187417.02,41893463.58,2017-09-30,三季度报告,38684797.98,2017,9,未知,未知,未知,未知,未知,未知,未知,未知,未知,未知
9,603389,61770172.72000001,61053498.55000002,2017-12-31,年度报告,55364533.34,2017,12,-0.045610338296773585,True,0.027194360508459595,True,0.0,True,比例外推,61053498.55000002,未知,61053498.55000002
10,603389,-9670381.289999995,-8151369.9700000025,2018-03-31,一季度报告,-9048875.45,2018,3,-28.526999989372182,False,未知,未知,未知,未知,未知,未知,未知,未知
11,603389,-19477482.790000007,-17876063.54,2018-06-30,半年度报告,-20261151.74,2018,6,2.125074187562231,False,0.10187353601185066,True,0.064583691236,True,未知,未知,未知,未知
12,603389,-23221719.51,-20932896.14,2018-09-30,三季度报告,-27866140.75,2018,9,0.7344048889106412,False,未知,未知,未知,未知,未知,未知,未知,未知
13,603389,-93959228.12,-86108970.50000001,2018-12-31,年度报告,-95416489.88,2018,12,0.1845533063615494,True,0.19133699192776873,True,0.0,True,比例外推,-86108970.50000001,未知,-86108970.50000001
14,603389,-23664080.710000005,-22762246.81,2019-03-31,一季度报告,-24189918.69,2019,3,-8.566409238244217,False,-2.2393689981446276,True,0.09080573276695464,True,前期平均,41664247.55500001,未知,41664247.55500001
15,603389,-32232592.49,-30488122.23,2019-06-30,半年度报告,-33549157.22,2019,6,-4.756648798969365,False,1.863188895498714,True,0.09661437985333074,True,前期平均,9603118.73999999,未知,9603118.73999999
16,603389,-44218567.99,-41758426.31,2019-09-30,三季度报告,-45689594.38,2019,9,-4.1509321391333955,False,未知,未知,未知,未知,未知,未知,未知,未知
17,603389,-128831635.29999998,-124516984.62,2019-12-31,年度报告,-125350727.11,2019,12,-1.7787426929109171,False,2.357429057912444,False,0.0,True,去年同期,-124516984.62,未知,-124516984.62
18,603389,1850712.93,3413666.03,2020-03-31,一季度报告,-22902301.84,2020,3,-4.092030627628804,False,-2.838922612444377,True,0.1308031083680269,False,盈利变化,-122800162.15333334,未知,-122800162.15333334
