,SECURITYCODE_x,NETPROFIT_x,PARENTNETPROFIT_x,REPORTDATE_x,REPORTTIMETYPE_x,KCFJCXSYJLR,Year,Month,managesituationChangeRate,managesituationGreatChange,historyprofitextroplaterate,ifhistoryprofitextroplate,IfprofitdisStableChangeRage,IfprofitdisStable,predicttype,predict,analyst_prediction,adj_prediction
0,603458,30782815.59,29883249.98000001,2012-12-31,年度报告,27591630.07,2012,12,未知,未知,未知,未知,未知,未知,未知,未知,未知,未知
1,603458,160519380.72999996,160519380.72999996,2013-12-31,年度报告,160771707.48000002,2013,12,0.0,True,未知,未知,未知,未知,未知,未知,未知,未知
2,603458,150809647.59,150809647.59,2014-12-31,年度报告,143275679.3,2014,12,-0.8082299131107543,True,未知,未知,未知,未知,未知,未知,未知,未知
3,603458,24110289.98,24110289.98,2015-06-30,半年度报告,21826901.84,2015,6,未知,未知,未知,未知,未知,未知,未知,未知,未知,未知
4,603458,106631386.25,106631386.25,2015-12-31,年度报告,92974305.07,2015,12,-0.7958829817460487,True,0.5766640476801822,True,0.0,True,比例外推,106631386.25,未知,106631386.25
5,603458,67681245.25,67681245.25,2016-06-30,半年度报告,69403985.08999999,2016,6,0.2767501185400508,True,未知,未知,未知,未知,未知,未知,未知,未知
6,603458,116957381.0,116957381.0,2016-09-30,三季度报告,116734640.54,2016,9,未知,未知,未知,未知,未知,未知,未知,未知,未知,未知
7,603458,160589220.70999998,160589220.70999998,2016-12-31,年度报告,158600481.12,2016,12,-0.7113156203575098,True,0.3149923293346177,True,0.0,True,比例外推,160589220.70999998,未知,160589220.70999998
8,603458,50261755.84,50261755.84,2017-03-31,一季度报告,49758044.37,2017,3,未知,未知,未知,未知,未知,未知,未知,未知,未知,未知
9,603458,146137312.01,146137312.01,2017-06-30,半年度报告,145137665.45,2017,6,-0.5451795327303024,True,未知,未知,未知,未知,未知,未知,未知,未知
10,603458,254634523.7,254634523.7,2017-09-30,三季度报告,253190534.79,2017,9,-0.736803138657833,True,未知,未知,未知,未知,未知,未知,308816667.0,未知
11,603458,329448769.78,329448769.78,2017-12-31,年度报告,315712454.94,2017,12,-0.8083133135966258,True,0.24758060760279904,True,0.0,True,比例外推,329448769.78,331816667.0,329448769.78
12,603458,56787952.45000001,56787952.45000001,2018-03-31,一季度报告,53755018.63000001,2018,3,-0.38754993582014907,True,未知,未知,未知,未知,未知,未知,470000000.0,未知
13,603458,172949138.95,172949138.95,2018-06-30,半年度报告,143628598.91000003,2018,6,-0.7893569057305941,True,2.184113037086197,False,0.14259729288312362,False,未知,未知,429300000.0,未知
14,603458,219080462.34000003,219080462.34000003,2018-09-30,三季度报告,187876754.44,2018,9,-0.8791098114163535,True,未知,未知,未知,未知,未知,未知,,未知
15,603458,352886282.23,352886282.23,2018-12-31,年度报告,318541462.45999986,2018,12,-0.9065626634133247,True,1.465743742804348,True,0.0,True,比例外推,352886282.23,337950000.0,352886282.23
16,603458,69128278.06,68760834.16,2019-03-31,一季度报告,67568846.94,2019,3,-0.45793404653736564,True,未知,未知,未知,未知,未知,未知,464000000.0,未知
17,603458,129337917.66,128538664.21,2019-06-30,半年度报告,101819830.57,2019,6,-0.8220123223689515,True,0.6177186972569136,True,0.011801339283749213,True,比例外推,253285222.00516635,414000000.0,414000000.0
18,603458,243369156.13,242245668.14,2019-09-30,三季度报告,215852687.2,2019,9,-0.8594908224073999,True,0.17914550650328007,True,0.11946296373388843,False,平均增速,415291049.0736337,,415291049.0736337
19,603458,432513532.8899999,430363528.0799999,2019-12-31,年度报告,401792843.44,2019,12,-0.9127684550516568,True,0.4402405081987261,True,0.0,True,比例外推,430363528.0799999,未知,430363528.0799999
20,603458,65612070.52000001,65187830.72999999,2020-03-31,一季度报告,44815365.82000001,2020,3,-0.5547000959103594,True,0.29151735514738575,True,0.00723693667883929,True,比例外推,292240226.32630575,521000000.0,521000000.0
