,SECURITYCODE_x,NETPROFIT_x,PARENTNETPROFIT_x,REPORTDATE_x,REPORTTIMETYPE_x,KCFJCXSYJLR,Year,Month,managesituationChangeRate,managesituationGreatChange,historyprofitextroplaterate,ifhistoryprofitextroplate,IfprofitdisStableChangeRage,IfprofitdisStable,predicttype,predict,analyst_prediction,adj_prediction
0,603439,19372953.36,19372953.36,2013-12-31,年度报告,14392410.99,2013,12,未知,未知,未知,未知,未知,未知,未知,未知,未知,未知
1,603439,12924878.06,12924878.06,2014-06-30,半年度报告,12970955.160000002,2014,6,未知,未知,未知,未知,未知,未知,未知,未知,未知,未知
2,603439,28994187.36000001,28994187.36000001,2014-12-31,年度报告,27516229.62,2014,12,0.0,True,未知,未知,未知,未知,未知,未知,未知,未知
3,603439,23920379.340000004,23920379.340000004,2015-06-30,半年度报告,17738352.51,2015,6,0.4988886757822146,True,未知,未知,未知,未知,未知,未知,未知,未知
4,603439,52610072.11000001,52610072.11000001,2015-12-31,年度报告,43328571.27,2015,12,-0.331833200928864,True,未知,未知,未知,未知,未知,未知,未知,未知
5,603439,34054700.71,34054700.71,2016-06-30,半年度报告,24238947.20000001,2016,6,-0.19010676692721729,True,未知,未知,未知,未知,未知,未知,67965000.0,未知
6,603439,74879741.45,74879741.45,2016-12-31,年度报告,57110848.3,2016,12,-0.6317634136768722,True,1.1754468561440319,True,0.0,True,比例外推,74879741.45,75850000.0,74879741.45
7,603439,10055131.01,10055131.01,2017-03-31,一季度报告,9958302.3,2017,3,未知,未知,未知,未知,未知,未知,未知,未知,未知,未知
8,603439,24897024.52,24897024.52,2017-06-30,半年度报告,24475366.43,2017,6,-0.4311224895213593,True,0.8485255966755708,True,0.03632496299478705,True,比例外推,56678082.86582723,未知,56678082.86582723
9,603439,87628188.88999999,87628188.88999999,2017-12-31,年度报告,72654332.22000001,2017,12,-0.7412791098786573,True,0.8351919847401561,True,0.0,True,比例外推,87628188.88999999,未知,87628188.88999999
10,603439,28008011.05,28008011.05,2018-03-31,一季度报告,11603011.05,2018,3,0.9266733910013968,False,未知,未知,未知,未知,未知,未知,未知,未知
11,603439,57164490.63,57164490.63,2018-06-30,半年度报告,40280731.92999999,2018,6,-0.22187676103875245,True,0.14111288855391593,True,0.05335420064216806,True,比例外推,120107247.80813193,未知,120107247.80813193
12,603439,110480452.15,110482525.79000002,2018-12-31,年度报告,87026649.28999999,2018,12,-0.7789187063500885,True,0.374669653097577,True,0.0,True,比例外推,110482525.79000002,未知,110482525.79000002
13,603439,21787236.13,21787292.51,2019-03-31,一季度报告,21622721.68,2019,3,-0.3083067081980461,True,未知,未知,未知,未知,未知,未知,未知,未知
14,603439,55078532.38999999,55079709.67999999,2019-06-30,半年度报告,54230960.39,2019,6,-0.6611016183911722,True,0.9393661646702582,True,0.0711753852775655,True,比例外推,133751634.02754185,未知,133751634.02754185
15,603439,133069793.12,133081547.59,2019-12-31,年度报告,131770933.40999997,2019,12,-0.8246481347333986,True,0.3596930552109328,True,0.0,True,比例外推,133081547.59,未知,133081547.59
16,603439,25874616.05,25874713.32,2020-03-31,一季度报告,27812427.02000001,2020,3,-0.11081179620923307,True,0.14479441007030713,True,0.01926509626166012,True,比例外推,190099710.6629977,未知,190099710.6629977
