,SECURITYCODE_x,NETPROFIT_x,PARENTNETPROFIT_x,REPORTDATE_x,REPORTTIMETYPE_x,KCFJCXSYJLR,Year,Month,managesituationChangeRate,managesituationGreatChange,historyprofitextroplaterate,ifhistoryprofitextroplate,IfprofitdisStableChangeRage,IfprofitdisStable,predicttype,predict,analyst_prediction,adj_prediction
0,603488,77766621.4,77766621.4,2012-12-31,年度报告,77392021.40000002,2012,12,未知,未知,未知,未知,未知,未知,未知,未知,未知,未知
1,603488,87566101.88000001,87566101.88000001,2013-12-31,年度报告,86065101.88,2013,12,0.0,True,未知,未知,未知,未知,未知,未知,未知,未知
2,603488,82590619.14,82590619.14,2014-12-31,年度报告,79970419.14000002,2014,12,-0.11190952057485835,True,未知,未知,未知,未知,未知,未知,未知,未知
3,603488,81096998.52000001,81096998.52000001,2015-12-31,年度报告,78417517.7,2015,12,-0.05840854312791624,True,0.0009162433001450151,True,0.0,True,比例外推,81096998.52000001,未知,81096998.52000001
4,603488,30931151.1,30931151.1,2016-06-30,半年度报告,29876932.500000004,2016,6,未知,未知,未知,未知,未知,未知,未知,未知,未知,未知
5,603488,53786573.52,53786573.52,2016-09-30,三季度报告,51696750.62999999,2016,9,未知,未知,未知,未知,未知,未知,未知,未知,未知,未知
6,603488,72550881.24,72550881.24,2016-12-31,年度报告,69402093.53,2016,12,-0.04106658915593125,True,0.046796411756571524,True,0.0,True,比例外推,72550881.24,未知,72550881.24
7,603488,10489516.12,10489516.12,2017-03-31,一季度报告,9751920.26,2017,3,未知,未知,未知,未知,未知,未知,未知,未知,70720000.0,未知
8,603488,29097241.55,29097241.55,2017-06-30,半年度报告,25457209.77,2017,6,1.5141845238342908,False,未知,未知,未知,未知,未知,未知,77000000.0,未知
9,603488,51716678.83000001,51716678.83000001,2017-09-30,三季度报告,43793954.03,2017,9,0.445837061382675,True,未知,未知,未知,未知,未知,未知,,未知
10,603488,71186386.55,71186386.55,2017-12-31,年度报告,57802781.40999999,2017,12,0.07189078989607614,True,0.11354466175080646,True,0.0,True,比例外推,71186386.55,未知,71186386.55
11,603488,8179585.2,8179585.2,2018-03-31,一季度报告,7689582.620000001,2018,3,6.413747260631505,False,未知,未知,未知,未知,未知,未知,未知,未知
12,603488,27377324.83,27377324.83,2018-06-30,半年度报告,22014559.84,2018,6,1.6726458336735361,False,未知,未知,未知,未知,未知,未知,未知,未知
13,603488,49642302.41,49642302.41,2018-09-30,三季度报告,38488814.46,2018,9,0.5037048619388305,False,未知,未知,未知,未知,未知,未知,未知,未知
14,603488,74008179.1,74008179.1,2018-12-31,年度报告,56423828.60999999,2018,12,0.0924367027026744,True,0.07338276764776619,True,0.0,True,比例外推,74008179.1,未知,74008179.1
15,603488,8875639.860000001,8875639.860000001,2019-03-31,一季度报告,9640750.97,2019,3,8.50740404293362,False,未知,未知,未知,未知,未知,未知,未知,未知
16,603488,32808220.430000003,32808220.430000003,2019-06-30,半年度报告,28129142.54000001,2019,6,1.8405485883990957,False,0.08785414296779458,True,0.03019228626583903,True,前期平均,68743586.765,未知,68743586.765
17,603488,57234613.49999999,57234613.49999999,2019-09-30,三季度报告,50636015.75,2019,9,0.5665393751828606,False,0.05894270926710469,True,0.04608556934936825,True,前期平均,73091698.64,未知,73091698.64
18,603488,86394964.64,86394964.64,2019-12-31,年度报告,68892662.43,2019,12,0.05078414772131601,True,0.02977022226588962,True,0.0,True,比例外推,86394964.64,未知,86394964.64
19,603488,5977659.26,5977659.26,2020-03-31,一季度报告,4805871.280000001,2020,3,7.76180451512822,False,0.04916260211286902,True,0.020399730517272896,True,前期平均,54370212.82999998,未知,54370212.82999998
