,SECURITYCODE_x,NETPROFIT_x,PARENTNETPROFIT_x,REPORTDATE_x,REPORTTIMETYPE_x,KCFJCXSYJLR,Year,Month,managesituationChangeRate,managesituationGreatChange,historyprofitextroplaterate,ifhistoryprofitextroplate,IfprofitdisStableChangeRage,IfprofitdisStable,predicttype,predict,analyst_prediction,adj_prediction
0,603429,35418526.72,35269673.5,2013-12-31,年度报告,31747340.86000001,2013,12,未知,未知,未知,未知,未知,未知,未知,未知,未知,未知
1,603429,39360868.93,39206309.48,2014-12-31,年度报告,32928748.789999995,2014,12,0.0,True,未知,未知,未知,未知,未知,未知,未知,未知
2,603429,46734150.05,46871238.18,2015-12-31,年度报告,44402674.33,2015,12,-0.10015892222834627,True,未知,未知,未知,未知,未知,未知,未知,未知
3,603429,12660916.26,12660916.26,2016-03-31,一季度报告,12529462.870000005,2016,3,未知,未知,未知,未知,未知,未知,未知,未知,未知,未知
4,603429,20074778.75,20074778.75,2016-06-30,半年度报告,19736108.98,2016,6,未知,未知,未知,未知,未知,未知,未知,未知,未知,未知
5,603429,52803801.74,52803801.74,2016-12-31,年度报告,51250542.56,2016,12,-0.24212750885366746,True,0.24992050667903448,True,0.0,True,比例外推,52803801.74,未知,52803801.74
6,603429,19945453.71,19945453.71,2017-03-31,一季度报告,13672671.420000002,2017,3,1.7974694716131074,False,未知,未知,未知,未知,未知,未知,未知,未知
7,603429,38194146.69000001,38194146.69000001,2017-06-30,半年度报告,26739324.559999995,2017,6,0.7643296178295365,False,未知,未知,未知,未知,未知,未知,未知,未知
8,603429,70662401.60999998,70662401.60999998,2017-09-30,三季度报告,41732893.95,2017,9,未知,未知,未知,未知,未知,未知,未知,未知,95000000.0,未知
9,603429,99154950.06000005,99154950.06000005,2017-12-31,年度报告,67253815.13,2017,12,-0.3292428659891412,True,0.22664010916279395,True,0.0,True,比例外推,99154950.06000005,95000000.0,99154950.06000005
10,603429,31314497.96,30513730.75,2018-03-31,一季度报告,28263011.12,2018,3,0.7757694176814992,False,未知,未知,未知,未知,未知,未知,,未知
11,603429,55748391.06,54243666.31000001,2018-06-30,半年度报告,48188984.51,2018,6,-0.07267134392419157,True,未知,未知,未知,未知,未知,未知,148920000.0,未知
12,603429,77277525.63000001,75527957.43,2018-09-30,三季度报告,68357887.98,2018,9,-0.49876418133250017,True,未知,未知,未知,未知,未知,未知,111930000.0,未知
13,603429,117417220.55,115409638.0,2018-12-31,年度报告,107551321.5,2018,12,-0.6427961821515945,True,0.9923044080551712,True,0.0,True,比例外推,115409638.0,185000000.0,185000000.0
14,603429,42836106.75,41990722.78,2019-03-31,一季度报告,39038066.53,2019,3,0.13105842428776393,True,0.9207595318835795,True,0.03355395970662001,True,比例外推,167772100.8100301,194480000.0,194480000.0
15,603429,77507049.97,76362014.36999999,2019-06-30,半年度报告,71934367.64000002,2019,6,-0.36467176816133934,True,0.9134861554090121,True,0.03781082781634387,True,比例外推,179772591.83404595,200012500.0,200012500.0
16,603429,102041468.94,100591693.78,2019-09-30,三季度报告,93980330.54000002,2019,9,-0.541671055960284,True,未知,未知,未知,未知,未知,未知,208515000.0,未知
17,603429,203446985.55,201689573.88,2019-12-31,年度报告,160042962.90999997,2019,12,-0.6983532180876513,True,0.5453827984127988,True,0.0,True,比例外推,201689573.88,208353332.99999997,201689573.88
18,603429,3418983.0700000008,4189828.51,2020-03-31,一季度报告,3411137.6700000013,2020,3,-0.17316186256819432,True,0.671328409584511,True,0.033369853724929344,True,比例外推,15191780.945305923,357488000.0,357488000.0
