,SECURITYCODE_x,NETPROFIT_x,PARENTNETPROFIT_x,REPORTDATE_x,REPORTTIMETYPE_x,KCFJCXSYJLR,Year,Month,managesituationChangeRate,managesituationGreatChange,historyprofitextroplaterate,ifhistoryprofitextroplate,IfprofitdisStableChangeRage,IfprofitdisStable,predicttype,predict,analyst_prediction,adj_prediction
0,603599,85177335.47999999,85177335.47999999,2014-06-30,半年度报告,83092591.06,2014,6,未知,未知,未知,未知,未知,未知,未知,未知,未知,未知
1,603599,128303163.15,128303163.15,2014-09-30,三季度报告,124547432.56,2014,9,未知,未知,未知,未知,未知,未知,未知,未知,未知,未知
2,603599,153024308.02000004,153024308.02000004,2014-12-31,年度报告,147038002.20999998,2014,12,未知,未知,未知,未知,未知,未知,未知,未知,未知,未知
3,603599,49954130.76999999,49954130.76999999,2015-03-31,一季度报告,48427339.84999999,2015,3,未知,未知,未知,未知,未知,未知,未知,未知,167655333.0,未知
4,603599,87205967.30000001,87205967.30000001,2015-06-30,半年度报告,84454332.30000001,2015,6,0.0,True,未知,未知,未知,未知,未知,未知,169920000.0,未知
5,603599,133499427.89,133499427.89,2015-09-30,三季度报告,129353846.6,2015,9,-0.33612443069374176,True,未知,未知,未知,未知,未知,未知,,未知
6,603599,130258216.12999997,130258216.12999997,2015-12-31,年度报告,125575404.00999996,2015,12,-0.44337382353091614,True,未知,未知,未知,未知,未知,未知,未知,未知
7,603599,55003277.76999998,55003277.76999998,2016-03-31,一季度报告,49868177.12000001,2016,3,0.7051109521287745,False,未知,未知,未知,未知,未知,未知,155670000.0,未知
8,603599,100336605.43,100336605.43,2016-06-30,半年度报告,88274883.35000001,2016,6,-0.02326253446649198,True,未知,未知,未知,未知,未知,未知,,未知
9,603599,145350467.40999997,145350467.40999997,2016-09-30,三季度报告,130878091.07,2016,9,-0.36196479021480255,True,未知,未知,未知,未知,未知,未知,未知,未知
10,603599,181131038.66,181131038.66,2016-12-31,年度报告,171506447.09,2016,12,-0.3460885769002738,True,未知,未知,未知,未知,未知,未知,未知,未知
11,603599,71816839.51,71816839.51,2017-03-31,一季度报告,71121904.12,2017,3,0.548586537627356,False,未知,未知,未知,未知,未知,未知,249876667.00000003,未知
12,603599,158855273.02000004,158855273.02000004,2017-06-30,半年度报告,155967798.24000007,2017,6,-0.15108414207391047,True,0.16411048879893153,True,0.08842165971724192,True,比例外推,269902061.11976653,304150000.0,304150000.0
13,603599,285936658.65,285936658.65,2017-09-30,三季度报告,278862670.72,2017,9,-0.41398650449651136,True,0.11038219165517969,True,0.1500089092467768,False,平均增速,351766878.82760745,380176250.0,351766878.82760745
14,603599,337226918.85999995,337226918.85999995,2017-12-31,年度报告,331364738.47,2017,12,-0.5297474352814491,True,0.27880136060980526,True,0.0,True,比例外推,337226918.85999995,377776667.0,377776667.0
15,603599,112437693.93999998,112437693.93999998,2018-03-31,一季度报告,109199313.76,2018,3,0.18603569944260254,True,0.3684949068198484,True,0.08862937389331593,True,比例外推,370895335.42707884,451333333.0,451333333.0
16,603599,232523092.39999995,232523092.39999995,2018-06-30,半年度报告,216730752.07,2018,6,-0.46380542577723516,True,0.6940715988651781,True,0.11989715379621846,False,平均增速,498995814.2248697,448000000.0,448000000.0
17,603599,375346763.03,375346763.03,2018-09-30,三季度报告,351279998.18,2018,9,-0.7021111742644336,True,1.0508285172018856,True,0.15183704159147882,False,平均增速,451700837.75855833,494800000.0,451700837.75855833
18,603599,469061803.61,469061803.61,2018-12-31,年度报告,396924831.3299999,2018,12,-0.7474183384649628,True,1.1659509033953328,True,0.0,True,比例外推,469061803.61,462643333.0,469061803.61
19,603599,135224788.44,135224788.44,2019-03-31,一季度报告,122827931.24,2019,3,-0.24244857311416323,True,0.7731838820453738,True,0.045537455298461704,True,比例外推,484501939.34229904,574697778.0,574697778.0
20,603599,257565140.28,257565140.28,2019-06-30,半年度报告,228781745.69,2019,6,-0.6336822523697005,True,0.7942158819984423,True,0.039787127366351704,True,比例外推,476961783.6740718,555360000.0,555360000.0
21,603599,414501551.18,414501551.18,2019-09-30,三季度报告,356436386.0,2019,9,-0.773070280951931,True,0.7405887648859816,True,0.06678138936289957,True,比例外推,487563381.23317134,527765000.0,487563381.23317134
22,603599,505652658.2799999,505652658.2799999,2019-12-31,年度报告,382070303.52,2019,12,-0.8184091417709628,True,0.8097987956205034,True,0.0,True,比例外推,505652658.2799999,588040000.0,588040000.0
23,603599,115104991.07,115104991.07,2020-03-31,一季度报告,102621877.15000002,2020,3,-0.3701056110892445,True,0.4678041935580935,True,0.05577555837886389,True,比例外推,391989471.18876994,540452966.0,540452966.0
