,SECURITYCODE_x,NETPROFIT_x,PARENTNETPROFIT_x,REPORTDATE_x,REPORTTIMETYPE_x,KCFJCXSYJLR,Year,Month,managesituationChangeRate,managesituationGreatChange,historyprofitextroplaterate,ifhistoryprofitextroplate,IfprofitdisStableChangeRage,IfprofitdisStable,predicttype,predict,analyst_prediction,adj_prediction
0,603557,46163169.60999999,46163169.60999999,2013-12-31,年度报告,44833269.61,2013,12,未知,未知,未知,未知,未知,未知,未知,未知,未知,未知
1,603557,105187318.59,105187318.59,2014-12-31,年度报告,91757212.39000002,2014,12,0.0,True,未知,未知,未知,未知,未知,未知,未知,未知
2,603557,150627768.11,150627768.11,2015-12-31,年度报告,126801767.28,2015,12,-0.5611336972098778,True,未知,未知,未知,未知,未知,未知,未知,未知
3,603557,81356599.77,81356599.77,2016-06-30,半年度报告,77802516.89999999,2016,6,未知,未知,未知,未知,未知,未知,未知,未知,未知,未知
4,603557,118433593.92,118433593.92,2016-09-30,三季度报告,102801693.18000002,2016,9,未知,未知,未知,未知,未知,未知,未知,未知,未知,未知
5,603557,175665385.27999997,175665385.27999997,2016-12-31,年度报告,158080979.36999995,2016,12,-0.6935281575951648,True,0.9904497157743563,True,0.0,True,比例外推,175665385.27999997,未知,175665385.27999997
6,603557,28924205.47,28924205.47,2017-03-31,一季度报告,28084775.12,2017,3,未知,未知,未知,未知,未知,未知,未知,未知,未知,未知
7,603557,101490948.61,101490948.61,2017-06-30,半年度报告,76473187.02,2017,6,-0.4325823628260516,True,未知,未知,未知,未知,未知,未知,207545627.0,未知
8,603557,140297155.04999998,140297155.04999998,2017-09-30,三季度报告,112557422.96000002,2017,9,-0.610218958303482,True,未知,未知,未知,未知,未知,未知,,未知
9,603557,194420752.35,194420752.35,2017-12-31,年度报告,161832721.71000004,2017,12,-0.737209641293766,True,0.3733778374533996,True,0.0,True,比例外推,194420752.35,未知,194420752.35
10,603557,31570304.55,31570304.55,2018-03-31,一季度报告,27760524.300000004,2018,3,0.5960047600228859,False,未知,未知,未知,未知,未知,未知,218000000.0,未知
11,603557,109436165.56000002,109501623.88999996,2018-06-30,半年度报告,82041155.63,2018,6,-0.545149885361782,True,未知,未知,未知,未知,未知,未知,218200000.0,未知
12,603557,147292677.93,147487572.54999998,2018-09-30,三季度报告,111977458.95999998,2018,9,-0.6709614703623316,True,未知,未知,未知,未知,未知,未知,,未知
13,603557,180426434.18,180713475.6,2018-12-31,年度报告,142656028.53,2018,12,-0.7625604826027206,True,0.19169372896782622,True,0.0,True,比例外推,180713475.6,未知,180713475.6
14,603557,46434858.44000001,46608462.32000001,2019-03-31,一季度报告,32329069.39999999,2019,3,0.4622339020166339,True,未知,未知,未知,未知,未知,未知,207000000.0,未知
15,603557,106528699.81,106849349.23000003,2019-06-30,半年度报告,90519268.83,2019,6,-0.5781726326596272,True,0.19702086825431267,True,0.06182734340290108,True,比例外推,192687950.13918158,,192687950.13918158
16,603557,150452610.95000005,151112776.42000002,2019-09-30,三季度报告,125474321.85999998,2019,9,-0.6865888361949752,True,0.13857883932519136,True,0.07468903736753407,True,比例外推,202298600.913753,191000000.0,202298600.913753
17,603557,141740576.44,142533256.57,2019-12-31,年度报告,114333560.21999998,2019,12,-0.7441440894190375,True,0.024948973579851028,True,0.0,True,比例外推,142533256.57,未知,142533256.57
18,603557,30990856.97000001,31177230.48,2020-03-31,一季度报告,16847778.75,2020,3,-0.005850967120984735,True,0.5351759498390269,True,0.0657941090702707,True,比例外推,91980840.4848188,未知,91980840.4848188
