,SECURITYCODE_x,NETPROFIT_x,PARENTNETPROFIT_x,REPORTDATE_x,REPORTTIMETYPE_x,KCFJCXSYJLR,Year,Month,managesituationChangeRate,managesituationGreatChange,historyprofitextroplaterate,ifhistoryprofitextroplate,IfprofitdisStableChangeRage,IfprofitdisStable,predicttype,predict,analyst_prediction,adj_prediction
0,603515,300848726.72,293257120.41,2014-12-31,年度报告,205353259.90000004,2014,12,未知,未知,未知,未知,未知,未知,未知,未知,未知,未知
1,603515,252846053.86000004,247669934.79,2015-09-30,三季度报告,206033647.56,2015,9,未知,未知,未知,未知,未知,未知,未知,未知,未知,未知
2,603515,443893758.27,435956331.13,2015-12-31,年度报告,376563764.65,2015,12,0.0,True,未知,未知,未知,未知,未知,未知,未知,未知
3,603515,31715798.47000001,31471767.500000004,2016-03-31,一季度报告,21678224.95,2016,3,未知,未知,未知,未知,未知,未知,未知,未知,未知,未知
4,603515,185841344.45,183079652.3,2016-06-30,半年度报告,159472296.95000002,2016,6,未知,未知,未知,未知,未知,未知,未知,未知,450497800.0,未知
5,603515,301438292.44000006,299025969.94000006,2016-09-30,三季度报告,244451383.66,2016,9,0.18984940491331098,True,未知,未知,未知,未知,未知,未知,,未知
6,603515,512143197.3299999,506456840.05,2016-12-31,年度报告,416794537.39000016,2016,12,-0.3222506036297818,True,未知,未知,未知,未知,未知,未知,539000000.0,未知
7,603515,48583965.72000001,49344926.78000001,2017-03-31,一季度报告,27889620.25,2017,3,8.485768646328516,False,未知,未知,未知,未知,未知,未知,635920000.0,未知
8,603515,258792155.55000004,258677852.59000003,2017-06-30,半年度报告,216966051.14,2017,6,0.6188471279648022,False,未知,未知,未知,未知,未知,未知,671034000.0,未知
9,603515,415846502.85,415928986.68,2017-09-30,三季度报告,346539494.8400001,2017,9,-0.0019558421567073435,True,未知,未知,未知,未知,未知,未知,689663333.0,未知
10,603515,681524664.84,681100405.7299999,2017-12-31,年度报告,581620047.35,2017,12,-0.4125691246345934,True,0.3753564692549444,True,0.0,True,比例外推,681100405.7299999,646000000.0,681100405.7299999
11,603515,70145552.79,70166631.74000001,2018-03-31,一季度报告,36219646.66,2018,3,5.192346019134313,False,未知,未知,未知,未知,未知,未知,889212727.0,未知
12,603515,357982741.28,357928865.23,2018-06-30,半年度报告,252704987.73,2018,6,0.16251099682916947,True,未知,未知,未知,未知,未知,未知,861210714.0,未知
13,603515,570505650.71,570279799.1399999,2018-09-30,三季度报告,399830158.9900001,2018,9,-0.27653900018844413,True,0.500480775348932,True,0.029346023262119214,True,比例外推,864012243.6075324,871046154.0,864012243.6075324
14,603515,899560999.78,899223477.1100003,2018-12-31,年度报告,596396519.13,2018,12,-0.5585651668371686,True,0.4257287039961368,True,0.0,True,比例外推,899223477.1100003,870530667.0,899223477.1100003
15,603515,86032140.42999999,86134196.47000001,2019-03-31,一季度报告,40086090.10000001,2019,3,3.288920890261901,False,0.7470923731239412,True,0.0071660791822044725,True,前期平均,560557566.2400001,1046048667.0,1046048667.0
16,603515,404883458.24,404773096.0,2019-06-30,半年度报告,257225456.41,2019,6,-0.15959991354810027,True,0.6102373810340426,True,0.030595328303337443,True,比例外推,801858178.7139349,1013880000.0,1013880000.0
17,603515,602440732.6200001,602188049.7900001,2019-09-30,三季度报告,416037371.9099999,2019,9,-0.47266302034766744,True,0.5907367741688798,True,0.05283296903732815,True,比例外推,859811430.3360097,927574545.0000001,859811430.3360097
18,603515,890765558.2799999,890323353.02,2019-12-31,年度报告,671765774.97,2019,12,-0.6655605047422279,True,0.5072216121236011,True,0.0,True,比例外推,890323353.02,1064487500.0,1064487500.0
19,603515,-7454937.479999999,-7113573.29,2020-03-31,一季度报告,-85055128.67999999,2020,3,2.4969341134175944,False,0.44921231905364656,True,0.00816676826955716,True,盈利变化,723468394.6466666,917637500.0,917637500.0
