,SECURITYCODE_x,NETPROFIT_x,PARENTNETPROFIT_x,REPORTDATE_x,REPORTTIMETYPE_x,KCFJCXSYJLR,Year,Month,managesituationChangeRate,managesituationGreatChange,historyprofitextroplaterate,ifhistoryprofitextroplate,IfprofitdisStableChangeRage,IfprofitdisStable,predicttype,predict,analyst_prediction,adj_prediction
0,603535,69355452.28999998,68880808.39,2012-12-31,年度报告,67036308.38999999,2012,12,未知,未知,未知,未知,未知,未知,未知,未知,未知,未知
1,603535,72708941.97,72272023.61,2013-12-31,年度报告,69960723.61,2013,12,0.0,True,未知,未知,未知,未知,未知,未知,未知,未知
2,603535,70141342.92999998,69900972.87,2014-12-31,年度报告,64234179.04000001,2014,12,-0.046122108081062235,True,未知,未知,未知,未知,未知,未知,未知,未知
3,603535,41765053.10000001,41978810.18,2015-06-30,半年度报告,40128010.18000001,2015,6,未知,未知,未知,未知,未知,未知,未知,未知,未知,未知
4,603535,71729125.15,72163899.48,2015-12-31,年度报告,61438665.01,2015,12,-0.011204385419085972,True,0.012541554900373078,True,0.0,True,比例外推,72163899.48,未知,72163899.48
5,603535,46499152.57999999,46108300.77,2016-06-30,半年度报告,44652300.77,2016,6,0.6606096997874992,False,未知,未知,未知,未知,未知,未知,未知,未知
6,603535,66607717.01,66030846.91000001,2016-09-30,三季度报告,64487540.67,2016,9,未知,未知,未知,未知,未知,未知,未知,未知,未知,未知
7,603535,104620385.24,103932009.9,2016-12-31,年度报告,99846382.62999998,2016,12,-0.033092176365405304,True,0.004255962110440536,True,0.0,True,比例外推,103932009.9,未知,103932009.9
8,603535,20819900.11,20721163.919999994,2017-03-31,一季度报告,17777355.279999994,2017,3,未知,未知,未知,未知,未知,未知,未知,未知,未知,未知
9,603535,49645862.03000001,49310106.72000001,2017-06-30,半年度报告,46020984.77,2017,6,0.49154228500565916,True,未知,未知,未知,未知,未知,未知,124903333.0,未知
10,603535,82914436.71000001,82024754.24,2017-09-30,三季度报告,77692412.15,2017,9,0.04125250651643644,True,未知,未知,未知,未知,未知,未知,128950000.0,未知
11,603535,119744628.24,118814266.16,2017-12-31,年度报告,101964003.63,2017,12,-0.3370751586232643,True,0.4748719258613446,True,0.0,True,比例外推,118814266.16,未知,118814266.16
12,603535,27093015.100000005,26726427.680000003,2018-03-31,一季度报告,20054283.52,2018,3,2.3312096563176055,False,未知,未知,未知,未知,未知,未知,未知,未知
13,603535,63757917.88,62997249.06,2018-06-30,半年度报告,49633012.44999999,2018,6,0.39700368679447756,True,0.12493760403826713,True,0.13590776907072033,False,平均增速,130175319.19495593,144285000.0,130175319.19495593
14,603535,103283758.29,102132877.67000002,2018-09-30,三季度报告,84101949.67,2018,9,-0.1635298382044575,True,未知,未知,未知,未知,未知,未知,144285000.0,未知
15,603535,137789916.79999998,137525264.12,2018-12-31,年度报告,119459262.00999998,2018,12,-0.42080531453157755,True,0.3580375468600132,True,0.0,True,比例外推,137525264.12,,137525264.12
16,603535,30660202.88000001,30406245.98000001,2019-03-31,一季度报告,24855861.17,2019,3,1.5599015847446216,False,未知,未知,未知,未知,未知,未知,未知,未知
17,603535,71445484.27000001,71122110.97,2019-06-30,半年度报告,58923270.41,2019,6,0.08779355719449937,True,0.326286508741527,True,0.02253136568219738,True,比例外推,146723163.18223935,未知,146723163.18223935
18,603535,108692193.5,108078247.35,2019-09-30,三季度报告,91014066.93000002,2019,9,-0.3284960439252818,True,0.3815177981372914,True,0.05808202706963972,True,比例外推,146354781.78962594,未知,146354781.78962594
19,603535,128490821.41,127868422.41,2019-12-31,年度报告,146328742.92,2019,12,-0.4966580000866944,True,0.2282656254004829,True,0.0,True,比例外推,127868422.41,,127868422.41
20,603535,34810072.01,34749443.629999995,2020-03-31,一季度报告,17727432.87,2020,3,1.2620676243222548,False,0.2798304067125873,True,0.0036533333923114697,True,前期平均,126545257.04999998,143000000.0,143000000.0
