,SECURITYCODE_x,NETPROFIT_x,PARENTNETPROFIT_x,REPORTDATE_x,REPORTTIMETYPE_x,KCFJCXSYJLR,Year,Month,managesituationChangeRate,managesituationGreatChange,historyprofitextroplaterate,ifhistoryprofitextroplate,IfprofitdisStableChangeRage,IfprofitdisStable,predicttype,predict,analyst_prediction,adj_prediction
0,603559,37006098.29,37006098.29,2014-12-31,年度报告,36812438.14000001,2014,12,未知,未知,未知,未知,未知,未知,未知,未知,未知,未知
1,603559,15867956.129999995,15867956.129999995,2015-09-30,三季度报告,15164556.129999995,2015,9,未知,未知,未知,未知,未知,未知,未知,未知,未知,未知
2,603559,40595081.52,40595081.52,2015-12-31,年度报告,39717711.62,2015,12,0.0,True,未知,未知,未知,未知,未知,未知,未知,未知
3,603559,1135607.87,1135607.87,2016-03-31,一季度报告,1135040.68,2016,3,未知,未知,未知,未知,未知,未知,未知,未知,未知,未知
4,603559,10957802.44,10957802.44,2016-06-30,半年度报告,10913072.999999998,2016,6,未知,未知,未知,未知,未知,未知,未知,未知,未知,未知
5,603559,42535482.8,42535482.8,2016-12-31,年度报告,42119311.99,2016,12,-0.08840931205500395,True,未知,未知,未知,未知,未知,未知,未知,未知
6,603559,-308665.55000000005,-308665.55000000005,2017-03-31,一季度报告,672215.2,2017,3,31.587039300810762,False,未知,未知,未知,未知,未知,未知,未知,未知
7,603559,10659440.86,10659440.86,2017-06-30,半年度报告,11494250.61,2017,6,2.3771459644968744,False,未知,未知,未知,未知,未知,未知,未知,未知
8,603559,14926448.72,14926448.72,2017-09-30,三季度报告,15945759.08,2017,9,未知,未知,未知,未知,未知,未知,未知,未知,未知,未知
9,603559,27657543.73,27849780.78,2017-12-31,年度报告,28052394.61,2017,12,-0.12999463379783238,True,0.0962586626683916,True,0.0,True,比例外推,27849780.78,未知,27849780.78
10,603559,175128.19,569802.8400000001,2018-03-31,一季度报告,-932169.09,2018,3,-120.89060097571624,False,未知,未知,未知,未知,未知,未知,未知,未知
11,603559,15031581.209999995,16141542.2,2018-06-30,半年度报告,14620662.19,2018,6,2.471673493575722,False,未知,未知,未知,未知,未知,未知,未知,未知
12,603559,14002594.550000004,16015921.9,2018-09-30,三季度报告,14578159.28,2018,9,1.4792299216099138,False,未知,未知,未知,未知,未知,未知,未知,未知
13,603559,48974745.07000001,49276632.36999999,2018-12-31,年度报告,47367036.60999999,2018,12,0.3380110197515359,True,0.3345998801707641,True,0.0,True,比例外推,49276632.36999999,未知,49276632.36999999
14,603559,-5940815.079999999,-5496677.470000002,2019-03-31,一季度报告,-5751151.61,2019,3,210.30863220821274,False,0.576444001559867,True,0.030090157004578816,True,盈利变化,42851322.34333332,未知,42851322.34333332
15,603559,10836638.360000003,10925899.72,2019-06-30,半年度报告,10591889.0,2019,6,1.461889921825464,False,0.39070287560671507,True,0.08390599118250142,True,前期平均,34808091.215,未知,34808091.215
16,603559,26375198.140000004,26957263.9,2019-09-30,三季度报告,26304150.74,2019,9,1.6428029575418925,False,未知,未知,未知,未知,未知,未知,未知,未知
17,603559,13936509.909999998,16896211.729999997,2019-12-31,年度报告,16324568.319999995,2019,12,-0.24438405473868466,True,0.3954305004662692,True,0.0,True,比例外推,16896211.729999997,未知,16896211.729999997
18,603559,-14244540.3,-13818764.2,2020-03-31,一季度报告,-14347094.16,2020,3,-7.2291281232742906,False,-87.97607501001963,True,0.23629463454364452,False,前期平均,24020928.355,未知,24020928.355
