,SECURITYCODE_x,NETPROFIT_x,PARENTNETPROFIT_x,REPORTDATE_x,REPORTTIMETYPE_x,KCFJCXSYJLR,Year,Month,managesituationChangeRate,managesituationGreatChange,historyprofitextroplaterate,ifhistoryprofitextroplate,IfprofitdisStableChangeRage,IfprofitdisStable,predicttype,predict,analyst_prediction,adj_prediction
0,603588,-20951292.38,-20606486.51,2014-03-31,一季度报告,-20666235.81,2014,3,未知,未知,未知,未知,未知,未知,未知,未知,未知,未知
1,603588,115454660.59,115552642.66,2014-12-31,年度报告,103317831.38999996,2014,12,未知,未知,未知,未知,未知,未知,未知,未知,未知,未知
2,603588,-22013758.16,-21693323.230000004,2015-03-31,一季度报告,-21707812.34,2015,3,-0.0,False,未知,未知,未知,未知,未知,未知,190372500.0,未知
3,603588,15533886.13,15508102.44,2015-06-30,半年度报告,13872723.8,2015,6,未知,未知,未知,未知,未知,未知,未知,未知,180718250.0,未知
4,603588,43614468.19,43918023.48,2015-09-30,三季度报告,23519891.680000003,2015,9,未知,未知,未知,未知,未知,未知,未知,未知,154300000.0,未知
5,603588,106493688.43000004,106386203.68,2015-12-31,年度报告,101131254.32,2015,12,-1.1814677057897365,False,未知,未知,未知,未知,未知,未知,174318200.0,未知
6,603588,-12475374.409999995,-11816693.490000002,2016-03-31,一季度报告,-12401076.79,2016,3,-0.04826371636672878,False,未知,未知,未知,未知,未知,未知,172052000.0,未知
7,603588,36587504.08,37328378.79,2016-06-30,半年度报告,37050132.35,2016,6,-2.348747647862409,False,未知,未知,未知,未知,未知,未知,174456110.99999997,未知
8,603588,74114215.12,75292800.92,2016-09-30,三季度报告,74975465.18,2016,9,-1.480374821692856,False,未知,未知,未知,未知,未知,未知,171448235.0,未知
9,603588,163890651.06000003,156481361.03,2016-12-31,年度报告,155959562.41,2016,12,-1.1967374094078036,False,未知,未知,未知,未知,未知,未知,172165881.99999997,未知
10,603588,7575996.74,3343352.2800000007,2017-03-31,一季度报告,3554845.87,2017,3,0.6794119111331752,False,-0.41927802931894353,True,0.08521544616876787,True,未知,未知,356921154.0,未知
11,603588,87679726.91000001,66018849.44,2017-06-30,半年度报告,66120105.66,2017,6,-1.5726351908069263,False,未知,未知,未知,未知,未知,未知,346167500.0,未知
12,603588,162153039.47000006,129423130.33,2017-09-30,三季度报告,130430747.64,2017,9,-1.2826892566571377,False,未知,未知,未知,未知,未知,未知,348048571.0,未知
13,603588,240280811.47,191945756.46,2017-12-31,年度报告,188362341.14,2017,12,-1.127837019649948,False,0.4768359556054336,True,0.0,True,前期平均,191945756.46,342886250.0,342886250.0
14,603588,40748332.95000001,30943984.599999994,2018-03-31,一季度报告,30964071.710000005,2018,3,-3.7654832887375287,False,-1.4393266038004042,True,0.12288582071701863,False,前期平均,176543837.52999997,306618480.0,306618480.0
15,603588,189274161.23,151863552.97,2018-06-30,半年度报告,151235669.74999997,2018,6,-1.2389525277776665,False,2.364443141548354,False,0.10910480605916464,False,去年同期,274105788.45,302949167.0,274105788.45
16,603588,292857878.55000013,241364050.72,2018-09-30,三季度报告,240043295.06,2018,9,-1.129206905084725,False,1.754690444350304,True,0.23601553228252084,False,前期平均,320661780.655,312420714.0,320661780.655
17,603588,396799905.35999984,324619896.16000015,2018-12-31,年度报告,302281510.7,2018,12,-1.0871950292319361,False,0.7773278727844856,True,0.0,True,前期平均,324619896.16000015,313199375.0,324619896.16000015
18,603588,58987190.65,54681374.36,2019-03-31,一季度报告,52703538.37000001,2019,3,-1.514163178300034,False,-17.634085263322866,True,0.09344544058957859,True,前期平均,231265441.59499997,448574175.00000006,448574175.00000006
19,603588,230233966.76,205125583.64,2019-06-30,半年度报告,199556443.09,2019,6,-1.11069282908902,False,2.0462441260195328,False,0.1373464726350918,False,去年同期,356171424.59000003,433721579.0,433721579.0
20,603588,357243845.64,313924430.31000006,2019-09-30,三季度报告,303418533.77,2019,9,-1.0715408186514708,False,1.479039078506271,True,0.17502598906233574,False,前期平均,383382275.6750001,429379986.99999994,429379986.99999994
21,603588,483849735.4800001,412015129.4099999,2019-12-31,年度报告,392574741.06,2019,12,-1.052800648631687,False,0.9635226241662075,True,0.0,True,前期平均,412015129.4099999,425121415.0,412015129.4099999
22,603588,66546123.56,70452817.53,2020-03-31,一季度报告,68583323.77000001,2020,3,-1.3551837636125836,False,1.4413040399484942,True,0.06631358610195662,True,前期平均,298515284.65999997,533477895.0,533477895.0
