,SECURITYCODE_x,NETPROFIT_x,PARENTNETPROFIT_x,REPORTDATE_x,REPORTTIMETYPE_x,KCFJCXSYJLR,Year,Month,managesituationChangeRate,managesituationGreatChange,historyprofitextroplaterate,ifhistoryprofitextroplate,IfprofitdisStableChangeRage,IfprofitdisStable,predicttype,predict,analyst_prediction,adj_prediction
0,603538,78491366.6,72730060.07000001,2014-12-31,年度报告,68004360.07000001,2014,12,未知,未知,未知,未知,未知,未知,未知,未知,未知,未知
1,603538,78491366.6,72730060.07000001,2014-12-31,年度报告,68004343.15,2014,12,未知,未知,未知,未知,未知,未知,未知,未知,未知,未知
2,603538,81772523.77,77020188.98,2015-12-31,年度报告,67486788.98,2015,12,0.0,True,未知,未知,未知,未知,未知,未知,未知,未知
3,603538,81772523.77,77020188.98,2015-12-31,年度报告,67486826.28,2015,12,0.0,True,未知,未知,未知,未知,未知,未知,未知,未知
4,603538,13870081.659999998,12190070.790000005,2016-03-31,一季度报告,10996632.96,2016,3,未知,未知,未知,未知,未知,未知,未知,未知,未知,未知
5,603538,43919855.02,40583235.38999999,2016-06-30,半年度报告,39670399.91,2016,6,未知,未知,未知,未知,未知,未知,未知,未知,未知,未知
6,603538,65684109.72,61592406.92,2016-09-30,三季度报告,58391197.78,2016,9,未知,未知,未知,未知,未知,未知,未知,未知,未知,未知
7,603538,85123004.92,78843436.04999998,2016-12-31,年度报告,73258606.1,2016,12,-0.040125423782062165,True,未知,未知,未知,未知,未知,未知,未知,未知
8,603538,14851984.87,13281975.07,2017-03-31,一季度报告,13167434.09,2017,3,4.659041419082748,False,未知,未知,未知,未知,未知,未知,88486667.0,未知
9,603538,35664986.28999999,32829574.04,2017-06-30,半年度报告,30534896.5,2017,6,0.7871499476548133,False,未知,未知,0.0,True,未知,未知,,未知
10,603538,39102411.23999999,35596212.38,2017-09-30,三季度报告,31304658.230000004,2017,9,0.194982575459957,True,未知,未知,未知,未知,未知,未知,未知,未知
11,603538,49952914.03,44677400.47000001,2017-12-31,年度报告,33695631.81,2017,12,-0.07790653450536116,True,0.06228551825963014,True,未知,未知,未知,未知,未知,未知
12,603538,8397627.11,7867044.620000001,2018-03-31,一季度报告,6940398.87,2018,3,4.284907524956292,False,未知,未知,未知,未知,未知,未知,未知,未知
13,603538,48086604.86,45045792.11000001,2018-06-30,半年度报告,18972960.540000007,2018,6,1.2007962084092536,False,未知,未知,0.0,True,未知,未知,未知,未知
14,603538,70340964.25,64397025.71,2018-09-30,三季度报告,33567124.78,2018,9,1.0073280422079673,False,未知,未知,0.17180304079742503,False,未知,未知,未知,未知
15,603538,105061774.14000005,96349245.16,2018-12-31,年度报告,59812858.9,2018,12,0.5713070623439662,False,0.4013870302926448,True,0.31789259007221304,False,前期平均,96349245.16,未知,96349245.16
16,603538,46587612.73,42242329.91,2019-03-31,一季度报告,37055639.97000001,2019,3,8.346850672439539,False,0.41524910115859964,True,0.2012309608850429,False,前期平均,83637415.33999999,158976667.0,158976667.0
17,603538,93619381.9,86294151.06000002,2019-06-30,半年度报告,78208619.35999998,2019,6,0.6322917125989833,False,0.2084362817962374,True,0.0,True,前期平均,104668621.81000002,142885000.0,142885000.0
18,603538,139418010.46,127965849.93999995,2019-09-30,三季度报告,118740959.98000003,2019,9,0.11586992639214487,True,0.3425574893711981,True,0.14095399902638678,False,平均增速,189052031.4720521,161042500.0,161042500.0
19,603538,160799884.99,150904871.04999998,2019-12-31,年度报告,140278977.39,2019,12,-0.2529027113571646,True,0.5555959190459396,True,未知,未知,True,True,161042500.0,161042500.0
20,603538,46420289.65,43614019.719999984,2020-03-31,一季度报告,40482988.58000001,2020,3,0.6848119489379983,False,3.007603461948185,False,未知,未知,去年同期,146837357.13999996,198365000.0,198365000.0
