,SECURITYCODE_x,NETPROFIT_x,PARENTNETPROFIT_x,REPORTDATE_x,REPORTTIMETYPE_x,KCFJCXSYJLR,Year,Month,managesituationChangeRate,managesituationGreatChange,historyprofitextroplaterate,ifhistoryprofitextroplate,IfprofitdisStableChangeRage,IfprofitdisStable,predicttype,predict,analyst_prediction,adj_prediction
0,603556,358080779.78,354101758.65,2014-12-31,年度报告,361663800.47,2014,12,未知,未知,未知,未知,未知,未知,未知,未知,未知,未知
1,603556,358080779.78,354101758.65,2014-12-31,年度报告,364006942.25,2014,12,未知,未知,未知,未知,未知,未知,未知,未知,未知,未知
2,603556,254713617.28,254143479.78,2015-09-30,三季度报告,247256527.77,2015,9,未知,未知,未知,未知,未知,未知,未知,未知,未知,未知
3,603556,433978783.94,433408646.44,2015-12-31,年度报告,413785086.78000015,2015,12,0.0,True,未知,未知,未知,未知,未知,未知,未知,未知
4,603556,116164620.27000004,116164620.27000004,2016-03-31,一季度报告,109303301.53999998,2016,3,未知,未知,未知,未知,未知,未知,未知,未知,未知,未知
5,603556,227986221.79,227986221.79,2016-06-30,半年度报告,220109569.47000003,2016,6,未知,未知,未知,未知,未知,未知,未知,未知,未知,未知
6,603556,362065461.42,362065461.42,2016-09-30,三季度报告,346920659.6,2016,9,0.40581718246485093,True,未知,未知,未知,未知,未知,未知,616520000.0,未知
7,603556,507675898.33999974,508149911.76,2016-12-31,年度报告,484379634.73,2016,12,-0.1748887433411799,True,未知,未知,未知,未知,未知,未知,未知,未知
8,603556,136753397.35999998,136753397.35999998,2017-03-31,一季度报告,136302681.35,2017,3,2.0825287333416758,False,未知,未知,未知,未知,未知,未知,640782398.0,未知
9,603556,270721029.44000006,271542413.7100001,2017-06-30,半年度报告,260654685.40000004,2017,6,0.5706246498958659,False,未知,未知,未知,未知,未知,未知,622300000.0,未知
10,603556,410106454.55,411337266.11,2017-09-30,三季度报告,391380594.64,2017,9,-0.0110054177064345,True,未知,未知,0.0,True,未知,未知,611375000.0,未知
11,603556,562290334.35,562851964.67,2017-12-31,年度报告,527419744.38,2017,12,-0.2946665757605322,True,0.28191343579172434,True,未知,未知,未知,未知,665582500.0,未知
12,603556,49287825.84000001,49395072.1,2018-03-31,一季度报告,47335692.25,2018,3,1.6184415648363093,False,未知,未知,未知,未知,未知,未知,713803463.0,未知
13,603556,162192475.38,162573240.7,2018-06-30,半年度报告,152041476.06000003,2018,6,0.32269288618142417,True,未知,未知,0.08772890255670951,True,未知,未知,403140000.0,未知
14,603556,276694903.15000004,278943344.42,2018-09-30,三季度报告,258083209.62,2018,9,-0.12685895135955996,True,0.32983257283755846,True,0.0,True,比例外推,397471602.10033953,437000000.0,397471602.10033953
15,603556,330110024.89999986,329919823.04999995,2018-12-31,年度报告,258221024.78000003,2018,12,-0.3631745774290492,True,0.1942601570005336,True,0.03915334415849736,True,比例外推,329919823.04999995,437000000.0,437000000.0
16,603556,76088121.35999998,76850345.92000002,2019-03-31,一季度报告,67758272.5,2019,3,6.2650958665211816,False,0.6102466221911925,True,0.07632818371547323,True,前期平均,459947044.03000003,439560000.0,459947044.03000003
17,603556,280519655.48999995,280691529.6,2019-06-30,半年度报告,243440885.76,2019,6,1.2077521102076665,False,0.34954835735806034,True,0.18021650043575754,False,前期平均,546209091.72,501405000.0,546209091.72
18,603556,370021955.64000016,370968737.11,2019-09-30,三季度报告,330583408.71000004,2019,9,0.2941357997688868,True,0.28333341985789073,True,0.0,True,比例外推,443905003.2871807,509787500.0,509787500.0
19,603556,501498354.43,500474255.87,2019-12-31,年度报告,380239422.0899999,2019,12,0.08473161300833953,True,0.3829524431437973,True,0.05178415166937983,True,比例外推,500474255.87,515716667.0,500474255.87
20,603556,58459144.18,60478270.31999999,2020-03-31,一季度报告,31974410.779999994,2020,3,3.706132486643905,False,0.1820294443215638,True,未知,未知,前期平均,361479468.1,611600000.0,611600000.0
