,SECURITYCODE_x,NETPROFIT_x,PARENTNETPROFIT_x,REPORTDATE_x,REPORTTIMETYPE_x,KCFJCXSYJLR,Year,Month,managesituationChangeRate,managesituationGreatChange,historyprofitextroplaterate,ifhistoryprofitextroplate,IfprofitdisStableChangeRage,IfprofitdisStable,predicttype,predict,analyst_prediction,adj_prediction
0,603587,175027867.93,175027867.93,2012-12-31,年度报告,174404062.12,2012,12,未知,未知,未知,未知,未知,未知,未知,未知,未知,未知
1,603587,290792974.95000005,290792974.95000005,2013-12-31,年度报告,282718381.31,2013,12,0.0,True,未知,未知,未知,未知,未知,未知,未知,未知
2,603587,462482321.74000007,462482321.74000007,2014-12-31,年度报告,445689006.23,2014,12,-0.39810145702421146,True,未知,未知,未知,未知,未知,未知,未知,未知
3,603587,147020973.88000005,147020973.88000005,2015-03-31,一季度报告,144522828.3,2015,3,未知,未知,未知,未知,未知,未知,未知,未知,未知,未知
4,603587,503229523.08,503229523.08,2015-12-31,年度报告,499537705.49000007,2015,12,-0.621546900924793,True,0.9856660723064296,True,0.0,True,比例外推,503229523.08,未知,503229523.08
5,603587,522338993.42,522338760.92000014,2016-12-31,年度报告,491135796.31,2016,12,-0.6521907799471947,True,0.33611051707460166,True,0.0,True,比例外推,522338760.92000014,未知,522338760.92000014
6,603587,144343641.65,144343641.65,2017-03-31,一季度报告,143401041.65000004,2017,3,未知,未知,未知,未知,未知,未知,未知,未知,未知,未知
7,603587,272657096.67,272656201.48,2017-06-30,半年度报告,238779444.5900001,2017,6,未知,未知,未知,未知,未知,未知,未知,未知,未知,未知
8,603587,358942875.95000017,358938121.95,2017-09-30,三季度报告,374431502.76000017,2017,9,未知,未知,未知,未知,未知,未知,未知,未知,未知,未知
9,603587,480072293.7900001,480063705.49,2017-12-31,年度报告,496225043.65,2017,12,-0.6649151793474006,True,0.08176988036707633,True,0.0,True,比例外推,480063705.49,未知,480063705.49
10,603587,147176757.33,147172886.98999998,2018-03-31,一季度报告,142696099.39999998,2018,3,0.21257760944124,True,未知,未知,未知,未知,未知,未知,未知,未知
11,603587,335566764.6,335564021.84000003,2018-06-30,半年度报告,242919197.51,2018,6,-0.35806597346029023,True,未知,未知,未知,未知,未知,未知,587552222.0,未知
12,603587,449697817.9199999,449695064.6100001,2018-09-30,三季度报告,356652020.6,2018,9,-0.5123796022786061,True,未知,未知,未知,未知,未知,未知,589893333.0,未知
13,603587,574113308.4,574108087.4300001,2018-12-31,年度报告,470729401.22,2018,12,-0.6354135196009393,True,0.063792840621975,True,0.0,True,比例外推,574108087.4300001,590445000.0,574108087.4300001
14,603587,195128436.99,195128460.02,2019-03-31,一季度报告,160074622.65999997,2019,3,0.1892357944641502,True,未知,未知,未知,未知,未知,未知,651992308.0,未知
15,603587,339226393.54,339226410.14000005,2019-06-30,半年度报告,296097870.82,2019,6,-0.47841119444997626,True,未知,未知,未知,未知,未知,未知,642863846.0,未知
16,603587,479620769.25,479620859.58,2019-09-30,三季度报告,432577061.8,2019,9,-0.6107878202754877,True,未知,未知,未知,未知,未知,未知,644740000.0,未知
17,603587,624368459.5899997,624368493.6800001,2019-12-31,年度报告,567485909.57,2019,12,-0.6951335818746541,True,0.14546457272627691,True,0.0,True,比例外推,624368493.6800001,644740000.0,624368493.6800001
18,603587,122067123.70999998,122067127.32,2020-03-31,一季度报告,87155691.5,2020,3,-0.1030119923577829,True,0.3386949089856792,True,0.01173861443937052,True,比例外推,334004752.7899914,656861875.0,656861875.0
