,SECURITYCODE_x,NETPROFIT_x,PARENTNETPROFIT_x,REPORTDATE_x,REPORTTIMETYPE_x,KCFJCXSYJLR,Year,Month,managesituationChangeRate,managesituationGreatChange,historyprofitextroplaterate,ifhistoryprofitextroplate,IfprofitdisStableChangeRage,IfprofitdisStable,predicttype,predict,analyst_prediction,adj_prediction
0,603530,39283553.02,39283553.02,2014-12-31,年度报告,42713399.84,2014,12,未知,未知,未知,未知,未知,未知,未知,未知,未知,未知
1,603530,65425070.08,65425070.08,2015-12-31,年度报告,64754172.95000001,2015,12,0.0,True,未知,未知,未知,未知,未知,未知,未知,未知
2,603530,119762439.75,119762439.75,2016-12-31,年度报告,119101292.88,2016,12,-0.39956421946563997,True,未知,未知,未知,未知,未知,未知,未知,未知
3,603530,57482904.18,57482904.18,2017-06-30,半年度报告,62797745.64999998,2017,6,未知,未知,未知,未知,未知,未知,未知,未知,未知,未知
4,603530,124336403.15,124336403.15,2017-12-31,年度报告,106962963.28,2017,12,-0.671987702471634,True,1.2875372859334258,True,0.0,True,比例外推,124336403.15,未知,124336403.15
5,603530,63520761.05,63520761.05,2018-06-30,半年度报告,61086058.9,2018,6,-0.31660458739195174,True,未知,未知,未知,未知,未知,未知,未知,未知
6,603530,78476368.8,78476368.8,2018-09-30,三季度报告,66348313.85999999,2018,9,未知,未知,未知,未知,未知,未知,未知,未知,未知,未知
7,603530,121554075.66,121554075.66,2018-12-31,年度报告,103412517.38,2018,12,-0.6840542912230768,True,0.3428162975369063,True,0.0,True,比例外推,121554075.66,未知,121554075.66
8,603530,15661943.01,15661943.01,2019-03-31,一季度报告,14664893.76,2019,3,未知,未知,未知,未知,未知,未知,未知,未知,未知,未知
9,603530,58939115.72999999,58939115.72999999,2019-06-30,半年度报告,55948722.74,2019,6,-0.38156356487797455,True,未知,未知,未知,未知,未知,未知,未知,未知
10,603530,79615850.46,79615850.46,2019-09-30,三季度报告,75508364.45,2019,9,-0.4994218817627045,True,未知,未知,未知,未知,未知,未知,未知,未知
11,603530,127245396.11,127245396.11,2019-12-31,年度报告,116855688.90999998,2019,12,-0.6768224116986387,True,0.004058567292782579,True,0.0,True,比例外推,127245396.11,未知,127245396.11
12,603530,19856947.32,19856947.32,2020-03-31,一季度报告,20312689.64,2020,3,1.5082170835967055,False,未知,未知,未知,未知,未知,未知,未知,未知
