,SECURITYCODE_x,NETPROFIT_x,PARENTNETPROFIT_x,REPORTDATE_x,REPORTTIMETYPE_x,KCFJCXSYJLR,Year,Month,managesituationChangeRate,managesituationGreatChange,historyprofitextroplaterate,ifhistoryprofitextroplate,IfprofitdisStableChangeRage,IfprofitdisStable,predicttype,predict,analyst_prediction,adj_prediction
0,603533,52219336.65999999,52219336.65999999,2013-12-31,年度报告,51715754.20999999,2013,12,未知,未知,未知,未知,未知,未知,未知,未知,未知,未知
1,603533,57455684.04999998,57455684.04999998,2014-12-31,年度报告,56324710.35,2014,12,0.0,True,未知,未知,未知,未知,未知,未知,未知,未知
2,603533,29566345.5,29566345.5,2015-12-31,年度报告,62170349.30999999,2015,12,-0.09113715164270147,True,未知,未知,未知,未知,未知,未知,未知,未知
3,603533,20517139.39,20517139.39,2016-06-30,半年度报告,19949707.23,2016,6,未知,未知,未知,未知,未知,未知,未知,未知,未知,未知
4,603533,47637037.22000001,47637037.22000001,2016-09-30,三季度报告,47069605.06,2016,9,未知,未知,未知,未知,未知,未知,未知,未知,未知,未知
5,603533,77209640.58,77209640.58,2016-12-31,年度报告,70743705.69,2016,12,0.7661748781228302,False,0.46083720233473013,True,0.0,True,前期平均,77209640.58,未知,77209640.58
6,603533,35689666.370000005,35689666.370000005,2017-03-31,一季度报告,33902155.12,2017,3,未知,未知,未知,未知,未知,未知,未知,未知,未知,未知
7,603533,68350025.51,68026899.74,2017-06-30,半年度报告,63965050.62000001,2017,6,1.5451567914702355,False,未知,未知,未知,未知,未知,未知,未知,未知
8,603533,97597545.42,97401029.32999998,2017-09-30,三季度报告,92548657.60999995,2017,9,0.09619194868979247,True,未知,未知,未知,未知,未知,未知,139032143.0,未知
9,603533,123780916.87999998,123708832.52,2017-12-31,年度报告,111643095.51,2017,12,-0.3236681809716049,True,0.7744849431634524,True,0.0,True,比例外推,123708832.52,142302857.0,142302857.0
10,603533,35689814.75000001,35727263.57999999,2018-03-31,一季度报告,30748232.01999999,2018,3,0.4631500367258822,True,未知,未知,未知,未知,未知,未知,176530000.0,未知
11,603533,78002610.30000001,78457134.16,2018-06-30,半年度报告,71307630.07,2018,6,-0.23600121184504902,True,未知,未知,未知,未知,未知,未知,163772000.0,未知
12,603533,112343190.13,114842295.83,2018-09-30,三季度报告,106841437.37,2018,9,-0.4649523567905322,True,未知,未知,未知,未知,未知,未知,143000000.0,未知
13,603533,136125903.30999997,139315572.60000002,2018-12-31,年度报告,128454364.75,2018,12,-0.5781309593091456,True,1.31851601515081,True,0.0,True,比例外推,139315572.60000002,219457500.0,219457500.0
14,603533,30427118.33999999,30982147.39,2019-03-31,一季度报告,25454882.5,2019,3,0.46314395369620065,True,未知,未知,未知,未知,未知,未知,159777500.0,未知
15,603533,55228962.1,63937125.53000001,2019-06-30,半年度报告,46091711.11,2019,6,-0.3305437284834046,True,0.7554877639626378,True,0.18802104215398296,False,平均增速,121390622.84113854,131575000.0,121390622.84113854
16,603533,91595473.05,108039361.37,2019-09-30,三季度报告,88310648.68,2019,9,-0.5351802223207884,True,0.5470583946038595,True,0.11000242049456532,False,平均增速,131715411.35866022,,131715411.35866022
17,603533,146849983.5,161003908.56,2019-12-31,年度报告,140349010.94,2019,12,-0.6163894204537932,True,0.35455023390430657,True,0.0,True,比例外推,161003908.56,174000000.0,161003908.56
18,603533,55794680.0,55222739.73,2020-03-31,一季度报告,55479593.91000001,2020,3,0.7162103908917196,False,0.14745476255711995,True,0.062197221741311925,True,前期平均,142946276.29,278028182.0,278028182.0
