,SECURITYCODE_x,NETPROFIT_x,PARENTNETPROFIT_x,REPORTDATE_x,REPORTTIMETYPE_x,KCFJCXSYJLR,Year,Month,managesituationChangeRate,managesituationGreatChange,historyprofitextroplaterate,ifhistoryprofitextroplate,IfprofitdisStableChangeRage,IfprofitdisStable,predicttype,predict,analyst_prediction,adj_prediction
0,603500,36343000.0,36343000.0,2013-12-31,年度报告,37790500.0,2013,12,未知,未知,未知,未知,未知,未知,未知,未知,未知,未知
1,603500,49411494.14,49411494.14,2014-12-31,年度报告,52459351.39,2014,12,0.0,True,未知,未知,未知,未知,未知,未知,未知,未知
2,603500,89284930.71000001,89284930.71000001,2015-12-31,年度报告,94460932.22,2015,12,-0.2644828772627761,True,未知,未知,未知,未知,未知,未知,未知,未知
3,603500,50468584.28000002,50468584.28000002,2016-09-30,三季度报告,48528909.16,2016,9,未知,未知,未知,未知,未知,未知,未知,未知,未知,未知
4,603500,74123155.27,74123155.27,2016-12-31,年度报告,72213845.77,2016,12,-0.5929548277520302,True,1.0823382285769496,True,0.0,True,比例外推,74123155.27,未知,74123155.27
5,603500,11047554.279999996,11047554.279999996,2017-03-31,一季度报告,10942441.22,2017,3,未知,未知,未知,未知,未知,未知,未知,未知,未知,未知
6,603500,36570270.07,36570270.07,2017-06-30,半年度报告,35672077.120000005,2017,6,未知,未知,未知,未知,未知,未知,未知,未知,未知,未知
7,603500,56728786.20999999,56728786.20999999,2017-09-30,三季度报告,55177086.24999999,2017,9,-0.2798886571026283,True,未知,未知,未知,未知,未知,未知,83000000.0,未知
8,603500,77921331.33,77921331.33,2017-12-31,年度报告,76180823.82000002,2017,12,-0.5096943746172504,True,0.06885459160413222,True,0.0,True,比例外推,77921331.33,,77921331.33
9,603500,11321380.769999998,11321380.769999998,2018-03-31,一季度报告,11278746.27,2018,3,2.2896873895241923,False,未知,未知,未知,未知,未知,未知,未知,未知
10,603500,29992386.270000003,29992386.270000003,2018-06-30,半年度报告,24438586.58,2018,6,-0.006214612841660108,True,未知,未知,未知,未知,未知,未知,未知,未知
11,603500,46603979.65,46603979.65,2018-09-30,三季度报告,37063626.81999999,2018,9,-0.3593552334177466,True,未知,未知,未知,未知,未知,未知,未知,未知
12,603500,82374662.94999999,82374662.94999999,2018-12-31,年度报告,72841023.77,2018,12,-0.5335936979042886,True,0.04629772923798873,True,0.0,True,比例外推,82374662.94999999,未知,82374662.94999999
13,603500,21974806.870000005,21974806.870000005,2019-03-31,一季度报告,15899562.7,2019,3,2.2101208093189157,False,未知,未知,未知,未知,未知,未知,,未知
14,603500,52227966.54000001,52227966.54000001,2019-06-30,半年度报告,45060053.48,2019,6,0.21174086225850666,True,未知,未知,未知,未知,未知,未知,未知,未知
15,603500,65115951.05,65115951.05,2019-09-30,三季度报告,53061903.27,2019,9,-0.2201738934541827,True,0.13050143978396397,True,0.12621655239619145,False,平均增速,108714112.41195595,未知,108714112.41195595
16,603500,88674980.25000001,88674980.25000001,2019-12-31,年度报告,74997637.79,2019,12,-0.5588085134617233,True,0.08356001315209796,True,0.0,True,比例外推,88674980.25000001,88000000.0,88674980.25000001
17,603500,3508037.84,3508037.84,2020-03-31,一季度报告,2191444.35,2020,3,0.6538484372126813,False,0.9647611136498885,True,0.04184112544396723,True,前期平均,66908367.890000015,99000000.0,99000000.0
