,SECURITYCODE_x,NETPROFIT_x,PARENTNETPROFIT_x,REPORTDATE_x,REPORTTIMETYPE_x,KCFJCXSYJLR,Year,Month,managesituationChangeRate,managesituationGreatChange,historyprofitextroplaterate,ifhistoryprofitextroplate,IfprofitdisStableChangeRage,IfprofitdisStable,predicttype,predict,analyst_prediction,adj_prediction
0,603536,72357869.39,72357869.39,2012-12-31,年度报告,72783176.64999999,2012,12,未知,未知,未知,未知,未知,未知,未知,未知,未知,未知
1,603536,66096131.00999999,66096131.00999999,2013-12-31,年度报告,63924731.04999999,2013,12,0.0,True,未知,未知,未知,未知,未知,未知,未知,未知
2,603536,60844265.20000001,60844446.44999999,2014-12-31,年度报告,57709923.36000001,2014,12,0.09473683685135281,True,未知,未知,未知,未知,未知,未知,未知,未知
3,603536,42576636.27,42581861.66,2015-12-31,年度报告,38257443.62,2015,12,0.18923072128743512,True,0.1210905423574887,True,0.0,True,比例外推,42581861.66,未知,42581861.66
4,603536,-33374509.80000001,-33379102.58,2016-06-30,半年度报告,-34219300.95,2016,6,未知,未知,未知,未知,未知,未知,未知,未知,未知,未知
5,603536,-24735911.01,-24740503.79000001,2016-09-30,三季度报告,-28280341.63000001,2016,9,未知,未知,未知,未知,未知,未知,未知,未知,未知,未知
6,603536,42124070.42,42119477.63999999,2016-12-31,年度报告,39862633.46,2016,12,0.6994736016988783,False,0.32918696425738847,True,0.0,True,前期平均,42119477.63999999,未知,42119477.63999999
7,603536,7242451.41,7242451.41,2017-03-31,一季度报告,5368798.28,2017,3,未知,未知,未知,未知,未知,未知,未知,未知,未知,未知
8,603536,16686729.249999994,16686729.249999994,2017-06-30,半年度报告,12197203.579999998,2017,6,-3.1680578927933793,False,未知,未知,未知,未知,未知,未知,46375000.0,未知
9,603536,30050440.919999994,30050440.919999994,2017-09-30,三季度报告,23903353.64,2017,9,-3.9252154634914334,False,未知,未知,未知,未知,未知,未知,,未知
10,603536,60026551.25999999,60381054.68,2017-12-31,年度报告,52911435.28,2017,12,0.7177321343486633,False,0.18538574270271257,True,0.0,True,前期平均,60381054.68,未知,60381054.68
11,603536,2033109.5200000003,2089779.52,2018-03-31,一季度报告,1714554.16,2018,3,8.99079804527125,False,未知,未知,未知,未知,未知,未知,未知,未知
12,603536,10988142.489999998,11132954.93,2018-06-30,半年度报告,8206711.249999999,2018,6,3.33625237791882,False,未知,未知,未知,未知,未知,未知,未知,未知
13,603536,20027352.75,20234542.07,2018-09-30,三季度报告,15865502.479999995,2018,9,1.4078804561513907,False,未知,未知,未知,未知,未知,未知,未知,未知
14,603536,45189761.61999999,45460812.59,2018-12-31,年度报告,39918874.41,2018,12,0.2054310612746672,True,0.4173801755797368,True,0.0,True,比例外推,45460812.59,未知,45460812.59
15,603536,-25041645.820000004,-24999361.070000004,2019-03-31,一季度报告,-25344080.73,2019,3,34.58975484508085,False,未知,未知,未知,未知,未知,未知,未知,未知
16,603536,-46440267.05,-46387921.15000001,2019-06-30,半年度报告,-46812586.23,2019,6,5.5850865563356935,False,-2.3169087952801473,True,0.7176556298965114,False,盈利变化,8781280.936666675,未知,8781280.936666675
17,603536,-41120952.94,-40344580.86000001,2019-09-30,三季度报告,-40767888.03999999,2019,9,2.612952260502827,False,6.5368294427380595,False,0.7560316649808362,False,前期平均盈利变化,291397900.10499996,未知,291397900.10499996
18,603536,5020528.73,5951415.28,2019-12-31,年度报告,4121915.14,2019,12,0.6012005108249123,False,0.11523276360348053,True,0.0,True,前期平均,5951415.28,未知,5951415.28
19,603536,-16567125.180000005,-15751946.46,2020-03-31,一季度报告,-16072544.22,2020,3,-3.8895013494763977,False,6.399489261939441,False,4.147218055704524,False,去年同期,13714049.41,未知,13714049.41
