,SECURITYCODE_x,NETPROFIT_x,PARENTNETPROFIT_x,REPORTDATE_x,REPORTTIMETYPE_x,KCFJCXSYJLR,Year,Month,managesituationChangeRate,managesituationGreatChange,historyprofitextroplaterate,ifhistoryprofitextroplate,IfprofitdisStableChangeRage,IfprofitdisStable,predicttype,predict,analyst_prediction,adj_prediction
0,603596,29485920.60999999,31982246.29000001,2013-12-31,年度报告,26438415.52,2013,12,未知,未知,未知,未知,未知,未知,未知,未知,未知,未知
1,603596,59022670.79,63905522.72999999,2014-12-31,年度报告,56754171.56,2014,12,0.0,True,未知,未知,未知,未知,未知,未知,未知,未知
2,603596,78341678.54,73140795.64000002,2015-06-30,半年度报告,72204565.03,2015,6,未知,未知,未知,未知,未知,未知,未知,未知,未知,未知
3,603596,176431213.67999998,165924579.08999997,2015-12-31,年度报告,161375006.69,2015,12,-0.5004305936119094,True,未知,未知,未知,未知,未知,未知,未知,未知
4,603596,103161700.68999998,87546982.04,2016-06-30,半年度报告,85751055.59,2016,6,-0.6236240892522498,True,未知,未知,未知,未知,未知,未知,未知,未知
5,603596,319690328.80999994,272309782.0,2016-12-31,年度报告,263979919.15000004,2016,12,-0.8328758273834712,True,2.9867590454049413,False,0.0,True,比例外推,272309782.0,未知,272309782.0
6,603596,74548704.37,63137624.48,2017-03-31,一季度报告,59094823.58,2017,3,未知,未知,未知,未知,未知,未知,未知,未知,未知,未知
7,603596,147734466.58,122976424.73,2017-06-30,半年度报告,118610331.77,2017,6,-0.71417764138452,True,未知,未知,未知,未知,未知,未知,未知,未知
8,603596,219595208.61000004,183459035.14,2017-09-30,三季度报告,178020772.67000002,2017,9,未知,未知,未知,未知,未知,未知,未知,未知,未知,未知
9,603596,323311792.79999995,277003271.7199999,2017-12-31,年度报告,268414399.51000008,2017,12,-0.907767242381848,True,1.7155239297038045,True,0.0,True,比例外推,277003271.7199999,未知,277003271.7199999
10,603596,101673519.10999998,86896785.47999999,2018-03-31,一季度报告,82061418.18999998,2018,3,-0.6044744055690692,True,未知,未知,未知,未知,未知,未知,316500000.0,未知
11,603596,176819071.16,150139545.07,2018-06-30,半年度报告,140970539.64000002,2018,6,-0.8004127182194617,True,0.627897697626795,True,0.0798824456728559,True,比例外推,357483709.5673398,341000000.0,357483709.5673398
12,603596,266140208.79999995,225452311.98999995,2018-09-30,三季度报告,215078873.39,2018,9,-0.8657260292852436,True,未知,未知,未知,未知,未知,未知,,未知
13,603596,301735697.72,237281459.90000007,2018-12-31,年度报告,213330742.66,2018,12,-0.908800355363963,True,0.3033572022586252,True,0.0,True,比例外推,237281459.90000007,未知,237281459.90000007
14,603596,133312479.12,116638821.92,2019-03-31,一季度报告,77722206.76,2019,3,-0.709994098088615,True,未知,未知,未知,未知,未知,未知,362000000.0,未知
15,603596,216671800.80000004,190744756.92000005,2019-06-30,半年度报告,143391943.34,2019,6,-0.8332424188377352,True,0.4094999782895648,True,0.18496098817482737,False,平均增速,260317883.1878626,323111633.0,323111633.0
16,603596,347111799.75000006,305724092.04999995,2019-09-30,三季度报告,254046956.66,2019,9,-0.8892090723797463,True,未知,未知,未知,未知,未知,未知,389375714.0,未知
17,603596,455886516.32,401508068.18,2019-12-31,年度报告,353144847.7,2019,12,-0.902278978480823,True,0.06147837595157487,True,0.0,True,比例外推,401508068.18,395043750.0,401508068.18
18,603596,115946644.81000002,104366788.35999998,2020-03-31,一季度报告,91656337.19,2020,3,-0.7788210015698642,True,0.5130041658466539,True,0.10969552693074669,False,平均增速,435475085.6104578,492970000.0,492970000.0
