,SECURITYCODE_x,NETPROFIT_x,PARENTNETPROFIT_x,REPORTDATE_x,REPORTTIMETYPE_x,KCFJCXSYJLR,Year,Month,managesituationChangeRate,managesituationGreatChange,historyprofitextroplaterate,ifhistoryprofitextroplate,IfprofitdisStableChangeRage,IfprofitdisStable,predicttype,predict,analyst_prediction,adj_prediction
0,603568,52177813.81,52177813.81,2014-03-31,一季度报告,50359807.78,2014,3,未知,未知,未知,未知,未知,未知,未知,未知,未知,未知
1,603568,194466178.25,194466178.25,2014-09-30,三季度报告,191314131.1,2014,9,未知,未知,未知,未知,未知,未知,未知,未知,未知,未知
2,603568,222612055.5300001,222612055.5300001,2014-12-31,年度报告,250743652.87,2014,12,未知,未知,未知,未知,未知,未知,未知,未知,未知,未知
3,603568,70212176.16999999,70212176.16999999,2015-03-31,一季度报告,69307351.64999999,2015,3,0.0,True,未知,未知,未知,未知,未知,未知,367046000.0,未知
4,603568,151708707.04,151708707.04,2015-06-30,半年度报告,149814583.79000002,2015,6,未知,未知,未知,未知,未知,未知,未知,未知,,未知
5,603568,224876622.21000004,224876622.21000004,2015-09-30,三季度报告,222594495.43,2015,9,-0.7316869479333227,True,未知,未知,未知,未知,未知,未知,未知,未知
6,603568,291352594.92,291352594.92,2015-12-31,年度报告,284212479.82,2015,12,-0.7656110147054982,True,未知,未知,未知,未知,未知,未知,未知,未知
7,603568,82791033.78999999,82791033.78999999,2016-03-31,一季度报告,79865398.01,2016,3,-0.2568551972571624,True,未知,未知,未知,未知,未知,未知,373147500.0,未知
8,603568,166354021.75,166354021.75,2016-06-30,半年度报告,160705751.86,2016,6,-0.6560657932689213,True,未知,未知,未知,未知,未知,未知,361000000.0,未知
9,603568,256843136.54,256843136.54,2016-09-30,三季度报告,248363383.81,2016,9,-0.7679713733814715,True,未知,未知,未知,未知,未知,未知,386090000.0,未知
10,603568,328557875.28000003,328557875.28000003,2016-12-31,年度报告,317514542.05999994,2016,12,-0.8209117930652821,True,未知,未知,未知,未知,未知,未知,284532600.0,未知
11,603568,120619211.31,120619211.31,2017-03-31,一季度报告,117039153.43,2017,3,-0.3697649199266025,True,0.3529053120035234,True,0.03123565151687699,True,比例外推,507890796.6161133,443857500.0,443857500.0
12,603568,246316415.08,246316415.08,2017-06-30,半年度报告,237198404.16000003,2017,6,-0.6863447408057629,True,未知,未知,未知,未知,未知,未知,480216000.0,未知
13,603568,378229976.63000005,378229976.63000005,2017-09-30,三季度报告,366282364.04,2017,9,-0.796849491433173,True,0.22497935463899568,True,0.013144884371796062,True,比例外推,483880801.04723984,451796667.0,483880801.04723984
14,603568,506862188.7100001,506862188.7100001,2017-12-31,年度报告,491714336.07000005,2017,12,-0.8411914072504468,True,0.27852324081950863,True,0.0,True,比例外推,506862188.7100001,469080000.0,506862188.7100001
15,603568,177755047.02000004,177755047.02000004,2018-03-31,一季度报告,175013381.05999997,2018,3,-0.567417053690566,True,0.576688637336874,True,0.007061965843118884,True,比例外推,718627509.1434088,634135714.0,634135714.0
16,603568,374910130.71,374910130.71,2018-06-30,半年度报告,367507764.36,2018,6,-0.7881675332394985,True,0.548854315732352,True,0.022825702139051274,True,比例外推,734828852.0008216,687182727.0,734828852.0008216
17,603568,576158067.5899999,577430067.1800001,2018-09-30,三季度报告,568139375.5699999,2018,9,-0.8620473864210861,True,0.5703320022058367,True,0.02519693619192298,True,比例外推,747032675.3883783,722514286.0,747032675.3883783
18,603568,738062406.8600003,740055645.87,2018-12-31,年度报告,729932507.56,2018,12,-0.897057198243972,True,0.6352754569429115,True,0.0,True,比例外推,740055645.87,738288889.0,740055645.87
19,603568,231522586.19000003,232071806.85,2019-03-31,一季度报告,229838781.81,2019,3,-0.7064622654335703,True,0.7477492043983585,True,0.008425632104442776,True,比例外推,947653749.9586483,929130461.0000001,947653749.9586483
20,603568,488380933.6,489757872.2099999,2019-06-30,半年度报告,477320940.74,2019,6,-0.8608258098782599,True,0.8169953418031956,True,0.014945728468590658,True,比例外推,972191636.2422607,956721618.0,972191636.2422607
21,603568,743434259.6800001,745173021.0099999,2019-09-30,三季度报告,728376462.72,2019,9,-0.9094383698760766,True,0.8144621639359831,True,0.023579472323045025,True,比例外推,964600753.8144217,933756364.0,964600753.8144217
22,603568,971886571.45,974452074.12,2019-12-31,年度报告,952034680.8299996,2019,12,-0.9293043334479202,True,0.7669252599344676,True,0.0,True,比例外推,974452074.12,935137273.0,974452074.12
23,603568,196316328.57,196353560.59,2020-03-31,一季度报告,195312148.73,2020,3,-0.7746318634883421,True,0.5518938361896991,True,0.00171323522055139,True,比例外推,815738559.6455184,1238878571.0,1238878571.0
