,SECURITYCODE_x,NETPROFIT_x,PARENTNETPROFIT_x,REPORTDATE_x,REPORTTIMETYPE_x,KCFJCXSYJLR,Year,Month,managesituationChangeRate,managesituationGreatChange,historyprofitextroplaterate,ifhistoryprofitextroplate,IfprofitdisStableChangeRage,IfprofitdisStable,predicttype,predict,analyst_prediction,adj_prediction
0,603595,21621952.06,21621952.06,2013-12-31,年度报告,19731897.87,2013,12,未知,未知,未知,未知,未知,未知,未知,未知,未知,未知
1,603595,42660767.18000001,42660767.18000001,2014-12-31,年度报告,41598814.21,2014,12,0.0,True,未知,未知,未知,未知,未知,未知,未知,未知
2,603595,56586575.9,56586575.9,2015-12-31,年度报告,54827613.78,2015,12,-0.4931654189721959,True,未知,未知,未知,未知,未知,未知,未知,未知
3,603595,6750358.660000001,6750358.660000001,2016-03-31,一季度报告,5712100.060000001,2016,3,未知,未知,未知,未知,未知,未知,未知,未知,未知,未知
4,603595,20186652.380000006,20186652.380000006,2016-06-30,半年度报告,18344152.38,2016,6,未知,未知,未知,未知,未知,未知,未知,未知,未知,未知
5,603595,37606972.14,37606972.14,2016-09-30,三季度报告,35604655.03,2016,9,未知,未知,未知,未知,未知,未知,未知,未知,未知,未知
6,603595,63440129.94000001,63440129.94000001,2016-12-31,年度报告,56604554.98,2016,12,-0.6178960872590986,True,0.760553273695022,True,0.0,True,比例外推,63440129.94000001,未知,63440129.94000001
7,603595,17492607.08,17492607.08,2017-03-31,一季度报告,18483741.28,2017,3,2.203081961870156,False,未知,未知,未知,未知,未知,未知,未知,未知
8,603595,46508156.94000001,46508156.94000001,2017-06-30,半年度报告,47100301.64,2017,6,0.07110142152257104,True,未知,未知,未知,未知,未知,未知,106086667.0,未知
9,603595,86803509.36999999,86803509.36999999,2017-09-30,三季度报告,83214428.89,2017,9,-0.42505469519035843,True,未知,未知,未知,未知,未知,未知,139500000.0,未知
10,603595,173365697.80999997,173365697.80999997,2017-12-31,年度报告,165462578.03999996,2017,12,-0.6591754764618315,True,0.2784247511565728,True,0.0,True,比例外推,173365697.80999997,141918333.0,141918333.0
11,603595,87934577.83,87934577.83,2018-03-31,一季度报告,81506626.48000002,2018,3,0.2360622954094274,True,未知,未知,未知,未知,未知,未知,414463333.0,未知
12,603595,100488641.4,100488641.4,2018-06-30,半年度报告,92716830.08,2018,6,-0.5350933366829739,True,未知,未知,未知,未知,未知,未知,236740000.0,未知
13,603595,105055754.53,105055754.53,2018-09-30,三季度报告,82653297.57000001,2018,9,-0.7509092406870738,True,未知,未知,未知,未知,未知,未知,122910000.0,未知
14,603595,115385296.12000002,115385296.12000002,2018-12-31,年度报告,37583697.78,2018,12,-0.8752812561358212,True,1.8887854014939442,True,0.0,True,比例外推,115385296.12000002,289705000.0,289705000.0
15,603595,-34995462.24000001,-34995462.24000001,2019-03-31,一季度报告,-35139361.43,2019,3,-0.754113198771469,True,6.254440630166893,False,1.3749058410079278,False,未知,未知,117540000.0,未知
16,603595,-60137013.49999999,-60137013.49999999,2019-06-30,半年度报告,-65869109.32999999,2019,6,-0.7848318799143402,True,2.013387171342166,False,1.441717193119322,False,未知,未知,,未知
17,603595,-172630966.89,-172630966.89,2019-09-30,三季度报告,-179988025.01999998,2019,9,-0.794185933395723,True,0.6888569717746125,True,1.0888107233839568,False,平均增速,-159053994.59440693,未知,-159053994.59440693
18,603595,-148441391.48999998,-148441391.48999998,2019-12-31,年度报告,-158660606.51999998,2019,12,-0.8126108543543251,True,0.025486009222591696,True,0.0,True,比例外推,-148441391.48999998,,-148441391.48999998
19,603595,20781810.89,20781810.89,2020-03-31,一季度报告,11412954.65,2020,3,-1.617850163307344,False,1.6638792882476106,True,1.3347182916648785,False,前期平均,72309764.91999997,未知,72309764.91999997
