,SECURITYCODE_x,NETPROFIT_x,PARENTNETPROFIT_x,REPORTDATE_x,REPORTTIMETYPE_x,KCFJCXSYJLR,Year,Month,managesituationChangeRate,managesituationGreatChange,historyprofitextroplaterate,ifhistoryprofitextroplate,IfprofitdisStableChangeRage,IfprofitdisStable,predicttype,predict,analyst_prediction,adj_prediction
0,603579,62068285.04000002,61579226.75999999,2014-12-31,年度报告,65330743.34000001,2014,12,未知,未知,未知,未知,未知,未知,未知,未知,未知,未知
1,603579,87348329.0,86780159.99999999,2015-09-30,三季度报告,83515960.0,2015,9,未知,未知,未知,未知,未知,未知,未知,未知,未知,未知
2,603579,87348329.0,86780159.99999999,2015-09-30,三季度报告,83430860.00000001,2015,9,未知,未知,未知,未知,未知,未知,未知,未知,未知,未知
3,603579,143772673.01,142702372.57999998,2015-12-31,年度报告,136558217.88000005,2015,12,0.0,True,未知,未知,未知,未知,未知,未知,未知,未知
4,603579,143772673.01,142702372.57999998,2015-12-31,年度报告,136558172.58,2015,12,0.0,True,未知,未知,未知,未知,未知,未知,未知,未知
5,603579,50078490.63999999,49586856.56999999,2016-03-31,一季度报告,49189711.67000002,2016,3,未知,未知,未知,未知,未知,未知,未知,未知,未知,未知
6,603579,101403534.31000002,100445712.38000004,2016-06-30,半年度报告,97963795.99000004,2016,6,未知,未知,未知,未知,未知,未知,未知,未知,未知,未知
7,603579,209005935.91,206645562.33,2016-12-31,年度报告,198068715.45000005,2016,12,-0.5682887175945952,True,未知,未知,未知,未知,未知,未知,250000000.0,未知
8,603579,57708986.51,54903887.18000002,2017-03-31,一季度报告,54460803.63999999,2017,3,0.23942004335137107,True,未知,未知,未知,未知,未知,未知,275680000.0,未知
9,603579,116400694.11,111255443.84,2017-06-30,半年度报告,110853646.73,2017,6,-0.3879080698484186,True,未知,未知,0.0,True,未知,未知,265048182.00000003,未知
10,603579,163901102.8,155008260.88999996,2017-09-30,三季度报告,155302203.09,2017,9,未知,未知,未知,未知,未知,未知,未知,未知,240502857.0,未知
11,603579,226588017.08000004,216175428.53000003,2017-12-31,年度报告,213977131.28,2017,12,-0.7030309939774761,True,1.0307516821723226,True,未知,未知,未知,未知,236710000.0,未知
12,603579,62157137.93,58254009.15000001,2018-03-31,一季度报告,57958333.28999998,2018,3,0.0755393361351898,True,未知,未知,未知,未知,未知,未知,323597778.0,未知
13,603579,145489573.27,141324603.93,2018-06-30,半年度报告,149007063.13,2018,6,-0.4667704903774476,True,未知,未知,0.0,True,未知,未知,311400625.0,未知
14,603579,190119753.82,183791824.59,2018-09-30,三季度报告,203230755.06,2018,9,-0.6213064831190385,True,未知,未知,0.017361935841932213,True,未知,未知,257082857.0,未知
15,603579,249939634.49,249210278.88000005,2018-12-31,年度报告,257148110.94,2018,12,-0.7260742830099177,True,0.2845904561712453,True,0.04875403024541991,True,比例外推,249210278.88000005,354500000.0,354500000.0
16,603579,54251212.00999999,57767701.15000001,2019-03-31,一季度报告,42743179.63,2019,3,-0.001429488116071921,True,0.1533276327360447,True,未知,未知,True,True,291459167.0,291459167.0
17,603579,135477821.95999998,136951416.48,2019-06-30,半年度报告,95973067.56,2019,6,-0.5733832765815218,True,0.33596647159160786,True,0.0,True,比例外推,221818700.89122882,260719000.0,260719000.0
18,603579,207247145.49,208947833.66,2019-09-30,三季度报告,157420217.52999997,2019,9,-0.6735305837879186,True,未知,未知,0.04457422686917706,True,未知,未知,271495714.0,未知
19,603579,288163539.95000005,295589240.19999987,2019-12-31,年度报告,246939675.87,2019,12,-0.7516668968223071,True,0.14758082739379952,True,未知,未知,True,True,,True
20,603579,27636709.25,29605974.36,2020-03-31,一季度报告,22153274.23,2020,3,0.14409029292394665,True,0.09480326883921414,True,未知,未知,True,True,283174000.0,283174000.0
