,SECURITYCODE_x,NETPROFIT_x,PARENTNETPROFIT_x,REPORTDATE_x,REPORTTIMETYPE_x,KCFJCXSYJLR,Year,Month,managesituationChangeRate,managesituationGreatChange,historyprofitextroplaterate,ifhistoryprofitextroplate,IfprofitdisStableChangeRage,IfprofitdisStable,predicttype,predict,analyst_prediction,adj_prediction
0,603501,86299130.19000001,86299130.19000001,2012-12-31,年度报告,46591630.19000001,2012,12,未知,未知,未知,未知,未知,未知,未知,未知,未知,未知
1,603501,127321099.45,127321099.45,2013-12-31,年度报告,67392299.45,2013,12,0.0,True,未知,未知,未知,未知,未知,未知,未知,未知
2,603501,97972041.23,97972041.23,2014-12-31,年度报告,85556441.23,2014,12,-0.3221930177889301,True,未知,未知,未知,未知,未知,未知,未知,未知
3,603501,107826681.58,115369792.17,2015-12-31,年度报告,106726842.12,2015,12,-0.11914532853915502,True,0.08274566135327373,True,0.0,True,比例外推,115369792.17,未知,115369792.17
4,603501,27457743.15,28370446.579999994,2016-03-31,一季度报告,28563282.4,2016,3,未知,未知,未知,未知,未知,未知,未知,未知,未知,未知
5,603501,65316494.99999999,69065686.75999999,2016-06-30,半年度报告,63431219.68000001,2016,6,未知,未知,未知,未知,未知,未知,未知,未知,未知,未知
6,603501,100322616.87,106483615.41,2016-09-30,三季度报告,98507381.02000004,2016,9,未知,未知,未知,未知,未知,未知,未知,未知,未知,未知
7,603501,131440204.95,141690919.37999997,2016-12-31,年度报告,127036355.87,2016,12,-0.19964957721552454,True,0.04278770978514644,True,0.0,True,比例外推,141690919.37999997,未知,141690919.37999997
8,603501,32873002.61,35966747.94,2017-03-31,一季度报告,24212201.47000001,2017,3,2.142979731384078,False,未知,未知,未知,未知,未知,未知,181000000.0,未知
9,603501,52520987.64000001,58810124.22,2017-06-30,半年度报告,47076537.34,2017,6,0.3212455780121089,True,未知,未知,未知,未知,未知,未知,164380000.0,未知
10,603501,90236395.17,100357752.98,2017-09-30,三季度报告,88539144.28,2017,9,-0.13978390035590776,True,未知,未知,未知,未知,未知,未知,188480000.0,未知
11,603501,2745316158.59,2745316158.59,2017-12-31,年度报告,120567028.45,2017,12,-0.34343429985651425,True,0.27736657599522446,True,0.0,True,比例外推,2745316158.59,,2745316158.59
12,603501,2745316158.59,2745316158.59,2017-12-31,年度报告,120567028.45,2017,12,-0.34343429985651425,True,0.27736657599522446,True,0.0,True,比例外推,2745316158.59,,2745316158.59
13,603501,123403995.55,137156318.0,2017-12-31,年度报告,120567028.45,2017,12,-0.34343429985651425,True,0.27736657599522446,True,0.0,True,比例外推,137156318.0,,137156318.0
14,603501,123403995.55,137156318.0,2017-12-31,年度报告,120567028.45,2017,12,-0.34343429985651425,True,0.27736657599522446,True,0.0,True,比例外推,137156318.0,,137156318.0
15,603501,38593859.17000001,42880033.52,2018-03-31,一季度报告,40681894.29,2018,3,1.6252281002085198,False,未知,未知,未知,未知,未知,未知,292510000.0,未知
16,603501,144470816.17,155787222.76,2018-06-30,半年度报告,151714657.42000002,2018,6,0.6431360884058196,False,未知,未知,未知,未知,未知,未知,406947143.0,未知
17,603501,228890350.03,247471811.3100001,2018-09-30,三季度报告,240981228.25,2018,9,-0.04363278223362554,True,未知,未知,未知,未知,未知,未知,370368889.0,未知
18,603501,264724378.57,264724378.57,2018-12-31,年度报告,132553764.37,2018,12,-0.968564957474944,True,21.94773170165178,False,0.0,True,比例外推,264724378.57,369035556.0,369035556.0
19,603501,264724378.57,264724378.57,2018-12-31,年度报告,132553764.37,2018,12,-0.968564957474944,True,21.94773170165178,False,0.0,True,比例外推,264724378.57,369035556.0,369035556.0
20,603501,136841163.0,144991902.55,2018-12-31,年度报告,132553764.37,2018,12,-0.968564957474944,True,21.94773170165178,False,0.0,True,比例外推,144991902.55,369035556.0,369035556.0
21,603501,136841163.0,144991902.55,2018-12-31,年度报告,132553764.37,2018,12,-0.968564957474944,True,21.94773170165178,False,0.0,True,比例外推,144991902.55,369035556.0,369035556.0
22,603501,137469319.88,49454973.86,2019-03-31,一季度报告,26735317.91,2019,3,1.2360844975327714,False,0.27940931887462916,True,0.06271815484833304,True,前期平均,146868924.08499998,319549365.0,319549365.0
23,603501,13803834.699999996,25284421.14,2019-06-30,半年度报告,18315373.2,2019,6,-0.40265354292419087,True,1.452035005047864,True,0.46644292277160315,False,平均增速,14315098.801919019,448118000.0,448118000.0
24,603501,378760162.76000017,135126461.42,2019-09-30,三季度报告,61694332.82000001,2019,9,-0.6229673720246875,True,1.402304121748426,True,0.7087314166253278,False,平均增速,65718769.35976881,652237333.0,652237333.0
25,603501,705276510.69,465632238.6700001,2019-12-31,年度报告,334201677.11,2019,12,-0.6740038425770437,True,0.8159563444961028,True,0.0,True,比例外推,465632238.6700001,685483077.0,685483077.0
26,603501,446439818.3000001,445109124.07000005,2020-03-31,一季度报告,436000225.07000005,2020,3,-0.3722298890739226,True,2.847078672719075,False,0.11591098050273538,False,未知,未知,2263146522.0,未知
