,SECURITYCODE_x,NETPROFIT_x,PARENTNETPROFIT_x,REPORTDATE_x,REPORTTIMETYPE_x,KCFJCXSYJLR,Year,Month,managesituationChangeRate,managesituationGreatChange,historyprofitextroplaterate,ifhistoryprofitextroplate,IfprofitdisStableChangeRage,IfprofitdisStable,predicttype,predict,analyst_prediction,adj_prediction
0,603516,39438644.09,39438644.09,2013-12-31,年度报告,39768924.62000001,2013,12,未知,未知,未知,未知,未知,未知,未知,未知,未知,未知
1,603516,44607863.33000001,44650655.99,2014-12-31,年度报告,43925295.94,2014,12,0.0,True,未知,未知,未知,未知,未知,未知,未知,未知
2,603516,44607863.33000001,44650655.99,2014-12-31,年度报告,43925295.94,2014,12,0.0,True,未知,未知,未知,未知,未知,未知,未知,未知
3,603516,44517853.76000001,44560646.42,2014-12-31,年度报告,43925295.94,2014,12,0.0,True,未知,未知,未知,未知,未知,未知,未知,未知
4,603516,44517853.76000001,44560646.42,2014-12-31,年度报告,43925295.94,2014,12,0.0,True,未知,未知,未知,未知,未知,未知,未知,未知
5,603516,21808551.89,21817944.23,2015-05-31,其他报告,,2015,5,未知,未知,未知,未知,未知,未知,未知,未知,未知,未知
6,603516,33035788.26,33059850.38,2015-06-30,半年度报告,31567316.68,2015,6,未知,未知,未知,未知,未知,未知,未知,未知,未知,未知
7,603516,33035788.26,33059850.38,2015-06-30,半年度报告,31567316.68,2015,6,未知,未知,未知,未知,未知,未知,未知,未知,未知,未知
8,603516,32914671.55,32938733.66,2015-06-30,半年度报告,31567316.68,2015,6,未知,未知,未知,未知,未知,未知,未知,未知,未知,未知
9,603516,32914671.55,32938733.66,2015-06-30,半年度报告,31567316.68,2015,6,未知,未知,未知,未知,未知,未知,未知,未知,未知,未知
10,603516,48142016.42,48180185.24000001,2015-12-31,年度报告,68050655.08,2015,12,-0.1158813458909512,True,未知,未知,未知,未知,未知,未知,未知,未知
11,603516,42987687.24,42905127.57,2016-06-30,半年度报告,41634254.78000001,2016,6,0.19381574247927455,True,未知,未知,未知,未知,未知,未知,未知,未知
12,603516,81446858.28,81339901.63000003,2016-12-31,年度报告,79913326.31,2016,12,-0.18078537164023503,True,0.14560421123564618,True,0.0,True,比例外推,81339901.63000003,未知,81339901.63000003
13,603516,5873654.540000001,5783829.830000001,2017-03-31,一季度报告,5319733.69,2017,3,未知,未知,未知,未知,未知,未知,未知,未知,未知,未知
14,603516,47297851.82,47191503.64000001,2017-06-30,半年度报告,45851360.24,2017,6,-0.08255952757322607,True,未知,未知,未知,未知,未知,未知,未知,未知
15,603516,72342708.3,72152640.30000001,2017-09-30,三季度报告,70318048.49999999,2017,9,未知,未知,未知,未知,未知,未知,未知,未知,未知,未知
16,603516,90999100.02,90927836.12,2017-12-31,年度报告,88020551.75000001,2017,12,-0.5157745194490269,True,0.7562687628174524,True,0.0,True,比例外推,90927836.12,未知,90927836.12
17,603516,22880442.58,22882893.52,2018-03-31,一季度报告,22122317.26,2018,3,5.714498413452827,False,未知,未知,未知,未知,未知,未知,未知,未知
18,603516,44361762.22000001,44426425.67,2018-06-30,半年度报告,40379331.93999999,2018,6,-0.16616415815055502,True,0.2442959627648173,True,0.03804993018023084,True,比例外推,84495288.93122685,110000000.0,110000000.0
19,603516,68734160.85,68731167.85000001,2018-09-30,三季度报告,60818541.95000002,2018,9,-0.4548359466105307,True,未知,未知,未知,未知,未知,未知,,未知
20,603516,84819949.17999999,84953654.92999998,2018-12-31,年度报告,74096959.43,2018,12,-0.5666040204646849,True,0.40442765986916923,True,0.0,True,比例外推,84953654.92999998,未知,84953654.92999998
21,603516,18455082.68,18409376.9,2019-03-31,一季度报告,15010929.739999998,2019,3,0.7236836198471824,False,未知,未知,未知,未知,未知,未知,136333333.0,未知
22,603516,58621026.88000001,58720361.18,2019-06-30,半年度报告,52682837.39,2019,6,-0.11097661327305154,True,0.017300828419066373,True,0.015998688708878106,True,比例外推,105635682.70308018,125038571.0,125038571.0
23,603516,96665614.51000004,96794775.57999998,2019-09-30,三季度报告,87250033.47,2019,9,-0.4262148020390067,True,未知,未知,未知,未知,未知,未知,128211667.0,未知
24,603516,114178279.73000002,114218040.73,2019-12-31,年度报告,102643529.11,2019,12,-0.5350310337217299,True,0.016272111957059576,True,0.0,True,比例外推,114218040.73,125783750.0,114218040.73
25,603516,2243700.0300000003,2328050.0600000005,2020-03-31,一季度报告,1322754.0499999998,2020,3,1.1370071743292782,False,0.28364890770042733,True,0.13014578922094852,False,前期平均,69665780.17500001,160117500.0,160117500.0
