,SECURITYCODE_x,NETPROFIT_x,PARENTNETPROFIT_x,REPORTDATE_x,REPORTTIMETYPE_x,KCFJCXSYJLR,Year,Month,managesituationChangeRate,managesituationGreatChange,historyprofitextroplaterate,ifhistoryprofitextroplate,IfprofitdisStableChangeRage,IfprofitdisStable,predicttype,predict,analyst_prediction,adj_prediction
0,603518,34581878.78,34581878.78,2014-03-31,一季度报告,34632540.88999999,2014,3,未知,未知,未知,未知,未知,未知,未知,未知,未知,未知
1,603518,138277877.52,138277877.52,2014-12-31,年度报告,129603270.0,2014,12,未知,未知,未知,未知,未知,未知,未知,未知,未知,未知
2,603518,40941879.63,40941879.63,2015-03-31,一季度报告,37838210.63,2015,3,0.0,True,未知,未知,未知,未知,未知,未知,159900000.0,未知
3,603518,73740234.5,73740234.5,2015-06-30,半年度报告,69619197.05,2015,6,未知,未知,未知,未知,未知,未知,未知,未知,144550000.0,未知
4,603518,77058662.29999998,77063969.87,2015-09-30,三季度报告,67555203.84,2015,9,未知,未知,未知,未知,未知,未知,未知,未知,,未知
5,603518,112104201.75,112113103.33,2015-12-31,年度报告,95349462.4,2015,12,-0.7499102575175252,True,未知,未知,未知,未知,未知,未知,94885000.0,未知
6,603518,22498655.44,22498803.94,2016-03-31,一季度报告,20198600.01,2016,3,-0.15534218036584074,True,未知,未知,未知,未知,未知,未知,121366667.0,未知
7,603518,28935962.17,28922393.500000004,2016-06-30,半年度报告,38185212.61,2016,6,-0.5310310712396772,True,未知,未知,未知,未知,未知,未知,97075000.0,未知
8,603518,67490531.6,67476962.92999998,2016-09-30,三季度报告,49993142.81999999,2016,9,-0.5512265883182869,True,未知,未知,未知,未知,未知,未知,104100000.0,未知
9,603518,100341490.8,100327922.12999998,2016-12-31,年度报告,72781153.32000001,2016,12,-0.6915202263594014,True,未知,未知,未知,未知,未知,未知,102263333.0,未知
10,603518,32109944.01,29650828.41,2017-03-31,一季度报告,13156025.86,2017,3,0.5370642424487923,False,0.4041966153786916,True,0.08297651307881077,True,前期平均,105891818.85000001,237421429.0,237421429.0
11,603518,52941313.36,44573092.99999999,2017-06-30,半年度报告,34110376.82,2017,6,0.19511763862663353,True,未知,未知,未知,未知,未知,未知,,未知
12,603518,71355815.32,56739186.92999999,2017-09-30,三季度报告,60078483.87000002,2017,9,-0.48760399480984373,True,未知,未知,未知,未知,未知,未知,174930000.0,未知
13,603518,222227988.26,189937730.2,2017-12-31,年度报告,187060974.95,2017,12,-0.6553581324705612,True,0.19849303039139193,True,0.0,True,比例外推,189937730.2,251402200.0,251402200.0
14,603518,76708120.16000001,65126489.62,2018-03-31,一季度报告,64408512.4,2018,3,0.0769834655965194,True,0.01228477895307883,True,0.17790067248283065,False,平均增速,635751165.0951748,285000000.0,285000000.0
15,603518,134781703.74,117183115.98,2018-06-30,半年度报告,86207034.06,2018,6,-0.3467884231574719,True,0.031228562743762536,True,0.2967025985295024,False,平均增速,437923834.79856986,270973333.0,270973333.0
16,603518,158005170.98,136951159.33,2018-09-30,三季度报告,87631634.36999999,2018,9,-0.5153600498443579,True,0.012712372932852383,True,0.25101892985497004,False,平均增速,335384550.1150528,274500000.0,274500000.0
17,603518,310860115.61999995,272839077.7699999,2018-12-31,年度报告,214879463.71,2018,12,-0.844385583243726,True,1.092092201000476,True,0.0,True,比例外推,272839077.7699999,269508000.0,272839077.7699999
18,603518,19952986.26,13290061.7,2019-03-31,一季度报告,10364046.150000002,2019,3,-0.5491757755519479,True,1.809378776697413,True,0.1455357905132595,False,平均增速,165292807.04798615,306650000.0,306650000.0
19,603518,36281523.73,25103326.410000004,2019-06-30,半年度报告,10827885.319999997,2019,6,-0.7434230476362726,True,2.29228599431391,False,0.18704929909668297,False,未知,未知,187000000.0,未知
20,603518,45789930.57,30152551.49,2019-09-30,三季度报告,8327099.26,2019,9,-0.7811345124623971,True,1.2759715971647259,True,0.21493513897092004,False,平均增速,154503760.09118924,,154503760.09118924
21,603518,134562645.19000003,108874423.25,2019-12-31,年度报告,104749174.78000005,2019,12,-0.8887542111633471,True,0.9273994336096377,True,0.0,True,比例外推,108874423.25,327623333.0,327623333.0
22,603518,4106635.409999999,600646.37,2020-03-31,一季度报告,-14085856.670000006,2020,3,0.7331680746619227,False,0.6332780515406222,True,0.14340444769033636,False,前期平均,162788596.57,,162788596.57
