,SECURITYCODE_x,NETPROFIT_x,PARENTNETPROFIT_x,REPORTDATE_x,REPORTTIMETYPE_x,KCFJCXSYJLR,Year,Month,managesituationChangeRate,managesituationGreatChange,historyprofitextroplaterate,ifhistoryprofitextroplate,IfprofitdisStableChangeRage,IfprofitdisStable,predicttype,predict,analyst_prediction,adj_prediction
0,603629,38330796.57,38220514.57,2014-12-31,年度报告,47126514.56999999,2014,12,未知,未知,未知,未知,未知,未知,未知,未知,未知,未知
1,603629,69640627.17999999,69021997.78,2015-12-31,年度报告,65025201.54000001,2015,12,0.0,True,未知,未知,未知,未知,未知,未知,未知,未知
2,603629,83736700.22,83736700.22,2016-12-31,年度报告,120729625.53999996,2016,12,-0.44959145082185337,True,未知,未知,未知,未知,未知,未知,未知,未知
3,603629,53604455.58,53604455.58,2017-09-30,三季度报告,52701155.58,2017,9,未知,未知,未知,未知,未知,未知,未知,未知,未知,未知
4,603629,88023603.28,88023603.28,2017-12-31,年度报告,85242438.79,2017,12,-0.5422461540842408,True,0.5510900442303374,True,0.0,True,比例外推,88023603.28,未知,88023603.28
5,603629,21136463.99,21136463.99,2018-03-31,一季度报告,21401919.14,2018,3,未知,未知,未知,未知,未知,未知,未知,未知,未知,未知
6,603629,47433819.94,47433819.94,2018-06-30,半年度报告,45295803.58000001,2018,6,未知,未知,未知,未知,未知,未知,未知,未知,未知,未知
7,603629,67826661.00999999,67826661.00999999,2018-09-30,三季度报告,63837224.3,2018,9,-0.2849326393625132,True,未知,未知,未知,未知,未知,未知,未知,未知
8,603629,92446535.43,92446535.43,2018-12-31,年度报告,89171347.66,2018,12,-0.5645395650519887,True,0.1478046302168128,True,0.0,True,比例外推,92446535.43,未知,92446535.43
9,603629,19112191.020000003,19112191.020000003,2019-03-31,一季度报告,16968131.73,2019,3,0.8134914424728241,False,未知,未知,未知,未知,未知,未知,未知,未知
10,603629,40157490.68000001,40157490.68000001,2019-06-30,半年度报告,34774283.309999995,2019,6,-0.1919099786083979,True,未知,未知,未知,未知,未知,未知,未知,未知
11,603629,50172158.77,50172158.77,2019-09-30,三季度报告,43492871.32000001,2019,9,-0.43487124385573517,True,未知,未知,未知,未知,未知,未知,未知,未知
12,603629,63452864.86,63452864.86,2019-12-31,年度报告,56641329.87000001,2019,12,-0.5853733577823058,True,0.07645985185395306,True,0.0,True,比例外推,63452864.86,未知,63452864.86
13,603629,4651305.9,4651305.9,2020-03-31,一季度报告,4034761.1800000006,2020,3,1.0055678875273188,False,未知,未知,未知,未知,未知,未知,未知,未知
