,SECURITYCODE_x,NETPROFIT_x,PARENTNETPROFIT_x,REPORTDATE_x,REPORTTIMETYPE_x,KCFJCXSYJLR,Year,Month,managesituationChangeRate,managesituationGreatChange,historyprofitextroplaterate,ifhistoryprofitextroplate,IfprofitdisStableChangeRage,IfprofitdisStable,predicttype,predict,analyst_prediction,adj_prediction
0,603678,76663775.44,76663775.44,2013-09-30,三季度报告,73093416.4,2013,9,未知,未知,未知,未知,未知,未知,未知,未知,未知,未知
1,603678,120889207.02000004,120897306.28,2013-12-31,年度报告,114134638.07000002,2013,12,未知,未知,未知,未知,未知,未知,未知,未知,未知,未知
2,603678,19745811.26,19787338.680000003,2014-03-31,一季度报告,16959968.77,2014,3,未知,未知,未知,未知,未知,未知,未知,未知,未知,未知
3,603678,71597576.82000001,71681355.69999999,2014-06-30,半年度报告,67019180.48999999,2014,6,未知,未知,未知,未知,未知,未知,未知,未知,未知,未知
4,603678,136520131.50000003,137141205.72,2014-12-31,年度报告,128486485.55,2014,12,-0.36583440879617435,True,未知,未知,未知,未知,未知,未知,未知,未知
5,603678,22581917.0,22781113.29,2015-03-31,一季度报告,19987153.46,2015,3,2.8825335880375467,False,未知,未知,未知,未知,未知,未知,,未知
6,603678,73601470.59000002,73704523.25999999,2015-06-30,半年度报告,68878844.09,2015,6,0.07075935869640776,True,未知,未知,未知,未知,未知,未知,156100000.0,未知
7,603678,110536196.71,110772276.91,2015-09-30,三季度报告,103196880.07,2015,9,未知,未知,未知,未知,未知,未知,未知,未知,160240000.0,未知
8,603678,152801318.07,153521803.47,2015-12-31,年度报告,142948810.98,2015,12,-0.43844343982337886,True,未知,未知,未知,未知,未知,未知,178612500.0,未知
9,603678,32176085.52,32348755.7,2016-03-31,一季度报告,30560942.29,2016,3,2.3949188388213454,False,未知,未知,未知,未知,未知,未知,,未知
10,603678,85770732.53,86173990.94000001,2016-06-30,半年度报告,81964351.43999998,2016,6,0.041606571518912616,True,未知,未知,未知,未知,未知,未知,204297143.0,未知
11,603678,144008800.89000002,144975709.92999998,2016-09-30,三季度报告,140522525.88,2016,9,-0.30643736873692906,True,未知,未知,未知,未知,未知,未知,197000000.0,未知
12,603678,190887237.79999995,193478744.46000004,2016-12-31,年度报告,184756154.25000003,2016,12,-0.49827804885243554,True,0.1872243559503006,True,0.0,True,比例外推,193478744.46000004,204400000.0,193478744.46000004
13,603678,35040903.260000005,36171012.91,2017-03-31,一季度报告,29329562.81,2017,3,1.3826321381557543,False,0.5203313214617579,True,0.019668730156597675,True,前期平均,153415100.06,286570000.0,286570000.0
14,603678,113974781.45,116402073.43000002,2017-06-30,半年度报告,108505074.7,2017,6,-0.10617790965950613,True,0.18142279939080194,True,0.03924392731792953,True,比例外推,232842798.18139693,289904000.0,289904000.0
15,603678,161754969.56,164945476.01999998,2017-09-30,三季度报告,149796342.47,2017,9,-0.46764520663873166,True,未知,未知,未知,未知,未知,未知,250000000.0,未知
16,603678,228526169.26000005,236774279.07999992,2017-12-31,年度报告,205858013.58,2017,12,-0.5983818702415107,True,0.3195512332991794,True,0.0,True,比例外推,236774279.07999992,,236774279.07999992
17,603678,53877715.93999999,54913475.15999999,2018-03-31,一季度报告,48769615.69999999,2018,3,1.1878367367177276,False,0.2798459274405252,True,0.016176515248590567,True,前期平均,193491909.90000004,360880000.0,360880000.0
18,603678,175531822.82999998,175963312.79999995,2018-06-30,半年度报告,159610449.05000004,2018,6,-0.32736194389079043,True,0.4302968675683323,True,0.04289863418227119,True,比例外推,345998252.3939748,373848333.0,345998252.3939748
19,603678,252753262.56000003,252280897.68,2018-09-30,三季度报告,217274846.26,2018,9,-0.5260499529100218,True,0.27093418519413864,True,0.02386142872372199,True,比例外推,329927006.55190885,371714000.0,371714000.0
20,603678,335735720.14,333176114.40000004,2018-12-31,年度报告,306896361.47,2018,12,-0.6645295561193358,True,0.32984450809843074,True,0.0,True,比例外推,333176114.40000004,369315000.0,333176114.40000004
21,603678,73359801.12,72009779.15,2019-03-31,一季度报告,65173890.53999999,2019,3,0.4229217794862596,True,0.6030981725867187,True,0.01312506664621449,True,比例外推,425691801.04461944,433280000.0,425691801.04461944
22,603678,217385903.45,213302535.11,2019-06-30,半年度报告,200661648.15,2019,6,-0.5632485653940497,True,0.7575545936673753,True,0.053298559834056736,True,比例外推,416440397.1417396,419541818.0,416440397.1417396
23,603678,295498108.07,290706737.95999986,2019-09-30,三季度报告,277366379.16,2019,9,-0.696685318070618,True,0.6532584104913205,True,0.028508184504854372,True,比例外推,392217073.01204675,421194000.0,392217073.01204675
24,603678,386729722.03000015,381438432.95,2019-12-31,年度报告,355394139.76,2019,12,-0.7716543970715073,True,0.6009775295140751,True,0.0,True,比例外推,381438432.95,454673333.0,454673333.0
25,603678,68986143.87000002,68538740.60000001,2020-03-31,一季度报告,67769902.81,2020,3,0.04503793998289935,True,0.6500436417033344,True,0.021794197265374154,True,比例外推,420161383.20913166,507399091.0,507399091.0
