,SECURITYCODE_x,NETPROFIT_x,PARENTNETPROFIT_x,REPORTDATE_x,REPORTTIMETYPE_x,KCFJCXSYJLR,Year,Month,managesituationChangeRate,managesituationGreatChange,historyprofitextroplaterate,ifhistoryprofitextroplate,IfprofitdisStableChangeRage,IfprofitdisStable,predicttype,predict,analyst_prediction,adj_prediction
0,603661,61539928.40000002,60476993.89,2013-12-31,年度报告,60474873.56999999,2013,12,未知,未知,未知,未知,未知,未知,未知,未知,未知,未知
1,603661,61539928.40000002,60476993.89,2013-12-31,年度报告,39273793.89,2013,12,未知,未知,未知,未知,未知,未知,未知,未知,未知,未知
2,603661,123737850.93000002,121800242.41999996,2014-12-31,年度报告,107365100.23,2014,12,0.0,True,未知,未知,未知,未知,未知,未知,未知,未知
3,603661,194269149.95999995,189745395.35,2015-12-31,年度报告,179585357.23000002,2015,12,-0.5026588231695256,True,未知,未知,未知,未知,未知,未知,未知,未知
4,603661,130498468.4,127834722.46,2016-06-30,半年度报告,127833589.94,2016,6,未知,未知,未知,未知,未知,未知,未知,未知,未知,未知
5,603661,130498468.4,127834722.46,2016-06-30,半年度报告,116509522.46,2016,6,未知,未知,未知,未知,0.0,True,未知,未知,未知,未知
6,603661,196951770.44,192594518.35,2016-09-30,三季度报告,177085518.35,2016,9,未知,未知,未知,未知,未知,未知,未知,未知,未知,未知
7,603661,268763519.0899999,263762204.82,2016-12-31,年度报告,247503773.77000007,2016,12,-0.6832233609264718,True,1.0970582728540295,True,未知,未知,未知,未知,未知,未知
8,603661,54602707.02,53838224.79000001,2017-03-31,一季度报告,53555721.22,2017,3,未知,未知,未知,未知,0.0,True,未知,未知,未知,未知
9,603661,105455853.52,103663789.43,2017-06-30,半年度报告,102831992.63,2017,6,-0.5284241328306654,True,未知,未知,未知,未知,未知,未知,未知,未知
10,603661,169519268.44000003,165730302.45000002,2017-12-31,年度报告,160307566.74,2017,12,-0.7710257381345257,True,0.690299385471494,True,未知,未知,未知,未知,未知,未知
11,603661,21292593.4,20046020.94,2018-03-31,一季度报告,7814271.489999997,2018,3,0.1270490376504417,True,未知,未知,未知,未知,未知,未知,185940000.0,未知
12,603661,58316682.72,56524593.7,2018-06-30,半年度报告,37998176.91,2018,6,-0.4164389519797609,True,未知,未知,0.0,True,未知,未知,,未知
13,603661,130652490.99,128074353.58000004,2018-09-30,三季度报告,97186266.67,2018,9,未知,未知,未知,未知,未知,未知,未知,未知,未知,未知
14,603661,172868552.46,170950478.82,2018-12-31,年度报告,133983839.35,2018,12,-0.6369738439392713,True,0.26778700609699413,True,0.19691765681940143,False,平均增速,170950478.82,未知,170950478.82
15,603661,46810476.6,46512709.05,2019-03-31,一季度报告,39085390.3,2019,3,1.8902035202531986,False,未知,未知,未知,未知,未知,未知,未知,未知
16,603661,125944563.28,125697404.48,2019-06-30,半年度报告,88491798.55000001,2019,6,0.055271416851263966,True,0.505695151116815,True,0.0,True,比例外推,221363882.70550448,未知,221363882.70550448
17,603661,219769147.07,218129207.15,2019-09-30,三季度报告,171482103.51000002,2019,9,-0.528980060512507,True,未知,未知,0.1418329108238352,False,未知,未知,未知,未知
18,603661,247465144.54000008,243394956.06,2019-12-31,年度报告,187853937.85000005,2019,12,-0.6440073829261703,True,0.2111551839203024,True,未知,未知,True,True,未知,True
19,603661,30400390.65,30037957.750000004,2020-03-31,一季度报告,26321897.72999999,2020,3,0.31466143628198007,True,0.23355402352856253,True,未知,未知,True,True,281000000.0,281000000.0
