,SECURITYCODE_x,NETPROFIT_x,PARENTNETPROFIT_x,REPORTDATE_x,REPORTTIMETYPE_x,KCFJCXSYJLR,Year,Month,managesituationChangeRate,managesituationGreatChange,historyprofitextroplaterate,ifhistoryprofitextroplate,IfprofitdisStableChangeRage,IfprofitdisStable,predicttype,predict,analyst_prediction,adj_prediction
0,603606,7003252.18,7003252.18,2014-03-31,一季度报告,5174002.499999999,2014,3,未知,未知,未知,未知,未知,未知,未知,未知,未知,未知
1,603606,38496600.4,38496600.4,2014-09-30,三季度报告,29103766.959999993,2014,9,未知,未知,未知,未知,未知,未知,未知,未知,未知,未知
2,603606,65015725.10000001,65015725.10000001,2014-12-31,年度报告,53080248.75,2014,12,未知,未知,未知,未知,未知,未知,未知,未知,未知,未知
3,603606,7332807.06,7332807.06,2015-03-31,一季度报告,6936675.790000003,2015,3,0.0,True,未知,未知,未知,未知,未知,未知,未知,未知
4,603606,22807447.11000001,22807447.11000001,2015-06-30,半年度报告,21851439.47,2015,6,未知,未知,未知,未知,未知,未知,未知,未知,77000000.0,未知
5,603606,31047661.16,31047661.16,2015-09-30,三季度报告,29599805.98,2015,9,-0.8180812823149963,True,未知,未知,未知,未知,未知,未知,,未知
6,603606,50384033.31000001,50384033.31000001,2015-12-31,年度报告,40166232.96000001,2015,12,-0.8922837179893269,True,未知,未知,未知,未知,未知,未知,,未知
7,603606,6696668.18,6696668.18,2016-03-31,一季度报告,6513493.1800000025,2016,3,-0.04494252709821059,True,未知,未知,未知,未知,未知,未知,未知,未知
8,603606,21428872.880000006,21428872.880000006,2016-06-30,半年度报告,18660308.21,2016,6,-0.6929401109109928,True,未知,未知,未知,未知,未知,未知,未知,未知
9,603606,26880894.87,26880894.87,2016-09-30,三季度报告,22918224.34,2016,9,-0.7744354351231267,True,未知,未知,未知,未知,未知,未知,未知,未知
10,603606,51853356.71,51853356.71,2016-12-31,年度报告,31374444.95000001,2016,12,-0.8610025494205518,True,未知,未知,未知,未知,未知,未知,未知,未知
11,603606,7783964.049999999,7783964.049999999,2017-03-31,一季度报告,6632423.3599999985,2017,3,0.04578157253119267,True,0.06575885773195222,True,0.06178467945142434,True,比例外推,42796853.9382229,未知,42796853.9382229
12,603606,28098297.93,28098297.93,2017-06-30,半年度报告,20640196.65,2017,6,-0.6731861624632496,True,未知,未知,未知,未知,未知,未知,未知,未知
13,603606,36839825.01,36839825.01,2017-09-30,三季度报告,26597909.01000001,2017,9,-0.7394710178411557,True,0.22694139625572868,True,0.12360395702718774,False,平均增速,44997830.52669666,未知,44997830.52669666
14,603606,50193559.99000001,50193559.99000001,2017-12-31,年度报告,36170484.98,2017,12,-0.8649411990979282,True,0.10132642521188119,True,0.0,True,比例外推,50193559.99000001,未知,50193559.99000001
15,603606,20276771.6,20276771.6,2018-03-31,一季度报告,20178135.08,2018,3,-0.10029746604495164,True,0.10965861756636876,True,0.019715097273170196,True,比例外推,107492006.40823501,未知,107492006.40823501
16,603606,56266482.98,56266482.98,2018-06-30,半年度报告,55204188.12999998,2018,6,-0.7507588467654916,True,0.27037230657305356,True,0.02578252973666917,True,比例外推,97944442.22864595,160860000.0,160860000.0
17,603606,115271205.81,115271205.81,2018-09-30,三季度报告,111786198.01,2018,9,-0.8098999607598841,True,0.2719055172347612,True,0.0037774985615358636,True,比例外推,155730061.7314216,163633333.0,155730061.7314216
18,603606,171434193.72,171433835.63000005,2018-12-31,年度报告,160990787.54999998,2018,12,-0.860475085222183,True,0.018097782422243327,True,0.0,True,比例外推,171433835.63000005,未知,171433835.63000005
19,603606,49425633.08,49417882.22,2019-03-31,一季度报告,50883099.87,2019,3,-0.6546170012587211,True,1.800536782916419,True,0.0467654203340202,True,比例外推,294190355.60397947,288816667.0,294190355.60397947
20,603606,180124510.2,180101838.95000002,2019-06-30,半年度报告,177672789.16,2019,6,-0.875534211326318,True,1.2721460588109856,True,0.15986408778757993,False,平均增速,498537601.4161947,354012017.0,354012017.0
21,603606,302407984.7500001,302372426.90000004,2019-09-30,三季度报告,298735424.43,2019,9,-0.9392454331436129,True,2.618013293857345,False,0.02569826376813167,True,比例外推,418511469.80537766,422485000.0,418511469.80537766
22,603606,452188056.9500001,452139234.9699999,2019-12-31,年度报告,435311375.51,2019,12,-0.9591490353934975,True,2.3599093292350295,False,0.0,True,比例外推,452139234.9699999,420671000.0,452139234.9699999
23,603606,80512817.33999999,80500630.39000002,2020-03-31,一季度报告,82467680.76,2020,3,-0.8583072842250784,True,2.5227610349552614,False,0.04150168687178707,True,比例外推,579348296.3119079,629152308.0,579348296.3119079
