,SECURITYCODE_x,NETPROFIT_x,PARENTNETPROFIT_x,REPORTDATE_x,REPORTTIMETYPE_x,KCFJCXSYJLR,Year,Month,managesituationChangeRate,managesituationGreatChange,historyprofitextroplaterate,ifhistoryprofitextroplate,IfprofitdisStableChangeRage,IfprofitdisStable,predicttype,predict,analyst_prediction,adj_prediction
0,603633,49666583.66,49666583.66,2014-12-31,年度报告,47178263.95,2014,12,未知,未知,未知,未知,未知,未知,未知,未知,未知,未知
1,603633,39101775.43,39101775.43,2015-12-31,年度报告,35357203.940000005,2015,12,0.0,True,未知,未知,未知,未知,未知,未知,未知,未知
2,603633,6278753.270000001,6278753.270000001,2016-03-31,一季度报告,7286981.32,2016,3,未知,未知,未知,未知,未知,未知,未知,未知,未知,未知
3,603633,23724001.56,23724001.56,2016-06-30,半年度报告,24181091.3,2016,6,未知,未知,未知,未知,未知,未知,未知,未知,未知,未知
4,603633,38109851.41,38109851.41,2016-09-30,三季度报告,38555080.48,2016,9,未知,未知,未知,未知,未知,未知,未知,未知,53953367.0,未知
5,603633,49543535.09,49543535.09,2016-12-31,年度报告,50577084.67,2016,12,0.27018743046369126,True,未知,未知,未知,未知,未知,未知,未知,未知
6,603633,8740341.24,8740341.24,2017-03-31,一季度报告,8505210.72,2017,3,6.910262041559722,False,未知,未知,未知,未知,未知,未知,68130000.0,未知
7,603633,23006070.34,23006070.34,2017-06-30,半年度报告,20806343.68,2017,6,1.0935162870559176,False,未知,未知,未知,未知,未知,未知,67750000.0,未知
8,603633,40450808.01,40450808.01,2017-09-30,三季度报告,37110106.01,2017,9,0.3032478958174978,True,未知,未知,未知,未知,未知,未知,,未知
9,603633,49360497.36000001,49360497.36000001,2017-12-31,年度报告,45808745.38999999,2017,12,0.002483645338921915,True,0.1162431208122043,True,0.0,True,比例外推,49360497.36000001,,49360497.36000001
10,603633,10117088.03,10117088.03,2018-03-31,一季度报告,8878746.27,2018,3,4.682453613218423,False,未知,未知,未知,未知,未知,未知,未知,未知
11,603633,22373047.15,22373047.15,2018-06-30,半年度报告,20905781.770000003,2018,6,1.1588469011001032,False,未知,未知,未知,未知,未知,未知,未知,未知
12,603633,37047566.84,37047566.84,2018-09-30,三季度报告,35186732.34,2018,9,0.2278267382871989,True,未知,未知,未知,未知,未知,未知,未知,未知
13,603633,43368091.2,43368091.2,2018-12-31,年度报告,39524672.15,2018,12,0.006201037598296792,True,0.1136629128026659,True,0.0,True,比例外推,43368091.2,未知,43368091.2
14,603633,10286676.82,10286676.82,2019-03-31,一季度报告,7289518.710000001,2019,3,3.909177770592157,False,0.3472300907706317,True,0.040717479790037314,True,前期平均,50583495.830000006,未知,50583495.830000006
15,603633,22852136.800000004,22852136.800000004,2019-06-30,半年度报告,19580878.17,2019,6,1.219929334033518,False,0.04245612127979631,True,0.0418519644631114,True,前期平均,48551334.34,未知,48551334.34
16,603633,36039658.06,36039658.06,2019-09-30,三季度报告,30941445.219999995,2019,9,0.34061661524220066,True,0.05684175480409913,True,0.06936053677183829,True,比例外推,42790921.40333998,未知,42790921.40333998
17,603633,42306043.65000001,42306043.65000001,2019-12-31,年度报告,36384819.88,2019,12,0.14523333367275323,True,0.12302683468595026,True,0.0,True,比例外推,42306043.65000001,未知,42306043.65000001
18,603633,8728023.8,8728023.8,2020-03-31,一季度报告,7599422.3,2020,3,3.8282438078967465,False,0.09099460724107497,True,0.02108775264850471,True,前期平均,42702754.075,未知,42702754.075
