,SECURITYCODE_x,NETPROFIT_x,PARENTNETPROFIT_x,REPORTDATE_x,REPORTTIMETYPE_x,KCFJCXSYJLR,Year,Month,managesituationChangeRate,managesituationGreatChange,historyprofitextroplaterate,ifhistoryprofitextroplate,IfprofitdisStableChangeRage,IfprofitdisStable,predicttype,predict,analyst_prediction,adj_prediction
0,603636,-5652774.369999999,-5416498.3100000005,2014-03-31,一季度报告,-5604190.12,2014,3,未知,未知,未知,未知,未知,未知,未知,未知,未知,未知
1,603636,42192343.20999999,43330786.73,2014-09-30,三季度报告,33934373.76,2014,9,未知,未知,未知,未知,未知,未知,未知,未知,未知,未知
2,603636,86165790.12999998,86886642.28999998,2014-12-31,年度报告,76099773.67000002,2014,12,未知,未知,未知,未知,未知,未知,未知,未知,未知,未知
3,603636,-3544850.95,-3183481.08,2015-03-31,一季度报告,-5750735.079999999,2015,3,-0.0,False,未知,未知,未知,未知,未知,未知,,未知
4,603636,22176182.180000003,22952216.02,2015-06-30,半年度报告,17317751.16,2015,6,未知,未知,未知,未知,未知,未知,未知,未知,未知,未知
5,603636,30352478.07,31715042.97,2015-09-30,三季度报告,25156095.71,2015,9,-1.133976308020272,False,未知,未知,未知,未知,未知,未知,85290000.0,未知
6,603636,61077633.72999998,63140346.92,2015-12-31,年度报告,36255013.44,2015,12,-1.0656034646867574,False,未知,未知,未知,未知,未知,未知,85290000.0,未知
7,603636,-12504593.19,-12255865.14,2016-03-31,一季度报告,-5184587.19,2016,3,0.5946437381238833,False,未知,未知,未知,未知,未知,未知,91550000.0,未知
8,603636,16073200.67,18229118.61,2016-06-30,半年度报告,21657876.44,2016,6,-1.2549029550766435,False,未知,未知,未知,未知,未知,未知,92432000.0,未知
9,603636,19943473.219999995,23857119.24,2016-09-30,三季度报告,25927926.72,2016,9,-1.1862376560148848,False,未知,未知,未知,未知,未知,未知,,未知
10,603636,43230206.98,51474724.91,2016-12-31,年度报告,45583618.75,2016,12,-1.0925506445614555,False,未知,未知,未知,未知,未知,未知,122733333.0,未知
11,603636,-16243666.950000005,-14292440.94,2017-03-31,一季度报告,-14798573.8,2017,3,-0.5479441606688527,False,-1.7190916687613014,True,0.043285816539757466,True,前期平均,47562415.21500001,未知,47562415.21500001
12,603636,5859508.59,8643141.209999999,2017-06-30,半年度报告,3004288.72,2017,6,-1.3516894043729997,False,未知,未知,未知,未知,未知,未知,未知,未知
13,603636,27524713.97000001,33279038.82,2017-09-30,三季度报告,20998956.14,2017,9,-1.283439815504714,False,0.450175136746853,True,0.12433728939137467,False,前期平均,59911197.64,未知,59911197.64
14,603636,92035458.73,103025506.96000002,2017-12-31,年度报告,85953174.95,2017,12,-1.1307598266326875,False,0.41280627892620086,True,0.0,True,前期平均,103025506.96000002,未知,103025506.96000002
15,603636,271234.46,1241483.91,2018-03-31,一季度报告,-9430569.04,2018,3,-0.6520013376659389,False,-1.024203057539662,True,0.034437773250740975,True,盈利变化,110182846.64000003,178297500.0,178297500.0
16,603636,22243174.090000004,23979888.33,2018-06-30,半年度报告,10505038.9,2018,6,-1.9647181641899427,False,0.6936155224789464,True,0.29429462550372754,False,前期平均,45411390.625,,45411390.625
17,603636,118933452.27,122272706.03,2018-09-30,三季度报告,104904130.91,2018,9,-1.205370866929303,False,0.09451012513098903,True,0.25801688674826395,False,前期平均,137650010.91,206850000.0,206850000.0
18,603636,169842399.67,172523315.83,2018-12-31,年度报告,153116581.98000002,2018,12,-1.061419527299617,False,0.7646891758766238,True,0.0,True,前期平均,172523315.83,206850000.0,206850000.0
19,603636,-7898431.06,-6005694.37,2019-03-31,一季度报告,-9184249.240000002,2019,3,-21.84091516247603,False,-1.0188696261046148,True,0.056337214171358646,True,盈利变化,172851742.23000002,272400000.0,272400000.0
20,603636,23190920.300000004,24482393.67,2019-06-30,半年度报告,18426362.01,2019,6,-1.2541352392930893,False,1.0283106684468042,True,0.282229166182864,False,前期平均,77919707.94,249900000.0,249900000.0
21,603636,78579615.39000002,82356695.48,2019-09-30,三季度报告,69908347.32,2019,9,-1.047528884952967,False,4.011080444001257,False,0.25510374287655724,False,去年同期,130569146.55000003,225166667.00000003,225166667.00000003
22,603636,225302306.93,213534967.18,2019-12-31,年度报告,201221341.83,2019,12,-1.033282468812165,False,1.5112418406919321,True,0.0,True,前期平均,213534967.18,224750000.0,213534967.18
23,603636,-16485651.75,-16362675.35,2020-03-31,一季度报告,-21222703.97,2020,3,-0.28431680582396585,False,-0.01099208715453489,True,0.07903568946589988,True,前期平均,115286774.53500003,298850000.0,298850000.0
