,SECURITYCODE_x,NETPROFIT_x,PARENTNETPROFIT_x,REPORTDATE_x,REPORTTIMETYPE_x,KCFJCXSYJLR,Year,Month,managesituationChangeRate,managesituationGreatChange,historyprofitextroplaterate,ifhistoryprofitextroplate,IfprofitdisStableChangeRage,IfprofitdisStable,predicttype,predict,analyst_prediction,adj_prediction
0,603619,53598142.75000001,53515853.27000001,2012-12-31,年度报告,51634563.26000001,2012,12,未知,未知,未知,未知,未知,未知,未知,未知,未知,未知
1,603619,48980322.86000001,48910131.13,2013-12-31,年度报告,69807835.36999999,2013,12,0.0,True,未知,未知,未知,未知,未知,未知,未知,未知
2,603619,60860949.75000002,60860949.75000002,2014-12-31,年度报告,115860129.51,2014,12,0.09427908230003039,True,未知,未知,未知,未知,未知,未知,未知,未知
3,603619,134048369.89000002,134048369.89000002,2015-06-30,半年度报告,108766385.05999996,2015,6,未知,未知,未知,未知,未知,未知,未知,未知,未知,未知
4,603619,188558778.46,188558778.46,2015-12-31,年度报告,156236990.63,2015,12,-0.11933443414592806,True,0.186622345890635,True,0.0,True,比例外推,188558778.46,未知,188558778.46
5,603619,180365926.87000003,180365926.87000003,2016-06-30,半年度报告,180085353.75000003,2016,6,-0.600158190703978,True,未知,未知,未知,未知,未知,未知,未知,未知
6,603619,301899553.08000004,301899553.08000004,2016-09-30,三季度报告,301296780.19,2016,9,未知,未知,未知,未知,未知,未知,未知,未知,未知,未知
7,603619,394120750.59,394120750.59,2016-12-31,年度报告,393341171.91,2016,12,-0.7157483560948605,True,2.4332955906199776,False,0.0,True,比例外推,394120750.59,未知,394120750.59
8,603619,106560411.20999998,106560411.20999998,2017-03-31,一季度报告,106349534.03000002,2017,3,未知,未知,未知,未知,未知,未知,未知,未知,未知,未知
9,603619,210578526.24,210578526.24,2017-06-30,半年度报告,206280039.33,2017,6,-0.7028366516884798,True,未知,未知,未知,未知,未知,未知,482000000.0,未知
10,603619,394515182.02,394515182.02,2017-12-31,年度报告,381627815.87,2017,12,-0.8640057833296942,True,2.1603013395810318,False,0.0,True,比例外推,394515182.02,487000000.0,487000000.0
11,603619,81166414.32000002,81166414.32000002,2018-03-31,一季度报告,80870678.96000001,2018,3,-0.4970163671349442,True,未知,未知,未知,未知,未知,未知,413700000.0,未知
12,603619,103964132.22,103964132.22,2018-06-30,半年度报告,98384383.03,2018,6,-0.7454719448035586,True,0.3394971438003001,True,0.13132130591044888,False,平均增速,298674925.49279726,336710000.0,336710000.0
13,603619,77536654.77999999,77537363.71000001,2018-09-30,三季度报告,72305555.63000001,2018,9,未知,未知,未知,未知,未知,未知,未知,未知,210085000.0,未知
14,603619,29967466.81000001,29968563.74,2018-12-31,年度报告,3158841.66,2018,12,-0.8641417486760171,True,0.3541412126258051,True,0.0,True,比例外推,29968563.74,208446667.00000003,208446667.00000003
15,603619,26809691.11,26811889.760000005,2019-03-31,一季度报告,22678276.780000005,2019,3,-0.33965121905362994,True,未知,未知,未知,未知,未知,未知,310000000.0,未知
16,603619,26887626.25,27282792.49,2019-06-30,半年度报告,21182231.450000007,2019,6,-0.4844554404919169,True,0.46813859926669626,True,20.43102295673905,False,平均增速,-6262776.959365707,138645000.0,138645000.0
17,603619,38129670.07,38671791.42000001,2019-09-30,三季度报告,29534553.219999995,2019,9,-0.30873800395338624,True,未知,未知,未知,未知,未知,未知,58000000.0,未知
18,603619,17188150.79,17224943.95,2019-12-31,年度报告,1030915.9,2019,12,0.7885443267468489,False,0.9240017717406755,True,0.0,True,前期平均,17224943.95,319475000.0,319475000.0
19,603619,6700674.919999999,6737742.079999999,2020-03-31,一季度报告,6246305.5,2020,3,0.9992077689402371,False,0.7143754917890983,True,15.680735938952392,False,前期平均,105520964.34999998,73000000.0,73000000.0
