,SECURITYCODE_x,NETPROFIT_x,PARENTNETPROFIT_x,REPORTDATE_x,REPORTTIMETYPE_x,KCFJCXSYJLR,Year,Month,managesituationChangeRate,managesituationGreatChange,historyprofitextroplaterate,ifhistoryprofitextroplate,IfprofitdisStableChangeRage,IfprofitdisStable,predicttype,predict,analyst_prediction,adj_prediction
0,603687,17473521.81,15421155.03,2014-12-31,年度报告,11207255.03,2014,12,未知,未知,未知,未知,未知,未知,未知,未知,未知,未知
1,603687,35532911.349999994,35024076.96,2015-12-31,年度报告,29714676.960000005,2015,12,0.0,True,未知,未知,未知,未知,未知,未知,未知,未知
2,603687,52773531.54000002,48673534.85,2016-12-31,年度报告,46367791.28,2016,12,-0.5082440153049829,True,未知,未知,未知,未知,未知,未知,未知,未知
3,603687,77234645.9,74144607.44,2017-06-30,半年度报告,63806107.44,2017,6,未知,未知,未知,未知,未知,未知,未知,未知,未知,未知
4,603687,112830801.28999998,111963415.52999996,2017-09-30,三季度报告,,2017,9,未知,未知,未知,未知,未知,未知,未知,未知,未知,未知
5,603687,167238157.51,164181166.24,2017-12-31,年度报告,151589156.32999998,2017,12,-0.6688961056783581,True,0.9912123262737954,True,0.0,True,比例外推,164181166.24,未知,164181166.24
6,603687,69366873.51999998,70727280.1,2018-06-30,半年度报告,66878271.19000001,2018,6,-0.7737605758868379,True,未知,未知,未知,未知,未知,未知,未知,未知
7,603687,137011981.24,141341976.76999998,2018-12-31,年度报告,133471434.00999998,2018,12,-0.895517135143305,True,2.7876773661537295,False,0.0,True,比例外推,141341976.76999998,未知,141341976.76999998
8,603687,24001947.48,24990885.69,2019-03-31,一季度报告,23307968.93,2019,3,未知,未知,未知,未知,未知,未知,未知,未知,未知,未知
9,603687,70850409.7,72378737.68999998,2019-06-30,半年度报告,57927307.67000001,2019,6,-0.7480999081649253,True,未知,未知,未知,未知,未知,未知,未知,未知
10,603687,84938256.19999999,88122781.21000001,2019-09-30,三季度报告,72349718.0,2019,9,未知,未知,未知,未知,未知,未知,未知,未知,未知,未知
11,603687,99890376.98,105647086.81,2019-12-31,年度报告,82306668.93999998,2019,12,-0.8724671984752039,True,0.24549728999955606,True,0.0,True,比例外推,105647086.81,未知,105647086.81
12,603687,5309474.36,6430491.71,2020-03-31,一季度报告,4689240.96,2020,3,-0.2719956651617505,True,未知,未知,未知,未知,未知,未知,未知,未知
