,SECURITYCODE_x,NETPROFIT_x,PARENTNETPROFIT_x,REPORTDATE_x,REPORTTIMETYPE_x,KCFJCXSYJLR,Year,Month,managesituationChangeRate,managesituationGreatChange,historyprofitextroplaterate,ifhistoryprofitextroplate,IfprofitdisStableChangeRage,IfprofitdisStable,predicttype,predict,analyst_prediction,adj_prediction
0,603616,11234050.759999998,11234050.759999998,2014-03-31,一季度报告,11192050.759999998,2014,3,未知,未知,未知,未知,未知,未知,未知,未知,未知,未知
1,603616,41578738.89999999,41578738.89999999,2014-06-30,半年度报告,42687694.68000001,2014,6,未知,未知,未知,未知,未知,未知,未知,未知,未知,未知
2,603616,67141167.55000001,67141167.55000001,2014-09-30,三季度报告,68149915.86999999,2014,9,未知,未知,未知,未知,未知,未知,未知,未知,未知,未知
3,603616,80108140.89999999,80108140.89999999,2014-12-31,年度报告,81051646.48999998,2014,12,未知,未知,未知,未知,未知,未知,未知,未知,未知,未知
4,603616,10557294.94,10557294.94,2015-03-31,一季度报告,9742932.769999998,2015,3,0.0,True,未知,未知,未知,未知,未知,未知,105998000.0,未知
5,603616,10140118.66,10140118.66,2015-06-30,半年度报告,6745638.74,2015,6,-0.7298126143984612,True,未知,未知,未知,未知,未知,未知,89904400.0,未知
6,603616,5137677.69,5137677.69,2015-09-30,三季度报告,1610179.2999999996,2015,9,-0.8326801399210998,True,未知,未知,未知,未知,未知,未知,,未知
7,603616,20903246.76,20903246.76,2015-12-31,年度报告,21241158.57,2015,12,-0.8597639311836781,True,未知,未知,未知,未知,未知,未知,未知,未知
8,603616,-18244832.1,-18244832.1,2016-03-31,一季度报告,-18157875.33,2016,3,0.06410314610382557,True,未知,未知,未知,未知,未知,未知,未知,未知
9,603616,-31472923.01,-31472923.01,2016-06-30,半年度报告,-31035245.92,2016,6,0.10788158764998099,True,未知,未知,未知,未知,未知,未知,106790000.0,未知
10,603616,-6650037.560000001,-6650037.560000001,2016-09-30,三季度报告,-6119148.82,2016,9,1.1866009192958924,False,未知,未知,未知,未知,未知,未知,36250000.0,未知
11,603616,14297490.230000004,13116505.74,2016-12-31,年度报告,7309756.879999999,2016,12,-0.4625690980457049,True,未知,未知,未知,未知,未知,未知,34010000.0,未知
12,603616,921576.1799999998,921576.1799999998,2017-03-31,一季度报告,-5782663.1000000015,2017,3,-1.615738785559994,False,2.6745025618128766,False,1.8549624656295427,False,前期平均,41600486.944999985,62000000.0,62000000.0
13,603616,-27840977.89,-28734070.34,2017-06-30,半年度报告,-28056525.39,2017,6,-1.3569433559263167,False,2.2170772710316613,False,3.111901495677159,False,去年同期,9610932.459999997,,9610932.459999997
14,603616,-22100319.14,-26014624.899999995,2017-09-30,三季度报告,-25360589.55000001,2017,9,-2.68932139986289,False,1.184010619923955,True,0.8636223197703075,False,前期平均,-9748269.955000002,未知,-9748269.955000002
15,603616,-53572600.47000002,-59301605.09,2017-12-31,年度报告,-60192954.98,2017,12,-0.214264141518494,True,0.7169132993574003,True,0.0,True,比例外推,-59301605.09,110180000.0,110180000.0
16,603616,3457475.39,2384597.32,2018-03-31,一季度报告,-14651699.58,2018,3,11.190040285112405,False,-1.2397584976356717,True,1.8409569149023375,False,前期平均,20867526.325000003,未知,20867526.325000003
17,603616,7769940.060000001,3861529.4,2018-06-30,半年度报告,-13697873.329999998,2018,6,-1.4035077648632117,False,-1.6101563988702685,True,3.091713836500362,False,盈利变化,-49729170.38333333,未知,-49729170.38333333
18,603616,14055522.28,7273698.700000001,2018-09-30,三季度报告,-10207564.220000004,2018,9,-1.5083207481681642,False,-28.22627025272759,True,0.7237892158359314,False,盈利变化,-52566927.16555556,未知,-52566927.16555556
19,603616,22262535.79,12902958.03,2018-12-31,年度报告,-13189456.929999998,2018,12,-1.2096976936240182,False,4.04383402456711,False,0.0,True,前期平均,12902958.03,未知,12902958.03
20,603616,3614368.7600000007,1461817.45,2019-03-31,一季度报告,936437.51,2019,3,2.249206282853686,False,-1.399171542112737,True,2.0583511520260607,False,前期平均,-13009512.385000002,未知,-13009512.385000002
21,603616,6177102.589999999,1581063.01,2019-06-30,半年度报告,2137313.74,2019,6,0.44583493221954096,True,-1.261993898297119,True,3.3320382455171837,False,平均增速,1308849.3953661094,未知,1308849.3953661094
22,603616,7753358.5,1299541.0799999998,2019-09-30,三季度报告,2345982.66,2019,9,-0.2007375794220577,True,-1.9777633318893744,True,0.9564938086620953,False,平均增速,2786065.381760139,未知,2786065.381760139
23,603616,-61407360.51999998,-67018369.75000001,2019-12-31,年度报告,-69102041.54,2019,12,-0.49538314655753785,True,-2.1336714603197504,True,0.0,True,比例外推,-67018369.75000001,未知,-67018369.75000001
24,603616,-21990809.89,-22631816.96,2020-03-31,一季度报告,-23003242.86000001,2020,3,2.108163971625296,False,0.6507541426373293,True,0.7130705878551036,False,盈利变化,-98937943.57666668,未知,-98937943.57666668
