,SECURITYCODE_x,NETPROFIT_x,PARENTNETPROFIT_x,REPORTDATE_x,REPORTTIMETYPE_x,KCFJCXSYJLR,Year,Month,managesituationChangeRate,managesituationGreatChange,historyprofitextroplaterate,ifhistoryprofitextroplate,IfprofitdisStableChangeRage,IfprofitdisStable,predicttype,predict,analyst_prediction,adj_prediction
0,603669,71295667.36,71295667.36,2014-06-30,半年度报告,60931281.08999999,2014,6,未知,未知,未知,未知,未知,未知,未知,未知,未知,未知
1,603669,94637294.32000002,94637294.32000002,2014-09-30,三季度报告,83357169.05999999,2014,9,未知,未知,未知,未知,未知,未知,未知,未知,未知,未知
2,603669,149858216.94,149858216.94,2014-12-31,年度报告,132373340.5,2014,12,未知,未知,未知,未知,未知,未知,未知,未知,未知,未知
3,603669,27783402.529999994,27783402.529999994,2015-03-31,一季度报告,26091671.820000004,2015,3,未知,未知,未知,未知,未知,未知,未知,未知,180338000.0,未知
4,603669,71380670.11999999,71380670.11999999,2015-06-30,半年度报告,65333848.54000001,2015,6,0.0,True,未知,未知,未知,未知,未知,未知,194000000.0,未知
5,603669,100011254.46,100011254.46,2015-09-30,三季度报告,94093219.84,2015,9,-0.24664300821063476,True,未知,未知,未知,未知,未知,未知,,未知
6,603669,149694259.99,149694259.99,2015-12-31,年度报告,131074644.76,2015,12,-0.5242458584133212,True,未知,未知,未知,未知,未知,未知,未知,未知
7,603669,26334898.93,26334898.93,2016-03-31,一季度报告,20994067.71,2016,3,1.5661244076572798,False,未知,未知,未知,未知,未知,未知,未知,未知
8,603669,73225890.36,73225890.36,2016-06-30,半年度报告,41960238.6,2016,6,-0.0011908372372673164,True,未知,未知,未知,未知,未知,未知,170000000.0,未知
9,603669,101327107.23999998,101327107.23999998,2016-09-30,三季度报告,68800003.61999999,2016,9,-0.28712355679414997,True,未知,未知,未知,未知,未知,未知,,未知
10,603669,153925186.78000003,153925186.78000003,2016-12-31,年度报告,94364068.63,2016,12,-0.523724774986277,True,未知,未知,未知,未知,未知,未知,未知,未知
11,603669,28255063.18,28255063.18,2017-03-31,一季度报告,24281511.71999999,2017,3,1.7072694506824901,False,未知,未知,未知,未知,未知,未知,未知,未知
12,603669,58967188.5,58967188.5,2017-06-30,半年度报告,50469370.3,2017,6,-0.026359843362920635,True,0.026461593468708446,True,0.030644419747255125,True,比例外推,116383713.65984467,未知,116383713.65984467
13,603669,96769709.28000002,96769709.28000002,2017-09-30,三季度报告,79540365.16,2017,9,-0.29638110371461135,True,0.041128822948730374,True,0.0625085307346871,True,比例外推,132135338.93269333,未知,132135338.93269333
14,603669,161005436.73,161005436.73,2017-12-31,年度报告,113571574.12000002,2017,12,-0.5368161062432203,True,0.027700978189337835,True,0.0,True,比例外推,161005436.73,未知,161005436.73
15,603669,32646736.82,32646736.82,2018-03-31,一季度报告,26753482.6,2018,3,1.5232881946081,False,0.04419623002706128,True,0.012719794693051845,True,前期平均,121823223.75,未知,121823223.75
16,603669,69164186.1,69164186.1,2018-06-30,半年度报告,60753865.13,2018,6,0.20907354027909944,True,0.18444656585057856,True,0.03594939016287463,True,比例外推,139770523.85347256,未知,139770523.85347256
17,603669,166138584.35999998,166138584.35999998,2018-09-30,三季度报告,95836883.12,2018,9,-0.26324396455807986,True,0.03873550511760202,True,0.015413961625400985,True,比例外推,204195391.3365832,未知,204195391.3365832
18,603669,182703725.42,182703725.42,2018-12-31,年度报告,109368442.12000002,2018,12,-0.5571847211621795,True,0.06057394177367019,True,0.0,True,比例外推,182703725.42,未知,182703725.42
19,603669,36140877.63999999,36140877.63999999,2019-03-31,一季度报告,28295814.47,2019,3,1.1838527921823703,False,0.19607105622151166,True,0.01765240166932966,True,前期平均,117470909.30000001,未知,117470909.30000001
20,603669,109498823.35,109498823.35,2019-06-30,半年度报告,62309798.36999999,2019,6,0.030817701764295113,True,0.046411607876215774,True,0.07398243483467848,True,比例外推,176592733.42388278,未知,176592733.42388278
21,603669,150716017.31,150716017.31,2019-09-30,三季度报告,98473104.97999996,2019,9,-0.5708662883179992,True,0.677347342361017,True,0.10770177066875619,False,平均增速,164997065.40482777,未知,164997065.40482777
22,603669,201592462.77,201592462.77,2019-12-31,年度报告,138988897.15,2019,12,-0.6097744192347186,True,0.1602791966288321,True,0.0,True,比例外推,201592462.77,未知,201592462.77
23,603669,66010410.51000001,66010410.51000001,2020-03-31,一季度报告,31134949.059999995,2020,3,0.9727154406757238,False,0.18685745380267885,True,0.023951133357270005,True,前期平均,151962921.47000003,247020000.0,247020000.0
