,SECURITYCODE_x,NETPROFIT_x,PARENTNETPROFIT_x,REPORTDATE_x,REPORTTIMETYPE_x,KCFJCXSYJLR,Year,Month,managesituationChangeRate,managesituationGreatChange,historyprofitextroplaterate,ifhistoryprofitextroplate,IfprofitdisStableChangeRage,IfprofitdisStable,predicttype,predict,analyst_prediction,adj_prediction
0,603601,22065182.73,21962991.480000004,2013-09-30,三季度报告,21523270.62,2013,9,未知,未知,未知,未知,未知,未知,未知,未知,未知,未知
1,603601,25688641.75,25586450.509999994,2013-12-31,年度报告,24051929.39,2013,12,未知,未知,未知,未知,未知,未知,未知,未知,未知,未知
2,603601,8641820.120000001,8641820.120000001,2014-03-31,一季度报告,8394420.100000001,2014,3,未知,未知,未知,未知,未知,未知,未知,未知,未知,未知
3,603601,20517874.110000007,20517874.110000007,2014-06-30,半年度报告,20362687.050000004,2014,6,未知,未知,未知,未知,未知,未知,未知,未知,未知,未知
4,603601,31569348.70000001,31569348.70000001,2014-09-30,三季度报告,30327077.02000001,2014,9,0.0,True,未知,未知,未知,未知,未知,未知,未知,未知
5,603601,36569954.53,36569954.53,2014-12-31,年度报告,35402743.260000005,2014,12,-0.1410529624439953,True,未知,未知,未知,未知,未知,未知,未知,未知
6,603601,3167086.7,3167086.7,2015-03-31,一季度报告,2862653.6,2015,3,1.5533027097999812,False,未知,未知,未知,未知,未知,未知,52340000.0,未知
7,603601,14757004.89,14757004.89,2015-06-30,半年度报告,9717640.53,2015,6,0.07541271633233512,True,未知,未知,未知,未知,未知,未知,53280000.0,未知
8,603601,32180702.67000001,32217341.17,2015-09-30,三季度报告,22500199.01,2015,9,-0.3010567642784473,True,未知,未知,未知,未知,未知,未知,45470000.0,未知
9,603601,51186943.04000002,51093066.68,2015-12-31,年度报告,30410117.50000001,2015,12,-0.3966308404376351,True,未知,未知,未知,未知,未知,未知,44602500.0,未知
10,603601,18038363.700000007,18079412.3,2016-03-31,一季度报告,16796137.43,2016,3,5.967028319748872,False,未知,未知,未知,未知,未知,未知,105743333.0,未知
11,603601,30270273.61,30345266.95000001,2016-06-30,半年度报告,27618559.49,2016,6,0.49523449334575637,True,未知,未知,未知,未知,未知,未知,107063333.0,未知
12,603601,48041980.02,48530733.18000001,2016-09-30,三季度报告,44045780.50000001,2016,9,-0.3143349616610471,True,0.19999939635904096,True,0.09057121506366583,True,比例外推,57522565.98092873,95251429.0,95251429.0
13,603601,80193170.53999999,80824026.13,2016-12-31,年度报告,60550595.79,2016,12,-0.5689294687366431,True,0.6443333482750992,True,0.0,True,比例外推,80824026.13,94165000.0,94165000.0
14,603601,17123413.17,17316511.179999996,2017-03-31,一季度报告,16381674.810000002,2017,3,0.22323638091408438,True,2.0550437860089756,False,0.10874414938291575,False,未知,未知,166370000.0,未知
15,603601,44212953.52,44658296.19,2017-06-30,半年度报告,41863699.86999999,2017,6,-0.2710610080937421,True,0.7162510244188218,True,0.13073016160839912,False,平均增速,93082158.61799148,164630000.0,164630000.0
16,603601,77499548.42000002,80231130.56000002,2017-09-30,三季度报告,74464752.79,2017,9,-0.5407103803628783,True,0.5071981586702834,True,0.08198281463082258,True,比例外推,101893603.36261332,143640000.0,143640000.0
17,603601,117345085.04,113575361.25,2017-12-31,年度报告,90446871.75999998,2017,12,-0.7248496027602003,True,0.8276209109610613,True,0.0,True,比例外推,113575361.25,154550000.0,154550000.0
18,603601,31523972.14000001,31804126.18,2018-03-31,一季度报告,30534130.289999995,2018,3,0.28859722713798175,True,0.6150011291436656,True,0.09317534590778495,True,比例外推,167022875.1130827,196095556.0,196095556.0
19,603601,75207230.56,75548564.55999999,2018-06-30,半年度报告,71847297.71000001,2018,6,-0.5009339803544525,True,0.9638297046977868,True,0.09329064902125589,True,比例外推,177731603.33770216,197792857.0,197792857.0
20,603601,120634224.57,121145490.83,2018-09-30,三季度报告,111394232.53,2018,9,-0.715286305793419,True,0.932110615634163,True,0.05976118747827763,True,比例外推,155643626.19458354,183166667.00000003,183166667.00000003
21,603601,158663139.70000002,158956535.10000002,2018-12-31,年度报告,121896493.93,2018,12,-0.8119632984843077,True,0.7863447038131263,True,0.0,True,比例外推,158956535.10000002,237240000.0,237240000.0
22,603601,48312980.83000001,48094669.19000001,2019-03-31,一季度报告,47268327.36,2019,3,-0.3000506842219284,True,0.7930818602569676,True,0.055214595869152366,True,比例外推,200832886.03276122,223297143.0,223297143.0
23,603601,99388715.17,98317699.76,2019-06-30,半年度报告,98793907.71,2019,6,-0.706608226819408,True,1.0194407105571932,True,0.08661565971713459,True,比例外推,196012574.90895474,218488750.0,218488750.0
24,603601,133372305.78000002,134388439.85,2019-09-30,三季度报告,132609674.83,2019,9,-0.8170901930306161,True,0.921821823726714,True,0.09409962566987562,True,比例外推,163198522.31468213,194268000.0,194268000.0
25,603601,168929176.70000002,170937571.47,2019-12-31,年度报告,164258861.59999996,2019,12,-0.8609306309472963,True,0.6064041796273114,True,0.0,True,比例外推,170937571.47,194268000.0,194268000.0
26,603601,67336168.79,64287365.41,2020-03-31,一季度报告,60518966.98,2020,3,-0.5432866622814837,True,0.9862519032474593,True,0.05867365014104442,True,比例外推,256148482.84970003,320183750.0,320183750.0
