,SECURITYCODE_x,NETPROFIT_x,PARENTNETPROFIT_x,REPORTDATE_x,REPORTTIMETYPE_x,KCFJCXSYJLR,Year,Month,managesituationChangeRate,managesituationGreatChange,historyprofitextroplaterate,ifhistoryprofitextroplate,IfprofitdisStableChangeRage,IfprofitdisStable,predicttype,predict,analyst_prediction,adj_prediction
0,603698,159876939.36999995,159876939.36999995,2013-09-30,三季度报告,157126018.95000005,2013,9,未知,未知,未知,未知,未知,未知,未知,未知,未知,未知
1,603698,228337755.94,228337755.94,2013-12-31,年度报告,224898534.91,2013,12,未知,未知,未知,未知,未知,未知,未知,未知,未知,未知
2,603698,47813357.92999999,47813357.92999999,2014-03-31,一季度报告,47203545.2,2014,3,未知,未知,未知,未知,未知,未知,未知,未知,未知,未知
3,603698,149473470.12,149473470.12,2014-06-30,半年度报告,148049555.67000002,2014,6,未知,未知,未知,未知,未知,未知,未知,未知,未知,未知
4,603698,165138032.90999997,165138032.90999997,2014-09-30,三季度报告,163066383.31999996,2014,9,0.0,True,未知,未知,未知,未知,未知,未知,未知,未知
5,603698,281584500.12,281584500.12,2014-12-31,年度报告,278625644.65,2014,12,-0.29982258644947624,True,未知,未知,未知,未知,未知,未知,未知,未知
6,603698,20227692.04,20227692.04,2015-03-31,一季度报告,19594425.980000004,2015,3,2.343771412249773,False,未知,未知,未知,未知,未知,未知,,未知
7,603698,151505464.32,151505464.32,2015-06-30,半年度报告,141286664.16,2015,6,0.06960077424875362,True,未知,未知,未知,未知,未知,未知,未知,未知
8,603698,137759051.20999998,137759051.20999998,2015-09-30,三季度报告,121156354.89999998,2015,9,-0.031858763528249796,True,未知,未知,未知,未知,未知,未知,未知,未知
9,603698,295964407.38999987,295964407.38999987,2015-12-31,年度报告,276412878.31000006,2015,12,-0.43222393525969355,True,未知,未知,未知,未知,未知,未知,317590700.0,未知
10,603698,3875693.77,3875693.77,2016-03-31,一季度报告,-2694948.6,2016,3,6.903864615589627,False,未知,未知,未知,未知,未知,未知,未知,未知
11,603698,57061848.25,57061848.25,2016-06-30,半年度报告,47297694.47,2016,6,0.0552552681025304,True,未知,未知,未知,未知,未知,未知,未知,未知
12,603698,43418938.1,43418938.1,2016-09-30,三季度报告,32406155.91,2016,9,0.16055488162649614,True,0.15229104527947246,True,0.13575743712385369,False,平均增速,150774975.78484175,338700000.0,338700000.0
13,603698,163861750.64999998,163861750.64999998,2016-12-31,年度报告,151108890.26999998,2016,12,-0.4598102495502913,True,0.16082168947407235,True,0.0,True,比例外推,163861750.64999998,338700000.0,338700000.0
14,603698,31792002.97,31792002.97,2017-03-31,一季度报告,31102810.17,2017,3,40.25117949398771,False,0.8860777788788141,True,0.09525917722114248,True,前期平均,275912278.86,未知,275912278.86
15,603698,129476895.99000002,129476895.99000002,2017-06-30,半年度报告,127526684.68,2017,6,1.801818452664648,False,0.6208249699855639,True,0.13883066588142856,False,前期平均,262328047.55500007,未知,262328047.55500007
16,603698,171629633.46000004,171629633.46000004,2017-09-30,三季度报告,102874208.53,2017,9,2.682193677832023,False,0.7133089727413914,True,0.1982192999402349,False,前期平均,307037525.8300001,,307037525.8300001
17,603698,192494066.15,192494066.15,2017-12-31,年度报告,106887199.37999998,2017,12,-0.024318129546359948,True,0.4325614730829949,True,0.0,True,比例外推,192494066.15,,192494066.15
18,603698,44919450.2,44919450.2,2018-03-31,一季度报告,43988372.48,2018,3,4.028841357396235,False,1.6379698869368096,True,0.17630689663638394,False,前期平均,250230595.8,未知,250230595.8
19,603698,140014871.58999997,140014871.58999997,2018-06-30,半年度报告,137600770.24,2018,6,0.2347912586840808,True,0.24158377834536846,True,0.5206814285208735,False,平均增速,122409276.3624016,未知,122409276.3624016
20,603698,177231439.86999995,177231439.86999995,2018-09-30,三季度报告,173996967.56000003,2018,9,-0.06847706805095038,True,0.8945969553325546,True,0.4240464684329458,False,平均增速,181883242.1418913,231000000.0,231000000.0
21,603698,226735815.31,226735815.31,2018-12-31,年度报告,222647260.05,2018,12,-0.1694448428066522,True,0.16275286742928127,True,0.0,True,比例外推,226735815.31,未知,226735815.31
22,603698,28882876.45,28882876.45,2019-03-31,一季度报告,28251946.69,2019,3,2.559191812414479,False,1.518774931133947,True,0.17474199427012316,False,前期平均,143676990.48999998,未知,143676990.48999998
23,603698,71625179.52000001,71625179.52000001,2019-06-30,半年度报告,57072215.96000001,2019,6,0.1418568438798507,True,0.5011881007396233,True,0.4850554853562785,False,平均增速,148590062.52133608,未知,148590062.52133608
24,603698,98254548.05,98254548.05,2019-09-30,三季度报告,83185947.89000002,2019,9,-0.09791998819582803,True,0.6482921842663917,True,0.43834538103612886,False,平均增速,143822121.93146878,未知,143822121.93146878
25,603698,155308485.13999996,155308485.13999996,2019-12-31,年度报告,138917981.51999998,2019,12,-0.29487567214993626,True,0.2725248452293541,True,0.0,True,比例外推,155308485.13999996,,155308485.13999996
26,603698,-29239809.39,-29239809.39,2020-03-31,一季度报告,-29651556.25,2020,3,4.535353781219389,False,0.24697355462703202,True,0.06034441832890433,True,盈利变化,78103814.5533333,未知,78103814.5533333
