,SECURITYCODE_x,NETPROFIT_x,PARENTNETPROFIT_x,REPORTDATE_x,REPORTTIMETYPE_x,KCFJCXSYJLR,Year,Month,managesituationChangeRate,managesituationGreatChange,historyprofitextroplaterate,ifhistoryprofitextroplate,IfprofitdisStableChangeRage,IfprofitdisStable,predicttype,predict,analyst_prediction,adj_prediction
0,603655,35777107.01,35777107.01,2013-12-31,年度报告,34565769.04000001,2013,12,未知,未知,未知,未知,未知,未知,未知,未知,未知,未知
1,603655,35111470.489999995,35111470.489999995,2014-12-31,年度报告,35117775.60999999,2014,12,0.0,True,未知,未知,未知,未知,未知,未知,未知,未知
2,603655,34141279.21999999,34141279.21999999,2015-12-31,年度报告,33688634.17,2015,12,0.018957808109733867,True,未知,未知,未知,未知,未知,未知,未知,未知
3,603655,20721562.85,20721562.85,2016-09-30,三季度报告,20720696.12,2016,9,未知,未知,未知,未知,未知,未知,未知,未知,未知,未知
4,603655,30181892.95000001,30181892.95000001,2016-12-31,年度报告,29822411.72,2016,12,0.047913488521008234,True,0.0367621858401661,True,0.0,True,比例外推,30181892.95000001,未知,30181892.95000001
5,603655,7507190.86,7507190.86,2017-03-31,一季度报告,7529102.06,2017,3,未知,未知,未知,未知,未知,未知,未知,未知,未知,未知
6,603655,16738116.69,16738116.69,2017-06-30,半年度报告,16702799.04,2017,6,未知,未知,未知,未知,未知,未知,未知,未知,未知,未知
7,603655,35270648.22,35270648.22,2017-12-31,年度报告,34900760.68,2017,12,0.18538313913143695,True,0.1283553916230478,True,0.0,True,比例外推,35270648.22,未知,35270648.22
8,603655,12684778.259999994,12684778.259999994,2018-03-31,一季度报告,8348829.07,2018,3,3.765711659287692,False,未知,未知,未知,未知,未知,未知,未知,未知
9,603655,19781733.26,19781733.26,2018-06-30,半年度报告,14488465.76,2018,6,1.137463113241087,False,未知,未知,未知,未知,未知,未知,未知,未知
10,603655,23446693.47,23446693.47,2018-09-30,三季度报告,18442380.510000005,2018,9,未知,未知,未知,未知,未知,未知,未知,未知,未知,未知
11,603655,30208084.51,30208084.51,2018-12-31,年度报告,24061176.2,2018,12,0.014359214121639388,True,0.09667005000260384,True,0.0,True,比例外推,30208084.51,未知,30208084.51
12,603655,4854391.500000001,4854391.500000001,2019-03-31,一季度报告,3712720.34,2019,3,1.8204755555577221,False,未知,未知,未知,未知,未知,未知,未知,未知
13,603655,9621380.220000004,9621380.220000004,2019-06-30,半年度报告,7570415.81,2019,6,0.8085931368988641,False,未知,未知,未知,未知,未知,未知,未知,未知
14,603655,13615392.969999995,13615392.969999995,2019-09-30,三季度报告,10573860.58,2019,9,0.525891361004772,False,未知,未知,未知,未知,未知,未知,未知,未知
15,603655,22923536.350000005,22923536.350000005,2019-12-31,年度报告,18574236.71,2019,12,0.1843553667944898,True,0.07694693070692285,True,0.0,True,比例外推,22923536.350000005,未知,22923536.350000005
16,603655,2483383.12,2483383.12,2020-03-31,一季度报告,1714499.8900000004,2020,3,6.370049780698568,False,0.5191760178365405,True,0.0927841536029731,True,前期平均,24025385.995,未知,24025385.995
