,SECURITYCODE_x,NETPROFIT_x,PARENTNETPROFIT_x,REPORTDATE_x,REPORTTIMETYPE_x,KCFJCXSYJLR,Year,Month,managesituationChangeRate,managesituationGreatChange,historyprofitextroplaterate,ifhistoryprofitextroplate,IfprofitdisStableChangeRage,IfprofitdisStable,predicttype,predict,analyst_prediction,adj_prediction
0,603696,40979759.78999999,40979759.78999999,2014-09-30,三季度报告,37448394.31,2014,9,未知,未知,未知,未知,未知,未知,未知,未知,未知,未知
1,603696,56568886.86,56568886.86,2014-12-31,年度报告,52757015.35,2014,12,未知,未知,未知,未知,未知,未知,未知,未知,未知,未知
2,603696,11108176.81,11108176.81,2015-03-31,一季度报告,11108176.81,2015,3,未知,未知,未知,未知,未知,未知,未知,未知,未知,未知
3,603696,24329459.61,24329459.61,2015-06-30,半年度报告,23252685.61,2015,6,未知,未知,未知,未知,未知,未知,未知,未知,61047500.0,未知
4,603696,37134955.52,37134955.52,2015-09-30,三季度报告,35987777.93,2015,9,0.0,True,未知,未知,未知,未知,未知,未知,56908333.0,未知
5,603696,37134955.52,37134955.52,2015-09-30,三季度报告,35984542.07,2015,9,0.0,True,未知,未知,未知,未知,未知,未知,56908333.0,未知
6,603696,53163545.67,53163545.67,2015-12-31,年度报告,50884286.13,2015,12,-0.27557775899994097,True,未知,未知,未知,未知,未知,未知,57487838.0,未知
7,603696,9104778.81,9104778.81,2016-03-31,一季度报告,9104778.81,2016,3,2.6891526387218163,False,未知,未知,未知,未知,未知,未知,,未知
8,603696,19166100.380000006,19166100.380000006,2016-06-30,半年度报告,18988827.160000004,2016,6,0.6843678588387682,False,未知,未知,未知,未知,未知,未知,未知,未知
9,603696,29709899.16,29709899.16,2016-09-30,三季度报告,28566691.500000004,2016,9,0.10353598694710348,True,未知,未知,未知,未知,未知,未知,未知,未知
10,603696,40795696.54,40795696.54,2016-12-31,年度报告,38700981.6,2016,12,-0.2291755699596853,True,未知,未知,未知,未知,未知,未知,65625350.0,未知
11,603696,9935353.02,9935353.02,2017-03-31,一季度报告,9025057.72,2017,3,3.5009066826522925,False,未知,未知,未知,未知,未知,未知,未知,未知
12,603696,16994589.48,16994589.48,2017-06-30,半年度报告,15548120.639999995,2017,6,1.1381375959380204,False,未知,未知,0.019734072808679115,True,未知,未知,未知,未知
13,603696,26297587.07,26297587.07,2017-09-30,三季度报告,23746179.42,2017,9,0.3793301542124787,True,0.23932644336996947,True,0.0,True,比例外推,35605454.2961046,未知,35605454.2961046
14,603696,41237289.90000001,41237289.90000001,2017-12-31,年度报告,34888845.01,2017,12,0.004511830060788872,True,0.2564514319165071,True,0.02126610565042708,True,比例外推,41237289.90000001,未知,41237289.90000001
15,603696,10934554.430000003,10934554.430000003,2018-03-31,一季度报告,10232378.409999998,2018,3,3.1246405344135413,False,0.01693218876220943,True,0.02623022705625011,True,前期平均,45620710.485,未知,45620710.485
16,603696,21233182.67,21233182.67,2018-06-30,半年度报告,17989158.669999998,2018,6,1.41134155304115,False,0.2185598031657853,True,0.029468716906664305,True,前期平均,44905060.15,未知,44905060.15
17,603696,30542822.66,30542822.66,2018-09-30,三季度报告,26053240.73,2018,9,0.558308740680975,False,0.2131754285085388,True,0.0,True,前期平均,43058221.81,未知,43058221.81
18,603696,39482338.77000001,39482338.77000001,2018-12-31,年度报告,31198185.520000003,2018,12,-0.006245078438096429,True,0.12223025792749186,True,0.05400662747287882,True,比例外推,39482338.77000001,未知,39482338.77000001
19,603696,13349649.9,13349649.9,2019-03-31,一季度报告,8861356.37,2019,3,2.747730193520101,False,0.14857969762281886,True,0.0723053366922779,True,前期平均,41079644.94,60040000.0,60040000.0
20,603696,28274336.31,28274336.31,2019-06-30,半年度报告,21348202.250000004,2019,6,0.9299866829620219,False,0.17437929155702217,True,0.0838047172480495,True,前期平均,47800775.715,,47800775.715
21,603696,38379419.37,38379419.37,2019-09-30,三季度报告,30072392.460000005,2019,9,0.3417148849071041,True,0.09066929140768894,True,0.0,True,比例外推,48335042.74904403,60040000.0,60040000.0
22,603696,42796999.75,42796999.75,2019-12-31,年度报告,31824767.800000004,2019,12,0.037926350531640014,True,0.037403354835121014,True,0.039612460030387875,True,比例外推,42796999.75,未知,42796999.75
23,603696,10711978.31,10711978.31,2020-03-31,一季度报告,8676903.390000002,2020,3,2.069725430777027,False,0.2793204696267111,True,未知,未知,前期平均,34126775.510000005,未知,34126775.510000005
