,SECURITYCODE_x,NETPROFIT_x,PARENTNETPROFIT_x,REPORTDATE_x,REPORTTIMETYPE_x,KCFJCXSYJLR,Year,Month,managesituationChangeRate,managesituationGreatChange,historyprofitextroplaterate,ifhistoryprofitextroplate,IfprofitdisStableChangeRage,IfprofitdisStable,predicttype,predict,analyst_prediction,adj_prediction
0,603615,96139026.36,96139026.36,2012-12-31,年度报告,95021258.18,2012,12,未知,未知,未知,未知,未知,未知,未知,未知,未知,未知
1,603615,101057545.46,101057545.46,2013-12-31,年度报告,99684714.59,2013,12,0.0,True,未知,未知,未知,未知,未知,未知,未知,未知
2,603615,88440841.60000001,88440841.60000001,2014-12-31,年度报告,84238108.26,2014,12,-0.04867047856359042,True,未知,未知,未知,未知,未知,未知,未知,未知
3,603615,90143579.61,90143579.61,2015-12-31,年度报告,87425093.79,2015,12,0.0870433232060061,True,0.10301846747388337,True,0.0,True,比例外推,90143579.61,未知,90143579.61
4,603615,25379134.83,25379134.83,2016-03-31,一季度报告,24879148.41999999,2016,3,未知,未知,未知,未知,未知,未知,未知,未知,未知,未知
5,603615,51159484.96,51159484.96,2016-06-30,半年度报告,50099238.81000001,2016,6,未知,未知,未知,未知,未知,未知,未知,未知,未知,未知
6,603615,74562364.07000001,74562364.07000001,2016-09-30,三季度报告,73545484.07999998,2016,9,未知,未知,未知,未知,未知,未知,未知,未知,未知,未知
7,603615,91436854.44,91436854.44,2016-12-31,年度报告,88658589.16,2016,12,0.06650996971652211,True,0.04860847621401387,True,0.0,True,比例外推,91436854.44,未知,91436854.44
8,603615,26239857.83,26239857.83,2017-03-31,一季度报告,25610349.98,2017,3,2.7881128337896146,False,未知,未知,未知,未知,未知,未知,100000000.0,未知
9,603615,44766273.39,44766273.39,2017-06-30,半年度报告,43705823.62,2017,6,0.8792023890617369,False,未知,未知,未知,未知,未知,未知,90000000.0,未知
10,603615,68856774.07000002,68856774.07000002,2017-09-30,三季度报告,66498765.25,2017,9,0.2893773897745996,True,未知,未知,未知,未知,未知,未知,,未知
11,603615,93622401.91,93622401.91,2017-12-31,年度报告,88401442.28,2017,12,0.05142534647323769,True,0.024018263412552383,True,0.0,True,比例外推,93622401.91,未知,93622401.91
12,603615,22238055.92000001,22238055.92000001,2018-03-31,一季度报告,21723413.33,2018,3,2.66385469703591,False,未知,未知,未知,未知,未知,未知,,未知
13,603615,38767885.67,38767885.67,2018-06-30,半年度报告,36880899.75000001,2018,6,1.147577161995257,False,未知,未知,未知,未知,未知,未知,未知,未知
14,603615,57592465.45,57592465.45,2018-09-30,三季度报告,54399939.14,2018,9,0.3962174042929277,True,未知,未知,未知,未知,未知,未知,未知,未知
15,603615,68381937.92,68381937.92,2018-12-31,年度报告,64335327.31,2018,12,0.026880579846896634,True,0.0311948244844499,True,0.0,True,比例外推,68381937.92,未知,68381937.92
16,603615,20193467.800000004,20193467.800000004,2019-03-31,一季度报告,18490421.48,2019,3,3.323175852505005,False,0.13837698978451896,True,0.03499858833018393,True,前期平均,83478734.32,102000000.0,102000000.0
17,603615,35453367.76,35453367.76,2019-06-30,半年度报告,32982430.44000001,2019,6,1.4798625124505016,False,0.19171062419857315,True,0.04984584938378561,True,前期平均,77080852.26499999,,77080852.26499999
18,603615,59359050.3,59359050.3,2019-09-30,三季度报告,56646352.96000001,2019,9,0.6692986766379176,False,0.19686499030860813,True,0.056877404299339296,True,前期平均,77866941.355,未知,77866941.355
19,603615,68836354.95000002,68836354.95000002,2019-12-31,年度报告,64897728.43,2019,12,0.40591257405534487,True,0.2609725201675922,True,0.0,True,比例外推,68836354.95000002,未知,68836354.95000002
20,603615,6946991.560000001,6946991.560000001,2020-03-31,一季度报告,6012133.12,2020,3,3.76089730165118,False,0.16690029591052682,True,0.03356563867893808,True,前期平均,59648494.7,未知,59648494.7
