,SECURITYCODE_x,NETPROFIT_x,PARENTNETPROFIT_x,REPORTDATE_x,REPORTTIMETYPE_x,KCFJCXSYJLR,Year,Month,managesituationChangeRate,managesituationGreatChange,historyprofitextroplaterate,ifhistoryprofitextroplate,IfprofitdisStableChangeRage,IfprofitdisStable,predicttype,predict,analyst_prediction,adj_prediction
0,603699,475847806.3500001,471532258.0400001,2013-12-31,年度报告,453824328.73,2013,12,未知,未知,未知,未知,未知,未知,未知,未知,未知,未知
1,603699,132523994.82,130039632.33999996,2014-03-31,一季度报告,125469087.78,2014,3,未知,未知,未知,未知,未知,未知,未知,未知,未知,未知
2,603699,256906072.73999995,251970606.15,2014-06-30,半年度报告,247424780.73,2014,6,未知,未知,未知,未知,未知,未知,未知,未知,未知,未知
3,603699,407609983.69,400344757.0,2014-09-30,三季度报告,388240771.81,2014,9,未知,未知,未知,未知,未知,未知,未知,未知,未知,未知
4,603699,572113132.76,563959403.81,2014-12-31,年度报告,539816998.8199999,2014,12,0.0,True,未知,未知,未知,未知,未知,未知,未知,未知
5,603699,124817269.79,125877650.34,2015-03-31,一季度报告,119053228.69,2015,3,2.590653956638704,False,未知,未知,未知,未知,未知,未知,615002500.0,未知
6,603699,233311164.14,234037746.51,2015-06-30,半年度报告,213107032.01,2015,6,0.8522248278326165,False,未知,未知,未知,未知,未知,未知,595850000.0,未知
7,603699,328777198.84000003,328920087.72,2015-09-30,三季度报告,264746089.51,2015,9,0.1674095959138652,True,未知,未知,未知,未知,未知,未知,448000000.0,未知
8,603699,344052698.82,342143811.79,2015-12-31,年度报告,285534451.35999995,2015,12,-0.16826274542168737,True,未知,未知,未知,未知,未知,未知,648900000.0,未知
9,603699,64636781.37000001,66884373.43000001,2016-03-31,一季度报告,61358002.6,2016,3,2.812355510984936,False,未知,未知,未知,未知,未知,未知,430450000.0,未知
10,603699,134444091.47,140204533.66,2016-06-30,半年度报告,132947254.84999998,2016,6,1.0395415200297244,False,未知,未知,未知,未知,未知,未知,339700000.0,未知
11,603699,185686695.34,193550499.95,2016-09-30,三季度报告,178015578.18,2016,9,0.44732605554429644,True,未知,未知,未知,未知,未知,未知,261470000.0,未知
12,603699,211630808.82,219483572.95,2016-12-31,年度报告,195308353.24000007,2016,12,0.3830666289845094,True,0.3433864069166681,True,0.0,True,比例外推,219483572.95,271013333.0,271013333.0
13,603699,50707080.76999999,52023692.92999999,2017-03-31,一季度报告,47616273.71000001,2017,3,6.361873476126647,False,0.4976570782928507,True,0.09576963292245749,True,前期平均,342438259.78499997,310295714.0,310295714.0
14,603699,99994293.24000002,101823504.06999998,2017-06-30,半年度报告,94411967.47,2017,6,2.5393731412598473,False,0.45149178219161434,True,0.17011667854692564,False,前期平均,284233322.7899999,253440000.0,253440000.0
15,603699,151678167.4,155569516.01999998,2017-09-30,三季度报告,129695634.57,2017,9,1.5626381334360178,False,0.4956818919578757,True,0.13341258982064297,False,前期平均,241751810.4499999,242713332.99999997,241751810.4499999
16,603699,202645204.35999995,209177293.01,2017-12-31,年度报告,178883439.91,2017,12,1.2484807812397798,False,0.5380076367724257,True,0.0,True,前期平均,209177293.01,343860000.0,343860000.0
17,603699,40850982.81999999,42179061.29,2018-03-31,一季度报告,33021664.33,2018,3,8.384247705135643,False,0.46470312501075806,True,0.08451726459336217,True,前期平均,192394847.945,未知,192394847.945
18,603699,114611518.92999998,115077409.67,2018-06-30,半年度报告,107600797.11000004,2018,6,3.7587496339206083,False,0.456191085159948,True,0.12382636537967961,False,前期平均,182471668.54000002,292883333.0,292883333.0
19,603699,200719367.75,201830914.55,2018-09-30,三季度报告,181376126.77,2018,9,2.1372201715432912,False,0.41034475260209025,True,0.12953218189342564,False,前期平均,220871483.00500003,303252500.0,303252500.0
20,603699,271506319.48999995,274066793.07,2018-12-31,年度报告,258660580.98,2018,12,1.3481819264010546,False,0.27064524473422447,True,0.0,True,前期平均,274066793.07,307003333.0,307003333.0
21,603699,87487253.15,86613921.20000002,2019-03-31,一季度报告,71969314.12,2019,3,10.648380858955308,False,0.2916661179523082,True,0.1083391749916354,False,前期平均,219222679.62000006,410550000.0,410550000.0
22,603699,217446986.08,216273767.84,2019-06-30,半年度报告,186001004.57,2019,6,3.1518323009105953,False,0.022246130284729014,True,0.13921056849418267,False,前期平均,289690053.25500005,415500000.0,415500000.0
23,603699,373095784.55000013,370678360.95000017,2019-09-30,三季度报告,336783083.71000004,2019,9,1.370711963096048,False,0.18992455894667482,True,0.1322255408107995,False,前期平均,403918651.1500002,462333333.0,462333333.0
24,603699,458444602.41,455441914.74000007,2019-12-31,年度报告,420545261.49,2019,12,0.7526214757867777,False,0.31075085620287846,True,0.0,True,前期平均,455441914.74000007,,455441914.74000007
25,603699,98384948.32,97650811.12,2020-03-31,一季度报告,90143474.74,2020,3,4.439052995916354,False,0.9110769651435795,True,0.07785821895663617,True,前期平均,276103852.54499996,607634000.0,607634000.0
