,SECURITYCODE_x,NETPROFIT_x,PARENTNETPROFIT_x,REPORTDATE_x,REPORTTIMETYPE_x,KCFJCXSYJLR,Year,Month,managesituationChangeRate,managesituationGreatChange,historyprofitextroplaterate,ifhistoryprofitextroplate,IfprofitdisStableChangeRage,IfprofitdisStable,predicttype,predict,analyst_prediction,adj_prediction
0,603682,89756598.63999999,89387063.39999999,2013-12-31,年度报告,80818063.40000002,2013,12,未知,未知,未知,未知,未知,未知,未知,未知,未知,未知
1,603682,89756598.63999999,89387063.39999999,2013-12-31,年度报告,80818035.51999998,2013,12,未知,未知,未知,未知,未知,未知,未知,未知,未知,未知
2,603682,75078764.58,75773585.31000002,2014-12-31,年度报告,70462985.31,2014,12,0.0,True,未知,未知,未知,未知,未知,未知,未知,未知
3,603682,16575280.749999998,16668745.880000005,2015-03-31,一季度报告,16579649.22,2015,3,未知,未知,未知,未知,未知,未知,未知,未知,未知,未知
4,603682,95303946.72,95391385.6,2015-12-31,年度报告,90407085.59999998,2015,12,0.19549914202916932,True,未知,未知,未知,未知,未知,未知,未知,未知
5,603682,51769969.08,51792393.45999999,2016-06-30,半年度报告,35721693.46,2016,6,未知,未知,未知,未知,0.0,True,未知,未知,未知,未知
6,603682,100218147.23999998,100252514.88,2016-12-31,年度报告,80095797.05000001,2016,12,-0.05820690822278271,True,0.15635316182488304,True,未知,未知,未知,未知,未知,未知
7,603682,45656501.84,45544246.58000001,2017-06-30,半年度报告,42005646.58,2017,6,0.7337580113540216,False,未知,未知,0.0,True,未知,未知,未知,未知
8,603682,118396009.02,118191069.6,2017-12-31,年度报告,104585962.56,2017,12,-0.10438776696746281,True,0.17638868961935544,True,未知,未知,未知,未知,未知,未知
9,603682,81604891.54,81483321.82000001,2018-06-30,半年度报告,77853821.82000001,2018,6,0.9659105499266165,False,未知,未知,0.0,True,未知,未知,未知,未知
10,603682,177213548.17999998,176942697.56,2018-12-31,年度报告,172343408.11999995,2018,12,-0.24189506569568667,True,0.21107550172024567,True,未知,未知,未知,未知,未知,未知
11,603682,35056315.870000005,34953755.85999999,2019-03-31,一季度报告,34318857.84,2019,3,未知,未知,未知,未知,0.03148288545410688,True,未知,未知,未知,未知
12,603682,78406128.59,78211691.60999998,2019-06-30,半年度报告,73972891.61000001,2019,6,0.09989238324033901,True,0.675209843267512,True,未知,未知,True,True,未知,True
13,603682,131409463.7,131058792.14,2019-09-30,三季度报告,126726093.64999998,2019,9,未知,未知,未知,未知,0.0,True,未知,未知,未知,未知
14,603682,179416954.44,179010201.76,2019-12-31,年度报告,167761994.48999998,2019,12,-0.4935116442179009,True,0.6212449478270579,True,未知,未知,True,True,未知,True
15,603682,43059019.5,43045441.95999999,2020-03-31,一季度报告,31191660.12,2020,3,1.560354572706558,False,未知,未知,未知,未知,未知,未知,未知,未知
