,SECURITYCODE_x,NETPROFIT_x,PARENTNETPROFIT_x,REPORTDATE_x,REPORTTIMETYPE_x,KCFJCXSYJLR,Year,Month,managesituationChangeRate,managesituationGreatChange,historyprofitextroplaterate,ifhistoryprofitextroplate,IfprofitdisStableChangeRage,IfprofitdisStable,predicttype,predict,analyst_prediction,adj_prediction
0,603685,27771943.94,28326774.17,2013-12-31,年度报告,19515574.17,2013,12,未知,未知,未知,未知,未知,未知,未知,未知,未知,未知
1,603685,27888348.06000001,27112571.739999995,2014-12-31,年度报告,13008514.3,2014,12,0.0,True,未知,未知,未知,未知,未知,未知,未知,未知
2,603685,58205011.24999999,58719336.28999998,2015-12-31,年度报告,61712401.68999999,2015,12,-0.004173933850422851,True,未知,未知,未知,未知,未知,未知,未知,未知
3,603685,44467571.00000001,44467571.00000001,2016-06-30,半年度报告,44897471.00000001,2016,6,未知,未知,未知,未知,未知,未知,未知,未知,未知,未知
4,603685,67800764.31,67800764.31,2016-09-30,三季度报告,66957564.31000001,2016,9,未知,未知,未知,未知,未知,未知,未知,未知,未知,未知
5,603685,92505235.13999996,92505235.13999996,2016-12-31,年度报告,91516259.52999996,2016,12,-0.5228599162928603,True,1.0914375098858617,True,0.0,True,比例外推,92505235.13999996,未知,92505235.13999996
6,603685,25015961.020000003,25015961.020000003,2017-03-31,一季度报告,24889737.72,2017,3,未知,未知,未知,未知,未知,未知,未知,未知,未知,未知
7,603685,57030556.23,57030556.23,2017-06-30,半年度报告,56966372.00000001,2017,6,-0.37545624113356685,True,未知,未知,未知,未知,未知,未知,未知,未知
8,603685,88545732.24,88545732.24,2017-09-30,三季度报告,87060061.98,2017,9,-0.5903889252188874,True,未知,未知,未知,未知,未知,未知,未知,未知
9,603685,111955460.46000002,111955460.46000002,2017-12-31,年度报告,109170293.09,2017,12,-0.6997797595134029,True,1.148951693403261,True,0.0,True,比例外推,111955460.46000002,未知,111955460.46000002
10,603685,18496734.87,18496734.87,2018-03-31,一季度报告,18313103.950000007,2018,3,0.11016898042800027,True,未知,未知,未知,未知,未知,未知,未知,未知
11,603685,45568191.56,45568191.56,2018-06-30,半年度报告,45141042.85,2018,6,-0.513033963267028,True,未知,未知,未知,未知,未知,未知,未知,未知
12,603685,70220156.96000001,70220156.96000001,2018-09-30,三季度报告,69148681.99,2018,9,-0.6863547995207138,True,未知,未知,未知,未知,未知,未知,未知,未知
13,603685,105663188.64,104526579.21999998,2018-12-31,年度报告,90328610.12999998,2018,12,-0.7519375667261671,True,0.48570469681653416,True,0.0,True,比例外推,104526579.21999998,未知,104526579.21999998
14,603685,25435959.05,24218390.14,2019-03-31,一季度报告,21907548.59,2019,3,0.5014511553086882,False,未知,未知,未知,未知,未知,未知,未知,未知
15,603685,63079563.7,58195376.35000001,2019-06-30,半年度报告,53961968.23,2019,6,-0.3905410114107236,True,0.10208803248674482,True,0.017762006560293586,True,比例外推,111290180.2035448,未知,111290180.2035448
16,603685,91955276.97,83613196.58,2019-09-30,三季度报告,78616639.75999998,2019,9,-0.6045018247991112,True,0.1017367384686689,True,0.033233519751157736,True,比例外推,107779506.7688023,未知,107779506.7688023
17,603685,124280408.69,112014939.0,2019-12-31,年度报告,91828517.27000004,2019,12,-0.7371653808913484,True,0.0335794694420478,True,0.0,True,比例外推,112014939.0,未知,112014939.0
18,603685,19988835.89,18045074.36,2020-03-31,一季度报告,16990212.889999993,2020,3,0.0918378931735228,True,0.16912816040183073,True,0.020360952065812427,True,比例外推,77210129.35126811,未知,77210129.35126811
