,SECURITYCODE_x,NETPROFIT_x,PARENTNETPROFIT_x,REPORTDATE_x,REPORTTIMETYPE_x,KCFJCXSYJLR,Year,Month,managesituationChangeRate,managesituationGreatChange,historyprofitextroplaterate,ifhistoryprofitextroplate,IfprofitdisStableChangeRage,IfprofitdisStable,predicttype,predict,analyst_prediction,adj_prediction
0,603668,59292933.91000001,59544391.77,2014-12-31,年度报告,55865994.40999999,2014,12,未知,未知,未知,未知,未知,未知,未知,未知,未知,未知
1,603668,45827108.74,45922305.10000001,2015-09-30,三季度报告,38575105.10000001,2015,9,未知,未知,未知,未知,未知,未知,未知,未知,未知,未知
2,603668,65862773.85,66046600.83999999,2015-12-31,年度报告,57316627.44000001,2015,12,0.0,True,未知,未知,未知,未知,未知,未知,未知,未知
3,603668,9376133.01,9395616.98,2016-03-31,一季度报告,9381333.94,2016,3,未知,未知,未知,未知,未知,未知,未知,未知,未知,未知
4,603668,35417993.53,35501425.36,2016-06-30,半年度报告,29487273.06,2016,6,未知,未知,未知,未知,未知,未知,未知,未知,未知,未知
5,603668,63295469.71,63403730.51000001,2016-09-30,三季度报告,56211124.08999999,2016,9,0.29383972806136077,True,未知,未知,未知,未知,未知,未知,未知,未知
6,603668,80070738.55999999,80293463.34000002,2016-12-31,年度报告,71084055.67000002,2016,12,-0.09975042889876692,True,未知,未知,未知,未知,未知,未知,未知,未知
7,603668,11730114.44,11862102.750000002,2017-03-31,一季度报告,9081526.04,2017,3,5.323815356156089,False,未知,未知,未知,未知,未知,未知,,未知
8,603668,46299727.32,46476035.8,2017-06-30,半年度报告,38090482.47000001,2017,6,0.6740907092824806,False,未知,未知,未知,未知,未知,未知,120800000.0,未知
9,603668,70320922.63000001,70487697.18,2017-09-30,三季度报告,61797113.67,2017,9,-0.06323573896107185,True,未知,未知,未知,未知,未知,未知,117990000.0,未知
10,603668,90535305.35,90860161.81999998,2017-12-31,年度报告,81034722.4,2017,12,-0.25949310601688025,True,0.2795379450619148,True,0.0,True,比例外推,90860161.81999998,108980000.0,108980000.0
11,603668,17322661.97,17390162.72,2018-03-31,一季度报告,13636992.44,2018,3,4.054761759852022,False,未知,未知,未知,未知,未知,未知,129226667.0,未知
12,603668,50615193.98,50805730.16,2018-06-30,半年度报告,43664888.44000001,2018,6,0.28063246464061486,True,未知,未知,未知,未知,未知,未知,117120000.0,未知
13,603668,71804785.14,71705858.43999998,2018-09-30,三季度报告,63231215.06000001,2018,9,-0.15682372055931026,True,0.2888427606615083,True,0.06911160236150027,True,比例外推,93677066.15236801,119120000.0,119120000.0
14,603668,77295285.59,76842303.72000001,2018-12-31,年度报告,64491602.99000001,2018,12,-0.34508495132611805,True,0.24077470424533032,True,0.0,True,比例外推,76842303.72000001,113500000.0,113500000.0
15,603668,13624491.160000002,14214744.240000002,2019-03-31,一季度报告,13017532.39,2019,3,2.422853485953003,False,0.6414724607997524,True,0.05962091677571579,True,前期平均,81042703.28500003,138260000.0,138260000.0
16,603668,53372935.13,52536145.27,2019-06-30,半年度报告,47224901.7,2019,6,0.17144535558688015,True,0.23878134273736296,True,0.15641744720300366,False,平均增速,73877782.9661957,118870000.0,118870000.0
17,603668,83461437.8,72379097.08,2019-09-30,三季度报告,66157462.82000001,2019,9,-0.17424815359596504,True,0.07479005955026369,True,0.1358476321993749,False,平均增速,73648431.57230206,,73648431.57230206
18,603668,75867907.40999998,56854322.17,2019-12-31,年度报告,42579897.03,2019,12,-0.23290361815195917,True,0.09387400565040135,True,0.0,True,比例外推,56854322.17,,56854322.17
19,603668,23073629.36,16425418.209999995,2020-03-31,一季度报告,17518228.32,2020,3,3.3519374935687507,False,0.06208680590606564,True,0.0976782620702845,True,前期平均,77829321.665,109000000.0,109000000.0
