,SECURITYCODE_x,NETPROFIT_x,PARENTNETPROFIT_x,REPORTDATE_x,REPORTTIMETYPE_x,KCFJCXSYJLR,Year,Month,managesituationChangeRate,managesituationGreatChange,historyprofitextroplaterate,ifhistoryprofitextroplate,IfprofitdisStableChangeRage,IfprofitdisStable,predicttype,predict,analyst_prediction,adj_prediction
0,603716,57575260.74,56518105.65,2014-12-31,年度报告,55968950.65000001,2014,12,未知,未知,未知,未知,未知,未知,未知,未知,未知,未知
1,603716,43976083.15,41894444.33,2015-09-30,三季度报告,39389044.33,2015,9,未知,未知,未知,未知,未知,未知,未知,未知,未知,未知
2,603716,64305948.92000002,61459327.04999999,2015-12-31,年度报告,59640790.78,2015,12,0.0,True,未知,未知,未知,未知,未知,未知,未知,未知
3,603716,11776948.54,11011870.26,2016-03-31,一季度报告,11012352.02,2016,3,未知,未知,未知,未知,未知,未知,未知,未知,未知,未知
4,603716,38435468.02,36143722.45999999,2016-06-30,半年度报告,36171738.01,2016,6,未知,未知,未知,未知,未知,未知,未知,未知,未知,未知
5,603716,53628144.27,49814045.52000001,2016-09-30,三季度报告,49788351.45999999,2016,9,0.30924031009341957,True,未知,未知,未知,未知,未知,未知,75753333.0,未知
6,603716,73547790.86000001,68917864.86,2016-12-31,年度报告,67335059.58,2016,12,-0.10466664893435201,True,未知,未知,未知,未知,未知,未知,76315000.0,未知
7,603716,14439098.54,14630848.579999998,2017-03-31,一季度报告,12333066.889999995,2017,3,3.888809740863486,False,未知,未知,未知,未知,未知,未知,97600000.0,未知
8,603716,38946144.47,37128548.53,2017-06-30,半年度报告,33421944.38000001,2017,6,0.49797215192073513,True,未知,未知,未知,未知,未知,未知,82666667.0,未知
9,603716,61863429.89,55380574.49,2017-09-30,三季度报告,50881796.71,2017,9,0.07360158595321833,True,未知,未知,未知,未知,未知,未知,83000000.0,未知
10,603716,106580705.63,93847385.0,2017-12-31,年度报告,86300700.0,2017,12,-0.2171721262220385,True,0.2068766147820328,True,0.0,True,比例外推,93847385.0,85000000.0,85000000.0
11,603716,24309667.35000001,18646707.31,2018-03-31,一季度报告,18833523.590000004,2018,3,2.9874553512119744,False,未知,未知,未知,未知,未知,未知,134433333.0,未知
12,603716,60459721.24000001,48286663.32000001,2018-06-30,半年度报告,48928663.31999999,2018,6,0.4783301793673032,True,未知,未知,未知,未知,未知,未知,136400000.0,未知
13,603716,91412151.13,71094515.33,2018-09-30,三季度报告,71732719.48,2018,9,-0.06931670548537053,True,0.26763832930710985,True,0.07626623852277359,True,比例外推,107532160.53782766,,107532160.53782766
14,603716,116427763.75,94159095.62,2018-12-31,年度报告,94730600.0,2018,12,-0.4597965888884685,True,0.5462867500017267,True,0.0,True,比例外推,94159095.62,122800000.0,122800000.0
15,603716,24969040.31,21543652.9,2019-03-31,一季度报告,22021805.97,2019,3,1.3684100613577495,False,0.8545639070465089,True,0.030389714551350172,True,前期平均,86688823.235,,86688823.235
16,603716,74244239.67,56232353.83,2019-06-30,半年度报告,57365031.44000001,2019,6,-0.04770879588660186,True,0.5626379263630152,True,0.0930490677344799,True,比例外推,118297631.26975614,未知,118297631.26975614
17,603716,124774021.09,88822898.66,2019-09-30,三季度报告,88459661.49,2019,9,-0.3701574678171562,True,0.5830098740079377,True,0.1058220013657466,False,平均增速,116683162.4306559,未知,116683162.4306559
18,603716,142440856.19,110420394.94,2019-12-31,年度报告,108326694.94,2019,12,-0.5054851275540366,True,0.2927189869312387,True,0.0,True,比例外推,110420394.94,未知,110420394.94
19,603716,-27143075.84,-25032741.6,2020-03-31,一季度报告,-22781153.99,2020,3,1.3058659854436354,False,0.2887657057714874,True,0.03876197351241584,True,盈利变化,50683114.99333334,未知,50683114.99333334
