,SECURITYCODE_x,NETPROFIT_x,PARENTNETPROFIT_x,REPORTDATE_x,REPORTTIMETYPE_x,KCFJCXSYJLR,Year,Month,managesituationChangeRate,managesituationGreatChange,historyprofitextroplaterate,ifhistoryprofitextroplate,IfprofitdisStableChangeRage,IfprofitdisStable,predicttype,predict,analyst_prediction,adj_prediction
0,603797,47925361.79000001,47925361.79000001,2014-12-31,年度报告,47963466.15,2014,12,未知,未知,未知,未知,未知,未知,未知,未知,未知,未知
1,603797,54177170.28999999,54177170.28999999,2015-12-31,年度报告,53244224.8,2015,12,0.0,True,未知,未知,未知,未知,未知,未知,未知,未知
2,603797,13699537.61,13699537.61,2016-03-31,一季度报告,13642516.609999998,2016,3,未知,未知,未知,未知,未知,未知,未知,未知,未知,未知
3,603797,27443230.300000004,27443230.300000004,2016-06-30,半年度报告,27385228.33999999,2016,6,未知,未知,未知,未知,未知,未知,未知,未知,未知,未知
4,603797,42966708.88,42966708.88,2016-09-30,三季度报告,42912724.63,2016,9,未知,未知,未知,未知,未知,未知,未知,未知,未知,未知
5,603797,63486755.96999998,63486755.96999998,2016-12-31,年度报告,55309934.48,2016,12,-0.11539562635950262,True,未知,未知,未知,未知,未知,未知,未知,未知
6,603797,13791256.96,13791256.96,2017-03-31,一季度报告,13711639.6,2017,3,2.4983196626298403,False,未知,未知,未知,未知,未知,未知,73000000.0,未知
7,603797,28381116.65,28381116.65,2017-06-30,半年度报告,27692250.61,2017,6,0.7463455018267291,False,未知,未知,未知,未知,未知,未知,,未知
8,603797,44630769.14,44630769.14,2017-09-30,三季度报告,43910190.86000001,2017,9,0.11540685892067802,True,未知,未知,未知,未知,未知,未知,未知,未知
9,603797,64620501.64,64620501.64,2017-12-31,年度报告,61001601.09,2017,12,-0.24511244813569225,True,0.2435882769343359,True,0.0,True,比例外推,64620501.64,未知,64620501.64
10,603797,18961377.390000004,18961377.390000004,2018-03-31,一季度报告,15678205.69,2018,3,2.4750539366355193,False,未知,未知,未知,未知,未知,未知,未知,未知
11,603797,37313205.78,37313205.78,2018-06-30,半年度报告,33421555.66000001,2018,6,0.6886355241417187,False,未知,未知,未知,未知,未知,未知,未知,未知
12,603797,56725965.37999999,56725965.37999999,2018-09-30,三季度报告,54304965.48,2018,9,0.07381886338694646,True,未知,未知,未知,未知,未知,未知,未知,未知
13,603797,73528819.97000001,73528819.97000001,2018-12-31,年度报告,68750783.67000002,2018,12,-0.2583567045487887,True,0.0983910480296091,True,0.0,True,比例外推,73528819.97000001,未知,73528819.97000001
14,603797,33851514.15000001,33851514.15000001,2019-03-31,一季度报告,33841182.620000005,2019,3,1.5275253376516438,False,0.37947103287382383,True,0.013497503674993139,True,前期平均,78330203.83000001,未知,78330203.83000001
15,603797,78070711.69999999,78070711.69999999,2019-06-30,半年度报告,78060442.25,2019,6,0.28440751171501205,True,0.33680760523433223,True,0.024443501091513165,True,比例外推,163179098.60023788,未知,163179098.60023788
16,603797,127467495.97,127453028.55,2019-09-30,三季度报告,127411627.27,2019,9,-0.15514242077760798,True,0.2951506518726138,True,0.04203335248676021,True,比例外推,167280380.42203036,111000000.0,111000000.0
17,603797,175712496.56,175964625.29999998,2019-12-31,年度报告,176004413.68999997,2019,12,-0.34820983378281195,True,0.14792590742743983,True,0.0,True,比例外推,175964625.29999998,,175964625.29999998
18,603797,49897965.88000001,50135388.41,2020-03-31,一季度报告,50134897.45,2020,3,0.4157523819359196,True,1.0671017658156714,True,0.022756618769518733,True,比例外推,233152179.0514849,246000000.0,233152179.0514849
