,SECURITYCODE_x,NETPROFIT_x,PARENTNETPROFIT_x,REPORTDATE_x,REPORTTIMETYPE_x,KCFJCXSYJLR,Year,Month,managesituationChangeRate,managesituationGreatChange,historyprofitextroplaterate,ifhistoryprofitextroplate,IfprofitdisStableChangeRage,IfprofitdisStable,predicttype,predict,analyst_prediction,adj_prediction
0,603788,23355552.579999994,23355552.579999994,2014-03-31,一季度报告,22039239.5,2014,3,未知,未知,未知,未知,未知,未知,未知,未知,未知,未知
1,603788,95920470.79,95920470.79,2014-12-31,年度报告,93842035.12,2014,12,未知,未知,未知,未知,未知,未知,未知,未知,未知,未知
2,603788,26894769.99,26894769.99,2015-03-31,一季度报告,26609318.06,2015,3,0.0,True,未知,未知,未知,未知,未知,未知,,未知
3,603788,56713983.04999999,56713983.04999999,2015-06-30,半年度报告,54357308.99,2015,6,未知,未知,未知,未知,未知,未知,未知,未知,未知,未知
4,603788,82250637.23000002,82250637.23000002,2015-09-30,三季度报告,77413890.92999999,2015,9,未知,未知,未知,未知,未知,未知,未知,未知,未知,未知
5,603788,112395588.66,112395588.66,2015-12-31,年度报告,103289056.24,2015,12,-0.7565112807762107,True,未知,未知,未知,未知,未知,未知,100146667.0,未知
6,603788,38699708.02,38699708.02,2016-03-31,一季度报告,29860480.06,2016,3,-0.1315950056950089,True,未知,未知,未知,未知,未知,未知,133700000.0,未知
7,603788,74847958.55999999,74847958.55999999,2016-06-30,半年度报告,65310382.88999999,2016,6,-0.588187051517624,True,未知,未知,未知,未知,未知,未知,137914286.0,未知
8,603788,111864651.59,111864651.59,2016-09-30,三季度报告,98977158.21000002,2016,9,-0.7160441138627274,True,未知,未知,未知,未知,未知,未知,148627580.0,未知
9,603788,157525023.20999998,157141492.89000002,2016-12-31,年度报告,140303507.0,2016,12,-0.7922022309020398,True,未知,未知,未知,未知,未知,未知,148627580.0,未知
10,603788,61480403.28,60436236.63,2017-03-31,一季度报告,50891179.93000002,2017,3,-0.39649279607148846,True,0.5402769988626566,True,0.022519139395295484,True,比例外推,226010440.28152835,203518182.00000003,203518182.00000003
11,603788,120253557.68,118058661.85,2017-06-30,半年度报告,104856593.4,2017,6,-0.6879600589069159,True,未知,未知,未知,未知,未知,未知,231773997.00000003,未知
12,603788,172337100.87000003,169324791.74,2017-09-30,三季度报告,156157718.05,2017,9,-0.7912159717298236,True,未知,未知,未知,未知,未知,未知,228377000.0,未知
13,603788,235925535.35,233005778.59,2017-12-31,年度报告,216621610.78,2017,12,-0.8517343333518242,True,0.5123656200669361,True,0.0,True,比例外推,233005778.59,174500000.0,174500000.0
14,603788,82711468.48000002,82119580.91000001,2018-03-31,一季度报告,71400038.24000001,2018,3,-0.6201138682576319,True,0.8745603332837619,True,0.022493619305754442,True,比例外推,314386291.32686174,313972497.0,314386291.32686174
15,603788,157634890.61,156052022.95000002,2018-06-30,半年度报告,136597682.87,2018,6,-0.805780776630741,True,0.8280903460132512,True,0.034326729516611254,True,比例外推,297127325.7844056,314521470.0,297127325.7844056
16,603788,208275107.85,206280277.85,2018-09-30,三季度报告,176244810.84,2018,9,-0.8644775126070045,True,0.7756159436756725,True,0.024215826364308746,True,比例外推,273040586.7950537,279796846.0,273040586.7950537
17,603788,217640562.17,215099602.59,2018-12-31,年度报告,172382702.65,2018,12,-0.9010045583011963,True,0.7481105552889542,True,0.0,True,比例外推,215099602.59,278806846.0,278806846.0
18,603788,42977719.61000001,42507650.41,2019-03-31,一季度报告,40012898.22000001,2019,3,-0.7176261888561746,True,0.6512552722628091,True,0.12687694909267672,False,平均增速,129871209.75291938,284445000.0,284445000.0
19,603788,88507158.49000001,88507158.49000001,2019-06-30,半年度报告,72070791.87,2019,6,-0.8518376706475264,True,0.6159268635932976,True,0.2117570493123465,False,平均增速,118879293.11554545,207203459.0,207203459.0
20,603788,139873003.32000002,139873003.32000002,2019-09-30,三季度报告,120615591.06,2019,9,-0.8878620070295645,True,0.46568489495372595,True,0.20616011608519558,False,平均增速,136292388.85208923,199475000.0,199475000.0
21,603788,178753028.51000002,178282959.30999997,2019-12-31,年度报告,150888803.18,2019,12,-0.8926875011388876,True,0.10631721030743181,True,0.0,True,比例外推,178282959.30999997,199635000.0,199635000.0
22,603788,35998122.23,35998122.23,2020-03-31,一季度报告,33142835.440000005,2020,3,-0.4565660348678516,True,0.4038815214003988,True,0.10942574617993267,False,平均增速,128238516.35199845,201630714.0,201630714.0
