,SECURITYCODE_x,NETPROFIT_x,PARENTNETPROFIT_x,REPORTDATE_x,REPORTTIMETYPE_x,KCFJCXSYJLR,Year,Month,managesituationChangeRate,managesituationGreatChange,historyprofitextroplaterate,ifhistoryprofitextroplate,IfprofitdisStableChangeRage,IfprofitdisStable,predicttype,predict,analyst_prediction,adj_prediction
0,603706,107101443.25,87253961.62000002,2014-12-31,年度报告,68338375.17,2014,12,未知,未知,未知,未知,未知,未知,未知,未知,未知,未知
1,603706,95012100.44,95012100.44,2015-12-31,年度报告,97916090.35,2015,12,0.0,True,未知,未知,未知,未知,未知,未知,未知,未知
2,603706,142973861.67000002,142973861.67000002,2016-12-31,年度报告,81507859.67,2016,12,0.12724003315382343,True,未知,未知,未知,未知,未知,未知,未知,未知
3,603706,50080859.72,50080859.72,2017-06-30,半年度报告,45509106.4,2017,6,未知,未知,未知,未知,未知,未知,未知,未知,未知,未知
4,603706,81409546.84,81409546.84,2017-09-30,三季度报告,77861133.01,2017,9,未知,未知,未知,未知,未知,未知,未知,未知,未知,未知
5,603706,96573293.45,96573293.45,2017-12-31,年度报告,91101718.37,2017,12,-0.25090193410875095,True,0.4147875403074629,True,0.0,True,比例外推,96573293.45,未知,96573293.45
6,603706,19177920.270000003,19177920.270000003,2018-03-31,一季度报告,12151573.980000002,2018,3,未知,未知,未知,未知,未知,未知,未知,未知,未知,未知
7,603706,49472866.11000001,49472866.11000001,2018-06-30,半年度报告,42111472.68,2018,6,1.1385703809559122,False,未知,未知,未知,未知,未知,未知,106390000.0,未知
8,603706,63123754.28000001,63123754.28000001,2018-09-30,三季度报告,55055193.34,2018,9,0.31558824987067075,True,未知,未知,未知,未知,未知,未知,,未知
9,603706,93801410.29,93879938.57999998,2018-12-31,年度报告,75489617.25999999,2018,12,0.10901719744549104,True,0.1884118492219079,True,0.0,True,比例外推,93879938.57999998,未知,93879938.57999998
10,603706,20079362.37,20079362.37,2019-03-31,一季度报告,15666684.099999998,2019,3,4.584622406504559,False,未知,未知,未知,未知,未知,未知,未知,未知
11,603706,45025868.82,45025868.82,2019-06-30,半年度报告,35945025.260000005,2019,6,1.1648522042742833,False,未知,未知,未知,未知,未知,未知,未知,未知
12,603706,73975061.11,74284527.41000001,2019-09-30,三季度报告,60773438.71000002,2019,9,0.6966900095157013,False,未知,未知,未知,未知,未知,未知,未知,未知
13,603706,113035877.08,113242350.56999998,2019-12-31,年度报告,96028973.74,2019,12,0.14178926434987604,True,0.2168438799199211,True,0.0,True,比例外推,113242350.56999998,未知,113242350.56999998
14,603706,53917456.92000002,45942303.18000001,2020-03-31,一季度报告,44331634.97999999,2020,3,4.333906589086573,False,未知,未知,未知,未知,未知,未知,未知,未知
