,SECURITYCODE_x,NETPROFIT_x,PARENTNETPROFIT_x,REPORTDATE_x,REPORTTIMETYPE_x,KCFJCXSYJLR,Year,Month,managesituationChangeRate,managesituationGreatChange,historyprofitextroplaterate,ifhistoryprofitextroplate,IfprofitdisStableChangeRage,IfprofitdisStable,predicttype,predict,analyst_prediction,adj_prediction
0,603798,50406312.01,50624805.76999999,2012-12-31,年度报告,49218700.00000001,2012,12,未知,未知,未知,未知,未知,未知,未知,未知,未知,未知
1,603798,59520366.44999999,59520366.44999999,2013-12-31,年度报告,59684300.00000001,2013,12,0.0,True,未知,未知,未知,未知,未知,未知,未知,未知
2,603798,66728158.43000001,66728158.43000001,2014-12-31,年度报告,63895239.07000002,2014,12,-0.15312497189774932,True,未知,未知,未知,未知,未知,未知,未知,未知
3,603798,27677616.1,27677616.1,2015-03-31,一季度报告,27477441.85,2015,3,未知,未知,未知,未知,未知,未知,未知,未知,未知,未知
4,603798,47492578.86,47492578.86,2015-06-30,半年度报告,47223445.14000001,2015,6,未知,未知,未知,未知,未知,未知,未知,未知,未知,未知
5,603798,76449993.42,76449993.42,2015-09-30,三季度报告,76684326.24000001,2015,9,未知,未知,未知,未知,未知,未知,未知,未知,未知,未知
6,603798,83467558.59000002,83467558.59000002,2015-12-31,年度报告,82029252.38000001,2015,12,-0.24460208110077178,True,0.21404847967422194,True,0.0,True,比例外推,83467558.59000002,未知,83467558.59000002
7,603798,30562483.7,30562483.7,2016-03-31,一季度报告,30264496.06000001,2016,3,0.8211941313110415,False,未知,未知,未知,未知,未知,未知,93385000.0,未知
8,603798,58931021.95,58931021.95,2016-06-30,半年度报告,58388473.57999999,2016,6,0.06135133572319131,True,未知,未知,未知,未知,未知,未知,101287500.0,未知
9,603798,94697039.69999996,94697039.69999996,2016-09-30,三季度报告,93669579.94,2016,9,-0.3406629647032349,True,未知,未知,未知,未知,未知,未知,110920000.0,未知
10,603798,113153443.42,113153443.42,2016-12-31,年度报告,108203688.56000005,2016,12,-0.3960969643595276,True,0.32227380350521245,True,0.0,True,比例外推,113153443.42,116000000.0,113153443.42
11,603798,47374133.62,47374133.62,2017-03-31,一季度报告,46397898.43,2017,3,0.6492871621556071,False,未知,未知,未知,未知,未知,未知,166022500.0,未知
12,603798,75475842.35000001,75475842.35000001,2017-06-30,半年度报告,74392884.72999999,2017,6,-0.14465572898485948,True,未知,未知,未知,未知,未知,未知,158227778.0,未知
13,603798,96533725.53000002,96533725.53000002,2017-09-30,三季度报告,95184122.29,2017,9,-0.4677097386603943,True,未知,未知,未知,未知,未知,未知,139820000.0,未知
14,603798,119536741.52,119536741.52,2017-12-31,年度报告,116239094.32,2017,12,-0.5545313471115222,True,0.5067466058959924,True,0.0,True,比例外推,119536741.52,132712000.0,119536741.52
15,603798,48707737.06,48707737.06,2018-03-31,一季度报告,48288288.19000001,2018,3,0.06400493599148169,True,0.6268561964243062,True,0.06121591568037993,True,比例外推,143308203.14196223,136000000.0,143308203.14196223
16,603798,59494977.47000001,59494977.47000001,2018-06-30,半年度报告,58593530.58,2018,6,-0.33215303810385377,True,0.41840422191217547,True,0.05489702266474372,True,比例外推,101043899.93154864,,101043899.93154864
17,603798,63837822.83000001,63837822.83000001,2018-09-30,三季度报告,62306431.29000002,2018,9,-0.47783728709056084,True,0.12807945040233656,True,0.06171307225950018,True,比例外推,72891399.30616523,未知,72891399.30616523
18,603798,75855045.12,75855045.12,2018-12-31,年度报告,71631678.41999999,2018,12,-0.5783195077174962,True,0.2159102059089337,True,0.0,True,比例外推,75855045.12,,75855045.12
19,603798,49266822.83000001,49401020.09,2019-03-31,一季度报告,48160135.24999999,2019,3,0.03487279542278114,True,0.24993202771454354,True,0.22312663413670786,False,平均增速,70907275.65962681,144000000.0,144000000.0
20,603798,67645092.03,67930311.03999999,2019-06-30,半年度报告,63488629.25,2019,6,-0.15276357511998254,True,0.11470328870695917,True,0.15211728631373123,False,平均增速,80504277.34688549,,80504277.34688549
21,603798,80568709.90000002,81111966.63,2019-09-30,三季度报告,76777038.15999998,2019,9,-0.21040051531469203,True,0.332347776225023,True,0.03258834369818664,True,比例外推,94506681.95861056,未知,94506681.95861056
22,603798,84096474.71000001,84666911.89999999,2019-12-31,年度报告,73638343.20999998,2019,12,-0.33549163499594536,True,0.34801680492402803,True,0.0,True,比例外推,84666911.89999999,未知,84666911.89999999
23,603798,32636626.12,32668063.16,2020-03-31,一季度报告,29573753.90000001,2020,3,0.023128935753212735,True,0.02551756083273647,True,0.17660327285949856,False,平均增速,50963966.9691309,未知,50963966.9691309
