,SECURITYCODE_x,NETPROFIT_x,PARENTNETPROFIT_x,REPORTDATE_x,REPORTTIMETYPE_x,KCFJCXSYJLR,Year,Month,managesituationChangeRate,managesituationGreatChange,historyprofitextroplaterate,ifhistoryprofitextroplate,IfprofitdisStableChangeRage,IfprofitdisStable,predicttype,predict,analyst_prediction,adj_prediction
0,603758,95982145.38,95982145.38,2012-12-31,年度报告,98133368.32,2012,12,未知,未知,未知,未知,未知,未知,未知,未知,未知,未知
1,603758,173920404.58,173920404.58,2013-12-31,年度报告,171790226.66,2013,12,0.0,True,未知,未知,未知,未知,未知,未知,未知,未知
2,603758,209884957.85,209884957.85,2014-12-31,年度报告,207131554.92,2014,12,-0.44812602286783393,True,未知,未知,未知,未知,未知,未知,未知,未知
3,603758,246881857.83000007,246881857.83000007,2015-12-31,年度报告,244040309.87,2015,12,-0.5426916423015115,True,0.5552647270735698,True,0.0,True,比例外推,246881857.83000007,未知,246881857.83000007
4,603758,70307794.13,70307794.13,2016-03-31,一季度报告,70334900.0,2016,3,未知,未知,未知,未知,未知,未知,未知,未知,未知,未知
5,603758,110910183.23,110910183.23,2016-06-30,半年度报告,110294662.11999996,2016,6,未知,未知,未知,未知,未知,未知,未知,未知,未知,未知
6,603758,148027288.22,148027288.22,2016-09-30,三季度报告,147411342.10999998,2016,9,未知,未知,未知,未知,未知,未知,未知,未知,未知,未知
7,603758,217543883.28,217543883.28,2016-12-31,年度报告,215811218.62000003,2016,12,-0.6112223626974965,True,0.2864950935907124,True,0.0,True,比例外推,217543883.28,未知,217543883.28
8,603758,60694110.08999998,60694110.08999998,2017-03-31,一季度报告,60541448.36999998,2017,3,0.3651707690121497,True,未知,未知,未知,未知,未知,未知,未知,未知
9,603758,119689791.10999998,119689791.10999998,2017-06-30,半年度报告,117042669.83,2017,6,-0.13459573697613492,True,未知,未知,未知,未知,未知,未知,242300000.0,未知
10,603758,156116861.1,156116861.1,2017-09-30,三季度报告,152237960.67999998,2017,9,-0.35159154413914456,True,未知,未知,未知,未知,未知,未知,,未知
11,603758,188061109.98,188061109.98,2017-12-31,年度报告,180269915.82,2017,12,-0.5587917990024032,True,0.04746196171831338,True,0.0,True,比例外推,188061109.98,未知,188061109.98
12,603758,2314541.84,2314541.84,2018-03-31,一季度报告,1523917.8100000003,2018,3,0.5814079032985789,False,未知,未知,未知,未知,未知,未知,未知,未知
13,603758,-7380466.919999999,-7380466.919999999,2018-06-30,半年度报告,-10349358.62,2018,6,-0.19807575491723983,True,未知,未知,未知,未知,未知,未知,未知,未知
14,603758,-15622157.44,-15622157.44,2018-09-30,三季度报告,-19964497.05,2018,9,-0.38519039709286085,True,未知,未知,未知,未知,未知,未知,未知,未知
15,603758,-63650118.74000001,-63650118.74000001,2018-12-31,年度报告,-69113627.2,2018,12,-0.48962257326776626,True,0.19013485544309064,True,0.0,True,比例外推,-63650118.74000001,未知,-63650118.74000001
16,603758,-31978210.250000004,-31978210.250000004,2019-03-31,一季度报告,-33750139.29999999,2019,3,40.469177061841314,False,0.9646639970039971,True,0.23528202267376397,False,盈利变化,-110682194.88666666,未知,-110682194.88666666
17,603758,-56915169.43000002,-56915169.43000002,2019-06-30,半年度报告,-62990650.40000001,2019,6,-14.004887959039861,False,1.0640109951540422,True,0.2869484490381406,False,前期平均,27456731.815000013,未知,27456731.815000013
18,603758,-75351484.34,-75351484.34,2019-09-30,三季度报告,-83001774.16,2019,9,-7.143975039852114,False,1.1027286401854366,True,0.3166091027453912,False,前期平均,-27135568.51499997,未知,-27135568.51499997
19,603758,117972223.19,117972223.19,2019-12-31,年度报告,-114700548.49999996,2019,12,-2.507964906900973,False,1.313852737504142,True,0.0,True,前期平均,117972223.19,未知,117972223.19
20,603758,-18800446.5,-18800446.5,2020-03-31,一季度报告,-28451166.58,2020,3,-4.001485843942751,False,2.0150418798207737,False,0.22472745209369882,False,去年同期,-99750855.69999996,未知,-99750855.69999996
