,SECURITYCODE_x,NETPROFIT_x,PARENTNETPROFIT_x,REPORTDATE_x,REPORTTIMETYPE_x,KCFJCXSYJLR,Year,Month,managesituationChangeRate,managesituationGreatChange,historyprofitextroplaterate,ifhistoryprofitextroplate,IfprofitdisStableChangeRage,IfprofitdisStable,predicttype,predict,analyst_prediction,adj_prediction
0,603755,22420242.419999994,22883731.73,2014-12-31,年度报告,22753231.73,2014,12,未知,未知,未知,未知,未知,未知,未知,未知,未知,未知
1,603755,25709586.1,26075549.14,2015-12-31,年度报告,25982621.9,2015,12,0.0,True,未知,未知,未知,未知,未知,未知,未知,未知
2,603755,32587895.370000005,32599434.980000004,2016-12-31,年度报告,31888255.24,2016,12,-0.12794230397975978,True,未知,未知,未知,未知,未知,未知,未知,未知
3,603755,56038146.85,56038146.85,2017-12-31,年度报告,55536047.83000001,2017,12,-0.31200704539392315,True,0.35416627783987825,True,0.0,True,比例外推,56038146.85,未知,56038146.85
4,603755,45053459.11,45053459.11,2018-09-30,三季度报告,44667123.6,2018,9,未知,未知,未知,未知,未知,未知,未知,未知,未知,未知
5,603755,69807132.64999999,69807132.64999999,2018-12-31,年度报告,67366170.88,2018,12,-0.5999110662953696,True,0.9224894605039615,True,0.0,True,比例外推,69807132.64999999,未知,69807132.64999999
6,603755,14622569.760000002,14622569.760000002,2019-03-31,一季度报告,14607943.52,2019,3,未知,未知,未知,未知,未知,未知,未知,未知,未知,未知
7,603755,35824067.43000001,35824067.43000001,2019-06-30,半年度报告,35207320.95,2019,6,未知,未知,未知,未知,未知,未知,未知,未知,未知,未知
8,603755,55598480.89999999,55598480.89999999,2019-09-30,三季度报告,54755715.5,2019,9,-0.5023635728999191,True,未知,未知,未知,未知,未知,未知,88000000.0,未知
9,603755,85272803.47,85272803.47,2019-12-31,年度报告,82003412.08999999,2019,12,-0.6788259083436226,True,0.5753187415661625,True,0.0,True,比例外推,85272803.47,89333333.0,85272803.47
10,603755,14741409.74,14741409.74,2020-03-31,一季度报告,14537703.980000002,2020,3,0.5332628113924616,False,未知,未知,未知,未知,未知,未知,102840000.0,未知
