,SECURITYCODE_x,NETPROFIT_x,PARENTNETPROFIT_x,REPORTDATE_x,REPORTTIMETYPE_x,KCFJCXSYJLR,Year,Month,managesituationChangeRate,managesituationGreatChange,historyprofitextroplaterate,ifhistoryprofitextroplate,IfprofitdisStableChangeRage,IfprofitdisStable,predicttype,predict,analyst_prediction,adj_prediction
0,603789,124442927.58,124442927.58,2014-09-30,三季度报告,111941388.16,2014,9,未知,未知,未知,未知,未知,未知,未知,未知,未知,未知
1,603789,126104453.78,126104453.78,2014-12-31,年度报告,106653229.02,2014,12,未知,未知,未知,未知,未知,未知,未知,未知,未知,未知
2,603789,24437325.74,24437325.74,2015-03-31,一季度报告,20679506.529999994,2015,3,未知,未知,未知,未知,未知,未知,未知,未知,135645714.0,未知
3,603789,58397694.86000001,58397694.86000001,2015-06-30,半年度报告,47764406.03,2015,6,未知,未知,未知,未知,未知,未知,未知,未知,90000000.0,未知
4,603789,95378129.75000004,95378129.75000004,2015-09-30,三季度报告,76851472.49999999,2015,9,0.0,True,未知,未知,未知,未知,未知,未知,129500000.0,未知
5,603789,79432579.72999999,79432579.72999999,2015-12-31,年度报告,55723538.99999999,2015,12,-0.013175793163488717,True,未知,未知,未知,未知,未知,未知,未知,未知
6,603789,18897901.86,18897901.86,2016-03-31,一季度报告,11403797.74,2016,3,4.092330024324503,False,未知,未知,未知,未知,未知,未知,,未知
7,603789,43673991.35,36464553.00000001,2016-06-30,半年度报告,24704916.35,2016,6,1.1309561597993525,False,未知,未知,未知,未知,未知,未知,未知,未知
8,603789,63542611.38,52500751.01,2016-09-30,三季度报告,36287584.99000001,2016,9,0.30473231029149994,True,未知,未知,未知,未知,未知,未知,80000000.0,未知
9,603789,44887072.59,33206900.20000001,2016-12-31,年度报告,16902807.99,2016,12,0.5666484458013965,False,未知,未知,未知,未知,未知,未知,114000000.0,未知
10,603789,14966333.88,14470527.910000002,2017-03-31,一季度报告,12954420.689999998,2017,3,5.585012902591082,False,未知,未知,未知,未知,未知,未知,60000000.0,未知
11,603789,41125864.62000001,39215546.96,2017-06-30,半年度报告,35077519.68,2017,6,1.8493600821304368,False,未知,未知,未知,未知,未知,未知,54780000.0,未知
12,603789,56397132.03999998,50235565.89999999,2017-09-30,三季度报告,42971187.37,2017,9,0.9584169563916968,False,0.42186965933287746,True,0.6216454208723861,False,前期平均,37027519.58,,37027519.58
13,603789,37344774.72,25294751.48,2017-12-31,年度报告,15062987.9,2017,12,1.7723556115290875,False,0.5632215584369021,True,0.0,True,前期平均,25294751.48,45150000.0,45150000.0
14,603789,-15194326.910000002,-14208038.12,2018-03-31,一季度报告,-15975295.240000002,2018,3,7.314857103802631,False,0.30927632280394424,True,0.26415583787018226,False,盈利变化,-13278203.09333333,,-13278203.09333333
15,603789,-11831752.81,-12610038.9,2018-06-30,半年度报告,-15126539.499999998,2018,6,2.025904226691489,False,0.19417683498656862,True,0.7795636998614766,False,盈利变化,-8174621.306666665,未知,-8174621.306666665
16,603789,11134875.000000002,4910205.85,2018-09-30,三季度报告,1037815.22,2018,9,1.206547089872197,False,0.2902483132284653,True,0.7470971620738622,False,前期平均,-15346149.4,未知,-15346149.4
17,603789,-43166898.35,-58548912.72,2018-12-31,年度报告,-62840011.20000001,2018,12,2.3322714760776044,False,0.39921365571592515,True,0.0,True,盈利变化,-672914.8866666704,未知,-672914.8866666704
18,603789,4816077.6,4104541.82,2019-03-31,一季度报告,3048749.1900000013,2019,3,-9.190091493825836,False,1.897367182691364,True,0.3420806927780158,False,前期平均,7908330.550000001,未知,7908330.550000001
19,603789,4925572.66,5600997.55,2019-06-30,半年度报告,2655320.33,2019,6,-11.517708540599571,False,1.279051247780085,True,1.102959626926736,False,前期平均,-8307322.520000002,未知,-8307322.520000002
20,603789,16718024.389999995,15721664.180000005,2019-09-30,三季度报告,12823197.1,2019,9,10.175960895834033,False,0.8143255157548843,True,1.6775448587929707,False,前期平均,-7924824.055000002,未知,-7924824.055000002
21,603789,14186601.230000002,12086453.16,2019-12-31,年度报告,-7909730.119999999,2019,12,-3.882832270482088,False,2.0498827342955868,False,0.0,True,前期平均,12086453.16,未知,12086453.16
22,603789,-15445636.199999996,-14538403.13,2020-03-31,一季度报告,-15656162.890000002,2020,3,24.839061974416694,False,-43.24758625296549,True,0.6283747167090254,False,盈利变化,-12853429.61333334,未知,-12853429.61333334
