,SECURITYCODE_x,NETPROFIT_x,PARENTNETPROFIT_x,REPORTDATE_x,REPORTTIMETYPE_x,KCFJCXSYJLR,Year,Month,managesituationChangeRate,managesituationGreatChange,historyprofitextroplaterate,ifhistoryprofitextroplate,IfprofitdisStableChangeRage,IfprofitdisStable,predicttype,predict,analyst_prediction,adj_prediction
0,603725,28282887.6,28282887.6,2012-12-31,年度报告,22110587.599999994,2012,12,未知,未知,未知,未知,未知,未知,未知,未知,未知,未知
1,603725,30830606.23,30830611.910000004,2013-12-31,年度报告,22449411.91,2013,12,0.0,True,未知,未知,未知,未知,未知,未知,未知,未知
2,603725,21409074.34,21409787.3,2014-12-31,年度报告,12521287.300000004,2014,12,-0.08263602119899019,True,未知,未知,未知,未知,未知,未知,未知,未知
3,603725,23861098.03,23861098.03,2015-06-30,半年度报告,19529898.03,2015,6,未知,未知,未知,未知,未知,未知,未知,未知,未知,未知
4,603725,52833194.28999999,52833194.28999999,2015-12-31,年度报告,45895165.78999999,2015,12,0.3210700822854914,True,0.2756620205339671,True,0.0,True,比例外推,52833194.28999999,未知,52833194.28999999
5,603725,39305448.31,39305448.31,2016-09-30,三季度报告,31300256.87,2016,9,未知,未知,未知,未知,未知,未知,未知,未知,未知,未知
6,603725,71883314.03,71883314.03,2016-12-31,年度报告,61517346.13,2016,12,-0.4646757974776996,True,1.0227227162771295,True,0.0,True,比例外推,71883314.03,未知,71883314.03
7,603725,7054409.09,7054409.09,2017-03-31,一季度报告,5795177.539999999,2017,3,未知,未知,未知,未知,未知,未知,未知,未知,未知,未知
8,603725,26022062.69,26022062.69,2017-06-30,半年度报告,23569993.69,2017,6,未知,未知,未知,未知,未知,未知,未知,未知,未知,未知
9,603725,34025208.15000001,34025208.15000001,2017-09-30,三季度报告,29655437.779999994,2017,9,-0.2804334051367547,True,未知,未知,未知,未知,未知,未知,未知,未知
10,603725,55313538.7,55313538.7,2017-12-31,年度报告,47848173.46000001,2017,12,-0.606544467493578,True,0.936452518396056,True,0.0,True,比例外推,55313538.7,未知,55313538.7
11,603725,15356026.79,15356026.79,2018-03-31,一季度报告,11903384.84,2018,3,3.0092497102404367,False,未知,未知,未知,未知,未知,未知,未知,未知
12,603725,30783834.5,30783834.5,2018-06-30,半年度报告,24571071.56,2018,6,0.08688107998712995,True,未知,未知,未知,未知,未知,未知,未知,未知
13,603725,41772345.53999999,42080417.85,2018-09-30,三季度报告,31199286.51000001,2018,9,-0.16876665455461762,True,未知,未知,未知,未知,未知,未知,未知,未知
14,603725,48296392.43000001,48995985.84000001,2018-12-31,年度报告,33737829.52,2018,12,-0.4886805605876017,True,0.11297165956449852,True,0.0,True,比例外推,48995985.84000001,未知,48995985.84000001
15,603725,343139.4,848856.4199999998,2019-03-31,一季度报告,-1771951.77,2019,3,0.8418102538358494,False,未知,未知,未知,未知,未知,未知,未知,未知
16,603725,976373.22,2002703.99,2019-06-30,半年度报告,-5358159.31,2019,6,-0.08124221496837888,True,未知,未知,未知,未知,未知,未知,未知,未知
17,603725,3525156.69,5110535.56,2019-09-30,三季度报告,-6759907.59,2019,9,-0.3229279506721229,True,0.13928737465443894,True,0.24030925793783264,False,平均增速,5776626.465352819,未知,5776626.465352819
18,603725,5309082.16,6499062.079999999,2019-12-31,年度报告,-6918811.59,2019,12,-0.4143892291542738,True,0.24060397103506218,True,0.0,True,比例外推,6499062.079999999,未知,6499062.079999999
19,603725,-3448180.21,-3064526.8400000012,2020-03-31,一季度报告,-7583461.630000001,2020,3,81.423900024305,False,0.9693768205279548,True,0.12223152244628353,False,盈利变化,-1249617.7333333362,未知,-1249617.7333333362
