,SECURITYCODE_x,NETPROFIT_x,PARENTNETPROFIT_x,REPORTDATE_x,REPORTTIMETYPE_x,KCFJCXSYJLR,Year,Month,managesituationChangeRate,managesituationGreatChange,historyprofitextroplaterate,ifhistoryprofitextroplate,IfprofitdisStableChangeRage,IfprofitdisStable,predicttype,predict,analyst_prediction,adj_prediction
0,603711,170180918.84,170180918.84,2012-12-31,年度报告,168322071.57,2012,12,未知,未知,未知,未知,未知,未知,未知,未知,未知,未知
1,603711,184158884.94000003,184158884.94000003,2013-12-31,年度报告,195177485.18000004,2013,12,0.0,True,未知,未知,未知,未知,未知,未知,未知,未知
2,603711,185271118.22,185271118.22,2014-12-31,年度报告,169191692.6,2014,12,-0.0759016655892227,True,未知,未知,未知,未知,未知,未知,未知,未知
3,603711,71058785.64,71058785.64,2015-06-30,半年度报告,59163050.11000002,2015,6,未知,未知,未知,未知,未知,未知,未知,未知,未知,未知
4,603711,203421612.99,203947571.09,2015-12-31,年度报告,179752878.6,2015,12,-0.08144928105891364,True,0.045725691799670405,True,0.0,True,比例外推,203947571.09,未知,203947571.09
5,603711,266102092.72000003,266102092.72000003,2016-12-31,年度报告,246735265.88000008,2016,12,-0.16340787815714589,True,0.10127283247158553,True,0.0,True,比例外推,266102092.72000003,未知,266102092.72000003
6,603711,20957649.17,20957649.17,2017-03-31,一季度报告,5529727.2,2017,3,未知,未知,未知,未知,未知,未知,未知,未知,未知,未知
7,603711,-30508051.18,-30508051.18,2017-06-30,半年度报告,-45888661.97000001,2017,6,未知,未知,未知,未知,未知,未知,未知,未知,未知,未知
8,603711,267766144.24,267766144.24,2017-12-31,年度报告,242077153.26000008,2017,12,-0.3604675667881009,True,0.36921568814330286,True,0.0,True,比例外推,267766144.24,247801260.0,267766144.24
9,603711,28300828.96,28300828.96,2018-03-31,一季度报告,16785210.060000002,2018,3,7.1202293949841895,False,未知,未知,未知,未知,未知,未知,280000000.0,未知
10,603711,-54586037.67,-54586037.67,2018-06-30,半年度报告,-68578208.79,2018,6,-6.578229754366107,False,未知,未知,未知,未知,未知,未知,303890000.0,未知
11,603711,84004593.17,84004593.17,2018-09-30,三季度报告,60808230.57999999,2018,9,未知,未知,未知,未知,未知,未知,未知,未知,307354000.0,未知
12,603711,314699479.72999984,314699479.72999984,2018-12-31,年度报告,281707121.19000006,2018,12,-0.3644419860358968,True,0.140586262135974,True,0.0,True,比例外推,314699479.72999984,304670000.0,314699479.72999984
13,603711,51964138.16,51964138.16,2019-03-31,一季度报告,49656788.47000001,2019,3,5.0132838893352325,False,未知,未知,未知,未知,未知,未知,377822308.0,未知
14,603711,23529618.08,23529618.08,2019-06-30,半年度报告,22775.070000000003,2019,6,-4.117663895460393,False,未知,未知,未知,未知,未知,未知,393048000.0,未知
15,603711,132229848.01,132229848.01,2019-09-30,三季度报告,103131619.79,2019,9,1.0258525447008007,False,未知,未知,未知,未知,未知,未知,382963000.0,未知
16,603711,347408830.42,347408830.42,2019-12-31,年度报告,306500511.63000005,2019,12,-0.459227199911456,True,0.17894063719538583,True,0.0,True,比例外推,347408830.42,382163000.0,347408830.42
17,603711,-85568691.7,-85568691.7,2020-03-31,一季度报告,-88948359.09,2020,3,2.2749685622804914,False,1.1098556079162405,True,0.0805324820755954,True,盈利变化,162601967.0066667,389056250.0,389056250.0
