,SECURITYCODE_x,NETPROFIT_x,PARENTNETPROFIT_x,REPORTDATE_x,REPORTTIMETYPE_x,KCFJCXSYJLR,Year,Month,managesituationChangeRate,managesituationGreatChange,historyprofitextroplaterate,ifhistoryprofitextroplate,IfprofitdisStableChangeRage,IfprofitdisStable,predicttype,predict,analyst_prediction,adj_prediction
0,603778,23814851.62,23814851.62,2014-09-30,三季度报告,20712568.93,2014,9,未知,未知,未知,未知,未知,未知,未知,未知,未知,未知
1,603778,81292385.8,81292385.8,2014-12-31,年度报告,77426310.85,2014,12,未知,未知,未知,未知,未知,未知,未知,未知,未知,未知
2,603778,5450263.380000001,5450263.380000001,2015-03-31,一季度报告,5450463.380000001,2015,3,未知,未知,未知,未知,未知,未知,未知,未知,未知,未知
3,603778,28036995.96,28036995.96,2015-06-30,半年度报告,26726655.04000001,2015,6,未知,未知,未知,未知,未知,未知,未知,未知,91030000.0,未知
4,603778,34260512.29,34260512.29,2015-09-30,三季度报告,32950851.38,2015,9,0.0,True,未知,未知,未知,未知,未知,未知,,未知
5,603778,93325073.09,93325073.09,2015-12-31,年度报告,88859021.49,2015,12,-0.7070469591261522,True,未知,未知,未知,未知,未知,未知,95000000.0,未知
6,603778,12444629.710000005,12444629.710000005,2016-03-31,一季度报告,11971939.42,2016,3,3.369486382509463,False,未知,未知,未知,未知,未知,未知,114800000.0,未知
7,603778,25366878.07,25366878.07,2016-06-30,半年度报告,24034717.50000001,2016,6,-0.15059189458184735,True,未知,未知,未知,未知,未知,未知,,未知
8,603778,49853198.16,49857918.0,2016-09-30,三季度报告,47647030.49999999,2016,9,-0.3048892141945259,True,未知,未知,未知,未知,未知,未知,未知,未知
9,603778,80052345.60000001,80178830.11,2016-12-31,年度报告,77163835.7,2016,12,-0.7448182912534808,True,未知,未知,未知,未知,未知,未知,未知,未知
10,603778,6938508.8199999975,7017488.6000000015,2017-03-31,一季度报告,6329656.880000001,2017,3,0.913664944234005,False,未知,未知,未知,未知,未知,未知,167200000.0,未知
11,603778,21396829.78,21623470.460000005,2017-06-30,半年度报告,20962776.07,2017,6,-0.061183187214334224,True,未知,未知,未知,未知,未知,未知,,未知
12,603778,32914721.98000001,33420141.82,2017-09-30,三季度报告,32715860.59,2017,9,-0.5223004240657125,True,0.7168449684536811,True,0.19887418451362798,False,平均增速,58430493.45971078,未知,58430493.45971078
13,603778,87405383.02,89658831.97999999,2017-12-31,年度报告,86272570.64999999,2017,12,-0.702509009055195,True,0.08311177921299533,True,0.0,True,比例外推,89658831.97999999,未知,89658831.97999999
14,603778,1922985.7800000003,2608660.89,2018-03-31,一季度报告,2365684.16,2018,3,2.432272299107636,False,0.22452637351855828,True,0.05853092691858068,True,前期平均,76908888.085,未知,76908888.085
15,603778,10929206.26,11964405.97,2018-06-30,半年度报告,11716288.34,2018,6,0.11300841595983382,True,0.19867874124711696,True,0.04209539821637323,True,比例外推,41346582.42157681,未知,41346582.42157681
16,603778,16853896.49,19366140.66,2018-09-30,三季度报告,19125340.32,2018,9,-0.27646809125501254,True,0.21737557875144203,True,0.1616402590588904,False,平均增速,61617129.95684406,未知,61617129.95684406
17,603778,-21950025.200000007,-6248829.810000001,2018-12-31,年度报告,-20540969.88,2018,12,-0.7275356414312524,True,0.008267208964293261,True,0.0,True,比例外推,-6248829.810000001,未知,-6248829.810000001
18,603778,2227571.94,3592674.78,2019-03-31,一季度报告,3593019.01,2019,3,11.384309789331878,False,0.8015815883455898,True,0.15295195287122504,False,前期平均,76160079.805,未知,76160079.805
19,603778,13831782.609999996,12662490.79,2019-06-30,半年度报告,12636994.369999995,2019,6,1.1790101726929987,False,0.5325774297001131,True,0.5650773978208683,False,前期平均,71881947.17999999,100030000.0,100030000.0
20,603778,20057834.75,13691760.04,2019-09-30,三季度报告,13557809.21,2019,9,0.4130175555623104,True,0.5927432642624818,True,0.9529530424049089,False,平均增速,-9093908.377704047,,-9093908.377704047
21,603778,23357531.230000004,16775024.169999998,2019-12-31,年度报告,6275009.41,2019,12,-2.0849578259254113,False,1.2621560125159663,True,0.0,True,前期平均,16775024.169999998,未知,16775024.169999998
22,603778,-13788721.16,-13498764.6,2020-03-31,一季度报告,-13552062.38,2020,3,9.690946133932716,False,0.49724690008838907,True,0.3956615187974597,False,盈利变化,-6085084.3500000015,未知,-6085084.3500000015
