,SECURITYCODE_x,NETPROFIT_x,PARENTNETPROFIT_x,REPORTDATE_x,REPORTTIMETYPE_x,KCFJCXSYJLR,Year,Month,managesituationChangeRate,managesituationGreatChange,historyprofitextroplaterate,ifhistoryprofitextroplate,IfprofitdisStableChangeRage,IfprofitdisStable,predicttype,predict,analyst_prediction,adj_prediction
0,603719,47652328.07,45358237.75,2015-12-31,年度报告,32320337.750000004,2015,12,未知,未知,未知,未知,未知,未知,未知,未知,未知,未知
1,603719,105123782.26,98955531.71,2016-12-31,年度报告,67298600.0,2016,12,0.0,True,未知,未知,未知,未知,未知,未知,未知,未知
2,603719,43004548.28,38433616.97000001,2017-12-31,年度报告,112760802.96,2017,12,-0.5467026866276301,True,未知,未知,未知,未知,未知,未知,未知,未知
3,603719,113403545.88000004,112077271.74,2018-06-30,半年度报告,95317071.74,2018,6,未知,未知,未知,未知,未知,未知,未知,未知,未知,未知
4,603719,175224049.26000002,171059586.6,2018-09-30,三季度报告,149424799.07999998,2018,9,未知,未知,未知,未知,未知,未知,未知,未知,未知,未知
5,603719,247981406.82,238539857.47,2018-12-31,年度报告,207564323.35999995,2018,12,0.10807647041746811,True,0.4370252235495568,True,0.0,True,比例外推,238539857.47,未知,238539857.47
6,603719,109982390.5,109198670.48000002,2019-03-31,一季度报告,76237185.22000001,2019,3,未知,未知,未知,未知,未知,未知,未知,未知,未知,未知
7,603719,196103769.64,195199585.17999995,2019-06-30,半年度报告,156324637.67000002,2019,6,-0.5797986059410862,True,未知,未知,未知,未知,未知,未知,未知,未知
8,603719,317942634.68999994,314419672.85,2019-09-30,三季度报告,268210502.0,2019,9,-0.7280491560876283,True,未知,未知,未知,未知,未知,未知,未知,未知
9,603719,349127331.06,340354071.36999995,2019-12-31,年度报告,273526560.91,2019,12,-0.8078391090643785,True,2.3481968765324877,False,0.0,True,比例外推,340354071.36999995,未知,340354071.36999995
10,603719,91346141.5,87979426.0,2020-03-31,一季度报告,73081277.25,2020,3,-0.5667276565515277,True,未知,未知,未知,未知,未知,未知,400736316.0,未知
