,SECURITYCODE_x,NETPROFIT_x,PARENTNETPROFIT_x,REPORTDATE_x,REPORTTIMETYPE_x,KCFJCXSYJLR,Year,Month,managesituationChangeRate,managesituationGreatChange,historyprofitextroplaterate,ifhistoryprofitextroplate,IfprofitdisStableChangeRage,IfprofitdisStable,predicttype,predict,analyst_prediction,adj_prediction
0,603703,40043908.11000001,40046894.0,2012-12-31,年度报告,37300394.0,2012,12,未知,未知,未知,未知,未知,未知,未知,未知,未知,未知
1,603703,17065996.15,17068221.22,2014-06-30,半年度报告,15901427.63,2014,6,未知,未知,未知,未知,未知,未知,未知,未知,未知,未知
2,603703,36799715.16,36665272.47000001,2014-09-30,三季度报告,27385367.89,2014,9,未知,未知,未知,未知,未知,未知,未知,未知,未知,未知
3,603703,55001608.55,55005357.49,2014-12-31,年度报告,45270067.71,2014,12,未知,未知,未知,未知,未知,未知,未知,未知,未知,未知
4,603703,4048980.94,4048989.65,2015-03-31,一季度报告,4026863.49,2015,3,未知,未知,未知,未知,未知,未知,未知,未知,61912500.0,未知
5,603703,11365673.55,11367829.929999998,2015-06-30,半年度报告,10849238.99,2015,6,1.346414926971609,False,未知,未知,未知,未知,未知,未知,,未知
6,603703,26538177.1,26360081.42000001,2015-09-30,三季度报告,25486442.09,2015,9,0.0881580994824203,True,未知,未知,未知,未知,未知,未知,未知,未知
7,603703,35011048.94,35013253.18000001,2015-12-31,年度报告,32475323.29,2015,12,-0.27195023626268094,True,未知,未知,未知,未知,未知,未知,未知,未知
8,603703,5378907.23,5378991.4,2016-03-31,一季度报告,5271650.0,2016,3,8.889873205972664,False,未知,未知,未知,未知,未知,未知,未知,未知
9,603703,11674572.830000002,11816794.36,2016-06-30,半年度报告,11589999.95,2016,6,2.5232322953706516,False,未知,未知,未知,未知,未知,未知,未知,未知
10,603703,15545486.080000002,15647663.809999995,2016-09-30,三季度报告,18712965.34,2016,9,0.5089170578336372,False,未知,未知,未知,未知,未知,未知,48000000.0,未知
11,603703,20915678.49,21823411.46,2016-12-31,年度报告,24262114.35,2016,12,0.143750596522402,True,未知,未知,未知,未知,未知,未知,未知,未知
12,603703,18707928.150000006,18049129.3,2017-03-31,一季度报告,9959212.329999996,2017,3,6.444617725820121,False,未知,未知,未知,未知,未知,未知,未知,未知
13,603703,21303179.57,21324123.02,2017-06-30,半年度报告,13820547.059999995,2017,6,2.430010561679797,False,0.17876277030609974,True,0.09002187327280875,True,前期平均,46821485.20999999,未知,46821485.20999999
14,603703,26480556.95000001,26726046.26,2017-09-30,三季度报告,16978131.590000004,2017,9,1.5759186881597982,False,0.5091252479262719,True,0.11540367581844402,False,前期平均,39162836.769999996,未知,39162836.769999996
15,603703,24522473.660000004,24217224.25,2017-12-31,年度报告,13526342.510000002,2017,12,0.9145402397127788,False,0.535272503373792,True,0.0,True,前期平均,24217224.25,,24217224.25
16,603703,-4775425.17,-5105360.899999999,2018-03-31,一季度报告,-5871670.92,2018,3,1.1404779721692482,False,2.9686359898772547,False,0.3770962416687042,False,前期平均盈利变化,2783217.9250000035,未知,2783217.9250000035
17,603703,-4813273.789999999,-4275538.82,2018-06-30,半年度报告,-6906675.94,2018,6,0.8797150903422633,False,0.8492145629564225,True,0.41057502560399517,False,盈利变化,10399075.583333336,未知,10399075.583333336
18,603703,-6531445.98,-6262173.599999999,2018-09-30,三季度报告,-11483758.889999995,2018,9,0.5122003734895006,False,0.2584720506262737,True,0.3181009287954496,False,盈利变化,11567495.147777779,未知,11567495.147777779
19,603703,-87051162.72000001,-89909433.71000001,2018-12-31,年度报告,-95025945.47,2018,12,0.6329473390491553,False,0.12304993383733173,True,0.0,True,盈利变化,-11966871.743333332,未知,-11966871.743333332
20,603703,4768049.990000001,1378018.26,2019-03-31,一季度报告,-5640391.889999999,2019,3,-9.385412122372344,False,1.396517441553586,True,0.3978320598566841,False,前期平均,12656815.525000004,未知,12656815.525000004
21,603703,11701734.83,2039031.0,2019-06-30,半年度报告,-5918636.94,2019,6,-9.319474407043863,False,1.2919103601493473,True,0.4977064906066455,False,前期平均,8227985.9250000045,未知,8227985.9250000045
22,603703,18375216.71,3210013.2099999995,2019-09-30,三季度报告,-4984869.98,2019,9,-7.130940718581891,False,1.310828501048151,True,0.5949253880246168,False,前期平均,4258693.174999999,未知,4258693.174999999
23,603703,21144799.8,3866614.82,2019-12-31,年度报告,-23113267.28,2019,12,-1.4600042878094712,False,4.8316330484843455,False,0.0,True,前期平均,3866614.82,未知,3866614.82
24,603703,2850707.83,1054610.81,2020-03-31,一季度报告,369194.32,2020,3,7.398382607981003,False,0.3155501209158903,True,0.3889142044046168,False,前期平均,-41738961.37499999,31000000.0,31000000.0
