,SECURITYCODE_x,NETPROFIT_x,PARENTNETPROFIT_x,REPORTDATE_x,REPORTTIMETYPE_x,KCFJCXSYJLR,Year,Month,managesituationChangeRate,managesituationGreatChange,historyprofitextroplaterate,ifhistoryprofitextroplate,IfprofitdisStableChangeRage,IfprofitdisStable,predicttype,predict,analyst_prediction,adj_prediction
0,603777,135756436.4,135756436.4,2014-12-31,年度报告,129441495.15000002,2014,12,未知,未知,未知,未知,未知,未知,未知,未知,未知,未知
1,603777,82178031.98,82178031.98,2015-09-30,三季度报告,74463700.0,2015,9,未知,未知,未知,未知,未知,未知,未知,未知,未知,未知
2,603777,131588503.42,131588503.42,2015-12-31,年度报告,121832503.42,2015,12,0.0,True,未知,未知,未知,未知,未知,未知,未知,未知
3,603777,53355428.28,53355428.28,2016-03-31,一季度报告,51613225.55,2016,3,未知,未知,未知,未知,未知,未知,未知,未知,未知,未知
4,603777,69245972.92999999,69245972.92999999,2016-06-30,半年度报告,65751146.15999999,2016,6,未知,未知,未知,未知,未知,未知,未知,未知,未知,未知
5,603777,80169563.21999998,80169563.21999998,2016-09-30,三季度报告,74768246.06,2016,9,0.6519796486856682,False,未知,未知,未知,未知,未知,未知,145466667.0,未知
6,603777,134114737.79999997,134114737.79999997,2016-12-31,年度报告,120447383.83000004,2016,12,0.0316739902930344,True,未知,未知,未知,未知,未知,未知,141675000.0,未知
7,603777,74660917.88000001,74660917.88000001,2017-03-31,一季度报告,70567203.28000002,2017,3,1.5443790964918107,False,未知,未知,未知,未知,未知,未知,167720000.0,未知
8,603777,86606922.48000002,86606922.48000002,2017-06-30,半年度报告,76604357.27,2017,6,0.9604957610637477,False,未知,未知,未知,未知,未知,未知,157486667.0,未知
9,603777,100160635.3,100160635.3,2017-09-30,三季度报告,92083799.44,2017,9,0.6933662969755673,False,未知,未知,未知,未知,未知,未知,167092500.0,未知
10,603777,101369902.3,101369902.3,2017-12-31,年度报告,85717824.64999999,2017,12,0.012241000705293398,True,0.003308593686476686,True,0.0,True,比例外推,101369902.3,168123332.99999997,168123332.99999997
11,603777,42323678.53,42323678.53,2018-03-31,一季度报告,31481064.36,2018,3,0.8183065552207217,False,未知,未知,未知,未知,未知,未知,,未知
12,603777,37013699.42,37013699.42,2018-06-30,半年度报告,441417.63,2018,6,0.5675009862098495,False,未知,未知,未知,未知,未知,未知,95000000.0,未知
13,603777,13407769.409999998,13407769.409999998,2018-09-30,三季度报告,-33325873.22,2018,9,0.3553871338114407,True,0.23390352874164413,True,0.30552717810679997,False,平均增速,11853712.843550462,,11853712.843550462
14,603777,10108986.87,10108986.87,2018-12-31,年度报告,-46525063.43999999,2018,12,0.33921838060210907,True,0.23696901976392076,True,0.0,True,比例外推,10108986.87,180000000.0,180000000.0
15,603777,64836992.91000001,64836992.91000001,2019-03-31,一季度报告,57895429.63999999,2019,3,2.2075764941786122,False,0.3387769640432925,True,0.868352510119618,False,前期平均,106829382.73500001,145000000.0,145000000.0
16,603777,44474827.95,44474827.95,2019-06-30,半年度报告,29418639.12,2019,6,2.6677348799846063,False,0.5250174939306892,True,0.4861823693909735,False,前期平均,76379680.47500002,105000000.0,105000000.0
17,603777,15067233.989999998,15067233.989999998,2019-09-30,三季度报告,-8249623.549999999,2019,9,9.125206680445142,False,0.8512975694582516,True,0.27049316553812497,False,前期平均,34723815.48000002,96000000.0,96000000.0
18,603777,10370689.02,10370689.02,2019-12-31,年度报告,-32959823.23,2019,12,12.429282097781577,False,0.9141431316649175,True,0.0,True,前期平均,10370689.02,96000000.0,96000000.0
19,603777,73225035.64999999,73225035.64999999,2020-03-31,一季度报告,65431572.41,2020,3,1.0938114231861895,False,0.10847060039876587,True,1.3598976784343817,False,前期平均,41797282.43499999,122895000.0,122895000.0
