,SECURITYCODE_x,NETPROFIT_x,PARENTNETPROFIT_x,REPORTDATE_x,REPORTTIMETYPE_x,KCFJCXSYJLR,Year,Month,managesituationChangeRate,managesituationGreatChange,historyprofitextroplaterate,ifhistoryprofitextroplate,IfprofitdisStableChangeRage,IfprofitdisStable,predicttype,predict,analyst_prediction,adj_prediction
0,603790,87634696.76,86023405.88999999,2014-12-31,年度报告,80543105.88999999,2014,12,未知,未知,未知,未知,未知,未知,未知,未知,未知,未知
1,603790,72295374.12,72135049.25,2015-12-31,年度报告,68478649.25,2015,12,0.0,True,未知,未知,未知,未知,未知,未知,未知,未知
2,603790,95818476.91000004,94488134.8,2016-12-31,年度报告,89123553.96,2016,12,0.21217571423780052,True,未知,未知,未知,未知,未知,未知,未知,未知
3,603790,96640397.21,95306433.02,2017-09-30,三季度报告,84715008.18,2017,9,未知,未知,未知,未知,未知,未知,未知,未知,未知,未知
4,603790,115271767.52,113848168.28999998,2017-12-31,年度报告,102108161.43,2017,12,-0.08540920722092943,True,0.19825466696498026,True,0.0,True,比例外推,113848168.28999998,未知,113848168.28999998
5,603790,29619380.09,28980020.93,2018-03-31,一季度报告,22867676.559999995,2018,3,未知,未知,未知,未知,未知,未知,未知,未知,未知,未知
6,603790,78038118.41,77234097.69999999,2018-06-30,半年度报告,70055652.08999999,2018,6,未知,未知,未知,未知,未知,未知,未知,未知,未知,未知
7,603790,110185822.28,108090130.85,2018-09-30,三季度报告,102016927.53,2018,9,-0.0931877424968625,True,未知,未知,未知,未知,未知,未知,未知,未知
8,603790,131696337.34,129186765.72999996,2018-12-31,年度报告,119142169.75,2018,12,-0.2397557646125698,True,0.3713536013095039,True,0.0,True,比例外推,129186765.72999996,未知,129186765.72999996
9,603790,43439533.03,42836023.67,2019-03-31,一季度报告,33876176.809999995,2019,3,1.9586944930554757,False,未知,未知,未知,未知,未知,未知,未知,未知
10,603790,84015117.08000001,82492742.91999999,2019-06-30,半年度报告,71593600.39999999,2019,6,0.12297295918362737,True,未知,未知,未知,未知,未知,未知,未知,未知
11,603790,111692112.46,108590068.83,2019-09-30,三季度报告,95559092.83,2019,9,-0.20466449361056577,True,未知,未知,未知,未知,未知,未知,未知,未知
12,603790,119462257.71,117275852.35,2019-12-31,年度报告,102017329.16,2019,12,-0.33456997719113635,True,0.24777284422229215,True,0.0,True,比例外推,117275852.35,未知,117275852.35
13,603790,18034116.01,18795383.23,2020-03-31,一季度报告,14139047.57,2020,3,1.017395000528163,False,未知,未知,未知,未知,未知,未知,未知,未知
