,SECURITYCODE_x,NETPROFIT_x,PARENTNETPROFIT_x,REPORTDATE_x,REPORTTIMETYPE_x,KCFJCXSYJLR,Year,Month,managesituationChangeRate,managesituationGreatChange,historyprofitextroplaterate,ifhistoryprofitextroplate,IfprofitdisStableChangeRage,IfprofitdisStable,predicttype,predict,analyst_prediction,adj_prediction
0,603888,167985862.89,167358388.71,2013-12-31,年度报告,157321274.80999997,2013,12,未知,未知,未知,未知,未知,未知,未知,未知,未知,未知
1,603888,167985862.89,167358388.71,2013-12-31,年度报告,157321288.71,2013,12,未知,未知,未知,未知,未知,未知,未知,未知,未知,未知
2,603888,184087432.74,187930169.21,2014-12-31,年度报告,176830377.33,2014,12,0.0,True,未知,未知,未知,未知,未知,未知,未知,未知
3,603888,184087432.74,187930169.21,2014-12-31,年度报告,176830369.20999995,2014,12,0.0,True,未知,未知,未知,未知,未知,未知,未知,未知
4,603888,150922995.76999998,152208865.56,2015-09-30,三季度报告,146866866.04000002,2015,9,未知,未知,未知,未知,未知,未知,未知,未知,未知,未知
5,603888,261425173.41,262338152.54,2015-12-31,年度报告,254416244.0600001,2015,12,-0.0874669694195879,True,未知,未知,未知,未知,未知,未知,未知,未知
6,603888,19161436.620000005,19161436.620000005,2016-03-31,一季度报告,18057504.8,2016,3,未知,未知,未知,未知,未知,未知,未知,未知,未知,未知
7,603888,102192180.25999998,102192180.25999998,2016-06-30,半年度报告,100302224.34,2016,6,未知,未知,未知,未知,0.0,True,未知,未知,未知,未知
8,603888,160791856.39000005,160791856.39000005,2016-09-30,三季度报告,158065651.98,2016,9,0.11305677463494739,True,未知,未知,未知,未知,未知,未知,297000000.0,未知
9,603888,280136840.4,280136840.4,2016-12-31,年度报告,274057845.33,2016,12,-0.35742277341232426,True,0.4850610748094698,True,未知,未知,未知,未知,未知,未知
10,603888,21261358.97,20942803.0,2017-03-31,一季度报告,18370753.41,2017,3,7.766872036862962,False,未知,未知,未知,未知,未知,未知,未知,未知
11,603888,107037895.89000002,107056605.82000002,2017-06-30,半年度报告,74817149.27000001,2017,6,0.6438230641777681,False,未知,未知,0.0,True,未知,未知,未知,未知
12,603888,172289402.88,170833780.71,2017-09-30,三季度报告,93776667.45,2017,9,0.0447411122771722,True,未知,未知,未知,未知,未知,未知,未知,未知
13,603888,282737927.16,283961280.93,2017-12-31,年度报告,166269682.42000002,2017,12,-0.4003435512082687,True,0.2575933274744665,True,未知,未知,True,True,,True
14,603888,22952406.73,23725682.08,2018-03-31,一季度报告,17248767.849999998,2018,3,6.900993681872819,False,未知,未知,0.008674455813518112,True,未知,未知,未知,未知
15,603888,110133500.28000002,110623240.84999998,2018-06-30,半年度报告,77728263.39999999,2018,6,0.5694055034735975,False,未知,未知,0.0,True,未知,未知,未知,未知
16,603888,173920675.04000002,174432169.73000002,2018-09-30,三季度报告,116356079.19000004,2018,9,-0.024978553051213697,True,0.10542954040294247,True,0.02301211372566528,True,比例外推,261255026.97613966,未知,261255026.97613966
17,603888,282865570.98,285096549.33,2018-12-31,年度报告,200451341.81,2018,12,-0.405860173845946,True,0.04415716003004223,True,0.04873129919639474,True,比例外推,285096549.33,未知,285096549.33
18,603888,36989183.34,37230448.21,2019-03-31,一季度报告,-9850670.15,2019,3,6.318877922742352,False,0.13561699011624437,True,0.009741269073422765,True,前期平均,239180082.98000002,336000000.0,336000000.0
19,603888,115994044.96,116235309.83,2019-06-30,半年度报告,40317639.8,2019,6,0.525293053093908,False,0.052750181107268396,True,0.0,True,前期平均,248839386.9,,248839386.9
20,603888,156567433.89,156808698.76000002,2019-09-30,三季度报告,58863715.67,2019,9,-0.03412367246524939,True,0.04431378349640284,True,0.12001734335599479,False,平均增速,216181237.18746075,257000000.0,257000000.0
21,603888,287646349.31,287887614.18,2019-12-31,年度报告,120486670.18,2019,12,-0.40612828097811376,True,0.00507461795166652,True,未知,未知,True,True,未知,True
22,603888,-58543088.76000001,-58543088.76000001,2020-03-31,一季度报告,-77365142.03,2020,3,3.54148612435951,False,0.6731976005382415,True,未知,未知,盈利变化,197868318.34000003,306000000.0,306000000.0
