,SECURITYCODE_x,NETPROFIT_x,PARENTNETPROFIT_x,REPORTDATE_x,REPORTTIMETYPE_x,KCFJCXSYJLR,Year,Month,managesituationChangeRate,managesituationGreatChange,historyprofitextroplaterate,ifhistoryprofitextroplate,IfprofitdisStableChangeRage,IfprofitdisStable,predicttype,predict,analyst_prediction,adj_prediction
0,603833,385396272.26,385316369.65,2014-12-31,年度报告,369703537.71,2014,12,未知,未知,未知,未知,未知,未知,未知,未知,未知,未知
1,603833,482899026.92,488489996.13000005,2015-12-31,年度报告,455036259.7,2015,12,0.0,True,未知,未知,未知,未知,未知,未知,未知,未知
2,603833,41431499.38,41647680.14000001,2016-03-31,一季度报告,39136830.96999999,2016,3,未知,未知,未知,未知,未知,未知,未知,未知,未知,未知
3,603833,308605095.91,310373077.88,2016-06-30,半年度报告,290622359.74,2016,6,未知,未知,未知,未知,未知,未知,未知,未知,未知,未知
4,603833,709068709.65,714638293.59,2016-09-30,三季度报告,693888657.31,2016,9,未知,未知,未知,未知,未知,未知,未知,未知,未知,未知
5,603833,943407444.9200004,949562129.1,2016-12-31,年度报告,904128822.5799998,2016,12,-0.20191126762438666,True,未知,未知,未知,未知,未知,未知,未知,未知
6,603833,55059189.33,55520958.91000001,2017-03-31,一季度报告,54164069.33999998,2017,3,8.302011224002195,False,未知,未知,未知,未知,未知,未知,1262376667.0,未知
7,603833,413563517.35,414090215.59000015,2017-06-30,半年度报告,376266609.24,2017,6,0.2488331442601808,True,未知,未知,未知,未知,未知,未知,1265518667.0,未知
8,603833,943880973.8499998,944533101.83,2017-09-30,三季度报告,895384537.2199998,2017,9,-0.45647542048466133,True,未知,未知,未知,未知,未知,未知,1272316000.0,未知
9,603833,1299324728.12,1300132043.15,2017-12-31,年度报告,1195237834.16,2017,12,-0.5914848093098513,True,1.1730106009117744,True,0.0,True,比例外推,1300132043.15,1271019333.0,1300132043.15
10,603833,73555801.08,73555801.08,2018-03-31,一季度报告,62556953.13999999,2018,3,5.999672115586523,False,未知,未知,未知,未知,未知,未知,1714405263.0,未知
11,603833,550042127.77,550042127.77,2018-06-30,半年度报告,514128565.99000007,2018,6,-0.06810863122184448,True,未知,未知,未知,未知,未知,未知,1702010909.0,未知
12,603833,1200212872.62,1200212872.62,2018-09-30,三季度报告,1144074996.56,2018,9,-0.5916897543892577,True,未知,未知,未知,未知,未知,未知,1651147368.0000002,未知
13,603833,1571858328.1800005,1571858328.1800005,2018-12-31,年度报告,1497014180.1599994,2018,12,-0.7033872565346833,True,0.8219432552161272,True,0.0,True,比例外推,1571858328.1800005,1649740000.0,1571858328.1800005
14,603833,92046656.33,92046656.33,2019-03-31,一季度报告,75671777.41999999,2019,3,4.239508870834529,False,0.5246196718746582,True,0.001852840576566074,True,前期平均,1095079534.545,1891992593.0,1891992593.0
15,603833,632745065.8400003,632745065.8400003,2019-06-30,半年度报告,594842555.82,2019,6,-0.299333173219864,True,0.5233066562862934,True,0.016876032846715294,True,比例外推,1859444066.7606573,1892062962.9999998,1859444066.7606573
16,603833,1378168038.1799994,1378168038.1799994,2019-09-30,三季度报告,1291029426.56,2019,9,-0.6788934021189919,True,0.4522073897357083,True,0.01115038664888357,True,比例外推,1785242503.058698,1851283504.0,1785242503.058698
17,603833,1839448516.68,1839448516.68,2019-12-31,年度报告,1680764778.5000002,2019,12,-0.7548148803548748,True,0.40173521125294487,True,0.0,True,比例外推,1839448516.68,1851283504.0,1839448516.68
18,603833,-101525779.53999996,-101525779.53999996,2020-03-31,一季度报告,-124879786.82,2020,3,3.1869665626777475,False,0.43135191374773435,True,0.0022543864309420084,True,盈利变化,1572046431.0266666,2038023438.0,2038023438.0
