,SECURITYCODE_x,NETPROFIT_x,PARENTNETPROFIT_x,REPORTDATE_x,REPORTTIMETYPE_x,KCFJCXSYJLR,Year,Month,managesituationChangeRate,managesituationGreatChange,historyprofitextroplaterate,ifhistoryprofitextroplate,IfprofitdisStableChangeRage,IfprofitdisStable,predicttype,predict,analyst_prediction,adj_prediction
0,603886,81536311.6,81550998.84,2014-12-31,年度报告,78483802.66000001,2014,12,未知,未知,未知,未知,未知,未知,未知,未知,未知,未知
1,603886,120627987.87000002,120621446.44,2015-09-30,三季度报告,115688046.44,2015,9,未知,未知,未知,未知,未知,未知,未知,未知,未知,未知
2,603886,114426451.94,114439430.9,2015-12-31,年度报告,106108632.58,2015,12,0.0,True,未知,未知,未知,未知,未知,未知,未知,未知
3,603886,-29154035.57,-29142004.849999994,2016-03-31,一季度报告,-33093327.84,2016,3,未知,未知,未知,未知,未知,未知,未知,未知,未知,未知
4,603886,-30770363.62,-30763714.72,2016-06-30,半年度报告,-36704650.35,2016,6,未知,未知,未知,未知,未知,未知,未知,未知,未知,未知
5,603886,147931900.42000002,147930210.19,2016-09-30,三季度报告,140009570.15,2016,9,-0.32406804556939856,True,未知,未知,未知,未知,未知,未知,未知,未知
6,603886,124947976.55,124950005.19,2016-12-31,年度报告,113594766.11,2016,12,-0.28743476514718896,True,未知,未知,未知,未知,未知,未知,129333333.0,未知
7,603886,-18989406.28,-18969289.190000005,2017-03-31,一季度报告,-24538610.72,2017,3,-3.796741857717367,False,未知,未知,未知,未知,未知,未知,181280000.0,未知
8,603886,3407454.16,3430184.91,2017-06-30,半年度报告,-4260383.470000002,2017,6,-3.649832566392012,False,未知,未知,未知,未知,未知,未知,142020000.0,未知
9,603886,196872959.42,196919981.54,2017-09-30,三季度报告,183890785.21,2017,9,-0.4488253624234757,True,未知,未知,未知,未知,未知,未知,163305000.0,未知
10,603886,203456543.72,203513298.30000004,2017-12-31,年度报告,195986700.38000005,2017,12,-0.34743791895363835,True,0.2752216216270656,True,0.0,True,比例外推,203513298.30000004,164110000.0,164110000.0
11,603886,-27517200.190000005,-27494567.299999993,2018-03-31,一季度报告,-36146875.3,2018,3,-5.293778878483187,False,未知,未知,未知,未知,未知,未知,230000000.0,未知
12,603886,26084778.26,26110401.96,2018-06-30,半年度报告,10376041.159999998,2018,6,22.928806602052717,False,未知,未知,未知,未知,未知,未知,245887500.0,未知
13,603886,257428177.16,257468808.98,2018-09-30,三季度报告,237609775.86,2018,9,-0.5858430134833598,True,0.4661382284119059,True,0.1487502620198159,False,平均增速,273738162.594656,245220000.0,245220000.0
14,603886,253796632.67000005,253818072.43000004,2018-12-31,年度报告,225548952.8100001,2018,12,-0.5992445850637691,True,0.6999020739468794,True,0.0,True,比例外推,253818072.43000004,207855000.0,207855000.0
15,603886,-6830674.6400000015,-6824027.3500000015,2019-03-31,一季度报告,-15339206.29,2019,3,-3.9631034784429486,False,-0.14313389872435986,True,0.09906286421609292,True,前期平均,176782675.175,309247000.0,309247000.0
16,603886,35530357.669999994,35544262.12,2019-06-30,半年度报告,26147672.13,2019,6,2.1258196173755777,False,-2.9065792910751385,True,0.22350126041499757,False,前期平均,210817512.27500004,311925455.0,311925455.0
17,603886,275336284.35,275327562.13,2019-09-30,三季度报告,264915115.26,2019,9,-0.683265785045269,True,0.4931818378630424,True,0.15777188009160725,False,平均增速,259931963.56720483,272888333.0,259931963.56720483
18,603886,247833634.17999995,247768136.84,2019-12-31,年度报告,211493882.35,2019,12,-0.6787336745085272,True,0.545634222460394,True,0.0,True,比例外推,247768136.84,268448000.0,247768136.84
19,603886,-30875803.88,-30870122.25,2020-03-31,一季度报告,-42905141.48,2020,3,-12.936787491315789,False,-0.7062492768890261,True,0.046803823812644224,True,前期平均,210240447.35500008,271133333.0,271133333.0
