,SECURITYCODE_x,NETPROFIT_x,PARENTNETPROFIT_x,REPORTDATE_x,REPORTTIMETYPE_x,KCFJCXSYJLR,Year,Month,managesituationChangeRate,managesituationGreatChange,historyprofitextroplaterate,ifhistoryprofitextroplate,IfprofitdisStableChangeRage,IfprofitdisStable,predicttype,predict,analyst_prediction,adj_prediction
0,603871,30931022.879999995,31003289.139999993,2013-12-31,年度报告,29927432.259999994,2013,12,未知,未知,未知,未知,未知,未知,未知,未知,未知,未知
1,603871,56920743.5,56920743.5,2014-12-31,年度报告,58276481.04,2014,12,0.0,True,未知,未知,未知,未知,未知,未知,未知,未知
2,603871,102456854.62,102456854.62,2015-12-31,年度报告,100281656.04,2015,12,-0.45659489005093556,True,未知,未知,未知,未知,未知,未知,未知,未知
3,603871,71170903.25,71394400.21000001,2016-06-30,半年度报告,72409504.64,2016,6,未知,未知,未知,未知,未知,未知,未知,未知,未知,未知
4,603871,105962337.85999998,106285487.71,2016-09-30,三季度报告,106908287.71,2016,9,未知,未知,未知,未知,未知,未知,未知,未知,未知,未知
5,603871,145294288.57999998,145766806.65000004,2016-12-31,年度报告,146288359.07000002,2016,12,-0.6981068470750992,True,1.3324939006195087,True,0.0,True,比例外推,145766806.65000004,未知,145766806.65000004
6,603871,52089165.24,52131099.48999999,2017-03-31,一季度报告,52064393.16,2017,3,未知,未知,未知,未知,未知,未知,未知,未知,未知,未知
7,603871,113091314.29,113342837.79,2017-06-30,半年度报告,112784889.12,2017,6,-0.5653979158961988,True,未知,未知,未知,未知,未知,未知,未知,未知
8,603871,171457022.15,171765492.39000002,2017-09-30,三季度报告,171123197.45999998,2017,9,-0.7080941822851547,True,未知,未知,未知,未知,未知,未知,未知,未知
9,603871,205890532.33000004,206220575.83,2017-12-31,年度报告,203331623.33000004,2017,12,-0.7871146678765065,True,0.8232711534603967,True,0.0,True,比例外推,206220575.83,未知,206220575.83
10,603871,56887939.75,56914929.44999999,2018-03-31,一季度报告,55758437.95999999,2018,3,-0.40619085106306085,True,未知,未知,未知,未知,未知,未知,,未知
11,603871,139584570.47,139653643.69,2018-06-30,半年度报告,133079647.95,2018,6,-0.7264951506294852,True,未知,未知,未知,未知,未知,未知,257260000.0,未知
12,603871,223961877.51,224069210.17000005,2018-09-30,三季度报告,208713455.46,2018,9,-0.819598973012958,True,未知,未知,未知,未知,未知,未知,268695000.0,未知
13,603871,269827698.7699999,270034544.0199999,2018-12-31,年度报告,247893535.4700001,2018,12,-0.8497695715778522,True,0.6620753363288622,True,0.0,True,比例外推,270034544.0199999,225000000.0,225000000.0
14,603871,69995714.14999999,70054236.76999998,2019-03-31,一季度报告,65429301.21000001,2019,3,-0.45628154199414483,True,未知,未知,未知,未知,未知,未知,337482000.0,未知
15,603871,180100124.91000003,179501888.20999998,2019-06-30,半年度报告,161796871.07999998,2019,6,-0.7784065762007141,True,0.5150644807549729,True,0.033856864991874625,True,比例外推,323654780.75402546,341790000.0,323654780.75402546
16,603871,281075102.98,279660781.2199999,2019-09-30,三季度报告,258878955.95000005,2019,9,-0.8618915717983346,True,0.6146088542769831,True,0.07397806951137176,True,比例外推,342457211.0618652,345842500.0,342457211.0618652
17,603871,345934602.60999984,343331490.62999994,2019-12-31,年度报告,316047861.31,2019,12,-0.8853675029620829,True,0.5366706230116368,True,0.0,True,比例外推,343331490.62999994,,343331490.62999994
18,603871,47689284.9,48627352.56,2020-03-31,一季度报告,47243549.01,2020,3,-0.5581011886854218,True,0.28459485423884145,True,0.02672024186717395,True,比例外推,207384982.4349737,361780000.0,361780000.0
