,SECURITYCODE_x,NETPROFIT_x,PARENTNETPROFIT_x,REPORTDATE_x,REPORTTIMETYPE_x,KCFJCXSYJLR,Year,Month,managesituationChangeRate,managesituationGreatChange,historyprofitextroplaterate,ifhistoryprofitextroplate,IfprofitdisStableChangeRage,IfprofitdisStable,predicttype,predict,analyst_prediction,adj_prediction
0,603887,49532276.59000002,49532276.59000002,2014-12-31,年度报告,49620004.06999999,2014,12,未知,未知,未知,未知,未知,未知,未知,未知,未知,未知
1,603887,26909900.0,26909900.0,2015-06-30,半年度报告,24022400.0,2015,6,未知,未知,未知,未知,未知,未知,未知,未知,未知,未知
2,603887,41193717.17,41193717.17,2015-09-30,三季度报告,37593967.17,2015,9,未知,未知,未知,未知,未知,未知,未知,未知,未知,未知
3,603887,55960900.3,55960900.3,2015-12-31,年度报告,51804196.89,2015,12,0.0,True,未知,未知,未知,未知,未知,未知,未知,未知
4,603887,15808149.01,15808149.01,2016-03-31,一季度报告,15797827.52,2016,3,未知,未知,未知,未知,未知,未知,未知,未知,未知,未知
5,603887,39904377.74,39904377.74,2016-06-30,半年度报告,40004185.24,2016,6,0.8406711503944652,False,未知,未知,未知,未知,未知,未知,66476667.0,未知
6,603887,49181265.03999999,49181265.03999999,2016-09-30,三季度报告,49265838.85,2016,9,0.20242308761766004,True,未知,未知,未知,未知,未知,未知,63747550.0,未知
7,603887,55346223.31,55346223.31,2016-12-31,年度报告,55455216.87,2016,12,-0.11487706015337246,True,未知,未知,未知,未知,未知,未知,,未知
8,603887,15301135.209999995,15301135.209999995,2017-03-31,一季度报告,15073047.9,2017,3,2.1333381636690443,False,未知,未知,未知,未知,未知,未知,未知,未知
9,603887,40622490.23,40622490.23,2017-06-30,半年度报告,40152244.20999999,2017,6,0.2412742509789608,True,未知,未知,未知,未知,未知,未知,未知,未知
10,603887,53692102.94999999,53692102.94999999,2017-09-30,三季度报告,53006995.65999999,2017,9,0.007137098846777181,True,未知,未知,未知,未知,未知,未知,未知,未知
11,603887,66391337.51000001,66391337.51000001,2017-12-31,年度报告,55803145.15000001,2017,12,-0.10504685545453496,True,0.04928536501864361,True,0.0,True,比例外推,66391337.51000001,未知,66391337.51000001
12,603887,16363287.339999998,16363287.339999998,2018-03-31,一季度报告,16242688.91,2018,3,2.2371635117392072,False,未知,未知,未知,未知,未知,未知,86145000.0,未知
13,603887,49338362.64,49338362.64,2018-06-30,半年度报告,49042999.73,2018,6,0.2193313681547785,True,0.21598232006870438,True,0.17116042515341073,False,平均增速,67022329.60167248,,67022329.60167248
14,603887,70953201.83,70953201.83,2018-09-30,三季度报告,70501370.30999999,2018,9,-0.07747557147973416,True,0.18820721480726235,True,0.1289651012840659,False,平均增速,74264422.5355397,260000000.0,260000000.0
15,603887,72179886.68999998,72179886.68999998,2018-12-31,年度报告,72053359.17,2018,12,-0.25393464798718124,True,0.19293959553969312,True,0.0,True,比例外推,72179886.68999998,未知,72179886.68999998
16,603887,23662198.419999994,23662198.419999994,2019-03-31,一季度报告,23584217.44,2019,3,2.02703702262311,False,0.05198738899174843,True,0.03471160414953808,True,前期平均,63855941.72,265510000.0,265510000.0
17,603887,129809829.33,129824908.0,2019-06-30,半年度报告,127925228.84999998,2019,6,0.003930287500923397,True,0.22538883937174445,True,0.02653841130778256,True,比例外推,182792813.19163525,,182792813.19163525
18,603887,249549450.72000003,249612478.64,2019-09-30,三季度报告,242223236.04,2019,9,-0.30190216491319655,True,0.3794279941704087,True,0.050524649112884235,True,比例外推,265371515.2123759,288366667.0,265371515.2123759
19,603887,331272792.08,331393843.8,2019-12-31,年度报告,322432269.18,2019,12,-0.3137662185210611,True,0.1858277133829626,True,0.0,True,比例外推,331393843.8,,331393843.8
20,603887,73589598.19000001,73624164.95,2020-03-31,一季度报告,50012314.40999999,2020,3,1.0933083101920853,False,0.4945605518392755,True,0.11641582800924286,False,前期平均,121894548.70500001,435000000.0,435000000.0
