,SECURITYCODE_x,NETPROFIT_x,PARENTNETPROFIT_x,REPORTDATE_x,REPORTTIMETYPE_x,KCFJCXSYJLR,Year,Month,managesituationChangeRate,managesituationGreatChange,historyprofitextroplaterate,ifhistoryprofitextroplate,IfprofitdisStableChangeRage,IfprofitdisStable,predicttype,predict,analyst_prediction,adj_prediction
0,603823,145045544.67,117700373.43000002,2014-12-31,年度报告,88724584.12,2014,12,未知,未知,未知,未知,未知,未知,未知,未知,未知,未知
1,603823,154311304.94000003,129782570.47,2015-12-31,年度报告,107564015.46,2015,12,0.0,True,未知,未知,未知,未知,未知,未知,未知,未知
2,603823,36455888.49,30663319.59,2016-03-31,一季度报告,26326575.25,2016,3,未知,未知,未知,未知,未知,未知,未知,未知,未知,未知
3,603823,95718465.82000002,78427563.46,2016-06-30,半年度报告,68153946.42,2016,6,未知,未知,未知,未知,未知,未知,未知,未知,未知,未知
4,603823,137659219.4,113261696.17,2016-09-30,三季度报告,98364487.10999998,2016,9,未知,未知,未知,未知,未知,未知,未知,未知,未知,未知
5,603823,170893926.81000003,139529329.46,2016-12-31,年度报告,120608547.4,2016,12,-0.06004589406850517,True,未知,未知,未知,未知,未知,未知,150110000.0,未知
6,603823,32401972.57,26748177.03,2017-03-31,一季度报告,22376741.1,2017,3,2.978658885512736,False,未知,未知,未知,未知,未知,未知,,未知
7,603823,70653581.47999999,58265686.89999999,2017-06-30,半年度报告,50315816.16000001,2017,6,0.5153350341276913,False,未知,未知,未知,未知,未知,未知,150620000.0,未知
8,603823,102155995.55,86478271.32999998,2017-09-30,三季度报告,74440352.75000003,2017,9,0.053656597082229134,True,未知,未知,未知,未知,未知,未知,,未知
9,603823,153141627.65,132984098.05,2017-12-31,年度报告,102737582.61,2017,12,-0.1512539539730882,True,0.14174054832979055,True,0.0,True,比例外推,132984098.05,未知,132984098.05
10,603823,41346517.61000001,37151262.24,2018-03-31,一季度报告,31960942.67000001,2018,3,3.4764418078760193,False,未知,未知,未知,未知,未知,未知,181546667.00000003,未知
11,603823,100283064.29,87827854.07999998,2018-06-30,半年度报告,77334263.32,2018,6,1.0529114254605514,False,未知,未知,未知,未知,未知,未知,184636667.00000003,未知
12,603823,172702361.59,151078394.57999998,2018-09-30,三季度报告,131291103.54,2018,9,0.4198436801392416,True,未知,未知,未知,未知,未知,未知,213817500.0,未知
13,603823,214305264.79999995,189544962.30000004,2018-12-31,年度报告,165115854.39999998,2018,12,-0.052866637923578444,True,0.058184723376609834,True,0.0,True,比例外推,189544962.30000004,211046000.0,211046000.0
14,603823,40655932.81000001,37146022.2,2019-03-31,一季度报告,32422774.599999994,2019,3,2.5080474258591363,False,0.20092367010855292,True,0.016317485574528334,True,前期平均,124467429.03,259263332.99999997,259263332.99999997
15,603823,130149750.18,113584463.32,2019-06-30,半年度报告,103935231.73,2019,6,0.4463613143147999,True,0.20552780250604033,True,0.0573510985548652,True,比例外推,214353821.6612789,252166667.00000003,252166667.00000003
16,603823,199475735.54,174739300.39,2019-09-30,三季度报告,162273980.57,2019,9,-0.160141509736028,True,0.4402952842337997,True,0.05385923632918321,True,比例外推,220929254.99478182,,220929254.99478182
17,603823,256126381.69,227222640.91,2019-12-31,年度报告,211470022.27,2019,12,-0.323182541477161,True,0.32272685420052855,True,0.0,True,比例外推,227222640.91,250950000.0,227222640.91
18,603823,33620245.72000001,31434620.61000001,2020-03-31,一季度报告,28814273.56,2020,3,2.5676353891042343,False,0.10255634280159323,True,0.034909929996924965,True,前期平均,138192497.23,295430000.0,295430000.0
