,SECURITYCODE_x,NETPROFIT_x,PARENTNETPROFIT_x,REPORTDATE_x,REPORTTIMETYPE_x,KCFJCXSYJLR,Year,Month,managesituationChangeRate,managesituationGreatChange,historyprofitextroplaterate,ifhistoryprofitextroplate,IfprofitdisStableChangeRage,IfprofitdisStable,predicttype,predict,analyst_prediction,adj_prediction
0,603867,33012599.33,35251236.65,2014-12-31,年度报告,15619636.649999995,2014,12,未知,未知,未知,未知,未知,未知,未知,未知,未知,未知
1,603867,65373937.83,65070481.40000001,2015-12-31,年度报告,42673401.8,2015,12,0.0,True,未知,未知,未知,未知,未知,未知,未知,未知
2,603867,47074936.8,45624887.25000002,2016-06-30,半年度报告,33923025.74,2016,6,未知,未知,未知,未知,未知,未知,未知,未知,未知,未知
3,603867,85045611.77999999,84318879.67,2016-12-31,年度报告,61756533.85,2016,12,-0.49501895670034785,True,未知,未知,未知,未知,未知,未知,未知,未知
4,603867,58700135.48,58212648.41,2017-06-30,半年度报告,47811578.86,2017,6,-0.29872238660127104,True,未知,未知,未知,未知,未知,未知,未知,未知
5,603867,117626990.38,118818770.72,2017-12-31,年度报告,99335667.44,2017,12,-0.611824776857405,True,0.7288058759847502,True,0.0,True,比例外推,118818770.72,未知,118818770.72
6,603867,89560959.67000002,89864239.21000001,2018-06-30,半年度报告,80443166.63000001,2018,6,-0.43760607944000607,True,未知,未知,未知,未知,未知,未知,未知,未知
7,603867,134059186.09,126800443.36,2018-09-30,三季度报告,116899613.25,2018,9,未知,未知,未知,未知,未知,未知,未知,未知,未知,未知
8,603867,188741080.08,174536081.28,2018-12-31,年度报告,160790346.98,2018,12,-0.7193450310736412,True,0.5639854086118082,True,0.0,True,比例外推,174536081.28,未知,174536081.28
9,603867,47452334.58,40621707.54000001,2019-03-31,一季度报告,38836642.71,2019,3,未知,未知,未知,未知,未知,未知,未知,未知,未知,未知
10,603867,91777041.05,83701460.21000001,2019-06-30,半年度报告,78437406.27000001,2019,6,-0.6313952033158245,True,0.6934228025469144,True,0.038997814739621384,True,比例外推,158971026.17517895,未知,158971026.17517895
11,603867,112274302.35999998,107336870.05,2019-09-30,三季度报告,98729279.29,2019,9,-0.7537460856443128,True,未知,未知,未知,未知,未知,未知,未知,未知
12,603867,126224917.0,123495088.09,2019-12-31,年度报告,111813173.99000002,2019,12,-0.8250905456511786,True,0.8625219005280081,True,0.0,True,比例外推,123495088.09,未知,123495088.09
13,603867,19508714.35,20399880.12,2020-03-31,一季度报告,12729135.809999995,2020,3,-0.30429978583363515,True,未知,未知,未知,未知,未知,未知,未知,未知
