,SECURITYCODE_x,NETPROFIT_x,PARENTNETPROFIT_x,REPORTDATE_x,REPORTTIMETYPE_x,KCFJCXSYJLR,Year,Month,managesituationChangeRate,managesituationGreatChange,historyprofitextroplaterate,ifhistoryprofitextroplate,IfprofitdisStableChangeRage,IfprofitdisStable,predicttype,predict,analyst_prediction,adj_prediction
0,603898,2829875.02,2829875.02,2014-03-31,一季度报告,2859689.14,2014,3,未知,未知,未知,未知,未知,未知,未知,未知,未知,未知
1,603898,141326697.10999998,141326697.10999998,2014-12-31,年度报告,138772902.57,2014,12,未知,未知,未知,未知,未知,未知,未知,未知,未知,未知
2,603898,5096510.6000000015,5096510.6000000015,2015-03-31,一季度报告,4896755.149999999,2015,3,0.0,True,未知,未知,未知,未知,未知,未知,197475000.0,未知
3,603898,49540051.89,49540051.89,2015-06-30,半年度报告,48904913.46,2015,6,未知,未知,未知,未知,未知,未知,未知,未知,203700000.0,未知
4,603898,105411221.56,105411221.56,2015-09-30,三季度报告,100724035.90000002,2015,9,未知,未知,未知,未知,未知,未知,未知,未知,179300000.0,未知
5,603898,162439675.10000005,162439675.10000005,2015-12-31,年度报告,153197428.8,2015,12,-0.9799763591885444,True,未知,未知,未知,未知,未知,未知,174650000.0,未知
6,603898,13792150.79,13792150.79,2016-03-31,一季度报告,12274851.62,2016,3,-0.44474264018993714,True,未知,未知,未知,未知,未知,未知,218235556.0,未知
7,603898,69440101.91000003,69440101.91000003,2016-06-30,半年度报告,67048953.43000001,2016,6,-0.9428770275355478,True,未知,未知,未知,未知,未知,未知,223267000.0,未知
8,603898,153724485.63,153724485.63,2016-09-30,三季度报告,145305335.04,2016,9,-0.9731539490946015,True,未知,未知,未知,未知,未知,未知,235575556.0,未知
9,603898,252265362.37,252265362.37,2016-12-31,年度报告,241119057.03,2016,12,-0.9825789172610823,True,未知,未知,未知,未知,未知,未知,236534545.0,未知
10,603898,25665851.64999999,25665851.64999999,2017-03-31,一季度报告,20073018.24,2017,3,-0.7948198897265681,True,2.4800605095970583,False,0.016415009806677733,True,比例外推,587540302.6560276,348936929.0,348936929.0
11,603898,108361131.40999998,108361131.40999998,2017-06-30,半年度报告,97625571.25,2017,6,-0.9592472513409075,True,未知,未知,未知,未知,未知,未知,350926111.0,未知
12,603898,223297914.02,223297914.02,2017-09-30,三季度报告,209073280.57,2017,9,-0.9815912539345798,True,未知,未知,未知,未知,未知,未知,348865294.0,未知
13,603898,347998430.85,347998430.85,2017-12-31,年度报告,321909998.34,2017,12,-0.9887821499019378,True,0.6609169773117854,True,0.0,True,比例外推,347998430.85,348865294.0,347998430.85
14,603898,35525057.39,35525057.39,2018-03-31,一季度报告,28117526.64,2018,3,-0.8897416279580187,True,1.7175934937970732,True,0.016445486594581726,True,比例外推,588238036.7708164,460868889.0,460868889.0
15,603898,181124005.84,181124005.84,2018-06-30,半年度报告,127266662.42,2018,6,-0.9738847778425942,True,0.8214992660397781,True,0.022116564938353622,True,比例外推,477810174.85233617,468361904.99999994,477810174.85233617
16,603898,306586805.47,306586805.47,2018-09-30,三季度报告,240779695.80000004,2018,9,-0.9873269079452908,True,0.7234052106626627,True,0.033899359463953505,True,比例外推,444077290.51833093,447202500.0,444077290.51833093
17,603898,382235676.91,382235676.91,2018-12-31,年度报告,307965063.23,2018,12,-0.9918681385629012,True,0.678293724007027,True,0.0,True,比例外推,382235676.91,447202500.0,447202500.0
18,603898,36641165.52,38427092.86000001,2019-03-31,一季度报告,29834721.31,2019,3,-0.9203414370613632,True,0.8006515886869618,True,0.023112738142708672,True,比例外推,446126758.85312736,439389412.0,446126758.85312736
19,603898,144741385.67,148773389.87000003,2019-06-30,半年度报告,128681267.17,2019,6,-0.9843760355957463,True,1.0373762595225626,True,0.08171894215162279,True,比例外推,408234162.6042769,388263333.0,408234162.6042769
20,603898,253954002.35000008,261114011.46,2019-09-30,三季度报告,231918029.1,2019,9,-0.9907697429585668,True,0.626358570496675,True,0.10385848549436294,False,平均增速,331963318.54170716,387271250.0,387271250.0
21,603898,355343240.52999985,364521140.74,2019-12-31,年度报告,322073046.37,2019,12,-0.9925965178267064,True,0.2735589959859815,True,0.0,True,比例外推,364521140.74,383528333.0,364521140.74
22,603898,-19844398.860000007,-17218411.34,2020-03-31,一季度报告,-17378107.030000005,2020,3,-0.9227678765170458,True,0.19760160765214244,True,0.01974081241741369,True,比例外推,-211518536.1589624,381707778.00000006,381707778.00000006
