,SECURITYCODE_x,NETPROFIT_x,PARENTNETPROFIT_x,REPORTDATE_x,REPORTTIMETYPE_x,KCFJCXSYJLR,Year,Month,managesituationChangeRate,managesituationGreatChange,historyprofitextroplaterate,ifhistoryprofitextroplate,IfprofitdisStableChangeRage,IfprofitdisStable,predicttype,predict,analyst_prediction,adj_prediction
0,603839,228805075.17,228805075.17,2014-12-31,年度报告,217005714.2200001,2014,12,未知,未知,未知,未知,未知,未知,未知,未知,未知,未知
1,603839,170297164.68,170297164.68,2015-09-30,三季度报告,164006300.0,2015,9,未知,未知,未知,未知,未知,未知,未知,未知,未知,未知
2,603839,243867827.17,243867827.17,2015-12-31,年度报告,208104481.83,2015,12,0.0,True,未知,未知,未知,未知,未知,未知,未知,未知
3,603839,60662835.72,60662835.72,2016-03-31,一季度报告,61813879.47999999,2016,3,未知,未知,未知,未知,未知,未知,未知,未知,未知,未知
4,603839,117439459.82,117439459.82,2016-06-30,半年度报告,115997297.68999995,2016,6,未知,未知,未知,未知,未知,未知,未知,未知,未知,未知
5,603839,172337102.85,172337102.85,2016-09-30,三季度报告,167397718.03,2016,9,0.34356362068587776,True,未知,未知,未知,未知,未知,未知,未知,未知
6,603839,236043988.29000008,236043988.29000008,2016-12-31,年度报告,222485844.8,2016,12,-0.06176604833363186,True,未知,未知,未知,未知,未知,未知,未知,未知
7,603839,70672077.82,70672077.82,2017-03-31,一季度报告,69736031.33999999,2017,3,2.7717504045819767,False,未知,未知,未知,未知,未知,未知,277830133.0,未知
8,603839,129414458.06,129414458.06,2017-06-30,半年度报告,124647591.51999998,2017,6,0.948281059200124,False,未知,未知,未知,未知,未知,未知,278356667.0,未知
9,603839,204596595.98,204596595.98,2017-09-30,三季度报告,187043195.97,2017,9,0.32765998375375377,True,未知,未知,未知,未知,未知,未知,278334000.0,未知
10,603839,273073276.73,273073276.73,2017-12-31,年度报告,217055611.59,2017,12,-0.030667644503220622,True,0.0012374852823254646,True,0.0,True,比例外推,273073276.73,278303636.0,273073276.73
11,603839,91940250.27,91940250.27,2018-03-31,一季度报告,84178566.46,2018,3,2.2375597580809887,False,未知,未知,未知,未知,未知,未知,360299375.0,未知
12,603839,162330166.28999996,162497643.98000002,2018-06-30,半年度报告,126252164.32999995,2018,6,0.7680024210580848,False,未知,未知,未知,未知,未知,未知,360498000.0,未知
13,603839,246610953.71,246922114.81,2018-09-30,三季度报告,197754209.9,2018,9,0.11832298125021816,True,0.19425647326466644,True,0.06098854348776117,True,比例外推,296131969.60920715,353053173.0,353053173.0
14,603839,281007027.63000005,281151194.64000005,2018-12-31,年度报告,198379376.82,2018,12,-0.16211107176104245,True,0.13801439319953682,True,0.0,True,比例外推,281151194.64000005,353053173.0,353053173.0
15,603839,105852016.51000002,101600361.69999996,2019-03-31,一季度报告,94833220.29,2019,3,1.4886279349694007,False,0.400088488153582,True,0.083182582522081,True,前期平均,255596134.48499998,379275000.0,379275000.0
16,603839,205479284.48,192305428.24,2019-06-30,半年度报告,164363932.55,2019,6,0.4095043478317134,True,0.31519214022692965,True,0.05906684824995123,True,比例外推,312627846.7796231,373000000.0,373000000.0
17,603839,299125000.04,277910817.73,2019-09-30,三季度报告,238740532.07,2019,9,-0.07220230193399556,True,0.3085110430586545,True,0.12652357509802337,False,平均增速,278583507.83548766,352122000.0,352122000.0
18,603839,327674530.44999987,302715982.74,2019-12-31,年度报告,260450134.55,2019,12,-0.1857674268870386,True,0.10389903048744972,True,0.0,True,比例外推,302715982.74,347800000.0,347800000.0
19,603839,97746678.06000002,77373461.71999998,2020-03-31,一季度报告,50121866.12999999,2020,3,1.1615561300939825,False,0.30189411532703475,True,0.054422613434349454,True,前期平均,208133657.02499998,335292727.0,335292727.0
