,SECURITYCODE_x,NETPROFIT_x,PARENTNETPROFIT_x,REPORTDATE_x,REPORTTIMETYPE_x,KCFJCXSYJLR,Year,Month,managesituationChangeRate,managesituationGreatChange,historyprofitextroplaterate,ifhistoryprofitextroplate,IfprofitdisStableChangeRage,IfprofitdisStable,predicttype,predict,analyst_prediction,adj_prediction
0,603881,58962296.31,59086741.68000001,2014-12-31,年度报告,56026123.40999998,2014,12,未知,未知,未知,未知,未知,未知,未知,未知,未知,未知
1,603881,48125059.44000001,48125059.44000001,2015-09-30,三季度报告,47558794.66,2015,9,未知,未知,未知,未知,未知,未知,未知,未知,未知,未知
2,603881,72141613.82000001,72141613.82000001,2015-12-31,年度报告,71450408.24,2015,12,0.0,True,未知,未知,未知,未知,未知,未知,未知,未知
3,603881,18938102.85,18938102.85,2016-03-31,一季度报告,18687831.56,2016,3,未知,未知,未知,未知,未知,未知,未知,未知,未知,未知
4,603881,38191107.33,38191107.33,2016-06-30,半年度报告,37916555.57,2016,6,未知,未知,未知,未知,未知,未知,未知,未知,未知,未知
5,603881,56913716.41,56913716.41,2016-09-30,三季度报告,56233873.23000002,2016,9,0.2251890594236321,True,未知,未知,未知,未知,未知,未知,未知,未知
6,603881,78228767.29,78228767.29,2016-12-31,年度报告,77428139.27000001,2016,12,-0.1826867575056419,True,未知,未知,未知,未知,未知,未知,未知,未知
7,603881,23998606.79000001,23998606.79000001,2017-03-31,一季度报告,23961301.95000001,2017,3,2.113421485616232,False,未知,未知,未知,未知,未知,未知,104090000.0,未知
8,603881,56369093.63000001,56369093.63000001,2017-06-30,半年度报告,51437217.99,2017,6,0.5438750125918385,False,未知,未知,未知,未知,未知,未知,104150000.0,未知
9,603881,82156143.00999999,82156143.00999999,2017-09-30,三季度报告,75806575.0,2017,9,0.035994484795936844,True,未知,未知,未知,未知,未知,未知,139000000.0,未知
10,603881,114895293.05999996,114895293.05999996,2017-12-31,年度报告,109289264.76999998,2017,12,-0.24628370927254584,True,0.19338572301054832,True,0.0,True,比例外推,114895293.05999996,155950000.0,155950000.0
11,603881,33673240.690000005,33673760.309999995,2018-03-31,一季度报告,33639894.33000001,2018,3,1.4569049706072534,False,未知,未知,未知,未知,未知,未知,179300000.0,未知
12,603881,65632541.1,65633140.02,2018-06-30,半年度报告,65472067.95,2018,6,0.04600398042625033,True,未知,未知,未知,未知,未知,未知,187000000.0,未知
13,603881,95782259.99,95832071.02000004,2018-09-30,三季度报告,94287935.75999998,2018,9,-0.28231421108920424,True,0.564301227716564,True,0.03109718104915682,True,比例外推,137176154.43272626,163000000.0,163000000.0
14,603881,143238901.82999998,142855360.59,2018-12-31,年度报告,135803171.92,2018,12,-0.48681712940834704,True,0.5281638872212598,True,0.0,True,比例外推,142855360.59,163725000.0,163725000.0
15,603881,35987336.84,35987325.31,2019-03-31,一季度报告,34276169.04,2019,3,0.7510134190176156,False,0.5685058763156772,True,0.01685817721544522,True,前期平均,108021460.57499999,171750000.0,171750000.0
16,603881,69120553.07000001,69120525.97,2019-06-30,半年度报告,63973016.99999999,2019,6,-0.10163014684799396,True,0.38816416280171145,True,0.010168607879969038,True,比例外推,138197148.46894518,163822000.0,163822000.0
17,603881,93461724.37,93473765.94,2019-09-30,三季度报告,86642679.63000001,2019,9,-0.3844131855298061,True,0.3774697175860567,True,0.02153756628467063,True,比例外推,129774852.67160994,147741429.0,147741429.0
18,603881,110361857.93999998,110337894.22,2019-12-31,年度报告,100967833.95,2019,12,-0.5883639461298151,True,0.4833874305501573,True,0.0,True,比例外推,110337894.22,139170000.0,139170000.0
19,603881,29298035.72000001,29317863.24,2020-03-31,一季度报告,27604081.99,2020,3,0.6384178849395513,False,0.2480036070451888,True,0.07066498758141865,True,前期平均,123063483.44499996,135193846.0,123063483.44499996
