,SECURITYCODE_x,NETPROFIT_x,PARENTNETPROFIT_x,REPORTDATE_x,REPORTTIMETYPE_x,KCFJCXSYJLR,Year,Month,managesituationChangeRate,managesituationGreatChange,historyprofitextroplaterate,ifhistoryprofitextroplate,IfprofitdisStableChangeRage,IfprofitdisStable,predicttype,predict,analyst_prediction,adj_prediction
0,603843,54291411.18000001,54807937.92999999,2012-12-31,年度报告,53699485.32999999,2012,12,未知,未知,未知,未知,未知,未知,未知,未知,未知,未知
1,603843,117065934.17,117065934.17,2014-12-31,年度报告,117054853.57,2014,12,未知,未知,未知,未知,未知,未知,未知,未知,未知,未知
2,603843,-9605097.95,-9605097.95,2015-03-31,一季度报告,-9605097.95,2015,3,未知,未知,未知,未知,未知,未知,未知,未知,未知,未知
3,603843,23993141.5,23993141.5,2015-06-30,半年度报告,,2015,6,未知,未知,未知,未知,未知,未知,未知,未知,未知,未知
4,603843,54675905.18,54675905.18,2015-09-30,三季度报告,53874445.31999999,2015,9,未知,未知,未知,未知,未知,未知,未知,未知,未知,未知
5,603843,88392139.05,88392139.05,2015-12-31,年度报告,87613179.19000001,2015,12,-0.5362321962838524,True,未知,未知,未知,未知,未知,未知,未知,未知
6,603843,-15036787.75,-15036787.75,2016-03-31,一季度报告,-15025537.750000002,2016,3,-6.652353725346447,False,未知,未知,未知,未知,未知,未知,未知,未知
7,603843,23434901.68,23434901.68,2016-06-30,半年度报告,23422151.68,2016,6,1.2627887715328985,False,未知,未知,未知,未知,未知,未知,98592500.0,未知
8,603843,49588703.73,49588703.73,2016-09-30,三季度报告,49544611.43,2016,9,-0.007032238400703009,True,未知,未知,未知,未知,未知,未知,,未知
9,603843,90743609.96,90743609.96,2016-12-31,年度报告,49604531.99000002,2016,12,-0.38578914637092937,True,未知,未知,未知,未知,未知,未知,未知,未知
10,603843,-13968897.84,-13968897.84,2017-03-31,一季度报告,-13968897.84,2017,3,-4.610572422956492,False,未知,未知,未知,未知,未知,未知,未知,未知
11,603843,11374021.2,13361156.439999998,2017-06-30,半年度报告,12693461.599999998,2017,6,1.3166903758053234,False,未知,未知,未知,未知,未知,未知,未知,未知
12,603843,17961316.02,20628399.62,2017-09-30,三季度报告,20488447.840000004,2017,9,0.09483424845314081,True,未知,未知,未知,未知,未知,未知,未知,未知
13,603843,44939295.78999999,43915767.05,2017-12-31,年度报告,42811209.49,2017,12,-0.4017054070922262,True,0.11667029153112202,True,0.0,True,比例外推,43915767.05,未知,43915767.05
14,603843,23996074.28,19763841.24,2018-03-31,一季度报告,19524702.81,2018,3,-4.8865923283178665,False,-0.13375234428589208,True,0.13664524217815704,False,盈利变化,88573901.25,,88573901.25
15,603843,55464202.62,42064869.41,2018-06-30,半年度报告,28949909.16,2018,6,3.773282045579448,False,0.5203672579603147,True,,False,前期平均,,119230000.0,
16,603843,63385967.00000001,50582950.9,2018-09-30,三季度报告,36688173.21,2018,9,2.0226855938365706,False,0.6554666783337001,True,0.30136492878596877,False,前期平均,67482278.11500001,90000000.0,90000000.0
17,603843,94497923.83,69776898.52,2018-12-31,年度报告,57372369.11000002,2018,12,0.20810551713365016,True,0.49826546584521975,True,0.0,True,比例外推,69776898.52,99000000.0,99000000.0
18,603843,1481774.0299999998,-3735941.64,2019-03-31,一季度报告,-4761790.570000001,2019,3,1.2625122153939259,False,-2.6545772866181028,True,0.436609361677583,False,盈利变化,37394907.346666664,未知,37394907.346666664
19,603843,48174522.3,40136067.07,2019-06-30,半年度报告,37282513.37,2019,6,-0.02114501578676063,True,2.186780746488873,False,0.12792575730111855,False,未知,未知,未知,未知
20,603843,67539241.39000002,52974674.17,2019-09-30,三季度报告,50014629.47,2019,9,-0.14347901042513084,True,0.876712019762215,True,0.29317758352547885,False,平均增速,78466119.22202134,未知,78466119.22202134
21,603843,96062092.46000002,71409449.51,2019-12-31,年度报告,63878746.27,2019,12,-0.42547509003828227,True,0.3929230555264696,True,0.0,True,比例外推,71409449.51,,71409449.51
22,603843,-8563033.489999998,-9034126.99,2020-03-31,一季度报告,-6656106.050000003,2020,3,35.63946734172417,False,0.7044483980377632,True,0.360488580446267,False,前期平均,38279759.82500001,未知,38279759.82500001
