,SECURITYCODE_x,NETPROFIT_x,PARENTNETPROFIT_x,REPORTDATE_x,REPORTTIMETYPE_x,KCFJCXSYJLR,Year,Month,managesituationChangeRate,managesituationGreatChange,historyprofitextroplaterate,ifhistoryprofitextroplate,IfprofitdisStableChangeRage,IfprofitdisStable,predicttype,predict,analyst_prediction,adj_prediction
0,603816,420217666.0500001,424370483.21,2014-12-31,年度报告,386164283.21,2014,12,未知,未知,未知,未知,未知,未知,未知,未知,未知,未知
1,603816,420217666.0500001,424370483.21,2014-12-31,年度报告,386164252.07000005,2014,12,未知,未知,未知,未知,未知,未知,未知,未知,未知,未知
2,603816,339405634.58000004,344461103.04000014,2015-09-30,三季度报告,320125453.73000014,2015,9,未知,未知,未知,未知,未知,未知,未知,未知,未知,未知
3,603816,490526850.43000007,498311897.0,2015-12-31,年度报告,442538962.85999984,2015,12,0.0,True,未知,未知,未知,未知,未知,未知,未知,未知
4,603816,138212553.73,140092237.99000004,2016-03-31,一季度报告,101625925.95,2016,3,未知,未知,未知,未知,未知,未知,未知,未知,未知,未知
5,603816,274789701.15000004,272059726.99,2016-06-30,半年度报告,252994901.8700001,2016,6,未知,未知,未知,未知,未知,未知,未知,未知,未知,未知
6,603816,424425274.9,419631472.1100001,2016-09-30,三季度报告,371667595.1200001,2016,9,0.23809867378896482,True,未知,未知,未知,未知,未知,未知,591520000.0,未知
7,603816,572455001.6899999,575051539.0699999,2016-12-31,年度报告,509203668.69,2016,12,-0.14333401794084535,True,未知,未知,未知,未知,未知,未知,629380000.0,未知
8,603816,191647340.12000003,187848743.4,2017-03-31,一季度报告,137640080.25000003,2017,3,2.04037263410168,False,未知,未知,未知,未知,未知,未知,762677856.9999999,未知
9,603816,396243554.95,387987113.06,2017-06-30,半年度报告,322000984.82,2017,6,0.5292336804886838,False,未知,未知,未知,未知,未知,未知,795827188.0,未知
10,603816,636310897.9000001,620008050.5500003,2017-09-30,三季度报告,474370747.2299999,2017,9,-0.00991366230720183,True,未知,未知,0.0,True,未知,未知,808678667.0,未知
11,603816,830864749.0699999,822445572.4499999,2017-12-31,年度报告,610446538.91,2017,12,-0.26593764608670595,True,0.25711435277704686,True,未知,未知,未知,未知,812870000.0,未知
12,603816,279056570.83,268439807.53,2018-03-31,一季度报告,198153566.51,2018,3,1.1926610919143499,False,未知,未知,未知,未知,未知,未知,1073477778.0,未知
13,603816,503460379.68000007,482506866.5200001,2018-06-30,半年度报告,392337366.21,2018,6,0.060503472676105126,True,未知,未知,0.033630960558618805,True,未知,未知,1049619200.0,未知
14,603816,815235952.26,785540604.7900001,2018-09-30,三季度报告,636937197.4799999,2018,9,-0.3396032231463688,True,0.6661040814208138,True,0.0,True,比例外推,1005326888.7978848,1045406897.0,1005326888.7978848
15,603816,1006550510.62,989359856.7299998,2018-12-31,年度报告,818307031.06,2018,12,-0.49424058907258206,True,0.5632717480791076,True,0.022822918860138902,True,比例外推,989359856.7299998,1045406897.0,989359856.7299998
16,603816,297723544.04999995,295384959.50000006,2019-03-31,一季度报告,196318394.02,2019,3,0.5058511784909547,False,0.6919702942540674,True,0.026224788689129808,True,前期平均,735577060.2,1222990417.0,1222990417.0
17,603816,583006549.88,558708527.03,2019-06-30,半年度报告,431522187.92,2019,6,-0.1653411410107567,True,0.5005526927415723,True,0.03188280909808061,True,比例外推,988062094.2919328,1178726667.0,1178726667.0
18,603816,968334492.38,917118759.98,2019-09-30,三季度报告,664548747.8499999,2019,9,-0.4845447322519681,True,0.5371135126051957,True,0.0,True,比例外推,1124930242.0728192,1182527368.0,1124930242.0728192
19,603816,1220454752.72,1161162368.24,2019-12-31,年度报告,848841799.51,2019,12,-0.5825170603796518,True,0.4345276763544155,True,0.00918296450800346,True,比例外推,1161162368.24,1176678333.0,1161162368.24
20,603816,314916385.42,306628663.07999986,2020-03-31,一季度报告,207088754.35,2020,3,0.41143579151882037,True,0.2650141081221026,True,未知,未知,True,True,1317558095.0,1317558095.0
