,SECURITYCODE_x,NETPROFIT_x,PARENTNETPROFIT_x,REPORTDATE_x,REPORTTIMETYPE_x,KCFJCXSYJLR,Year,Month,managesituationChangeRate,managesituationGreatChange,historyprofitextroplaterate,ifhistoryprofitextroplate,IfprofitdisStableChangeRage,IfprofitdisStable,predicttype,predict,analyst_prediction,adj_prediction
0,603860,49565816.79000001,49088571.67000001,2014-12-31,年度报告,46774588.00000001,2014,12,未知,未知,未知,未知,未知,未知,未知,未知,未知,未知
1,603860,45911505.97,47099067.99000001,2015-12-31,年度报告,44038802.07000001,2015,12,0.0,True,未知,未知,未知,未知,未知,未知,未知,未知
2,603860,1116739.0,1747291.2999999996,2016-03-31,一季度报告,929412.85,2016,3,未知,未知,未知,未知,未知,未知,未知,未知,未知,未知
3,603860,9546999.569999997,10767640.489999998,2016-06-30,半年度报告,9779440.49,2016,6,未知,未知,未知,未知,未知,未知,未知,未知,未知,未知
4,603860,19600079.28,19946269.81,2016-09-30,三季度报告,14963601.769999996,2016,9,未知,未知,未知,未知,未知,未知,未知,未知,未知,未知
5,603860,54691442.41999999,53929665.33000001,2016-12-31,年度报告,45312700.86000001,2016,12,0.07959466244448282,True,未知,未知,未知,未知,未知,未知,未知,未知
6,603860,1288263.15,1760736.89,2017-03-31,一季度报告,946362.13,2017,3,43.384423567189835,False,未知,未知,未知,未知,未知,未知,未知,未知
7,603860,12018912.49,12373185.11,2017-06-30,半年度报告,10744149.94,2017,6,4.1917690397465925,False,未知,未知,未知,未知,未知,未知,47342800.0,未知
8,603860,16886844.98,16630596.71,2017-09-30,三季度报告,14487801.06,2017,9,1.5288579745989683,False,未知,未知,未知,未知,未知,未知,,未知
9,603860,47889044.80999998,46903328.76000001,2017-12-31,年度报告,42758647.250000015,2017,12,-0.0937189696084081,True,0.14564256388874858,True,0.0,True,比例外推,46903328.76000001,未知,46903328.76000001
10,603860,1852149.1200000003,2130762.71,2018-03-31,一季度报告,1390584.16,2018,3,37.47491623896873,False,未知,未知,未知,未知,未知,未知,未知,未知
11,603860,6846323.31,6432702.3,2018-06-30,半年度报告,4873093.59,2018,6,3.123985163486285,False,未知,未知,未知,未知,未知,未知,未知,未知
12,603860,15176874.840000005,14595556.079999998,2018-09-30,三季度报告,10653448.36,2018,9,1.9351733167861416,False,未知,未知,未知,未知,未知,未知,未知,未知
13,603860,47950410.33,47840892.93999999,2018-12-31,年度报告,42815381.81,2018,12,0.03501368604557947,True,0.047959417166342416,True,0.0,True,比例外推,47840892.93999999,未知,47840892.93999999
14,603860,2462966.53,2399924.7800000003,2019-03-31,一季度报告,1536968.1899999997,2019,3,25.76124522306282,False,0.5402473715044291,True,0.007437828395227615,True,前期平均,45497711.34500001,未知,45497711.34500001
15,603860,7193633.299999999,6949912.289999997,2019-06-30,半年度报告,5174610.369999999,2019,6,6.239771559955734,False,0.36507917764364645,True,0.0798208837928934,True,前期平均,40723791.13000001,未知,40723791.13000001
16,603860,15314871.04,15067573.819999995,2019-09-30,三季度报告,11973410.680000005,2019,9,2.2658776798610005,False,0.1680923976023841,True,0.057137100291612286,True,前期平均,44377546.46,未知,44377546.46
17,603860,55861861.44,55026036.69,2019-12-31,年度报告,50842632.96999998,2019,12,0.03368910607610245,True,0.06511634668904628,True,0.0,True,比例外推,55026036.69,未知,55026036.69
18,603860,-11685541.330000002,-10541737.04,2020-03-31,一季度报告,-11268156.64,2020,3,19.124437821735242,False,0.5685625441783154,True,0.006147741059840877,True,盈利变化,37952536.916666664,未知,37952536.916666664
