,SECURITYCODE_x,NETPROFIT_x,PARENTNETPROFIT_x,REPORTDATE_x,REPORTTIMETYPE_x,KCFJCXSYJLR,Year,Month,managesituationChangeRate,managesituationGreatChange,historyprofitextroplaterate,ifhistoryprofitextroplate,IfprofitdisStableChangeRage,IfprofitdisStable,predicttype,predict,analyst_prediction,adj_prediction
0,603987,60822557.02999999,56965859.09,2012-12-31,年度报告,52356412.63,2012,12,未知,未知,未知,未知,未知,未知,未知,未知,未知,未知
1,603987,72571389.77999999,64477194.22,2014-12-31,年度报告,51843698.15,2014,12,未知,未知,未知,未知,未知,未知,未知,未知,未知,未知
2,603987,49259259.77,41767056.03,2015-06-30,半年度报告,39457624.83000001,2015,6,未知,未知,未知,未知,未知,未知,未知,未知,未知,未知
3,603987,80905297.53999999,69330226.04,2015-09-30,三季度报告,66486726.69,2015,9,未知,未知,未知,未知,未知,未知,未知,未知,未知,未知
4,603987,111406464.59000002,94549522.45,2015-12-31,年度报告,86886803.11000001,2015,12,-0.16189345120186566,True,未知,未知,未知,未知,未知,未知,未知,未知
5,603987,24884370.06,20514215.62,2016-03-31,一季度报告,19541379.630000006,2016,3,未知,未知,未知,未知,未知,未知,未知,未知,未知,未知
6,603987,56500735.38,45924787.53,2016-06-30,半年度报告,42590636.98,2016,6,0.23474362615254504,True,未知,未知,未知,未知,未知,未知,未知,未知
7,603987,91375313.08,76448620.52,2016-09-30,三季度报告,71848037.28999999,2016,9,-0.24822528463072516,True,未知,未知,未知,未知,未知,未知,未知,未知
8,603987,121361032.43000002,100708254.30000004,2016-12-31,年度报告,95355222.48,2016,12,-0.4540482255330496,True,未知,未知,未知,未知,未知,未知,未知,未知
9,603987,28787523.74,23910388.15,2017-03-31,一季度报告,23181345.21,2017,3,1.4442072225797782,False,未知,未知,未知,未知,未知,未知,,未知
10,603987,65719953.98,53935419.04999999,2017-06-30,半年度报告,49873084.5,2017,6,0.07649142300420061,True,未知,未知,未知,未知,未知,未知,未知,未知
11,603987,109069596.68,90407393.91,2017-09-30,三季度报告,84320502.41,2017,9,-0.3343655416343227,True,未知,未知,未知,未知,未知,未知,未知,未知
12,603987,143022155.01000002,118957654.09000002,2017-12-31,年度报告,107377615.63,2017,12,-0.49882960113179736,True,0.31930044347543524,True,0.0,True,比例外推,118957654.09000002,118000000.0,118957654.09000002
13,603987,31415067.91000001,24440799.6,2018-03-31,一季度报告,24192409.05,2018,3,1.1128096177820117,False,未知,未知,未知,未知,未知,未知,未知,未知
14,603987,80886723.12,63125139.32999998,2018-06-30,半年度报告,60789851.50000001,2018,6,-0.07451917801845075,True,0.24281310502688677,True,0.009383239988599634,True,比例外推,135915517.06370476,未知,135915517.06370476
15,603987,139707234.05,113301673.29,2018-09-30,三季度报告,108119264.35,2018,9,-0.4423509494726777,True,0.2661853970389649,True,0.017284305878725315,True,比例外推,145965183.18422472,未知,145965183.18422472
16,603987,180455453.82,147094728.76000002,2018-12-31,年度报告,133680721.33,2018,12,-0.5747333199828564,True,0.22888424579064964,True,0.0,True,比例外推,147094728.76000002,未知,147094728.76000002
17,603987,46619630.3,31288827.02,2019-03-31,一季度报告,30235683.53,2019,3,0.9360950358041089,False,0.1706338526851092,True,0.019625175159025787,True,前期平均,111293883.65499999,未知,111293883.65499999
18,603987,107689340.79999998,74175328.12999998,2019-06-30,半年度报告,68947353.66,2019,6,-0.24805265086871797,True,0.3236175240633581,True,0.0091791345588208,True,比例外推,156665660.44177812,未知,156665660.44177812
19,603987,170675426.49999997,118849108.26,2019-09-30,三季度报告,116283757.6,2019,9,-0.5646427513679634,True,0.39397138313241864,True,0.029034183556370108,True,比例外推,151168527.78189856,未知,151168527.78189856
20,603987,248558239.32,170104611.77999997,2019-12-31,年度报告,155793743.32,2019,12,-0.6629497433163254,True,0.3651053651885721,True,0.0,True,比例外推,170104611.77999997,未知,170104611.77999997
21,603987,56462462.59,31518816.55,2020-03-31,一季度报告,30504062.91,2020,3,0.304655498951908,True,0.5487582518384818,True,0.018908583836085013,True,比例外推,155875309.79359487,205000000.0,205000000.0
