,SECURITYCODE_x,NETPROFIT_x,PARENTNETPROFIT_x,REPORTDATE_x,REPORTTIMETYPE_x,KCFJCXSYJLR,Year,Month,managesituationChangeRate,managesituationGreatChange,historyprofitextroplaterate,ifhistoryprofitextroplate,IfprofitdisStableChangeRage,IfprofitdisStable,predicttype,predict,analyst_prediction,adj_prediction
0,603970,57143472.03,55462006.14,2012-12-31,年度报告,47198670.46000001,2012,12,未知,未知,未知,未知,未知,未知,未知,未知,未知,未知
1,603970,71442635.85,68723518.64999999,2013-12-31,年度报告,63566340.42,2013,12,0.0,True,未知,未知,未知,未知,未知,未知,未知,未知
2,603970,85446220.01999998,80718878.64999999,2014-12-31,年度报告,75503378.64999999,2014,12,-0.20014888378449988,True,未知,未知,未知,未知,未知,未知,未知,未知
3,603970,16089986.840000002,17416948.340000004,2015-03-31,一季度报告,17198053.259999998,2015,3,未知,未知,未知,未知,未知,未知,未知,未知,未知,未知
4,603970,83603582.61999999,88266997.28999998,2015-12-31,年度报告,80261822.24999999,2015,12,-0.3312346407292832,True,0.3290116860795053,True,0.0,True,比例外推,88266997.28999998,未知,88266997.28999998
5,603970,71113610.43,65977599.31,2016-09-30,三季度报告,61600399.31,2016,9,未知,未知,未知,未知,未知,未知,未知,未知,未知,未知
6,603970,84316054.47999997,81717090.35,2016-12-31,年度报告,72355531.07000001,2016,12,-0.31649493670944784,True,0.06576827469855401,True,0.0,True,比例外推,81717090.35,未知,81717090.35
7,603970,20920335.85,17432666.19,2017-03-31,一季度报告,16216857.87,2017,3,未知,未知,未知,未知,未知,未知,未知,未知,未知,未知
8,603970,71348926.32000001,64454103.20999999,2017-06-30,半年度报告,61403939.42999999,2017,6,未知,未知,未知,未知,未知,未知,未知,未知,未知,未知
9,603970,89692800.64999999,90330227.59,2017-12-31,年度报告,72688552.81,2017,12,-0.3222705642191238,True,0.0024708321067344664,True,0.0,True,比例外推,90330227.59,未知,90330227.59
10,603970,24164980.06,23377099.1,2018-03-31,一季度报告,21330138.11,2018,3,1.7314796683820923,False,未知,未知,未知,未知,未知,未知,,未知
11,603970,80483431.18000002,80464251.32999998,2018-06-30,半年度报告,74811506.97999999,2018,6,-0.19909836100810444,True,未知,未知,未知,未知,未知,未知,未知,未知
12,603970,91125338.14,90718235.75,2018-09-30,三季度报告,82930532.66000001,2018,9,未知,未知,未知,未知,未知,未知,未知,未知,未知,未知
13,603970,115149850.94,115459384.22,2018-12-31,年度报告,106203002.4,2018,12,-0.36289789575212683,True,0.06828244985529462,True,0.0,True,比例外推,115459384.22,101070000.0,101070000.0
14,603970,30627300.45,28121640.41,2019-03-31,一季度报告,26280925.24,2019,3,1.3647224987612923,False,未知,未知,未知,未知,未知,未知,未知,未知
15,603970,93804145.54,86357504.27,2019-06-30,半年度报告,78638991.83000001,2019,6,-0.28999706905885436,True,未知,未知,未知,未知,未知,未知,未知,未知
16,603970,107584087.84,96236839.4,2019-09-30,三季度报告,87290197.00999998,2019,9,-0.3729134706506341,True,未知,未知,未知,未知,未知,未知,未知,未知
17,603970,124488801.78999998,118876449.73000002,2019-12-31,年度报告,106577643.33,2019,12,-0.5037468866566298,True,0.3234941503864605,True,0.0,True,比例外推,118876449.73000002,未知,118876449.73000002
18,603970,37682796.74,28989914.98,2020-03-31,一季度报告,28570420.38000001,2020,3,0.8657691402899991,False,0.35863750011816214,True,0.023078432702155427,True,前期平均,99662194.59500001,未知,99662194.59500001
