,SECURITYCODE_x,NETPROFIT_x,PARENTNETPROFIT_x,REPORTDATE_x,REPORTTIMETYPE_x,KCFJCXSYJLR,Year,Month,managesituationChangeRate,managesituationGreatChange,historyprofitextroplaterate,ifhistoryprofitextroplate,IfprofitdisStableChangeRage,IfprofitdisStable,predicttype,predict,analyst_prediction,adj_prediction
0,603982,27884166.799999993,27884166.799999993,2014-12-31,年度报告,26523866.8,2014,12,未知,未知,未知,未知,未知,未知,未知,未知,未知,未知
1,603982,38593755.21,38593755.21,2015-12-31,年度报告,37789755.20999999,2015,12,0.0,True,未知,未知,未知,未知,未知,未知,未知,未知
2,603982,55279774.82,55279774.82,2016-12-31,年度报告,54225333.93999999,2016,12,-0.2774953707335806,True,未知,未知,未知,未知,未知,未知,未知,未知
3,603982,38215535.87999999,38215535.87999999,2017-06-30,半年度报告,36558835.88,2017,6,未知,未知,未知,未知,未知,未知,未知,未知,未知,未知
4,603982,75127214.11000001,75127214.11000001,2017-12-31,年度报告,72352404.15000002,2017,12,-0.4955810350024868,True,0.6631017681835633,True,0.0,True,比例外推,75127214.11000001,未知,75127214.11000001
5,603982,15622852.52,15622852.52,2018-03-31,一季度报告,14682884.04,2018,3,未知,未知,未知,未知,未知,未知,未知,未知,未知,未知
6,603982,39131510.71,39131510.71,2018-06-30,半年度报告,38165640.31,2018,6,-0.27034473917731694,True,未知,未知,未知,未知,未知,未知,未知,未知
7,603982,55651322.13,55651322.13,2018-09-30,三季度报告,55112421.2,2018,9,未知,未知,未知,未知,未知,未知,未知,未知,未知,未知
8,603982,91634299.24,91634299.24,2018-12-31,年度报告,85204081.32,2018,12,-0.628840665392271,True,0.600604858174417,True,0.0,True,比例外推,91634299.24,未知,91634299.24
9,603982,19064788.56,19064788.56,2019-03-31,一季度报告,16393690.37,2019,3,0.7848319802227766,False,未知,未知,未知,未知,未知,未知,未知,未知
10,603982,29287541.97,29287541.97,2019-06-30,半年度报告,26933594.02,2019,6,-0.28742421915047006,True,未知,未知,未知,未知,未知,未知,未知,未知
11,603982,40796275.50000001,40796275.50000001,2019-09-30,三季度报告,38014479.63,2019,9,-0.4989487089837089,True,未知,未知,未知,未知,未知,未知,未知,未知
12,603982,85890783.15000002,85890783.15000002,2019-12-31,年度报告,79480812.16999999,2019,12,-0.6957016419477559,True,0.40535871569256987,True,0.0,True,比例外推,85890783.15000002,未知,85890783.15000002
13,603982,12268311.79,12268311.79,2020-03-31,一季度报告,9608732.7,2020,3,0.4626003699041284,True,未知,未知,未知,未知,未知,未知,未知,未知
