,SECURITYCODE_x,NETPROFIT_x,PARENTNETPROFIT_x,REPORTDATE_x,REPORTTIMETYPE_x,KCFJCXSYJLR,Year,Month,managesituationChangeRate,managesituationGreatChange,historyprofitextroplaterate,ifhistoryprofitextroplate,IfprofitdisStableChangeRage,IfprofitdisStable,predicttype,predict,analyst_prediction,adj_prediction
0,603997,184242492.56,183989116.54,2013-12-31,年度报告,177466054.51,2013,12,未知,未知,未知,未知,未知,未知,未知,未知,未知,未知
1,603997,51707334.31999999,51763522.3,2014-03-31,一季度报告,51124734.96,2014,3,未知,未知,未知,未知,未知,未知,未知,未知,未知,未知
2,603997,98640374.89,98415151.65,2014-06-30,半年度报告,97416628.67999998,2014,6,未知,未知,未知,未知,未知,未知,未知,未知,未知,未知
3,603997,203979941.86,201649299.49000004,2014-12-31,年度报告,193882222.52,2014,12,0.0,True,未知,未知,未知,未知,未知,未知,未知,未知
4,603997,53528561.58,52263308.42,2015-03-31,一季度报告,51721945.66,2015,3,2.563179092153208,False,未知,未知,未知,未知,未知,未知,,未知
5,603997,88156620.48,86874777.10000001,2015-06-30,半年度报告,81653154.03000002,2015,6,0.8678202791246509,False,未知,未知,未知,未知,未知,未知,未知,未知
6,603997,130322546.35999998,129167674.49,2015-09-30,三季度报告,118570377.07,2015,9,未知,未知,未知,未知,未知,未知,未知,未知,未知,未知
7,603997,177213662.47,176364572.13,2015-12-31,年度报告,157505266.12,2015,12,-0.0967617164708609,True,未知,未知,未知,未知,未知,未知,239653332.99999997,未知
8,603997,58571118.84000001,59446206.20000001,2016-03-31,一季度报告,57282721.17,2016,3,2.441947385129044,False,未知,未知,未知,未知,未知,未知,未知,未知
9,603997,112723391.29,114355127.91,2016-06-30,半年度报告,105808473.69,2016,6,1.0899450495813743,False,未知,未知,未知,未知,未知,未知,213300000.0,未知
10,603997,177911449.14999998,177071468.64000002,2016-09-30,三季度报告,166475340.81,2016,9,0.4137422702826325,True,未知,未知,未知,未知,未知,未知,237470000.0,未知
11,603997,250867661.55000007,249711852.89,2016-12-31,年度报告,236949095.52,2016,12,0.03966302593170487,True,0.08705089269374537,True,0.0,True,比例外推,249711852.89,244470000.0,249711852.89
12,603997,77176910.74,73542890.15,2017-03-31,一季度报告,73075951.57000001,2017,3,2.1456201658585217,False,0.11313954880294826,True,0.0504412780086263,True,前期平均,197813294.16000003,306902000.0,306902000.0
13,603997,140008100.21,139597821.89,2017-06-30,半年度报告,134442565.71,2017,6,0.6344654862805271,False,0.20690797051335894,True,0.042592554643539116,True,前期平均,225756674.85500002,316178333.0,316178333.0
14,603997,221108000.2200001,217957517.76999995,2017-09-30,三季度报告,211263238.79,2017,9,0.035585362494924215,True,未知,未知,未知,未知,未知,未知,318551667.0,未知
15,603997,298665500.99,292847117.03000003,2017-12-31,年度报告,284942293.28000003,2017,12,-0.26557894540233956,True,0.3162217765480842,True,0.0,True,比例外推,292847117.03000003,318288750.0,292847117.03000003
16,603997,79886729.72,78347005.22,2018-03-31,一季度报告,77984661.56999998,2018,3,1.387274779379178,False,0.37693364425025866,True,0.052851568818124695,True,前期平均,221071852.62500003,362577854.0,362577854.0
17,603997,153862493.42000002,145089828.45,2018-06-30,半年度报告,144476968.0,2018,6,0.31594166540116064,True,0.39394755084247973,True,0.03948725908702172,True,比例外推,302280184.93059945,312090000.0,302280184.93059945
18,603997,245002790.67000008,232517878.72000003,2018-09-30,三季度报告,234212072.7500001,2018,9,-0.16673077239773912,True,0.43467627478375737,True,0.029690086680006056,True,比例外推,318150294.81072545,318326667.0,318150294.81072545
19,603997,130595882.29,164919060.72999996,2018-12-31,年度报告,293065299.14,2018,12,-0.38311424670983724,True,0.39536804916089385,True,0.0,True,比例外推,164919060.72999996,318881667.0,318881667.0
20,603997,74012643.84,60369970.68000002,2019-03-31,一季度报告,56119270.34,2019,3,1.3062965927603127,False,0.17698547768489814,True,0.01301879496924993,True,前期平均,256136328.71000004,417400000.0,417400000.0
21,603997,115382894.15,115168801.05999996,2019-06-30,半年度报告,106045695.74,2019,6,0.19744902389610566,True,0.21759652908153726,True,0.02390636150042652,True,比例外推,234535691.03352574,357400000.0,357400000.0
22,603997,188519640.08,190390689.79,2019-09-30,三季度报告,180777961.54,2019,9,-0.24799839195235748,True,0.22802430336078952,True,0.0514526181944589,True,比例外推,251382448.98277047,324000000.0,324000000.0
23,603997,361652267.32,297696261.23000014,2019-12-31,年度报告,256426015.23,2019,12,0.4107833212602586,True,0.5247024522182715,True,0.0,True,比例外推,297696261.23000014,324000000.0,297696261.23000014
24,603997,-61171469.95000001,-47941980.55,2020-03-31,一季度报告,-49812800.75,2020,3,1.4893380779410352,False,0.05754579961045666,True,0.02828510602234674,True,盈利变化,156453499.7766668,367666667.0,367666667.0
