,SECURITYCODE_x,NETPROFIT_x,PARENTNETPROFIT_x,REPORTDATE_x,REPORTTIMETYPE_x,KCFJCXSYJLR,Year,Month,managesituationChangeRate,managesituationGreatChange,historyprofitextroplaterate,ifhistoryprofitextroplate,IfprofitdisStableChangeRage,IfprofitdisStable,predicttype,predict,analyst_prediction,adj_prediction
0,603903,9678806.680000003,9171042.01,2012-12-31,年度报告,8982942.01,2012,12,未知,未知,未知,未知,未知,未知,未知,未知,未知,未知
1,603903,25860479.63000001,26493765.299999993,2013-12-31,年度报告,26240765.3,2013,12,0.0,True,未知,未知,未知,未知,未知,未知,未知,未知
2,603903,39856650.92,38913402.22,2014-12-31,年度报告,38913368.22,2014,12,-0.6257298078581692,True,未知,未知,未知,未知,未知,未知,未知,未知
3,603903,39856650.92,38913402.22,2014-12-31,年度报告,38573358.69000001,2014,12,-0.6257298078581692,True,未知,未知,0.0,True,未知,未知,未知,未知
4,603903,46665391.00000001,45327131.75,2015-12-31,年度报告,40170831.75000001,2015,12,-0.7571595591554534,True,1.2429629324765121,True,未知,未知,未知,未知,未知,未知
5,603903,46665391.00000001,45327131.75,2015-12-31,年度报告,40170801.56000001,2015,12,-0.7571595591554534,True,1.2429629324765121,True,未知,未知,未知,未知,未知,未知
6,603903,-232512.71,-337451.79000000004,2016-03-31,一季度报告,-155018.6,2016,3,未知,未知,未知,未知,未知,未知,未知,未知,未知,未知
7,603903,17805989.839999996,16620901.59,2016-06-30,半年度报告,14929461.770000005,2016,6,未知,未知,未知,未知,0.0,True,未知,未知,未知,未知
8,603903,28116011.230000004,26787604.01,2016-09-30,三季度报告,24975128.000000004,2016,9,未知,未知,未知,未知,未知,未知,未知,未知,未知,未知
9,603903,48376086.11000002,46751331.31,2016-12-31,年度报告,44108700.67,2016,12,-0.7925913300501436,True,0.42018954903988875,True,未知,未知,未知,未知,未知,未知
10,603903,2205147.4400000004,2176125.29,2017-03-31,一季度报告,2094217.34,2017,3,-42.627000433653734,False,未知,未知,未知,未知,未知,未知,58363333.0,未知
11,603903,14421872.959999995,13974902.580000002,2017-06-30,半年度报告,12793773.14,2017,6,-0.45642973140099213,True,未知,未知,0.0,True,未知,未知,,未知
12,603903,30233804.51,29531142.07,2017-09-30,三季度报告,27512097.76,2017,9,-0.655754630312829,True,未知,未知,未知,未知,未知,未知,未知,未知
13,603903,62935888.45,62191922.49000001,2017-12-31,年度报告,59016991.4,2017,12,-0.7999258009837374,True,0.11823727310387573,True,未知,未知,True,True,未知,True
14,603903,8505095.26,8591386.93,2018-03-31,一季度报告,8541456.96,2018,3,3.3891879991480307,False,未知,未知,未知,未知,未知,未知,未知,未知
15,603903,59238181.38000001,58114543.19000001,2018-06-30,半年度报告,54970033.49999999,2018,6,-0.3288800486008437,True,未知,未知,0.0,True,未知,未知,未知,未知
16,603903,66123188.26000001,64186821.28,2018-09-30,三季度报告,60858607.62,2018,9,-0.6798680537608596,True,未知,未知,0.05180195167316021,True,未知,未知,未知,未知
17,603903,107053607.04,92637780.17999998,2018-12-31,年度报告,91168983.9,2018,12,-0.8462116461946918,True,0.32438784336566345,True,0.2168807832884504,False,平均增速,92637780.17999998,未知,92637780.17999998
18,603903,12346441.389999995,9238786.58,2019-03-31,一季度报告,9222854.4,2019,3,0.13800097284271964,True,7.62308174002391,False,0.10089414032696264,False,未知,未知,133000000.0,未知
19,603903,59490660.31999999,45369607.0,2019-06-30,半年度报告,44657288.66,2019,6,-0.8366120219337495,True,2.676209108101331,False,0.0,True,比例外推,116385037.47213584,117215000.0,116385037.47213584
20,603903,85750552.75999999,63604729.05,2019-09-30,三季度报告,62935104.99,2019,9,-0.8536246219413619,True,1.2664403450608053,True,0.03730137431464656,True,比例外推,111736374.33676314,108930000.0,111736374.33676314
21,603903,148124723.12999997,111105984.84999998,2019-12-31,年度报告,103411558.92,2019,12,-0.9095891586690436,True,0.923487701357689,True,未知,未知,True,True,110240000.0,110240000.0
22,603903,29248717.65,23054397.379999995,2020-03-31,一季度报告,22942274.390000004,2020,3,-0.2160650689323843,True,1.3055390500161115,True,未知,未知,True,True,141682500.0,141682500.0
