,SECURITYCODE_x,NETPROFIT_x,PARENTNETPROFIT_x,REPORTDATE_x,REPORTTIMETYPE_x,KCFJCXSYJLR,Year,Month,managesituationChangeRate,managesituationGreatChange,historyprofitextroplaterate,ifhistoryprofitextroplate,IfprofitdisStableChangeRage,IfprofitdisStable,predicttype,predict,analyst_prediction,adj_prediction
0,603986,98252462.53,98122522.62,2014-12-31,年度报告,74946062.28,2014,12,未知,未知,未知,未知,未知,未知,未知,未知,未知,未知
1,603986,62269505.70000001,62367185.26000001,2015-06-30,半年度报告,55044503.61999999,2015,6,未知,未知,未知,未知,未知,未知,未知,未知,未知,未知
2,603986,119983636.9,120979339.06,2015-09-30,三季度报告,108683817.68999998,2015,9,未知,未知,未知,未知,未知,未知,未知,未知,未知,未知
3,603986,155970869.45000002,157782607.17999998,2015-12-31,年度报告,141765533.2,2015,12,0.0,True,未知,未知,未知,未知,未知,未知,未知,未知
4,603986,36672895.58,35782053.07,2016-03-31,一季度报告,35782053.07,2016,3,未知,未知,未知,未知,未知,未知,未知,未知,未知,未知
5,603986,91368721.42,89905822.62,2016-06-30,半年度报告,84396276.79,2016,6,0.5778583983524376,False,未知,未知,未知,未知,未知,未知,213405000.0,未知
6,603986,145928383.34,144609406.3,2016-09-30,三季度报告,124413899.88,2016,9,-0.1811178168245707,True,未知,未知,未知,未知,未知,未知,215833332.99999997,未知
7,603986,174698264.32999998,176427587.05999997,2016-12-31,年度报告,150739390.20999998,2016,12,-0.37005889063472175,True,未知,未知,未知,未知,未知,未知,203000000.0,未知
8,603986,69643603.83000001,69488966.77999999,2017-03-31,一季度报告,64363102.56999999,2017,3,1.6791574806430927,False,未知,未知,未知,未知,未知,未知,368705000.0,未知
9,603986,180235839.17,179444393.73,2017-06-30,半年度报告,158435715.52,2017,6,0.0753402368230272,True,未知,未知,未知,未知,未知,未知,416043038.0,未知
10,603986,339516870.58,339456419.23000014,2017-09-30,三季度报告,282989516.98,2017,9,-0.3267076611060605,True,未知,未知,未知,未知,未知,未知,492787778.00000006,未知
11,603986,397544186.51000017,397416022.51,2017-12-31,年度报告,331518681.54,2017,12,-0.43758764343299983,True,0.37436845760281084,True,0.0,True,比例外推,397416022.51,499714286.0,499714286.0
12,603986,89594951.14000002,89326565.91999999,2018-03-31,一季度报告,83791389.55000001,2018,3,0.4107894641672219,True,未知,未知,未知,未知,未知,未知,778681000.0,未知
13,603986,234829546.1600001,235056281.84,2018-06-30,半年度报告,219471624.07,2018,6,-0.4548672285020548,True,1.3462369040385471,True,0.08707798923638893,True,比例外推,477283709.32736707,585754167.0,585754167.0
14,603986,366665504.7,367339610.33,2018-09-30,三季度报告,341999469.44999987,2018,9,-0.7106109562032827,True,1.5536030321124077,True,0.04856115392936522,True,比例外推,444865343.8456557,521696711.0,521696711.0
15,603986,403977634.18,405006415.38,2018-12-31,年度报告,360929818.56000006,2018,12,-0.7528514669210777,True,1.4044831881677433,True,0.0,True,比例外推,405006415.38,507986331.0,507986331.0
16,603986,39567218.6,39675056.35,2019-03-31,一季度报告,31814618.96,2019,3,0.09662945601110781,True,0.6854383211863504,True,0.027079569591302116,True,比例外推,151671054.67038134,478072711.0,478072711.0
17,603986,187036115.06,187486979.7,2019-06-30,半年度报告,159365023.77999997,2019,6,-0.5816009350754521,True,0.7292017899101958,True,0.07071238875588781,True,比例外推,318604732.20511043,498917857.0,498917857.0
18,603986,448749462.3900001,449688469.34,2019-09-30,三季度报告,394860569.26,2019,9,-0.7320378893826169,True,0.5106358615689565,True,0.07204304669261774,True,比例外推,505835220.0181974,639420000.0,639420000.0
19,603986,605274383.2499999,606922090.23,2019-12-31,年度报告,565580365.48,2019,12,-0.7567873708418675,True,0.41191075072112315,True,0.0,True,比例外推,606922090.23,655738636.0,606922090.23
20,603986,167709021.76999998,167919943.24999997,2020-03-31,一季度报告,149256615.48999998,2020,3,1.4831783988475753,False,0.5030447418032106,True,0.10459930603668458,False,前期平均,440066947.24,1072907778.0,1072907778.0
