,SECURITYCODE_x,NETPROFIT_x,PARENTNETPROFIT_x,REPORTDATE_x,REPORTTIMETYPE_x,KCFJCXSYJLR,Year,Month,managesituationChangeRate,managesituationGreatChange,historyprofitextroplaterate,ifhistoryprofitextroplate,IfprofitdisStableChangeRage,IfprofitdisStable,predicttype,predict,analyst_prediction,adj_prediction
0,603915,110184581.75999998,110184581.75999998,2014-12-31,年度报告,19481381.76,2014,12,未知,未知,未知,未知,未知,未知,未知,未知,未知,未知
1,603915,75781182.80999999,75781182.80999999,2015-12-31,年度报告,13310282.81,2015,12,0.0,True,未知,未知,未知,未知,未知,未知,未知,未知
2,603915,96681467.12000002,96681467.12000002,2016-12-31,年度报告,84714907.03,2016,12,0.45398339896933043,True,未知,未知,未知,未知,未知,未知,未知,未知
3,603915,133678547.01,133678547.01,2017-12-31,年度报告,127827492.04,2017,12,0.13966600882504226,True,0.03977705083031928,True,0.0,True,比例外推,133678547.01,未知,133678547.01
4,603915,96257316.68999998,96257316.68999998,2018-06-30,半年度报告,90268714.48000002,2018,6,未知,未知,未知,未知,未知,未知,未知,未知,未知,未知
5,603915,167551694.04000002,167551694.04000002,2018-09-30,三季度报告,160653410.89,2018,9,未知,未知,未知,未知,未知,未知,未知,未知,未知,未知
6,603915,218051535.35,218051535.35,2018-12-31,年度报告,208633280.49000004,2018,12,-0.17574970536029638,True,0.5502318567441485,True,0.0,True,比例外推,218051535.35,未知,218051535.35
7,603915,49458500.78000001,49458500.78000001,2019-03-31,一季度报告,47857096.43,2019,3,未知,未知,未知,未知,未知,未知,未知,未知,未知,未知
8,603915,120568167.37,120568167.37,2019-06-30,半年度报告,117356912.33999996,2019,6,0.14468785905234852,True,未知,未知,未知,未知,未知,未知,未知,未知
9,603915,194453478.79,194453478.79,2019-09-30,三季度报告,185909320.81000003,2019,9,-0.3423845554572827,True,未知,未知,未知,未知,未知,未知,未知,未知
10,603915,283759082.76,283759082.76,2019-12-31,年度报告,263554179.6,2019,12,-0.49468559538853996,True,0.893137020098862,True,0.0,True,比例外推,283759082.76,未知,283759082.76
11,603915,32562590.180000003,32371609.16,2020-03-31,一季度报告,29832123.36,2020,3,1.227818878904561,False,未知,未知,未知,未知,未知,未知,286210000.0,未知
