,SECURITYCODE_x,NETPROFIT_x,PARENTNETPROFIT_x,REPORTDATE_x,REPORTTIMETYPE_x,KCFJCXSYJLR,Year,Month,managesituationChangeRate,managesituationGreatChange,historyprofitextroplaterate,ifhistoryprofitextroplate,IfprofitdisStableChangeRage,IfprofitdisStable,predicttype,predict,analyst_prediction,adj_prediction
0,603908,29807507.69999999,29494540.61,2011-12-31,年度报告,23420340.61,2011,12,未知,未知,未知,未知,未知,未知,未知,未知,未知,未知
1,603908,34842020.32999999,34842020.32999999,2012-12-31,年度报告,31795820.33,2012,12,0.0,True,未知,未知,未知,未知,未知,未知,未知,未知
2,603908,45987688.23,45987688.23,2013-12-31,年度报告,41813488.23,2013,12,-0.1444954277139072,True,未知,未知,未知,未知,未知,未知,未知,未知
3,603908,24363529.85,24363529.85,2014-06-30,半年度报告,24766329.850000005,2014,6,未知,未知,未知,未知,未知,未知,未知,未知,未知,未知
4,603908,35063385.73,35063385.73,2014-12-31,年度报告,34283339.63,2014,12,-0.3518372232384773,True,0.4226766886421771,True,0.0,True,比例外推,35063385.73,未知,35063385.73
5,603908,54243046.72999999,54243046.72999999,2015-12-31,年度报告,51094589.33000001,2015,12,-0.1498964780660959,True,0.13241340703406337,True,0.0,True,比例外推,54243046.72999999,未知,54243046.72999999
6,603908,19090256.18,19090256.18,2016-03-31,一季度报告,17343858.6,2016,3,未知,未知,未知,未知,未知,未知,未知,未知,未知,未知
7,603908,36619740.92,36619740.92,2016-06-30,半年度报告,35851567.529999994,2016,6,未知,未知,未知,未知,未知,未知,未知,未知,未知,未知
8,603908,43107705.91,43107705.91,2016-09-30,三季度报告,42753454.77,2016,9,未知,未知,未知,未知,未知,未知,未知,未知,未知,未知
9,603908,47486891.8,47486891.8,2016-12-31,年度报告,50164970.98,2016,12,-0.4504824213070157,True,0.3384905117178288,True,0.0,True,比例外推,47486891.8,未知,47486891.8
10,603908,24393675.48,24393675.48,2017-03-31,一季度报告,21308946.41,2017,3,0.5613990414244924,False,未知,未知,未知,未知,未知,未知,54185000.0,未知
11,603908,45228433.67,45228433.67,2017-06-30,半年度报告,41315339.44,2017,6,-0.18602625384166727,True,未知,未知,未知,未知,未知,未知,,未知
12,603908,51860439.60999999,51860439.60999999,2017-09-30,三季度报告,45868831.15,2017,9,-0.3085341223624397,True,未知,未知,未知,未知,未知,未知,未知,未知
13,603908,50047216.64999999,50047216.64999999,2017-12-31,年度报告,37733898.77,2017,12,-0.37230030077479204,True,0.0634596073752963,True,0.0,True,比例外推,50047216.64999999,未知,50047216.64999999
14,603908,19809119.36,19809119.36,2018-03-31,一季度报告,13914243.55,2018,3,0.22193589582015671,True,未知,未知,未知,未知,未知,未知,未知,未知
15,603908,38849148.00000001,38849148.00000001,2018-06-30,半年度报告,33180613.6,2018,6,-0.34095644528651237,True,未知,未知,未知,未知,未知,未知,未知,未知
16,603908,42545439.91,42545439.91,2018-09-30,三季度报告,36630867.19,2018,9,-0.4252361159265538,True,未知,未知,未知,未知,未知,未知,未知,未知
17,603908,41191877.52,41191877.52,2018-12-31,年度报告,32125766.520000003,2018,12,-0.4044122791392037,True,0.01607693127149287,True,0.0,True,比例外推,41191877.52,未知,41191877.52
18,603908,12672796.94,12672796.94,2019-03-31,一季度报告,7004323.9700000025,2019,3,0.5047366396402991,False,0.08889934264053614,True,0.1168594066219596,False,前期平均,37295829.31,未知,37295829.31
19,603908,37200300.35,37200300.35,2019-06-30,半年度报告,31865048.96,2019,6,-0.23273715809674936,True,0.05070215201240432,True,0.2328004398980289,False,平均增速,36270907.34265386,未知,36270907.34265386
20,603908,42465937.83,42465937.83,2019-09-30,三季度报告,38602761.96,2019,9,-0.29939594553366095,True,0.10400609221035982,True,0.21710193929377553,False,平均增速,38286064.891439445,未知,38286064.891439445
21,603908,40786461.22000001,40786461.22000001,2019-12-31,年度报告,28370005.300000004,2019,12,-0.2763741423165897,True,0.15533389960463603,True,0.0,True,比例外推,40786461.22000001,未知,40786461.22000001
22,603908,12456174.63,12456174.63,2020-03-31,一季度报告,12556208.47,2020,3,1.3520859555412392,False,0.42660653083718003,True,0.16801679116861093,False,前期平均,29774412.29500001,未知,29774412.29500001
