,SECURITYCODE_x,NETPROFIT_x,PARENTNETPROFIT_x,REPORTDATE_x,REPORTTIMETYPE_x,KCFJCXSYJLR,Year,Month,managesituationChangeRate,managesituationGreatChange,historyprofitextroplaterate,ifhistoryprofitextroplate,IfprofitdisStableChangeRage,IfprofitdisStable,predicttype,predict,analyst_prediction,adj_prediction
0,603959,71485574.24000001,71485574.24000001,2014-12-31,年度报告,71316669.42,2014,12,未知,未知,未知,未知,未知,未知,未知,未知,未知,未知
1,603959,-18191665.83,-18191665.83,2015-03-31,一季度报告,-18276665.83,2015,3,未知,未知,未知,未知,未知,未知,未知,未知,未知,未知
2,603959,26060996.74,26060996.74,2015-06-30,半年度报告,10388232.11,2015,6,未知,未知,未知,未知,未知,未知,未知,未知,未知,未知
3,603959,74874464.58999999,74874464.58999999,2015-12-31,年度报告,58837687.04999999,2015,12,0.0,True,未知,未知,未知,未知,未知,未知,未知,未知
4,603959,2039693.61,2039693.61,2016-03-31,一季度报告,-5277613.089999999,2016,3,-4.929578242478084,False,未知,未知,未知,未知,未知,未知,85276667.0,未知
5,603959,19514154.81,19514154.81,2016-06-30,半年度报告,10915728.11,2016,6,1.743009983585149,False,未知,未知,未知,未知,未知,未知,87340000.0,未知
6,603959,52258571.42,52258571.42,2016-09-30,三季度报告,42810144.72,2016,9,未知,未知,未知,未知,未知,未知,未知,未知,,未知
7,603959,106431204.03,106431204.03,2016-12-31,年度报告,96960090.10999998,2016,12,-0.045260962713482816,True,未知,未知,未知,未知,未知,未知,未知,未知
8,603959,8852735.44,8852735.44,2017-03-31,一季度报告,8739808.91,2017,3,34.04721193885586,False,未知,未知,未知,未知,未知,未知,未知,未知
9,603959,20763700.870000005,20763700.870000005,2017-06-30,半年度报告,20652469.24,2017,6,2.6632677631196886,False,未知,未知,未知,未知,未知,未知,未知,未知
10,603959,58276886.57999999,58276886.57999999,2017-09-30,三季度报告,57942913.99,2017,9,0.36792055920307065,True,未知,未知,未知,未知,未知,未知,127300000.0,未知
11,603959,108512042.79,108512042.79,2017-12-31,年度报告,103855224.75999998,2017,12,-0.3283400775974477,True,0.45437518165217083,True,0.0,True,比例外推,108512042.79,157000000.0,157000000.0
12,603959,28034082.24,28034082.24,2018-03-31,一季度报告,25982177.88000001,2018,3,7.074970129232735,False,-2.0961801220829486,True,0.2169933695688629,False,前期平均,117710110.27999999,,117710110.27999999
13,603959,79093676.21999998,79093676.21999998,2018-06-30,半年度报告,75942644.18999998,2018,6,2.442814683546344,False,0.0888148403754455,True,0.050085504210816784,True,前期平均,146340584.69,249750000.0,249750000.0
14,603959,90580151.78000002,90580151.78000002,2018-09-30,三季度报告,86634058.40999998,2018,9,0.22665396926906353,True,未知,未知,未知,未知,未知,未知,249750000.0,未知
15,603959,151173438.87999997,150061007.73000002,2018-12-31,年度报告,135806568.14,2018,12,-0.3412199014781813,True,0.19700661999080968,True,0.0,True,比例外推,150061007.73000002,未知,150061007.73000002
16,603959,36538993.16,36685995.32000001,2019-03-31,一季度报告,33076630.09000001,2019,3,1.549952362556814,False,4.147443625533645,False,0.12811095407200923,False,去年同期,146510385.57999998,312815000.0,312815000.0
17,603959,40503065.07,40393921.45,2019-06-30,半年度报告,37072643.21,2019,6,-0.09619102744494958,True,2.927402533460787,False,0.26898547215259844,False,未知,未知,329070000.0,未知
18,603959,64524852.83000001,64874587.63,2019-09-30,三季度报告,61141975.52999999,2019,9,-0.2108031082391724,True,0.6389338483584157,True,0.10426526547914339,False,平均增速,111468805.56171691,,111468805.56171691
19,603959,-624500471.9000001,-625547534.1400003,2019-12-31,年度报告,-636808288.91,2019,12,-0.5271287418635454,True,0.4066358549668434,True,0.0,True,比例外推,-625547534.1400003,282500000.0,282500000.0
20,603959,-14474214.5,-13080825.58,2020-03-31,一季度报告,-12833125.659999995,2020,3,0.9564188297956926,False,0.9811409852149651,True,0.1264512811753428,False,盈利变化,-686760541.806667,未知,-686760541.806667
