,SECURITYCODE_x,NETPROFIT_x,PARENTNETPROFIT_x,REPORTDATE_x,REPORTTIMETYPE_x,KCFJCXSYJLR,Year,Month,managesituationChangeRate,managesituationGreatChange,historyprofitextroplaterate,ifhistoryprofitextroplate,IfprofitdisStableChangeRage,IfprofitdisStable,predicttype,predict,analyst_prediction,adj_prediction
0,603989,103932562.35,102733869.31,2014-06-30,半年度报告,97313437.62,2014,6,未知,未知,未知,未知,未知,未知,未知,未知,未知,未知
1,603989,134842632.47000003,133431082.53,2014-09-30,三季度报告,130729900.54000002,2014,9,未知,未知,未知,未知,未知,未知,未知,未知,未知,未知
2,603989,182713907.87,180445058.04,2014-12-31,年度报告,181993202.75,2014,12,未知,未知,未知,未知,未知,未知,未知,未知,未知,未知
3,603989,48462005.11000001,48052632.15000001,2015-03-31,一季度报告,48202053.78,2015,3,未知,未知,未知,未知,未知,未知,未知,未知,213000000.0,未知
4,603989,90017125.78000002,89079474.34,2015-06-30,半年度报告,82866656.47000001,2015,6,0.0,True,未知,未知,未知,未知,未知,未知,228390000.0,未知
5,603989,149661506.33999997,148377845.52,2015-09-30,三季度报告,141466488.79999998,2015,9,-0.22923069324441547,True,未知,未知,未知,未知,未知,未知,244250000.0,未知
6,603989,149661506.33999997,148377845.52,2015-09-30,三季度报告,141427354.25,2015,9,-0.22923069324441547,True,未知,未知,未知,未知,未知,未知,244250000.0,未知
7,603989,227472136.54,225802284.14,2015-12-31,年度报告,217281855.07,2015,12,-0.4311732283458823,True,未知,未知,未知,未知,未知,未知,未知,未知
8,603989,54430028.5,54759553.99999999,2016-03-31,一季度报告,42079329.52,2016,3,1.1446195243901245,False,未知,未知,未知,未知,未知,未知,273557500.0,未知
9,603989,132610466.62000003,133485328.37,2016-06-30,半年度报告,103940457.61,2016,6,0.15458654616466,True,未知,未知,未知,未知,未知,未知,301650000.0,未知
10,603989,200095412.26,200631928.94000003,2016-09-30,三季度报告,164303472.15000004,2016,9,-0.30554913623622953,True,未知,未知,未知,未知,未知,未知,285350000.0,未知
11,603989,263689472.2,264403834.05,2016-12-31,年度报告,238020004.28,2016,12,-0.5430976121696386,True,未知,未知,未知,未知,未知,未知,285350000.0,未知
12,603989,76527791.68,76387192.92,2017-03-31,一季度报告,59519715.79000002,2017,3,0.9094710257225016,False,未知,未知,0.0837839456104672,True,未知,未知,358500000.0,未知
13,603989,155502368.79999995,154787289.0,2017-06-30,半年度报告,129828648.09000002,2017,6,-0.21625671789676743,True,0.3674728523524544,True,0.035489467596118485,True,比例外推,312874765.25819385,330500000.0,312874765.25819385
14,603989,224913003.66,224024186.04,2017-09-30,三季度报告,194534903.64000005,2017,9,-0.48058498105417785,True,0.4066256687649063,True,0.0,True,比例外推,312835271.74589074,,312835271.74589074
15,603989,292519412.35,291774089.96000004,2017-12-31,年度报告,265679007.81,2017,12,-0.6058524389203885,True,0.2857066972099623,True,0.03076390619036315,True,比例外推,291774089.96000004,,291774089.96000004
16,603989,51602461.35999999,51163406.75000002,2018-03-31,一季度报告,39241743.45,2018,3,0.3581022014145226,True,0.48753579835090977,True,0.05419932090169288,True,比例外推,200990250.41730043,393750000.0,393750000.0
17,603989,131947545.51,130936196.84000002,2018-06-30,半年度报告,115986673.01,2018,6,-0.3316335747677689,True,0.3969730088137981,True,0.04102309747496402,True,比例外推,281231764.36081433,309000000.0,281231764.36081433
18,603989,225842242.08,224902232.86,2018-09-30,三季度报告,206920689.23000005,2018,9,-0.5378988290640838,True,0.28611039095539437,True,0.0,True,比例外推,317348252.8950683,328638333.0,317348252.8950683
19,603989,299350903.04,298691766.7,2018-12-31,年度报告,264564276.64,2018,12,-0.6446985808051451,True,0.19113304926422828,True,0.04098078916842146,True,比例外推,298691766.7,320000000.0,298691766.7
20,603989,58476800.80999999,58596758.42999999,2019-03-31,一季度报告,43745993.27,2019,3,1.0141008705945962,False,0.2119224145748149,True,0.03408010807982875,True,前期平均,259646741.82,357080000.0,357080000.0
21,603989,132925339.89,133723200.81,2019-06-30,半年度报告,100775567.43,2019,6,-0.212319092800986,True,0.0840564578273517,True,0.0472423458583805,True,比例外推,254633517.44975957,336500000.0,336500000.0
22,603989,216794823.92,217068851.61,2019-09-30,三季度报告,177732232.79,2019,9,-0.5398001658468127,True,0.06276597648603116,True,0.0,True,比例外推,281189840.0908718,307000000.0,281189840.0908718
23,603989,336532087.65000004,337650522.96000004,2019-12-31,年度报告,284364250.60999995,2019,12,-0.6528069189217971,True,0.07639741598946038,True,0.04863117810792644,True,比例外推,337650522.96000004,356000000.0,337650522.96000004
24,603989,62077224.24,61446736.31,2020-03-31,一季度报告,41410959.53,2020,3,0.7773298284167884,False,0.08722882500287317,True,未知,未知,前期平均,277187648.91499996,406000000.0,406000000.0
