,SECURITYCODE_x,NETPROFIT_x,PARENTNETPROFIT_x,REPORTDATE_x,REPORTTIMETYPE_x,KCFJCXSYJLR,Year,Month,managesituationChangeRate,managesituationGreatChange,historyprofitextroplaterate,ifhistoryprofitextroplate,IfprofitdisStableChangeRage,IfprofitdisStable,predicttype,predict,analyst_prediction,adj_prediction
0,603956,58787300.23,58578160.8,2013-12-31,年度报告,51611575.00000002,2013,12,未知,未知,未知,未知,未知,未知,未知,未知,未知,未知
1,603956,70688837.78,68779956.94,2014-12-31,年度报告,67691256.94,2014,12,0.0,True,未知,未知,未知,未知,未知,未知,未知,未知
2,603956,25846564.8,29106256.36,2015-06-30,半年度报告,28838029.55,2015,6,未知,未知,未知,未知,未知,未知,未知,未知,未知,未知
3,603956,53768024.05,53597877.51000001,2015-09-30,三季度报告,53097803.64000001,2015,9,未知,未知,未知,未知,未知,未知,未知,未知,未知,未知
4,603956,91603916.85,92066700.3,2015-12-31,年度报告,91529454.04,2015,12,-0.16836516094719706,True,未知,未知,未知,未知,未知,未知,未知,未知
5,603956,46447426.94,47540193.31999999,2016-06-30,半年度报告,45675295.64,2016,6,1.274472475738826,False,未知,未知,未知,未知,未知,未知,未知,未知
6,603956,104242400.08,106346386.76,2016-12-31,年度报告,104180442.30000004,2016,12,-0.3582446880927232,True,0.4149930366771526,True,0.0,True,比例外推,106346386.76,未知,106346386.76
7,603956,22537651.62,23059545.83,2017-06-30,半年度报告,21743445.83,2017,6,0.26567399106823375,True,未知,未知,未知,未知,未知,未知,未知,未知
8,603956,108914741.05,108913173.61,2017-12-31,年度报告,105701150.07999998,2017,12,-0.43605193102917666,True,0.2846217357965859,True,0.0,True,比例外推,108913173.61,未知,108913173.61
9,603956,-27177338.47000001,-27297563.01,2018-03-31,一季度报告,-26655390.08000001,2018,3,未知,未知,未知,未知,未知,未知,未知,未知,未知,未知
10,603956,29833073.34,29656320.14,2018-06-30,半年度报告,25720620.33,2018,6,1.6084039819761842,False,0.3765000084362473,True,0.11869153699667512,False,前期平均,90254605.71500003,未知,90254605.71500003
11,603956,66743164.39,66404320.42000001,2018-09-30,三季度报告,61474631.83000001,2018,9,未知,未知,未知,未知,未知,未知,未知,未知,未知,未知
12,603956,115912640.96,115508041.01,2018-12-31,年度报告,108027235.23,2018,12,-0.46024477804145686,True,0.11224701855311008,True,0.0,True,比例外推,115508041.01,未知,115508041.01
13,603956,-24482653.0,-24465421.81,2019-03-31,一季度报告,-25123638.3,2019,3,-3.1630999773908313,False,未知,未知,未知,未知,未知,未知,未知,未知
14,603956,35774760.230000004,35521466.77,2019-06-30,半年度报告,32369733.160000004,2019,6,0.9705412030472351,False,0.1350861965300921,True,0.14434968726912362,False,前期平均,106752892.22500002,未知,106752892.22500002
15,603956,72251921.61,71992279.69,2019-09-30,三季度报告,65242853.44,2019,9,-0.11920118311309819,True,未知,未知,未知,未知,未知,未知,未知,未知
16,603956,120396575.13,120207432.28,2019-12-31,年度报告,110900369.88,2019,12,-0.49283098251305685,True,0.08757924173234567,True,0.0,True,比例外推,120207432.28,未知,120207432.28
17,603956,-24474764.47000001,-24355525.12,2020-03-31,一季度报告,-24813869.98000001,2020,3,-3.4011817767461716,False,未知,未知,未知,未知,未知,未知,164280000.0,未知
