,SECURITYCODE_x,NETPROFIT_x,PARENTNETPROFIT_x,REPORTDATE_x,REPORTTIMETYPE_x,KCFJCXSYJLR,Year,Month,managesituationChangeRate,managesituationGreatChange,historyprofitextroplaterate,ifhistoryprofitextroplate,IfprofitdisStableChangeRage,IfprofitdisStable,predicttype,predict,analyst_prediction,adj_prediction
0,603936,69221557.05000001,69221557.05000001,2014-12-31,年度报告,58706934.31000001,2014,12,未知,未知,未知,未知,未知,未知,未知,未知,未知,未知
1,603936,7935812.46,7935812.46,2015-03-31,一季度报告,6185841.17,2015,3,未知,未知,未知,未知,未知,未知,未知,未知,未知,未知
2,603936,32189158.21,32189158.21,2015-06-30,半年度报告,23916538.52,2015,6,未知,未知,未知,未知,未知,未知,未知,未知,81670350.0,未知
3,603936,43940631.9,43940631.9,2015-09-30,三季度报告,34354661.85,2015,9,未知,未知,未知,未知,未知,未知,未知,未知,,未知
4,603936,60958524.91,60958524.91,2015-12-31,年度报告,44031973.72000001,2015,12,0.0,True,未知,未知,未知,未知,未知,未知,70000000.0,未知
5,603936,7081627.0299999975,7081627.0299999975,2016-03-31,一季度报告,5899474.45,2016,3,7.722680557146131,False,未知,未知,未知,未知,未知,未知,,未知
6,603936,25993500.54000001,25993500.54000001,2016-06-30,半年度报告,21710204.92,2016,6,1.150461860431485,False,未知,未知,未知,未知,未知,未知,未知,未知
7,603936,39202568.82999999,39202568.82999999,2016-09-30,三季度报告,31241039.07,2016,9,0.5753427763063192,False,未知,未知,未知,未知,未知,未知,未知,未知
8,603936,53391586.87000001,53391586.87000001,2016-12-31,年度报告,43622929.38,2016,12,0.13555170752900714,True,未知,未知,未知,未知,未知,未知,未知,未知
9,603936,12031208.090000002,12031208.090000002,2017-03-31,一季度报告,9484937.179999998,2017,3,8.774809765715666,False,未知,未知,未知,未知,未知,未知,未知,未知
10,603936,36442965.11,36442965.11,2017-06-30,半年度报告,32425232.350000005,2017,6,1.663033281857465,False,未知,未知,未知,未知,未知,未知,未知,未知
11,603936,56512010.29,56512010.29,2017-09-30,三季度报告,51376298.94000001,2017,9,0.7657403357972761,False,未知,未知,未知,未知,未知,未知,未知,未知
12,603936,65240733.43000001,65240733.43000001,2017-12-31,年度报告,54241368.24,2017,12,0.2964881006167404,True,0.17972725064952005,True,0.0,True,比例外推,65240733.43000001,未知,65240733.43000001
13,603936,15784408.26,15784408.26,2018-03-31,一季度报告,12652717.049999995,2018,3,4.75350010840017,False,0.6022981944440654,True,0.024669204073836715,True,前期平均,53569202.0,未知,53569202.0
14,603936,46487212.35000001,46487212.35000001,2018-06-30,半年度报告,37650957.45,2018,6,0.8994490937019151,False,0.25270882743906886,True,0.0515829209738049,True,前期平均,67501292.18,127420000.0,127420000.0
15,603936,82432061.22,82432061.22,2018-09-30,三季度报告,69549158.36,2018,9,0.22489992295052036,True,0.3593898188624619,True,0.13265891754503445,False,平均增速,85971543.34592274,,85971543.34592274
16,603936,124737747.29,124737747.29,2018-12-31,年度报告,110630076.98,2018,12,0.06101745659053981,True,0.14106986717280506,True,0.0,True,比例外推,124737747.29,未知,124737747.29
17,603936,17633896.46,17633896.46,2019-03-31,一季度报告,14664667.63,2019,3,3.3854388400113526,False,0.6517076782065603,True,0.03337440994246593,True,前期平均,58873839.455,214740000.0,214740000.0
18,603936,103624659.53999996,103624659.53999996,2019-06-30,半年度报告,93899959.53,2019,6,0.4890451276973591,True,0.4891045438283871,True,0.13826998743764735,False,平均增速,254525803.3847232,,254525803.3847232
19,603936,143000657.6,143000657.6,2019-09-30,三季度报告,131015272.68,2019,9,-0.16025929686196905,True,0.7224557006441551,True,0.18317781646086861,False,平均增速,215411544.43769145,未知,215411544.43769145
20,603936,201557149.92,201557149.92,2019-12-31,年度报告,180922563.63000005,2019,12,-0.4450632743184919,True,1.1029302465729485,True,0.0,True,比例外推,201557149.92,未知,201557149.92
21,603936,15674030.310000004,15674030.310000004,2020-03-31,一季度报告,5567418.72,2020,3,2.925482788617894,False,0.2679134079299307,True,0.05143540476250599,True,前期平均,87040925.805,245000000.0,245000000.0
