,SECURITYCODE_x,NETPROFIT_x,PARENTNETPROFIT_x,REPORTDATE_x,REPORTTIMETYPE_x,KCFJCXSYJLR,Year,Month,managesituationChangeRate,managesituationGreatChange,historyprofitextroplaterate,ifhistoryprofitextroplate,IfprofitdisStableChangeRage,IfprofitdisStable,predicttype,predict,analyst_prediction,adj_prediction
0,603912,38564613.65,38470929.53,2013-12-31,年度报告,38219529.53,2013,12,未知,未知,未知,未知,未知,未知,未知,未知,未知,未知
1,603912,42408198.5,42405721.15,2014-12-31,年度报告,41211121.15,2014,12,0.0,True,未知,未知,未知,未知,未知,未知,未知,未知
2,603912,51021555.79000001,51029366.62000001,2015-12-31,年度报告,48983273.13,2015,12,-0.09063306119923961,True,未知,未知,未知,未知,未知,未知,未知,未知
3,603912,11671416.54,11671416.54,2016-03-31,一季度报告,10945716.54,2016,3,未知,未知,未知,未知,未知,未知,未知,未知,未知,未知
4,603912,41137094.97999999,41137094.97999999,2016-09-30,三季度报告,39195794.98,2016,9,未知,未知,未知,未知,未知,未知,未知,未知,未知,未知
5,603912,58448158.35000001,58448158.35000001,2016-12-31,年度报告,55612449.26,2016,12,-0.24415057414696695,True,0.2602144950945736,True,0.0,True,比例外推,58448158.35000001,未知,58448158.35000001
6,603912,21843888.78,21843888.78,2017-03-31,一季度报告,20667207.0,2017,3,2.3041930701241173,False,未知,未知,未知,未知,未知,未知,未知,未知
7,603912,34834585.64000001,34834585.64000001,2017-06-30,半年度报告,31344079.619999994,2017,6,未知,未知,未知,未知,未知,未知,未知,未知,未知,未知
8,603912,82264635.51,82264635.51,2017-12-31,年度报告,74725694.28,2017,12,-0.3401911242597776,True,0.2511679773572057,True,0.0,True,比例外推,82264635.51,未知,82264635.51
9,603912,23788673.66000001,23788673.66000001,2018-03-31,一季度报告,18044450.25,2018,3,0.7654646587154065,False,未知,未知,未知,未知,未知,未知,未知,未知
10,603912,50534455.25,50534455.25,2018-06-30,半年度报告,41578820.59,2018,6,0.10707829421449636,True,未知,未知,未知,未知,未知,未知,未知,未知
11,603912,78961674.91000001,78961674.91000001,2018-09-30,三季度报告,66097803.45,2018,9,未知,未知,未知,未知,未知,未知,未知,未知,未知,未知
12,603912,106671752.86,106671752.86,2018-12-31,年度报告,98609399.25,2018,12,-0.5312127330180401,True,0.5029661154461839,True,0.0,True,比例外推,106671752.86,未知,106671752.86
13,603912,27715103.81,27715103.81,2019-03-31,一季度报告,24744785.8,2019,3,0.6211334100078608,False,0.41957075627798646,True,0.05777937480735759,True,前期平均,77077713.81,142725000.0,142725000.0
14,603912,51486864.14000001,51486864.14000001,2019-06-30,半年度报告,43998579.25000001,2019,6,-0.23686495759742066,True,未知,未知,未知,未知,未知,未知,137460000.0,未知
15,603912,75839671.92000002,75839671.92000002,2019-09-30,三季度报告,65160001.03000001,2019,9,-0.5116033988139729,True,未知,未知,未知,未知,未知,未知,124730000.0,未知
16,603912,84573013.31000002,84573013.31000002,2019-12-31,年度报告,71441107.93,2019,12,-0.6384739856987853,True,0.516162815530923,True,0.0,True,比例外推,84573013.31000002,151350000.0,151350000.0
17,603912,2944350.18,2972066.71,2020-03-31,一季度报告,1321640.17,2020,3,0.39146560353439286,True,0.21470731986358252,True,0.08565407120688912,True,比例外推,6570112.058628553,未知,6570112.058628553
