,SECURITYCODE_x,NETPROFIT_x,PARENTNETPROFIT_x,REPORTDATE_x,REPORTTIMETYPE_x,KCFJCXSYJLR,Year,Month,managesituationChangeRate,managesituationGreatChange,historyprofitextroplaterate,ifhistoryprofitextroplate,IfprofitdisStableChangeRage,IfprofitdisStable,predicttype,predict,analyst_prediction,adj_prediction
0,603969,59547198.50000001,59547198.50000001,2011-12-31,年度报告,71186096.19,2011,12,未知,未知,未知,未知,未知,未知,未知,未知,未知,未知
1,603969,53914679.31,54182864.42,2012-12-31,年度报告,48674340.61,2012,12,0.0,True,未知,未知,未知,未知,未知,未知,未知,未知
2,603969,121039635.50000004,121865690.42000002,2013-12-31,年度报告,120861001.41,2013,12,0.10447097640355055,True,未知,未知,未知,未知,未知,未知,未知,未知
3,603969,16874104.139999993,17053165.02,2014-03-31,一季度报告,16865443.42,2014,3,未知,未知,未知,未知,未知,未知,未知,未知,未知,未知
4,603969,73494882.43000002,72975577.32000001,2014-06-30,半年度报告,69229840.5,2014,6,未知,未知,未知,未知,未知,未知,未知,未知,未知,未知
5,603969,130935173.19,131381022.76,2014-12-31,年度报告,122269413.24000002,2014,12,-0.50803554344808,True,1.1335736343565463,True,0.0,True,比例外推,131381022.76,未知,131381022.76
6,603969,24149505.34000001,22488704.6,2015-03-31,一季度报告,19985457.19,2015,3,2.5289102168596687,False,未知,未知,未知,未知,未知,未知,131700000.0,未知
7,603969,74313123.33,68368375.53999999,2015-06-30,半年度报告,64330776.60000001,2015,6,-0.1897776208198502,True,未知,未知,未知,未知,未知,未知,146050000.0,未知
8,603969,103110216.98,97187261.04,2015-09-30,三季度报告,91228243.99000002,2015,9,未知,未知,未知,未知,未知,未知,未知,未知,140050000.0,未知
9,603969,28797093.649999995,28818885.50000001,2015-10-19,其他报告,,2015,10,未知,未知,未知,未知,未知,未知,未知,未知,未知,未知
10,603969,135597083.64,128458355.79000002,2015-12-31,年度报告,119129171.85999998,2015,12,-0.5452161779815186,True,0.4967927293727538,True,0.0,True,比例外推,128458355.79000002,143887500.0,143887500.0
11,603969,5159084.819999998,5837492.0299999975,2016-03-31,一季度报告,5366457.91,2016,3,1.4657730111502143,False,未知,未知,未知,未知,未知,未知,168150000.0,未知
12,603969,44455958.3,45842996.83999999,2016-06-30,半年度报告,44788075.26,2016,6,-0.19869875155737168,True,未知,未知,未知,未知,未知,未知,104600000.0,未知
13,603969,101289176.16,99297024.63,2016-09-30,三季度报告,96976210.18,2016,9,-0.42248983423679337,True,未知,未知,未知,未知,未知,未知,114900000.0,未知
14,603969,147724001.69,144851264.83000004,2016-12-31,年度报告,141436938.54,2016,12,-0.5608519232014362,True,0.07627492085387447,True,0.0,True,比例外推,144851264.83000004,145900000.0,144851264.83000004
15,603969,32894989.03,32017755.05,2017-03-31,一季度报告,31637246.19,2017,3,10.54220187835563,False,0.7484821601319516,True,0.07660494475030649,True,前期平均,134291597.29500002,174810000.0,174810000.0
16,603969,64050743.8,62685650.91999999,2017-06-30,半年度报告,60959942.30000001,2017,6,0.3394649621128516,True,0.3984634584383152,True,0.15762889738100472,False,平均增速,180687257.8252012,191875000.0,180687257.8252012
17,603969,91821756.32,91769723.96,2017-09-30,三季度报告,89460113.48999998,2017,9,-0.41210699151173735,True,未知,未知,未知,未知,未知,未知,144000000.0,未知
18,603969,118811625.77000004,118252099.32,2017-12-31,年度报告,114129936.94,2017,12,-0.5969023461403362,True,0.10848873188524831,True,0.0,True,比例外推,118252099.32,144455000.0,144455000.0
19,603969,2947122.05,4320235.7700000005,2018-03-31,一季度报告,2930816.02,2018,3,0.8102209563193159,False,1.244733632728241,True,0.12302728279207034,False,前期平均,121927333.41999999,174580000.0,174580000.0
20,603969,43066419.99999999,43927862.77,2018-06-30,半年度报告,35259595.5,2018,6,-0.0703121467888401,True,0.07857605566971664,True,0.14693562680108713,False,平均增速,85812533.28887407,,85812533.28887407
21,603969,90643405.76999998,92244711.29999998,2018-09-30,三季度报告,82659943.74999999,2018,9,-0.3514914015314926,True,0.10154570510776224,True,0.059445813226249866,True,比例外推,120523472.67870076,未知,120523472.67870076
22,603969,151765987.78,150437315.01,2018-12-31,年度报告,134605852.04999998,2018,12,-0.4988100018488621,True,0.16129344463287323,True,0.0,True,比例外推,150437315.01,132000000.0,132000000.0
23,603969,19539535.55,18542080.31,2019-03-31,一季度报告,17950953.099999998,2019,3,19.205202733290268,False,0.8451087228338892,True,0.16489725643039355,False,前期平均,127823666.0,199900000.0,199900000.0
24,603969,82829497.92999998,80062411.16000001,2019-06-30,半年度报告,78808132.3,2019,6,0.3826828071615894,True,0.206197973645722,True,0.1632144926901734,False,平均增速,240419860.62720084,,240419860.62720084
25,603969,133867313.02,128522760.88000004,2019-09-30,三季度报告,124141363.63000004,2019,9,-0.34306088794703926,True,0.06122968175934121,True,0.08931674466462447,True,比例外推,183123539.84603056,未知,183123539.84603056
26,603969,175438256.57999998,166106051.16999996,2019-12-31,年度报告,162076883.31999996,2019,12,-0.6076380526951821,True,0.13880451349999032,True,0.0,True,比例外推,166106051.16999996,194500000.0,194500000.0
27,603969,3992101.2700000005,4401738.449999998,2020-03-31,一季度报告,4430055.500000001,2020,3,2.047523742190484,False,0.09031164522578125,True,0.14062612913246963,False,前期平均,111485601.83999999,未知,111485601.83999999
