,SECURITYCODE_x,NETPROFIT_x,PARENTNETPROFIT_x,REPORTDATE_x,REPORTTIMETYPE_x,KCFJCXSYJLR,Year,Month,managesituationChangeRate,managesituationGreatChange,historyprofitextroplaterate,ifhistoryprofitextroplate,IfprofitdisStableChangeRage,IfprofitdisStable,predicttype,predict,analyst_prediction,adj_prediction
0,603950,85743200.0,84583300.0,2015-12-31,年度报告,76197700.0,2015,12,未知,未知,未知,未知,未知,未知,未知,未知,未知,未知
1,603950,105603000.0,103695000.0,2016-12-31,年度报告,101258900.0,2016,12,0.0,True,未知,未知,未知,未知,未知,未知,未知,未知
2,603950,200485563.95,196863044.14000008,2017-12-31,年度报告,195565955.39000005,2017,12,-0.18806094523829817,True,未知,未知,未知,未知,未知,未知,未知,未知
3,603950,98688000.0,96905900.0,2018-06-30,半年度报告,89551999.99999999,2018,6,未知,未知,未知,未知,未知,未知,未知,未知,未知,未知
4,603950,184788700.0,181504700.0,2018-12-31,年度报告,154253790.83999994,2018,12,-0.5723223243076799,True,1.0955269971392168,True,0.0,True,比例外推,181504700.0,未知,181504700.0
5,603950,184788700.0,181504700.0,2018-12-31,年度报告,154253790.83999994,2018,12,-0.5723223243076799,True,1.0955269971392168,True,0.0,True,比例外推,181504700.0,未知,181504700.0
6,603950,184788651.61,181504706.03000003,2018-12-31,年度报告,154253790.83999994,2018,12,-0.5723223243076799,True,1.0955269971392168,True,0.0,True,比例外推,181504706.03000003,未知,181504706.03000003
7,603950,184788651.61,181504706.03000003,2018-12-31,年度报告,154253790.83999994,2018,12,-0.5723223243076799,True,1.0955269971392168,True,0.0,True,比例外推,181504706.03000003,未知,181504706.03000003
8,603950,40753933.19000001,40207456.72,2019-03-31,一季度报告,37417283.45,2019,3,未知,未知,未知,未知,未知,未知,未知,未知,未知,未知
9,603950,272459700.0,268806300.00000006,2019-12-31,年度报告,159251299.64999998,2019,12,-0.5359932723158938,True,0.20741982395778433,True,0.0,True,比例外推,268806300.00000006,未知,268806300.00000006
10,603950,272459700.0,268806300.00000006,2019-12-31,年度报告,159251299.64999998,2019,12,-0.5359932723158938,True,0.20741982395778433,True,0.0,True,比例外推,268806300.00000006,未知,268806300.00000006
11,603950,272459713.43,268806254.47,2019-12-31,年度报告,159251299.64999998,2019,12,-0.5359932723158938,True,0.20741982395778433,True,0.0,True,比例外推,268806254.47,未知,268806254.47
12,603950,272459713.43,268806254.47,2019-12-31,年度报告,159251299.64999998,2019,12,-0.5359932723158938,True,0.20741982395778433,True,0.0,True,比例外推,268806254.47,未知,268806254.47
13,603950,45163963.1,44245204.28,2020-03-31,一季度报告,37774644.68000001,2020,3,1.1039245365656931,False,未知,未知,未知,未知,未知,未知,未知,未知
