,SECURITYCODE_x,NETPROFIT_x,PARENTNETPROFIT_x,REPORTDATE_x,REPORTTIMETYPE_x,KCFJCXSYJLR,Year,Month,managesituationChangeRate,managesituationGreatChange,historyprofitextroplaterate,ifhistoryprofitextroplate,IfprofitdisStableChangeRage,IfprofitdisStable,predicttype,predict,analyst_prediction,adj_prediction
0,603992,126812683.95,126812683.95,2015-12-31,年度报告,130270883.95000003,2015,12,未知,未知,未知,未知,未知,未知,未知,未知,未知,未知
1,603992,211810483.7,211810483.7,2016-12-31,年度报告,202723885.16,2016,12,0.0,True,未知,未知,未知,未知,未知,未知,未知,未知
2,603992,155803393.91,155803393.91,2017-12-31,年度报告,168966911.24999997,2017,12,-0.40129175036674536,True,未知,未知,未知,未知,未知,未知,未知,未知
3,603992,94367490.12,94367490.12,2018-06-30,半年度报告,88117990.12,2018,6,未知,未知,未知,未知,未知,未知,未知,未知,未知,未知
4,603992,165831975.85,165831975.85,2018-09-30,三季度报告,169563351.55,2018,9,未知,未知,未知,未知,未知,未知,未知,未知,未知,未知
5,603992,236195346.99,236195346.99,2018-12-31,年度报告,238859735.88,2018,12,-0.1860723905459114,True,0.07978302257784099,True,0.0,True,比例外推,236195346.99,未知,236195346.99
6,603992,48265992.08000001,48265992.08000001,2019-03-31,一季度报告,35659886.419999994,2019,3,未知,未知,未知,未知,未知,未知,未知,未知,未知,未知
7,603992,114795819.92,114795819.92,2019-06-30,半年度报告,103853300.0,2019,6,0.34381749253627386,True,未知,未知,未知,未知,未知,未知,未知,未知
8,603992,166264249.58999997,166264249.58999997,2019-09-30,三季度报告,177372075.44000003,2019,9,-0.2352941385399286,True,未知,未知,未知,未知,未知,未知,未知,未知
9,603992,234178922.82,234178922.82,2019-12-31,年度报告,231830021.7,2019,12,-0.46310253116303357,True,0.2850186642876341,True,0.0,True,比例外推,234178922.82,未知,234178922.82
10,603992,35057457.809999995,35057457.809999995,2020-03-31,一季度报告,36572953.93,2020,3,1.6273713330042043,False,未知,未知,未知,未知,未知,未知,237000000.0,未知
