,SECURITYCODE_x,NETPROFIT_x,PARENTNETPROFIT_x,REPORTDATE_x,REPORTTIMETYPE_x,KCFJCXSYJLR,Year,Month,managesituationChangeRate,managesituationGreatChange,historyprofitextroplaterate,ifhistoryprofitextroplate,IfprofitdisStableChangeRage,IfprofitdisStable,predicttype,predict,analyst_prediction,adj_prediction
0,603977,107873096.23,107226841.3,2014-12-31,年度报告,116628357.15,2014,12,未知,未知,未知,未知,未知,未知,未知,未知,未知,未知
1,603977,68504754.13,67639172.67999999,2015-09-30,三季度报告,69567672.68,2015,9,未知,未知,未知,未知,未知,未知,未知,未知,未知,未知
2,603977,98337977.36999996,97015267.99,2015-12-31,年度报告,96292908.0,2015,12,0.0,True,未知,未知,未知,未知,未知,未知,未知,未知
3,603977,24515914.87,24476993.66000001,2016-03-31,一季度报告,3264770.5299999993,2016,3,未知,未知,未知,未知,未知,未知,未知,未知,未知,未知
4,603977,54930654.31,53716989.09000001,2016-06-30,半年度报告,27655170.87,2016,6,未知,未知,未知,未知,未知,未知,未知,未知,未知,未知
5,603977,103190061.66999996,100945944.62000002,2016-12-31,年度报告,57867905.07,2016,12,0.09696273113411553,True,未知,未知,未知,未知,未知,未知,未知,未知
6,603977,7934332.2,7454590.3500000015,2017-03-31,一季度报告,4698896.68,2017,3,3.4001252574915632,False,未知,未知,未知,未知,未知,未知,未知,未知
7,603977,33527324.13,32432034.6,2017-06-30,半年度报告,20378505.67,2017,6,0.9638050481106676,False,未知,未知,未知,未知,未知,未知,100000000.0,未知
8,603977,55301960.24,56792605.31999999,2017-09-30,三季度报告,41302534.91,2017,9,未知,未知,未知,未知,未知,未知,未知,未知,,未知
9,603977,67903716.63999999,68612961.64,2017-12-31,年度报告,50275910.40999998,2017,12,0.04538261228078641,True,0.0008197898252926315,True,0.0,True,比例外推,68612961.64,,68612961.64
10,603977,11264645.63,10946310.63,2018-03-31,一季度报告,3666373.9,2018,3,12.595737298471066,False,未知,未知,未知,未知,未知,未知,208230000.0,未知
11,603977,36974572.22,35575659.65,2018-06-30,半年度报告,22168834.24,2018,6,2.2174681108378693,False,未知,未知,未知,未知,未知,未知,,未知
12,603977,54952581.31,52621593.25,2018-09-30,三季度报告,36927626.82,2018,9,0.9506197567292598,False,未知,未知,未知,未知,未知,未知,112740000.0,未知
13,603977,76500412.23999998,70337553.86,2018-12-31,年度报告,43953991.37000001,2018,12,0.5886184375135556,False,0.32611147348561015,True,0.0,True,前期平均,70337553.86,未知,70337553.86
14,603977,9087827.55,8594330.23,2019-03-31,一季度报告,2703878.56,2019,3,8.576252975301097,False,0.30572820566201003,True,0.021346938260875532,True,前期平均,58684404.364999995,,58684404.364999995
15,603977,66677180.30000001,62212275.80000001,2019-06-30,半年度报告,49415786.33,2019,6,1.9174940980561264,False,0.16401950684234967,True,0.05719981458085127,True,前期平均,92267345.27,未知,92267345.27
16,603977,120642079.86,114981148.87,2019-09-30,三季度报告,98222600.63,2019,9,0.9630214570169752,False,未知,未知,未知,未知,未知,未知,未知,未知
17,603977,155994761.54999998,143593190.49,2019-12-31,年度报告,119300039.68000002,2019,12,0.41009823439351484,True,0.10574875374613492,True,0.0,True,比例外推,143593190.49,165830000.0,165830000.0
18,603977,9896544.08,10795698.88,2020-03-31,一季度报告,5603182.62,2020,3,10.870064175018374,False,0.05330089648840437,True,0.04384901466895272,True,前期平均,53728014.48,未知,53728014.48
