,SECURITYCODE_x,NETPROFIT_x,PARENTNETPROFIT_x,REPORTDATE_x,REPORTTIMETYPE_x,KCFJCXSYJLR,Year,Month,managesituationChangeRate,managesituationGreatChange,historyprofitextroplaterate,ifhistoryprofitextroplate,IfprofitdisStableChangeRage,IfprofitdisStable,predicttype,predict,analyst_prediction,adj_prediction
0,605108,34899750.16,34899750.16,2013-12-31,年度报告,26771629.15,2013,12,未知,未知,未知,未知,未知,未知,未知,未知,未知,未知
1,605108,71861641.32,71861641.32,2014-12-31,年度报告,74239286.36000001,2014,12,0.0,True,未知,未知,未知,未知,未知,未知,未知,未知
2,605108,31434360.08,31434360.08,2015-12-31,年度报告,79065757.82,2015,12,-0.5143479954125824,True,未知,未知,未知,未知,未知,未知,未知,未知
3,605108,123607700.14,123607700.14,2016-12-31,年度报告,122095270.92999998,2016,12,0.11024210676408332,True,0.41112869279361697,True,0.0,True,比例外推,123607700.14,未知,123607700.14
4,605108,159036998.25,159036998.25,2017-12-31,年度报告,157503910.06000003,2017,12,-0.7176571514519565,True,1.393271732975329,True,0.0,True,比例外推,159036998.25,未知,159036998.25
5,605108,200304912.89000005,200304912.89000005,2018-12-31,年度报告,194776589.19000003,2018,12,-0.7805557791958639,True,1.0515336035180558,True,0.0,True,比例外推,200304912.89000005,未知,200304912.89000005
6,605108,70360994.4,70360994.4,2019-03-31,一季度报告,70346982.7,2019,3,未知,未知,未知,未知,未知,未知,未知,未知,未知,未知
7,605108,197593455.2200001,197593455.2200001,2019-12-31,年度报告,178868072.94000003,2019,12,-0.8257668788225597,True,0.4173618966212802,True,0.0,True,比例外推,197593455.2200001,未知,197593455.2200001
8,605108,38344632.78000001,38344632.78000001,2020-03-31,一季度报告,36174997.91,2020,3,-0.503990094830155,True,未知,未知,未知,未知,未知,未知,未知,未知
