,SECURITYCODE_x,NETPROFIT_x,PARENTNETPROFIT_x,REPORTDATE_x,REPORTTIMETYPE_x,KCFJCXSYJLR,Year,Month,managesituationChangeRate,managesituationGreatChange,historyprofitextroplaterate,ifhistoryprofitextroplate,IfprofitdisStableChangeRage,IfprofitdisStable,predicttype,predict,analyst_prediction,adj_prediction
0,605288,85488950.51000002,85488950.51000002,2015-12-31,年度报告,82088450.50999999,2015,12,未知,未知,未知,未知,未知,未知,未知,未知,未知,未知
1,605288,163461455.24000004,163461455.24000004,2016-12-31,年度报告,161881655.23999998,2016,12,0.0,True,未知,未知,未知,未知,未知,未知,未知,未知
2,605288,147252389.19999996,147252389.19999996,2017-12-31,年度报告,181562096.65,2017,12,-0.47700850708515935,True,未知,未知,未知,未知,未知,未知,未知,未知
3,605288,134826697.02,134826697.02,2018-06-30,半年度报告,126048097.02000004,2018,6,未知,未知,未知,未知,未知,未知,未知,未知,未知,未知
4,605288,261458726.87,261458726.87,2018-12-31,年度报告,249927963.6,2018,12,-0.41943929755945825,True,0.18298573369567545,True,0.0,True,比例外推,261458726.87,未知,261458726.87
5,605288,37271956.74999999,37271956.74999999,2019-03-31,一季度报告,36194256.75,2019,3,未知,未知,未知,未知,未知,未知,未知,未知,未知,未知
6,605288,102866505.08,102866505.08,2019-06-30,半年度报告,92593405.08,2019,6,-0.36593454857594926,True,未知,未知,未知,未知,未知,未知,未知,未知
7,605288,215849950.77000004,215849950.77000004,2019-12-31,年度报告,201338710.51,2019,12,-0.6730308009473862,True,0.6829551148017072,True,0.0,True,比例外推,215849950.77000004,未知,215849950.77000004
8,605288,28230858.94000001,28230858.94000001,2020-03-31,一季度报告,26199258.94000001,2020,3,1.2936534049825554,False,未知,未知,未知,未知,未知,未知,未知,未知
