,SECURITYCODE_x,NETPROFIT_x,PARENTNETPROFIT_x,REPORTDATE_x,REPORTTIMETYPE_x,KCFJCXSYJLR,Year,Month,managesituationChangeRate,managesituationGreatChange,historyprofitextroplaterate,ifhistoryprofitextroplate,IfprofitdisStableChangeRage,IfprofitdisStable,predicttype,predict,analyst_prediction,adj_prediction
0,688018,449337.5500000001,449337.5500000001,2016-12-31,年度报告,848900.0,2016,12,未知,未知,未知,未知,未知,未知,未知,未知,未知,未知
1,688018,29371910.3,29371910.3,2017-12-31,年度报告,46195962.34,2017,12,0.0,True,未知,未知,未知,未知,未知,未知,未知,未知
2,688018,25396799.37999999,25396799.37999999,2018-03-31,一季度报告,24973133.62,2018,3,未知,未知,未知,未知,未知,未知,未知,未知,未知,未知
3,688018,44752797.83,44752797.83,2018-06-30,半年度报告,43960597.83,2018,6,未知,未知,未知,未知,未知,未知,未知,未知,未知,未知
4,688018,64028164.02,64028164.02,2018-09-30,三季度报告,62377009.34000001,2018,9,未知,未知,未知,未知,未知,未知,未知,未知,未知,未知
5,688018,93882617.51,93882617.51,2018-12-31,年度报告,88363998.11000001,2018,12,-0.9847017934682988,True,未知,未知,未知,未知,未知,未知,未知,未知
6,688018,28343748.0,28343748.0,2019-03-31,一季度报告,28125298.0,2019,3,-0.9823073158441431,True,未知,未知,未知,未知,未知,未知,未知,未知
7,688018,63644085.81,63644085.81,2019-06-30,半年度报告,61207085.80999998,2019,6,-0.9899595651716152,True,未知,未知,未知,未知,未知,未知,130403333.0,未知
8,688018,95564816.84999998,95564816.84999998,2019-09-30,三季度报告,82280555.47000001,2019,9,-0.9929821890588704,True,未知,未知,未知,未知,未知,未知,151964000.0,未知
9,688018,158505350.38,158505350.38,2019-12-31,年度报告,118130803.57000002,2019,12,-0.9952138365768068,True,5.296357414835677,False,0.0,True,比例外推,158505350.38,158205000.0,158505350.38
10,688018,9392486.6,9392486.6,2020-03-31,一季度报告,412377.01,2020,3,-0.9841468548901859,True,未知,未知,未知,未知,未知,未知,244983332.99999997,未知
