,SECURITYCODE_x,NETPROFIT_x,PARENTNETPROFIT_x,REPORTDATE_x,REPORTTIMETYPE_x,KCFJCXSYJLR,Year,Month,managesituationChangeRate,managesituationGreatChange,historyprofitextroplaterate,ifhistoryprofitextroplate,IfprofitdisStableChangeRage,IfprofitdisStable,predicttype,predict,analyst_prediction,adj_prediction
0,688029,24882947.31000001,24887848.809999995,2013-12-31,年度报告,17234846.68,2013,12,未知,未知,未知,未知,未知,未知,未知,未知,未知,未知
1,688029,29282359.73,29281451.520000003,2014-12-31,年度报告,24952261.81,2014,12,0.0,True,未知,未知,未知,未知,未知,未知,未知,未知
2,688029,7273152.52,7274077.409999997,2015-05-31,其他报告,,2015,5,未知,未知,未知,未知,未知,未知,未知,未知,未知,未知
3,688029,35364063.779999994,31311544.8,2015-12-31,年度报告,28921258.69,2015,12,-0.15024104821350034,True,未知,未知,未知,未知,未知,未知,未知,未知
4,688029,-26033457.85,-36454107.86,2016-12-31,年度报告,56017888.79999999,2016,12,-0.29637760341127817,True,0.30578282345503305,True,0.0,True,比例外推,-36454107.86,未知,-36454107.86
5,688029,73192506.78999999,66344180.84999999,2017-06-30,半年度报告,67406299.77,2017,6,未知,未知,未知,未知,未知,未知,未知,未知,未知,未知
6,688029,112148510.4,101181972.35999998,2017-12-31,年度报告,101165531.21999998,2017,12,-1.9558064646414233,False,1.80541061474106,True,0.0,True,前期平均,101181972.35999998,未知,101181972.35999998
7,688029,121749751.55,114987567.15,2018-06-30,半年度报告,102374967.15,2018,6,-0.6600342247958138,True,未知,未知,未知,未知,未知,未知,未知,未知
8,688029,172274096.24999997,163437002.94000003,2018-09-30,三季度报告,150192644.77,2018,9,未知,未知,未知,未知,未知,未知,未知,未知,未知,未知
9,688029,203393539.25,192698968.3,2018-12-31,年度报告,175199988.96999997,2018,12,-0.7781250306290292,True,23.038848332329064,False,0.0,True,比例外推,192698968.3,未知,192698968.3
10,688029,67449242.33999999,63938607.72999999,2019-03-31,一季度报告,63263216.01000001,2019,3,未知,未知,未知,未知,未知,未知,未知,未知,未知,未知
11,688029,156705429.05,150180287.67,2019-06-30,半年度报告,148714087.67000002,2019,6,-0.7956221922984285,True,未知,未知,未知,未知,未知,未知,277013333.0,未知
12,688029,236484740.24,227018284.75,2019-09-30,三季度报告,223833349.63,2019,9,-0.8555618758034843,True,未知,未知,未知,未知,未知,未知,274426667.0,未知
13,688029,315152622.23000014,303596010.76000005,2019-12-31,年度报告,276851905.50000006,2019,12,-0.8776610731995018,True,3.723762762193193,False,0.0,True,比例外推,303596010.76000005,273173333.0,273173333.0
14,688029,44690335.68000001,47376631.03000001,2020-03-31,一季度报告,41497238.92,2020,3,-0.6310863332671793,True,未知,未知,未知,未知,未知,未知,346085000.0,未知
