,SECURITYCODE_x,NETPROFIT_x,PARENTNETPROFIT_x,REPORTDATE_x,REPORTTIMETYPE_x,KCFJCXSYJLR,Year,Month,managesituationChangeRate,managesituationGreatChange,historyprofitextroplaterate,ifhistoryprofitextroplate,IfprofitdisStableChangeRage,IfprofitdisStable,predicttype,predict,analyst_prediction,adj_prediction
0,688011,66841720.23,66841720.23,2016-12-31,年度报告,56143200.00000001,2016,12,未知,未知,未知,未知,未知,未知,未知,未知,未知,未知
1,688011,40198021.04,40198021.04,2017-12-31,年度报告,58209028.41,2017,12,0.0,True,未知,未知,未知,未知,未知,未知,未知,未知
2,688011,33070914.570000004,33070914.570000004,2018-03-31,一季度报告,31065767.31,2018,3,未知,未知,未知,未知,未知,未知,未知,未知,未知,未知
3,688011,30394789.770000003,30394789.770000003,2018-06-30,半年度报告,26722789.77,2018,6,未知,未知,未知,未知,未知,未知,未知,未知,未知,未知
4,688011,30926331.41,30943499.139999993,2018-09-30,三季度报告,25324933.92,2018,9,未知,未知,未知,未知,未知,未知,未知,未知,未知,未知
5,688011,72636578.17,72676135.77999999,2018-12-31,年度报告,65305092.38999999,2018,12,0.6628112155941097,False,未知,未知,未知,未知,未知,未知,未知,未知
6,688011,6288670.070000001,6305931.7200000025,2019-03-31,一季度报告,4421136.73,2019,3,1.021163342444569,False,未知,未知,未知,未知,未知,未知,未知,未知
7,688011,5102078.8,5909983.880000003,2019-06-30,半年度报告,3175283.8799999994,2019,6,1.1991177019415848,False,未知,未知,未知,未知,未知,未知,72395714.0,未知
8,688011,14459738.579999998,14534102.34,2019-09-30,三季度报告,10653728.44,2019,9,1.1613206993050196,False,未知,未知,未知,未知,未知,未知,,未知
9,688011,60495777.72,60494145.42999999,2019-12-31,年度报告,40008292.67,2019,12,-0.07977878482157587,True,0.35718897127711646,True,0.0,True,比例外推,60494145.42999999,未知,60494145.42999999
10,688011,-1771825.37,-1737337.4800000002,2020-03-31,一季度报告,-8728760.28,2020,3,9.628911913962117,False,未知,未知,未知,未知,未知,未知,62320000.0,未知
