,SECURITYCODE_x,NETPROFIT_x,PARENTNETPROFIT_x,REPORTDATE_x,REPORTTIMETYPE_x,KCFJCXSYJLR,Year,Month,managesituationChangeRate,managesituationGreatChange,historyprofitextroplaterate,ifhistoryprofitextroplate,IfprofitdisStableChangeRage,IfprofitdisStable,predicttype,predict,analyst_prediction,adj_prediction
0,688085,3129631.15,3129631.15,2016-12-31,年度报告,-22157.52,2016,12,未知,未知,未知,未知,未知,未知,未知,未知,未知,未知
1,688085,4689040.66,5202069.109999999,2017-12-31,年度报告,27350341.17,2017,12,0.0,True,未知,未知,未知,未知,未知,未知,未知,未知
2,688085,61969780.64999999,62137433.24000001,2018-12-31,年度报告,53109714.38000001,2018,12,-0.3325647233777666,True,未知,未知,未知,未知,未知,未知,未知,未知
3,688085,19799245.58,19583538.79,2019-03-31,一季度报告,18589506.77,2019,3,未知,未知,未知,未知,未知,未知,未知,未知,未知,未知
4,688085,49664365.91000001,49422904.81999999,2019-06-30,半年度报告,43779410.35,2019,6,未知,未知,未知,未知,未知,未知,未知,未知,未知,未知
5,688085,98059846.65,97818385.56000002,2019-12-31,年度报告,87898209.05,2019,12,-0.9494974628411889,True,14.851741102815259,False,0.0,True,比例外推,97818385.56000002,未知,97818385.56000002
6,688085,11910770.590000005,11910770.590000005,2020-03-31,一季度报告,11379002.89,2020,3,-0.8419317979892443,True,未知,未知,未知,未知,未知,未知,125000000.0,未知
