,SECURITYCODE_x,NETPROFIT_x,PARENTNETPROFIT_x,REPORTDATE_x,REPORTTIMETYPE_x,KCFJCXSYJLR,Year,Month,managesituationChangeRate,managesituationGreatChange,historyprofitextroplaterate,ifhistoryprofitextroplate,IfprofitdisStableChangeRage,IfprofitdisStable,predicttype,predict,analyst_prediction,adj_prediction
0,688039,35674086.07,35674086.07,2016-12-31,年度报告,34712486.07,2016,12,未知,未知,未知,未知,未知,未知,未知,未知,未知,未知
1,688039,40681243.66,40681243.66,2017-12-31,年度报告,38231205.56,2017,12,0.0,True,未知,未知,未知,未知,未知,未知,未知,未知
2,688039,14789373.82,14789373.82,2018-09-30,三季度报告,14573273.82,2018,9,未知,未知,未知,未知,未知,未知,未知,未知,未知,未知
3,688039,14789373.82,14789373.82,2018-09-30,三季度报告,14573273.82,2018,9,未知,未知,未知,未知,未知,未知,未知,未知,未知,未知
4,688039,4235542.750000001,4235542.750000001,2018-09-30,三季度报告,14573273.82,2018,9,未知,未知,未知,未知,未知,未知,未知,未知,未知,未知
5,688039,4235542.750000001,4235542.750000001,2018-09-30,三季度报告,14573273.82,2018,9,未知,未知,未知,未知,未知,未知,未知,未知,未知,未知
6,688039,63898057.84,63898057.84,2018-12-31,年度报告,61327028.63,2018,12,-0.12308270690660583,True,未知,未知,未知,未知,未知,未知,未知,未知
7,688039,6123706.4300000025,6123706.4300000025,2019-03-31,一季度报告,5656238.1,2019,3,未知,未知,未知,未知,未知,未知,未知,未知,未知,未知
8,688039,12723128.630000005,12723128.630000005,2019-06-30,半年度报告,11420928.63,2019,6,未知,未知,未知,未知,未知,未知,未知,未知,未知,未知
9,688039,16596764.79,16596764.79,2019-09-30,三季度报告,13617188.95,2019,9,1.4121431038383205,False,未知,未知,未知,未知,未知,未知,90000000.0,未知
10,688039,16596764.79,16596764.79,2019-09-30,三季度报告,13617188.95,2019,9,1.4121431038383205,False,未知,未知,未知,未知,未知,未知,90000000.0,未知
11,688039,3873636.16,3873636.16,2019-09-30,三季度报告,13617188.95,2019,9,1.4121431038383205,False,未知,未知,未知,未知,未知,未知,90000000.0,未知
12,688039,3873636.16,3873636.16,2019-09-30,三季度报告,13617188.95,2019,9,1.4121431038383205,False,未知,未知,未知,未知,未知,未知,90000000.0,未知
13,688039,84678912.69000001,84678912.69000001,2019-12-31,年度报告,76710160.10000001,2019,12,-0.44170312407103984,True,0.6737026234042828,True,0.0,True,比例外推,84678912.69000001,87317500.0,84678912.69000001
14,688039,1733453.7400000002,1733453.7400000002,2020-03-31,一季度报告,-4779517.09,2020,3,4.8255709149009585,False,未知,未知,未知,未知,未知,未知,130257500.0,未知
