,SECURITYCODE_x,NETPROFIT_x,PARENTNETPROFIT_x,REPORTDATE_x,REPORTTIMETYPE_x,KCFJCXSYJLR,Year,Month,managesituationChangeRate,managesituationGreatChange,historyprofitextroplaterate,ifhistoryprofitextroplate,IfprofitdisStableChangeRage,IfprofitdisStable,predicttype,predict,analyst_prediction,adj_prediction
0,688099,73016491.54,73016491.54,2016-12-31,年度报告,65156521.71,2016,12,未知,未知,未知,未知,未知,未知,未知,未知,未知,未知
1,688099,77915262.97,78091337.21000001,2017-12-31,年度报告,160549339.83,2017,12,0.0,True,未知,未知,未知,未知,未知,未知,未知,未知
2,688099,127461588.5,127461588.5,2018-06-30,半年度报告,117797788.5,2018,6,未知,未知,未知,未知,未知,未知,未知,未知,未知,未知
3,688099,182161814.27,182231074.07,2018-09-30,三季度报告,171252610.76,2018,9,未知,未知,未知,未知,未知,未知,未知,未知,未知,未知
4,688099,282339549.88999987,282530860.94,2018-12-31,年度报告,270925168.87,2018,12,-0.06287306547224494,True,未知,未知,未知,未知,未知,未知,未知,未知
5,688099,46105882.69,46273375.04000001,2019-03-31,一季度报告,46081490.81,2019,3,未知,未知,未知,未知,未知,未知,未知,未知,380000000.0,未知
6,688099,105936943.58,106286539.56,2019-06-30,半年度报告,96238639.56,2019,6,-0.4271490540854196,True,未知,未知,未知,未知,未知,未知,313722000.0,未知
7,688099,131525864.96000002,132222144.11000004,2019-09-30,三季度报告,120648701.53,2019,9,-0.5991668625358822,True,未知,未知,未知,未知,未知,未知,,未知
8,688099,157055312.56000006,158041814.36,2019-12-31,年度报告,140481323.64000002,2019,12,-0.7413876604661039,True,2.7412875879779617,False,0.0,True,比例外推,158041814.36,247000000.0,247000000.0
9,688099,-39488872.68,-39294733.04000001,2020-03-31,一季度报告,-47100382.46000001,2020,3,0.5836697462433944,False,未知,未知,未知,未知,未知,未知,,未知
