,SECURITYCODE_x,NETPROFIT_x,PARENTNETPROFIT_x,REPORTDATE_x,REPORTTIMETYPE_x,KCFJCXSYJLR,Year,Month,managesituationChangeRate,managesituationGreatChange,historyprofitextroplaterate,ifhistoryprofitextroplate,IfprofitdisStableChangeRage,IfprofitdisStable,predicttype,predict,analyst_prediction,adj_prediction
0,688060,-647517.88,-647517.88,2013-12-31,年度报告,1869082.23,2013,12,未知,未知,未知,未知,未知,未知,未知,未知,未知,未知
1,688060,16503165.41,16503165.41,2014-12-31,年度报告,16066528.7,2014,12,-0.0,False,未知,未知,未知,未知,未知,未知,未知,未知
2,688060,24638361.06000001,24638361.06000001,2015-12-31,年度报告,23960460.0,2015,12,-1.0392359807293479,False,未知,未知,未知,未知,未知,未知,未知,未知
3,688060,29899458.79000001,29899458.79000001,2016-12-31,年度报告,29712713.410000004,2016,12,-1.0262808828242733,False,2.1078341030705303,False,0.0,True,未知,未知,未知,未知
4,688060,30184087.27,30184087.27,2017-12-31,年度报告,28756154.21,2017,12,-1.0216565083852476,False,0.4534929233509308,True,0.0,True,未知,未知,未知,未知
5,688060,41273336.67999999,41273336.67999999,2018-12-31,年度报告,40054868.50999999,2018,12,-1.0214522928657037,False,0.10690479938574173,True,0.0,True,前期平均,41273336.67999999,未知,41273336.67999999
6,688060,4409135.33,4409135.33,2019-03-31,一季度报告,3337311.1199999987,2019,3,未知,未知,未知,未知,未知,未知,未知,未知,未知,未知
7,688060,11468951.079999998,11468951.079999998,2019-06-30,半年度报告,10278374.63,2019,6,未知,未知,未知,未知,未知,未知,未知,未知,未知,未知
8,688060,65446106.07000002,65446106.07000002,2019-12-31,年度报告,63687419.04999999,2019,12,-1.0156885275600644,False,0.3738648727152036,True,0.0,True,前期平均,65446106.07000002,未知,65446106.07000002
9,688060,12444333.79,12444333.79,2020-03-31,一季度报告,11968988.29,2020,3,-1.1468582457867085,False,未知,未知,未知,未知,未知,未知,未知,未知
