,SECURITYCODE_x,NETPROFIT_x,PARENTNETPROFIT_x,REPORTDATE_x,REPORTTIMETYPE_x,KCFJCXSYJLR,Year,Month,managesituationChangeRate,managesituationGreatChange,historyprofitextroplaterate,ifhistoryprofitextroplate,IfprofitdisStableChangeRage,IfprofitdisStable,predicttype,predict,analyst_prediction,adj_prediction
0,688096,892203.4200000003,893588.1000000002,2013-12-31,年度报告,258783.68,2013,12,未知,未知,未知,未知,未知,未知,未知,未知,未知,未知
1,688096,35647.23,35647.23,2014-06-30,半年度报告,-356111.99,2014,6,未知,未知,未知,未知,未知,未知,未知,未知,未知,未知
2,688096,1559670.91,1559670.91,2014-12-31,年度报告,1323391.33,2014,12,0.0,True,未知,未知,未知,未知,未知,未知,未知,未知
3,688096,3406897.2499999995,3406897.2499999995,2015-06-30,半年度报告,2652105.53,2015,6,24.028688624614038,False,未知,未知,未知,未知,未知,未知,未知,未知
4,688096,11148195.23,11148195.23,2015-12-31,年度报告,9600251.36,2015,12,-0.4279540547435098,True,未知,未知,未知,未知,未知,未知,未知,未知
5,688096,8174468.549999999,8174468.549999999,2016-06-30,半年度报告,8157880.19,2016,6,-0.7381184830273351,True,未知,未知,未知,未知,未知,未知,未知,未知
6,688096,16903242.1,16903242.1,2016-12-31,年度报告,16663205.240000002,2016,12,-0.9199688019815921,True,8.093610625631046,False,0.0,True,比例外推,16903242.1,16530000.0,16903242.1
7,688096,18965.45,18965.45,2017-03-31,一季度报告,18365.45,2017,3,未知,未知,未知,未知,未知,未知,未知,未知,,未知
8,688096,10195190.04,10195190.04,2017-06-30,半年度报告,10197477.449999996,2017,6,-0.8908548715377955,True,3.7490852173390072,False,0.4346697269679848,False,未知,未知,未知,未知
9,688096,29021134.36000001,29021134.36000001,2017-12-31,年度报告,30082424.54000001,2017,12,-0.9472170241234372,True,1.6602801625041355,True,0.0,True,比例外推,29021134.36000001,未知,29021134.36000001
10,688096,-3156763.82,-3156763.82,2018-03-31,一季度报告,-3543762.82,2018,3,46.04361984556129,False,未知,未知,未知,未知,未知,未知,未知,未知
11,688096,17963105.479999997,17962912.379999995,2018-06-30,半年度报告,17620553.400000002,2018,6,-0.9124878088098886,True,0.7606196395247269,True,0.12130355278669075,False,平均增速,52746112.45887208,未知,52746112.45887208
12,688096,53567607.21999999,53521022.05,2018-12-31,年度报告,51560824.92,2018,12,-0.9692567696034057,True,1.0691370654980985,True,0.0,True,比例外推,53521022.05,未知,53521022.05
13,688096,3337871.0500000007,3463701.7100000014,2019-03-31,一季度报告,3463839.67,2019,3,-1.2826323003157076,False,未知,未知,未知,未知,未知,未知,未知,未知
14,688096,19502459.23,19750796.040000007,2019-06-30,半年度报告,19548050.0,2019,6,-0.9503313376969603,True,0.955736454435651,True,0.09947379036518361,True,比例外推,50313012.61947173,未知,50313012.61947173
15,688096,60605591.19000001,61255613.5,2019-12-31,年度报告,60195428.67000001,2019,12,-0.9833443480808138,True,1.3328616020146604,True,0.0,True,比例外推,61255613.5,未知,61255613.5
16,688096,3968417.41,4054915.76,2020-03-31,一季度报告,3594526.97,2020,3,-0.7327028496202691,True,-3.1275242424196943,True,0.06520441571064178,True,比例外推,-1019165681.7760751,未知,-1019165681.7760751
