,SECURITYCODE_x,NETPROFIT_x,PARENTNETPROFIT_x,REPORTDATE_x,REPORTTIMETYPE_x,KCFJCXSYJLR,Year,Month,managesituationChangeRate,managesituationGreatChange,historyprofitextroplaterate,ifhistoryprofitextroplate,IfprofitdisStableChangeRage,IfprofitdisStable,predicttype,predict,analyst_prediction,adj_prediction
0,688037,4928457.22,4928457.22,2016-12-31,年度报告,351813.36,2016,12,未知,未知,未知,未知,未知,未知,未知,未知,未知,未知
1,688037,26268063.629999995,26268063.629999995,2017-12-31,年度报告,15493205.69,2017,12,0.0,True,未知,未知,未知,未知,未知,未知,未知,未知
2,688037,3191548.47,3191548.47,2018-09-30,三季度报告,-3885751.5299999993,2018,9,未知,未知,未知,未知,未知,未知,未知,未知,未知,未知
3,688037,30477913.09,30477913.09,2018-12-31,年度报告,20098187.26,2018,12,-0.8123783583967206,True,未知,未知,未知,未知,未知,未知,未知,未知
4,688037,-9025228.43,-9025228.43,2019-03-31,一季度报告,-10486530.16,2019,3,未知,未知,未知,未知,未知,未知,未知,未知,未知,未知
5,688037,2804986.04,2804986.04,2019-06-30,半年度报告,-416430.9699999999,2019,6,未知,未知,未知,未知,未知,未知,未知,未知,未知,未知
6,688037,919227.73,919227.73,2019-09-30,三季度报告,-6078572.270000001,2019,9,0.5442213290277867,False,未知,未知,未知,未知,未知,未知,35000000.0,未知
7,688037,29275895.55000001,29275895.55000001,2019-12-31,年度报告,14932657.22,2019,12,-0.8382941376121629,True,0.9539302627074843,True,0.0,True,比例外推,29275895.55000001,30666667.000000004,29275895.55000001
8,688037,-7869353.56,-7869353.56,2020-03-31,一季度报告,-10688544.689999998,2020,3,-1.5460756210466353,False,未知,未知,未知,未知,未知,未知,55000000.0,未知
