,SECURITYCODE_x,NETPROFIT_x,PARENTNETPROFIT_x,REPORTDATE_x,REPORTTIMETYPE_x,KCFJCXSYJLR,Year,Month,managesituationChangeRate,managesituationGreatChange,historyprofitextroplaterate,ifhistoryprofitextroplate,IfprofitdisStableChangeRage,IfprofitdisStable,predicttype,predict,analyst_prediction,adj_prediction
0,688033,194542307.78,194542307.78,2016-12-31,年度报告,195470130.48,2016,12,未知,未知,未知,未知,未知,未知,未知,未知,未知,未知
1,688033,221930941.35,221930941.35,2017-12-31,年度报告,212999570.52000007,2017,12,0.0,True,未知,未知,未知,未知,未知,未知,未知,未知
2,688033,89170669.81,89170669.81,2018-03-31,一季度报告,88813569.80999999,2018,3,未知,未知,未知,未知,未知,未知,未知,未知,未知,未知
3,688033,148094384.67000002,148094384.67000002,2018-06-30,半年度报告,145887084.67000002,2018,6,未知,未知,未知,未知,未知,未知,未知,未知,未知,未知
4,688033,207538031.62,207538031.62,2018-09-30,三季度报告,206789264.88,2018,9,未知,未知,未知,未知,未知,未知,未知,未知,未知,未知
5,688033,263110346.63,263110346.63,2018-12-31,年度报告,258828895.91,2018,12,-0.12341061324480339,True,未知,未知,未知,未知,未知,未知,未知,未知
6,688033,75606403.55,75602688.64999998,2019-03-31,一季度报告,76367355.46000001,2019,3,1.1816849441023616,False,未知,未知,未知,未知,未知,未知,未知,未知
7,688033,153324238.63000005,153324519.34000003,2019-06-30,半年度报告,154019619.34,2019,6,0.31363730105972815,True,未知,未知,未知,未知,未知,未知,300931818.0,未知
8,688033,210994344.4,211113520.68,2019-09-30,三季度报告,209102285.75000003,2019,9,-0.06261851737996166,True,未知,未知,未知,未知,未知,未知,,未知
9,688033,270562281.23000014,270724056.35999995,2019-12-31,年度报告,271707208.12,2019,12,-0.2606056345873166,True,0.26351619067793447,True,0.0,True,比例外推,270724056.35999995,未知,270724056.35999995
10,688033,18865126.169999994,19214432.33,2020-03-31,一季度报告,22063292.720000006,2020,3,1.5730930006655501,False,未知,未知,未知,未知,未知,未知,,未知
