,SECURITYCODE_x,NETPROFIT_x,PARENTNETPROFIT_x,REPORTDATE_x,REPORTTIMETYPE_x,KCFJCXSYJLR,Year,Month,managesituationChangeRate,managesituationGreatChange,historyprofitextroplaterate,ifhistoryprofitextroplate,IfprofitdisStableChangeRage,IfprofitdisStable,predicttype,predict,analyst_prediction,adj_prediction
0,688006,57144441.32,56783043.77,2015-12-31,年度报告,40278543.77,2015,12,未知,未知,未知,未知,未知,未知,未知,未知,未知,未知
1,688006,91920083.32,89706630.71000002,2016-12-31,年度报告,74572600.0,2016,12,0.0,True,未知,未知,未知,未知,未知,未知,未知,未知
2,688006,180587148.52000004,180587148.52000004,2017-12-31,年度报告,182303396.22,2017,12,-0.37832474410337597,True,未知,未知,未知,未知,未知,未知,未知,未知
3,688006,136668667.55,136668667.55,2018-06-30,半年度报告,130111067.55,2018,6,未知,未知,未知,未知,未知,未知,未知,未知,未知,未知
4,688006,249622744.94,249622744.94,2018-09-30,三季度报告,241278774.82,2018,9,未知,未知,未知,未知,未知,未知,未知,未知,未知,未知
5,688006,286237510.24,286237510.24,2018-12-31,年度报告,276388337.02000004,2018,12,-0.6835630786114814,True,1.4229393137787698,True,0.0,True,比例外推,286237510.24,未知,286237510.24
6,688006,60638037.38000001,60638037.38000001,2019-03-31,一季度报告,51377477.08,2019,3,未知,未知,未知,未知,未知,未知,未知,未知,未知,未知
7,688006,179036119.11,179036119.11,2019-06-30,半年度报告,169278519.11,2019,6,-0.5818760631503648,True,未知,未知,未知,未知,未知,未知,365526875.0,未知
8,688006,285354440.54,285354440.54,2019-09-30,三季度报告,253677660.13,2019,9,-0.7710767849550914,True,未知,未知,未知,未知,未知,未知,321000000.0,未知
9,688006,291187625.68999994,291187625.68999994,2019-12-31,年度报告,243436075.4400001,2019,12,-0.8003600531876958,True,1.1007700111831276,True,0.0,True,比例外推,291187625.68999994,321000000.0,291187625.68999994
10,688006,48442897.56,48442897.56,2020-03-31,一季度报告,35732848.67,2020,3,-0.057613936910700346,True,未知,未知,未知,未知,未知,未知,392786667.0,未知
