,SECURITYCODE_x,NETPROFIT_x,PARENTNETPROFIT_x,REPORTDATE_x,REPORTTIMETYPE_x,KCFJCXSYJLR,Year,Month,managesituationChangeRate,managesituationGreatChange,historyprofitextroplaterate,ifhistoryprofitextroplate,IfprofitdisStableChangeRage,IfprofitdisStable,predicttype,predict,analyst_prediction,adj_prediction
0,688068,28799459.74,28799459.74,2016-12-31,年度报告,27135556.51,2016,12,未知,未知,未知,未知,未知,未知,未知,未知,未知,未知
1,688068,30072299.820000004,30072299.820000004,2017-12-31,年度报告,28058757.03,2017,12,0.0,True,未知,未知,未知,未知,未知,未知,未知,未知
2,688068,18475234.66,18659751.07,2018-09-30,三季度报告,16971029.05,2018,9,未知,未知,未知,未知,未知,未知,未知,未知,未知,未知
3,688068,48187687.55000001,48140837.24999999,2018-12-31,年度报告,37507437.7,2018,12,-0.04232599726720886,True,未知,未知,未知,未知,未知,未知,未知,未知
4,688068,-1981591.56,-1845449.8,2019-03-31,一季度报告,-2176604.49,2019,3,未知,未知,未知,未知,未知,未知,未知,未知,未知,未知
5,688068,11262168.600000005,11447297.65,2019-06-30,半年度报告,9089275.269999998,2019,6,未知,未知,未知,未知,未知,未知,未知,未知,未知,未知
6,688068,13009817.720000004,13227087.2,2019-09-30,三季度报告,11099256.739999998,2019,9,0.5588142868005119,False,未知,未知,未知,未知,未知,未知,52772500.0,未知
7,688068,33748120.92999999,33877755.129999995,2019-12-31,年度报告,26917288.46,2019,12,-0.4023481680851068,True,0.6370391478069832,True,0.0,True,比例外推,33877755.129999995,,33877755.129999995
8,688068,-58405.23000000001,512677.27,2020-03-31,一季度报告,479433.86,2020,3,-15.53349939580889,False,未知,未知,未知,未知,未知,未知,未知,未知
