,SECURITYCODE_x,NETPROFIT_x,PARENTNETPROFIT_x,REPORTDATE_x,REPORTTIMETYPE_x,KCFJCXSYJLR,Year,Month,managesituationChangeRate,managesituationGreatChange,historyprofitextroplaterate,ifhistoryprofitextroplate,IfprofitdisStableChangeRage,IfprofitdisStable,predicttype,predict,analyst_prediction,adj_prediction
0,688015,54645092.24000001,53696716.86000001,2016-12-31,年度报告,49997240.85000001,2016,12,未知,未知,未知,未知,未知,未知,未知,未知,未知,未知
1,688015,45769928.35999999,44874237.69,2017-12-31,年度报告,36721431.72000001,2017,12,0.0,True,未知,未知,未知,未知,未知,未知,未知,未知
2,688015,-17698449.38,-16232101.56,2018-03-31,一季度报告,-17282085.54,2018,3,未知,未知,未知,未知,未知,未知,未知,未知,未知,未知
3,688015,14713218.64,18360279.73,2018-06-30,半年度报告,15534328.39,2018,6,未知,未知,未知,未知,未知,未知,未知,未知,未知,未知
4,688015,8328631.260000003,11128312.88,2018-09-30,三季度报告,6688161.03,2018,9,未知,未知,未知,未知,未知,未知,未知,未知,未知,未知
5,688015,65910193.98000001,66395199.72999999,2018-12-31,年度报告,60159574.16,2018,12,0.1939081881490631,True,未知,未知,未知,未知,未知,未知,未知,未知
6,688015,-26134223.820000004,-24289876.04000001,2019-03-31,一季度报告,-26014876.15,2019,3,-4.087563834928459,False,未知,未知,未知,未知,未知,未知,未知,未知
7,688015,27449977.460000005,32345872.570000004,2019-06-30,半年度报告,28170624.45,2019,6,2.7140134716301616,False,未知,未知,未知,未知,未知,未知,95489286.0,未知
8,688015,40777426.81999999,47336548.02,2019-09-30,三季度报告,35736011.06999999,2019,9,5.561113169032289,False,未知,未知,未知,未知,未知,未知,97000000.0,未知
9,688015,125160804.91000004,127291455.56,2019-12-31,年度报告,98072260.8,2019,12,-0.17091592452934243,True,0.31275567312884694,True,0.0,True,比例外推,127291455.56,99333333.0,99333333.0
10,688015,21210253.65,22923599.69,2020-03-31,一季度报告,17581655.52,2020,3,-3.0909399344081994,False,未知,未知,未知,未知,未知,未知,188447857.0,未知
