,SECURITYCODE_x,NETPROFIT_x,PARENTNETPROFIT_x,REPORTDATE_x,REPORTTIMETYPE_x,KCFJCXSYJLR,Year,Month,managesituationChangeRate,managesituationGreatChange,historyprofitextroplaterate,ifhistoryprofitextroplate,IfprofitdisStableChangeRage,IfprofitdisStable,predicttype,predict,analyst_prediction,adj_prediction
0,688090,33397268.08999999,33397268.08999999,2016-12-31,年度报告,23799787.6,2016,12,未知,未知,未知,未知,未知,未知,未知,未知,未知,未知
1,688090,58423778.09,58423778.09,2017-12-31,年度报告,37138298.59,2017,12,0.0,True,未知,未知,未知,未知,未知,未知,未知,未知
2,688090,54529852.95,43065597.11,2018-09-30,三季度报告,27488532.51,2018,9,未知,未知,未知,未知,未知,未知,未知,未知,未知,未知
3,688090,68578127.43,57079783.83000001,2018-12-31,年度报告,42853748.04,2018,12,-0.4283617187756577,True,未知,未知,未知,未知,未知,未知,未知,未知
4,688090,6522918.369999999,5861739.159999997,2019-03-31,一季度报告,5022197.75,2019,3,未知,未知,未知,未知,未知,未知,未知,未知,未知,未知
5,688090,17719357.240000002,17719357.240000002,2019-06-30,半年度报告,14141226.06,2019,6,未知,未知,未知,未知,未知,未知,未知,未知,未知,未知
6,688090,45976600.63999999,42256784.12000001,2019-09-30,三季度报告,33608656.24,2019,9,-0.3875415706581327,True,未知,未知,未知,未知,未知,未知,未知,未知
7,688090,65500570.66,61097546.94000001,2019-12-31,年度报告,46990289.52,2019,12,-0.5130040824738223,True,0.4937343949569888,True,0.0,True,比例外推,61097546.94000001,未知,61097546.94000001
8,688090,15116779.590000002,14260859.410000002,2020-03-31,一季度报告,6914008.88,2020,3,4.119988660842309,False,未知,未知,未知,未知,未知,未知,未知,未知
