,SECURITYCODE_x,NETPROFIT_x,PARENTNETPROFIT_x,REPORTDATE_x,REPORTTIMETYPE_x,KCFJCXSYJLR,Year,Month,managesituationChangeRate,managesituationGreatChange,historyprofitextroplaterate,ifhistoryprofitextroplate,IfprofitdisStableChangeRage,IfprofitdisStable,predicttype,predict,analyst_prediction,adj_prediction
0,688003,20958024.07,20958024.07,2013-12-31,年度报告,16502776.69,2013,12,未知,未知,未知,未知,未知,未知,未知,未知,未知,未知
1,688003,3821285.36,3821285.36,2014-06-30,半年度报告,409459.42,2014,6,未知,未知,未知,未知,未知,未知,未知,未知,未知,未知
2,688003,51759402.02,51759402.02,2014-12-31,年度报告,39714123.99,2014,12,0.0,True,未知,未知,未知,未知,未知,未知,未知,未知
3,688003,4344237.19,4344237.19,2015-06-30,半年度报告,2029018.37,2015,6,4.484548285606182,False,未知,未知,未知,未知,未知,未知,未知,未知
4,688003,27693331.57,27693331.57,2015-12-31,年度报告,23428178.430000003,2015,12,-0.5950875927449519,True,未知,未知,未知,未知,未知,未知,未知,未知
5,688003,27693331.57,27693331.57,2015-12-31,年度报告,23428178.430000003,2015,12,-0.5950875927449519,True,未知,未知,未知,未知,未知,未知,未知,未知
6,688003,27732411.21,27732411.21,2015-12-31,年度报告,23428178.430000003,2015,12,-0.5950875927449519,True,未知,未知,未知,未知,未知,未知,未知,未知
7,688003,27732411.21,27732411.21,2015-12-31,年度报告,23428178.430000003,2015,12,-0.5950875927449519,True,未知,未知,未知,未知,未知,未知,未知,未知
8,688003,1734688.6799999997,1734688.6799999997,2016-06-30,半年度报告,378709.88,2016,6,3.824327759599148,False,未知,未知,未知,未知,未知,未知,,未知
9,688003,31489793.47,31489793.47,2016-12-31,年度报告,21764719.56,2016,12,-0.2432104451923839,True,0.23833025839707636,True,0.0,True,比例外推,31489793.47,49925000.0,49925000.0
10,688003,1984585.5600000003,1984585.5600000003,2017-06-30,半年度报告,1526032.39,2017,6,11.08172066356022,False,0.5751187583212296,True,0.048500482249691765,True,前期平均,32336497.875,,32336497.875
11,688003,51580674.42,51580674.42,2017-12-31,年度报告,40099160.96000001,2017,12,-0.33445025322358835,True,0.20733266063577366,True,0.0,True,比例外推,51580674.42,45000000.0,45000000.0
12,688003,5584414.1400000015,5584414.1400000015,2018-06-30,半年度报告,3880914.14,2018,6,9.560403387193848,False,0.3470604503357761,True,0.039251717053120146,True,前期平均,26976999.01,未知,26976999.01
13,688003,77554484.59,77554484.59,2018-09-30,三季度报告,71013002.11999999,2018,9,未知,未知,未知,未知,未知,未知,未知,未知,未知,未知
14,688003,94473325.81,94473325.81,2018-12-31,年度报告,85881471.69999999,2018,12,-0.5936845668331608,True,0.7430872190388141,True,0.0,True,比例外推,94473325.81,未知,94473325.81
15,688003,769367.7399999999,769367.7399999999,2019-03-31,一季度报告,562037.35,2019,3,未知,未知,未知,未知,未知,未知,未知,未知,未知,未知
16,688003,9187114.36,9187114.36,2019-06-30,半年度报告,7617214.360000001,2019,6,2.7529494669605565,False,2.0029590611742583,False,0.016148437116270842,True,去年同期,91187671.91999999,138680000.0,138680000.0
17,688003,15418097.05,15418097.05,2019-09-30,三季度报告,10394693.82,2019,9,-0.7297638662574213,True,未知,未知,未知,未知,未知,未知,149000000.0,未知
18,688003,83178620.64,83178620.64,2019-12-31,年度报告,66729139.52,2019,12,-0.778159349315703,True,1.2745345779224309,True,0.0,True,比例外推,83178620.64,,83178620.64
19,688003,-1846257.38,-1846257.38,2020-03-31,一季度报告,-5105147.96,2020,3,26.24058077870539,False,未知,未知,未知,未知,未知,未知,136000000.0,未知
