,SECURITYCODE_x,NETPROFIT_x,PARENTNETPROFIT_x,REPORTDATE_x,REPORTTIMETYPE_x,KCFJCXSYJLR,Year,Month,managesituationChangeRate,managesituationGreatChange,historyprofitextroplaterate,ifhistoryprofitextroplate,IfprofitdisStableChangeRage,IfprofitdisStable,predicttype,predict,analyst_prediction,adj_prediction
0,688025,2821140.18,2821140.18,2014-12-31,年度报告,650440.18,2014,12,未知,未知,未知,未知,未知,未知,未知,未知,未知,未知
1,688025,24878947.70000001,24878947.70000001,2015-12-31,年度报告,20197247.7,2015,12,0.0,True,未知,未知,未知,未知,未知,未知,未知,未知
2,688025,4922942.5200000005,4922942.5200000005,2016-04-30,其他报告,,2016,4,未知,未知,未知,未知,未知,未知,未知,未知,未知,未知
3,688025,6180731.17,6180731.17,2016-12-31,年度报告,18556596.98,2016,12,-0.8866053253530495,True,未知,未知,未知,未知,未知,未知,未知,未知
4,688025,87669062.49,87669062.49,2017-12-31,年度报告,80813751.66,2017,12,-0.5435588278465766,True,0.5537392374511125,True,0.0,True,比例外推,87669062.49,未知,87669062.49
5,688025,69419033.08,69419033.08,2018-09-30,三季度报告,59400333.08000001,2018,9,未知,未知,未知,未知,未知,未知,未知,未知,未知,未知
6,688025,93361037.0,93361037.0,2018-12-31,年度报告,82650325.17999999,2018,12,-0.9678205731888395,True,4.645200831401897,False,0.0,True,比例外推,93361037.0,未知,93361037.0
7,688025,16384861.09,16384861.09,2019-03-31,一季度报告,14966866.02,2019,3,未知,未知,未知,未知,未知,未知,未知,未知,未知,未知
8,688025,39210904.15000001,39210904.15000001,2019-06-30,半年度报告,30627892.03,2019,6,未知,未知,未知,未知,未知,未知,未知,未知,未知,未知
9,688025,56501310.98,56501310.98,2019-09-30,三季度报告,42912710.97999999,2019,9,-0.9593607105309454,True,未知,未知,未知,未知,未知,未知,96723333.0,未知
10,688025,64650514.65,64650514.65,2019-12-31,年度报告,47349946.72,2019,12,-0.9697824673905453,True,0.989584278431753,True,0.0,True,比例外推,64650514.65,91523333.0,91523333.0
11,688025,6981421.61,6981421.61,2020-03-31,一季度报告,3158540.86,2020,3,-0.82782031751726,True,未知,未知,未知,未知,未知,未知,98000000.0,未知
