,SECURITYCODE_x,NETPROFIT_x,PARENTNETPROFIT_x,REPORTDATE_x,REPORTTIMETYPE_x,KCFJCXSYJLR,Year,Month,managesituationChangeRate,managesituationGreatChange,historyprofitextroplaterate,ifhistoryprofitextroplate,IfprofitdisStableChangeRage,IfprofitdisStable,predicttype,predict,analyst_prediction,adj_prediction
0,688027,58753640.38999999,58753640.38999999,2016-12-31,年度报告,29864104.3,2016,12,未知,未知,未知,未知,未知,未知,未知,未知,未知,未知
1,688027,74314542.74000001,74314641.74000001,2017-12-31,年度报告,30734047.27,2017,12,0.0,True,未知,未知,未知,未知,未知,未知,未知,未知
2,688027,71891441.12,72490620.21,2018-12-31,年度报告,23002267.57,2018,12,-0.20939242544278372,True,未知,未知,未知,未知,未知,未知,未知,未知
3,688027,-18997326.24,-18899539.83,2019-03-31,一季度报告,-42741013.84,2019,3,未知,未知,未知,未知,未知,未知,未知,未知,未知,未知
4,688027,-23432429.9,-23227884.69,2019-06-30,半年度报告,-64473251.07999999,2019,6,未知,未知,未知,未知,未知,未知,未知,未知,未知,未知
5,688027,49009338.11,49306077.17,2019-12-31,年度报告,14693277.170000002,2019,12,-0.18274499057642496,True,0.08052036826513492,True,0.0,True,比例外推,49306077.17,未知,49306077.17
6,688027,-8896666.82,-8828236.799999999,2020-03-31,一季度报告,-21083997.28,2020,3,-4.092732084912598,False,未知,未知,未知,未知,未知,未知,未知,未知
