,SECURITYCODE_x,NETPROFIT_x,PARENTNETPROFIT_x,REPORTDATE_x,REPORTTIMETYPE_x,KCFJCXSYJLR,Year,Month,managesituationChangeRate,managesituationGreatChange,historyprofitextroplaterate,ifhistoryprofitextroplate,IfprofitdisStableChangeRage,IfprofitdisStable,predicttype,predict,analyst_prediction,adj_prediction
0,688002,9721500.0,9693300.0,2016-12-31,年度报告,6534963.81,2016,12,未知,未知,未知,未知,未知,未知,未知,未知,未知,未知
1,688002,64351700.0,64350900.00000001,2017-12-31,年度报告,48525868.67,2017,12,0.0,True,未知,未知,未知,未知,未知,未知,未知,未知
2,688002,3292796.96,3292796.96,2018-03-31,一季度报告,,2018,3,未知,未知,未知,未知,未知,未知,未知,未知,未知,未知
3,688002,31902202.780000005,31903177.95,2018-06-30,半年度报告,28226377.95000001,2018,6,未知,未知,未知,未知,未知,未知,未知,未知,未知,未知
4,688002,41556908.83,41560812.35,2018-09-30,三季度报告,35926087.379999995,2018,9,未知,未知,未知,未知,未知,未知,未知,未知,未知,未知
5,688002,125171874.67,125168101.47,2018-12-31,年度报告,112525070.21,2018,12,-0.8489317298532906,True,未知,未知,未知,未知,未知,未知,未知,未知
6,688002,23247096.48,23240608.79000001,2019-03-31,一季度报告,19851002.66,2019,3,1.9523533087809946,False,未知,未知,未知,未知,未知,未知,未知,未知
7,688002,64702205.47000001,64689947.45,2019-06-30,半年度报告,48470547.45,2019,6,-0.6952718259914465,True,未知,未知,未知,未知,未知,未知,205267857.0,未知
8,688002,101183103.55,101163065.60999998,2019-09-30,三季度报告,75472443.08999999,2019,9,-0.7660677785306775,True,未知,未知,未知,未知,未知,未知,237560000.0,未知
9,688002,202098173.49000004,202065859.84000003,2019-12-31,年度报告,175741639.79999998,2019,12,-0.9223347894594571,True,2.379680496319857,False,0.0,True,比例外推,202065859.84000003,未知,202065859.84000003
10,688002,85062952.74000001,85030723.42,2020-03-31,一季度报告,81603795.42,2020,3,-0.5818187441875322,True,未知,未知,未知,未知,未知,未知,341066667.0,未知
