,SECURITYCODE_x,NETPROFIT_x,PARENTNETPROFIT_x,REPORTDATE_x,REPORTTIMETYPE_x,KCFJCXSYJLR,Year,Month,managesituationChangeRate,managesituationGreatChange,historyprofitextroplaterate,ifhistoryprofitextroplate,IfprofitdisStableChangeRage,IfprofitdisStable,predicttype,predict,analyst_prediction,adj_prediction
0,688066,18414496.11,18440537.96,2014-12-31,年度报告,17985673.77,2014,12,未知,未知,未知,未知,未知,未知,未知,未知,未知,未知
1,688066,18414496.11,18440537.96,2014-12-31,年度报告,17969104.240000002,2014,12,未知,未知,未知,未知,未知,未知,未知,未知,未知,未知
2,688066,-41277597.74,-40915554.19000001,2015-12-31,年度报告,27134342.31,2015,12,0.0,True,未知,未知,未知,未知,未知,未知,未知,未知
3,688066,-41277597.74,-40915554.19000001,2015-12-31,年度报告,27053786.669999994,2015,12,0.0,True,未知,未知,未知,未知,未知,未知,未知,未知
4,688066,-14427112.55,-13951744.5,2016-06-30,半年度报告,-13351798.91,2016,6,未知,未知,未知,未知,0.0,True,未知,未知,未知,未知
5,688066,31632003.56000001,32748344.03,2016-12-31,年度报告,33238793.65,2016,12,-1.446113560822738,False,未知,未知,未知,未知,未知,未知,未知,未知
6,688066,46237915.53,47596131.49,2017-12-31,年度报告,43294479.14,2017,12,-0.4178523635067524,True,-3.7670789442228454,True,未知,未知,未知,未知,未知,未知
7,688066,-52567984.8,-51912410.62000001,2018-06-30,半年度报告,-52173810.62000001,2018,6,未知,未知,未知,未知,0.0,True,未知,未知,未知,未知
8,688066,-70587357.95999998,-69599322.69,2018-09-30,三季度报告,-69505876.0,2018,9,未知,未知,未知,未知,未知,未知,未知,未知,未知,未知
9,688066,63527840.76000001,63594336.71000001,2018-12-31,年度报告,62037048.23,2018,12,-0.6017446742803028,True,-10.587364897825307,True,未知,未知,未知,未知,未知,未知
10,688066,-40064771.15,-40031376.92000001,2019-03-31,一季度报告,-40115480.74999999,2019,3,未知,未知,未知,未知,未知,未知,未知,未知,未知,未知
11,688066,-29094935.879999995,-29066026.870000005,2019-06-30,半年度报告,-29221726.87,2019,6,-1.3502986880714514,False,未知,未知,0.0,True,未知,未知,80548571.0,未知
12,688066,2094590.25,2200040.45,2019-09-30,三季度报告,-2875219.06,2019,9,-1.2608752706176511,False,未知,未知,未知,未知,未知,未知,93100000.0,未知
13,688066,83398654.39,83519220.81,2019-12-31,年度报告,73106138.94000001,2019,12,-0.7101350228545058,True,0.6316400865031389,True,未知,未知,True,True,97280000.0,97280000.0
14,688066,-35695234.98,-35672297.53999999,2020-03-31,一季度报告,-39919529.66,2020,3,-1.4596181528419887,False,未知,未知,未知,未知,未知,未知,144886667.0,未知
