,SECURITYCODE_x,NETPROFIT_x,PARENTNETPROFIT_x,REPORTDATE_x,REPORTTIMETYPE_x,KCFJCXSYJLR,Year,Month,managesituationChangeRate,managesituationGreatChange,historyprofitextroplaterate,ifhistoryprofitextroplate,IfprofitdisStableChangeRage,IfprofitdisStable,predicttype,predict,analyst_prediction,adj_prediction
0,688012,-238789177.86000004,-238789177.86000004,2016-12-31,年度报告,-233094400.0,2016,12,未知,未知,未知,未知,未知,未知,未知,未知,未知,未知
1,688012,29918655.24000001,29918655.24000001,2017-12-31,年度报告,-69437227.39000002,2017,12,-0.0,False,未知,未知,未知,未知,未知,未知,未知,未知
2,688012,-54748141.06,-54748141.06,2018-03-31,一季度报告,-73620449.28,2018,3,未知,未知,未知,未知,未知,未知,未知,未知,未知,未知
3,688012,-13251639.07,-13251639.07,2018-06-30,半年度报告,-44908964.25000001,2018,6,未知,未知,未知,未知,未知,未知,未知,未知,未知,未知
4,688012,27029166.21,27029886.06,2018-09-30,三季度报告,-29795075.16,2018,9,未知,未知,未知,未知,未知,未知,未知,未知,未知,未知
5,688012,90836801.20000002,90869243.54,2018-12-31,年度报告,104283115.15999998,2018,12,-8.981280440062985,False,未知,未知,未知,未知,未知,未知,未知,未知
6,688012,13828602.13,13840957.35,2019-03-31,一季度报告,8129953.319999997,2019,3,3.361594261224402,False,未知,未知,未知,未知,未知,未知,未知,未知
7,688012,30323893.38,30371124.25,2019-06-30,半年度报告,22085109.53,2019,6,17.019595658969305,False,未知,未知,未知,未知,未知,未知,172301309.0,未知
8,688012,134828978.01999998,134915783.53000003,2019-09-30,三季度报告,119409790.36,2019,9,-9.834500332150647,False,未知,未知,未知,未知,未知,未知,191978750.0,未知
9,688012,188582806.72,188564219.09,2019-12-31,年度报告,147539304.73,2019,12,-3.6287713207144505,False,-1.869790529181183,True,0.0,True,前期平均,188564219.09,190203332.99999997,188564219.09
10,688012,26181187.38,26224930.680000003,2020-03-31,一季度报告,-6193811.949999997,2020,3,-18.267774111597788,False,未知,未知,未知,未知,未知,未知,269015000.0,未知
