,SECURITYCODE_x,NETPROFIT_x,PARENTNETPROFIT_x,REPORTDATE_x,REPORTTIMETYPE_x,KCFJCXSYJLR,Year,Month,managesituationChangeRate,managesituationGreatChange,historyprofitextroplaterate,ifhistoryprofitextroplate,IfprofitdisStableChangeRage,IfprofitdisStable,predicttype,predict,analyst_prediction,adj_prediction
0,688116,9751244.47,9751244.47,2016-12-31,年度报告,5211744.470000002,2016,12,未知,未知,未知,未知,未知,未知,未知,未知,未知,未知
1,688116,-14799704.61,-14799704.61,2017-12-31,年度报告,10088763.46,2017,12,0.0,True,未知,未知,未知,未知,未知,未知,未知,未知
2,688116,45673790.8,45673790.8,2018-09-30,三季度报告,43555376.4,2018,9,未知,未知,未知,未知,未知,未知,未知,未知,未知,未知
3,688116,67453067.13,67584864.85,2018-12-31,年度报告,64998718.50000001,2018,12,-1.6588810200584132,False,未知,未知,未知,未知,未知,未知,未知,未知
4,688116,25439439.06,25408486.08,2019-03-31,一季度报告,21934008.6,2019,3,未知,未知,未知,未知,未知,未知,未知,未知,82355000.0,未知
5,688116,51922313.60000001,51960184.86000001,2019-06-30,半年度报告,44568084.86000001,2019,6,未知,未知,未知,未知,未知,未知,未知,未知,96000000.0,未知
6,688116,90793512.08,91005986.21,2019-09-30,三季度报告,81939563.39,2019,9,-0.7865024054451815,True,未知,未知,未知,未知,未知,未知,103637444.0,未知
7,688116,109875725.99,110088221.58,2019-12-31,年度报告,95997268.29,2019,12,-0.8554366037765673,True,-27.72223420981591,True,0.0,True,比例外推,110088221.58,128000000.0,128000000.0
8,688116,12766421.849999996,12842205.240000002,2020-03-31,一季度报告,6947618.75,2020,3,-0.6166879133222523,True,未知,未知,未知,未知,未知,未知,167333332.99999997,未知
