,SECURITYCODE_x,NETPROFIT_x,PARENTNETPROFIT_x,REPORTDATE_x,REPORTTIMETYPE_x,KCFJCXSYJLR,Year,Month,managesituationChangeRate,managesituationGreatChange,historyprofitextroplaterate,ifhistoryprofitextroplate,IfprofitdisStableChangeRage,IfprofitdisStable,predicttype,predict,analyst_prediction,adj_prediction
0,688157,15577534.39,15577534.39,2016-12-31,年度报告,13011917.66,2016,12,未知,未知,未知,未知,未知,未知,未知,未知,未知,未知
1,688157,27035127.78,27238188.2,2017-12-31,年度报告,23354788.2,2017,12,0.0,True,未知,未知,未知,未知,未知,未知,未知,未知
2,688157,51472786.28999998,52272533.67,2018-12-31,年度报告,42465296.18,2018,12,-0.42380392958512586,True,未知,未知,未知,未知,未知,未知,未知,未知
3,688157,15453601.35,15722175.73,2019-03-31,一季度报告,15733375.73,2019,3,未知,未知,未知,未知,未知,未知,未知,未知,未知,未知
4,688157,32186541.15000001,33319097.669999994,2019-06-30,半年度报告,32751851.980000004,2019,6,未知,未知,未知,未知,未知,未知,未知,未知,未知,未知
5,688157,91475818.12,92873689.04,2019-12-31,年度报告,90927835.23,2019,12,-0.6973636845257322,True,1.4158446653557188,True,0.0,True,比例外推,92873689.04,未知,92873689.04
6,688157,13756031.849999998,13987938.410000002,2020-03-31,一季度报告,13240641.470000004,2020,3,0.008019686621461927,True,未知,未知,未知,未知,未知,未知,未知,未知
