,SECURITYCODE_x,NETPROFIT_x,PARENTNETPROFIT_x,REPORTDATE_x,REPORTTIMETYPE_x,KCFJCXSYJLR,Year,Month,managesituationChangeRate,managesituationGreatChange,historyprofitextroplaterate,ifhistoryprofitextroplate,IfprofitdisStableChangeRage,IfprofitdisStable,predicttype,predict,analyst_prediction,adj_prediction
0,688196,50491951.87999999,50491951.87999999,2014-12-31,年度报告,46524051.88,2014,12,未知,未知,未知,未知,未知,未知,未知,未知,未知,未知
1,688196,8421388.570000002,8421388.570000002,2015-12-31,年度报告,6847388.57,2015,12,0.0,True,未知,未知,未知,未知,未知,未知,未知,未知
2,688196,50450183.28999999,50450183.28999999,2016-12-31,年度报告,47761527.91999999,2016,12,4.99568010195734,False,未知,未知,未知,未知,未知,未知,未知,未知
3,688196,31924308.99,31924308.99,2017-09-30,三季度报告,28171208.99,2017,9,未知,未知,未知,未知,未知,未知,未知,未知,未知,未知
4,688196,64815638.78,64815638.78,2017-12-31,年度报告,60027516.81,2017,12,0.0008279175074528483,True,0.7126913159106055,True,0.0,True,比例外推,64815638.78,未知,64815638.78
5,688196,101383736.49,101383736.49,2018-09-30,三季度报告,102364736.48999998,2018,9,0.5816145588559531,False,未知,未知,未知,未知,未知,未知,未知,未知
6,688196,133685790.00999998,133685790.00999998,2018-12-31,年度报告,133893247.73000003,2018,12,-0.22099121708293396,True,1.2019333519456674,True,0.0,True,比例外推,133685790.00999998,未知,133685790.00999998
7,688196,40507072.74,40507072.74,2019-03-31,一季度报告,40168335.96,2019,3,未知,未知,未知,未知,未知,未知,未知,未知,未知,未知
8,688196,173559136.94000003,173559136.94000003,2019-09-30,三季度报告,174456836.93999997,2019,9,-0.5019718780538309,True,未知,未知,未知,未知,未知,未知,197000000.0,未知
9,688196,215564582.52000004,215564582.52000004,2019-12-31,年度报告,203864286.56,2019,12,-0.6223087593960205,True,1.3196084946813407,True,0.0,True,比例外推,215564582.52000004,未知,215564582.52000004
10,688196,35355459.129999995,35355459.129999995,2020-03-31,一季度报告,33966830.85,2020,3,0.2464971785073005,True,未知,未知,未知,未知,未知,未知,230500000.0,未知
