,SECURITYCODE_x,NETPROFIT_x,PARENTNETPROFIT_x,REPORTDATE_x,REPORTTIMETYPE_x,KCFJCXSYJLR,Year,Month,managesituationChangeRate,managesituationGreatChange,historyprofitextroplaterate,ifhistoryprofitextroplate,IfprofitdisStableChangeRage,IfprofitdisStable,predicttype,predict,analyst_prediction,adj_prediction
0,688100,80504986.79,80504986.79,2016-12-31,年度报告,54542704.41,2016,12,未知,未知,未知,未知,未知,未知,未知,未知,未知,未知
1,688100,153356700.97,148745028.14000005,2017-12-31,年度报告,139461226.07999998,2017,12,0.0,True,未知,未知,未知,未知,未知,未知,未知,未知
2,688100,113849684.24,113981858.76,2018-09-30,三季度报告,,2018,9,未知,未知,未知,未知,未知,未知,未知,未知,未知,未知
3,688100,177157379.87,177054565.84,2018-12-31,年度报告,162260288.56000003,2018,12,-0.4750474789768164,True,未知,未知,未知,未知,未知,未知,未知,未知
4,688100,28047586.08,28083141.12,2019-03-31,一季度报告,25580039.94,2019,3,未知,未知,未知,未知,未知,未知,未知,未知,未知,未知
5,688100,113585807.93,113617011.82000002,2019-06-30,半年度报告,107006217.48,2019,6,未知,未知,未知,未知,未知,未知,未知,未知,未知,未知
6,688100,162507573.03,162435787.36999995,2019-09-30,三季度报告,153452849.39999998,2019,9,-0.2928835303548839,True,未知,未知,未知,未知,未知,未知,未知,未知
7,688100,217727683.59,217375268.34,2019-12-31,年度报告,198168460.25,2019,12,-0.5455736201953572,True,0.5150611591566666,True,0.0,True,比例外推,217375268.34,227000000.0,217375268.34
8,688100,32810588.690000005,32713702.67,2020-03-31,一季度报告,32584639.53,2020,3,1.8703000165638501,False,未知,未知,未知,未知,未知,未知,261413332.99999997,未知
