,SECURITYCODE_x,NETPROFIT_x,PARENTNETPROFIT_x,REPORTDATE_x,REPORTTIMETYPE_x,KCFJCXSYJLR,Year,Month,managesituationChangeRate,managesituationGreatChange,historyprofitextroplaterate,ifhistoryprofitextroplate,IfprofitdisStableChangeRage,IfprofitdisStable,predicttype,predict,analyst_prediction,adj_prediction
0,688128,131644674.75999998,130995939.75,2016-12-31,年度报告,19931900.0,2016,12,未知,未知,未知,未知,未知,未知,未知,未知,未知,未知
1,688128,111315154.72999996,111900686.38,2017-12-31,年度报告,78621700.0,2017,12,0.0,True,未知,未知,未知,未知,未知,未知,未知,未知
2,688128,90975381.26000002,91154025.63,2018-06-30,半年度报告,,2018,6,未知,未知,未知,未知,未知,未知,未知,未知,未知,未知
3,688128,121964396.96,121311505.64000005,2018-09-30,三季度报告,,2018,9,未知,未知,未知,未知,未知,未知,未知,未知,未知,未知
4,688128,210271851.35,206910130.9,2018-12-31,年度报告,177074899.99999997,2018,12,0.18263029934522576,True,未知,未知,未知,未知,未知,未知,未知,未知
5,688128,53123100.00000001,53455999.99999999,2019-03-31,一季度报告,45864300.0,2019,3,未知,未知,未知,未知,未知,未知,未知,未知,未知,未知
6,688128,119166749.43000004,121725245.17000005,2019-06-30,半年度报告,110193399.74,2019,6,0.447036252409545,True,未知,未知,未知,未知,未知,未知,未知,未知
7,688128,168018176.17999998,171190504.76,2019-09-30,三季度报告,,2019,9,0.07936970166117224,True,未知,未知,未知,未知,未知,未知,234800000.0,未知
8,688128,255507093.98,252172493.84,2019-12-31,年度报告,219785005.76,2019,12,-0.37393106155290445,True,0.7309186608451635,True,0.0,True,比例外推,252172493.84,235410000.0,252172493.84
9,688128,41985800.0,42097500.00000001,2020-03-31,一季度报告,28173300.0,2020,3,1.47810603598058,False,未知,未知,未知,未知,未知,未知,,未知
