,SECURITYCODE_x,NETPROFIT_x,PARENTNETPROFIT_x,REPORTDATE_x,REPORTTIMETYPE_x,KCFJCXSYJLR,Year,Month,managesituationChangeRate,managesituationGreatChange,historyprofitextroplaterate,ifhistoryprofitextroplate,IfprofitdisStableChangeRage,IfprofitdisStable,predicttype,predict,analyst_prediction,adj_prediction
0,688138,22219764.47,22219764.47,2012-12-31,年度报告,15540019.750000006,2012,12,未知,未知,未知,未知,未知,未知,未知,未知,未知,未知
1,688138,37645369.10999999,37645369.10999999,2013-12-31,年度报告,31113914.85,2013,12,0.0,True,未知,未知,未知,未知,未知,未知,未知,未知
2,688138,55437580.7,55437580.7,2014-12-31,年度报告,46008749.86,2014,12,-0.4097610145600189,True,未知,未知,未知,未知,未知,未知,未知,未知
3,688138,31270663.16,31270663.16,2015-06-30,半年度报告,29000781.89,2015,6,未知,未知,未知,未知,未知,未知,未知,未知,未知,未知
4,688138,55722468.22,55722468.22,2015-12-31,年度报告,51471219.92999999,2015,12,-0.5991931071046901,True,0.8520824187560432,True,0.0,True,比例外推,55722468.22,未知,55722468.22
5,688138,45735954.53000001,45735954.53000001,2016-12-31,年度报告,36313500.0,2016,12,-0.6012422783880768,True,0.1972647694070751,True,0.0,True,比例外推,45735954.53000001,未知,45735954.53000001
6,688138,38657970.36,38657970.36,2017-12-31,年度报告,31026300.000000004,2017,12,-0.514172936842825,True,0.1771152500496757,True,0.0,True,比例外推,38657970.36,未知,38657970.36
7,688138,44294666.18,44294666.18,2018-09-30,三季度报告,41547866.17999999,2018,9,未知,未知,未知,未知,未知,未知,未知,未知,未知,未知
8,688138,62654771.24,62654771.24,2018-12-31,年度报告,55768398.58000001,2018,12,-0.4252216486514995,True,0.23795443863235102,True,0.0,True,比例外推,62654771.24,未知,62654771.24
9,688138,14746047.48,14746047.48,2019-03-31,一季度报告,13722690.840000002,2019,3,未知,未知,未知,未知,未知,未知,未知,未知,未知,未知
10,688138,36093359.99,36093359.99,2019-06-30,半年度报告,31586900.0,2019,6,未知,未知,未知,未知,未知,未知,未知,未知,未知,未知
11,688138,36093359.99,36093359.99,2019-06-30,半年度报告,31586900.0,2019,6,未知,未知,未知,未知,未知,未知,未知,未知,未知,未知
12,688138,36093400.0,36093400.0,2019-06-30,半年度报告,31586900.0,2019,6,未知,未知,未知,未知,未知,未知,未知,未知,未知,未知
13,688138,36093400.0,36093400.0,2019-06-30,半年度报告,31586900.0,2019,6,未知,未知,未知,未知,未知,未知,未知,未知,未知,未知
14,688138,55331631.14,55331631.14,2019-09-30,三季度报告,49105031.14,2019,9,-0.49836478325165245,True,未知,未知,未知,未知,未知,未知,74000000.0,未知
15,688138,70284081.22,70284081.22,2019-12-31,年度报告,63296746.57999999,2019,12,-0.6453619727556442,True,0.4848170960567347,True,0.0,True,比例外推,70284081.22,72500000.0,70284081.22
16,688138,16613891.46,16613891.46,2020-03-31,一季度报告,15789919.77,2020,3,0.5068284908302763,False,未知,未知,未知,未知,未知,未知,,未知
