,SECURITYCODE_x,NETPROFIT_x,PARENTNETPROFIT_x,REPORTDATE_x,REPORTTIMETYPE_x,KCFJCXSYJLR,Year,Month,managesituationChangeRate,managesituationGreatChange,historyprofitextroplaterate,ifhistoryprofitextroplate,IfprofitdisStableChangeRage,IfprofitdisStable,predicttype,predict,analyst_prediction,adj_prediction
0,688106,61172571.60000001,61340968.76000001,2013-12-31,年度报告,24488826.11000001,2013,12,未知,未知,未知,未知,未知,未知,未知,未知,未知,未知
1,688106,19890558.91,20044101.130000006,2014-06-30,半年度报告,18542342.53,2014,6,未知,未知,未知,未知,未知,未知,未知,未知,未知,未知
2,688106,46174012.12000001,46122795.49999999,2014-12-31,年度报告,40996229.84,2014,12,0.0,True,未知,未知,未知,未知,未知,未知,未知,未知
3,688106,21440748.51,20517272.36,2015-06-30,半年度报告,16257332.59,2015,6,2.0754576518835495,False,未知,未知,未知,未知,未知,未知,,未知
4,688106,55588403.7,53032606.52,2015-12-31,年度报告,44611426.49,2015,12,0.32482686237056396,True,未知,未知,未知,未知,未知,未知,未知,未知
5,688106,14006796.88,12801555.580000002,2016-06-30,半年度报告,15223716.54,2016,6,1.8530986952936375,False,未知,未知,未知,未知,未知,未知,,未知
6,688106,13044462.75,12341936.289999995,2016-12-31,年度报告,11611797.420000002,2016,12,0.10045562614347937,True,0.03568090895179889,True,0.0,True,比例外推,12341936.289999995,未知,12341936.289999995
7,688106,3442633.08,3885840.0,2017-03-31,一季度报告,3166584.609999999,2017,3,未知,未知,未知,未知,未知,未知,未知,未知,未知,未知
8,688106,27184292.15,27063269.83,2017-06-30,半年度报告,24856694.72,2017,6,3.3673490894514924,False,0.3222185430687738,True,0.6017991031183058,False,前期平均,52467260.435,未知,52467260.435
9,688106,80731149.76,79325072.53999999,2017-12-31,年度报告,72166052.44000001,2017,12,3.689543201003047,False,0.7436290668831333,True,0.0,True,前期平均,79325072.53999999,未知,79325072.53999999
10,688106,19212962.09,19249052.37,2018-03-31,一季度报告,18049036.37,2018,3,16.769123278162425,False,未知,未知,未知,未知,未知,未知,未知,未知
11,688106,64118121.31,64557022.75000001,2018-06-30,半年度报告,62464927.55000002,2018,6,1.2502911336611724,False,0.5337757156899714,True,0.6377512188223365,False,前期平均,76928110.14000002,未知,76928110.14000002
12,688106,96825539.31000002,98091512.52,2018-09-30,三季度报告,92862972.53,2018,9,未知,未知,未知,未知,未知,未知,未知,未知,未知,未知
13,688106,137523827.69,138968058.44999996,2018-12-31,年度报告,133510866.8,2018,12,-0.24226804917487646,True,1.3525507220017912,True,0.0,True,比例外推,138968058.44999996,未知,138968058.44999996
14,688106,33018820.56,32474201.05,2019-03-31,一季度报告,31513354.889999993,2019,3,2.183921943604897,False,未知,未知,未知,未知,未知,未知,未知,未知
15,688106,77288281.91000001,75470941.41,2019-06-30,半年度报告,73359897.87000002,2019,6,-0.04593942632471671,True,2.113203502014814,False,0.6032701601610211,False,未知,未知,未知,未知
16,688106,140743341.62,137023037.05,2019-09-30,三季度报告,133780080.35999998,2019,9,-0.36821863285317963,True,未知,未知,未知,未知,未知,未知,未知,未知
17,688106,183178308.26,177081333.91,2019-12-31,年度报告,170669787.77999997,2019,12,-0.5551856530790252,True,1.933040350450066,True,0.0,True,比例外推,177081333.91,未知,177081333.91
18,688106,20410868.25,20010917.85,2020-03-31,一季度报告,18331111.98,2020,3,0.8526576831792205,False,1.9148490968555734,True,0.07735822303265166,True,前期平均,112241566.98000002,未知,112241566.98000002
