,SECURITYCODE_x,NETPROFIT_x,PARENTNETPROFIT_x,REPORTDATE_x,REPORTTIMETYPE_x,KCFJCXSYJLR,Year,Month,managesituationChangeRate,managesituationGreatChange,historyprofitextroplaterate,ifhistoryprofitextroplate,IfprofitdisStableChangeRage,IfprofitdisStable,predicttype,predict,analyst_prediction,adj_prediction
0,688198,31012035.22000001,31172356.77,2016-12-31,年度报告,31236056.049999993,2016,12,未知,未知,未知,未知,未知,未知,未知,未知,未知,未知
1,688198,41599207.35,42201460.3,2017-12-31,年度报告,42419999.03,2017,12,0.0,True,未知,未知,未知,未知,未知,未知,未知,未知
2,688198,36645895.40000001,36840653.77,2018-09-30,三季度报告,35849420.69,2018,9,未知,未知,未知,未知,未知,未知,未知,未知,未知,未知
3,688198,33139784.53,33399675.42,2018-12-31,年度报告,48026320.80999999,2018,12,-0.2545041793927353,True,未知,未知,未知,未知,未知,未知,未知,未知
4,688198,12962901.65,13013481.31,2019-03-31,一季度报告,12941870.86,2019,3,未知,未知,未知,未知,未知,未知,未知,未知,未知,未知
5,688198,32125590.54000001,32229472.22000001,2019-06-30,半年度报告,31115331.75,2019,6,未知,未知,未知,未知,未知,未知,未知,未知,未知,未知
6,688198,47562858.72,47709264.31000001,2019-09-30,三季度报告,46414360.88,2019,9,-0.1537378229813973,True,未知,未知,未知,未知,未知,未知,55645000.0,未知
7,688198,62887195.09,63084913.37000001,2019-12-31,年度报告,58876343.79,2019,12,-0.0642052849822796,True,0.08719963033129519,True,0.0,True,比例外推,63084913.37000001,47000000.0,47000000.0
8,688198,8907998.479999999,8962611.66,2020-03-31,一季度报告,7474049.5,2020,3,1.3923683182460933,False,未知,未知,未知,未知,未知,未知,未知,未知
