,SECURITYCODE_x,NETPROFIT_x,PARENTNETPROFIT_x,REPORTDATE_x,REPORTTIMETYPE_x,KCFJCXSYJLR,Year,Month,managesituationChangeRate,managesituationGreatChange,historyprofitextroplaterate,ifhistoryprofitextroplate,IfprofitdisStableChangeRage,IfprofitdisStable,predicttype,predict,analyst_prediction,adj_prediction
0,688166,17060971.990000002,17060971.990000002,2016-12-31,年度报告,14118808.449999996,2016,12,未知,未知,未知,未知,未知,未知,未知,未知,未知,未知
1,688166,45876431.45,45876431.45,2017-12-31,年度报告,43517968.45999999,2017,12,0.0,True,未知,未知,未知,未知,未知,未知,未知,未知
2,688166,41369896.25999999,41369896.25999999,2018-09-30,三季度报告,38892296.25999999,2018,9,未知,未知,未知,未知,未知,未知,未知,未知,未知,未知
3,688166,73202041.22,73202041.22,2018-12-31,年度报告,71915556.27000001,2018,12,-0.6281103073896563,True,未知,未知,未知,未知,未知,未知,未知,未知
4,688166,16120877.11,16120877.11,2019-03-31,一季度报告,14865584.37,2019,3,未知,未知,未知,未知,未知,未知,未知,未知,未知,未知
5,688166,63770329.03,63770329.03,2019-09-30,三季度报告,55454129.03000002,2019,9,-0.5875993528536828,True,未知,未知,未知,未知,未知,未知,106666667.0,未知
6,688166,111083322.81000002,111083322.81000002,2019-12-31,年度报告,102159563.60999998,2019,12,-0.7669331113496509,True,1.3261856136084662,True,0.0,True,比例外推,111083322.81000002,106875000.0,111083322.81000002
7,688166,34026441.65,34026441.65,2020-03-31,一季度报告,32660953.86,2020,3,0.05831536792851358,True,未知,未知,未知,未知,未知,未知,163970000.0,未知
