,SECURITYCODE_x,NETPROFIT_x,PARENTNETPROFIT_x,REPORTDATE_x,REPORTTIMETYPE_x,KCFJCXSYJLR,Year,Month,managesituationChangeRate,managesituationGreatChange,historyprofitextroplaterate,ifhistoryprofitextroplate,IfprofitdisStableChangeRage,IfprofitdisStable,predicttype,predict,analyst_prediction,adj_prediction
0,688188,75167155.19,75167155.19,2016-12-31,年度报告,62790023.4,2016,12,未知,未知,未知,未知,未知,未知,未知,未知,未知,未知
1,688188,131092121.91,131092121.91,2017-12-31,年度报告,124947474.37,2017,12,0.0,True,未知,未知,未知,未知,未知,未知,未知,未知
2,688188,30044389.94,30044389.94,2018-03-31,一季度报告,27595589.939999994,2018,3,未知,未知,未知,未知,未知,未知,未知,未知,未知,未知
3,688188,76528960.91,76528960.91,2018-06-30,半年度报告,72845460.91,2018,6,未知,未知,未知,未知,未知,未知,未知,未知,未知,未知
4,688188,118056780.37,118056780.37,2018-09-30,三季度报告,109027332.81999996,2018,9,未知,未知,未知,未知,未知,未知,未知,未知,未知,未知
5,688188,139276293.9,139276293.9,2018-12-31,年度报告,136651213.91,2018,12,-0.42660814322919216,True,未知,未知,未知,未知,未知,未知,未知,未知
6,688188,56207114.97999999,56207114.97999999,2019-03-31,一季度报告,54474022.08999999,2019,3,1.5018699111585287,False,未知,未知,未知,未知,未知,未知,未知,未知
7,688188,118296604.79999998,118296604.79999998,2019-06-30,半年度报告,114996804.8,2019,6,-0.017794645370940252,True,未知,未知,未知,未知,未知,未知,161044286.0,未知
8,688188,191022573.82000005,191022573.82000005,2019-09-30,三季度报告,181270193.03,2019,9,-0.36329658530056697,True,未知,未知,未知,未知,未知,未知,205000000.0,未知
9,688188,246140251.39999995,246310754.73,2019-12-31,年度报告,224000664.43,2019,12,-0.4603018713007268,True,0.350497256251656,True,0.0,True,比例外推,246310754.73,240500000.0,246310754.73
10,688188,52063472.5,52295173.53,2020-03-31,一季度报告,39939893.75,2020,3,0.3373245578739721,True,未知,未知,未知,未知,未知,未知,295788750.0,未知
