,SECURITYCODE_x,NETPROFIT_x,PARENTNETPROFIT_x,REPORTDATE_x,REPORTTIMETYPE_x,KCFJCXSYJLR,Year,Month,managesituationChangeRate,managesituationGreatChange,historyprofitextroplaterate,ifhistoryprofitextroplate,IfprofitdisStableChangeRage,IfprofitdisStable,predicttype,predict,analyst_prediction,adj_prediction
0,688139,123209660.19,123209660.19,2016-12-31,年度报告,112527682.86000004,2016,12,未知,未知,未知,未知,未知,未知,未知,未知,未知,未知
1,688139,60391513.68000001,60391513.68000001,2017-12-31,年度报告,31202740.99,2017,12,0.0,True,未知,未知,未知,未知,未知,未知,未知,未知
2,688139,75177439.77000001,74618295.87,2018-09-30,三季度报告,33458595.87,2018,9,未知,未知,未知,未知,未知,未知,未知,未知,未知,未知
3,688139,114702625.79999998,113957705.34000002,2018-12-31,年度报告,55311397.95000001,2018,12,1.0401816858384794,False,未知,未知,未知,未知,未知,未知,未知,未知
4,688139,28664110.51,28695750.24,2019-03-31,一季度报告,22924398.54000001,2019,3,未知,未知,未知,未知,未知,未知,未知,未知,未知,未知
5,688139,134148922.58,133339848.76,2019-09-30,三季度报告,118284848.76,2019,9,0.6389180127302968,False,未知,未知,未知,未知,未知,未知,未知,未知
6,688139,183356604.56,182061609.9,2019-12-31,年度报告,167340635.12,2019,12,0.07416599516067937,True,0.24947595249272117,True,0.0,True,比例外推,182061609.9,184800000.0,182061609.9
7,688139,69141028.85,69278549.43,2020-03-31,一季度报告,47208899.45999999,2020,3,3.298394682333367,False,未知,未知,未知,未知,未知,未知,270540000.0,未知
