,SECURITYCODE_x,NETPROFIT_x,PARENTNETPROFIT_x,REPORTDATE_x,REPORTTIMETYPE_x,KCFJCXSYJLR,Year,Month,managesituationChangeRate,managesituationGreatChange,historyprofitextroplaterate,ifhistoryprofitextroplate,IfprofitdisStableChangeRage,IfprofitdisStable,predicttype,predict,analyst_prediction,adj_prediction
0,688186,47017418.22000001,47017418.22000001,2016-12-31,年度报告,55430818.22000001,2016,12,未知,未知,未知,未知,未知,未知,未知,未知,未知,未知
1,688186,86501740.30000001,86501740.30000001,2017-12-31,年度报告,86470548.41,2017,12,0.0,True,未知,未知,未知,未知,未知,未知,未知,未知
2,688186,90082480.86,90082480.86,2018-09-30,三季度报告,85249080.85999998,2018,9,未知,未知,未知,未知,未知,未知,未知,未知,未知,未知
3,688186,134378923.37,134378923.37,2018-12-31,年度报告,120851185.47,2018,12,-0.4564569677218389,True,未知,未知,未知,未知,未知,未知,未知,未知
4,688186,41138828.40000001,41138828.40000001,2019-03-31,一季度报告,33476652.86000001,2019,3,未知,未知,未知,未知,未知,未知,未知,未知,未知,未知
5,688186,66675787.15000001,66675787.15000001,2019-06-30,半年度报告,56222687.15000001,2019,6,未知,未知,未知,未知,未知,未知,未知,未知,未知,未知
6,688186,92678562.77,92678562.77,2019-09-30,三季度报告,81318674.59,2019,9,-0.4780625736421352,True,未知,未知,未知,未知,未知,未知,未知,未知
7,688186,141506039.01000002,141506039.01000002,2019-12-31,年度报告,113806105.25,2019,12,-0.65011314988332,True,1.0128785240939215,True,0.0,True,比例外推,141506039.01000002,未知,141506039.01000002
8,688186,26977086.430000003,26977086.430000003,2020-03-31,一季度报告,25655586.11,2020,3,0.14289638399133406,True,未知,未知,未知,未知,未知,未知,173390000.0,未知
