,SECURITYCODE_x,NETPROFIT_x,PARENTNETPROFIT_x,REPORTDATE_x,REPORTTIMETYPE_x,KCFJCXSYJLR,Year,Month,managesituationChangeRate,managesituationGreatChange,historyprofitextroplaterate,ifhistoryprofitextroplate,IfprofitdisStableChangeRage,IfprofitdisStable,predicttype,predict,analyst_prediction,adj_prediction
0,688123,35119227.70999999,35119227.70999999,2016-12-31,年度报告,40694638.72,2016,12,未知,未知,未知,未知,未知,未知,未知,未知,未知,未知
1,688123,24882165.74,24882165.74,2017-12-31,年度报告,65830142.18,2017,12,0.0,True,未知,未知,未知,未知,未知,未知,未知,未知
2,688123,65188470.55000001,65188470.55000001,2018-09-30,三季度报告,76285170.55000001,2018,9,未知,未知,未知,未知,未知,未知,未知,未知,未知,未知
3,688123,76115342.3,76115342.3,2018-12-31,年度报告,95346260.17,2018,12,0.4114216614811439,True,未知,未知,未知,未知,未知,未知,未知,未知
4,688123,16189079.190000005,16189079.190000005,2019-03-31,一季度报告,20275674.01,2019,3,未知,未知,未知,未知,未知,未知,未知,未知,未知,未知
5,688123,44525320.15,44525320.15,2019-06-30,半年度报告,49527410.68,2019,6,未知,未知,未知,未知,未知,未知,未知,未知,未知,未知
6,688123,76251140.42000002,76251140.42000002,2019-09-30,三季度报告,79157740.42,2019,9,-0.46126627279798965,True,未知,未知,未知,未知,未知,未知,未知,未知
7,688123,95106151.48,95106151.48,2019-12-31,年度报告,97911555.96999995,2019,12,-0.5386051399259096,True,1.537119154188577,True,0.0,True,比例外推,95106151.48,97000000.0,95106151.48
8,688123,20473929.01,20473929.01,2020-03-31,一季度报告,20444167.05,2020,3,1.1693159504521506,False,未知,未知,未知,未知,未知,未知,115000000.0,未知
