,SECURITYCODE_x,NETPROFIT_x,PARENTNETPROFIT_x,REPORTDATE_x,REPORTTIMETYPE_x,KCFJCXSYJLR,Year,Month,managesituationChangeRate,managesituationGreatChange,historyprofitextroplaterate,ifhistoryprofitextroplate,IfprofitdisStableChangeRage,IfprofitdisStable,predicttype,predict,analyst_prediction,adj_prediction
0,688277,6306228.7799999975,6306228.7799999975,2013-12-31,年度报告,-6178563.71,2013,12,未知,未知,未知,未知,未知,未知,未知,未知,未知,未知
1,688277,-15762734.069999995,-15762734.069999995,2014-12-31,年度报告,-22180790.28,2014,12,0.0,True,未知,未知,未知,未知,未知,未知,未知,未知
2,688277,-9210944.069999997,-9210944.069999997,2015-05-31,其他报告,,2015,5,未知,未知,未知,未知,未知,未知,未知,未知,未知,未知
3,688277,-10939352.72,-10939352.72,2015-06-30,半年度报告,-12429933.650000002,2015,6,未知,未知,未知,未知,未知,未知,未知,未知,未知,未知
4,688277,-15449645.32,-15449645.32,2015-12-31,年度报告,-22993906.259999994,2015,12,-1.4000720149179045,False,未知,未知,未知,未知,未知,未知,未知,未知
5,688277,-12616524.3,-12616524.3,2016-06-30,半年度报告,-14792203.56,2016,6,-1.5764718390029204,False,未知,未知,未知,未知,未知,未知,,未知
6,688277,-24719805.75,-24719805.75,2016-12-31,年度报告,-37689461.26,2016,12,-1.4081795180007406,False,-2.2675168777915427,True,0.0,True,前期平均,-24719805.75,-18195000.0,-18195000.0
7,688277,1426350.17,1426350.17,2017-06-30,半年度报告,-1882016.5900000003,2017,6,-1.4998388327916903,False,未知,未知,未知,未知,未知,未知,未知,未知
8,688277,23756935.550000004,24143271.51,2017-12-31,年度报告,-16043565.519999998,2017,12,-1.2551083468768762,False,-0.5839744507219388,True,0.0,True,未知,未知,-5350000.0,未知
9,688277,23756935.550000004,24143271.51,2017-12-31,年度报告,-16043565.519999998,2017,12,-1.2551083468768762,False,-0.5839744507219388,True,0.0,True,未知,未知,-5350000.0,未知
10,688277,21282252.6,21669460.85,2017-12-31,年度报告,-16043565.519999998,2017,12,-1.2551083468768762,False,-0.5839744507219388,True,0.0,True,未知,未知,-5350000.0,未知
11,688277,21282252.6,21669460.85,2017-12-31,年度报告,-16043565.519999998,2017,12,-1.2551083468768762,False,-0.5839744507219388,True,0.0,True,前期平均,21669460.85,-5350000.0,-5350000.0
12,688277,-26698677.590000004,-24969704.96000001,2018-06-30,半年度报告,-35326927.4,2018,6,3.4212346397378686,False,-1.1211035504039153,True,0.23281257271181086,False,盈利变化,1846664.3033333346,未知,1846664.3033333346
13,688277,-3660394.33,-855977.97,2018-12-31,年度报告,-39101422.29000001,2018,12,-0.7345520946197963,True,-2.182835957036144,True,0.0,True,比例外推,-855977.97,未知,-855977.97
14,688277,-21447348.62,-20569469.26,2019-03-31,一季度报告,-23499791.12,2019,3,未知,未知,未知,未知,未知,未知,未知,未知,未知,未知
15,688277,-62049603.34000002,-59662208.81,2019-06-30,半年度报告,-50517169.04,2019,6,-1.2362000424456228,False,-3.771807351669871,True,0.43238524853145954,False,盈利变化,-10982805.73,未知,-10982805.73
16,688277,-34166406.120000005,-30957829.3,2019-12-31,年度报告,-33728413.27,2019,12,-2.7228277096582643,False,-6.6030898661107535,True,0.0,True,前期平均,-30957829.3,未知,-30957829.3
17,688277,-13973333.529999996,-13468831.250000002,2020-03-31,一季度报告,-19820612.82,2020,3,-1.2940330243953482,False,未知,未知,未知,未知,未知,未知,未知,未知
