,SECURITYCODE_x,NETPROFIT_x,PARENTNETPROFIT_x,REPORTDATE_x,REPORTTIMETYPE_x,KCFJCXSYJLR,Year,Month,managesituationChangeRate,managesituationGreatChange,historyprofitextroplaterate,ifhistoryprofitextroplate,IfprofitdisStableChangeRage,IfprofitdisStable,predicttype,predict,analyst_prediction,adj_prediction
0,688278,29314080.25,29314080.25,2016-12-31,年度报告,26802794.93,2016,12,未知,未知,未知,未知,未知,未知,未知,未知,未知,未知
1,688278,5168602.99,5168602.99,2017-12-31,年度报告,-2477893.41,2017,12,0.0,True,未知,未知,未知,未知,未知,未知,未知,未知
2,688278,477249.12000000005,477249.12000000005,2018-09-30,三季度报告,5506843.54,2018,9,未知,未知,未知,未知,未知,未知,未知,未知,未知,未知
3,688278,16002935.320000002,16002935.320000002,2018-12-31,年度报告,30640753.61,2018,12,4.671567405489582,False,未知,未知,未知,未知,未知,未知,未知,未知
4,688278,542134.5599999999,542134.5599999999,2019-03-31,一季度报告,6597990.510000003,2019,3,未知,未知,未知,未知,未知,未知,未知,未知,未知,未知
5,688278,15547105.61,15547105.61,2019-06-30,半年度报告,21162308.89,2019,6,未知,未知,未知,未知,未知,未知,未知,未知,未知,未知
6,688278,42084517.08,42084517.08,2019-09-30,三季度报告,54111581.84999999,2019,9,60.42301582452367,False,未知,未知,未知,未知,未知,未知,未知,未知
7,688278,64293940.53,64293940.53,2019-12-31,年度报告,86441939.22,2019,12,0.8317939592847142,False,0.07182772241827425,True,0.0,True,前期平均,64293940.53,60000000.0,64293940.53
8,688278,22359658.110000007,22359658.110000007,2020-03-31,一季度报告,20632301.020000003,2020,3,53.07159479004623,False,未知,未知,未知,未知,未知,未知,,未知
