,SECURITYCODE_x,NETPROFIT_x,PARENTNETPROFIT_x,REPORTDATE_x,REPORTTIMETYPE_x,KCFJCXSYJLR,Year,Month,managesituationChangeRate,managesituationGreatChange,historyprofitextroplaterate,ifhistoryprofitextroplate,IfprofitdisStableChangeRage,IfprofitdisStable,predicttype,predict,analyst_prediction,adj_prediction
0,688268,48409063.53,48409063.53,2014-12-31,年度报告,43557000.6,2014,12,未知,未知,未知,未知,未知,未知,未知,未知,未知,未知
1,688268,50891445.22,50891445.22,2015-12-31,年度报告,48880777.52000001,2015,12,0.0,True,未知,未知,未知,未知,未知,未知,未知,未知
2,688268,18948729.4,18948729.4,2016-06-30,半年度报告,14433299.91,2016,6,未知,未知,未知,未知,未知,未知,未知,未知,未知,未知
3,688268,38371726.46000001,38371726.46000001,2016-12-31,年度报告,30179646.149999995,2016,12,-0.048777975930312904,True,未知,未知,未知,未知,未知,未知,未知,未知
4,688268,23921679.8,23921679.8,2017-06-30,半年度报告,21571452.88,2017,6,1.5547392919126284,False,未知,未知,未知,未知,未知,未知,未知,未知
5,688268,48510298.91000001,48510298.91000001,2017-12-31,年度报告,46938634.74,2017,12,0.26158158613121707,True,0.227159519260771,True,0.0,True,比例外推,48510298.91000001,未知,48510298.91000001
6,688268,44045363.21,44045363.21,2018-09-30,三季度报告,40161963.20999999,2018,9,未知,未知,未知,未知,未知,未知,未知,未知,未知,未知
7,688268,67848362.04,67848362.04,2018-12-31,年度报告,61999085.47000001,2018,12,-0.0020868842756015522,True,0.08690511432654054,True,0.0,True,比例外推,67848362.04,未知,67848362.04
8,688268,18302392.76,18302392.76,2019-03-31,一季度报告,17223770.67,2019,3,未知,未知,未知,未知,未知,未知,未知,未知,未知,未知
9,688268,39860691.84,39860691.84,2019-06-30,半年度报告,35626126.92,2019,6,未知,未知,未知,未知,未知,未知,未知,未知,76000000.0,未知
10,688268,64324242.38,64324242.38,2019-09-30,三季度报告,58164072.49999999,2019,9,0.09907286492779498,True,未知,未知,未知,未知,未知,未知,,未知
11,688268,72594659.69,72594659.69,2019-12-31,年度报告,65790522.46000001,2019,12,-0.28651094772987395,True,0.5618503770154453,True,0.0,True,比例外推,72594659.69,101000000.0,101000000.0
12,688268,16525038.6,16525038.6,2020-03-31,一季度报告,16297808.9,2020,3,1.6449581846914751,False,未知,未知,未知,未知,未知,未知,95133333.0,未知
