,SECURITYCODE_x,NETPROFIT_x,PARENTNETPROFIT_x,REPORTDATE_x,REPORTTIMETYPE_x,KCFJCXSYJLR,Year,Month,managesituationChangeRate,managesituationGreatChange,historyprofitextroplaterate,ifhistoryprofitextroplate,IfprofitdisStableChangeRage,IfprofitdisStable,predicttype,predict,analyst_prediction,adj_prediction
0,688228,148678.61000000002,157557.41,2014-12-31,年度报告,-528227.94,2014,12,未知,未知,未知,未知,未知,未知,未知,未知,未知,未知
1,688228,7412181.499999999,7403808.98,2015-12-31,年度报告,4603096.65,2015,12,0.0,True,未知,未知,未知,未知,未知,未知,未知,未知
2,688228,7412181.499999999,7403808.98,2015-12-31,年度报告,4613358.19,2015,12,0.0,True,未知,未知,未知,未知,未知,未知,未知,未知
3,688228,4060614.25,4064340.63,2016-06-30,半年度报告,3774066.07,2016,6,未知,未知,未知,未知,未知,未知,未知,未知,未知,未知
4,688228,13503311.670000006,13513435.81,2016-12-31,年度报告,15429435.81,2016,12,-0.9799413155222926,True,未知,未知,未知,未知,未知,未知,未知,未知
5,688228,6394578.739999997,6394578.739999997,2017-06-30,半年度报告,5253209.329999999,2017,6,-0.9633851922772522,True,未知,未知,0.0,True,未知,未知,未知,未知
6,688228,35903504.06,35903504.06,2017-12-31,年度报告,34431604.06,2017,12,-0.9889894706103604,True,2.5718982955763234,False,未知,未知,未知,未知,未知,未知
7,688228,14443004.780000005,14443004.780000005,2018-06-30,半年度报告,12369568.27,2018,6,-0.9767492721498648,True,未知,未知,0.0,True,未知,未知,未知,未知
8,688228,62773896.69,62773896.69,2018-12-31,年度报告,57297496.69000001,2018,12,-0.9958589387333466,True,2.433196986384997,False,未知,未知,未知,未知,未知,未知
9,688228,2041064.83,2041064.83,2019-03-31,一季度报告,1467393.33,2019,3,未知,未知,未知,未知,0.05178203459703018,True,未知,未知,未知,未知
10,688228,7278954.579999997,7278954.579999997,2019-06-30,半年度报告,6243554.58,2019,6,-0.989705839452059,True,1.7628384849163854,True,0.0,True,比例外推,31588424.756242223,未知,31588424.756242223
11,688228,78284300.37999998,78284300.37999998,2019-12-31,年度报告,74251994.17,2019,12,-0.9976315217337195,True,1.541102710729178,True,未知,未知,未知,未知,未知,未知
12,688228,1005099.11,1005099.11,2020-03-31,一季度报告,1483072.3499999996,2020,3,-0.9271563510307509,True,未知,未知,未知,未知,未知,未知,102580000.0,未知
