,SECURITYCODE_x,NETPROFIT_x,PARENTNETPROFIT_x,REPORTDATE_x,REPORTTIMETYPE_x,KCFJCXSYJLR,Year,Month,managesituationChangeRate,managesituationGreatChange,historyprofitextroplaterate,ifhistoryprofitextroplate,IfprofitdisStableChangeRage,IfprofitdisStable,predicttype,predict,analyst_prediction,adj_prediction
0,688222,-22974168.22000001,-22974168.22000001,2016-12-31,年度报告,-28849923.45,2016,12,未知,未知,未知,未知,未知,未知,未知,未知,未知,未知
1,688222,-23080742.85,-23080742.85,2017-12-31,年度报告,-31150392.399999995,2017,12,-0.0,False,未知,未知,未知,未知,未知,未知,未知,未知
2,688222,31374900.0,31374900.0,2018-09-30,三季度报告,23123800.0,2018,9,未知,未知,未知,未知,未知,未知,未知,未知,未知,未知
3,688222,44960486.32,44960486.32,2018-12-31,年度报告,31631713.559999995,2018,12,-0.004617469666925885,False,未知,未知,未知,未知,未知,未知,未知,未知
4,688222,44423346.20000001,44423346.20000001,2019-03-31,一季度报告,8661384.83,2019,3,未知,未知,未知,未知,未知,未知,未知,未知,未知,未知
5,688222,59672513.79000001,59672513.79000001,2019-06-30,半年度报告,22766646.09,2019,6,未知,未知,未知,未知,未知,未知,未知,未知,未知,未知
6,688222,74309900.0,74309900.0,2019-09-30,三季度报告,33471700.0,2019,9,-1.7322467392724763,False,未知,未知,未知,未知,未知,未知,未知,未知
7,688222,120266061.53,120266061.53,2019-12-31,年度报告,74226742.32000002,2019,12,-1.5109857588390962,False,-2.952473049037634,True,0.0,True,前期平均,120266061.53,87590000.0,87590000.0
8,688222,8740267.66,8740267.66,2020-03-31,一季度报告,7322862.369999999,2020,3,-1.5171642882678658,False,未知,未知,未知,未知,未知,未知,115500000.0,未知
