,SECURITYCODE_x,NETPROFIT_x,PARENTNETPROFIT_x,REPORTDATE_x,REPORTTIMETYPE_x,KCFJCXSYJLR,Year,Month,managesituationChangeRate,managesituationGreatChange,historyprofitextroplaterate,ifhistoryprofitextroplate,IfprofitdisStableChangeRage,IfprofitdisStable,predicttype,predict,analyst_prediction,adj_prediction
0,688202,-2599541.64,-3031680.5800000005,2014-12-31,年度报告,-3978980.58,2014,12,未知,未知,未知,未知,未知,未知,未知,未知,未知,未知
1,688202,26365066.95,26142741.08000001,2015-12-31,年度报告,19293941.08,2015,12,-0.0,False,未知,未知,未知,未知,未知,未知,未知,未知
2,688202,44428452.58,43409485.95,2016-12-31,年度报告,37104899.99999999,2016,12,-1.098597953304268,False,未知,未知,未知,未知,未知,未知,未知,未知
3,688202,42683506.91,41620688.48,2017-12-31,年度报告,33264427.89,2017,12,-1.0585107400560292,False,2.738899266939873,False,0.0,True,未知,未知,未知,未知
4,688202,44781932.6,43427040.26,2018-09-30,三季度报告,38089840.25999999,2018,9,未知,未知,未知,未知,未知,未知,未知,未知,未知,未知
5,688202,62429268.41,60772579.93999999,2018-12-31,年度报告,52937089.92999999,2018,12,-1.0609027192981413,False,0.20585915754371015,True,0.0,True,前期平均,60772579.93999999,未知,60772579.93999999
6,688202,11697541.44,11721372.48,2019-03-31,一季度报告,10941420.65,2019,3,未知,未知,未知,未知,未知,未知,未知,未知,未知,未知
7,688202,27532230.21,26932966.140000004,2019-06-30,半年度报告,24967211.42000001,2019,6,未知,未知,未知,未知,未知,未知,未知,未知,未知,未知
8,688202,47927393.22,46696284.12999999,2019-09-30,三季度报告,43669184.13,2019,9,-1.0580488935843737,False,未知,未知,未知,未知,未知,未知,69000000.0,未知
9,688202,68518370.4,66573120.12000001,2019-12-31,年度报告,58411632.24000001,2019,12,-1.041639790217109,False,0.433311080946734,True,0.0,True,前期平均,66573120.12000001,未知,66573120.12000001
10,688202,15465601.25,15258015.35,2020-03-31,一季度报告,15196689.03,2020,3,-1.2222297440307253,False,未知,未知,未知,未知,未知,未知,99208000.0,未知
