,SECURITYCODE_x,NETPROFIT_x,PARENTNETPROFIT_x,REPORTDATE_x,REPORTTIMETYPE_x,KCFJCXSYJLR,Year,Month,managesituationChangeRate,managesituationGreatChange,historyprofitextroplaterate,ifhistoryprofitextroplate,IfprofitdisStableChangeRage,IfprofitdisStable,predicttype,predict,analyst_prediction,adj_prediction
0,688233,10697256.11,10697256.11,2016-12-31,年度报告,10229331.77,2016,12,未知,未知,未知,未知,未知,未知,未知,未知,未知,未知
1,688233,45852756.61,45852756.61,2017-12-31,年度报告,44900176.01,2017,12,0.0,True,未知,未知,未知,未知,未知,未知,未知,未知
2,688233,62678734.49000001,62678734.49000001,2018-09-30,三季度报告,89307834.49,2018,9,未知,未知,未知,未知,未知,未知,未知,未知,未知,未知
3,688233,106575958.78000002,106575958.78000002,2018-12-31,年度报告,132852815.41,2018,12,-0.7667041874715327,True,未知,未知,未知,未知,未知,未知,未知,未知
4,688233,39288905.63,39288905.63,2019-03-31,一季度报告,38875548.21000001,2019,3,未知,未知,未知,未知,未知,未知,未知,未知,未知,未知
5,688233,68557412.46000001,68557412.46000001,2019-06-30,半年度报告,68470688.55,2019,6,未知,未知,未知,未知,未知,未知,未知,未知,未知,未知
6,688233,75162890.62,75162890.62,2019-09-30,三季度报告,74128556.64000002,2019,9,-0.8293319704515304,True,未知,未知,未知,未知,未知,未知,未知,未知
7,688233,76949820.93,76949820.93,2019-12-31,年度报告,76184570.27000001,2019,12,-0.8996278688697339,True,2.7692638305033443,False,0.0,True,比例外推,76949820.93,未知,76949820.93
8,688233,2126447.0700000003,2126447.0700000003,2020-03-31,一季度报告,2148733.39,2020,3,-0.7277283258856707,True,未知,未知,未知,未知,未知,未知,84000000.0,未知
