,SECURITYCODE_x,NETPROFIT_x,PARENTNETPROFIT_x,REPORTDATE_x,REPORTTIMETYPE_x,KCFJCXSYJLR,Year,Month,managesituationChangeRate,managesituationGreatChange,historyprofitextroplaterate,ifhistoryprofitextroplate,IfprofitdisStableChangeRage,IfprofitdisStable,predicttype,predict,analyst_prediction,adj_prediction
0,688208,56721800.0,56876099.99999999,2012-12-31,年度报告,59101799.99999999,2012,12,未知,未知,未知,未知,未知,未知,未知,未知,未知,未知
1,688208,86696900.0,86811300.0,2013-12-31,年度报告,88009600.00000001,2013,12,0.0,True,未知,未知,未知,未知,未知,未知,未知,未知
2,688208,113887800.0,113439800.0,2014-12-31,年度报告,112457700.0,2014,12,-0.345745926324932,True,未知,未知,未知,未知,未知,未知,未知,未知
3,688208,27570600.0,27593800.0,2015-03-31,一季度报告,27551000.0,2015,3,未知,未知,未知,未知,未知,未知,未知,未知,未知,未知
4,688208,-74183187.69999997,-74183187.69999997,2016-12-31,年度报告,-30999198.09,2016,12,未知,未知,未知,未知,未知,未知,未知,未知,未知,未知
5,688208,91364021.4,91364021.4,2017-12-31,年度报告,95873945.89,2017,12,-1.7646179917393874,False,未知,未知,未知,未知,未知,未知,未知,未知
6,688208,267730422.58,267730422.58,2018-09-30,三季度报告,237931823.26,2018,9,未知,未知,未知,未知,未知,未知,未知,未知,未知,未知
7,688208,335781546.83000004,335781546.83000004,2018-12-31,年度报告,303139355.24000007,2018,12,-0.37916699450359354,True,未知,未知,未知,未知,未知,未知,未知,未知
8,688208,43248944.48,43248944.48,2019-03-31,一季度报告,37981649.09,2019,3,未知,未知,未知,未知,未知,未知,未知,未知,未知,未知
9,688208,138085653.63,138085653.63,2019-06-30,半年度报告,132591868.94,2019,6,未知,未知,未知,未知,未知,未知,未知,未知,未知,未知
10,688208,237524547.1,237524547.1,2019-09-30,三季度报告,245456820.68,2019,9,-0.788138383925902,True,未知,未知,未知,未知,未知,未知,未知,未知
11,688208,326977567.67,326977567.67,2019-12-31,年度报告,318418671.5900001,2019,12,-0.8310752912556055,True,38.08792235501347,False,0.0,True,比例外推,326977567.67,未知,326977567.67
12,688208,61655131.45,61655131.45,2020-03-31,一季度报告,64107802.47999999,2020,3,0.31151871293021677,True,未知,未知,未知,未知,未知,未知,391415000.0,未知
