,SECURITYCODE_x,NETPROFIT_x,PARENTNETPROFIT_x,REPORTDATE_x,REPORTTIMETYPE_x,KCFJCXSYJLR,Year,Month,managesituationChangeRate,managesituationGreatChange,historyprofitextroplaterate,ifhistoryprofitextroplate,IfprofitdisStableChangeRage,IfprofitdisStable,predicttype,predict,analyst_prediction,adj_prediction
0,688321,5244319.680000002,5244319.680000002,2016-12-31,年度报告,1662843.91,2016,12,未知,未知,未知,未知,未知,未知,未知,未知,未知,未知
1,688321,24073891.300000004,24073891.300000004,2017-12-31,年度报告,8929654.28,2017,12,0.0,True,未知,未知,未知,未知,未知,未知,未知,未知
2,688321,4922583.66,4922583.66,2018-03-31,一季度报告,779888.4999999999,2018,3,未知,未知,未知,未知,未知,未知,未知,未知,未知,未知
3,688321,17927938.699999996,17927938.699999996,2018-06-30,半年度报告,11354738.7,2018,6,未知,未知,未知,未知,未知,未知,未知,未知,未知,未知
4,688321,15049959.239999998,15049959.239999998,2018-09-30,三季度报告,2269294.13,2018,9,未知,未知,未知,未知,未知,未知,未知,未知,未知,未知
5,688321,31164799.98,31164799.98,2018-12-31,年度报告,17916766.25,2018,12,-0.7821573747821983,True,未知,未知,未知,未知,未知,未知,未知,未知
6,688321,1478694.1,1478694.1,2019-03-31,一季度报告,-807300.4700000002,2019,3,0.0653591776640321,True,未知,未知,未知,未知,未知,未知,未知,未知
7,688321,17510058.119999994,17510058.119999994,2019-06-30,半年度报告,14942558.12,2019,6,-0.7074778217531499,True,未知,未知,未知,未知,未知,未知,43683750.0,未知
8,688321,20830130.97,20830130.97,2019-09-30,三季度报告,16850310.599999998,2019,9,-0.651539276859862,True,未知,未知,未知,未知,未知,未知,40000000.0,未知
9,688321,19421886.44,19421886.44,2019-12-31,年度报告,13786049.470000004,2019,12,-0.8317229796640587,True,1.1259687367186002,True,0.0,True,比例外推,19421886.44,40500000.0,40500000.0
10,688321,5192302.1,5192302.1,2020-03-31,一季度报告,288341.45,2020,3,2.546588628439108,False,未知,未知,未知,未知,未知,未知,,未知
