,SECURITYCODE_x,NETPROFIT_x,PARENTNETPROFIT_x,REPORTDATE_x,REPORTTIMETYPE_x,KCFJCXSYJLR,Year,Month,managesituationChangeRate,managesituationGreatChange,historyprofitextroplaterate,ifhistoryprofitextroplate,IfprofitdisStableChangeRage,IfprofitdisStable,predicttype,predict,analyst_prediction,adj_prediction
0,688357,-3997823.790000002,-3997823.790000002,2013-12-31,年度报告,-4357423.79,2013,12,未知,未知,未知,未知,未知,未知,未知,未知,未知,未知
1,688357,8799757.76,8799757.76,2014-12-31,年度报告,7780020.960000001,2014,12,-0.0,False,未知,未知,未知,未知,未知,未知,未知,未知
2,688357,1371203.2999999998,1371203.2999999998,2015-03-31,一季度报告,241503.3,2015,3,未知,未知,未知,未知,未知,未知,未知,未知,未知,未知
3,688357,1780669.59,1780669.59,2015-06-30,半年度报告,627847.9700000001,2015,6,未知,未知,未知,未知,未知,未知,未知,未知,未知,未知
4,688357,2010488.0300000003,2010488.0300000003,2015-12-31,年度报告,-546488.27,2015,12,-1.4543106638880934,False,未知,未知,未知,未知,未知,未知,未知,未知
5,688357,4429457.75,4429457.75,2016-06-30,半年度报告,1789479.7900000003,2016,6,-3.2451238637708197,False,未知,未知,未知,未知,未知,未知,未知,未知
6,688357,10395675.47,10395675.47,2016-12-31,年度报告,6507137.250000001,2016,12,-2.9884842537460923,False,0.16263403763546497,True,0.0,True,前期平均,10395675.47,未知,10395675.47
7,688357,6511101.3900000015,6511101.3900000015,2017-06-30,半年度报告,4650185.5600000005,2017,6,-1.9025537697023982,False,未知,未知,未知,未知,未知,未知,未知,未知
8,688357,-10188209.15,-10188209.15,2017-12-31,年度报告,9135276.04,2017,12,-1.384566043980209,False,0.9233004821438018,True,0.0,True,未知,未知,未知,未知
9,688357,21113722.06,21113722.06,2018-06-30,半年度报告,20786873.08,2018,6,-1.6140011574908069,False,1.096930073578814,True,1.0272644521001184,False,前期平均,22885382.669999998,未知,22885382.669999998
10,688357,36617914.39000001,36617914.39000001,2018-09-30,三季度报告,35703587.47,2018,9,未知,未知,未知,未知,未知,未知,未知,未知,未知,未知
11,688357,47072478.07000001,47072478.07000001,2018-12-31,年度报告,47749596.63000001,2018,12,-0.6076028935860625,False,2.642443153356797,False,0.0,True,去年同期,47072478.07000001,未知,47072478.07000001
12,688357,16128754.81,16128754.81,2019-03-31,一季度报告,14204726.19,2019,3,未知,未知,未知,未知,未知,未知,未知,未知,未知,未知
13,688357,49538152.49999999,49538152.49999999,2019-06-30,半年度报告,37047529.91,2019,6,-1.189347182777114,False,2.8597153563762,False,0.13145391764758513,False,去年同期,76500876.05000001,未知,76500876.05000001
14,688357,68742543.3,68742543.3,2019-09-30,三季度报告,55205242.16,2019,9,-1.1091767200999236,False,未知,未知,未知,未知,未知,未知,88000000.0,未知
15,688357,86003382.24000001,86003382.24000001,2019-12-31,年度报告,68392419.07,2019,12,-1.084929112592181,False,452.78428720382124,False,0.0,True,去年同期,86003382.24000001,未知,86003382.24000001
16,688357,14695298.36,14695298.36,2020-03-31,一季度报告,15238201.17,2020,3,-1.2478693387738344,False,未知,未知,未知,未知,未知,未知,未知,未知
