,SECURITYCODE_x,NETPROFIT_x,PARENTNETPROFIT_x,REPORTDATE_x,REPORTTIMETYPE_x,KCFJCXSYJLR,Year,Month,managesituationChangeRate,managesituationGreatChange,historyprofitextroplaterate,ifhistoryprofitextroplate,IfprofitdisStableChangeRage,IfprofitdisStable,predicttype,predict,analyst_prediction,adj_prediction
0,688399,8360838.02,8360838.02,2016-12-31,年度报告,21735600.0,2016,12,未知,未知,未知,未知,未知,未知,未知,未知,未知,未知
1,688399,42668448.53999999,42668448.53999999,2017-12-31,年度报告,33158140.75999999,2017,12,0.0,True,未知,未知,未知,未知,未知,未知,未知,未知
2,688399,39337796.64999999,39337796.64999999,2018-09-30,三季度报告,32029526.17,2018,9,未知,未知,未知,未知,未知,未知,未知,未知,未知,未知
3,688399,63824573.31999999,63824573.31999999,2018-12-31,年度报告,55729194.72999998,2018,12,-0.804051042255215,True,未知,未知,未知,未知,未知,未知,未知,未知
4,688399,13437489.22,13437489.22,2019-03-31,一季度报告,11838049.569999995,2019,3,未知,未知,未知,未知,未知,未知,未知,未知,未知,未知
5,688399,30062600.0,30062600.0,2019-06-30,半年度报告,28134180.23,2019,6,未知,未知,未知,未知,未知,未知,未知,未知,未知,未知
6,688399,30062600.0,30062600.0,2019-06-30,半年度报告,28134180.23,2019,6,未知,未知,未知,未知,未知,未知,未知,未知,未知,未知
7,688399,30062583.69,30062583.69,2019-06-30,半年度报告,28134180.23,2019,6,未知,未知,未知,未知,未知,未知,未知,未知,未知,未知
8,688399,30062583.69,30062583.69,2019-06-30,半年度报告,28134180.23,2019,6,未知,未知,未知,未知,未知,未知,未知,未知,未知,未知
9,688399,49772187.03999998,49772187.03999998,2019-09-30,三季度报告,47736771.92999999,2019,9,-0.7874604392719591,True,未知,未知,未知,未知,未知,未知,80000000.0,未知
10,688399,83756179.75999999,83756179.75999999,2019-12-31,年度报告,77592378.75000001,2019,12,-0.8690028372288381,True,1.5014879737718994,True,0.0,True,比例外推,83756179.75999999,未知,83756179.75999999
11,688399,103590955.13,103590955.13,2020-03-31,一季度报告,94533213.87000002,2020,3,-0.3777976016861877,True,未知,未知,未知,未知,未知,未知,未知,未知
