,SECURITYCODE_x,NETPROFIT_x,PARENTNETPROFIT_x,REPORTDATE_x,REPORTTIMETYPE_x,KCFJCXSYJLR,Year,Month,managesituationChangeRate,managesituationGreatChange,historyprofitextroplaterate,ifhistoryprofitextroplate,IfprofitdisStableChangeRage,IfprofitdisStable,predicttype,predict,analyst_prediction,adj_prediction
0,688363,269429042.37,269429042.37,2016-12-31,年度报告,231271310.92999995,2016,12,未知,未知,未知,未知,未知,未知,未知,未知,未知,未知
1,688363,222268850.52,222268850.52,2017-12-31,年度报告,222921513.84,2017,12,0.0,True,未知,未知,未知,未知,未知,未知,未知,未知
2,688363,189027613.56,189027613.56,2018-06-30,半年度报告,156169742.87000003,2018,6,未知,未知,未知,未知,未知,未知,未知,未知,未知,未知
3,688363,318787844.53,318787844.53,2018-09-30,三季度报告,299374344.53000003,2018,9,未知,未知,未知,未知,未知,未知,未知,未知,未知,未知
4,688363,423859977.75,423859977.75,2018-12-31,年度报告,419857658.37,2018,12,0.2121763429273526,True,未知,未知,未知,未知,未知,未知,未知,未知
5,688363,106958056.35,107218043.40999998,2019-03-31,一季度报告,108751729.59000002,2019,3,未知,未知,未知,未知,未知,未知,未知,未知,未知,未知
6,688363,264594295.0000001,265058978.51000005,2019-06-30,半年度报告,264342791.04,2019,6,0.4253422412513263,True,未知,未知,未知,未知,未知,未知,未知,未知
7,688363,415514420.91000015,416248611.28,2019-09-30,三季度报告,412544711.28000015,2019,9,-0.15483276105703267,True,未知,未知,未知,未知,未知,未知,582840833.0,未知
8,688363,584614869.4499999,585608417.9,2019-12-31,年度报告,567499803.7900001,2019,12,-0.36434422565625213,True,0.7240666835431149,True,0.0,True,比例外推,585608417.9,584220714.0,585608417.9
9,688363,107857564.75,108045938.59,2020-03-31,一季度报告,94006575.86,2020,3,1.5190158793494195,False,未知,未知,未知,未知,未知,未知,738524706.0,未知
