,SECURITYCODE_x,NETPROFIT_x,PARENTNETPROFIT_x,REPORTDATE_x,REPORTTIMETYPE_x,KCFJCXSYJLR,Year,Month,managesituationChangeRate,managesituationGreatChange,historyprofitextroplaterate,ifhistoryprofitextroplate,IfprofitdisStableChangeRage,IfprofitdisStable,predicttype,predict,analyst_prediction,adj_prediction
0,688396,-302249732.88,-302697578.52000004,2016-12-31,年度报告,-379676183.47000015,2016,12,未知,未知,未知,未知,未知,未知,未知,未知,未知,未知
1,688396,-102688060.0,70282921.39000002,2017-12-31,年度报告,7175183.620000001,2017,12,-0.0,False,未知,未知,未知,未知,未知,未知,未知,未知
2,688396,537562074.2800001,429441345.91,2018-12-31,年度报告,322189447.99999994,2018,12,1.9433775735952163,False,未知,未知,未知,未知,未知,未知,未知,未知
3,688396,36184852.26,20651960.33,2019-03-31,一季度报告,-46862344.72,2019,3,未知,未知,未知,未知,未知,未知,未知,未知,未知,未知
4,688396,212885369.68,164349402.18,2019-06-30,半年度报告,60867727.31,2019,6,未知,未知,未知,未知,未知,未知,未知,未知,未知,未知
5,688396,354609489.44999987,269707130.43,2019-09-30,三季度报告,131831183.2,2019,9,未知,未知,未知,未知,未知,未知,未知,未知,未知,未知
6,688396,512426548.3800002,400755536.41999984,2019-12-31,年度报告,206311510.92,2019,12,-1.56226015067158,False,-3.6550353349671276,True,0.0,True,前期平均,400755536.41999984,未知,400755536.41999984
7,688396,125609986.32999998,113658557.37,2020-03-31,一季度报告,90049723.05999999,2020,3,-9.352935386007294,False,未知,未知,未知,未知,未知,未知,469569000.0,未知
