,SECURITYCODE_x,NETPROFIT_x,PARENTNETPROFIT_x,REPORTDATE_x,REPORTTIMETYPE_x,KCFJCXSYJLR,Year,Month,managesituationChangeRate,managesituationGreatChange,historyprofitextroplaterate,ifhistoryprofitextroplate,IfprofitdisStableChangeRage,IfprofitdisStable,predicttype,predict,analyst_prediction,adj_prediction
0,688388,-1810491.63,-1810491.63,2013-12-31,年度报告,-4257900.760000002,2013,12,未知,未知,未知,未知,未知,未知,未知,未知,未知,未知
1,688388,11057406.369999995,10798870.9,2014-12-31,年度报告,5632256.94,2014,12,-0.0,False,未知,未知,未知,未知,未知,未知,未知,未知
2,688388,1731547.55,2047061.41,2015-03-31,一季度报告,852811.41,2015,3,未知,未知,未知,未知,未知,未知,未知,未知,未知,未知
3,688388,6380061.74,6876104.789999999,2015-06-30,半年度报告,5336647.69,2015,6,未知,未知,未知,未知,未知,未知,未知,未知,未知,未知
4,688388,10283239.590000002,10555107.670000002,2015-09-30,三季度报告,9006725.569999997,2015,9,未知,未知,未知,未知,未知,未知,未知,未知,未知,未知
5,688388,18378875.06,19222098.94,2015-12-31,年度报告,13224668.600000005,2015,12,-1.1637356509671266,False,未知,未知,未知,未知,未知,未知,未知,未知
6,688388,10117508.28,10101257.89,2016-03-31,一季度报告,9319257.889999997,2016,3,-2.04559163275649,False,未知,未知,未知,未知,未知,未知,未知,未知
7,688388,21730670.08,21692691.539999995,2016-06-30,半年度报告,18085206.54,2016,6,-1.2837733714470292,False,未知,未知,未知,未知,未知,未知,未知,未知
8,688388,34730970.77,34683987.65000001,2016-09-30,三季度报告,33607037.65,2016,9,-1.1760623793848608,False,未知,未知,未知,未知,未知,未知,46300000.0,未知
9,688388,62219771.26000001,62529809.7,2016-12-31,年度报告,56836100.0,2016,12,-1.0985093823256014,False,2.975136697323979,False,0.0,True,去年同期,62529809.7,未知,62529809.7
10,688388,17461066.65,17407929.74,2017-03-31,一季度报告,17407929.74,2017,3,-1.1789463946947223,False,未知,未知,未知,未知,未知,未知,134900000.0,未知
11,688388,37388482.98,36986257.2,2017-06-30,半年度报告,37008732.24999999,2017,6,-1.0833150392203643,False,未知,未知,未知,未知,未知,未知,107200000.0,未知
12,688388,64686743.68000001,64361127.95,2017-09-30,三季度报告,,2017,9,-1.0521290246100428,False,未知,未知,未知,未知,未知,未知,107200000.0,未知
13,688388,85192513.93,85192513.93,2017-12-31,年度报告,81963033.80999999,2017,12,-1.0290983331075654,False,3.227420600523864,False,0.0,True,去年同期,85192513.93,,85192513.93
14,688388,25490372.75000001,25490372.75000001,2018-03-31,一季度报告,25832248.14,2018,3,-1.103687344323836,False,1.9472502958069022,True,0.08246066026965672,True,前期平均,55434722.40000002,105688400.0,105688400.0
15,688388,50597456.43000002,50597456.43000002,2018-06-30,半年度报告,46938495.52999999,2018,6,-1.0484237788136117,False,1.6600860638853334,True,0.07288944262944341,True,前期平均,73916913.61500002,,73916913.61500002
16,688388,106297631.1,106297631.1,2018-09-30,三季度报告,101586259.52,2018,9,-1.0279886036458468,False,1.8740587988845927,True,,False,前期平均,120021133.78999999,未知,120021133.78999999
17,688388,176431125.37999997,176431125.37999997,2018-12-31,年度报告,174384235.85999998,2018,12,-1.0212517690402658,False,1.1139936666370551,True,0.0,True,前期平均,176431125.37999997,,176431125.37999997
18,688388,80053365.60000001,80053365.60000001,2019-03-31,一季度报告,78179091.28999999,2019,3,-1.0710264870489192,False,0.848563445696504,True,0.03755794496904721,True,前期平均,136089338.69,未知,136089338.69
19,688388,180661864.82,180661864.82,2019-06-30,半年度报告,177360164.82,2019,6,-1.0357822657054858,False,0.7117111396588748,True,0.10523091468791856,False,前期平均,222514462.32999998,283623333.0,283623333.0
20,688388,268285574.11,268285574.11,2019-09-30,三季度报告,263216270.32000005,2019,9,-1.0170322857740524,False,1.13840424089532,True,,False,前期平均,,,
21,688388,329724828.89,329730148.1,2019-12-31,年度报告,313093533.32,2019,12,-1.01026174733115,False,1.3937099292992776,True,0.0,True,前期平均,329730148.1,未知,329730148.1
22,688388,23787738.300000004,23720058.300000004,2020-03-31,一季度报告,14205398.4,2020,3,-1.0226160588806024,False,2.7276220177151966,False,0.05527275059113984,True,去年同期,258634500.33,423069167.0,423069167.0
