,SECURITYCODE_x,NETPROFIT_x,PARENTNETPROFIT_x,REPORTDATE_x,REPORTTIMETYPE_x,KCFJCXSYJLR,Year,Month,managesituationChangeRate,managesituationGreatChange,historyprofitextroplaterate,ifhistoryprofitextroplate,IfprofitdisStableChangeRage,IfprofitdisStable,predicttype,predict,analyst_prediction,adj_prediction
0,688377,51812977.92,51812977.92,2014-12-31,年度报告,50897377.92,2014,12,未知,未知,未知,未知,未知,未知,未知,未知,未知,未知
1,688377,27603769.270000003,27603769.270000003,2015-12-31,年度报告,24223169.27,2015,12,0.0,True,未知,未知,未知,未知,未知,未知,未知,未知
2,688377,-34016322.17999999,-34016322.17999999,2016-12-31,年度报告,-30235966.99000001,2016,12,0.877025467544056,False,未知,未知,未知,未知,未知,未知,未知,未知
3,688377,4165601.15,4165601.15,2017-12-31,年度报告,1707179.2299999997,2017,12,-2.523179891283591,False,1.8566536249241712,True,0.0,True,未知,未知,未知,未知
4,688377,51877266.69999999,51877266.69999999,2018-12-31,年度报告,48210461.92,2018,12,11.438295471471147,False,-2.299202114497643,True,0.0,True,前期平均,51877266.69999999,未知,51877266.69999999
5,688377,19289346.790000007,19289346.790000007,2019-03-31,一季度报告,,2019,3,未知,未知,未知,未知,未知,未知,未知,未知,未知,未知
6,688377,42326446.41,42409043.34,2019-06-30,半年度报告,44558113.51,2019,6,未知,未知,未知,未知,未知,未知,未知,未知,未知,未知
7,688377,93942180.16999996,94817641.08,2019-12-31,年度报告,95257885.08,2019,12,-0.001239247633684338,True,-4.475779807654448,True,0.0,True,比例外推,94817641.08,未知,94817641.08
8,688377,27097873.230000004,27634880.88,2020-03-31,一季度报告,23904689.39000001,2020,3,1.686092923937731,False,未知,未知,未知,未知,未知,未知,未知,未知
