,SECURITYCODE_x,NETPROFIT_x,PARENTNETPROFIT_x,REPORTDATE_x,REPORTTIMETYPE_x,KCFJCXSYJLR,Year,Month,managesituationChangeRate,managesituationGreatChange,historyprofitextroplaterate,ifhistoryprofitextroplate,IfprofitdisStableChangeRage,IfprofitdisStable,predicttype,predict,analyst_prediction,adj_prediction
0,688310,23448605.1,23448605.1,2013-12-31,年度报告,22013105.1,2013,12,未知,未知,未知,未知,未知,未知,未知,未知,未知,未知
1,688310,24512297.750000004,24512297.750000004,2014-12-31,年度报告,22466353.14,2014,12,0.0,True,未知,未知,未知,未知,未知,未知,未知,未知
2,688310,3038387.87,3038387.87,2015-05-31,其他报告,,2015,5,未知,未知,未知,未知,未知,未知,未知,未知,未知,未知
3,688310,2373891.8200000003,2373891.8200000003,2015-06-30,半年度报告,2646578.43,2015,6,未知,未知,未知,未知,未知,未知,未知,未知,未知,未知
4,688310,32187895.129999995,32187895.129999995,2015-12-31,年度报告,29405309.95000001,2015,12,-0.043394244833697894,True,未知,未知,未知,未知,未知,未知,未知,未知
5,688310,5932594.239999997,5932594.239999997,2016-06-30,半年度报告,5823437.51,2016,6,8.87770584255183,False,未知,未知,未知,未知,未知,未知,未知,未知
6,688310,23396926.62,23396926.62,2016-12-31,年度报告,30924126.430000003,2016,12,-0.2715085902543139,True,0.3422555964248279,True,0.0,True,比例外推,23396926.62,未知,23396926.62
7,688310,9480270.18,9480270.18,2017-06-30,半年度报告,5560797.040000001,2017,6,2.952504444328896,False,未知,未知,未知,未知,未知,未知,未知,未知
8,688310,55840449.07000001,55840449.07000001,2017-12-31,年度报告,47788786.96,2017,12,0.0022087721536821424,True,0.17471439049538545,True,0.0,True,比例外推,55840449.07000001,,55840449.07000001
9,688310,6834887.79,6865925.97,2018-06-30,半年度报告,4138945.2999999993,2018,6,1.4734110584177467,False,1.2826186937584536,True,0.05675402433246288,True,前期平均,32795636.190000005,未知,32795636.190000005
10,688310,10818125.430000003,10958694.150000002,2018-09-30,三季度报告,6067594.1499999985,2018,9,未知,未知,未知,未知,未知,未知,未知,未知,未知,未知
11,688310,55652506.48,56010130.84,2018-12-31,年度报告,49094225.63,2018,12,-0.5800785006115281,True,1.0091977382296817,True,0.0,True,比例外推,56010130.84,未知,56010130.84
12,688310,3213452.3500000006,3397201.06,2019-03-31,一季度报告,2425827.74,2019,3,未知,未知,未知,未知,未知,未知,未知,未知,未知,未知
13,688310,15357091.92,15643522.590000002,2019-06-30,半年度报告,8448122.590000002,2019,6,2.4307227595319456,False,0.11309311445951188,True,0.05865311295577677,True,前期平均,49307862.010000005,未知,49307862.010000005
14,688310,15880692.24,16234400.09,2019-09-30,三季度报告,8608700.17,2019,9,1.167529416415723,False,未知,未知,未知,未知,未知,未知,69000000.0,未知
15,688310,46293995.89,46752090.63000001,2019-12-31,年度报告,36760612.52,2019,12,-0.5786603949558535,True,0.4047034242458766,True,0.0,True,比例外推,46752090.63000001,未知,46752090.63000001
16,688310,5169429.4,5312253.449999998,2020-03-31,一季度报告,3175969.51,2020,3,6.297013475242599,False,未知,未知,未知,未知,未知,未知,未知,未知
