,SECURITYCODE_x,NETPROFIT_x,PARENTNETPROFIT_x,REPORTDATE_x,REPORTTIMETYPE_x,KCFJCXSYJLR,Year,Month,managesituationChangeRate,managesituationGreatChange,historyprofitextroplaterate,ifhistoryprofitextroplate,IfprofitdisStableChangeRage,IfprofitdisStable,predicttype,predict,analyst_prediction,adj_prediction
0,688528,34184782.05,34377530.76,2016-12-31,年度报告,22988128.0,2016,12,未知,未知,未知,未知,未知,未知,未知,未知,未知,未知
1,688528,9799252.080000002,9799252.080000002,2017-12-31,年度报告,30799763.8,2017,12,0.0,True,未知,未知,未知,未知,未知,未知,未知,未知
2,688528,44369396.55,44369396.55,2018-12-31,年度报告,43418260.41,2018,12,2.4885093036610595,False,未知,未知,未知,未知,未知,未知,未知,未知
3,688528,5296309.12,5296309.12,2019-03-31,一季度报告,5285894.04,2019,3,未知,未知,未知,未知,未知,未知,未知,未知,未知,未知
4,688528,16643824.329999998,16643824.329999998,2019-06-30,半年度报告,16655594.37,2019,6,未知,未知,未知,未知,未知,未知,未知,未知,未知,未知
5,688528,44229460.13,44229460.13,2019-12-31,年度报告,41899479.74999999,2019,12,-0.2295414247638669,True,1.0175228319831244,True,0.0,True,比例外推,44229460.13,未知,44229460.13
6,688528,5719217.16,5719217.16,2020-03-31,一季度报告,5545579.430000002,2020,3,5.454453710209421,False,未知,未知,未知,未知,未知,未知,未知,未知
