,SECURITYCODE_x,NETPROFIT_x,PARENTNETPROFIT_x,REPORTDATE_x,REPORTTIMETYPE_x,KCFJCXSYJLR,Year,Month,managesituationChangeRate,managesituationGreatChange,historyprofitextroplaterate,ifhistoryprofitextroplate,IfprofitdisStableChangeRage,IfprofitdisStable,predicttype,predict,analyst_prediction,adj_prediction
0,688598,20634430.63,20634430.63,2016-12-31,年度报告,19139051.19,2016,12,未知,未知,未知,未知,未知,未知,未知,未知,未知,未知
1,688598,28968740.13,28968740.13,2017-12-31,年度报告,27287979.389999993,2017,12,0.0,True,未知,未知,未知,未知,未知,未知,未知,未知
2,688598,53913947.55999999,53913947.55999999,2018-12-31,年度报告,50011076.85,2018,12,-0.2877001023378644,True,未知,未知,未知,未知,未知,未知,未知,未知
3,688598,26441958.26,26441958.26,2019-03-31,一季度报告,20913358.26,2019,3,未知,未知,未知,未知,未知,未知,未知,未知,未知,未知
4,688598,46727618.79,46727618.79,2019-06-30,半年度报告,35792235.62,2019,6,未知,未知,未知,未知,未知,未知,未知,未知,未知,未知
5,688598,77672465.99,77672465.99,2019-12-31,年度报告,63359333.12999999,2019,12,-0.6172710112344071,True,1.1738105340425617,True,0.0,True,比例外推,77672465.99,未知,77672465.99
6,688598,41318073.74,41318073.74,2020-03-31,一季度报告,31113273.74000001,2020,3,-0.21963303825289385,True,未知,未知,未知,未知,未知,未知,未知,未知
