,SECURITYCODE_x,NETPROFIT_x,PARENTNETPROFIT_x,REPORTDATE_x,REPORTTIMETYPE_x,KCFJCXSYJLR,Year,Month,managesituationChangeRate,managesituationGreatChange,historyprofitextroplaterate,ifhistoryprofitextroplate,IfprofitdisStableChangeRage,IfprofitdisStable,predicttype,predict,analyst_prediction,adj_prediction
0,688566,77853007.9,76939680.66,2016-12-31,年度报告,69025990.86,2016,12,未知,未知,未知,未知,未知,未知,未知,未知,未知,未知
1,688566,77610471.24,77523961.37999998,2017-12-31,年度报告,74997273.65000002,2017,12,0.0,True,未知,未知,未知,未知,未知,未知,未知,未知
2,688566,96917506.65999998,96611525.21,2018-12-31,年度报告,91885561.72,2018,12,0.003125050732522924,True,未知,未知,未知,未知,未知,未知,未知,未知
3,688566,26164341.48,26103672.4,2019-03-31,一季度报告,25090472.399999995,2019,3,未知,未知,未知,未知,未知,未知,未知,未知,未知,未知
4,688566,48520428.38,48545138.89999999,2019-06-30,半年度报告,46774350.24999999,2019,6,未知,未知,未知,未知,未知,未知,未知,未知,未知,未知
5,688566,74138386.59,74126849.97999999,2019-09-30,三季度报告,72070599.59,2019,9,未知,未知,未知,未知,未知,未知,未知,未知,未知,未知
6,688566,112784346.63,112914539.88,2019-12-31,年度报告,109997681.88,2019,12,-0.19670851445736087,True,0.24682024609422992,True,0.0,True,比例外推,112914539.88,未知,112914539.88
7,688566,25284132.28,25102725.05,2020-03-31,一季度报告,24549425.05,2020,3,1.9755385955159916,False,未知,未知,未知,未知,未知,未知,未知,未知
