,SECURITYCODE_x,NETPROFIT_x,PARENTNETPROFIT_x,REPORTDATE_x,REPORTTIMETYPE_x,KCFJCXSYJLR,Year,Month,managesituationChangeRate,managesituationGreatChange,historyprofitextroplaterate,ifhistoryprofitextroplate,IfprofitdisStableChangeRage,IfprofitdisStable,predicttype,predict,analyst_prediction,adj_prediction
0,688518,10254840.86,10254840.86,2013-12-31,年度报告,8887630.620000001,2013,12,未知,未知,未知,未知,未知,未知,未知,未知,未知,未知
1,688518,23036235.81,23036235.81,2014-12-31,年度报告,21390564.99,2014,12,0.0,True,未知,未知,未知,未知,未知,未知,未知,未知
2,688518,10309717.27,10309717.27,2015-03-31,一季度报告,10073868.73,2015,3,未知,未知,未知,未知,未知,未知,未知,未知,未知,未知
3,688518,19449404.98,19449404.98,2015-06-30,半年度报告,19339662.0,2015,6,未知,未知,未知,未知,未知,未知,未知,未知,未知,未知
4,688518,51655741.39,51655741.39,2015-12-31,年度报告,50632170.7,2015,12,-0.5548386921986452,True,未知,未知,未知,未知,未知,未知,未知,未知
5,688518,17554783.07,17554783.07,2016-03-31,一季度报告,,2016,3,-0.005322785151410864,True,未知,未知,未知,未知,未知,未知,78800250.0,未知
6,688518,35449817.32000001,35449817.32000001,2016-06-30,半年度报告,33922822.02,2016,6,-0.4727426946713719,True,未知,未知,未知,未知,未知,未知,65300000.0,未知
7,688518,68553159.33,68553159.33,2016-12-31,年度报告,65797876.95,2016,12,-0.8014772301383477,True,2.1032785092558557,False,0.0,True,比例外推,68553159.33,,68553159.33
8,688518,19711161.76,19711161.76,2017-03-31,一季度报告,17052192.0,2017,3,-0.41583779081127664,True,未知,未知,未知,未知,未知,未知,97840000.0,未知
9,688518,42066869.40000001,42066869.40000001,2017-06-30,半年度报告,34479404.93,2017,6,-0.7107223214316977,True,未知,未知,未知,未知,未知,未知,94858000.0,未知
10,688518,51587139.04000001,51587139.04000001,2017-09-30,三季度报告,,2017,9,未知,未知,未知,未知,未知,未知,未知,未知,94000000.0,未知
11,688518,88320007.63,88320007.63,2017-12-31,年度报告,69671780.08999999,2017,12,-0.8504103828295436,True,0.835623099022742,True,0.0,True,比例外推,88320007.63,,88320007.63
12,688518,22573614.76,22573614.76,2018-03-31,一季度报告,19978841.07,2018,3,-0.4797444724536623,True,0.4147866654335279,True,,False,平均增速,84423477.11754438,104166667.0,104166667.0
13,688518,44332789.53999999,44332947.01,2018-06-30,半年度报告,35625256.72,2018,6,-0.7562252431363481,True,0.5325123977211605,True,0.08217219411956367,True,比例外推,85463745.76730585,90150000.0,85463745.76730585
14,688518,51305964.19000001,51283796.19,2018-09-30,三季度报告,38299153.51,2018,9,-0.8012132277378567,True,未知,未知,未知,未知,未知,未知,,未知
15,688518,83395652.95000002,83378103.44,2018-12-31,年度报告,64586603.44000001,2018,12,-0.883889945945649,True,0.4694420646225172,True,0.0,True,比例外推,83378103.44,133400000.0,133400000.0
16,688518,4251360.550000002,4242310.71,2019-03-31,一季度报告,2093392.550000001,2019,3,-0.5457156078444568,True,0.21148758540680762,True,,False,平均增速,28725829.29089292,未知,28725829.29089292
17,688518,39603365.61,39576354.02000001,2019-06-30,半年度报告,28122954.02,2019,6,-0.7686849628366517,True,0.1438257081377994,True,0.03091116388990245,True,比例外推,65465602.58798748,未知,65465602.58798748
18,688518,51476701.18000001,51464569.37000001,2019-09-30,三季度报告,34683169.370000005,2019,9,-0.8001238058401258,True,未知,未知,未知,未知,未知,未知,未知,未知
19,688518,72062905.53,72073312.46000001,2019-12-31,年度报告,54298841.95,2019,12,-0.8770338681064311,True,0.06322393518407782,True,0.0,True,比例外推,72073312.46000001,未知,72073312.46000001
20,688518,11877430.84,11887553.77,2020-03-31,一季度报告,8008486.53,2020,3,1.4121315375145012,False,0.798917676767705,True,0.15899271131173565,False,前期平均,60501229.0,未知,60501229.0
