,SECURITYCODE_x,NETPROFIT_x,PARENTNETPROFIT_x,REPORTDATE_x,REPORTTIMETYPE_x,KCFJCXSYJLR,Year,Month,managesituationChangeRate,managesituationGreatChange,historyprofitextroplaterate,ifhistoryprofitextroplate,IfprofitdisStableChangeRage,IfprofitdisStable,predicttype,predict,analyst_prediction,adj_prediction
0,688558,53338036.54000002,47625244.77999999,2014-12-31,年度报告,45323744.78000001,2014,12,未知,未知,未知,未知,未知,未知,未知,未知,未知,未知
1,688558,47953367.83000001,44619888.94,2015-12-31,年度报告,38521588.94,2015,12,0.0,True,未知,未知,未知,未知,未知,未知,未知,未知
2,688558,57336598.47000001,57648395.28,2016-12-31,年度报告,63737195.28,2016,12,0.11228968795454063,True,未知,未知,未知,未知,未知,未知,未知,未知
3,688558,42212243.28,42639175.03,2017-06-30,半年度报告,39067175.03,2017,6,未知,未知,未知,未知,未知,未知,未知,未知,未知,未知
4,688558,92096300.0,93084900.0,2017-12-31,年度报告,83115014.71000004,2017,12,-0.0697383876389553,True,0.13211182778272687,True,0.0,True,比例外推,93084900.0,未知,93084900.0
5,688558,92096300.0,93084900.0,2017-12-31,年度报告,83115014.71000004,2017,12,-0.0697383876389553,True,0.13211182778272687,True,0.0,True,比例外推,93084900.0,未知,93084900.0
6,688558,92096296.6,93084914.71,2017-12-31,年度报告,83115014.71000004,2017,12,-0.0697383876389553,True,0.13211182778272687,True,0.0,True,比例外推,93084914.71,未知,93084914.71
7,688558,92096296.6,93084914.71,2017-12-31,年度报告,83115014.71000004,2017,12,-0.0697383876389553,True,0.13211182778272687,True,0.0,True,比例外推,93084914.71,未知,93084914.71
8,688558,95560600.0,95535200.0,2018-12-31,年度报告,86692659.62,2018,12,-0.42084495750643597,True,0.7493841671027295,True,0.0,True,比例外推,95535200.0,未知,95535200.0
9,688558,95560600.0,95535200.0,2018-12-31,年度报告,86692659.62,2018,12,-0.42084495750643597,True,0.7493841671027295,True,0.0,True,比例外推,95535200.0,未知,95535200.0
10,688558,95560592.27,95535159.62,2018-12-31,年度报告,86692659.62,2018,12,-0.42084495750643597,True,0.7493841671027295,True,0.0,True,比例外推,95535159.62,未知,95535159.62
11,688558,95560592.27,95535159.62,2018-12-31,年度报告,86692659.62,2018,12,-0.42084495750643597,True,0.7493841671027295,True,0.0,True,比例外推,95535159.62,未知,95535159.62
12,688558,14259685.33,14263899.849999996,2019-03-31,一季度报告,12700599.85,2019,3,未知,未知,未知,未知,未知,未知,未知,未知,未知,未知
13,688558,41649180.11,41396789.88000001,2019-06-30,半年度报告,37307889.88000001,2019,6,未知,未知,未知,未知,未知,未知,未知,未知,未知,未知
14,688558,61392056.55000001,60897288.62,2019-09-30,三季度报告,56177288.62,2019,9,未知,未知,未知,未知,未知,未知,未知,未知,未知,未知
15,688558,85261800.0,84289799.99999999,2019-12-31,年度报告,77022798.86000001,2019,12,-0.4418407111299006,True,0.2789767310735077,True,0.0,True,比例外推,84289799.99999999,未知,84289799.99999999
16,688558,85261800.0,84289799.99999999,2019-12-31,年度报告,77022798.86000001,2019,12,-0.4418407111299006,True,0.2789767310735077,True,0.0,True,比例外推,84289799.99999999,未知,84289799.99999999
17,688558,85261806.99000001,84289798.86,2019-12-31,年度报告,77022798.86000001,2019,12,-0.4418407111299006,True,0.2789767310735077,True,0.0,True,比例外推,84289798.86,未知,84289798.86
18,688558,85261806.99000001,84289798.86,2019-12-31,年度报告,77022798.86000001,2019,12,-0.4418407111299006,True,0.2789767310735077,True,0.0,True,比例外推,84289798.86,未知,84289798.86
19,688558,13417985.219999995,13368490.79,2020-03-31,一季度报告,10913623.26,2020,3,2.7404778089868285,False,未知,未知,未知,未知,未知,未知,未知,未知
