,SECURITYCODE_x,NETPROFIT_x,PARENTNETPROFIT_x,REPORTDATE_x,REPORTTIMETYPE_x,KCFJCXSYJLR,Year,Month,managesituationChangeRate,managesituationGreatChange,historyprofitextroplaterate,ifhistoryprofitextroplate,IfprofitdisStableChangeRage,IfprofitdisStable,predicttype,predict,analyst_prediction,adj_prediction
0,688600,31641527.44,30589869.61000001,2016-12-31,年度报告,21419526.33,2016,12,未知,未知,未知,未知,未知,未知,未知,未知,未知,未知
1,688600,49746570.8,49244696.36,2017-12-31,年度报告,39250909.95999999,2017,12,0.0,True,未知,未知,未知,未知,未知,未知,未知,未知
2,688600,53632687.41,52036636.12,2018-12-31,年度报告,43832849.42,2018,12,-0.3639455558211059,True,未知,未知,未知,未知,未知,未知,未知,未知
3,688600,-12272085.61,-12053186.96,2019-03-31,一季度报告,-6813389.089999999,2019,3,未知,未知,未知,未知,未知,未知,未知,未知,未知,未知
4,688600,3747161.100000001,4559429.85,2019-06-30,半年度报告,7585060.199999997,2019,6,未知,未知,未知,未知,未知,未知,未知,未知,未知,未知
5,688600,67923900.21,66504890.83000001,2019-12-31,年度报告,53259257.99999999,2019,12,-0.41003278097714096,True,0.31794914907204497,True,0.0,True,比例外推,66504890.83000001,未知,66504890.83000001
6,688600,-14829115.850000005,-14022914.02,2020-03-31,一季度报告,-15223524.199999996,2020,3,-3.57833333677339,False,未知,未知,未知,未知,未知,未知,未知,未知
